{
    "goal": {
        "global_pose": {
            "orientation": {
                "w": 0.5084816262002911,
                "x": -0.4908360881923452,
                "y": 0.5182115481033761,
                "z": -0.48164630358495003
            },
            "position": {
                "x": 0.5540239810943604,
                "y": -0.46912469901144505,
                "z": 0.16403168439865112
            }
        },
        "name": "move_to_storage_B"
    },
    "id": "KPIECE_move_to_storage_B_28",
    "joint_names": [
        "shoulder_pan_joint",
        "shoulder_lift_joint",
        "elbow_joint",
        "wrist_1_joint",
        "wrist_2_joint",
        "wrist_3_joint"
    ],
    "metrics": {
        "cart_traj_len": 1.7991905795151375,
        "distance_elbow_joint": 0.3505323574399388,
        "distance_shoulder_lift_joint": 1.1405148472330315,
        "distance_shoulder_pan_joint": 1.657567571828693,
        "distance_wrist_1_joint": 2.9855298869276776,
        "distance_wrist_2_joint": 2.703604973689158,
        "distance_wrist_3_joint": 3.1376196284852638,
        "smoothness": 0.18085385269799692,
        "time": 0.07328520999999999,
        "traj_len": 3.4605446486938676,
        "weighted_distance": 4.892825705376304
    },
    "planner": "KPIECE",
    "start": {
        "state": {
            "elbow_joint": 1.664937868594044,
            "shoulder_lift_joint": -0.661644460510453,
            "shoulder_pan_joint": -0.9139846352900073,
            "wrist_1_joint": 2.146753192139373,
            "wrist_2_joint": -2.2341966793290973,
            "wrist_3_joint": 0.005466555786416001
        }
    },
    "waypoints": [
        {
            "positions": [
                -0.9139846352900073,
                -0.661644460510453,
                1.664937868594044,
                2.146753192139373,
                -2.2341966793290973,
                0.005466555786416001
            ]
        },
        {
            "positions": [
                -0.8705797976344023,
                -0.708696029283537,
                1.6804368304761959,
                2.0611887117525973,
                -2.1148189586867585,
                -0.07228276802173479
            ]
        },
        {
            "positions": [
                -0.8271749599787974,
                -0.7557475980566211,
                1.6959357923583478,
                1.975624231365821,
                -1.99544123804442,
                -0.15003209182988558
            ]
        },
        {
            "positions": [
                -0.7837701223231924,
                -0.8027991668297051,
                1.7114347542404995,
                1.890059750979045,
                -1.8760635174020814,
                -0.2277814156380364
            ]
        },
        {
            "positions": [
                -0.7403652846675874,
                -0.8498507356027891,
                1.7269337161226515,
                1.804495270592269,
                -1.756685796759743,
                -0.30553073944618714
            ]
        },
        {
            "positions": [
                -0.6969604470119825,
                -0.8969023043758731,
                1.7424326780048034,
                1.7189307902054929,
                -1.6373080761174044,
                -0.38328006325433794
            ]
        },
        {
            "positions": [
                -0.6535556093563775,
                -0.9439538731489572,
                1.7579316398869553,
                1.633366309818717,
                -1.5179303554750656,
                -0.46102938706248875
            ]
        },
        {
            "positions": [
                -0.6101507717007726,
                -0.9910054419220411,
                1.7734306017691073,
                1.547801829431941,
                -1.398552634832727,
                -0.5387787108706396
            ]
        },
        {
            "positions": [
                -0.5667459340451676,
                -1.0380570106951252,
                1.7889295636512592,
                1.4622373490451648,
                -1.2791749141903885,
                -0.6165280346787904
            ]
        },
        {
            "positions": [
                -0.5233410963895626,
                -1.0851085794682092,
                1.804428525533411,
                1.3766728686583887,
                -1.1597971935480498,
                -0.6942773584869412
            ]
        },
        {
            "positions": [
                -0.4799362587339576,
                -1.1321601482412933,
                1.8199274874155629,
                1.2911083882716126,
                -1.0404194729057112,
                -0.772026682295092
            ]
        },
        {
            "positions": [
                -0.4365314210783527,
                -1.1792117170143772,
                1.8354264492977148,
                1.2055439078848367,
                -0.9210417522633725,
                -0.8497760061032428
            ]
        },
        {
            "positions": [
                -0.39312658342274776,
                -1.2262632857874614,
                1.8509254111798668,
                1.1199794274980606,
                -0.801664031621034,
                -0.9275253299113936
            ]
        },
        {
            "positions": [
                -0.34972174576714277,
                -1.2733148545605453,
                1.8664243730620187,
                1.0344149471112845,
                -0.6822863109786956,
                -1.0052746537195443
            ]
        },
        {
            "positions": [
                -0.3063169081115379,
                -1.3203664233336294,
                1.8819233349441706,
                0.9488504667245086,
                -0.5629085903363569,
                -1.083023977527695
            ]
        },
        {
            "positions": [
                -0.2629120704559329,
                -1.3674179921067133,
                1.8974222968263224,
                0.8632859863377325,
                -0.44353086969401834,
                -1.1607733013358459
            ]
        },
        {
            "positions": [
                -0.2195072328003279,
                -1.4144695608797972,
                1.9129212587084743,
                0.7777215059509563,
                -0.3241531490516796,
                -1.2385226251439967
            ]
        },
        {
            "positions": [
                -0.17610239514472292,
                -1.4615211296528814,
                1.9284202205906262,
                0.6921570255641802,
                -0.2047754284093411,
                -1.3162719489521475
            ]
        },
        {
            "positions": [
                -0.24179420455068068,
                -1.4371898312178384,
                1.9346380781222945,
                0.5828046169675742,
                -0.15661944821152682,
                -1.4459777435054832
            ]
        },
        {
            "positions": [
                -0.30748601395663844,
                -1.4128585327827952,
                1.940855935653963,
                0.4734522083709682,
                -0.10846346801371254,
                -1.575683538058819
            ]
        },
        {
            "positions": [
                -0.3731778233625962,
                -1.3885272343477522,
                1.9470737931856312,
                0.3640997997743622,
                -0.06030748781589826,
                -1.7053893326121548
            ]
        },
        {
            "positions": [
                -0.43886963276855395,
                -1.3641959359127092,
                1.9532916507172995,
                0.25474739117775613,
                -0.012151507618083979,
                -1.8350951271654905
            ]
        },
        {
            "positions": [
                -0.5045614421745117,
                -1.339864637477666,
                1.9595095082489677,
                0.14539498258115002,
                0.03600447257973033,
                -1.9648009217188263
            ]
        },
        {
            "positions": [
                -0.5702532515804695,
                -1.315533339042623,
                1.9657273657806362,
                0.036042573984544135,
                0.08416045277754458,
                -2.094506716272162
            ]
        },
        {
            "positions": [
                -0.6359450609864272,
                -1.2912020406075797,
                1.9719452233123045,
                -0.07330983461206197,
                0.1323164329753589,
                -2.224212510825498
            ]
        },
        {
            "positions": [
                -0.701636870392385,
                -1.2668707421725367,
                1.9781630808439727,
                -0.18266224320866797,
                0.18047241317317314,
                -2.3539183053788335
            ]
        },
        {
            "positions": [
                -0.7673286797983427,
                -1.2425394437374937,
                1.9843809383756412,
                -0.2920146518052741,
                0.2286283933709875,
                -2.483624099932169
            ]
        },
        {
            "positions": [
                -0.8330204892043005,
                -1.2182081453024505,
                1.9905987959073095,
                -0.4013670604018802,
                0.27678437356880176,
                -2.613329894485505
            ]
        },
        {
            "positions": [
                -0.8987122986102583,
                -1.1938768468674075,
                1.9968166534389777,
                -0.510719468998486,
                0.32494035376661606,
                -2.743035689038841
            ]
        },
        {
            "positions": [
                -0.964404108016216,
                -1.1695455484323645,
                2.003034510970646,
                -0.620071877595092,
                0.37309633396443026,
                -2.8727414835921765
            ]
        },
        {
            "positions": [
                -1.0300959174221738,
                -1.1452142499973212,
                2.0092523685023145,
                -0.7294242861916982,
                0.42125231416224457,
                -3.002447278145512
            ]
        },
        {
            "positions": [
                -1.0957877268281315,
                -1.1208829515622782,
                2.0154702260339827,
                -0.8387766947883043,
                0.4694082943600589,
                -3.132153072698848
            ]
        }
    ]
}