{
    "goal": {
        "global_pose": {
            "orientation": {
                "w": 0.7031023480610252,
                "x": -0.7110244013736278,
                "y": 0.0077485991402295624,
                "z": 0.005598929693374583
            },
            "position": {
                "x": -0.8841497679147869,
                "y": 0.44412534475326537,
                "z": 0.3711530566215515
            }
        },
        "name": "move_to_auspresseinheit_D"
    },
    "id": "KPIECE_move_to_auspresseinheit_D_88",
    "joint_names": [
        "shoulder_pan_joint",
        "shoulder_lift_joint",
        "elbow_joint",
        "wrist_1_joint",
        "wrist_2_joint",
        "wrist_3_joint"
    ],
    "metrics": {
        "cart_traj_len": 0.34334962243159506,
        "distance_elbow_joint": 0.6501998853279731,
        "distance_shoulder_lift_joint": 0.12856658044767544,
        "distance_shoulder_pan_joint": 0.13364996581261662,
        "distance_wrist_1_joint": 0.5635110297966488,
        "distance_wrist_2_joint": 1.4421548062987566,
        "distance_wrist_3_joint": 0.033828511950625195,
        "smoothness": 0.0,
        "time": 0.153313448,
        "traj_len": 1.7181125631443057,
        "weighted_distance": 2.241703289829176
    },
    "planner": "KPIECE",
    "start": {
        "state": {
            "elbow_joint": -1.8275523626775212,
            "shoulder_lift_joint": -2.126789852344167,
            "shoulder_pan_joint": -0.03513704404078235,
            "wrist_1_joint": -2.347782403156801,
            "wrist_2_joint": -1.6058999987535132,
            "wrist_3_joint": -3.0880379163319196
        }
    },
    "waypoints": [
        {
            "positions": [
                -0.03513704404078235,
                -2.126789852344167,
                -1.8275523626775212,
                -2.347782403156801,
                -1.6058999987535132,
                -3.0880379163319196
            ]
        },
        {
            "positions": [
                -0.05184328976735943,
                -2.142860674900126,
                -1.7462773770115245,
                -2.418221281881382,
                -1.4256306479661687,
                -3.0838093523380916
            ]
        },
        {
            "positions": [
                -0.0685495354939365,
                -2.1589314974560856,
                -1.6650023913455279,
                -2.488660160605963,
                -1.2453612971788242,
                -3.079580788344263
            ]
        },
        {
            "positions": [
                -0.08525578122051358,
                -2.175002320012045,
                -1.5837274056795312,
                -2.559099039330544,
                -1.0650919463914794,
                -3.075352224350435
            ]
        },
        {
            "positions": [
                -0.10196202694709067,
                -2.191073142568005,
                -1.5024524200135345,
                -2.6295379180551253,
                -0.8848225956041349,
                -3.0711236603566068
            ]
        },
        {
            "positions": [
                -0.11866827267366775,
                -2.207143965123964,
                -1.421177434347538,
                -2.6999767967797066,
                -0.7045532448167904,
                -3.066895096362779
            ]
        },
        {
            "positions": [
                -0.1353745184002448,
                -2.2232147876799235,
                -1.3399024486815414,
                -2.7704156755042875,
                -0.5242838940294456,
                -3.062666532368951
            ]
        },
        {
            "positions": [
                -0.1520807641268219,
                -2.239285610235883,
                -1.2586274630155447,
                -2.8408545542288683,
                -0.3440145432421011,
                -3.0584379683751224
            ]
        },
        {
            "positions": [
                -0.16878700985339898,
                -2.2553564327918423,
                -1.177352477349548,
                -2.9112934329534497,
                -0.1637451924547566,
                -3.0542094043812944
            ]
        }
    ]
}