{
    "goal": {
        "global_pose": {
            "orientation": {
                "w": 0.7031023480610252,
                "x": -0.7110244013736278,
                "y": 0.0077485991402295624,
                "z": 0.005598929693374583
            },
            "position": {
                "x": -0.8841497679147869,
                "y": 0.44412534475326537,
                "z": 0.3711530566215515
            }
        },
        "name": "move_to_auspresseinheit_D"
    },
    "id": "KPIECE_move_to_auspresseinheit_D_108",
    "joint_names": [
        "shoulder_pan_joint",
        "shoulder_lift_joint",
        "elbow_joint",
        "wrist_1_joint",
        "wrist_2_joint",
        "wrist_3_joint"
    ],
    "metrics": {
        "cart_traj_len": 0.3431020517221628,
        "distance_elbow_joint": 0.6450149410521102,
        "distance_shoulder_lift_joint": 0.12608098409404667,
        "distance_shoulder_pan_joint": 0.1337430130179237,
        "distance_wrist_1_joint": 0.5412900413896002,
        "distance_wrist_2_joint": 1.4490253623783815,
        "distance_wrist_3_joint": 0.009697107081590772,
        "smoothness": 9.86864913775177e-16,
        "time": 0.21979315300000002,
        "traj_len": 1.7043624758289107,
        "weighted_distance": 2.216880932063068
    },
    "planner": "KPIECE",
    "start": {
        "state": {
            "elbow_joint": -1.8275523626775212,
            "shoulder_lift_joint": -2.126789852344167,
            "shoulder_pan_joint": -0.03513704404078235,
            "wrist_1_joint": -2.347782403156801,
            "wrist_2_joint": -1.6058999987535132,
            "wrist_3_joint": -3.0880379163319196
        }
    },
    "waypoints": [
        {
            "positions": [
                -0.03513704404078235,
                -2.126789852344167,
                -1.8275523626775212,
                -2.347782403156801,
                -1.6058999987535132,
                -3.0880379163319196
            ]
        },
        {
            "positions": [
                -0.051854920668022816,
                -2.1425499753559225,
                -1.7469254950460074,
                -2.415443658330501,
                -1.4247718284562154,
                -3.0868257779467205
            ]
        },
        {
            "positions": [
                -0.06857279729526328,
                -2.1583100983676786,
                -1.6662986274144935,
                -2.483104913504201,
                -1.2436436581589179,
                -3.085613639561522
            ]
        },
        {
            "positions": [
                -0.08529067392250375,
                -2.1740702213794343,
                -1.58567175978298,
                -2.550766168677901,
                -1.06251548786162,
                -3.0844015011763233
            ]
        },
        {
            "positions": [
                -0.1020085505497442,
                -2.18983034439119,
                -1.505044892151466,
                -2.618427423851601,
                -0.8813873175643224,
                -3.083189362791124
            ]
        },
        {
            "positions": [
                -0.11872642717698467,
                -2.205590467402946,
                -1.4244180245199523,
                -2.686088679025301,
                -0.7002591472670248,
                -3.081977224405925
            ]
        },
        {
            "positions": [
                -0.13544430380422515,
                -2.2213505904147017,
                -1.3437911568884386,
                -2.753749934199001,
                -0.519130976969727,
                -3.0807650860207265
            ]
        },
        {
            "positions": [
                -0.1521621804314656,
                -2.237110713426458,
                -1.2631642892569248,
                -2.821411189372701,
                -0.33800280667242943,
                -3.079552947635528
            ]
        },
        {
            "positions": [
                -0.16888005705870607,
                -2.2528708364382135,
                -1.182537421625411,
                -2.889072444546401,
                -0.1568746363751316,
                -3.078340809250329
            ]
        }
    ]
}