{
    "goal": {
        "global_pose": {
            "orientation": {
                "w": -0.4816463035849501,
                "x": 0.5182115481033762,
                "y": 0.4908360881923453,
                "z": -0.5084816262002911
            },
            "position": {
                "x": -0.8240239810943604,
                "y": 0.19912469901144506,
                "z": 0.16403168439865112
            }
        },
        "name": "move_to_storage_D"
    },
    "id": "KPIECE_move_to_storage_D_112",
    "joint_names": [
        "shoulder_pan_joint",
        "shoulder_lift_joint",
        "elbow_joint",
        "wrist_1_joint",
        "wrist_2_joint",
        "wrist_3_joint"
    ],
    "metrics": {
        "cart_traj_len": 3.8181901485368965,
        "distance_elbow_joint": 4.210175681636457,
        "distance_shoulder_lift_joint": 1.2638138366352878,
        "distance_shoulder_pan_joint": 2.8122142185925583,
        "distance_wrist_1_joint": 2.2648677658708243,
        "distance_wrist_2_joint": 0.9138513228732668,
        "distance_wrist_3_joint": 3.1388274319665133,
        "smoothness": 0.1324145795766356,
        "time": 0.136992771,
        "traj_len": 3.8214853470312966,
        "weighted_distance": 4.905112048694916
    },
    "planner": "KPIECE",
    "start": {
        "state": {
            "elbow_joint": -2.384821988534728,
            "shoulder_lift_joint": -2.2788054721415256,
            "shoulder_pan_joint": -0.1854694642142757,
            "wrist_1_joint": 1.4845938289331202,
            "wrist_2_joint": 0.17898776772866878,
            "wrist_3_joint": 0.037105688729662994
        }
    },
    "waypoints": [
        {
            "positions": [
                -0.1854694642142757,
                -2.2788054721415256,
                -2.384821988534728,
                1.4845938289331202,
                0.17898776772866878,
                0.037105688729662994
            ]
        },
        {
            "positions": [
                -0.1642903870317638,
                -2.2533026936921186,
                -2.383646969021548,
                1.484374413837536,
                0.1603362081889374,
                0.036265693074346184
            ]
        },
        {
            "positions": [
                -0.08513074976965694,
                -2.2229611140393617,
                -2.262406430177217,
                1.4092446075474145,
                0.17720267492246516,
                0.09751476068869488
            ]
        },
        {
            "positions": [
                -0.005971112507550086,
                -2.192619534386605,
                -2.141165891332886,
                1.334114801257293,
                0.19406914165599293,
                0.15876382830304359
            ]
        },
        {
            "positions": [
                0.07318852475455678,
                -2.162277954733848,
                -2.019925352488555,
                1.2589849949671712,
                0.21093560838952066,
                0.22001289591739231
            ]
        },
        {
            "positions": [
                0.15234816201666362,
                -2.131936375081091,
                -1.8986848136442243,
                1.1838551886770496,
                0.22780207512304843,
                0.28126196353174104
            ]
        },
        {
            "positions": [
                0.23150779927877047,
                -2.1015947954283343,
                -1.7774442747998933,
                1.108725382386928,
                0.24466854185657616,
                0.3425110311460897
            ]
        },
        {
            "positions": [
                0.31066743654087736,
                -2.0712532157755774,
                -1.6562037359555624,
                1.0335955760968065,
                0.2615350085901039,
                0.40376009876043845
            ]
        },
        {
            "positions": [
                0.3898270738029842,
                -2.0409116361228206,
                -1.5349631971112312,
                0.9584657698066849,
                0.2784014753236317,
                0.4650091663747872
            ]
        },
        {
            "positions": [
                0.46898671106509104,
                -2.0105700564700637,
                -1.4137226582669005,
                0.8833359635165633,
                0.29526794205715945,
                0.5262582339891358
            ]
        },
        {
            "positions": [
                0.5481463483271979,
                -1.9802284768173066,
                -1.2924821194225695,
                0.8082061572264417,
                0.3121344087906872,
                0.5875073016034846
            ]
        },
        {
            "positions": [
                0.6273059855893047,
                -1.9498868971645498,
                -1.1712415805782386,
                0.7330763509363201,
                0.329000875524215,
                0.6487563692178333
            ]
        },
        {
            "positions": [
                0.7064656228514116,
                -1.919545317511793,
                -1.0500010417339076,
                0.6579465446461985,
                0.34586734225774274,
                0.710005436832182
            ]
        },
        {
            "positions": [
                0.7856252601135185,
                -1.889203737859036,
                -0.9287605028895765,
                0.5828167383560768,
                0.3627338089912705,
                0.7712545044465307
            ]
        },
        {
            "positions": [
                0.8647848973756254,
                -1.8588621582062792,
                -0.8075199640452455,
                0.5076869320659552,
                0.37960027572479826,
                0.8325035720608795
            ]
        },
        {
            "positions": [
                0.9439445346377322,
                -1.8285205785535221,
                -0.6862794252009146,
                0.4325571257758336,
                0.39646674245832597,
                0.8937526396752282
            ]
        },
        {
            "positions": [
                1.023104171899839,
                -1.7981789989007653,
                -0.5650388863565836,
                0.35742731948571205,
                0.41333320919185373,
                0.9550017072895769
            ]
        },
        {
            "positions": [
                1.1022638091619459,
                -1.7678374192480084,
                -0.44379834751225267,
                0.2822975131955905,
                0.4301996759253815,
                1.0162507749039256
            ]
        },
        {
            "positions": [
                1.1814234464240527,
                -1.7374958395952516,
                -0.3225578086679217,
                0.20716770690546893,
                0.44706614265890926,
                1.0774998425182742
            ]
        },
        {
            "positions": [
                1.2605830836861596,
                -1.7071542599424947,
                -0.201317269823591,
                0.13203790061534737,
                0.46393260939243697,
                1.138748910132623
            ]
        },
        {
            "positions": [
                1.3397427209482664,
                -1.6768126802897378,
                -0.08007673097925982,
                0.05690809432522581,
                0.48079907612596473,
                1.1999979777469716
            ]
        },
        {
            "positions": [
                1.4189023582103732,
                -1.646471100636981,
                0.0411638078650709,
                -0.01822171196489597,
                0.4976655428594925,
                1.2612470453613203
            ]
        },
        {
            "positions": [
                1.49806199547248,
                -1.6161295209842241,
                0.16240434670940207,
                -0.09335151825501753,
                0.5145320095930203,
                1.322496112975669
            ]
        },
        {
            "positions": [
                1.577221632734587,
                -1.5857879413314673,
                0.2836448855537328,
                -0.1684813245451391,
                0.531398476326548,
                1.3837451805900176
            ]
        },
        {
            "positions": [
                1.656381269996694,
                -1.5554463616787104,
                0.4048854243980644,
                -0.24361113083526087,
                0.5482649430600758,
                1.4449942482043665
            ]
        },
        {
            "positions": [
                1.7355409072588008,
                -1.5251047820259536,
                0.5261259632423951,
                -0.31874093712538243,
                0.5651314097936035,
                1.5062433158187152
            ]
        },
        {
            "positions": [
                1.8147005445209077,
                -1.4947632023731967,
                0.6473665020867263,
                -0.393870743415504,
                0.5819978765271313,
                1.5674923834330639
            ]
        },
        {
            "positions": [
                1.8938601817830145,
                -1.4644216227204399,
                0.768607040931057,
                -0.46900054970562577,
                0.5988643432606591,
                1.6287414510474127
            ]
        },
        {
            "positions": [
                1.9730198190451214,
                -1.4340800430676828,
                0.8898475797753882,
                -0.5441303559957471,
                0.6157308099941868,
                1.6899905186617614
            ]
        },
        {
            "positions": [
                2.052179456307228,
                -1.403738463414926,
                1.011088118619719,
                -0.6192601622858689,
                0.6325972767277146,
                1.75123958627611
            ]
        },
        {
            "positions": [
                2.131339093569335,
                -1.373396883762169,
                1.13232865746405,
                -0.6943899685759902,
                0.6494637434612422,
                1.8124886538904588
            ]
        },
        {
            "positions": [
                2.210498730831442,
                -1.3430553041094122,
                1.2535691963083806,
                -0.7695197748661118,
                0.6663302101947701,
                1.8737377215048074
            ]
        },
        {
            "positions": [
                2.262529483774797,
                -1.3020473455340154,
                1.3250422584075492,
                -0.7708640451250608,
                0.714980930360733,
                2.0363021474898995
            ]
        },
        {
            "positions": [
                2.314560236718152,
                -1.2610393869586187,
                1.3965153205067178,
                -0.7722083153840098,
                0.7636316505266958,
                2.1988665734749913
            ]
        },
        {
            "positions": [
                2.3665909896615074,
                -1.2200314283832219,
                1.4679883826058864,
                -0.7735525856429588,
                0.8122823706926586,
                2.361430999460083
            ]
        },
        {
            "positions": [
                2.4186217426048624,
                -1.179023469807825,
                1.539461444705055,
                -0.7748968559019078,
                0.8609330908586215,
                2.523995425445175
            ]
        },
        {
            "positions": [
                2.4706524955482174,
                -1.1380155112324282,
                1.6109345068042236,
                -0.7762411261608569,
                0.9095838110245843,
                2.6865598514302667
            ]
        },
        {
            "positions": [
                2.522683248491573,
                -1.0970075526570313,
                1.6824075689033922,
                -0.777585396419806,
                0.9582345311905471,
                2.849124277415359
            ]
        },
        {
            "positions": [
                2.574714001434928,
                -1.0559995940816347,
                1.7538806310025608,
                -0.778929666678755,
                1.0068852513565099,
                3.0116887034004507
            ]
        },
        {
            "positions": [
                2.626744754378283,
                -1.0149916355062378,
                1.8253536931017293,
                -0.780273936937704,
                1.0555359715224728,
                3.1742531293855425
            ]
        }
    ]
}