{
    "goal": {
        "global_pose": {
            "orientation": {
                "w": -0.4816463035849501,
                "x": 0.5182115481033762,
                "y": 0.4908360881923453,
                "z": -0.5084816262002911
            },
            "position": {
                "x": -0.8240239810943604,
                "y": -0.300875300988555,
                "z": 0.16403168439865112
            }
        },
        "name": "move_to_storage_C"
    },
    "id": "KPIECE_move_to_storage_C_2",
    "joint_names": [
        "shoulder_pan_joint",
        "shoulder_lift_joint",
        "elbow_joint",
        "wrist_1_joint",
        "wrist_2_joint",
        "wrist_3_joint"
    ],
    "metrics": {
        "cart_traj_len": 0.5773567317431403,
        "distance_elbow_joint": 0.2615581414336481,
        "distance_shoulder_lift_joint": 0.19022097251711412,
        "distance_shoulder_pan_joint": 0.4948191195465994,
        "distance_wrist_1_joint": 0.08996878000561448,
        "distance_wrist_2_joint": 1.0712314921020085,
        "distance_wrist_3_joint": 0.07381939864827203,
        "smoothness": 0.0,
        "time": 0.040522203,
        "traj_len": 1.4770300959199363,
        "weighted_distance": 1.8682764714188913
    },
    "planner": "KPIECE",
    "start": {
        "state": {
            "elbow_joint": 2.010868314990456,
            "shoulder_lift_joint": -1.1634956873337592,
            "shoulder_pan_joint": -2.4736205022346125,
            "wrist_1_joint": -0.8367026794202681,
            "wrist_2_joint": 0.6746043897044499,
            "wrist_3_joint": -3.1496632123970403
        }
    },
    "waypoints": [
        {
            "positions": [
                -2.4736205022346125,
                -1.1634956873337592,
                2.010868314990456,
                -0.8367026794202681,
                0.6746043897044499,
                -3.1496632123970403
            ]
        },
        {
            "positions": [
                -2.556090355492379,
                -1.1317921919142402,
                1.967275291418181,
                -0.8217078827526657,
                0.8531429717214514,
                -3.137359979288995
            ]
        },
        {
            "positions": [
                -2.6385602087501456,
                -1.1000886964947212,
                1.9236822678459065,
                -0.8067130860850633,
                1.0316815537384527,
                -3.1250567461809498
            ]
        },
        {
            "positions": [
                -2.7210300620079124,
                -1.0683852010752022,
                1.8800892442736319,
                -0.7917182894174608,
                1.210220135755454,
                -3.1127535130729043
            ]
        },
        {
            "positions": [
                -2.8034999152656788,
                -1.0366817056556832,
                1.836496220701357,
                -0.7767234927498584,
                1.3887587177724554,
                -3.100450279964859
            ]
        },
        {
            "positions": [
                -2.885969768523445,
                -1.004978210236164,
                1.7929031971290823,
                -0.761728696082256,
                1.5672972997894572,
                -3.0881470468568137
            ]
        },
        {
            "positions": [
                -2.968439621781212,
                -0.9732747148166451,
                1.7493101735568077,
                -0.7467338994146536,
                1.7458358818064583,
                -3.0758438137487683
            ]
        }
    ]
}