{
    "goal": {
        "global_pose": {
            "orientation": {
                "w": 0.7047431493862688,
                "x": -0.7094548369677653,
                "y": 0.0024358444001904,
                "z": -0.0022348060817251984
            },
            "position": {
                "x": -0.39052492380142206,
                "y": 0.3671506643295288,
                "z": 0.19426114857196808
            }
        },
        "name": "move_to_magneteinheit_D"
    },
    "id": "KPIECE_move_to_magneteinheit_D_101",
    "joint_names": [
        "shoulder_pan_joint",
        "shoulder_lift_joint",
        "elbow_joint",
        "wrist_1_joint",
        "wrist_2_joint",
        "wrist_3_joint"
    ],
    "metrics": {
        "cart_traj_len": 4.725453607534917,
        "distance_elbow_joint": 3.4418497348136494,
        "distance_shoulder_lift_joint": 1.6295925119063825,
        "distance_shoulder_pan_joint": 2.9284945441495767,
        "distance_wrist_1_joint": 1.7500804299031567,
        "distance_wrist_2_joint": 1.142001412275729,
        "distance_wrist_3_joint": 3.46403599420019,
        "smoothness": 0.2785414889628693,
        "time": 0.43928379300000003,
        "traj_len": 3.7889384565137347,
        "weighted_distance": 4.916930796526216
    },
    "planner": "KPIECE",
    "start": {
        "state": {
            "elbow_joint": 0.749534889911806,
            "shoulder_lift_joint": -0.6476975780787326,
            "shoulder_pan_joint": -2.711696901376241,
            "wrist_1_joint": -0.07506478083263063,
            "wrist_2_joint": 0.43296659715538205,
            "wrist_3_joint": -3.14703540197715
        }
    },
    "waypoints": [
        {
            "positions": [
                -2.711696901376241,
                -0.6476975780787326,
                0.749534889911806,
                -0.07506478083263063,
                0.43296659715538205,
                -3.14703540197715
            ]
        },
        {
            "positions": [
                -2.704669069435521,
                -0.7510937263289817,
                0.7995237181305236,
                -0.0993928803887939,
                0.5306558177111445,
                -3.043231150003666
            ]
        },
        {
            "positions": [
                -2.6976412374948002,
                -0.8544898745792308,
                0.8495125463492411,
                -0.12372097994495718,
                0.6283450382669068,
                -2.939426898030182
            ]
        },
        {
            "positions": [
                -2.69061340555408,
                -0.9578860228294799,
                0.8995013745679588,
                -0.14804907950112045,
                0.7260342588226691,
                -2.835622646056698
            ]
        },
        {
            "positions": [
                -2.6349848412689996,
                -0.9953354163666458,
                0.8881007258060358,
                -0.13774106234071332,
                0.7697659524586518,
                -2.7124087816312805
            ]
        },
        {
            "positions": [
                -2.529775579364803,
                -1.0081430444914448,
                0.8481657817480974,
                -0.10137965663716905,
                0.781157189214476,
                -2.562194318025827
            ]
        },
        {
            "positions": [
                -2.4245663174606062,
                -1.0209506726162436,
                0.808230837690159,
                -0.0650182509336248,
                0.7925484259703001,
                -2.411979854420373
            ]
        },
        {
            "positions": [
                -2.31935705555641,
                -1.0337583007410425,
                0.7682958936322206,
                -0.028656845230080566,
                0.8039396627261243,
                -2.2617653908149196
            ]
        },
        {
            "positions": [
                -2.214147793652213,
                -1.0465659288658413,
                0.7283609495742821,
                0.007704560473463712,
                0.8153308994819484,
                -2.1115509272094655
            ]
        },
        {
            "positions": [
                -2.1089385317480165,
                -1.0593735569906402,
                0.6884260055163437,
                0.04406596617700795,
                0.8267221362377726,
                -1.9613364636040118
            ]
        },
        {
            "positions": [
                -1.9927486398199847,
                -1.067516427678442,
                0.6416696389045194,
                0.08674271521621961,
                0.8289630613054142,
                -1.808273944943682
            ]
        },
        {
            "positions": [
                -1.8765587478919532,
                -1.0756592983662436,
                0.5949132722926952,
                0.12941946425543127,
                0.8312039863730558,
                -1.6552114262833522
            ]
        },
        {
            "positions": [
                -1.7603688559639215,
                -1.0838021690540454,
                0.5481569056808709,
                0.17209621329464295,
                0.8334449114406974,
                -1.5021489076230223
            ]
        },
        {
            "positions": [
                -1.64417896403589,
                -1.091945039741847,
                0.5014005390690468,
                0.2147729623338546,
                0.8356858365083389,
                -1.3490863889626925
            ]
        },
        {
            "positions": [
                -1.5279890721078582,
                -1.1000879104296488,
                0.45464417245722244,
                0.25744971137306627,
                0.8379267615759806,
                -1.1960238703023627
            ]
        },
        {
            "positions": [
                -1.4117991801798264,
                -1.1082307811174505,
                0.40788780584539824,
                0.300126460412278,
                0.8401676866436222,
                -1.0429613516420329
            ]
        },
        {
            "positions": [
                -1.2956092882517947,
                -1.1163736518052523,
                0.361131439233574,
                0.3428032094514897,
                0.8424086117112638,
                -0.889898832981703
            ]
        },
        {
            "positions": [
                -1.1794193963237634,
                -1.124516522493054,
                0.3143750726217498,
                0.38547995849070127,
                0.8446495367789054,
                -0.7368363143213732
            ]
        },
        {
            "positions": [
                -1.0632295043957316,
                -1.1326593931808557,
                0.26761870600992554,
                0.42815670752991297,
                0.8468904618465469,
                -0.5837737956610434
            ]
        },
        {
            "positions": [
                -0.9470396124676999,
                -1.1408022638686575,
                0.22086233939810124,
                0.4708334565691247,
                0.8491313869141885,
                -0.43071127700071354
            ]
        },
        {
            "positions": [
                -0.8308497205396683,
                -1.1489451345564592,
                0.17410597278627704,
                0.5135102056083363,
                0.8513723119818302,
                -0.2776487583403837
            ]
        },
        {
            "positions": [
                -0.7146598286116366,
                -1.157088005244261,
                0.12734960617445276,
                0.556186954647548,
                0.8536132370494718,
                -0.12458623968005378
            ]
        },
        {
            "positions": [
                -0.6689846680648969,
                -1.219653322695236,
                -0.018365191441136214,
                0.6147914580275956,
                0.8097903419473362,
                -0.10503079397785424
            ]
        },
        {
            "positions": [
                -0.6233095075181571,
                -1.2822186401462108,
                -0.1640799890567252,
                0.6733959614076431,
                0.7659674468452007,
                -0.0854753482756547
            ]
        },
        {
            "positions": [
                -0.5776343469714174,
                -1.3447839575971856,
                -0.3097947866723142,
                0.7320004647876908,
                0.722144551743065,
                -0.06591990257345516
            ]
        },
        {
            "positions": [
                -0.5319591864246775,
                -1.4073492750481607,
                -0.4555095842879031,
                0.7906049681677383,
                0.6783216566409295,
                -0.04636445687125562
            ]
        },
        {
            "positions": [
                -0.48628402587793784,
                -1.4699145924991357,
                -0.6012243819034921,
                0.8492094715477859,
                0.6344987615387939,
                -0.026809011169056082
            ]
        },
        {
            "positions": [
                -0.44060886533119814,
                -1.5324799099501105,
                -0.7469391795190811,
                0.9078139749278336,
                0.5906758664366583,
                -0.007253565466856543
            ]
        },
        {
            "positions": [
                -0.3949337047844584,
                -1.5950452274010853,
                -0.89265397713467,
                0.9664184783078811,
                0.5468529713345227,
                0.01230188023534301
            ]
        },
        {
            "positions": [
                -0.3492585442377186,
                -1.6576105448520604,
                -1.038368774750259,
                1.0250229816879286,
                0.5030300762323872,
                0.031857325937542535
            ]
        },
        {
            "positions": [
                -0.30358338369097887,
                -1.7201758623030354,
                -1.184083572365848,
                1.0836274850679763,
                0.4592071811302516,
                0.05141277163974206
            ]
        },
        {
            "positions": [
                -0.2579082231442391,
                -1.7827411797540103,
                -1.329798369981437,
                1.1422319884480239,
                0.415384286028116,
                0.07096821734194161
            ]
        },
        {
            "positions": [
                -0.2122330625974994,
                -1.845306497204985,
                -1.4755131675970259,
                1.2008364918280714,
                0.3715613909259804,
                0.09052366304414117
            ]
        },
        {
            "positions": [
                -0.1665579020507597,
                -1.9078718146559601,
                -1.621227965212615,
                1.2594409952081191,
                0.32773849582384484,
                0.11007910874634069
            ]
        },
        {
            "positions": [
                -0.1208827415040199,
                -1.9704371321069352,
                -1.766942762828204,
                1.3180454985881667,
                0.2839156007217093,
                0.12963455444854022
            ]
        },
        {
            "positions": [
                -0.0752075809572802,
                -2.0330024495579098,
                -1.9126575604437928,
                1.3766500019682142,
                0.24009270561957363,
                0.1491900001507398
            ]
        },
        {
            "positions": [
                -0.029532420410540383,
                -2.095567767008885,
                -2.058372358059382,
                1.435254505348262,
                0.19626981051743808,
                0.16874544585293932
            ]
        },
        {
            "positions": [
                0.016142740136199263,
                -2.15813308445986,
                -2.204087155674971,
                1.4938590087283095,
                0.15244691541530253,
                0.18830089155513885
            ]
        },
        {
            "positions": [
                -0.061915264955074656,
                -2.20471497350463,
                -2.2766284202884077,
                1.4837724762709663,
                0.16167393487252218,
                0.1346960999796763
            ]
        },
        {
            "positions": [
                -0.13997327004634857,
                -2.2512968625494003,
                -2.3491696849018444,
                1.4736859438136234,
                0.17090095432974187,
                0.08109130840421375
            ]
        },
        {
            "positions": [
                -0.18451216250093885,
                -2.277290089985115,
                -2.3923818755895376,
                1.4586709657230728,
                0.17263536616277236,
                0.05960119088723946
            ]
        }
    ]
}