{
    "goal": {
        "global_pose": {
            "orientation": {
                "w": 0.5084816217422485,
                "x": -0.49083608388900757,
                "y": 0.5182115435600281,
                "z": -0.4816462993621826
            },
            "position": {
                "x": 0.5540239810943604,
                "y": 0.030875300988554955,
                "z": 0.16403168439865112
            }
        },
        "name": "move_to_storage_A"
    },
    "id": "KPIECE_move_to_storage_A_72",
    "joint_names": [
        "shoulder_pan_joint",
        "shoulder_lift_joint",
        "elbow_joint",
        "wrist_1_joint",
        "wrist_2_joint",
        "wrist_3_joint"
    ],
    "metrics": {
        "cart_traj_len": 0.3529259741284766,
        "distance_elbow_joint": 0.4502288023422121,
        "distance_shoulder_lift_joint": 0.23262420430154718,
        "distance_shoulder_pan_joint": 0.46284904064809956,
        "distance_wrist_1_joint": 0.24487294085552824,
        "distance_wrist_2_joint": 1.0920150893937641,
        "distance_wrist_3_joint": 0.10483171520659695,
        "smoothness": 8.881784197001252e-16,
        "time": 0.07169959399999999,
        "traj_len": 1.6085464844845947,
        "weighted_distance": 2.0332174633841396
    },
    "planner": "KPIECE",
    "start": {
        "state": {
            "elbow_joint": 1.971548259319323,
            "shoulder_lift_joint": -1.1394851275133948,
            "shoulder_pan_joint": 0.1228115487234821,
            "wrist_1_joint": -0.7804723859257726,
            "wrist_2_joint": 0.12958671773740124,
            "wrist_3_joint": -3.192489227718131
        }
    },
    "waypoints": [
        {
            "positions": [
                0.1228115487234821,
                -1.1394851275133948,
                1.971548259319323,
                -0.7804723859257726,
                0.12958671773740124,
                -3.192489227718131
            ]
        },
        {
            "positions": [
                0.056690257202325026,
                -1.1727171566993302,
                2.0358666596539248,
                -0.8154542346194195,
                0.2855888733650818,
                -3.177513268402903
            ]
        },
        {
            "positions": [
                -0.009431034318832049,
                -1.2059491858852653,
                2.1001850599885263,
                -0.8504360833130664,
                0.44159102899276237,
                -3.162537309087675
            ]
        },
        {
            "positions": [
                -0.07555232583998914,
                -1.2391812150712007,
                2.1645034603231283,
                -0.8854179320067133,
                0.597593184620443,
                -3.1475613497724466
            ]
        },
        {
            "positions": [
                -0.1416736173611462,
                -1.272413244257136,
                2.22882186065773,
                -0.9203997807003602,
                0.7535953402481236,
                -3.1325853904572187
            ]
        },
        {
            "positions": [
                -0.2077949088823033,
                -1.3056452734430715,
                2.2931402609923315,
                -0.9553816293940071,
                0.9095974958758042,
                -3.1176094311419904
            ]
        },
        {
            "positions": [
                -0.2739162004034604,
                -1.3388773026290066,
                2.3574586613269335,
                -0.990363478087654,
                1.0655996515034847,
                -3.1026334718267625
            ]
        },
        {
            "positions": [
                -0.34003749192461746,
                -1.372109331814942,
                2.421777061661535,
                -1.0253453267813009,
                1.2216018071311654,
                -3.087657512511534
            ]
        }
    ]
}{
    "goal": {
        "global_pose": {
            "orientation": {
                "w": 0.5084816217422485,
                "x": -0.49083608388900757,
                "y": 0.5182115435600281,
                "z": -0.4816462993621826
            },
            "position": {
                "x": 0.5540239810943604,
                "y": 0.030875300988554955,
                "z": 0.16403168439865112
            }
        },
        "name": "move_to_storage_A"
    },
    "id": "KPIECE_move_to_storage_A_72",
    "joint_names": [
        "shoulder_pan_joint",
        "shoulder_lift_joint",
        "elbow_joint",
        "wrist_1_joint",
        "wrist_2_joint",
        "wrist_3_joint"
    ],
    "metrics": {
        "cart_traj_len": 0.352338176719594,
        "distance_elbow_joint": 0.4515013049758756,
        "distance_shoulder_lift_joint": 0.23516131199327983,
        "distance_shoulder_pan_joint": 0.4585082048811481,
        "distance_wrist_1_joint": 0.24700306326575205,
        "distance_wrist_2_joint": 1.107667247947104,
        "distance_wrist_3_joint": 0.1033923892908084,
        "smoothness": 4.440892098500626e-16,
        "time": 0.096967352,
        "traj_len": 1.6134539108242194,
        "weighted_distance": 2.040756872375649
    },
    "planner": "KPIECE",
    "start": {
        "state": {
            "elbow_joint": 1.97154746011099,
            "shoulder_lift_joint": -1.13948474672311,
            "shoulder_pan_joint": 0.12281154466712228,
            "wrist_1_joint": -0.7804688027058302,
            "wrist_2_joint": 0.12958655903071145,
            "wrist_3_joint": 3.0906928834467795
        }
    },
    "waypoints": [
        {
            "positions": [
                0.12281154466712228,
                -1.13948474672311,
                1.97154746011099,
                -0.7804688027058302,
                0.12958655903071145,
                3.0906928834467795
            ]
        },
        {
            "positions": [
                0.05731037254124399,
                -1.173079219865007,
                2.036047646536115,
                -0.8157549546009376,
                0.28782473730886915,
                3.105463224774038
            ]
        },
        {
            "positions": [
                -0.008190799584634298,
                -1.2066736930069042,
                2.10054783296124,
                -0.851041106496045,
                0.4460629155870268,
                3.1202335661012963
            ]
        },
        {
            "positions": [
                -0.0736919717105126,
                -1.2402681661488013,
                2.165048019386365,
                -0.8863272583911525,
                0.6043010938651845,
                3.1350039074285547
            ]
        },
        {
            "positions": [
                -0.13919314383639086,
                -1.2738626392906984,
                2.2295482058114904,
                -0.9216134102862599,
                0.7625392721433423,
                3.1497742487558127
            ]
        },
        {
            "positions": [
                -0.20469431596226917,
                -1.3074571124325955,
                2.2940483922366153,
                -0.9568995621813674,
                0.9207774504215,
                3.164544590083071
            ]
        },
        {
            "positions": [
                -0.2701954880881475,
                -1.3410515855744927,
                2.3585485786617406,
                -0.9921857140764748,
                1.0790156286996575,
                3.1793149314103295
            ]
        },
        {
            "positions": [
                -0.3356966602140258,
                -1.3746460587163898,
                2.4230487650868655,
                -1.0274718659715822,
                1.2372538069778154,
                3.194085272737588
            ]
        }
    ]
}{
    "goal": {
        "global_pose": {
            "orientation": {
                "w": 0.5084816217422485,
                "x": -0.49083608388900757,
                "y": 0.5182115435600281,
                "z": -0.4816462993621826
            },
            "position": {
                "x": 0.5540239810943604,
                "y": 0.030875300988554955,
                "z": 0.16403168439865112
            }
        },
        "name": "move_to_storage_A"
    },
    "id": "KPIECE_move_to_storage_A_72",
    "joint_names": [
        "shoulder_pan_joint",
        "shoulder_lift_joint",
        "elbow_joint",
        "wrist_1_joint",
        "wrist_2_joint",
        "wrist_3_joint"
    ],
    "metrics": {
        "cart_traj_len": 0.35252430491953957,
        "distance_elbow_joint": 0.4503237446345705,
        "distance_shoulder_lift_joint": 0.2324728355235448,
        "distance_shoulder_pan_joint": 0.45643569295548686,
        "distance_wrist_1_joint": 0.2504815193714991,
        "distance_wrist_2_joint": 1.1161424038331695,
        "distance_wrist_3_joint": 0.0910856573161829,
        "smoothness": 4.440892098500626e-16,
        "time": 0.160245844,
        "traj_len": 1.6115029797162814,
        "weighted_distance": 2.0361083201714707
    },
    "planner": "KPIECE",
    "start": {
        "state": {
            "elbow_joint": 1.9715472970024885,
            "shoulder_lift_joint": -1.1394870060712896,
            "shoulder_pan_joint": 0.12281152778156021,
            "wrist_1_joint": -0.780463741449964,
            "wrist_2_joint": 0.12958659822042276,
            "wrist_3_joint": 3.090690232415272
        }
    },
    "waypoints": [
        {
            "positions": [
                0.12281152778156021,
                -1.1394870060712896,
                1.9715472970024885,
                -0.780463741449964,
                0.12958659822042276,
                3.090690232415272
            ]
        },
        {
            "positions": [
                0.057606428787919245,
                -1.1726974111460817,
                2.035879260521713,
                -0.8162468156458924,
                0.28903551305373265,
                3.1037024691747264
            ]
        },
        {
            "positions": [
                -0.007598670205721719,
                -1.2059078162208738,
                2.100211224040937,
                -0.8520298898418208,
                0.44848442788704257,
                3.1167147059341813
            ]
        },
        {
            "positions": [
                -0.07280376919936268,
                -1.239118221295666,
                2.1645431875601617,
                -0.8878129640377493,
                0.6079333427203525,
                3.129726942693636
            ]
        },
        {
            "positions": [
                -0.13800886819300365,
                -1.272328626370458,
                2.228875151079386,
                -0.9235960382336778,
                0.7673822575536624,
                3.142739179453091
            ]
        },
        {
            "positions": [
                -0.20321396718664467,
                -1.3055390314452502,
                2.2932071145986104,
                -0.9593791124296063,
                0.9268311723869724,
                3.1557514162125453
            ]
        },
        {
            "positions": [
                -0.26841906618028555,
                -1.3387494365200423,
                2.3575390781178345,
                -0.9951621866255347,
                1.0862800872202822,
                3.1687636529720002
            ]
        },
        {
            "positions": [
                -0.3336241651739266,
                -1.3719598415948344,
                2.421871041637059,
                -1.030945260821463,
                1.2457290020535923,
                3.1817758897314548
            ]
        }
    ]
}