{
    "goal": {
        "global_pose": {
            "orientation": {
                "w": -0.4816463035849501,
                "x": 0.5182115481033762,
                "y": 0.4908360881923453,
                "z": -0.5084816262002911
            },
            "position": {
                "x": -0.8240239810943604,
                "y": -0.300875300988555,
                "z": 0.16403168439865112
            }
        },
        "name": "move_to_storage_C"
    },
    "id": "KPIECE_move_to_storage_C_124",
    "joint_names": [
        "shoulder_pan_joint",
        "shoulder_lift_joint",
        "elbow_joint",
        "wrist_1_joint",
        "wrist_2_joint",
        "wrist_3_joint"
    ],
    "metrics": {
        "cart_traj_len": 0.5772732505230553,
        "distance_elbow_joint": 0.25813707905528216,
        "distance_shoulder_lift_joint": 0.19042490024778946,
        "distance_shoulder_pan_joint": 0.49519306862034007,
        "distance_wrist_1_joint": 0.0735073816518349,
        "distance_wrist_2_joint": 1.0653603992608818,
        "distance_wrist_3_joint": 0.057108610531791726,
        "smoothness": 0.0,
        "time": 0.012660972,
        "traj_len": 1.4627820888183996,
        "weighted_distance": 1.8419599456405724
    },
    "planner": "KPIECE",
    "start": {
        "state": {
            "elbow_joint": 2.010868314990456,
            "shoulder_lift_joint": -1.1634956873337592,
            "shoulder_pan_joint": -2.4736205022346125,
            "wrist_1_joint": -0.8367026794202681,
            "wrist_2_joint": 0.6746043897044499,
            "wrist_3_joint": -3.1496632123970403
        }
    },
    "waypoints": [
        {
            "positions": [
                -2.4736205022346125,
                -1.1634956873337592,
                2.010868314990456,
                -0.8367026794202681,
                0.6746043897044499,
                -3.1496632123970403
            ]
        },
        {
            "positions": [
                -2.5561526803380024,
                -1.1317582039591276,
                1.967845468481242,
                -0.8244514491449623,
                0.8521644562479302,
                -3.1401451106417415
            ]
        },
        {
            "positions": [
                -2.6386848584413927,
                -1.100020720584496,
                1.9248226219720284,
                -0.8122002188696564,
                1.0297245227914105,
                -3.130627008886443
            ]
        },
        {
            "positions": [
                -2.7212170365447825,
                -1.0682832372098645,
                1.8817997754628148,
                -0.7999489885943507,
                1.2072845893348907,
                -3.1211089071311444
            ]
        },
        {
            "positions": [
                -2.8037492146481724,
                -1.036545753835233,
                1.8387769289536011,
                -0.7876977583190449,
                1.384844655878371,
                -3.1115908053758456
            ]
        },
        {
            "positions": [
                -2.8862813927515627,
                -1.0048082704606012,
                1.7957540824443874,
                -0.775446528043739,
                1.5624047224218516,
                -3.1020727036205473
            ]
        },
        {
            "positions": [
                -2.9688135708549526,
                -0.9730707870859697,
                1.7527312359351737,
                -0.7631952977684332,
                1.7399647889653316,
                -3.0925546018652486
            ]
        }
    ]
}