{
    "goal": {
        "global_pose": {
            "orientation": {
                "w": -0.00223480608172531,
                "x": 0.0024358444001904467,
                "y": 0.7094548369677653,
                "z": -0.704743149386269
            },
            "position": {
                "x": -0.37947507619857795,
                "y": -0.6371506643295288,
                "z": 0.19426114857196808
            }
        },
        "name": "move_to_magneteinheit_C"
    },
    "id": "KPIECE_move_to_magneteinheit_C_33",
    "joint_names": [
        "shoulder_pan_joint",
        "shoulder_lift_joint",
        "elbow_joint",
        "wrist_1_joint",
        "wrist_2_joint",
        "wrist_3_joint"
    ],
    "metrics": {
        "cart_traj_len": 2.0498827901355314,
        "distance_elbow_joint": 1.8034148909029835,
        "distance_shoulder_lift_joint": 0.49770273828043154,
        "distance_shoulder_pan_joint": 1.647515035220467,
        "distance_wrist_1_joint": 1.2776731970909398,
        "distance_wrist_2_joint": 1.591602363427358,
        "distance_wrist_3_joint": 3.5643756083473486,
        "smoothness": 0.8274256210587523,
        "time": 1.033376596,
        "traj_len": 3.22215515350666,
        "weighted_distance": 4.514455738013446
    },
    "planner": "KPIECE",
    "start": {
        "state": {
            "elbow_joint": 1.9565354010623817,
            "shoulder_lift_joint": -1.4165861575791021,
            "shoulder_pan_joint": -1.6717766225146293,
            "wrist_1_joint": -0.5286633292919765,
            "wrist_2_joint": 1.472756589071564,
            "wrist_3_joint": -3.1238370188695823
        }
    },
    "waypoints": [
        {
            "positions": [
                -1.6717766225146293,
                -1.4165861575791021,
                1.9565354010623817,
                -0.5286633292919765,
                1.472756589071564,
                -3.1238370188695823
            ]
        },
        {
            "positions": [
                -1.5585557295085417,
                -1.4249586776296095,
                1.952475563851437,
                -0.5315454789055936,
                1.4981078806253172,
                -2.9938193064827745
            ]
        },
        {
            "positions": [
                -1.5438524548583994,
                -1.4351833802575726,
                1.8733452783082698,
                -0.5070005005125244,
                1.3988681972955466,
                -2.8446175626225236
            ]
        },
        {
            "positions": [
                -1.529149180208257,
                -1.4454080828855358,
                1.7942149927651028,
                -0.4824555221194552,
                1.299628513965776,
                -2.695415818762273
            ]
        },
        {
            "positions": [
                -1.5144459055581148,
                -1.4556327855134987,
                1.7150847072219355,
                -0.45791054372638607,
                1.2003888306360053,
                -2.5462140749020223
            ]
        },
        {
            "positions": [
                -1.4997426309079724,
                -1.4658574881414619,
                1.6359544216787683,
                -0.4333655653333169,
                1.1011491473062347,
                -2.397012331041772
            ]
        },
        {
            "positions": [
                -1.4850393562578301,
                -1.476082190769425,
                1.5568241361356012,
                -0.4088205869402477,
                1.001909463976464,
                -2.247810587181521
            ]
        },
        {
            "positions": [
                -1.4703360816076878,
                -1.4863068933973882,
                1.477693850592434,
                -0.38427560854717857,
                0.9026697806466935,
                -2.09860884332127
            ]
        },
        {
            "positions": [
                -1.4556328069575453,
                -1.4965315960253514,
                1.3985635650492667,
                -0.3597306301541094,
                0.8034300973169228,
                -1.9494070994610195
            ]
        },
        {
            "positions": [
                -1.440929532307403,
                -1.5067562986533145,
                1.3194332795060995,
                -0.3351856517610402,
                0.7041904139871522,
                -1.8002053556007689
            ]
        },
        {
            "positions": [
                -1.4262262576572606,
                -1.5169810012812774,
                1.2403029939629322,
                -0.310640673367971,
                0.6049507306573816,
                -1.651003611740518
            ]
        },
        {
            "positions": [
                -1.4115229830071183,
                -1.5272057039092406,
                1.1611727084197652,
                -0.2860956949749019,
                0.505711047327611,
                -1.5018018678802674
            ]
        },
        {
            "positions": [
                -1.396819708356976,
                -1.5374304065372038,
                1.082042422876598,
                -0.2615507165818327,
                0.40647136399784034,
                -1.3526001240200167
            ]
        },
        {
            "positions": [
                -1.5302775025290711,
                -1.538115524806345,
                1.1575987999116681,
                -0.23357464502311034,
                0.3907709815041185,
                -1.4381158337915179
            ]
        },
        {
            "positions": [
                -1.6637352967011663,
                -1.5388006430754864,
                1.2331551769467384,
                -0.205598573464388,
                0.3750705990103966,
                -1.5236315435630188
            ]
        },
        {
            "positions": [
                -1.7971930908732614,
                -1.5394857613446276,
                1.3087115539818086,
                -0.17762250190566564,
                0.3593702165166747,
                -1.60914725333452
            ]
        },
        {
            "positions": [
                -1.9346132256807584,
                -1.5389695788407551,
                1.3942564142179277,
                -0.1557892270120524,
                0.3495197890832854,
                -1.708337154741258
            ]
        },
        {
            "positions": [
                -2.0720333604882555,
                -1.5384533963368827,
                1.479801274454047,
                -0.13395595211843914,
                0.33966936164989614,
                -1.8075270561479961
            ]
        },
        {
            "positions": [
                -2.2094534952957523,
                -1.5379372138330103,
                1.565346134690166,
                -0.11212267722482586,
                0.3298189342165069,
                -1.906716957554734
            ]
        },
        {
            "positions": [
                -2.346873630103249,
                -1.537421031329138,
                1.650890994926285,
                -0.0902894023312126,
                0.31996850678311756,
                -2.005906858961472
            ]
        },
        {
            "positions": [
                -2.4842937649107464,
                -1.5369048488252657,
                1.7364358551624044,
                -0.06845612743759932,
                0.31011807934972824,
                -2.1050967603682103
            ]
        },
        {
            "positions": [
                -2.621713899718243,
                -1.5363886663213933,
                1.8219807153985235,
                -0.046622852543986064,
                0.300267651916339,
                -2.2042866617749484
            ]
        },
        {
            "positions": [
                -2.6032559085055498,
                -1.4899254113849343,
                1.8456036679229326,
                -0.1453564051834505,
                0.3463190073119173,
                -2.321968183742805
            ]
        },
        {
            "positions": [
                -2.584797917292857,
                -1.4434621564484753,
                1.869226620447342,
                -0.24408995782291493,
                0.3923703627074956,
                -2.439649705710661
            ]
        },
        {
            "positions": [
                -2.5663399260801634,
                -1.3969989015120163,
                1.8928495729717514,
                -0.34282351046237935,
                0.43842171810307384,
                -2.557331227678518
            ]
        },
        {
            "positions": [
                -2.54788193486747,
                -1.3505356465755574,
                1.9164725254961605,
                -0.4415570631018438,
                0.48447307349865215,
                -2.675012749646374
            ]
        },
        {
            "positions": [
                -2.5294239436547765,
                -1.3040723916390984,
                1.9400954780205697,
                -0.5402906157413082,
                0.5305244288942305,
                -2.7926942716142307
            ]
        },
        {
            "positions": [
                -2.510965952442083,
                -1.2576091367026394,
                1.963718430544979,
                -0.6390241683807726,
                0.5765757842898087,
                -2.9103757935820873
            ]
        },
        {
            "positions": [
                -2.49250796122939,
                -1.2111458817661804,
                1.9873413830693885,
                -0.7377577210202371,
                0.6226271396853871,
                -3.028057315549944
            ]
        },
        {
            "positions": [
                -2.4740499700166967,
                -1.1646826268297215,
                2.0109643355937976,
                -0.8364912736597014,
                0.6686784950809653,
                -3.1457388375178
            ]
        }
    ]
}