{
    "goal": {
        "global_pose": {
            "orientation": {
                "w": 0.7047431468963623,
                "x": -0.7094548344612122,
                "y": 0.0024358443915843964,
                "z": -0.0022348060738295317
            },
            "position": {
                "x": 0.6094750761985779,
                "y": 0.3671506643295288,
                "z": 0.19426114857196808
            }
        },
        "name": "move_to_magneteinheit_A"
    },
    "id": "KPIECE_move_to_magneteinheit_A_140",
    "joint_names": [
        "shoulder_pan_joint",
        "shoulder_lift_joint",
        "elbow_joint",
        "wrist_1_joint",
        "wrist_2_joint",
        "wrist_3_joint"
    ],
    "metrics": {
        "cart_traj_len": 3.7140956429003573,
        "distance_elbow_joint": 3.894360192792778,
        "distance_shoulder_lift_joint": 0.5174029547017049,
        "distance_shoulder_pan_joint": 3.1530755159568717,
        "distance_wrist_1_joint": 1.0309910159310653,
        "distance_wrist_2_joint": 2.404074491050141,
        "distance_wrist_3_joint": 2.6663313592942726,
        "smoothness": 0.6826663841832403,
        "time": 0.112596106,
        "traj_len": 3.6967871902135276,
        "weighted_distance": 4.736450543951302
    },
    "planner": "KPIECE",
    "start": {
        "state": {
            "elbow_joint": -1.9196185241190666,
            "shoulder_lift_joint": -1.2443396400964142,
            "shoulder_pan_joint": 2.6996025414629847,
            "wrist_1_joint": -1.5485510000780065,
            "wrist_2_joint": -1.5709468930060704,
            "wrist_3_joint": 0.4420197071253992
        }
    },
    "waypoints": [
        {
            "positions": [
                2.6996025414629847,
                -1.2443396400964142,
                -1.9196185241190666,
                -1.5485510000780065,
                -1.5709468930060704,
                0.4420197071253992
            ]
        },
        {
            "positions": [
                2.5783956211361643,
                -1.2338005711147535,
                -1.8256143044337036,
                -1.521903077068517,
                -1.4789874074685572,
                0.4696225746794828
            ]
        },
        {
            "positions": [
                2.4571887008093434,
                -1.2232615021330928,
                -1.7316100847483409,
                -1.495255154059027,
                -1.3870279219310437,
                0.4972254422335665
            ]
        },
        {
            "positions": [
                2.335981780482523,
                -1.2127224331514321,
                -1.637605865062978,
                -1.4686072310495375,
                -1.2950684363935305,
                0.5248283097876502
            ]
        },
        {
            "positions": [
                2.214774860155702,
                -1.2021833641697715,
                -1.543601645377615,
                -1.441959308040048,
                -1.2031089508560173,
                0.5524311773417339
            ]
        },
        {
            "positions": [
                2.0935679398288816,
                -1.1916442951881108,
                -1.4495974256922521,
                -1.415311385030558,
                -1.111149465318504,
                0.5800340448958174
            ]
        },
        {
            "positions": [
                1.972361019502061,
                -1.18110522620645,
                -1.3555932060068892,
                -1.3886634620210685,
                -1.019189979780991,
                0.6076369124499011
            ]
        },
        {
            "positions": [
                1.8511540991752402,
                -1.1705661572247894,
                -1.2615889863215264,
                -1.362015539011579,
                -0.9272304942434775,
                0.6352397800039848
            ]
        },
        {
            "positions": [
                1.7299471788484198,
                -1.1600270882431287,
                -1.1675847666361632,
                -1.335367616002089,
                -0.8352710087059642,
                0.6628426475580685
            ]
        },
        {
            "positions": [
                1.608740258521599,
                -1.149488019261468,
                -1.0735805469508004,
                -1.3087196929925995,
                -0.7433115231684508,
                0.6904455151121521
            ]
        },
        {
            "positions": [
                1.4875333381947784,
                -1.1389489502798074,
                -0.9795763272654375,
                -1.28207176998311,
                -0.6513520376309376,
                0.7180483826662358
            ]
        },
        {
            "positions": [
                1.410807301833849,
                -1.1368191402181187,
                -0.8487418701368192,
                -1.2565838805522913,
                -0.6022928835509277,
                0.8132308532085507
            ]
        },
        {
            "positions": [
                1.3340812654729197,
                -1.1346893301564303,
                -0.7179074130082008,
                -1.2310959911214727,
                -0.5532337294709178,
                0.9084133237508656
            ]
        },
        {
            "positions": [
                1.2573552291119903,
                -1.1325595200947416,
                -0.5870729558795825,
                -1.2056081016906541,
                -0.5041745753909079,
                1.0035957942931804
            ]
        },
        {
            "positions": [
                1.1806291927510608,
                -1.130429710033053,
                -0.4562384987509641,
                -1.1801202122598355,
                -0.45511542131089794,
                1.0987782648354953
            ]
        },
        {
            "positions": [
                1.1039031563901314,
                -1.1282998999713645,
                -0.3254040416223458,
                -1.1546323228290172,
                -0.40605626723088806,
                1.1939607353778101
            ]
        },
        {
            "positions": [
                1.0271771200292021,
                -1.1261700899096758,
                -0.19456958449372752,
                -1.1291444333981986,
                -0.3569971131508781,
                1.289143205920125
            ]
        },
        {
            "positions": [
                0.9504510836682727,
                -1.1240402798479874,
                -0.06373512736510911,
                -1.10365654396738,
                -0.3079379590708682,
                1.3843256764624399
            ]
        },
        {
            "positions": [
                0.8737250473073433,
                -1.1219104697862987,
                0.0670993297635093,
                -1.0781686545365614,
                -0.25887880499085825,
                1.4795081470047546
            ]
        },
        {
            "positions": [
                0.7969990109464139,
                -1.11978065972461,
                0.19793378689212748,
                -1.0526807651057428,
                -0.2098196509108483,
                1.5746906175470696
            ]
        },
        {
            "positions": [
                0.7202729745854846,
                -1.1176508496629216,
                0.3287682440207459,
                -1.0271928756749242,
                -0.16076049683083843,
                1.6698730880893846
            ]
        },
        {
            "positions": [
                0.643546938224555,
                -1.115521039601233,
                0.4596027011493643,
                -1.0017049862441056,
                -0.11170134275082844,
                1.7650555586316994
            ]
        },
        {
            "positions": [
                0.5668209018636258,
                -1.1133912295395443,
                0.5904371582779825,
                -0.976217096813287,
                -0.06264218867081861,
                1.8602380291740142
            ]
        },
        {
            "positions": [
                0.4900948655026963,
                -1.1112614194778558,
                0.7212716154066011,
                -0.9507292073824685,
                -0.013583034590808563,
                1.9554204997163291
            ]
        },
        {
            "positions": [
                0.413368829141767,
                -1.1091316094161672,
                0.8521060725352193,
                -0.92524131795165,
                0.03547611948920126,
                2.0506029702586437
            ]
        },
        {
            "positions": [
                0.33664279278083753,
                -1.1070017993544787,
                0.9829405296638377,
                -0.8997534285208314,
                0.08453527356921131,
                2.145785440800959
            ]
        },
        {
            "positions": [
                0.2599167564199083,
                -1.10487198929279,
                1.113774986792456,
                -0.8742655390900129,
                0.13359442764922114,
                2.2409679113432737
            ]
        },
        {
            "positions": [
                0.18319072005897863,
                -1.1027421792311014,
                1.2446094439210742,
                -0.8487776496591943,
                0.18265358172923107,
                2.336150381885589
            ]
        },
        {
            "positions": [
                0.1064646836980494,
                -1.100612369169413,
                1.3754439010496924,
                -0.8232897602283757,
                0.231712735809241,
                2.4313328524279036
            ]
        },
        {
            "positions": [
                0.02973864733711995,
                -1.0984825591077243,
                1.506278358178311,
                -0.7978018707975572,
                0.28077188988925095,
                2.5265153229702184
            ]
        },
        {
            "positions": [
                -0.0093473625017777,
                -1.140008750750496,
                1.5822371802360173,
                -0.8251092293877166,
                0.21120222033258337,
                2.6423785513742954
            ]
        },
        {
            "positions": [
                -0.04843337234067535,
                -1.1815349423932675,
                1.6581960022937239,
                -0.8524165879778761,
                0.1416325507759158,
                2.758241779778373
            ]
        },
        {
            "positions": [
                -0.087519382179573,
                -1.2230611340360389,
                1.7341548243514302,
                -0.8797239465680355,
                0.07206288121924825,
                2.87410500818245
            ]
        },
        {
            "positions": [
                -0.12660539201847065,
                -1.2645873256788105,
                1.8101136464091367,
                -0.9070313051581951,
                0.002493211662580652,
                2.9899682365865274
            ]
        },
        {
            "positions": [
                -0.1656914018573683,
                -1.306113517321582,
                1.886072468466843,
                -0.9343386637483545,
                -0.06707645789408688,
                3.1058314649906045
            ]
        },
        {
            "positions": [
                -0.06976421097852939,
                -1.2514752121551964,
                1.9156288685357992,
                -0.8864369658484149,
                0.0010926622297406235,
                3.104991597847582
            ]
        },
        {
            "positions": [
                0.026162979900309524,
                -1.1968369069888105,
                1.945185268604755,
                -0.8385352679484754,
                0.06926178235356813,
                3.1041517307045594
            ]
        },
        {
            "positions": [
                0.12209017077914845,
                -1.1421986018224248,
                1.9747416686737111,
                -0.7906335700485358,
                0.13743090247739567,
                3.103311863561537
            ]
        }
    ]
}