{
    "goal": {
        "global_pose": {
            "orientation": {
                "w": 0.7031023480610252,
                "x": -0.7110244013736278,
                "y": 0.0077485991402295624,
                "z": 0.005598929693374583
            },
            "position": {
                "x": -0.8841497679147869,
                "y": 0.44412534475326537,
                "z": 0.3711530566215515
            }
        },
        "name": "move_to_auspresseinheit_D"
    },
    "id": "KPIECE_move_to_auspresseinheit_D_56",
    "joint_names": [
        "shoulder_pan_joint",
        "shoulder_lift_joint",
        "elbow_joint",
        "wrist_1_joint",
        "wrist_2_joint",
        "wrist_3_joint"
    ],
    "metrics": {
        "cart_traj_len": 0.34394119674866186,
        "distance_elbow_joint": 0.6590586525302156,
        "distance_shoulder_lift_joint": 0.1324835712960124,
        "distance_shoulder_pan_joint": 0.13376971126624893,
        "distance_wrist_1_joint": 0.6085720377988135,
        "distance_wrist_2_joint": 1.4307005175369834,
        "distance_wrist_3_joint": 0.07461813412416607,
        "smoothness": 0.0,
        "time": 0.035691764,
        "traj_len": 1.743330899328191,
        "weighted_distance": 2.2864189135275645
    },
    "planner": "KPIECE",
    "start": {
        "state": {
            "elbow_joint": -1.8275523626775212,
            "shoulder_lift_joint": -2.126789852344167,
            "shoulder_pan_joint": -0.03513704404078235,
            "wrist_1_joint": -2.347782403156801,
            "wrist_2_joint": -1.6058999987535132,
            "wrist_3_joint": -3.0880379163319196
        }
    },
    "waypoints": [
        {
            "positions": [
                -0.03513704404078235,
                -2.126789852344167,
                -1.8275523626775212,
                -2.347782403156801,
                -1.6058999987535132,
                -3.0880379163319196
            ]
        },
        {
            "positions": [
                -0.051858257949063465,
                -2.1433502987561686,
                -1.7451700311112441,
                -2.423853907881653,
                -1.4270624340613902,
                -3.078710649566399
            ]
        },
        {
            "positions": [
                -0.06857947185734459,
                -2.15991074516817,
                -1.6627876995449673,
                -2.4999254126065042,
                -1.2482248693692672,
                -3.0693833828008783
            ]
        },
        {
            "positions": [
                -0.08530068576562569,
                -2.1764711915801715,
                -1.5804053679786905,
                -2.5759969173313557,
                -1.0693873046771445,
                -3.060056116035357
            ]
        },
        {
            "positions": [
                -0.10202189967390682,
                -2.1930316379921733,
                -1.4980230364124134,
                -2.6520684220562076,
                -0.8905497399850215,
                -3.0507288492698366
            ]
        },
        {
            "positions": [
                -0.11874311358218792,
                -2.2095920844041745,
                -1.4156407048461364,
                -2.7281399267810595,
                -0.7117121752928985,
                -3.041401582504316
            ]
        },
        {
            "positions": [
                -0.13546432749046905,
                -2.2261525308161763,
                -1.3332583732798595,
                -2.804211431505911,
                -0.5328746106007758,
                -3.032074315738795
            ]
        },
        {
            "positions": [
                -0.15218554139875015,
                -2.2427129772281775,
                -1.2508760417135827,
                -2.8802829362307625,
                -0.3540370459086528,
                -3.022747048973274
            ]
        },
        {
            "positions": [
                -0.16890675530703128,
                -2.2592734236401792,
                -1.1684937101473056,
                -2.9563544409556144,
                -0.17519948121652987,
                -3.0134197822077535
            ]
        }
    ]
}