{
    "goal": {
        "global_pose": {
            "orientation": {
                "w": 0.005598929693374612,
                "x": 0.007748599140229565,
                "y": 0.7110244013736278,
                "z": -0.7031023480610252
            },
            "position": {
                "x": 0.1141497679147869,
                "y": -0.7141253447532654,
                "z": 0.3711530566215515
            }
        },
        "name": "move_to_auspresseinheit_B"
    },
    "id": "KPIECE_move_to_auspresseinheit_B_82",
    "joint_names": [
        "shoulder_pan_joint",
        "shoulder_lift_joint",
        "elbow_joint",
        "wrist_1_joint",
        "wrist_2_joint",
        "wrist_3_joint"
    ],
    "metrics": {
        "cart_traj_len": 0.564031809889473,
        "distance_elbow_joint": 0.064189507289248,
        "distance_shoulder_lift_joint": 0.2936374803579842,
        "distance_shoulder_pan_joint": 0.5769388312060593,
        "distance_wrist_1_joint": 0.3318671303983405,
        "distance_wrist_2_joint": 0.9888116368559376,
        "distance_wrist_3_joint": 0.0028110000029255566,
        "smoothness": 2.5376526478085547e-16,
        "time": 0.011005766,
        "traj_len": 1.502749342408938,
        "weighted_distance": 1.8932924637706199
    },
    "planner": "KPIECE",
    "start": {
        "state": {
            "elbow_joint": 2.0193083361928714,
            "shoulder_lift_joint": -1.1220246554650708,
            "shoulder_pan_joint": -1.0952077554168747,
            "wrist_1_joint": -0.8559753972642168,
            "wrist_2_joint": 0.4759566250798843,
            "wrist_3_joint": -3.1240929996934557
        }
    },
    "waypoints": [
        {
            "positions": [
                -1.0952077554168747,
                -1.1220246554650708,
                2.0193083361928714,
                -0.8559753972642168,
                0.4759566250798843,
                -3.1240929996934557
            ]
        },
        {
            "positions": [
                -1.1913642272845513,
                -1.170964235524735,
                2.0086100849779966,
                -0.8006642088644934,
                0.6407585645558739,
                -3.1236244996929683
            ]
        },
        {
            "positions": [
                -1.2875206991522277,
                -1.2199038155843989,
                1.997911833763122,
                -0.7453530204647699,
                0.8055605040318634,
                -3.1231559996924805
            ]
        },
        {
            "positions": [
                -1.3836771710199043,
                -1.2688433956440628,
                1.9872135825482475,
                -0.6900418320650465,
                0.9703624435078531,
                -3.1226874996919927
            ]
        },
        {
            "positions": [
                -1.4798336428875807,
                -1.317782975703727,
                1.9765153313333728,
                -0.6347306436653232,
                1.1351643829838427,
                -3.1222189996915053
            ]
        },
        {
            "positions": [
                -1.5759901147552573,
                -1.366722555763391,
                1.965817080118498,
                -0.5794194552655997,
                1.2999663224598323,
                -3.121750499691018
            ]
        },
        {
            "positions": [
                -1.672146586622934,
                -1.415662135823055,
                1.9551188289036234,
                -0.5241082668658763,
                1.464768261935822,
                -3.12128199969053
            ]
        }
    ]
}