{
    "goal": {
        "global_pose": {
            "orientation": {
                "w": 0.005598929693374612,
                "x": 0.007748599140229565,
                "y": 0.7110244013736278,
                "z": -0.7031023480610252
            },
            "position": {
                "x": -0.8858502320852131,
                "y": -0.7141253447532654,
                "z": 0.3711530566215515
            }
        },
        "name": "move_to_auspresseinheit_C"
    },
    "id": "KPIECE_move_to_auspresseinheit_C_24",
    "joint_names": [
        "shoulder_pan_joint",
        "shoulder_lift_joint",
        "elbow_joint",
        "wrist_1_joint",
        "wrist_2_joint",
        "wrist_3_joint"
    ],
    "metrics": {
        "cart_traj_len": 0.493155167170636,
        "distance_elbow_joint": 1.004768902343433,
        "distance_shoulder_lift_joint": 0.32718006406058875,
        "distance_shoulder_pan_joint": 0.2563719891496046,
        "distance_wrist_1_joint": 0.691410766352506,
        "distance_wrist_2_joint": 1.3029779887308262,
        "distance_wrist_3_joint": 0.06091327659809709,
        "smoothness": 1.1304089041936764e-15,
        "time": 1.7162020690000002,
        "traj_len": 1.9088276473362007,
        "weighted_distance": 2.3999663113290945
    },
    "planner": "KPIECE",
    "start": {
        "state": {
            "elbow_joint": 1.7527959577737207,
            "shoulder_lift_joint": -0.9740617694225068,
            "shoulder_pan_joint": -2.967991417825858,
            "wrist_1_joint": -0.759517768980727,
            "wrist_2_joint": 1.7443932448377408,
            "wrist_3_joint": -3.0840537646736568
        }
    },
    "waypoints": [
        {
            "positions": [
                -2.967991417825858,
                -0.9740617694225068,
                1.7527959577737207,
                -0.759517768980727,
                1.7443932448377408,
                -3.0840537646736568
            ]
        },
        {
            "positions": [
                -2.9423542189108973,
                -0.9413437630164478,
                1.6523190675393773,
                -0.6903766923454764,
                1.6140954459646581,
                -3.0901450923334663
            ]
        },
        {
            "positions": [
                -2.916717019995937,
                -0.908625756610389,
                1.551842177305034,
                -0.6212356157102258,
                1.4837976470915755,
                -3.0962364199932764
            ]
        },
        {
            "positions": [
                -2.8910798210809765,
                -0.8759077502043302,
                1.4513652870706908,
                -0.5520945390749752,
                1.353499848218493,
                -3.102327747653086
            ]
        },
        {
            "positions": [
                -2.8654426221660163,
                -0.8431897437982713,
                1.3508883968363474,
                -0.4829534624397246,
                1.2232020493454103,
                -3.1084190753128955
            ]
        },
        {
            "positions": [
                -2.8398054232510557,
                -0.8104717373922123,
                1.250411506602004,
                -0.413812385804474,
                1.0929042504723276,
                -3.114510402972705
            ]
        },
        {
            "positions": [
                -2.814168224336095,
                -0.7777537309861535,
                1.149934616367661,
                -0.3446713091692234,
                0.9626064515992452,
                -3.120601730632515
            ]
        },
        {
            "positions": [
                -2.788531025421135,
                -0.7450357245800947,
                1.0494577261333178,
                -0.27553023253397285,
                0.8323086527261626,
                -3.1266930582923247
            ]
        },
        {
            "positions": [
                -2.762893826506174,
                -0.7123177181740358,
                0.9489808358989742,
                -0.2063891558987222,
                0.7020108538530798,
                -3.1327843859521343
            ]
        },
        {
            "positions": [
                -2.737256627591214,
                -0.6795997117679768,
                0.8485039456646309,
                -0.1372480792634716,
                0.5717130549799974,
                -3.1388757136119443
            ]
        },
        {
            "positions": [
                -2.7116194286762534,
                -0.646881705361918,
                0.7480270554302877,
                -0.06810700262822106,
                0.44141525610691473,
                -3.144967041271754
            ]
        }
    ]
}