{
    "goal": {
        "global_pose": {
            "orientation": {
                "w": -0.00223480608172531,
                "x": 0.0024358444001904467,
                "y": 0.7094548369677653,
                "z": -0.704743149386269
            },
            "position": {
                "x": 0.6205249238014221,
                "y": -0.6371506643295288,
                "z": 0.19426114857196808
            }
        },
        "name": "move_to_magneteinheit_B"
    },
    "id": "KPIECE_move_to_magneteinheit_B_111",
    "joint_names": [
        "shoulder_pan_joint",
        "shoulder_lift_joint",
        "elbow_joint",
        "wrist_1_joint",
        "wrist_2_joint",
        "wrist_3_joint"
    ],
    "metrics": {
        "cart_traj_len": 3.907887280837554,
        "distance_elbow_joint": 4.6464771214139695,
        "distance_shoulder_lift_joint": 0.7685879903809583,
        "distance_shoulder_pan_joint": 3.1577335636993595,
        "distance_wrist_1_joint": 4.393456534187384,
        "distance_wrist_2_joint": 1.6972653347461295,
        "distance_wrist_3_joint": 3.9949332899180634,
        "smoothness": 0.18648503981691708,
        "time": 0.358979404,
        "traj_len": 4.3195432437175425,
        "weighted_distance": 5.721804110865341
    },
    "planner": "KPIECE",
    "start": {
        "state": {
            "elbow_joint": 2.6216224122426386,
            "shoulder_lift_joint": -1.4174107377796124,
            "shoulder_pan_joint": 0.7066234856936794,
            "wrist_1_joint": 1.9546482284002225,
            "wrist_2_joint": -0.7096286983471962,
            "wrist_3_joint": 0.005740856962016249
        }
    },
    "waypoints": [
        {
            "positions": [
                0.7066234856936794,
                -1.4174107377796124,
                2.6216224122426386,
                1.9546482284002225,
                -0.7096286983471962,
                0.005740856962016249
            ]
        },
        {
            "positions": [
                0.5985312647126921,
                -1.4191480652401296,
                2.5924410987960766,
                1.9057863587629846,
                -0.6160149432815095,
                -0.08123544498241456
            ]
        },
        {
            "positions": [
                0.4904390437317048,
                -1.4208853927006466,
                2.563259785349515,
                1.856924489125747,
                -0.5224011882158228,
                -0.16821174692684535
            ]
        },
        {
            "positions": [
                0.3823468227507176,
                -1.4226227201611639,
                2.534078471902953,
                1.8080626194885092,
                -0.4287874331501361,
                -0.2551880488712761
            ]
        },
        {
            "positions": [
                0.27425460176973027,
                -1.424360047621681,
                2.5048971584563917,
                1.7592007498512716,
                -0.3351736780844494,
                -0.34216435081570695
            ]
        },
        {
            "positions": [
                0.16616238078874307,
                -1.4260973750821981,
                2.4757158450098298,
                1.7103388802140338,
                -0.24155992301876275,
                -0.42914065276013774
            ]
        },
        {
            "positions": [
                0.21032690555068906,
                -1.4455622737583533,
                2.320440767945901,
                1.6047994868818525,
                -0.19620663419242867,
                -0.40939960703057693
            ]
        },
        {
            "positions": [
                0.25449143031263505,
                -1.4650271724345088,
                2.165165690881972,
                1.4992600935496712,
                -0.15085334536609463,
                -0.38965856130101606
            ]
        },
        {
            "positions": [
                0.29865595507458104,
                -1.484492071110664,
                2.0098906138180435,
                1.3937207002174898,
                -0.10550005653976055,
                -0.36991751557145525
            ]
        },
        {
            "positions": [
                0.3428204798365271,
                -1.5039569697868191,
                1.8546155367541148,
                1.2881813068853085,
                -0.060146767713426474,
                -0.35017646984189443
            ]
        },
        {
            "positions": [
                0.38698500459847307,
                -1.5234218684629743,
                1.6993404596901862,
                1.1826419135531272,
                -0.014793478887092426,
                -0.3304354241123336
            ]
        },
        {
            "positions": [
                0.431149529360419,
                -1.5428867671391298,
                1.5440653826262576,
                1.077102520220946,
                0.03055980993924165,
                -0.3106943783827728
            ]
        },
        {
            "positions": [
                0.47531405412236505,
                -1.562351665815285,
                1.3887903055623287,
                0.9715631268887647,
                0.0759130987655757,
                -0.29095333265321194
            ]
        },
        {
            "positions": [
                0.519478578884311,
                -1.5818165644914401,
                1.2335152284984,
                0.8660237335565834,
                0.1212663875919098,
                -0.27121228692365107
            ]
        },
        {
            "positions": [
                0.563643103646257,
                -1.6012814631675956,
                1.0782401514344713,
                0.760484340224402,
                0.1666196764182439,
                -0.25147124119409026
            ]
        },
        {
            "positions": [
                0.607807628408203,
                -1.6207463618437508,
                0.9229650743705426,
                0.6549449468922208,
                0.2119729652445779,
                -0.23173019546452947
            ]
        },
        {
            "positions": [
                0.651972153170149,
                -1.640211260519906,
                0.7676899973066138,
                0.5494055535600395,
                0.25732625407091203,
                -0.21198914973496863
            ]
        },
        {
            "positions": [
                0.7307641771446701,
                -1.654538216423951,
                0.6674364427980477,
                0.48975026739765093,
                0.23458801195091977,
                -0.09407605229317384
            ]
        },
        {
            "positions": [
                0.8095562011191911,
                -1.6688651723279961,
                0.5671828882894816,
                0.4300949812352623,
                0.21184976983092751,
                0.02383704514862095
            ]
        },
        {
            "positions": [
                0.8883482250937123,
                -1.6831921282320412,
                0.4669293337809155,
                0.37043969507287366,
                0.18911152771093528,
                0.14175014259041574
            ]
        },
        {
            "positions": [
                0.9671402490682333,
                -1.6975190841360865,
                0.3666757792723494,
                0.3107844089104851,
                0.16637328559094303,
                0.25966324003221053
            ]
        },
        {
            "positions": [
                1.0459322730427545,
                -1.7118460400401316,
                0.2664222247637833,
                0.25112912274809646,
                0.1436350434709508,
                0.3775763374740053
            ]
        },
        {
            "positions": [
                1.1247242970172755,
                -1.7261729959441767,
                0.1661686702552172,
                0.19147383658570788,
                0.12089680135095854,
                0.4954894349158001
            ]
        },
        {
            "positions": [
                1.2035163209917965,
                -1.7404999518482218,
                0.0659151157466511,
                0.1318185504233193,
                0.09815855923096628,
                0.6134025323575949
            ]
        },
        {
            "positions": [
                1.2823083449663177,
                -1.754826907752267,
                -0.034338438761915,
                0.07216326426093067,
                0.07542031711097402,
                0.7313156297993897
            ]
        },
        {
            "positions": [
                1.3611003689408387,
                -1.769153863656312,
                -0.1345919932704811,
                0.012507978098542094,
                0.05268207499098179,
                0.8492287272411845
            ]
        },
        {
            "positions": [
                1.4398923929153598,
                -1.7834808195603573,
                -0.2348455477790472,
                -0.047147308063846594,
                0.029943832870989534,
                0.9671418246829793
            ]
        },
        {
            "positions": [
                1.5186844168898808,
                -1.7978077754644024,
                -0.3350991022876133,
                -0.10680259422623506,
                0.007205590750997304,
                1.085054922124774
            ]
        },
        {
            "positions": [
                1.597476440864402,
                -1.8121347313684475,
                -0.4353526567961794,
                -0.16645788038862375,
                -0.015532651368994954,
                1.2029680195665688
            ]
        },
        {
            "positions": [
                1.676268464838923,
                -1.8264616872724926,
                -0.5356062113047455,
                -0.22611316655101232,
                -0.03827089348898721,
                1.3208811170083636
            ]
        },
        {
            "positions": [
                1.755060488813444,
                -1.8407886431765377,
                -0.6358597658133116,
                -0.2857684527134009,
                -0.06100913560897947,
                1.4387942144501584
            ]
        },
        {
            "positions": [
                1.833852512787965,
                -1.8551155990805828,
                -0.7361133203218775,
                -0.3454237388757895,
                -0.08374737772897167,
                1.556707311891953
            ]
        },
        {
            "positions": [
                1.9126445367624862,
                -1.8694425549846279,
                -0.8363668748304438,
                -0.40507902503817816,
                -0.10648561984896399,
                1.674620409333748
            ]
        },
        {
            "positions": [
                1.9914365607370073,
                -1.8837695108886732,
                -0.9366204293390099,
                -0.46473431120056685,
                -0.1292238619689562,
                1.7925335067755428
            ]
        },
        {
            "positions": [
                2.0702285847115283,
                -1.8980964667927183,
                -1.036873983847576,
                -0.5243895973629553,
                -0.15196210408894845,
                1.9104466042173376
            ]
        },
        {
            "positions": [
                2.1490206086860493,
                -1.9124234226967634,
                -1.1371275383561419,
                -0.5840448835253438,
                -0.1747003462089407,
                2.0283597016591326
            ]
        },
        {
            "positions": [
                2.2278126326605707,
                -1.9267503786008084,
                -1.2373810928647082,
                -0.6437001696877327,
                -0.19743858832893296,
                2.1462727991009274
            ]
        },
        {
            "positions": [
                2.3066046566350917,
                -1.9410773345048535,
                -1.3376346473732743,
                -0.7033554558501212,
                -0.22017683044892522,
                2.264185896542722
            ]
        },
        {
            "positions": [
                2.3853966806096127,
                -1.9554042904088986,
                -1.4378882018818404,
                -0.7630107420125096,
                -0.24291507256891742,
                2.382098993984517
            ]
        },
        {
            "positions": [
                2.4641887045841337,
                -1.9697312463129437,
                -1.5381417563904065,
                -0.8226660281748983,
                -0.26565331468890974,
                2.5000120914263118
            ]
        },
        {
            "positions": [
                2.542980728558655,
                -1.984058202216989,
                -1.6383953108989726,
                -0.882321314337287,
                -0.28839155680890194,
                2.6179251888681065
            ]
        },
        {
            "positions": [
                2.621772752533176,
                -1.9983851581210341,
                -1.7386488654075387,
                -0.9419766004996757,
                -0.31112979892889425,
                2.7358382863099013
            ]
        },
        {
            "positions": [
                2.7005647765076968,
                -2.012712114025079,
                -1.838902419916105,
                -1.0016318866620642,
                -0.33386804104888645,
                2.853751383751696
            ]
        },
        {
            "positions": [
                2.7113359070675633,
                -2.039325327626238,
                -1.8291270778296675,
                -1.205410715523381,
                -0.3576583543597981,
                2.927827643703044
            ]
        },
        {
            "positions": [
                2.7221070376274294,
                -2.0659385412273967,
                -1.81935173574323,
                -1.409189544384698,
                -0.3814486676707097,
                3.0019039036543917
            ]
        },
        {
            "positions": [
                2.709841477236282,
                -2.0899505786140313,
                -1.7860714147267598,
                -1.6151132966651904,
                -0.3997557597879898,
                3.027705348410668
            ]
        },
        {
            "positions": [
                2.6975759168451345,
                -2.1139626160006664,
                -1.7527910937102895,
                -1.821037048945683,
                -0.41806285190526987,
                3.053506793166944
            ]
        },
        {
            "positions": [
                2.6853103564539875,
                -2.137974653387301,
                -1.719510772693819,
                -2.0269608012261755,
                -0.43636994402255,
                3.07930823792322
            ]
        },
        {
            "positions": [
                2.67304479606284,
                -2.161986690773936,
                -1.6862304516773488,
                -2.232884553506668,
                -0.4546770361398301,
                3.105109682679496
            ]
        },
        {
            "positions": [
                2.6607792356716926,
                -2.1859987281605706,
                -1.6529501306608785,
                -2.4388083057871603,
                -0.4729841282571102,
                3.1309111274357724
            ]
        }
    ]
}