{
    "goal": {
        "global_pose": {
            "orientation": {
                "w": 0.7047431493862688,
                "x": -0.7094548369677653,
                "y": 0.0024358444001904,
                "z": -0.0022348060817251984
            },
            "position": {
                "x": -0.39052492380142206,
                "y": 0.3671506643295288,
                "z": 0.19426114857196808
            }
        },
        "name": "move_to_magneteinheit_D"
    },
    "id": "KPIECE_move_to_magneteinheit_D_28",
    "joint_names": [
        "shoulder_pan_joint",
        "shoulder_lift_joint",
        "elbow_joint",
        "wrist_1_joint",
        "wrist_2_joint",
        "wrist_3_joint"
    ],
    "metrics": {
        "cart_traj_len": 6.424711907693017,
        "distance_elbow_joint": 7.114378309160865,
        "distance_shoulder_lift_joint": 2.6002708908438805,
        "distance_shoulder_pan_joint": 7.371321659110534,
        "distance_wrist_1_joint": 4.028181989197829,
        "distance_wrist_2_joint": 6.571248569512338,
        "distance_wrist_3_joint": 6.204531603695521,
        "smoothness": 0.44097313965364543,
        "time": 0.11613022,
        "traj_len": 5.821506078457789,
        "weighted_distance": 7.543104585488797
    },
    "planner": "KPIECE",
    "start": {
        "state": {
            "elbow_joint": 0.749534889911806,
            "shoulder_lift_joint": -0.6476975780787326,
            "shoulder_pan_joint": -2.711696901376241,
            "wrist_1_joint": -0.07506478083263063,
            "wrist_2_joint": 0.43296659715538205,
            "wrist_3_joint": -3.14703540197715
        }
    },
    "waypoints": [
        {
            "positions": [
                -2.711696901376241,
                -0.6476975780787326,
                0.749534889911806,
                -0.07506478083263063,
                0.43296659715538205,
                -3.14703540197715
            ]
        },
        {
            "positions": [
                -2.7243848910429067,
                -0.6498767320652377,
                0.7789470380873348,
                -0.1753080077802327,
                0.50900518826378,
                -2.973167911043663
            ]
        },
        {
            "positions": [
                -2.737072880709572,
                -0.6520558860517426,
                0.8083591862628636,
                -0.27555123472783477,
                0.585043779372178,
                -2.799300420110176
            ]
        },
        {
            "positions": [
                -2.7438473461211634,
                -0.6581395198018538,
                0.8320969334289149,
                -0.3777966394862462,
                0.6562606276121443,
                -2.6178117163536663
            ]
        },
        {
            "positions": [
                -2.7506218115327554,
                -0.664223153551965,
                0.8558346805949661,
                -0.4800420442446576,
                0.7274774758521106,
                -2.4363230125971564
            ]
        },
        {
            "positions": [
                -2.7573962769443474,
                -0.6703067873020763,
                0.8795724277610174,
                -0.582287449003069,
                0.798694324092077,
                -2.2548343088406466
            ]
        },
        {
            "positions": [
                -2.764170742355939,
                -0.6763904210521874,
                0.9033101749270687,
                -0.6845328537614803,
                0.8699111723320434,
                -2.073345605084137
            ]
        },
        {
            "positions": [
                -2.7709452077675305,
                -0.6824740548022986,
                0.9270479220931198,
                -0.7867782585198917,
                0.9411280205720096,
                -1.891856901327627
            ]
        },
        {
            "positions": [
                -2.7777196731791225,
                -0.6885576885524098,
                0.9507856692591711,
                -0.8890236632783033,
                1.012344868811976,
                -1.710368197571117
            ]
        },
        {
            "positions": [
                -2.7844941385907145,
                -0.6946413223025211,
                0.9745234164252223,
                -0.9912690680367147,
                1.0835617170519423,
                -1.528879493814607
            ]
        },
        {
            "positions": [
                -2.791268604002306,
                -0.7007249560526323,
                0.9982611635912736,
                -1.093514472795126,
                1.1547785652919087,
                -1.3473907900580973
            ]
        },
        {
            "positions": [
                -2.7141785866317236,
                -0.7472667256362303,
                0.9256214290978503,
                -1.1343171598220205,
                1.1085714479863855,
                -1.2516659603754237
            ]
        },
        {
            "positions": [
                -2.6370885692611417,
                -0.7938084952198284,
                0.8529816946044269,
                -1.175119846848915,
                1.0623643306808621,
                -1.1559411306927498
            ]
        },
        {
            "positions": [
                -2.5599985518905592,
                -0.8403502648034264,
                0.7803419601110035,
                -1.2159225338758095,
                1.016157213375339,
                -1.0602163010100762
            ]
        },
        {
            "positions": [
                -2.482908534519977,
                -0.8868920343870246,
                0.7077022256175802,
                -1.256725220902704,
                0.9699500960698156,
                -0.9644914713274026
            ]
        },
        {
            "positions": [
                -2.4058185171493944,
                -0.9334338039706226,
                0.6350624911241568,
                -1.2975279079295987,
                0.9237429787642923,
                -0.8687666416447288
            ]
        },
        {
            "positions": [
                -2.3287284997788125,
                -0.9799755735542206,
                0.5624227566307334,
                -1.3383305949564932,
                0.8775358614587692,
                -0.7730418119620552
            ]
        },
        {
            "positions": [
                -2.25163848240823,
                -1.0265173431378187,
                0.48978302213731006,
                -1.3791332819833877,
                0.8313287441532459,
                -0.6773169822793815
            ]
        },
        {
            "positions": [
                -2.1745484650376476,
                -1.0730591127214169,
                0.41714328764388675,
                -1.4199359690102822,
                0.7851216268477226,
                -0.5815921525967079
            ]
        },
        {
            "positions": [
                -2.0974584476670657,
                -1.119600882305015,
                0.3445035531504633,
                -1.4607386560371767,
                0.7389145095421994,
                -0.4858673229140341
            ]
        },
        {
            "positions": [
                -2.0203684302964833,
                -1.1661426518886129,
                0.27186381865704,
                -1.5015413430640714,
                0.6927073922366761,
                -0.3901424932313605
            ]
        },
        {
            "positions": [
                -1.9432784129259009,
                -1.212684421472211,
                0.1992240841636166,
                -1.5423440300909657,
                0.6465002749311528,
                -0.2944176635486868
            ]
        },
        {
            "positions": [
                -1.8661883955553187,
                -1.259226191055809,
                0.12658434967019327,
                -1.5831467171178604,
                0.6002931576256296,
                -0.19869283386601322
            ]
        },
        {
            "positions": [
                -1.7890983781847363,
                -1.305767960639407,
                0.05394461517676985,
                -1.6239494041447549,
                0.5540860403201063,
                -0.1029680041833394
            ]
        },
        {
            "positions": [
                -1.712008360814154,
                -1.3523097302230052,
                -0.018695119316653477,
                -1.6647520911716494,
                0.507878923014583,
                -0.007243174500665821
            ]
        },
        {
            "positions": [
                -1.5785804122621176,
                -1.3919478064193966,
                0.042010139891962034,
                -1.6327810246715737,
                0.40645298918935496,
                -0.023480289991837607
            ]
        },
        {
            "positions": [
                -1.4451524637100814,
                -1.4315858826157883,
                0.10271539910057755,
                -1.6008099581714983,
                0.3050270553641269,
                -0.039717405483009394
            ]
        },
        {
            "positions": [
                -1.311724515158045,
                -1.4712239588121798,
                0.16342065830919306,
                -1.5688388916714227,
                0.2036011215388988,
                -0.05595452097418118
            ]
        },
        {
            "positions": [
                -1.1782965666060088,
                -1.5108620350085713,
                0.22412591751780858,
                -1.5368678251713472,
                0.10217518771367068,
                -0.07219163646535297
            ]
        },
        {
            "positions": [
                -1.0448686180539721,
                -1.550500111204963,
                0.28483117672642416,
                -1.5048967586712716,
                0.0007492538884426025,
                -0.08842875195652476
            ]
        },
        {
            "positions": [
                -0.911440669501936,
                -1.5901381874013545,
                0.34553643593503963,
                -1.4729256921711962,
                -0.10067667993678542,
                -0.10466586744769654
            ]
        },
        {
            "positions": [
                -0.7780127209498996,
                -1.629776263597746,
                0.40624169514365516,
                -1.4409546256711205,
                -0.20210261376201355,
                -0.12090298293886832
            ]
        },
        {
            "positions": [
                -0.6445847723978633,
                -1.6694143397941374,
                0.4669469543522706,
                -1.4089835591710451,
                -0.3035285475872417,
                -0.13714009843004013
            ]
        },
        {
            "positions": [
                -0.5111568238458268,
                -1.709052415990529,
                0.5276522135608862,
                -1.3770124926709695,
                -0.4049544814124698,
                -0.15337721392121192
            ]
        },
        {
            "positions": [
                -0.3777288752937904,
                -1.7486904921869206,
                0.5883574727695018,
                -1.345041426170894,
                -0.5063804152376978,
                -0.16961432941238372
            ]
        },
        {
            "positions": [
                -0.2443009267417544,
                -1.7883285683833121,
                0.6490627319781171,
                -1.3130703596708186,
                -0.6078063490629257,
                -0.18585144490355548
            ]
        },
        {
            "positions": [
                -0.11087297818971797,
                -1.8279666445797036,
                0.7097679911867327,
                -1.281099293170743,
                -0.7092322828881539,
                -0.20208856039472728
            ]
        },
        {
            "positions": [
                0.02255497036231846,
                -1.8676047207760953,
                0.7704732503953483,
                -1.2491282266706674,
                -0.810658216713382,
                -0.21832567588589907
            ]
        },
        {
            "positions": [
                0.1559829189143549,
                -1.9072427969724868,
                0.8311785096039638,
                -1.217157160170592,
                -0.9120841505386101,
                -0.23456279137707084
            ]
        },
        {
            "positions": [
                0.28941086746639133,
                -1.9468808731688783,
                0.8918837688125794,
                -1.1851860936705163,
                -1.0135100843638383,
                -0.2507999068682426
            ]
        },
        {
            "positions": [
                0.42283881601842754,
                -1.9865189493652697,
                0.9525890280211947,
                -1.1532150271704409,
                -1.1149360181890664,
                -0.2670370223594144
            ]
        },
        {
            "positions": [
                0.5562667645704638,
                -2.026157025561661,
                1.01329428722981,
                -1.1212439606703652,
                -1.2163619520142943,
                -0.28327413785058614
            ]
        },
        {
            "positions": [
                0.6896947131225004,
                -2.065795101758053,
                1.0739995464384258,
                -1.0892728941702896,
                -1.3177878858395227,
                -0.299511253341758
            ]
        },
        {
            "positions": [
                0.8231226616745366,
                -2.1054331779544446,
                1.1347048056470412,
                -1.0573018276702144,
                -1.4192138196647506,
                -0.3157483688329297
            ]
        },
        {
            "positions": [
                0.9565506102265733,
                -2.145071254150836,
                1.195410064855657,
                -1.0253307611701388,
                -1.5206397534899787,
                -0.3319854843241016
            ]
        },
        {
            "positions": [
                1.0899785587786095,
                -2.1847093303472276,
                1.2561153240642722,
                -0.9933596946700631,
                -1.6220656873152068,
                -0.3482225998152733
            ]
        },
        {
            "positions": [
                1.2234065073306453,
                -2.224347406543619,
                1.3168205832728876,
                -0.9613886281699877,
                -1.7234916211404345,
                -0.3644597153064451
            ]
        },
        {
            "positions": [
                1.356834455882682,
                -2.2639854827400105,
                1.3775258424815033,
                -0.9294175616699121,
                -1.824917554965663,
                -0.3806968307976169
            ]
        },
        {
            "positions": [
                1.4902624044347181,
                -2.303623558936402,
                1.4382311016901188,
                -0.8974464951698365,
                -1.9263434887908908,
                -0.3969339462887887
            ]
        },
        {
            "positions": [
                1.6236903529867543,
                -2.3432616351327935,
                1.4989363608987343,
                -0.8654754286697611,
                -2.027769422616119,
                -0.41317106177996044
            ]
        },
        {
            "positions": [
                1.757118301538791,
                -2.382899711329185,
                1.55964162010735,
                -0.8335043621696855,
                -2.129195356441347,
                -0.4294081772711323
            ]
        },
        {
            "positions": [
                1.8905462500908272,
                -2.4225377875255765,
                1.6203468793159652,
                -0.80153329566961,
                -2.2306212902665754,
                -0.445645292762304
            ]
        },
        {
            "positions": [
                2.023974198642864,
                -2.4621758637219684,
                1.681052138524581,
                -0.7695622291695344,
                -2.332047224091803,
                -0.4618824082534758
            ]
        },
        {
            "positions": [
                2.1574021471949,
                -2.50181393991836,
                1.7417573977331964,
                -0.7375911626694589,
                -2.4334731579170317,
                -0.4781195237446476
            ]
        },
        {
            "positions": [
                2.090457027043835,
                -2.480495239089667,
                1.6249504481468073,
                -0.7807721269653624,
                -2.3688678756836925,
                -0.5522298959439348
            ]
        },
        {
            "positions": [
                2.02351190689277,
                -2.459176538260974,
                1.508143498560418,
                -0.8239530912612657,
                -2.3042625934503533,
                -0.626340268143222
            ]
        },
        {
            "positions": [
                1.956566786741705,
                -2.437857837432281,
                1.3913365489740288,
                -0.8671340555571692,
                -2.239657311217014,
                -0.700450640342509
            ]
        },
        {
            "positions": [
                1.88962166659064,
                -2.416539136603588,
                1.2745295993876398,
                -0.9103150198530725,
                -2.1750520289836754,
                -0.7745610125417962
            ]
        },
        {
            "positions": [
                1.8226765464395749,
                -2.395220435774895,
                1.1577226498012507,
                -0.953495984148976,
                -2.1104467467503363,
                -0.8486713847410834
            ]
        },
        {
            "positions": [
                1.7557314262885098,
                -2.373901734946202,
                1.0409157002148615,
                -0.9966769484448794,
                -2.045841464516997,
                -0.9227817569403706
            ]
        },
        {
            "positions": [
                1.6887863061374448,
                -2.352583034117509,
                0.9241087506284722,
                -1.0398579127407828,
                -1.981236182283658,
                -0.9968921291396577
            ]
        },
        {
            "positions": [
                1.62184118598638,
                -2.331264333288816,
                0.8073018010420832,
                -1.083038877036686,
                -1.9166309000503188,
                -1.0710025013389448
            ]
        },
        {
            "positions": [
                1.5548960658353148,
                -2.3099456324601233,
                0.6904948514556941,
                -1.1262198413325897,
                -1.8520256178169798,
                -1.145112873538232
            ]
        },
        {
            "positions": [
                1.4879509456842497,
                -2.28862693163143,
                0.5736879018693049,
                -1.169400805628493,
                -1.7874203355836407,
                -1.2192232457375192
            ]
        },
        {
            "positions": [
                1.4210058255331846,
                -2.2673082308027372,
                0.4568809522829156,
                -1.2125817699243964,
                -1.7228150533503015,
                -1.2933336179368062
            ]
        },
        {
            "positions": [
                1.3540607053821196,
                -2.245989529974044,
                0.34007400269652655,
                -1.2557627342203,
                -1.6582097711169625,
                -1.3674439901360935
            ]
        },
        {
            "positions": [
                1.2871155852310545,
                -2.224670829145351,
                0.22326705311013728,
                -1.2989436985162033,
                -1.5936044888836234,
                -1.4415543623353808
            ]
        },
        {
            "positions": [
                1.2201704650799896,
                -2.2033521283166584,
                0.10646010352374802,
                -1.3421246628121066,
                -1.5289992066502842,
                -1.5156647345346679
            ]
        },
        {
            "positions": [
                1.1532253449289245,
                -2.1820334274879656,
                -0.010346846062640802,
                -1.3853056271080102,
                -1.464393924416945,
                -1.589775106733955
            ]
        },
        {
            "positions": [
                1.0862802247778596,
                -2.1607147266592723,
                -0.12715379564903007,
                -1.4284865914039135,
                -1.399788642183606,
                -1.663885478933242
            ]
        },
        {
            "positions": [
                1.0193351046267944,
                -2.1393960258305795,
                -0.24396074523541933,
                -1.4716675556998169,
                -1.335183359950267,
                -1.7379958511325293
            ]
        },
        {
            "positions": [
                0.9523899844757295,
                -2.1180773250018863,
                -0.36076769482180815,
                -1.5148485199957205,
                -1.270578077716928,
                -1.8121062233318164
            ]
        },
        {
            "positions": [
                0.8854448643246644,
                -2.0967586241731935,
                -0.47757464440819763,
                -1.5580294842916236,
                -1.2059727954835888,
                -1.8862165955311034
            ]
        },
        {
            "positions": [
                0.8184997441735993,
                -2.0754399233445007,
                -0.5943815939945867,
                -1.6012104485875271,
                -1.1413675132502497,
                -1.9603269677303907
            ]
        },
        {
            "positions": [
                0.7515546240225344,
                -2.0541212225158074,
                -0.7111885435809757,
                -1.6443914128834307,
                -1.0767622310169105,
                -2.034437339929678
            ]
        },
        {
            "positions": [
                0.6846095038714692,
                -2.0328025216871146,
                -0.8279954931673652,
                -1.687572377179334,
                -1.0121569487835713,
                -2.1085477121289653
            ]
        },
        {
            "positions": [
                0.6176643837204041,
                -2.0114838208584214,
                -0.9448024427537542,
                -1.7307533414752374,
                -0.9475516665502324,
                -2.182658084328252
            ]
        },
        {
            "positions": [
                0.5507192635693392,
                -1.9901651200297286,
                -1.0616093923401433,
                -1.773934305771141,
                -0.8829463843168932,
                -2.2567684565275394
            ]
        },
        {
            "positions": [
                0.48377414341827407,
                -1.9688464192010358,
                -1.1784163419265328,
                -1.8171152700670443,
                -0.818341102083554,
                -2.3308788287268265
            ]
        },
        {
            "positions": [
                0.41682902326720894,
                -1.9475277183723425,
                -1.2952232915129218,
                -1.8602962343629477,
                -0.7537358198502149,
                -2.4049892009261136
            ]
        },
        {
            "positions": [
                0.3498839031161438,
                -1.9262090175436497,
                -1.4120302410993109,
                -1.9034771986588512,
                -0.6891305376168757,
                -2.479099573125401
            ]
        },
        {
            "positions": [
                0.2829387829650789,
                -1.9048903167149567,
                -1.5288371906857003,
                -1.9466581629547546,
                -0.6245252553835368,
                -2.553209945324688
            ]
        },
        {
            "positions": [
                0.21599366281401378,
                -1.8835716158862637,
                -1.6456441402720894,
                -1.989839127250658,
                -0.5599199731501976,
                -2.627320317523975
            ]
        },
        {
            "positions": [
                0.14904854266294887,
                -1.8622529150575708,
                -1.762451089858478,
                -2.033020091546561,
                -0.49531469091685865,
                -2.7014306897232623
            ]
        },
        {
            "positions": [
                0.08210342251188374,
                -1.8409342142288778,
                -1.8792580394448675,
                -2.0762010558424646,
                -0.4307094086835197,
                -2.7755410619225493
            ]
        },
        {
            "positions": [
                0.015158302360819054,
                -1.8196155134001848,
                -1.9960649890312565,
                -2.119382020138368,
                -0.36610412645018053,
                -2.8496514341218364
            ]
        },
        {
            "positions": [
                -0.051786817790246076,
                -1.798296812571492,
                -2.1128719386176456,
                -2.1625629844342713,
                -0.30149884421684137,
                -2.9237618063211235
            ]
        },
        {
            "positions": [
                -0.1187319379413112,
                -1.776978111742799,
                -2.229678888204035,
                -2.2057439487301753,
                -0.2368935619835022,
                -2.997872178520411
            ]
        },
        {
            "positions": [
                -0.18567705809237645,
                -1.755659410914106,
                -2.3464858377904236,
                -2.2489249130260784,
                -0.17228827975016323,
                -3.071982550719698
            ]
        }
    ]
}