{
    "goal": {
        "global_pose": {
            "orientation": {
                "w": 0.7031023480610252,
                "x": -0.7110244013736278,
                "y": 0.0077485991402295624,
                "z": 0.005598929693374583
            },
            "position": {
                "x": -0.8841497679147869,
                "y": 0.44412534475326537,
                "z": 0.3711530566215515
            }
        },
        "name": "move_to_auspresseinheit_D"
    },
    "id": "KPIECE_move_to_auspresseinheit_D_110",
    "joint_names": [
        "shoulder_pan_joint",
        "shoulder_lift_joint",
        "elbow_joint",
        "wrist_1_joint",
        "wrist_2_joint",
        "wrist_3_joint"
    ],
    "metrics": {
        "cart_traj_len": 0.34207626254395546,
        "distance_elbow_joint": 0.6301916403199332,
        "distance_shoulder_lift_joint": 0.11772448769104393,
        "distance_shoulder_pan_joint": 0.13374267728364458,
        "distance_wrist_1_joint": 0.5070113544979065,
        "distance_wrist_2_joint": 1.442204806024592,
        "distance_wrist_3_joint": 0.027998178091095394,
        "smoothness": 1.9737298371844314e-16,
        "time": 0.326590035,
        "traj_len": 1.6908202577176012,
        "weighted_distance": 2.2054672204802555
    },
    "planner": "KPIECE",
    "start": {
        "state": {
            "elbow_joint": -1.8275523626775212,
            "shoulder_lift_joint": -2.126789852344167,
            "shoulder_pan_joint": -0.03513704404078235,
            "wrist_1_joint": -2.347782403156801,
            "wrist_2_joint": -1.6058999987535132,
            "wrist_3_joint": -3.0880379163319196
        }
    },
    "waypoints": [
        {
            "positions": [
                -0.03513704404078235,
                -2.126789852344167,
                -1.8275523626775212,
                -2.347782403156801,
                -1.6058999987535132,
                -3.0880379163319196
            ]
        },
        {
            "positions": [
                -0.05185487870123792,
                -2.1415054133055476,
                -1.7487784076375295,
                -2.411158822469039,
                -1.4256243980004393,
                -3.0915376885933066
            ]
        },
        {
            "positions": [
                -0.06857271336169349,
                -2.156220974266928,
                -1.670004452597538,
                -2.4745352417812776,
                -1.2453487972473651,
                -3.0950374608546936
            ]
        },
        {
            "positions": [
                -0.08529054802214907,
                -2.170936535228308,
                -1.5912304975575462,
                -2.5379116610935157,
                -1.0650731964942912,
                -3.0985372331160805
            ]
        },
        {
            "positions": [
                -0.10200838268260465,
                -2.185652096189689,
                -1.5124565425175547,
                -2.6012880804057543,
                -0.8847975957412172,
                -3.1020370053774675
            ]
        },
        {
            "positions": [
                -0.11872621734306021,
                -2.2003676571510695,
                -1.433682587477563,
                -2.6646644997179925,
                -0.7045219949881432,
                -3.105536777638854
            ]
        },
        {
            "positions": [
                -0.13544405200351578,
                -2.21508321811245,
                -1.3549086324375712,
                -2.7280409190302306,
                -0.5242463942350692,
                -3.109036549900241
            ]
        },
        {
            "positions": [
                -0.15216188666397137,
                -2.22979877907383,
                -1.2761346773975797,
                -2.791417338342469,
                -0.3439707934819951,
                -3.112536322161628
            ]
        },
        {
            "positions": [
                -0.16887972132442694,
                -2.2445143400352108,
                -1.197360722357588,
                -2.8547937576547073,
                -0.1636951927289211,
                -3.116036094423015
            ]
        }
    ]
}