{
    "goal": {
        "global_pose": {
            "orientation": {
                "w": -0.4816463035849501,
                "x": 0.5182115481033762,
                "y": 0.4908360881923453,
                "z": -0.5084816262002911
            },
            "position": {
                "x": -0.8240239810943604,
                "y": -0.300875300988555,
                "z": 0.16403168439865112
            }
        },
        "name": "move_to_storage_C"
    },
    "id": "KPIECE_move_to_storage_C_53",
    "joint_names": [
        "shoulder_pan_joint",
        "shoulder_lift_joint",
        "elbow_joint",
        "wrist_1_joint",
        "wrist_2_joint",
        "wrist_3_joint"
    ],
    "metrics": {
        "cart_traj_len": 0.5773282702408592,
        "distance_elbow_joint": 0.25950781297238,
        "distance_shoulder_lift_joint": 0.19009535159800706,
        "distance_shoulder_pan_joint": 0.4954885069662862,
        "distance_wrist_1_joint": 0.08015773494569878,
        "distance_wrist_2_joint": 1.0641633002147923,
        "distance_wrist_3_joint": 0.059374140076863036,
        "smoothness": 0.0,
        "time": 0.01276892,
        "traj_len": 1.4658740896727889,
        "weighted_distance": 1.8471210469506987
    },
    "planner": "KPIECE",
    "start": {
        "state": {
            "elbow_joint": 2.010868314990456,
            "shoulder_lift_joint": -1.1634956873337592,
            "shoulder_pan_joint": -2.4736205022346125,
            "wrist_1_joint": -0.8367026794202681,
            "wrist_2_joint": 0.6746043897044499,
            "wrist_3_joint": -3.1496632123970403
        }
    },
    "waypoints": [
        {
            "positions": [
                -2.4736205022346125,
                -1.1634956873337592,
                2.010868314990456,
                -0.8367026794202681,
                0.6746043897044499,
                -3.1496632123970403
            ]
        },
        {
            "positions": [
                -2.556201920062327,
                -1.1318131287340913,
                1.9676170128283925,
                -0.8233430569293183,
                0.8519649397402487,
                -3.1397675223842296
            ]
        },
        {
            "positions": [
                -2.6387833378900414,
                -1.1001305701344235,
                1.9243657106663292,
                -0.8099834344383685,
                1.0293254897760473,
                -3.1298718323714194
            ]
        },
        {
            "positions": [
                -2.7213647557177554,
                -1.0684480115347557,
                1.8811144085042657,
                -0.7966238119474187,
                1.2066860398118462,
                -3.1199761423586088
            ]
        },
        {
            "positions": [
                -2.80394617354547,
                -1.0367654529350878,
                1.8378631063422024,
                -0.7832641894564689,
                1.3840465898476446,
                -3.110080452345798
            ]
        },
        {
            "positions": [
                -2.8865275913731843,
                -1.00508289433542,
                1.794611804180139,
                -0.7699045669655191,
                1.5614071398834435,
                -3.100184762332988
            ]
        },
        {
            "positions": [
                -2.9691090092008987,
                -0.9734003357357521,
                1.7513605020180758,
                -0.7565449444745693,
                1.7387676899192424,
                -3.0902890723201772
            ]
        }
    ]
}