{
    "goal": {
        "global_pose": {
            "orientation": {
                "w": 0.005598929693374612,
                "x": 0.007748599140229565,
                "y": 0.7110244013736278,
                "z": -0.7031023480610252
            },
            "position": {
                "x": 0.1141497679147869,
                "y": -0.7141253447532654,
                "z": 0.3711530566215515
            }
        },
        "name": "move_to_auspresseinheit_B"
    },
    "id": "KPIECE_move_to_auspresseinheit_B_29",
    "joint_names": [
        "shoulder_pan_joint",
        "shoulder_lift_joint",
        "elbow_joint",
        "wrist_1_joint",
        "wrist_2_joint",
        "wrist_3_joint"
    ],
    "metrics": {
        "cart_traj_len": 0.5642093428425262,
        "distance_elbow_joint": 0.06257585310900526,
        "distance_shoulder_lift_joint": 0.29450209138822236,
        "distance_shoulder_pan_joint": 0.5753959829925175,
        "distance_wrist_1_joint": 0.3308857382656111,
        "distance_wrist_2_joint": 1.0035232294897303,
        "distance_wrist_3_joint": 0.006732816331830982,
        "smoothness": 2.5376526478085547e-16,
        "time": 0.06577475199999999,
        "traj_len": 1.5078513559289979,
        "weighted_distance": 1.9030213640408562
    },
    "planner": "KPIECE",
    "start": {
        "state": {
            "elbow_joint": 2.0193083361928714,
            "shoulder_lift_joint": -1.1220246554650708,
            "shoulder_pan_joint": -1.0952077554168747,
            "wrist_1_joint": -0.8559753972642168,
            "wrist_2_joint": 0.4759566250798843,
            "wrist_3_joint": -3.1240929996934557
        }
    },
    "waypoints": [
        {
            "positions": [
                -1.0952077554168747,
                -1.1220246554650708,
                2.0193083361928714,
                -0.8559753972642168,
                0.4759566250798843,
                -3.1240929996934557
            ]
        },
        {
            "positions": [
                -1.1911070859156276,
                -1.171108337363108,
                2.0088790273413704,
                -0.8008277742199483,
                0.643210496661506,
                -3.1229708636381504
            ]
        },
        {
            "positions": [
                -1.2870064164143804,
                -1.2201920192611448,
                1.9984497184898697,
                -0.7456801511756798,
                0.8104643682431276,
                -3.1218487275828455
            ]
        },
        {
            "positions": [
                -1.3829057469131334,
                -1.269275701159182,
                1.9880204096383687,
                -0.6905325281314112,
                0.9777182398247495,
                -3.12072659152754
            ]
        },
        {
            "positions": [
                -1.4788050774118862,
                -1.3183593830572191,
                1.9775911007868678,
                -0.6353849050871427,
                1.1449721114063711,
                -3.119604455472235
            ]
        },
        {
            "positions": [
                -1.5747044079106391,
                -1.367443064955256,
                1.967161791935367,
                -0.5802372820428743,
                1.312225982987993,
                -3.11848231941693
            ]
        },
        {
            "positions": [
                -1.6706037384093921,
                -1.4165267468532932,
                1.9567324830838662,
                -0.5250896589986057,
                1.4794798545696146,
                -3.1173601833616247
            ]
        }
    ]
}