{
    "goal": {
        "global_pose": {
            "orientation": {
                "w": 0.7031023480610252,
                "x": -0.7110244013736278,
                "y": 0.0077485991402295624,
                "z": 0.005598929693374583
            },
            "position": {
                "x": -0.8841497679147869,
                "y": 0.44412534475326537,
                "z": 0.3711530566215515
            }
        },
        "name": "move_to_auspresseinheit_D"
    },
    "id": "KPIECE_move_to_auspresseinheit_D_42",
    "joint_names": [
        "shoulder_pan_joint",
        "shoulder_lift_joint",
        "elbow_joint",
        "wrist_1_joint",
        "wrist_2_joint",
        "wrist_3_joint"
    ],
    "metrics": {
        "cart_traj_len": 0.34478537995811603,
        "distance_elbow_joint": 0.6723179857782606,
        "distance_shoulder_lift_joint": 0.14005758708509486,
        "distance_shoulder_pan_joint": 0.13329805058319466,
        "distance_wrist_1_joint": 0.6373355599689714,
        "distance_wrist_2_joint": 1.440697243671369,
        "distance_wrist_3_joint": 0.09588929662954415,
        "smoothness": 0.0,
        "time": 0.305426148,
        "traj_len": 1.7662377313703934,
        "weighted_distance": 2.321509664122866
    },
    "planner": "KPIECE",
    "start": {
        "state": {
            "elbow_joint": -1.8275523626775212,
            "shoulder_lift_joint": -2.126789852344167,
            "shoulder_pan_joint": -0.03513704404078235,
            "wrist_1_joint": -2.347782403156801,
            "wrist_2_joint": -1.6058999987535132,
            "wrist_3_joint": -3.0880379163319196
        }
    },
    "waypoints": [
        {
            "positions": [
                -0.03513704404078235,
                -2.126789852344167,
                -1.8275523626775212,
                -2.347782403156801,
                -1.6058999987535132,
                -3.0880379163319196
            ]
        },
        {
            "positions": [
                -0.05179930036368168,
                -2.144297050729804,
                -1.7435126144552386,
                -2.4274493481529222,
                -1.425812843294592,
                -3.0760517542532266
            ]
        },
        {
            "positions": [
                -0.06846155668658102,
                -2.1618042491154403,
                -1.659472866232956,
                -2.5071162931490436,
                -1.2457256878356708,
                -3.0640655921745337
            ]
        },
        {
            "positions": [
                -0.08512381300948035,
                -2.1793114475010773,
                -1.5754331180106735,
                -2.586783238145165,
                -1.0656385323767499,
                -3.0520794300958407
            ]
        },
        {
            "positions": [
                -0.10178606933237969,
                -2.1968186458867143,
                -1.491393369788391,
                -2.6664501831412863,
                -0.8855513769178287,
                -3.0400932680171477
            ]
        },
        {
            "positions": [
                -0.11844832565527902,
                -2.2143258442723512,
                -1.4073536215661084,
                -2.746117128137408,
                -0.7054642214589075,
                -3.0281071059384543
            ]
        },
        {
            "positions": [
                -0.13511058197817835,
                -2.231833042657988,
                -1.3233138733438257,
                -2.8257840731335295,
                -0.5253770659999866,
                -3.0161209438597614
            ]
        },
        {
            "positions": [
                -0.15177283830107768,
                -2.2493402410436247,
                -1.2392741251215431,
                -2.905451018129651,
                -0.3452899105410654,
                -3.0041347817810684
            ]
        },
        {
            "positions": [
                -0.16843509462397702,
                -2.2668474394292617,
                -1.1552343768992606,
                -2.9851179631257723,
                -0.1652027550821443,
                -2.9921486197023754
            ]
        }
    ]
}