{
    "goal": {
        "global_pose": {
            "orientation": {
                "w": 0.005598929693374612,
                "x": 0.007748599140229565,
                "y": 0.7110244013736278,
                "z": -0.7031023480610252
            },
            "position": {
                "x": -0.8858502320852131,
                "y": -0.7141253447532654,
                "z": 0.3711530566215515
            }
        },
        "name": "move_to_auspresseinheit_C"
    },
    "id": "KPIECE_move_to_auspresseinheit_C_93",
    "joint_names": [
        "shoulder_pan_joint",
        "shoulder_lift_joint",
        "elbow_joint",
        "wrist_1_joint",
        "wrist_2_joint",
        "wrist_3_joint"
    ],
    "metrics": {
        "cart_traj_len": 0.49297160198592094,
        "distance_elbow_joint": 1.006017633227712,
        "distance_shoulder_lift_joint": 0.3273521848625852,
        "distance_shoulder_pan_joint": 0.2563374273166903,
        "distance_wrist_1_joint": 0.6998940839522725,
        "distance_wrist_2_joint": 1.302353988962583,
        "distance_wrist_3_joint": 0.0654761488229183,
        "smoothness": 4.844609574787718e-16,
        "time": 0.011867457,
        "traj_len": 1.9124412323375486,
        "weighted_distance": 2.406373170916235
    },
    "planner": "KPIECE",
    "start": {
        "state": {
            "elbow_joint": 1.7527959577737207,
            "shoulder_lift_joint": -0.9740617694225068,
            "shoulder_pan_joint": -2.967991417825858,
            "wrist_1_joint": -0.759517768980727,
            "wrist_2_joint": 1.7443932448377408,
            "wrist_3_joint": -3.0840537646736568
        }
    },
    "waypoints": [
        {
            "positions": [
                -2.967991417825858,
                -0.9740617694225068,
                1.7527959577737207,
                -0.759517768980727,
                1.7443932448377408,
                -3.0840537646736568
            ]
        },
        {
            "positions": [
                -2.942357675094189,
                -0.9413265509362483,
                1.6521941944509495,
                -0.6895283605854997,
                1.6141578459414825,
                -3.090601379555949
            ]
        },
        {
            "positions": [
                -2.91672393236252,
                -0.9085913324499897,
                1.5515924311281784,
                -0.6195389521902724,
                1.4839224470452241,
                -3.0971489944382404
            ]
        },
        {
            "positions": [
                -2.8910901896308507,
                -0.8758561139637312,
                1.450990667805407,
                -0.5495495437950453,
                1.353687048148966,
                -3.103696609320532
            ]
        },
        {
            "positions": [
                -2.8654564468991817,
                -0.8431208954774727,
                1.3503889044826358,
                -0.47956013539981796,
                1.2234516492527074,
                -3.110244224202824
            ]
        },
        {
            "positions": [
                -2.8398227041675126,
                -0.8103856769912141,
                1.2497871411598647,
                -0.40957072700459074,
                1.0932162503564493,
                -3.116791839085116
            ]
        },
        {
            "positions": [
                -2.814188961435844,
                -0.7776504585049556,
                1.1491853778370935,
                -0.3395813186093635,
                0.9629808514601911,
                -3.1233394539674078
            ]
        },
        {
            "positions": [
                -2.788555218704175,
                -0.7449152400186971,
                1.0485836145143224,
                -0.26959191021413625,
                0.8327454525639327,
                -3.1298870688496994
            ]
        },
        {
            "positions": [
                -2.762921475972506,
                -0.7121800215324385,
                0.947981851191551,
                -0.19960250181890893,
                0.7025100536676743,
                -3.1364346837319914
            ]
        },
        {
            "positions": [
                -2.7372877332408367,
                -0.67944480304618,
                0.8473800878687798,
                -0.12961309342368177,
                0.5722746547714161,
                -3.1429822986142835
            ]
        },
        {
            "positions": [
                -2.7116539905091677,
                -0.6467095845599216,
                0.7467783245460088,
                -0.05962368502845444,
                0.4420392558751577,
                -3.149529913496575
            ]
        }
    ]
}