{
    "goal": {
        "global_pose": {
            "orientation": {
                "w": 0.5084816217422485,
                "x": -0.49083608388900757,
                "y": 0.5182115435600281,
                "z": -0.4816462993621826
            },
            "position": {
                "x": 0.5540239810943604,
                "y": 0.030875300988554955,
                "z": 0.16403168439865112
            }
        },
        "name": "move_to_storage_A"
    },
    "id": "KPIECE_move_to_storage_A_51",
    "joint_names": [
        "shoulder_pan_joint",
        "shoulder_lift_joint",
        "elbow_joint",
        "wrist_1_joint",
        "wrist_2_joint",
        "wrist_3_joint"
    ],
    "metrics": {
        "cart_traj_len": 0.3529257348072468,
        "distance_elbow_joint": 0.4529463925908448,
        "distance_shoulder_lift_joint": 0.23394782253601032,
        "distance_shoulder_pan_joint": 0.4598725333230096,
        "distance_wrist_1_joint": 0.2590920134020117,
        "distance_wrist_2_joint": 1.1053429190664916,
        "distance_wrist_3_joint": 0.10738713549614953,
        "smoothness": 8.881784197001252e-16,
        "time": 0.059791008,
        "traj_len": 1.618205430844464,
        "weighted_distance": 2.048852854617754
    },
    "planner": "KPIECE",
    "start": {
        "state": {
            "elbow_joint": 1.971548259319323,
            "shoulder_lift_joint": -1.1394851275133948,
            "shoulder_pan_joint": 0.1228115487234821,
            "wrist_1_joint": -0.7804723859257726,
            "wrist_2_joint": 0.12958671773740124,
            "wrist_3_joint": -3.192489227718131
        }
    },
    "waypoints": [
        {
            "positions": [
                0.1228115487234821,
                -1.1394851275133948,
                1.971548259319323,
                -0.7804723859257726,
                0.12958671773740124,
                -3.192489227718131
            ]
        },
        {
            "positions": [
                0.05711547253448074,
                -1.1729062450185392,
                2.036254886832301,
                -0.8174855306974885,
                0.2874928490326143,
                -3.1771482083615386
            ]
        },
        {
            "positions": [
                -0.008580603654520624,
                -1.2063273625236834,
                2.1009615143452787,
                -0.8544986754692045,
                0.44539898032782743,
                -3.1618071890049455
            ]
        },
        {
            "positions": [
                -0.07427667984352199,
                -1.2397484800288279,
                2.1656681418582564,
                -0.8915118202409205,
                0.6033051116230405,
                -3.146466169648353
            ]
        },
        {
            "positions": [
                -0.13997275603252335,
                -1.273169597533972,
                2.230374769371234,
                -0.9285249650126365,
                0.7612112429182536,
                -3.13112515029176
            ]
        },
        {
            "positions": [
                -0.20566883222152477,
                -1.3065907150391165,
                2.2950813968842123,
                -0.9655381097843524,
                0.9191173742134667,
                -3.1157841309351673
            ]
        },
        {
            "positions": [
                -0.2713649084105261,
                -1.3400118325442607,
                2.35978802439719,
                -1.0025512545560684,
                1.0770235055086796,
                -3.100443111578574
            ]
        },
        {
            "positions": [
                -0.3370609845995275,
                -1.3734329500494051,
                2.4244946519101678,
                -1.0395643993277843,
                1.234929636803893,
                -3.0851020922219816
            ]
        }
    ]
}{
    "goal": {
        "global_pose": {
            "orientation": {
                "w": 0.5084816217422485,
                "x": -0.49083608388900757,
                "y": 0.5182115435600281,
                "z": -0.4816462993621826
            },
            "position": {
                "x": 0.5540239810943604,
                "y": 0.030875300988554955,
                "z": 0.16403168439865112
            }
        },
        "name": "move_to_storage_A"
    },
    "id": "KPIECE_move_to_storage_A_51",
    "joint_names": [
        "shoulder_pan_joint",
        "shoulder_lift_joint",
        "elbow_joint",
        "wrist_1_joint",
        "wrist_2_joint",
        "wrist_3_joint"
    ],
    "metrics": {
        "cart_traj_len": 0.3538837679483475,
        "distance_elbow_joint": 0.45213173865441725,
        "distance_shoulder_lift_joint": 0.23364257479534123,
        "distance_shoulder_pan_joint": 0.4594894456631056,
        "distance_wrist_1_joint": 0.256107516332996,
        "distance_wrist_2_joint": 1.1139528107574983,
        "distance_wrist_3_joint": 0.10340873140180928,
        "smoothness": 1.3322676295501878e-15,
        "time": 0.049188277,
        "traj_len": 1.618249924333435,
        "weighted_distance": 2.048318971132006
    },
    "planner": "KPIECE",
    "start": {
        "state": {
            "elbow_joint": 1.97154746011099,
            "shoulder_lift_joint": -1.13948474672311,
            "shoulder_pan_joint": 0.12281154466712228,
            "wrist_1_joint": -0.7804688027058302,
            "wrist_2_joint": 0.12958655903071145,
            "wrist_3_joint": 3.0906928834467795
        }
    },
    "waypoints": [
        {
            "positions": [
                0.12281154466712228,
                -1.13948474672311,
                1.97154746011099,
                -0.7804688027058302,
                0.12958655903071145,
                3.0906928834467795
            ]
        },
        {
            "positions": [
                0.05717019528667863,
                -1.1728622574081586,
                2.0361377084901924,
                -0.8170555907534011,
                0.28872267485321124,
                3.1054655593613236
            ]
        },
        {
            "positions": [
                -0.008471154093765018,
                -1.2062397680932075,
                2.100727956869395,
                -0.8536423788009719,
                0.447858790675711,
                3.1202382352758677
            ]
        },
        {
            "positions": [
                -0.07411250347420868,
                -1.2396172787782562,
                2.1653182052485973,
                -0.8902291668485427,
                0.6069949064982108,
                3.135010911190412
            ]
        },
        {
            "positions": [
                -0.1397538528546523,
                -1.272994789463305,
                2.2299084536277998,
                -0.9268159548961136,
                0.7661310223207105,
                3.1497835871049564
            ]
        },
        {
            "positions": [
                -0.205395202235096,
                -1.3063723001483538,
                2.2944987020070022,
                -0.9634027429436844,
                0.9252671381432103,
                3.1645562630195005
            ]
        },
        {
            "positions": [
                -0.27103655161553963,
                -1.3397498108334025,
                2.3590889503862047,
                -0.9999895309912553,
                1.08440325396571,
                3.1793289389340447
            ]
        },
        {
            "positions": [
                -0.3366779009959833,
                -1.3731273215184512,
                2.423679198765407,
                -1.0365763190388262,
                1.2435393697882098,
                3.194101614848589
            ]
        }
    ]
}{
    "goal": {
        "global_pose": {
            "orientation": {
                "w": 0.5084816217422485,
                "x": -0.49083608388900757,
                "y": 0.5182115435600281,
                "z": -0.4816462993621826
            },
            "position": {
                "x": 0.5540239810943604,
                "y": 0.030875300988554955,
                "z": 0.16403168439865112
            }
        },
        "name": "move_to_storage_A"
    },
    "id": "KPIECE_move_to_storage_A_51",
    "joint_names": [
        "shoulder_pan_joint",
        "shoulder_lift_joint",
        "elbow_joint",
        "wrist_1_joint",
        "wrist_2_joint",
        "wrist_3_joint"
    ],
    "metrics": {
        "cart_traj_len": 0.35275239566767175,
        "distance_elbow_joint": 0.4495744156503201,
        "distance_shoulder_lift_joint": 0.2349880396701789,
        "distance_shoulder_pan_joint": 0.4575897189590248,
        "distance_wrist_1_joint": 0.2439239393776962,
        "distance_wrist_2_joint": 1.11399745892009,
        "distance_wrist_3_joint": 0.10192965894779293,
        "smoothness": 4.440892098500626e-16,
        "time": 0.057469339,
        "traj_len": 1.613072605782239,
        "weighted_distance": 2.0405352110949897
    },
    "planner": "KPIECE",
    "start": {
        "state": {
            "elbow_joint": 1.9715472970024885,
            "shoulder_lift_joint": -1.1394870060712896,
            "shoulder_pan_joint": 0.12281152778156021,
            "wrist_1_joint": -0.780463741449964,
            "wrist_2_joint": 0.12958659822042276,
            "wrist_3_joint": 3.090690232415272
        }
    },
    "waypoints": [
        {
            "positions": [
                0.12281152778156021,
                -1.1394870060712896,
                1.9715472970024885,
                -0.780463741449964,
                0.12958659822042276,
                3.090690232415272
            ]
        },
        {
            "positions": [
                0.057441567930270956,
                -1.1730567260241722,
                2.0357722135239626,
                -0.8153100185039206,
                0.28872909235186417,
                3.1052516122649565
            ]
        },
        {
            "positions": [
                -0.007928391921018296,
                -1.206626445977055,
                2.099997130045437,
                -0.8501562955578772,
                0.4478715864833056,
                3.119812992114641
            ]
        },
        {
            "positions": [
                -0.07329835177230754,
                -1.2401961659299376,
                2.1642220465669113,
                -0.8850025726118338,
                0.607014080614747,
                3.134374371964326
            ]
        },
        {
            "positions": [
                -0.1386683116235968,
                -1.2737658858828205,
                2.228446963088386,
                -0.9198488496657904,
                0.7661565747461885,
                3.148935751814011
            ]
        },
        {
            "positions": [
                -0.2040382714748861,
                -1.307335605835703,
                2.29267187960986,
                -0.954695126719747,
                0.9252990688776299,
                3.1634971316636955
            ]
        },
        {
            "positions": [
                -0.2694082313261753,
                -1.3409053257885857,
                2.356896796131334,
                -0.9895414037737036,
                1.0844415630090714,
                3.17805851151338
            ]
        },
        {
            "positions": [
                -0.33477819117746455,
                -1.3744750457414685,
                2.4211217126528086,
                -1.0243876808276602,
                1.2435840571405128,
                3.192619891363065
            ]
        }
    ]
}