{
    "goal": {
        "global_pose": {
            "orientation": {
                "w": 0.7031023480610252,
                "x": -0.7110244013736278,
                "y": 0.0077485991402295624,
                "z": 0.005598929693374583
            },
            "position": {
                "x": -0.8841497679147869,
                "y": 0.44412534475326537,
                "z": 0.3711530566215515
            }
        },
        "name": "move_to_auspresseinheit_D"
    },
    "id": "KPIECE_move_to_auspresseinheit_D_144",
    "joint_names": [
        "shoulder_pan_joint",
        "shoulder_lift_joint",
        "elbow_joint",
        "wrist_1_joint",
        "wrist_2_joint",
        "wrist_3_joint"
    ],
    "metrics": {
        "cart_traj_len": 0.3439679435483013,
        "distance_elbow_joint": 0.6486884639063162,
        "distance_shoulder_lift_joint": 0.12670668047281541,
        "distance_shoulder_pan_joint": 0.13409611749781328,
        "distance_wrist_1_joint": 0.5624115055290395,
        "distance_wrist_2_joint": 1.4317081692700928,
        "distance_wrist_3_joint": 0.033206086702581405,
        "smoothness": 3.9474596431116675e-16,
        "time": 0.056875248,
        "traj_len": 1.713714393759549,
        "weighted_distance": 2.2354750885623744
    },
    "planner": "KPIECE",
    "start": {
        "state": {
            "elbow_joint": -1.8275523626775212,
            "shoulder_lift_joint": -2.126789852344167,
            "shoulder_pan_joint": -0.03513704404078235,
            "wrist_1_joint": -2.347782403156801,
            "wrist_2_joint": -1.6058999987535132,
            "wrist_3_joint": -3.0880379163319196
        }
    },
    "waypoints": [
        {
            "positions": [
                -0.03513704404078235,
                -2.126789852344167,
                -1.8275523626775212,
                -2.347782403156801,
                -1.6058999987535132,
                -3.0880379163319196
            ]
        },
        {
            "positions": [
                -0.05189905872800901,
                -2.1426281874032687,
                -1.7464663046892317,
                -2.4180838413479306,
                -1.4269364775947515,
                -3.083887155494097
            ]
        },
        {
            "positions": [
                -0.06866107341523567,
                -2.158466522462371,
                -1.6653802467009422,
                -2.488385279539061,
                -1.24797295643599,
                -3.0797363946562744
            ]
        },
        {
            "positions": [
                -0.08542308810246232,
                -2.1743048575214727,
                -1.5842941887126527,
                -2.5586867177301906,
                -1.0690094352772284,
                -3.0755856338184517
            ]
        },
        {
            "positions": [
                -0.10218510278968898,
                -2.1901431925805745,
                -1.5032081307243632,
                -2.628988155921321,
                -0.8900459141184668,
                -3.071434872980629
            ]
        },
        {
            "positions": [
                -0.11894711747691564,
                -2.2059815276396764,
                -1.4221220727360735,
                -2.6992895941124506,
                -0.7110823929597052,
                -3.067284112142806
            ]
        },
        {
            "positions": [
                -0.13570913216414232,
                -2.221819862698778,
                -1.341036014747784,
                -2.7695910323035804,
                -0.5321188718009435,
                -3.0631333513049834
            ]
        },
        {
            "positions": [
                -0.15247114685136898,
                -2.2376581977578804,
                -1.2599499567594945,
                -2.8398924704947106,
                -0.35315535064218206,
                -3.058982590467161
            ]
        },
        {
            "positions": [
                -0.16923316153859563,
                -2.2534965328169823,
                -1.178863898771205,
                -2.9101939086858404,
                -0.1741918294834203,
                -3.054831829629338
            ]
        }
    ]
}