{
    "goal": {
        "global_pose": {
            "orientation": {
                "w": -0.00223480608172531,
                "x": 0.0024358444001904467,
                "y": 0.7094548369677653,
                "z": -0.704743149386269
            },
            "position": {
                "x": -0.37947507619857795,
                "y": -0.6371506643295288,
                "z": 0.19426114857196808
            }
        },
        "name": "move_to_magneteinheit_C"
    },
    "id": "KPIECE_move_to_magneteinheit_C_39",
    "joint_names": [
        "shoulder_pan_joint",
        "shoulder_lift_joint",
        "elbow_joint",
        "wrist_1_joint",
        "wrist_2_joint",
        "wrist_3_joint"
    ],
    "metrics": {
        "cart_traj_len": 6.615036525945133,
        "distance_elbow_joint": 1.7284414094314324,
        "distance_shoulder_lift_joint": 3.3368224915792046,
        "distance_shoulder_pan_joint": 9.688413536545312,
        "distance_wrist_1_joint": 4.945259322758064,
        "distance_wrist_2_joint": 3.160604190185679,
        "distance_wrist_3_joint": 2.8003915937912778,
        "smoothness": 0.4850660636585755,
        "time": 0.8063784119999999,
        "traj_len": 5.065563398506721,
        "weighted_distance": 6.274279181293837
    },
    "planner": "KPIECE",
    "start": {
        "state": {
            "elbow_joint": 1.9565354010623817,
            "shoulder_lift_joint": -1.4165861575791021,
            "shoulder_pan_joint": -1.6717766225146293,
            "wrist_1_joint": -0.5286633292919765,
            "wrist_2_joint": 1.472756589071564,
            "wrist_3_joint": -3.1238370188695823
        }
    },
    "waypoints": [
        {
            "positions": [
                -1.6717766225146293,
                -1.4165861575791021,
                1.9565354010623817,
                -0.5286633292919765,
                1.472756589071564,
                -3.1238370188695823
            ]
        },
        {
            "positions": [
                -1.5131159621174053,
                -1.4716438147358135,
                1.9322522060178475,
                -0.445797326959667,
                1.4592812437636804,
                -3.0742413148913483
            ]
        },
        {
            "positions": [
                -1.3544553017201812,
                -1.5267014718925251,
                1.9079690109733134,
                -0.36293132462735755,
                1.4458058984557967,
                -3.0246456109131143
            ]
        },
        {
            "positions": [
                -1.1957946413229572,
                -1.5817591290492365,
                1.883685815928779,
                -0.28006532229504816,
                1.4323305531479131,
                -2.9750499069348804
            ]
        },
        {
            "positions": [
                -1.0371339809257334,
                -1.636816786205948,
                1.859402620884245,
                -0.1971993199627387,
                1.4188552078400294,
                -2.925454202956647
            ]
        },
        {
            "positions": [
                -0.8784733205285092,
                -1.6918744433626596,
                1.8351194258397108,
                -0.11433331763042925,
                1.4053798625321459,
                -2.875858498978413
            ]
        },
        {
            "positions": [
                -0.7198126601312853,
                -1.746932100519371,
                1.8108362307951766,
                -0.03146731529811986,
                1.3919045172242621,
                -2.826262795000179
            ]
        },
        {
            "positions": [
                -0.5611519997340613,
                -1.8019897576760826,
                1.7865530357506425,
                0.051398687034189594,
                1.3784291719163786,
                -2.776667091021945
            ]
        },
        {
            "positions": [
                -0.40249133933683723,
                -1.857047414832794,
                1.7622698407061081,
                0.13426468936649905,
                1.364953826608495,
                -2.727071387043711
            ]
        },
        {
            "positions": [
                -0.2438306789396132,
                -1.9121050719895056,
                1.737986645661574,
                0.2171306916988085,
                1.3514784813006113,
                -2.677475683065477
            ]
        },
        {
            "positions": [
                -0.08517001854238915,
                -1.967162729146217,
                1.7137034506170399,
                0.29999669403111795,
                1.3380031359927278,
                -2.627879979087243
            ]
        },
        {
            "positions": [
                0.07349064185483467,
                -2.0222203863029287,
                1.6894202555725057,
                0.3828626963634273,
                1.324527790684844,
                -2.5782842751090094
            ]
        },
        {
            "positions": [
                0.2321513022520587,
                -2.07727804345964,
                1.6651370605279716,
                0.46572869869573674,
                1.3110524453769605,
                -2.5286885711307754
            ]
        },
        {
            "positions": [
                0.390811962649283,
                -2.1323357006163515,
                1.6408538654834373,
                0.5485947010280463,
                1.2975771000690768,
                -2.4790928671525414
            ]
        },
        {
            "positions": [
                0.5494726230465068,
                -2.187393357773063,
                1.6165706704389031,
                0.6314607033603556,
                1.2841017547611933,
                -2.4294971631743074
            ]
        },
        {
            "positions": [
                0.7081332834437306,
                -2.2424510149297747,
                1.592287475394369,
                0.714326705692665,
                1.2706264094533097,
                -2.3799014591960734
            ]
        },
        {
            "positions": [
                0.8667939438409549,
                -2.2975086720864857,
                1.5680042803498349,
                0.7971927080249746,
                1.257151064145426,
                -2.3303057552178394
            ]
        },
        {
            "positions": [
                1.0254546042381787,
                -2.3525663292431975,
                1.5437210853053007,
                0.8800587103572839,
                1.2436757188375425,
                -2.2807100512396055
            ]
        },
        {
            "positions": [
                1.184115264635403,
                -2.407623986399909,
                1.5194378902607664,
                0.9629247126895935,
                1.2302003735296587,
                -2.2311143472613715
            ]
        },
        {
            "positions": [
                1.3427759250326268,
                -2.4626816435566203,
                1.4951546952162322,
                1.0457907150219028,
                1.2167250282217752,
                -2.1815186432831375
            ]
        },
        {
            "positions": [
                1.501436585429851,
                -2.517739300713332,
                1.470871500171698,
                1.1286567173542124,
                1.2032496829138917,
                -2.131922939304904
            ]
        },
        {
            "positions": [
                1.6600972458270749,
                -2.572796957870043,
                1.4465883051271637,
                1.2115227196865217,
                1.189774337606008,
                -2.08232723532667
            ]
        },
        {
            "positions": [
                1.8187579062242987,
                -2.627854615026755,
                1.4223051100826298,
                1.294388722018831,
                1.1762989922981242,
                -2.032731531348436
            ]
        },
        {
            "positions": [
                1.977418566621523,
                -2.6829122721834664,
                1.3980219150380955,
                1.3772547243511406,
                1.1628236469902407,
                -1.9831358273702022
            ]
        },
        {
            "positions": [
                2.1360792270187465,
                -2.737969929340178,
                1.3737387199935613,
                1.46012072668345,
                1.1493483016823571,
                -1.9335401233919682
            ]
        },
        {
            "positions": [
                2.294739887415971,
                -2.7930275864968896,
                1.3494555249490272,
                1.5429867290157595,
                1.1358729563744734,
                -1.8839444194137343
            ]
        },
        {
            "positions": [
                2.453400547813195,
                -2.8480852436536006,
                1.3251723299044929,
                1.625852731348069,
                1.1223976110665899,
                -1.8343487154355003
            ]
        },
        {
            "positions": [
                2.6120612082104184,
                -2.9031429008103125,
                1.3008891348599587,
                1.7087187336803782,
                1.1089222657587063,
                -1.7847530114572665
            ]
        },
        {
            "positions": [
                2.7707218686076427,
                -2.958200557967024,
                1.2766059398154246,
                1.791584736012688,
                1.0954469204508226,
                -1.7351573074790325
            ]
        },
        {
            "positions": [
                2.645418088567121,
                -2.9254138327440984,
                1.315317599400314,
                1.6819935765981826,
                1.0256711802933396,
                -1.7421941296102248
            ]
        },
        {
            "positions": [
                2.5201143085266,
                -2.8926271075211725,
                1.3540292589852034,
                1.572402417183677,
                0.9558954401358566,
                -1.7492309517414169
            ]
        },
        {
            "positions": [
                2.3948105284860786,
                -2.859840382298247,
                1.3927409185700927,
                1.4628112577691716,
                0.8861196999783736,
                -1.7562677738726091
            ]
        },
        {
            "positions": [
                2.269506748445557,
                -2.827053657075321,
                1.4314525781549823,
                1.3532200983546663,
                0.8163439598208906,
                -1.7633045960038014
            ]
        },
        {
            "positions": [
                2.144202968405035,
                -2.7942669318523956,
                1.4701642377398716,
                1.243628938940161,
                0.7465682196634076,
                -1.7703414181349935
            ]
        },
        {
            "positions": [
                2.018899188364514,
                -2.7614802066294697,
                1.508875897324761,
                1.1340377795256553,
                0.6767924795059246,
                -1.7773782402661857
            ]
        },
        {
            "positions": [
                1.8935954083239923,
                -2.728693481406544,
                1.5475875569096504,
                1.0244466201111497,
                0.6070167393484415,
                -1.784415062397378
            ]
        },
        {
            "positions": [
                1.768291628283471,
                -2.6959067561836187,
                1.5862992164945398,
                0.9148554606966445,
                0.5372409991909585,
                -1.79145188452857
            ]
        },
        {
            "positions": [
                1.6429878482429494,
                -2.663120030960693,
                1.625010876079429,
                0.805264301282139,
                0.46746525903347547,
                -1.7984887066597623
            ]
        },
        {
            "positions": [
                1.5176840682024282,
                -2.6303333057377674,
                1.6637225356643186,
                0.6956731418676336,
                0.39768951887599246,
                -1.8055255287909544
            ]
        },
        {
            "positions": [
                1.3923802881619065,
                -2.5975465805148414,
                1.702434195249208,
                0.586081982453128,
                0.32791377871850946,
                -1.8125623509221467
            ]
        },
        {
            "positions": [
                1.2670765081213853,
                -2.564759855291916,
                1.7411458548340975,
                0.4764908230386229,
                0.25813803856102646,
                -1.819599173053339
            ]
        },
        {
            "positions": [
                1.1417727280808638,
                -2.53197313006899,
                1.7798575144189868,
                0.3668996636241175,
                0.18836229840354346,
                -1.826635995184531
            ]
        },
        {
            "positions": [
                1.0164689480403422,
                -2.4991864048460646,
                1.8185691740038763,
                0.2573085042096117,
                0.11858655824606035,
                -1.8336728173157233
            ]
        },
        {
            "positions": [
                0.8911651679998207,
                -2.466399679623139,
                1.8572808335887656,
                0.14771734479510634,
                0.048810818088577346,
                -1.8407096394469156
            ]
        },
        {
            "positions": [
                0.7658613879592995,
                -2.433612954400213,
                1.895992493173655,
                0.038126185380600974,
                -0.020964922068905656,
                -1.8477464615781076
            ]
        },
        {
            "positions": [
                0.6405576079187778,
                -2.4008262291772877,
                1.9347041527585445,
                -0.0714649740339044,
                -0.09074066222638844,
                -1.8547832837093
            ]
        },
        {
            "positions": [
                0.5152538278782561,
                -2.368039503954362,
                1.9734158123434338,
                -0.18105613344840998,
                -0.16051640238387166,
                -1.8618201058404922
            ]
        },
        {
            "positions": [
                0.3899500478377349,
                -2.3352527787314363,
                2.012127471928323,
                -0.29064729286291513,
                -0.23029214254135466,
                -1.8688569279716842
            ]
        },
        {
            "positions": [
                0.2646462677972137,
                -2.3024660535085104,
                2.0508391315132126,
                -0.4002384522774207,
                -0.30006788269883766,
                -1.8758937501028765
            ]
        },
        {
            "positions": [
                0.139342487756692,
                -2.269679328285585,
                2.0895507910981017,
                -0.5098296116919259,
                -0.36984362285632066,
                -1.8829305722340688
            ]
        },
        {
            "positions": [
                0.014038707716170329,
                -2.2368926030626595,
                2.1282624506829912,
                -0.6194207711064319,
                -0.43961936301380367,
                -1.8899673943652608
            ]
        },
        {
            "positions": [
                -0.1112650723243509,
                -2.2041058778397336,
                2.166974110267881,
                -0.729011930520937,
                -0.5093951031712867,
                -1.8970042164964531
            ]
        },
        {
            "positions": [
                -0.2590105788550413,
                -2.139036289648234,
                2.1570901241596294,
                -0.735537842453423,
                -0.43574182204986,
                -1.9751207773329098
            ]
        },
        {
            "positions": [
                -0.4067560853857317,
                -2.0739667014567345,
                2.1472061380513785,
                -0.7420637543859091,
                -0.36208854092843334,
                -2.0532373381693665
            ]
        },
        {
            "positions": [
                -0.5545015919164221,
                -2.0088971132652347,
                2.137322151943127,
                -0.7485896663183951,
                -0.2884352598070067,
                -2.1313538990058234
            ]
        },
        {
            "positions": [
                -0.7022470984471125,
                -1.9438275250737354,
                2.127438165834876,
                -0.7551155782508812,
                -0.21478197868558002,
                -2.20947045984228
            ]
        },
        {
            "positions": [
                -0.8499926049778029,
                -1.8787579368822358,
                2.117554179726625,
                -0.7616414901833671,
                -0.14112869756415336,
                -2.2875870206787368
            ]
        },
        {
            "positions": [
                -0.9977381115084933,
                -1.8136883486907363,
                2.1076701936183735,
                -0.7681674021158531,
                -0.0674754164427267,
                -2.365703581515193
            ]
        },
        {
            "positions": [
                -1.1454836180391839,
                -1.7486187604992365,
                2.0977862075101226,
                -0.7746933140483392,
                0.0061778646786999625,
                -2.44382014235165
            ]
        },
        {
            "positions": [
                -1.2932291245698742,
                -1.6835491723077372,
                2.087902221401871,
                -0.7812192259808252,
                0.07983114580012662,
                -2.521936703188107
            ]
        },
        {
            "positions": [
                -1.4409746311005645,
                -1.6184795841162374,
                2.07801823529362,
                -0.7877451379133111,
                0.15348442692155329,
                -2.6000532640245635
            ]
        },
        {
            "positions": [
                -1.588720137631255,
                -1.553409995924738,
                2.068134249185369,
                -0.7942710498457972,
                0.22713770804297995,
                -2.67816982486102
            ]
        },
        {
            "positions": [
                -1.7364656441619455,
                -1.4883404077332383,
                2.0582502630771176,
                -0.8007969617782832,
                0.3007909891644066,
                -2.756286385697477
            ]
        },
        {
            "positions": [
                -1.8842111506926358,
                -1.4232708195417387,
                2.048366276968866,
                -0.8073228737107692,
                0.37444427028583327,
                -2.8344029465339338
            ]
        },
        {
            "positions": [
                -2.031956657223326,
                -1.3582012313502392,
                2.0384822908606153,
                -0.8138487856432552,
                0.44809755140725993,
                -2.9125195073703907
            ]
        },
        {
            "positions": [
                -2.179702163754017,
                -1.2931316431587396,
                2.028598304752364,
                -0.8203746975757412,
                0.5217508325286866,
                -2.990636068206847
            ]
        },
        {
            "positions": [
                -2.327447670284707,
                -1.22806205496724,
                2.018714318644113,
                -0.8269006095082273,
                0.5954041136501131,
                -3.0687526290433036
            ]
        },
        {
            "positions": [
                -2.4751931768153974,
                -1.1629924667757405,
                2.0088303325358616,
                -0.8334265214407133,
                0.66905739477154,
                -3.1468691898797605
            ]
        }
    ]
}