{
    "goal": {
        "global_pose": {
            "orientation": {
                "w": -0.4816463035849501,
                "x": 0.5182115481033762,
                "y": 0.4908360881923453,
                "z": -0.5084816262002911
            },
            "position": {
                "x": -0.8240239810943604,
                "y": 0.19912469901144506,
                "z": 0.16403168439865112
            }
        },
        "name": "move_to_storage_D"
    },
    "id": "KPIECE_move_to_storage_D_41",
    "joint_names": [
        "shoulder_pan_joint",
        "shoulder_lift_joint",
        "elbow_joint",
        "wrist_1_joint",
        "wrist_2_joint",
        "wrist_3_joint"
    ],
    "metrics": {
        "cart_traj_len": 3.911221341817095,
        "distance_elbow_joint": 4.234046511430384,
        "distance_shoulder_lift_joint": 1.262791650783218,
        "distance_shoulder_pan_joint": 2.8150956517258807,
        "distance_wrist_1_joint": 2.8719816888474545,
        "distance_wrist_2_joint": 0.9191510923474479,
        "distance_wrist_3_joint": 3.1388747429236616,
        "smoothness": 0.15072002778369978,
        "time": 0.263095794,
        "traj_len": 3.9040928956747476,
        "weighted_distance": 5.030986345151442
    },
    "planner": "KPIECE",
    "start": {
        "state": {
            "elbow_joint": -2.384821988534728,
            "shoulder_lift_joint": -2.2788054721415256,
            "shoulder_pan_joint": -0.1854694642142757,
            "wrist_1_joint": 1.4845938289331202,
            "wrist_2_joint": 0.17898776772866878,
            "wrist_3_joint": 0.037105688729662994
        }
    },
    "waypoints": [
        {
            "positions": [
                -0.1854694642142757,
                -2.2788054721415256,
                -2.384821988534728,
                1.4845938289331202,
                0.17898776772866878,
                0.037105688729662994
            ]
        },
        {
            "positions": [
                -0.14329070363926388,
                -2.265821397633836,
                -2.3960462822121498,
                1.46398600884947,
                0.16372690084362432,
                0.055325684178272404
            ]
        },
        {
            "positions": [
                -0.059555573819304514,
                -2.2254880050756007,
                -2.2785602115848063,
                1.376102973312072,
                0.1726635922689437,
                0.10691254680546233
            ]
        },
        {
            "positions": [
                0.024179556000654856,
                -2.1851546125173655,
                -2.1610741409574628,
                1.288219937774674,
                0.18160028369426312,
                0.15849940943265226
            ]
        },
        {
            "positions": [
                0.1079146858206142,
                -2.1448212199591303,
                -2.0435880703301192,
                1.200336902237276,
                0.1905369751195825,
                0.21008627205984218
            ]
        },
        {
            "positions": [
                0.1916498156405736,
                -2.104487827400895,
                -1.926101999702776,
                1.112453866699878,
                0.1994736665449019,
                0.26167313468703207
            ]
        },
        {
            "positions": [
                0.275384945460533,
                -2.06415443484266,
                -1.8086159290754324,
                1.02457083116248,
                0.20841035797022128,
                0.31325999731422205
            ]
        },
        {
            "positions": [
                0.3591200752804923,
                -2.0238210422844247,
                -1.6911298584480892,
                0.936687795625082,
                0.2173470493955407,
                0.3648468599414119
            ]
        },
        {
            "positions": [
                0.44285520510045173,
                -1.9834876497261895,
                -1.5736437878207457,
                0.8488047600876839,
                0.22628374082086009,
                0.4164337225686019
            ]
        },
        {
            "positions": [
                0.5265903349204111,
                -1.9431542571679543,
                -1.4561577171934021,
                0.7609217245502858,
                0.23522043224617947,
                0.46802058519579176
            ]
        },
        {
            "positions": [
                0.6103254647403704,
                -1.902820864609719,
                -1.3386716465660586,
                0.6730386890128879,
                0.2441571236714989,
                0.5196074478229817
            ]
        },
        {
            "positions": [
                0.6940605945603299,
                -1.862487472051484,
                -1.2211855759387151,
                0.5851556534754898,
                0.2530938150968183,
                0.5711943104501718
            ]
        },
        {
            "positions": [
                0.7777957243802891,
                -1.8221540794932487,
                -1.1036995053113718,
                0.49727261793809185,
                0.26203050652213766,
                0.6227811730773616
            ]
        },
        {
            "positions": [
                0.8615308542002484,
                -1.7818206869350135,
                -0.9862134346840283,
                0.4093895824006939,
                0.27096719794745705,
                0.6743680357045515
            ]
        },
        {
            "positions": [
                0.9452659840202078,
                -1.7414872943767783,
                -0.8687273640566848,
                0.32150654686329583,
                0.27990388937277644,
                0.7259548983317415
            ]
        },
        {
            "positions": [
                1.0290011138401673,
                -1.701153901818543,
                -0.7512412934293415,
                0.23362351132589776,
                0.2888405807980958,
                0.7775417609589315
            ]
        },
        {
            "positions": [
                1.1127362436601267,
                -1.6608205092603079,
                -0.633755222801998,
                0.1457404757884997,
                0.2977772722234152,
                0.8291286235861214
            ]
        },
        {
            "positions": [
                1.196471373480086,
                -1.6204871167020727,
                -0.5162691521746547,
                0.05785744025110162,
                0.3067139636487346,
                0.8807154862133112
            ]
        },
        {
            "positions": [
                1.2802065033000452,
                -1.5801537241438377,
                -0.39878308154731124,
                -0.030025595286296225,
                0.315650655074054,
                0.9323023488405011
            ]
        },
        {
            "positions": [
                1.3639416331200047,
                -1.5398203315856023,
                -0.2812970109199675,
                -0.1179086308236943,
                0.32458734649937343,
                0.9838892114676911
            ]
        },
        {
            "positions": [
                1.447676762939964,
                -1.4994869390273673,
                -0.16381094029262444,
                -0.20579166636109236,
                0.3335240379246928,
                1.035476074094881
            ]
        },
        {
            "positions": [
                1.5314118927599236,
                -1.4591535464691319,
                -0.04632486966528049,
                -0.29367470189849043,
                0.34246072935001226,
                1.087062936722071
            ]
        },
        {
            "positions": [
                1.6151470225798827,
                -1.4188201539108967,
                0.07116120096206258,
                -0.3815577374358885,
                0.35139742077533165,
                1.1386497993492608
            ]
        },
        {
            "positions": [
                1.698882152399842,
                -1.3784867613526617,
                0.18864727158940608,
                -0.46944077297328635,
                0.36033411220065104,
                1.1902366619764506
            ]
        },
        {
            "positions": [
                1.7826172822198016,
                -1.3381533687944263,
                0.3061333422167496,
                -0.5573238085106846,
                0.3692708036259704,
                1.2418235246036406
            ]
        },
        {
            "positions": [
                1.8663524120397608,
                -1.2978199762361913,
                0.4236194128440931,
                -0.6452068440480823,
                0.3782074950512898,
                1.2934103872308305
            ]
        },
        {
            "positions": [
                1.9500875418597203,
                -1.257486583677956,
                0.5411054834714362,
                -0.7330898795854803,
                0.3871441864766092,
                1.3449972498580205
            ]
        },
        {
            "positions": [
                2.0338226716796797,
                -1.2171531911197209,
                0.6585915540987801,
                -0.8209729151228784,
                0.3960808779019286,
                1.3965841124852105
            ]
        },
        {
            "positions": [
                2.117557801499639,
                -1.1768197985614857,
                0.7760776247261232,
                -0.9088559506602765,
                0.405017569327248,
                1.4481709751124003
            ]
        },
        {
            "positions": [
                2.201292931319599,
                -1.1364864060032505,
                0.8935636953534667,
                -0.9967389861976745,
                0.41395426075256736,
                1.4997578377395904
            ]
        },
        {
            "positions": [
                2.285028061139558,
                -1.0961530134450153,
                1.0110497659808104,
                -1.0846220217350726,
                0.42289095217788675,
                1.5513447003667802
            ]
        },
        {
            "positions": [
                2.3194878737767626,
                -1.0881390942363445,
                1.0926223829368107,
                -1.0543454379171466,
                0.4873635695907008,
                1.7138082734954345
            ]
        },
        {
            "positions": [
                2.3539476864139672,
                -1.0801251750276737,
                1.1741949998928107,
                -1.0240688540992207,
                0.5518361870035149,
                1.876271846624089
            ]
        },
        {
            "positions": [
                2.388407499051172,
                -1.072111255819003,
                1.2557676168488108,
                -0.9937922702812946,
                0.616308804416329,
                2.0387354197527436
            ]
        },
        {
            "positions": [
                2.4228673116883765,
                -1.0640973366103321,
                1.337340233804811,
                -0.9635156864633686,
                0.6807814218291431,
                2.201198992881398
            ]
        },
        {
            "positions": [
                2.457327124325581,
                -1.0560834174016613,
                1.4189128507608113,
                -0.9332391026454426,
                0.7452540392419572,
                2.3636625660100523
            ]
        },
        {
            "positions": [
                2.491786936962786,
                -1.0480694981929908,
                1.5004854677168113,
                -0.9029625188275167,
                0.8097266566547713,
                2.526126139138707
            ]
        },
        {
            "positions": [
                2.5262467495999905,
                -1.04005557898432,
                1.5820580846728114,
                -0.8726859350095907,
                0.8741992740675854,
                2.688589712267361
            ]
        },
        {
            "positions": [
                2.560706562237195,
                -1.0320416597756492,
                1.6636307016288117,
                -0.8424093511916646,
                0.9386718914803995,
                2.8510532853960155
            ]
        },
        {
            "positions": [
                2.5951663748744,
                -1.0240277405669784,
                1.745203318584812,
                -0.8121327673737386,
                1.0031445088932136,
                3.01351685852467
            ]
        },
        {
            "positions": [
                2.6296261875116045,
                -1.0160138213583076,
                1.826775935540812,
                -0.7818561835558127,
                1.0676171263060277,
                3.1759804316533247
            ]
        }
    ]
}