{
    "goal": {
        "global_pose": {
            "orientation": {
                "w": 0.005598929693374612,
                "x": 0.007748599140229565,
                "y": 0.7110244013736278,
                "z": -0.7031023480610252
            },
            "position": {
                "x": -0.8858502320852131,
                "y": -0.7141253447532654,
                "z": 0.3711530566215515
            }
        },
        "name": "move_to_auspresseinheit_C"
    },
    "id": "KPIECE_move_to_auspresseinheit_C_113",
    "joint_names": [
        "shoulder_pan_joint",
        "shoulder_lift_joint",
        "elbow_joint",
        "wrist_1_joint",
        "wrist_2_joint",
        "wrist_3_joint"
    ],
    "metrics": {
        "cart_traj_len": 0.4933168821362541,
        "distance_elbow_joint": 0.9905430321498512,
        "distance_shoulder_lift_joint": 0.3202033751281441,
        "distance_shoulder_pan_joint": 0.2573070732312024,
        "distance_wrist_1_joint": 0.6588130160920102,
        "distance_wrist_2_joint": 1.3008186266225668,
        "distance_wrist_3_joint": 0.03982367774866402,
        "smoothness": 3.2297397335745243e-16,
        "time": 0.939240925,
        "traj_len": 1.888785006551153,
        "weighted_distance": 2.3678656632470396
    },
    "planner": "KPIECE",
    "start": {
        "state": {
            "elbow_joint": 1.7527959577737207,
            "shoulder_lift_joint": -0.9740617694225068,
            "shoulder_pan_joint": -2.967991417825858,
            "wrist_1_joint": -0.759517768980727,
            "wrist_2_joint": 1.7443932448377408,
            "wrist_3_joint": -3.0840537646736568
        }
    },
    "waypoints": [
        {
            "positions": [
                -2.967991417825858,
                -0.9740617694225068,
                1.7527959577737207,
                -0.759517768980727,
                1.7443932448377408,
                -3.0840537646736568
            ]
        },
        {
            "positions": [
                -2.9422607105027376,
                -0.9420414319096924,
                1.6537416545587356,
                -0.693636467371526,
                1.6143113821754842,
                -3.088036132448523
            ]
        },
        {
            "positions": [
                -2.9165300031796173,
                -0.910021094396878,
                1.5546873513437505,
                -0.6277551657623249,
                1.4842295195132276,
                -3.0920185002233898
            ]
        },
        {
            "positions": [
                -2.8907992958564974,
                -0.8780007568840635,
                1.4556330481287654,
                -0.5618738641531239,
                1.3541476568509707,
                -3.096000867998256
            ]
        },
        {
            "positions": [
                -2.865068588533377,
                -0.8459804193712491,
                1.3565787449137803,
                -0.49599256254392293,
                1.224065794188714,
                -3.0999832357731223
            ]
        },
        {
            "positions": [
                -2.8393378812102568,
                -0.8139600818584347,
                1.257524441698795,
                -0.4301112609347219,
                1.0939839315264575,
                -3.103965603547989
            ]
        },
        {
            "positions": [
                -2.8136071738871364,
                -0.7819397443456203,
                1.15847013848381,
                -0.3642299593255209,
                0.9639020688642008,
                -3.1079479713228553
            ]
        },
        {
            "positions": [
                -2.787876466564016,
                -0.7499194068328059,
                1.0594158352688248,
                -0.2983486577163199,
                0.8338202062019442,
                -3.1119303390977215
            ]
        },
        {
            "positions": [
                -2.7621457592408962,
                -0.7178990693199915,
                0.9603615320538397,
                -0.23246735610711888,
                0.7037383435396873,
                -3.115912706872588
            ]
        },
        {
            "positions": [
                -2.736415051917776,
                -0.6858787318071771,
                0.8613072288388546,
                -0.16658605449791786,
                0.5736564808774307,
                -3.1198950746474545
            ]
        },
        {
            "positions": [
                -2.7106843445946556,
                -0.6538583942943627,
                0.7622529256238695,
                -0.10070475288871686,
                0.44357461821517397,
                -3.123877442422321
            ]
        }
    ]
}