{
    "goal": {
        "global_pose": {
            "orientation": {
                "w": 0.7031023502349854,
                "x": -0.7110244035720825,
                "y": 0.007748599164187908,
                "z": 0.005598929710686207
            },
            "position": {
                "x": 0.11585023208521307,
                "y": 0.44412534475326537,
                "z": 0.3711530566215515
            }
        },
        "name": "move_to_auspresseinheit_A"
    },
    "id": "KPIECE_move_to_auspresseinheit_A_111",
    "joint_names": [
        "shoulder_pan_joint",
        "shoulder_lift_joint",
        "elbow_joint",
        "wrist_1_joint",
        "wrist_2_joint",
        "wrist_3_joint"
    ],
    "metrics": {
        "cart_traj_len": 0.6821656528515805,
        "distance_elbow_joint": 0.02843756936875197,
        "distance_shoulder_lift_joint": 0.5347600078689452,
        "distance_shoulder_pan_joint": 1.0453163725310655,
        "distance_wrist_1_joint": 0.5618070285869885,
        "distance_wrist_2_joint": 0.6339786803574814,
        "distance_wrist_3_joint": 0.4931099362426008,
        "smoothness": 0.6114102137870637,
        "time": 0.18967921399999998,
        "traj_len": 1.815877086962615,
        "weighted_distance": 2.340815066677738
    },
    "planner": "KPIECE",
    "start": {
        "state": {
            "elbow_joint": 2.4225746658250005,
            "shoulder_lift_joint": -1.3736534386056498,
            "shoulder_pan_joint": -0.3378633547517467,
            "wrist_1_joint": -1.0288598680537169,
            "wrist_2_joint": 1.233022673432363,
            "wrist_3_joint": -3.0940220416140027
        }
    },
    "waypoints": [
        {
            "positions": [
                -0.3378633547517467,
                -1.3736534386056498,
                2.4225746658250005,
                -1.0288598680537169,
                1.233022673432363,
                -3.0940220416140027
            ]
        },
        {
            "positions": [
                -0.21165780937246192,
                -1.4487128623592582,
                2.4212179159688527,
                -0.9617041052922572,
                1.1510848504440652,
                -3.06151787504727
            ]
        },
        {
            "positions": [
                -0.08545226399317712,
                -1.5237722861128669,
                2.419861166112705,
                -0.8945483425307976,
                1.0691470274557673,
                -3.0290137084805377
            ]
        },
        {
            "positions": [
                0.040753281386107676,
                -1.5988317098664753,
                2.418504416256557,
                -0.827392579769338,
                0.9872092044674694,
                -2.996509541913805
            ]
        },
        {
            "positions": [
                0.16695882676539248,
                -1.6738911336200837,
                2.4171476664004095,
                -0.7602368170078784,
                0.9052713814791715,
                -2.9640053753470728
            ]
        },
        {
            "positions": [
                0.29316437214467733,
                -1.7489505573736923,
                2.4157909165442617,
                -0.6930810542464186,
                0.8233335584908736,
                -2.93150120878034
            ]
        },
        {
            "positions": [
                0.4193699175239621,
                -1.8240099811273005,
                2.414434166688114,
                -0.6259252914849591,
                0.7413957355025759,
                -2.8989970422136078
            ]
        },
        {
            "positions": [
                0.5455754629032469,
                -1.8990694048809091,
                2.413077416831966,
                -0.5587695287234994,
                0.659457912514278,
                -2.866492875646875
            ]
        },
        {
            "positions": [
                0.6265142403412828,
                -1.903741425677752,
                2.4036072566441073,
                -0.5129111840951138,
                0.6896648722339762,
                -2.999283260784612
            ]
        },
        {
            "positions": [
                0.7074530177793187,
                -1.908413446474595,
                2.3941370964562485,
                -0.4670528394667283,
                0.7198718319536743,
                -3.132073645922348
            ]
        }
    ]
}