{
    "goal": {
        "global_pose": {
            "orientation": {
                "w": 0.7031023502349854,
                "x": -0.7110244035720825,
                "y": 0.007748599164187908,
                "z": 0.005598929710686207
            },
            "position": {
                "x": 0.11585023208521307,
                "y": 0.44412534475326537,
                "z": 0.3711530566215515
            }
        },
        "name": "move_to_auspresseinheit_A"
    },
    "id": "KPIECE_move_to_auspresseinheit_A_99",
    "joint_names": [
        "shoulder_pan_joint",
        "shoulder_lift_joint",
        "elbow_joint",
        "wrist_1_joint",
        "wrist_2_joint",
        "wrist_3_joint"
    ],
    "metrics": {
        "cart_traj_len": 1.5514202459040598,
        "distance_elbow_joint": 1.8940448103340253,
        "distance_shoulder_lift_joint": 0.533426590436195,
        "distance_shoulder_pan_joint": 1.0420989567165573,
        "distance_wrist_1_joint": 1.3055118736872817,
        "distance_wrist_2_joint": 1.0393425459225112,
        "distance_wrist_3_joint": 3.628757527670449,
        "smoothness": 0.6539080789093421,
        "time": 0.547435575,
        "traj_len": 3.0729761314997255,
        "weighted_distance": 4.364120963002482
    },
    "planner": "KPIECE",
    "start": {
        "state": {
            "elbow_joint": 2.4225746658250005,
            "shoulder_lift_joint": -1.3736534386056498,
            "shoulder_pan_joint": -0.3378633547517467,
            "wrist_1_joint": -1.0288598680537169,
            "wrist_2_joint": 1.233022673432363,
            "wrist_3_joint": -3.0940220416140027
        }
    },
    "waypoints": [
        {
            "positions": [
                -0.3378633547517467,
                -1.3736534386056498,
                2.4225746658250005,
                -1.0288598680537169,
                1.233022673432363,
                -3.0940220416140027
            ]
        },
        {
            "positions": [
                -0.29239704144822243,
                -1.4043026535592134,
                2.3491680069155327,
                -0.9597627670030537,
                1.2052291088473508,
                -2.955949895580314
            ]
        },
        {
            "positions": [
                -0.2469307281446981,
                -1.434951868512777,
                2.275761348006065,
                -0.8906656659523907,
                1.1774355442623385,
                -2.8178777495466254
            ]
        },
        {
            "positions": [
                -0.20146441484117378,
                -1.4656010834663402,
                2.2023546890965973,
                -0.8215685649017276,
                1.1496419796773263,
                -2.6798056035129365
            ]
        },
        {
            "positions": [
                -0.15599810153764948,
                -1.4962502984199038,
                2.128948030187129,
                -0.7524714638510646,
                1.121848415092314,
                -2.541733457479248
            ]
        },
        {
            "positions": [
                -0.11053178823412516,
                -1.5268995133734673,
                2.0555413712776613,
                -0.6833743628004014,
                1.0940548505073018,
                -2.403661311445559
            ]
        },
        {
            "positions": [
                -0.06506547493060083,
                -1.5575487283270308,
                1.9821347123681936,
                -0.6142772617497383,
                1.0662612859222895,
                -2.2655891654118707
            ]
        },
        {
            "positions": [
                -0.01959916162707659,
                -1.5881979432805942,
                1.9087280534587259,
                -0.5451801606990754,
                1.0384677213372773,
                -2.127517019378182
            ]
        },
        {
            "positions": [
                0.025867151676447764,
                -1.6188471582341577,
                1.8353213945492581,
                -0.47608305964841213,
                1.010674156752265,
                -1.9894448733444932
            ]
        },
        {
            "positions": [
                0.07133346497997206,
                -1.6494963731877212,
                1.7619147356397904,
                -0.4069859585977491,
                0.9828805921672528,
                -1.8513727273108045
            ]
        },
        {
            "positions": [
                0.11679977828349641,
                -1.6801455881412848,
                1.6885080767303222,
                -0.337888857547086,
                0.9550870275822405,
                -1.7133005812771158
            ]
        },
        {
            "positions": [
                0.1622660915870207,
                -1.7107948030948483,
                1.6151014178208545,
                -0.26879175649642295,
                0.9272934629972283,
                -1.5752284352434271
            ]
        },
        {
            "positions": [
                0.20773240489054506,
                -1.7414440180484116,
                1.5416947589113867,
                -0.19969465544575982,
                0.899499898412216,
                -1.4371562892097385
            ]
        },
        {
            "positions": [
                0.25319871819406925,
                -1.7720932330019752,
                1.468288100001919,
                -0.1305975543950968,
                0.8717063338272037,
                -1.2990841431760498
            ]
        },
        {
            "positions": [
                0.2741768856257588,
                -1.8020541341930008,
                1.572629711313775,
                -0.11226620197185302,
                0.8033675809866282,
                -1.337125647012293
            ]
        },
        {
            "positions": [
                0.2951550530574484,
                -1.8320150353840265,
                1.6769713226256309,
                -0.09393484954860927,
                0.7350288281460526,
                -1.3751671508485361
            ]
        },
        {
            "positions": [
                0.3235442321042781,
                -1.8422323720358824,
                1.780377585451962,
                -0.1262940526823172,
                0.6938025510832315,
                -1.5086580197256634
            ]
        },
        {
            "positions": [
                0.35193341115110777,
                -1.852449708687738,
                1.883783848278293,
                -0.15865325581602507,
                0.6525762740204104,
                -1.6421488886027908
            ]
        },
        {
            "positions": [
                0.38032259019793746,
                -1.862667045339594,
                1.987190111104624,
                -0.191012458949733,
                0.6113499969575894,
                -1.7756397574799183
            ]
        },
        {
            "positions": [
                0.4087117692447671,
                -1.8728843819914496,
                2.090596373930955,
                -0.2233716620834409,
                0.5701237198947683,
                -1.9091306263570456
            ]
        },
        {
            "positions": [
                0.43710094829159685,
                -1.8831017186433054,
                2.1940026367572862,
                -0.25573086521714883,
                0.5288974428319472,
                -2.0426214952341732
            ]
        },
        {
            "positions": [
                0.4654901273384265,
                -1.893319055295161,
                2.2974088995836173,
                -0.2880900683508567,
                0.4876711657691261,
                -2.1761123641113
            ]
        },
        {
            "positions": [
                0.4938793063852562,
                -1.903536391947017,
                2.4008151624099483,
                -0.32044927148456465,
                0.446444888706305,
                -2.3096032329884277
            ]
        },
        {
            "positions": [
                0.5464683802801448,
                -1.904422301220724,
                2.3990073668842196,
                -0.35646737979611925,
                0.5096360790054183,
                -2.515428367843457
            ]
        },
        {
            "positions": [
                0.5990574541750334,
                -1.905308210494431,
                2.397199571358491,
                -0.39248548810767386,
                0.5728272693045315,
                -2.7212535026984863
            ]
        },
        {
            "positions": [
                0.651646528069922,
                -1.9061941197681378,
                2.3953917758327625,
                -0.42850359641922847,
                0.6360184596036448,
                -2.927078637553516
            ]
        },
        {
            "positions": [
                0.7042356019648106,
                -1.9070800290418448,
                2.393583980307034,
                -0.4645217047307831,
                0.699209649902758,
                -3.1329037724085453
            ]
        }
    ]
}