{
    "goal": {
        "global_pose": {
            "orientation": {
                "w": -0.00223480608172531,
                "x": 0.0024358444001904467,
                "y": 0.7094548369677653,
                "z": -0.704743149386269
            },
            "position": {
                "x": 0.6205249238014221,
                "y": -0.6371506643295288,
                "z": 0.19426114857196808
            }
        },
        "name": "move_to_magneteinheit_B"
    },
    "id": "KPIECE_move_to_magneteinheit_B_24",
    "joint_names": [
        "shoulder_pan_joint",
        "shoulder_lift_joint",
        "elbow_joint",
        "wrist_1_joint",
        "wrist_2_joint",
        "wrist_3_joint"
    ],
    "metrics": {
        "cart_traj_len": 4.106215546023556,
        "distance_elbow_joint": 4.598407804034542,
        "distance_shoulder_lift_joint": 1.1418799835571125,
        "distance_shoulder_pan_joint": 3.5232083302977535,
        "distance_wrist_1_joint": 4.4007306208547705,
        "distance_wrist_2_joint": 1.8476121295063306,
        "distance_wrist_3_joint": 3.5834577025511822,
        "smoothness": 0.3342596693642527,
        "time": 2.1528158179999997,
        "traj_len": 4.369816537430569,
        "weighted_distance": 5.701802761080494
    },
    "planner": "KPIECE",
    "start": {
        "state": {
            "elbow_joint": 2.6216224122426386,
            "shoulder_lift_joint": -1.4174107377796124,
            "shoulder_pan_joint": 0.7066234856936794,
            "wrist_1_joint": 1.9546482284002225,
            "wrist_2_joint": -0.7096286983471962,
            "wrist_3_joint": 0.005740856962016249
        }
    },
    "waypoints": [
        {
            "positions": [
                0.7066234856936794,
                -1.4174107377796124,
                2.6216224122426386,
                1.9546482284002225,
                -0.7096286983471962,
                0.005740856962016249
            ]
        },
        {
            "positions": [
                0.5976476665578454,
                -1.3704690484637554,
                2.611363714399278,
                1.881372304529426,
                -0.7230889499746934,
                -0.050378649481843965
            ]
        },
        {
            "positions": [
                0.48867184742201153,
                -1.3235273591478984,
                2.601105016555917,
                1.8080963806586294,
                -0.7365492016021906,
                -0.10649815592570418
            ]
        },
        {
            "positions": [
                0.37969602828617754,
                -1.2765856698320417,
                2.5908463187125563,
                1.734820456787833,
                -0.7500094532296878,
                -0.16261766236956438
            ]
        },
        {
            "positions": [
                0.2707202091503436,
                -1.2296439805161847,
                2.5805876208691956,
                1.6615445329170364,
                -0.763469704857185,
                -0.2187371688134246
            ]
        },
        {
            "positions": [
                0.23584069997995422,
                -1.2757488547463425,
                2.505028064591544,
                1.5494766660261454,
                -0.6876996145707528,
                -0.18343871359662023
            ]
        },
        {
            "positions": [
                0.2009611908095648,
                -1.3218537289765004,
                2.4294685083138923,
                1.4374087991352544,
                -0.6119295242843206,
                -0.14814025837981587
            ]
        },
        {
            "positions": [
                0.1660816816391754,
                -1.3679586032066582,
                2.3539089520362406,
                1.3253409322443632,
                -0.5361594339978883,
                -0.11284180316301155
            ]
        },
        {
            "positions": [
                0.13120217246878596,
                -1.4140634774368162,
                2.278349395758589,
                1.2132730653534722,
                -0.46038934371145607,
                -0.07754334794620718
            ]
        },
        {
            "positions": [
                0.09632266329839656,
                -1.460168351666974,
                2.2027898394809378,
                1.1012051984625812,
                -0.38461925342502384,
                -0.04224489272940285
            ]
        },
        {
            "positions": [
                0.06144315412800716,
                -1.5062732258971316,
                2.127230283203286,
                0.9891373315716903,
                -0.3088491631385916,
                -0.006946437512598519
            ]
        },
        {
            "positions": [
                0.02656364495761776,
                -1.5523781001272896,
                2.0516707269256345,
                0.8770694646807993,
                -0.23307907285215945,
                0.02835201770420584
            ]
        },
        {
            "positions": [
                -0.008315864212771695,
                -1.5984829743574474,
                1.9761111706479828,
                0.7650015977899081,
                -0.15730898256572712,
                0.06365047292101023
            ]
        },
        {
            "positions": [
                -0.043195373383161095,
                -1.6445878485876053,
                1.9005516143703312,
                0.6529337308990171,
                -0.0815388922792949,
                0.09894892813781453
            ]
        },
        {
            "positions": [
                -0.07807488255355047,
                -1.690692722817763,
                1.8249920580926797,
                0.5408658640081262,
                -0.005768801992862699,
                0.13424738335461892
            ]
        },
        {
            "positions": [
                0.0033316777038849,
                -1.6910677682849307,
                1.714914739779869,
                0.4534536176769119,
                -0.028699251488732914,
                0.2240900796875227
            ]
        },
        {
            "positions": [
                0.08473823796132027,
                -1.6914428137520983,
                1.604837421467058,
                0.3660413713456976,
                -0.05162970098460313,
                0.31393277602042646
            ]
        },
        {
            "positions": [
                0.16614479821875563,
                -1.6918178592192659,
                1.4947601031542472,
                0.2786291250144833,
                -0.07456015048047335,
                0.40377547235333033
            ]
        },
        {
            "positions": [
                0.247551358476191,
                -1.6921929046864335,
                1.3846827848414365,
                0.19121687868326898,
                -0.09749059997634356,
                0.4936181686862341
            ]
        },
        {
            "positions": [
                0.32895791873362634,
                -1.692567950153601,
                1.2746054665286255,
                0.10380463235205467,
                -0.12042104947221377,
                0.5834608650191379
            ]
        },
        {
            "positions": [
                0.41036447899106177,
                -1.6929429956207687,
                1.1645281482158145,
                0.016392386020840366,
                -0.143351498968084,
                0.6733035613520417
            ]
        },
        {
            "positions": [
                0.4917710392484972,
                -1.6933180410879363,
                1.0544508299030038,
                -0.07101986031037388,
                -0.1662819484639542,
                0.7631462576849455
            ]
        },
        {
            "positions": [
                0.5731775995059325,
                -1.6936930865551039,
                0.944373511590193,
                -0.15843210664158824,
                -0.18921239795982442,
                0.8529889540178492
            ]
        },
        {
            "positions": [
                0.6545841597633678,
                -1.6940681320222715,
                0.8342961932773822,
                -0.2458443529728025,
                -0.21214284745569462,
                0.942831650350753
            ]
        },
        {
            "positions": [
                0.7359907200208032,
                -1.694443177489439,
                0.7242188749645713,
                -0.33325659930401685,
                -0.23507329695156484,
                1.0326743466836568
            ]
        },
        {
            "positions": [
                0.8173972802782385,
                -1.6948182229566067,
                0.6141415566517605,
                -0.4206688456352311,
                -0.25800374644743507,
                1.1225170430165605
            ]
        },
        {
            "positions": [
                0.898803840535674,
                -1.6951932684237743,
                0.5040642383389495,
                -0.5080810919664455,
                -0.28093419594330526,
                1.2123597393494645
            ]
        },
        {
            "positions": [
                0.9802104007931094,
                -1.6955683138909419,
                0.393986920026139,
                -0.5954933382976596,
                -0.30386464543917546,
                1.302202435682368
            ]
        },
        {
            "positions": [
                1.0616169610505448,
                -1.6959433593581095,
                0.283909601713328,
                -0.682905584628874,
                -0.32679509493504566,
                1.392045132015272
            ]
        },
        {
            "positions": [
                1.14302352130798,
                -1.696318404825277,
                0.17383228340051726,
                -0.7703178309600883,
                -0.34972554443091586,
                1.4818878283481758
            ]
        },
        {
            "positions": [
                1.2244300815654154,
                -1.6966934502924447,
                0.06375496508770628,
                -0.8577300772913027,
                -0.37265599392678617,
                1.5717305246810795
            ]
        },
        {
            "positions": [
                1.3058366418228509,
                -1.697068495759612,
                -0.04632235322510447,
                -0.9451423236225168,
                -0.39558644342265636,
                1.6615732210139833
            ]
        },
        {
            "positions": [
                1.387243202080286,
                -1.6974435412267797,
                -0.15639967153791523,
                -1.032554569953731,
                -0.41851689291852656,
                1.751415917346887
            ]
        },
        {
            "positions": [
                1.4686497623377217,
                -1.6978185866939473,
                -0.26647698985072643,
                -1.1199668162849457,
                -0.44144734241439676,
                1.841258613679791
            ]
        },
        {
            "positions": [
                1.550056322595157,
                -1.6981936321611149,
                -0.3765543081635372,
                -1.2073790626161598,
                -0.46437779191026696,
                1.9311013100126948
            ]
        },
        {
            "positions": [
                1.6314628828525923,
                -1.6985686776282825,
                -0.48663162647634794,
                -1.294791308947374,
                -0.48730824140613715,
                2.0209440063455983
            ]
        },
        {
            "positions": [
                1.7128694431100275,
                -1.69894372309545,
                -0.5967089447891587,
                -1.3822035552785885,
                -0.5102386909020074,
                2.110786702678502
            ]
        },
        {
            "positions": [
                1.7942760033674632,
                -1.6993187685626177,
                -0.7067862631019699,
                -1.469615801609803,
                -0.5331691403978777,
                2.2006293990114063
            ]
        },
        {
            "positions": [
                1.8756825636248984,
                -1.6996938140297853,
                -0.8168635814147807,
                -1.5570280479410172,
                -0.5560995898937479,
                2.29047209534431
            ]
        },
        {
            "positions": [
                1.9570891238823338,
                -1.7000688594969529,
                -0.926940899727591,
                -1.6444402942722314,
                -0.5790300393896181,
                2.3803147916772134
            ]
        },
        {
            "positions": [
                2.038495684139769,
                -1.7004439049641205,
                -1.0370182180404017,
                -1.7318525406034455,
                -0.6019604888854883,
                2.470157488010117
            ]
        },
        {
            "positions": [
                2.1199022443972044,
                -1.700818950431288,
                -1.147095536353213,
                -1.81926478693466,
                -0.6248909383813585,
                2.5600001843430213
            ]
        },
        {
            "positions": [
                2.20130880465464,
                -1.7011939958984557,
                -1.2571728546660237,
                -1.9066770332658742,
                -0.6478213878772286,
                2.649842880675925
            ]
        },
        {
            "positions": [
                2.282715364912075,
                -1.7015690413656233,
                -1.3672501729788344,
                -1.9940892795970888,
                -0.6707518373730988,
                2.739685577008829
            ]
        },
        {
            "positions": [
                2.3641219251695103,
                -1.7019440868327909,
                -1.4773274912916452,
                -2.081501525928303,
                -0.693682286868969,
                2.8295282733417326
            ]
        },
        {
            "positions": [
                2.445528485426946,
                -1.7023191322999585,
                -1.5874048096044564,
                -2.1689137722595175,
                -0.7166127363648394,
                2.9193709696746364
            ]
        },
        {
            "positions": [
                2.526935045684381,
                -1.702694177767126,
                -1.6974821279172672,
                -2.2563260185907317,
                -0.7395431858607096,
                3.00921366600754
            ]
        },
        {
            "positions": [
                2.6083416059418165,
                -1.7030692232342937,
                -1.807559446230078,
                -2.343738264921946,
                -0.7624736353565797,
                3.099056362340444
            ]
        },
        {
            "positions": [
                2.643556244999329,
                -1.7219446686945177,
                -1.8157710708097554,
                -2.367230259426567,
                -0.7537702347633793,
                3.12254931694439
            ]
        },
        {
            "positions": [
                2.64918252316521,
                -1.875882181399635,
                -1.7620996304823728,
                -2.3935143037692277,
                -0.663549572705012,
                3.1284470472836987
            ]
        },
        {
            "positions": [
                2.654808801331091,
                -2.029819694104752,
                -1.7084281901549905,
                -2.4197983481118883,
                -0.5733289106466447,
                3.134344777623008
            ]
        },
        {
            "positions": [
                2.6604350794969718,
                -2.1837572068098696,
                -1.654756749827608,
                -2.446082392454549,
                -0.48310824858827733,
                3.1402425079623164
            ]
        }
    ]
}