{
    "goal": {
        "global_pose": {
            "orientation": {
                "w": -0.4816463035849501,
                "x": 0.5182115481033762,
                "y": 0.4908360881923453,
                "z": -0.5084816262002911
            },
            "position": {
                "x": -0.8240239810943604,
                "y": -0.300875300988555,
                "z": 0.16403168439865112
            }
        },
        "name": "move_to_storage_C"
    },
    "id": "KPIECE_move_to_storage_C_74",
    "joint_names": [
        "shoulder_pan_joint",
        "shoulder_lift_joint",
        "elbow_joint",
        "wrist_1_joint",
        "wrist_2_joint",
        "wrist_3_joint"
    ],
    "metrics": {
        "cart_traj_len": 0.5769928674155136,
        "distance_elbow_joint": 0.2624846240475285,
        "distance_shoulder_lift_joint": 0.1906495803090137,
        "distance_shoulder_pan_joint": 0.49327805741737496,
        "distance_wrist_1_joint": 0.0906670457308687,
        "distance_wrist_2_joint": 1.0777016231771372,
        "distance_wrist_3_joint": 0.07424685555184762,
        "smoothness": 2.5376526478085547e-16,
        "time": 0.028102161,
        "traj_len": 1.4795363416401,
        "weighted_distance": 1.8724022447768727
    },
    "planner": "KPIECE",
    "start": {
        "state": {
            "elbow_joint": 2.010868314990456,
            "shoulder_lift_joint": -1.1634956873337592,
            "shoulder_pan_joint": -2.4736205022346125,
            "wrist_1_joint": -0.8367026794202681,
            "wrist_2_joint": 0.6746043897044499,
            "wrist_3_joint": -3.1496632123970403
        }
    },
    "waypoints": [
        {
            "positions": [
                -2.4736205022346125,
                -1.1634956873337592,
                2.010868314990456,
                -0.8367026794202681,
                0.6746043897044499,
                -3.1496632123970403
            ]
        },
        {
            "positions": [
                -2.555833511804175,
                -1.131720757282257,
                1.967120877649201,
                -0.82159150513179,
                0.8542213269006395,
                -3.1372887364717323
            ]
        },
        {
            "positions": [
                -2.6380465213737376,
                -1.0999458272307545,
                1.9233734403079463,
                -0.8064803308433118,
                1.033838264096829,
                -3.1249142605464244
            ]
        },
        {
            "positions": [
                -2.7202595309433,
                -1.0681708971792523,
                1.8796260029666916,
                -0.7913691565548338,
                1.2134552012930184,
                -3.1125397846211165
            ]
        },
        {
            "positions": [
                -2.8024725405128623,
                -1.03639596712775,
                1.8358785656254368,
                -0.7762579822663557,
                1.3930721384892082,
                -3.1001653086958085
            ]
        },
        {
            "positions": [
                -2.884685550082425,
                -1.0046210370762478,
                1.792131128284182,
                -0.7611468079778775,
                1.5726890756853975,
                -3.0877908327705006
            ]
        },
        {
            "positions": [
                -2.9668985596519875,
                -0.9728461070247455,
                1.7483836909429273,
                -0.7460356336893994,
                1.7523060128815873,
                -3.0754163568451927
            ]
        }
    ]
}