{
    "goal": {
        "global_pose": {
            "orientation": {
                "w": 0.5084816217422485,
                "x": -0.49083608388900757,
                "y": 0.5182115435600281,
                "z": -0.4816462993621826
            },
            "position": {
                "x": 0.5540239810943604,
                "y": 0.030875300988554955,
                "z": 0.16403168439865112
            }
        },
        "name": "move_to_storage_A"
    },
    "id": "KPIECE_move_to_storage_A_127",
    "joint_names": [
        "shoulder_pan_joint",
        "shoulder_lift_joint",
        "elbow_joint",
        "wrist_1_joint",
        "wrist_2_joint",
        "wrist_3_joint"
    ],
    "metrics": {
        "cart_traj_len": 0.3532835326387441,
        "distance_elbow_joint": 0.452975168826691,
        "distance_shoulder_lift_joint": 0.23389893817497587,
        "distance_shoulder_pan_joint": 0.46421890568706775,
        "distance_wrist_1_joint": 0.25208909053063355,
        "distance_wrist_2_joint": 1.089949651311274,
        "distance_wrist_3_joint": 0.10548290517672276,
        "smoothness": 0.0,
        "time": 0.045777156,
        "traj_len": 1.612021916633693,
        "weighted_distance": 2.0375522599194156
    },
    "planner": "KPIECE",
    "start": {
        "state": {
            "elbow_joint": 1.971548259319323,
            "shoulder_lift_joint": -1.1394851275133948,
            "shoulder_pan_joint": 0.1228115487234821,
            "wrist_1_joint": -0.7804723859257726,
            "wrist_2_joint": 0.12958671773740124,
            "wrist_3_joint": -3.192489227718131
        }
    },
    "waypoints": [
        {
            "positions": [
                0.1228115487234821,
                -1.1394851275133948,
                1.971548259319323,
                -0.7804723859257726,
                0.12958671773740124,
                -3.192489227718131
            ]
        },
        {
            "positions": [
                0.056494562196758136,
                -1.1728992615383913,
                2.036258997723136,
                -0.8164851131444345,
                0.285293810781869,
                -3.1774202412643135
            ]
        },
        {
            "positions": [
                -0.009822424329965829,
                -1.206313395563388,
                2.100969736126949,
                -0.8524978403630965,
                0.4410009038263367,
                -3.162351254810496
            ]
        },
        {
            "positions": [
                -0.0761394108566898,
                -1.2397275295883845,
                2.165680474530762,
                -0.8885105675817584,
                0.5967079968708044,
                -3.1472822683566783
            ]
        },
        {
            "positions": [
                -0.14245639738341376,
                -1.273141663613381,
                2.230391212934575,
                -0.9245232948004204,
                0.7524150899152722,
                -3.132213281902861
            ]
        },
        {
            "positions": [
                -0.20877338391013772,
                -1.3065557976383775,
                2.295101951338388,
                -0.9605360220190823,
                0.9081221829597399,
                -3.1171442954490436
            ]
        },
        {
            "positions": [
                -0.2750903704368617,
                -1.3399699316633742,
                2.359812689742201,
                -0.9965487492377443,
                1.0638292760042076,
                -3.102075308995226
            ]
        },
        {
            "positions": [
                -0.34140735696358565,
                -1.3733840656883707,
                2.424523428146014,
                -1.0325614764564062,
                1.2195363690486754,
                -3.0870063225414084
            ]
        }
    ]
}{
    "goal": {
        "global_pose": {
            "orientation": {
                "w": 0.5084816217422485,
                "x": -0.49083608388900757,
                "y": 0.5182115435600281,
                "z": -0.4816462993621826
            },
            "position": {
                "x": 0.5540239810943604,
                "y": 0.030875300988554955,
                "z": 0.16403168439865112
            }
        },
        "name": "move_to_storage_A"
    },
    "id": "KPIECE_move_to_storage_A_127",
    "joint_names": [
        "shoulder_pan_joint",
        "shoulder_lift_joint",
        "elbow_joint",
        "wrist_1_joint",
        "wrist_2_joint",
        "wrist_3_joint"
    ],
    "metrics": {
        "cart_traj_len": 0.35351383667186015,
        "distance_elbow_joint": 0.451235692332681,
        "distance_shoulder_lift_joint": 0.23357789297510045,
        "distance_shoulder_pan_joint": 0.46070235333513976,
        "distance_wrist_1_joint": 0.2557663557664145,
        "distance_wrist_2_joint": 1.1054860768048504,
        "distance_wrist_3_joint": 0.09541441633012626,
        "smoothness": 0.0,
        "time": 0.05717227,
        "traj_len": 1.613128261343255,
        "weighted_distance": 2.0382011806433216
    },
    "planner": "KPIECE",
    "start": {
        "state": {
            "elbow_joint": 1.97154746011099,
            "shoulder_lift_joint": -1.13948474672311,
            "shoulder_pan_joint": 0.12281154466712228,
            "wrist_1_joint": -0.7804688027058302,
            "wrist_2_joint": 0.12958655903071145,
            "wrist_3_joint": 3.0906928834467795
        }
    },
    "waypoints": [
        {
            "positions": [
                0.12281154466712228,
                -1.13948474672311,
                1.97154746011099,
                -0.7804688027058302,
                0.12958655903071145,
                3.0906928834467795
            ]
        },
        {
            "positions": [
                0.05699692276210232,
                -1.1728530171481244,
                2.0360097018728016,
                -0.8170068535296037,
                0.2875131414314044,
                3.1043235143510834
            ]
        },
        {
            "positions": [
                -0.008817699142917648,
                -1.2062212875731386,
                2.100471943634613,
                -0.8535449043533772,
                0.4454397238320973,
                3.117954145255387
            ]
        },
        {
            "positions": [
                -0.07463232104793761,
                -1.239589557998153,
                2.1649341853964246,
                -0.8900829551771506,
                0.6033663062327902,
                3.131584776159691
            ]
        },
        {
            "positions": [
                -0.14044694295295757,
                -1.2729578284231673,
                2.2293964271582363,
                -0.9266210060009241,
                0.7612928886334831,
                3.1452154070639944
            ]
        },
        {
            "positions": [
                -0.20626156485797753,
                -1.3063260988481817,
                2.293858668920048,
                -0.9631590568246977,
                0.9192194710341761,
                3.1588460379682983
            ]
        },
        {
            "positions": [
                -0.2720761867629975,
                -1.339694369273196,
                2.3583209106818592,
                -0.9996971076484712,
                1.077146053434869,
                3.172476668872602
            ]
        },
        {
            "positions": [
                -0.33789080866801746,
                -1.3730626396982104,
                2.422783152443671,
                -1.0362351584722447,
                1.235072635835562,
                3.1861072997769058
            ]
        }
    ]
}{
    "goal": {
        "global_pose": {
            "orientation": {
                "w": 0.5084816217422485,
                "x": -0.49083608388900757,
                "y": 0.5182115435600281,
                "z": -0.4816462993621826
            },
            "position": {
                "x": 0.5540239810943604,
                "y": 0.030875300988554955,
                "z": 0.16403168439865112
            }
        },
        "name": "move_to_storage_A"
    },
    "id": "KPIECE_move_to_storage_A_127",
    "joint_names": [
        "shoulder_pan_joint",
        "shoulder_lift_joint",
        "elbow_joint",
        "wrist_1_joint",
        "wrist_2_joint",
        "wrist_3_joint"
    ],
    "metrics": {
        "cart_traj_len": 0.3533917416177188,
        "distance_elbow_joint": 0.4471803877689853,
        "distance_shoulder_lift_joint": 0.2339262945843652,
        "distance_shoulder_pan_joint": 0.46389178458404456,
        "distance_wrist_1_joint": 0.23531074939985452,
        "distance_wrist_2_joint": 1.0908082898624698,
        "distance_wrist_3_joint": 0.10239202238602907,
        "smoothness": 4.440892133664971e-16,
        "time": 0.077406137,
        "traj_len": 1.6042161726481092,
        "weighted_distance": 2.0259349971359226
    },
    "planner": "KPIECE",
    "start": {
        "state": {
            "elbow_joint": 1.9715472970024885,
            "shoulder_lift_joint": -1.1394870060712896,
            "shoulder_pan_joint": 0.12281152778156021,
            "wrist_1_joint": -0.780463741449964,
            "wrist_2_joint": 0.12958659822042276,
            "wrist_3_joint": 3.090690232415272
        }
    },
    "waypoints": [
        {
            "positions": [
                0.12281152778156021,
                -1.1394870060712896,
                1.9715472970024885,
                -0.780463741449964,
                0.12958659822042276,
                3.090690232415272
            ]
        },
        {
            "positions": [
                0.05654127284098241,
                -1.1729050481547703,
                2.035430209540915,
                -0.8140795627928004,
                0.28541635391506126,
                3.1053176641847045
            ]
        },
        {
            "positions": [
                -0.009728982099595385,
                -1.2063230902382511,
                2.0993131220793413,
                -0.8476953841356367,
                0.4412461096096998,
                3.1199450959541375
            ]
        },
        {
            "positions": [
                -0.07599923704017317,
                -1.2397411323217318,
                2.163196034617768,
                -0.8813112054784731,
                0.5970758653043383,
                3.13457252772357
            ]
        },
        {
            "positions": [
                -0.14226949198075098,
                -1.2731591744052126,
                2.2270789471561945,
                -0.9149270268213094,
                0.7529056209989768,
                3.1491999594930027
            ]
        },
        {
            "positions": [
                -0.2085397469213288,
                -1.3065772164886933,
                2.290961859694621,
                -0.9485428481641458,
                0.9087353766936155,
                3.1638273912624353
            ]
        },
        {
            "positions": [
                -0.2748100018619065,
                -1.339995258572174,
                2.3548447722330472,
                -0.9821586695069822,
                1.064565132388254,
                3.1784548230318683
            ]
        },
        {
            "positions": [
                -0.3410802568024843,
                -1.3734133006556548,
                2.418727684771474,
                -1.0157744908498185,
                1.2203948880828925,
                3.193082254801301
            ]
        }
    ]
}