{
    "goal": {
        "global_pose": {
            "orientation": {
                "w": 0.5084816217422485,
                "x": -0.49083608388900757,
                "y": 0.5182115435600281,
                "z": -0.4816462993621826
            },
            "position": {
                "x": 0.5540239810943604,
                "y": 0.030875300988554955,
                "z": 0.16403168439865112
            }
        },
        "name": "move_to_storage_A"
    },
    "id": "KPIECE_move_to_storage_A_104",
    "joint_names": [
        "shoulder_pan_joint",
        "shoulder_lift_joint",
        "elbow_joint",
        "wrist_1_joint",
        "wrist_2_joint",
        "wrist_3_joint"
    ],
    "metrics": {
        "cart_traj_len": 0.3534895157466367,
        "distance_elbow_joint": 0.44956635697444125,
        "distance_shoulder_lift_joint": 0.2332505229862849,
        "distance_shoulder_pan_joint": 0.4635540953372327,
        "distance_wrist_1_joint": 0.24574785740060856,
        "distance_wrist_2_joint": 1.0929863472569183,
        "distance_wrist_3_joint": 0.09104965554430766,
        "smoothness": 6.661338165333112e-16,
        "time": 0.034981632,
        "traj_len": 1.6050404466865604,
        "weighted_distance": 2.0241018628631156
    },
    "planner": "KPIECE",
    "start": {
        "state": {
            "elbow_joint": 1.971548259319323,
            "shoulder_lift_joint": -1.1394851275133948,
            "shoulder_pan_joint": 0.1228115487234821,
            "wrist_1_joint": -0.7804723859257726,
            "wrist_2_joint": 0.12958671773740124,
            "wrist_3_joint": -3.192489227718131
        }
    },
    "waypoints": [
        {
            "positions": [
                0.1228115487234821,
                -1.1394851275133948,
                1.971548259319323,
                -0.7804723859257726,
                0.12958671773740124,
                -3.192489227718131
            ]
        },
        {
            "positions": [
                0.05658953510387743,
                -1.1728066307971499,
                2.035772024601386,
                -0.8155792226972881,
                0.28572762448838956,
                -3.1794821340689445
            ]
        },
        {
            "positions": [
                -0.009632478515727239,
                -1.2061281340809047,
                2.099995789883449,
                -0.8506860594688036,
                0.44186853123937786,
                -3.1664750404197575
            ]
        },
        {
            "positions": [
                -0.07585449213533191,
                -1.2394496373646597,
                2.164219555165512,
                -0.8857928962403191,
                0.5980094379903662,
                -3.153467946770571
            ]
        },
        {
            "positions": [
                -0.14207650575493658,
                -1.2727711406484148,
                2.228443320447575,
                -0.9208997330118347,
                0.7541503447413546,
                -3.140460853121384
            ]
        },
        {
            "positions": [
                -0.20829851937454125,
                -1.3060926439321698,
                2.2926670857296383,
                -0.9560065697833502,
                0.9102912514923429,
                -3.127453759472197
            ]
        },
        {
            "positions": [
                -0.2745205329941459,
                -1.3394141472159247,
                2.356890851011701,
                -0.9911134065548657,
                1.0664321582433312,
                -3.11444666582301
            ]
        },
        {
            "positions": [
                -0.3407425466137506,
                -1.3727356504996797,
                2.4211146162937642,
                -1.0262202433263812,
                1.2225730649943196,
                -3.1014395721738235
            ]
        }
    ]
}{
    "goal": {
        "global_pose": {
            "orientation": {
                "w": 0.5084816217422485,
                "x": -0.49083608388900757,
                "y": 0.5182115435600281,
                "z": -0.4816462993621826
            },
            "position": {
                "x": 0.5540239810943604,
                "y": 0.030875300988554955,
                "z": 0.16403168439865112
            }
        },
        "name": "move_to_storage_A"
    },
    "id": "KPIECE_move_to_storage_A_104",
    "joint_names": [
        "shoulder_pan_joint",
        "shoulder_lift_joint",
        "elbow_joint",
        "wrist_1_joint",
        "wrist_2_joint",
        "wrist_3_joint"
    ],
    "metrics": {
        "cart_traj_len": 0.35366336850113067,
        "distance_elbow_joint": 0.44949229017381853,
        "distance_shoulder_lift_joint": 0.23574603894722457,
        "distance_shoulder_pan_joint": 0.46077474153101544,
        "distance_wrist_1_joint": 0.2408059141280865,
        "distance_wrist_2_joint": 1.107623222087716,
        "distance_wrist_3_joint": 0.10276474071617914,
        "smoothness": 4.440892133664971e-16,
        "time": 0.073576376,
        "traj_len": 1.6115852281477516,
        "weighted_distance": 2.0374409353971963
    },
    "planner": "KPIECE",
    "start": {
        "state": {
            "elbow_joint": 1.97154746011099,
            "shoulder_lift_joint": -1.13948474672311,
            "shoulder_pan_joint": 0.12281154466712228,
            "wrist_1_joint": -0.7804688027058302,
            "wrist_2_joint": 0.12958655903071145,
            "wrist_3_joint": 3.0906928834467795
        }
    },
    "waypoints": [
        {
            "positions": [
                0.12281154466712228,
                -1.13948474672311,
                1.97154746011099,
                -0.7804688027058302,
                0.12958655903071145,
                3.0906928834467795
            ]
        },
        {
            "positions": [
                0.056986581591262936,
                -1.1731627522869992,
                2.0357606444215355,
                -0.8148696475812711,
                0.28781844790038513,
                3.105373560691948
            ]
        },
        {
            "positions": [
                -0.008838381484596411,
                -1.2068407578508884,
                2.099973828732081,
                -0.849270492456712,
                0.4460503367700589,
                3.1200542379371163
            ]
        },
        {
            "positions": [
                -0.07466334456045574,
                -1.2405187634147776,
                2.1641870130426266,
                -0.883671337332153,
                0.6042822256397326,
                3.134734915182285
            ]
        },
        {
            "positions": [
                -0.1404883076363151,
                -1.2741967689786668,
                2.2284001973531717,
                -0.9180721822075939,
                0.7625141145094063,
                3.149415592427453
            ]
        },
        {
            "positions": [
                -0.20631327071217448,
                -1.307874774542556,
                2.2926133816637173,
                -0.9524730270830348,
                0.9207460033790801,
                3.164096269672622
            ]
        },
        {
            "positions": [
                -0.27213823378803376,
                -1.3415527801064453,
                2.356826565974263,
                -0.9868738719584758,
                1.0789778922487536,
                3.17877694691779
            ]
        },
        {
            "positions": [
                -0.33796319686389314,
                -1.3752307856703345,
                2.4210397502848084,
                -1.0212747168339167,
                1.2372097811184275,
                3.1934576241629586
            ]
        }
    ]
}{
    "goal": {
        "global_pose": {
            "orientation": {
                "w": 0.5084816217422485,
                "x": -0.49083608388900757,
                "y": 0.5182115435600281,
                "z": -0.4816462993621826
            },
            "position": {
                "x": 0.5540239810943604,
                "y": 0.030875300988554955,
                "z": 0.16403168439865112
            }
        },
        "name": "move_to_storage_A"
    },
    "id": "KPIECE_move_to_storage_A_104",
    "joint_names": [
        "shoulder_pan_joint",
        "shoulder_lift_joint",
        "elbow_joint",
        "wrist_1_joint",
        "wrist_2_joint",
        "wrist_3_joint"
    ],
    "metrics": {
        "cart_traj_len": 0.35358124232259047,
        "distance_elbow_joint": 0.4500074266907075,
        "distance_shoulder_lift_joint": 0.23531190267668678,
        "distance_shoulder_pan_joint": 0.46156478357828534,
        "distance_wrist_1_joint": 0.23633722877933128,
        "distance_wrist_2_joint": 1.1041663983780803,
        "distance_wrist_3_joint": 0.09427479765521962,
        "smoothness": 8.881784197001252e-16,
        "time": 0.033873907,
        "traj_len": 1.6067552824740645,
        "weighted_distance": 2.027490014827733
    },
    "planner": "KPIECE",
    "start": {
        "state": {
            "elbow_joint": 1.9715472970024885,
            "shoulder_lift_joint": -1.1394870060712896,
            "shoulder_pan_joint": 0.12281152778156021,
            "wrist_1_joint": -0.780463741449964,
            "wrist_2_joint": 0.12958659822042276,
            "wrist_3_joint": 3.090690232415272
        }
    },
    "waypoints": [
        {
            "positions": [
                0.12281152778156021,
                -1.1394870060712896,
                1.9715472970024885,
                -0.780463741449964,
                0.12958659822042276,
                3.090690232415272
            ]
        },
        {
            "positions": [
                0.05687370155609088,
                -1.1731029921679592,
                2.0358340722440182,
                -0.8142262027041541,
                0.28732465513157707,
                3.1041580606517316
            ]
        },
        {
            "positions": [
                -0.009064124669378448,
                -1.2067189782646286,
                2.100120847485548,
                -0.8479886639583444,
                0.4450627120427314,
                3.117625888888192
            ]
        },
        {
            "positions": [
                -0.07500195089484779,
                -1.2403349643612982,
                2.1644076227270777,
                -0.8817511252125345,
                0.6028007689538857,
                3.1310937171246516
            ]
        },
        {
            "positions": [
                -0.1409397771203171,
                -1.2739509504579678,
                2.228694397968607,
                -0.9155135864667248,
                0.76053882586504,
                3.1445615453611118
            ]
        },
        {
            "positions": [
                -0.20687760334578645,
                -1.3075669365546374,
                2.2929811732101366,
                -0.9492760477209149,
                0.9182768827761943,
                3.1580293735975715
            ]
        },
        {
            "positions": [
                -0.2728154295712558,
                -1.3411829226513068,
                2.3572679484516663,
                -0.983038508975105,
                1.0760149396873486,
                3.1714972018340317
            ]
        },
        {
            "positions": [
                -0.3387532557967251,
                -1.3747989087479764,
                2.421554723693196,
                -1.0168009702292953,
                1.233752996598503,
                3.1849650300704915
            ]
        }
    ]
}