{
    "goal": {
        "global_pose": {
            "orientation": {
                "w": 0.7047431468963623,
                "x": -0.7094548344612122,
                "y": 0.0024358443915843964,
                "z": -0.0022348060738295317
            },
            "position": {
                "x": 0.6094750761985779,
                "y": 0.3671506643295288,
                "z": 0.19426114857196808
            }
        },
        "name": "move_to_magneteinheit_A"
    },
    "id": "KPIECE_move_to_magneteinheit_A_100",
    "joint_names": [
        "shoulder_pan_joint",
        "shoulder_lift_joint",
        "elbow_joint",
        "wrist_1_joint",
        "wrist_2_joint",
        "wrist_3_joint"
    ],
    "metrics": {
        "cart_traj_len": 3.704920057777516,
        "distance_elbow_joint": 3.910150571442757,
        "distance_shoulder_lift_joint": 0.46850797240394637,
        "distance_shoulder_pan_joint": 3.6504774680637184,
        "distance_wrist_1_joint": 3.4586097782417564,
        "distance_wrist_2_joint": 1.5244726272690192,
        "distance_wrist_3_joint": 0.4624879706155602,
        "smoothness": 0.18344291769557788,
        "time": 0.23229477799999998,
        "traj_len": 3.6707909758030026,
        "weighted_distance": 4.4025861416647665
    },
    "planner": "KPIECE",
    "start": {
        "state": {
            "elbow_joint": -1.9196185241190666,
            "shoulder_lift_joint": -1.2443396400964142,
            "shoulder_pan_joint": 2.6996025414629847,
            "wrist_1_joint": -1.5485510000780065,
            "wrist_2_joint": -1.5709468930060704,
            "wrist_3_joint": 0.4420197071253992
        }
    },
    "waypoints": [
        {
            "positions": [
                2.6996025414629847,
                -1.2443396400964142,
                -1.9196185241190666,
                -1.5485510000780065,
                -1.5709468930060704,
                0.4420197071253992
            ]
        },
        {
            "positions": [
                2.5842876200799196,
                -1.2343416824668072,
                -1.8076226093422838,
                -1.4630251160131564,
                -1.5160090709739913,
                0.4254947341699475
            ]
        },
        {
            "positions": [
                2.468972698696854,
                -1.2243437248372002,
                -1.695626694565501,
                -1.3774992319483066,
                -1.4610712489419122,
                0.4089697612144958
            ]
        },
        {
            "positions": [
                2.353657777313789,
                -1.2143457672075932,
                -1.5836307797887181,
                -1.2919733478834567,
                -1.4061334269098331,
                0.39244478825904416
            ]
        },
        {
            "positions": [
                2.2383428559307235,
                -1.2043478095779863,
                -1.4716348650119353,
                -1.2064474638186067,
                -1.351195604877754,
                0.3759198153035925
            ]
        },
        {
            "positions": [
                2.1230279345476584,
                -1.1943498519483793,
                -1.3596389502351525,
                -1.1209215797537566,
                -1.2962577828456752,
                0.3593948423481408
            ]
        },
        {
            "positions": [
                2.007713013164593,
                -1.1843518943187723,
                -1.2476430354583696,
                -1.0353956956889068,
                -1.241319960813596,
                0.34286986939268915
            ]
        },
        {
            "positions": [
                1.8923980917815277,
                -1.1743539366891655,
                -1.1356471206815868,
                -0.9498698116240568,
                -1.186382138781517,
                0.32634489643723746
            ]
        },
        {
            "positions": [
                1.7770831703984624,
                -1.1643559790595586,
                -1.023651205904804,
                -0.8643439275592069,
                -1.131444316749438,
                0.3098199234817858
            ]
        },
        {
            "positions": [
                1.661768249015397,
                -1.1543580214299516,
                -0.9116552911280211,
                -0.7788180434943569,
                -1.0765064947173588,
                0.2932949505263341
            ]
        },
        {
            "positions": [
                1.5464533276323318,
                -1.1443600638003446,
                -0.7996593763512383,
                -0.693292159429507,
                -1.0215686726852797,
                0.2767699775708824
            ]
        },
        {
            "positions": [
                1.4311384062492667,
                -1.1343621061707376,
                -0.6876634615744555,
                -0.607766275364657,
                -0.9666308506532006,
                0.26024500461543076
            ]
        },
        {
            "positions": [
                1.3158234848662014,
                -1.1243641485411306,
                -0.5756675467976726,
                -0.522240391299807,
                -0.9116930286211216,
                0.24372003165997908
            ]
        },
        {
            "positions": [
                1.200508563483136,
                -1.1143661909115237,
                -0.4636716320208898,
                -0.4367145072349572,
                -0.8567552065890425,
                0.2271950587045274
            ]
        },
        {
            "positions": [
                1.0851936421000707,
                -1.1043682332819167,
                -0.35167571724410696,
                -0.35118862317010713,
                -0.8018173845569634,
                0.21067008574907573
            ]
        },
        {
            "positions": [
                0.9698787207170052,
                -1.0943702756523097,
                -0.2396798024673239,
                -0.26566273910525706,
                -0.7468795625248843,
                0.194145112793624
            ]
        },
        {
            "positions": [
                0.8545637993339401,
                -1.0843723180227027,
                -0.1276838876905413,
                -0.18013685504040722,
                -0.6919417404928053,
                0.17762013983817238
            ]
        },
        {
            "positions": [
                0.7392488779508748,
                -1.0743743603930958,
                -0.01568797291375823,
                -0.09461097097555715,
                -0.6370039184607261,
                0.1610951668827207
            ]
        },
        {
            "positions": [
                0.6239339565678095,
                -1.0643764027634888,
                0.09630794186302438,
                -0.009085086910707307,
                -0.5820660964286472,
                0.144570193927269
            ]
        },
        {
            "positions": [
                0.5086190351847439,
                -1.0543784451338818,
                0.20830385663980744,
                0.07644079715414276,
                -0.527128274396568,
                0.1280452209718173
            ]
        },
        {
            "positions": [
                0.39330411380167885,
                -1.044380487504275,
                0.32029977141659005,
                0.1619666812189926,
                -0.4721904523644891,
                0.11152024801636568
            ]
        },
        {
            "positions": [
                0.27798919241861375,
                -1.034382529874668,
                0.4322956861933731,
                0.24749256528384267,
                -0.4172526303324098,
                0.09499527506091399
            ]
        },
        {
            "positions": [
                0.16267427103554866,
                -1.024384572245061,
                0.5442916009701557,
                0.3330184493486925,
                -0.3623148083003309,
                0.0784703021054623
            ]
        },
        {
            "positions": [
                0.04735934965248312,
                -1.014386614615454,
                0.6562875157469388,
                0.4185443334135426,
                -0.30737698626825183,
                0.06194532915001061
            ]
        },
        {
            "positions": [
                -0.06795557173058198,
                -1.0043886569858471,
                0.7682834305237214,
                0.5040702174783924,
                -0.25243916423617274,
                0.045420356194558975
            ]
        },
        {
            "positions": [
                -0.18327049311364751,
                -0.9943906993562401,
                0.8802793453005044,
                0.5895961015432427,
                -0.19750134220409366,
                0.028895383239107286
            ]
        },
        {
            "positions": [
                -0.2985854144967126,
                -0.9843927417266332,
                0.9922752600772871,
                0.6751219856080921,
                -0.14256352017201457,
                0.012370410283655597
            ]
        },
        {
            "positions": [
                -0.41390033587977815,
                -0.9743947840970262,
                1.1042711748540701,
                0.7606478696729424,
                -0.08762569813993557,
                -0.0041545626717961115
            ]
        },
        {
            "positions": [
                -0.34677851203965887,
                -0.9495743945464564,
                1.2150537839127729,
                0.9043242332342935,
                -0.09276962719029622,
                -0.002115350069500486
            ]
        },
        {
            "positions": [
                -0.2796566881995396,
                -0.9247540049958866,
                1.3258363929714756,
                1.0480005967956445,
                -0.09791355624065687,
                -7.61374672048603e-05
            ]
        },
        {
            "positions": [
                -0.21253486435942026,
                -0.8999336154453168,
                1.4366190020301783,
                1.1916769603569954,
                -0.10305748529101752,
                0.0019630751350907657
            ]
        },
        {
            "positions": [
                -0.14541304051930098,
                -0.8751132258947469,
                1.547401611088881,
                1.3353533239183466,
                -0.10820141434137817,
                0.004002287737386391
            ]
        },
        {
            "positions": [
                -0.07829121667918171,
                -0.8502928363441772,
                1.6581842201475838,
                1.4790296874796978,
                -0.11334534339173882,
                0.006041500339682016
            ]
        },
        {
            "positions": [
                -0.011169392839062375,
                -0.8254724467936074,
                1.7689668292062866,
                1.6227060510410487,
                -0.11848927244209947,
                0.008080712941977642
            ]
        },
        {
            "positions": [
                0.0559524310010569,
                -0.8006520572430376,
                1.8797494382649893,
                1.7663824146023999,
                -0.12363320149246013,
                0.010119925544273267
            ]
        },
        {
            "positions": [
                0.12307425484117622,
                -0.7758316676924678,
                1.990532047323692,
                1.9100587781637508,
                -0.12877713054282078,
                0.012159138146568894
            ]
        }
    ]
}