{
    "goal": {
        "global_pose": {
            "orientation": {
                "w": 0.005598929693374612,
                "x": 0.007748599140229565,
                "y": 0.7110244013736278,
                "z": -0.7031023480610252
            },
            "position": {
                "x": 0.1141497679147869,
                "y": -0.7141253447532654,
                "z": 0.3711530566215515
            }
        },
        "name": "move_to_auspresseinheit_B"
    },
    "id": "KPIECE_move_to_auspresseinheit_B_81",
    "joint_names": [
        "shoulder_pan_joint",
        "shoulder_lift_joint",
        "elbow_joint",
        "wrist_1_joint",
        "wrist_2_joint",
        "wrist_3_joint"
    ],
    "metrics": {
        "cart_traj_len": 0.5640583347438274,
        "distance_elbow_joint": 0.062099143370308196,
        "distance_shoulder_lift_joint": 0.294585776406431,
        "distance_shoulder_pan_joint": 0.5775155750828846,
        "distance_wrist_1_joint": 0.32514567734527844,
        "distance_wrist_2_joint": 0.9864342242024069,
        "distance_wrist_3_joint": 0.00955985978392615,
        "smoothness": 7.612957903237841e-16,
        "time": 0.161288322,
        "traj_len": 1.501779030414007,
        "weighted_distance": 1.8936842073869584
    },
    "planner": "KPIECE",
    "start": {
        "state": {
            "elbow_joint": 2.0193083361928714,
            "shoulder_lift_joint": -1.1220246554650708,
            "shoulder_pan_joint": -1.0952077554168747,
            "wrist_1_joint": -0.8559753972642168,
            "wrist_2_joint": 0.4759566250798843,
            "wrist_3_joint": -3.1240929996934557
        }
    },
    "waypoints": [
        {
            "positions": [
                -1.0952077554168747,
                -1.1220246554650708,
                2.0193083361928714,
                -0.8559753972642168,
                0.4759566250798843,
                -3.1240929996934557
            ]
        },
        {
            "positions": [
                -1.191460351264022,
                -1.1711222848661427,
                2.0089584789644865,
                -0.8017844510400037,
                0.6403623291136188,
                -3.122499689729468
            ]
        },
        {
            "positions": [
                -1.2877129471111695,
                -1.2202199142672145,
                1.998608621736102,
                -0.7475935048157907,
                0.8047680331473532,
                -3.12090637976548
            ]
        },
        {
            "positions": [
                -1.3839655429583169,
                -1.2693175436682864,
                1.9882587645077172,
                -0.6934025585915775,
                0.9691737371810878,
                -3.1193130698014926
            ]
        },
        {
            "positions": [
                -1.4802181388054643,
                -1.318415173069358,
                1.9779089072793326,
                -0.6392116123673646,
                1.1335794412148221,
                -3.117719759837505
            ]
        },
        {
            "positions": [
                -1.576470734652612,
                -1.36751280247043,
                1.9675590500509479,
                -0.5850206661431514,
                1.2979851452485567,
                -3.116126449873517
            ]
        },
        {
            "positions": [
                -1.6727233304997593,
                -1.4166104318715018,
                1.9572091928225632,
                -0.5308297199189383,
                1.4623908492822912,
                -3.1145331399095295
            ]
        }
    ]
}