{
    "goal": {
        "global_pose": {
            "orientation": {
                "w": -0.4816463035849501,
                "x": 0.5182115481033762,
                "y": 0.4908360881923453,
                "z": -0.5084816262002911
            },
            "position": {
                "x": -0.8240239810943604,
                "y": -0.300875300988555,
                "z": 0.16403168439865112
            }
        },
        "name": "move_to_storage_C"
    },
    "id": "KPIECE_move_to_storage_C_26",
    "joint_names": [
        "shoulder_pan_joint",
        "shoulder_lift_joint",
        "elbow_joint",
        "wrist_1_joint",
        "wrist_2_joint",
        "wrist_3_joint"
    ],
    "metrics": {
        "cart_traj_len": 0.576457609554762,
        "distance_elbow_joint": 0.25820847946323333,
        "distance_shoulder_lift_joint": 0.1894105742949087,
        "distance_shoulder_pan_joint": 0.49467122034341315,
        "distance_wrist_1_joint": 0.07538060540797453,
        "distance_wrist_2_joint": 1.0627072097887686,
        "distance_wrist_3_joint": 0.06991914127805954,
        "smoothness": 0.0,
        "time": 0.013007876,
        "traj_len": 1.466389181144064,
        "weighted_distance": 1.8515461993504834
    },
    "planner": "KPIECE",
    "start": {
        "state": {
            "elbow_joint": 2.010868314990456,
            "shoulder_lift_joint": -1.1634956873337592,
            "shoulder_pan_joint": -2.4736205022346125,
            "wrist_1_joint": -0.8367026794202681,
            "wrist_2_joint": 0.6746043897044499,
            "wrist_3_joint": -3.1496632123970403
        }
    },
    "waypoints": [
        {
            "positions": [
                -2.4736205022346125,
                -1.1634956873337592,
                2.010868314990456,
                -0.8367026794202681,
                0.6746043897044499,
                -3.1496632123970403
            ]
        },
        {
            "positions": [
                -2.556065705625181,
                -1.1319272582846078,
                1.9678335684132502,
                -0.8241392451856057,
                0.8517222580025781,
                -3.13801002218403
            ]
        },
        {
            "positions": [
                -2.6385109090157504,
                -1.1003588292354562,
                1.9247988218360448,
                -0.8115758109509432,
                1.028840126300706,
                -3.1263568319710204
            ]
        },
        {
            "positions": [
                -2.720956112406319,
                -1.068790400186305,
                1.8817640752588392,
                -0.7990123767162809,
                1.2059579945988341,
                -3.1147036417580107
            ]
        },
        {
            "positions": [
                -2.803401315796888,
                -1.0372219711371533,
                1.8387293286816335,
                -0.7864489424816185,
                1.3830758628969622,
                -3.1030504515450006
            ]
        },
        {
            "positions": [
                -2.885846519187457,
                -1.005653542088002,
                1.7956945821044281,
                -0.773885508246956,
                1.5601937311950906,
                -3.0913972613319904
            ]
        },
        {
            "positions": [
                -2.9682917225780256,
                -0.9740851130388505,
                1.7526598355272225,
                -0.7613220740122936,
                1.7373115994932185,
                -3.0797440711189807
            ]
        }
    ]
}