{
    "goal": {
        "global_pose": {
            "orientation": {
                "w": 0.7047431468963623,
                "x": -0.7094548344612122,
                "y": 0.0024358443915843964,
                "z": -0.0022348060738295317
            },
            "position": {
                "x": 0.6094750761985779,
                "y": 0.3671506643295288,
                "z": 0.19426114857196808
            }
        },
        "name": "move_to_magneteinheit_A"
    },
    "id": "KPIECE_move_to_magneteinheit_A_4",
    "joint_names": [
        "shoulder_pan_joint",
        "shoulder_lift_joint",
        "elbow_joint",
        "wrist_1_joint",
        "wrist_2_joint",
        "wrist_3_joint"
    ],
    "metrics": {
        "cart_traj_len": 3.6334007446285828,
        "distance_elbow_joint": 3.930452281619234,
        "distance_shoulder_lift_joint": 0.5210485206527388,
        "distance_shoulder_pan_joint": 2.576612112033518,
        "distance_wrist_1_joint": 3.5232498403570025,
        "distance_wrist_2_joint": 2.5998305827001706,
        "distance_wrist_3_joint": 0.5051370404863683,
        "smoothness": 0.0881058834598635,
        "time": 0.11591193699999999,
        "traj_len": 3.6954472500428173,
        "weighted_distance": 4.559570690523279
    },
    "planner": "KPIECE",
    "start": {
        "state": {
            "elbow_joint": -1.9196185241190666,
            "shoulder_lift_joint": -1.2443396400964142,
            "shoulder_pan_joint": 2.6996025414629847,
            "wrist_1_joint": -1.5485510000780065,
            "wrist_2_joint": -1.5709468930060704,
            "wrist_3_joint": 0.4420197071253992
        }
    },
    "waypoints": [
        {
            "positions": [
                2.6996025414629847,
                -1.2443396400964142,
                -1.9196185241190666,
                -1.5485510000780065,
                -1.5709468930060704,
                0.4420197071253992
            ]
        },
        {
            "positions": [
                2.5849086813175233,
                -1.2228773929913161,
                -1.8224392715706157,
                -1.4992214441357696,
                -1.4749587763036587,
                0.4320102589057827
            ]
        },
        {
            "positions": [
                2.470214821172062,
                -1.2014151458862181,
                -1.7252600190221647,
                -1.4498918881935328,
                -1.3789706596012468,
                0.42200081068616624
            ]
        },
        {
            "positions": [
                2.3555209610266004,
                -1.1799528987811203,
                -1.6280807664737138,
                -1.4005623322512961,
                -1.2829825428988348,
                0.41199136246654977
            ]
        },
        {
            "positions": [
                2.240827100881139,
                -1.1584906516760223,
                -1.5309015139252629,
                -1.3512327763090592,
                -1.1869944261964231,
                0.40198191424693336
            ]
        },
        {
            "positions": [
                2.126133240735677,
                -1.1370284045709242,
                -1.433722261376812,
                -1.3019032203668224,
                -1.0910063094940115,
                0.3919724660273169
            ]
        },
        {
            "positions": [
                2.0114393805902155,
                -1.1155661574658262,
                -1.336543008828361,
                -1.2525736644245855,
                -0.9950181927915995,
                0.3819630178077004
            ]
        },
        {
            "positions": [
                1.8967455204447543,
                -1.0941039103607282,
                -1.23936375627991,
                -1.2032441084823486,
                -0.8990300760891877,
                0.37195356958808395
            ]
        },
        {
            "positions": [
                1.7820516602992926,
                -1.0726416632556304,
                -1.142184503731459,
                -1.1539145525401118,
                -0.8030419593867759,
                0.3619441213684675
            ]
        },
        {
            "positions": [
                1.6673578001538314,
                -1.0511794161505323,
                -1.0450052511830081,
                -1.104584996597875,
                -0.7070538426843641,
                0.3519346731488511
            ]
        },
        {
            "positions": [
                1.5526639400083697,
                -1.0297171690454343,
                -0.9478259986345572,
                -1.055255440655638,
                -0.6110657259819523,
                0.3419252249292346
            ]
        },
        {
            "positions": [
                1.4379700798629083,
                -1.0082549219403363,
                -0.850646746086106,
                -1.0059258847134012,
                -0.5150776092795404,
                0.33191577670961814
            ]
        },
        {
            "positions": [
                1.3232762197174468,
                -0.9867926748352382,
                -0.7534674935376553,
                -0.9565963287711645,
                -0.4190894925771287,
                0.32190632849000167
            ]
        },
        {
            "positions": [
                1.2085823595719851,
                -0.9653304277301403,
                -0.6562882409892041,
                -0.9072667728289276,
                -0.32310137587471677,
                0.3118968802703852
            ]
        },
        {
            "positions": [
                1.0938884994265239,
                -0.9438681806250424,
                -0.5591089884407534,
                -0.8579372168866908,
                -0.22711325917230507,
                0.30188743205076873
            ]
        },
        {
            "positions": [
                0.9791946392810622,
                -0.9224059335199444,
                -0.46192973589230224,
                -0.8086076609444539,
                -0.13112514246989315,
                0.29187798383115227
            ]
        },
        {
            "positions": [
                0.8645007791356007,
                -0.9009436864148463,
                -0.3647504833438515,
                -0.7592781050022172,
                -0.035137025767481456,
                0.2818685356115358
            ]
        },
        {
            "positions": [
                0.7498069189901393,
                -0.8794814393097483,
                -0.26757123079540035,
                -0.7099485490599803,
                0.06085109093493046,
                0.27185908739191933
            ]
        },
        {
            "positions": [
                0.6351130588446781,
                -0.8580191922046504,
                -0.17039197824694963,
                -0.6606189931177435,
                0.15683920763734216,
                0.2618496391723029
            ]
        },
        {
            "positions": [
                0.5204191986992162,
                -0.8365569450995524,
                -0.07321272569849846,
                -0.6112894371755065,
                0.2528273243397541,
                0.2518401909526864
            ]
        },
        {
            "positions": [
                0.4057253385537547,
                -0.8150946979944544,
                0.023966526849952263,
                -0.5619598812332698,
                0.3488154410421658,
                0.24183074273306998
            ]
        },
        {
            "positions": [
                0.291031478408293,
                -0.7936324508893564,
                0.12114577939840333,
                -0.5126303252910329,
                0.4448035577445775,
                0.2318212945134535
            ]
        },
        {
            "positions": [
                0.2757420012791812,
                -0.7895876434808111,
                0.2522082323618838,
                -0.33700834991161144,
                0.4103321231481158,
                0.2070780014069829
            ]
        },
        {
            "positions": [
                0.2604525241500693,
                -0.7855428360722657,
                0.3832706853253642,
                -0.16138637453219,
                0.37586068855165405,
                0.1823347083005123
            ]
        },
        {
            "positions": [
                0.24516304702095748,
                -0.7814980286637204,
                0.5143331382888446,
                0.014235600847231411,
                0.3413892539551923,
                0.15759141519404168
            ]
        },
        {
            "positions": [
                0.22987356989184562,
                -0.777453221255175,
                0.645395591252325,
                0.1898575762266529,
                0.30691781935873064,
                0.13284812208757107
            ]
        },
        {
            "positions": [
                0.21458409276273377,
                -0.7734084138466297,
                0.7764580442158054,
                0.36547955160607426,
                0.2724463847622689,
                0.10810482898110045
            ]
        },
        {
            "positions": [
                0.19929461563362194,
                -0.7693636064380844,
                0.9075204971792858,
                0.5411015269854957,
                0.23797495016580714,
                0.08336153587462986
            ]
        },
        {
            "positions": [
                0.1840051385045101,
                -0.765318799029539,
                1.0385829501427664,
                0.716723502364917,
                0.20350351556934543,
                0.058618242768159246
            ]
        },
        {
            "positions": [
                0.16871566137539823,
                -0.7612739916209937,
                1.1696454031062469,
                0.8923454777443387,
                0.1690320809728837,
                0.03387494966168861
            ]
        },
        {
            "positions": [
                0.1534261842462864,
                -0.7572291842124483,
                1.3007078560697274,
                1.06796745312376,
                0.13456064637642196,
                0.009131656555217998
            ]
        },
        {
            "positions": [
                0.13813670711717455,
                -0.753184376803903,
                1.4317703090332077,
                1.2435894285031814,
                0.10008921177996022,
                -0.015611636551252608
            ]
        },
        {
            "positions": [
                0.1351074515796331,
                -0.7591630282759486,
                1.5475829987265994,
                1.389811310858344,
                0.05221605458297944,
                -0.025112775913195932
            ]
        },
        {
            "positions": [
                0.1320781960420917,
                -0.7651416797479941,
                1.663395688419991,
                1.536033193213507,
                0.004342897385998662,
                -0.03461391527513926
            ]
        },
        {
            "positions": [
                0.1290489405045503,
                -0.7711203312200396,
                1.7792083781133827,
                1.6822550755686696,
                -0.0435302598109821,
                -0.04411505463708258
            ]
        },
        {
            "positions": [
                0.12601968496700885,
                -0.7770989826920851,
                1.8950210678067743,
                1.8284769579238325,
                -0.0914034170079629,
                -0.05361619399902591
            ]
        },
        {
            "positions": [
                0.12299042942946743,
                -0.7830776341641307,
                2.010833757500166,
                1.9746988402789951,
                -0.13927657420494366,
                -0.06311733336096924
            ]
        }
    ]
}