{
    "goal": {
        "global_pose": {
            "orientation": {
                "w": 0.5084816262002911,
                "x": -0.4908360881923452,
                "y": 0.5182115481033761,
                "z": -0.48164630358495003
            },
            "position": {
                "x": 0.5540239810943604,
                "y": -0.46912469901144505,
                "z": 0.16403168439865112
            }
        },
        "name": "move_to_storage_B"
    },
    "id": "KPIECE_move_to_storage_B_106",
    "joint_names": [
        "shoulder_pan_joint",
        "shoulder_lift_joint",
        "elbow_joint",
        "wrist_1_joint",
        "wrist_2_joint",
        "wrist_3_joint"
    ],
    "metrics": {
        "cart_traj_len": 1.8225143642047428,
        "distance_elbow_joint": 0.9744809240279158,
        "distance_shoulder_lift_joint": 1.1346908401937794,
        "distance_shoulder_pan_joint": 0.7954174407996449,
        "distance_wrist_1_joint": 2.9902689203380826,
        "distance_wrist_2_joint": 2.704954138792028,
        "distance_wrist_3_joint": 3.1495660683129425,
        "smoothness": 0.23440818925983006,
        "time": 0.06959531399999999,
        "traj_len": 3.4277366194712795,
        "weighted_distance": 4.8727542035506355
    },
    "planner": "KPIECE",
    "start": {
        "state": {
            "elbow_joint": 1.664937868594044,
            "shoulder_lift_joint": -0.661644460510453,
            "shoulder_pan_joint": -0.9139846352900073,
            "wrist_1_joint": 2.146753192139373,
            "wrist_2_joint": -2.2341966793290973,
            "wrist_3_joint": 0.005466555786416001
        }
    },
    "waypoints": [
        {
            "positions": [
                -0.9139846352900073,
                -0.661644460510453,
                1.664937868594044,
                2.146753192139373,
                -2.2341966793290973,
                0.005466555786416001
            ]
        },
        {
            "positions": [
                -0.8788407971570109,
                -0.7032003076383417,
                1.674065850051215,
                2.145806568528128,
                -2.2104546237838223,
                0.04889081668235084
            ]
        },
        {
            "positions": [
                -0.8517125241436049,
                -0.7787186511427168,
                1.6428494228887658,
                2.113265175773194,
                -2.009050626806698,
                0.07709641920774561
            ]
        },
        {
            "positions": [
                -0.8245842511301988,
                -0.8542369946470918,
                1.6116329957263167,
                2.0807237830182594,
                -1.8076466298295735,
                0.10530202173314038
            ]
        },
        {
            "positions": [
                -0.7974559781167928,
                -0.9297553381514668,
                1.5804165685638674,
                2.0481823902633254,
                -1.606242632852449,
                0.13350762425853513
            ]
        },
        {
            "positions": [
                -0.7703277051033868,
                -1.0052736816558419,
                1.549200141401418,
                2.0156409975083913,
                -1.4048386358753244,
                0.1617132267839299
            ]
        },
        {
            "positions": [
                -0.7431994320899806,
                -1.0807920251602168,
                1.517983714238969,
                1.983099604753457,
                -1.2034346388982,
                0.1899188293093247
            ]
        },
        {
            "positions": [
                -0.7160711590765747,
                -1.156310368664592,
                1.4867672870765196,
                1.9505582119985228,
                -1.0020306419210756,
                0.21812443183471944
            ]
        },
        {
            "positions": [
                -0.6889428860631686,
                -1.231828712168967,
                1.4555508599140703,
                1.9180168192435887,
                -0.8006266449439512,
                0.24633003436011422
            ]
        },
        {
            "positions": [
                -0.6618146130497625,
                -1.307347055673342,
                1.424334432751621,
                1.8854754264886544,
                -0.5992226479668266,
                0.27453563688550897
            ]
        },
        {
            "positions": [
                -0.6346863400363565,
                -1.382865399177717,
                1.3931180055891719,
                1.8529340337337201,
                -0.39781865098970215,
                0.30274123941090375
            ]
        },
        {
            "positions": [
                -0.6075580670229505,
                -1.458383742682092,
                1.3619015784267225,
                1.820392640978786,
                -0.19641465401257774,
                0.33094684193629853
            ]
        },
        {
            "positions": [
                -0.6320076106495799,
                -1.4414861647809851,
                1.394561011974035,
                1.6871972225199112,
                -0.16305604833880222,
                0.47215113104445156
            ]
        },
        {
            "positions": [
                -0.6564571542762092,
                -1.424588586879878,
                1.4272204455213477,
                1.5540018040610364,
                -0.1296974426650267,
                0.6133554201526046
            ]
        },
        {
            "positions": [
                -0.6809066979028386,
                -1.4076910089787709,
                1.4598798790686605,
                1.4208063856021618,
                -0.09633883699125122,
                0.7545597092607575
            ]
        },
        {
            "positions": [
                -0.7053562415294681,
                -1.390793431077664,
                1.492539312615973,
                1.287610967143287,
                -0.06298023131747568,
                0.8957639983689106
            ]
        },
        {
            "positions": [
                -0.7298057851560975,
                -1.373895853176557,
                1.5251987461632854,
                1.1544155486844123,
                -0.02962162564370019,
                1.0369682874770636
            ]
        },
        {
            "positions": [
                -0.7542553287827269,
                -1.35699827527545,
                1.5578581797105981,
                1.0212201302255375,
                0.003736980030075304,
                1.1781725765852165
            ]
        },
        {
            "positions": [
                -0.7787048724093563,
                -1.340100697374343,
                1.5905176132579106,
                0.8880247117666628,
                0.037095585703850825,
                1.3193768656933695
            ]
        },
        {
            "positions": [
                -0.8031544160359857,
                -1.3232031194732359,
                1.6231770468052233,
                0.7548292933077878,
                0.07045419137762637,
                1.4605811548015226
            ]
        },
        {
            "positions": [
                -0.8276039596626151,
                -1.306305541572129,
                1.6558364803525358,
                0.6216338748489132,
                0.10381279705140184,
                1.6017854439096757
            ]
        },
        {
            "positions": [
                -0.8520535032892445,
                -1.2894079636710218,
                1.6884959138998485,
                0.48843845639003836,
                0.13717140272517736,
                1.7429897330178288
            ]
        },
        {
            "positions": [
                -0.8765030469158739,
                -1.2725103857699147,
                1.7211553474471613,
                0.3552430379311635,
                0.17053000839895288,
                1.8841940221259819
            ]
        },
        {
            "positions": [
                -0.9009525905425033,
                -1.2556128078688078,
                1.7538147809944737,
                0.2220476194722889,
                0.20388861407272835,
                2.0253983112341345
            ]
        },
        {
            "positions": [
                -0.9254021341691328,
                -1.238715229967701,
                1.7864742145417862,
                0.08885220101341407,
                0.23724721974650392,
                2.1666026003422876
            ]
        },
        {
            "positions": [
                -0.9498516777957622,
                -1.2218176520665938,
                1.819133648089099,
                -0.04434321744546055,
                0.2706058254202794,
                2.3078068894504407
            ]
        },
        {
            "positions": [
                -0.9743012214223915,
                -1.2049200741654866,
                1.8517930816364117,
                -0.1775386359043356,
                0.3039644310940549,
                2.4490111785585937
            ]
        },
        {
            "positions": [
                -0.9987507650490209,
                -1.1880224962643797,
                1.8844525151837241,
                -0.31073405436321044,
                0.3373230367678305,
                2.590215467666747
            ]
        },
        {
            "positions": [
                -1.0232003086756503,
                -1.1711249183632728,
                1.9171119487310366,
                -0.44392947282208484,
                0.37068164244160595,
                2.7314197567748995
            ]
        },
        {
            "positions": [
                -1.0476498523022797,
                -1.1542273404621657,
                1.9497713822783493,
                -0.5771248912809597,
                0.4040402481153814,
                2.8726240458830525
            ]
        },
        {
            "positions": [
                -1.0720993959289091,
                -1.1373297625610586,
                1.982430815825662,
                -0.7103203097398345,
                0.4373988537891569,
                3.0138283349912056
            ]
        },
        {
            "positions": [
                -1.0965489395555386,
                -1.1204321846599516,
                2.0150902493729745,
                -0.8435157281987095,
                0.4707574594629325,
                3.1550326240993587
            ]
        }
    ]
}