{
    "goal": {
        "global_pose": {
            "orientation": {
                "w": 0.005598929693374612,
                "x": 0.007748599140229565,
                "y": 0.7110244013736278,
                "z": -0.7031023480610252
            },
            "position": {
                "x": 0.1141497679147869,
                "y": -0.7141253447532654,
                "z": 0.3711530566215515
            }
        },
        "name": "move_to_auspresseinheit_B"
    },
    "id": "KPIECE_move_to_auspresseinheit_B_62",
    "joint_names": [
        "shoulder_pan_joint",
        "shoulder_lift_joint",
        "elbow_joint",
        "wrist_1_joint",
        "wrist_2_joint",
        "wrist_3_joint"
    ],
    "metrics": {
        "cart_traj_len": 0.5652518344879474,
        "distance_elbow_joint": 0.0608625459924923,
        "distance_shoulder_lift_joint": 0.29540637047222673,
        "distance_shoulder_pan_joint": 0.5786945067005034,
        "distance_wrist_1_joint": 0.3205086044765435,
        "distance_wrist_2_joint": 0.9891605818967166,
        "distance_wrist_3_joint": 0.0009804447063639365,
        "smoothness": 0.0,
        "time": 0.09054634,
        "traj_len": 1.4985369712639214,
        "weighted_distance": 1.8860655158373567
    },
    "planner": "KPIECE",
    "start": {
        "state": {
            "elbow_joint": 2.0193083361928714,
            "shoulder_lift_joint": -1.1220246554650708,
            "shoulder_pan_joint": -1.0952077554168747,
            "wrist_1_joint": -0.8559753972642168,
            "wrist_2_joint": 0.4759566250798843,
            "wrist_3_joint": -3.1240929996934557
        }
    },
    "waypoints": [
        {
            "positions": [
                -1.0952077554168747,
                -1.1220246554650708,
                2.0193083361928714,
                -0.8559753972642168,
                0.4759566250798843,
                -3.1240929996934557
            ]
        },
        {
            "positions": [
                -1.1916568398669585,
                -1.1712590505437752,
                2.009164578527456,
                -0.8025572965181262,
                0.6408167220626704,
                -3.123929592242395
            ]
        },
        {
            "positions": [
                -1.2881059243170425,
                -1.2204934456224796,
                1.9990208208620406,
                -0.7491391957720356,
                0.8056768190454564,
                -3.1237661847913345
            ]
        },
        {
            "positions": [
                -1.3845550087671263,
                -1.2697278407011843,
                1.9888770631966253,
                -0.695721095025945,
                0.9705369160282427,
                -3.123602777340274
            ]
        },
        {
            "positions": [
                -1.4810040932172102,
                -1.3189622357798887,
                1.97873330553121,
                -0.6423029942798545,
                1.1353970130110287,
                -3.123439369889213
            ]
        },
        {
            "positions": [
                -1.5774531776672942,
                -1.368196630858593,
                1.9685895478657944,
                -0.5888848935337638,
                1.300257109993815,
                -3.1232759624381523
            ]
        },
        {
            "positions": [
                -1.673902262117378,
                -1.4174310259372975,
                1.9584457902003791,
                -0.5354667927876733,
                1.465117206976601,
                -3.1231125549870917
            ]
        }
    ]
}