{
    "goal": {
        "global_pose": {
            "orientation": {
                "w": -0.00223480608172531,
                "x": 0.0024358444001904467,
                "y": 0.7094548369677653,
                "z": -0.704743149386269
            },
            "position": {
                "x": 0.6205249238014221,
                "y": -0.6371506643295288,
                "z": 0.19426114857196808
            }
        },
        "name": "move_to_magneteinheit_B"
    },
    "id": "KPIECE_move_to_magneteinheit_B_137",
    "joint_names": [
        "shoulder_pan_joint",
        "shoulder_lift_joint",
        "elbow_joint",
        "wrist_1_joint",
        "wrist_2_joint",
        "wrist_3_joint"
    ],
    "metrics": {
        "cart_traj_len": 5.838138383421519,
        "distance_elbow_joint": 4.464714908041309,
        "distance_shoulder_lift_joint": 3.0739480503091263,
        "distance_shoulder_pan_joint": 5.4971054945524465,
        "distance_wrist_1_joint": 1.5279935501237873,
        "distance_wrist_2_joint": 4.295986875852748,
        "distance_wrist_3_joint": 1.7226065750436554,
        "smoothness": 0.4879321735104219,
        "time": 0.324684604,
        "traj_len": 4.536778091765463,
        "weighted_distance": 5.463657111311702
    },
    "planner": "KPIECE",
    "start": {
        "state": {
            "elbow_joint": 2.6216224122426386,
            "shoulder_lift_joint": -1.4174107377796124,
            "shoulder_pan_joint": 0.7066234856936794,
            "wrist_1_joint": 1.9546482284002225,
            "wrist_2_joint": -0.7096286983471962,
            "wrist_3_joint": 0.005740856962016249
        }
    },
    "waypoints": [
        {
            "positions": [
                0.7066234856936794,
                -1.4174107377796124,
                2.6216224122426386,
                1.9546482284002225,
                -0.7096286983471962,
                0.005740856962016249
            ]
        },
        {
            "positions": [
                0.8557135269335584,
                -1.5064562411025038,
                2.6354894871642283,
                1.9614163156142432,
                -0.6281416352316354,
                0.04565747632342033
            ]
        },
        {
            "positions": [
                1.0048035681734375,
                -1.5955017444253952,
                2.649356562085818,
                1.968184402828264,
                -0.5466545721160744,
                0.08557409568482441
            ]
        },
        {
            "positions": [
                1.1538936094133165,
                -1.6845472477482866,
                2.6632236370074076,
                1.9749524900422848,
                -0.46516750900051346,
                0.1254907150462285
            ]
        },
        {
            "positions": [
                1.3029836506531955,
                -1.773592751071178,
                2.6770907119289973,
                1.9817205772563056,
                -0.38368044588495254,
                0.16540733440763258
            ]
        },
        {
            "positions": [
                1.4520736918930746,
                -1.8626382543940694,
                2.690957786850587,
                1.9884886644703264,
                -0.3021933827693916,
                0.20532395376903667
            ]
        },
        {
            "positions": [
                1.6011637331329536,
                -1.9516837577169608,
                2.7048248617721766,
                1.9952567516843471,
                -0.2207063196538307,
                0.24524057313044076
            ]
        },
        {
            "positions": [
                1.7502537743728324,
                -2.040729261039852,
                2.7186919366937667,
                2.0020248388983677,
                -0.13921925653826983,
                0.2851571924918448
            ]
        },
        {
            "positions": [
                1.8993438156127116,
                -2.1297747643627436,
                2.7325590116153564,
                2.0087929261123887,
                -0.057732193422708855,
                0.3250738118532489
            ]
        },
        {
            "positions": [
                2.048433856852591,
                -2.218820267685635,
                2.746426086536946,
                2.0155610133264092,
                0.02375486969285201,
                0.36499043121465297
            ]
        },
        {
            "positions": [
                2.1975238980924696,
                -2.3078657710085264,
                2.7602931614585358,
                2.0223291005404302,
                0.10524193280841299,
                0.4049070505760571
            ]
        },
        {
            "positions": [
                2.346613939332349,
                -2.396911274331418,
                2.7741602363801254,
                2.029097187754451,
                0.18672899592397385,
                0.44482366993746114
            ]
        },
        {
            "positions": [
                2.4957039805722276,
                -2.4859567776543092,
                2.788027311301715,
                2.035865274968472,
                0.2682160590395348,
                0.48474028929886526
            ]
        },
        {
            "positions": [
                2.644794021812107,
                -2.5750022809772006,
                2.8018943862233048,
                2.0426333621824924,
                0.3497031221550957,
                0.5246569086602693
            ]
        },
        {
            "positions": [
                2.598911901740757,
                -2.563338729319043,
                2.666307906595771,
                2.080946385894849,
                0.20428723713813898,
                0.5418348244513365
            ]
        },
        {
            "positions": [
                2.5530297816694074,
                -2.5516751776608855,
                2.5307214269682374,
                2.119259409607206,
                0.058871352121182274,
                0.5590127402424038
            ]
        },
        {
            "positions": [
                2.5071476615980575,
                -2.5400116260027277,
                2.395134947340704,
                2.1575724333195625,
                -0.0865445328957744,
                0.576190656033471
            ]
        },
        {
            "positions": [
                2.461265541526708,
                -2.52834807434457,
                2.2595484677131705,
                2.1958854570319195,
                -0.23196041791273114,
                0.5933685718245382
            ]
        },
        {
            "positions": [
                2.415383421455358,
                -2.5166845226864125,
                2.123961988085637,
                2.234198480744276,
                -0.3773763029296878,
                0.6105464876156055
            ]
        },
        {
            "positions": [
                2.369501301384008,
                -2.5050209710282547,
                1.9883755084581032,
                2.2725115044566326,
                -0.5227921879466445,
                0.6277244034066727
            ]
        },
        {
            "positions": [
                2.3236191813126585,
                -2.493357419370097,
                1.8527890288305697,
                2.3108245281689896,
                -0.6682080729636011,
                0.6449023191977399
            ]
        },
        {
            "positions": [
                2.2777370612413086,
                -2.4816938677119396,
                1.717202549203036,
                2.349137551881346,
                -0.813623957980558,
                0.6620802349888071
            ]
        },
        {
            "positions": [
                2.231854941169959,
                -2.4700303160537818,
                1.5816160695755024,
                2.387450575593703,
                -0.9590398429975147,
                0.6792581507798744
            ]
        },
        {
            "positions": [
                2.185972821098609,
                -2.458366764395624,
                1.446029589947969,
                2.42576359930606,
                -1.1044557280144713,
                0.6964360665709416
            ]
        },
        {
            "positions": [
                2.140090701027259,
                -2.4467032127374666,
                1.3104431103204353,
                2.464076623018417,
                -1.2498716130314282,
                0.7136139823620089
            ]
        },
        {
            "positions": [
                2.0942085809559097,
                -2.435039661079309,
                1.1748566306929018,
                2.5023896467307734,
                -1.3952874980483847,
                0.7307918981530761
            ]
        },
        {
            "positions": [
                2.0483264608845597,
                -2.4233761094211514,
                1.0392701510653681,
                2.54070267044313,
                -1.5407033830653416,
                0.7479698139441433
            ]
        },
        {
            "positions": [
                2.00244434081321,
                -2.4117125577629936,
                0.9036836714378347,
                2.579015694155487,
                -1.6861192680822978,
                0.7651477297352105
            ]
        },
        {
            "positions": [
                1.9565622207418603,
                -2.400049006104836,
                0.768097191810301,
                2.6173287178678435,
                -1.8315351530992547,
                0.7823256455262777
            ]
        },
        {
            "positions": [
                1.9106801006705103,
                -2.3883854544466785,
                0.6325107121827673,
                2.6556417415802,
                -1.9769510381162116,
                0.799503561317345
            ]
        },
        {
            "positions": [
                1.8647979805991608,
                -2.3767219027885207,
                0.4969242325552341,
                2.693954765292557,
                -2.122366923133168,
                0.8166814771084122
            ]
        },
        {
            "positions": [
                1.8189158605278108,
                -2.365058351130363,
                0.3613377529277,
                2.7322677890049136,
                -2.267782808150125,
                0.8338593928994795
            ]
        },
        {
            "positions": [
                1.7730337404564613,
                -2.3533947994722055,
                0.22575127330016675,
                2.77058081271727,
                -2.4131986931670815,
                0.8510373086905467
            ]
        },
        {
            "positions": [
                1.7271516203851114,
                -2.3417312478140477,
                0.09016479367263308,
                2.808893836429627,
                -2.5586145781840384,
                0.8682152244816139
            ]
        },
        {
            "positions": [
                1.5950869925347602,
                -2.2575769741166285,
                0.1688004607481316,
                2.775206439324908,
                -2.542197710433472,
                0.825208614105411
            ]
        },
        {
            "positions": [
                1.4630223646844087,
                -2.1734227004192093,
                0.2474361278236301,
                2.741519042220189,
                -2.5257808426829054,
                0.7822020037292081
            ]
        },
        {
            "positions": [
                1.3309577368340575,
                -2.08926842672179,
                0.3260717948991285,
                2.70783164511547,
                -2.509363974932339,
                0.7391953933530053
            ]
        },
        {
            "positions": [
                1.198893108983706,
                -2.005114153024371,
                0.4047074619746271,
                2.6741442480107507,
                -2.492947107181773,
                0.6961887829768024
            ]
        },
        {
            "positions": [
                1.0668284811333548,
                -1.9209598793269513,
                0.48334312905012555,
                2.6404568509060313,
                -2.4765302394312063,
                0.6531821726005995
            ]
        },
        {
            "positions": [
                0.9347638532830035,
                -1.836805605629532,
                0.561978796125624,
                2.6067694538013124,
                -2.46011337168064,
                0.6101755622243967
            ]
        },
        {
            "positions": [
                0.8026992254326523,
                -1.7526513319321129,
                0.6406144632011225,
                2.5730820566965935,
                -2.4436965039300733,
                0.5671689518481937
            ]
        },
        {
            "positions": [
                0.6706345975823009,
                -1.6684970582346934,
                0.7192501302766211,
                2.539394659591874,
                -2.427279636179507,
                0.5241623414719909
            ]
        },
        {
            "positions": [
                0.5385699697319495,
                -1.5843427845372742,
                0.7978857973521195,
                2.505707262487155,
                -2.4108627684289403,
                0.48115573109578796
            ]
        },
        {
            "positions": [
                0.40650534188159826,
                -1.500188510839855,
                0.876521464427618,
                2.472019865382436,
                -2.394445900678374,
                0.4381491207195851
            ]
        },
        {
            "positions": [
                0.2744407140312468,
                -1.4160342371424357,
                0.9551571315031165,
                2.4383324682777165,
                -2.3780290329278078,
                0.3951425103433822
            ]
        },
        {
            "positions": [
                0.1423760861808956,
                -1.3318799634450165,
                1.0337927985786148,
                2.4046450711729976,
                -2.3616121651772413,
                0.3521358999671794
            ]
        },
        {
            "positions": [
                0.010311458330544365,
                -1.247725689747597,
                1.1124284656541135,
                2.3709576740682783,
                -2.3451952974266748,
                0.3091292895909764
            ]
        },
        {
            "positions": [
                -0.12175316951980686,
                -1.163571416050178,
                1.1910641327296119,
                2.3372702769635594,
                -2.3287784296761083,
                0.2661226792147736
            ]
        },
        {
            "positions": [
                -0.2538177973701583,
                -1.0794171423527585,
                1.2696997998051105,
                2.3035828798588405,
                -2.3123615619255418,
                0.2231160688385707
            ]
        },
        {
            "positions": [
                -0.38588242522050953,
                -0.9952628686553391,
                1.3483354668806091,
                2.269895482754121,
                -2.2959446941749753,
                0.1801094584623678
            ]
        },
        {
            "positions": [
                -0.517947053070861,
                -0.9111085949579201,
                1.4269711339561075,
                2.2362080856494018,
                -2.279527826424409,
                0.13710284808616502
            ]
        },
        {
            "positions": [
                -0.6500116809212124,
                -0.8269543212605006,
                1.505606801031606,
                2.202520688544683,
                -2.2631109586738427,
                0.094096237709962
            ]
        },
        {
            "positions": [
                -0.7820763087715634,
                -0.7428000475630816,
                1.5842424681071043,
                2.168833291439964,
                -2.246694090923276,
                0.05108962733375921
            ]
        },
        {
            "positions": [
                -0.9141409366219146,
                -0.6586457738656623,
                1.662878135182603,
                2.1351458943352446,
                -2.2302772231727097,
                0.008083016957556336
            ]
        }
    ]
}