{
    "goal": {
        "global_pose": {
            "orientation": {
                "w": 0.7031023502349854,
                "x": -0.7110244035720825,
                "y": 0.007748599164187908,
                "z": 0.005598929710686207
            },
            "position": {
                "x": 0.11585023208521307,
                "y": 0.44412534475326537,
                "z": 0.3711530566215515
            }
        },
        "name": "move_to_auspresseinheit_A"
    },
    "id": "KPIECE_move_to_auspresseinheit_A_55",
    "joint_names": [
        "shoulder_pan_joint",
        "shoulder_lift_joint",
        "elbow_joint",
        "wrist_1_joint",
        "wrist_2_joint",
        "wrist_3_joint"
    ],
    "metrics": {
        "cart_traj_len": 0.7281237888147419,
        "distance_elbow_joint": 0.2668273989909391,
        "distance_shoulder_lift_joint": 0.5337612669169278,
        "distance_shoulder_pan_joint": 1.0445706485809845,
        "distance_wrist_1_joint": 0.9211126799841587,
        "distance_wrist_2_joint": 0.5236136367919049,
        "distance_wrist_3_joint": 0.3152209120039777,
        "smoothness": 0.8892248681660991,
        "time": 0.634850287,
        "traj_len": 1.898711811536678,
        "weighted_distance": 2.3833326843000564
    },
    "planner": "KPIECE",
    "start": {
        "state": {
            "elbow_joint": 2.4225746658250005,
            "shoulder_lift_joint": -1.3736534386056498,
            "shoulder_pan_joint": -0.3378633547517467,
            "wrist_1_joint": -1.0288598680537169,
            "wrist_2_joint": 1.233022673432363,
            "wrist_3_joint": -3.0940220416140027
        }
    },
    "waypoints": [
        {
            "positions": [
                -0.3378633547517467,
                -1.3736534386056498,
                2.4225746658250005,
                -1.0288598680537169,
                1.233022673432363,
                -3.0940220416140027
            ]
        },
        {
            "positions": [
                -0.23286291450895494,
                -1.4479903223434196,
                2.4011417597745774,
                -0.9216956177453319,
                1.1720501573168938,
                -3.0751328716168502
            ]
        },
        {
            "positions": [
                -0.12786247426616315,
                -1.5223272060811894,
                2.379708853724154,
                -0.814531367436947,
                1.1110776412014247,
                -3.0562437016196973
            ]
        },
        {
            "positions": [
                -0.02286203402337139,
                -1.596664089818959,
                2.358275947673731,
                -0.707367117128562,
                1.0501051250859554,
                -3.0373545316225448
            ]
        },
        {
            "positions": [
                0.08213840621942042,
                -1.6710009735567288,
                2.3368430416233075,
                -0.6002028668201771,
                0.9891326089704862,
                -3.018465361625392
            ]
        },
        {
            "positions": [
                0.1871388464622123,
                -1.7453378572944986,
                2.3154101355728844,
                -0.49303861651179204,
                0.928160092855017,
                -2.9995761916282393
            ]
        },
        {
            "positions": [
                0.29213928670500394,
                -1.8196747410322685,
                2.293977229522461,
                -0.3858743662034071,
                0.8671875767395478,
                -2.9806870216310863
            ]
        },
        {
            "positions": [
                0.39713972694779576,
                -1.8940116247700383,
                2.272544323472038,
                -0.27871011589502215,
                0.8062150606240785,
                -2.961797851633934
            ]
        },
        {
            "positions": [
                0.5003289159082764,
                -1.8984793183542181,
                2.311476675684697,
                -0.33569775850351014,
                0.7739463859628718,
                -3.022796758975237
            ]
        },
        {
            "positions": [
                0.603518104868757,
                -1.9029470119383978,
                2.3504090278973555,
                -0.3926854011119981,
                0.7416777113016649,
                -3.0837956663165396
            ]
        },
        {
            "positions": [
                0.7067072938292377,
                -1.9074147055225776,
                2.3893413801100145,
                -0.44967304372048617,
                0.7094090366404582,
                -3.1447945736578427
            ]
        }
    ]
}