{
    "goal": {
        "global_pose": {
            "orientation": {
                "w": 0.005598929693374612,
                "x": 0.007748599140229565,
                "y": 0.7110244013736278,
                "z": -0.7031023480610252
            },
            "position": {
                "x": -0.8858502320852131,
                "y": -0.7141253447532654,
                "z": 0.3711530566215515
            }
        },
        "name": "move_to_auspresseinheit_C"
    },
    "id": "KPIECE_move_to_auspresseinheit_C_69",
    "joint_names": [
        "shoulder_pan_joint",
        "shoulder_lift_joint",
        "elbow_joint",
        "wrist_1_joint",
        "wrist_2_joint",
        "wrist_3_joint"
    ],
    "metrics": {
        "cart_traj_len": 0.4938669094953292,
        "distance_elbow_joint": 1.005694025298308,
        "distance_shoulder_lift_joint": 0.32720457293417327,
        "distance_shoulder_pan_joint": 0.25573461019054244,
        "distance_wrist_1_joint": 0.6806081935514712,
        "distance_wrist_2_joint": 1.319601379530057,
        "distance_wrist_3_joint": 0.06332191741110949,
        "smoothness": 4.844609560949652e-16,
        "time": 0.491853636,
        "traj_len": 1.9110637610806347,
        "weighted_distance": 2.403958840500271
    },
    "planner": "KPIECE",
    "start": {
        "state": {
            "elbow_joint": 1.7527959577737207,
            "shoulder_lift_joint": -0.9740617694225068,
            "shoulder_pan_joint": -2.967991417825858,
            "wrist_1_joint": -0.759517768980727,
            "wrist_2_joint": 1.7443932448377408,
            "wrist_3_joint": -3.0840537646736568
        }
    },
    "waypoints": [
        {
            "positions": [
                -2.967991417825858,
                -0.9740617694225068,
                1.7527959577737207,
                -0.759517768980727,
                1.7443932448377408,
                -3.0840537646736568
            ]
        },
        {
            "positions": [
                -2.942417956806804,
                -0.9413413121290894,
                1.65222655524389,
                -0.6914569496255799,
                1.612433106884735,
                -3.0903859564147678
            ]
        },
        {
            "positions": [
                -2.9168444957877493,
                -0.9086208548356721,
                1.551657152714059,
                -0.6233961302704327,
                1.4804729689317293,
                -3.0967181481558788
            ]
        },
        {
            "positions": [
                -2.891271034768695,
                -0.8759003975422548,
                1.4510877501842283,
                -0.5553353109152857,
                1.3485128309787238,
                -3.1030503398969898
            ]
        },
        {
            "positions": [
                -2.865697573749641,
                -0.8431799402488375,
                1.3505183476543974,
                -0.4872744915601385,
                1.216552693025718,
                -3.1093825316381007
            ]
        },
        {
            "positions": [
                -2.840124112730587,
                -0.8104594829554201,
                1.2499489451245667,
                -0.4192136722049914,
                1.0845925550727125,
                -3.1157147233792113
            ]
        },
        {
            "positions": [
                -2.8145506517115324,
                -0.7777390256620028,
                1.149379542594736,
                -0.35115285284984427,
                0.9526324171197067,
                -3.1220469151203223
            ]
        },
        {
            "positions": [
                -2.7889771906924783,
                -0.7450185683685855,
                1.048810140064905,
                -0.2830920334946972,
                0.820672279166701,
                -3.1283791068614333
            ]
        },
        {
            "positions": [
                -2.763403729673424,
                -0.7122981110751682,
                0.9482407375350742,
                -0.21503121413955006,
                0.6887121412136952,
                -3.1347112986025443
            ]
        },
        {
            "positions": [
                -2.7378302686543696,
                -0.6795776537817508,
                0.8476713350052435,
                -0.14697039478440288,
                0.5567520032606896,
                -3.1410434903436553
            ]
        },
        {
            "positions": [
                -2.7122568076353155,
                -0.6468571964883335,
                0.7471019324754128,
                -0.07890957542925583,
                0.4247918653076838,
                -3.1473756820847663
            ]
        }
    ]
}