{
    "goal": {
        "global_pose": {
            "orientation": {
                "w": 0.005598929693374612,
                "x": 0.007748599140229565,
                "y": 0.7110244013736278,
                "z": -0.7031023480610252
            },
            "position": {
                "x": 0.1141497679147869,
                "y": -0.7141253447532654,
                "z": 0.3711530566215515
            }
        },
        "name": "move_to_auspresseinheit_B"
    },
    "id": "KPIECE_move_to_auspresseinheit_B_110",
    "joint_names": [
        "shoulder_pan_joint",
        "shoulder_lift_joint",
        "elbow_joint",
        "wrist_1_joint",
        "wrist_2_joint",
        "wrist_3_joint"
    ],
    "metrics": {
        "cart_traj_len": 0.5643193434196289,
        "distance_elbow_joint": 0.062236336470028464,
        "distance_shoulder_lift_joint": 0.29480365437528366,
        "distance_shoulder_pan_joint": 0.5777027579023724,
        "distance_wrist_1_joint": 0.3286206880612009,
        "distance_wrist_2_joint": 0.9898931950609731,
        "distance_wrist_3_joint": 0.0022854927025997007,
        "smoothness": 0.0,
        "time": 0.118577967,
        "traj_len": 1.5018462386584248,
        "weighted_distance": 1.8917259297001328
    },
    "planner": "KPIECE",
    "start": {
        "state": {
            "elbow_joint": 2.0193083361928714,
            "shoulder_lift_joint": -1.1220246554650708,
            "shoulder_pan_joint": -1.0952077554168747,
            "wrist_1_joint": -0.8559753972642168,
            "wrist_2_joint": 0.4759566250798843,
            "wrist_3_joint": -3.1240929996934557
        }
    },
    "waypoints": [
        {
            "positions": [
                -1.0952077554168747,
                -1.1220246554650708,
                2.0193083361928714,
                -0.8559753972642168,
                0.4759566250798843,
                -3.1240929996934557
            ]
        },
        {
            "positions": [
                -1.1914915484006035,
                -1.1711585978609513,
                2.008935613447867,
                -0.8012052825873499,
                0.6409388242567131,
                -3.1237120842430226
            ]
        },
        {
            "positions": [
                -1.287775341384332,
                -1.220292540256832,
                1.9985628907028619,
                -0.7464351679104831,
                0.8059210234335419,
                -3.123331168792589
            ]
        },
        {
            "positions": [
                -1.3840591343680608,
                -1.2694264826527126,
                1.9881901679578573,
                -0.6916650532336164,
                0.9709032226103709,
                -3.1229502533421556
            ]
        },
        {
            "positions": [
                -1.4803429273517894,
                -1.3185604250485932,
                1.9778174452128525,
                -0.6368949385567495,
                1.1358854217871996,
                -3.1225693378917225
            ]
        },
        {
            "positions": [
                -1.5766267203355184,
                -1.367694367444474,
                1.9674447224678477,
                -0.5821248238798826,
                1.3008676209640286,
                -3.1221884224412895
            ]
        },
        {
            "positions": [
                -1.672910513319247,
                -1.4168283098403545,
                1.957071999722843,
                -0.5273547092030159,
                1.4658498201408574,
                -3.121807506990856
            ]
        }
    ]
}