{
    "goal": {
        "global_pose": {
            "orientation": {
                "w": 0.7047431468963623,
                "x": -0.7094548344612122,
                "y": 0.0024358443915843964,
                "z": -0.0022348060738295317
            },
            "position": {
                "x": 0.6094750761985779,
                "y": 0.3671506643295288,
                "z": 0.19426114857196808
            }
        },
        "name": "move_to_magneteinheit_A"
    },
    "id": "KPIECE_move_to_magneteinheit_A_93",
    "joint_names": [
        "shoulder_pan_joint",
        "shoulder_lift_joint",
        "elbow_joint",
        "wrist_1_joint",
        "wrist_2_joint",
        "wrist_3_joint"
    ],
    "metrics": {
        "cart_traj_len": 3.536131995881293,
        "distance_elbow_joint": 3.8911286082181062,
        "distance_shoulder_lift_joint": 0.3188130899786832,
        "distance_shoulder_pan_joint": 2.5769848772816064,
        "distance_wrist_1_joint": 0.7733065184911151,
        "distance_wrist_2_joint": 5.3928779267285165,
        "distance_wrist_3_joint": 2.6508835276517937,
        "smoothness": 0.27008064952943056,
        "time": 0.15571198,
        "traj_len": 3.9501891788052164,
        "weighted_distance": 5.203070828738837
    },
    "planner": "KPIECE",
    "start": {
        "state": {
            "elbow_joint": -1.9196185241190666,
            "shoulder_lift_joint": -1.2443396400964142,
            "shoulder_pan_joint": 2.6996025414629847,
            "wrist_1_joint": -1.5485510000780065,
            "wrist_2_joint": -1.5709468930060704,
            "wrist_3_joint": 0.4420197071253992
        }
    },
    "waypoints": [
        {
            "positions": [
                2.6996025414629847,
                -1.2443396400964142,
                -1.9196185241190666,
                -1.5485510000780065,
                -1.5709468930060704,
                0.4420197071253992
            ]
        },
        {
            "positions": [
                2.6190206726686536,
                -1.2481552380342995,
                -1.8038287639053032,
                -1.53022195979007,
                -1.4441101282008606,
                0.4795172095212291
            ]
        },
        {
            "positions": [
                2.538438803874323,
                -1.2519708359721848,
                -1.6880390036915398,
                -1.5118929195021333,
                -1.3172733633956508,
                0.5170147119170591
            ]
        },
        {
            "positions": [
                2.4578569350799917,
                -1.2557864339100702,
                -1.5722492434777764,
                -1.4935638792141968,
                -1.190436598590441,
                0.5545122143128889
            ]
        },
        {
            "positions": [
                2.377275066285661,
                -1.2596020318479555,
                -1.456459483264013,
                -1.4752348389262602,
                -1.0635998337852313,
                0.5920097167087188
            ]
        },
        {
            "positions": [
                2.29669319749133,
                -1.2634176297858408,
                -1.3406697230502496,
                -1.4569057986383236,
                -0.9367630689800215,
                0.6295072191045488
            ]
        },
        {
            "positions": [
                2.2161113286969987,
                -1.2672332277237262,
                -1.2248799628364861,
                -1.438576758350387,
                -0.8099263041748117,
                0.6670047215003787
            ]
        },
        {
            "positions": [
                2.135529459902668,
                -1.2710488256616115,
                -1.1090902026227227,
                -1.4202477180624504,
                -0.6830895393696019,
                0.7045022238962086
            ]
        },
        {
            "positions": [
                2.054947591108337,
                -1.2748644235994966,
                -0.9933004424089592,
                -1.4019186777745138,
                -0.5562527745643921,
                0.7419997262920386
            ]
        },
        {
            "positions": [
                1.9743657223140059,
                -1.278680021537382,
                -0.8775106821951957,
                -1.3835896374865773,
                -0.42941600975918237,
                0.7794972286878685
            ]
        },
        {
            "positions": [
                1.893783853519675,
                -1.2824956194752672,
                -0.7617209219814323,
                -1.3652605971986407,
                -0.3025792449539726,
                0.8169947310836985
            ]
        },
        {
            "positions": [
                1.8132019847253438,
                -1.2863112174131526,
                -0.6459311617676688,
                -1.346931556910704,
                -0.17574248014876281,
                0.8544922334795284
            ]
        },
        {
            "positions": [
                1.732620115931013,
                -1.290126815351038,
                -0.5301414015539054,
                -1.3286025166227675,
                -0.048905715343553036,
                0.8919897358753582
            ]
        },
        {
            "positions": [
                1.652038247136682,
                -1.2939424132889232,
                -0.414351641340142,
                -1.3102734763348307,
                0.07793104946165674,
                0.9294872382711883
            ]
        },
        {
            "positions": [
                1.571456378342351,
                -1.2977580112268086,
                -0.2985618811263786,
                -1.2919444360468941,
                0.20476781426686652,
                0.9669847406670181
            ]
        },
        {
            "positions": [
                1.49087450954802,
                -1.301573609164694,
                -0.1827721209126152,
                -1.2736153957589575,
                0.3316045790720763,
                1.004482243062848
            ]
        },
        {
            "positions": [
                1.410292640753689,
                -1.3053892071025792,
                -0.06698236069885177,
                -1.255286355471021,
                0.4584413438772861,
                1.0419797454586779
            ]
        },
        {
            "positions": [
                1.3297107719593582,
                -1.3092048050404645,
                0.04880739951491164,
                -1.2369573151830844,
                0.5852781086824959,
                1.0794772478545078
            ]
        },
        {
            "positions": [
                1.249128903165027,
                -1.3130204029783499,
                0.16459715972867528,
                -1.2186282748951478,
                0.7121148734877056,
                1.1169747502503378
            ]
        },
        {
            "positions": [
                1.168547034370696,
                -1.3168360009162352,
                0.2803869199424387,
                -1.2002992346072112,
                0.8389516382929154,
                1.1544722526461677
            ]
        },
        {
            "positions": [
                1.0879651655763651,
                -1.3206515988541205,
                0.3961766801562021,
                -1.1819701943192746,
                0.9657884030981252,
                1.1919697550419976
            ]
        },
        {
            "positions": [
                1.007383296782034,
                -1.3244671967920056,
                0.5119664403699655,
                -1.163641154031338,
                1.092625167903335,
                1.2294672574378276
            ]
        },
        {
            "positions": [
                0.926801427987703,
                -1.328282794729891,
                0.6277562005837289,
                -1.1453121137434015,
                1.2194619327085447,
                1.2669647598336575
            ]
        },
        {
            "positions": [
                0.8462195591933721,
                -1.3320983926677763,
                0.7435459607974924,
                -1.126983073455465,
                1.3462986975137545,
                1.3044622622294875
            ]
        },
        {
            "positions": [
                0.7656376903990412,
                -1.3359139906056616,
                0.8593357210112558,
                -1.1086540331675283,
                1.4731354623189643,
                1.3419597646253174
            ]
        },
        {
            "positions": [
                0.6850558216047102,
                -1.339729588543547,
                0.9751254812250192,
                -1.0903249928795917,
                1.599972227124174,
                1.3794572670211473
            ]
        },
        {
            "positions": [
                0.6044739528103791,
                -1.3435451864814323,
                1.0909152414387826,
                -1.0719959525916551,
                1.7268089919293839,
                1.4169547694169773
            ]
        },
        {
            "positions": [
                0.5238920840160484,
                -1.3473607844193176,
                1.206705001652546,
                -1.0536669123037186,
                1.8536457567345936,
                1.4544522718128072
            ]
        },
        {
            "positions": [
                0.4433102152217173,
                -1.351176382357203,
                1.3224947618663094,
                -1.035337872015782,
                1.9804825215398036,
                1.4919497742086372
            ]
        },
        {
            "positions": [
                0.40482553474213867,
                -1.3285603630687897,
                1.3764831504141153,
                -1.0219988026298767,
                1.8565583942993498,
                1.6215953578737938
            ]
        },
        {
            "positions": [
                0.3663408542625601,
                -1.3059443437803764,
                1.4304715389619211,
                -1.0086597332439715,
                1.7326342670588961,
                1.7512409415389503
            ]
        },
        {
            "positions": [
                0.32785617378298143,
                -1.283328324491963,
                1.484459927509727,
                -0.9953206638580662,
                1.6087101398184422,
                1.880886525204107
            ]
        },
        {
            "positions": [
                0.28937149330340284,
                -1.26071230520355,
                1.5384483160575326,
                -0.9819815944721609,
                1.4847860125779886,
                2.0105321088692634
            ]
        },
        {
            "positions": [
                0.2508868128238242,
                -1.2380962859151368,
                1.5924367046053385,
                -0.9686425250862556,
                1.3608618853375347,
                2.14017769253442
            ]
        },
        {
            "positions": [
                0.21240213234424554,
                -1.2154802666267235,
                1.6464250931531443,
                -0.9553034557003504,
                1.2369377580970808,
                2.2698232761995767
            ]
        },
        {
            "positions": [
                0.1992253617783163,
                -1.2039256807514205,
                1.6933064800144593,
                -0.9258179450583637,
                1.0758297026372805,
                2.3874014269429615
            ]
        },
        {
            "positions": [
                0.18604859121238707,
                -1.1923710948761173,
                1.7401878668757744,
                -0.896332434416377,
                0.9147216471774804,
                2.504979577686347
            ]
        },
        {
            "positions": [
                0.1728718206464578,
                -1.180816509000814,
                1.7870692537370894,
                -0.8668469237743903,
                0.75361359171768,
                2.622557728429732
            ]
        },
        {
            "positions": [
                0.1596950500805286,
                -1.169261923125511,
                1.8339506405984043,
                -0.8373614131324038,
                0.5925055362578798,
                2.740135879173117
            ]
        },
        {
            "positions": [
                0.14651827951459934,
                -1.157707337250208,
                1.8808320274597194,
                -0.8078759024904171,
                0.4313974807980795,
                2.857714029916502
            ]
        },
        {
            "positions": [
                0.13334150894867008,
                -1.1461527513749048,
                1.9277134143210344,
                -0.7783903918484304,
                0.27028942533827927,
                2.975292180659887
            ]
        },
        {
            "positions": [
                0.12261766418137826,
                -1.1392000346393085,
                1.97151008409904,
                -0.7752444815868914,
                0.13903400935715912,
                3.092903234777193
            ]
        }
    ]
}