{
    "goal": {
        "global_pose": {
            "orientation": {
                "w": 0.5084816262002911,
                "x": -0.4908360881923452,
                "y": 0.5182115481033761,
                "z": -0.48164630358495003
            },
            "position": {
                "x": 0.5540239810943604,
                "y": -0.46912469901144505,
                "z": 0.16403168439865112
            }
        },
        "name": "move_to_storage_B"
    },
    "id": "KPIECE_move_to_storage_B_60",
    "joint_names": [
        "shoulder_pan_joint",
        "shoulder_lift_joint",
        "elbow_joint",
        "wrist_1_joint",
        "wrist_2_joint",
        "wrist_3_joint"
    ],
    "metrics": {
        "cart_traj_len": 0.690360468698312,
        "distance_elbow_joint": 0.4427740048895701,
        "distance_shoulder_lift_joint": 0.4584041304060176,
        "distance_shoulder_pan_joint": 0.3704805489471471,
        "distance_wrist_1_joint": 3.017166840208074,
        "distance_wrist_2_joint": 2.7180183038607213,
        "distance_wrist_3_joint": 3.2024796131346003,
        "smoothness": 0.25247545768421853,
        "time": 0.192312839,
        "traj_len": 3.1952031925131354,
        "weighted_distance": 4.727522375598462
    },
    "planner": "KPIECE",
    "start": {
        "state": {
            "elbow_joint": 1.664937868594044,
            "shoulder_lift_joint": -0.661644460510453,
            "shoulder_pan_joint": -0.9139846352900073,
            "wrist_1_joint": 2.146753192139373,
            "wrist_2_joint": -2.2341966793290973,
            "wrist_3_joint": 0.005466555786416001
        }
    },
    "waypoints": [
        {
            "positions": [
                -0.9139846352900073,
                -0.661644460510453,
                1.664937868594044,
                2.146753192139373,
                -2.2341966793290973,
                0.005466555786416001
            ]
        },
        {
            "positions": [
                -0.8188870838647433,
                -0.69233880636625,
                1.6187120120805047,
                2.164059059282756,
                -2.099959676277208,
                0.03819256012958939
            ]
        },
        {
            "positions": [
                -0.8299024037656186,
                -0.7094471977482588,
                1.634573938015546,
                2.0440646203601682,
                -1.996608424244855,
                -0.0885975842220677
            ]
        },
        {
            "positions": [
                -0.840917723666494,
                -0.7265555891302676,
                1.6504358639505872,
                1.9240701814375807,
                -1.8932571722125016,
                -0.2153877285737248
            ]
        },
        {
            "positions": [
                -0.8519330435673693,
                -0.7436639805122764,
                1.6662977898856284,
                1.8040757425149931,
                -1.7899059201801482,
                -0.3421778729253819
            ]
        },
        {
            "positions": [
                -0.8629483634682446,
                -0.7607723718942853,
                1.6821597158206698,
                1.6840813035924054,
                -1.686554668147795,
                -0.46896801727703896
            ]
        },
        {
            "positions": [
                -0.8739636833691199,
                -0.7778807632762941,
                1.698021641755711,
                1.5640868646698176,
                -1.5832034161154418,
                -0.5957581616286961
            ]
        },
        {
            "positions": [
                -0.8849790032699952,
                -0.794989154658303,
                1.7138835676907522,
                1.4440924257472303,
                -1.4798521640830884,
                -0.7225483059803531
            ]
        },
        {
            "positions": [
                -0.8959943231708706,
                -0.8120975460403118,
                1.7297454936257934,
                1.3240979868246425,
                -1.376500912050735,
                -0.8493384503320103
            ]
        },
        {
            "positions": [
                -0.9070096430717459,
                -0.8292059374223206,
                1.7456074195608346,
                1.2041035479020548,
                -1.2731496600183818,
                -0.9761285946836673
            ]
        },
        {
            "positions": [
                -0.9180249629726212,
                -0.8463143288043294,
                1.7614693454958759,
                1.0841091089794672,
                -1.1697984079860286,
                -1.1029187390353243
            ]
        },
        {
            "positions": [
                -0.9290402828734965,
                -0.8634227201863383,
                1.777331271430917,
                0.9641146700568795,
                -1.0664471559536752,
                -1.2297088833869816
            ]
        },
        {
            "positions": [
                -0.9400556027743718,
                -0.8805311115683471,
                1.7931931973659583,
                0.8441202311342919,
                -0.963095903921322,
                -1.3564990277386386
            ]
        },
        {
            "positions": [
                -0.9510709226752472,
                -0.8976395029503559,
                1.8090551233009995,
                0.7241257922117044,
                -0.8597446518889686,
                -1.4832891720902956
            ]
        },
        {
            "positions": [
                -0.9620862425761225,
                -0.9147478943323647,
                1.824917049236041,
                0.6041313532891166,
                -0.7563933998566155,
                -1.6100793164419527
            ]
        },
        {
            "positions": [
                -0.9731015624769979,
                -0.9318562857143735,
                1.8407789751710821,
                0.48413691436652884,
                -0.6530421478242621,
                -1.73686946079361
            ]
        },
        {
            "positions": [
                -0.9841168823778732,
                -0.9489646770963823,
                1.8566409011061233,
                0.3641424754439415,
                -0.5496908957919089,
                -1.8636596051452667
            ]
        },
        {
            "positions": [
                -0.9951322022787485,
                -0.9660730684783911,
                1.8725028270411646,
                0.24414803652135375,
                -0.4463396437595555,
                -1.990449749496924
            ]
        },
        {
            "positions": [
                -1.0061475221796239,
                -0.9831814598604001,
                1.8883647529762058,
                0.12415359759876576,
                -0.3429883917272021,
                -2.117239893848581
            ]
        },
        {
            "positions": [
                -1.017162842080499,
                -1.0002898512424088,
                1.904226678911247,
                0.004159158676178443,
                -0.23963713969484912,
                -2.244030038200238
            ]
        },
        {
            "positions": [
                -1.0281781619813746,
                -1.0173982426244177,
                1.9200886048462882,
                -0.11583528024640932,
                -0.13628588766249572,
                -2.370820182551895
            ]
        },
        {
            "positions": [
                -1.0391934818822497,
                -1.0345066340064264,
                1.9359505307813296,
                -0.2358297191689971,
                -0.03293463563014232,
                -2.4976103269035526
            ]
        },
        {
            "positions": [
                -1.050208801783125,
                -1.0516150253884353,
                1.9518124567163708,
                -0.3558241580915844,
                0.07041661640221086,
                -2.624400471255209
            ]
        },
        {
            "positions": [
                -1.0612241216840004,
                -1.0687234167704442,
                1.967674382651412,
                -0.4758185970141722,
                0.17376786843456404,
                -2.7511906156068666
            ]
        },
        {
            "positions": [
                -1.0722394415848757,
                -1.085831808152453,
                1.9835363085864532,
                -0.5958130359367599,
                0.27711912046691767,
                -2.8779807599585236
            ]
        },
        {
            "positions": [
                -1.083254761485751,
                -1.1029401995344617,
                1.9993982345214945,
                -0.7158074748593473,
                0.38047037249927085,
                -3.0047709043101807
            ]
        },
        {
            "positions": [
                -1.0942700813866264,
                -1.1200485909164706,
                2.0152601604565357,
                -0.8358019137819351,
                0.48382162453162425,
                -3.1315610486618377
            ]
        }
    ]
}