{
    "goal": {
        "global_pose": {
            "orientation": {
                "w": 0.7031023480610252,
                "x": -0.7110244013736278,
                "y": 0.0077485991402295624,
                "z": 0.005598929693374583
            },
            "position": {
                "x": -0.8841497679147869,
                "y": 0.44412534475326537,
                "z": 0.3711530566215515
            }
        },
        "name": "move_to_auspresseinheit_D"
    },
    "id": "KPIECE_move_to_auspresseinheit_D_17",
    "joint_names": [
        "shoulder_pan_joint",
        "shoulder_lift_joint",
        "elbow_joint",
        "wrist_1_joint",
        "wrist_2_joint",
        "wrist_3_joint"
    ],
    "metrics": {
        "cart_traj_len": 0.3442127195153987,
        "distance_elbow_joint": 0.6629855294017211,
        "distance_shoulder_lift_joint": 0.13507714201768906,
        "distance_shoulder_pan_joint": 0.13409132026655618,
        "distance_wrist_1_joint": 0.6196704528041814,
        "distance_wrist_2_joint": 1.4358674183864981,
        "distance_wrist_3_joint": 0.0812869891604433,
        "smoothness": 0.0,
        "time": 0.028038187,
        "traj_len": 1.7518501225952776,
        "weighted_distance": 2.299367456834304
    },
    "planner": "KPIECE",
    "start": {
        "state": {
            "elbow_joint": -1.8275523626775212,
            "shoulder_lift_joint": -2.126789852344167,
            "shoulder_pan_joint": -0.03513704404078235,
            "wrist_1_joint": -2.347782403156801,
            "wrist_2_joint": -1.6058999987535132,
            "wrist_3_joint": -3.0880379163319196
        }
    },
    "waypoints": [
        {
            "positions": [
                -0.03513704404078235,
                -2.126789852344167,
                -1.8275523626775212,
                -2.347782403156801,
                -1.6058999987535132,
                -3.0880379163319196
            ]
        },
        {
            "positions": [
                -0.05189845907410187,
                -2.143674495096378,
                -1.744679171502306,
                -2.4252412097573237,
                -1.4264165714552008,
                -3.0778770426868642
            ]
        },
        {
            "positions": [
                -0.06865987410742139,
                -2.160559137848589,
                -1.6618059803270908,
                -2.502700016357846,
                -1.2469331441568887,
                -3.067716169041809
            ]
        },
        {
            "positions": [
                -0.08542128914074092,
                -2.1774437806008002,
                -1.5789327891518758,
                -2.580158822958369,
                -1.0674497168585764,
                -3.0575552953967535
            ]
        },
        {
            "positions": [
                -0.10218270417406045,
                -2.1943284233530114,
                -1.4960595979766607,
                -2.6576176295588914,
                -0.8879662895602641,
                -3.047394421751698
            ]
        },
        {
            "positions": [
                -0.11894411920737996,
                -2.2112130661052225,
                -1.4131864068014455,
                -2.735076436159414,
                -0.7084828622619519,
                -3.0372335481066424
            ]
        },
        {
            "positions": [
                -0.13570553424069948,
                -2.2280977088574336,
                -1.3303132156262305,
                -2.812535242759937,
                -0.5289994349636395,
                -3.027072674461587
            ]
        },
        {
            "positions": [
                -0.15246694927401902,
                -2.2449823516096448,
                -1.2474400244510153,
                -2.8899940493604594,
                -0.3495160076653274,
                -3.0169118008165317
            ]
        },
        {
            "positions": [
                -0.16922836430733854,
                -2.261866994361856,
                -1.1645668332758001,
                -2.9674528559609823,
                -0.17003258036701513,
                -3.0067509271714763
            ]
        }
    ]
}