{
    "goal": {
        "global_pose": {
            "orientation": {
                "w": 0.7031023502349854,
                "x": -0.7110244035720825,
                "y": 0.007748599164187908,
                "z": 0.005598929710686207
            },
            "position": {
                "x": 0.11585023208521307,
                "y": 0.44412534475326537,
                "z": 0.3711530566215515
            }
        },
        "name": "move_to_auspresseinheit_A"
    },
    "id": "KPIECE_move_to_auspresseinheit_A_29",
    "joint_names": [
        "shoulder_pan_joint",
        "shoulder_lift_joint",
        "elbow_joint",
        "wrist_1_joint",
        "wrist_2_joint",
        "wrist_3_joint"
    ],
    "metrics": {
        "cart_traj_len": 0.8059892313905989,
        "distance_elbow_joint": 0.2512501565765426,
        "distance_shoulder_lift_joint": 0.5748703633318213,
        "distance_shoulder_pan_joint": 1.0410979174104362,
        "distance_wrist_1_joint": 0.5721741840867798,
        "distance_wrist_2_joint": 0.5320024084672739,
        "distance_wrist_3_joint": 0.2924181197309368,
        "smoothness": 0.5068905059070054,
        "time": 0.563586715,
        "traj_len": 1.8066026540453741,
        "weighted_distance": 2.225494547649964
    },
    "planner": "KPIECE",
    "start": {
        "state": {
            "elbow_joint": 2.4225746658250005,
            "shoulder_lift_joint": -1.3736534386056498,
            "shoulder_pan_joint": -0.3378633547517467,
            "wrist_1_joint": -1.0288598680537169,
            "wrist_2_joint": 1.233022673432363,
            "wrist_3_joint": -3.0940220416140027
        }
    },
    "waypoints": [
        {
            "positions": [
                -0.3378633547517467,
                -1.3736534386056498,
                2.4225746658250005,
                -1.0288598680537169,
                1.233022673432363,
                -3.0940220416140027
            ]
        },
        {
            "positions": [
                -0.3120719699145533,
                -1.3632910606777773,
                2.3516945047900504,
                -1.0026288708151738,
                1.215118725361195,
                -3.0311832827592706
            ]
        },
        {
            "positions": [
                -0.2862805850773599,
                -1.352928682749905,
                2.2808143437551003,
                -0.9763978735766308,
                1.1972147772900272,
                -2.9683445239045385
            ]
        },
        {
            "positions": [
                -0.16259119161035374,
                -1.4221968836844145,
                2.2945005730684307,
                -0.9114338498754191,
                1.13519046324941,
                -2.9891870991572227
            ]
        },
        {
            "positions": [
                -0.03890179814334757,
                -1.4914650846189241,
                2.308186802381761,
                -0.8464698261742074,
                1.0731661492087927,
                -3.010029674409907
            ]
        },
        {
            "positions": [
                0.0847875953236586,
                -1.5607332855534337,
                2.321873031695091,
                -0.7815058024729956,
                1.0111418351681754,
                -3.0308722496625906
            ]
        },
        {
            "positions": [
                0.20847698879066473,
                -1.6300014864879433,
                2.3355592610084215,
                -0.7165417787717839,
                0.9491175211275582,
                -3.051714824915275
            ]
        },
        {
            "positions": [
                0.3321663822576709,
                -1.6992696874224529,
                2.349245490321752,
                -0.6515777550705723,
                0.887093207086941,
                -3.072557400167959
            ]
        },
        {
            "positions": [
                0.45585577572467706,
                -1.7685378883569622,
                2.362931719635082,
                -0.5866137313693605,
                0.8250688930463237,
                -3.0933999754206427
            ]
        },
        {
            "positions": [
                0.5795451691916832,
                -1.8378060892914718,
                2.3766179489484123,
                -0.5216497076681488,
                0.7630445790057064,
                -3.114242550673327
            ]
        },
        {
            "positions": [
                0.7032345626586893,
                -1.9070742902259814,
                2.3903041782617427,
                -0.45668568396693704,
                0.7010202649650892,
                -3.135085125926011
            ]
        }
    ]
}