{
    "goal": {
        "global_pose": {
            "orientation": {
                "w": -0.4816463035849501,
                "x": 0.5182115481033762,
                "y": 0.4908360881923453,
                "z": -0.5084816262002911
            },
            "position": {
                "x": -0.8240239810943604,
                "y": -0.300875300988555,
                "z": 0.16403168439865112
            }
        },
        "name": "move_to_storage_C"
    },
    "id": "KPIECE_move_to_storage_C_63",
    "joint_names": [
        "shoulder_pan_joint",
        "shoulder_lift_joint",
        "elbow_joint",
        "wrist_1_joint",
        "wrist_2_joint",
        "wrist_3_joint"
    ],
    "metrics": {
        "cart_traj_len": 0.5762232527083575,
        "distance_elbow_joint": 0.25692315581508973,
        "distance_shoulder_lift_joint": 0.1894640898034471,
        "distance_shoulder_pan_joint": 0.49348034228677395,
        "distance_wrist_1_joint": 0.06962241298067018,
        "distance_wrist_2_joint": 1.0703985407046326,
        "distance_wrist_3_joint": 0.05662651584115874,
        "smoothness": 2.5376526478085547e-16,
        "time": 0.011750421,
        "traj_len": 1.4616822696577296,
        "weighted_distance": 1.8411379749490238
    },
    "planner": "KPIECE",
    "start": {
        "state": {
            "elbow_joint": 2.010868314990456,
            "shoulder_lift_joint": -1.1634956873337592,
            "shoulder_pan_joint": -2.4736205022346125,
            "wrist_1_joint": -0.8367026794202681,
            "wrist_2_joint": 0.6746043897044499,
            "wrist_3_joint": -3.1496632123970403
        }
    },
    "waypoints": [
        {
            "positions": [
                -2.4736205022346125,
                -1.1634956873337592,
                2.010868314990456,
                -0.8367026794202681,
                0.6746043897044499,
                -3.1496632123970403
            ]
        },
        {
            "positions": [
                -2.5558672259490747,
                -1.1319183390331846,
                1.9680477890212742,
                -0.8250989439234897,
                0.8530041464885554,
                -3.1402254597568473
            ]
        },
        {
            "positions": [
                -2.6381139496635373,
                -1.1003409907326103,
                1.9252272630520926,
                -0.8134952084267114,
                1.0314039032726607,
                -3.130787707116654
            ]
        },
        {
            "positions": [
                -2.7203606733779995,
                -1.0687636424320357,
                1.882406737082911,
                -0.801891472929933,
                1.209803660056766,
                -3.121349954476461
            ]
        },
        {
            "positions": [
                -2.8026073970924616,
                -1.0371862941314611,
                1.8395862111137293,
                -0.7902877374331546,
                1.3882034168408715,
                -3.111912201836268
            ]
        },
        {
            "positions": [
                -2.8848541208069243,
                -1.0056089458308866,
                1.7967656851445477,
                -0.7786840019363763,
                1.5666031736249773,
                -3.1024744491960745
            ]
        },
        {
            "positions": [
                -2.9671008445213864,
                -0.9740315975303121,
                1.753945159175366,
                -0.7670802664395979,
                1.7450029304090824,
                -3.0930366965558815
            ]
        }
    ]
}