{
    "goal": {
        "global_pose": {
            "orientation": {
                "w": 0.005598929693374612,
                "x": 0.007748599140229565,
                "y": 0.7110244013736278,
                "z": -0.7031023480610252
            },
            "position": {
                "x": 0.1141497679147869,
                "y": -0.7141253447532654,
                "z": 0.3711530566215515
            }
        },
        "name": "move_to_auspresseinheit_B"
    },
    "id": "KPIECE_move_to_auspresseinheit_B_6",
    "joint_names": [
        "shoulder_pan_joint",
        "shoulder_lift_joint",
        "elbow_joint",
        "wrist_1_joint",
        "wrist_2_joint",
        "wrist_3_joint"
    ],
    "metrics": {
        "cart_traj_len": 0.5648293727478005,
        "distance_elbow_joint": 0.06109189846623497,
        "distance_shoulder_lift_joint": 0.2961072234559976,
        "distance_shoulder_pan_joint": 0.5775876815312535,
        "distance_wrist_1_joint": 0.3205346669233391,
        "distance_wrist_2_joint": 0.9900013557852745,
        "distance_wrist_3_joint": 0.002822386789567588,
        "smoothness": 0.0,
        "time": 0.011890497,
        "traj_len": 1.4993816101819002,
        "weighted_distance": 1.8879422685133718
    },
    "planner": "KPIECE",
    "start": {
        "state": {
            "elbow_joint": 2.0193083361928714,
            "shoulder_lift_joint": -1.1220246554650708,
            "shoulder_pan_joint": -1.0952077554168747,
            "wrist_1_joint": -0.8559753972642168,
            "wrist_2_joint": 0.4759566250798843,
            "wrist_3_joint": -3.1240929996934557
        }
    },
    "waypoints": [
        {
            "positions": [
                -1.0952077554168747,
                -1.1220246554650708,
                2.0193083361928714,
                -0.8559753972642168,
                0.4759566250798843,
                -3.1240929996934557
            ]
        },
        {
            "positions": [
                -1.191472369005417,
                -1.1713758593744037,
                2.0091263531151657,
                -0.8025529527769936,
                0.6409568510440967,
                -3.1236226018951943
            ]
        },
        {
            "positions": [
                -1.287736982593959,
                -1.2207270632837366,
                1.9989443700374598,
                -0.7491305082897705,
                0.8059570770083091,
                -3.1231522040969333
            ]
        },
        {
            "positions": [
                -1.3840015961825014,
                -1.2700782671930697,
                1.988762386959754,
                -0.6957080638025472,
                0.9709573029725216,
                -3.122681806298672
            ]
        },
        {
            "positions": [
                -1.4802662097710435,
                -1.3194294711024026,
                1.978580403882048,
                -0.6422856193153241,
                1.1359575289367339,
                -3.1222114085004105
            ]
        },
        {
            "positions": [
                -1.5765308233595858,
                -1.3687806750117355,
                1.9683984208043424,
                -0.5888631748281008,
                1.3009577549009463,
                -3.1217410107021495
            ]
        },
        {
            "positions": [
                -1.6727954369481282,
                -1.4181318789210684,
                1.9582164377266364,
                -0.5354407303408777,
                1.4659579808651588,
                -3.121270612903888
            ]
        }
    ]
}