{
    "goal": {
        "global_pose": {
            "orientation": {
                "w": 0.7031023502349854,
                "x": -0.7110244035720825,
                "y": 0.007748599164187908,
                "z": 0.005598929710686207
            },
            "position": {
                "x": 0.11585023208521307,
                "y": 0.44412534475326537,
                "z": 0.3711530566215515
            }
        },
        "name": "move_to_auspresseinheit_A"
    },
    "id": "KPIECE_move_to_auspresseinheit_A_132",
    "joint_names": [
        "shoulder_pan_joint",
        "shoulder_lift_joint",
        "elbow_joint",
        "wrist_1_joint",
        "wrist_2_joint",
        "wrist_3_joint"
    ],
    "metrics": {
        "cart_traj_len": 1.9244007232230198,
        "distance_elbow_joint": 2.2365760603443148,
        "distance_shoulder_lift_joint": 0.581706606691645,
        "distance_shoulder_pan_joint": 1.3168354064208754,
        "distance_wrist_1_joint": 3.1211699270554414,
        "distance_wrist_2_joint": 0.8204258871787539,
        "distance_wrist_3_joint": 3.8064018556310546,
        "smoothness": 0.32317751507164966,
        "time": 0.162163419,
        "traj_len": 3.447189542703169,
        "weighted_distance": 4.841230759715796
    },
    "planner": "KPIECE",
    "start": {
        "state": {
            "elbow_joint": 2.4225746658250005,
            "shoulder_lift_joint": -1.3736534386056498,
            "shoulder_pan_joint": -0.3378633547517467,
            "wrist_1_joint": -1.0288598680537169,
            "wrist_2_joint": 1.233022673432363,
            "wrist_3_joint": -3.0940220416140027
        }
    },
    "waypoints": [
        {
            "positions": [
                -0.3378633547517467,
                -1.3736534386056498,
                2.4225746658250005,
                -1.0288598680537169,
                1.233022673432363,
                -3.0940220416140027
            ]
        },
        {
            "positions": [
                -0.3180992040461213,
                -1.3945766356648417,
                2.2974193557747262,
                -0.9293867936313306,
                1.1823795099888827,
                -3.0235464324283727
            ]
        },
        {
            "positions": [
                -0.2983350533404958,
                -1.4154998327240336,
                2.172264045724452,
                -0.8299137192089443,
                1.1317363465454027,
                -2.9530708232427423
            ]
        },
        {
            "positions": [
                -0.2785709026348704,
                -1.4364230297832252,
                2.0471087356741777,
                -0.7304406447865579,
                1.0810931831019224,
                -2.8825952140571123
            ]
        },
        {
            "positions": [
                -0.25880675192924496,
                -1.457346226842417,
                1.9219534256239035,
                -0.6309675703641716,
                1.0304500196584423,
                -2.8121196048714823
            ]
        },
        {
            "positions": [
                -0.23904260122361948,
                -1.478269423901609,
                1.796798115573629,
                -0.5314944959417852,
                0.979806856214962,
                -2.741643995685852
            ]
        },
        {
            "positions": [
                -0.21927845051799405,
                -1.4991926209608009,
                1.6716428055233548,
                -0.432021421519399,
                0.9291636927714818,
                -2.671168386500222
            ]
        },
        {
            "positions": [
                -0.18227340691287694,
                -1.5039375858088722,
                1.5986750535370118,
                -0.35552691352631216,
                0.8873933845909311,
                -2.5853545073050825
            ]
        },
        {
            "positions": [
                -0.14526836330775983,
                -1.5086825506569437,
                1.525707301550669,
                -0.2790324055332253,
                0.8456230764103804,
                -2.4995406281099433
            ]
        },
        {
            "positions": [
                -0.0686746014505811,
                -1.5313705233154766,
                1.5020629869263953,
                -0.16997350642431303,
                0.8166849319198549,
                -2.370328085070796
            ]
        },
        {
            "positions": [
                0.007919160406597625,
                -1.5540584959740098,
                1.4784186723021215,
                -0.06091460731540074,
                0.7877467874293296,
                -2.2411155420316486
            ]
        },
        {
            "positions": [
                0.08451292226377632,
                -1.5767464686325428,
                1.4547743576778478,
                0.048144291793511484,
                0.7588086429388041,
                -2.111902998992502
            ]
        },
        {
            "positions": [
                0.16110668412095508,
                -1.599434441291076,
                1.431130043053574,
                0.1572031909024238,
                0.7298704984482787,
                -1.9826904559533545
            ]
        },
        {
            "positions": [
                0.23770044597813378,
                -1.6221224139496089,
                1.4074857284293003,
                0.26626209001133605,
                0.7009323539577533,
                -1.8534779129142072
            ]
        },
        {
            "positions": [
                0.3142942078353125,
                -1.6448103866081418,
                1.3838414138050266,
                0.37532098912024825,
                0.671994209467228,
                -1.72426536987506
            ]
        },
        {
            "positions": [
                0.3908879696924912,
                -1.667498359266675,
                1.3601970991807528,
                0.48437988822916056,
                0.6430560649767025,
                -1.595052826835913
            ]
        },
        {
            "positions": [
                0.46748173154967,
                -1.690186331925208,
                1.336552784556479,
                0.5934387873380729,
                0.6141179204861771,
                -1.4658402837967657
            ]
        },
        {
            "positions": [
                0.5440754934068487,
                -1.7128743045837411,
                1.3129084699322053,
                0.7024976864469852,
                0.5851797759956516,
                -1.3366277407576184
            ]
        },
        {
            "positions": [
                0.6206692552640274,
                -1.735562277242274,
                1.2892641553079316,
                0.8115565855558973,
                0.5562416315051263,
                -1.2074151977184713
            ]
        },
        {
            "positions": [
                0.6984925942750273,
                -1.7798948561604324,
                1.4097696866947507,
                0.791032342262868,
                0.5695072326553607,
                -1.268067497962057
            ]
        },
        {
            "positions": [
                0.7763159332860272,
                -1.824227435078591,
                1.5302752180815697,
                0.7705080989698387,
                0.5827728338055953,
                -1.3287197982056427
            ]
        },
        {
            "positions": [
                0.7959074367628657,
                -1.841075067013154,
                1.6017686011954468,
                0.7131859437517201,
                0.5938486407141402,
                -1.4220974941276463
            ]
        },
        {
            "positions": [
                0.8154989402397043,
                -1.857922698947717,
                1.6732619843093237,
                0.6558637885336014,
                0.6049244476226853,
                -1.5154751900496497
            ]
        },
        {
            "positions": [
                0.8350904437165427,
                -1.87477033088228,
                1.7447553674232008,
                0.5985416333154827,
                0.6160002545312302,
                -1.6088528859716533
            ]
        },
        {
            "positions": [
                0.8365769384357477,
                -1.8851215308879974,
                1.8161822301666342,
                0.5103035554498372,
                0.6290367689611501,
                -1.7414249875375811
            ]
        },
        {
            "positions": [
                0.8380634331549526,
                -1.8954727308937145,
                1.8876090929100673,
                0.42206547758419155,
                0.6420732833910701,
                -1.873997089103509
            ]
        },
        {
            "positions": [
                0.8395499278741576,
                -1.9058239308994318,
                1.9590359556535006,
                0.333827399718546,
                0.6551097978209899,
                -2.0065691906694365
            ]
        },
        {
            "positions": [
                0.8410364225933625,
                -1.916175130905149,
                2.0304628183969338,
                0.2455893218529004,
                0.6681463122509098,
                -2.1391412922353643
            ]
        },
        {
            "positions": [
                0.8425229173125675,
                -1.9265263309108662,
                2.101889681140367,
                0.15735124398725484,
                0.6811828266808297,
                -2.271713393801292
            ]
        },
        {
            "positions": [
                0.8294425607057996,
                -1.9311015649501144,
                2.1750622208295987,
                0.03982945907745856,
                0.6924595403640359,
                -2.4402454819782564
            ]
        },
        {
            "positions": [
                0.8191054660268609,
                -1.9304473426941504,
                2.2025779134202885,
                -0.014632093508372843,
                0.6952827010131142,
                -2.515711694025572
            ]
        },
        {
            "positions": [
                0.7944317104769022,
                -1.9255956466247144,
                2.246071410281404,
                -0.11643736290185065,
                0.6967680882916357,
                -2.65310463952072
            ]
        },
        {
            "positions": [
                0.7697579549269435,
                -1.9207439505552784,
                2.2895649071425197,
                -0.21824263229532848,
                0.6982534755701573,
                -2.790497585015867
            ]
        },
        {
            "positions": [
                0.7379158689414751,
                -1.9137935175791063,
                2.3410473061388486,
                -0.3437197600926295,
                0.6990699761634003,
                -2.9588538972349303
            ]
        },
        {
            "positions": [
                0.7060737829560065,
                -1.906843084602934,
                2.3925297051351775,
                -0.4691968878899305,
                0.6998864767566434,
                -3.127210209453994
            ]
        }
    ]
}