{
    "goal": {
        "global_pose": {
            "orientation": {
                "w": -0.4816463035849501,
                "x": 0.5182115481033762,
                "y": 0.4908360881923453,
                "z": -0.5084816262002911
            },
            "position": {
                "x": -0.8240239810943604,
                "y": -0.300875300988555,
                "z": 0.16403168439865112
            }
        },
        "name": "move_to_storage_C"
    },
    "id": "KPIECE_move_to_storage_C_33",
    "joint_names": [
        "shoulder_pan_joint",
        "shoulder_lift_joint",
        "elbow_joint",
        "wrist_1_joint",
        "wrist_2_joint",
        "wrist_3_joint"
    ],
    "metrics": {
        "cart_traj_len": 0.576984270292297,
        "distance_elbow_joint": 0.2597218544647144,
        "distance_shoulder_lift_joint": 0.18893893798559924,
        "distance_shoulder_pan_joint": 0.49625901169975073,
        "distance_wrist_1_joint": 0.08733040470149511,
        "distance_wrist_2_joint": 1.0596333216383633,
        "distance_wrist_3_joint": 0.06806178623353532,
        "smoothness": 2.5376526478085547e-16,
        "time": 0.012888743000000001,
        "traj_len": 1.4696752419236905,
        "weighted_distance": 1.8555410573550744
    },
    "planner": "KPIECE",
    "start": {
        "state": {
            "elbow_joint": 2.010868314990456,
            "shoulder_lift_joint": -1.1634956873337592,
            "shoulder_pan_joint": -2.4736205022346125,
            "wrist_1_joint": -0.8367026794202681,
            "wrist_2_joint": 0.6746043897044499,
            "wrist_3_joint": -3.1496632123970403
        }
    },
    "waypoints": [
        {
            "positions": [
                -2.4736205022346125,
                -1.1634956873337592,
                2.010868314990456,
                -0.8367026794202681,
                0.6746043897044499,
                -3.1496632123970403
            ]
        },
        {
            "positions": [
                -2.5563303375179043,
                -1.1320058643361592,
                1.9675813392463368,
                -0.822147611970019,
                0.8512099433108438,
                -3.1383195813581177
            ]
        },
        {
            "positions": [
                -2.639040172801196,
                -1.1005160413385595,
                1.9242943635022176,
                -0.8075925445197697,
                1.0278154969172377,
                -3.126975950319195
            ]
        },
        {
            "positions": [
                -2.721750008084488,
                -1.0690262183409596,
                1.8810073877580986,
                -0.7930374770695205,
                1.2044210505236315,
                -3.1156323192802726
            ]
        },
        {
            "positions": [
                -2.8044598433677796,
                -1.0375363953433596,
                1.8377204120139796,
                -0.7784824096192714,
                1.3810266041300254,
                -3.10428868824135
            ]
        },
        {
            "positions": [
                -2.8871696786510714,
                -1.00604657234576,
                1.7944334362698604,
                -0.7639273421690221,
                1.5576321577364194,
                -3.0929450572024275
            ]
        },
        {
            "positions": [
                -2.9698795139343632,
                -0.97455674934816,
                1.7511464605257414,
                -0.749372274718773,
                1.7342377113428133,
                -3.081601426163505
            ]
        }
    ]
}