{
    "goal": {
        "global_pose": {
            "orientation": {
                "w": 0.005598929693374612,
                "x": 0.007748599140229565,
                "y": 0.7110244013736278,
                "z": -0.7031023480610252
            },
            "position": {
                "x": 0.1141497679147869,
                "y": -0.7141253447532654,
                "z": 0.3711530566215515
            }
        },
        "name": "move_to_auspresseinheit_B"
    },
    "id": "KPIECE_move_to_auspresseinheit_B_2",
    "joint_names": [
        "shoulder_pan_joint",
        "shoulder_lift_joint",
        "elbow_joint",
        "wrist_1_joint",
        "wrist_2_joint",
        "wrist_3_joint"
    ],
    "metrics": {
        "cart_traj_len": 0.5640710476675206,
        "distance_elbow_joint": 0.06453966571757319,
        "distance_shoulder_lift_joint": 0.29330526547500635,
        "distance_shoulder_pan_joint": 0.5747221229732966,
        "distance_wrist_1_joint": 0.33541631573037134,
        "distance_wrist_2_joint": 1.0043938175009273,
        "distance_wrist_3_joint": 0.0003080981550227513,
        "smoothness": 0.0,
        "time": 0.012648741,
        "traj_len": 1.507542797253928,
        "weighted_distance": 1.9008186697035419
    },
    "planner": "KPIECE",
    "start": {
        "state": {
            "elbow_joint": 2.0193083361928714,
            "shoulder_lift_joint": -1.1220246554650708,
            "shoulder_pan_joint": -1.0952077554168747,
            "wrist_1_joint": -0.8559753972642168,
            "wrist_2_joint": 0.4759566250798843,
            "wrist_3_joint": -3.1240929996934557
        }
    },
    "waypoints": [
        {
            "positions": [
                -1.0952077554168747,
                -1.1220246554650708,
                2.0193083361928714,
                -0.8559753972642168,
                0.4759566250798843,
                -3.1240929996934557
            ]
        },
        {
            "positions": [
                -1.190994775912424,
                -1.1709088663775717,
                2.0085517252399425,
                -0.8000726779758216,
                0.6433555946633722,
                -3.124041650000952
            ]
        },
        {
            "positions": [
                -1.2867817964079735,
                -1.219793077290073,
                1.9977951142870136,
                -0.7441699586874263,
                0.8107545642468601,
                -3.123990300308448
            ]
        },
        {
            "positions": [
                -1.382568816903523,
                -1.268677288202574,
                1.9870385033340847,
                -0.6882672393990311,
                0.978153533830348,
                -3.123938950615944
            ]
        },
        {
            "positions": [
                -1.4783558373990724,
                -1.317561499115075,
                1.976281892381156,
                -0.6323645201106359,
                1.1455525034138359,
                -3.1238876009234406
            ]
        },
        {
            "positions": [
                -1.5741428578946217,
                -1.366445710027576,
                1.9655252814282271,
                -0.5764618008222406,
                1.3129514729973237,
                -3.1238362512309368
            ]
        },
        {
            "positions": [
                -1.6699298783901713,
                -1.4153299209400771,
                1.9547686704752982,
                -0.5205590815338454,
                1.4803504425808116,
                -3.123784901538433
            ]
        }
    ]
}