{
    "goal": {
        "global_pose": {
            "orientation": {
                "w": -0.00223480608172531,
                "x": 0.0024358444001904467,
                "y": 0.7094548369677653,
                "z": -0.704743149386269
            },
            "position": {
                "x": -0.37947507619857795,
                "y": -0.6371506643295288,
                "z": 0.19426114857196808
            }
        },
        "name": "move_to_magneteinheit_C"
    },
    "id": "KPIECE_move_to_magneteinheit_C_89",
    "joint_names": [
        "shoulder_pan_joint",
        "shoulder_lift_joint",
        "elbow_joint",
        "wrist_1_joint",
        "wrist_2_joint",
        "wrist_3_joint"
    ],
    "metrics": {
        "cart_traj_len": 1.7927143939138874,
        "distance_elbow_joint": 1.6445788573390745,
        "distance_shoulder_lift_joint": 1.1674008356631904,
        "distance_shoulder_pan_joint": 0.9712438643070562,
        "distance_wrist_1_joint": 0.8859951720089752,
        "distance_wrist_2_joint": 1.9866969744574665,
        "distance_wrist_3_joint": 1.7408090667018015,
        "smoothness": 0.9281420746917017,
        "time": 1.3166490180000001,
        "traj_len": 2.897710263376511,
        "weighted_distance": 3.8407076236479663
    },
    "planner": "KPIECE",
    "start": {
        "state": {
            "elbow_joint": 1.9565354010623817,
            "shoulder_lift_joint": -1.4165861575791021,
            "shoulder_pan_joint": -1.6717766225146293,
            "wrist_1_joint": -0.5286633292919765,
            "wrist_2_joint": 1.472756589071564,
            "wrist_3_joint": -3.1238370188695823
        }
    },
    "waypoints": [
        {
            "positions": [
                -1.6717766225146293,
                -1.4165861575791021,
                1.9565354010623817,
                -0.5286633292919765,
                1.472756589071564,
                -3.1238370188695823
            ]
        },
        {
            "positions": [
                -1.6732324840441248,
                -1.468804750188787,
                1.9789399150355709,
                -0.4584579126592582,
                1.324273033070761,
                -3.1288055555304473
            ]
        },
        {
            "positions": [
                -1.6746883455736206,
                -1.5210233427984723,
                2.00134442900876,
                -0.38825249602654,
                1.1757894770699584,
                -3.1337740921913126
            ]
        },
        {
            "positions": [
                -1.6857040276214368,
                -1.555379817458733,
                1.9353969216944233,
                -0.35152346679376634,
                1.0928599609648093,
                -3.0947352916709354
            ]
        },
        {
            "positions": [
                -1.696719709669253,
                -1.5897362921189935,
                1.8694494143800864,
                -0.3147944375609927,
                1.00993044485966,
                -3.0556964911505577
            ]
        },
        {
            "positions": [
                -1.7458296948376744,
                -1.6252440374781971,
                1.7926124960349916,
                -0.30533055318258867,
                0.8934971740637584,
                -2.957985722116912
            ]
        },
        {
            "positions": [
                -1.7949396800060957,
                -1.6607517828374008,
                1.7157755776898969,
                -0.29586666880418466,
                0.7770639032678568,
                -2.860274953083266
            ]
        },
        {
            "positions": [
                -1.844049665174517,
                -1.6962595281966044,
                1.638938659344802,
                -0.2864027844257807,
                0.6606306324719553,
                -2.7625641840496202
            ]
        },
        {
            "positions": [
                -1.8931596503429384,
                -1.7317672735558083,
                1.5621017409997076,
                -0.2769389000473767,
                0.5441973616760537,
                -2.6648534150159744
            ]
        },
        {
            "positions": [
                -1.9422696355113598,
                -1.767275018915012,
                1.4852648226546128,
                -0.2674750156689727,
                0.4277640908801521,
                -2.567142645982329
            ]
        },
        {
            "positions": [
                -1.9913796206797811,
                -1.8027827642742156,
                1.408427904309518,
                -0.2580111312905687,
                0.3113308200842506,
                -2.469431876948683
            ]
        },
        {
            "positions": [
                -2.0404896058482027,
                -1.8382905096334192,
                1.3315909859644233,
                -0.24854724691216468,
                0.19489754928834901,
                -2.3717211079150373
            ]
        },
        {
            "positions": [
                -2.089599591016624,
                -1.8737982549926229,
                1.2547540676193285,
                -0.2390833625337607,
                0.07846427849244741,
                -2.2740103388813915
            ]
        },
        {
            "positions": [
                -2.15511130217165,
                -1.8274655392974946,
                1.3621439816225822,
                -0.31131422974057177,
                0.13120319725674034,
                -2.289396203188566
            ]
        },
        {
            "positions": [
                -2.2206230133266764,
                -1.7811328236023665,
                1.4695338956258357,
                -0.3835450969473829,
                0.18394211602103325,
                -2.3047820674957404
            ]
        },
        {
            "positions": [
                -2.2861347244817027,
                -1.7348001079072382,
                1.5769238096290894,
                -0.45577596415419397,
                0.23668103478532618,
                -2.320167931802915
            ]
        },
        {
            "positions": [
                -2.351646435636729,
                -1.6884673922121098,
                1.6843137236323429,
                -0.5280068313610051,
                0.2894199535496191,
                -2.33555379611009
            ]
        },
        {
            "positions": [
                -2.417158146791756,
                -1.6421346765169815,
                1.7917036376355966,
                -0.6002376985678163,
                0.342158872313912,
                -2.3509396604172643
            ]
        },
        {
            "positions": [
                -2.482669857946782,
                -1.5958019608218534,
                1.8990935516388503,
                -0.6724685657746273,
                0.39489779107820494,
                -2.366325524724439
            ]
        },
        {
            "positions": [
                -2.5481815691018084,
                -1.5494692451267251,
                2.006483465642104,
                -0.7446994329814385,
                0.44763670984249787,
                -2.3817113890316133
            ]
        },
        {
            "positions": [
                -2.5581988995842067,
                -1.4681775377717587,
                2.059497550055425,
                -0.7484806353987216,
                0.5040443601653621,
                -2.5376871299036536
            ]
        },
        {
            "positions": [
                -2.5369935027748367,
                -1.3920355325145573,
                2.047388553663633,
                -0.7702351184951712,
                0.5457505057167212,
                -2.689544992165626
            ]
        },
        {
            "positions": [
                -2.515788105965467,
                -1.315893527257356,
                2.035279557271841,
                -0.7919896015916208,
                0.5874566512680803,
                -2.8414028544275975
            ]
        },
        {
            "positions": [
                -2.4945827091560977,
                -1.2397515220001547,
                2.0231705608800494,
                -0.8137440846880705,
                0.6291627968194394,
                -2.9932607166895693
            ]
        },
        {
            "positions": [
                -2.4733773123467278,
                -1.1636095167429532,
                2.0110615644882572,
                -0.8354985677845201,
                0.6708689423707985,
                -3.1451185789515415
            ]
        }
    ]
}