{
    "goal": {
        "global_pose": {
            "orientation": {
                "w": 0.5084816262002911,
                "x": -0.4908360881923452,
                "y": 0.5182115481033761,
                "z": -0.48164630358495003
            },
            "position": {
                "x": 0.5540239810943604,
                "y": -0.46912469901144505,
                "z": 0.16403168439865112
            }
        },
        "name": "move_to_storage_B"
    },
    "id": "KPIECE_move_to_storage_B_139",
    "joint_names": [
        "shoulder_pan_joint",
        "shoulder_lift_joint",
        "elbow_joint",
        "wrist_1_joint",
        "wrist_2_joint",
        "wrist_3_joint"
    ],
    "metrics": {
        "cart_traj_len": 3.8589051373836996,
        "distance_elbow_joint": 2.7590165594097806,
        "distance_shoulder_lift_joint": 1.2534601879866865,
        "distance_shoulder_pan_joint": 3.245230359786518,
        "distance_wrist_1_joint": 2.977421731931609,
        "distance_wrist_2_joint": 2.7053027800901415,
        "distance_wrist_3_joint": 3.4231902477124105,
        "smoothness": 0.308229427938797,
        "time": 0.132999483,
        "traj_len": 4.045197382936604,
        "weighted_distance": 5.37519551964054
    },
    "planner": "KPIECE",
    "start": {
        "state": {
            "elbow_joint": 1.664937868594044,
            "shoulder_lift_joint": -0.661644460510453,
            "shoulder_pan_joint": -0.9139846352900073,
            "wrist_1_joint": 2.146753192139373,
            "wrist_2_joint": -2.2341966793290973,
            "wrist_3_joint": 0.005466555786416001
        }
    },
    "waypoints": [
        {
            "positions": [
                -0.9139846352900073,
                -0.661644460510453,
                1.664937868594044,
                2.146753192139373,
                -2.2341966793290973,
                0.005466555786416001
            ]
        },
        {
            "positions": [
                -0.8182679798625898,
                -0.7151127494435284,
                1.589592726886592,
                2.100419140834688,
                -2.1339279558993045,
                0.014227296775334273
            ]
        },
        {
            "positions": [
                -0.7225513244351722,
                -0.7685810383766039,
                1.51424758517914,
                2.0540850895300027,
                -2.0336592324695117,
                0.022988037764252543
            ]
        },
        {
            "positions": [
                -0.6268346690077546,
                -0.8220493273096794,
                1.438902443471688,
                2.0077510382253174,
                -1.933390509039719,
                0.031748778753170816
            ]
        },
        {
            "positions": [
                -0.5311180135803372,
                -0.8755176162427548,
                1.3635573017642362,
                1.961416986920632,
                -1.8331217856099262,
                0.040509519742089085
            ]
        },
        {
            "positions": [
                -0.43540135815291964,
                -0.9289859051758302,
                1.2882121600567842,
                1.9150829356159467,
                -1.7328530621801335,
                0.049270260731007355
            ]
        },
        {
            "positions": [
                -0.3396847027255021,
                -0.9824541941089058,
                1.2128670183493322,
                1.8687488843112612,
                -1.632584338750341,
                0.05803100171992563
            ]
        },
        {
            "positions": [
                -0.24396804729808463,
                -1.0359224830419813,
                1.1375218766418804,
                1.822414833006576,
                -1.5323156153205482,
                0.0667917427088439
            ]
        },
        {
            "positions": [
                -0.14825139187066705,
                -1.0893907719750566,
                1.0621767349344284,
                1.7760807817018907,
                -1.4320468918907554,
                0.07555248369776217
            ]
        },
        {
            "positions": [
                -0.05253473644324946,
                -1.142859060908132,
                0.9868315932269763,
                1.7297467303972054,
                -1.3317781684609626,
                0.08431322468668044
            ]
        },
        {
            "positions": [
                0.04318191898416801,
                -1.1963273498412075,
                0.9114864515195245,
                1.6834126790925201,
                -1.2315094450311699,
                0.09307396567559871
            ]
        },
        {
            "positions": [
                0.13889857441158548,
                -1.249795638774283,
                0.8361413098120725,
                1.6370786277878346,
                -1.1312407216013771,
                0.10183470666451698
            ]
        },
        {
            "positions": [
                0.23461522983900307,
                -1.3032639277073583,
                0.7607961681046205,
                1.5907445764831494,
                -1.0309719981715846,
                0.11059544765343526
            ]
        },
        {
            "positions": [
                0.33033188526642066,
                -1.3567322166404339,
                0.6854510263971686,
                1.5444105251784641,
                -0.9307032747417918,
                0.11935618864235353
            ]
        },
        {
            "positions": [
                0.426048540693838,
                -1.4102005055735094,
                0.6101058846897167,
                1.4980764738737786,
                -0.8304345513119991,
                0.1281169296312718
            ]
        },
        {
            "positions": [
                0.5217651961212556,
                -1.4636687945065847,
                0.5347607429822647,
                1.4517424225690934,
                -0.7301658278822063,
                0.13687767062019007
            ]
        },
        {
            "positions": [
                0.6174818515486732,
                -1.5171370834396603,
                0.45941560127481273,
                1.405408371264408,
                -0.6298971044524135,
                0.14563841160910834
            ]
        },
        {
            "positions": [
                0.5515678564352949,
                -1.5018306386297573,
                0.5191653817398338,
                1.319405413146845,
                -0.5875508273288189,
                0.019368473459503766
            ]
        },
        {
            "positions": [
                0.48565386132191657,
                -1.4865241938198541,
                0.5789151622048551,
                1.2334024550292817,
                -0.5452045502052243,
                -0.10690146469010081
            ]
        },
        {
            "positions": [
                0.4197398662085383,
                -1.4712177490099512,
                0.6386649426698762,
                1.1473994969117185,
                -0.5028582730816298,
                -0.2331714028397054
            ]
        },
        {
            "positions": [
                0.35382587109516,
                -1.455911304200048,
                0.6984147231348974,
                1.061396538794155,
                -0.46051199595803516,
                -0.35944134098930997
            ]
        },
        {
            "positions": [
                0.28791187598178175,
                -1.440604859390145,
                0.7581645035999185,
                0.9753935806765919,
                -0.41816571883444054,
                -0.4857112791389145
            ]
        },
        {
            "positions": [
                0.22199788086840344,
                -1.4252984145802419,
                0.8179142840649396,
                0.8893906225590287,
                -0.37581944171084597,
                -0.6119812172885191
            ]
        },
        {
            "positions": [
                0.1560838857550252,
                -1.409991969770339,
                0.8776640645299607,
                0.8033876644414655,
                -0.33347316458725135,
                -0.7382511554381235
            ]
        },
        {
            "positions": [
                0.09016989064164682,
                -1.394685524960436,
                0.937413844994982,
                0.7173847063239022,
                -0.2911268874636567,
                -0.8645210935877283
            ]
        },
        {
            "positions": [
                0.024255895528268567,
                -1.3793790801505328,
                0.997163625460003,
                0.631381748206339,
                -0.24878061034006216,
                -0.9907910317373327
            ]
        },
        {
            "positions": [
                -0.04165809958510969,
                -1.3640726353406298,
                1.0569134059250243,
                0.5453787900887757,
                -0.20643433321646754,
                -1.1170609698869374
            ]
        },
        {
            "positions": [
                -0.10757209469848794,
                -1.3487661905307267,
                1.1166631863900454,
                0.45937583197121257,
                -0.16408805609287297,
                -1.243330908036542
            ]
        },
        {
            "positions": [
                -0.1734860898118663,
                -1.3334597457208237,
                1.1764129668550667,
                0.37337287385364926,
                -0.1217417789692784,
                -1.3696008461861466
            ]
        },
        {
            "positions": [
                -0.23940008492524456,
                -1.3181533009109208,
                1.2361627473200878,
                0.28736991573608606,
                -0.07939550184568378,
                -1.495870784335751
            ]
        },
        {
            "positions": [
                -0.3053140800386228,
                -1.3028468561010176,
                1.295912527785109,
                0.20136695761852286,
                -0.03704922472208916,
                -1.6221407224853555
            ]
        },
        {
            "positions": [
                -0.37122807515200107,
                -1.2875404112911146,
                1.35566230825013,
                0.11536399950095966,
                0.005297052401505353,
                -1.74841066063496
            ]
        },
        {
            "positions": [
                -0.43714207026537955,
                -1.2722339664812115,
                1.4154120887151511,
                0.029361041383396236,
                0.04764332952510009,
                -1.874680598784565
            ]
        },
        {
            "positions": [
                -0.5030560653787578,
                -1.2569275216713085,
                1.4751618691801722,
                -0.056641916734166964,
                0.0899896066486946,
                -2.000950536934169
            ]
        },
        {
            "positions": [
                -0.568970060492136,
                -1.2416210768614055,
                1.5349116496451933,
                -0.14264487485173016,
                0.13233588377228922,
                -2.1272204750837735
            ]
        },
        {
            "positions": [
                -0.6348840556055143,
                -1.2263146320515024,
                1.5946614301102144,
                -0.22864783296929314,
                0.17468216089588373,
                -2.253490413233378
            ]
        },
        {
            "positions": [
                -0.7007980507188926,
                -1.2110081872415992,
                1.6544112105752358,
                -0.3146507910868568,
                0.21702843801947846,
                -2.379760351382983
            ]
        },
        {
            "positions": [
                -0.7667120458322708,
                -1.1957017424316962,
                1.7141609910402569,
                -0.40065374920441976,
                0.259374715143073,
                -2.506030289532587
            ]
        },
        {
            "positions": [
                -0.8326260409456491,
                -1.1803952976217933,
                1.773910771505278,
                -0.48665670732198296,
                0.3017209922666676,
                -2.632300227682192
            ]
        },
        {
            "positions": [
                -0.8985400360590273,
                -1.1650888528118901,
                1.833660551970299,
                -0.5726596654395462,
                0.3440672693902621,
                -2.7585701658317965
            ]
        },
        {
            "positions": [
                -0.9644540311724058,
                -1.1497824080019872,
                1.8934103324353204,
                -0.6586626235571096,
                0.38641354651385673,
                -2.8848401039814013
            ]
        },
        {
            "positions": [
                -1.030368026285784,
                -1.134475963192084,
                1.9531601129003415,
                -0.7446655816746728,
                0.42875982363745146,
                -3.0111100421310057
            ]
        },
        {
            "positions": [
                -1.0962820213991622,
                -1.119169518382181,
                2.0129098933653626,
                -0.8306685397922359,
                0.4711061007610459,
                -3.13737998028061
            ]
        }
    ]
}