{
    "goal": {
        "global_pose": {
            "orientation": {
                "w": -0.00223480608172531,
                "x": 0.0024358444001904467,
                "y": 0.7094548369677653,
                "z": -0.704743149386269
            },
            "position": {
                "x": -0.37947507619857795,
                "y": -0.6371506643295288,
                "z": 0.19426114857196808
            }
        },
        "name": "move_to_magneteinheit_C"
    },
    "id": "KPIECE_move_to_magneteinheit_C_125",
    "joint_names": [
        "shoulder_pan_joint",
        "shoulder_lift_joint",
        "elbow_joint",
        "wrist_1_joint",
        "wrist_2_joint",
        "wrist_3_joint"
    ],
    "metrics": {
        "cart_traj_len": 1.602642650397063,
        "distance_elbow_joint": 1.7785222954900823,
        "distance_shoulder_lift_joint": 0.7584393232143343,
        "distance_shoulder_pan_joint": 1.5013612659584161,
        "distance_wrist_1_joint": 1.7984462653698585,
        "distance_wrist_2_joint": 1.8264012419660647,
        "distance_wrist_3_joint": 5.588106424679784,
        "smoothness": 0.574729855709091,
        "time": 0.483951939,
        "traj_len": 3.640230324674325,
        "weighted_distance": 5.296445711359085
    },
    "planner": "KPIECE",
    "start": {
        "state": {
            "elbow_joint": 1.9565354010623817,
            "shoulder_lift_joint": -1.4165861575791021,
            "shoulder_pan_joint": -1.6717766225146293,
            "wrist_1_joint": -0.5286633292919765,
            "wrist_2_joint": 1.472756589071564,
            "wrist_3_joint": -3.1238370188695823
        }
    },
    "waypoints": [
        {
            "positions": [
                -1.6717766225146293,
                -1.4165861575791021,
                1.9565354010623817,
                -0.5286633292919765,
                1.472756589071564,
                -3.1238370188695823
            ]
        },
        {
            "positions": [
                -1.554434103329692,
                -1.4024572221799767,
                1.9114382985507465,
                -0.5097528625415179,
                1.3522697208028316,
                -3.0964571384190385
            ]
        },
        {
            "positions": [
                -1.5161646629537606,
                -1.404935853185711,
                1.8192705978013137,
                -0.48282216910723064,
                1.3093896230989084,
                -2.952617361917604
            ]
        },
        {
            "positions": [
                -1.477895222577829,
                -1.4074144841914455,
                1.727102897051881,
                -0.45589147567294347,
                1.2665095253949852,
                -2.808777585416169
            ]
        },
        {
            "positions": [
                -1.4396257822018976,
                -1.40989311519718,
                1.634935196302448,
                -0.42896078223865625,
                1.223629427691062,
                -2.6649378089147344
            ]
        },
        {
            "positions": [
                -1.4013563418259662,
                -1.4123717462029144,
                1.542767495553015,
                -0.4020300888043691,
                1.180749329987139,
                -2.5210980324133
            ]
        },
        {
            "positions": [
                -1.3630869014500346,
                -1.4148503772086487,
                1.4505997948035823,
                -0.37509939537008186,
                1.1378692322832158,
                -2.377258255911865
            ]
        },
        {
            "positions": [
                -1.3248174610741033,
                -1.4173290082143832,
                1.3584320940541494,
                -0.34816870193579463,
                1.0949891345792926,
                -2.2334184794104304
            ]
        },
        {
            "positions": [
                -1.3560605814254314,
                -1.4389334906960682,
                1.3995139370196372,
                -0.4110259120102314,
                1.1336471458826893,
                -2.0608109339618133
            ]
        },
        {
            "positions": [
                -1.3873037017767593,
                -1.460537973177753,
                1.440595779985125,
                -0.4738831220846682,
                1.1723051571860863,
                -1.8882033885131966
            ]
        },
        {
            "positions": [
                -1.4185468221280875,
                -1.482142455659438,
                1.4816776229506128,
                -0.5367403321591049,
                1.210963168489483,
                -1.7155958430645797
            ]
        },
        {
            "positions": [
                -1.4497899424794156,
                -1.503746938141123,
                1.5227594659161008,
                -0.5995975422335418,
                1.24962117979288,
                -1.5429882976159628
            ]
        },
        {
            "positions": [
                -1.4810330628307435,
                -1.525351420622808,
                1.5638413088815886,
                -0.6624547523079785,
                1.2882791910962768,
                -1.3703807521673457
            ]
        },
        {
            "positions": [
                -1.5122761831820717,
                -1.5469559031044928,
                1.6049231518470763,
                -0.7253119623824152,
                1.3269372023996737,
                -1.197773206718729
            ]
        },
        {
            "positions": [
                -1.5435193035333996,
                -1.5685603855861778,
                1.6460049948125641,
                -0.788169172456852,
                1.3655952137030705,
                -1.0251656612701119
            ]
        },
        {
            "positions": [
                -1.5747624238847278,
                -1.5901648680678628,
                1.6870868377780521,
                -0.8510263825312888,
                1.4042532250064674,
                -0.852558115821495
            ]
        },
        {
            "positions": [
                -1.606005544236056,
                -1.6117693505495478,
                1.72816868074354,
                -0.9138835926057256,
                1.4429112363098642,
                -0.6799505703728781
            ]
        },
        {
            "positions": [
                -1.6372486645873838,
                -1.6333738330312326,
                1.7692505237090277,
                -0.9767408026801624,
                1.481569247613261,
                -0.5073430249242612
            ]
        },
        {
            "positions": [
                -1.668491784938712,
                -1.6549783155129176,
                1.8103323666745155,
                -1.0395980127545992,
                1.5202272589166579,
                -0.3347354794756444
            ]
        },
        {
            "positions": [
                -1.7790306931710433,
                -1.6518071436887676,
                1.9267833575136,
                -1.132377880953083,
                1.5417315441997557,
                -0.37339659826642463
            ]
        },
        {
            "positions": [
                -1.8895696014033745,
                -1.6486359718646173,
                2.0432343483526845,
                -1.2251577491515666,
                1.5632358294828534,
                -0.41205771705720484
            ]
        },
        {
            "positions": [
                -2.000108509635706,
                -1.6454648000404672,
                2.159685339191769,
                -1.3179376173500503,
                1.5847401147659512,
                -0.4507188358479851
            ]
        },
        {
            "positions": [
                -2.1106474178680372,
                -1.6422936282163172,
                2.2761363300308535,
                -1.410717485548534,
                1.606244400049049,
                -0.4893799546387653
            ]
        },
        {
            "positions": [
                -2.1525685802831056,
                -1.6130534727525565,
                2.2725882731040503,
                -1.3862038811475716,
                1.5493747569572316,
                -0.6537551214511772
            ]
        },
        {
            "positions": [
                -2.1944897426981735,
                -1.5838133172887958,
                2.2690402161772467,
                -1.3616902767466095,
                1.4925051138654144,
                -0.818130288263589
            ]
        },
        {
            "positions": [
                -2.2364109051132415,
                -1.5545731618250351,
                2.265492159250443,
                -1.337176672345647,
                1.435635470773597,
                -0.9825054550760008
            ]
        },
        {
            "positions": [
                -2.27833206752831,
                -1.5253330063612744,
                2.26194410232364,
                -1.3126630679446847,
                1.3787658276817796,
                -1.1468806218884127
            ]
        },
        {
            "positions": [
                -2.3163117764088033,
                -1.4931027342451926,
                2.2528108026290603,
                -1.2816484013968703,
                1.315912716767421,
                -1.3269081358572077
            ]
        },
        {
            "positions": [
                -2.3542914852892967,
                -1.4608724621291105,
                2.24367750293448,
                -1.250633734849056,
                1.2530596058530623,
                -1.5069356498260027
            ]
        },
        {
            "positions": [
                -2.39227119416979,
                -1.4286421900130284,
                2.2345442032399,
                -1.2196190683012416,
                1.1902064949387037,
                -1.6869631637947975
            ]
        },
        {
            "positions": [
                -2.4302509030502835,
                -1.3964119178969465,
                2.2254109035453205,
                -1.1886044017534272,
                1.127353384024345,
                -1.8669906777635925
            ]
        },
        {
            "positions": [
                -2.4456915807420607,
                -1.366760899192874,
                2.204700580144348,
                -1.150888126948988,
                1.0692202654318124,
                -2.0295781887804196
            ]
        },
        {
            "positions": [
                -2.461132258433838,
                -1.337109880488801,
                2.183990256743375,
                -1.1131718521445484,
                1.0110871468392797,
                -2.1921656997972465
            ]
        },
        {
            "positions": [
                -2.4765729361256152,
                -1.3074588617847285,
                2.1632799333424026,
                -1.075455577340109,
                0.9529540282467469,
                -2.3547532108140734
            ]
        },
        {
            "positions": [
                -2.4759112787590207,
                -1.2713914015962087,
                2.125815344388229,
                -1.020420340791981,
                0.8819319906963132,
                -2.5494999993009273
            ]
        },
        {
            "positions": [
                -2.475249621392426,
                -1.235323941407689,
                2.088350755434055,
                -0.9653851042438529,
                0.8109099531458794,
                -2.744246787787781
            ]
        },
        {
            "positions": [
                -2.4745879640258317,
                -1.1992564812191695,
                2.050886166479881,
                -0.9103498676957249,
                0.7398879155954456,
                -2.9389935762746355
            ]
        },
        {
            "positions": [
                -2.473926306659237,
                -1.1631890210306497,
                2.0134215775257074,
                -0.8553146311475968,
                0.668865878045012,
                -3.1337403647614894
            ]
        }
    ]
}