{
    "goal": {
        "global_pose": {
            "orientation": {
                "w": 0.5084816217422485,
                "x": -0.49083608388900757,
                "y": 0.5182115435600281,
                "z": -0.4816462993621826
            },
            "position": {
                "x": 0.5540239810943604,
                "y": 0.030875300988554955,
                "z": 0.16403168439865112
            }
        },
        "name": "move_to_storage_A"
    },
    "id": "KPIECE_move_to_storage_A_7",
    "joint_names": [
        "shoulder_pan_joint",
        "shoulder_lift_joint",
        "elbow_joint",
        "wrist_1_joint",
        "wrist_2_joint",
        "wrist_3_joint"
    ],
    "metrics": {
        "cart_traj_len": 0.35337070438027,
        "distance_elbow_joint": 0.45174552952129354,
        "distance_shoulder_lift_joint": 0.23512651882758728,
        "distance_shoulder_pan_joint": 0.4627257735249692,
        "distance_wrist_1_joint": 0.24981426592359968,
        "distance_wrist_2_joint": 1.0970671403490666,
        "distance_wrist_3_joint": 0.0921620840374735,
        "smoothness": 0.0,
        "time": 0.033473433,
        "traj_len": 1.6089255148029662,
        "weighted_distance": 2.0297405958721924
    },
    "planner": "KPIECE",
    "start": {
        "state": {
            "elbow_joint": 1.971548259319323,
            "shoulder_lift_joint": -1.1394851275133948,
            "shoulder_pan_joint": 0.1228115487234821,
            "wrist_1_joint": -0.7804723859257726,
            "wrist_2_joint": 0.12958671773740124,
            "wrist_3_joint": -3.192489227718131
        }
    },
    "waypoints": [
        {
            "positions": [
                0.1228115487234821,
                -1.1394851275133948,
                1.971548259319323,
                -0.7804723859257726,
                0.12958671773740124,
                -3.192489227718131
            ]
        },
        {
            "positions": [
                0.05670786679134365,
                -1.1730746302030501,
                2.036083334965222,
                -0.8161601382005725,
                0.286310594930125,
                -3.179323215712778
            ]
        },
        {
            "positions": [
                -0.009395815140794794,
                -1.2066641328927055,
                2.100618410611121,
                -0.8518478904753726,
                0.44303447212284885,
                -3.1661572037074244
            ]
        },
        {
            "positions": [
                -0.07549949707293324,
                -1.2402536355823608,
                2.16515348625702,
                -0.8875356427501725,
                0.5997583493155726,
                -3.152991191702071
            ]
        },
        {
            "positions": [
                -0.1416031790050717,
                -1.2738431382720161,
                2.229688561902919,
                -0.9232233950249724,
                0.7564822265082964,
                -3.1398251796967176
            ]
        },
        {
            "positions": [
                -0.2077068609372102,
                -1.3074326409616714,
                2.2942236375488183,
                -0.9589111472997724,
                0.9132061037010203,
                -3.1266591676913644
            ]
        },
        {
            "positions": [
                -0.2738105428693486,
                -1.3410221436513268,
                2.3587587131947174,
                -0.9945988995745723,
                1.069929980893744,
                -3.113493155686011
            ]
        },
        {
            "positions": [
                -0.3399142248014871,
                -1.374611646340982,
                2.4232937888406165,
                -1.0302866518493723,
                1.2266538580864679,
                -3.1003271436806576
            ]
        }
    ]
}{
    "goal": {
        "global_pose": {
            "orientation": {
                "w": 0.5084816217422485,
                "x": -0.49083608388900757,
                "y": 0.5182115435600281,
                "z": -0.4816462993621826
            },
            "position": {
                "x": 0.5540239810943604,
                "y": 0.030875300988554955,
                "z": 0.16403168439865112
            }
        },
        "name": "move_to_storage_A"
    },
    "id": "KPIECE_move_to_storage_A_7",
    "joint_names": [
        "shoulder_pan_joint",
        "shoulder_lift_joint",
        "elbow_joint",
        "wrist_1_joint",
        "wrist_2_joint",
        "wrist_3_joint"
    ],
    "metrics": {
        "cart_traj_len": 0.3534099572252072,
        "distance_elbow_joint": 0.4519016976398804,
        "distance_shoulder_lift_joint": 0.23497351509563202,
        "distance_shoulder_pan_joint": 0.46161902786027803,
        "distance_wrist_1_joint": 0.24672798259738093,
        "distance_wrist_2_joint": 1.1024806991508638,
        "distance_wrist_3_joint": 0.09263212869829474,
        "smoothness": 6.661338200497456e-16,
        "time": 0.043076718,
        "traj_len": 1.6094517858706827,
        "weighted_distance": 2.030962331060614
    },
    "planner": "KPIECE",
    "start": {
        "state": {
            "elbow_joint": 1.97154746011099,
            "shoulder_lift_joint": -1.13948474672311,
            "shoulder_pan_joint": 0.12281154466712228,
            "wrist_1_joint": -0.7804688027058302,
            "wrist_2_joint": 0.12958655903071145,
            "wrist_3_joint": 3.0906928834467795
        }
    },
    "waypoints": [
        {
            "positions": [
                0.12281154466712228,
                -1.13948474672311,
                1.97154746011099,
                -0.7804688027058302,
                0.12958655903071145,
                3.0906928834467795
            ]
        },
        {
            "positions": [
                0.056865969258511145,
                -1.1730523917367717,
                2.036104845488116,
                -0.8157156573625989,
                0.28708380176654913,
                3.103926044689393
            ]
        },
        {
            "positions": [
                -0.009079606150099992,
                -1.2066200367504334,
                2.1006622308652414,
                -0.8509625120193676,
                0.4445810445023868,
                3.1171592059320066
            ]
        },
        {
            "positions": [
                -0.07502518155871114,
                -1.240187681764095,
                2.1652196162423674,
                -0.8862093666761363,
                0.6020782872382244,
                3.13039236717462
            ]
        },
        {
            "positions": [
                -0.14097075696732225,
                -1.2737553267777568,
                2.229777001619493,
                -0.921456221332905,
                0.7595755299740622,
                3.1436255284172336
            ]
        },
        {
            "positions": [
                -0.20691633237593343,
                -1.3073229717914185,
                2.294334386996619,
                -0.9567030759896737,
                0.9170727727099,
                3.156858689659847
            ]
        },
        {
            "positions": [
                -0.27286190778454456,
                -1.3408906168050803,
                2.3588917723737444,
                -0.9919499306464424,
                1.0745700154457374,
                3.1700918509024607
            ]
        },
        {
            "positions": [
                -0.33880748319315573,
                -1.374458261818742,
                2.4234491577508703,
                -1.0271967853032111,
                1.2320672581815753,
                3.1833250121450742
            ]
        }
    ]
}{
    "goal": {
        "global_pose": {
            "orientation": {
                "w": 0.5084816217422485,
                "x": -0.49083608388900757,
                "y": 0.5182115435600281,
                "z": -0.4816462993621826
            },
            "position": {
                "x": 0.5540239810943604,
                "y": 0.030875300988554955,
                "z": 0.16403168439865112
            }
        },
        "name": "move_to_storage_A"
    },
    "id": "KPIECE_move_to_storage_A_7",
    "joint_names": [
        "shoulder_pan_joint",
        "shoulder_lift_joint",
        "elbow_joint",
        "wrist_1_joint",
        "wrist_2_joint",
        "wrist_3_joint"
    ],
    "metrics": {
        "cart_traj_len": 0.3528511635404055,
        "distance_elbow_joint": 0.4506563761000666,
        "distance_shoulder_lift_joint": 0.23542821207474218,
        "distance_shoulder_pan_joint": 0.4628158185593479,
        "distance_wrist_1_joint": 0.24293634752341653,
        "distance_wrist_2_joint": 1.092984871704376,
        "distance_wrist_3_joint": 0.09356284741538046,
        "smoothness": 0.0,
        "time": 0.0966707,
        "traj_len": 1.6057348702003484,
        "weighted_distance": 2.0251990982211803
    },
    "planner": "KPIECE",
    "start": {
        "state": {
            "elbow_joint": 1.9715472970024885,
            "shoulder_lift_joint": -1.1394870060712896,
            "shoulder_pan_joint": 0.12281152778156021,
            "wrist_1_joint": -0.780463741449964,
            "wrist_2_joint": 0.12958659822042276,
            "wrist_3_joint": 3.090690232415272
        }
    },
    "waypoints": [
        {
            "positions": [
                0.12281152778156021,
                -1.1394870060712896,
                1.9715472970024885,
                -0.780463741449964,
                0.12958659822042276,
                3.090690232415272
            ]
        },
        {
            "positions": [
                0.05669498227308195,
                -1.1731196077962527,
                2.035926779302498,
                -0.8151689339533092,
                0.28572729417819076,
                3.1040563534746117
            ]
        },
        {
            "positions": [
                -0.009421563235396307,
                -1.206752209521216,
                2.1003062616025074,
                -0.8498741264566544,
                0.4418679901359588,
                3.117422474533952
            ]
        },
        {
            "positions": [
                -0.07553810874387457,
                -1.240384811246179,
                2.164685743902517,
                -0.8845793189599996,
                0.5980086860937267,
                3.130788595593292
            ]
        },
        {
            "positions": [
                -0.14165465425235282,
                -1.2740174129711423,
                2.2290652262025263,
                -0.9192845114633449,
                0.7541493820514947,
                3.1441547166526322
            ]
        },
        {
            "positions": [
                -0.2077711997608311,
                -1.3076500146961054,
                2.2934447085025362,
                -0.95398970396669,
                0.9102900780092628,
                3.157520837711972
            ]
        },
        {
            "positions": [
                -0.27388774526930937,
                -1.3412826164210685,
                2.3578241908025457,
                -0.9886948964700353,
                1.0664307739670307,
                3.1708869587713124
            ]
        },
        {
            "positions": [
                -0.34000429077778765,
                -1.3749152181460318,
                2.422203673102555,
                -1.0234000889733805,
                1.2225714699247987,
                3.1842530798306523
            ]
        }
    ]
}