{
    "goal": {
        "global_pose": {
            "orientation": {
                "w": -0.4816463035849501,
                "x": 0.5182115481033762,
                "y": 0.4908360881923453,
                "z": -0.5084816262002911
            },
            "position": {
                "x": -0.8240239810943604,
                "y": -0.300875300988555,
                "z": 0.16403168439865112
            }
        },
        "name": "move_to_storage_C"
    },
    "id": "KPIECE_move_to_storage_C_77",
    "joint_names": [
        "shoulder_pan_joint",
        "shoulder_lift_joint",
        "elbow_joint",
        "wrist_1_joint",
        "wrist_2_joint",
        "wrist_3_joint"
    ],
    "metrics": {
        "cart_traj_len": 0.5774075364317452,
        "distance_elbow_joint": 0.26209617405101837,
        "distance_shoulder_lift_joint": 0.19071126461642085,
        "distance_shoulder_pan_joint": 0.49453011894033194,
        "distance_wrist_1_joint": 0.08971075376719173,
        "distance_wrist_2_joint": 1.0718484499337326,
        "distance_wrist_3_joint": 0.06941770255954527,
        "smoothness": 0.0,
        "time": 0.08620272899999999,
        "traj_len": 1.475911401090269,
        "weighted_distance": 1.8651297736855352
    },
    "planner": "KPIECE",
    "start": {
        "state": {
            "elbow_joint": 2.010868314990456,
            "shoulder_lift_joint": -1.1634956873337592,
            "shoulder_pan_joint": -2.4736205022346125,
            "wrist_1_joint": -0.8367026794202681,
            "wrist_2_joint": 0.6746043897044499,
            "wrist_3_joint": -3.1496632123970403
        }
    },
    "waypoints": [
        {
            "positions": [
                -2.4736205022346125,
                -1.1634956873337592,
                2.010868314990456,
                -0.8367026794202681,
                0.6746043897044499,
                -3.1496632123970403
            ]
        },
        {
            "positions": [
                -2.5560421887246676,
                -1.1317104765643557,
                1.9671856193152861,
                -0.8217508871257362,
                0.8532457980267387,
                -3.1380935953037827
            ]
        },
        {
            "positions": [
                -2.638463875214723,
                -1.0999252657949523,
                1.9235029236401164,
                -0.8067990948312042,
                1.0318872063490274,
                -3.126523978210525
            ]
        },
        {
            "positions": [
                -2.7208855617047787,
                -1.0681400550255487,
                1.8798202279649465,
                -0.7918473025366722,
                1.2105286146713161,
                -3.1149543611172676
            ]
        },
        {
            "positions": [
                -2.803307248194834,
                -1.0363548442561452,
                1.8361375322897768,
                -0.7768955102421403,
                1.3891700229936048,
                -3.10338474402401
            ]
        },
        {
            "positions": [
                -2.885728934684889,
                -1.0045696334867418,
                1.7924548366146071,
                -0.7619437179476083,
                1.567811431315894,
                -3.0918151269307526
            ]
        },
        {
            "positions": [
                -2.9681506211749444,
                -0.9727844227173383,
                1.7487721409394374,
                -0.7469919256530764,
                1.7464528396381824,
                -3.080245509837495
            ]
        }
    ]
}