{
    "goal": {
        "global_pose": {
            "orientation": {
                "w": -0.4816463035849501,
                "x": 0.5182115481033762,
                "y": 0.4908360881923453,
                "z": -0.5084816262002911
            },
            "position": {
                "x": -0.8240239810943604,
                "y": 0.19912469901144506,
                "z": 0.16403168439865112
            }
        },
        "name": "move_to_storage_D"
    },
    "id": "KPIECE_move_to_storage_D_106",
    "joint_names": [
        "shoulder_pan_joint",
        "shoulder_lift_joint",
        "elbow_joint",
        "wrist_1_joint",
        "wrist_2_joint",
        "wrist_3_joint"
    ],
    "metrics": {
        "cart_traj_len": 3.887491647456226,
        "distance_elbow_joint": 4.212403728271552,
        "distance_shoulder_lift_joint": 1.2646519758655217,
        "distance_shoulder_pan_joint": 2.812665517833333,
        "distance_wrist_1_joint": 2.6740309396538553,
        "distance_wrist_2_joint": 1.1582340357310776,
        "distance_wrist_3_joint": 3.1479937337168313,
        "smoothness": 0.07997560014955496,
        "time": 0.139550432,
        "traj_len": 3.907682168635542,
        "weighted_distance": 5.039665899034455
    },
    "planner": "KPIECE",
    "start": {
        "state": {
            "elbow_joint": -2.384821988534728,
            "shoulder_lift_joint": -2.2788054721415256,
            "shoulder_pan_joint": -0.1854694642142757,
            "wrist_1_joint": 1.4845938289331202,
            "wrist_2_joint": 0.17898776772866878,
            "wrist_3_joint": 0.037105688729662994
        }
    },
    "waypoints": [
        {
            "positions": [
                -0.1854694642142757,
                -2.2788054721415256,
                -2.384821988534728,
                1.4845938289331202,
                0.17898776772866878,
                0.037105688729662994
            ]
        },
        {
            "positions": [
                -0.09802025344375608,
                -2.251972796800728,
                -2.3571754586819282,
                1.443802294040435,
                0.10777092575075586,
                0.08227893408420203
            ]
        },
        {
            "positions": [
                -0.010571042673236442,
                -2.2251401214599307,
                -2.3295289288291285,
                1.4030107591477494,
                0.03655408377284296,
                0.12745217943874107
            ]
        },
        {
            "positions": [
                0.05774432942296988,
                -2.1923676753788213,
                -2.223262916853562,
                1.3257454270056563,
                0.04841289779999018,
                0.21572646816343757
            ]
        },
        {
            "positions": [
                0.1260597015191762,
                -2.1595952292977123,
                -2.1169969048779955,
                1.2484800948635635,
                0.060271711827137406,
                0.3040007568881341
            ]
        },
        {
            "positions": [
                0.1943750736153825,
                -2.1268227832166033,
                -2.010730892902429,
                1.1712147627214704,
                0.07213052585428463,
                0.39227504561283055
            ]
        },
        {
            "positions": [
                0.26269044571158884,
                -2.094050337135494,
                -1.9044648809268627,
                1.0939494305793773,
                0.08398933988143185,
                0.4805493343375271
            ]
        },
        {
            "positions": [
                0.33100581780779514,
                -2.0612778910543845,
                -1.7981988689512964,
                1.0166840984372845,
                0.09584815390857908,
                0.5688236230622236
            ]
        },
        {
            "positions": [
                0.39932118990400145,
                -2.0285054449732756,
                -1.69193285697573,
                0.9394187662951915,
                0.1077069679357263,
                0.6570979117869201
            ]
        },
        {
            "positions": [
                0.46763656200020776,
                -1.9957329988921664,
                -1.5856668450001634,
                0.8621534341530985,
                0.11956578196287353,
                0.7453722005116167
            ]
        },
        {
            "positions": [
                0.5359519340964141,
                -1.9629605528110572,
                -1.479400833024597,
                0.7848881020110055,
                0.13142459599002076,
                0.8336464892363131
            ]
        },
        {
            "positions": [
                0.6042673061926205,
                -1.930188106729948,
                -1.3731348210490304,
                0.7076227698689125,
                0.143283410017168,
                0.9219207779610097
            ]
        },
        {
            "positions": [
                0.6725826782888267,
                -1.8974156606488388,
                -1.266868809073464,
                0.6303574377268195,
                0.1551422240443152,
                1.010195066685706
            ]
        },
        {
            "positions": [
                0.7408980503850331,
                -1.8646432145677296,
                -1.1606027970978976,
                0.5530921055847264,
                0.16700103807146244,
                1.0984693554104026
            ]
        },
        {
            "positions": [
                0.8092134224812393,
                -1.8318707684866204,
                -1.0543367851223313,
                0.4758267734426336,
                0.17885985209860966,
                1.1867436441350991
            ]
        },
        {
            "positions": [
                0.8775287945774457,
                -1.7990983224055113,
                -0.9480707731467648,
                0.3985614413005405,
                0.19071866612575689,
                1.2750179328597957
            ]
        },
        {
            "positions": [
                0.9458441666736519,
                -1.766325876324402,
                -0.8418047611711985,
                0.32129610915844764,
                0.2025774801529041,
                1.3632922215844923
            ]
        },
        {
            "positions": [
                1.0141595387698583,
                -1.733553430243293,
                -0.735538749195632,
                0.24403077701635456,
                0.21443629418005133,
                1.4515665103091888
            ]
        },
        {
            "positions": [
                1.0824749108660647,
                -1.7007809841621837,
                -0.6292727372200655,
                0.16676544487426148,
                0.22629510820719856,
                1.5398407990338852
            ]
        },
        {
            "positions": [
                1.150790282962271,
                -1.6680085380810745,
                -0.5230067252444992,
                0.08950011273216862,
                0.23815392223434573,
                1.6281150877585817
            ]
        },
        {
            "positions": [
                1.2191056550584773,
                -1.6352360919999653,
                -0.41674071326893247,
                0.012234780590075545,
                0.250012736261493,
                1.7163893764832783
            ]
        },
        {
            "positions": [
                1.2874210271546838,
                -1.6024636459188561,
                -0.3104747012933662,
                -0.06503055155201753,
                0.26187155028864023,
                1.8046636652079748
            ]
        },
        {
            "positions": [
                1.35573639925089,
                -1.569691199837747,
                -0.20420868931779967,
                -0.1422958836941104,
                0.27373036431578746,
                1.8929379539326712
            ]
        },
        {
            "positions": [
                1.4240517713470962,
                -1.5369187537566378,
                -0.09794267734223361,
                -0.21956121583620325,
                0.2855891783429346,
                1.9812122426573677
            ]
        },
        {
            "positions": [
                1.4923671434433026,
                -1.5041463076755286,
                0.008323334633333346,
                -0.29682654797829655,
                0.2974479923700819,
                2.069486531382064
            ]
        },
        {
            "positions": [
                1.560682515539509,
                -1.4713738615944194,
                0.11458934660889941,
                -0.3740918801203894,
                0.30930680639722913,
                2.157760820106761
            ]
        },
        {
            "positions": [
                1.6289978876357152,
                -1.4386014155133102,
                0.22085535858446592,
                -0.45135721226248227,
                0.32116562042437635,
                2.246035108831457
            ]
        },
        {
            "positions": [
                1.6973132597319214,
                -1.405828969432201,
                0.32712137056003243,
                -0.5286225444045753,
                0.3330244344515236,
                2.3343093975561535
            ]
        },
        {
            "positions": [
                1.765628631828128,
                -1.3730565233510919,
                0.43338738253559894,
                -0.6058878765466684,
                0.3448832484786708,
                2.4225836862808503
            ]
        },
        {
            "positions": [
                1.8339440039243342,
                -1.3402840772699827,
                0.5396533945111655,
                -0.6831532086887615,
                0.356742062505818,
                2.5108579750055466
            ]
        },
        {
            "positions": [
                1.9022593760205404,
                -1.3075116311888735,
                0.6459194064867315,
                -0.7604185408308541,
                0.36860087653296525,
                2.5991322637302434
            ]
        },
        {
            "positions": [
                1.9705747481167466,
                -1.2747391851077643,
                0.752185418462298,
                -0.8376838729729472,
                0.3804596905601125,
                2.6874065524549398
            ]
        },
        {
            "positions": [
                2.038890120212953,
                -1.241966739026655,
                0.8584514304378645,
                -0.9149492051150403,
                0.3923185045872597,
                2.7756808411796365
            ]
        },
        {
            "positions": [
                2.107205492309159,
                -1.209194292945546,
                0.9647174424134313,
                -0.9922145372571333,
                0.4041773186144069,
                2.863955129904333
            ]
        },
        {
            "positions": [
                2.1769130932603105,
                -1.184985896256146,
                1.0763299757651497,
                -0.9667501000692073,
                0.48670978541205984,
                2.9079020892932044
            ]
        },
        {
            "positions": [
                2.2466206942114617,
                -1.1607774995667457,
                1.1879425091168678,
                -0.9412856628812811,
                0.5692422522097127,
                2.9518490486820763
            ]
        },
        {
            "positions": [
                2.316328295162613,
                -1.1365691028773457,
                1.2995550424685862,
                -0.9158212256933551,
                0.6517747190073656,
                2.995796008070948
            ]
        },
        {
            "positions": [
                2.386035896113764,
                -1.1123607061879457,
                1.4111675758203046,
                -0.8903567885054291,
                0.7343071858050185,
                3.0397429674598193
            ]
        },
        {
            "positions": [
                2.4463259354900875,
                -1.0878089037099603,
                1.5152711167994344,
                -0.8665155823274548,
                0.8138189982407875,
                3.076082081206488
            ]
        },
        {
            "positions": [
                2.5066159748664107,
                -1.063257101231975,
                1.6193746577785642,
                -0.8426743761494806,
                0.8933308106765566,
                3.112421194953157
            ]
        },
        {
            "positions": [
                2.5669060142427336,
                -1.0387052987539893,
                1.7234781987576937,
                -0.8188331699715063,
                0.9728426231123257,
                3.1487603086998255
            ]
        },
        {
            "positions": [
                2.627196053619057,
                -1.014153496276004,
                1.8275817397368235,
                -0.7949919637935321,
                1.0523544355480947,
                3.1850994224464944
            ]
        }
    ]
}