{
    "goal": {
        "global_pose": {
            "orientation": {
                "w": -0.4816463035849501,
                "x": 0.5182115481033762,
                "y": 0.4908360881923453,
                "z": -0.5084816262002911
            },
            "position": {
                "x": -0.8240239810943604,
                "y": -0.300875300988555,
                "z": 0.16403168439865112
            }
        },
        "name": "move_to_storage_C"
    },
    "id": "KPIECE_move_to_storage_C_20",
    "joint_names": [
        "shoulder_pan_joint",
        "shoulder_lift_joint",
        "elbow_joint",
        "wrist_1_joint",
        "wrist_2_joint",
        "wrist_3_joint"
    ],
    "metrics": {
        "cart_traj_len": 0.5758580372385124,
        "distance_elbow_joint": 0.2525900045843805,
        "distance_shoulder_lift_joint": 0.18785734616654026,
        "distance_shoulder_pan_joint": 0.4954423687361875,
        "distance_wrist_1_joint": 0.06451458076388739,
        "distance_wrist_2_joint": 1.0618262454680232,
        "distance_wrist_3_joint": 0.05446178176237648,
        "smoothness": 1.2688263138573217e-16,
        "time": 0.010962236,
        "traj_len": 1.454885675055396,
        "weighted_distance": 1.8308349781556117
    },
    "planner": "KPIECE",
    "start": {
        "state": {
            "elbow_joint": 2.010868314990456,
            "shoulder_lift_joint": -1.1634956873337592,
            "shoulder_pan_joint": -2.4736205022346125,
            "wrist_1_joint": -0.8367026794202681,
            "wrist_2_joint": 0.6746043897044499,
            "wrist_3_joint": -3.1496632123970403
        }
    },
    "waypoints": [
        {
            "positions": [
                -2.4736205022346125,
                -1.1634956873337592,
                2.010868314990456,
                -0.8367026794202681,
                0.6746043897044499,
                -3.1496632123970403
            ]
        },
        {
            "positions": [
                -2.5561942303573106,
                -1.1321861296393358,
                1.968769980893059,
                -0.8259502492929536,
                0.8515754306157871,
                -3.1405862487699774
            ]
        },
        {
            "positions": [
                -2.6387679584800083,
                -1.1008765719449125,
                1.9266716467956624,
                -0.8151978191656389,
                1.0285464715271244,
                -3.131509285142915
            ]
        },
        {
            "positions": [
                -2.721341686602706,
                -1.069567014250489,
                1.8845733126982656,
                -0.8044453890383244,
                1.2055175124384614,
                -3.122432321515852
            ]
        },
        {
            "positions": [
                -2.803915414725404,
                -1.0382574565560656,
                1.8424749786008687,
                -0.7936929589110099,
                1.3824885533497988,
                -3.113355357888789
            ]
        },
        {
            "positions": [
                -2.8864891428481023,
                -1.0069478988616423,
                1.8003766445034721,
                -0.7829405287836952,
                1.5594595942611358,
                -3.1042783942617267
            ]
        },
        {
            "positions": [
                -2.9690628709708,
                -0.9756383411672189,
                1.7582783104060753,
                -0.7721880986563807,
                1.7364306351724732,
                -3.095201430634664
            ]
        }
    ]
}