{
    "goal": {
        "global_pose": {
            "orientation": {
                "w": -0.00223480608172531,
                "x": 0.0024358444001904467,
                "y": 0.7094548369677653,
                "z": -0.704743149386269
            },
            "position": {
                "x": -0.37947507619857795,
                "y": -0.6371506643295288,
                "z": 0.19426114857196808
            }
        },
        "name": "move_to_magneteinheit_C"
    },
    "id": "KPIECE_move_to_magneteinheit_C_118",
    "joint_names": [
        "shoulder_pan_joint",
        "shoulder_lift_joint",
        "elbow_joint",
        "wrist_1_joint",
        "wrist_2_joint",
        "wrist_3_joint"
    ],
    "metrics": {
        "cart_traj_len": 1.8022891887296344,
        "distance_elbow_joint": 1.0549107622802643,
        "distance_shoulder_lift_joint": 0.8911612696008859,
        "distance_shoulder_pan_joint": 2.053738154597018,
        "distance_wrist_1_joint": 1.1014487816393403,
        "distance_wrist_2_joint": 1.0444223190364066,
        "distance_wrist_3_joint": 3.9002962037496642,
        "smoothness": 0.9147759353548789,
        "time": 2.434674492,
        "traj_len": 3.169539002899882,
        "weighted_distance": 4.471290753135905
    },
    "planner": "KPIECE",
    "start": {
        "state": {
            "elbow_joint": 1.9565354010623817,
            "shoulder_lift_joint": -1.4165861575791021,
            "shoulder_pan_joint": -1.6717766225146293,
            "wrist_1_joint": -0.5286633292919765,
            "wrist_2_joint": 1.472756589071564,
            "wrist_3_joint": -3.1238370188695823
        }
    },
    "waypoints": [
        {
            "positions": [
                -1.6717766225146293,
                -1.4165861575791021,
                1.9565354010623817,
                -0.5286633292919765,
                1.472756589071564,
                -3.1238370188695823
            ]
        },
        {
            "positions": [
                -1.6542108537278655,
                -1.4282949550188504,
                1.95281343462781,
                -0.45436256072223463,
                1.4707544210305423,
                -3.081340518520233
            ]
        },
        {
            "positions": [
                -1.593978149602908,
                -1.4598011991821849,
                1.910941014775604,
                -0.4248183343241034,
                1.4360563603256404,
                -2.915113095712302
            ]
        },
        {
            "positions": [
                -1.5337454454779504,
                -1.4913074433455193,
                1.869068594923398,
                -0.3952741079259721,
                1.4013582996207385,
                -2.7488856729043705
            ]
        },
        {
            "positions": [
                -1.473512741352993,
                -1.5228136875088538,
                1.8271961750711918,
                -0.3657298815278409,
                1.3666602389158369,
                -2.5826582500964395
            ]
        },
        {
            "positions": [
                -1.4132800372280352,
                -1.5543199316721883,
                1.7853237552189858,
                -0.33618565512970966,
                1.331962178210935,
                -2.4164308272885084
            ]
        },
        {
            "positions": [
                -1.3530473331030777,
                -1.5858261758355225,
                1.7434513353667798,
                -0.3066414287315784,
                1.297264117506033,
                -2.250203404480577
            ]
        },
        {
            "positions": [
                -1.2928146289781202,
                -1.617332419998857,
                1.7015789155145735,
                -0.27709720233344715,
                1.2625660568011314,
                -2.083975981672646
            ]
        },
        {
            "positions": [
                -1.2325819248531626,
                -1.6488386641621915,
                1.6597064956623675,
                -0.2475529759353159,
                1.2278679960962295,
                -1.917748558864715
            ]
        },
        {
            "positions": [
                -1.1723492207282051,
                -1.680344908325526,
                1.6178340758101615,
                -0.21800874953718463,
                1.1931699353913277,
                -1.7515211360567837
            ]
        },
        {
            "positions": [
                -1.2803147431304913,
                -1.6872806585985853,
                1.6429265846441337,
                -0.2977553596054471,
                1.122503107662566,
                -1.6797441609442174
            ]
        },
        {
            "positions": [
                -1.3882802655327775,
                -1.694216408871645,
                1.6680190934781056,
                -0.37750196967370947,
                1.0518362799338044,
                -1.607967185831651
            ]
        },
        {
            "positions": [
                -1.496245787935064,
                -1.7011521591447043,
                1.6931116023120776,
                -0.45724857974197186,
                0.9811694522050425,
                -1.5361902107190848
            ]
        },
        {
            "positions": [
                -1.60421131033735,
                -1.7080879094177637,
                1.7182041111460498,
                -0.5369951898102343,
                0.9105026244762808,
                -1.4644132356065187
            ]
        },
        {
            "positions": [
                -1.7121768327396363,
                -1.7150236596908233,
                1.743296619980022,
                -0.6167417998784968,
                0.8398357967475192,
                -1.3926362604939522
            ]
        },
        {
            "positions": [
                -1.8201423551419227,
                -1.7219594099638826,
                1.768389128813994,
                -0.6964884099467592,
                0.7691689690187574,
                -1.320859285381386
            ]
        },
        {
            "positions": [
                -1.9281078775442089,
                -1.7288951602369422,
                1.7934816376479659,
                -0.7762350200150215,
                0.6985021412899957,
                -1.2490823102688198
            ]
        },
        {
            "positions": [
                -2.036073399946495,
                -1.7358309105100016,
                1.818574146481938,
                -0.855981630083284,
                0.627835313561234,
                -1.1773053351562535
            ]
        },
        {
            "positions": [
                -2.14884649395337,
                -1.7264724288950728,
                1.889556865973262,
                -0.87094572022717,
                0.6524641289055466,
                -1.3324676133484388
            ]
        },
        {
            "positions": [
                -2.261619587960245,
                -1.717113947280144,
                1.960539585464586,
                -0.885909810371056,
                0.6770929442498591,
                -1.487629891540624
            ]
        },
        {
            "positions": [
                -2.37439268196712,
                -1.707755465665215,
                2.03152230495591,
                -0.900873900514942,
                0.7017217595941717,
                -1.6427921697328094
            ]
        },
        {
            "positions": [
                -2.487165775973995,
                -1.6983969840502862,
                2.102505024447234,
                -0.915837990658828,
                0.7263505749384842,
                -1.7979544479249947
            ]
        },
        {
            "positions": [
                -2.59993886998087,
                -1.6890385024353574,
                2.173487743938558,
                -0.930802080802714,
                0.7509793902827968,
                -1.95311672611718
            ]
        },
        {
            "positions": [
                -2.5788186860545483,
                -1.601517817669467,
                2.1467284491219503,
                -0.9178019356995442,
                0.7382532291487112,
                -2.149442247629748
            ]
        },
        {
            "positions": [
                -2.557698502128227,
                -1.5139971329035766,
                2.119969154305342,
                -0.9048017905963743,
                0.7255270680146255,
                -2.345767769142316
            ]
        },
        {
            "positions": [
                -2.5365783182019053,
                -1.4264764481376861,
                2.0932098594887343,
                -0.8918016454932045,
                0.7128009068805399,
                -2.5420932906548837
            ]
        },
        {
            "positions": [
                -2.515458134275584,
                -1.338955763371796,
                2.0664505646721265,
                -0.8788015003900346,
                0.7000747457464542,
                -2.7384188121674518
            ]
        },
        {
            "positions": [
                -2.4943379503492626,
                -1.2514350786059056,
                2.0396912698555183,
                -0.8658013552868647,
                0.6873485846123686,
                -2.93474433368002
            ]
        },
        {
            "positions": [
                -2.473217766422941,
                -1.1639143938400152,
                2.0129319750389105,
                -0.8528012101836949,
                0.6746224234782829,
                -3.1310698551925875
            ]
        }
    ]
}