{
    "goal": {
        "global_pose": {
            "orientation": {
                "w": 0.5084816217422485,
                "x": -0.49083608388900757,
                "y": 0.5182115435600281,
                "z": -0.4816462993621826
            },
            "position": {
                "x": 0.5540239810943604,
                "y": 0.030875300988554955,
                "z": 0.16403168439865112
            }
        },
        "name": "move_to_storage_A"
    },
    "id": "KPIECE_move_to_storage_A_31",
    "joint_names": [
        "shoulder_pan_joint",
        "shoulder_lift_joint",
        "elbow_joint",
        "wrist_1_joint",
        "wrist_2_joint",
        "wrist_3_joint"
    ],
    "metrics": {
        "cart_traj_len": 0.3540908027971166,
        "distance_elbow_joint": 0.45276369838698494,
        "distance_shoulder_lift_joint": 0.23439567687205454,
        "distance_shoulder_pan_joint": 0.4617022238870743,
        "distance_wrist_1_joint": 0.25523830001874825,
        "distance_wrist_2_joint": 1.1066435836010815,
        "distance_wrist_3_joint": 0.10279827704510103,
        "smoothness": 2.2204460668324854e-16,
        "time": 0.015321115,
        "traj_len": 1.6166452176686896,
        "weighted_distance": 2.0447543122637195
    },
    "planner": "KPIECE",
    "start": {
        "state": {
            "elbow_joint": 1.971548259319323,
            "shoulder_lift_joint": -1.1394851275133948,
            "shoulder_pan_joint": 0.1228115487234821,
            "wrist_1_joint": -0.7804723859257726,
            "wrist_2_joint": 0.12958671773740124,
            "wrist_3_joint": -3.192489227718131
        }
    },
    "waypoints": [
        {
            "positions": [
                0.1228115487234821,
                -1.1394851275133948,
                1.971548259319323,
                -0.7804723859257726,
                0.12958671773740124,
                -3.192489227718131
            ]
        },
        {
            "positions": [
                0.05685408816818577,
                -1.1729702242094027,
                2.036228787660321,
                -0.8169350002141652,
                0.28767865825184147,
                -3.177803759568831
            ]
        },
        {
            "positions": [
                -0.009103372387110564,
                -1.2064553209054103,
                2.1009093160013186,
                -0.8533976145025578,
                0.44577059876628167,
                -3.163118291419531
            ]
        },
        {
            "positions": [
                -0.0750608329424069,
                -1.2399404176014182,
                2.1655898443423167,
                -0.8898602287909504,
                0.6038625392807219,
                -3.1484328232702308
            ]
        },
        {
            "positions": [
                -0.14101829349770323,
                -1.273425514297426,
                2.2302703726833144,
                -0.9263228430793431,
                0.7619544797951621,
                -3.1337473551209305
            ]
        },
        {
            "positions": [
                -0.20697575405299956,
                -1.3069106109934339,
                2.294950901024312,
                -0.9627854573677357,
                0.9200464203096024,
                -3.1190618869716302
            ]
        },
        {
            "positions": [
                -0.2729332146082959,
                -1.3403957076894415,
                2.3596314293653102,
                -0.9992480716561283,
                1.0781383608240425,
                -3.1043764188223304
            ]
        },
        {
            "positions": [
                -0.3388906751635922,
                -1.3738808043854494,
                2.424311957706308,
                -1.0357106859445209,
                1.2362303013384828,
                -3.08969095067303
            ]
        }
    ]
}{
    "goal": {
        "global_pose": {
            "orientation": {
                "w": 0.5084816217422485,
                "x": -0.49083608388900757,
                "y": 0.5182115435600281,
                "z": -0.4816462993621826
            },
            "position": {
                "x": 0.5540239810943604,
                "y": 0.030875300988554955,
                "z": 0.16403168439865112
            }
        },
        "name": "move_to_storage_A"
    },
    "id": "KPIECE_move_to_storage_A_31",
    "joint_names": [
        "shoulder_pan_joint",
        "shoulder_lift_joint",
        "elbow_joint",
        "wrist_1_joint",
        "wrist_2_joint",
        "wrist_3_joint"
    ],
    "metrics": {
        "cart_traj_len": 0.35366813312432155,
        "distance_elbow_joint": 0.4477422494143912,
        "distance_shoulder_lift_joint": 0.23535078215041638,
        "distance_shoulder_pan_joint": 0.4591711770193089,
        "distance_wrist_1_joint": 0.23346621177857663,
        "distance_wrist_2_joint": 1.1142589237798395,
        "distance_wrist_3_joint": 0.09416039943804799,
        "smoothness": 1.998401428356914e-15,
        "time": 0.028578634999999998,
        "traj_len": 1.607529080166384,
        "weighted_distance": 2.029826514265466
    },
    "planner": "KPIECE",
    "start": {
        "state": {
            "elbow_joint": 1.97154746011099,
            "shoulder_lift_joint": -1.13948474672311,
            "shoulder_pan_joint": 0.12281154466712228,
            "wrist_1_joint": -0.7804688027058302,
            "wrist_2_joint": 0.12958655903071145,
            "wrist_3_joint": 3.0906928834467795
        }
    },
    "waypoints": [
        {
            "positions": [
                0.12281154466712228,
                -1.13948474672311,
                1.97154746011099,
                -0.7804688027058302,
                0.12958655903071145,
                3.0906928834467795
            ]
        },
        {
            "positions": [
                0.05721566223579244,
                -1.1731062870303124,
                2.03551063859876,
                -0.8138211186741983,
                0.2887664052849742,
                3.104144369080786
            ]
        },
        {
            "positions": [
                -0.0083802201955374,
                -1.2067278273375146,
                2.09947381708653,
                -0.8471734346425663,
                0.44794625153923695,
                3.1175958547147933
            ]
        },
        {
            "positions": [
                -0.07397610262686723,
                -1.240349367644717,
                2.1634369955743002,
                -0.8805257506109344,
                0.6071260977934998,
                3.1310473403488
            ]
        },
        {
            "positions": [
                -0.13957198505819707,
                -1.2739709079519193,
                2.227400174062071,
                -0.9138780665793025,
                0.7663059440477625,
                3.144498825982807
            ]
        },
        {
            "positions": [
                -0.20516786748952692,
                -1.3075924482591217,
                2.291363352549841,
                -0.9472303825476707,
                0.9254857903020254,
                3.1579503116168137
            ]
        },
        {
            "positions": [
                -0.2707637499208567,
                -1.341213988566324,
                2.355326531037611,
                -0.9805826985160387,
                1.0846656365562881,
                3.171401797250821
            ]
        },
        {
            "positions": [
                -0.3363596323521866,
                -1.3748355288735263,
                2.419289709525381,
                -1.0139350144844068,
                1.243845482810551,
                3.1848532828848275
            ]
        }
    ]
}{
    "goal": {
        "global_pose": {
            "orientation": {
                "w": 0.5084816217422485,
                "x": -0.49083608388900757,
                "y": 0.5182115435600281,
                "z": -0.4816462993621826
            },
            "position": {
                "x": 0.5540239810943604,
                "y": 0.030875300988554955,
                "z": 0.16403168439865112
            }
        },
        "name": "move_to_storage_A"
    },
    "id": "KPIECE_move_to_storage_A_31",
    "joint_names": [
        "shoulder_pan_joint",
        "shoulder_lift_joint",
        "elbow_joint",
        "wrist_1_joint",
        "wrist_2_joint",
        "wrist_3_joint"
    ],
    "metrics": {
        "cart_traj_len": 0.3523115574442686,
        "distance_elbow_joint": 0.4472171284491644,
        "distance_shoulder_lift_joint": 0.23436146089603183,
        "distance_shoulder_pan_joint": 0.45761015294230006,
        "distance_wrist_1_joint": 0.2336517278049215,
        "distance_wrist_2_joint": 1.1101896295706186,
        "distance_wrist_3_joint": 0.08745021333392256,
        "smoothness": 0.0,
        "time": 0.114977706,
        "traj_len": 1.6032717526972646,
        "weighted_distance": 2.0221825083410114
    },
    "planner": "KPIECE",
    "start": {
        "state": {
            "elbow_joint": 1.9715472970024885,
            "shoulder_lift_joint": -1.1394870060712896,
            "shoulder_pan_joint": 0.12281152778156021,
            "wrist_1_joint": -0.780463741449964,
            "wrist_2_joint": 0.12958659822042276,
            "wrist_3_joint": 3.090690232415272
        }
    },
    "waypoints": [
        {
            "positions": [
                0.12281152778156021,
                -1.1394870060712896,
                1.9715472970024885,
                -0.780463741449964,
                0.12958659822042276,
                3.090690232415272
            ]
        },
        {
            "positions": [
                0.057438648789803065,
                -1.1729672147707226,
                2.035435458209512,
                -0.8138425597078099,
                0.2881851167305111,
                3.1031831200344038
            ]
        },
        {
            "positions": [
                -0.007934230201954079,
                -1.2064474234701559,
                2.0993236194165354,
                -0.8472213779656559,
                0.4467836352405995,
                3.1156760076535353
            ]
        },
        {
            "positions": [
                -0.07330710919371122,
                -1.239927632169589,
                2.163211780623559,
                -0.8806001962235017,
                0.6053821537506878,
                3.128168895272667
            ]
        },
        {
            "positions": [
                -0.13867998818546837,
                -1.2734078408690221,
                2.2270999418305824,
                -0.9139790144813477,
                0.7639806722607762,
                3.140661782891799
            ]
        },
        {
            "positions": [
                -0.2040528671772255,
                -1.3068880495684552,
                2.290988103037606,
                -0.9473578327391936,
                0.9225791907708646,
                3.153154670510931
            ]
        },
        {
            "positions": [
                -0.2694257461689826,
                -1.3403682582678882,
                2.3548762642446293,
                -0.9807366509970395,
                1.081177709280953,
                3.1656475581300625
            ]
        },
        {
            "positions": [
                -0.3347986251607398,
                -1.3738484669673214,
                2.418764425451653,
                -1.0141154692548855,
                1.2397762277910414,
                3.1781404457491944
            ]
        }
    ]
}