{
    "goal": {
        "global_pose": {
            "orientation": {
                "w": 0.7047431468963623,
                "x": -0.7094548344612122,
                "y": 0.0024358443915843964,
                "z": -0.0022348060738295317
            },
            "position": {
                "x": 0.6094750761985779,
                "y": 0.3671506643295288,
                "z": 0.19426114857196808
            }
        },
        "name": "move_to_magneteinheit_A"
    },
    "id": "KPIECE_move_to_magneteinheit_A_8",
    "joint_names": [
        "shoulder_pan_joint",
        "shoulder_lift_joint",
        "elbow_joint",
        "wrist_1_joint",
        "wrist_2_joint",
        "wrist_3_joint"
    ],
    "metrics": {
        "cart_traj_len": 3.637397801249387,
        "distance_elbow_joint": 3.8688614429438015,
        "distance_shoulder_lift_joint": 0.5707440073931,
        "distance_shoulder_pan_joint": 2.672397757163089,
        "distance_wrist_1_joint": 1.2078249422409757,
        "distance_wrist_2_joint": 2.034868018051833,
        "distance_wrist_3_joint": 2.5605378476559677,
        "smoothness": 0.5003768550714389,
        "time": 0.124247392,
        "traj_len": 3.5937771237861655,
        "weighted_distance": 4.612916937367669
    },
    "planner": "KPIECE",
    "start": {
        "state": {
            "elbow_joint": -1.9196185241190666,
            "shoulder_lift_joint": -1.2443396400964142,
            "shoulder_pan_joint": 2.6996025414629847,
            "wrist_1_joint": -1.5485510000780065,
            "wrist_2_joint": -1.5709468930060704,
            "wrist_3_joint": 0.4420197071253992
        }
    },
    "waypoints": [
        {
            "positions": [
                2.6996025414629847,
                -1.2443396400964142,
                -1.9196185241190666,
                -1.5485510000780065,
                -1.5709468930060704,
                0.4420197071253992
            ]
        },
        {
            "positions": [
                2.599262738617766,
                -1.242178104443208,
                -1.8011952712942978,
                -1.5206616552517775,
                -1.5124093948856678,
                0.5179632690228413
            ]
        },
        {
            "positions": [
                2.4989229357725478,
                -1.240016568790002,
                -1.682772018469529,
                -1.4927723104255486,
                -1.4538718967652653,
                0.5939068309202833
            ]
        },
        {
            "positions": [
                2.398583132927329,
                -1.2378550331367961,
                -1.5643487656447599,
                -1.4648829655993196,
                -1.3953343986448628,
                0.6698503928177255
            ]
        },
        {
            "positions": [
                2.2982433300821103,
                -1.23569349748359,
                -1.445925512819991,
                -1.4369936207730907,
                -1.3367969005244602,
                0.7457939547151675
            ]
        },
        {
            "positions": [
                2.1979035272368916,
                -1.233531961830384,
                -1.3275022599952222,
                -1.4091042759468617,
                -1.2782594024040577,
                0.8217375166126096
            ]
        },
        {
            "positions": [
                2.0975637243916734,
                -1.2313704261771778,
                -1.2090790071704531,
                -1.3812149311206328,
                -1.2197219042836551,
                0.8976810785100517
            ]
        },
        {
            "positions": [
                1.9972239215464547,
                -1.229208890523972,
                -1.0906557543456845,
                -1.3533255862944038,
                -1.1611844061632528,
                0.9736246404074937
            ]
        },
        {
            "positions": [
                1.896884118701236,
                -1.2270473548707659,
                -0.9722325015209154,
                -1.3254362414681748,
                -1.1026469080428503,
                1.0495682023049357
            ]
        },
        {
            "positions": [
                1.7965443158560177,
                -1.2248858192175598,
                -0.8538092486961466,
                -1.297546896641946,
                -1.0441094099224477,
                1.125511764202378
            ]
        },
        {
            "positions": [
                1.696204513010799,
                -1.2227242835643537,
                -0.7353859958713775,
                -1.269657551815717,
                -0.9855719118020451,
                1.2014553260998202
            ]
        },
        {
            "positions": [
                1.5958647101655805,
                -1.2205627479111478,
                -0.6169627430466089,
                -1.241768206989488,
                -0.9270344136816426,
                1.2773988879972622
            ]
        },
        {
            "positions": [
                1.4955249073203618,
                -1.2184012122579417,
                -0.49853949022183985,
                -1.213878862163259,
                -0.86849691556124,
                1.3533424498947042
            ]
        },
        {
            "positions": [
                1.3951851044751433,
                -1.2162396766047356,
                -0.380116237397071,
                -1.18598951733703,
                -0.8099594174408375,
                1.4292860117921462
            ]
        },
        {
            "positions": [
                1.2948453016299248,
                -1.2140781409515295,
                -0.26169298457230217,
                -1.158100172510801,
                -0.7514219193204351,
                1.5052295736895882
            ]
        },
        {
            "positions": [
                1.1945054987847064,
                -1.2119166052983235,
                -0.14326973174753332,
                -1.1302108276845722,
                -0.6928844212000326,
                1.5811731355870302
            ]
        },
        {
            "positions": [
                1.0941656959394874,
                -1.2097550696451176,
                -0.02484647892276426,
                -1.102321482858343,
                -0.6343469230796299,
                1.6571166974844727
            ]
        },
        {
            "positions": [
                0.9938258930942689,
                -1.2075935339919115,
                0.0935767739020048,
                -1.0744321380321142,
                -0.5758094249592274,
                1.7330602593819147
            ]
        },
        {
            "positions": [
                0.8934860902490505,
                -1.2054319983387054,
                0.21200002672677343,
                -1.046542793205885,
                -0.5172719268388251,
                1.8090038212793567
            ]
        },
        {
            "positions": [
                0.793146287403832,
                -1.2032704626854993,
                0.33042327955154205,
                -1.0186534483796563,
                -0.4587344287184225,
                1.8849473831767987
            ]
        },
        {
            "positions": [
                0.6928064845586133,
                -1.2011089270322934,
                0.44884653237631156,
                -0.9907641035534273,
                -0.40019693059801975,
                1.960890945074241
            ]
        },
        {
            "positions": [
                0.5924666817133946,
                -1.1989473913790873,
                0.5672697852010802,
                -0.9628747587271983,
                -0.3416594324776172,
                2.036834506971683
            ]
        },
        {
            "positions": [
                0.4921268788681763,
                -1.1967858557258813,
                0.6856930380258488,
                -0.9349854139009693,
                -0.2831219343572149,
                2.112778068869125
            ]
        },
        {
            "positions": [
                0.3917870760229576,
                -1.1946243200726752,
                0.8041162908506179,
                -0.9070960690747404,
                -0.22458443623681235,
                2.188721630766567
            ]
        },
        {
            "positions": [
                0.2914472731777389,
                -1.1924627844194693,
                0.9225395436753869,
                -0.8792067242485114,
                -0.16604693811640958,
                2.2646651926640096
            ]
        },
        {
            "positions": [
                0.19110747033252062,
                -1.1903012487662632,
                1.040962796500156,
                -0.8513173794222825,
                -0.10750943999600726,
                2.3406087545614516
            ]
        },
        {
            "positions": [
                0.09076766748730179,
                -1.188139713113057,
                1.1593860493249246,
                -0.8234280345960535,
                -0.04897194187560466,
                2.4165523164588936
            ]
        },
        {
            "positions": [
                0.10028656147345646,
                -1.130659519865469,
                1.2605864198922605,
                -0.7613573378424473,
                0.019283250044991013,
                2.475857185165967
            ]
        },
        {
            "positions": [
                0.10980545545961115,
                -1.0731793266178806,
                1.3617867904595964,
                -0.6992866410888411,
                0.08753844196558669,
                2.5351620538730404
            ]
        },
        {
            "positions": [
                0.11932434944576582,
                -1.0156991333702925,
                1.462987161026932,
                -0.637215944335235,
                0.15579363388618234,
                2.5944669225801142
            ]
        },
        {
            "positions": [
                0.1288432434319205,
                -0.9582189401227044,
                1.564187531594268,
                -0.5751452475816288,
                0.22404882580677804,
                2.6537717912871877
            ]
        },
        {
            "positions": [
                0.13836213741807518,
                -0.9007387468751161,
                1.6653879021616038,
                -0.5130745508280226,
                0.2923040177273737,
                2.713076659994261
            ]
        },
        {
            "positions": [
                0.1330393329991979,
                -0.9764531182657168,
                1.760006241049314,
                -0.5705240484916865,
                0.23509831528791067,
                2.809570291589963
            ]
        },
        {
            "positions": [
                0.12771652858032062,
                -1.0521674896563176,
                1.8546245799370245,
                -0.6279735461553505,
                0.17789261284844765,
                2.906063923185665
            ]
        },
        {
            "positions": [
                0.12239372416144333,
                -1.1278818610469181,
                1.9492429188247347,
                -0.6854230438190144,
                0.12068691040898459,
                3.002557554781367
            ]
        }
    ]
}