{
    "goal": {
        "global_pose": {
            "orientation": {
                "w": 0.7047431468963623,
                "x": -0.7094548344612122,
                "y": 0.0024358443915843964,
                "z": -0.0022348060738295317
            },
            "position": {
                "x": 0.6094750761985779,
                "y": 0.3671506643295288,
                "z": 0.19426114857196808
            }
        },
        "name": "move_to_magneteinheit_A"
    },
    "id": "KPIECE_move_to_magneteinheit_A_14",
    "joint_names": [
        "shoulder_pan_joint",
        "shoulder_lift_joint",
        "elbow_joint",
        "wrist_1_joint",
        "wrist_2_joint",
        "wrist_3_joint"
    ],
    "metrics": {
        "cart_traj_len": 3.181965690435009,
        "distance_elbow_joint": 3.874760875915553,
        "distance_shoulder_lift_joint": 0.6845066031622467,
        "distance_shoulder_pan_joint": 3.026225689216033,
        "distance_wrist_1_joint": 2.3067054482041707,
        "distance_wrist_2_joint": 1.6921046160360285,
        "distance_wrist_3_joint": 3.6926299660831683,
        "smoothness": 0.16676077523499572,
        "time": 0.244001138,
        "traj_len": 3.908571759430444,
        "weighted_distance": 5.163429402540887
    },
    "planner": "KPIECE",
    "start": {
        "state": {
            "elbow_joint": -1.9196185241190666,
            "shoulder_lift_joint": -1.2443396400964142,
            "shoulder_pan_joint": 2.6996025414629847,
            "wrist_1_joint": -1.5485510000780065,
            "wrist_2_joint": -1.5709468930060704,
            "wrist_3_joint": 0.4420197071253992
        }
    },
    "waypoints": [
        {
            "positions": [
                2.6996025414629847,
                -1.2443396400964142,
                -1.9196185241190666,
                -1.5485510000780065,
                -1.5709468930060704,
                0.4420197071253992
            ]
        },
        {
            "positions": [
                2.5995308334098355,
                -1.2545428995130927,
                -1.8258030173165287,
                -1.4924435871835144,
                -1.520792979094958,
                0.3688676388603545
            ]
        },
        {
            "positions": [
                2.499459125356686,
                -1.2647461589297713,
                -1.7319875105139908,
                -1.4363361742890224,
                -1.4706390651838455,
                0.29571557059530984
            ]
        },
        {
            "positions": [
                2.3993874173035366,
                -1.2749494183464496,
                -1.6381720037114529,
                -1.3802287613945303,
                -1.4204851512727328,
                0.22256350233026512
            ]
        },
        {
            "positions": [
                2.299315709250387,
                -1.2851526777631281,
                -1.544356496908915,
                -1.3241213485000383,
                -1.3703312373616203,
                0.14941143406522045
            ]
        },
        {
            "positions": [
                2.1992440011972376,
                -1.2953559371798067,
                -1.4505409901063768,
                -1.2680139356055462,
                -1.3201773234505079,
                0.07625936580017573
            ]
        },
        {
            "positions": [
                2.099172293144088,
                -1.3055591965964852,
                -1.3567254833038391,
                -1.2119065227110541,
                -1.2700234095393954,
                0.0031072975351310594
            ]
        },
        {
            "positions": [
                1.9991005850909387,
                -1.3157624560131636,
                -1.262909976501301,
                -1.155799109816562,
                -1.219869495628283,
                -0.07004477072991366
            ]
        },
        {
            "positions": [
                1.8990288770377892,
                -1.325965715429842,
                -1.169094469698763,
                -1.09969169692207,
                -1.1697155817171705,
                -0.14319683899495828
            ]
        },
        {
            "positions": [
                1.7989571689846398,
                -1.3361689748465206,
                -1.075278962896225,
                -1.043584284027578,
                -1.1195616678060578,
                -0.2163489072600031
            ]
        },
        {
            "positions": [
                1.6988854609314903,
                -1.3463722342631992,
                -0.9814634560936871,
                -0.9874768711330859,
                -1.0694077538949454,
                -0.2895009755250477
            ]
        },
        {
            "positions": [
                1.5988137528783408,
                -1.3565754936798777,
                -0.8876479492911493,
                -0.9313694582385939,
                -1.019253839983833,
                -0.36265304379009244
            ]
        },
        {
            "positions": [
                1.4987420448251914,
                -1.366778753096556,
                -0.7938324424886114,
                -0.8752620453441018,
                -0.9690999260727204,
                -0.43580511205513706
            ]
        },
        {
            "positions": [
                1.3986703367720419,
                -1.3769820125132346,
                -0.7000169356860733,
                -0.8191546324496097,
                -0.9189460121616079,
                -0.5089571803201819
            ]
        },
        {
            "positions": [
                1.2985986287188924,
                -1.3871852719299131,
                -0.6062014288835353,
                -0.7630472195551177,
                -0.8687920982504954,
                -0.5821092485852265
            ]
        },
        {
            "positions": [
                1.198526920665743,
                -1.3973885313465917,
                -0.5123859220809974,
                -0.7069398066606256,
                -0.818638184339383,
                -0.6552613168502711
            ]
        },
        {
            "positions": [
                1.0984552126125937,
                -1.40759179076327,
                -0.4185704152784595,
                -0.6508323937661336,
                -0.7684842704282705,
                -0.7284133851153157
            ]
        },
        {
            "positions": [
                0.9983835045594442,
                -1.4177950501799486,
                -0.3247549084759216,
                -0.5947249808716416,
                -0.718330356517158,
                -0.8015654533803606
            ]
        },
        {
            "positions": [
                0.8983117965062946,
                -1.427998309596627,
                -0.23093940167338345,
                -0.5386175679771494,
                -0.6681764426060454,
                -0.8747175216454054
            ]
        },
        {
            "positions": [
                0.7982400884531451,
                -1.4382015690133056,
                -0.13712389487084553,
                -0.4825101550826574,
                -0.6180225286949329,
                -0.94786958991045
            ]
        },
        {
            "positions": [
                0.6981683803999958,
                -1.4484048284299842,
                -0.04330838806830761,
                -0.4264027421881653,
                -0.5678686147838203,
                -1.0210216581754947
            ]
        },
        {
            "positions": [
                0.5980966723468462,
                -1.4586080878466627,
                0.050507118734230305,
                -0.37029532929367326,
                -0.5177147008727079,
                -1.0941737264405393
            ]
        },
        {
            "positions": [
                0.4980249642936969,
                -1.468811347263341,
                0.144322625536768,
                -0.3141879163991812,
                -0.4675607869615954,
                -1.167325794705584
            ]
        },
        {
            "positions": [
                0.39795325624054767,
                -1.4790146066800196,
                0.23813813233930592,
                -0.25808050350468914,
                -0.41740687305048296,
                -1.2404778629706286
            ]
        },
        {
            "positions": [
                0.297881548187398,
                -1.4892178660966982,
                0.33195363914184384,
                -0.20197309061019708,
                -0.3672529591393705,
                -1.3136299312356732
            ]
        },
        {
            "positions": [
                0.1978098401342483,
                -1.4994211255133767,
                0.4257691459443822,
                -0.14586567771570502,
                -0.3170990452282578,
                -1.3867819995007182
            ]
        },
        {
            "positions": [
                0.09773813208109905,
                -1.509624384930055,
                0.5195846527469201,
                -0.08975826482121296,
                -0.26694513131714537,
                -1.4599340677657628
            ]
        },
        {
            "positions": [
                -0.002333575972050639,
                -1.5198276443467336,
                0.613400159549458,
                -0.033650851926720904,
                -0.2167912174060329,
                -1.5330861360308075
            ]
        },
        {
            "positions": [
                -0.10240528402519992,
                -1.530030903763412,
                0.707215666351996,
                0.022456560967771044,
                -0.1666373034949205,
                -1.606238204295852
            ]
        },
        {
            "positions": [
                -0.09059531752518202,
                -1.495871340114484,
                0.813485905824708,
                -0.03862323499102597,
                -0.15011045947635349,
                -1.7343486551973948
            ]
        },
        {
            "positions": [
                -0.07878535102516411,
                -1.461711776465556,
                0.91975614529742,
                -0.09970303094982298,
                -0.13358361545778646,
                -1.8624591060989377
            ]
        },
        {
            "positions": [
                -0.0669753845251462,
                -1.427552212816628,
                1.026026384770132,
                -0.16078282690862,
                -0.11705677143921944,
                -1.9905695570004804
            ]
        },
        {
            "positions": [
                -0.05516541802512829,
                -1.3933926491677,
                1.132296624242844,
                -0.221862622867417,
                -0.10052992742065242,
                -2.1186800079020234
            ]
        },
        {
            "positions": [
                -0.04335545152511037,
                -1.3592330855187718,
                1.2385668637155562,
                -0.28294241882621407,
                -0.0840030834020854,
                -2.246790458803566
            ]
        },
        {
            "positions": [
                -0.03154548502509247,
                -1.3250735218698437,
                1.3448371031882682,
                -0.34402221478501105,
                -0.06747623938351838,
                -2.374900909705109
            ]
        },
        {
            "positions": [
                -0.019735518525074547,
                -1.2909139582209157,
                1.4511073426609804,
                -0.4051020107438081,
                -0.050949395364951355,
                -2.503011360606652
            ]
        },
        {
            "positions": [
                -0.007925552025056654,
                -1.2567543945719877,
                1.5573775821336922,
                -0.46618180670260506,
                -0.034422551346384334,
                -2.6311218115081942
            ]
        },
        {
            "positions": [
                0.003884414474961264,
                -1.2225948309230597,
                1.6636478216064043,
                -0.5272616026614021,
                -0.017895707327817312,
                -2.7592322624097374
            ]
        },
        {
            "positions": [
                0.03336645578188347,
                -1.1997500142593356,
                1.7365214541539244,
                -0.5737565335437071,
                0.016867650261626434,
                -2.8820767615467453
            ]
        },
        {
            "positions": [
                0.06284849708880567,
                -1.1769051975956115,
                1.8093950867014448,
                -0.6202514644260123,
                0.05163100785107018,
                -3.004921260683753
            ]
        },
        {
            "positions": [
                0.09233053839572788,
                -1.1540603809318875,
                1.882268719248965,
                -0.6667463953083175,
                0.08639436544051393,
                -3.127765759820761
            ]
        },
        {
            "positions": [
                0.1218125797026501,
                -1.1312155642681634,
                1.9551423517964852,
                -0.7132413261906225,
                0.12115772302995767,
                -3.250610258957769
            ]
        }
    ]
}