{
    "goal": {
        "global_pose": {
            "orientation": {
                "w": 0.005598929693374612,
                "x": 0.007748599140229565,
                "y": 0.7110244013736278,
                "z": -0.7031023480610252
            },
            "position": {
                "x": -0.8858502320852131,
                "y": -0.7141253447532654,
                "z": 0.3711530566215515
            }
        },
        "name": "move_to_auspresseinheit_C"
    },
    "id": "KPIECE_move_to_auspresseinheit_C_97",
    "joint_names": [
        "shoulder_pan_joint",
        "shoulder_lift_joint",
        "elbow_joint",
        "wrist_1_joint",
        "wrist_2_joint",
        "wrist_3_joint"
    ],
    "metrics": {
        "cart_traj_len": 0.49459359303391026,
        "distance_elbow_joint": 1.0152366713344056,
        "distance_shoulder_lift_joint": 0.3322380080552867,
        "distance_shoulder_pan_joint": 0.25643396466663537,
        "distance_wrist_1_joint": 0.7025405400107425,
        "distance_wrist_2_joint": 1.3183292630411099,
        "distance_wrist_3_joint": 0.07109895378792386,
        "smoothness": 8.074349282788172e-16,
        "time": 1.91376583,
        "traj_len": 1.9224664888876746,
        "weighted_distance": 2.4205257923690473
    },
    "planner": "KPIECE",
    "start": {
        "state": {
            "elbow_joint": 1.7527959577737207,
            "shoulder_lift_joint": -0.9740617694225068,
            "shoulder_pan_joint": -2.967991417825858,
            "wrist_1_joint": -0.759517768980727,
            "wrist_2_joint": 1.7443932448377408,
            "wrist_3_joint": -3.0840537646736568
        }
    },
    "waypoints": [
        {
            "positions": [
                -2.967991417825858,
                -0.9740617694225068,
                1.7527959577737207,
                -0.759517768980727,
                1.7443932448377408,
                -3.0840537646736568
            ]
        },
        {
            "positions": [
                -2.9423480213591944,
                -0.9408379686169781,
                1.6512722906402801,
                -0.6892637149796528,
                1.61256031853363,
                -3.091163660052449
            ]
        },
        {
            "positions": [
                -2.916704624892531,
                -0.9076141678114494,
                1.5497486235068396,
                -0.6190096609785785,
                1.4807273922295188,
                -3.0982735554312417
            ]
        },
        {
            "positions": [
                -2.891061228425867,
                -0.8743903670059208,
                1.4482249563733989,
                -0.5487556069775043,
                1.3488944659254078,
                -3.105383450810034
            ]
        },
        {
            "positions": [
                -2.8654178319592036,
                -0.8411665662003921,
                1.3467012892399584,
                -0.47850155297643,
                1.2170615396212967,
                -3.1124933461888262
            ]
        },
        {
            "positions": [
                -2.83977443549254,
                -0.8079427653948634,
                1.2451776221065178,
                -0.4082474989753557,
                1.0852286133171858,
                -3.119603241567619
            ]
        },
        {
            "positions": [
                -2.814131039025877,
                -0.7747189645893348,
                1.1436539549730773,
                -0.33799344497428147,
                0.953395687013075,
                -3.126713136946411
            ]
        },
        {
            "positions": [
                -2.7884876425592133,
                -0.7414951637838061,
                1.0421302878396368,
                -0.26773939097320726,
                0.821562760708964,
                -3.1338230323252034
            ]
        },
        {
            "positions": [
                -2.7628442460925497,
                -0.7082713629782774,
                0.940606620706196,
                -0.197485336972133,
                0.6897298344048528,
                -3.1409329277039957
            ]
        },
        {
            "positions": [
                -2.737200849625886,
                -0.6750475621727487,
                0.8390829535727555,
                -0.12723128297105868,
                0.5578969081007419,
                -3.1480428230827884
            ]
        },
        {
            "positions": [
                -2.7115574531592226,
                -0.6418237613672201,
                0.7375592864393149,
                -0.05697722896998446,
                0.42606398179663096,
                -3.1551527184615806
            ]
        }
    ]
}