{
    "goal": {
        "global_pose": {
            "orientation": {
                "w": 0.5084816217422485,
                "x": -0.49083608388900757,
                "y": 0.5182115435600281,
                "z": -0.4816462993621826
            },
            "position": {
                "x": 0.5540239810943604,
                "y": 0.030875300988554955,
                "z": 0.16403168439865112
            }
        },
        "name": "move_to_storage_A"
    },
    "id": "KPIECE_move_to_storage_A_56",
    "joint_names": [
        "shoulder_pan_joint",
        "shoulder_lift_joint",
        "elbow_joint",
        "wrist_1_joint",
        "wrist_2_joint",
        "wrist_3_joint"
    ],
    "metrics": {
        "cart_traj_len": 0.35350897771638823,
        "distance_elbow_joint": 0.45196011022824245,
        "distance_shoulder_lift_joint": 0.23422726485230783,
        "distance_shoulder_pan_joint": 0.46311242432318084,
        "distance_wrist_1_joint": 0.2533383564045658,
        "distance_wrist_2_joint": 1.0958860049386026,
        "distance_wrist_3_joint": 0.10728371612232124,
        "smoothness": 6.661338200497456e-16,
        "time": 0.038909392,
        "traj_len": 1.61425149120861,
        "weighted_distance": 2.0419597622032204
    },
    "planner": "KPIECE",
    "start": {
        "state": {
            "elbow_joint": 1.971548259319323,
            "shoulder_lift_joint": -1.1394851275133948,
            "shoulder_pan_joint": 0.1228115487234821,
            "wrist_1_joint": -0.7804723859257726,
            "wrist_2_joint": 0.12958671773740124,
            "wrist_3_joint": -3.192489227718131
        }
    },
    "waypoints": [
        {
            "positions": [
                0.1228115487234821,
                -1.1394851275133948,
                1.971548259319323,
                -0.7804723859257726,
                0.12958671773740124,
                -3.192489227718131
            ]
        },
        {
            "positions": [
                0.056652630963027695,
                -1.1729461653494389,
                2.036113989351929,
                -0.8166635796978534,
                0.28614186130005875,
                -3.1771629825577996
            ]
        },
        {
            "positions": [
                -0.00950628679742671,
                -1.2064072031854827,
                2.100679719384535,
                -0.8528547734699343,
                0.44269700486271624,
                -3.161836737397468
            ]
        },
        {
            "positions": [
                -0.07566520455788112,
                -1.2398682410215267,
                2.1652454494171414,
                -0.8890459672420151,
                0.5992521484253738,
                -3.1465104922371365
            ]
        },
        {
            "positions": [
                -0.14182412231833552,
                -1.2733292788575707,
                2.2298111794497473,
                -0.9252371610140959,
                0.7558072919880313,
                -3.1311842470768045
            ]
        },
        {
            "positions": [
                -0.20798304007878993,
                -1.3067903166936148,
                2.294376909482353,
                -0.9614283547861768,
                0.9123624355506889,
                -3.115858001916473
            ]
        },
        {
            "positions": [
                -0.27414195783924433,
                -1.3402513545296586,
                2.3589426395149595,
                -0.9976195485582575,
                1.0689175791133463,
                -3.1005317567561415
            ]
        },
        {
            "positions": [
                -0.34030087559969874,
                -1.3737123923657026,
                2.4235083695475654,
                -1.0338107423303384,
                1.2254727226760038,
                -3.08520551159581
            ]
        }
    ]
}{
    "goal": {
        "global_pose": {
            "orientation": {
                "w": 0.5084816217422485,
                "x": -0.49083608388900757,
                "y": 0.5182115435600281,
                "z": -0.4816462993621826
            },
            "position": {
                "x": 0.5540239810943604,
                "y": 0.030875300988554955,
                "z": 0.16403168439865112
            }
        },
        "name": "move_to_storage_A"
    },
    "id": "KPIECE_move_to_storage_A_56",
    "joint_names": [
        "shoulder_pan_joint",
        "shoulder_lift_joint",
        "elbow_joint",
        "wrist_1_joint",
        "wrist_2_joint",
        "wrist_3_joint"
    ],
    "metrics": {
        "cart_traj_len": 0.35340673896526015,
        "distance_elbow_joint": 0.4499236038306287,
        "distance_shoulder_lift_joint": 0.23610239701347036,
        "distance_shoulder_pan_joint": 0.4644124928459228,
        "distance_wrist_1_joint": 0.23536473758155307,
        "distance_wrist_2_joint": 1.0908760965844513,
        "distance_wrist_3_joint": 0.08988466828849129,
        "smoothness": 8.881784197001252e-16,
        "time": 0.095607838,
        "traj_len": 1.6020499355964275,
        "weighted_distance": 2.018061982915169
    },
    "planner": "KPIECE",
    "start": {
        "state": {
            "elbow_joint": 1.97154746011099,
            "shoulder_lift_joint": -1.13948474672311,
            "shoulder_pan_joint": 0.12281154466712228,
            "wrist_1_joint": -0.7804688027058302,
            "wrist_2_joint": 0.12958655903071145,
            "wrist_3_joint": 3.0906928834467795
        }
    },
    "waypoints": [
        {
            "positions": [
                0.12281154466712228,
                -1.13948474672311,
                1.97154746011099,
                -0.7804688027058302,
                0.12958655903071145,
                3.0906928834467795
            ]
        },
        {
            "positions": [
                0.05646690283199046,
                -1.1732136605821772,
                2.0358222606582226,
                -0.8140923366460521,
                0.2854260013999188,
                3.1035335503451353
            ]
        },
        {
            "positions": [
                -0.009877739003141359,
                -1.2069425744412443,
                2.1000970612054553,
                -0.847715870586274,
                0.44126544376912613,
                3.116374217243491
            ]
        },
        {
            "positions": [
                -0.0762223808382732,
                -1.2406714883003116,
                2.164371861752688,
                -0.8813394045264957,
                0.5971048861383335,
                3.129214884141847
            ]
        },
        {
            "positions": [
                -0.14256702267340499,
                -1.2744004021593787,
                2.2286466622999206,
                -0.9149629384667176,
                0.7529443285075408,
                3.1420555510402033
            ]
        },
        {
            "positions": [
                -0.20891166450853682,
                -1.308129316018446,
                2.2929214628471533,
                -0.9485864724069395,
                0.9087837708767481,
                3.154896217938559
            ]
        },
        {
            "positions": [
                -0.27525630634366866,
                -1.341858229877513,
                2.357196263394386,
                -0.9822100063471614,
                1.0646232132459554,
                3.167736884836915
            ]
        },
        {
            "positions": [
                -0.3416009481788005,
                -1.3755871437365803,
                2.4214710639416186,
                -1.0158335402873833,
                1.2204626556151628,
                3.180577551735271
            ]
        }
    ]
}{
    "goal": {
        "global_pose": {
            "orientation": {
                "w": 0.5084816217422485,
                "x": -0.49083608388900757,
                "y": 0.5182115435600281,
                "z": -0.4816462993621826
            },
            "position": {
                "x": 0.5540239810943604,
                "y": 0.030875300988554955,
                "z": 0.16403168439865112
            }
        },
        "name": "move_to_storage_A"
    },
    "id": "KPIECE_move_to_storage_A_56",
    "joint_names": [
        "shoulder_pan_joint",
        "shoulder_lift_joint",
        "elbow_joint",
        "wrist_1_joint",
        "wrist_2_joint",
        "wrist_3_joint"
    ],
    "metrics": {
        "cart_traj_len": 0.3532615616458449,
        "distance_elbow_joint": 0.45173327622493264,
        "distance_shoulder_lift_joint": 0.23271265412726638,
        "distance_shoulder_pan_joint": 0.46223061417610195,
        "distance_wrist_1_joint": 0.25849317487427603,
        "distance_wrist_2_joint": 1.096671472785126,
        "distance_wrist_3_joint": 0.10129681398640944,
        "smoothness": 6.661338165333112e-16,
        "time": 0.124176184,
        "traj_len": 1.6134243106430846,
        "weighted_distance": 2.039827512758452
    },
    "planner": "KPIECE",
    "start": {
        "state": {
            "elbow_joint": 1.9715472970024885,
            "shoulder_lift_joint": -1.1394870060712896,
            "shoulder_pan_joint": 0.12281152778156021,
            "wrist_1_joint": -0.780463741449964,
            "wrist_2_joint": 0.12958659822042276,
            "wrist_3_joint": 3.090690232415272
        }
    },
    "waypoints": [
        {
            "positions": [
                0.12281152778156021,
                -1.1394870060712896,
                1.9715472970024885,
                -0.780463741449964,
                0.12958659822042276,
                3.090690232415272
            ]
        },
        {
            "positions": [
                0.05677858289925994,
                -1.1727316709466133,
                2.036080622177479,
                -0.8173913378605748,
                0.28625395147544075,
                3.1051612058419016
            ]
        },
        {
            "positions": [
                -0.009254361983040332,
                -1.205976335821937,
                2.1006139473524694,
                -0.8543189342711857,
                0.44292130473045876,
                3.1196321792685318
            ]
        },
        {
            "positions": [
                -0.0752873068653406,
                -1.2392210006972608,
                2.16514727252746,
                -0.8912465306817966,
                0.5995886579854767,
                3.1341031526951615
            ]
        },
        {
            "positions": [
                -0.14132025174764087,
                -1.2724656655725846,
                2.22968059770245,
                -0.9281741270924074,
                0.7562560112404947,
                3.1485741261217917
            ]
        },
        {
            "positions": [
                -0.20735319662994114,
                -1.3057103304479085,
                2.2942139228774403,
                -0.9651017235030184,
                0.9129233644955127,
                3.1630450995484214
            ]
        },
        {
            "positions": [
                -0.2733861415122414,
                -1.3389549953232323,
                2.3587472480524307,
                -1.0020293199136292,
                1.0695907177505306,
                3.1775160729750516
            ]
        },
        {
            "positions": [
                -0.3394190863945417,
                -1.372199660198556,
                2.423280573227421,
                -1.03895691632424,
                1.2262580710055486,
                3.1919870464016813
            ]
        }
    ]
}