{
    "goal": {
        "global_pose": {
            "orientation": {
                "w": 0.005598929693374612,
                "x": 0.007748599140229565,
                "y": 0.7110244013736278,
                "z": -0.7031023480610252
            },
            "position": {
                "x": 0.1141497679147869,
                "y": -0.7141253447532654,
                "z": 0.3711530566215515
            }
        },
        "name": "move_to_auspresseinheit_B"
    },
    "id": "KPIECE_move_to_auspresseinheit_B_66",
    "joint_names": [
        "shoulder_pan_joint",
        "shoulder_lift_joint",
        "elbow_joint",
        "wrist_1_joint",
        "wrist_2_joint",
        "wrist_3_joint"
    ],
    "metrics": {
        "cart_traj_len": 0.5648075178066227,
        "distance_elbow_joint": 0.0661280993451121,
        "distance_shoulder_lift_joint": 0.29302314316235845,
        "distance_shoulder_pan_joint": 0.5782994606091985,
        "distance_wrist_1_joint": 0.3377409591999272,
        "distance_wrist_2_joint": 0.9860872199737845,
        "distance_wrist_3_joint": 0.002808901058642288,
        "smoothness": 6.344131586469082e-16,
        "time": 0.162265893,
        "traj_len": 1.5046886001259605,
        "weighted_distance": 1.8956618276053403
    },
    "planner": "KPIECE",
    "start": {
        "state": {
            "elbow_joint": 2.0193083361928714,
            "shoulder_lift_joint": -1.1220246554650708,
            "shoulder_pan_joint": -1.0952077554168747,
            "wrist_1_joint": -0.8559753972642168,
            "wrist_2_joint": 0.4759566250798843,
            "wrist_3_joint": -3.1240929996934557
        }
    },
    "waypoints": [
        {
            "positions": [
                -1.0952077554168747,
                -1.1220246554650708,
                2.0193083361928714,
                -0.8559753972642168,
                0.4759566250798843,
                -3.1240929996934557
            ]
        },
        {
            "positions": [
                -1.191590998851741,
                -1.1708618459921305,
                2.0082869863020196,
                -0.7996852373975623,
                0.640304495075515,
                -3.124561149869896
            ]
        },
        {
            "positions": [
                -1.2879742422866074,
                -1.2196990365191902,
                1.9972656364111674,
                -0.7433950775309077,
                0.8046523650711457,
                -3.1250293000463363
            ]
        },
        {
            "positions": [
                -1.3843574857214738,
                -1.26853622704625,
                1.9862442865203154,
                -0.6871049176642532,
                0.9690002350667766,
                -3.1254974502227766
            ]
        },
        {
            "positions": [
                -1.4807407291563401,
                -1.3173734175733098,
                1.9752229366294634,
                -0.6308147577975987,
                1.1333481050624072,
                -3.1259656003992173
            ]
        },
        {
            "positions": [
                -1.5771239725912067,
                -1.3662106081003695,
                1.9642015867386113,
                -0.5745245979309441,
                1.2976959750580381,
                -3.1264337505756576
            ]
        },
        {
            "positions": [
                -1.673507216026073,
                -1.4150477986274292,
                1.9531802368477593,
                -0.5182344380642896,
                1.4620438450536688,
                -3.126901900752098
            ]
        }
    ]
}