{
    "goal": {
        "global_pose": {
            "orientation": {
                "w": 0.5084816262002911,
                "x": -0.4908360881923452,
                "y": 0.5182115481033761,
                "z": -0.48164630358495003
            },
            "position": {
                "x": 0.5540239810943604,
                "y": -0.46912469901144505,
                "z": 0.16403168439865112
            }
        },
        "name": "move_to_storage_B"
    },
    "id": "KPIECE_move_to_storage_B_90",
    "joint_names": [
        "shoulder_pan_joint",
        "shoulder_lift_joint",
        "elbow_joint",
        "wrist_1_joint",
        "wrist_2_joint",
        "wrist_3_joint"
    ],
    "metrics": {
        "cart_traj_len": 0.7428801650078934,
        "distance_elbow_joint": 0.4473150682689728,
        "distance_shoulder_lift_joint": 0.45862552591870775,
        "distance_shoulder_pan_joint": 0.41572886735893,
        "distance_wrist_1_joint": 2.9954714455808777,
        "distance_wrist_2_joint": 2.856533444518028,
        "distance_wrist_3_joint": 3.32071560196309,
        "smoothness": 0.43000758714054105,
        "time": 0.129496637,
        "traj_len": 3.2395045845944725,
        "weighted_distance": 4.7945621330454875
    },
    "planner": "KPIECE",
    "start": {
        "state": {
            "elbow_joint": 1.664937868594044,
            "shoulder_lift_joint": -0.661644460510453,
            "shoulder_pan_joint": -0.9139846352900073,
            "wrist_1_joint": 2.146753192139373,
            "wrist_2_joint": -2.2341966793290973,
            "wrist_3_joint": 0.005466555786416001
        }
    },
    "waypoints": [
        {
            "positions": [
                -0.9139846352900073,
                -0.661644460510453,
                1.664937868594044,
                2.146753192139373,
                -2.2341966793290973,
                0.005466555786416001
            ]
        },
        {
            "positions": [
                -0.8557035758267928,
                -0.7275430090427488,
                1.6409691682875032,
                2.119325499365573,
                -2.2726933712876862,
                0.052320316781346604
            ]
        },
        {
            "positions": [
                -0.7974225163635784,
                -0.7934415575750445,
                1.6170004679809622,
                2.0918978065917724,
                -2.3111900632462747,
                0.09917407777627721
            ]
        },
        {
            "positions": [
                -0.8089289297648284,
                -0.8060118817617413,
                1.6323611475061888,
                1.9787971888981848,
                -2.2042846763000883,
                -0.02494161760730851
            ]
        },
        {
            "positions": [
                -0.8204353431660785,
                -0.8185822059484381,
                1.6477218270314153,
                1.8656965712045972,
                -2.097379289353902,
                -0.14905731299089423
            ]
        },
        {
            "positions": [
                -0.8319417565673286,
                -0.8311525301351349,
                1.663082506556642,
                1.7525959535110096,
                -1.990473902407715,
                -0.27317300837448
            ]
        },
        {
            "positions": [
                -0.8434481699685786,
                -0.8437228543218317,
                1.6784431860818685,
                1.639495335817422,
                -1.8835685154615285,
                -0.3972887037580657
            ]
        },
        {
            "positions": [
                -0.8549545833698287,
                -0.8562931785085284,
                1.693803865607095,
                1.5263947181238344,
                -1.776663128515342,
                -0.5214043991416514
            ]
        },
        {
            "positions": [
                -0.8664609967710787,
                -0.8688635026952252,
                1.7091645451323216,
                1.4132941004302468,
                -1.6697577415691554,
                -0.6455200945252372
            ]
        },
        {
            "positions": [
                -0.8779674101723287,
                -0.881433826881922,
                1.7245252246575482,
                1.3001934827366592,
                -1.562852354622969,
                -0.7696357899088228
            ]
        },
        {
            "positions": [
                -0.8894738235735787,
                -0.8940041510686187,
                1.7398859041827748,
                1.1870928650430717,
                -1.4559469676767822,
                -0.8937514852924086
            ]
        },
        {
            "positions": [
                -0.9009802369748288,
                -0.9065744752553155,
                1.7552465837080014,
                1.0739922473494843,
                -1.3490415807305958,
                -1.017867180675994
            ]
        },
        {
            "positions": [
                -0.9124866503760789,
                -0.9191447994420123,
                1.770607263233228,
                0.9608916296558965,
                -1.242136193784409,
                -1.1419828760595798
            ]
        },
        {
            "positions": [
                -0.9239930637773289,
                -0.9317151236287091,
                1.7859679427584545,
                0.8477910119623091,
                -1.1352308068382226,
                -1.2660985714431656
            ]
        },
        {
            "positions": [
                -0.935499477178579,
                -0.9442854478154059,
                1.8013286222836813,
                0.7346903942687215,
                -1.028325419892036,
                -1.3902142668267514
            ]
        },
        {
            "positions": [
                -0.947005890579829,
                -0.9568557720021027,
                1.8166893018089079,
                0.6215897765751339,
                -0.9214200329458495,
                -1.514329962210337
            ]
        },
        {
            "positions": [
                -0.958512303981079,
                -0.9694260961887994,
                1.8320499813341344,
                0.5084891588815463,
                -0.8145146459996631,
                -1.6384456575939226
            ]
        },
        {
            "positions": [
                -0.970018717382329,
                -0.9819964203754962,
                1.847410660859361,
                0.39538854118795896,
                -0.7076092590534766,
                -1.7625613529775082
            ]
        },
        {
            "positions": [
                -0.9815251307835791,
                -0.994566744562193,
                1.8627713403845876,
                0.28228792349437115,
                -0.6007038721072897,
                -1.8866770483610942
            ]
        },
        {
            "positions": [
                -0.9930315441848292,
                -1.0071370687488899,
                1.8781320199098142,
                0.16918730580078356,
                -0.49379848516110325,
                -2.01079274374468
            ]
        },
        {
            "positions": [
                -1.0045379575860791,
                -1.0197073929355864,
                1.8934926994350407,
                0.05608668810719619,
                -0.3868930982149168,
                -2.1349084391282656
            ]
        },
        {
            "positions": [
                -1.0160443709873292,
                -1.0322777171222832,
                1.9088533789602673,
                -0.0570139295863914,
                -0.27998771126873034,
                -2.2590241345118516
            ]
        },
        {
            "positions": [
                -1.0275507843885794,
                -1.0448480413089802,
                1.9242140584854939,
                -0.17011454727997943,
                -0.17308232432254345,
                -2.383139829895437
            ]
        },
        {
            "positions": [
                -1.0390571977898293,
                -1.0574183654956768,
                1.9395747380107204,
                -0.2832151649735666,
                -0.06617693737635699,
                -2.507255525279023
            ]
        },
        {
            "positions": [
                -1.0505636111910794,
                -1.0699886896823736,
                1.954935417535947,
                -0.39631578266715417,
                0.04072844956982946,
                -2.6313712206626088
            ]
        },
        {
            "positions": [
                -1.0620700245923294,
                -1.0825590138690704,
                1.9702960970611736,
                -0.5094164003607418,
                0.14763383651601591,
                -2.7554869160461943
            ]
        },
        {
            "positions": [
                -1.0735764379935795,
                -1.0951293380557672,
                1.9856567765864002,
                -0.6225170180543294,
                0.2545392234622028,
                -2.8796026114297804
            ]
        },
        {
            "positions": [
                -1.0850828513948296,
                -1.107699662242464,
                2.0010174561116267,
                -0.7356176357479169,
                0.36144461040838927,
                -3.003718306813366
            ]
        },
        {
            "positions": [
                -1.0965892647960795,
                -1.1202699864291608,
                2.0163781356368533,
                -0.8487182534415044,
                0.4683499973545756,
                -3.1278340021969515
            ]
        }
    ]
}