{
    "goal": {
        "global_pose": {
            "orientation": {
                "w": -0.4816463035849501,
                "x": 0.5182115481033762,
                "y": 0.4908360881923453,
                "z": -0.5084816262002911
            },
            "position": {
                "x": -0.8240239810943604,
                "y": 0.19912469901144506,
                "z": 0.16403168439865112
            }
        },
        "name": "move_to_storage_D"
    },
    "id": "KPIECE_move_to_storage_D_111",
    "joint_names": [
        "shoulder_pan_joint",
        "shoulder_lift_joint",
        "elbow_joint",
        "wrist_1_joint",
        "wrist_2_joint",
        "wrist_3_joint"
    ],
    "metrics": {
        "cart_traj_len": 3.6246458230498373,
        "distance_elbow_joint": 4.209493996443856,
        "distance_shoulder_lift_joint": 1.8388170013173266,
        "distance_shoulder_pan_joint": 2.8130254165667568,
        "distance_wrist_1_joint": 2.266865765857963,
        "distance_wrist_2_joint": 2.9227909457124728,
        "distance_wrist_3_joint": 3.1361345151632856,
        "smoothness": 0.12320196030108004,
        "time": 0.072471339,
        "traj_len": 4.145736079523353,
        "weighted_distance": 5.352481049285338
    },
    "planner": "KPIECE",
    "start": {
        "state": {
            "elbow_joint": -2.384821988534728,
            "shoulder_lift_joint": -2.2788054721415256,
            "shoulder_pan_joint": -0.1854694642142757,
            "wrist_1_joint": 1.4845938289331202,
            "wrist_2_joint": 0.17898776772866878,
            "wrist_3_joint": 0.037105688729662994
        }
    },
    "waypoints": [
        {
            "positions": [
                -0.1854694642142757,
                -2.2788054721415256,
                -2.384821988534728,
                1.4845938289331202,
                0.17898776772866878,
                0.037105688729662994
            ]
        },
        {
            "positions": [
                -0.0942109241352492,
                -2.293173271226194,
                -2.210218173584283,
                1.4548199418232337,
                0.12778226761797343,
                0.02135345539312215
            ]
        },
        {
            "positions": [
                -0.0029523840562226955,
                -2.307541070310862,
                -2.035614358633838,
                1.4250460547133472,
                0.07657676750727808,
                0.005601222056581305
            ]
        },
        {
            "positions": [
                0.08830615602280376,
                -2.3219088693955308,
                -1.8610105436833932,
                1.3952721676034605,
                0.025371267396582742,
                -0.010151011279959536
            ]
        },
        {
            "positions": [
                0.17956469610183032,
                -2.336276668480199,
                -1.6864067287329485,
                1.365498280493574,
                -0.025834232714112615,
                -0.025903244616500384
            ]
        },
        {
            "positions": [
                0.2708232361808568,
                -2.3506444675648672,
                -1.5118029137825035,
                1.3357243933836875,
                -0.07703973282480794,
                -0.041655477953041226
            ]
        },
        {
            "positions": [
                0.36208177625988325,
                -2.3650122666495355,
                -1.3371990988320588,
                1.3059505062738008,
                -0.1282452329355033,
                -0.05740771128958207
            ]
        },
        {
            "positions": [
                0.4533403163389097,
                -2.3793800657342037,
                -1.1625952838816138,
                1.2761766191639143,
                -0.1794507330461986,
                -0.07315994462612291
            ]
        },
        {
            "positions": [
                0.5445988564179364,
                -2.3937478648188724,
                -0.9879914689311688,
                1.2464027320540279,
                -0.230656233156894,
                -0.08891217796266376
            ]
        },
        {
            "positions": [
                0.6358573964969628,
                -2.4081156639035406,
                -0.8133876539807239,
                1.2166288449441414,
                -0.28186173326758934,
                -0.10466441129920462
            ]
        },
        {
            "positions": [
                0.7271159365759893,
                -2.422483462988209,
                -0.6387838390302791,
                1.1868549578342549,
                -0.3330672333782847,
                -0.12041664463574545
            ]
        },
        {
            "positions": [
                0.818374476655016,
                -2.436851262072877,
                -0.46418002407983416,
                1.1570810707243682,
                -0.38427273348898006,
                -0.1361688779722863
            ]
        },
        {
            "positions": [
                0.9096330167340422,
                -2.4512190611575453,
                -0.28957620912938964,
                1.1273071836144817,
                -0.4354782335996754,
                -0.15192111130882713
            ]
        },
        {
            "positions": [
                1.0008915568130687,
                -2.465586860242214,
                -0.11497239417894445,
                1.0975332965045952,
                -0.48668373371037077,
                -0.16767334464536798
            ]
        },
        {
            "positions": [
                1.092150096892095,
                -2.479954659326882,
                0.0596314207715003,
                1.0677594093947085,
                -0.537889233821066,
                -0.1834255779819088
            ]
        },
        {
            "positions": [
                1.1834086369711216,
                -2.4943224584115504,
                0.2342352357219455,
                1.037985522284822,
                -0.5890947339317615,
                -0.19917781131844967
            ]
        },
        {
            "positions": [
                1.2746671770501483,
                -2.5086902574962187,
                0.40883905067239024,
                1.0082116351749355,
                -0.6403002340424568,
                -0.21493004465499052
            ]
        },
        {
            "positions": [
                1.3659257171291745,
                -2.523058056580887,
                0.583442865622835,
                0.978437748065049,
                -0.6915057341531521,
                -0.23068227799153132
            ]
        },
        {
            "positions": [
                1.4571842572082012,
                -2.5374258556655556,
                0.7580466805732802,
                0.9486638609551624,
                -0.7427112342638474,
                -0.24643451132807223
            ]
        },
        {
            "positions": [
                1.5484427972872274,
                -2.551793654750224,
                0.9326504955237245,
                0.9188899738452759,
                -0.7939167343745428,
                -0.262186744664613
            ]
        },
        {
            "positions": [
                1.6397013373662541,
                -2.566161453834892,
                1.1072543104741697,
                0.8891160867353893,
                -0.845122234485238,
                -0.27793897800115386
            ]
        },
        {
            "positions": [
                1.6792155219657032,
                -2.5041030130499338,
                1.135951018371568,
                0.82226056578898,
                -0.7691749967452953,
                -0.3907825719384526
            ]
        },
        {
            "positions": [
                1.7187297065651523,
                -2.442044572264975,
                1.164647726268966,
                0.7554050448425708,
                -0.6932277590053526,
                -0.5036261658757514
            ]
        },
        {
            "positions": [
                1.7582438911646012,
                -2.379986131480017,
                1.1933444341663644,
                0.6885495238961614,
                -0.6172805212654099,
                -0.6164697598130502
            ]
        },
        {
            "positions": [
                1.7977580757640503,
                -2.3179276906950586,
                1.2220411420637627,
                0.6216940029497522,
                -0.5413332835254672,
                -0.7293133537503489
            ]
        },
        {
            "positions": [
                1.8372722603634994,
                -2.2558692499101,
                1.250737849961161,
                0.5548384820033428,
                -0.4653860457855244,
                -0.8421569476876477
            ]
        },
        {
            "positions": [
                1.8767864449629483,
                -2.1938108091251416,
                1.279434557858559,
                0.4879829610569336,
                -0.38943880804558173,
                -0.9550005416249464
            ]
        },
        {
            "positions": [
                1.9163006295623974,
                -2.131752368340183,
                1.3081312657559574,
                0.4211274401105242,
                -0.3134915703056389,
                -1.0678441355622452
            ]
        },
        {
            "positions": [
                1.9558148141618465,
                -2.0696939275552246,
                1.3368279736533557,
                0.35427191916411493,
                -0.2375443325656963,
                -1.180687729499544
            ]
        },
        {
            "positions": [
                1.9953289987612957,
                -2.0076354867702664,
                1.3655246815507538,
                0.2874163982177057,
                -0.16159709482575357,
                -1.2935313234368426
            ]
        },
        {
            "positions": [
                2.0348431833607448,
                -1.945577045985308,
                1.394221389448152,
                0.22056087727129636,
                -0.08564985708581074,
                -1.4063749173741416
            ]
        },
        {
            "positions": [
                2.074357367960194,
                -1.8835186052003494,
                1.4229180973455504,
                0.15370535632488713,
                -0.009702619345868135,
                -1.5192185113114403
            ]
        },
        {
            "positions": [
                2.113871552559643,
                -1.8214601644153912,
                1.4516148052429485,
                0.0868498353784779,
                0.06624461839407458,
                -1.632062105248739
            ]
        },
        {
            "positions": [
                2.153385737159092,
                -1.7594017236304327,
                1.480311513140347,
                0.01999431443206845,
                0.1421918561340174,
                -1.7449056991860377
            ]
        },
        {
            "positions": [
                2.192899921758541,
                -1.6973432828454742,
                1.5090082210377451,
                -0.04686120651434089,
                0.21813909387396024,
                -1.8577492931233366
            ]
        },
        {
            "positions": [
                2.23241410635799,
                -1.635284842060516,
                1.5377049289351434,
                -0.11371672746075001,
                0.29408633161390285,
                -1.970592887060635
            ]
        },
        {
            "positions": [
                2.271928290957439,
                -1.5732264012755575,
                1.5664016368325417,
                -0.18057224840715946,
                0.37003356935384546,
                -2.0834364809979338
            ]
        },
        {
            "positions": [
                2.311442475556888,
                -1.511167960490599,
                1.5950983447299398,
                -0.2474277693535687,
                0.4459808070937883,
                -2.196280074935233
            ]
        },
        {
            "positions": [
                2.350956660156337,
                -1.4491095197056407,
                1.6237950526273381,
                -0.3142832902999779,
                0.5219280448337309,
                -2.309123668872531
            ]
        },
        {
            "positions": [
                2.3904708447557863,
                -1.3870510789206822,
                1.6524917605247365,
                -0.38113881124638715,
                0.5978752825736737,
                -2.4219672628098303
            ]
        },
        {
            "positions": [
                2.4299850293552354,
                -1.3249926381357238,
                1.6811884684221345,
                -0.4479943321927966,
                0.6738225203136166,
                -2.5348108567471295
            ]
        },
        {
            "positions": [
                2.469499213954684,
                -1.2629341973507655,
                1.7098851763195329,
                -0.5148498531392058,
                0.7497697580535592,
                -2.6476544506844277
            ]
        },
        {
            "positions": [
                2.509013398554133,
                -1.200875756565807,
                1.7385818842169312,
                -0.5817053740856151,
                0.8257169957935018,
                -2.760498044621727
            ]
        },
        {
            "positions": [
                2.5485275831535823,
                -1.1388173157808485,
                1.7672785921143292,
                -0.6485608950320245,
                0.9016642335334446,
                -2.873341638559025
            ]
        },
        {
            "positions": [
                2.5880417677530314,
                -1.0767588749958903,
                1.7959753000117276,
                -0.7154164159784335,
                0.9776114712733872,
                -2.9861852324963243
            ]
        },
        {
            "positions": [
                2.6275559523524805,
                -1.0147004342109318,
                1.8246720079091259,
                -0.782271936924843,
                1.05355870901333,
                -3.0990288264336225
            ]
        }
    ]
}