{
    "goal": {
        "global_pose": {
            "orientation": {
                "w": -0.00223480608172531,
                "x": 0.0024358444001904467,
                "y": 0.7094548369677653,
                "z": -0.704743149386269
            },
            "position": {
                "x": -0.37947507619857795,
                "y": -0.6371506643295288,
                "z": 0.19426114857196808
            }
        },
        "name": "move_to_magneteinheit_C"
    },
    "id": "KPIECE_move_to_magneteinheit_C_109",
    "joint_names": [
        "shoulder_pan_joint",
        "shoulder_lift_joint",
        "elbow_joint",
        "wrist_1_joint",
        "wrist_2_joint",
        "wrist_3_joint"
    ],
    "metrics": {
        "cart_traj_len": 0.5985979761973376,
        "distance_elbow_joint": 0.20811505434938748,
        "distance_shoulder_lift_joint": 0.26127778614043073,
        "distance_shoulder_pan_joint": 0.8882488523777965,
        "distance_wrist_1_joint": 0.6842489670012178,
        "distance_wrist_2_joint": 1.5276521385108577,
        "distance_wrist_3_joint": 2.754344301130394,
        "smoothness": 1.1832809603347878,
        "time": 0.095508425,
        "traj_len": 2.5147340017405586,
        "weighted_distance": 3.747596137163521
    },
    "planner": "KPIECE",
    "start": {
        "state": {
            "elbow_joint": 1.9565354010623817,
            "shoulder_lift_joint": -1.4165861575791021,
            "shoulder_pan_joint": -1.6717766225146293,
            "wrist_1_joint": -0.5286633292919765,
            "wrist_2_joint": 1.472756589071564,
            "wrist_3_joint": -3.1238370188695823
        }
    },
    "waypoints": [
        {
            "positions": [
                -1.6717766225146293,
                -1.4165861575791021,
                1.9565354010623817,
                -0.5286633292919765,
                1.472756589071564,
                -3.1238370188695823
            ]
        },
        {
            "positions": [
                -1.733986937066548,
                -1.41706784740283,
                1.9683281121657101,
                -0.5073653503798692,
                1.343072210968231,
                -2.972218473203316
            ]
        },
        {
            "positions": [
                -1.7961972516184668,
                -1.4175495372265579,
                1.9801208232690388,
                -0.48606737146776186,
                1.2133878328648982,
                -2.82059992753705
            ]
        },
        {
            "positions": [
                -1.8584075661703854,
                -1.4180312270502857,
                1.9919135343723673,
                -0.4647693925556546,
                1.0837034547615652,
                -2.6689813818707835
            ]
        },
        {
            "positions": [
                -1.920617880722304,
                -1.4185129168740136,
                2.003706245475696,
                -0.4434714136435473,
                0.9540190766582323,
                -2.5173628362045175
            ]
        },
        {
            "positions": [
                -1.9828281952742228,
                -1.4189946066977412,
                2.0154989565790244,
                -0.42217343473144,
                0.8243346985548993,
                -2.365744290538251
            ]
        },
        {
            "positions": [
                -2.045038509826141,
                -1.4194762965214691,
                2.027291667682353,
                -0.4008754558193327,
                0.6946503204515664,
                -2.2141257448719847
            ]
        },
        {
            "positions": [
                -2.1072488243780603,
                -1.419957986345197,
                2.039084378785682,
                -0.37957747690722543,
                0.5649659423482335,
                -2.0625071992057187
            ]
        },
        {
            "positions": [
                -2.169459138929979,
                -1.4204396761689249,
                2.0508770898890103,
                -0.35827949799511816,
                0.4352815642449006,
                -1.9108886535394525
            ]
        },
        {
            "positions": [
                -2.2316694534818975,
                -1.4209213659926527,
                2.0626698009923388,
                -0.3369815190830108,
                0.3055971861415675,
                -1.759270107873186
            ]
        },
        {
            "positions": [
                -2.2798049641009097,
                -1.386947315705582,
                2.0674928576758647,
                -0.38206653448133837,
                0.3429156798301272,
                -1.9190874901837653
            ]
        },
        {
            "positions": [
                -2.3279404747199224,
                -1.3529732654185114,
                2.0723159143593906,
                -0.4271515498796659,
                0.38023417351868694,
                -2.0789048724943444
            ]
        },
        {
            "positions": [
                -2.3760759853389346,
                -1.3189992151314405,
                2.077138971042917,
                -0.4722365652779934,
                0.41755266720724665,
                -2.2387222548049235
            ]
        },
        {
            "positions": [
                -2.4242114959579473,
                -1.2850251648443698,
                2.081962027726443,
                -0.517321580676321,
                0.45487116089580637,
                -2.398539637115503
            ]
        },
        {
            "positions": [
                -2.4723470065769595,
                -1.2510511145572991,
                2.0867850844099687,
                -0.5624065960746485,
                0.4921896545843661,
                -2.558357019426082
            ]
        },
        {
            "positions": [
                -2.4946442930788075,
                -1.2312960000669657,
                2.0854869076336,
                -0.5959533510185868,
                0.5177745229190901,
                -2.659854032004426
            ]
        },
        {
            "positions": [
                -2.516941579580656,
                -1.2115408855766323,
                2.0841887308572313,
                -0.629500105962525,
                0.5433593912538142,
                -2.76135104458277
            ]
        },
        {
            "positions": [
                -2.5025802811433993,
                -1.1956868531396792,
                2.05909905837421,
                -0.6961829626001044,
                0.5842695680766857,
                -2.890583195724241
            ]
        },
        {
            "positions": [
                -2.488218982706143,
                -1.1798328207027258,
                2.0340093858911894,
                -0.7628658192376837,
                0.6251797448995572,
                -3.0198153468657125
            ]
        },
        {
            "positions": [
                -2.473857684268886,
                -1.1639787882657726,
                2.008919713408168,
                -0.829548675875263,
                0.6660899217224288,
                -3.149047498007184
            ]
        }
    ]
}