{
    "goal": {
        "global_pose": {
            "orientation": {
                "w": 0.7047431493862688,
                "x": -0.7094548369677653,
                "y": 0.0024358444001904,
                "z": -0.0022348060817251984
            },
            "position": {
                "x": -0.39052492380142206,
                "y": 0.3671506643295288,
                "z": 0.19426114857196808
            }
        },
        "name": "move_to_magneteinheit_D"
    },
    "id": "KPIECE_move_to_magneteinheit_D_127",
    "joint_names": [
        "shoulder_pan_joint",
        "shoulder_lift_joint",
        "elbow_joint",
        "wrist_1_joint",
        "wrist_2_joint",
        "wrist_3_joint"
    ],
    "metrics": {
        "cart_traj_len": 4.914360664653746,
        "distance_elbow_joint": 3.551014342990684,
        "distance_shoulder_lift_joint": 2.6809518701284905,
        "distance_shoulder_pan_joint": 5.87055699985564,
        "distance_wrist_1_joint": 2.4072788780324563,
        "distance_wrist_2_joint": 1.1390368686787011,
        "distance_wrist_3_joint": 3.6276456610048955,
        "smoothness": 0.6061023873143909,
        "time": 0.409199576,
        "traj_len": 4.390499358921588,
        "weighted_distance": 5.484349705244172
    },
    "planner": "KPIECE",
    "start": {
        "state": {
            "elbow_joint": 0.749534889911806,
            "shoulder_lift_joint": -0.6476975780787326,
            "shoulder_pan_joint": -2.711696901376241,
            "wrist_1_joint": -0.07506478083263063,
            "wrist_2_joint": 0.43296659715538205,
            "wrist_3_joint": -3.14703540197715
        }
    },
    "waypoints": [
        {
            "positions": [
                -2.711696901376241,
                -0.6476975780787326,
                0.749534889911806,
                -0.07506478083263063,
                0.43296659715538205,
                -3.14703540197715
            ]
        },
        {
            "positions": [
                -2.7726954083263933,
                -0.7455302721317948,
                0.7791550312529812,
                -0.13383571601588845,
                0.4962387067166788,
                -3.1787470004553047
            ]
        },
        {
            "positions": [
                -2.833693915276545,
                -0.843362966184857,
                0.8087751725941565,
                -0.19260665119914627,
                0.5595108162779756,
                -3.2104585989334593
            ]
        },
        {
            "positions": [
                -2.894692422226697,
                -0.941195660237919,
                0.8383953139353317,
                -0.25137758638240415,
                0.6227829258392723,
                -3.242170197411614
            ]
        },
        {
            "positions": [
                -2.955690929176849,
                -1.039028354290981,
                0.868015455276507,
                -0.31014852156566197,
                0.6860550354005691,
                -3.2738817958897686
            ]
        },
        {
            "positions": [
                -3.016689436127001,
                -1.1368610483440433,
                0.8976355966176823,
                -0.3689194567489198,
                0.7493271449618659,
                -3.305593394367923
            ]
        },
        {
            "positions": [
                -3.077687943077153,
                -1.2346937423971056,
                0.9272557379588576,
                -0.4276903919321776,
                0.8125992545231626,
                -3.337304992846078
            ]
        },
        {
            "positions": [
                -3.138686450027305,
                -1.3325264364501677,
                0.9568758793000329,
                -0.48646132711543544,
                0.8758713640844594,
                -3.3690165913242325
            ]
        },
        {
            "positions": [
                -3.011481046947049,
                -1.316625314044109,
                0.8781297921301398,
                -0.4264221442979304,
                0.870365494078245,
                -3.2705678588240334
            ]
        },
        {
            "positions": [
                -2.884275643866794,
                -1.3007241916380505,
                0.7993837049602466,
                -0.3663829614804254,
                0.8648596240720305,
                -3.1721191263238344
            ]
        },
        {
            "positions": [
                -2.757070240786538,
                -1.2848230692319917,
                0.7206376177903534,
                -0.3063437786629203,
                0.8593537540658162,
                -3.0736703938236354
            ]
        },
        {
            "positions": [
                -2.629864837706282,
                -1.2689219468259332,
                0.6418915306204602,
                -0.24630459584541528,
                0.8538478840596017,
                -2.9752216613234364
            ]
        },
        {
            "positions": [
                -2.5026594346260267,
                -1.2530208244198746,
                0.563145443450567,
                -0.18626541302791022,
                0.8483420140533873,
                -2.8767729288232373
            ]
        },
        {
            "positions": [
                -2.375454031545771,
                -1.237119702013816,
                0.4843993562806738,
                -0.1262262302104052,
                0.8428361440471728,
                -2.7783241963230383
            ]
        },
        {
            "positions": [
                -2.248248628465515,
                -1.2212185796077575,
                0.4056532691107807,
                -0.06618704739290016,
                0.8373302740409584,
                -2.6798754638228393
            ]
        },
        {
            "positions": [
                -2.121043225385259,
                -1.2053174572016987,
                0.3269071819408875,
                -0.006147864575395123,
                0.831824404034744,
                -2.5814267313226402
            ]
        },
        {
            "positions": [
                -1.9938378223050037,
                -1.1894163347956401,
                0.24816109477099435,
                0.05389131824210991,
                0.8263185340285295,
                -2.482977998822441
            ]
        },
        {
            "positions": [
                -1.866632419224748,
                -1.1735152123895816,
                0.16941500760110118,
                0.113930501059615,
                0.8208126640223151,
                -2.384529266322242
            ]
        },
        {
            "positions": [
                -1.7394270161444925,
                -1.157614089983523,
                0.090668920431208,
                0.17396968387711997,
                0.8153067940161006,
                -2.286080533822043
            ]
        },
        {
            "positions": [
                -1.6122216130642366,
                -1.1417129675774644,
                0.011922833261314714,
                0.23400886669462506,
                0.8098009240098862,
                -2.187631801321844
            ]
        },
        {
            "positions": [
                -1.485016209983981,
                -1.1258118451714059,
                -0.06682325390857846,
                0.29404804951213004,
                0.8042950540036717,
                -2.0891830688216446
            ]
        },
        {
            "positions": [
                -1.3578108069037251,
                -1.109910722765347,
                -0.14556934107847153,
                0.3540872323296351,
                0.7987891839974574,
                -1.9907343363214458
            ]
        },
        {
            "positions": [
                -1.2306054038234695,
                -1.0940096003592885,
                -0.2243154282483648,
                0.4141264151471401,
                0.793283313991243,
                -1.8922856038212468
            ]
        },
        {
            "positions": [
                -1.1034000007432136,
                -1.07810847795323,
                -0.3030615154182579,
                0.4741655979646452,
                0.7877774439850285,
                -1.7938368713210477
            ]
        },
        {
            "positions": [
                -0.9761945976629582,
                -1.0622073555471714,
                -0.38180760258815116,
                0.5342047807821502,
                0.7822715739788141,
                -1.6953881388208487
            ]
        },
        {
            "positions": [
                -0.8489891945827024,
                -1.0463062331411128,
                -0.4605536897580442,
                0.5942439635996553,
                0.7767657039725996,
                -1.5969394063206497
            ]
        },
        {
            "positions": [
                -0.7217837915024465,
                -1.030405110735054,
                -0.5392997769279375,
                0.6542831464171603,
                0.7712598339663852,
                -1.4984906738204504
            ]
        },
        {
            "positions": [
                -0.5945783884221911,
                -1.0145039883289955,
                -0.6180458640978306,
                0.7143223292346654,
                0.7657539639601707,
                -1.4000419413202516
            ]
        },
        {
            "positions": [
                -0.4673729853419353,
                -0.9986028659229369,
                -0.6967919512677239,
                0.7743615120521703,
                0.7602480939539563,
                -1.3015932088200524
            ]
        },
        {
            "positions": [
                -0.34016758226167987,
                -0.9827017435168783,
                -0.7755380384376169,
                0.8344006948696754,
                0.7547422239477419,
                -1.2031444763198538
            ]
        },
        {
            "positions": [
                -0.21296217918142357,
                -0.9668006211108198,
                -0.8542841256075102,
                0.8944398776871807,
                0.7492363539415274,
                -1.1046957438196543
            ]
        },
        {
            "positions": [
                -0.08575677610116816,
                -0.9508994987047611,
                -0.9330302127774035,
                0.9544790605046856,
                0.743730483935313,
                -1.0062470113194553
            ]
        },
        {
            "positions": [
                0.04144862697908769,
                -0.9349983762987025,
                -1.0117762999472966,
                1.0145182433221906,
                0.7382246139290987,
                -0.9077982788192562
            ]
        },
        {
            "positions": [
                0.1686540300593431,
                -0.9190972538926439,
                -1.0905223871171899,
                1.0745574261396955,
                0.7327187439228842,
                -0.8093495463190572
            ]
        },
        {
            "positions": [
                0.29585943313959895,
                -0.9031961314865853,
                -1.1692684742870831,
                1.1345966089572008,
                0.7272128739166697,
                -0.7109008138188582
            ]
        },
        {
            "positions": [
                0.4230648362198548,
                -0.8872950090805267,
                -1.248014561456976,
                1.1946357917747057,
                0.7217070039104553,
                -0.6124520813186591
            ]
        },
        {
            "positions": [
                0.5502702393001102,
                -0.8713938866744682,
                -1.3267606486268693,
                1.2546749745922108,
                0.7162011339042409,
                -0.5140033488184601
            ]
        },
        {
            "positions": [
                0.6774756423803661,
                -0.8554927642684095,
                -1.4055067357967626,
                1.3147141574097156,
                0.7106952638980264,
                -0.41555461631826107
            ]
        },
        {
            "positions": [
                0.8046810454606219,
                -0.8395916418623508,
                -1.4842528229666558,
                1.374753340227221,
                0.705189393891812,
                -0.31710588381806204
            ]
        },
        {
            "positions": [
                0.9318864485408778,
                -0.8236905194562922,
                -1.5629989101365487,
                1.4347925230447258,
                0.6996835238855976,
                -0.218657151317863
            ]
        },
        {
            "positions": [
                1.0590918516211332,
                -0.8077893970502337,
                -1.6417449973064417,
                1.494831705862231,
                0.6941776538793831,
                -0.1202084188176642
            ]
        },
        {
            "positions": [
                0.9458382925705751,
                -0.9415517581736084,
                -1.7094770406697128,
                1.4935054059738688,
                0.6474105273753333,
                -0.10594875525845994
            ]
        },
        {
            "positions": [
                0.8325847335200169,
                -1.075314119296983,
                -1.7772090840329842,
                1.4921791060855065,
                0.6006434008712835,
                -0.09168909169925568
            ]
        },
        {
            "positions": [
                0.7193311744694588,
                -1.2090764804203575,
                -1.8449411273962553,
                1.4908528061971444,
                0.5538762743672339,
                -0.07742942814005141
            ]
        },
        {
            "positions": [
                0.6060776154189006,
                -1.3428388415437325,
                -1.9126731707595266,
                1.4895265063087821,
                0.5071091478631841,
                -0.06316976458084715
            ]
        },
        {
            "positions": [
                0.4928240563683425,
                -1.476601202667107,
                -1.9804052141227977,
                1.48820020642042,
                0.4603420213591343,
                -0.04891010102164289
            ]
        },
        {
            "positions": [
                0.37957049731778436,
                -1.6103635637904814,
                -2.048137257486069,
                1.4868739065320578,
                0.4135748948550846,
                -0.034650437462438635
            ]
        },
        {
            "positions": [
                0.26631693826722624,
                -1.744125924913856,
                -2.11586930084934,
                1.4855476066436957,
                0.3668077683510348,
                -0.020390773903234363
            ]
        },
        {
            "positions": [
                0.15306337921666802,
                -1.877888286037231,
                -2.183601344212611,
                1.4842213067553334,
                0.320040641846985,
                -0.006131110344030105
            ]
        },
        {
            "positions": [
                0.0398098201661099,
                -2.0116506471606055,
                -2.2513333875758827,
                1.4828950068669713,
                0.2732735153429352,
                0.008128553215174167
            ]
        },
        {
            "positions": [
                -0.07344373888444822,
                -2.14541300828398,
                -2.319065430939154,
                1.481568706978609,
                0.22650638883888552,
                0.02238821677437841
            ]
        },
        {
            "positions": [
                -0.18669729793500628,
                -2.279175369407355,
                -2.386797474302425,
                1.480242407090247,
                0.1797392623348357,
                0.03664788033358267
            ]
        }
    ]
}