{
    "goal": {
        "global_pose": {
            "orientation": {
                "w": -0.00223480608172531,
                "x": 0.0024358444001904467,
                "y": 0.7094548369677653,
                "z": -0.704743149386269
            },
            "position": {
                "x": -0.37947507619857795,
                "y": -0.6371506643295288,
                "z": 0.19426114857196808
            }
        },
        "name": "move_to_magneteinheit_C"
    },
    "id": "KPIECE_move_to_magneteinheit_C_106",
    "joint_names": [
        "shoulder_pan_joint",
        "shoulder_lift_joint",
        "elbow_joint",
        "wrist_1_joint",
        "wrist_2_joint",
        "wrist_3_joint"
    ],
    "metrics": {
        "cart_traj_len": 0.8742740016173993,
        "distance_elbow_joint": 0.812492517857752,
        "distance_shoulder_lift_joint": 0.25495183819331535,
        "distance_shoulder_pan_joint": 0.8020645621829641,
        "distance_wrist_1_joint": 0.9090736828286003,
        "distance_wrist_2_joint": 1.488215574464512,
        "distance_wrist_3_joint": 0.6214903576026423,
        "smoothness": 2.144701709212988,
        "time": 0.762072728,
        "traj_len": 2.210947428848046,
        "weighted_distance": 2.9203695837390486
    },
    "planner": "KPIECE",
    "start": {
        "state": {
            "elbow_joint": 1.9565354010623817,
            "shoulder_lift_joint": -1.4165861575791021,
            "shoulder_pan_joint": -1.6717766225146293,
            "wrist_1_joint": -0.5286633292919765,
            "wrist_2_joint": 1.472756589071564,
            "wrist_3_joint": -3.1238370188695823
        }
    },
    "waypoints": [
        {
            "positions": [
                -1.6717766225146293,
                -1.4165861575791021,
                1.9565354010623817,
                -0.5286633292919765,
                1.472756589071564,
                -3.1238370188695823
            ]
        },
        {
            "positions": [
                -1.745546909283997,
                -1.399557693094795,
                1.9650938451370972,
                -0.5800912999705541,
                1.334469421577248,
                -3.07407940522112
            ]
        },
        {
            "positions": [
                -1.8193171960533645,
                -1.3825292286104878,
                1.973652289211813,
                -0.6315192706491318,
                1.1961822540829319,
                -3.0243217915726577
            ]
        },
        {
            "positions": [
                -1.893087482822732,
                -1.3655007641261805,
                1.9822107332865284,
                -0.6829472413277095,
                1.0578950865886156,
                -2.9745641779241954
            ]
        },
        {
            "positions": [
                -1.9668577695920997,
                -1.3484722996418734,
                1.990769177361244,
                -0.7343752120062871,
                0.9196079190942996,
                -2.9248065642757326
            ]
        },
        {
            "positions": [
                -2.0406280563614674,
                -1.3314438351575664,
                1.9993276214359597,
                -0.7858031826848648,
                0.7813207515999834,
                -2.8750489506272703
            ]
        },
        {
            "positions": [
                -2.114398343130835,
                -1.314415370673259,
                2.007886065510675,
                -0.8372311533634424,
                0.6430335841056674,
                -2.825291336978808
            ]
        },
        {
            "positions": [
                -2.2016734249486323,
                -1.3019436532043271,
                2.1032016736120474,
                -0.7625090932691778,
                0.5639297732698435,
                -2.8440012916220723
            ]
        },
        {
            "positions": [
                -2.28894850676643,
                -1.289471935735395,
                2.1985172817134195,
                -0.6877870331749132,
                0.48482596243401976,
                -2.8627112462653366
            ]
        },
        {
            "positions": [
                -2.3762235885842276,
                -1.2770002182664628,
                2.2938328898147913,
                -0.6130649730806487,
                0.4057221515981959,
                -2.881421200908601
            ]
        },
        {
            "positions": [
                -2.463498670402025,
                -1.2645285007975309,
                2.3891484979161635,
                -0.538342912986384,
                0.3266183407623721,
                -2.900131155551865
            ]
        },
        {
            "positions": [
                -2.4660842989759173,
                -1.2388049554445948,
                2.294178642665171,
                -0.613747317581403,
                0.41213767230120213,
                -2.962157369836568
            ]
        },
        {
            "positions": [
                -2.468669927549809,
                -1.2130814100916587,
                2.1992087874141784,
                -0.6891517221764221,
                0.4976570038400322,
                -3.0241835841212703
            ]
        },
        {
            "positions": [
                -2.471255556123701,
                -1.1873578647387228,
                2.104238932163186,
                -0.764556126771441,
                0.5831763353788622,
                -3.086209798405973
            ]
        },
        {
            "positions": [
                -2.4738411846975934,
                -1.1616343193857868,
                2.0092690769121933,
                -0.83996053136646,
                0.6686956669176922,
                -3.148236012690676
            ]
        }
    ]
}