{
    "goal": {
        "global_pose": {
            "orientation": {
                "w": -0.00223480608172531,
                "x": 0.0024358444001904467,
                "y": 0.7094548369677653,
                "z": -0.704743149386269
            },
            "position": {
                "x": -0.37947507619857795,
                "y": -0.6371506643295288,
                "z": 0.19426114857196808
            }
        },
        "name": "move_to_magneteinheit_C"
    },
    "id": "KPIECE_move_to_magneteinheit_C_34",
    "joint_names": [
        "shoulder_pan_joint",
        "shoulder_lift_joint",
        "elbow_joint",
        "wrist_1_joint",
        "wrist_2_joint",
        "wrist_3_joint"
    ],
    "metrics": {
        "cart_traj_len": 3.2328565617013547,
        "distance_elbow_joint": 1.9816461998488846,
        "distance_shoulder_lift_joint": 1.9426318512885705,
        "distance_shoulder_pan_joint": 2.3473455788481083,
        "distance_wrist_1_joint": 1.9638760854694421,
        "distance_wrist_2_joint": 2.084896204154669,
        "distance_wrist_3_joint": 2.2753102235793,
        "smoothness": 1.0508467949732345,
        "time": 1.081944402,
        "traj_len": 3.5490429897634344,
        "weighted_distance": 4.603813514899543
    },
    "planner": "KPIECE",
    "start": {
        "state": {
            "elbow_joint": 1.9565354010623817,
            "shoulder_lift_joint": -1.4165861575791021,
            "shoulder_pan_joint": -1.6717766225146293,
            "wrist_1_joint": -0.5286633292919765,
            "wrist_2_joint": 1.472756589071564,
            "wrist_3_joint": -3.1238370188695823
        }
    },
    "waypoints": [
        {
            "positions": [
                -1.6717766225146293,
                -1.4165861575791021,
                1.9565354010623817,
                -0.5286633292919765,
                1.472756589071564,
                -3.1238370188695823
            ]
        },
        {
            "positions": [
                -1.5557708544245363,
                -1.4353161952773985,
                1.9529534084054276,
                -0.5396727087154027,
                1.3160342176901692,
                -3.098009697624703
            ]
        },
        {
            "positions": [
                -1.508323793280152,
                -1.4989211981737554,
                1.8862774992131062,
                -0.4760547944387127,
                1.2552790434337728,
                -3.0130619325479056
            ]
        },
        {
            "positions": [
                -1.4608767321357679,
                -1.562526201070112,
                1.8196015900207847,
                -0.4124368801620226,
                1.1945238691773765,
                -2.928114167471108
            ]
        },
        {
            "positions": [
                -1.4134296709913836,
                -1.6261312039664688,
                1.7529256808284632,
                -0.34881896588533257,
                1.1337686949209804,
                -2.843166402394311
            ]
        },
        {
            "positions": [
                -1.3659826098469996,
                -1.6897362068628254,
                1.6862497716361418,
                -0.2852010516086425,
                1.073013520664584,
                -2.7582186373175133
            ]
        },
        {
            "positions": [
                -1.3185355487026154,
                -1.7533412097591823,
                1.6195738624438203,
                -0.22158313733195245,
                1.0122583464081878,
                -2.6732708722407157
            ]
        },
        {
            "positions": [
                -1.2710884875582311,
                -1.816946212655539,
                1.5528979532514988,
                -0.1579652230552624,
                0.9515031721517915,
                -2.5883231071639186
            ]
        },
        {
            "positions": [
                -1.223641426413847,
                -1.8805512155518957,
                1.4862220440591776,
                -0.09434730877857234,
                0.8907479978953954,
                -2.503375342087121
            ]
        },
        {
            "positions": [
                -1.1761943652694629,
                -1.9441562184482524,
                1.4195461348668559,
                -0.03072939450188228,
                0.8299928236389991,
                -2.4184275770103234
            ]
        },
        {
            "positions": [
                -1.1287473041250786,
                -2.007761221344609,
                1.3528702256745346,
                0.03288851977480778,
                0.7692376493826028,
                -2.3334798119335263
            ]
        },
        {
            "positions": [
                -1.0813002429806944,
                -2.071366224240966,
                1.286194316482213,
                0.09650643405149784,
                0.7084824751262064,
                -2.2485320468567283
            ]
        },
        {
            "positions": [
                -1.0338531818363101,
                -2.1349712271373225,
                1.2195184072898917,
                0.1601243483281879,
                0.6477273008698102,
                -2.163584281779931
            ]
        },
        {
            "positions": [
                -0.9864061206919259,
                -2.1985762300336793,
                1.15284249809757,
                0.22374226260487795,
                0.5869721266134139,
                -2.0786365167031335
            ]
        },
        {
            "positions": [
                -0.9389590595475418,
                -2.262181232930036,
                1.0861665889052488,
                0.287360176881568,
                0.5262169523570177,
                -1.9936887516263362
            ]
        },
        {
            "positions": [
                -1.0507870461304631,
                -2.214839770222203,
                1.1576274128566386,
                0.2261426794741752,
                0.572357150608654,
                -2.031327586417465
            ]
        },
        {
            "positions": [
                -1.1626150327133846,
                -2.16749830751437,
                1.2290882368080285,
                0.16492518206678242,
                0.6184973488602904,
                -2.068966421208594
            ]
        },
        {
            "positions": [
                -1.2744430192963059,
                -2.120156844806537,
                1.3005490607594183,
                0.10370768465938962,
                0.6646375471119267,
                -2.106605255999723
            ]
        },
        {
            "positions": [
                -1.3862710058792274,
                -2.072815382098704,
                1.3720098847108082,
                0.0424901872519968,
                0.7107777453635631,
                -2.1442440907908513
            ]
        },
        {
            "positions": [
                -1.4980989924621486,
                -2.025473919390871,
                1.4434707086621983,
                -0.018727310155396026,
                0.7569179436151994,
                -2.1818829255819803
            ]
        },
        {
            "positions": [
                -1.60992697904507,
                -1.978132456683038,
                1.514931532613588,
                -0.07994480756278877,
                0.8030581418668357,
                -2.219521760373109
            ]
        },
        {
            "positions": [
                -1.7217549656279916,
                -1.9307909939752048,
                1.586392356564978,
                -0.14116230497018162,
                0.8491983401184721,
                -2.2571605951642377
            ]
        },
        {
            "positions": [
                -1.8335829522109128,
                -1.883449531267372,
                1.6578531805163679,
                -0.2023798023775744,
                0.8953385383701083,
                -2.2947994299553667
            ]
        },
        {
            "positions": [
                -1.945410938793834,
                -1.8361080685595388,
                1.7293140044677577,
                -0.26359729978496726,
                0.9414787366217447,
                -2.3324382647464956
            ]
        },
        {
            "positions": [
                -2.0572389253767556,
                -1.7887666058517058,
                1.8007748284191476,
                -0.32481479719236006,
                0.987618934873381,
                -2.370077099537624
            ]
        },
        {
            "positions": [
                -2.169066911959677,
                -1.7414251431438728,
                1.8722356523705375,
                -0.38603229459975286,
                1.0337591331250175,
                -2.407715934328753
            ]
        },
        {
            "positions": [
                -2.2808948985425985,
                -1.69408368043604,
                1.9436964763219273,
                -0.44724979200714554,
                1.0798993313766538,
                -2.445354769119882
            ]
        },
        {
            "positions": [
                -2.39272288512552,
                -1.6467422177282067,
                2.015157300273317,
                -0.5084672894145384,
                1.1260395296282901,
                -2.4829936039110105
            ]
        },
        {
            "positions": [
                -2.504550871708441,
                -1.5994007550203737,
                2.086618124224707,
                -0.5696847868219312,
                1.1721797278799264,
                -2.5206324387021395
            ]
        },
        {
            "positions": [
                -2.5073748136738048,
                -1.527485031391836,
                2.0927758768652676,
                -0.6124803582102228,
                1.1129897259894554,
                -2.6203787379459
            ]
        },
        {
            "positions": [
                -2.510198755639168,
                -1.4555693077632983,
                2.0989336295058285,
                -0.6552759295985143,
                1.0537997240989845,
                -2.720125037189661
            ]
        },
        {
            "positions": [
                -2.513022697604532,
                -1.3836535841347606,
                2.105091382146389,
                -0.6980715009868059,
                0.9946097222085134,
                -2.8198713364334216
            ]
        },
        {
            "positions": [
                -2.499534571663188,
                -1.3108172084206402,
                2.074307183996185,
                -0.744872215180363,
                0.8896684601265797,
                -2.9261977936097443
            ]
        },
        {
            "positions": [
                -2.4860464457218447,
                -1.23798083270652,
                2.0435229858459816,
                -0.7916729293739199,
                0.7847271980446461,
                -3.0325242507860675
            ]
        },
        {
            "positions": [
                -2.472558319780501,
                -1.1651444569923997,
                2.0127387876957776,
                -0.8384736435674769,
                0.6797859359627124,
                -3.13885070796239
            ]
        }
    ]
}