{
    "goal": {
        "global_pose": {
            "orientation": {
                "w": -0.00223480608172531,
                "x": 0.0024358444001904467,
                "y": 0.7094548369677653,
                "z": -0.704743149386269
            },
            "position": {
                "x": -0.37947507619857795,
                "y": -0.6371506643295288,
                "z": 0.19426114857196808
            }
        },
        "name": "move_to_magneteinheit_C"
    },
    "id": "KPIECE_move_to_magneteinheit_C_116",
    "joint_names": [
        "shoulder_pan_joint",
        "shoulder_lift_joint",
        "elbow_joint",
        "wrist_1_joint",
        "wrist_2_joint",
        "wrist_3_joint"
    ],
    "metrics": {
        "cart_traj_len": 6.198003205327852,
        "distance_elbow_joint": 0.052151511829420016,
        "distance_shoulder_lift_joint": 3.14482920921567,
        "distance_shoulder_pan_joint": 9.797919756122635,
        "distance_wrist_1_joint": 1.8674158635964684,
        "distance_wrist_2_joint": 0.806934423071142,
        "distance_wrist_3_joint": 4.810022926133712,
        "smoothness": 0.6511118964009346,
        "time": 0.451235047,
        "traj_len": 4.525403152203022,
        "weighted_distance": 5.724829240152415
    },
    "planner": "KPIECE",
    "start": {
        "state": {
            "elbow_joint": 1.9565354010623817,
            "shoulder_lift_joint": -1.4165861575791021,
            "shoulder_pan_joint": -1.6717766225146293,
            "wrist_1_joint": -0.5286633292919765,
            "wrist_2_joint": 1.472756589071564,
            "wrist_3_joint": -3.1238370188695823
        }
    },
    "waypoints": [
        {
            "positions": [
                -1.6717766225146293,
                -1.4165861575791021,
                1.9565354010623817,
                -0.5286633292919765,
                1.472756589071564,
                -3.1238370188695823
            ]
        },
        {
            "positions": [
                -1.4918924255800092,
                -1.4744172469904173,
                1.957181496911799,
                -0.5719656766735213,
                1.4663304885709276,
                -3.0281232982919373
            ]
        },
        {
            "positions": [
                -1.3120082286453891,
                -1.5322483364017323,
                1.9578275927612165,
                -0.6152680240550661,
                1.4599043880702913,
                -2.9324095777142922
            ]
        },
        {
            "positions": [
                -1.1321240317107693,
                -1.5900794258130475,
                1.958473688610634,
                -0.6585703714366109,
                1.4534782875696548,
                -2.8366958571366467
            ]
        },
        {
            "positions": [
                -0.952239834776149,
                -1.6479105152243627,
                1.9591197844600512,
                -0.7018727188181557,
                1.4470521870690185,
                -2.7409821365590017
            ]
        },
        {
            "positions": [
                -0.7723556378415289,
                -1.705741604635678,
                1.9597658803094686,
                -0.7451750661997004,
                1.4406260865683822,
                -2.6452684159813566
            ]
        },
        {
            "positions": [
                -0.592471440906909,
                -1.7635726940469931,
                1.960411976158886,
                -0.7884774135812452,
                1.434199986067746,
                -2.5495546954037116
            ]
        },
        {
            "positions": [
                -0.41258724397228885,
                -1.8214037834583081,
                1.9610580720083035,
                -0.83177976096279,
                1.4277738855671096,
                -2.4538409748260666
            ]
        },
        {
            "positions": [
                -0.23270304703766875,
                -1.8792348728696233,
                1.961704167857721,
                -0.8750821083443349,
                1.421347785066473,
                -2.3581272542484215
            ]
        },
        {
            "positions": [
                -0.052818850103048876,
                -1.9370659622809385,
                1.9623502637071384,
                -0.9183844557258796,
                1.4149216845658368,
                -2.2624135336707765
            ]
        },
        {
            "positions": [
                0.12706534683157145,
                -1.9948970516922535,
                1.9629963595565556,
                -0.9616868031074244,
                1.4084955840652005,
                -2.166699813093131
            ]
        },
        {
            "positions": [
                0.3069495437661913,
                -2.052728141103569,
                1.963642455405973,
                -1.0049891504889692,
                1.4020694835645642,
                -2.070986092515486
            ]
        },
        {
            "positions": [
                0.4868337407008114,
                -2.110559230514884,
                1.9642885512553905,
                -1.048291497870514,
                1.3956433830639279,
                -1.9752723719378409
            ]
        },
        {
            "positions": [
                0.6667179376354315,
                -2.168390319926199,
                1.964934647104808,
                -1.0915938452520588,
                1.3892172825632914,
                -1.8795586513601958
            ]
        },
        {
            "positions": [
                0.8466021345700516,
                -2.2262214093375143,
                1.9655807429542254,
                -1.1348961926336036,
                1.382791182062655,
                -1.7838449307825506
            ]
        },
        {
            "positions": [
                1.0264863315046717,
                -2.2840524987488293,
                1.9662268388036428,
                -1.1781985400151482,
                1.3763650815620188,
                -1.6881312102049055
            ]
        },
        {
            "positions": [
                1.2063705284392918,
                -2.3418835881601447,
                1.96687293465306,
                -1.2215008873966933,
                1.3699389810613825,
                -1.5924174896272605
            ]
        },
        {
            "positions": [
                1.386254725373912,
                -2.3997146775714597,
                1.9675190305024775,
                -1.264803234778238,
                1.3635128805607462,
                -1.4967037690496152
            ]
        },
        {
            "positions": [
                1.5661389223085316,
                -2.4575457669827747,
                1.9681651263518949,
                -1.308105582159783,
                1.3570867800601096,
                -1.4009900484719704
            ]
        },
        {
            "positions": [
                1.7460231192431521,
                -2.5153768563940897,
                1.9688112222013123,
                -1.3514079295413275,
                1.3506606795594733,
                -1.3052763278943251
            ]
        },
        {
            "positions": [
                1.9259073161777722,
                -2.573207945805405,
                1.9694573180507298,
                -1.3947102769228725,
                1.344234579058837,
                -1.2095626073166799
            ]
        },
        {
            "positions": [
                2.1057915131123917,
                -2.6310390352167206,
                1.9701034139001472,
                -1.4380126243044171,
                1.3378084785582007,
                -1.113848886739035
            ]
        },
        {
            "positions": [
                2.2856757100470118,
                -2.6888701246280355,
                1.9707495097495644,
                -1.4813149716859622,
                1.3313823780575644,
                -1.0181351661613895
            ]
        },
        {
            "positions": [
                2.465559906981632,
                -2.7467012140393505,
                1.9713956055989819,
                -1.5246173190675067,
                1.324956277556928,
                -0.9224214455837445
            ]
        },
        {
            "positions": [
                2.645444103916252,
                -2.8045323034506655,
                1.9720417014483993,
                -1.5679196664490516,
                1.3185301770562916,
                -0.8267077250060995
            ]
        },
        {
            "positions": [
                2.825328300850872,
                -2.862363392861981,
                1.9726877972978167,
                -1.6112220138305964,
                1.3121040765556553,
                -0.7309940044284544
            ]
        },
        {
            "positions": [
                2.63601348539526,
                -2.801682965221524,
                1.9739734799976019,
                -1.583191400292816,
                1.2890225797501114,
                -0.8173218584174753
            ]
        },
        {
            "positions": [
                2.4466986699396482,
                -2.741002537581067,
                1.975259162697387,
                -1.5551607867550359,
                1.2659410829445672,
                -0.9036497124064963
            ]
        },
        {
            "positions": [
                2.2573838544840363,
                -2.6803221099406107,
                1.9765448453971723,
                -1.5271301732172555,
                1.2428595861390233,
                -0.9899775663955172
            ]
        },
        {
            "positions": [
                2.068069039028425,
                -2.619641682300154,
                1.9778305280969575,
                -1.4990995596794752,
                1.219778089333479,
                -1.0763054203845381
            ]
        },
        {
            "positions": [
                1.878754223572813,
                -2.558961254659697,
                1.9791162107967426,
                -1.4710689461416948,
                1.1966965925279351,
                -1.162633274373559
            ]
        },
        {
            "positions": [
                1.689439408117201,
                -2.49828082701924,
                1.9804018934965277,
                -1.4430383326039147,
                1.173615095722391,
                -1.2489611283625799
            ]
        },
        {
            "positions": [
                1.5001245926615892,
                -2.437600399378783,
                1.9816875761963129,
                -1.4150077190661343,
                1.150533598916847,
                -1.3352889823516008
            ]
        },
        {
            "positions": [
                1.3108097772059775,
                -2.3769199717383267,
                1.9829732588960982,
                -1.386977105528354,
                1.1274521021113029,
                -1.4216168363406219
            ]
        },
        {
            "positions": [
                1.1214949617503653,
                -2.31623954409787,
                1.9842589415958833,
                -1.3589464919905736,
                1.104370605305759,
                -1.5079446903296427
            ]
        },
        {
            "positions": [
                0.9321801462947537,
                -2.255559116457413,
                1.9855446242956685,
                -1.3309158784527935,
                1.0812891085002148,
                -1.5942725443186636
            ]
        },
        {
            "positions": [
                0.742865330839142,
                -2.1948786888169565,
                1.9868303069954536,
                -1.302885264915013,
                1.0582076116946708,
                -1.6806003983076847
            ]
        },
        {
            "positions": [
                0.5535505153835301,
                -2.1341982611764996,
                1.988115989695239,
                -1.274854651377233,
                1.0351261148891266,
                -1.7669282522967054
            ]
        },
        {
            "positions": [
                0.36423569992791816,
                -2.0735178335360427,
                1.989401672395024,
                -1.2468240378394526,
                1.0120446180835827,
                -1.8532561062857265
            ]
        },
        {
            "positions": [
                0.17492088447230625,
                -2.012837405895586,
                1.9906873550948092,
                -1.2187934243016723,
                0.9889631212780385,
                -1.9395839602747473
            ]
        },
        {
            "positions": [
                -0.014393930983305658,
                -1.952156978255129,
                1.9919730377945943,
                -1.190762810763892,
                0.9658816244724946,
                -2.025911814263768
            ]
        },
        {
            "positions": [
                -0.20370874643891712,
                -1.8914765506146722,
                1.9932587204943795,
                -1.1627321972261118,
                0.9428001276669505,
                -2.112239668252789
            ]
        },
        {
            "positions": [
                -0.393023561894529,
                -1.8307961229742156,
                1.9945444031941648,
                -1.1347015836883314,
                0.9197186308614065,
                -2.19856752224181
            ]
        },
        {
            "positions": [
                -0.5823383773501414,
                -1.7701156953337585,
                1.99583008589395,
                -1.106670970150551,
                0.8966371340558623,
                -2.284895376230831
            ]
        },
        {
            "positions": [
                -0.7716531928057533,
                -1.7094352676933018,
                1.997115768593735,
                -1.078640356612771,
                0.8735556372503184,
                -2.3712232302198517
            ]
        },
        {
            "positions": [
                -0.9609680082613647,
                -1.648754840052845,
                1.9984014512935202,
                -1.0506097430749906,
                0.8504741404447742,
                -2.457551084208873
            ]
        },
        {
            "positions": [
                -1.1502828237169767,
                -1.5880744124123882,
                1.9996871339933056,
                -1.0225791295372102,
                0.8273926436392303,
                -2.543878938197894
            ]
        },
        {
            "positions": [
                -1.3395976391725881,
                -1.5273939847719316,
                2.0009728166930905,
                -0.99454851599943,
                0.8043111468336862,
                -2.6302067921869146
            ]
        },
        {
            "positions": [
                -1.5289124546282,
                -1.4667135571314747,
                2.002258499392876,
                -0.9665179024616496,
                0.7812296500281422,
                -2.7165346461759357
            ]
        },
        {
            "positions": [
                -1.718227270083812,
                -1.406033129491018,
                2.003544182092661,
                -0.9384872889238693,
                0.7581481532225981,
                -2.8028625001649563
            ]
        },
        {
            "positions": [
                -1.9075420855394238,
                -1.3453527018505609,
                2.004829864792446,
                -0.910456675386089,
                0.735066656417054,
                -2.8891903541539774
            ]
        },
        {
            "positions": [
                -2.0968569009950357,
                -1.2846722742101042,
                2.0061155474922314,
                -0.8824260618483087,
                0.71198515961151,
                -2.9755182081429985
            ]
        },
        {
            "positions": [
                -2.2861717164506477,
                -1.2239918465696473,
                2.0074012301920163,
                -0.8543954483105284,
                0.6889036628059659,
                -3.061846062132019
            ]
        },
        {
            "positions": [
                -2.47548653190626,
                -1.1633114189291907,
                2.0086869128918017,
                -0.8263648347727481,
                0.6658221660004219,
                -3.1481739161210403
            ]
        }
    ]
}