{
    "goal": {
        "global_pose": {
            "orientation": {
                "w": 0.7031023502349854,
                "x": -0.7110244035720825,
                "y": 0.007748599164187908,
                "z": 0.005598929710686207
            },
            "position": {
                "x": 0.11585023208521307,
                "y": 0.44412534475326537,
                "z": 0.3711530566215515
            }
        },
        "name": "move_to_auspresseinheit_A"
    },
    "id": "KPIECE_move_to_auspresseinheit_A_123",
    "joint_names": [
        "shoulder_pan_joint",
        "shoulder_lift_joint",
        "elbow_joint",
        "wrist_1_joint",
        "wrist_2_joint",
        "wrist_3_joint"
    ],
    "metrics": {
        "cart_traj_len": 0.6943670834319952,
        "distance_elbow_joint": 0.024420737786067015,
        "distance_shoulder_lift_joint": 0.5633287396058153,
        "distance_shoulder_pan_joint": 1.048105480691924,
        "distance_wrist_1_joint": 0.5439038028470233,
        "distance_wrist_2_joint": 0.5219346748237941,
        "distance_wrist_3_joint": 0.15195619087276135,
        "smoothness": 0.29234701980132843,
        "time": 0.29117334899999997,
        "traj_len": 1.6892748819027013,
        "weighted_distance": 2.05509135710404
    },
    "planner": "KPIECE",
    "start": {
        "state": {
            "elbow_joint": 2.4225746658250005,
            "shoulder_lift_joint": -1.3736534386056498,
            "shoulder_pan_joint": -0.3378633547517467,
            "wrist_1_joint": -1.0288598680537169,
            "wrist_2_joint": 1.233022673432363,
            "wrist_3_joint": -3.0940220416140027
        }
    },
    "waypoints": [
        {
            "positions": [
                -0.3378633547517467,
                -1.3736534386056498,
                2.4225746658250005,
                -1.0288598680537169,
                1.233022673432363,
                -3.0940220416140027
            ]
        },
        {
            "positions": [
                -0.20428580679951672,
                -1.4522414670402084,
                2.419315606799869,
                -0.9645013205360535,
                1.1591445654622277,
                -3.0847603541311988
            ]
        },
        {
            "positions": [
                -0.07070825884728671,
                -1.5308294954747672,
                2.4160565477747378,
                -0.9001427730183902,
                1.085266457492092,
                -3.0754986666483943
            ]
        },
        {
            "positions": [
                0.06286928910494333,
                -1.6094175239093258,
                2.4127974887496064,
                -0.8357842255007268,
                1.0113883495219567,
                -3.0662369791655903
            ]
        },
        {
            "positions": [
                0.1964468370571733,
                -1.6880055523438844,
                2.4095384297244746,
                -0.7714256779830635,
                0.937510241551821,
                -3.0569752916827864
            ]
        },
        {
            "positions": [
                0.3300243850094034,
                -1.766593580778443,
                2.4062793706993433,
                -0.7070671304654002,
                0.8636321335816857,
                -3.0477136041999824
            ]
        },
        {
            "positions": [
                0.4636019329616334,
                -1.8451816092130016,
                2.403020311674212,
                -0.6427085829477369,
                0.7897540256115502,
                -3.038451916717178
            ]
        },
        {
            "positions": [
                0.5971794809138635,
                -1.9237696376475604,
                2.3997612526490806,
                -0.5783500354300736,
                0.7158759176414147,
                -3.029190229234374
            ]
        },
        {
            "positions": [
                0.7102421259401775,
                -1.9105570970836556,
                2.3981539280389335,
                -0.4849560652066936,
                0.7206638366742604,
                -3.1163146077275066
            ]
        }
    ]
}