{
    "goal": {
        "global_pose": {
            "orientation": {
                "w": 0.5084816217422485,
                "x": -0.49083608388900757,
                "y": 0.5182115435600281,
                "z": -0.4816462993621826
            },
            "position": {
                "x": 0.5540239810943604,
                "y": 0.030875300988554955,
                "z": 0.16403168439865112
            }
        },
        "name": "move_to_storage_A"
    },
    "id": "KPIECE_move_to_storage_A_58",
    "joint_names": [
        "shoulder_pan_joint",
        "shoulder_lift_joint",
        "elbow_joint",
        "wrist_1_joint",
        "wrist_2_joint",
        "wrist_3_joint"
    ],
    "metrics": {
        "cart_traj_len": 0.3524487959517843,
        "distance_elbow_joint": 0.4525399594848045,
        "distance_shoulder_lift_joint": 0.2321980916964368,
        "distance_shoulder_pan_joint": 0.46161974942769995,
        "distance_wrist_1_joint": 0.26067883894518873,
        "distance_wrist_2_joint": 1.0932205342440802,
        "distance_wrist_3_joint": 0.10225742657859982,
        "smoothness": 6.661338165333112e-16,
        "time": 0.050575029,
        "traj_len": 1.6132311056934185,
        "weighted_distance": 2.03983549011269
    },
    "planner": "KPIECE",
    "start": {
        "state": {
            "elbow_joint": 1.971548259319323,
            "shoulder_lift_joint": -1.1394851275133948,
            "shoulder_pan_joint": 0.1228115487234821,
            "wrist_1_joint": -0.7804723859257726,
            "wrist_2_joint": 0.12958671773740124,
            "wrist_3_joint": -3.192489227718131
        }
    },
    "waypoints": [
        {
            "positions": [
                0.1228115487234821,
                -1.1394851275133948,
                1.971548259319323,
                -0.7804723859257726,
                0.12958671773740124,
                -3.192489227718131
            ]
        },
        {
            "positions": [
                0.05686587023381068,
                -1.1726562834700287,
                2.0361968249600095,
                -0.8177122200607996,
                0.28576107977226983,
                -3.1778810239211883
            ]
        },
        {
            "positions": [
                -0.009079808255860744,
                -1.2058274394266624,
                2.100845390600696,
                -0.8549520541958265,
                0.4419354418071384,
                -3.1632728201242455
            ]
        },
        {
            "positions": [
                -0.07502548674553217,
                -1.2389985953832963,
                2.165493956241382,
                -0.8921918883308535,
                0.598109803842007,
                -3.1486646163273027
            ]
        },
        {
            "positions": [
                -0.1409711652352036,
                -1.2721697513399302,
                2.2301425218820685,
                -0.9294317224658805,
                0.7542841658768756,
                -3.13405641253036
            ]
        },
        {
            "positions": [
                -0.206916843724875,
                -1.305340907296564,
                2.294791087522755,
                -0.9666715566009074,
                0.9104585279117443,
                -3.119448208733417
            ]
        },
        {
            "positions": [
                -0.27286252221454643,
                -1.3385120632531977,
                2.359439653163441,
                -1.0039113907359343,
                1.0666328899466127,
                -3.104840004936474
            ]
        },
        {
            "positions": [
                -0.33880820070421785,
                -1.3716832192098316,
                2.4240882188041275,
                -1.0411512248709613,
                1.2228072519814814,
                -3.0902318011395313
            ]
        }
    ]
}{
    "goal": {
        "global_pose": {
            "orientation": {
                "w": 0.5084816217422485,
                "x": -0.49083608388900757,
                "y": 0.5182115435600281,
                "z": -0.4816462993621826
            },
            "position": {
                "x": 0.5540239810943604,
                "y": 0.030875300988554955,
                "z": 0.16403168439865112
            }
        },
        "name": "move_to_storage_A"
    },
    "id": "KPIECE_move_to_storage_A_58",
    "joint_names": [
        "shoulder_pan_joint",
        "shoulder_lift_joint",
        "elbow_joint",
        "wrist_1_joint",
        "wrist_2_joint",
        "wrist_3_joint"
    ],
    "metrics": {
        "cart_traj_len": 0.3526852654820498,
        "distance_elbow_joint": 0.4500151411455815,
        "distance_shoulder_lift_joint": 0.23474306956353286,
        "distance_shoulder_pan_joint": 0.461164965460753,
        "distance_wrist_1_joint": 0.23952008692800297,
        "distance_wrist_2_joint": 1.0986424993071187,
        "distance_wrist_3_joint": 0.08678134978390295,
        "smoothness": 6.661338165333112e-16,
        "time": 0.041112878,
        "traj_len": 1.6033923762413527,
        "weighted_distance": 2.02054259989534
    },
    "planner": "KPIECE",
    "start": {
        "state": {
            "elbow_joint": 1.97154746011099,
            "shoulder_lift_joint": -1.13948474672311,
            "shoulder_pan_joint": 0.12281154466712228,
            "wrist_1_joint": -0.7804688027058302,
            "wrist_2_joint": 0.12958655903071145,
            "wrist_3_joint": 3.0906928834467795
        }
    },
    "waypoints": [
        {
            "positions": [
                0.12281154466712228,
                -1.13948474672311,
                1.97154746011099,
                -0.7804688027058302,
                0.12958655903071145,
                3.0906928834467795
            ]
        },
        {
            "positions": [
                0.056930835315586154,
                -1.1730194709464719,
                2.0358353374175016,
                -0.8146859579812592,
                0.28653548750315694,
                3.1030902191301943
            ]
        },
        {
            "positions": [
                -0.008949874035949976,
                -1.2065541951698335,
                2.100123214724013,
                -0.8489031132566882,
                0.4434844159756025,
                3.1154875548136087
            ]
        },
        {
            "positions": [
                -0.07483058338748612,
                -1.2400889193931954,
                2.164411092030525,
                -0.8831202685321171,
                0.600433344448048,
                3.1278848904970236
            ]
        },
        {
            "positions": [
                -0.14071129273902222,
                -1.2736236436165573,
                2.2286989693370365,
                -0.9173374238075461,
                0.7573822729204935,
                3.1402822261804384
            ]
        },
        {
            "positions": [
                -0.2065920020905584,
                -1.3071583678399192,
                2.292986846643548,
                -0.9515545790829751,
                0.9143312013929391,
                3.1526795618638532
            ]
        },
        {
            "positions": [
                -0.2724727114420945,
                -1.340693092063281,
                2.3572747239500598,
                -0.9857717343584042,
                1.0712801298653845,
                3.1650768975472676
            ]
        },
        {
            "positions": [
                -0.3383534207936307,
                -1.3742278162866428,
                2.4215626012565714,
                -1.0199888896338332,
                1.2282290583378301,
                3.1774742332306825
            ]
        }
    ]
}{
    "goal": {
        "global_pose": {
            "orientation": {
                "w": 0.5084816217422485,
                "x": -0.49083608388900757,
                "y": 0.5182115435600281,
                "z": -0.4816462993621826
            },
            "position": {
                "x": 0.5540239810943604,
                "y": 0.030875300988554955,
                "z": 0.16403168439865112
            }
        },
        "name": "move_to_storage_A"
    },
    "id": "KPIECE_move_to_storage_A_58",
    "joint_names": [
        "shoulder_pan_joint",
        "shoulder_lift_joint",
        "elbow_joint",
        "wrist_1_joint",
        "wrist_2_joint",
        "wrist_3_joint"
    ],
    "metrics": {
        "cart_traj_len": 0.3528403162542472,
        "distance_elbow_joint": 0.45302731064927526,
        "distance_shoulder_lift_joint": 0.23593111527780053,
        "distance_shoulder_pan_joint": 0.46217912638089265,
        "distance_wrist_1_joint": 0.25258910141995705,
        "distance_wrist_2_joint": 1.0961011433266383,
        "distance_wrist_3_joint": 0.09173209605399135,
        "smoothness": 4.440892098500626e-16,
        "time": 0.100541099,
        "traj_len": 1.6098322562020413,
        "weighted_distance": 2.030693066409381
    },
    "planner": "KPIECE",
    "start": {
        "state": {
            "elbow_joint": 1.9715472970024885,
            "shoulder_lift_joint": -1.1394870060712896,
            "shoulder_pan_joint": 0.12281152778156021,
            "wrist_1_joint": -0.780463741449964,
            "wrist_2_joint": 0.12958659822042276,
            "wrist_3_joint": 3.090690232415272
        }
    },
    "waypoints": [
        {
            "positions": [
                0.12281152778156021,
                -1.1394870060712896,
                1.9715472970024885,
                -0.780463741449964,
                0.12958659822042276,
                3.090690232415272
            ]
        },
        {
            "positions": [
                0.05678593829857555,
                -1.1731914511109753,
                2.036265484238099,
                -0.8165478987956721,
                0.2861724758385139,
                3.103794817565842
            ]
        },
        {
            "positions": [
                -0.009239651184409114,
                -1.2068958961506613,
                2.1009836714737102,
                -0.8526320561413803,
                0.4427583534566051,
                3.1168994027164123
            ]
        },
        {
            "positions": [
                -0.07526524066739376,
                -1.240600341190347,
                2.165701858709321,
                -0.8887162134870884,
                0.5993442310746963,
                3.1300039878669823
            ]
        },
        {
            "positions": [
                -0.14129083015037844,
                -1.2743047862300327,
                2.2304200459449315,
                -0.9248003708327965,
                0.7559301086927874,
                3.1431085730175528
            ]
        },
        {
            "positions": [
                -0.20731641963336314,
                -1.3080092312697187,
                2.295138233180542,
                -0.9608845281785048,
                0.9125159863108787,
                3.1562131581681228
            ]
        },
        {
            "positions": [
                -0.27334200911634776,
                -1.3417136763094044,
                2.359856420416153,
                -0.9969686855242129,
                1.0691018639289698,
                3.169317743318693
            ]
        },
        {
            "positions": [
                -0.3393675985993324,
                -1.3754181213490901,
                2.424574607651764,
                -1.033052842869921,
                1.225687741547061,
                3.182422328469263
            ]
        }
    ]
}