{
    "goal": {
        "global_pose": {
            "orientation": {
                "w": 0.005598929693374612,
                "x": 0.007748599140229565,
                "y": 0.7110244013736278,
                "z": -0.7031023480610252
            },
            "position": {
                "x": 0.1141497679147869,
                "y": -0.7141253447532654,
                "z": 0.3711530566215515
            }
        },
        "name": "move_to_auspresseinheit_B"
    },
    "id": "KPIECE_move_to_auspresseinheit_B_48",
    "joint_names": [
        "shoulder_pan_joint",
        "shoulder_lift_joint",
        "elbow_joint",
        "wrist_1_joint",
        "wrist_2_joint",
        "wrist_3_joint"
    ],
    "metrics": {
        "cart_traj_len": 0.5639233496202954,
        "distance_elbow_joint": 0.06497131884895335,
        "distance_shoulder_lift_joint": 0.2933126272867821,
        "distance_shoulder_pan_joint": 0.5747298123549403,
        "distance_wrist_1_joint": 0.3379338134347467,
        "distance_wrist_2_joint": 1.003672430647878,
        "distance_wrist_3_joint": 0.008168747910967777,
        "smoothness": 0.0,
        "time": 0.24472219299999998,
        "traj_len": 1.510890052414228,
        "weighted_distance": 1.9080703578193412
    },
    "planner": "KPIECE",
    "start": {
        "state": {
            "elbow_joint": 2.0193083361928714,
            "shoulder_lift_joint": -1.1220246554650708,
            "shoulder_pan_joint": -1.0952077554168747,
            "wrist_1_joint": -0.8559753972642168,
            "wrist_2_joint": 0.4759566250798843,
            "wrist_3_joint": -3.1240929996934557
        }
    },
    "waypoints": [
        {
            "positions": [
                -1.0952077554168747,
                -1.1220246554650708,
                2.0193083361928714,
                -0.8559753972642168,
                0.4759566250798843,
                -3.1240929996934557
            ]
        },
        {
            "positions": [
                -1.1909960574760314,
                -1.170910093346201,
                2.008479783051379,
                -0.7996530950250923,
                0.6432353635211973,
                -3.122731541708294
            ]
        },
        {
            "positions": [
                -1.286784359535188,
                -1.2197955312273314,
                1.997651229909887,
                -0.7433307927859679,
                0.8105141019625102,
                -3.121370083723133
            ]
        },
        {
            "positions": [
                -1.3825726615943448,
                -1.2686809691084617,
                1.9868226767683947,
                -0.6870084905468434,
                0.9777928404038232,
                -3.120008625737972
            ]
        },
        {
            "positions": [
                -1.4783609636535013,
                -1.3175664069895923,
                1.9759941236269025,
                -0.630686188307719,
                1.1450715788451362,
                -3.1186471677528105
            ]
        },
        {
            "positions": [
                -1.5741492657126583,
                -1.3664518448707226,
                1.9651655704854103,
                -0.5743638860685945,
                1.3123503172864492,
                -3.117285709767649
            ]
        },
        {
            "positions": [
                -1.669937567771815,
                -1.4153372827518529,
                1.954337017343918,
                -0.5180415838294701,
                1.4796290557277623,
                -3.115924251782488
            ]
        }
    ]
}