{
    "goal": {
        "global_pose": {
            "orientation": {
                "w": 0.7031023502349854,
                "x": -0.7110244035720825,
                "y": 0.007748599164187908,
                "z": 0.005598929710686207
            },
            "position": {
                "x": 0.11585023208521307,
                "y": 0.44412534475326537,
                "z": 0.3711530566215515
            }
        },
        "name": "move_to_auspresseinheit_A"
    },
    "id": "KPIECE_move_to_auspresseinheit_A_148",
    "joint_names": [
        "shoulder_pan_joint",
        "shoulder_lift_joint",
        "elbow_joint",
        "wrist_1_joint",
        "wrist_2_joint",
        "wrist_3_joint"
    ],
    "metrics": {
        "cart_traj_len": 1.1432028423365361,
        "distance_elbow_joint": 0.9183717591433567,
        "distance_shoulder_lift_joint": 0.870997578192191,
        "distance_shoulder_pan_joint": 1.07023465703961,
        "distance_wrist_1_joint": 1.642069850012414,
        "distance_wrist_2_joint": 1.4827366262220476,
        "distance_wrist_3_joint": 3.9259833217381295,
        "smoothness": 0.809394363195886,
        "time": 0.09089423199999999,
        "traj_len": 3.148077793249041,
        "weighted_distance": 4.5702480142830835
    },
    "planner": "KPIECE",
    "start": {
        "state": {
            "elbow_joint": 2.4225746658250005,
            "shoulder_lift_joint": -1.3736534386056498,
            "shoulder_pan_joint": -0.3378633547517467,
            "wrist_1_joint": -1.0288598680537169,
            "wrist_2_joint": 1.233022673432363,
            "wrist_3_joint": -3.0940220416140027
        }
    },
    "waypoints": [
        {
            "positions": [
                -0.3378633547517467,
                -1.3736534386056498,
                2.4225746658250005,
                -1.0288598680537169,
                1.233022673432363,
                -3.0940220416140027
            ]
        },
        {
            "positions": [
                -0.31280261172097823,
                -1.420428506455416,
                2.3908890409347627,
                -0.954897513840222,
                1.166051045340138,
                -2.9647747912926907
            ]
        },
        {
            "positions": [
                -0.28774186869020973,
                -1.4672035743051821,
                2.3592034160445254,
                -0.8809351596267272,
                1.0990794172479132,
                -2.8355275409713787
            ]
        },
        {
            "positions": [
                -0.26268112565944124,
                -1.5139786421549484,
                2.3275177911542877,
                -0.8069728054132324,
                1.0321077891556882,
                -2.7062802906500667
            ]
        },
        {
            "positions": [
                -0.23762038262867274,
                -1.5607537100047144,
                2.2958321662640504,
                -0.7330104511997375,
                0.9651361610634632,
                -2.5770330403287547
            ]
        },
        {
            "positions": [
                -0.21255963959790425,
                -1.6075287778544807,
                2.2641465413738127,
                -0.6590480969862428,
                0.8981645329712383,
                -2.4477857900074427
            ]
        },
        {
            "positions": [
                -0.18749889656713573,
                -1.654303845704247,
                2.232460916483575,
                -0.5850857427727478,
                0.8311929048790133,
                -2.3185385396861307
            ]
        },
        {
            "positions": [
                -0.16243815353636723,
                -1.701078913554013,
                2.2007752915933376,
                -0.5111233885592531,
                0.7642212767867884,
                -2.1892912893648186
            ]
        },
        {
            "positions": [
                -0.13737741050559873,
                -1.7478539814037792,
                2.1690896667031,
                -0.43716103434575826,
                0.6972496486945634,
                -2.0600440390435066
            ]
        },
        {
            "positions": [
                -0.11231666747483024,
                -1.7946290492535453,
                2.1374040418128626,
                -0.3631986801322634,
                0.6302780206023385,
                -1.9307967887221946
            ]
        },
        {
            "positions": [
                -0.08725592444406177,
                -1.8414041171033115,
                2.105718416922625,
                -0.2892363259187687,
                0.5633063925101136,
                -1.8015495384008826
            ]
        },
        {
            "positions": [
                -0.06219518141329328,
                -1.8881791849530778,
                2.074032792032387,
                -0.21527397170527385,
                0.4963347644178886,
                -1.6723022880795706
            ]
        },
        {
            "positions": [
                -0.037134438382524726,
                -1.9349542528028438,
                2.04234716714215,
                -0.1413116174917789,
                0.4293631363256636,
                -1.5430550377582586
            ]
        },
        {
            "positions": [
                -0.01207369535175623,
                -1.98172932065261,
                2.010661542251912,
                -0.06734926327828406,
                0.3623915082334387,
                -1.4138077874369466
            ]
        },
        {
            "positions": [
                0.012987047679012265,
                -2.0285043885023764,
                1.9789759173616746,
                0.006613090935210675,
                0.2954198801412137,
                -1.2845605371156346
            ]
        },
        {
            "positions": [
                0.03804779070978073,
                -2.0752794563521424,
                1.947290292471437,
                0.08057544514870552,
                0.22844825204898878,
                -1.1553132867943225
            ]
        },
        {
            "positions": [
                0.15146314795626725,
                -2.0716155604132123,
                1.9983603822709597,
                0.037074664473170316,
                0.253105461310137,
                -1.2810507947905228
            ]
        },
        {
            "positions": [
                0.2648785052027538,
                -2.067951664474282,
                2.0494304720704823,
                -0.006426116202364884,
                0.2777626705712853,
                -1.406788302786723
            ]
        },
        {
            "positions": [
                0.37829386244924035,
                -2.064287768535352,
                2.100500561870005,
                -0.049926896877900084,
                0.3024198798324335,
                -1.5325258107829232
            ]
        },
        {
            "positions": [
                0.4917092196957268,
                -2.0606238725964214,
                2.151570651669528,
                -0.09342767755343528,
                0.32707708909358174,
                -1.6582633187791234
            ]
        },
        {
            "positions": [
                0.6051245769422133,
                -2.0569599766574913,
                2.2026407414690508,
                -0.13692845822897048,
                0.35173429835473,
                -1.7840008267753238
            ]
        },
        {
            "positions": [
                0.7185399341886999,
                -2.053296080718561,
                2.2537108312685734,
                -0.1804292389045057,
                0.37639150761587825,
                -1.909738334771524
            ]
        },
        {
            "positions": [
                0.7162347061721728,
                -2.028731383249875,
                2.276488639100683,
                -0.22570088103063574,
                0.4314279991611754,
                -2.1152132545950653
            ]
        },
        {
            "positions": [
                0.7139294781556457,
                -2.004166685781189,
                2.2992664469327924,
                -0.2709725231567658,
                0.4864644907064726,
                -2.3206881744186068
            ]
        },
        {
            "positions": [
                0.7116242501391186,
                -1.9796019883125027,
                2.3220442547649016,
                -0.3162441652828958,
                0.5415009822517698,
                -2.5261630942421482
            ]
        },
        {
            "positions": [
                0.7093190221225913,
                -1.9550372908438163,
                2.3448220625970113,
                -0.36151580740902584,
                0.5965374737970669,
                -2.7316380140656893
            ]
        },
        {
            "positions": [
                0.7070137941060642,
                -1.93047259337513,
                2.367599870429121,
                -0.4067874495351559,
                0.651573965342364,
                -2.937112933889231
            ]
        },
        {
            "positions": [
                0.7047085660895371,
                -1.905907895906444,
                2.3903776782612303,
                -0.45205909166128594,
                0.7066104568876612,
                -3.1425878537127723
            ]
        }
    ]
}