{
    "goal": {
        "global_pose": {
            "orientation": {
                "w": -0.00223480608172531,
                "x": 0.0024358444001904467,
                "y": 0.7094548369677653,
                "z": -0.704743149386269
            },
            "position": {
                "x": -0.37947507619857795,
                "y": -0.6371506643295288,
                "z": 0.19426114857196808
            }
        },
        "name": "move_to_magneteinheit_C"
    },
    "id": "KPIECE_move_to_magneteinheit_C_30",
    "joint_names": [
        "shoulder_pan_joint",
        "shoulder_lift_joint",
        "elbow_joint",
        "wrist_1_joint",
        "wrist_2_joint",
        "wrist_3_joint"
    ],
    "metrics": {
        "cart_traj_len": 2.256599525570381,
        "distance_elbow_joint": 2.021921580353696,
        "distance_shoulder_lift_joint": 0.8285642552334571,
        "distance_shoulder_pan_joint": 1.7490842456643112,
        "distance_wrist_1_joint": 0.7565641716814326,
        "distance_wrist_2_joint": 0.7989553655470855,
        "distance_wrist_3_joint": 3.399229075807202,
        "smoothness": 0.7595163378617621,
        "time": 2.42170927,
        "traj_len": 3.09100609741993,
        "weighted_distance": 4.2318195121165205
    },
    "planner": "KPIECE",
    "start": {
        "state": {
            "elbow_joint": 1.9565354010623817,
            "shoulder_lift_joint": -1.4165861575791021,
            "shoulder_pan_joint": -1.6717766225146293,
            "wrist_1_joint": -0.5286633292919765,
            "wrist_2_joint": 1.472756589071564,
            "wrist_3_joint": -3.1238370188695823
        }
    },
    "waypoints": [
        {
            "positions": [
                -1.6717766225146293,
                -1.4165861575791021,
                1.9565354010623817,
                -0.5286633292919765,
                1.472756589071564,
                -3.1238370188695823
            ]
        },
        {
            "positions": [
                -1.6056215898948967,
                -1.4367944487301105,
                1.9297386294539356,
                -0.4972094091775744,
                1.4015962326937155,
                -3.050530323975113
            ]
        },
        {
            "positions": [
                -1.5394665572751638,
                -1.457002739881119,
                1.9029418578454893,
                -0.46575548906317227,
                1.3304358763158672,
                -2.977223629080644
            ]
        },
        {
            "positions": [
                -1.5032343637112047,
                -1.4688123710365797,
                1.8022580016972833,
                -0.4471956383164087,
                1.272805052527803,
                -2.8060542256732597
            ]
        },
        {
            "positions": [
                -1.4670021701472455,
                -1.4806220021920404,
                1.7015741455490774,
                -0.4286357875696451,
                1.2151742287397387,
                -2.634884822265876
            ]
        },
        {
            "positions": [
                -1.4307699765832864,
                -1.4924316333475012,
                1.6008902894008714,
                -0.4100759368228815,
                1.1575434049516744,
                -2.4637154188584915
            ]
        },
        {
            "positions": [
                -1.3945377830193273,
                -1.504241264502962,
                1.5002064332526654,
                -0.39151608607611793,
                1.0999125811636103,
                -2.2925460154511077
            ]
        },
        {
            "positions": [
                -1.358305589455368,
                -1.5160508956584224,
                1.3995225771044595,
                -0.3729562353293543,
                1.042281757375546,
                -2.121376612043723
            ]
        },
        {
            "positions": [
                -1.3220733958914088,
                -1.5278605268138832,
                1.2988387209562533,
                -0.3543963845825907,
                0.9846509335874818,
                -1.9502072086363391
            ]
        },
        {
            "positions": [
                -1.2858412023274497,
                -1.539670157969344,
                1.1981548648080473,
                -0.3358365338358271,
                0.9270201097994175,
                -1.779037805228955
            ]
        },
        {
            "positions": [
                -1.2496090087634906,
                -1.5514797891248047,
                1.0974710086598414,
                -0.31727668308906354,
                0.8693892860113533,
                -1.607868401821571
            ]
        },
        {
            "positions": [
                -1.2133768151995314,
                -1.5632894202802654,
                0.9967871525116354,
                -0.29871683234229995,
                0.8117584622232891,
                -1.4366989984141867
            ]
        },
        {
            "positions": [
                -1.3941464574374092,
                -1.5834396665906483,
                1.1398881875182496,
                -0.30428668821172083,
                0.8012271841853846,
                -1.4715499495090294
            ]
        },
        {
            "positions": [
                -1.5749160996752867,
                -1.603589912901031,
                1.2829892225248638,
                -0.30985654408114166,
                0.7906959061474801,
                -1.506400900603872
            ]
        },
        {
            "positions": [
                -1.7556857419131644,
                -1.6237401592114138,
                1.4260902575314778,
                -0.31542639995056254,
                0.7801646281095757,
                -1.5412518516987148
            ]
        },
        {
            "positions": [
                -1.9364553841510421,
                -1.6438904055217964,
                1.569191292538092,
                -0.32099625581998337,
                0.7696333500716712,
                -1.5761028027935575
            ]
        },
        {
            "positions": [
                -2.11722502638892,
                -1.6640406518321793,
                1.7122923275447062,
                -0.32656611168940425,
                0.7591020720337668,
                -1.6109537538884005
            ]
        },
        {
            "positions": [
                -2.2979946686267976,
                -1.684190898142562,
                1.8553933625513204,
                -0.3321359675588251,
                0.7485707939958622,
                -1.6458047049832432
            ]
        },
        {
            "positions": [
                -2.4787643108646753,
                -1.7043411444529448,
                1.9984943975579346,
                -0.33770582342824595,
                0.7380395159579578,
                -1.6806556560780859
            ]
        },
        {
            "positions": [
                -2.488314699175583,
                -1.6849756444688389,
                2.034034272361498,
                -0.3519628721259306,
                0.7434824769081081,
                -1.7703951349807017
            ]
        },
        {
            "positions": [
                -2.4860651914079885,
                -1.610483677558052,
                2.0304733849396284,
                -0.41958739140423423,
                0.735083143839061,
                -1.9673086948071719
            ]
        },
        {
            "positions": [
                -2.483815683640394,
                -1.5359917106472651,
                2.026912497517759,
                -0.4872119106825379,
                0.7266838107700141,
                -2.164222254633642
            ]
        },
        {
            "positions": [
                -2.4815661758727994,
                -1.461499743736478,
                2.0233516100958893,
                -0.5548364299608415,
                0.718284477700967,
                -2.3611358144601122
            ]
        },
        {
            "positions": [
                -2.4793166681052052,
                -1.3870077768256912,
                2.0197907226740193,
                -0.6224609492391451,
                0.7098851446319201,
                -2.5580493742865826
            ]
        },
        {
            "positions": [
                -2.4770671603376107,
                -1.3125158099149044,
                2.0162298352521497,
                -0.6900854685174488,
                0.701485811562873,
                -2.7549629341130526
            ]
        },
        {
            "positions": [
                -2.474817652570016,
                -1.2380238430041173,
                2.01266894783028,
                -0.7577099877957525,
                0.6930864784938261,
                -2.9518764939395226
            ]
        },
        {
            "positions": [
                -2.4725681448024215,
                -1.1635318760933304,
                2.0091080604084106,
                -0.8253345070740561,
                0.684687145424779,
                -3.148790053765993
            ]
        }
    ]
}