{
    "goal": {
        "global_pose": {
            "orientation": {
                "w": 0.005598929693374612,
                "x": 0.007748599140229565,
                "y": 0.7110244013736278,
                "z": -0.7031023480610252
            },
            "position": {
                "x": 0.1141497679147869,
                "y": -0.7141253447532654,
                "z": 0.3711530566215515
            }
        },
        "name": "move_to_auspresseinheit_B"
    },
    "id": "KPIECE_move_to_auspresseinheit_B_141",
    "joint_names": [
        "shoulder_pan_joint",
        "shoulder_lift_joint",
        "elbow_joint",
        "wrist_1_joint",
        "wrist_2_joint",
        "wrist_3_joint"
    ],
    "metrics": {
        "cart_traj_len": 0.5641166446705665,
        "distance_elbow_joint": 0.06315753898569443,
        "distance_shoulder_lift_joint": 0.295349604616558,
        "distance_shoulder_pan_joint": 0.5766995541511266,
        "distance_wrist_1_joint": 0.33287517113610554,
        "distance_wrist_2_joint": 0.9933663267021771,
        "distance_wrist_3_joint": 0.0068695684807602575,
        "smoothness": 0.0,
        "time": 0.09786431799999999,
        "traj_len": 1.5060935442635766,
        "weighted_distance": 1.8995521574498093
    },
    "planner": "KPIECE",
    "start": {
        "state": {
            "elbow_joint": 2.0193083361928714,
            "shoulder_lift_joint": -1.1220246554650708,
            "shoulder_pan_joint": -1.0952077554168747,
            "wrist_1_joint": -0.8559753972642168,
            "wrist_2_joint": 0.4759566250798843,
            "wrist_3_joint": -3.1240929996934557
        }
    },
    "waypoints": [
        {
            "positions": [
                -1.0952077554168747,
                -1.1220246554650708,
                2.0193083361928714,
                -0.8559753972642168,
                0.4759566250798843,
                -3.1240929996934557
            ]
        },
        {
            "positions": [
                -1.1913243477753959,
                -1.1712495895678305,
                2.008782079695256,
                -0.8004962020748658,
                0.6415176795302471,
                -3.122948071613329
            ]
        },
        {
            "positions": [
                -1.2874409401339169,
                -1.22047452367059,
                1.99825582319764,
                -0.745017006885515,
                0.80707873398061,
                -3.121803143533202
            ]
        },
        {
            "positions": [
                -1.3835575324924378,
                -1.2696994577733498,
                1.987729566700024,
                -0.689537811696164,
                0.9726397884309728,
                -3.1206582154530755
            ]
        },
        {
            "positions": [
                -1.479674124850959,
                -1.3189243918761095,
                1.9772033102024085,
                -0.6340586165068132,
                1.1382008428813357,
                -3.119513287372949
            ]
        },
        {
            "positions": [
                -1.5757907172094803,
                -1.368149325978869,
                1.9666770537047928,
                -0.5785794213174622,
                1.3037618973316984,
                -3.118368359292822
            ]
        },
        {
            "positions": [
                -1.6719073095680013,
                -1.4173742600816288,
                1.956150797207177,
                -0.5231002261281112,
                1.4693229517820614,
                -3.1172234312126954
            ]
        }
    ]
}