{
    "goal": {
        "global_pose": {
            "orientation": {
                "w": -0.4816463035849501,
                "x": 0.5182115481033762,
                "y": 0.4908360881923453,
                "z": -0.5084816262002911
            },
            "position": {
                "x": -0.8240239810943604,
                "y": 0.19912469901144506,
                "z": 0.16403168439865112
            }
        },
        "name": "move_to_storage_D"
    },
    "id": "KPIECE_move_to_storage_D_5",
    "joint_names": [
        "shoulder_pan_joint",
        "shoulder_lift_joint",
        "elbow_joint",
        "wrist_1_joint",
        "wrist_2_joint",
        "wrist_3_joint"
    ],
    "metrics": {
        "cart_traj_len": 0.6886421242457174,
        "distance_elbow_joint": 0.5559361866747037,
        "distance_shoulder_lift_joint": 0.15085191713589996,
        "distance_shoulder_pan_joint": 0.3819210754176649,
        "distance_wrist_1_joint": 3.8206803013310338,
        "distance_wrist_2_joint": 1.7884809372480654,
        "distance_wrist_3_joint": 3.4967358320682664,
        "smoothness": 0.1938186885577507,
        "time": 0.081451507,
        "traj_len": 3.1928993485350636,
        "weighted_distance": 4.77464544784126
    },
    "planner": "KPIECE",
    "start": {
        "state": {
            "elbow_joint": -2.384821988534728,
            "shoulder_lift_joint": -2.2788054721415256,
            "shoulder_pan_joint": -0.1854694642142757,
            "wrist_1_joint": 1.4845938289331202,
            "wrist_2_joint": 0.17898776772866878,
            "wrist_3_joint": 0.037105688729662994
        }
    },
    "waypoints": [
        {
            "positions": [
                -0.1854694642142757,
                -2.2788054721415256,
                -2.384821988534728,
                1.4845938289331202,
                0.17898776772866878,
                0.037105688729662994
            ]
        },
        {
            "positions": [
                -0.09697429541663805,
                -2.268918675485457,
                -2.2231156934965,
                1.4372608124127122,
                0.16628940025699843,
                -0.01909756077149225
            ]
        },
        {
            "positions": [
                -0.008479126619000382,
                -2.259031878829389,
                -2.0614093984582724,
                1.3899277958923044,
                0.15359103278532804,
                -0.0753008102726475
            ]
        },
        {
            "positions": [
                0.08001604217863734,
                -2.2491450821733205,
                -1.8997031034200447,
                1.3425947793718964,
                0.14089266531365768,
                -0.13150405977380275
            ]
        },
        {
            "positions": [
                0.07495362613408289,
                -2.2438758853399423,
                -1.8966240903087395,
                1.1826521162514698,
                0.06478893336439445,
                0.013197074294232058
            ]
        },
        {
            "positions": [
                0.06989121008952845,
                -2.2386066885065645,
                -1.8935450771974343,
                1.0227094531310434,
                -0.01131479858486878,
                0.15789820836226687
            ]
        },
        {
            "positions": [
                0.064828794044974,
                -2.2333374916731863,
                -1.890466064086129,
                0.8627667900106168,
                -0.08741853053413201,
                0.3025993424303017
            ]
        },
        {
            "positions": [
                0.05976637800041956,
                -2.2280682948398085,
                -1.8873870509748236,
                0.7028241268901904,
                -0.16352226248339524,
                0.4473004764983365
            ]
        },
        {
            "positions": [
                0.05470396195586512,
                -2.2227990980064303,
                -1.8843080378635184,
                0.5428814637697639,
                -0.23962599443265847,
                0.5920016105663712
            ]
        },
        {
            "positions": [
                0.049641545911310675,
                -2.2175299011730525,
                -1.8812290247522132,
                0.3829388006493373,
                -0.3157297263819217,
                0.7367027446344061
            ]
        },
        {
            "positions": [
                0.044579129866756224,
                -2.2122607043396743,
                -1.878150011640908,
                0.22299613752891068,
                -0.39183345833118494,
                0.8814038787024409
            ]
        },
        {
            "positions": [
                0.03951671382220178,
                -2.206991507506296,
                -1.8750709985296028,
                0.0630534744084843,
                -0.46793719028044817,
                1.0261050127704756
            ]
        },
        {
            "positions": [
                0.03445429777764734,
                -2.2017223106729182,
                -1.8719919854182976,
                -0.0968891887119423,
                -0.5440409222297113,
                1.1708061468385105
            ]
        },
        {
            "positions": [
                0.029391881733092894,
                -2.19645311383954,
                -1.8689129723069924,
                -0.2568318518323687,
                -0.6201446541789746,
                1.3155072809065453
            ]
        },
        {
            "positions": [
                0.02432946568853845,
                -2.191183917006162,
                -1.8658339591956872,
                -0.41677451495279527,
                -0.6962483861282378,
                1.4602084149745802
            ]
        },
        {
            "positions": [
                0.019267049643984006,
                -2.185914720172784,
                -1.8627549460843817,
                -0.5767171780732219,
                -0.772352118077501,
                1.604909549042615
            ]
        },
        {
            "positions": [
                0.01420463359942957,
                -2.180645523339406,
                -1.8596759329730765,
                -0.736659841193648,
                -0.8484558500267643,
                1.7496106831106495
            ]
        },
        {
            "positions": [
                0.009142217554875112,
                -2.175376326506028,
                -1.8565969198617713,
                -0.8966025043140751,
                -0.9245595819760275,
                1.8943118171786844
            ]
        },
        {
            "positions": [
                0.004079801510320669,
                -2.17010712967265,
                -1.8535179067504661,
                -1.0565451674345012,
                -1.0006633139252907,
                2.039012951246719
            ]
        },
        {
            "positions": [
                -0.000982614534233775,
                -2.164837932839272,
                -1.850438893639161,
                -1.2164878305549278,
                -1.076767045874554,
                2.183714085314754
            ]
        },
        {
            "positions": [
                -0.006045030578788205,
                -2.1595687360058937,
                -1.8473598805278557,
                -1.3764304936753544,
                -1.1528707778238172,
                2.3284152193827885
            ]
        },
        {
            "positions": [
                -0.011107446623342662,
                -2.154299539172516,
                -1.8442808674165505,
                -1.536373156795781,
                -1.2289745097730804,
                2.473116353450824
            ]
        },
        {
            "positions": [
                -0.016169862667897106,
                -2.1490303423391377,
                -1.8412018543052453,
                -1.6963158199162076,
                -1.3050782417223437,
                2.6178174875188587
            ]
        },
        {
            "positions": [
                -0.02123227871245155,
                -2.14376114550576,
                -1.8381228411939399,
                -1.8562584830366338,
                -1.3811819736716069,
                2.762518621586893
            ]
        },
        {
            "positions": [
                -0.02629469475700598,
                -2.1384919486723817,
                -1.8350438280826347,
                -2.0162011461570604,
                -1.4572857056208701,
                2.907219755654928
            ]
        },
        {
            "positions": [
                -0.03135711080156044,
                -2.133222751839004,
                -1.8319648149713295,
                -2.176143809277487,
                -1.5333894375701334,
                3.051920889722963
            ]
        },
        {
            "positions": [
                -0.03641952684611488,
                -2.1279535550056257,
                -1.8288858018600243,
                -2.3360864723979136,
                -1.6094931695193966,
                3.1966220237909977
            ]
        }
    ]
}