{
    "goal": {
        "global_pose": {
            "orientation": {
                "w": 0.7031023502349854,
                "x": -0.7110244035720825,
                "y": 0.007748599164187908,
                "z": 0.005598929710686207
            },
            "position": {
                "x": 0.11585023208521307,
                "y": 0.44412534475326537,
                "z": 0.3711530566215515
            }
        },
        "name": "move_to_auspresseinheit_A"
    },
    "id": "KPIECE_move_to_auspresseinheit_A_41",
    "joint_names": [
        "shoulder_pan_joint",
        "shoulder_lift_joint",
        "elbow_joint",
        "wrist_1_joint",
        "wrist_2_joint",
        "wrist_3_joint"
    ],
    "metrics": {
        "cart_traj_len": 3.5853741129072847,
        "distance_elbow_joint": 2.9659440555843815,
        "distance_shoulder_lift_joint": 1.1611676370188695,
        "distance_shoulder_pan_joint": 2.7988114354744327,
        "distance_wrist_1_joint": 0.7963523805688086,
        "distance_wrist_2_joint": 1.6254692271379787,
        "distance_wrist_3_joint": 4.707848162523981,
        "smoothness": 0.8536247158252243,
        "time": 0.18497186599999998,
        "traj_len": 3.7490789399942566,
        "weighted_distance": 5.088527373520084
    },
    "planner": "KPIECE",
    "start": {
        "state": {
            "elbow_joint": 2.4225746658250005,
            "shoulder_lift_joint": -1.3736534386056498,
            "shoulder_pan_joint": -0.3378633547517467,
            "wrist_1_joint": -1.0288598680537169,
            "wrist_2_joint": 1.233022673432363,
            "wrist_3_joint": -3.0940220416140027
        }
    },
    "waypoints": [
        {
            "positions": [
                -0.3378633547517467,
                -1.3736534386056498,
                2.4225746658250005,
                -1.0288598680537169,
                1.233022673432363,
                -3.0940220416140027
            ]
        },
        {
            "positions": [
                -0.30105109103240846,
                -1.3795078477897,
                2.3276457873518677,
                -1.0567052751600894,
                1.197915315667681,
                -2.9964924648642697
            ]
        },
        {
            "positions": [
                -0.26423882731307013,
                -1.38536225697375,
                2.2327169088787353,
                -1.084550682266462,
                1.1628079579029986,
                -2.8989628881145366
            ]
        },
        {
            "positions": [
                -0.22742656359373184,
                -1.3912166661578003,
                2.137788030405603,
                -1.1123960893728344,
                1.1277006001383165,
                -2.801433311364803
            ]
        },
        {
            "positions": [
                -0.19061429987439354,
                -1.3970710753418505,
                2.04285915193247,
                -1.140241496479207,
                1.0925932423736344,
                -2.70390373461507
            ]
        },
        {
            "positions": [
                -0.07958306943985173,
                -1.4485772390218983,
                1.9810376856899694,
                -1.1389694936852683,
                1.0430882038334408,
                -2.5828619742875483
            ]
        },
        {
            "positions": [
                0.03144816099469008,
                -1.5000834027019458,
                1.9192162194474687,
                -1.13769749089133,
                0.9935831652932474,
                -2.461820213960026
            ]
        },
        {
            "positions": [
                0.14247939142923188,
                -1.5515895663819936,
                1.857394753204968,
                -1.1364254880973914,
                0.9440781267530539,
                -2.3407784536325043
            ]
        },
        {
            "positions": [
                0.2535106218637737,
                -1.6030957300620412,
                1.7955732869624672,
                -1.135153485303453,
                0.8945730882128604,
                -2.219736693304982
            ]
        },
        {
            "positions": [
                0.36454185229831554,
                -1.654601893742089,
                1.7337518207199665,
                -1.1338814825095145,
                0.8450680496726669,
                -2.0986949329774602
            ]
        },
        {
            "positions": [
                0.4755730827328573,
                -1.7061080574221368,
                1.6719303544774657,
                -1.1326094797155761,
                0.7955630111324734,
                -1.977653172649938
            ]
        },
        {
            "positions": [
                0.5866043131673992,
                -1.7576142211021843,
                1.610108888234965,
                -1.1313374769216376,
                0.7460579725922799,
                -1.8566114123224162
            ]
        },
        {
            "positions": [
                0.697635543601941,
                -1.8091203847822321,
                1.5482874219924643,
                -1.130065474127699,
                0.6965529340520864,
                -1.735569651994894
            ]
        },
        {
            "positions": [
                0.8086667740364828,
                -1.86062654846228,
                1.4864659557499635,
                -1.1287934713337606,
                0.6470478955118929,
                -1.6145278916673722
            ]
        },
        {
            "positions": [
                0.9196980044710246,
                -1.9121327121423275,
                1.4246444895074628,
                -1.127521468539822,
                0.5975428569716994,
                -1.4934861313398502
            ]
        },
        {
            "positions": [
                1.0307292349055663,
                -1.9636388758223753,
                1.362823023264962,
                -1.1262494657458837,
                0.5480378184315059,
                -1.3724443710123282
            ]
        },
        {
            "positions": [
                1.141760465340108,
                -2.015145039502423,
                1.3010015570224616,
                -1.1249774629519451,
                0.4985327798913124,
                -1.2514026106848062
            ]
        },
        {
            "positions": [
                1.2527916957746499,
                -2.0666512031824706,
                1.2391800907799608,
                -1.1237054601580068,
                0.4490277413511189,
                -1.1303608503572842
            ]
        },
        {
            "positions": [
                1.3638229262091919,
                -2.118157366862518,
                1.17735862453746,
                -1.1224334573640682,
                0.3995227028109254,
                -1.0093190900297622
            ]
        },
        {
            "positions": [
                1.4748541566437336,
                -2.169663530542566,
                1.1155371582949594,
                -1.1211614545701298,
                0.3500176642707319,
                -0.8882773297022402
            ]
        },
        {
            "positions": [
                1.5858853870782754,
                -2.221169694222614,
                1.0537156920524586,
                -1.1198894517761913,
                0.30051262573053833,
                -0.7672355693747182
            ]
        },
        {
            "positions": [
                1.5451486608376732,
                -2.2173850793247123,
                1.1515019535176554,
                -1.0833819713814308,
                0.33769124479257856,
                -0.925254865945919
            ]
        },
        {
            "positions": [
                1.504411934597071,
                -2.2136004644268112,
                1.2492882149828521,
                -1.0468744909866705,
                0.37486986385461885,
                -1.0832741625171198
            ]
        },
        {
            "positions": [
                1.4636752083564688,
                -2.2098158495289097,
                1.3470744764480487,
                -1.01036701059191,
                0.4120484829166591,
                -1.2412934590883207
            ]
        },
        {
            "positions": [
                1.4229384821158666,
                -2.2060312346310087,
                1.4448607379132454,
                -0.9738595301971497,
                0.4492271019786993,
                -1.3993127556595215
            ]
        },
        {
            "positions": [
                1.3822017558752646,
                -2.202246619733107,
                1.5426469993784422,
                -0.9373520498023893,
                0.48640572104073954,
                -1.5573320522307224
            ]
        },
        {
            "positions": [
                1.3414650296346624,
                -2.1984620048352057,
                1.640433260843639,
                -0.9008445694076288,
                0.5235843401027798,
                -1.7153513488019232
            ]
        },
        {
            "positions": [
                1.3007283033940602,
                -2.1946773899373047,
                1.7382195223088357,
                -0.8643370890128683,
                0.56076295916482,
                -1.873370645373124
            ]
        },
        {
            "positions": [
                1.259991577153458,
                -2.190892775039403,
                1.8360057837740325,
                -0.8278296086181081,
                0.5979415782268602,
                -2.031389941944325
            ]
        },
        {
            "positions": [
                1.2192548509128558,
                -2.187108160141502,
                1.933792045239229,
                -0.7913221282233476,
                0.6351201972889005,
                -2.189409238515526
            ]
        },
        {
            "positions": [
                1.1785181246722538,
                -2.1833235452436006,
                2.031578306704426,
                -0.7548146478285872,
                0.6722988163509407,
                -2.3474285350867268
            ]
        },
        {
            "positions": [
                1.1377813984316516,
                -2.179538930345699,
                2.1293645681696223,
                -0.7183071674338268,
                0.7094774354129809,
                -2.505447831657927
            ]
        },
        {
            "positions": [
                1.0970446721910494,
                -2.175754315447798,
                2.2271508296348195,
                -0.6817996870390663,
                0.7466560544750214,
                -2.6634671282291285
            ]
        },
        {
            "positions": [
                1.0563079459504472,
                -2.1719697005498966,
                2.324937091100016,
                -0.6452922066443059,
                0.7838346735370616,
                -2.8214864248003293
            ]
        },
        {
            "positions": [
                1.015571219709845,
                -2.1681850856519955,
                2.4227233525652125,
                -0.6087847262495455,
                0.8210132925991018,
                -2.97950572137153
            ]
        },
        {
            "positions": [
                0.9748344934692428,
                -2.164400470754094,
                2.5205096140304093,
                -0.5722772458547851,
                0.858191911661142,
                -3.137525017942731
            ]
        },
        {
            "positions": [
                0.8868305601241165,
                -2.078773084776299,
                2.477079227419113,
                -0.5332750786818194,
                0.8130986138259585,
                -3.1411157651816257
            ]
        },
        {
            "positions": [
                0.7988266267789903,
                -1.9931456987985035,
                2.433648840807817,
                -0.4942729115088539,
                0.7680053159907749,
                -3.14470651242052
            ]
        },
        {
            "positions": [
                0.7108226934338641,
                -1.9075183128207083,
                2.390218454196521,
                -0.45527074433588827,
                0.7229120181555915,
                -3.1482972596594148
            ]
        }
    ]
}