{
    "goal": {
        "global_pose": {
            "orientation": {
                "w": -0.4816463035849501,
                "x": 0.5182115481033762,
                "y": 0.4908360881923453,
                "z": -0.5084816262002911
            },
            "position": {
                "x": -0.8240239810943604,
                "y": 0.19912469901144506,
                "z": 0.16403168439865112
            }
        },
        "name": "move_to_storage_D"
    },
    "id": "KPIECE_move_to_storage_D_93",
    "joint_names": [
        "shoulder_pan_joint",
        "shoulder_lift_joint",
        "elbow_joint",
        "wrist_1_joint",
        "wrist_2_joint",
        "wrist_3_joint"
    ],
    "metrics": {
        "cart_traj_len": 3.427612522762271,
        "distance_elbow_joint": 4.207140835836243,
        "distance_shoulder_lift_joint": 1.2654961433139262,
        "distance_shoulder_pan_joint": 2.812368341644625,
        "distance_wrist_1_joint": 2.2953012897136924,
        "distance_wrist_2_joint": 2.2365707798898273,
        "distance_wrist_3_joint": 4.7763526947619255,
        "smoothness": 0.12275120029186311,
        "time": 0.054554174,
        "traj_len": 4.194428457508871,
        "weighted_distance": 5.628304144614753
    },
    "planner": "KPIECE",
    "start": {
        "state": {
            "elbow_joint": -2.384821988534728,
            "shoulder_lift_joint": -2.2788054721415256,
            "shoulder_pan_joint": -0.1854694642142757,
            "wrist_1_joint": 1.4845938289331202,
            "wrist_2_joint": 0.17898776772866878,
            "wrist_3_joint": 0.037105688729662994
        }
    },
    "waypoints": [
        {
            "positions": [
                -0.1854694642142757,
                -2.2788054721415256,
                -2.384821988534728,
                1.4845938289331202,
                0.17898776772866878,
                0.037105688729662994
            ]
        },
        {
            "positions": [
                -0.14261378418456425,
                -2.255398325509263,
                -2.3677969201151368,
                1.490147701795464,
                0.11406188630549949,
                -0.08959756392854692
            ]
        },
        {
            "positions": [
                -0.09975810415485278,
                -2.231991178877001,
                -2.350771851695545,
                1.4957015746578082,
                0.04913600488233019,
                -0.21630081658675684
            ]
        },
        {
            "positions": [
                -0.05690242412514132,
                -2.2085840322447385,
                -2.333746783275954,
                1.501255447520152,
                -0.015789876540839104,
                -0.34300406924496674
            ]
        },
        {
            "positions": [
                0.04588964450361832,
                -2.158927956205957,
                -2.2186486851967477,
                1.4510908134532698,
                -0.048370488546371875,
                -0.37180726650814167
            ]
        },
        {
            "positions": [
                0.14868171313237796,
                -2.1092718801671753,
                -2.1035505871175415,
                1.4009261793863876,
                -0.08095110055190465,
                -0.40061046377131665
            ]
        },
        {
            "positions": [
                0.25147378176113766,
                -2.0596158041283936,
                -1.9884524890383348,
                1.3507615453195054,
                -0.11353171255743742,
                -0.4294136610344916
            ]
        },
        {
            "positions": [
                0.3542658503898972,
                -2.009959728089612,
                -1.8733543909591286,
                1.300596911252623,
                -0.14611232456297019,
                -0.45821685829766656
            ]
        },
        {
            "positions": [
                0.4570579190186569,
                -1.9603036520508301,
                -1.7582562928799224,
                1.2504322771857408,
                -0.17869293656850296,
                -0.4870200555608415
            ]
        },
        {
            "positions": [
                0.5598499876474166,
                -1.9106475760120483,
                -1.643158194800716,
                1.2002676431188586,
                -0.21127354857403574,
                -0.5158232528240164
            ]
        },
        {
            "positions": [
                0.6626420562761762,
                -1.8609914999732666,
                -1.5280600967215094,
                1.1501030090519764,
                -0.24385416057956852,
                -0.5446264500871913
            ]
        },
        {
            "positions": [
                0.7654341249049358,
                -1.811335423934485,
                -1.4129619986423032,
                1.0999383749850942,
                -0.2764347725851013,
                -0.5734296473503664
            ]
        },
        {
            "positions": [
                0.8682261935336955,
                -1.7616793478957034,
                -1.297863900563097,
                1.0497737409182117,
                -0.30901538459063405,
                -0.6022328446135412
            ]
        },
        {
            "positions": [
                0.9710182621624551,
                -1.7120232718569217,
                -1.1827658024838907,
                0.9996091068513296,
                -0.3415959965961668,
                -0.6310360418767162
            ]
        },
        {
            "positions": [
                1.0738103307912148,
                -1.6623671958181399,
                -1.0676677044046843,
                0.9494444727844474,
                -0.37417660860169955,
                -0.6598392391398912
            ]
        },
        {
            "positions": [
                1.1766023994199746,
                -1.612711119779358,
                -0.9525696063254778,
                0.8992798387175651,
                -0.4067572206072324,
                -0.6886424364030661
            ]
        },
        {
            "positions": [
                1.2793944680487341,
                -1.5630550437405764,
                -0.8374715082462716,
                0.8491152046506828,
                -0.43933783261276516,
                -0.7174456336662411
            ]
        },
        {
            "positions": [
                1.382186536677494,
                -1.5133989677017947,
                -0.7223734101670651,
                0.7989505705838006,
                -0.4719184446182979,
                -0.7462488309294161
            ]
        },
        {
            "positions": [
                1.4849786053062535,
                -1.463742891663013,
                -0.6072753120878589,
                0.7487859365169184,
                -0.5044990566238307,
                -0.775052028192591
            ]
        },
        {
            "positions": [
                1.5257614721678283,
                -1.4476559787046055,
                -0.520504092109667,
                0.6942798593696532,
                -0.44903177249749754,
                -0.6334736361268885
            ]
        },
        {
            "positions": [
                1.5665443390294032,
                -1.431569065746198,
                -0.43373287213147493,
                0.6397737822223879,
                -0.39356448837116437,
                -0.49189524406118595
            ]
        },
        {
            "positions": [
                1.6073272058909782,
                -1.41548215278779,
                -0.346961652153283,
                0.5852677050751227,
                -0.33809720424483125,
                -0.3503168519954834
            ]
        },
        {
            "positions": [
                1.648110072752553,
                -1.3993952398293825,
                -0.260190432175091,
                0.5307616279278575,
                -0.2826299201184981,
                -0.2087384599297809
            ]
        },
        {
            "positions": [
                1.688892939614128,
                -1.383308326870975,
                -0.17341921219689904,
                0.47625555078059223,
                -0.22716263599216496,
                -0.06716006786407835
            ]
        },
        {
            "positions": [
                1.7296758064757027,
                -1.3672214139125674,
                -0.08664799221870711,
                0.42174947363332704,
                -0.17169535186583185,
                0.0744183242016242
            ]
        },
        {
            "positions": [
                1.7704586733372776,
                -1.3511345009541595,
                0.00012322775948492293,
                0.3672433964860618,
                -0.11622806773949867,
                0.21599671626732675
            ]
        },
        {
            "positions": [
                1.8112415401988526,
                -1.335047587995752,
                0.08689444773767685,
                0.3127373193387966,
                -0.06076078361316556,
                0.3575751083330292
            ]
        },
        {
            "positions": [
                1.8520244070604275,
                -1.3189606750373444,
                0.1736656677158689,
                0.2582312421915313,
                -0.0052934994868323315,
                0.49915350039873196
            ]
        },
        {
            "positions": [
                1.8928072739220023,
                -1.3028737620789368,
                0.2604368876940608,
                0.20372516504426608,
                0.05017378463950073,
                0.6407318924644343
            ]
        },
        {
            "positions": [
                1.9335901407835772,
                -1.2867868491205292,
                0.34720810767225285,
                0.1492190878970009,
                0.1056410687658339,
                0.7823102845301368
            ]
        },
        {
            "positions": [
                1.974373007645152,
                -1.2706999361621216,
                0.43397932765044467,
                0.0947130107497357,
                0.16110835289216696,
                0.9238886765958394
            ]
        },
        {
            "positions": [
                2.015155874506727,
                -1.2546130232037138,
                0.5207505476286367,
                0.04020693360247041,
                0.21657563701850024,
                1.065467068661542
            ]
        },
        {
            "positions": [
                2.055938741368302,
                -1.2385261102453062,
                0.6075217676068287,
                -0.014299143544794779,
                0.2720429211448333,
                1.2070454607272445
            ]
        },
        {
            "positions": [
                2.0967216082298767,
                -1.2224391972868986,
                0.6942929875850208,
                -0.06880522069205997,
                0.32751020527116637,
                1.3486238527929468
            ]
        },
        {
            "positions": [
                2.137504475091452,
                -1.206352284328491,
                0.7810642075632126,
                -0.12331129783932515,
                0.38297748939749954,
                1.4902022448586494
            ]
        },
        {
            "positions": [
                2.1782873419530264,
                -1.1902653713700833,
                0.8678354275414046,
                -0.17781737498659034,
                0.4384447735238326,
                1.631780636924352
            ]
        },
        {
            "positions": [
                2.2190702088146015,
                -1.1741784584116757,
                0.9546066475195967,
                -0.23232345213385575,
                0.493912057650166,
                1.773359028990055
            ]
        },
        {
            "positions": [
                2.259853075676176,
                -1.158091545453268,
                1.0413778674977887,
                -0.28682952928112104,
                0.549379341776499,
                1.9149374210557575
            ]
        },
        {
            "positions": [
                2.300635942537751,
                -1.1420046324948605,
                1.1281490874759805,
                -0.34133560642838623,
                0.6048466259028321,
                2.0565158131214596
            ]
        },
        {
            "positions": [
                2.3414188093993262,
                -1.125917719536453,
                1.2149203074541726,
                -0.3958416835756514,
                0.6603139100291652,
                2.198094205187162
            ]
        },
        {
            "positions": [
                2.382201676260901,
                -1.1098308065780451,
                1.3016915274323646,
                -0.4503477607229166,
                0.7157811941554985,
                2.3396725972528647
            ]
        },
        {
            "positions": [
                2.422984543122476,
                -1.0937438936196375,
                1.3884627474105564,
                -0.5048538378701818,
                0.7712484782818315,
                2.4812509893185672
            ]
        },
        {
            "positions": [
                2.463767409984051,
                -1.07765698066123,
                1.4752339673887482,
                -0.559359915017447,
                0.8267157624081646,
                2.62282938138427
            ]
        },
        {
            "positions": [
                2.5045502768456256,
                -1.0615700677028221,
                1.5620051873669405,
                -0.6138659921647124,
                0.8821830465344979,
                2.764407773449973
            ]
        },
        {
            "positions": [
                2.5453331437072007,
                -1.0454831547444146,
                1.6487764073451323,
                -0.6683720693119776,
                0.9376503306608311,
                2.905986165515675
            ]
        },
        {
            "positions": [
                2.5861160105687757,
                -1.029396241786007,
                1.7355476273233246,
                -0.7228781464592428,
                0.9931176147871642,
                3.0475645575813775
            ]
        },
        {
            "positions": [
                2.6268988774303503,
                -1.0133093288275994,
                1.8223188473015164,
                -0.7773842236065079,
                1.0485848989134972,
                3.18914294964708
            ]
        }
    ]
}