{
    "goal": {
        "global_pose": {
            "orientation": {
                "w": 0.5084816217422485,
                "x": -0.49083608388900757,
                "y": 0.5182115435600281,
                "z": -0.4816462993621826
            },
            "position": {
                "x": 0.5540239810943604,
                "y": 0.030875300988554955,
                "z": 0.16403168439865112
            }
        },
        "name": "move_to_storage_A"
    },
    "id": "KPIECE_move_to_storage_A_119",
    "joint_names": [
        "shoulder_pan_joint",
        "shoulder_lift_joint",
        "elbow_joint",
        "wrist_1_joint",
        "wrist_2_joint",
        "wrist_3_joint"
    ],
    "metrics": {
        "cart_traj_len": 0.3528180229675996,
        "distance_elbow_joint": 0.4538338114862819,
        "distance_shoulder_lift_joint": 0.23173322598631407,
        "distance_shoulder_pan_joint": 0.4619707108878826,
        "distance_wrist_1_joint": 0.2640230765053163,
        "distance_wrist_2_joint": 1.0946687206782244,
        "distance_wrist_3_joint": 0.09548632255684719,
        "smoothness": 6.661338165333112e-16,
        "time": 0.036475912,
        "traj_len": 1.612983530015377,
        "weighted_distance": 2.037493634443578
    },
    "planner": "KPIECE",
    "start": {
        "state": {
            "elbow_joint": 1.971548259319323,
            "shoulder_lift_joint": -1.1394851275133948,
            "shoulder_pan_joint": 0.1228115487234821,
            "wrist_1_joint": -0.7804723859257726,
            "wrist_2_joint": 0.12958671773740124,
            "wrist_3_joint": -3.192489227718131
        }
    },
    "waypoints": [
        {
            "positions": [
                0.1228115487234821,
                -1.1394851275133948,
                1.971548259319323,
                -0.7804723859257726,
                0.12958671773740124,
                -3.192489227718131
            ]
        },
        {
            "positions": [
                0.056815732882356015,
                -1.1725898740828682,
                2.0363816609602203,
                -0.818189968283675,
                0.2859679635485761,
                -3.1788483244957244
            ]
        },
        {
            "positions": [
                -0.00918008295877007,
                -1.2056946206523418,
                2.101215062601118,
                -0.8559075506415773,
                0.4423492093597511,
                -3.1652074212733177
            ]
        },
        {
            "positions": [
                -0.07517589879989614,
                -1.2387993672218152,
                2.166048464242015,
                -0.8936251329994795,
                0.5987304551709259,
                -3.151566518050911
            ]
        },
        {
            "positions": [
                -0.14117171464102224,
                -1.2719041137912885,
                2.2308818658829126,
                -0.9313427153573819,
                0.7551117009821009,
                -3.137925614828504
            ]
        },
        {
            "positions": [
                -0.20716753048214837,
                -1.3050088603607621,
                2.29571526752381,
                -0.9690602977152842,
                0.9114929467932759,
                -3.1242847116060974
            ]
        },
        {
            "positions": [
                -0.2731633463232744,
                -1.3381136069302355,
                2.3605486691647073,
                -1.0067778800731866,
                1.0678741926044506,
                -3.1106438083836907
            ]
        },
        {
            "positions": [
                -0.3391591621644005,
                -1.3712183534997089,
                2.425382070805605,
                -1.044495462431089,
                1.2242554384156257,
                -3.097002905161284
            ]
        }
    ]
}{
    "goal": {
        "global_pose": {
            "orientation": {
                "w": 0.5084816217422485,
                "x": -0.49083608388900757,
                "y": 0.5182115435600281,
                "z": -0.4816462993621826
            },
            "position": {
                "x": 0.5540239810943604,
                "y": 0.030875300988554955,
                "z": 0.16403168439865112
            }
        },
        "name": "move_to_storage_A"
    },
    "id": "KPIECE_move_to_storage_A_119",
    "joint_names": [
        "shoulder_pan_joint",
        "shoulder_lift_joint",
        "elbow_joint",
        "wrist_1_joint",
        "wrist_2_joint",
        "wrist_3_joint"
    ],
    "metrics": {
        "cart_traj_len": 0.35328601905886736,
        "distance_elbow_joint": 0.44971003400051934,
        "distance_shoulder_lift_joint": 0.2366006477780349,
        "distance_shoulder_pan_joint": 0.4599351874504449,
        "distance_wrist_1_joint": 0.2345044643514047,
        "distance_wrist_2_joint": 1.1094325816805632,
        "distance_wrist_3_joint": 0.09677153144189754,
        "smoothness": 2.2204460668324854e-16,
        "time": 0.067828793,
        "traj_len": 1.6084012082508718,
        "weighted_distance": 2.0308703936043355
    },
    "planner": "KPIECE",
    "start": {
        "state": {
            "elbow_joint": 1.97154746011099,
            "shoulder_lift_joint": -1.13948474672311,
            "shoulder_pan_joint": 0.12281154466712228,
            "wrist_1_joint": -0.7804688027058302,
            "wrist_2_joint": 0.12958655903071145,
            "wrist_3_joint": 3.0906928834467795
        }
    },
    "waypoints": [
        {
            "positions": [
                0.12281154466712228,
                -1.13948474672311,
                1.97154746011099,
                -0.7804688027058302,
                0.12958655903071145,
                3.0906928834467795
            ]
        },
        {
            "positions": [
                0.05710651788848729,
                -1.1732848392628292,
                2.0357917506824927,
                -0.8139694404703166,
                0.2880769278422205,
                3.104517387938479
            ]
        },
        {
            "positions": [
                -0.008598508890147696,
                -1.2070849318025485,
                2.1000360412539956,
                -0.8474700782348029,
                0.4465672966537295,
                3.1183418924301787
            ]
        },
        {
            "positions": [
                -0.07430353566878269,
                -1.2408850243422678,
                2.1642803318254984,
                -0.8809707159992893,
                0.6050576654652385,
                3.1321663969218783
            ]
        },
        {
            "positions": [
                -0.14000856244741766,
                -1.274685116881987,
                2.2285246223970008,
                -0.9144713537637758,
                0.7635480342767476,
                3.1459909014135783
            ]
        },
        {
            "positions": [
                -0.20571358922605265,
                -1.3084852094217063,
                2.2927689129685036,
                -0.9479719915282621,
                0.9220384030882567,
                3.159815405905278
            ]
        },
        {
            "positions": [
                -0.27141861600468764,
                -1.3422853019614256,
                2.3570132035400064,
                -0.9814726292927485,
                1.0805287718997656,
                3.1736399103969775
            ]
        },
        {
            "positions": [
                -0.33712364278332263,
                -1.3760853945011449,
                2.4212574941115093,
                -1.014973267057235,
                1.2390191407112747,
                3.187464414888677
            ]
        }
    ]
}{
    "goal": {
        "global_pose": {
            "orientation": {
                "w": 0.5084816217422485,
                "x": -0.49083608388900757,
                "y": 0.5182115435600281,
                "z": -0.4816462993621826
            },
            "position": {
                "x": 0.5540239810943604,
                "y": 0.030875300988554955,
                "z": 0.16403168439865112
            }
        },
        "name": "move_to_storage_A"
    },
    "id": "KPIECE_move_to_storage_A_119",
    "joint_names": [
        "shoulder_pan_joint",
        "shoulder_lift_joint",
        "elbow_joint",
        "wrist_1_joint",
        "wrist_2_joint",
        "wrist_3_joint"
    ],
    "metrics": {
        "cart_traj_len": 0.3529218428110073,
        "distance_elbow_joint": 0.44716507986890575,
        "distance_shoulder_lift_joint": 0.23451471374432065,
        "distance_shoulder_pan_joint": 0.4604080152389085,
        "distance_wrist_1_joint": 0.23536027337251952,
        "distance_wrist_2_joint": 1.1025450747943206,
        "distance_wrist_3_joint": 0.10485370809606032,
        "smoothness": 0.0,
        "time": 0.05739031,
        "traj_len": 1.6077458956921753,
        "weighted_distance": 2.032845205487618
    },
    "planner": "KPIECE",
    "start": {
        "state": {
            "elbow_joint": 1.9715472970024885,
            "shoulder_lift_joint": -1.1394870060712896,
            "shoulder_pan_joint": 0.12281152778156021,
            "wrist_1_joint": -0.780463741449964,
            "wrist_2_joint": 0.12958659822042276,
            "wrist_3_joint": 3.090690232415272
        }
    },
    "waypoints": [
        {
            "positions": [
                0.12281152778156021,
                -1.1394870060712896,
                1.9715472970024885,
                -0.780463741449964,
                0.12958659822042276,
                3.090690232415272
            ]
        },
        {
            "positions": [
                0.057038954176001855,
                -1.172989108034764,
                2.0354280226980466,
                -0.8140866376460382,
                0.2870930374767543,
                3.1056693335718517
            ]
        },
        {
            "positions": [
                -0.0087336194295565,
                -1.2064912099982383,
                2.0993087483936046,
                -0.8477095338421125,
                0.44459947673308575,
                3.120648434728432
            ]
        },
        {
            "positions": [
                -0.07450619303511485,
                -1.2399933119617128,
                2.1631894740891626,
                -0.8813324300381866,
                0.6021059159894173,
                3.135627535885012
            ]
        },
        {
            "positions": [
                -0.1402787666406732,
                -1.273495413925187,
                2.22707019978472,
                -0.9149553262342609,
                0.7596123552457488,
                3.150606637041592
            ]
        },
        {
            "positions": [
                -0.2060513402462316,
                -1.3069975158886615,
                2.2909509254802782,
                -0.9485782224303351,
                0.9171187945020803,
                3.165585738198172
            ]
        },
        {
            "positions": [
                -0.27182391385178994,
                -1.3404996178521358,
                2.3548316511758363,
                -0.9822011186264092,
                1.074625233758412,
                3.1805648393547523
            ]
        },
        {
            "positions": [
                -0.33759648745734827,
                -1.3740017198156103,
                2.4187123768713943,
                -1.0158240148224835,
                1.2321316730147434,
                3.195543940511332
            ]
        }
    ]
}