{
    "goal": {
        "global_pose": {
            "orientation": {
                "w": 0.7031023480610252,
                "x": -0.7110244013736278,
                "y": 0.0077485991402295624,
                "z": 0.005598929693374583
            },
            "position": {
                "x": -0.8841497679147869,
                "y": 0.44412534475326537,
                "z": 0.3711530566215515
            }
        },
        "name": "move_to_auspresseinheit_D"
    },
    "id": "KPIECE_move_to_auspresseinheit_D_98",
    "joint_names": [
        "shoulder_pan_joint",
        "shoulder_lift_joint",
        "elbow_joint",
        "wrist_1_joint",
        "wrist_2_joint",
        "wrist_3_joint"
    ],
    "metrics": {
        "cart_traj_len": 0.34326675053775335,
        "distance_elbow_joint": 0.6468447866782643,
        "distance_shoulder_lift_joint": 0.12659074257827863,
        "distance_shoulder_pan_joint": 0.1336604517062261,
        "distance_wrist_1_joint": 0.5528289334525587,
        "distance_wrist_2_joint": 1.4481745416947227,
        "distance_wrist_3_joint": 0.02577954723762632,
        "smoothness": 0.0,
        "time": 0.021818846,
        "traj_len": 1.7128569710713375,
        "weighted_distance": 2.2330341629653163
    },
    "planner": "KPIECE",
    "start": {
        "state": {
            "elbow_joint": -1.8275523626775212,
            "shoulder_lift_joint": -2.126789852344167,
            "shoulder_pan_joint": -0.03513704404078235,
            "wrist_1_joint": -2.347782403156801,
            "wrist_2_joint": -1.6058999987535132,
            "wrist_3_joint": -3.0880379163319196
        }
    },
    "waypoints": [
        {
            "positions": [
                -0.03513704404078235,
                -2.126789852344167,
                -1.8275523626775212,
                -2.347782403156801,
                -1.6058999987535132,
                -3.0880379163319196
            ]
        },
        {
            "positions": [
                -0.05184460050406061,
                -2.142613695166452,
                -1.7466967643427382,
                -2.416886019838371,
                -1.4248781810416729,
                -3.0848154729272164
            ]
        },
        {
            "positions": [
                -0.06855215696733888,
                -2.1584375379887364,
                -1.665841166007955,
                -2.4859896365199408,
                -1.2438563633298325,
                -3.081593029522513
            ]
        },
        {
            "positions": [
                -0.08525971343061714,
                -2.1742613808110214,
                -1.5849855676731721,
                -2.5550932532015103,
                -1.0628345456179922,
                -3.07837058611781
            ]
        },
        {
            "positions": [
                -0.1019672698938954,
                -2.1900852236333064,
                -1.504129969338389,
                -2.62419686988308,
                -0.8818127279061518,
                -3.0751481427131067
            ]
        },
        {
            "positions": [
                -0.11867482635717366,
                -2.205909066455591,
                -1.423274371003606,
                -2.69330048656465,
                -0.7007909101943115,
                -3.071925699308403
            ]
        },
        {
            "positions": [
                -0.13538238282045192,
                -2.221732909277876,
                -1.342418772668823,
                -2.7624041032462197,
                -0.5197690924824712,
                -3.0687032559036997
            ]
        },
        {
            "positions": [
                -0.15208993928373019,
                -2.2375567521001605,
                -1.2615631743340399,
                -2.8315077199277896,
                -0.3387472747706308,
                -3.0654808124989965
            ]
        },
        {
            "positions": [
                -0.16879749574700845,
                -2.2533805949224455,
                -1.180707575999257,
                -2.9006113366093595,
                -0.1577254570587905,
                -3.0622583690942933
            ]
        }
    ]
}