{
    "goal": {
        "global_pose": {
            "orientation": {
                "w": 0.005598929693374612,
                "x": 0.007748599140229565,
                "y": 0.7110244013736278,
                "z": -0.7031023480610252
            },
            "position": {
                "x": -0.8858502320852131,
                "y": -0.7141253447532654,
                "z": 0.3711530566215515
            }
        },
        "name": "move_to_auspresseinheit_C"
    },
    "id": "KPIECE_move_to_auspresseinheit_C_21",
    "joint_names": [
        "shoulder_pan_joint",
        "shoulder_lift_joint",
        "elbow_joint",
        "wrist_1_joint",
        "wrist_2_joint",
        "wrist_3_joint"
    ],
    "metrics": {
        "cart_traj_len": 0.49277551887149956,
        "distance_elbow_joint": 0.997340476255972,
        "distance_shoulder_lift_joint": 0.32418152420419366,
        "distance_shoulder_pan_joint": 0.2560635863073575,
        "distance_wrist_1_joint": 0.6693766506167833,
        "distance_wrist_2_joint": 1.318378145875261,
        "distance_wrist_3_joint": 0.04373475648584879,
        "smoothness": 0.0,
        "time": 1.457386924,
        "traj_len": 1.8997566001320845,
        "weighted_distance": 2.3841768913419905
    },
    "planner": "KPIECE",
    "start": {
        "state": {
            "elbow_joint": 1.7527959577737207,
            "shoulder_lift_joint": -0.9740617694225068,
            "shoulder_pan_joint": -2.967991417825858,
            "wrist_1_joint": -0.759517768980727,
            "wrist_2_joint": 1.7443932448377408,
            "wrist_3_joint": -3.0840537646736568
        }
    },
    "waypoints": [
        {
            "positions": [
                -2.967991417825858,
                -0.9740617694225068,
                1.7527959577737207,
                -0.759517768980727,
                1.7443932448377408,
                -3.0840537646736568
            ]
        },
        {
            "positions": [
                -2.9423850591951224,
                -0.9416436170020874,
                1.6530619101481234,
                -0.6925801039190487,
                1.6125554302502147,
                -3.0884272403222415
            ]
        },
        {
            "positions": [
                -2.9167787005643864,
                -0.9092254645816681,
                1.5533278625225262,
                -0.6256424388573703,
                1.4807176156626887,
                -3.0928007159708266
            ]
        },
        {
            "positions": [
                -2.891172341933651,
                -0.8768073121612486,
                1.4535938148969292,
                -0.5587047737956921,
                1.3488798010751626,
                -3.0971741916194113
            ]
        },
        {
            "positions": [
                -2.865565983302915,
                -0.8443891597408293,
                1.3538597672713317,
                -0.49176710873401364,
                1.2170419864876365,
                -3.1015476672679965
            ]
        },
        {
            "positions": [
                -2.839959624672179,
                -0.8119710073204099,
                1.2541257196457347,
                -0.4248294436723353,
                1.0852041719001102,
                -3.105921142916581
            ]
        },
        {
            "positions": [
                -2.8143532660414436,
                -0.7795528548999906,
                1.1543916720201375,
                -0.357891778610657,
                0.9533663573125842,
                -3.110294618565166
            ]
        },
        {
            "positions": [
                -2.7887469074107076,
                -0.7471347024795713,
                1.0546576243945402,
                -0.2909541135489787,
                0.8215285427250582,
                -3.114668094213751
            ]
        },
        {
            "positions": [
                -2.763140548779972,
                -0.7147165500591519,
                0.954923576768943,
                -0.2240164484873003,
                0.689690728137532,
                -3.1190415698623357
            ]
        },
        {
            "positions": [
                -2.737534190149236,
                -0.6822983976387325,
                0.8551895291433459,
                -0.15707878342562198,
                0.5578529135500059,
                -3.123415045510921
            ]
        },
        {
            "positions": [
                -2.7119278315185005,
                -0.6498802452183131,
                0.7554554815177487,
                -0.09014111836394371,
                0.42601509896247974,
                -3.1277885211595056
            ]
        }
    ]
}