{
    "goal": {
        "global_pose": {
            "orientation": {
                "w": 0.005598929693374612,
                "x": 0.007748599140229565,
                "y": 0.7110244013736278,
                "z": -0.7031023480610252
            },
            "position": {
                "x": -0.8858502320852131,
                "y": -0.7141253447532654,
                "z": 0.3711530566215515
            }
        },
        "name": "move_to_auspresseinheit_C"
    },
    "id": "KPIECE_move_to_auspresseinheit_C_38",
    "joint_names": [
        "shoulder_pan_joint",
        "shoulder_lift_joint",
        "elbow_joint",
        "wrist_1_joint",
        "wrist_2_joint",
        "wrist_3_joint"
    ],
    "metrics": {
        "cart_traj_len": 0.4944005830759044,
        "distance_elbow_joint": 1.016820276410864,
        "distance_shoulder_lift_joint": 0.33247156310792003,
        "distance_shoulder_pan_joint": 0.25623867493505337,
        "distance_wrist_1_joint": 0.7104790896938963,
        "distance_wrist_2_joint": 1.3084254098487809,
        "distance_wrist_3_joint": 0.07857605070914486,
        "smoothness": 6.45947944157498e-16,
        "time": 1.762867549,
        "traj_len": 1.924320935994217,
        "weighted_distance": 2.424678878875845
    },
    "planner": "KPIECE",
    "start": {
        "state": {
            "elbow_joint": 1.7527959577737207,
            "shoulder_lift_joint": -0.9740617694225068,
            "shoulder_pan_joint": -2.967991417825858,
            "wrist_1_joint": -0.759517768980727,
            "wrist_2_joint": 1.7443932448377408,
            "wrist_3_joint": -3.0840537646736568
        }
    },
    "waypoints": [
        {
            "positions": [
                -2.967991417825858,
                -0.9740617694225068,
                1.7527959577737207,
                -0.759517768980727,
                1.7443932448377408,
                -3.0840537646736568
            ]
        },
        {
            "positions": [
                -2.9423675503323525,
                -0.9408146131117148,
                1.6511139301326343,
                -0.6884698600113374,
                1.6135507038528627,
                -3.0919113697445715
            ]
        },
        {
            "positions": [
                -2.916743682838847,
                -0.9075674568009228,
                1.549431902491548,
                -0.6174219510419477,
                1.4827081628679846,
                -3.0997689748154857
            ]
        },
        {
            "positions": [
                -2.891119815345342,
                -0.8743203004901308,
                1.4477498748504614,
                -0.5463740420725581,
                1.3518656218831067,
                -3.1076265798864
            ]
        },
        {
            "positions": [
                -2.8654959478518367,
                -0.8410731441793388,
                1.346067847209375,
                -0.47532613310316846,
                1.2210230808982283,
                -3.1154841849573147
            ]
        },
        {
            "positions": [
                -2.8398720803583313,
                -0.8078259878685468,
                1.2443858195682886,
                -0.40427822413377884,
                1.0901805399133504,
                -3.1233417900282294
            ]
        },
        {
            "positions": [
                -2.814248212864826,
                -0.7745788315577548,
                1.1427037919272023,
                -0.3332303151643892,
                0.9593379989284724,
                -3.1311993950991437
            ]
        },
        {
            "positions": [
                -2.7886243453713204,
                -0.7413316752469628,
                1.041021764286116,
                -0.2621824061949996,
                0.8284954579435942,
                -3.139057000170058
            ]
        },
        {
            "positions": [
                -2.7630004778778154,
                -0.7080845189361707,
                0.9393397366450293,
                -0.19113449722560993,
                0.697652916958716,
                -3.1469146052409727
            ]
        },
        {
            "positions": [
                -2.73737661038431,
                -0.6748373626253787,
                0.837657709003943,
                -0.12008658825622032,
                0.5668103759738381,
                -3.1547722103118874
            ]
        },
        {
            "positions": [
                -2.7117527428908046,
                -0.6415902063145867,
                0.7359756813628565,
                -0.04903867928683074,
                0.4359678349889601,
                -3.1626298153828016
            ]
        }
    ]
}