{
    "goal": {
        "global_pose": {
            "orientation": {
                "w": 0.005598929693374612,
                "x": 0.007748599140229565,
                "y": 0.7110244013736278,
                "z": -0.7031023480610252
            },
            "position": {
                "x": -0.8858502320852131,
                "y": -0.7141253447532654,
                "z": 0.3711530566215515
            }
        },
        "name": "move_to_auspresseinheit_C"
    },
    "id": "KPIECE_move_to_auspresseinheit_C_85",
    "joint_names": [
        "shoulder_pan_joint",
        "shoulder_lift_joint",
        "elbow_joint",
        "wrist_1_joint",
        "wrist_2_joint",
        "wrist_3_joint"
    ],
    "metrics": {
        "cart_traj_len": 0.4941095625545655,
        "distance_elbow_joint": 1.0068499950258119,
        "distance_shoulder_lift_joint": 0.3284936072691437,
        "distance_shoulder_pan_joint": 0.2569640925096328,
        "distance_wrist_1_joint": 0.6884914574867126,
        "distance_wrist_2_joint": 1.3084886106293552,
        "distance_wrist_3_joint": 0.06225114843285118,
        "smoothness": 4.844609574787718e-16,
        "time": 2.2553109019999997,
        "traj_len": 1.9109000265198353,
        "weighted_distance": 2.402711234488089
    },
    "planner": "KPIECE",
    "start": {
        "state": {
            "elbow_joint": 1.7527959577737207,
            "shoulder_lift_joint": -0.9740617694225068,
            "shoulder_pan_joint": -2.967991417825858,
            "wrist_1_joint": -0.759517768980727,
            "wrist_2_joint": 1.7443932448377408,
            "wrist_3_joint": -3.0840537646736568
        }
    },
    "waypoints": [
        {
            "positions": [
                -2.967991417825858,
                -0.9740617694225068,
                1.7527959577737207,
                -0.759517768980727,
                1.7443932448377408,
                -3.0840537646736568
            ]
        },
        {
            "positions": [
                -2.9422950085748947,
                -0.9412124086955924,
                1.6521109582711395,
                -0.6906686232320557,
                1.6135443837748054,
                -3.090278879516942
            ]
        },
        {
            "positions": [
                -2.9165985993239314,
                -0.9083630479686781,
                1.5514259587685584,
                -0.6218194774833845,
                1.4826955227118699,
                -3.096503994360227
            ]
        },
        {
            "positions": [
                -2.890902190072968,
                -0.8755136872417637,
                1.450740959265977,
                -0.5529703317347132,
                1.3518466616489344,
                -3.102729109203512
            ]
        },
        {
            "positions": [
                -2.865205780822005,
                -0.8426643265148492,
                1.3500559597633959,
                -0.4841211859860419,
                1.2209978005859987,
                -3.1089542240467973
            ]
        },
        {
            "positions": [
                -2.8395093715710416,
                -0.809814965787935,
                1.2493709602608147,
                -0.4152720402373707,
                1.0901489395230632,
                -3.1151793388900826
            ]
        },
        {
            "positions": [
                -2.8138129623200783,
                -0.7769656050610205,
                1.1486859607582336,
                -0.34642289448869945,
                0.9593000784601278,
                -3.1214044537333674
            ]
        },
        {
            "positions": [
                -2.788116553069115,
                -0.7441162443341063,
                1.0480009612556525,
                -0.2775737487400282,
                0.8284512173971923,
                -3.1276295685766526
            ]
        },
        {
            "positions": [
                -2.7624201438181517,
                -0.7112668836071918,
                0.9473159617530711,
                -0.20872460299135687,
                0.6976023563342566,
                -3.133854683419938
            ]
        },
        {
            "positions": [
                -2.7367237345671884,
                -0.6784175228802775,
                0.84663096225049,
                -0.13987545724268569,
                0.5667534952713211,
                -3.1400797982632227
            ]
        },
        {
            "positions": [
                -2.711027325316225,
                -0.6455681621533631,
                0.7459459627479089,
                -0.07102631149401444,
                0.4359046342083856,
                -3.146304913106508
            ]
        }
    ]
}