{
    "goal": {
        "global_pose": {
            "orientation": {
                "w": 0.005598929693374612,
                "x": 0.007748599140229565,
                "y": 0.7110244013736278,
                "z": -0.7031023480610252
            },
            "position": {
                "x": 0.1141497679147869,
                "y": -0.7141253447532654,
                "z": 0.3711530566215515
            }
        },
        "name": "move_to_auspresseinheit_B"
    },
    "id": "KPIECE_move_to_auspresseinheit_B_70",
    "joint_names": [
        "shoulder_pan_joint",
        "shoulder_lift_joint",
        "elbow_joint",
        "wrist_1_joint",
        "wrist_2_joint",
        "wrist_3_joint"
    ],
    "metrics": {
        "cart_traj_len": 0.565097640368189,
        "distance_elbow_joint": 0.06498364147068969,
        "distance_shoulder_lift_joint": 0.29484371308081214,
        "distance_shoulder_pan_joint": 0.5786827505279897,
        "distance_wrist_1_joint": 0.3381084160842318,
        "distance_wrist_2_joint": 0.9884799983986801,
        "distance_wrist_3_joint": 0.009464299460254288,
        "smoothness": 2.5376526478085547e-16,
        "time": 0.061172092,
        "traj_len": 1.5081653818539458,
        "weighted_distance": 1.9026507384241802
    },
    "planner": "KPIECE",
    "start": {
        "state": {
            "elbow_joint": 2.0193083361928714,
            "shoulder_lift_joint": -1.1220246554650708,
            "shoulder_pan_joint": -1.0952077554168747,
            "wrist_1_joint": -0.8559753972642168,
            "wrist_2_joint": 0.4759566250798843,
            "wrist_3_joint": -3.1240929996934557
        }
    },
    "waypoints": [
        {
            "positions": [
                -1.0952077554168747,
                -1.1220246554650708,
                2.0193083361928714,
                -0.8559753972642168,
                0.4759566250798843,
                -3.1240929996934557
            ]
        },
        {
            "positions": [
                -1.191654880504873,
                -1.1711652743118728,
                2.00847772928109,
                -0.7996239945835115,
                0.6407032914796643,
                -3.1256703829368315
            ]
        },
        {
            "positions": [
                -1.2881020055928711,
                -1.2203058931586748,
                1.9976471223693082,
                -0.7432725919028061,
                0.8054499578794443,
                -3.127247766180207
            ]
        },
        {
            "positions": [
                -1.3845491306808695,
                -1.269446512005477,
                1.9868165154575266,
                -0.6869211892221009,
                0.9701966242792244,
                -3.128825149423583
            ]
        },
        {
            "positions": [
                -1.4809962557688676,
                -1.318587130852279,
                1.975985908545745,
                -0.6305697865413956,
                1.1349432906790042,
                -3.1304025326669587
            ]
        },
        {
            "positions": [
                -1.5774433808568662,
                -1.367727749699081,
                1.9651553016339633,
                -0.5742183838606902,
                1.2996899570787843,
                -3.131979915910334
            ]
        },
        {
            "positions": [
                -1.6738905059448643,
                -1.416868368545883,
                1.9543246947221817,
                -0.517866981179985,
                1.4644366234785644,
                -3.13355729915371
            ]
        }
    ]
}