{
    "goal": {
        "global_pose": {
            "orientation": {
                "w": -0.00223480608172531,
                "x": 0.0024358444001904467,
                "y": 0.7094548369677653,
                "z": -0.704743149386269
            },
            "position": {
                "x": -0.37947507619857795,
                "y": -0.6371506643295288,
                "z": 0.19426114857196808
            }
        },
        "name": "move_to_magneteinheit_C"
    },
    "id": "KPIECE_move_to_magneteinheit_C_96",
    "joint_names": [
        "shoulder_pan_joint",
        "shoulder_lift_joint",
        "elbow_joint",
        "wrist_1_joint",
        "wrist_2_joint",
        "wrist_3_joint"
    ],
    "metrics": {
        "cart_traj_len": 2.00295120483388,
        "distance_elbow_joint": 1.59021974641542,
        "distance_shoulder_lift_joint": 0.8814643982961801,
        "distance_shoulder_pan_joint": 1.4918013552385354,
        "distance_wrist_1_joint": 1.250888644132952,
        "distance_wrist_2_joint": 0.8879006173956145,
        "distance_wrist_3_joint": 3.114391623033159,
        "smoothness": 0.9317641524300206,
        "time": 1.780117581,
        "traj_len": 3.0358963066138904,
        "weighted_distance": 4.193356518602579
    },
    "planner": "KPIECE",
    "start": {
        "state": {
            "elbow_joint": 1.9565354010623817,
            "shoulder_lift_joint": -1.4165861575791021,
            "shoulder_pan_joint": -1.6717766225146293,
            "wrist_1_joint": -0.5286633292919765,
            "wrist_2_joint": 1.472756589071564,
            "wrist_3_joint": -3.1238370188695823
        }
    },
    "waypoints": [
        {
            "positions": [
                -1.6717766225146293,
                -1.4165861575791021,
                1.9565354010623817,
                -0.5286633292919765,
                1.472756589071564,
                -3.1238370188695823
            ]
        },
        {
            "positions": [
                -1.6261458639542505,
                -1.41806969004524,
                1.9517788776204805,
                -0.4467295578799306,
                1.4976445390902289,
                -2.9787216136987
            ]
        },
        {
            "positions": [
                -1.5805151053938715,
                -1.4195532225113783,
                1.9470223541785794,
                -0.3647957864678848,
                1.5225324891088938,
                -2.8336062085278177
            ]
        },
        {
            "positions": [
                -1.5506858555103866,
                -1.4585243003580162,
                1.8595502387328928,
                -0.3307232137253343,
                1.4838162034055427,
                -2.676692829284863
            ]
        },
        {
            "positions": [
                -1.5208566056269017,
                -1.497495378204654,
                1.772078123287206,
                -0.2966506409827839,
                1.4450999177021915,
                -2.5197794500419084
            ]
        },
        {
            "positions": [
                -1.4910273557434166,
                -1.536466456051292,
                1.6846060078415195,
                -0.26257806824023344,
                1.4063836319988403,
                -2.3628660707989537
            ]
        },
        {
            "positions": [
                -1.4611981058599317,
                -1.5754375338979298,
                1.5971338923958327,
                -0.22850549549768295,
                1.3676673462954891,
                -2.205952691555999
            ]
        },
        {
            "positions": [
                -1.4313688559764468,
                -1.6144086117445675,
                1.5096617769501461,
                -0.1944329227551325,
                1.328951060592138,
                -2.0490393123130444
            ]
        },
        {
            "positions": [
                -1.4015396060929617,
                -1.6533796895912054,
                1.4221896615044596,
                -0.16036035001258203,
                1.2902347748887868,
                -1.8921259330700897
            ]
        },
        {
            "positions": [
                -1.3717103562094768,
                -1.6923507674378433,
                1.3347175460587728,
                -0.12628777727003157,
                1.2515184891854356,
                -1.735212553827135
            ]
        },
        {
            "positions": [
                -1.341881106325992,
                -1.7313218452844812,
                1.2472454306130862,
                -0.09221520452748108,
                1.2128022034820845,
                -1.5782991745841803
            ]
        },
        {
            "positions": [
                -1.4452718077553541,
                -1.7288118756544109,
                1.3222326666389312,
                -0.1638986709087963,
                1.1713560220685058,
                -1.653650051757812
            ]
        },
        {
            "positions": [
                -1.5486625091847164,
                -1.7263019060243403,
                1.3972199026647765,
                -0.23558213729011154,
                1.129909840654927,
                -1.7290009289314439
            ]
        },
        {
            "positions": [
                -1.6520532106140786,
                -1.72379193639427,
                1.4722071386906215,
                -0.30726560367142675,
                1.0884636592413484,
                -1.8043518061050754
            ]
        },
        {
            "positions": [
                -1.755443912043441,
                -1.7212819667641996,
                1.5471943747164665,
                -0.37894907005274203,
                1.0470174778277697,
                -1.8797026832787072
            ]
        },
        {
            "positions": [
                -1.8588346134728033,
                -1.7187719971341293,
                1.6221816107423117,
                -0.4506325364340572,
                1.005571296414191,
                -1.955053560452339
            ]
        },
        {
            "positions": [
                -1.9622253149021656,
                -1.7162620275040588,
                1.6971688467681567,
                -0.5223160028153724,
                0.9641251150006123,
                -2.0304044376259704
            ]
        },
        {
            "positions": [
                -2.0656160163315276,
                -1.7137520578739884,
                1.7721560827940017,
                -0.5939994691966877,
                0.9226789335870336,
                -2.105755314799602
            ]
        },
        {
            "positions": [
                -2.1690067177608903,
                -1.711242088243918,
                1.847143318819847,
                -0.665682935578003,
                0.8812327521734549,
                -2.181106191973234
            ]
        },
        {
            "positions": [
                -2.2723974191902525,
                -1.7087321186138478,
                1.9221305548456922,
                -0.7373664019593181,
                0.8397865707598762,
                -2.2564570691468657
            ]
        },
        {
            "positions": [
                -2.3757881206196148,
                -1.7062221489837772,
                1.997117790871537,
                -0.8090498683406333,
                0.7983403893462975,
                -2.3318079463204975
            ]
        },
        {
            "positions": [
                -2.479178822048977,
                -1.703712179353707,
                2.072105026897382,
                -0.8807333347219486,
                0.7568942079327188,
                -2.4071588234941292
            ]
        },
        {
            "positions": [
                -2.4837174882871405,
                -1.5574118763970615,
                2.065139547509731,
                -0.8761515889545219,
                0.7367360903644101,
                -2.6136625927346335
            ]
        },
        {
            "positions": [
                -2.488256154525304,
                -1.411111573440416,
                2.0581740681220797,
                -0.8715698431870952,
                0.7165779727961015,
                -2.820166361975138
            ]
        },
        {
            "positions": [
                -2.480490759100011,
                -1.2878523540670481,
                2.037104457668817,
                -0.8631903943675274,
                0.7004928722733553,
                -2.9836596576535377
            ]
        },
        {
            "positions": [
                -2.472725363674718,
                -1.1645931346936802,
                2.0160348472155536,
                -0.8548109455479596,
                0.6844077717506092,
                -3.1471529533319376
            ]
        }
    ]
}