{
    "goal": {
        "global_pose": {
            "orientation": {
                "w": 0.5084816262002911,
                "x": -0.4908360881923452,
                "y": 0.5182115481033761,
                "z": -0.48164630358495003
            },
            "position": {
                "x": 0.5540239810943604,
                "y": -0.46912469901144505,
                "z": 0.16403168439865112
            }
        },
        "name": "move_to_storage_B"
    },
    "id": "KPIECE_move_to_storage_B_91",
    "joint_names": [
        "shoulder_pan_joint",
        "shoulder_lift_joint",
        "elbow_joint",
        "wrist_1_joint",
        "wrist_2_joint",
        "wrist_3_joint"
    ],
    "metrics": {
        "cart_traj_len": 2.5199833651272106,
        "distance_elbow_joint": 3.6967206637746903,
        "distance_shoulder_lift_joint": 0.5399189829683197,
        "distance_shoulder_pan_joint": 2.050008472190971,
        "distance_wrist_1_joint": 2.9830650991469785,
        "distance_wrist_2_joint": 2.7099163575225496,
        "distance_wrist_3_joint": 3.5203840563231164,
        "smoothness": 0.273374431052718,
        "time": 0.050120301000000006,
        "traj_len": 3.937005668261938,
        "weighted_distance": 5.313545257287491
    },
    "planner": "KPIECE",
    "start": {
        "state": {
            "elbow_joint": 1.664937868594044,
            "shoulder_lift_joint": -0.661644460510453,
            "shoulder_pan_joint": -0.9139846352900073,
            "wrist_1_joint": 2.146753192139373,
            "wrist_2_joint": -2.2341966793290973,
            "wrist_3_joint": 0.005466555786416001
        }
    },
    "waypoints": [
        {
            "positions": [
                -0.9139846352900073,
                -0.661644460510453,
                1.664937868594044,
                2.146753192139373,
                -2.2341966793290973,
                0.005466555786416001
            ]
        },
        {
            "positions": [
                -0.8205581246574634,
                -0.6576455356579808,
                1.4975969719490405,
                2.1274036114572383,
                -2.1523309824148225,
                -0.013613783830757568
            ]
        },
        {
            "positions": [
                -0.7271316140249193,
                -0.6536466108055085,
                1.3302560753040369,
                2.108054030775104,
                -2.070465285500547,
                -0.032694123447931135
            ]
        },
        {
            "positions": [
                -0.6337051033923755,
                -0.6496476859530362,
                1.1629151786590335,
                2.088704450092969,
                -1.9885995885862724,
                -0.0517744630651047
            ]
        },
        {
            "positions": [
                -0.5402785927598315,
                -0.6456487611005639,
                0.9955742820140299,
                2.069354869410834,
                -1.9067338916719974,
                -0.07085480268227827
            ]
        },
        {
            "positions": [
                -0.44685208212728755,
                -0.6416498362480917,
                0.8282333853690265,
                2.0500052887286992,
                -1.8248681947577223,
                -0.08993514229945183
            ]
        },
        {
            "positions": [
                -0.35342557149474363,
                -0.6376509113956195,
                0.6608924887240231,
                2.030655708046565,
                -1.7430024978434473,
                -0.1090154819166254
            ]
        },
        {
            "positions": [
                -0.2599990608621997,
                -0.6336519865431471,
                0.49355159207901966,
                2.01130612736443,
                -1.6611368009291723,
                -0.12809582153379895
            ]
        },
        {
            "positions": [
                -0.16657255022965567,
                -0.6296530616906749,
                0.3262106954340158,
                1.9919565466822953,
                -1.5792711040148975,
                -0.14717616115097254
            ]
        },
        {
            "positions": [
                -0.07314603959711174,
                -0.6256541368382026,
                0.15886979878901242,
                1.9726069660001604,
                -1.4974054071006222,
                -0.1662565007681461
            ]
        },
        {
            "positions": [
                0.02028047103543216,
                -0.6216552119857304,
                -0.0084710978559909,
                1.9532573853180257,
                -1.4155397101863474,
                -0.18533684038531967
            ]
        },
        {
            "positions": [
                -0.01691097449341885,
                -0.6383195364671836,
                0.05897262538816439,
                1.8602717422405046,
                -1.3524977305736874,
                -0.07435081838027366
            ]
        },
        {
            "positions": [
                -0.05410242002226986,
                -0.6549838609486368,
                0.12641634863231968,
                1.7672860991629837,
                -1.2894557509610274,
                0.03663520362477235
            ]
        },
        {
            "positions": [
                -0.09129386555112087,
                -0.6716481854300901,
                0.19386007187647497,
                1.6743004560854626,
                -1.2264137713483676,
                0.1476212256298184
            ]
        },
        {
            "positions": [
                -0.12848531107997188,
                -0.6883125099115434,
                0.2613037951206303,
                1.5813148130079415,
                -1.1633717917357076,
                0.25860724763486437
            ]
        },
        {
            "positions": [
                -0.1656767566088229,
                -0.7049768343929965,
                0.32874751836478555,
                1.4883291699304206,
                -1.1003298121230476,
                0.3695932696399103
            ]
        },
        {
            "positions": [
                -0.2028682021376739,
                -0.7216411588744498,
                0.3961912416089408,
                1.3953435268528995,
                -1.0372878325103876,
                0.48057929164495644
            ]
        },
        {
            "positions": [
                -0.2400596476665249,
                -0.7383054833559031,
                0.4636349648530961,
                1.3023578837753784,
                -0.9742458528977277,
                0.5915653136500023
            ]
        },
        {
            "positions": [
                -0.2772510931953759,
                -0.7549698078373562,
                0.5310786880972515,
                1.2093722406978573,
                -0.9112038732850678,
                0.7025513356550483
            ]
        },
        {
            "positions": [
                -0.3144425387242269,
                -0.7716341323188095,
                0.5985224113414067,
                1.1163865976203364,
                -0.8481618936724078,
                0.8135373576600944
            ]
        },
        {
            "positions": [
                -0.3516339842530779,
                -0.7882984568002627,
                0.665966134585562,
                1.0234009545428155,
                -0.7851199140597479,
                0.9245233796651402
            ]
        },
        {
            "positions": [
                -0.38882542978192886,
                -0.8049627812817159,
                0.7334098578297172,
                0.9304153114652944,
                -0.722077934447088,
                1.0355094016701862
            ]
        },
        {
            "positions": [
                -0.4260168753107799,
                -0.8216271057631692,
                0.8008535810738726,
                0.8374296683877733,
                -0.6590359548344279,
                1.1464954236752325
            ]
        },
        {
            "positions": [
                -0.4632083208396309,
                -0.8382914302446225,
                0.8682973043180279,
                0.7444440253102522,
                -0.595993975221768,
                1.2574814456802783
            ]
        },
        {
            "positions": [
                -0.5003997663684819,
                -0.8549557547260757,
                0.9357410275621831,
                0.6514583822327313,
                -0.532951995609108,
                1.3684674676853243
            ]
        },
        {
            "positions": [
                -0.5375912118973329,
                -0.8716200792075289,
                1.0031847508063383,
                0.5584727391552102,
                -0.4699100159964481,
                1.4794534896903704
            ]
        },
        {
            "positions": [
                -0.574782657426184,
                -0.8882844036889821,
                1.0706284740504937,
                0.4654870960776891,
                -0.4068680363837882,
                1.5904395116954164
            ]
        },
        {
            "positions": [
                -0.611974102955035,
                -0.9049487281704354,
                1.1380721972946488,
                0.37250145300016824,
                -0.3438260567711282,
                1.7014255337004625
            ]
        },
        {
            "positions": [
                -0.649165548483886,
                -0.9216130526518886,
                1.2055159205388042,
                0.27951580992264713,
                -0.2807840771584682,
                1.8124115557055083
            ]
        },
        {
            "positions": [
                -0.686356994012737,
                -0.9382773771333419,
                1.2729596437829593,
                0.18653016684512624,
                -0.21774209754580842,
                1.9233975777105543
            ]
        },
        {
            "positions": [
                -0.723548439541588,
                -0.9549417016147951,
                1.3404033670271147,
                0.09354452376760514,
                -0.15470011793314842,
                2.0343835997156003
            ]
        },
        {
            "positions": [
                -0.760739885070439,
                -0.9716060260962484,
                1.4078470902712699,
                0.0005588806900842513,
                -0.09165813832048841,
                2.1453696217206466
            ]
        },
        {
            "positions": [
                -0.7979313305992899,
                -0.9882703505777015,
                1.4752908135154252,
                -0.09242676238743686,
                -0.02861615870782863,
                2.2563556437256924
            ]
        },
        {
            "positions": [
                -0.8351227761281411,
                -1.0049346750591548,
                1.5427345367595806,
                -0.18541240546495796,
                0.034425820904831594,
                2.3673416657307387
            ]
        },
        {
            "positions": [
                -0.872314221656992,
                -1.021598999540608,
                1.610178260003736,
                -0.27839804854247907,
                0.0974678005174916,
                2.478327687735785
            ]
        },
        {
            "positions": [
                -0.909505667185843,
                -1.0382633240220613,
                1.6776219832478911,
                -0.3713836916200002,
                0.16050978013015138,
                2.5893137097408307
            ]
        },
        {
            "positions": [
                -0.946697112714694,
                -1.0549276485035146,
                1.7450657064920465,
                -0.4643693346975213,
                0.22355175974281138,
                2.7002997317458766
            ]
        },
        {
            "positions": [
                -0.9838885582435452,
                -1.0715919729849679,
                1.8125094297362017,
                -0.5573549777750424,
                0.2865937393554714,
                2.811285753750923
            ]
        },
        {
            "positions": [
                -1.0210800037723962,
                -1.088256297466421,
                1.879953152980357,
                -0.6503406208525631,
                0.3496357189681314,
                2.9222717757559686
            ]
        },
        {
            "positions": [
                -1.0582714493012473,
                -1.1049206219478742,
                1.9473968762245122,
                -0.7433262639300842,
                0.4126776985807912,
                3.033257797761015
            ]
        },
        {
            "positions": [
                -1.0954628948300982,
                -1.1215849464293275,
                2.0148405994686676,
                -0.8363119070076052,
                0.47571967819345123,
                3.1442438197660607
            ]
        }
    ]
}