{
    "goal": {
        "global_pose": {
            "orientation": {
                "w": 0.005598929693374612,
                "x": 0.007748599140229565,
                "y": 0.7110244013736278,
                "z": -0.7031023480610252
            },
            "position": {
                "x": 0.1141497679147869,
                "y": -0.7141253447532654,
                "z": 0.3711530566215515
            }
        },
        "name": "move_to_auspresseinheit_B"
    },
    "id": "KPIECE_move_to_auspresseinheit_B_104",
    "joint_names": [
        "shoulder_pan_joint",
        "shoulder_lift_joint",
        "elbow_joint",
        "wrist_1_joint",
        "wrist_2_joint",
        "wrist_3_joint"
    ],
    "metrics": {
        "cart_traj_len": 0.5645815668388211,
        "distance_elbow_joint": 0.06543773553088306,
        "distance_shoulder_lift_joint": 0.2939993293966616,
        "distance_shoulder_pan_joint": 0.5765911040318614,
        "distance_wrist_1_joint": 0.3377292638305387,
        "distance_wrist_2_joint": 0.9953371726775773,
        "distance_wrist_3_joint": 0.0010802647253331799,
        "smoothness": 0.0,
        "time": 0.057281135999999996,
        "traj_len": 1.5067099489260882,
        "weighted_distance": 1.898789571319486
    },
    "planner": "KPIECE",
    "start": {
        "state": {
            "elbow_joint": 2.0193083361928714,
            "shoulder_lift_joint": -1.1220246554650708,
            "shoulder_pan_joint": -1.0952077554168747,
            "wrist_1_joint": -0.8559753972642168,
            "wrist_2_joint": 0.4759566250798843,
            "wrist_3_joint": -3.1240929996934557
        }
    },
    "waypoints": [
        {
            "positions": [
                -1.0952077554168747,
                -1.1220246554650708,
                2.0193083361928714,
                -0.8559753972642168,
                0.4759566250798843,
                -3.1240929996934557
            ]
        },
        {
            "positions": [
                -1.1913062727555181,
                -1.1710245436978477,
                2.008402046937724,
                -0.7996871866257936,
                0.6418461538594805,
                -3.1242730438143447
            ]
        },
        {
            "positions": [
                -1.2874047900941619,
                -1.2200244319306246,
                1.9974957576825771,
                -0.7433989759873706,
                0.8077356826390767,
                -3.1244530879352332
            ]
        },
        {
            "positions": [
                -1.3835033074328054,
                -1.2690243201634015,
                1.98658946842743,
                -0.6871107653489474,
                0.973625211418673,
                -3.1246331320561223
            ]
        },
        {
            "positions": [
                -1.4796018247714489,
                -1.3180242083961786,
                1.9756831791722826,
                -0.6308225547105244,
                1.139514740198269,
                -3.1248131761770113
            ]
        },
        {
            "positions": [
                -1.5757003421100926,
                -1.3670240966289555,
                1.9647768899171356,
                -0.5745343440721011,
                1.3054042689778653,
                -3.1249932202979
            ]
        },
        {
            "positions": [
                -1.671798859448736,
                -1.4160239848617324,
                1.9538706006619884,
                -0.5182461334336781,
                1.4712937977574616,
                -3.125173264418789
            ]
        }
    ]
}