{
    "goal": {
        "global_pose": {
            "orientation": {
                "w": -0.4816463035849501,
                "x": 0.5182115481033762,
                "y": 0.4908360881923453,
                "z": -0.5084816262002911
            },
            "position": {
                "x": -0.8240239810943604,
                "y": -0.300875300988555,
                "z": 0.16403168439865112
            }
        },
        "name": "move_to_storage_C"
    },
    "id": "KPIECE_move_to_storage_C_59",
    "joint_names": [
        "shoulder_pan_joint",
        "shoulder_lift_joint",
        "elbow_joint",
        "wrist_1_joint",
        "wrist_2_joint",
        "wrist_3_joint"
    ],
    "metrics": {
        "cart_traj_len": 0.5756513923111826,
        "distance_elbow_joint": 0.25476447640957756,
        "distance_shoulder_lift_joint": 0.18854925931012145,
        "distance_shoulder_pan_joint": 0.4951074504557562,
        "distance_wrist_1_joint": 0.07064544947823748,
        "distance_wrist_2_joint": 1.059275570811331,
        "distance_wrist_3_joint": 0.0682769815601616,
        "smoothness": 2.5376526478085547e-16,
        "time": 0.013278768,
        "traj_len": 1.4617178893429421,
        "weighted_distance": 1.8447477256890918
    },
    "planner": "KPIECE",
    "start": {
        "state": {
            "elbow_joint": 2.010868314990456,
            "shoulder_lift_joint": -1.1634956873337592,
            "shoulder_pan_joint": -2.4736205022346125,
            "wrist_1_joint": -0.8367026794202681,
            "wrist_2_joint": 0.6746043897044499,
            "wrist_3_joint": -3.1496632123970403
        }
    },
    "waypoints": [
        {
            "positions": [
                -2.4736205022346125,
                -1.1634956873337592,
                2.010868314990456,
                -0.8367026794202681,
                0.6746043897044499,
                -3.1496632123970403
            ]
        },
        {
            "positions": [
                -2.5561384106439053,
                -1.1320708107820723,
                1.968407568922193,
                -0.8249284378405619,
                0.8511503181730051,
                -3.1382837154703465
            ]
        },
        {
            "positions": [
                -2.6386563190531978,
                -1.1006459342303854,
                1.92594682285393,
                -0.8131541962608556,
                1.0276962466415602,
                -3.126904218543653
            ]
        },
        {
            "positions": [
                -2.7211742274624906,
                -1.0692210576786985,
                1.8834860767856672,
                -0.8013799546811493,
                1.2042421751101156,
                -3.1155247216169597
            ]
        },
        {
            "positions": [
                -2.8036921358717835,
                -1.0377961811270116,
                1.841025330717404,
                -0.7896057131014431,
                1.3807881035786704,
                -3.104145224690266
            ]
        },
        {
            "positions": [
                -2.886210044281076,
                -1.0063713045753246,
                1.7985645846491412,
                -0.7778314715217369,
                1.5573340320472258,
                -3.092765727763572
            ]
        },
        {
            "positions": [
                -2.9687279526903687,
                -0.9749464280236377,
                1.7561038385808783,
                -0.7660572299420306,
                1.7338799605157809,
                -3.0813862308368787
            ]
        }
    ]
}