{
    "goal": {
        "global_pose": {
            "orientation": {
                "w": -0.4816463035849501,
                "x": 0.5182115481033762,
                "y": 0.4908360881923453,
                "z": -0.5084816262002911
            },
            "position": {
                "x": -0.8240239810943604,
                "y": 0.19912469901144506,
                "z": 0.16403168439865112
            }
        },
        "name": "move_to_storage_D"
    },
    "id": "KPIECE_move_to_storage_D_28",
    "joint_names": [
        "shoulder_pan_joint",
        "shoulder_lift_joint",
        "elbow_joint",
        "wrist_1_joint",
        "wrist_2_joint",
        "wrist_3_joint"
    ],
    "metrics": {
        "cart_traj_len": 0.5924065762872581,
        "distance_elbow_joint": 0.6105320548161131,
        "distance_shoulder_lift_joint": 0.15170231628882203,
        "distance_shoulder_pan_joint": 0.15093791670358445,
        "distance_wrist_1_joint": 3.918814083779879,
        "distance_wrist_2_joint": 1.7796017282788084,
        "distance_wrist_3_joint": 3.115844302773611,
        "smoothness": 0.1206462370177442,
        "time": 0.084363632,
        "traj_len": 3.118883197979818,
        "weighted_distance": 4.653765875100157
    },
    "planner": "KPIECE",
    "start": {
        "state": {
            "elbow_joint": -2.384821988534728,
            "shoulder_lift_joint": -2.2788054721415256,
            "shoulder_pan_joint": -0.1854694642142757,
            "wrist_1_joint": 1.4845938289331202,
            "wrist_2_joint": 0.17898776772866878,
            "wrist_3_joint": 0.037105688729662994
        }
    },
    "waypoints": [
        {
            "positions": [
                -0.1854694642142757,
                -2.2788054721415256,
                -2.384821988534728,
                1.4845938289331202,
                0.17898776772866878,
                0.037105688729662994
            ]
        },
        {
            "positions": [
                -0.14151999627848205,
                -2.226036174825637,
                -2.398302839984347,
                1.5070315053153218,
                0.08973243215704416,
                -0.09581622746852933
            ]
        },
        {
            "positions": [
                -0.0975705283426884,
                -2.1732668775097492,
                -2.4117836914339668,
                1.5294691816975234,
                0.0004770965854195425,
                -0.22873814366672168
            ]
        },
        {
            "positions": [
                -0.09482970308912331,
                -2.1712597591768343,
                -2.386411067437581,
                1.3610370629577202,
                -0.06913555807264825,
                -0.3526512075961663
            ]
        },
        {
            "positions": [
                -0.0920888778355582,
                -2.169252640843919,
                -2.361038443441195,
                1.192604944217917,
                -0.13874821273071603,
                -0.476564271525611
            ]
        },
        {
            "positions": [
                -0.08934805258199312,
                -2.167245522511004,
                -2.3356658194448094,
                1.0241728254781135,
                -0.20836086738878384,
                -0.6004773354550555
            ]
        },
        {
            "positions": [
                -0.08660722732842802,
                -2.165238404178089,
                -2.3102931954484234,
                0.8557407067383103,
                -0.2779735220468516,
                -0.7243903993845002
            ]
        },
        {
            "positions": [
                -0.08386640207486293,
                -2.163231285845174,
                -2.2849205714520378,
                0.687308587998507,
                -0.34758617670491937,
                -0.8483034633139448
            ]
        },
        {
            "positions": [
                -0.08112557682129784,
                -2.161224167512259,
                -2.2595479474556517,
                0.5188764692587038,
                -0.4171988313629872,
                -0.9722165272433894
            ]
        },
        {
            "positions": [
                -0.07838475156773274,
                -2.159217049179344,
                -2.234175323459266,
                0.3504443505189003,
                -0.486811486021055,
                -1.0961295911728342
            ]
        },
        {
            "positions": [
                -0.07564392631416764,
                -2.157209930846429,
                -2.20880269946288,
                0.1820122317790971,
                -0.5564241406791228,
                -1.2200426551022787
            ]
        },
        {
            "positions": [
                -0.07290310106060255,
                -2.155202812513514,
                -2.1834300754664944,
                0.01358011303929385,
                -0.6260367953371907,
                -1.3439557190317235
            ]
        },
        {
            "positions": [
                -0.07016227580703746,
                -2.153195694180599,
                -2.1580574514701083,
                -0.1548520057005094,
                -0.6956494499952584,
                -1.467868782961168
            ]
        },
        {
            "positions": [
                -0.06742145055347236,
                -2.151188575847684,
                -2.1326848274737227,
                -0.32328412444031285,
                -0.7652621046533262,
                -1.5917818468906129
            ]
        },
        {
            "positions": [
                -0.06468062529990727,
                -2.1491814575147687,
                -2.1073122034773366,
                -0.49171624318011586,
                -0.834874759311394,
                -1.7156949108200572
            ]
        },
        {
            "positions": [
                -0.061939800046342176,
                -2.147174339181854,
                -2.081939579480951,
                -0.6601483619199193,
                -0.9044874139694618,
                -1.8396079747495018
            ]
        },
        {
            "positions": [
                -0.059198974792777075,
                -2.145167220848939,
                -2.056566955484565,
                -0.8285804806597228,
                -0.9741000686275296,
                -1.9635210386789468
            ]
        },
        {
            "positions": [
                -0.05645814953921199,
                -2.1431601025160236,
                -2.0311943314881793,
                -0.9970125993995258,
                -1.0437127232855974,
                -2.087434102608391
            ]
        },
        {
            "positions": [
                -0.05371732428564689,
                -2.1411529841831087,
                -2.0058217074917932,
                -1.1654447181393293,
                -1.1133253779436652,
                -2.211347166537836
            ]
        },
        {
            "positions": [
                -0.050976499032081804,
                -2.139145865850194,
                -1.9804490834954076,
                -1.3338768368791323,
                -1.182938032601733,
                -2.3352602304672803
            ]
        },
        {
            "positions": [
                -0.0482356737785167,
                -2.137138747517279,
                -1.9550764594990218,
                -1.5023089556189357,
                -1.252550687259801,
                -2.459173294396725
            ]
        },
        {
            "positions": [
                -0.04549484852495161,
                -2.1351316291843636,
                -1.929703835502636,
                -1.6707410743587392,
                -1.3221633419178687,
                -2.5830863583261694
            ]
        },
        {
            "positions": [
                -0.04275402327138652,
                -2.1331245108514487,
                -1.90433121150625,
                -1.8391731930985422,
                -1.3917759965759362,
                -2.706999422255614
            ]
        },
        {
            "positions": [
                -0.040013198017821425,
                -2.131117392518534,
                -1.8789585875098642,
                -2.0076053118383452,
                -1.461388651234004,
                -2.8309124861850585
            ]
        },
        {
            "positions": [
                -0.03727237276425633,
                -2.1291102741856185,
                -1.8535859635134784,
                -2.176037430578149,
                -1.531001305892072,
                -2.9548255501145038
            ]
        },
        {
            "positions": [
                -0.03453154751069124,
                -2.1271031558527036,
                -1.8282133395170925,
                -2.344469549317952,
                -1.6006139605501397,
                -3.078738614043948
            ]
        }
    ]
}