{
    "goal": {
        "global_pose": {
            "orientation": {
                "w": -0.4816463035849501,
                "x": 0.5182115481033762,
                "y": 0.4908360881923453,
                "z": -0.5084816262002911
            },
            "position": {
                "x": -0.8240239810943604,
                "y": -0.300875300988555,
                "z": 0.16403168439865112
            }
        },
        "name": "move_to_storage_C"
    },
    "id": "KPIECE_move_to_storage_C_48",
    "joint_names": [
        "shoulder_pan_joint",
        "shoulder_lift_joint",
        "elbow_joint",
        "wrist_1_joint",
        "wrist_2_joint",
        "wrist_3_joint"
    ],
    "metrics": {
        "cart_traj_len": 0.5766593551228671,
        "distance_elbow_joint": 0.25571402496155393,
        "distance_shoulder_lift_joint": 0.19039479591594277,
        "distance_shoulder_pan_joint": 0.4930488006746221,
        "distance_wrist_1_joint": 0.06664645840582417,
        "distance_wrist_2_joint": 1.08071176658673,
        "distance_wrist_3_joint": 0.05565197591930238,
        "smoothness": 2.5376526478085547e-16,
        "time": 0.013206249000000002,
        "traj_len": 1.4636146427471868,
        "weighted_distance": 1.8441339428835246
    },
    "planner": "KPIECE",
    "start": {
        "state": {
            "elbow_joint": 2.010868314990456,
            "shoulder_lift_joint": -1.1634956873337592,
            "shoulder_pan_joint": -2.4736205022346125,
            "wrist_1_joint": -0.8367026794202681,
            "wrist_2_joint": 0.6746043897044499,
            "wrist_3_joint": -3.1496632123970403
        }
    },
    "waypoints": [
        {
            "positions": [
                -2.4736205022346125,
                -1.1634956873337592,
                2.010868314990456,
                -0.8367026794202681,
                0.6746043897044499,
                -3.1496632123970403
            ]
        },
        {
            "positions": [
                -2.5557953023470494,
                -1.1317632213477686,
                1.9682493108301968,
                -0.8255949363526307,
                0.8547230174689049,
                -3.1403878830771568
            ]
        },
        {
            "positions": [
                -2.6379701024594864,
                -1.1000307553617783,
                1.9256303066699378,
                -0.8144871932849934,
                1.03484164523336,
                -3.131112553757273
            ]
        },
        {
            "positions": [
                -2.7201449025719233,
                -1.0682982893757877,
                1.8830113025096789,
                -0.803379450217356,
                1.214960272997815,
                -3.121837224437389
            ]
        },
        {
            "positions": [
                -2.8023197026843607,
                -1.0365658233897974,
                1.8403922983494199,
                -0.7922717071497186,
                1.39507890076227,
                -3.1125618951175054
            ]
        },
        {
            "positions": [
                -2.8844945027967976,
                -1.0048333574038069,
                1.7977732941891609,
                -0.7811639640820813,
                1.575197528526725,
                -3.103286565797622
            ]
        },
        {
            "positions": [
                -2.9666693029092346,
                -0.9731008914178164,
                1.7551542900289019,
                -0.7700562210144439,
                1.7553161562911799,
                -3.094011236477738
            ]
        }
    ]
}