{
    "goal": {
        "global_pose": {
            "orientation": {
                "w": -0.4816463035849501,
                "x": 0.5182115481033762,
                "y": 0.4908360881923453,
                "z": -0.5084816262002911
            },
            "position": {
                "x": -0.8240239810943604,
                "y": -0.300875300988555,
                "z": 0.16403168439865112
            }
        },
        "name": "move_to_storage_C"
    },
    "id": "KPIECE_move_to_storage_C_13",
    "joint_names": [
        "shoulder_pan_joint",
        "shoulder_lift_joint",
        "elbow_joint",
        "wrist_1_joint",
        "wrist_2_joint",
        "wrist_3_joint"
    ],
    "metrics": {
        "cart_traj_len": 0.576892156465552,
        "distance_elbow_joint": 0.2594015580624718,
        "distance_shoulder_lift_joint": 0.18945632458089579,
        "distance_shoulder_pan_joint": 0.49434000980128845,
        "distance_wrist_1_joint": 0.08528858374368131,
        "distance_wrist_2_joint": 1.074689084709172,
        "distance_wrist_3_joint": 0.07235470682232936,
        "smoothness": 5.075305295617109e-16,
        "time": 0.049866992,
        "traj_len": 1.474967887013083,
        "weighted_distance": 1.8655340655740786
    },
    "planner": "KPIECE",
    "start": {
        "state": {
            "elbow_joint": 2.010868314990456,
            "shoulder_lift_joint": -1.1634956873337592,
            "shoulder_pan_joint": -2.4736205022346125,
            "wrist_1_joint": -0.8367026794202681,
            "wrist_2_joint": 0.6746043897044499,
            "wrist_3_joint": -3.1496632123970403
        }
    },
    "waypoints": [
        {
            "positions": [
                -2.4736205022346125,
                -1.1634956873337592,
                2.010868314990456,
                -0.8367026794202681,
                0.6746043897044499,
                -3.1496632123970403
            ]
        },
        {
            "positions": [
                -2.5560105038681606,
                -1.1319196332369432,
                1.9676347219800439,
                -0.8224879154629878,
                0.8537192371559785,
                -3.1376040945933186
            ]
        },
        {
            "positions": [
                -2.638400505501709,
                -1.1003435791401273,
                1.924401128969632,
                -0.8082731515057077,
                1.0328340846075073,
                -3.1255449767895973
            ]
        },
        {
            "positions": [
                -2.7207905071352565,
                -1.0687675250433113,
                1.88116753595922,
                -0.7940583875484275,
                1.2119489320590358,
                -3.1134858589858756
            ]
        },
        {
            "positions": [
                -2.8031805087688046,
                -1.0371914709464953,
                1.837933942948808,
                -0.7798436235911472,
                1.3910637795105645,
                -3.101426741182154
            ]
        },
        {
            "positions": [
                -2.885570510402353,
                -1.0056154168496794,
                1.794700349938396,
                -0.765628859633867,
                1.5701786269620932,
                -3.0893676233784326
            ]
        },
        {
            "positions": [
                -2.967960512035901,
                -0.9740393627528634,
                1.751466756927984,
                -0.7514140956765868,
                1.7492934744136217,
                -3.077308505574711
            ]
        }
    ]
}