{
    "goal": {
        "global_pose": {
            "orientation": {
                "w": 0.7047431468963623,
                "x": -0.7094548344612122,
                "y": 0.0024358443915843964,
                "z": -0.0022348060738295317
            },
            "position": {
                "x": 0.6094750761985779,
                "y": 0.3671506643295288,
                "z": 0.19426114857196808
            }
        },
        "name": "move_to_magneteinheit_A"
    },
    "id": "KPIECE_move_to_magneteinheit_A_15",
    "joint_names": [
        "shoulder_pan_joint",
        "shoulder_lift_joint",
        "elbow_joint",
        "wrist_1_joint",
        "wrist_2_joint",
        "wrist_3_joint"
    ],
    "metrics": {
        "cart_traj_len": 3.467907884835523,
        "distance_elbow_joint": 3.973302836799194,
        "distance_shoulder_lift_joint": 1.9730894765896312,
        "distance_shoulder_pan_joint": 3.1625330454700205,
        "distance_wrist_1_joint": 3.5044004868649594,
        "distance_wrist_2_joint": 2.9384630158313207,
        "distance_wrist_3_joint": 1.9994500457195752,
        "smoothness": 0.18107393133822966,
        "time": 0.09047311999999999,
        "traj_len": 4.1894198771756805,
        "weighted_distance": 5.290841379346968
    },
    "planner": "KPIECE",
    "start": {
        "state": {
            "elbow_joint": -1.9196185241190666,
            "shoulder_lift_joint": -1.2443396400964142,
            "shoulder_pan_joint": 2.6996025414629847,
            "wrist_1_joint": -1.5485510000780065,
            "wrist_2_joint": -1.5709468930060704,
            "wrist_3_joint": 0.4420197071253992
        }
    },
    "waypoints": [
        {
            "positions": [
                2.6996025414629847,
                -1.2443396400964142,
                -1.9196185241190666,
                -1.5485510000780065,
                -1.5709468930060704,
                0.4420197071253992
            ]
        },
        {
            "positions": [
                2.5889214111550003,
                -1.2745568227871165,
                -1.8133211056323066,
                -1.5206685619373566,
                -1.4833853580290297,
                0.4124051571828026
            ]
        },
        {
            "positions": [
                2.478240280847016,
                -1.3047740054778187,
                -1.7070236871455466,
                -1.4927861237967068,
                -1.3958238230519888,
                0.38279060724020597
            ]
        },
        {
            "positions": [
                2.3675591505390314,
                -1.3349911881685212,
                -1.6007262686587864,
                -1.4649036856560569,
                -1.3082622880749482,
                0.3531760572976093
            ]
        },
        {
            "positions": [
                2.256878020231047,
                -1.3652083708592235,
                -1.4944288501720264,
                -1.4370212475154072,
                -1.2207007530979075,
                0.3235615073550127
            ]
        },
        {
            "positions": [
                2.1461968899230626,
                -1.3954255535499258,
                -1.3881314316852662,
                -1.4091388093747572,
                -1.1331392181208666,
                0.29394695741241605
            ]
        },
        {
            "positions": [
                2.035515759615078,
                -1.425642736240628,
                -1.2818340131985062,
                -1.3812563712341075,
                -1.0455776831438262,
                0.26433240746981945
            ]
        },
        {
            "positions": [
                1.9248346293070935,
                -1.4558599189313304,
                -1.1755365947117462,
                -1.3533739330934575,
                -0.9580161481667853,
                0.23471785752722285
            ]
        },
        {
            "positions": [
                1.8141534989991093,
                -1.4860771016220329,
                -1.0692391762249862,
                -1.3254914949528078,
                -0.8704546131897445,
                0.20510330758462625
            ]
        },
        {
            "positions": [
                1.7034723686911248,
                -1.5162942843127352,
                -0.9629417577382262,
                -1.2976090568121579,
                -0.7828930782127038,
                0.17548875764202965
            ]
        },
        {
            "positions": [
                1.5927912383831402,
                -1.5465114670034374,
                -0.856644339251466,
                -1.2697266186715082,
                -0.695331543235663,
                0.145874207699433
            ]
        },
        {
            "positions": [
                1.4821101080751558,
                -1.5767286496941397,
                -0.750346920764706,
                -1.2418441805308582,
                -0.6077700082586224,
                0.11625965775683639
            ]
        },
        {
            "positions": [
                1.3714289777671713,
                -1.606945832384842,
                -0.644049502277946,
                -1.2139617423902085,
                -0.5202084732815817,
                0.08664510781423979
            ]
        },
        {
            "positions": [
                1.2607478474591869,
                -1.6371630150755445,
                -0.537752083791186,
                -1.1860793042495585,
                -0.4326469383045408,
                0.057030557871643184
            ]
        },
        {
            "positions": [
                1.1500667171512022,
                -1.6673801977662468,
                -0.4314546653044258,
                -1.1581968661089088,
                -0.34508540332750015,
                0.027416007929046526
            ]
        },
        {
            "positions": [
                1.039385586843218,
                -1.697597380456949,
                -0.325157246817666,
                -1.1303144279682589,
                -0.2575238683504595,
                -0.00219854201355002
            ]
        },
        {
            "positions": [
                0.9287044565352336,
                -1.7278145631476514,
                -0.21885982833090578,
                -1.1024319898276091,
                -0.1699623333734186,
                -0.03181309195614668
            ]
        },
        {
            "positions": [
                0.8180233262272489,
                -1.7580317458383536,
                -0.11256240984414556,
                -1.0745495516869592,
                -0.08240079839637793,
                -0.06142764189874328
            ]
        },
        {
            "positions": [
                0.7073421959192647,
                -1.7882489285290561,
                -0.006264991357385785,
                -1.0466671135463095,
                0.005160736580662739,
                -0.09104219184133988
            ]
        },
        {
            "positions": [
                0.5966610656112801,
                -1.8184661112197584,
                0.10003242712937421,
                -1.0187846754056595,
                0.0927222715577034,
                -0.12065674178393648
            ]
        },
        {
            "positions": [
                0.48597993530329564,
                -1.8486832939104607,
                0.20632984561613466,
                -0.9909022372650097,
                0.1802838065347443,
                -0.1502712917265332
            ]
        },
        {
            "positions": [
                0.3752988049953112,
                -1.878900476601163,
                0.3126272641028942,
                -0.9630197991243599,
                0.26784534151178496,
                -0.1798858416691297
            ]
        },
        {
            "positions": [
                0.2646176746873268,
                -1.9091176592918653,
                0.41892468258965465,
                -0.93513736098371,
                0.35540687648882563,
                -0.2095003916117264
            ]
        },
        {
            "positions": [
                0.15393654437934234,
                -1.9393348419825678,
                0.5252221010764146,
                -0.9072549228430602,
                0.4429684114658665,
                -0.239114941554323
            ]
        },
        {
            "positions": [
                0.04325541407135791,
                -1.9695520246732698,
                0.6315195195631746,
                -0.8793724847024104,
                0.530529946442907,
                -0.2687294914969196
            ]
        },
        {
            "positions": [
                -0.0674257162366264,
                -1.9997692073639723,
                0.7378169380499344,
                -0.8514900465617605,
                0.618091481419948,
                -0.2983440414395162
            ]
        },
        {
            "positions": [
                -0.07602143101142078,
                -1.9432917739670867,
                0.8454608073103941,
                -0.688093658109225,
                0.6027239257524436,
                -0.34016831969280337
            ]
        },
        {
            "positions": [
                -0.08461714578621518,
                -1.8868143405702011,
                0.9531046765708537,
                -0.5246972696566894,
                0.5873563700849393,
                -0.38199259794609053
            ]
        },
        {
            "positions": [
                -0.09321286056100957,
                -1.8303369071733155,
                1.0607485458313135,
                -0.3613008812041539,
                0.571988814417435,
                -0.4238168761993777
            ]
        },
        {
            "positions": [
                -0.10180857533580395,
                -1.7738594737764297,
                1.168392415091773,
                -0.19790449275161837,
                0.5566212587499306,
                -0.46564115445266485
            ]
        },
        {
            "positions": [
                -0.11040429011059835,
                -1.7173820403795441,
                1.2760362843522328,
                -0.0345081042990828,
                0.5412537030824263,
                -0.507465432705952
            ]
        },
        {
            "positions": [
                -0.11900000488539275,
                -1.6609046069826585,
                1.3836801536126924,
                0.12888828415345277,
                0.5258861474149219,
                -0.5492897109592392
            ]
        },
        {
            "positions": [
                -0.12759571966018712,
                -1.604427173585773,
                1.4913240228731524,
                0.29228467260598845,
                0.5105185917474176,
                -0.5911139892125264
            ]
        },
        {
            "positions": [
                -0.13619143443498152,
                -1.5479497401888873,
                1.598967892133612,
                0.4556810610585238,
                0.4951510360799133,
                -0.6329382674658135
            ]
        },
        {
            "positions": [
                -0.14478714920977592,
                -1.4914723067920015,
                1.7066117613940714,
                0.6190774495110594,
                0.4797834804124089,
                -0.6747625457191008
            ]
        },
        {
            "positions": [
                -0.1533828639845703,
                -1.4349948733951159,
                1.8142556306545312,
                0.7824738379635949,
                0.4644159247449046,
                -0.7165868239723879
            ]
        },
        {
            "positions": [
                -0.1619785787593647,
                -1.3785174399982303,
                1.9218994999149908,
                0.9458702264161305,
                0.4490483690774003,
                -0.758411102225675
            ]
        },
        {
            "positions": [
                -0.1705742935341591,
                -1.3220400066013447,
                2.0295433691754505,
                1.109266614868666,
                0.43368081340989595,
                -0.8002353804789623
            ]
        },
        {
            "positions": [
                -0.13402976722504995,
                -1.254548668031414,
                2.026525751237366,
                1.2150894738584521,
                0.3630540667354896,
                -0.7055860107145605
            ]
        },
        {
            "positions": [
                -0.09748524091594077,
                -1.1870573294614832,
                2.0235081332992815,
                1.320912332848238,
                0.2924273200610833,
                -0.6109366409501586
            ]
        },
        {
            "positions": [
                -0.060940714606831606,
                -1.1195659908915525,
                2.0204905153611965,
                1.426735191838024,
                0.2218005733866769,
                -0.5162872711857569
            ]
        },
        {
            "positions": [
                -0.024396188297722443,
                -1.052074652321622,
                2.017472897423112,
                1.5325580508278098,
                0.1511738267122706,
                -0.4216379014213551
            ]
        },
        {
            "positions": [
                0.012148338011386706,
                -0.9845833137516913,
                2.0144552794850275,
                1.6383809098175959,
                0.08054708003786426,
                -0.3269885316569533
            ]
        },
        {
            "positions": [
                0.04869286432049588,
                -0.9170919751817606,
                2.0114376615469425,
                1.744203768807382,
                0.009920333363457878,
                -0.23233916189255155
            ]
        },
        {
            "positions": [
                0.08523739062960506,
                -0.8496006366118298,
                2.008420043608858,
                1.8500266277971678,
                -0.06070641331094845,
                -0.1376897921281497
            ]
        },
        {
            "positions": [
                0.12178191693871421,
                -0.7821092980418992,
                2.0054024256707734,
                1.9558494867869538,
                -0.13133315998535477,
                -0.0430404223637479
            ]
        }
    ]
}