{
    "goal": {
        "global_pose": {
            "orientation": {
                "w": 0.7047431493862688,
                "x": -0.7094548369677653,
                "y": 0.0024358444001904,
                "z": -0.0022348060817251984
            },
            "position": {
                "x": -0.39052492380142206,
                "y": 0.3671506643295288,
                "z": 0.19426114857196808
            }
        },
        "name": "move_to_magneteinheit_D"
    },
    "id": "KPIECE_move_to_magneteinheit_D_13",
    "joint_names": [
        "shoulder_pan_joint",
        "shoulder_lift_joint",
        "elbow_joint",
        "wrist_1_joint",
        "wrist_2_joint",
        "wrist_3_joint"
    ],
    "metrics": {
        "cart_traj_len": 5.406462363891479,
        "distance_elbow_joint": 4.5864303083847044,
        "distance_shoulder_lift_joint": 1.6356713595530226,
        "distance_shoulder_pan_joint": 6.179165861590724,
        "distance_wrist_1_joint": 2.137129025356505,
        "distance_wrist_2_joint": 2.191315558273648,
        "distance_wrist_3_joint": 3.1587743254900524,
        "smoothness": 0.5990800692732389,
        "time": 0.165372096,
        "traj_len": 4.459650932376731,
        "weighted_distance": 5.525801269794173
    },
    "planner": "KPIECE",
    "start": {
        "state": {
            "elbow_joint": 0.749534889911806,
            "shoulder_lift_joint": -0.6476975780787326,
            "shoulder_pan_joint": -2.711696901376241,
            "wrist_1_joint": -0.07506478083263063,
            "wrist_2_joint": 0.43296659715538205,
            "wrist_3_joint": -3.14703540197715
        }
    },
    "waypoints": [
        {
            "positions": [
                -2.711696901376241,
                -0.6476975780787326,
                0.749534889911806,
                -0.07506478083263063,
                0.43296659715538205,
                -3.14703540197715
            ]
        },
        {
            "positions": [
                -2.732807447363949,
                -0.6522518819832758,
                0.7432379012166535,
                0.05436585267367067,
                0.5488641400024546,
                -3.152457403467759
            ]
        },
        {
            "positions": [
                -2.7539179933516573,
                -0.6568061858878189,
                0.736940912521501,
                0.183796486179972,
                0.6647616828495273,
                -3.1578794049583676
            ]
        },
        {
            "positions": [
                -2.7423093882957312,
                -0.677607872554795,
                0.7072628468573561,
                0.33392470792002793,
                0.7657630308739497,
                -3.122093746773926
            ]
        },
        {
            "positions": [
                -2.7307007832398047,
                -0.6984095592217713,
                0.6775847811932113,
                0.48405292966008384,
                0.8667643788983721,
                -3.086308088589484
            ]
        },
        {
            "positions": [
                -2.7190921781838786,
                -0.7192112458887474,
                0.6479067155290664,
                0.6341811514001399,
                0.9677657269227945,
                -3.0505224304050422
            ]
        },
        {
            "positions": [
                -2.6225003577351185,
                -0.7569755926773336,
                0.5857230571005976,
                0.6549918386003981,
                0.9122359459326839,
                -2.9473448313172694
            ]
        },
        {
            "positions": [
                -2.525908537286359,
                -0.7947399394659197,
                0.5235393986721288,
                0.6758025258006564,
                0.8567061649425733,
                -2.8441672322294966
            ]
        },
        {
            "positions": [
                -2.4293167168375986,
                -0.8325042862545059,
                0.46135574024366005,
                0.6966132130009146,
                0.8011763839524627,
                -2.740989633141724
            ]
        },
        {
            "positions": [
                -2.3327248963888385,
                -0.8702686330430921,
                0.39917208181519126,
                0.7174239002011729,
                0.7456466029623521,
                -2.637812034053951
            ]
        },
        {
            "positions": [
                -2.2361330759400784,
                -0.9080329798316782,
                0.3369884233867224,
                0.7382345874014311,
                0.6901168219722416,
                -2.5346344349661782
            ]
        },
        {
            "positions": [
                -2.1395412554913187,
                -0.9457973266202644,
                0.2748047649582537,
                0.7590452746016894,
                0.6345870409821309,
                -2.4314568358784054
            ]
        },
        {
            "positions": [
                -2.0429494350425585,
                -0.9835616734088506,
                0.21262110652978483,
                0.7798559618019476,
                0.5790572599920203,
                -2.3282792367906326
            ]
        },
        {
            "positions": [
                -1.9463576145937986,
                -1.0213260201974368,
                0.15043744810131604,
                0.8006666490022059,
                0.5235274790019098,
                -2.2251016377028603
            ]
        },
        {
            "positions": [
                -1.8497657941450385,
                -1.059090366986023,
                0.08825378967284714,
                0.8214773362024641,
                0.467997698011799,
                -2.121924038615087
            ]
        },
        {
            "positions": [
                -1.7531739736962786,
                -1.0968547137746092,
                0.026070131244378403,
                0.8422880234027224,
                0.4124679170216885,
                -2.0187464395273143
            ]
        },
        {
            "positions": [
                -1.6565821532475185,
                -1.1346190605631952,
                -0.03611352718409033,
                0.8630987106029806,
                0.35693813603157787,
                -1.915568840439542
            ]
        },
        {
            "positions": [
                -1.5599903327987585,
                -1.1723834073517814,
                -0.09829718561255907,
                0.8839093978032388,
                0.30140835504146735,
                -1.812391241351769
            ]
        },
        {
            "positions": [
                -1.4633985123499984,
                -1.2101477541403676,
                -0.16048084404102803,
                0.9047200850034971,
                0.2458785740513566,
                -1.7092136422639963
            ]
        },
        {
            "positions": [
                -1.3668066919012385,
                -1.2479121009289538,
                -0.22266450246949682,
                0.9255307722037553,
                0.19034879306124614,
                -1.6060360431762235
            ]
        },
        {
            "positions": [
                -1.1814480818661155,
                -1.2725506814875307,
                -0.1770023353309978,
                0.9086652626809704,
                0.21755581159140852,
                -1.5099991094109784
            ]
        },
        {
            "positions": [
                -0.9960894718309925,
                -1.2971892620461074,
                -0.1313401681924988,
                0.8917997531581853,
                0.2447628301215709,
                -1.4139621756457332
            ]
        },
        {
            "positions": [
                -0.8107308617958694,
                -1.3218278426046843,
                -0.08567800105399981,
                0.8749342436354002,
                0.2719698486517333,
                -1.3179252418804879
            ]
        },
        {
            "positions": [
                -0.6253722517607464,
                -1.3464664231632613,
                -0.04001583391550079,
                0.8580687341126152,
                0.2991768671818957,
                -1.2218883081152427
            ]
        },
        {
            "positions": [
                -0.4400136417256234,
                -1.3711050037218382,
                0.005646333222998234,
                0.8412032245898302,
                0.3263838857120581,
                -1.1258513743499976
            ]
        },
        {
            "positions": [
                -0.2546550316905003,
                -1.3957435842804151,
                0.0513085003614972,
                0.8243377150670451,
                0.3535909042422205,
                -1.0298144405847522
            ]
        },
        {
            "positions": [
                -0.0692964216553773,
                -1.4203821648389918,
                0.09697066749999622,
                0.80747220554426,
                0.3807979227723829,
                -0.9337775068195071
            ]
        },
        {
            "positions": [
                0.11606218837974569,
                -1.4450207453975688,
                0.14263283463849524,
                0.790606696021475,
                0.4080049413025453,
                -0.837740573054262
            ]
        },
        {
            "positions": [
                0.3014207984148687,
                -1.4696593259561457,
                0.18829500177699426,
                0.7737411864986901,
                0.43521195983270766,
                -0.7417036392890168
            ]
        },
        {
            "positions": [
                0.4867794084499917,
                -1.4942979065147224,
                0.23395716891549329,
                0.756875676975905,
                0.46241897836287005,
                -0.6456667055237716
            ]
        },
        {
            "positions": [
                0.6721380184851147,
                -1.5189364870732993,
                0.2796193360539923,
                0.7400101674531199,
                0.48962599689303243,
                -0.5496297717585263
            ]
        },
        {
            "positions": [
                0.8574966285202379,
                -1.5435750676318762,
                0.3252815031924912,
                0.7231446579303349,
                0.5168330154231948,
                -0.4535928379932812
            ]
        },
        {
            "positions": [
                1.0428552385553607,
                -1.5682136481904532,
                0.37094367033099024,
                0.7062791484075499,
                0.5440400339533572,
                -0.35755590422803607
            ]
        },
        {
            "positions": [
                1.2282138485904839,
                -1.59285222874903,
                0.41660583746948926,
                0.6894136388847648,
                0.5712470524835196,
                -0.2615189704627907
            ]
        },
        {
            "positions": [
                1.4135724586256067,
                -1.6174908093076068,
                0.4622680046079883,
                0.6725481293619797,
                0.598454071013682,
                -0.16548203669754558
            ]
        },
        {
            "positions": [
                1.5989310686607299,
                -1.6421293898661837,
                0.5079301717464872,
                0.6556826198391947,
                0.6256610895438444,
                -0.06944510293230044
            ]
        },
        {
            "positions": [
                1.4939842623311461,
                -1.6798493632641585,
                0.3383045104648744,
                0.7066641092483452,
                0.5995559602401921,
                -0.06594533702154957
            ]
        },
        {
            "positions": [
                1.3890374560015624,
                -1.7175693366621334,
                0.16867884918326154,
                0.7576455986574958,
                0.5734508309365399,
                -0.062445571110798716
            ]
        },
        {
            "positions": [
                1.2840906496719784,
                -1.7552893100601081,
                -0.0009468120983513462,
                0.8086270880666463,
                0.5473457016328876,
                -0.05894580520004786
            ]
        },
        {
            "positions": [
                1.1791438433423946,
                -1.7930092834580829,
                -0.17057247337996417,
                0.8596085774757969,
                0.5212405723292354,
                -0.05544603928929699
            ]
        },
        {
            "positions": [
                1.0741970370128109,
                -1.8307292568560576,
                -0.3401981346615771,
                0.9105900668849474,
                0.4951354430255831,
                -0.05194627337854613
            ]
        },
        {
            "positions": [
                0.969250230683227,
                -1.8684492302540325,
                -0.5098237959431899,
                0.9615715562940979,
                0.4690303137219309,
                -0.048446507467795275
            ]
        },
        {
            "positions": [
                0.8643034243536433,
                -1.9061692036520073,
                -0.6794494572248027,
                1.0125530457032483,
                0.44292518441827866,
                -0.04494674155704441
            ]
        },
        {
            "positions": [
                0.7593566180240594,
                -1.943889177049982,
                -0.8490751185064156,
                1.063534535112399,
                0.4168200551146264,
                -0.04144697564629355
            ]
        },
        {
            "positions": [
                0.6544098116944757,
                -1.981609150447957,
                -1.0187007797880285,
                1.1145160245215493,
                0.3907149258109741,
                -0.037947209735542685
            ]
        },
        {
            "positions": [
                0.5494630053648917,
                -2.0193291238459317,
                -1.1883264410696415,
                1.1654975139307,
                0.3646097965073219,
                -0.034447443824791826
            ]
        },
        {
            "positions": [
                0.4445161990353079,
                -2.0570490972439064,
                -1.3579521023512544,
                1.2164790033398505,
                0.3385046672036697,
                -0.03094767791404096
            ]
        },
        {
            "positions": [
                0.33956939270572417,
                -2.094769070641881,
                -1.5275777636328671,
                1.267460492749001,
                0.3123995379000174,
                -0.027447912003290102
            ]
        },
        {
            "positions": [
                0.23462258637614042,
                -2.132489044039856,
                -1.6972034249144796,
                1.3184419821581514,
                0.2862944085963652,
                -0.023948146092539244
            ]
        },
        {
            "positions": [
                0.12967578004655667,
                -2.1702090174378306,
                -1.8668290861960926,
                1.369423471567302,
                0.26018927929271296,
                -0.020448380181788385
            ]
        },
        {
            "positions": [
                0.024728973716972913,
                -2.2079289908358057,
                -2.0364547474777055,
                1.4204049609764526,
                0.23408414998906069,
                -0.01694861427103752
            ]
        },
        {
            "positions": [
                -0.08021783261261106,
                -2.2456489642337805,
                -2.2060804087593184,
                1.4713864503856031,
                0.20797902068540847,
                -0.013448848360286661
            ]
        },
        {
            "positions": [
                -0.18516463894219473,
                -2.283368937631755,
                -2.3757060700409314,
                1.5223679397947536,
                0.1818738913817562,
                -0.009949082449535795
            ]
        }
    ]
}