{
    "goal": {
        "global_pose": {
            "orientation": {
                "w": 0.7031023480610252,
                "x": -0.7110244013736278,
                "y": 0.0077485991402295624,
                "z": 0.005598929693374583
            },
            "position": {
                "x": -0.8841497679147869,
                "y": 0.44412534475326537,
                "z": 0.3711530566215515
            }
        },
        "name": "move_to_auspresseinheit_D"
    },
    "id": "KPIECE_move_to_auspresseinheit_D_15",
    "joint_names": [
        "shoulder_pan_joint",
        "shoulder_lift_joint",
        "elbow_joint",
        "wrist_1_joint",
        "wrist_2_joint",
        "wrist_3_joint"
    ],
    "metrics": {
        "cart_traj_len": 0.34320099588987807,
        "distance_elbow_joint": 0.6351923190036968,
        "distance_shoulder_lift_joint": 0.11919213771857118,
        "distance_shoulder_pan_joint": 0.1335543292575795,
        "distance_wrist_1_joint": 0.5146276983205271,
        "distance_wrist_2_joint": 1.448989834943673,
        "distance_wrist_3_joint": 0.01127452495916792,
        "smoothness": 0.0,
        "time": 0.102933538,
        "traj_len": 1.6919902021593434,
        "weighted_distance": 2.20204392040344
    },
    "planner": "KPIECE",
    "start": {
        "state": {
            "elbow_joint": -1.8275523626775212,
            "shoulder_lift_joint": -2.126789852344167,
            "shoulder_pan_joint": -0.03513704404078235,
            "wrist_1_joint": -2.347782403156801,
            "wrist_2_joint": -1.6058999987535132,
            "wrist_3_joint": -3.0880379163319196
        }
    },
    "waypoints": [
        {
            "positions": [
                -0.03513704404078235,
                -2.126789852344167,
                -1.8275523626775212,
                -2.347782403156801,
                -1.6058999987535132,
                -3.0880379163319196
            ]
        },
        {
            "positions": [
                -0.05183133519797979,
                -2.141688869558988,
                -1.7481533228020592,
                -2.412110865446867,
                -1.4247762693855541,
                -3.089447231951816
            ]
        },
        {
            "positions": [
                -0.06852562635517723,
                -2.1565878867738095,
                -1.668754282926597,
                -2.4764393277369328,
                -1.243652540017595,
                -3.0908565475717116
            ]
        },
        {
            "positions": [
                -0.08521991751237468,
                -2.171486903988631,
                -1.5893552430511348,
                -2.5407677900269987,
                -1.0625288106496358,
                -3.0922658631916073
            ]
        },
        {
            "positions": [
                -0.1019142086695721,
                -2.1863859212034527,
                -1.5099562031756728,
                -2.6050962523170647,
                -0.8814050812816767,
                -3.0936751788115036
            ]
        },
        {
            "positions": [
                -0.11860849982676955,
                -2.201284938418274,
                -1.4305571633002108,
                -2.66942471460713,
                -0.7002813519137177,
                -3.0950844944313998
            ]
        },
        {
            "positions": [
                -0.135302790983967,
                -2.2161839556330953,
                -1.3511581234247485,
                -2.733753176897196,
                -0.5191576225457584,
                -3.0964938100512955
            ]
        },
        {
            "positions": [
                -0.15199708214116442,
                -2.2310829728479167,
                -1.2717590835492865,
                -2.798081639187262,
                -0.3380338931777993,
                -3.0979031256711913
            ]
        },
        {
            "positions": [
                -0.16869137329836187,
                -2.245981990062738,
                -1.1923600436738244,
                -2.862410101477328,
                -0.1569101638098403,
                -3.0993124412910875
            ]
        }
    ]
}