{
    "goal": {
        "global_pose": {
            "orientation": {
                "w": 0.5084816217422485,
                "x": -0.49083608388900757,
                "y": 0.5182115435600281,
                "z": -0.4816462993621826
            },
            "position": {
                "x": 0.5540239810943604,
                "y": 0.030875300988554955,
                "z": 0.16403168439865112
            }
        },
        "name": "move_to_storage_A"
    },
    "id": "KPIECE_move_to_storage_A_21",
    "joint_names": [
        "shoulder_pan_joint",
        "shoulder_lift_joint",
        "elbow_joint",
        "wrist_1_joint",
        "wrist_2_joint",
        "wrist_3_joint"
    ],
    "metrics": {
        "cart_traj_len": 0.35215266074283164,
        "distance_elbow_joint": 0.4479671134319487,
        "distance_shoulder_lift_joint": 0.2336739945667139,
        "distance_shoulder_pan_joint": 0.4609056277138646,
        "distance_wrist_1_joint": 0.2380516105463505,
        "distance_wrist_2_joint": 1.094460835196538,
        "distance_wrist_3_joint": 0.10442878148909873,
        "smoothness": 4.440892133664971e-16,
        "time": 0.141570987,
        "traj_len": 1.6060784423385162,
        "weighted_distance": 2.029989648167103
    },
    "planner": "KPIECE",
    "start": {
        "state": {
            "elbow_joint": 1.971548259319323,
            "shoulder_lift_joint": -1.1394851275133948,
            "shoulder_pan_joint": 0.1228115487234821,
            "wrist_1_joint": -0.7804723859257726,
            "wrist_2_joint": 0.12958671773740124,
            "wrist_3_joint": -3.192489227718131
        }
    },
    "waypoints": [
        {
            "positions": [
                0.1228115487234821,
                -1.1394851275133948,
                1.971548259319323,
                -0.7804723859257726,
                0.12958671773740124,
                -3.192489227718131
            ]
        },
        {
            "positions": [
                0.05696788762150144,
                -1.172867126737211,
                2.035543561238173,
                -0.8144797588609656,
                0.2859382656226209,
                -3.1775708303625456
            ]
        },
        {
            "positions": [
                -0.008875773480479215,
                -1.2062491259610273,
                2.0995388631570227,
                -0.8484871317961584,
                0.4422898135078406,
                -3.16265243300696
            ]
        },
        {
            "positions": [
                -0.07471943458245986,
                -1.2396311251848435,
                2.1635341650758724,
                -0.8824945047313514,
                0.5986413613930603,
                -3.1477340356513746
            ]
        },
        {
            "positions": [
                -0.14056309568444053,
                -1.27301312440866,
                2.227529466994722,
                -0.9165018776665443,
                0.75499290927828,
                -3.132815638295789
            ]
        },
        {
            "positions": [
                -0.20640675678642123,
                -1.3063951236324762,
                2.2915247689135723,
                -0.9505092506017372,
                0.9113444571634998,
                -3.1178972409402035
            ]
        },
        {
            "positions": [
                -0.2722504178884018,
                -1.3397771228562925,
                2.355520070832422,
                -0.9845166235369301,
                1.0676960050487194,
                -3.102978843584618
            ]
        },
        {
            "positions": [
                -0.3380940789903825,
                -1.3731591220801087,
                2.4195153727512717,
                -1.018523996472123,
                1.2240475529339392,
                -3.0880604462290324
            ]
        }
    ]
}{
    "goal": {
        "global_pose": {
            "orientation": {
                "w": 0.5084816217422485,
                "x": -0.49083608388900757,
                "y": 0.5182115435600281,
                "z": -0.4816462993621826
            },
            "position": {
                "x": 0.5540239810943604,
                "y": 0.030875300988554955,
                "z": 0.16403168439865112
            }
        },
        "name": "move_to_storage_A"
    },
    "id": "KPIECE_move_to_storage_A_21",
    "joint_names": [
        "shoulder_pan_joint",
        "shoulder_lift_joint",
        "elbow_joint",
        "wrist_1_joint",
        "wrist_2_joint",
        "wrist_3_joint"
    ],
    "metrics": {
        "cart_traj_len": 0.3530287189465841,
        "distance_elbow_joint": 0.4506634055618699,
        "distance_shoulder_lift_joint": 0.23262231096655883,
        "distance_shoulder_pan_joint": 0.4588908117862544,
        "distance_wrist_1_joint": 0.25426637707315813,
        "distance_wrist_2_joint": 1.1091919299849335,
        "distance_wrist_3_joint": 0.10259906538556018,
        "smoothness": 4.440892098500626e-16,
        "time": 0.072427439,
        "traj_len": 1.6150027556503843,
        "weighted_distance": 2.0437441959764797
    },
    "planner": "KPIECE",
    "start": {
        "state": {
            "elbow_joint": 1.97154746011099,
            "shoulder_lift_joint": -1.13948474672311,
            "shoulder_pan_joint": 0.12281154466712228,
            "wrist_1_joint": -0.7804688027058302,
            "wrist_2_joint": 0.12958655903071145,
            "wrist_3_joint": 3.0906928834467795
        }
    },
    "waypoints": [
        {
            "positions": [
                0.12281154466712228,
                -1.13948474672311,
                1.97154746011099,
                -0.7804688027058302,
                0.12958655903071145,
                3.0906928834467795
            ]
        },
        {
            "positions": [
                0.05725571441194309,
                -1.1727165054326183,
                2.0359279466198283,
                -0.8167925708591385,
                0.2880425490285591,
                3.105349892787574
            ]
        },
        {
            "positions": [
                -0.008300115843236103,
                -1.2059482641421269,
                2.100308433128667,
                -0.8531163390124468,
                0.4464985390264067,
                3.120006902128368
            ]
        },
        {
            "positions": [
                -0.0738559460984153,
                -1.2391800228516352,
                2.1646889196375056,
                -0.8894401071657551,
                0.6049545290242544,
                3.1346639114691626
            ]
        },
        {
            "positions": [
                -0.13941177635359447,
                -1.2724117815611435,
                2.229069406146344,
                -0.9257638753190633,
                0.763410519022102,
                3.1493209208099566
            ]
        },
        {
            "positions": [
                -0.20496760660877372,
                -1.305643540270652,
                2.2934498926551825,
                -0.9620876434723717,
                0.9218665090199497,
                3.163977930150751
            ]
        },
        {
            "positions": [
                -0.27052343686395286,
                -1.3388752989801604,
                2.3578303791640214,
                -0.99841141162568,
                1.0803224990177973,
                3.178634939491545
            ]
        },
        {
            "positions": [
                -0.3360792671191321,
                -1.3721070576896688,
                2.42221086567286,
                -1.0347351797789883,
                1.238778489015645,
                3.1932919488323397
            ]
        }
    ]
}{
    "goal": {
        "global_pose": {
            "orientation": {
                "w": 0.5084816217422485,
                "x": -0.49083608388900757,
                "y": 0.5182115435600281,
                "z": -0.4816462993621826
            },
            "position": {
                "x": 0.5540239810943604,
                "y": 0.030875300988554955,
                "z": 0.16403168439865112
            }
        },
        "name": "move_to_storage_A"
    },
    "id": "KPIECE_move_to_storage_A_21",
    "joint_names": [
        "shoulder_pan_joint",
        "shoulder_lift_joint",
        "elbow_joint",
        "wrist_1_joint",
        "wrist_2_joint",
        "wrist_3_joint"
    ],
    "metrics": {
        "cart_traj_len": 0.3522434649791399,
        "distance_elbow_joint": 0.4515187821996678,
        "distance_shoulder_lift_joint": 0.23401681309892663,
        "distance_shoulder_pan_joint": 0.46122645036843457,
        "distance_wrist_1_joint": 0.24977275214065897,
        "distance_wrist_2_joint": 1.0945614801932109,
        "distance_wrist_3_joint": 0.10337725410849652,
        "smoothness": 4.440892133664971e-16,
        "time": 0.026756171000000002,
        "traj_len": 1.6107369531085438,
        "weighted_distance": 2.0360653900747536
    },
    "planner": "KPIECE",
    "start": {
        "state": {
            "elbow_joint": 1.9715472970024885,
            "shoulder_lift_joint": -1.1394870060712896,
            "shoulder_pan_joint": 0.12281152778156021,
            "wrist_1_joint": -0.780463741449964,
            "wrist_2_joint": 0.12958659822042276,
            "wrist_3_joint": 3.090690232415272
        }
    },
    "waypoints": [
        {
            "positions": [
                0.12281152778156021,
                -1.1394870060712896,
                1.9715472970024885,
                -0.780463741449964,
                0.12958659822042276,
                3.090690232415272
            ]
        },
        {
            "positions": [
                0.05692203487178385,
                -1.1729179793711362,
                2.03604998017387,
                -0.8161455631843438,
                0.28595252396231,
                3.1054584115736286
            ]
        },
        {
            "positions": [
                -0.00896745803799251,
                -1.206348952670983,
                2.1005526633452507,
                -0.8518273849187237,
                0.4423184497041973,
                3.1202265907319853
            ]
        },
        {
            "positions": [
                -0.07485695094776887,
                -1.2397799259708295,
                2.165055346516632,
                -0.8875092066531035,
                0.5986843754460845,
                3.134994769890342
            ]
        },
        {
            "positions": [
                -0.14074644385754523,
                -1.2732108992706763,
                2.229558029688013,
                -0.9231910283874833,
                0.7550503011879718,
                3.1497629490486982
            ]
        },
        {
            "positions": [
                -0.20663593676732164,
                -1.3066418725705229,
                2.294060712859394,
                -0.9588728501218633,
                0.9114162269298591,
                3.164531128207055
            ]
        },
        {
            "positions": [
                -0.2725254296770979,
                -1.3400728458703695,
                2.358563396030775,
                -0.9945546718562431,
                1.0677821526717464,
                3.1792993073654117
            ]
        },
        {
            "positions": [
                -0.33841492258687433,
                -1.3735038191702162,
                2.4230660792021563,
                -1.030236493590623,
                1.2241480784136336,
                3.1940674865237684
            ]
        }
    ]
}