{
    "goal": {
        "global_pose": {
            "orientation": {
                "w": 0.7031023502349854,
                "x": -0.7110244035720825,
                "y": 0.007748599164187908,
                "z": 0.005598929710686207
            },
            "position": {
                "x": 0.11585023208521307,
                "y": 0.44412534475326537,
                "z": 0.3711530566215515
            }
        },
        "name": "move_to_auspresseinheit_A"
    },
    "id": "KPIECE_move_to_auspresseinheit_A_33",
    "joint_names": [
        "shoulder_pan_joint",
        "shoulder_lift_joint",
        "elbow_joint",
        "wrist_1_joint",
        "wrist_2_joint",
        "wrist_3_joint"
    ],
    "metrics": {
        "cart_traj_len": 3.1831927766343484,
        "distance_elbow_joint": 3.038681832210863,
        "distance_shoulder_lift_joint": 0.5355162112657794,
        "distance_shoulder_pan_joint": 4.70836668019273,
        "distance_wrist_1_joint": 3.905519748906433,
        "distance_wrist_2_joint": 2.7936100688537167,
        "distance_wrist_3_joint": 2.9601270709923546,
        "smoothness": 0.8488404472980556,
        "time": 0.15729617399999998,
        "traj_len": 4.235778749229223,
        "weighted_distance": 5.528219023534318
    },
    "planner": "KPIECE",
    "start": {
        "state": {
            "elbow_joint": 2.4225746658250005,
            "shoulder_lift_joint": -1.3736534386056498,
            "shoulder_pan_joint": -0.3378633547517467,
            "wrist_1_joint": -1.0288598680537169,
            "wrist_2_joint": 1.233022673432363,
            "wrist_3_joint": -3.0940220416140027
        }
    },
    "waypoints": [
        {
            "positions": [
                -0.3378633547517467,
                -1.3736534386056498,
                2.4225746658250005,
                -1.0288598680537169,
                1.233022673432363,
                -3.0940220416140027
            ]
        },
        {
            "positions": [
                -0.2699536535263731,
                -1.3782288363369333,
                2.298380099467287,
                -1.016316935740922,
                1.1998275596856827,
                -2.960789097694499
            ]
        },
        {
            "positions": [
                -0.20204395230099956,
                -1.3828042340682167,
                2.174185533109574,
                -1.003774003428127,
                1.1666324459390023,
                -2.8275561537749954
            ]
        },
        {
            "positions": [
                -0.134134251075626,
                -1.3873796317995002,
                2.04999096675186,
                -0.9912310711153322,
                1.133437332192322,
                -2.6943232098554915
            ]
        },
        {
            "positions": [
                -0.06622454985025239,
                -1.3919550295307836,
                1.9257964003941468,
                -0.9786881388025372,
                1.1002422184456417,
                -2.561090265935988
            ]
        },
        {
            "positions": [
                0.0016851513751211522,
                -1.396530427262067,
                1.8016018340364335,
                -0.9661452064897424,
                1.0670471046989614,
                -2.427857322016484
            ]
        },
        {
            "positions": [
                0.06959485260049475,
                -1.4011058249933508,
                1.6774072676787202,
                -0.9536022741769475,
                1.033851990952281,
                -2.2946243780969806
            ]
        },
        {
            "positions": [
                0.13750455382586835,
                -1.4056812227246342,
                1.5532127013210069,
                -0.9410593418641526,
                1.0006568772056006,
                -2.1613914341774767
            ]
        },
        {
            "positions": [
                0.20541425505124195,
                -1.4102566204559177,
                1.4290181349632933,
                -0.9285164095513577,
                0.9674617634589202,
                -2.0281584902579732
            ]
        },
        {
            "positions": [
                0.2733239562766156,
                -1.4148320181872012,
                1.3048235686055798,
                -0.9159734772385628,
                0.9342666497122398,
                -1.8949255463384693
            ]
        },
        {
            "positions": [
                0.34123365750198903,
                -1.4194074159184846,
                1.1806290022478667,
                -0.9034305449257679,
                0.9010715359655596,
                -1.7616926024189656
            ]
        },
        {
            "positions": [
                0.40914335872736274,
                -1.423982813649768,
                1.0564344358901532,
                -0.890887612612973,
                0.8678764222188792,
                -1.628459658499462
            ]
        },
        {
            "positions": [
                0.307318297966859,
                -1.4249730809076528,
                1.1401376736987197,
                -0.7748641303318273,
                0.795769672695285,
                -1.6451828204221557
            ]
        },
        {
            "positions": [
                0.20549323720635526,
                -1.4259633481655376,
                1.2238409115072861,
                -0.6588406480506818,
                0.7236629231716908,
                -1.6619059823448494
            ]
        },
        {
            "positions": [
                0.10366817644585152,
                -1.4269536154234224,
                1.3075441493158526,
                -0.5428171657695362,
                0.6515561736480966,
                -1.6786291442675432
            ]
        },
        {
            "positions": [
                0.0018431156853477848,
                -1.4279438826813071,
                1.391247387124419,
                -0.42679368348839053,
                0.5794494241245025,
                -1.6953523061902371
            ]
        },
        {
            "positions": [
                -0.09998194507515601,
                -1.4289341499391919,
                1.4749506249329858,
                -0.31077020120724486,
                0.5073426746009082,
                -1.7120754681129309
            ]
        },
        {
            "positions": [
                -0.2018070058356597,
                -1.4299244171970766,
                1.558653862741552,
                -0.1947467189260993,
                0.4352359250773141,
                -1.7287986300356246
            ]
        },
        {
            "positions": [
                -0.3036320665961635,
                -1.4309146844549614,
                1.6423571005501187,
                -0.07872323664495362,
                0.36312917555371993,
                -1.7455217919583184
            ]
        },
        {
            "positions": [
                -0.40545712735666717,
                -1.4319049517128462,
                1.726060338358685,
                0.03730024563619194,
                0.29102242603012574,
                -1.762244953881012
            ]
        },
        {
            "positions": [
                -0.507282188117171,
                -1.432895218970731,
                1.8097635761672517,
                0.15332372791733762,
                0.21891567650653154,
                -1.778968115803706
            ]
        },
        {
            "positions": [
                -0.6091072488776748,
                -1.4338854862286157,
                1.8934668139758184,
                0.2693472101984833,
                0.14680892698293735,
                -1.7956912777263998
            ]
        },
        {
            "positions": [
                -0.7109323096381786,
                -1.4348757534865004,
                1.9771700517843849,
                0.38537069247962896,
                0.07470217745934316,
                -1.8124144396490935
            ]
        },
        {
            "positions": [
                -0.8127573703986821,
                -1.4358660207443852,
                2.0608732895929514,
                0.5013941747607744,
                0.002595427935749073,
                -1.8291376015717873
            ]
        },
        {
            "positions": [
                -0.9145824311591859,
                -1.43685628800227,
                2.144576527401518,
                0.6174176570419201,
                -0.06951132158784512,
                -1.845860763494481
            ]
        },
        {
            "positions": [
                -1.0164074919196897,
                -1.4378465552601547,
                2.2282797652100843,
                0.7334411393230658,
                -0.14161807111143931,
                -1.8625839254171748
            ]
        },
        {
            "positions": [
                -1.1182325526801935,
                -1.4388368225180395,
                2.311983003018651,
                0.8494646216042114,
                -0.21372482063503362,
                -1.8793070873398685
            ]
        },
        {
            "positions": [
                -1.220057613440697,
                -1.4398270897759242,
                2.3956862408272173,
                0.9654881038853569,
                -0.2858315701586277,
                -1.8960302492625623
            ]
        },
        {
            "positions": [
                -1.3218826742012009,
                -1.440817357033809,
                2.4793894786357837,
                1.0815115861665026,
                -0.3579383196822218,
                -1.9127534111852562
            ]
        },
        {
            "positions": [
                -1.4237077349617047,
                -1.4418076242916937,
                2.56309271644435,
                1.1975350684476482,
                -0.430045069205816,
                -1.92947657310795
            ]
        },
        {
            "positions": [
                -1.305457242015896,
                -1.4677721812683457,
                2.5538769763486937,
                1.1042503566473667,
                -0.3672371621938415,
                -1.9957847827340236
            ]
        },
        {
            "positions": [
                -1.1872067490700875,
                -1.4937367382449978,
                2.544661236253037,
                1.010965644847085,
                -0.3044292551818671,
                -2.0620929923600975
            ]
        },
        {
            "positions": [
                -1.0689562561242791,
                -1.5197012952216498,
                2.5354454961573802,
                0.9176809330468033,
                -0.24162134816989264,
                -2.128401201986171
            ]
        },
        {
            "positions": [
                -0.9507057631784704,
                -1.5456658521983015,
                2.5262297560617237,
                0.8243962212465217,
                -0.1788134411579182,
                -2.1947094116122448
            ]
        },
        {
            "positions": [
                -0.8324552702326619,
                -1.5716304091749536,
                2.517014015966067,
                0.73111150944624,
                -0.11600553414594372,
                -2.2610176212383184
            ]
        },
        {
            "positions": [
                -0.7142047772868534,
                -1.5975949661516056,
                2.5077982758704107,
                0.6378267976459584,
                -0.053197627133969305,
                -2.327325830864392
            ]
        },
        {
            "positions": [
                -0.5959542843410447,
                -1.6235595231282576,
                2.498582535774754,
                0.5445420858456768,
                0.009610279878005168,
                -2.3936340404904657
            ]
        },
        {
            "positions": [
                -0.4777037913952362,
                -1.6495240801049096,
                2.4893667956790977,
                0.4512573740453951,
                0.07241818688997959,
                -2.4599422501165393
            ]
        },
        {
            "positions": [
                -0.35945329844942764,
                -1.6754886370815614,
                2.480151055583441,
                0.3579726622451135,
                0.13522609390195406,
                -2.526250459742613
            ]
        },
        {
            "positions": [
                -0.24120280550361906,
                -1.7014531940582134,
                2.4709353154877842,
                0.26468795044483184,
                0.19803400091392853,
                -2.5925586693686866
            ]
        },
        {
            "positions": [
                -0.12295231255781047,
                -1.7274177510348654,
                2.4617195753921277,
                0.1714032386445501,
                0.260841907925903,
                -2.6588668789947603
            ]
        },
        {
            "positions": [
                -0.004701819612002112,
                -1.7533823080115174,
                2.452503835296471,
                0.07811852684426857,
                0.32364981493787737,
                -2.725175088620834
            ]
        },
        {
            "positions": [
                0.11354867333380647,
                -1.7793468649881694,
                2.4432880952008147,
                -0.015166184956012962,
                0.38645772194985184,
                -2.7914832982469076
            ]
        },
        {
            "positions": [
                0.23179916627961528,
                -1.8053114219648214,
                2.434072355105158,
                -0.10845089675629471,
                0.4492656289618263,
                -2.857791507872981
            ]
        },
        {
            "positions": [
                0.35004965922542386,
                -1.8312759789414734,
                2.4248566150095012,
                -0.20173560855657646,
                0.5120735359738008,
                -2.924099717499055
            ]
        },
        {
            "positions": [
                0.4683001521712322,
                -1.8572405359181252,
                2.4156408749138447,
                -0.295020320356858,
                0.5748814429857751,
                -2.9904079271251285
            ]
        },
        {
            "positions": [
                0.5865506451170406,
                -1.8832050928947772,
                2.406425134818188,
                -0.3883050321571395,
                0.6376893499977496,
                -3.056716136751202
            ]
        },
        {
            "positions": [
                0.7048011380628493,
                -1.9091696498714292,
                2.3972093947225317,
                -0.48158974395742127,
                0.700497257009724,
                -3.1230243463772758
            ]
        }
    ]
}