{
    "goal": {
        "global_pose": {
            "orientation": {
                "w": -0.00223480608172531,
                "x": 0.0024358444001904467,
                "y": 0.7094548369677653,
                "z": -0.704743149386269
            },
            "position": {
                "x": -0.37947507619857795,
                "y": -0.6371506643295288,
                "z": 0.19426114857196808
            }
        },
        "name": "move_to_magneteinheit_C"
    },
    "id": "KPIECE_move_to_magneteinheit_C_12",
    "joint_names": [
        "shoulder_pan_joint",
        "shoulder_lift_joint",
        "elbow_joint",
        "wrist_1_joint",
        "wrist_2_joint",
        "wrist_3_joint"
    ],
    "metrics": {
        "cart_traj_len": 2.5028328206963124,
        "distance_elbow_joint": 1.8656394103286136,
        "distance_shoulder_lift_joint": 1.1171604563920055,
        "distance_shoulder_pan_joint": 1.6087124704435316,
        "distance_wrist_1_joint": 0.89428611471192,
        "distance_wrist_2_joint": 1.6699204542311765,
        "distance_wrist_3_joint": 4.227232406598896,
        "smoothness": 1.3371154137278647,
        "time": 1.429841069,
        "traj_len": 3.3738629659051274,
        "weighted_distance": 4.733035251806924
    },
    "planner": "KPIECE",
    "start": {
        "state": {
            "elbow_joint": 1.9565354010623817,
            "shoulder_lift_joint": -1.4165861575791021,
            "shoulder_pan_joint": -1.6717766225146293,
            "wrist_1_joint": -0.5286633292919765,
            "wrist_2_joint": 1.472756589071564,
            "wrist_3_joint": -3.1238370188695823
        }
    },
    "waypoints": [
        {
            "positions": [
                -1.6717766225146293,
                -1.4165861575791021,
                1.9565354010623817,
                -0.5286633292919765,
                1.472756589071564,
                -3.1238370188695823
            ]
        },
        {
            "positions": [
                -1.6159780503007948,
                -1.4311990463675621,
                1.944490972105891,
                -0.501432444085091,
                1.4733848181222347,
                -3.0089643445856358
            ]
        },
        {
            "positions": [
                -1.5601794780869604,
                -1.4458119351560221,
                1.9324465431494002,
                -0.4742015588782057,
                1.4740130471729056,
                -2.8940916703016892
            ]
        },
        {
            "positions": [
                -1.5382462446125764,
                -1.4628846812183418,
                1.873299179060472,
                -0.4691944022394536,
                1.420642688272922,
                -2.727486627357678
            ]
        },
        {
            "positions": [
                -1.5163130111381924,
                -1.4799574272806613,
                1.8141518149715439,
                -0.46418724560070146,
                1.367272329372938,
                -2.560881584413667
            ]
        },
        {
            "positions": [
                -1.4943797776638084,
                -1.497030173342981,
                1.7550044508826157,
                -0.45918008896194934,
                1.3139019704729544,
                -2.394276541469656
            ]
        },
        {
            "positions": [
                -1.525013122957915,
                -1.5321926189767547,
                1.6919502054799962,
                -0.4983036470512408,
                1.2353688677300678,
                -2.256242793714665
            ]
        },
        {
            "positions": [
                -1.5556464682520212,
                -1.5673550646105288,
                1.6288959600773767,
                -0.5374272051405323,
                1.156835764987181,
                -2.1182090459596736
            ]
        },
        {
            "positions": [
                -1.5862798135461278,
                -1.6025175102443026,
                1.5658417146747572,
                -0.5765507632298238,
                1.0783026622442944,
                -1.9801752982046827
            ]
        },
        {
            "positions": [
                -1.6169131588402341,
                -1.6376799558780766,
                1.5027874692721377,
                -0.6156743213191153,
                0.9997695595014076,
                -1.8421415504496914
            ]
        },
        {
            "positions": [
                -1.6475465041343407,
                -1.6728424015118504,
                1.4397332238695182,
                -0.6547978794084067,
                0.921236456758521,
                -1.7041078026947005
            ]
        },
        {
            "positions": [
                -1.6781798494284472,
                -1.7080048471456242,
                1.3766789784668987,
                -0.6939214374976982,
                0.8427033540156343,
                -1.5660740549397096
            ]
        },
        {
            "positions": [
                -1.7088131947225536,
                -1.7431672927793982,
                1.3136247330642792,
                -0.7330449955869895,
                0.7641702512727476,
                -1.4280403071847183
            ]
        },
        {
            "positions": [
                -1.73944654001666,
                -1.778329738413172,
                1.2505704876616597,
                -0.7721685536762811,
                0.6856371485298608,
                -1.2900065594297272
            ]
        },
        {
            "positions": [
                -1.7700798853107664,
                -1.813492184046946,
                1.1875162422590402,
                -0.8112921117655726,
                0.6071040457869742,
                -1.1519728116747363
            ]
        },
        {
            "positions": [
                -1.800713230604873,
                -1.8486546296807198,
                1.1244619968564207,
                -0.850415669854864,
                0.5285709430440875,
                -1.0139390639197452
            ]
        },
        {
            "positions": [
                -1.874241559566488,
                -1.8292061203212542,
                1.2192095075861522,
                -0.8558380991615596,
                0.55465127468048,
                -1.1795694405076895
            ]
        },
        {
            "positions": [
                -1.9477698885281032,
                -1.8097576109617888,
                1.313957018315884,
                -0.8612605284682553,
                0.5807316063168726,
                -1.3451998170956339
            ]
        },
        {
            "positions": [
                -2.021298217489718,
                -1.7903091016023231,
                1.4087045290456155,
                -0.8666829577749509,
                0.606811937953265,
                -1.5108301936835784
            ]
        },
        {
            "positions": [
                -2.0948265464513334,
                -1.7708605922428577,
                1.503452039775347,
                -0.8721053870816464,
                0.6328922695896576,
                -1.6764605702715227
            ]
        },
        {
            "positions": [
                -2.1683548754129482,
                -1.7514120828833921,
                1.5981995505050788,
                -0.8775278163883421,
                0.6589726012260502,
                -1.8420909468594673
            ]
        },
        {
            "positions": [
                -2.2418832043745636,
                -1.7319635735239267,
                1.6929470612348103,
                -0.8829502456950377,
                0.6850529328624426,
                -2.0077213234474116
            ]
        },
        {
            "positions": [
                -2.3154115333361784,
                -1.712515064164461,
                1.787694571964542,
                -0.8883726750017332,
                0.7111332644988353,
                -2.173351700035356
            ]
        },
        {
            "positions": [
                -2.3889398622977938,
                -1.6930665548049957,
                1.8824420826942734,
                -0.8937951043084289,
                0.7372135961352277,
                -2.3389820766233003
            ]
        },
        {
            "positions": [
                -2.4624681912594086,
                -1.67361804544553,
                1.9771895934240051,
                -0.8992175336151245,
                0.7632939277716203,
                -2.504612453211245
            ]
        },
        {
            "positions": [
                -2.5216133807702454,
                -1.5583099483990484,
                2.004667665981657,
                -0.8458310901808461,
                0.8141336846329562,
                -2.55019509840905
            ]
        },
        {
            "positions": [
                -2.5807585702810822,
                -1.4430018513525669,
                2.032145738539309,
                -0.7924446467465678,
                0.8649734414942922,
                -2.5957777436068548
            ]
        },
        {
            "positions": [
                -2.639903759791919,
                -1.3276937543060852,
                2.0596238110969614,
                -0.7390582033122896,
                0.9158131983556281,
                -2.6413603888046597
            ]
        },
        {
            "positions": [
                -2.699048949302756,
                -1.2123856572596035,
                2.087101883654613,
                -0.6856717598780112,
                0.966652955216964,
                -2.6869430340024647
            ]
        },
        {
            "positions": [
                -2.6423873358143153,
                -1.2001799042922856,
                2.069370353823498,
                -0.7284766738759123,
                0.8953679852599289,
                -2.798025654394049
            ]
        },
        {
            "positions": [
                -2.5857257223258743,
                -1.1879741513249678,
                2.0516388239923833,
                -0.7712815878738135,
                0.8240830153028937,
                -2.909108274785634
            ]
        },
        {
            "positions": [
                -2.5290641088374333,
                -1.17576839835765,
                2.033907294161268,
                -0.8140865018717146,
                0.7527980453458587,
                -3.020190895177219
            ]
        },
        {
            "positions": [
                -2.4724024953489927,
                -1.163562645390332,
                2.016175764330153,
                -0.8568914158696157,
                0.6815130753888236,
                -3.1312735155688034
            ]
        }
    ]
}