{
    "goal": {
        "global_pose": {
            "orientation": {
                "w": -0.00223480608172531,
                "x": 0.0024358444001904467,
                "y": 0.7094548369677653,
                "z": -0.704743149386269
            },
            "position": {
                "x": 0.6205249238014221,
                "y": -0.6371506643295288,
                "z": 0.19426114857196808
            }
        },
        "name": "move_to_magneteinheit_B"
    },
    "id": "KPIECE_move_to_magneteinheit_B_30",
    "joint_names": [
        "shoulder_pan_joint",
        "shoulder_lift_joint",
        "elbow_joint",
        "wrist_1_joint",
        "wrist_2_joint",
        "wrist_3_joint"
    ],
    "metrics": {
        "cart_traj_len": 1.5815739203368642,
        "distance_elbow_joint": 0.9539304228276395,
        "distance_shoulder_lift_joint": 0.7536385668999169,
        "distance_shoulder_pan_joint": 1.6203891612901187,
        "distance_wrist_1_joint": 0.40827494934884667,
        "distance_wrist_2_joint": 3.8323696104606815,
        "distance_wrist_3_joint": 0.3166348180677176,
        "smoothness": 0.6976495818993507,
        "time": 0.07610940699999999,
        "traj_len": 2.808066510767671,
        "weighted_distance": 3.571995482197575
    },
    "planner": "KPIECE",
    "start": {
        "state": {
            "elbow_joint": 2.6216224122426386,
            "shoulder_lift_joint": -1.4174107377796124,
            "shoulder_pan_joint": 0.7066234856936794,
            "wrist_1_joint": 1.9546482284002225,
            "wrist_2_joint": -0.7096286983471962,
            "wrist_3_joint": 0.005740856962016249
        }
    },
    "waypoints": [
        {
            "positions": [
                0.7066234856936794,
                -1.4174107377796124,
                2.6216224122426386,
                1.9546482284002225,
                -0.7096286983471962,
                0.005740856962016249
            ]
        },
        {
            "positions": [
                0.6270701800505349,
                -1.397047983092127,
                2.564762724616082,
                1.9928351047628008,
                -0.5650766124367596,
                0.02572717181223437
            ]
        },
        {
            "positions": [
                0.5475168744073905,
                -1.3766852284046418,
                2.5079030369895245,
                2.031021981125379,
                -0.42052452652632294,
                0.045713486662452486
            ]
        },
        {
            "positions": [
                0.467963568764246,
                -1.3563224737171566,
                2.4510433493629673,
                2.0692088574879577,
                -0.2759724406158863,
                0.0656998015126706
            ]
        },
        {
            "positions": [
                0.38841026312110155,
                -1.3359597190296713,
                2.3941836617364105,
                2.1073957338505362,
                -0.13142035470544966,
                0.08568611636288873
            ]
        },
        {
            "positions": [
                0.3088569574779571,
                -1.3155969643421859,
                2.3373239741098537,
                2.1455826102131144,
                0.013131731204987007,
                0.10567243121310685
            ]
        },
        {
            "positions": [
                0.2293036518348126,
                -1.2952342096547007,
                2.2804642864832965,
                2.183769486575693,
                0.15768381711542356,
                0.12565874606332497
            ]
        },
        {
            "positions": [
                0.14975034619166816,
                -1.2748714549672155,
                2.2236045988567392,
                2.221956362938271,
                0.30223590302586034,
                0.1456450609135431
            ]
        },
        {
            "positions": [
                0.07019704054852367,
                -1.2545087002797302,
                2.1667449112301824,
                2.2601432393008496,
                0.44678798893629695,
                0.16563137576376122
            ]
        },
        {
            "positions": [
                -0.00549239915493506,
                -1.20906742878742,
                2.1283562249367067,
                2.252237090189448,
                0.2409454563842055,
                0.153574121974071
            ]
        },
        {
            "positions": [
                -0.08118183885839379,
                -1.1636261572951094,
                2.089967538643231,
                2.2443309410780468,
                0.03510292383211405,
                0.1415168681843808
            ]
        },
        {
            "positions": [
                -0.15687127856185257,
                -1.118184885802799,
                2.0515788523497553,
                2.236424791966645,
                -0.17073960871997734,
                0.1294596143946906
            ]
        },
        {
            "positions": [
                -0.23256071826531127,
                -1.0727436143104887,
                2.0131901660562797,
                2.2285186428552435,
                -0.37658214127206885,
                0.1174023606050004
            ]
        },
        {
            "positions": [
                -0.30825015796877003,
                -1.0273023428181784,
                1.9748014797628042,
                2.2206124937438423,
                -0.5824246738241603,
                0.10534510681531017
            ]
        },
        {
            "positions": [
                -0.3839395976722288,
                -0.981861071325868,
                1.9364127934693285,
                2.2127063446324406,
                -0.7882672063762517,
                0.09328785302561997
            ]
        },
        {
            "positions": [
                -0.45962903737568744,
                -0.9364197998335576,
                1.898024107175853,
                2.204800195521039,
                -0.9941097389283431,
                0.08123059923592978
            ]
        },
        {
            "positions": [
                -0.5353184770791461,
                -0.8909785283412472,
                1.8596354208823773,
                2.1968940464096374,
                -1.1999522714804347,
                0.06917334544623956
            ]
        },
        {
            "positions": [
                -0.6110079167826049,
                -0.8455372568489369,
                1.8212467345889016,
                2.188987897298236,
                -1.4057948040325259,
                0.057116091656549364
            ]
        },
        {
            "positions": [
                -0.6866973564860637,
                -0.8000959853566265,
                1.782858048295426,
                2.1810817481868345,
                -1.6116373365846175,
                0.045058837866859144
            ]
        },
        {
            "positions": [
                -0.7623867961895223,
                -0.7546547138643162,
                1.7444693620019502,
                2.173175599075433,
                -1.817479869136709,
                0.03300158407716894
            ]
        },
        {
            "positions": [
                -0.8380762358929812,
                -0.7092134423720058,
                1.7060806757084748,
                2.1652694499640317,
                -2.0233224016888003,
                0.02094433028747872
            ]
        },
        {
            "positions": [
                -0.9137656755964398,
                -0.6637721708796954,
                1.667691989414999,
                2.15736330085263,
                -2.2291649342408917,
                0.008887076497788518
            ]
        }
    ]
}