{
    "goal": {
        "global_pose": {
            "orientation": {
                "w": 0.005598929693374612,
                "x": 0.007748599140229565,
                "y": 0.7110244013736278,
                "z": -0.7031023480610252
            },
            "position": {
                "x": 0.1141497679147869,
                "y": -0.7141253447532654,
                "z": 0.3711530566215515
            }
        },
        "name": "move_to_auspresseinheit_B"
    },
    "id": "KPIECE_move_to_auspresseinheit_B_77",
    "joint_names": [
        "shoulder_pan_joint",
        "shoulder_lift_joint",
        "elbow_joint",
        "wrist_1_joint",
        "wrist_2_joint",
        "wrist_3_joint"
    ],
    "metrics": {
        "cart_traj_len": 0.564280299924025,
        "distance_elbow_joint": 0.06657903169607682,
        "distance_shoulder_lift_joint": 0.29319162956373,
        "distance_shoulder_pan_joint": 0.5743333734438401,
        "distance_wrist_1_joint": 0.3380536333696883,
        "distance_wrist_2_joint": 1.0028293728630053,
        "distance_wrist_3_joint": 0.00474114359623945,
        "smoothness": 3.806478935924272e-16,
        "time": 0.12093167099999999,
        "traj_len": 1.5098768772759519,
        "weighted_distance": 1.9052804197696864
    },
    "planner": "KPIECE",
    "start": {
        "state": {
            "elbow_joint": 2.0193083361928714,
            "shoulder_lift_joint": -1.1220246554650708,
            "shoulder_pan_joint": -1.0952077554168747,
            "wrist_1_joint": -0.8559753972642168,
            "wrist_2_joint": 0.4759566250798843,
            "wrist_3_joint": -3.1240929996934557
        }
    },
    "waypoints": [
        {
            "positions": [
                -1.0952077554168747,
                -1.1220246554650708,
                2.0193083361928714,
                -0.8559753972642168,
                0.4759566250798843,
                -3.1240929996934557
            ]
        },
        {
            "positions": [
                -1.1909299843241814,
                -1.1708899270590258,
                2.008211830910192,
                -0.7996331250359354,
                0.6430948538903851,
                -3.123302809094082
            ]
        },
        {
            "positions": [
                -1.286652213231488,
                -1.2197551986529809,
                1.9971153256275125,
                -0.7432908528076541,
                0.8102330827008861,
                -3.122512618494709
            ]
        },
        {
            "positions": [
                -1.3823744421387947,
                -1.268620470246936,
                1.986018820344833,
                -0.6869485805793727,
                0.9773713115113869,
                -3.121722427895336
            ]
        },
        {
            "positions": [
                -1.4780966710461012,
                -1.3174857418408907,
                1.9749223150621535,
                -0.6306063083510913,
                1.144509540321888,
                -3.1209322372959627
            ]
        },
        {
            "positions": [
                -1.573818899953408,
                -1.3663510134348458,
                1.963825809779474,
                -0.5742640361228099,
                1.3116477691323887,
                -3.1201420466965892
            ]
        },
        {
            "positions": [
                -1.6695411288607147,
                -1.4152162850288008,
                1.9527293044967946,
                -0.5179217638945285,
                1.4787859979428897,
                -3.119351856097216
            ]
        }
    ]
}