{
    "goal": {
        "global_pose": {
            "orientation": {
                "w": 0.7047431468963623,
                "x": -0.7094548344612122,
                "y": 0.0024358443915843964,
                "z": -0.0022348060738295317
            },
            "position": {
                "x": 0.6094750761985779,
                "y": 0.3671506643295288,
                "z": 0.19426114857196808
            }
        },
        "name": "move_to_magneteinheit_A"
    },
    "id": "KPIECE_move_to_magneteinheit_A_150",
    "joint_names": [
        "shoulder_pan_joint",
        "shoulder_lift_joint",
        "elbow_joint",
        "wrist_1_joint",
        "wrist_2_joint",
        "wrist_3_joint"
    ],
    "metrics": {
        "cart_traj_len": 3.2676223998683653,
        "distance_elbow_joint": 3.8770329188398582,
        "distance_shoulder_lift_joint": 1.112517010855365,
        "distance_shoulder_pan_joint": 3.2665606742446345,
        "distance_wrist_1_joint": 0.8382354324829536,
        "distance_wrist_2_joint": 1.8277990736369316,
        "distance_wrist_3_joint": 2.9366314319559264,
        "smoothness": 0.411620143778363,
        "time": 0.143910149,
        "traj_len": 3.722737775081086,
        "weighted_distance": 4.7326603419268745
    },
    "planner": "KPIECE",
    "start": {
        "state": {
            "elbow_joint": -1.9196185241190666,
            "shoulder_lift_joint": -1.2443396400964142,
            "shoulder_pan_joint": 2.6996025414629847,
            "wrist_1_joint": -1.5485510000780065,
            "wrist_2_joint": -1.5709468930060704,
            "wrist_3_joint": 0.4420197071253992
        }
    },
    "waypoints": [
        {
            "positions": [
                2.6996025414629847,
                -1.2443396400964142,
                -1.9196185241190666,
                -1.5485510000780065,
                -1.5709468930060704,
                0.4420197071253992
            ]
        },
        {
            "positions": [
                2.608296121737598,
                -1.2599794284905041,
                -1.8010418759524938,
                -1.5258942004861527,
                -1.515662659955609,
                0.528201437549699
            ]
        },
        {
            "positions": [
                2.516989702012211,
                -1.2756192168845943,
                -1.682465227785921,
                -1.5032374008942986,
                -1.4603784269051474,
                0.6143831679739987
            ]
        },
        {
            "positions": [
                2.4256832822868244,
                -1.2912590052786843,
                -1.563888579619348,
                -1.4805806013024447,
                -1.405094193854686,
                0.7005648983982985
            ]
        },
        {
            "positions": [
                2.3343768625614376,
                -1.3068987936727745,
                -1.4453119314527751,
                -1.4579238017105907,
                -1.3498099608042244,
                0.7867466288225983
            ]
        },
        {
            "positions": [
                2.243070442836051,
                -1.3225385820668645,
                -1.3267352832862023,
                -1.4352670021187368,
                -1.294525727753763,
                0.872928359246898
            ]
        },
        {
            "positions": [
                2.1517640231106645,
                -1.3381783704609547,
                -1.2081586351196296,
                -1.4126102025268827,
                -1.2392414947033015,
                0.9591100896711978
            ]
        },
        {
            "positions": [
                2.0604576033852773,
                -1.3538181588550446,
                -1.0895819869530567,
                -1.389953402935029,
                -1.18395726165284,
                1.0452918200954975
            ]
        },
        {
            "positions": [
                1.9691511836598907,
                -1.3694579472491348,
                -0.9710053387864839,
                -1.367296603343175,
                -1.1286730286023785,
                1.1314735505197975
            ]
        },
        {
            "positions": [
                1.877844763934504,
                -1.3850977356432248,
                -0.852428690619911,
                -1.344639803751321,
                -1.073388795551917,
                1.217655280944097
            ]
        },
        {
            "positions": [
                1.7865383442091172,
                -1.4007375240373148,
                -0.7338520424533381,
                -1.3219830041594671,
                -1.0181045625014558,
                1.303837011368397
            ]
        },
        {
            "positions": [
                1.6952319244837304,
                -1.416377312431405,
                -0.6152753942867653,
                -1.299326204567613,
                -0.9628203294509942,
                1.3900187417926966
            ]
        },
        {
            "positions": [
                1.6039255047583438,
                -1.432017100825495,
                -0.4966987461201926,
                -1.2766694049757592,
                -0.9075360964005327,
                1.4762004722169966
            ]
        },
        {
            "positions": [
                1.512619085032957,
                -1.4476568892195851,
                -0.37812209795361973,
                -1.2540126053839051,
                -0.8522518633500712,
                1.5623822026412961
            ]
        },
        {
            "positions": [
                1.4213126653075703,
                -1.463296677613675,
                -0.25954544978704686,
                -1.2313558057920513,
                -0.7969676302996097,
                1.6485639330655961
            ]
        },
        {
            "positions": [
                1.3300062455821835,
                -1.4789364660077653,
                -0.14096880162047398,
                -1.2086990062001974,
                -0.7416833972491482,
                1.7347456634898957
            ]
        },
        {
            "positions": [
                1.2386998258567967,
                -1.4945762544018553,
                -0.02239215345390111,
                -1.1860422066083434,
                -0.6863991641986867,
                1.8209273939141957
            ]
        },
        {
            "positions": [
                1.14739340613141,
                -1.5102160427959452,
                0.09618449471267176,
                -1.1633854070164893,
                -0.6311149311482253,
                1.9071091243384952
            ]
        },
        {
            "positions": [
                1.0560869864060232,
                -1.5258558311900354,
                0.21476114287924464,
                -1.1407286074246354,
                -0.5758306980977638,
                1.9932908547627952
            ]
        },
        {
            "positions": [
                0.9647805666806364,
                -1.5414956195841254,
                0.3333377910458175,
                -1.1180718078327816,
                -0.5205464650473024,
                2.0794725851870948
            ]
        },
        {
            "positions": [
                0.8734741469552496,
                -1.5571354079782156,
                0.4519144392123904,
                -1.0954150082409275,
                -0.4652622319968409,
                2.1656543156113948
            ]
        },
        {
            "positions": [
                0.782167727229863,
                -1.5727751963723056,
                0.5704910873789633,
                -1.0727582086490737,
                -0.40997799894637943,
                2.2518360460356943
            ]
        },
        {
            "positions": [
                0.690861307504476,
                -1.5884149847663958,
                0.6890677355455361,
                -1.0501014090572198,
                -0.35469376589591795,
                2.3380177764599943
            ]
        },
        {
            "positions": [
                0.5995548877790893,
                -1.6040547731604857,
                0.807644383712109,
                -1.0274446094653658,
                -0.29940953284545646,
                2.424199506884294
            ]
        },
        {
            "positions": [
                0.5082484680537029,
                -1.6196945615545757,
                0.9262210318786814,
                -1.0047878098735117,
                -0.24412529979499498,
                2.510381237308594
            ]
        },
        {
            "positions": [
                0.41694204832831616,
                -1.6353343499486659,
                1.0447976800452543,
                -0.9821310102816578,
                -0.1888410667445335,
                2.5965629677328934
            ]
        },
        {
            "positions": [
                0.3256356286029294,
                -1.650974138342756,
                1.1633743282118272,
                -0.9594742106898039,
                -0.133556833694072,
                2.6827446981571934
            ]
        },
        {
            "positions": [
                0.2343292088775426,
                -1.666613926736846,
                1.2819509763784,
                -0.9368174110979499,
                -0.07827260064361052,
                2.7689264285814934
            ]
        },
        {
            "positions": [
                0.14302278915215583,
                -1.682253715130936,
                1.400527624544973,
                -0.9141606115060961,
                -0.02298836759314904,
                2.855108159005793
            ]
        },
        {
            "positions": [
                0.05171636942676905,
                -1.6978935035250262,
                1.5191042727115458,
                -0.8915038119142421,
                0.032295865457312445,
                2.9412898894300925
            ]
        },
        {
            "positions": [
                -0.03959005029861773,
                -1.7135332919191162,
                1.6376809208781187,
                -0.8688470123223881,
                0.08758009850777393,
                3.0274716198543925
            ]
        },
        {
            "positions": [
                -0.1308964700240045,
                -1.7291730803132062,
                1.7562575690446915,
                -0.8461902127305342,
                0.1428643315582354,
                3.1136533502786925
            ]
        },
        {
            "positions": [
                -0.22220288974939134,
                -1.7448128687072963,
                1.8748342172112644,
                -0.8235334131386802,
                0.19814856460869695,
                3.199835080702992
            ]
        },
        {
            "positions": [
                -0.13601407899132656,
                -1.5918019231461757,
                1.8954792615886464,
                -0.7952289517527734,
                0.1834726606031558,
                3.1551310661084084
            ]
        },
        {
            "positions": [
                -0.04982526823326175,
                -1.438790977585055,
                1.9161243059660285,
                -0.7669244903668666,
                0.16879675659761467,
                3.1104270515138253
            ]
        },
        {
            "positions": [
                0.03636354252480306,
                -1.285780032023934,
                1.9367693503434105,
                -0.7386200289809597,
                0.15412085259207353,
                3.065723036919242
            ]
        },
        {
            "positions": [
                0.12255235328286784,
                -1.1327690864628135,
                1.9574143947207925,
                -0.7103155675950529,
                0.1394449485865324,
                3.0210190223246585
            ]
        }
    ]
}