{
    "goal": {
        "global_pose": {
            "orientation": {
                "w": 0.005598929693374612,
                "x": 0.007748599140229565,
                "y": 0.7110244013736278,
                "z": -0.7031023480610252
            },
            "position": {
                "x": 0.1141497679147869,
                "y": -0.7141253447532654,
                "z": 0.3711530566215515
            }
        },
        "name": "move_to_auspresseinheit_B"
    },
    "id": "KPIECE_move_to_auspresseinheit_B_23",
    "joint_names": [
        "shoulder_pan_joint",
        "shoulder_lift_joint",
        "elbow_joint",
        "wrist_1_joint",
        "wrist_2_joint",
        "wrist_3_joint"
    ],
    "metrics": {
        "cart_traj_len": 0.5643055559993823,
        "distance_elbow_joint": 0.060225445204762806,
        "distance_shoulder_lift_joint": 0.29516665952781573,
        "distance_shoulder_pan_joint": 0.5775911263006126,
        "distance_wrist_1_joint": 0.31640813941129786,
        "distance_wrist_2_joint": 0.9866589870295726,
        "distance_wrist_3_joint": 0.000497329614713049,
        "smoothness": 2.5376526478085547e-16,
        "time": 0.5575534839999999,
        "traj_len": 1.4955091731877725,
        "weighted_distance": 1.8816507308103358
    },
    "planner": "KPIECE",
    "start": {
        "state": {
            "elbow_joint": 2.0193083361928714,
            "shoulder_lift_joint": -1.1220246554650708,
            "shoulder_pan_joint": -1.0952077554168747,
            "wrist_1_joint": -0.8559753972642168,
            "wrist_2_joint": 0.4759566250798843,
            "wrist_3_joint": -3.1240929996934557
        }
    },
    "waypoints": [
        {
            "positions": [
                -1.0952077554168747,
                -1.1220246554650708,
                2.0193083361928714,
                -0.8559753972642168,
                0.4759566250798843,
                -3.1240929996934557
            ]
        },
        {
            "positions": [
                -1.1914729431336435,
                -1.1712190987197069,
                2.0092707619920778,
                -0.8032407073623338,
                0.640399789584813,
                -3.1241758879625747
            ]
        },
        {
            "positions": [
                -1.287738130850412,
                -1.2204135419743427,
                1.999233187791284,
                -0.7505060174604509,
                0.8048429540897417,
                -3.1242587762316933
            ]
        },
        {
            "positions": [
                -1.384003318567181,
                -1.2696079852289786,
                1.98919561359049,
                -0.6977713275585679,
                0.9692861185946706,
                -3.124341664500812
            ]
        },
        {
            "positions": [
                -1.4802685062839496,
                -1.3188024284836146,
                1.9791580393896961,
                -0.645036637656685,
                1.1337292830995993,
                -3.124424552769931
            ]
        },
        {
            "positions": [
                -1.5765336940007186,
                -1.3679968717382507,
                1.9691204651889025,
                -0.5923019477548019,
                1.2981724476045282,
                -3.12450744103905
            ]
        },
        {
            "positions": [
                -1.6727988817174873,
                -1.4171913149928865,
                1.9590828909881086,
                -0.5395672578529189,
                1.462615612109457,
                -3.1245903293081687
            ]
        }
    ]
}