{
    "goal": {
        "global_pose": {
            "orientation": {
                "w": 0.7031023480610252,
                "x": -0.7110244013736278,
                "y": 0.0077485991402295624,
                "z": 0.005598929693374583
            },
            "position": {
                "x": -0.8841497679147869,
                "y": 0.44412534475326537,
                "z": 0.3711530566215515
            }
        },
        "name": "move_to_auspresseinheit_D"
    },
    "id": "KPIECE_move_to_auspresseinheit_D_36",
    "joint_names": [
        "shoulder_pan_joint",
        "shoulder_lift_joint",
        "elbow_joint",
        "wrist_1_joint",
        "wrist_2_joint",
        "wrist_3_joint"
    ],
    "metrics": {
        "cart_traj_len": 0.3431615959332988,
        "distance_elbow_joint": 0.6428240219316166,
        "distance_shoulder_lift_joint": 0.12316007307628718,
        "distance_shoulder_pan_joint": 0.133373952474427,
        "distance_wrist_1_joint": 0.5528651955205848,
        "distance_wrist_2_joint": 1.4365991046694988,
        "distance_wrist_3_joint": 0.008923382195998197,
        "smoothness": 5.921189480296099e-16,
        "time": 0.033749874,
        "traj_len": 1.7022766314170013,
        "weighted_distance": 2.2147362810164313
    },
    "planner": "KPIECE",
    "start": {
        "state": {
            "elbow_joint": -1.8275523626775212,
            "shoulder_lift_joint": -2.126789852344167,
            "shoulder_pan_joint": -0.03513704404078235,
            "wrist_1_joint": -2.347782403156801,
            "wrist_2_joint": -1.6058999987535132,
            "wrist_3_joint": -3.0880379163319196
        }
    },
    "waypoints": [
        {
            "positions": [
                -0.03513704404078235,
                -2.126789852344167,
                -1.8275523626775212,
                -2.347782403156801,
                -1.6058999987535132,
                -3.0880379163319196
            ]
        },
        {
            "positions": [
                -0.051808788100085726,
                -2.142184861478703,
                -1.7471993599360691,
                -2.416890552596874,
                -1.4263251106698258,
                -3.0869224935574198
            ]
        },
        {
            "positions": [
                -0.0684805321593891,
                -2.1575798706132385,
                -1.666846357194617,
                -2.485998702036947,
                -1.2467502225861384,
                -3.08580707078292
            ]
        },
        {
            "positions": [
                -0.08515227621869248,
                -2.1729748797477746,
                -1.586493354453165,
                -2.5551068514770203,
                -1.0671753345024513,
                -3.08469164800842
            ]
        },
        {
            "positions": [
                -0.10182402027799584,
                -2.1883698888823107,
                -1.506140351711713,
                -2.6242150009170935,
                -0.8876004464187638,
                -3.0835762252339203
            ]
        },
        {
            "positions": [
                -0.11849576433729922,
                -2.2037648980168463,
                -1.4257873489702608,
                -2.693323150357166,
                -0.7080255583350764,
                -3.082460802459421
            ]
        },
        {
            "positions": [
                -0.1351675083966026,
                -2.2191599071513823,
                -1.3454343462288088,
                -2.7624312997972393,
                -0.5284506702513891,
                -3.081345379684921
            ]
        },
        {
            "positions": [
                -0.15183925245590596,
                -2.234554916285918,
                -1.2650813434873567,
                -2.8315394492373125,
                -0.34887578216770176,
                -3.0802299569104212
            ]
        },
        {
            "positions": [
                -0.16851099651520934,
                -2.249949925420454,
                -1.1847283407459046,
                -2.9006475986773856,
                -0.16930089408401433,
                -3.0791145341359214
            ]
        }
    ]
}