{
    "goal": {
        "global_pose": {
            "orientation": {
                "w": -0.4816463035849501,
                "x": 0.5182115481033762,
                "y": 0.4908360881923453,
                "z": -0.5084816262002911
            },
            "position": {
                "x": -0.8240239810943604,
                "y": 0.19912469901144506,
                "z": 0.16403168439865112
            }
        },
        "name": "move_to_storage_D"
    },
    "id": "KPIECE_move_to_storage_D_143",
    "joint_names": [
        "shoulder_pan_joint",
        "shoulder_lift_joint",
        "elbow_joint",
        "wrist_1_joint",
        "wrist_2_joint",
        "wrist_3_joint"
    ],
    "metrics": {
        "cart_traj_len": 9.076326630619695,
        "distance_elbow_joint": 5.779047020839843,
        "distance_shoulder_lift_joint": 4.8171909227187495,
        "distance_shoulder_pan_joint": 3.859540679261186,
        "distance_wrist_1_joint": 2.8014467291530885,
        "distance_wrist_2_joint": 5.7644053437954845,
        "distance_wrist_3_joint": 6.074127627877207,
        "smoothness": 0.6006245657046946,
        "time": 0.131210464,
        "traj_len": 5.394048416879992,
        "weighted_distance": 7.057610477516348
    },
    "planner": "KPIECE",
    "start": {
        "state": {
            "elbow_joint": -2.384821988534728,
            "shoulder_lift_joint": -2.2788054721415256,
            "shoulder_pan_joint": -0.1854694642142757,
            "wrist_1_joint": 1.4845938289331202,
            "wrist_2_joint": 0.17898776772866878,
            "wrist_3_joint": 0.037105688729662994
        }
    },
    "waypoints": [
        {
            "positions": [
                -0.1854694642142757,
                -2.2788054721415256,
                -2.384821988534728,
                1.4845938289331202,
                0.17898776772866878,
                0.037105688729662994
            ]
        },
        {
            "positions": [
                -0.11131065054252165,
                -2.259114230779243,
                -2.1650770134284647,
                1.5003105157406131,
                0.19851864036507066,
                0.059813478154948044
            ]
        },
        {
            "positions": [
                -0.03715183687076759,
                -2.23942298941696,
                -1.9453320383222017,
                1.516027202548106,
                0.21804951300147252,
                0.08252126758023309
            ]
        },
        {
            "positions": [
                0.044448401861839584,
                -2.198650727079057,
                -1.8385598792528297,
                1.4397132780845863,
                0.23815584412311447,
                0.14609372996933923
            ]
        },
        {
            "positions": [
                0.12604864059444676,
                -2.157878464741154,
                -1.731787720183458,
                1.3633993536210665,
                0.2582621752447565,
                0.20966619235844533
            ]
        },
        {
            "positions": [
                0.20764887932705392,
                -2.1171062024032508,
                -1.625015561114086,
                1.2870854291575466,
                0.2783685063663984,
                0.27323865474755143
            ]
        },
        {
            "positions": [
                0.28924911805966114,
                -2.0763339400653478,
                -1.5182434020447142,
                1.2107715046940268,
                0.2984748374880404,
                0.33681111713665757
            ]
        },
        {
            "positions": [
                0.37084935679226827,
                -2.035561677727445,
                -1.4114712429753422,
                1.134457580230507,
                0.31858116860968233,
                0.4003835795257637
            ]
        },
        {
            "positions": [
                0.4524495955248754,
                -1.9947894153895418,
                -1.3046990839059704,
                1.0581436557669872,
                0.3386874997313243,
                0.4639560419148698
            ]
        },
        {
            "positions": [
                0.5340498342574826,
                -1.9540171530516386,
                -1.1979269248365985,
                0.9818297313034673,
                0.3587938308529663,
                0.5275285043039759
            ]
        },
        {
            "positions": [
                0.6156500729900898,
                -1.9132448907137356,
                -1.0911547657672265,
                0.9055158068399475,
                0.37890016197460824,
                0.591100966693082
            ]
        },
        {
            "positions": [
                0.6972503117226969,
                -1.8724726283758324,
                -0.9843826066978547,
                0.8292018823764278,
                0.3990064930962502,
                0.6546734290821881
            ]
        },
        {
            "positions": [
                0.7788505504553042,
                -1.8317003660379294,
                -0.8776104476284827,
                0.7528879579129079,
                0.4191128242178922,
                0.7182458914712944
            ]
        },
        {
            "positions": [
                0.8604507891879113,
                -1.7909281037000264,
                -0.770838288559111,
                0.676574033449388,
                0.43921915533953415,
                0.7818183538604004
            ]
        },
        {
            "positions": [
                0.9420510279205184,
                -1.7501558413621232,
                -0.664066129489739,
                0.6002601089858682,
                0.4593254864611761,
                0.8453908162495065
            ]
        },
        {
            "positions": [
                1.023651266653126,
                -1.70938357902422,
                -0.5572939704203672,
                0.5239461845223484,
                0.47943181758281805,
                0.9089632786386126
            ]
        },
        {
            "positions": [
                1.105251505385733,
                -1.668611316686317,
                -0.4505218113509952,
                0.4476322600588285,
                0.49953814870446006,
                0.9725357410277187
            ]
        },
        {
            "positions": [
                1.1868517441183402,
                -1.627839054348414,
                -0.34374965228162346,
                0.3713183355953089,
                0.519644479826102,
                1.0361082034168247
            ]
        },
        {
            "positions": [
                1.2684519828509473,
                -1.587066792010511,
                -0.23697749321225148,
                0.2950044111317889,
                0.539750810947744,
                1.099680665805931
            ]
        },
        {
            "positions": [
                1.3500522215835546,
                -1.5462945296726078,
                -0.1302053341428795,
                0.21869048666826907,
                0.559857142069386,
                1.1632531281950371
            ]
        },
        {
            "positions": [
                1.4316524603161616,
                -1.5055222673347048,
                -0.023433175073507728,
                0.14237656220474948,
                0.5799634731910279,
                1.2268255905841432
            ]
        },
        {
            "positions": [
                1.513252699048769,
                -1.4647500049968016,
                0.08333898399586404,
                0.06606263774122945,
                0.6000698043126699,
                1.2903980529732493
            ]
        },
        {
            "positions": [
                1.594852937781376,
                -1.4239777426588986,
                0.19011114306523624,
                -0.010251286722290365,
                0.6201761354343118,
                1.3539705153623556
            ]
        },
        {
            "positions": [
                1.6764531765139832,
                -1.3832054803209957,
                0.296883302134608,
                -0.08656521118581018,
                0.6402824665559538,
                1.4175429777514614
            ]
        },
        {
            "positions": [
                1.7580534152465903,
                -1.3424332179830925,
                0.40365546120397977,
                -0.16287913564933,
                0.6603887976775957,
                1.4811154401405677
            ]
        },
        {
            "positions": [
                1.8396536539791977,
                -1.3016609556451892,
                0.510427620273352,
                -0.2391930601128498,
                0.6804951287992378,
                1.5446879025296738
            ]
        },
        {
            "positions": [
                1.9212538927118046,
                -1.2608886933072863,
                0.6171997793427237,
                -0.3155069845763696,
                0.7006014599208796,
                1.6082603649187799
            ]
        },
        {
            "positions": [
                2.002854131444412,
                -1.2201164309693833,
                0.7239719384120957,
                -0.3918209090398894,
                0.7207077910425217,
                1.671832827307886
            ]
        },
        {
            "positions": [
                2.0575086070488577,
                -1.3046822123504467,
                0.6866509039506815,
                -0.42193354617117346,
                0.6041264996078761,
                1.6021675904802084
            ]
        },
        {
            "positions": [
                2.1121630826533035,
                -1.38924799373151,
                0.6493298694892674,
                -0.45204618330245744,
                0.48754520817323066,
                1.5325023536525306
            ]
        },
        {
            "positions": [
                2.1668175582577494,
                -1.4738137751125733,
                0.6120088350278532,
                -0.4821588204337415,
                0.37096391673858514,
                1.462837116824853
            ]
        },
        {
            "positions": [
                2.221472033862195,
                -1.5583795564936367,
                0.5746878005664391,
                -0.5122714575650255,
                0.2543826253039396,
                1.3931718799971753
            ]
        },
        {
            "positions": [
                2.276126509466641,
                -1.6429453378747,
                0.5373667661050249,
                -0.5423840946963094,
                0.13780133386929416,
                1.3235066431694977
            ]
        },
        {
            "positions": [
                2.3307809850710863,
                -1.7275111192557633,
                0.5000457316436107,
                -0.5724967318275935,
                0.02122004243464859,
                1.2538414063418202
            ]
        },
        {
            "positions": [
                2.385435460675532,
                -1.8120769006368267,
                0.4627246971821965,
                -0.6026093689588775,
                -0.09536124899999687,
                1.1841761695141424
            ]
        },
        {
            "positions": [
                2.440089936279978,
                -1.89664268201789,
                0.42540366272078234,
                -0.6327220060901615,
                -0.21194254043464245,
                1.1145109326864646
            ]
        },
        {
            "positions": [
                2.4947444118844238,
                -1.9812084633989535,
                0.3880826282593681,
                -0.6628346432214456,
                -0.328523831869288,
                1.044845695858787
            ]
        },
        {
            "positions": [
                2.5493988874888696,
                -2.065774244780017,
                0.35076159379795396,
                -0.6929472803527296,
                -0.44510512330393337,
                0.9751804590311095
            ]
        },
        {
            "positions": [
                2.6040533630933154,
                -2.1503400261610803,
                0.31344055933653975,
                -0.7230599174840137,
                -0.5616864147385792,
                0.9055152222034317
            ]
        },
        {
            "positions": [
                2.658707838697761,
                -2.2349058075421437,
                0.2761195248751256,
                -0.7531725546152976,
                -0.6782677061732245,
                0.8358499853757542
            ]
        },
        {
            "positions": [
                2.713362314302207,
                -2.319471588923207,
                0.23879849041371137,
                -0.7832851917465817,
                -0.7948489976078701,
                0.7661847485480765
            ]
        },
        {
            "positions": [
                2.7680167899066523,
                -2.4040373703042706,
                0.20147745595229727,
                -0.8133978288778656,
                -0.9114302890425154,
                0.6965195117203988
            ]
        },
        {
            "positions": [
                2.822671265511098,
                -2.488603151685334,
                0.16415642149088305,
                -0.8435104660091497,
                -1.0280115804771612,
                0.626854274892721
            ]
        },
        {
            "positions": [
                2.877325741115544,
                -2.5731689330663974,
                0.12683538702946895,
                -0.8736231031404337,
                -1.1445928719118066,
                0.5571890380650435
            ]
        },
        {
            "positions": [
                2.9319802167199898,
                -2.657734714447461,
                0.08951435256805473,
                -0.9037357402717178,
                -1.2611741633464522,
                0.48752380123736594
            ]
        },
        {
            "positions": [
                2.9866346923244356,
                -2.7423004958285238,
                0.05219331810664052,
                -0.9338483774030018,
                -1.3777554547810977,
                0.4178585644096884
            ]
        },
        {
            "positions": [
                3.0412891679288814,
                -2.826866277209587,
                0.014872283645226303,
                -0.9639610145342857,
                -1.494336746215743,
                0.3481933275820106
            ]
        },
        {
            "positions": [
                3.095943643533327,
                -2.9114320585906506,
                -0.0224487508161878,
                -0.9940736516655697,
                -1.6109180376503884,
                0.27852809075433305
            ]
        },
        {
            "positions": [
                3.150598119137773,
                -2.995997839971714,
                -0.05976978527760202,
                -1.0241862887968538,
                -1.7274993290850345,
                0.20886285392665527
            ]
        },
        {
            "positions": [
                3.1312102266966937,
                -2.922567452099704,
                0.010101006211409927,
                -1.0156751827156263,
                -1.6247408772200687,
                0.3191010211828682
            ]
        },
        {
            "positions": [
                3.111822334255615,
                -2.849137064227693,
                0.07997179770042187,
                -1.0071640766343988,
                -1.5219824253551026,
                0.42933918843908114
            ]
        },
        {
            "positions": [
                3.0924344418145355,
                -2.775706676355683,
                0.1498425891894338,
                -0.9986529705531714,
                -1.4192239734901368,
                0.5395773556952941
            ]
        },
        {
            "positions": [
                3.0730465493734562,
                -2.702276288483673,
                0.21971338067844576,
                -0.9901418644719439,
                -1.316465521625171,
                0.649815522951507
            ]
        },
        {
            "positions": [
                3.0536586569323774,
                -2.6288459006116627,
                0.2895841721674577,
                -0.9816307583907165,
                -1.2137070697602053,
                0.7600536902077201
            ]
        },
        {
            "positions": [
                3.034270764491298,
                -2.555415512739652,
                0.3594549636564696,
                -0.9731196523094889,
                -1.1109486178952395,
                0.870291857463933
            ]
        },
        {
            "positions": [
                3.0148828720502188,
                -2.481985124867642,
                0.42932575514548155,
                -0.9646085462282614,
                -1.0081901660302734,
                0.9805300247201459
            ]
        },
        {
            "positions": [
                2.99549497960914,
                -2.4085547369956313,
                0.49919654663449353,
                -0.9560974401470339,
                -0.9054317141653077,
                1.090768191976359
            ]
        },
        {
            "positions": [
                2.9761070871680606,
                -2.335124349123621,
                0.5690673381235054,
                -0.9475863340658065,
                -0.8026732623003419,
                1.201006359232572
            ]
        },
        {
            "positions": [
                2.9567191947269813,
                -2.261693961251611,
                0.6389381296125174,
                -0.939075227984579,
                -0.6999148104353761,
                1.3112445264887849
            ]
        },
        {
            "positions": [
                2.9373313022859024,
                -2.1882635733796008,
                0.7088089211015294,
                -0.9305641219033515,
                -0.59715635857041,
                1.4214826937449978
            ]
        },
        {
            "positions": [
                2.917943409844823,
                -2.11483318550759,
                0.7786797125905413,
                -0.9220530158221241,
                -0.49439790670544426,
                1.5317208610012107
            ]
        },
        {
            "positions": [
                2.898555517403744,
                -2.04140279763558,
                0.8485505040795532,
                -0.9135419097408966,
                -0.39163945484047846,
                1.6419590282574237
            ]
        },
        {
            "positions": [
                2.879167624962665,
                -1.9679724097635696,
                0.9184212955685651,
                -0.905030803659669,
                -0.28888100297551267,
                1.7521971955136366
            ]
        },
        {
            "positions": [
                2.8597797325215857,
                -1.8945420218915592,
                0.9882920870575771,
                -0.8965196975784415,
                -0.18612255111054665,
                1.8624353627698498
            ]
        },
        {
            "positions": [
                2.8403918400805064,
                -1.821111634019549,
                1.058162878546589,
                -0.8880085914972141,
                -0.08336409924558086,
                1.9726735300260625
            ]
        },
        {
            "positions": [
                2.8210039476394275,
                -1.7476812461475386,
                1.128033670035601,
                -0.8794974854159866,
                0.019394352619385158,
                2.0829116972822757
            ]
        },
        {
            "positions": [
                2.801616055198348,
                -1.6742508582755284,
                1.1979044615246128,
                -0.8709863793347592,
                0.12215280448435073,
                2.193149864538489
            ]
        },
        {
            "positions": [
                2.782228162757269,
                -1.600820470403518,
                1.267775253013625,
                -0.8624752732535317,
                0.22491125634931675,
                2.303388031794702
            ]
        },
        {
            "positions": [
                2.76284027031619,
                -1.5273900825315079,
                1.3376460445026368,
                -0.8539641671723042,
                0.3276697082142823,
                2.4136261990509142
            ]
        },
        {
            "positions": [
                2.7434523778751108,
                -1.4539596946594975,
                1.4075168359916488,
                -0.8454530610910767,
                0.43042816007924833,
                2.5238643663071274
            ]
        },
        {
            "positions": [
                2.7240644854340315,
                -1.3805293067874873,
                1.4773876274806608,
                -0.8369419550098491,
                0.5331866119442144,
                2.6341025335633406
            ]
        },
        {
            "positions": [
                2.7046765929929526,
                -1.3070989189154767,
                1.5472584189696728,
                -0.8284308489286217,
                0.6359450638091804,
                2.7443407008195537
            ]
        },
        {
            "positions": [
                2.6852887005518733,
                -1.2336685310434665,
                1.6171292104586845,
                -0.8199197428473942,
                0.7387035156741459,
                2.854578868075766
            ]
        },
        {
            "positions": [
                2.665900808110794,
                -1.1602381431714561,
                1.6870000019476965,
                -0.8114086367661668,
                0.841461967539112,
                2.964817035331979
            ]
        },
        {
            "positions": [
                2.646512915669715,
                -1.086807755299446,
                1.7568707934367085,
                -0.8028975306849393,
                0.9442204194040775,
                3.0750552025881923
            ]
        },
        {
            "positions": [
                2.627125023228636,
                -1.0133773674274356,
                1.8267415849257205,
                -0.7943864246037118,
                1.0469788712690435,
                3.185293369844405
            ]
        }
    ]
}