{
    "goal": {
        "global_pose": {
            "orientation": {
                "w": 0.7047431493862688,
                "x": -0.7094548369677653,
                "y": 0.0024358444001904,
                "z": -0.0022348060817251984
            },
            "position": {
                "x": -0.39052492380142206,
                "y": 0.3671506643295288,
                "z": 0.19426114857196808
            }
        },
        "name": "move_to_magneteinheit_D"
    },
    "id": "KPIECE_move_to_magneteinheit_D_41",
    "joint_names": [
        "shoulder_pan_joint",
        "shoulder_lift_joint",
        "elbow_joint",
        "wrist_1_joint",
        "wrist_2_joint",
        "wrist_3_joint"
    ],
    "metrics": {
        "cart_traj_len": 4.711217593110374,
        "distance_elbow_joint": 3.1168995419777716,
        "distance_shoulder_lift_joint": 1.4145429769270021,
        "distance_shoulder_pan_joint": 3.086140901341306,
        "distance_wrist_1_joint": 2.1578605249459817,
        "distance_wrist_2_joint": 1.487583099008937,
        "distance_wrist_3_joint": 6.271382906465204,
        "smoothness": 0.23511375231265488,
        "time": 0.173402291,
        "traj_len": 4.187410888683627,
        "weighted_distance": 5.807117993252033
    },
    "planner": "KPIECE",
    "start": {
        "state": {
            "elbow_joint": 0.749534889911806,
            "shoulder_lift_joint": -0.6476975780787326,
            "shoulder_pan_joint": -2.711696901376241,
            "wrist_1_joint": -0.07506478083263063,
            "wrist_2_joint": 0.43296659715538205,
            "wrist_3_joint": -3.14703540197715
        }
    },
    "waypoints": [
        {
            "positions": [
                -2.711696901376241,
                -0.6476975780787326,
                0.749534889911806,
                -0.07506478083263063,
                0.43296659715538205,
                -3.14703540197715
            ]
        },
        {
            "positions": [
                -2.7329442213768633,
                -0.6161870073605186,
                0.6740661565102241,
                -0.17170953199432917,
                0.4853905199174185,
                -3.0462881722621167
            ]
        },
        {
            "positions": [
                -2.754191541377485,
                -0.5846764366423045,
                0.5985974231086422,
                -0.2683542831560277,
                0.5378144426794549,
                -2.9455409425470833
            ]
        },
        {
            "positions": [
                -2.7754388613781074,
                -0.5531658659240903,
                0.5231286897070604,
                -0.36499903431772623,
                0.5902383654414913,
                -2.84479371283205
            ]
        },
        {
            "positions": [
                -2.796686181378729,
                -0.5216552952058763,
                0.4476599563054784,
                -0.4616437854794248,
                0.6426622882035278,
                -2.7440464831170166
            ]
        },
        {
            "positions": [
                -2.8179335013793514,
                -0.4901447244876622,
                0.37219122290389656,
                -0.5582885366411233,
                0.6950862109655642,
                -2.6432992534019832
            ]
        },
        {
            "positions": [
                -2.824928113741641,
                -0.5109768692319503,
                0.3143181189563641,
                -0.5833299901088698,
                0.6784656895193695,
                -2.5799424042768884
            ]
        },
        {
            "positions": [
                -2.744774095415886,
                -0.5414773706222535,
                0.25397821565791917,
                -0.6200085240941855,
                0.647916032240919,
                -2.4323908005857744
            ]
        },
        {
            "positions": [
                -2.6646200770901305,
                -0.5719778720125569,
                0.19363831235947426,
                -0.6566870580795013,
                0.6173663749624685,
                -2.2848391968946604
            ]
        },
        {
            "positions": [
                -2.5844660587643755,
                -0.6024783734028603,
                0.13329840906102933,
                -0.6933655920648172,
                0.586816717684018,
                -2.137287593203547
            ]
        },
        {
            "positions": [
                -2.5043120404386205,
                -0.6329788747931635,
                0.07295850576258442,
                -0.7300441260501329,
                0.5562670604055675,
                -1.989735989512433
            ]
        },
        {
            "positions": [
                -2.4241580221128656,
                -0.6634793761834668,
                0.012618602464139483,
                -0.7667226600354488,
                0.525717403127117,
                -1.842184385821319
            ]
        },
        {
            "positions": [
                -2.34400400378711,
                -0.6939798775737701,
                -0.047721300834305425,
                -0.8034011940207645,
                0.4951677458486665,
                -1.694632782130205
            ]
        },
        {
            "positions": [
                -2.263849985461355,
                -0.7244803789640734,
                -0.10806120413275033,
                -0.8400797280060803,
                0.464618088570216,
                -1.5470811784390914
            ]
        },
        {
            "positions": [
                -2.1836959671356,
                -0.7549808803543767,
                -0.16840110743119524,
                -0.8767582619913961,
                0.43406843129176553,
                -1.3995295747479775
            ]
        },
        {
            "positions": [
                -2.103541948809845,
                -0.78548138174468,
                -0.22874101072964015,
                -0.9134367959767119,
                0.40351877401331504,
                -1.2519779710568635
            ]
        },
        {
            "positions": [
                -2.02338793048409,
                -0.8159818831349833,
                -0.2890809140280851,
                -0.9501153299620277,
                0.37296911673486455,
                -1.1044263673657495
            ]
        },
        {
            "positions": [
                -1.9432339121583349,
                -0.8464823845252867,
                -0.3494208173265301,
                -0.9867938639473435,
                0.34241945945641405,
                -0.9568747636746358
            ]
        },
        {
            "positions": [
                -1.8630798938325794,
                -0.8769828859155899,
                -0.40976072062497493,
                -1.0234723979326592,
                0.31186980217796356,
                -0.8093231599835218
            ]
        },
        {
            "positions": [
                -1.7829258755068247,
                -0.9074833873058932,
                -0.4701006239234198,
                -1.060150931917975,
                0.28132014489951307,
                -0.6617715562924082
            ]
        },
        {
            "positions": [
                -1.7027718571810695,
                -0.9379838886961964,
                -0.5304405272218647,
                -1.0968294659032907,
                0.2507704876210626,
                -0.5142199526012945
            ]
        },
        {
            "positions": [
                -1.6226178388553143,
                -0.9684843900864998,
                -0.5907804305203097,
                -1.1335079998886066,
                0.22022083034261208,
                -0.3666683489101805
            ]
        },
        {
            "positions": [
                -1.5424638205295593,
                -0.9989848914768031,
                -0.6511203338187546,
                -1.1701865338739224,
                0.1896711730641616,
                -0.21911674521906654
            ]
        },
        {
            "positions": [
                -1.4623098022038041,
                -1.0294853928671064,
                -0.7114602371171995,
                -1.2068650678592383,
                0.1591215157857111,
                -0.07156514152795257
            ]
        },
        {
            "positions": [
                -1.382155783878049,
                -1.0599858942574096,
                -0.7718001404156444,
                -1.243543601844554,
                0.1285718585072606,
                0.0759864621631614
            ]
        },
        {
            "positions": [
                -1.302001765552294,
                -1.090486395647713,
                -0.8321400437140895,
                -1.2802221358298698,
                0.09802220122881011,
                0.22353806585427538
            ]
        },
        {
            "positions": [
                -1.2218477472265388,
                -1.1209868970380163,
                -0.8924799470125343,
                -1.3169006698151855,
                0.06747254395035962,
                0.37108966954538936
            ]
        },
        {
            "positions": [
                -1.1416937289007836,
                -1.1514873984283196,
                -0.9528198503109792,
                -1.3535792038005012,
                0.03692288667190913,
                0.5186412732365029
            ]
        },
        {
            "positions": [
                -1.0615397105750286,
                -1.181987899818623,
                -1.0131597536094241,
                -1.3902577377858172,
                0.006373229393458635,
                0.6661928769276169
            ]
        },
        {
            "positions": [
                -0.9813856922492734,
                -1.212488401208926,
                -1.073499656907869,
                -1.4269362717711331,
                -0.024176427884991858,
                0.8137444806187308
            ]
        },
        {
            "positions": [
                -0.9012316739235182,
                -1.2429889025992296,
                -1.1338395602063138,
                -1.4636148057564489,
                -0.05472608516344235,
                0.9612960843098448
            ]
        },
        {
            "positions": [
                -0.821077655597763,
                -1.2734894039895328,
                -1.1941794635047591,
                -1.5002933397417646,
                -0.08527574244189284,
                1.1088476880009588
            ]
        },
        {
            "positions": [
                -0.7409236372720085,
                -1.303989905379836,
                -1.2545193668032035,
                -1.5369718737270803,
                -0.11582539972034334,
                1.2563992916920719
            ]
        },
        {
            "positions": [
                -0.6607696189462531,
                -1.3344904067701393,
                -1.3148592701016488,
                -1.573650407712396,
                -0.14637505699879383,
                1.4039508953831858
            ]
        },
        {
            "positions": [
                -0.5806156006204981,
                -1.3649909081604426,
                -1.3751991734000937,
                -1.6103289416977118,
                -0.17692471427724432,
                1.5515024990742994
            ]
        },
        {
            "positions": [
                -0.5004615822947431,
                -1.395491409550746,
                -1.4355390766985385,
                -1.6470074756830275,
                -0.20747437155569481,
                1.6990541027654134
            ]
        },
        {
            "positions": [
                -0.4203075639689877,
                -1.4259919109410493,
                -1.4958789799969834,
                -1.6836860096683435,
                -0.2380240288341453,
                1.8466057064565273
            ]
        },
        {
            "positions": [
                -0.34015354564323275,
                -1.4564924123313525,
                -1.5562188832954282,
                -1.7203645436536592,
                -0.2685736861125958,
                1.9941573101476413
            ]
        },
        {
            "positions": [
                -0.2599995273174778,
                -1.486992913721656,
                -1.616558786593873,
                -1.757043077638975,
                -0.2991233433910463,
                2.1417089138387553
            ]
        },
        {
            "positions": [
                -0.17984550899172236,
                -1.5174934151119592,
                -1.6768986898923184,
                -1.793721611624291,
                -0.3296730006694968,
                2.2892605175298693
            ]
        },
        {
            "positions": [
                -0.0996914906659673,
                -1.5479939165022625,
                -1.737238593190763,
                -1.8304001456096066,
                -0.36022265794794717,
                2.4368121212209832
            ]
        },
        {
            "positions": [
                -0.0836242068908081,
                -1.587375149850081,
                -1.8195716323063995,
                -1.90338189529065,
                -0.3390338472098271,
                2.5509026525026677
            ]
        },
        {
            "positions": [
                -0.06755692311564888,
                -1.6267563831978995,
                -1.9019046714220358,
                -1.9763636449716937,
                -0.317845036471707,
                2.6649931837843526
            ]
        },
        {
            "positions": [
                -0.05148963934048968,
                -1.666137616545718,
                -1.9842377105376723,
                -2.0493453946527374,
                -0.2966562257335869,
                2.779083715066037
            ]
        },
        {
            "positions": [
                -0.035422355565330466,
                -1.7055188498935365,
                -2.066570749653309,
                -2.122327144333781,
                -0.2754674149954668,
                2.893174246347722
            ]
        },
        {
            "positions": [
                -0.019355071790171263,
                -1.744900083241355,
                -2.148903788768945,
                -2.195308894014824,
                -0.2542786042573467,
                3.0072647776294064
            ]
        },
        {
            "positions": [
                -0.10302339530238898,
                -1.7437827009502356,
                -2.258134220417456,
                -2.17650068813293,
                -0.22217332296002537,
                3.065806141058731
            ]
        },
        {
            "positions": [
                -0.1866917188146067,
                -1.7426653186591161,
                -2.3673646520659664,
                -2.157692482251036,
                -0.19006804166270402,
                3.1243475044880564
            ]
        }
    ]
}