{
    "goal": {
        "global_pose": {
            "orientation": {
                "w": -0.00223480608172531,
                "x": 0.0024358444001904467,
                "y": 0.7094548369677653,
                "z": -0.704743149386269
            },
            "position": {
                "x": 0.6205249238014221,
                "y": -0.6371506643295288,
                "z": 0.19426114857196808
            }
        },
        "name": "move_to_magneteinheit_B"
    },
    "id": "KPIECE_move_to_magneteinheit_B_34",
    "joint_names": [
        "shoulder_pan_joint",
        "shoulder_lift_joint",
        "elbow_joint",
        "wrist_1_joint",
        "wrist_2_joint",
        "wrist_3_joint"
    ],
    "metrics": {
        "cart_traj_len": 2.4965249785275407,
        "distance_elbow_joint": 1.8666964011699474,
        "distance_shoulder_lift_joint": 1.5284846884242538,
        "distance_shoulder_pan_joint": 2.77950631019505,
        "distance_wrist_1_joint": 4.014821003521826,
        "distance_wrist_2_joint": 3.573395119534421,
        "distance_wrist_3_joint": 1.698228893705293,
        "smoothness": 0.4499319554955727,
        "time": 0.536383169,
        "traj_len": 3.932064650606701,
        "weighted_distance": 5.142548621745607
    },
    "planner": "KPIECE",
    "start": {
        "state": {
            "elbow_joint": 2.6216224122426386,
            "shoulder_lift_joint": -1.4174107377796124,
            "shoulder_pan_joint": 0.7066234856936794,
            "wrist_1_joint": 1.9546482284002225,
            "wrist_2_joint": -0.7096286983471962,
            "wrist_3_joint": 0.005740856962016249
        }
    },
    "waypoints": [
        {
            "positions": [
                0.7066234856936794,
                -1.4174107377796124,
                2.6216224122426386,
                1.9546482284002225,
                -0.7096286983471962,
                0.005740856962016249
            ]
        },
        {
            "positions": [
                0.6165657050702579,
                -1.4227298869584626,
                2.605106372234211,
                1.9073857031193844,
                -0.5775916129179213,
                0.0329262383865022
            ]
        },
        {
            "positions": [
                0.5265079244468365,
                -1.428049036137313,
                2.5885903322257837,
                1.8601231778385463,
                -0.4455545274886462,
                0.06011161981098815
            ]
        },
        {
            "positions": [
                0.43645014382341496,
                -1.4333681853161635,
                2.572074292217356,
                1.8128606525577085,
                -0.3135174420593712,
                0.0872970012354741
            ]
        },
        {
            "positions": [
                0.34639236319999345,
                -1.4386873344950137,
                2.5555582522089284,
                1.7655981272768704,
                -0.1814803566300962,
                0.11448238265996005
            ]
        },
        {
            "positions": [
                0.37570962826435395,
                -1.4822338315778008,
                2.4996739988717316,
                1.6828805401067213,
                -0.06402757260701317,
                0.09915877130061922
            ]
        },
        {
            "positions": [
                0.40502689332871444,
                -1.5257803286605875,
                2.4437897455345343,
                1.600162952936572,
                0.05342521141606987,
                0.08383515994127837
            ]
        },
        {
            "positions": [
                0.434344158393075,
                -1.5693268257433743,
                2.3879054921973375,
                1.5174453657664229,
                0.17087799543915294,
                0.06851154858193753
            ]
        },
        {
            "positions": [
                0.4636614234574355,
                -1.6128733228261614,
                2.3320212388601407,
                1.4347277785962738,
                0.28833077946223595,
                0.05318793722259669
            ]
        },
        {
            "positions": [
                0.5298169209191612,
                -1.6399272984002344,
                2.25111902730315,
                1.3338678939754651,
                0.29133401779481233,
                -0.01240239709488069
            ]
        },
        {
            "positions": [
                0.595972418380887,
                -1.6669812739743073,
                2.1702168157461594,
                1.2330080093546565,
                0.29433725612738865,
                -0.07799273141235807
            ]
        },
        {
            "positions": [
                0.6621279158426127,
                -1.6940352495483804,
                2.0893146041891693,
                1.1321481247338476,
                0.297340494459965,
                -0.14358306572983545
            ]
        },
        {
            "positions": [
                0.7282834133043383,
                -1.7210892251224532,
                2.0084123926321786,
                1.031288240113039,
                0.30034373279254134,
                -0.20917340004731283
            ]
        },
        {
            "positions": [
                0.7944389107660641,
                -1.7481432006965263,
                1.927510181075188,
                0.9304283554922302,
                0.3033469711251177,
                -0.27476373436479024
            ]
        },
        {
            "positions": [
                0.8605944082277899,
                -1.7751971762705991,
                1.8466079695181976,
                0.8295684708714216,
                0.30635020945769403,
                -0.3403540686822676
            ]
        },
        {
            "positions": [
                0.9267499056895155,
                -1.8022511518446722,
                1.765705757961207,
                0.7287085862506129,
                0.3093534477902704,
                -0.405944402999745
            ]
        },
        {
            "positions": [
                0.9145232224230547,
                -1.7863717772571885,
                1.6711498357858603,
                0.6075623964453136,
                0.2477914755525911,
                -0.48457785084294025
            ]
        },
        {
            "positions": [
                0.902296539156594,
                -1.7704924026697046,
                1.5765939136105136,
                0.48641620664001434,
                0.18622950331491178,
                -0.5632112986861355
            ]
        },
        {
            "positions": [
                0.8900698558901332,
                -1.754613028082221,
                1.482037991435167,
                0.36527001683471505,
                0.12466753107723244,
                -0.6418447465293308
            ]
        },
        {
            "positions": [
                0.8378154623754797,
                -1.7191604665343416,
                1.4133347311459794,
                0.28349630220191324,
                0.06272425033122726,
                -0.6672826242789852
            ]
        },
        {
            "positions": [
                0.7855610688608261,
                -1.6837079049864623,
                1.344631470856792,
                0.20172258756911143,
                0.0007809695852220855,
                -0.6927205020286396
            ]
        },
        {
            "positions": [
                0.7333066753461726,
                -1.6482553434385827,
                1.2759282105676044,
                0.11994887293630963,
                -0.06116231116078308,
                -0.718158379778294
            ]
        },
        {
            "positions": [
                0.681052281831519,
                -1.6128027818907034,
                1.207224950278417,
                0.03817515830350782,
                -0.12310559190678826,
                -0.7435962575279484
            ]
        },
        {
            "positions": [
                0.6051846617670502,
                -1.5673648816809307,
                1.2287629950024992,
                0.13809648846660838,
                -0.22415101732106904,
                -0.7087672704889275
            ]
        },
        {
            "positions": [
                0.5293170417025813,
                -1.5219269814711582,
                1.2503010397265812,
                0.23801781862970894,
                -0.3251964427353498,
                -0.6739382834499065
            ]
        },
        {
            "positions": [
                0.45344942163811247,
                -1.4764890812613856,
                1.2718390844506635,
                0.3379391487928095,
                -0.4262418681496306,
                -0.6391092964108855
            ]
        },
        {
            "positions": [
                0.3775818015736436,
                -1.4310511810516129,
                1.2933771291747456,
                0.43786047895591007,
                -0.5272872935639114,
                -0.6042803093718645
            ]
        },
        {
            "positions": [
                0.3017141815091748,
                -1.3856132808418402,
                1.3149151738988278,
                0.5377818091190106,
                -0.6283327189781922,
                -0.5694513223328436
            ]
        },
        {
            "positions": [
                0.22584656144470594,
                -1.3401753806320678,
                1.3364532186229099,
                0.6377031392821112,
                -0.729378144392473,
                -0.5346223352938226
            ]
        },
        {
            "positions": [
                0.14997894138023704,
                -1.294737480422295,
                1.3579912633469922,
                0.7376244694452118,
                -0.8304235698067537,
                -0.4997933482548016
            ]
        },
        {
            "positions": [
                0.07411132131576825,
                -1.2492995802125226,
                1.3795293080710742,
                0.8375457996083123,
                -0.9314689952210345,
                -0.4649643612157806
            ]
        },
        {
            "positions": [
                -0.0017562987487006465,
                -1.20386168000275,
                1.4010673527951565,
                0.9374671297714129,
                -1.0325144206353152,
                -0.4301353741767597
            ]
        },
        {
            "positions": [
                -0.07762391881316943,
                -1.1584237797929773,
                1.4226053975192388,
                1.0373884599345136,
                -1.1335598460495961,
                -0.3953063871377387
            ]
        },
        {
            "positions": [
                -0.15349153887763844,
                -1.1129858795832046,
                1.4441434422433208,
                1.1373097900976141,
                -1.2346052714638769,
                -0.36047740009871765
            ]
        },
        {
            "positions": [
                -0.22935915894210712,
                -1.067547979373432,
                1.465681486967403,
                1.2372311202607147,
                -1.3356506968781576,
                -0.3256484130596967
            ]
        },
        {
            "positions": [
                -0.30522677900657613,
                -1.0221100791636593,
                1.4872195316914851,
                1.3371524504238153,
                -1.4366961222924386,
                -0.29081942602067573
            ]
        },
        {
            "positions": [
                -0.3810943990710449,
                -0.9766721789538868,
                1.5087575764155674,
                1.4370737805869158,
                -1.5377415477067191,
                -0.25599043898165474
            ]
        },
        {
            "positions": [
                -0.4569620191355137,
                -0.9312342787441141,
                1.5302956211396497,
                1.5369951107500164,
                -1.638786973121,
                -0.2211614519426337
            ]
        },
        {
            "positions": [
                -0.5328296391999825,
                -0.8857963785343417,
                1.5518336658637317,
                1.636916440913117,
                -1.7398323985352808,
                -0.18633246490361277
            ]
        },
        {
            "positions": [
                -0.6086972592644515,
                -0.840358478324569,
                1.573371710587814,
                1.7368377710762175,
                -1.8408778239495616,
                -0.15150347786459184
            ]
        },
        {
            "positions": [
                -0.6845648793289203,
                -0.7949205781147964,
                1.594909755311896,
                1.836759101239318,
                -1.9419232493638423,
                -0.11667449082557091
            ]
        },
        {
            "positions": [
                -0.7604324993933891,
                -0.7494826779050238,
                1.6164478000359783,
                1.9366804314024186,
                -2.0429686747781233,
                -0.08184550378654987
            ]
        },
        {
            "positions": [
                -0.8363001194578579,
                -0.7040447776952512,
                1.6379858447600604,
                2.036601761565519,
                -2.144014100192404,
                -0.047016516747528936
            ]
        },
        {
            "positions": [
                -0.912167739522327,
                -0.6586068774854785,
                1.6595238894841426,
                2.1365230917286198,
                -2.2450595256066848,
                -0.012187529708507918
            ]
        }
    ]
}