{
    "goal": {
        "global_pose": {
            "orientation": {
                "w": 0.5084816262002911,
                "x": -0.4908360881923452,
                "y": 0.5182115481033761,
                "z": -0.48164630358495003
            },
            "position": {
                "x": 0.5540239810943604,
                "y": -0.46912469901144505,
                "z": 0.16403168439865112
            }
        },
        "name": "move_to_storage_B"
    },
    "id": "KPIECE_move_to_storage_B_111",
    "joint_names": [
        "shoulder_pan_joint",
        "shoulder_lift_joint",
        "elbow_joint",
        "wrist_1_joint",
        "wrist_2_joint",
        "wrist_3_joint"
    ],
    "metrics": {
        "cart_traj_len": 0.7640565117468597,
        "distance_elbow_joint": 0.35156839261562434,
        "distance_shoulder_lift_joint": 0.45928156863526604,
        "distance_shoulder_pan_joint": 0.5092817396248847,
        "distance_wrist_1_joint": 2.9912480807970643,
        "distance_wrist_2_joint": 2.796167508906796,
        "distance_wrist_3_joint": 3.1408358442328934,
        "smoothness": 0.12845258167188028,
        "time": 0.121594837,
        "traj_len": 3.201309596838851,
        "weighted_distance": 4.724137001927672
    },
    "planner": "KPIECE",
    "start": {
        "state": {
            "elbow_joint": 1.664937868594044,
            "shoulder_lift_joint": -0.661644460510453,
            "shoulder_pan_joint": -0.9139846352900073,
            "wrist_1_joint": 2.146753192139373,
            "wrist_2_joint": -2.2341966793290973,
            "wrist_3_joint": 0.005466555786416001
        }
    },
    "waypoints": [
        {
            "positions": [
                -0.9139846352900073,
                -0.661644460510453,
                1.664937868594044,
                2.146753192139373,
                -2.2341966793290973,
                0.005466555786416001
            ]
        },
        {
            "positions": [
                -0.8324655419441287,
                -0.7455239984969676,
                1.6992283552807146,
                2.1134183895141567,
                -2.257895598197131,
                -0.043009098545897496
            ]
        },
        {
            "positions": [
                -0.7509464485982502,
                -0.8294035364834822,
                1.7335188419673853,
                2.0800835868889402,
                -2.2815945170651646,
                -0.09148475287821099
            ]
        },
        {
            "positions": [
                -0.7647961907155754,
                -0.8410644361899716,
                1.7448383387370765,
                1.963100447867075,
                -2.1716437302183356,
                -0.21324013430094166
            ]
        },
        {
            "positions": [
                -0.7786459328329004,
                -0.8527253358964612,
                1.756157835506768,
                1.8461173088452099,
                -2.061692943371506,
                -0.3349955157236723
            ]
        },
        {
            "positions": [
                -0.7924956749502255,
                -0.8643862356029506,
                1.7674773322764592,
                1.7291341698233444,
                -1.951742156524677,
                -0.456750897146403
            ]
        },
        {
            "positions": [
                -0.8063454170675506,
                -0.8760471353094401,
                1.7787968290461504,
                1.6121510308014793,
                -1.841791369677848,
                -0.5785062785691336
            ]
        },
        {
            "positions": [
                -0.8201951591848757,
                -0.8877080350159295,
                1.790116325815842,
                1.495167891779614,
                -1.7318405828310188,
                -0.7002616599918643
            ]
        },
        {
            "positions": [
                -0.8340449013022009,
                -0.8993689347224191,
                1.8014358225855331,
                1.3781847527577489,
                -1.6218897959841896,
                -0.822017041414595
            ]
        },
        {
            "positions": [
                -0.8478946434195259,
                -0.9110298344289085,
                1.8127553193552246,
                1.2612016137358835,
                -1.5119390091373606,
                -0.9437724228373257
            ]
        },
        {
            "positions": [
                -0.8617443855368511,
                -0.922690734135398,
                1.8240748161249158,
                1.1442184747140183,
                -1.4019882222905315,
                -1.0655278042600562
            ]
        },
        {
            "positions": [
                -0.8755941276541761,
                -0.9343516338418875,
                1.835394312894607,
                1.027235335692153,
                -1.2920374354437023,
                -1.1872831856827868
            ]
        },
        {
            "positions": [
                -0.8894438697715012,
                -0.9460125335483769,
                1.8467138096642985,
                0.9102521966702879,
                -1.182086648596873,
                -1.3090385671055176
            ]
        },
        {
            "positions": [
                -0.9032936118888264,
                -0.9576734332548664,
                1.8580333064339898,
                0.7932690576484227,
                -1.072135861750044,
                -1.4307939485282481
            ]
        },
        {
            "positions": [
                -0.9171433540061514,
                -0.9693343329613558,
                1.869352803203681,
                0.6762859186265575,
                -0.9621850749032148,
                -1.552549329950979
            ]
        },
        {
            "positions": [
                -0.9309930961234766,
                -0.9809952326678454,
                1.8806722999733725,
                0.5593027796046921,
                -0.8522342880563858,
                -1.6743047113737095
            ]
        },
        {
            "positions": [
                -0.9448428382408016,
                -0.9926561323743348,
                1.8919917967430637,
                0.4423196405828267,
                -0.7422835012095566,
                -1.7960600927964403
            ]
        },
        {
            "positions": [
                -0.9586925803581268,
                -1.0043170320808243,
                1.903311293512755,
                0.3253365015609617,
                -0.6323327143627275,
                -1.9178154742191709
            ]
        },
        {
            "positions": [
                -0.9725423224754519,
                -1.0159779317873139,
                1.9146307902824464,
                0.20835336253909653,
                -0.5223819275158983,
                -2.0395708556419017
            ]
        },
        {
            "positions": [
                -0.986392064592777,
                -1.0276388314938032,
                1.9259502870521377,
                0.09137022351723112,
                -0.41243114066906905,
                -2.1613262370646322
            ]
        },
        {
            "positions": [
                -1.000241806710102,
                -1.0392997312002927,
                1.937269783821829,
                -0.02561291550463407,
                -0.30248035382224003,
                -2.2830816184873624
            ]
        },
        {
            "positions": [
                -1.0140915488274271,
                -1.0509606309067823,
                1.9485892805915204,
                -0.14259605452649904,
                -0.19252956697541102,
                -2.4048369999100934
            ]
        },
        {
            "positions": [
                -1.0279412909447523,
                -1.0626215306132716,
                1.9599087773612116,
                -0.25957919354836445,
                -0.08257878012858155,
                -2.526592381332824
            ]
        },
        {
            "positions": [
                -1.0417910330620774,
                -1.0742824303197611,
                1.9712282741309028,
                -0.3765623325702294,
                0.027372006718247466,
                -2.6483477627555545
            ]
        },
        {
            "positions": [
                -1.0556407751794024,
                -1.0859433300262507,
                1.9825477709005943,
                -0.49354547159209483,
                0.13732279356507648,
                -2.770103144178285
            ]
        },
        {
            "positions": [
                -1.0694905172967277,
                -1.09760422973274,
                1.9938672676702855,
                -0.6105286106139602,
                0.24727358041190595,
                -2.891858525601016
            ]
        },
        {
            "positions": [
                -1.0833402594140527,
                -1.1092651294392295,
                2.005186764439977,
                -0.7275117496358252,
                0.35722436725873496,
                -3.0136139070237467
            ]
        },
        {
            "positions": [
                -1.0971900015313778,
                -1.120926029145719,
                2.0165062612096682,
                -0.8444948886576905,
                0.46717515410556393,
                -3.135369288446477
            ]
        }
    ]
}