{
    "goal": {
        "global_pose": {
            "orientation": {
                "w": 0.7047431468963623,
                "x": -0.7094548344612122,
                "y": 0.0024358443915843964,
                "z": -0.0022348060738295317
            },
            "position": {
                "x": 0.6094750761985779,
                "y": 0.3671506643295288,
                "z": 0.19426114857196808
            }
        },
        "name": "move_to_magneteinheit_A"
    },
    "id": "KPIECE_move_to_magneteinheit_A_114",
    "joint_names": [
        "shoulder_pan_joint",
        "shoulder_lift_joint",
        "elbow_joint",
        "wrist_1_joint",
        "wrist_2_joint",
        "wrist_3_joint"
    ],
    "metrics": {
        "cart_traj_len": 3.160846138935366,
        "distance_elbow_joint": 3.915643783535839,
        "distance_shoulder_lift_joint": 0.4665099567301946,
        "distance_shoulder_pan_joint": 2.8281760553473934,
        "distance_wrist_1_joint": 3.4740626044232776,
        "distance_wrist_2_joint": 1.765989492695007,
        "distance_wrist_3_joint": 0.5175268374367848,
        "smoothness": 0.14722244558849196,
        "time": 0.100977045,
        "traj_len": 3.6010982672191125,
        "weighted_distance": 4.3866860501020994
    },
    "planner": "KPIECE",
    "start": {
        "state": {
            "elbow_joint": -1.9196185241190666,
            "shoulder_lift_joint": -1.2443396400964142,
            "shoulder_pan_joint": 2.6996025414629847,
            "wrist_1_joint": -1.5485510000780065,
            "wrist_2_joint": -1.5709468930060704,
            "wrist_3_joint": 0.4420197071253992
        }
    },
    "waypoints": [
        {
            "positions": [
                2.6996025414629847,
                -1.2443396400964142,
                -1.9196185241190666,
                -1.5485510000780065,
                -1.5709468930060704,
                0.4420197071253992
            ]
        },
        {
            "positions": [
                2.6029347097456426,
                -1.239195862605383,
                -1.8106740704973037,
                -1.4445176268764357,
                -1.5094032408089915,
                0.425124559787881
            ]
        },
        {
            "positions": [
                2.5062668780283004,
                -1.234052085114352,
                -1.7017296168755407,
                -1.340484253674865,
                -1.4478595886119128,
                0.40822941245036276
            ]
        },
        {
            "positions": [
                2.4095990463109587,
                -1.2289083076233207,
                -1.592785163253778,
                -1.2364508804732939,
                -1.3863159364148339,
                0.3913342651128445
            ]
        },
        {
            "positions": [
                2.3129312145936165,
                -1.2237645301322895,
                -1.483840709632015,
                -1.132417507271723,
                -1.324772284217755,
                0.37443911777532635
            ]
        },
        {
            "positions": [
                2.2162633828762743,
                -1.2186207526412585,
                -1.3748962560102522,
                -1.0283841340701523,
                -1.263228632020676,
                0.35754397043780817
            ]
        },
        {
            "positions": [
                2.119595551158932,
                -1.2134769751502272,
                -1.2659518023884893,
                -0.9243507608685815,
                -1.2016849798235973,
                0.34064882310028993
            ]
        },
        {
            "positions": [
                2.02292771944159,
                -1.208333197659196,
                -1.1570073487667263,
                -0.8203173876670107,
                -1.1401413276265184,
                0.3237536757627717
            ]
        },
        {
            "positions": [
                1.926259887724248,
                -1.2031894201681648,
                -1.0480628951449633,
                -0.7162840144654398,
                -1.0785976754294395,
                0.3068585284252535
            ]
        },
        {
            "positions": [
                1.829592056006906,
                -1.1980456426771338,
                -0.9391184415232006,
                -0.612250641263869,
                -1.0170540232323608,
                0.28996338108773534
            ]
        },
        {
            "positions": [
                1.732924224289564,
                -1.1929018651861025,
                -0.8301739879014376,
                -0.508217268062298,
                -0.9555103710352819,
                0.2730682337502171
            ]
        },
        {
            "positions": [
                1.6362563925722218,
                -1.1877580876950713,
                -0.7212295342796746,
                -0.40418389486072726,
                -0.8939667188382031,
                0.25617308641269887
            ]
        },
        {
            "positions": [
                1.5395885608548796,
                -1.1826143102040403,
                -0.6122850806579117,
                -0.30015052165915646,
                -0.8324230666411242,
                0.2392779390751807
            ]
        },
        {
            "positions": [
                1.4429207291375377,
                -1.177470532713009,
                -0.5033406270361489,
                -0.19611714845758565,
                -0.7708794144440454,
                0.22238279173766248
            ]
        },
        {
            "positions": [
                1.3462528974201957,
                -1.1723267552219778,
                -0.39439617341438615,
                -0.09208377525601485,
                -0.7093357622469666,
                0.20548764440014428
            ]
        },
        {
            "positions": [
                1.2495850657028535,
                -1.1671829777309468,
                -0.2854517197926232,
                0.011949597945555945,
                -0.6477921100498878,
                0.1885924970626261
            ]
        },
        {
            "positions": [
                1.1529172339855114,
                -1.1620392002399156,
                -0.17650726617086,
                0.11598297114712697,
                -0.5862484578528088,
                0.17169734972510786
            ]
        },
        {
            "positions": [
                1.0562494022681692,
                -1.1568954227488844,
                -0.06756281254909724,
                0.22001634434869777,
                -0.52470480565573,
                0.15480220238758963
            ]
        },
        {
            "positions": [
                0.9595815705508273,
                -1.1517516452578533,
                0.04138164107266551,
                0.32404971755026857,
                -0.4631611534586513,
                0.13790705505007145
            ]
        },
        {
            "positions": [
                0.8629137388334853,
                -1.146607867766822,
                0.15032609469442848,
                0.42808309075183915,
                -0.40161750126157236,
                0.12101190771255327
            ]
        },
        {
            "positions": [
                0.7662459071161429,
                -1.1414640902757909,
                0.25927054831619145,
                0.5321164639534104,
                -0.34007384906449345,
                0.10411676037503503
            ]
        },
        {
            "positions": [
                0.669578075398801,
                -1.1363203127847596,
                0.3682150019379544,
                0.6361498371549812,
                -0.27853019686741454,
                0.0872216130375168
            ]
        },
        {
            "positions": [
                0.5729102436814588,
                -1.1311765352937286,
                0.4771594555597174,
                0.740183210356552,
                -0.21698654467033585,
                0.07032646569999862
            ]
        },
        {
            "positions": [
                0.4762424119641171,
                -1.1260327578026974,
                0.5861039091814799,
                0.8442165835581228,
                -0.15544289247325693,
                0.05343131836248044
            ]
        },
        {
            "positions": [
                0.3795745802467745,
                -1.1208889803116662,
                0.6950483628032433,
                0.9482499567596936,
                -0.09389924027617802,
                0.036536171024962205
            ]
        },
        {
            "positions": [
                0.28290674852943276,
                -1.1157452028206352,
                0.8039928164250059,
                1.0522833299612644,
                -0.03235558807909933,
                0.01964102368744397
            ]
        },
        {
            "positions": [
                0.1862389168120907,
                -1.110601425329604,
                0.9129372700467687,
                1.1563167031628354,
                0.02918806411797959,
                0.002745876349925791
            ]
        },
        {
            "positions": [
                0.14851094883681465,
                -1.0661144205402475,
                1.0495083584597316,
                1.2527078557796882,
                0.014181487403081568,
                -0.006155569246899343
            ]
        },
        {
            "positions": [
                0.11078298086153861,
                -1.0216274157508909,
                1.1860794468726945,
                1.349099008396541,
                -0.0008250893118164557,
                -0.015057014843724476
            ]
        },
        {
            "positions": [
                0.07305501288626258,
                -0.9771404109615345,
                1.3226505352856575,
                1.4454901610133941,
                -0.01583166602671448,
                -0.023958460440549608
            ]
        },
        {
            "positions": [
                0.03532704491098651,
                -0.932653406172178,
                1.4592216236986204,
                1.541881313630247,
                -0.030838242741612502,
                -0.03285990603737474
            ]
        },
        {
            "positions": [
                -0.0024009230642895313,
                -0.8881664013828214,
                1.5957927121115834,
                1.6382724662470998,
                -0.04584481945651052,
                -0.041761351634199875
            ]
        },
        {
            "positions": [
                0.029416918990421093,
                -0.8561854440480227,
                1.7083641577862163,
                1.7194569122057652,
                -0.07056096750603391,
                -0.035706212489759616
            ]
        },
        {
            "positions": [
                0.061234761045131716,
                -0.824204486713224,
                1.8209356034608495,
                1.8006413581644305,
                -0.09527711555555729,
                -0.029651073345319363
            ]
        },
        {
            "positions": [
                0.09305260309984234,
                -0.7922235293784252,
                1.9335070491354824,
                1.881825804123096,
                -0.11999326360508068,
                -0.023595934200879104
            ]
        },
        {
            "positions": [
                0.12377166775582857,
                -0.7778296833662196,
                1.9960252594167716,
                1.9255116043452705,
                -0.136666471452977,
                -0.008015572957014138
            ]
        }
    ]
}