{
    "goal": {
        "global_pose": {
            "orientation": {
                "w": 0.005598929693374612,
                "x": 0.007748599140229565,
                "y": 0.7110244013736278,
                "z": -0.7031023480610252
            },
            "position": {
                "x": -0.8858502320852131,
                "y": -0.7141253447532654,
                "z": 0.3711530566215515
            }
        },
        "name": "move_to_auspresseinheit_C"
    },
    "id": "KPIECE_move_to_auspresseinheit_C_32",
    "joint_names": [
        "shoulder_pan_joint",
        "shoulder_lift_joint",
        "elbow_joint",
        "wrist_1_joint",
        "wrist_2_joint",
        "wrist_3_joint"
    ],
    "metrics": {
        "cart_traj_len": 0.4927405900412504,
        "distance_elbow_joint": 1.003220170613237,
        "distance_shoulder_lift_joint": 0.3261492780505152,
        "distance_shoulder_pan_joint": 0.2558424802075594,
        "distance_wrist_1_joint": 0.6897436118422468,
        "distance_wrist_2_joint": 1.3139852506098393,
        "distance_wrist_3_joint": 0.06895232401030427,
        "smoothness": 3.2297397080004555e-16,
        "time": 0.013972150999999999,
        "traj_len": 1.912561924574915,
        "weighted_distance": 2.408220634785442
    },
    "planner": "KPIECE",
    "start": {
        "state": {
            "elbow_joint": 1.7527959577737207,
            "shoulder_lift_joint": -0.9740617694225068,
            "shoulder_pan_joint": -2.967991417825858,
            "wrist_1_joint": -0.759517768980727,
            "wrist_2_joint": 1.7443932448377408,
            "wrist_3_joint": -3.0840537646736568
        }
    },
    "waypoints": [
        {
            "positions": [
                -2.967991417825858,
                -0.9740617694225068,
                1.7527959577737207,
                -0.759517768980727,
                1.7443932448377408,
                -3.0840537646736568
            ]
        },
        {
            "positions": [
                -2.942407169805102,
                -0.9414468416174553,
                1.652473940712397,
                -0.6905434077965023,
                1.612994719776757,
                -3.0909489970746873
            ]
        },
        {
            "positions": [
                -2.916822921784346,
                -0.9088319138124037,
                1.5521519236510732,
                -0.6215690466122776,
                1.481596194715773,
                -3.097844229475718
            ]
        },
        {
            "positions": [
                -2.8912386737635902,
                -0.8762169860073522,
                1.4518299065897495,
                -0.552594685428053,
                1.350197669654789,
                -3.104739461876748
            ]
        },
        {
            "positions": [
                -2.865654425742834,
                -0.8436020582023007,
                1.3515078895284258,
                -0.4836203242438283,
                1.2187991445938051,
                -3.1116346942777784
            ]
        },
        {
            "positions": [
                -2.8400701777220783,
                -0.8109871303972491,
                1.2511858724671021,
                -0.4146459630596036,
                1.0874006195328212,
                -3.118529926678809
            ]
        },
        {
            "positions": [
                -2.8144859297013225,
                -0.7783722025921976,
                1.1508638554057784,
                -0.34567160187537893,
                0.9560020944718373,
                -3.1254251590798394
            ]
        },
        {
            "positions": [
                -2.7889016816805663,
                -0.7457572747871462,
                1.0505418383444547,
                -0.2766972406911543,
                0.8246035694108534,
                -3.13232039148087
            ]
        },
        {
            "positions": [
                -2.7633174336598105,
                -0.7131423469820946,
                0.950219821283131,
                -0.20772287950692958,
                0.6932050443498694,
                -3.1392156238819
            ]
        },
        {
            "positions": [
                -2.7377331856390543,
                -0.6805274191770431,
                0.8498978042218073,
                -0.13874851832270485,
                0.5618065192888855,
                -3.1461108562829305
            ]
        },
        {
            "positions": [
                -2.7121489376182986,
                -0.6479124913719916,
                0.7495757871604835,
                -0.06977415713848024,
                0.43040799422790155,
                -3.153006088683961
            ]
        }
    ]
}