{
    "goal": {
        "global_pose": {
            "orientation": {
                "w": 0.7047431493862688,
                "x": -0.7094548369677653,
                "y": 0.0024358444001904,
                "z": -0.0022348060817251984
            },
            "position": {
                "x": -0.39052492380142206,
                "y": 0.3671506643295288,
                "z": 0.19426114857196808
            }
        },
        "name": "move_to_magneteinheit_D"
    },
    "id": "KPIECE_move_to_magneteinheit_D_116",
    "joint_names": [
        "shoulder_pan_joint",
        "shoulder_lift_joint",
        "elbow_joint",
        "wrist_1_joint",
        "wrist_2_joint",
        "wrist_3_joint"
    ],
    "metrics": {
        "cart_traj_len": 4.706971243405086,
        "distance_elbow_joint": 3.5809129808984124,
        "distance_shoulder_lift_joint": 1.6464925411694369,
        "distance_shoulder_pan_joint": 3.2506866692888576,
        "distance_wrist_1_joint": 2.7782990790241047,
        "distance_wrist_2_joint": 1.9027207904277827,
        "distance_wrist_3_joint": 2.2063294855191984,
        "smoothness": 0.5111547513066443,
        "time": 0.314691586,
        "traj_len": 3.919877746349724,
        "weighted_distance": 4.945616279779302
    },
    "planner": "KPIECE",
    "start": {
        "state": {
            "elbow_joint": 0.749534889911806,
            "shoulder_lift_joint": -0.6476975780787326,
            "shoulder_pan_joint": -2.711696901376241,
            "wrist_1_joint": -0.07506478083263063,
            "wrist_2_joint": 0.43296659715538205,
            "wrist_3_joint": -3.14703540197715
        }
    },
    "waypoints": [
        {
            "positions": [
                -2.711696901376241,
                -0.6476975780787326,
                0.749534889911806,
                -0.07506478083263063,
                0.43296659715538205,
                -3.14703540197715
            ]
        },
        {
            "positions": [
                -2.7156185657324636,
                -0.6830553858823714,
                0.6824706426075541,
                -0.13495831329755542,
                0.40978025719489564,
                -3.100180391954876
            ]
        },
        {
            "positions": [
                -2.719540230088686,
                -0.7184131936860101,
                0.6154063953033022,
                -0.19485184576248024,
                0.38659391723440917,
                -3.053325381932602
            ]
        },
        {
            "positions": [
                -2.7213339756342596,
                -0.7414996265701871,
                0.5714735387067922,
                -0.2336756801265823,
                0.3717921267498616,
                -3.022109233678092
            ]
        },
        {
            "positions": [
                -2.6234801974498416,
                -0.7729773088943027,
                0.47343272157092775,
                -0.27426253515698484,
                0.38378336653299877,
                -2.936706496971815
            ]
        },
        {
            "positions": [
                -2.5256264192654236,
                -0.8044549912184183,
                0.3753919044350633,
                -0.31484939018738733,
                0.39577460631613587,
                -2.8513037602655382
            ]
        },
        {
            "positions": [
                -2.4277726410810057,
                -0.835932673542534,
                0.2773510872991989,
                -0.3554362452177899,
                0.407765846099273,
                -2.765901023559261
            ]
        },
        {
            "positions": [
                -2.3299188628965872,
                -0.8674103558666496,
                0.17931027016333445,
                -0.39602310024819243,
                0.4197570858824102,
                -2.6804982868529845
            ]
        },
        {
            "positions": [
                -2.2320650847121692,
                -0.8988880381907653,
                0.08126945302747002,
                -0.436609955278595,
                0.4317483256655473,
                -2.5950955501467075
            ]
        },
        {
            "positions": [
                -2.1342113065277513,
                -0.930365720514881,
                -0.016771364108394415,
                -0.4771968103089975,
                0.4437395654486844,
                -2.509692813440431
            ]
        },
        {
            "positions": [
                -2.0363575283433333,
                -0.9618434028389966,
                -0.11481218124425885,
                -0.5177836653394001,
                0.4557308052318216,
                -2.4242900767341538
            ]
        },
        {
            "positions": [
                -1.9385037501589153,
                -0.9933210851631122,
                -0.21285299838012328,
                -0.5583705203698026,
                0.4677220450149587,
                -2.3388873400278767
            ]
        },
        {
            "positions": [
                -1.8406499719744973,
                -1.0247987674872279,
                -0.3108938155159877,
                -0.5989573754002051,
                0.47971328479809583,
                -2.2534846033216
            ]
        },
        {
            "positions": [
                -1.7427961937900793,
                -1.0562764498113435,
                -0.40893463265185215,
                -0.6395442304306076,
                0.491704524581233,
                -2.168081866615323
            ]
        },
        {
            "positions": [
                -1.6449424156056611,
                -1.0877541321354591,
                -0.5069754497877166,
                -0.6801310854610101,
                0.50369576436437,
                -2.0826791299090464
            ]
        },
        {
            "positions": [
                -1.5470886374212431,
                -1.1192318144595748,
                -0.605016266923581,
                -0.7207179404914127,
                0.5156870041475072,
                -1.9972763932027693
            ]
        },
        {
            "positions": [
                -1.4174740254382532,
                -1.1486060384936443,
                -0.6940199498079533,
                -0.8079206938059624,
                0.46465151853429865,
                -2.0005704657539254
            ]
        },
        {
            "positions": [
                -1.287859413455263,
                -1.1779802625277138,
                -0.7830236326923258,
                -0.8951234471205121,
                0.41361603292109006,
                -2.0038645383050815
            ]
        },
        {
            "positions": [
                -1.158244801472273,
                -1.2073544865617833,
                -0.8720273155766981,
                -0.9823262004350617,
                0.3625805473078815,
                -2.0071586108562376
            ]
        },
        {
            "positions": [
                -1.028630189489283,
                -1.2367287105958529,
                -0.9610309984610705,
                -1.0695289537496113,
                0.3115450616946729,
                -2.0104526834073937
            ]
        },
        {
            "positions": [
                -0.8990155775062929,
                -1.2661029346299224,
                -1.0500346813454429,
                -1.1567317070641612,
                0.26050957608146436,
                -2.01374675595855
            ]
        },
        {
            "positions": [
                -0.7694009655233028,
                -1.295477158663992,
                -1.1390383642298152,
                -1.2439344603787108,
                0.20947409046825577,
                -2.017040828509706
            ]
        },
        {
            "positions": [
                -0.6397863535403129,
                -1.3248513826980615,
                -1.2280420471141875,
                -1.3311372136932604,
                0.15843860485504724,
                -2.020334901060862
            ]
        },
        {
            "positions": [
                -0.5101717415573228,
                -1.354225606732131,
                -1.31704572999856,
                -1.4183399670078103,
                0.1074031192418386,
                -2.023628973612018
            ]
        },
        {
            "positions": [
                -0.38055712957433263,
                -1.3835998307662005,
                -1.4060494128829324,
                -1.50554272032236,
                0.056367633628630065,
                -2.026923046163174
            ]
        },
        {
            "positions": [
                -0.2509425175913426,
                -1.41297405480027,
                -1.4950530957673047,
                -1.5927454736369095,
                0.005332148015421506,
                -2.0302171187143303
            ]
        },
        {
            "positions": [
                -0.177834397452802,
                -1.4263873229479402,
                -1.6196475070445435,
                -1.589092958786944,
                0.07473359737871309,
                -2.08512781519143
            ]
        },
        {
            "positions": [
                -0.1047262773142614,
                -1.4398005910956104,
                -1.7442419183217823,
                -1.5854404439369787,
                0.14413504674200467,
                -2.1400385116685294
            ]
        },
        {
            "positions": [
                -0.031618157175720835,
                -1.4532138592432804,
                -1.8688363295990214,
                -1.5817879290870132,
                0.21353649610529624,
                -2.194949208145629
            ]
        },
        {
            "positions": [
                0.041489962962819815,
                -1.4666271273909506,
                -1.9934307408762602,
                -1.5781354142370478,
                0.28293794546858786,
                -2.2498599046227286
            ]
        },
        {
            "positions": [
                0.11459808310136037,
                -1.4800403955386208,
                -2.118025152153499,
                -1.5744828993870823,
                0.3523393948318794,
                -2.304770601099828
            ]
        },
        {
            "positions": [
                0.12339355063048758,
                -1.5707882271049936,
                -2.1962560563787834,
                -1.7357070770682643,
                0.3782211644449971,
                -2.32913048909831
            ]
        },
        {
            "positions": [
                0.1321890181596148,
                -1.6615360586713661,
                -2.2744869606040674,
                -1.8969312547494463,
                0.4041029340581147,
                -2.353490377096792
            ]
        },
        {
            "positions": [
                0.14098448568874203,
                -1.752283890237739,
                -2.352717864829352,
                -2.0581554324306284,
                0.4299847036712323,
                -2.3778502650952738
            ]
        },
        {
            "positions": [
                0.14977995321786924,
                -1.8430317218041115,
                -2.4309487690546363,
                -2.219379610111811,
                0.45586647328435,
                -2.4022101530937556
            ]
        },
        {
            "positions": [
                0.15857542074699646,
                -1.9337795533704845,
                -2.5091796732799203,
                -2.380603787792993,
                0.48174824289746765,
                -2.4265700410922375
            ]
        },
        {
            "positions": [
                0.16737088827612367,
                -2.024527384936857,
                -2.5874105775052048,
                -2.541827965474175,
                0.5076300125105853,
                -2.4509299290907194
            ]
        },
        {
            "positions": [
                0.11703592668748719,
                -1.986004137178098,
                -2.5525580755792903,
                -2.502540716062331,
                0.4097730522252472,
                -2.5370609206417005
            ]
        },
        {
            "positions": [
                0.0667009650988507,
                -1.9474808894193392,
                -2.5177055736533758,
                -2.4632534666504875,
                0.31191609193990905,
                -2.6231919121926817
            ]
        },
        {
            "positions": [
                0.016366003510214222,
                -1.9089576416605802,
                -2.4828530717274613,
                -2.4239662172386436,
                0.21405913165457097,
                -2.7093229037436624
            ]
        },
        {
            "positions": [
                -0.03396895807842226,
                -1.8704343939018213,
                -2.448000569801547,
                -2.3846789678268,
                0.11620217136923283,
                -2.7954538952946435
            ]
        },
        {
            "positions": [
                -0.08430391966705875,
                -1.8319111461430624,
                -2.4131480678756323,
                -2.345391718414956,
                0.018345211083894697,
                -2.8815848868456246
            ]
        },
        {
            "positions": [
                -0.13463888125569523,
                -1.7933878983843035,
                -2.378295565949718,
                -2.3061044690031127,
                -0.07951174920144333,
                -2.9677158783966058
            ]
        },
        {
            "positions": [
                -0.18497384284433172,
                -1.7548646506255445,
                -2.3434430640238033,
                -2.266817219591269,
                -0.1773687094867815,
                -3.053846869947587
            ]
        }
    ]
}