{
    "goal": {
        "global_pose": {
            "orientation": {
                "w": -0.4816463035849501,
                "x": 0.5182115481033762,
                "y": 0.4908360881923453,
                "z": -0.5084816262002911
            },
            "position": {
                "x": -0.8240239810943604,
                "y": 0.19912469901144506,
                "z": 0.16403168439865112
            }
        },
        "name": "move_to_storage_D"
    },
    "id": "KPIECE_move_to_storage_D_107",
    "joint_names": [
        "shoulder_pan_joint",
        "shoulder_lift_joint",
        "elbow_joint",
        "wrist_1_joint",
        "wrist_2_joint",
        "wrist_3_joint"
    ],
    "metrics": {
        "cart_traj_len": 3.5043696827646498,
        "distance_elbow_joint": 4.209054317346512,
        "distance_shoulder_lift_joint": 1.2636854464460117,
        "distance_shoulder_pan_joint": 2.8127303839051194,
        "distance_wrist_1_joint": 3.3745761607652778,
        "distance_wrist_2_joint": 3.0655453720064187,
        "distance_wrist_3_joint": 3.144405877047869,
        "smoothness": 0.18822372947661004,
        "time": 0.06783120100000001,
        "traj_len": 4.227291988675162,
        "weighted_distance": 5.531630035024453
    },
    "planner": "KPIECE",
    "start": {
        "state": {
            "elbow_joint": -2.384821988534728,
            "shoulder_lift_joint": -2.2788054721415256,
            "shoulder_pan_joint": -0.1854694642142757,
            "wrist_1_joint": 1.4845938289331202,
            "wrist_2_joint": 0.17898776772866878,
            "wrist_3_joint": 0.037105688729662994
        }
    },
    "waypoints": [
        {
            "positions": [
                -0.1854694642142757,
                -2.2788054721415256,
                -2.384821988534728,
                1.4845938289331202,
                0.17898776772866878,
                0.037105688729662994
            ]
        },
        {
            "positions": [
                -0.09478301948890866,
                -2.2365949350817504,
                -2.356379873960518,
                1.5274235428032716,
                0.09495011415344241,
                -0.06418538007679622
            ]
        },
        {
            "positions": [
                -0.0040965747635416105,
                -2.194384398021975,
                -2.3279377593863084,
                1.570253256673423,
                0.010912460578216043,
                -0.16547644888325544
            ]
        },
        {
            "positions": [
                0.08658986996182541,
                -2.1521738609621996,
                -2.2994956448120987,
                1.6130829705435747,
                -0.07312519299701034,
                -0.26676751768971463
            ]
        },
        {
            "positions": [
                0.1772763146871925,
                -2.109963323902424,
                -2.2710535302378894,
                1.6559126844137262,
                -0.1571628465722367,
                -0.36805858649617385
            ]
        },
        {
            "positions": [
                0.26796275941255954,
                -2.067752786842649,
                -2.2426114156636796,
                1.6987423982838776,
                -0.2412005001474631,
                -0.46934965530263306
            ]
        },
        {
            "positions": [
                0.35864920413792656,
                -2.0255422497828732,
                -2.21416930108947,
                1.7415721121540293,
                -0.3252381537226895,
                -0.5706407241090923
            ]
        },
        {
            "positions": [
                0.4493356488632936,
                -1.983331712723098,
                -2.18572718651526,
                1.7844018260241805,
                -0.4092758072979158,
                -0.6719317929155515
            ]
        },
        {
            "positions": [
                0.5400220935886607,
                -1.9411211756633224,
                -2.1572850719410503,
                1.8272315398943322,
                -0.4933134608731422,
                -0.7732228617220107
            ]
        },
        {
            "positions": [
                0.6307085383140276,
                -1.8989106386035473,
                -2.1288429573668406,
                1.8700612537644836,
                -0.5773511144483685,
                -0.8745139305284699
            ]
        },
        {
            "positions": [
                0.7213949830393948,
                -1.8567001015437719,
                -2.100400842792631,
                1.912890967634635,
                -0.661388768023595,
                -0.9758049993349291
            ]
        },
        {
            "positions": [
                0.8120814277647618,
                -1.8144895644839965,
                -2.0719587282184215,
                1.9557206815047867,
                -0.7454264215988213,
                -1.0770960681413884
            ]
        },
        {
            "positions": [
                0.9027678724901288,
                -1.772279027424221,
                -2.0435166136442118,
                1.9985503953749382,
                -0.8294640751740477,
                -1.1783871369478476
            ]
        },
        {
            "positions": [
                0.9934543172154958,
                -1.7300684903644457,
                -2.015074499070002,
                2.0413801092450896,
                -0.913501728749274,
                -1.2796782057543068
            ]
        },
        {
            "positions": [
                1.0429636081995972,
                -1.708403385374478,
                -1.898731867922069,
                1.955992537110141,
                -0.8537121567635627,
                -1.3350606900744248
            ]
        },
        {
            "positions": [
                1.0924728991836987,
                -1.6867382803845103,
                -1.7823892367741363,
                1.8706049649751921,
                -0.7939225847778513,
                -1.3904431743945431
            ]
        },
        {
            "positions": [
                1.1419821901678002,
                -1.6650731753945427,
                -1.6660466056262033,
                1.7852173928402435,
                -0.7341330127921399,
                -1.4458256587146612
            ]
        },
        {
            "positions": [
                1.1914914811519015,
                -1.643408070404575,
                -1.5497039744782704,
                1.6998298207052946,
                -0.6743434408064286,
                -1.5012081430347795
            ]
        },
        {
            "positions": [
                1.241000772136003,
                -1.6217429654146076,
                -1.4333613433303376,
                1.614442248570346,
                -0.6145538688207173,
                -1.5565906273548975
            ]
        },
        {
            "positions": [
                1.2905100631201045,
                -1.60007786042464,
                -1.3170187121824046,
                1.5290546764353974,
                -0.5547642968350058,
                -1.6119731116750158
            ]
        },
        {
            "positions": [
                1.340019354104206,
                -1.5784127554346723,
                -1.2006760810344717,
                1.4436671043004485,
                -0.4949747248492945,
                -1.6673555959951338
            ]
        },
        {
            "positions": [
                1.3895286450883073,
                -1.5567476504447046,
                -1.0843334498865387,
                1.3582795321654997,
                -0.4351851528635831,
                -1.722738080315252
            ]
        },
        {
            "positions": [
                1.4390379360724088,
                -1.535082545454737,
                -0.9679908187386059,
                1.272891960030551,
                -0.37539558087787184,
                -1.7781205646353702
            ]
        },
        {
            "positions": [
                1.4885472270565103,
                -1.5134174404647693,
                -0.851648187590673,
                1.1875043878956024,
                -0.3156060088921604,
                -1.8335030489554884
            ]
        },
        {
            "positions": [
                1.5380565180406118,
                -1.4917523354748017,
                -0.7353055564427402,
                1.1021168157606538,
                -0.25581643690644906,
                -1.8888855332756065
            ]
        },
        {
            "positions": [
                1.5875658090247131,
                -1.4700872304848343,
                -0.618962925294807,
                1.016729243625705,
                -0.19602686492073762,
                -1.9442680175957245
            ]
        },
        {
            "positions": [
                1.6370751000088146,
                -1.4484221254948666,
                -0.5026202941468743,
                0.9313416714907563,
                -0.1362372929350263,
                -1.9996505019158428
            ]
        },
        {
            "positions": [
                1.6865843909929161,
                -1.426757020504899,
                -0.3862776629989413,
                0.8459540993558075,
                -0.07644772094931496,
                -2.055032986235961
            ]
        },
        {
            "positions": [
                1.7360936819770174,
                -1.4050919155149313,
                -0.26993503185100853,
                0.7605665272208588,
                -0.016658148963603625,
                -2.110415470556079
            ]
        },
        {
            "positions": [
                1.785602972961119,
                -1.3834268105249636,
                -0.15359240070307556,
                0.67517895508591,
                0.04313142302210782,
                -2.165797954876197
            ]
        },
        {
            "positions": [
                1.8351122639452204,
                -1.361761705534996,
                -0.03724976955514259,
                0.5897913829509613,
                0.10292099500781904,
                -2.2211804391963152
            ]
        },
        {
            "positions": [
                1.8846215549293217,
                -1.3400966005450283,
                0.07909286159279016,
                0.5044038108160127,
                0.16271056699353037,
                -2.2765629235164333
            ]
        },
        {
            "positions": [
                1.9341308459134234,
                -1.3184314955550607,
                0.19543549274072314,
                0.41901623868106364,
                0.22250013897924192,
                -2.331945407836552
            ]
        },
        {
            "positions": [
                1.9836401368975247,
                -1.296766390565093,
                0.3117781238886561,
                0.333628666546115,
                0.28228971096495326,
                -2.38732789215667
            ]
        },
        {
            "positions": [
                2.033149427881626,
                -1.2751012855751256,
                0.4281207550365891,
                0.24824109441116637,
                0.3420792829506646,
                -2.442710376476788
            ]
        },
        {
            "positions": [
                2.0826587188657277,
                -1.253436180585158,
                0.5444633861845216,
                0.16285352227621774,
                0.4018688549363759,
                -2.4980928607969064
            ]
        },
        {
            "positions": [
                2.132168009849829,
                -1.2317710755951903,
                0.660806017332455,
                0.07746595014126889,
                0.4616584269220875,
                -2.5534753451170245
            ]
        },
        {
            "positions": [
                2.1816773008339307,
                -1.2101059706052226,
                0.777148648480388,
                -0.00792162199367974,
                0.5214479989077988,
                -2.6088578294371425
            ]
        },
        {
            "positions": [
                2.231186591818032,
                -1.188440865615255,
                0.8934912796283205,
                -0.09330919412862837,
                0.5812375708935101,
                -2.6642403137572606
            ]
        },
        {
            "positions": [
                2.2806958828021333,
                -1.1667757606252875,
                1.0098339107762535,
                -0.178696766263577,
                0.6410271428792215,
                -2.7196227980773786
            ]
        },
        {
            "positions": [
                2.330205173786235,
                -1.1451106556353197,
                1.1261765419241865,
                -0.2640843383985261,
                0.700816714864933,
                -2.775005282397497
            ]
        },
        {
            "positions": [
                2.3797144647703363,
                -1.1234455506453522,
                1.2425191730721195,
                -0.3494719105334747,
                0.7606062868506441,
                -2.830387766717615
            ]
        },
        {
            "positions": [
                2.4292237557544376,
                -1.1017804456553844,
                1.3588618042200524,
                -0.43485948266842334,
                0.8203958588363555,
                -2.885770251037733
            ]
        },
        {
            "positions": [
                2.4787330467385393,
                -1.080115340665417,
                1.475204435367985,
                -0.520247054803372,
                0.8801854308220668,
                -2.9411527353578513
            ]
        },
        {
            "positions": [
                2.5282423377226406,
                -1.058450235675449,
                1.5915470665159184,
                -0.605634626938321,
                0.9399750028077783,
                -2.9965352196779698
            ]
        },
        {
            "positions": [
                2.577751628706742,
                -1.0367851306854816,
                1.707889697663851,
                -0.6910221990732697,
                0.9997645747934897,
                -3.051917703998088
            ]
        },
        {
            "positions": [
                2.6272609196908436,
                -1.015120025695514,
                1.824232328811784,
                -0.7764097712082184,
                1.0595541467792011,
                -3.107300188318206
            ]
        }
    ]
}