{
    "goal": {
        "global_pose": {
            "orientation": {
                "w": 0.7031023480610252,
                "x": -0.7110244013736278,
                "y": 0.0077485991402295624,
                "z": 0.005598929693374583
            },
            "position": {
                "x": -0.8841497679147869,
                "y": 0.44412534475326537,
                "z": 0.3711530566215515
            }
        },
        "name": "move_to_auspresseinheit_D"
    },
    "id": "KPIECE_move_to_auspresseinheit_D_3",
    "joint_names": [
        "shoulder_pan_joint",
        "shoulder_lift_joint",
        "elbow_joint",
        "wrist_1_joint",
        "wrist_2_joint",
        "wrist_3_joint"
    ],
    "metrics": {
        "cart_traj_len": 0.3430863456792866,
        "distance_elbow_joint": 0.6362036216774858,
        "distance_shoulder_lift_joint": 0.12018472652717493,
        "distance_shoulder_pan_joint": 0.13375864622221845,
        "distance_wrist_1_joint": 0.5187978970823646,
        "distance_wrist_2_joint": 1.4370127476610506,
        "distance_wrist_3_joint": 0.019100614077806277,
        "smoothness": 0.0,
        "time": 0.373616664,
        "traj_len": 1.692648295792159,
        "weighted_distance": 2.2043298587432707
    },
    "planner": "KPIECE",
    "start": {
        "state": {
            "elbow_joint": -1.8275523626775212,
            "shoulder_lift_joint": -2.126789852344167,
            "shoulder_pan_joint": -0.03513704404078235,
            "wrist_1_joint": -2.347782403156801,
            "wrist_2_joint": -1.6058999987535132,
            "wrist_3_joint": -3.0880379163319196
        }
    },
    "waypoints": [
        {
            "positions": [
                -0.03513704404078235,
                -2.126789852344167,
                -1.8275523626775212,
                -2.347782403156801,
                -1.6058999987535132,
                -3.0880379163319196
            ]
        },
        {
            "positions": [
                -0.051856874818559655,
                -2.1418129431600637,
                -1.7480269099678354,
                -2.4126321402920965,
                -1.4262734052958819,
                -3.0904254930916455
            ]
        },
        {
            "positions": [
                -0.06857670559633697,
                -2.1568360339759605,
                -1.6685014572581498,
                -2.477481877427392,
                -1.2466468118382505,
                -3.0928130698513714
            ]
        },
        {
            "positions": [
                -0.08529653637411427,
                -2.1718591247918573,
                -1.588976004548464,
                -2.5423316145626877,
                -1.0670202183806192,
                -3.095200646611097
            ]
        },
        {
            "positions": [
                -0.10201636715189158,
                -2.1868822156077545,
                -1.5094505518387784,
                -2.6071813516979834,
                -0.8873936249229879,
                -3.0975882233708227
            ]
        },
        {
            "positions": [
                -0.11873619792966889,
                -2.2019053064236513,
                -1.4299250991290926,
                -2.6720310888332786,
                -0.7077670314653566,
                -3.0999758001305486
            ]
        },
        {
            "positions": [
                -0.1354560287074462,
                -2.216928397239548,
                -1.3503996464194068,
                -2.736880825968574,
                -0.5281404380077253,
                -3.102363376890274
            ]
        },
        {
            "positions": [
                -0.1521758594852235,
                -2.231951488055445,
                -1.2708741937097212,
                -2.80173056310387,
                -0.34851384455009393,
                -3.10475095365
            ]
        },
        {
            "positions": [
                -0.1688956902630008,
                -2.2469745788713418,
                -1.1913487410000354,
                -2.8665803002391654,
                -0.16888725109246272,
                -3.107138530409726
            ]
        }
    ]
}