{
    "goal": {
        "global_pose": {
            "orientation": {
                "w": 0.7047431468963623,
                "x": -0.7094548344612122,
                "y": 0.0024358443915843964,
                "z": -0.0022348060738295317
            },
            "position": {
                "x": 0.6094750761985779,
                "y": 0.3671506643295288,
                "z": 0.19426114857196808
            }
        },
        "name": "move_to_magneteinheit_A"
    },
    "id": "KPIECE_move_to_magneteinheit_A_96",
    "joint_names": [
        "shoulder_pan_joint",
        "shoulder_lift_joint",
        "elbow_joint",
        "wrist_1_joint",
        "wrist_2_joint",
        "wrist_3_joint"
    ],
    "metrics": {
        "cart_traj_len": 3.4790533472446903,
        "distance_elbow_joint": 3.9309595214926265,
        "distance_shoulder_lift_joint": 0.9581471328541593,
        "distance_shoulder_pan_joint": 3.6307470749445643,
        "distance_wrist_1_joint": 3.5347282379358846,
        "distance_wrist_2_joint": 1.4383061584173487,
        "distance_wrist_3_joint": 2.9447442939984048,
        "smoothness": 0.19700833290123032,
        "time": 0.434054926,
        "traj_len": 4.0543350157137965,
        "weighted_distance": 5.224955062389822
    },
    "planner": "KPIECE",
    "start": {
        "state": {
            "elbow_joint": -1.9196185241190666,
            "shoulder_lift_joint": -1.2443396400964142,
            "shoulder_pan_joint": 2.6996025414629847,
            "wrist_1_joint": -1.5485510000780065,
            "wrist_2_joint": -1.5709468930060704,
            "wrist_3_joint": 0.4420197071253992
        }
    },
    "waypoints": [
        {
            "positions": [
                2.6996025414629847,
                -1.2443396400964142,
                -1.9196185241190666,
                -1.5485510000780065,
                -1.5709468930060704,
                0.4420197071253992
            ]
        },
        {
            "positions": [
                2.5915085335797454,
                -1.253955028571234,
                -1.7872980762495108,
                -1.501608172373336,
                -1.5420047958711058,
                0.3754510521141444
            ]
        },
        {
            "positions": [
                2.483414525696506,
                -1.2635704170460536,
                -1.654977628379955,
                -1.454665344668666,
                -1.5130626987361413,
                0.3088823971028897
            ]
        },
        {
            "positions": [
                2.375320517813267,
                -1.2731858055208733,
                -1.5226571805103992,
                -1.4077225169639958,
                -1.4841206016011768,
                0.242313742091635
            ]
        },
        {
            "positions": [
                2.2672265099300275,
                -1.2828011939956931,
                -1.3903367326408436,
                -1.3607796892593254,
                -1.4551785044662122,
                0.17574508708038028
            ]
        },
        {
            "positions": [
                2.159132502046788,
                -1.292416582470513,
                -1.2580162847712877,
                -1.313836861554655,
                -1.4262364073312477,
                0.10917643206912558
            ]
        },
        {
            "positions": [
                2.051038494163549,
                -1.3020319709453325,
                -1.1256958369017318,
                -1.2668940338499848,
                -1.3972943101962831,
                0.04260777705787083
            ]
        },
        {
            "positions": [
                1.9429444862803096,
                -1.3116473594201523,
                -0.9933753890321761,
                -1.2199512061453146,
                -1.3683522130613186,
                -0.023960877953383808
            ]
        },
        {
            "positions": [
                1.83485047839707,
                -1.3212627478949721,
                -0.8610549411626203,
                -1.1730083784406442,
                -1.339410115926354,
                -0.09052953296463861
            ]
        },
        {
            "positions": [
                1.726756470513831,
                -1.330878136369792,
                -0.7287344932930646,
                -1.1260655507359738,
                -1.3104680187913895,
                -0.15709818797589326
            ]
        },
        {
            "positions": [
                1.6186624626305914,
                -1.3404935248446115,
                -0.5964140454235087,
                -1.0791227230313036,
                -1.2815259216564248,
                -0.223666842987148
            ]
        },
        {
            "positions": [
                1.5105684547473521,
                -1.3501089133194313,
                -0.46409359755395285,
                -1.0321798953266335,
                -1.2525838245214604,
                -0.29023549799840276
            ]
        },
        {
            "positions": [
                1.4024744468641128,
                -1.359724301794251,
                -0.331773149684397,
                -0.9852370676219631,
                -1.2236417273864957,
                -0.3568041530096575
            ]
        },
        {
            "positions": [
                1.2943804389808735,
                -1.3693396902690709,
                -0.19945270181484132,
                -0.9382942399172928,
                -1.1946996302515314,
                -0.42337280802091215
            ]
        },
        {
            "positions": [
                1.1862864310976342,
                -1.3789550787438904,
                -0.06713225394528566,
                -0.8913514122126225,
                -1.1657575331165666,
                -0.4899414630321668
            ]
        },
        {
            "positions": [
                1.078192423214395,
                -1.3885704672187102,
                0.06518819392427,
                -0.8444085845079523,
                -1.1368154359816023,
                -0.5565101180434215
            ]
        },
        {
            "positions": [
                0.9700984153311554,
                -1.39818585569353,
                0.1975086417938261,
                -0.7974657568032819,
                -1.1078733388466375,
                -0.6230787730546764
            ]
        },
        {
            "positions": [
                0.8620044074479163,
                -1.4078012441683496,
                0.32982908966338176,
                -0.7505229290986116,
                -1.078931241711673,
                -0.6896474280659309
            ]
        },
        {
            "positions": [
                0.753910399564677,
                -1.4174166326431694,
                0.4621495375329374,
                -0.7035801013939413,
                -1.0499891445767084,
                -0.7562160830771857
            ]
        },
        {
            "positions": [
                0.6458163916814379,
                -1.4270320211179892,
                0.5944699854024935,
                -0.656637273689271,
                -1.0210470474417441,
                -0.8227847380884404
            ]
        },
        {
            "positions": [
                0.5377223837981981,
                -1.436647409592809,
                0.7267904332720492,
                -0.6096944459846008,
                -0.9921049503067794,
                -0.8893533930996952
            ]
        },
        {
            "positions": [
                0.42962837591495884,
                -1.4462627980676286,
                0.8591108811416053,
                -0.5627516182799305,
                -0.9631628531718148,
                -0.9559220481109499
            ]
        },
        {
            "positions": [
                0.32153436803171953,
                -1.4558781865424484,
                0.9914313290111609,
                -0.5158087905752602,
                -0.9342207560368503,
                -1.0224907031222048
            ]
        },
        {
            "positions": [
                0.21344036014848022,
                -1.4654935750172682,
                1.1237517768807166,
                -0.46886596287059,
                -0.9052786589018857,
                -1.089059358133459
            ]
        },
        {
            "positions": [
                0.10534635226524092,
                -1.475108963492088,
                1.2560722247502727,
                -0.4219231351659196,
                -0.8763365617669212,
                -1.1556280131447143
            ]
        },
        {
            "positions": [
                -0.00274765561799839,
                -1.4847243519669076,
                1.3883926726198283,
                -0.3749803074612492,
                -0.8473944646319567,
                -1.2221966681559686
            ]
        },
        {
            "positions": [
                -0.1108416635012377,
                -1.4943397404417273,
                1.5207131204893838,
                -0.32803747975657904,
                -0.8184523674969921,
                -1.2887653231672234
            ]
        },
        {
            "positions": [
                -0.13528343482212427,
                -1.4396012055972787,
                1.5457642948701689,
                -0.17111525954379414,
                -0.7660845768503493,
                -1.2107901485585135
            ]
        },
        {
            "positions": [
                -0.15972520614301083,
                -1.3848626707528302,
                1.570815469250954,
                -0.014193039331009238,
                -0.7137167862037065,
                -1.1328149739498037
            ]
        },
        {
            "positions": [
                -0.18416697746389743,
                -1.3301241359083815,
                1.595866643631739,
                0.14272918088177572,
                -0.6613489955570636,
                -1.0548397993410938
            ]
        },
        {
            "positions": [
                -0.20860874878478397,
                -1.2753856010639328,
                1.620917818012524,
                0.29965140109456057,
                -0.6089812049104208,
                -0.9768646247323839
            ]
        },
        {
            "positions": [
                -0.23305052010567057,
                -1.2206470662194842,
                1.6459689923933092,
                0.4565736213073456,
                -0.556613414263778,
                -0.8988894501236739
            ]
        },
        {
            "positions": [
                -0.25749229142655716,
                -1.1659085313750357,
                1.6710201667740943,
                0.6134958415201305,
                -0.5042456236171351,
                -0.8209142755149641
            ]
        },
        {
            "positions": [
                -0.2819340627474437,
                -1.111169996530587,
                1.6960713411548793,
                0.7704180617329155,
                -0.4518778329704922,
                -0.7429391009062543
            ]
        },
        {
            "positions": [
                -0.30637583406833024,
                -1.0564314616861386,
                1.7211225155356644,
                0.9273402819457002,
                -0.39951004232384946,
                -0.6649639262975444
            ]
        },
        {
            "positions": [
                -0.33081760538921684,
                -1.0016929268416899,
                1.7461736899164495,
                1.0842625021584853,
                -0.3471422516772066,
                -0.5869887516888346
            ]
        },
        {
            "positions": [
                -0.35525937671010344,
                -0.9469543919972412,
                1.7712248642972346,
                1.2411847223712702,
                -0.2947744610305637,
                -0.5090135770801246
            ]
        },
        {
            "positions": [
                -0.37970114803099,
                -0.8922158571527926,
                1.7962760386780197,
                1.398106942584055,
                -0.24240667038392094,
                -0.4310384024714149
            ]
        },
        {
            "positions": [
                -0.4041429193518766,
                -0.8374773223083439,
                1.8213272130588047,
                1.55502916279684,
                -0.19003887973727807,
                -0.35306322786270494
            ]
        },
        {
            "positions": [
                -0.2723925158194511,
                -0.8246561687144782,
                1.8688306591374941,
                1.6628161815620994,
                -0.17568934345013903,
                -0.2834989357623894
            ]
        },
        {
            "positions": [
                -0.1406421122870256,
                -0.8118350151206126,
                1.9163341052161833,
                1.770603200327359,
                -0.16133980716299998,
                -0.21393464366207376
            ]
        },
        {
            "positions": [
                -0.008891708754600158,
                -0.7990138615267469,
                1.9638375512948727,
                1.8783902190926185,
                -0.14699027087586092,
                -0.14437035156175818
            ]
        },
        {
            "positions": [
                0.12285869477782531,
                -0.7861927079328812,
                2.011340997373562,
                1.986177237857878,
                -0.1326407345887219,
                -0.07480605946144257
            ]
        }
    ]
}