{
    "goal": {
        "global_pose": {
            "orientation": {
                "w": -0.4816463035849501,
                "x": 0.5182115481033762,
                "y": 0.4908360881923453,
                "z": -0.5084816262002911
            },
            "position": {
                "x": -0.8240239810943604,
                "y": 0.19912469901144506,
                "z": 0.16403168439865112
            }
        },
        "name": "move_to_storage_D"
    },
    "id": "KPIECE_move_to_storage_D_80",
    "joint_names": [
        "shoulder_pan_joint",
        "shoulder_lift_joint",
        "elbow_joint",
        "wrist_1_joint",
        "wrist_2_joint",
        "wrist_3_joint"
    ],
    "metrics": {
        "cart_traj_len": 3.828937631387994,
        "distance_elbow_joint": 4.212774148314323,
        "distance_shoulder_lift_joint": 1.2651824843798334,
        "distance_shoulder_pan_joint": 2.815463250672942,
        "distance_wrist_1_joint": 2.281948893552918,
        "distance_wrist_2_joint": 1.5936763951391886,
        "distance_wrist_3_joint": 4.433775345834196,
        "smoothness": 0.08789663953431133,
        "time": 0.063800419,
        "traj_len": 4.074655877235942,
        "weighted_distance": 5.417194522836881
    },
    "planner": "KPIECE",
    "start": {
        "state": {
            "elbow_joint": -2.384821988534728,
            "shoulder_lift_joint": -2.2788054721415256,
            "shoulder_pan_joint": -0.1854694642142757,
            "wrist_1_joint": 1.4845938289331202,
            "wrist_2_joint": 0.17898776772866878,
            "wrist_3_joint": 0.037105688729662994
        }
    },
    "waypoints": [
        {
            "positions": [
                -0.1854694642142757,
                -2.2788054721415256,
                -2.384821988534728,
                1.4845938289331202,
                0.17898776772866878,
                0.037105688729662994
            ]
        },
        {
            "positions": [
                -0.06924646089870433,
                -2.2534566386143515,
                -2.2542079822199788,
                1.455312320669657,
                0.23294409102833694,
                0.06522423755323879
            ]
        },
        {
            "positions": [
                0.04697654241686705,
                -2.228107805087177,
                -2.12359397590523,
                1.4260308124061938,
                0.28690041432800506,
                0.09334278637681459
            ]
        },
        {
            "positions": [
                0.16319954573243842,
                -2.202758971560003,
                -1.9929799695904806,
                1.3967493041427304,
                0.3408567376276732,
                0.1214613352003904
            ]
        },
        {
            "positions": [
                0.2794225490480098,
                -2.177410138032829,
                -1.8623659632757317,
                1.3674677958792671,
                0.39481306092734136,
                0.14957988402396621
            ]
        },
        {
            "positions": [
                0.39564555236358123,
                -2.1520613045056547,
                -1.7317519569609825,
                1.338186287615804,
                0.4487693842270095,
                0.177698432847542
            ]
        },
        {
            "positions": [
                0.5118685556791526,
                -2.12671247097848,
                -1.6011379506462333,
                1.3089047793523407,
                0.5027257075266777,
                0.2058169816711178
            ]
        },
        {
            "positions": [
                0.6280915589947241,
                -2.101363637451306,
                -1.4705239443314844,
                1.2796232710888775,
                0.5566820308263458,
                0.23393553049469362
            ]
        },
        {
            "positions": [
                0.7443145623102954,
                -2.076014803924132,
                -1.3399099380167354,
                1.2503417628254143,
                0.610638354126014,
                0.2620540793182694
            ]
        },
        {
            "positions": [
                0.8605375656258668,
                -2.050665970396958,
                -1.2092959317019862,
                1.221060254561951,
                0.6645946774256821,
                0.2901726281418452
            ]
        },
        {
            "positions": [
                0.9767605689414381,
                -2.0253171368697833,
                -1.0786819253872373,
                1.1917787462984877,
                0.7185510007253502,
                0.318291176965421
            ]
        },
        {
            "positions": [
                1.0929835722570096,
                -1.9999683033426092,
                -0.9480679190724881,
                1.1624972380350245,
                0.7725073240250184,
                0.34640972578899687
            ]
        },
        {
            "positions": [
                1.2092065755725807,
                -1.9746194698154351,
                -0.8174539127577389,
                1.1332157297715613,
                0.8264636473246865,
                0.37452827461257265
            ]
        },
        {
            "positions": [
                1.325429578888152,
                -1.9492706362882608,
                -0.68683990644299,
                1.103934221508098,
                0.8804199706243546,
                0.40264682343614844
            ]
        },
        {
            "positions": [
                1.4416525822037238,
                -1.9239218027610865,
                -0.5562259001282408,
                1.0746527132446348,
                0.9343762939240229,
                0.4307653722597242
            ]
        },
        {
            "positions": [
                1.557875585519295,
                -1.8985729692339124,
                -0.4256118938134916,
                1.0453712049811714,
                0.9883326172236909,
                0.4588839210833
            ]
        },
        {
            "positions": [
                1.6740985888348663,
                -1.8732241357067383,
                -0.2949978874987429,
                1.0160896967177082,
                1.042288940523359,
                0.4870024699068758
            ]
        },
        {
            "positions": [
                1.7903215921504376,
                -1.847875302179564,
                -0.16438388118399372,
                0.986808188454245,
                1.0962452638230273,
                0.5151210187304516
            ]
        },
        {
            "positions": [
                1.9065445954660092,
                -1.8225264686523897,
                -0.03376987486924454,
                0.9575266801907818,
                1.1502015871226956,
                0.5432395675540275
            ]
        },
        {
            "positions": [
                2.0227675987815807,
                -1.7971776351252156,
                0.09684413144550463,
                0.9282451719273185,
                1.2041579104223636,
                0.5713581163776033
            ]
        },
        {
            "positions": [
                2.138990602097152,
                -1.7718288015980415,
                0.22745813776025336,
                0.8989636636638553,
                1.2581142337220317,
                0.599476665201179
            ]
        },
        {
            "positions": [
                2.255213605412723,
                -1.7464799680708671,
                0.35807214407500254,
                0.8696821554003921,
                1.3120705570217,
                0.6275952140247548
            ]
        },
        {
            "positions": [
                2.371436608728295,
                -1.7211311345436928,
                0.4886861503897517,
                0.8404006471369287,
                1.3660268803213682,
                0.6557137628483307
            ]
        },
        {
            "positions": [
                2.487659612043866,
                -1.6957823010165187,
                0.6193001567045008,
                0.8111191388734655,
                1.4199832036210362,
                0.6838323116719065
            ]
        },
        {
            "positions": [
                2.494776320764606,
                -1.6616743353537773,
                0.6797327568582555,
                0.7306954286988024,
                1.4023491556586951,
                0.4944798755273089
            ]
        },
        {
            "positions": [
                2.501893029485346,
                -1.627566369691036,
                0.7401653570120102,
                0.6502717185241392,
                1.3847151076963542,
                0.30512743938271125
            ]
        },
        {
            "positions": [
                2.5090097382060863,
                -1.5934584040282949,
                0.8005979571657649,
                0.5698480083494761,
                1.367081059734013,
                0.11577500323811374
            ]
        },
        {
            "positions": [
                2.516126446926826,
                -1.5593504383655534,
                0.8610305573195196,
                0.489424298174813,
                1.349447011771672,
                -0.073577432906484
            ]
        },
        {
            "positions": [
                2.523243155647566,
                -1.525242472702812,
                0.9214631574732743,
                0.4090005880001499,
                1.331812963809331,
                -0.2629298690510815
            ]
        },
        {
            "positions": [
                2.530359864368306,
                -1.4911345070400708,
                0.9818957576270291,
                0.3285768778254868,
                1.3141789158469899,
                -0.452282305195679
            ]
        },
        {
            "positions": [
                2.5374765730890463,
                -1.4570265413773296,
                1.0423283577807838,
                0.24815316765082363,
                1.296544867884649,
                -0.6416347413402765
            ]
        },
        {
            "positions": [
                2.544593281809786,
                -1.4229185757145881,
                1.1027609579345385,
                0.16772945747616042,
                1.2789108199223078,
                -0.8309871774848745
            ]
        },
        {
            "positions": [
                2.551709990530526,
                -1.3888106100518467,
                1.163193558088293,
                0.08730574730149732,
                1.2612767719599667,
                -1.020339613629472
            ]
        },
        {
            "positions": [
                2.558826699251266,
                -1.3547026443891055,
                1.2236261582420478,
                0.006882037126834217,
                1.2436427239976258,
                -1.2096920497740695
            ]
        },
        {
            "positions": [
                2.5659434079720063,
                -1.320594678726364,
                1.2840587583958025,
                -0.07354167304782899,
                1.2260086760352846,
                -1.3990444859186673
            ]
        },
        {
            "positions": [
                2.573060116692746,
                -1.2864867130636228,
                1.3444913585495573,
                -0.15396538322249198,
                1.2083746280729435,
                -1.5883969220632645
            ]
        },
        {
            "positions": [
                2.580176825413486,
                -1.2523787474008814,
                1.404923958703312,
                -0.2343890933971553,
                1.1907405801106026,
                -1.7777493582078623
            ]
        },
        {
            "positions": [
                2.587293534134226,
                -1.2182707817381402,
                1.4653565588570667,
                -0.3148128035718183,
                1.1731065321482614,
                -1.9671017943524596
            ]
        },
        {
            "positions": [
                2.5944102428549662,
                -1.184162816075399,
                1.5257891590108215,
                -0.3952365137464815,
                1.1554724841859203,
                -2.156454230497057
            ]
        },
        {
            "positions": [
                2.601526951575706,
                -1.1500548504126575,
                1.5862217591645762,
                -0.4756602239211447,
                1.1378384362235794,
                -2.3458066666416553
            ]
        },
        {
            "positions": [
                2.608643660296446,
                -1.115946884749916,
                1.646654359318331,
                -0.5560839340958077,
                1.1202043882612382,
                -2.5351591027862526
            ]
        },
        {
            "positions": [
                2.615760369017186,
                -1.0818389190871749,
                1.7070869594720857,
                -0.6365076442704709,
                1.1025703402988971,
                -2.7245115389308507
            ]
        },
        {
            "positions": [
                2.622877077737926,
                -1.0477309534244337,
                1.7675195596258404,
                -0.7169313544451339,
                1.0849362923365562,
                -2.913863975075448
            ]
        },
        {
            "positions": [
                2.629993786458666,
                -1.0136229877616922,
                1.827952159779595,
                -0.7973550646197971,
                1.067302244374215,
                -3.1032164112200458
            ]
        }
    ]
}