{
    "goal": {
        "global_pose": {
            "orientation": {
                "w": -0.00223480608172531,
                "x": 0.0024358444001904467,
                "y": 0.7094548369677653,
                "z": -0.704743149386269
            },
            "position": {
                "x": -0.37947507619857795,
                "y": -0.6371506643295288,
                "z": 0.19426114857196808
            }
        },
        "name": "move_to_magneteinheit_C"
    },
    "id": "KPIECE_move_to_magneteinheit_C_21",
    "joint_names": [
        "shoulder_pan_joint",
        "shoulder_lift_joint",
        "elbow_joint",
        "wrist_1_joint",
        "wrist_2_joint",
        "wrist_3_joint"
    ],
    "metrics": {
        "cart_traj_len": 1.5503412574124529,
        "distance_elbow_joint": 1.1747053247358274,
        "distance_shoulder_lift_joint": 0.6379228534566264,
        "distance_shoulder_pan_joint": 1.4617867450193722,
        "distance_wrist_1_joint": 1.9552346842297363,
        "distance_wrist_2_joint": 2.1737490163940745,
        "distance_wrist_3_joint": 4.099813237456763,
        "smoothness": 0.7659389112988042,
        "time": 1.451167832,
        "traj_len": 3.3916385216134697,
        "weighted_distance": 4.88178471840266
    },
    "planner": "KPIECE",
    "start": {
        "state": {
            "elbow_joint": 1.9565354010623817,
            "shoulder_lift_joint": -1.4165861575791021,
            "shoulder_pan_joint": -1.6717766225146293,
            "wrist_1_joint": -0.5286633292919765,
            "wrist_2_joint": 1.472756589071564,
            "wrist_3_joint": -3.1238370188695823
        }
    },
    "waypoints": [
        {
            "positions": [
                -1.6717766225146293,
                -1.4165861575791021,
                1.9565354010623817,
                -0.5286633292919765,
                1.472756589071564,
                -3.1238370188695823
            ]
        },
        {
            "positions": [
                -1.6085529366512754,
                -1.4400141043178152,
                1.942876114071083,
                -0.4643013323984154,
                1.3790981348592541,
                -3.0773210967225224
            ]
        },
        {
            "positions": [
                -1.5453292507879217,
                -1.4634420510565282,
                1.9292168270797843,
                -0.3999393355048544,
                1.2854396806469446,
                -3.030805174575463
            ]
        },
        {
            "positions": [
                -1.4821055649245678,
                -1.4868699977952413,
                1.9155575400884857,
                -0.3355773386112933,
                1.1917812264346348,
                -2.984289252428403
            ]
        },
        {
            "positions": [
                -1.5111508281705794,
                -1.4990648134468847,
                1.8636005527644623,
                -0.2723244847971387,
                1.1260179904969572,
                -2.8464050319199394
            ]
        },
        {
            "positions": [
                -1.5401960914165909,
                -1.5112596290985283,
                1.811643565440439,
                -0.20907163098298417,
                1.0602547545592798,
                -2.708520811411476
            ]
        },
        {
            "positions": [
                -1.5692413546626025,
                -1.5234544447501717,
                1.7596865781164157,
                -0.14581877716882966,
                0.9944915186216021,
                -2.570636590903012
            ]
        },
        {
            "positions": [
                -1.598286617908614,
                -1.535649260401815,
                1.7077295907923924,
                -0.08256592335467505,
                0.9287282826839245,
                -2.4327523703945486
            ]
        },
        {
            "positions": [
                -1.6273318811546256,
                -1.5478440760534586,
                1.655772603468369,
                -0.019313069540520533,
                0.862965046746247,
                -2.294868149886085
            ]
        },
        {
            "positions": [
                -1.6563771444006372,
                -1.560038891705102,
                1.6038156161443458,
                0.043939784273633986,
                0.7972018108085694,
                -2.1569839293776214
            ]
        },
        {
            "positions": [
                -1.6854224076466486,
                -1.5722337073567454,
                1.5518586288203224,
                0.10719263808778856,
                0.7314385748708918,
                -2.019099708869158
            ]
        },
        {
            "positions": [
                -1.7144676708926603,
                -1.5844285230083888,
                1.4999016414962991,
                0.1704454919019432,
                0.6656753389332143,
                -1.8812154883606937
            ]
        },
        {
            "positions": [
                -1.7435129341386717,
                -1.5966233386600324,
                1.4479446541722758,
                0.23369834571609766,
                0.5999121029955367,
                -1.7433312678522301
            ]
        },
        {
            "positions": [
                -1.7725581973846833,
                -1.6088181543116757,
                1.3959876668482525,
                0.29695119953025223,
                0.5341488670578591,
                -1.6054470473437665
            ]
        },
        {
            "positions": [
                -1.866084784774032,
                -1.5832299502950586,
                1.4363471981303695,
                0.21023291473629188,
                0.47301283871457755,
                -1.5477949439092853
            ]
        },
        {
            "positions": [
                -1.9596113721633808,
                -1.5576417462784418,
                1.4767067294124865,
                0.12351462994233153,
                0.411876810371296,
                -1.490142840474804
            ]
        },
        {
            "positions": [
                -2.0531379595527297,
                -1.5320535422618247,
                1.5170662606946035,
                0.03679634514837121,
                0.3507407820280144,
                -1.4324907370403228
            ]
        },
        {
            "positions": [
                -2.146664546942078,
                -1.5064653382452076,
                1.5574257919767205,
                -0.049921939645589164,
                0.2896047536847328,
                -1.3748386336058416
            ]
        },
        {
            "positions": [
                -2.240191134331427,
                -1.4808771342285907,
                1.5977853232588375,
                -0.13664022443954954,
                0.22846872534145118,
                -1.3171865301713601
            ]
        },
        {
            "positions": [
                -2.3337177217207756,
                -1.4552889302119736,
                1.6381448545409545,
                -0.2233585092335098,
                0.1673326969981696,
                -1.259534426736879
            ]
        },
        {
            "positions": [
                -2.4272443091101246,
                -1.4297007261953565,
                1.6785043858230715,
                -0.3100767940274703,
                0.10619666865488797,
                -1.2018823233023976
            ]
        },
        {
            "positions": [
                -2.520770896499473,
                -1.4041125221787396,
                1.7188639171051885,
                -0.39679507882143056,
                0.04506064031160645,
                -1.1442302198679164
            ]
        },
        {
            "positions": [
                -2.614297483888822,
                -1.3785243181621225,
                1.7592234483873055,
                -0.48351336361539093,
                -0.01607538803167522,
                -1.0865781164334352
            ]
        },
        {
            "positions": [
                -2.604258025551035,
                -1.3582338952278423,
                1.8000486229210184,
                -0.5340866260497968,
                0.047619402591264064,
                -1.2927101062407556
            ]
        },
        {
            "positions": [
                -2.594218567213247,
                -1.3379434722935621,
                1.8408737974547311,
                -0.5846598884842027,
                0.11131419321420336,
                -1.498842096048076
            ]
        },
        {
            "positions": [
                -2.5841791088754595,
                -1.317653049359282,
                1.881698971988444,
                -0.6352331509186085,
                0.17500898383714264,
                -1.7049740858553966
            ]
        },
        {
            "positions": [
                -2.5741396505376724,
                -1.297362626425002,
                1.922524146522157,
                -0.6858064133530144,
                0.23870377446008192,
                -1.911106075662717
            ]
        },
        {
            "positions": [
                -2.564100192199885,
                -1.2770722034907218,
                1.9633493210558697,
                -0.7363796757874204,
                0.3023985650830212,
                -2.117238065470038
            ]
        },
        {
            "positions": [
                -2.5540607338620975,
                -1.2567817805564416,
                2.0041744955895826,
                -0.7869529382218262,
                0.36609335570596047,
                -2.323370055277358
            ]
        },
        {
            "positions": [
                -2.5341389792525146,
                -1.233368159814237,
                2.0056671860346746,
                -0.7983819426356835,
                0.44178042959426045,
                -2.5298106543215315
            ]
        },
        {
            "positions": [
                -2.5142172246429313,
                -1.2099545390720323,
                2.0071598764797667,
                -0.8098109470495407,
                0.5174675034825604,
                -2.7362512533657046
            ]
        },
        {
            "positions": [
                -2.4942954700333484,
                -1.1865409183298277,
                2.0086525669248587,
                -0.8212399514633979,
                0.5931545773708604,
                -2.9426918524098777
            ]
        },
        {
            "positions": [
                -2.4743737154237655,
                -1.163127297587623,
                2.0101452573699508,
                -0.8326689558772552,
                0.6688416512591604,
                -3.1491324514540513
            ]
        }
    ]
}