{
    "goal": {
        "global_pose": {
            "orientation": {
                "w": 0.7031023480610252,
                "x": -0.7110244013736278,
                "y": 0.0077485991402295624,
                "z": 0.005598929693374583
            },
            "position": {
                "x": -0.8841497679147869,
                "y": 0.44412534475326537,
                "z": 0.3711530566215515
            }
        },
        "name": "move_to_auspresseinheit_D"
    },
    "id": "KPIECE_move_to_auspresseinheit_D_46",
    "joint_names": [
        "shoulder_pan_joint",
        "shoulder_lift_joint",
        "elbow_joint",
        "wrist_1_joint",
        "wrist_2_joint",
        "wrist_3_joint"
    ],
    "metrics": {
        "cart_traj_len": 0.3433537914029451,
        "distance_elbow_joint": 0.6417962395897392,
        "distance_shoulder_lift_joint": 0.12296568177011924,
        "distance_shoulder_pan_joint": 0.1341995451195394,
        "distance_wrist_1_joint": 0.5500827607982521,
        "distance_wrist_2_joint": 1.4321468184391484,
        "distance_wrist_3_joint": 0.021891587055480777,
        "smoothness": 0.0,
        "time": 0.393467682,
        "traj_len": 1.7038434883440086,
        "weighted_distance": 2.2201566129714005
    },
    "planner": "KPIECE",
    "start": {
        "state": {
            "elbow_joint": -1.8275523626775212,
            "shoulder_lift_joint": -2.126789852344167,
            "shoulder_pan_joint": -0.03513704404078235,
            "wrist_1_joint": -2.347782403156801,
            "wrist_2_joint": -1.6058999987535132,
            "wrist_3_joint": -3.0880379163319196
        }
    },
    "waypoints": [
        {
            "positions": [
                -0.03513704404078235,
                -2.126789852344167,
                -1.8275523626775212,
                -2.347782403156801,
                -1.6058999987535132,
                -3.0880379163319196
            ]
        },
        {
            "positions": [
                -0.051911987180724775,
                -2.1421605625654316,
                -1.7473278327288038,
                -2.416542748256582,
                -1.4268816464486196,
                -3.0853014679499844
            ]
        },
        {
            "positions": [
                -0.0686869303206672,
                -2.157531272786697,
                -1.6671033027800863,
                -2.485303093356364,
                -1.247863294143726,
                -3.082565019568049
            ]
        },
        {
            "positions": [
                -0.08546187346060963,
                -2.1729019830079617,
                -1.586878772831369,
                -2.5540634384561454,
                -1.0688449418388326,
                -3.0798285711861144
            ]
        },
        {
            "positions": [
                -0.10223681660055206,
                -2.1882726932292265,
                -1.5066542428826515,
                -2.622823783555927,
                -0.889826589533939,
                -3.077092122804179
            ]
        },
        {
            "positions": [
                -0.1190117597404945,
                -2.2036434034504913,
                -1.4264297129339343,
                -2.6915841286557085,
                -0.7108082372290454,
                -3.074355674422244
            ]
        },
        {
            "positions": [
                -0.1357867028804369,
                -2.219014113671756,
                -1.3462051829852169,
                -2.76034447375549,
                -0.531789884924152,
                -3.0716192260403092
            ]
        },
        {
            "positions": [
                -0.15256164602037933,
                -2.2343848238930213,
                -1.2659806530364994,
                -2.8291048188552717,
                -0.3527715326192584,
                -3.068882777658374
            ]
        },
        {
            "positions": [
                -0.16933658916032177,
                -2.249755534114286,
                -1.185756123087782,
                -2.897865163955053,
                -0.17375318031436474,
                -3.066146329276439
            ]
        }
    ]
}