{
    "goal": {
        "global_pose": {
            "orientation": {
                "w": 0.5084816262002911,
                "x": -0.4908360881923452,
                "y": 0.5182115481033761,
                "z": -0.48164630358495003
            },
            "position": {
                "x": 0.5540239810943604,
                "y": -0.46912469901144505,
                "z": 0.16403168439865112
            }
        },
        "name": "move_to_storage_B"
    },
    "id": "KPIECE_move_to_storage_B_16",
    "joint_names": [
        "shoulder_pan_joint",
        "shoulder_lift_joint",
        "elbow_joint",
        "wrist_1_joint",
        "wrist_2_joint",
        "wrist_3_joint"
    ],
    "metrics": {
        "cart_traj_len": 0.6674992414576917,
        "distance_elbow_joint": 0.3525877913219988,
        "distance_shoulder_lift_joint": 0.45967956272807253,
        "distance_shoulder_pan_joint": 0.18166338485450007,
        "distance_wrist_1_joint": 3.346021664975738,
        "distance_wrist_2_joint": 2.70983165880992,
        "distance_wrist_3_joint": 3.328980096557534,
        "smoothness": 0.42921849515177474,
        "time": 0.073884269,
        "traj_len": 3.2216089395281613,
        "weighted_distance": 4.805473720264058
    },
    "planner": "KPIECE",
    "start": {
        "state": {
            "elbow_joint": 1.664937868594044,
            "shoulder_lift_joint": -0.661644460510453,
            "shoulder_pan_joint": -0.9139846352900073,
            "wrist_1_joint": 2.146753192139373,
            "wrist_2_joint": -2.2341966793290973,
            "wrist_3_joint": 0.005466555786416001
        }
    },
    "waypoints": [
        {
            "positions": [
                -0.9139846352900073,
                -0.661644460510453,
                1.664937868594044,
                2.146753192139373,
                -2.2341966793290973,
                0.005466555786416001
            ]
        },
        {
            "positions": [
                -0.9147913835667448,
                -0.7306183167736082,
                1.7400061214282887,
                2.235988623806926,
                -2.1212469240630765,
                0.05347315784395215
            ]
        },
        {
            "positions": [
                -0.9155981318434824,
                -0.7995921730367636,
                1.8150743742625335,
                2.3252240554744787,
                -2.0082971687970557,
                0.1014797599014883
            ]
        },
        {
            "positions": [
                -0.9228001273755234,
                -0.812461447044834,
                1.8231724256886739,
                2.1985220234088536,
                -1.9089398828659405,
                -0.027838915796210145
            ]
        },
        {
            "positions": [
                -0.9300021229075643,
                -0.8253307210529045,
                1.8312704771148143,
                2.071819991343228,
                -1.8095825969348254,
                -0.1571575914939086
            ]
        },
        {
            "positions": [
                -0.9372041184396054,
                -0.838199995060975,
                1.8393685285409547,
                1.945117959277603,
                -1.7102253110037102,
                -0.286476267191607
            ]
        },
        {
            "positions": [
                -0.9444061139716464,
                -0.8510692690690455,
                1.847466579967095,
                1.8184159272119778,
                -1.610868025072595,
                -0.4157949428893055
            ]
        },
        {
            "positions": [
                -0.9516081095036873,
                -0.8639385430771159,
                1.8555646313932352,
                1.6917138951463522,
                -1.51151073914148,
                -0.545113618587004
            ]
        },
        {
            "positions": [
                -0.9588101050357284,
                -0.8768078170851864,
                1.8636626828193756,
                1.565011863080727,
                -1.4121534532103648,
                -0.6744322942847024
            ]
        },
        {
            "positions": [
                -0.9660121005677693,
                -0.8896770910932569,
                1.871760734245516,
                1.4383098310151017,
                -1.3127961672792496,
                -0.803750969982401
            ]
        },
        {
            "positions": [
                -0.9732140960998104,
                -0.9025463651013274,
                1.8798587856716564,
                1.3116077989494765,
                -1.2134388813481345,
                -0.9330696456800993
            ]
        },
        {
            "positions": [
                -0.9804160916318514,
                -0.9154156391093978,
                1.8879568370977968,
                1.1849057668838512,
                -1.1140815954170196,
                -1.0623883213777978
            ]
        },
        {
            "positions": [
                -0.9876180871638923,
                -0.9282849131174684,
                1.8960548885239372,
                1.0582037348182258,
                -1.0147243094859042,
                -1.1917069970754963
            ]
        },
        {
            "positions": [
                -0.9948200826959334,
                -0.9411541871255389,
                1.9041529399500776,
                0.9315017027526007,
                -0.9153670235547893,
                -1.3210256727731948
            ]
        },
        {
            "positions": [
                -1.0020220782279743,
                -0.9540234611336094,
                1.912250991376218,
                0.8047996706869756,
                -0.8160097376236741,
                -1.450344348470893
            ]
        },
        {
            "positions": [
                -1.0092240737600153,
                -0.9668927351416798,
                1.9203490428023582,
                0.67809763862135,
                -0.716652451692559,
                -1.5796630241685918
            ]
        },
        {
            "positions": [
                -1.0164260692920564,
                -0.9797620091497503,
                1.9284470942284986,
                0.5513956065557246,
                -0.6172951657614438,
                -1.7089816998662903
            ]
        },
        {
            "positions": [
                -1.0236280648240974,
                -0.9926312831578208,
                1.936545145654639,
                0.4246935744900997,
                -0.5179378798303287,
                -1.8383003755639886
            ]
        },
        {
            "positions": [
                -1.0308300603561384,
                -1.0055005571658913,
                1.9446431970807794,
                0.29799154242447434,
                -0.41858059389921354,
                -1.967619051261687
            ]
        },
        {
            "positions": [
                -1.0380320558881793,
                -1.0183698311739617,
                1.9527412485069198,
                0.17128951035884876,
                -0.3192233079680984,
                -2.0969377269593856
            ]
        },
        {
            "positions": [
                -1.0452340514202203,
                -1.0312391051820322,
                1.9608392999330602,
                0.044587478293223626,
                -0.21986602203698347,
                -2.226256402657084
            ]
        },
        {
            "positions": [
                -1.0524360469522613,
                -1.0441083791901027,
                1.9689373513592006,
                -0.08211455377240151,
                -0.1205087361058681,
                -2.3555750783547826
            ]
        },
        {
            "positions": [
                -1.0596380424843024,
                -1.0569776531981732,
                1.977035402785341,
                -0.2088165858380271,
                -0.02115145017475295,
                -2.484893754052481
            ]
        },
        {
            "positions": [
                -1.0668400380163434,
                -1.0698469272062436,
                1.9851334542114811,
                -0.3355186179036518,
                0.07820583575636197,
                -2.614212429750179
            ]
        },
        {
            "positions": [
                -1.0740420335483845,
                -1.0827162012143141,
                1.9932315056376215,
                -0.46222064996927736,
                0.17756312168747712,
                -2.743531105447878
            ]
        },
        {
            "positions": [
                -1.0812440290804253,
                -1.0955854752223846,
                2.001329557063762,
                -0.5889226820349029,
                0.27692040761859227,
                -2.872849781145576
            ]
        },
        {
            "positions": [
                -1.0884460246124663,
                -1.108454749230455,
                2.0094276084899025,
                -0.7156247141005276,
                0.3762776935497074,
                -3.0021684568432745
            ]
        },
        {
            "positions": [
                -1.0956480201445074,
                -1.1213240232385255,
                2.0175256599160427,
                -0.8423267461661532,
                0.4756349794808224,
                -3.131487132540973
            ]
        }
    ]
}