{
    "goal": {
        "global_pose": {
            "orientation": {
                "w": -0.4816463035849501,
                "x": 0.5182115481033762,
                "y": 0.4908360881923453,
                "z": -0.5084816262002911
            },
            "position": {
                "x": -0.8240239810943604,
                "y": -0.300875300988555,
                "z": 0.16403168439865112
            }
        },
        "name": "move_to_storage_C"
    },
    "id": "KPIECE_move_to_storage_C_102",
    "joint_names": [
        "shoulder_pan_joint",
        "shoulder_lift_joint",
        "elbow_joint",
        "wrist_1_joint",
        "wrist_2_joint",
        "wrist_3_joint"
    ],
    "metrics": {
        "cart_traj_len": 0.5774394572316585,
        "distance_elbow_joint": 0.26103588723722715,
        "distance_shoulder_lift_joint": 0.1898793090622687,
        "distance_shoulder_pan_joint": 0.49654281707711734,
        "distance_wrist_1_joint": 0.08884335517990272,
        "distance_wrist_2_joint": 1.0581231047211817,
        "distance_wrist_3_joint": 0.07591255249544249,
        "smoothness": 0.0,
        "time": 0.266456147,
        "traj_len": 1.47320637582558,
        "weighted_distance": 1.8625596878127448
    },
    "planner": "KPIECE",
    "start": {
        "state": {
            "elbow_joint": 2.010868314990456,
            "shoulder_lift_joint": -1.1634956873337592,
            "shoulder_pan_joint": -2.4736205022346125,
            "wrist_1_joint": -0.8367026794202681,
            "wrist_2_joint": 0.6746043897044499,
            "wrist_3_joint": -3.1496632123970403
        }
    },
    "waypoints": [
        {
            "positions": [
                -2.4736205022346125,
                -1.1634956873337592,
                2.010868314990456,
                -0.8367026794202681,
                0.6746043897044499,
                -3.1496632123970403
            ]
        },
        {
            "positions": [
                -2.556377638414132,
                -1.131849135823381,
                1.9673623337842514,
                -0.8218954535569509,
                0.8509582404913135,
                -3.1370111203144666
            ]
        },
        {
            "positions": [
                -2.6391347745936518,
                -1.100202584313003,
                1.9238563525780468,
                -0.8070882276936339,
                1.0273120912781772,
                -3.124359028231893
            ]
        },
        {
            "positions": [
                -2.721891910773171,
                -1.068556032802625,
                1.8803503713718421,
                -0.7922810018303168,
                1.2036659420650406,
                -3.111706936149319
            ]
        },
        {
            "positions": [
                -2.8046490469526906,
                -1.0369094812922468,
                1.8368443901656377,
                -0.7774737759669996,
                1.3800197928519045,
                -3.099054844066745
            ]
        },
        {
            "positions": [
                -2.88740618313221,
                -1.0052629297818685,
                1.7933384089594333,
                -0.7626665501036825,
                1.5563736436387678,
                -3.0864027519841715
            ]
        },
        {
            "positions": [
                -2.97016331931173,
                -0.9736163782714905,
                1.7498324277532287,
                -0.7478593242403654,
                1.7327274944256317,
                -3.073750659901598
            ]
        }
    ]
}