{
    "goal": {
        "global_pose": {
            "orientation": {
                "w": 0.005598929693374612,
                "x": 0.007748599140229565,
                "y": 0.7110244013736278,
                "z": -0.7031023480610252
            },
            "position": {
                "x": 0.1141497679147869,
                "y": -0.7141253447532654,
                "z": 0.3711530566215515
            }
        },
        "name": "move_to_auspresseinheit_B"
    },
    "id": "KPIECE_move_to_auspresseinheit_B_122",
    "joint_names": [
        "shoulder_pan_joint",
        "shoulder_lift_joint",
        "elbow_joint",
        "wrist_1_joint",
        "wrist_2_joint",
        "wrist_3_joint"
    ],
    "metrics": {
        "cart_traj_len": 0.5642542379896537,
        "distance_elbow_joint": 0.0634224061224975,
        "distance_shoulder_lift_joint": 0.29497506448994515,
        "distance_shoulder_pan_joint": 0.5769403306491052,
        "distance_wrist_1_joint": 0.33348975928394886,
        "distance_wrist_2_joint": 0.9932206359523252,
        "distance_wrist_3_joint": 0.009290100657407763,
        "smoothness": 0.0,
        "time": 0.176220107,
        "traj_len": 1.5070959814010618,
        "weighted_distance": 1.9017436456332173
    },
    "planner": "KPIECE",
    "start": {
        "state": {
            "elbow_joint": 2.0193083361928714,
            "shoulder_lift_joint": -1.1220246554650708,
            "shoulder_pan_joint": -1.0952077554168747,
            "wrist_1_joint": -0.8559753972642168,
            "wrist_2_joint": 0.4759566250798843,
            "wrist_3_joint": -3.1240929996934557
        }
    },
    "waypoints": [
        {
            "positions": [
                -1.0952077554168747,
                -1.1220246554650708,
                2.0193083361928714,
                -0.8559753972642168,
                0.4759566250798843,
                -3.1240929996934557
            ]
        },
        {
            "positions": [
                -1.1913644771917256,
                -1.171187166213395,
                2.008737935172455,
                -0.800393770716892,
                0.6414933977386051,
                -3.1225446495838876
            ]
        },
        {
            "positions": [
                -1.2875211989665765,
                -1.2203496769617193,
                1.9981675341520388,
                -0.7448121441695672,
                0.8070301703973259,
                -3.12099629947432
            ]
        },
        {
            "positions": [
                -1.3836779207414271,
                -1.2695121877100433,
                1.9875971331316227,
                -0.6892305176222424,
                0.9725669430560469,
                -3.119447949364752
            ]
        },
        {
            "positions": [
                -1.479834642516278,
                -1.3186746984583675,
                1.9770267321112065,
                -0.6336488910749176,
                1.1381037157147678,
                -3.1178995992551837
            ]
        },
        {
            "positions": [
                -1.575991364291129,
                -1.3678372092066917,
                1.96645633109079,
                -0.5780672645275927,
                1.3036404883734887,
                -3.116351249145616
            ]
        },
        {
            "positions": [
                -1.6721480860659799,
                -1.416999719955016,
                1.955885930070374,
                -0.5224856379802679,
                1.4691772610322096,
                -3.114802899036048
            ]
        }
    ]
}