{
    "goal": {
        "global_pose": {
            "orientation": {
                "w": -0.00223480608172531,
                "x": 0.0024358444001904467,
                "y": 0.7094548369677653,
                "z": -0.704743149386269
            },
            "position": {
                "x": -0.37947507619857795,
                "y": -0.6371506643295288,
                "z": 0.19426114857196808
            }
        },
        "name": "move_to_magneteinheit_C"
    },
    "id": "KPIECE_move_to_magneteinheit_C_6",
    "joint_names": [
        "shoulder_pan_joint",
        "shoulder_lift_joint",
        "elbow_joint",
        "wrist_1_joint",
        "wrist_2_joint",
        "wrist_3_joint"
    ],
    "metrics": {
        "cart_traj_len": 0.8712141499864632,
        "distance_elbow_joint": 1.7166616767706033,
        "distance_shoulder_lift_joint": 0.62951286534493,
        "distance_shoulder_pan_joint": 0.9596705410845952,
        "distance_wrist_1_joint": 2.0109792369296664,
        "distance_wrist_2_joint": 0.8014251839863548,
        "distance_wrist_3_joint": 0.14769946765891717,
        "smoothness": 1.3285898148924131,
        "time": 0.435542415,
        "traj_len": 2.5031877619897127,
        "weighted_distance": 3.0616584277167376
    },
    "planner": "KPIECE",
    "start": {
        "state": {
            "elbow_joint": 1.9565354010623817,
            "shoulder_lift_joint": -1.4165861575791021,
            "shoulder_pan_joint": -1.6717766225146293,
            "wrist_1_joint": -0.5286633292919765,
            "wrist_2_joint": 1.472756589071564,
            "wrist_3_joint": -3.1238370188695823
        }
    },
    "waypoints": [
        {
            "positions": [
                -1.6717766225146293,
                -1.4165861575791021,
                1.9565354010623817,
                -0.5286633292919765,
                1.472756589071564,
                -3.1238370188695823
            ]
        },
        {
            "positions": [
                -1.7598861256330924,
                -1.4354816731651112,
                2.0452390594047545,
                -0.6452233524112647,
                1.4204761280118778,
                -3.1168692117524155
            ]
        },
        {
            "positions": [
                -1.8479956287515555,
                -1.4543771887511205,
                2.1339427177471273,
                -0.761783375530553,
                1.368195666952192,
                -3.1099014046352482
            ]
        },
        {
            "positions": [
                -1.9361051318700186,
                -1.4732727043371296,
                2.2226463760895,
                -0.8783433986498412,
                1.3159152058925059,
                -3.1029335975180814
            ]
        },
        {
            "positions": [
                -2.024214634988482,
                -1.4921682199231388,
                2.3113500344318734,
                -0.9949034217691296,
                1.2636347448328198,
                -3.0959657904009146
            ]
        },
        {
            "positions": [
                -2.112324138106945,
                -1.5110637355091479,
                2.4000536927742457,
                -1.1114634448884178,
                1.211354283773134,
                -3.0889979832837478
            ]
        },
        {
            "positions": [
                -2.200433641225408,
                -1.5299592510951572,
                2.488757351116619,
                -1.2280234680077062,
                1.1590738227134478,
                -3.0820301761665805
            ]
        },
        {
            "positions": [
                -2.2885431443438713,
                -1.5488547666811663,
                2.5774610094589914,
                -1.3445834911269943,
                1.1067933616537617,
                -3.0750623690494137
            ]
        },
        {
            "positions": [
                -2.3766526474623344,
                -1.5677502822671756,
                2.6661646678013646,
                -1.4611435142462827,
                1.0545129005940759,
                -3.068094561932247
            ]
        },
        {
            "positions": [
                -2.4647621505807975,
                -1.5866457978531847,
                2.7548683261437374,
                -1.577703537365571,
                1.0022324395343898,
                -3.0611267548150796
            ]
        },
        {
            "positions": [
                -2.5528716536992606,
                -1.6055413134391938,
                2.8435719844861103,
                -1.6942635604848593,
                0.9499519784747038,
                -3.0541589476979127
            ]
        },
        {
            "positions": [
                -2.541646580856409,
                -1.5426044977985027,
                2.7250541140079854,
                -1.5734951310938903,
                0.9101490394190617,
                -3.0653048614818053
            ]
        },
        {
            "positions": [
                -2.5304215080135566,
                -1.4796676821578114,
                2.6065362435298605,
                -1.452726701702921,
                0.8703461003634196,
                -3.0764507752656978
            ]
        },
        {
            "positions": [
                -2.519196435170705,
                -1.4167308665171203,
                2.4880183730517356,
                -1.3319582723119519,
                0.8305431613077775,
                -3.0875966890495903
            ]
        },
        {
            "positions": [
                -2.5079713623278526,
                -1.353794050876429,
                2.3695005025736107,
                -1.2111898429209829,
                0.7907402222521355,
                -3.098742602833483
            ]
        },
        {
            "positions": [
                -2.4967462894850008,
                -1.290857235235738,
                2.2509826320954853,
                -1.0904214135300139,
                0.7509372831964933,
                -3.1098885166173753
            ]
        },
        {
            "positions": [
                -2.4855212166421485,
                -1.2279204195950468,
                2.1324647616173604,
                -0.9696529841390447,
                0.7111343441408513,
                -3.121034430401268
            ]
        },
        {
            "positions": [
                -2.4742961437992967,
                -1.1649836039543555,
                2.0139468911392355,
                -0.8488845547480756,
                0.6713314050852092,
                -3.1321803441851603
            ]
        }
    ]
}