{
    "goal": {
        "global_pose": {
            "orientation": {
                "w": -0.00223480608172531,
                "x": 0.0024358444001904467,
                "y": 0.7094548369677653,
                "z": -0.704743149386269
            },
            "position": {
                "x": 0.6205249238014221,
                "y": -0.6371506643295288,
                "z": 0.19426114857196808
            }
        },
        "name": "move_to_magneteinheit_B"
    },
    "id": "KPIECE_move_to_magneteinheit_B_9",
    "joint_names": [
        "shoulder_pan_joint",
        "shoulder_lift_joint",
        "elbow_joint",
        "wrist_1_joint",
        "wrist_2_joint",
        "wrist_3_joint"
    ],
    "metrics": {
        "cart_traj_len": 1.4959696324214422,
        "distance_elbow_joint": 0.9570607125681767,
        "distance_shoulder_lift_joint": 0.7564987258813898,
        "distance_shoulder_pan_joint": 1.6203023495058764,
        "distance_wrist_1_joint": 0.5352309505967097,
        "distance_wrist_2_joint": 2.4980319970728515,
        "distance_wrist_3_joint": 0.47141722971890077,
        "smoothness": 0.8160794970652943,
        "time": 0.311775237,
        "traj_len": 2.615060604526003,
        "weighted_distance": 3.288561900352686
    },
    "planner": "KPIECE",
    "start": {
        "state": {
            "elbow_joint": 2.6216224122426386,
            "shoulder_lift_joint": -1.4174107377796124,
            "shoulder_pan_joint": 0.7066234856936794,
            "wrist_1_joint": 1.9546482284002225,
            "wrist_2_joint": -0.7096286983471962,
            "wrist_3_joint": 0.005740856962016249
        }
    },
    "waypoints": [
        {
            "positions": [
                0.7066234856936794,
                -1.4174107377796124,
                2.6216224122426386,
                1.9546482284002225,
                -0.7096286983471962,
                0.005740856962016249
            ]
        },
        {
            "positions": [
                0.6224081569129818,
                -1.4014353010172034,
                2.5905337510456214,
                1.911377568477417,
                -0.5875666143740506,
                0.0633685350753827
            ]
        },
        {
            "positions": [
                0.5381928281322842,
                -1.3854598642547942,
                2.5594450898486043,
                1.8681069085546114,
                -0.4655045304009049,
                0.12099621318874915
            ]
        },
        {
            "positions": [
                0.45397749935158654,
                -1.369484427492385,
                2.528356428651587,
                1.8248362486318057,
                -0.3434424464277593,
                0.17862389130211562
            ]
        },
        {
            "positions": [
                0.36976217057088895,
                -1.353508990729976,
                2.49726776745457,
                1.7815655887090003,
                -0.22138036245461362,
                0.23625156941548206
            ]
        },
        {
            "positions": [
                0.2780878109720971,
                -1.3040377779562793,
                2.437788762613134,
                1.8074333252022494,
                -0.36493633825320426,
                0.21904396103937956
            ]
        },
        {
            "positions": [
                0.18641345137330528,
                -1.2545665651825826,
                2.3783097577716976,
                1.8333010616954986,
                -0.508492314051795,
                0.20183635266327707
            ]
        },
        {
            "positions": [
                0.09473909177451345,
                -1.205095352408886,
                2.318830752930261,
                1.8591687981887477,
                -0.6520482898503857,
                0.18462874428717457
            ]
        },
        {
            "positions": [
                0.0030647321757216184,
                -1.1556241396351894,
                2.2593517480888248,
                1.8850365346819966,
                -0.7956042656489763,
                0.16742113591107205
            ]
        },
        {
            "positions": [
                -0.08860962742307027,
                -1.1061529268614927,
                2.1998727432473886,
                1.9109042711752457,
                -0.939160241447567,
                0.15021352753496955
            ]
        },
        {
            "positions": [
                -0.18028398702186205,
                -1.056681714087796,
                2.1403937384059524,
                1.9367720076684949,
                -1.0827162172461575,
                0.13300591915886706
            ]
        },
        {
            "positions": [
                -0.27195834662065393,
                -1.0072105013140993,
                2.0809147335645157,
                1.962639744161744,
                -1.2262721930447482,
                0.11579831078276456
            ]
        },
        {
            "positions": [
                -0.3636327062194457,
                -0.9577392885404026,
                2.0214357287230795,
                1.9885074806549932,
                -1.369828168843339,
                0.09859070240666207
            ]
        },
        {
            "positions": [
                -0.4553070658182377,
                -0.9082680757667059,
                1.9619567238816433,
                2.0143752171482423,
                -1.5133841446419296,
                0.08138309403055954
            ]
        },
        {
            "positions": [
                -0.5469814254170295,
                -0.8587968629930093,
                1.9024777190402071,
                2.040242953641491,
                -1.6569401204405203,
                0.06417548565445705
            ]
        },
        {
            "positions": [
                -0.6386557850158214,
                -0.8093256502193126,
                1.842998714198771,
                2.0661106901347406,
                -1.8004960962391108,
                0.04696787727835458
            ]
        },
        {
            "positions": [
                -0.7303301446146131,
                -0.759854437445616,
                1.7835197093573345,
                2.0919784266279895,
                -1.9440520720377015,
                0.029760268902252085
            ]
        },
        {
            "positions": [
                -0.822004504213405,
                -0.7103832246719193,
                1.724040704515898,
                2.117846163121239,
                -2.087608047836292,
                0.012552660526149562
            ]
        },
        {
            "positions": [
                -0.9136788638121968,
                -0.6609120118982226,
                1.6645616996744619,
                2.1437138996144878,
                -2.231164023634883,
                -0.004654947849952939
            ]
        }
    ]
}