{
    "goal": {
        "global_pose": {
            "orientation": {
                "w": 0.7031023502349854,
                "x": -0.7110244035720825,
                "y": 0.007748599164187908,
                "z": 0.005598929710686207
            },
            "position": {
                "x": 0.11585023208521307,
                "y": 0.44412534475326537,
                "z": 0.3711530566215515
            }
        },
        "name": "move_to_auspresseinheit_A"
    },
    "id": "KPIECE_move_to_auspresseinheit_A_8",
    "joint_names": [
        "shoulder_pan_joint",
        "shoulder_lift_joint",
        "elbow_joint",
        "wrist_1_joint",
        "wrist_2_joint",
        "wrist_3_joint"
    ],
    "metrics": {
        "cart_traj_len": 1.0385165948344415,
        "distance_elbow_joint": 0.30008719929665073,
        "distance_shoulder_lift_joint": 0.8978505323491601,
        "distance_shoulder_pan_joint": 1.1591236984214297,
        "distance_wrist_1_joint": 1.5592705660199804,
        "distance_wrist_2_joint": 0.5703060231771578,
        "distance_wrist_3_joint": 1.5395985693669818,
        "smoothness": 0.8428358071413378,
        "time": 0.733246341,
        "traj_len": 2.4548394221682526,
        "weighted_distance": 3.351866691347146
    },
    "planner": "KPIECE",
    "start": {
        "state": {
            "elbow_joint": 2.4225746658250005,
            "shoulder_lift_joint": -1.3736534386056498,
            "shoulder_pan_joint": -0.3378633547517467,
            "wrist_1_joint": -1.0288598680537169,
            "wrist_2_joint": 1.233022673432363,
            "wrist_3_joint": -3.0940220416140027
        }
    },
    "waypoints": [
        {
            "positions": [
                -0.3378633547517467,
                -1.3736534386056498,
                2.4225746658250005,
                -1.0288598680537169,
                1.233022673432363,
                -3.0940220416140027
            ]
        },
        {
            "positions": [
                -0.35627480198919415,
                -1.396746879076032,
                2.367114154098832,
                -1.0042288508371786,
                1.1682438681035956,
                -2.927830209237142
            ]
        },
        {
            "positions": [
                -0.37468624922664157,
                -1.419840319546414,
                2.3116536423726637,
                -0.9795978336206405,
                1.1034650627748284,
                -2.7616383768602817
            ]
        },
        {
            "positions": [
                -0.393097696464089,
                -1.4429337600167962,
                2.256193130646495,
                -0.9549668164041023,
                1.038686257446061,
                -2.595446544483421
            ]
        },
        {
            "positions": [
                -0.2770764737401115,
                -1.5147008520336502,
                2.2585163757077633,
                -0.8447385648656386,
                1.010866724074676,
                -2.5683231303198664
            ]
        },
        {
            "positions": [
                -0.16105525101613408,
                -1.5864679440505045,
                2.2608396207690316,
                -0.7345103133271749,
                0.9830471907032912,
                -2.541199716156312
            ]
        },
        {
            "positions": [
                -0.045034028292156636,
                -1.6582350360673586,
                2.2631628658303,
                -0.6242820617887112,
                0.9552276573319062,
                -2.5140763019927572
            ]
        },
        {
            "positions": [
                0.07098719443182083,
                -1.7300021280842128,
                2.265486110891568,
                -0.5140538102502474,
                0.9274081239605213,
                -2.4869528878292027
            ]
        },
        {
            "positions": [
                0.1870084171557983,
                -1.8017692201010669,
                2.267809355952836,
                -0.4038255587117836,
                0.8995885905891364,
                -2.459829473665648
            ]
        },
        {
            "positions": [
                0.3030296398797757,
                -1.873536312117921,
                2.270132601014104,
                -0.29359730717332,
                0.8717690572177516,
                -2.4327060595020935
            ]
        },
        {
            "positions": [
                0.41905086260375324,
                -1.9453034041347752,
                2.2724558460753723,
                -0.18336905563485617,
                0.8439495238463666,
                -2.405582645338539
            ]
        },
        {
            "positions": [
                0.5350720853277307,
                -2.0170704961516295,
                2.2747790911366406,
                -0.07314080409639256,
                0.8161299904749817,
                -2.3784592311749844
            ]
        },
        {
            "positions": [
                0.6510933080517083,
                -2.0888375881684835,
                2.277102336197909,
                0.03708744744207122,
                0.7883104571035968,
                -2.35133581701143
            ]
        },
        {
            "positions": [
                0.7091256256427374,
                -2.0881984048868807,
                2.2990076501313066,
                0.01613632230746416,
                0.8180035329715161,
                -2.4189657807759146
            ]
        },
        {
            "positions": [
                0.7095421342933026,
                -2.0426916050107,
                2.32173043628964,
                -0.10195670903993216,
                0.794028350226398,
                -2.6012863760258957
            ]
        },
        {
            "positions": [
                0.7099586429438678,
                -1.997184805134519,
                2.3444532224479735,
                -0.2200497403873285,
                0.7700531674812798,
                -2.7836069712758764
            ]
        },
        {
            "positions": [
                0.7103751515944331,
                -1.951678005258338,
                2.367176008606307,
                -0.3381427717347248,
                0.7460779847361618,
                -2.9659275665258575
            ]
        },
        {
            "positions": [
                0.7107916602449983,
                -1.9061712053821571,
                2.3898987947646404,
                -0.45623580308212114,
                0.7221028019910437,
                -3.1482481617758387
            ]
        }
    ]
}