{
    "goal": {
        "global_pose": {
            "orientation": {
                "w": 0.5084816217422485,
                "x": -0.49083608388900757,
                "y": 0.5182115435600281,
                "z": -0.4816462993621826
            },
            "position": {
                "x": 0.5540239810943604,
                "y": 0.030875300988554955,
                "z": 0.16403168439865112
            }
        },
        "name": "move_to_storage_A"
    },
    "id": "KPIECE_move_to_storage_A_37",
    "joint_names": [
        "shoulder_pan_joint",
        "shoulder_lift_joint",
        "elbow_joint",
        "wrist_1_joint",
        "wrist_2_joint",
        "wrist_3_joint"
    ],
    "metrics": {
        "cart_traj_len": 0.3526526637203754,
        "distance_elbow_joint": 0.45073467084493113,
        "distance_shoulder_lift_joint": 0.23595093853290927,
        "distance_shoulder_pan_joint": 0.4628165829508892,
        "distance_wrist_1_joint": 0.23852606559880962,
        "distance_wrist_2_joint": 1.0921419019747767,
        "distance_wrist_3_joint": 0.1038228591108652,
        "smoothness": 1.8873791337340653e-15,
        "time": 0.021092741999999998,
        "traj_len": 1.6074803323876723,
        "weighted_distance": 2.030346449453516
    },
    "planner": "KPIECE",
    "start": {
        "state": {
            "elbow_joint": 1.971548259319323,
            "shoulder_lift_joint": -1.1394851275133948,
            "shoulder_pan_joint": 0.1228115487234821,
            "wrist_1_joint": -0.7804723859257726,
            "wrist_2_joint": 0.12958671773740124,
            "wrist_3_joint": -3.192489227718131
        }
    },
    "waypoints": [
        {
            "positions": [
                0.1228115487234821,
                -1.1394851275133948,
                1.971548259319323,
                -0.7804723859257726,
                0.12958671773740124,
                -3.192489227718131
            ]
        },
        {
            "positions": [
                0.05669489401621222,
                -1.1731924044466675,
                2.0359389265828844,
                -0.814547538154174,
                0.2856069894480836,
                -3.177657390702293
            ]
        },
        {
            "positions": [
                -0.009421760691057657,
                -1.2068996813799404,
                2.100329593846446,
                -0.8486226903825753,
                0.44162726115876594,
                -3.1628255536864556
            ]
        },
        {
            "positions": [
                -0.07553841539832754,
                -1.240606958313213,
                2.164720261110008,
                -0.8826978426109767,
                0.5976475328694484,
                -3.1479937166706176
            ]
        },
        {
            "positions": [
                -0.1416550701055974,
                -1.2743142352464858,
                2.2291109283735695,
                -0.9167729948393781,
                0.7536678045801307,
                -3.1331618796547795
            ]
        },
        {
            "positions": [
                -0.20777172481286732,
                -1.3080215121797587,
                2.2935015956371307,
                -0.9508481470677794,
                0.9096880762908132,
                -3.1183300426389415
            ]
        },
        {
            "positions": [
                -0.27388837952013717,
                -1.3417287891130314,
                2.3578922629006924,
                -0.9849232992961808,
                1.0657083480014955,
                -3.103498205623104
            ]
        },
        {
            "positions": [
                -0.3400050342274071,
                -1.375436066046304,
                2.422282930164254,
                -1.0189984515245822,
                1.221728619712178,
                -3.088666368607266
            ]
        }
    ]
}{
    "goal": {
        "global_pose": {
            "orientation": {
                "w": 0.5084816217422485,
                "x": -0.49083608388900757,
                "y": 0.5182115435600281,
                "z": -0.4816462993621826
            },
            "position": {
                "x": 0.5540239810943604,
                "y": 0.030875300988554955,
                "z": 0.16403168439865112
            }
        },
        "name": "move_to_storage_A"
    },
    "id": "KPIECE_move_to_storage_A_37",
    "joint_names": [
        "shoulder_pan_joint",
        "shoulder_lift_joint",
        "elbow_joint",
        "wrist_1_joint",
        "wrist_2_joint",
        "wrist_3_joint"
    ],
    "metrics": {
        "cart_traj_len": 0.35315082679301407,
        "distance_elbow_joint": 0.4503866364542195,
        "distance_shoulder_lift_joint": 0.23256220790856497,
        "distance_shoulder_pan_joint": 0.46289895840806616,
        "distance_wrist_1_joint": 0.24989179813711093,
        "distance_wrist_2_joint": 1.0930488395582074,
        "distance_wrist_3_joint": 0.09758417695556565,
        "smoothness": 6.661338165333112e-16,
        "time": 0.050510965000000005,
        "traj_len": 1.6082203261436956,
        "weighted_distance": 2.0308819781139875
    },
    "planner": "KPIECE",
    "start": {
        "state": {
            "elbow_joint": 1.97154746011099,
            "shoulder_lift_joint": -1.13948474672311,
            "shoulder_pan_joint": 0.12281154466712228,
            "wrist_1_joint": -0.7804688027058302,
            "wrist_2_joint": 0.12958655903071145,
            "wrist_3_joint": 3.0906928834467795
        }
    },
    "waypoints": [
        {
            "positions": [
                0.12281154466712228,
                -1.13948474672311,
                1.97154746011099,
                -0.7804688027058302,
                0.12958655903071145,
                3.0906928834467795
            ]
        },
        {
            "positions": [
                0.056683122037398545,
                -1.1727079192814764,
                2.0358884081758784,
                -0.8161676310111318,
                0.2857363932533125,
                3.1046334801547175
            ]
        },
        {
            "positions": [
                -0.009445300592325193,
                -1.2059310918398427,
                2.100229356240767,
                -0.8518664593164333,
                0.44188622747591355,
                3.1185740768626555
            ]
        },
        {
            "positions": [
                -0.07557372322204893,
                -1.2391542643982092,
                2.1645703043056552,
                -0.8875652876217348,
                0.5980360616985146,
                3.1325146735705935
            ]
        },
        {
            "positions": [
                -0.14170214585177265,
                -1.2723774369565757,
                2.228911252370544,
                -0.9232641159270364,
                0.7541858959211157,
                3.146455270278531
            ]
        },
        {
            "positions": [
                -0.2078305684814964,
                -1.3056006095149422,
                2.2932522004354325,
                -0.958962944232338,
                0.9103357301437168,
                3.160395866986469
            ]
        },
        {
            "positions": [
                -0.27395899111122013,
                -1.3388237820733084,
                2.357593148500321,
                -0.9946617725376395,
                1.0664855643663178,
                3.174336463694407
            ]
        },
        {
            "positions": [
                -0.34008741374094387,
                -1.372046954631675,
                2.4219340965652094,
                -1.0303606008429411,
                1.222635398588919,
                3.188277060402345
            ]
        }
    ]
}{
    "goal": {
        "global_pose": {
            "orientation": {
                "w": 0.5084816217422485,
                "x": -0.49083608388900757,
                "y": 0.5182115435600281,
                "z": -0.4816462993621826
            },
            "position": {
                "x": 0.5540239810943604,
                "y": 0.030875300988554955,
                "z": 0.16403168439865112
            }
        },
        "name": "move_to_storage_A"
    },
    "id": "KPIECE_move_to_storage_A_37",
    "joint_names": [
        "shoulder_pan_joint",
        "shoulder_lift_joint",
        "elbow_joint",
        "wrist_1_joint",
        "wrist_2_joint",
        "wrist_3_joint"
    ],
    "metrics": {
        "cart_traj_len": 0.3524738928784867,
        "distance_elbow_joint": 0.44948509924647206,
        "distance_shoulder_lift_joint": 0.23371412393885693,
        "distance_shoulder_pan_joint": 0.4615519761517437,
        "distance_wrist_1_joint": 0.2458072783115115,
        "distance_wrist_2_joint": 1.0941152501688634,
        "distance_wrist_3_joint": 0.10794055784841827,
        "smoothness": 6.661338165333112e-16,
        "time": 0.070769601,
        "traj_len": 1.6101597081239691,
        "weighted_distance": 2.0367665378837794
    },
    "planner": "KPIECE",
    "start": {
        "state": {
            "elbow_joint": 1.9715472970024885,
            "shoulder_lift_joint": -1.1394870060712896,
            "shoulder_pan_joint": 0.12281152778156021,
            "wrist_1_joint": -0.780463741449964,
            "wrist_2_joint": 0.12958659822042276,
            "wrist_3_joint": 3.090690232415272
        }
    },
    "waypoints": [
        {
            "positions": [
                0.12281152778156021,
                -1.1394870060712896,
                1.9715472970024885,
                -0.780463741449964,
                0.12958659822042276,
                3.090690232415272
            ]
        },
        {
            "positions": [
                0.05687553118845397,
                -1.1728747380625548,
                2.0357594540376986,
                -0.815579066923037,
                0.2858887768159747,
                3.1061103121079032
            ]
        },
        {
            "positions": [
                -0.009060465404652274,
                -1.2062624700538203,
                2.099971611072909,
                -0.8506943923961101,
                0.44219095541152653,
                3.121530391800534
            ]
        },
        {
            "positions": [
                -0.0749964619977585,
                -1.2396502020450855,
                2.1641837681081193,
                -0.8858097178691832,
                0.5984931340070785,
                3.1369504714931655
            ]
        },
        {
            "positions": [
                -0.14093245859086476,
                -1.2730379340363507,
                2.22839592514333,
                -0.9209250433422562,
                0.7547953126026303,
                3.1523705511857965
            ]
        },
        {
            "positions": [
                -0.20686845518397104,
                -1.3064256660276161,
                2.29260808217854,
                -0.9560403688153294,
                0.9110974911981823,
                3.167790630878428
            ]
        },
        {
            "positions": [
                -0.27280445177707724,
                -1.3398133980188813,
                2.35682023921375,
                -0.9911556942884024,
                1.0673996697937342,
                3.1832107105710588
            ]
        },
        {
            "positions": [
                -0.33874044837018347,
                -1.3732011300101465,
                2.4210323962489606,
                -1.0262710197614755,
                1.223701848389286,
                3.19863079026369
            ]
        }
    ]
}