{
    "goal": {
        "global_pose": {
            "orientation": {
                "w": 0.005598929693374612,
                "x": 0.007748599140229565,
                "y": 0.7110244013736278,
                "z": -0.7031023480610252
            },
            "position": {
                "x": -0.8858502320852131,
                "y": -0.7141253447532654,
                "z": 0.3711530566215515
            }
        },
        "name": "move_to_auspresseinheit_C"
    },
    "id": "KPIECE_move_to_auspresseinheit_C_53",
    "joint_names": [
        "shoulder_pan_joint",
        "shoulder_lift_joint",
        "elbow_joint",
        "wrist_1_joint",
        "wrist_2_joint",
        "wrist_3_joint"
    ],
    "metrics": {
        "cart_traj_len": 0.49438532985474387,
        "distance_elbow_joint": 1.013273424093072,
        "distance_shoulder_lift_joint": 0.3309768950533165,
        "distance_shoulder_pan_joint": 0.2569538388234043,
        "distance_wrist_1_joint": 0.706772914391904,
        "distance_wrist_2_joint": 1.3082558775136974,
        "distance_wrist_3_joint": 0.07049812883692486,
        "smoothness": 4.844609574787718e-16,
        "time": 1.165313163,
        "traj_len": 1.920086216478916,
        "weighted_distance": 2.4171793744552286
    },
    "planner": "KPIECE",
    "start": {
        "state": {
            "elbow_joint": 1.7527959577737207,
            "shoulder_lift_joint": -0.9740617694225068,
            "shoulder_pan_joint": -2.967991417825858,
            "wrist_1_joint": -0.759517768980727,
            "wrist_2_joint": 1.7443932448377408,
            "wrist_3_joint": -3.0840537646736568
        }
    },
    "waypoints": [
        {
            "positions": [
                -2.967991417825858,
                -0.9740617694225068,
                1.7527959577737207,
                -0.759517768980727,
                1.7443932448377408,
                -3.0840537646736568
            ]
        },
        {
            "positions": [
                -2.9422960339435176,
                -0.9409640799171751,
                1.6514686153644134,
                -0.6888404775415365,
                1.613567657086371,
                -3.0911035775573494
            ]
        },
        {
            "positions": [
                -2.916600650061177,
                -0.9078663904118435,
                1.5501412729551063,
                -0.6181631861023462,
                1.4827420693350013,
                -3.0981533904410417
            ]
        },
        {
            "positions": [
                -2.890905266178837,
                -0.8747687009065118,
                1.448813930545799,
                -0.5474858946631558,
                1.3519164815836315,
                -3.1052032033247343
            ]
        },
        {
            "positions": [
                -2.8652098822964964,
                -0.8416710114011802,
                1.347486588136492,
                -0.47680860322396534,
                1.2210908938322618,
                -3.1122530162084265
            ]
        },
        {
            "positions": [
                -2.8395144984141556,
                -0.8085733218958485,
                1.2461592457271846,
                -0.40613131178477496,
                1.0902653060808922,
                -3.119302829092119
            ]
        },
        {
            "positions": [
                -2.813819114531815,
                -0.7754756323905169,
                1.1448319033178773,
                -0.3354540203455846,
                0.9594397183295224,
                -3.126352641975812
            ]
        },
        {
            "positions": [
                -2.788123730649475,
                -0.7423779428851852,
                1.0435045609085702,
                -0.2647767289063942,
                0.8286141305781527,
                -3.133402454859504
            ]
        },
        {
            "positions": [
                -2.7624283467671344,
                -0.7092802533798536,
                0.942177218499263,
                -0.1940994374672037,
                0.6977885428267829,
                -3.1404522677431967
            ]
        },
        {
            "positions": [
                -2.736732962884794,
                -0.6761825638745219,
                0.8408498760899558,
                -0.12342214602801338,
                0.5669629550754132,
                -3.147502080626889
            ]
        },
        {
            "positions": [
                -2.7110375790024537,
                -0.6430848743691903,
                0.7395225336806487,
                -0.05274485458882291,
                0.43613736732404346,
                -3.1545518935105816
            ]
        }
    ]
}