{
    "goal": {
        "global_pose": {
            "orientation": {
                "w": 0.7047431493862688,
                "x": -0.7094548369677653,
                "y": 0.0024358444001904,
                "z": -0.0022348060817251984
            },
            "position": {
                "x": -0.39052492380142206,
                "y": 0.3671506643295288,
                "z": 0.19426114857196808
            }
        },
        "name": "move_to_magneteinheit_D"
    },
    "id": "KPIECE_move_to_magneteinheit_D_132",
    "joint_names": [
        "shoulder_pan_joint",
        "shoulder_lift_joint",
        "elbow_joint",
        "wrist_1_joint",
        "wrist_2_joint",
        "wrist_3_joint"
    ],
    "metrics": {
        "cart_traj_len": 4.74759357311128,
        "distance_elbow_joint": 3.1654245705210218,
        "distance_shoulder_lift_joint": 1.4903975890826953,
        "distance_shoulder_pan_joint": 3.471387144084188,
        "distance_wrist_1_joint": 2.263646721704403,
        "distance_wrist_2_joint": 1.9511581788134615,
        "distance_wrist_3_joint": 6.284281479841432,
        "smoothness": 0.3600459579752913,
        "time": 0.587719538,
        "traj_len": 4.3158192367205555,
        "weighted_distance": 5.950601948059368
    },
    "planner": "KPIECE",
    "start": {
        "state": {
            "elbow_joint": 0.749534889911806,
            "shoulder_lift_joint": -0.6476975780787326,
            "shoulder_pan_joint": -2.711696901376241,
            "wrist_1_joint": -0.07506478083263063,
            "wrist_2_joint": 0.43296659715538205,
            "wrist_3_joint": -3.14703540197715
        }
    },
    "waypoints": [
        {
            "positions": [
                -2.711696901376241,
                -0.6476975780787326,
                0.749534889911806,
                -0.07506478083263063,
                0.43296659715538205,
                -3.14703540197715
            ]
        },
        {
            "positions": [
                -2.728227355824309,
                -0.6478680453157195,
                0.7558857850972353,
                -0.0846246374148008,
                0.49303864826977517,
                -2.915541372650621
            ]
        },
        {
            "positions": [
                -2.7447578102723766,
                -0.6480385125527063,
                0.7622366802826646,
                -0.09418449399697096,
                0.5531106993841682,
                -2.6840473433240923
            ]
        },
        {
            "positions": [
                -2.761288264720444,
                -0.648208979789693,
                0.7685875754680938,
                -0.10374435057914112,
                0.6131827504985614,
                -2.452553313997563
            ]
        },
        {
            "positions": [
                -2.777818719168512,
                -0.6483794470266799,
                0.7749384706535231,
                -0.11330420716131129,
                0.6732548016129545,
                -2.221059284671034
            ]
        },
        {
            "positions": [
                -2.7757114452449967,
                -0.6488187417475575,
                0.7334479946384446,
                -0.09242872602706712,
                0.7280133750668266,
                -1.984423750886795
            ]
        },
        {
            "positions": [
                -2.773604171321481,
                -0.649258036468435,
                0.6919575186233662,
                -0.07155324489282294,
                0.7827719485206988,
                -1.7477882171025558
            ]
        },
        {
            "positions": [
                -2.7714968973979657,
                -0.6496973311893126,
                0.6504670426082877,
                -0.05067776375857877,
                0.8375305219745709,
                -1.5111526833183166
            ]
        },
        {
            "positions": [
                -2.76938962347445,
                -0.6501366259101902,
                0.6089765665932092,
                -0.029802282624334597,
                0.892289095428443,
                -1.2745171495340775
            ]
        },
        {
            "positions": [
                -2.6946088694284116,
                -0.7632052269556616,
                0.6022600389456462,
                -0.09353424065298979,
                0.7980658915130263,
                -1.2590750377009907
            ]
        },
        {
            "positions": [
                -2.619828115382373,
                -0.876273828001133,
                0.5955435112980831,
                -0.157266198681645,
                0.7038426875976096,
                -1.2436329258679037
            ]
        },
        {
            "positions": [
                -2.5450473613363345,
                -0.9893424290466044,
                0.5888269836505201,
                -0.22099815671030015,
                0.6096194836821929,
                -1.228190814034817
            ]
        },
        {
            "positions": [
                -2.470266607290296,
                -1.1024110300920757,
                0.5821104560029571,
                -0.2847301147389554,
                0.5153962797667762,
                -1.21274870220173
            ]
        },
        {
            "positions": [
                -2.3954858532442573,
                -1.2154796311375473,
                0.575393928355394,
                -0.34846207276761054,
                0.4211730758513594,
                -1.1973065903686433
            ]
        },
        {
            "positions": [
                -2.320705099198219,
                -1.3285482321830187,
                0.568677400707831,
                -0.4121940307962657,
                0.3269498719359427,
                -1.1818644785355565
            ]
        },
        {
            "positions": [
                -2.2459243451521806,
                -1.44161683322849,
                0.561960873060268,
                -0.4759259888249209,
                0.232726668020526,
                -1.1664223667024696
            ]
        },
        {
            "positions": [
                -2.171143591106142,
                -1.5546854342739613,
                0.555244345412705,
                -0.5396579468535762,
                0.13850346410510916,
                -1.1509802548693828
            ]
        },
        {
            "positions": [
                -2.0963628370601035,
                -1.667754035319433,
                0.5485278177651419,
                -0.6033899048822313,
                0.044280260189692444,
                -1.1355381430362959
            ]
        },
        {
            "positions": [
                -2.021582083014065,
                -1.7808226363649042,
                0.5418112901175789,
                -0.6671218629108865,
                -0.049942943725724255,
                -1.120096031203209
            ]
        },
        {
            "positions": [
                -1.9385090133864065,
                -1.7734939222049777,
                0.45107352952166835,
                -0.712713313396043,
                -0.06258248747718928,
                -0.9737561800252265
            ]
        },
        {
            "positions": [
                -1.8554359437587478,
                -1.7661652080450512,
                0.36033576892575775,
                -0.7583047638811995,
                -0.07522203122865428,
                -0.8274163288472438
            ]
        },
        {
            "positions": [
                -1.772362874131089,
                -1.7588364938851246,
                0.26959800832984715,
                -0.803896214366356,
                -0.08786157498011932,
                -0.6810764776692613
            ]
        },
        {
            "positions": [
                -1.6892898045034306,
                -1.751507779725198,
                0.1788602477339366,
                -0.8494876648515126,
                -0.10050111873158432,
                -0.5347366264912786
            ]
        },
        {
            "positions": [
                -1.606216734875772,
                -1.7441790655652716,
                0.088122487138026,
                -0.8950791153366691,
                -0.11314066248304935,
                -0.38839677531329597
            ]
        },
        {
            "positions": [
                -1.5231436652481134,
                -1.736850351405345,
                -0.0026152734578845926,
                -0.9406705658218256,
                -0.12578020623451436,
                -0.24205692413531332
            ]
        },
        {
            "positions": [
                -1.4400705956204547,
                -1.7295216372454185,
                -0.09335303405379514,
                -0.9862620163069822,
                -0.1384197499859794,
                -0.09571707295733067
            ]
        },
        {
            "positions": [
                -1.3569975259927962,
                -1.722192923085492,
                -0.18409079464970568,
                -1.0318534667921386,
                -0.1510592937374444,
                0.050622778220651865
            ]
        },
        {
            "positions": [
                -1.2739244563651377,
                -1.7148642089255655,
                -0.2748285552456162,
                -1.0774449172772953,
                -0.16369883748890943,
                0.19696262939863463
            ]
        },
        {
            "positions": [
                -1.190851386737479,
                -1.707535494765639,
                -0.3655663158415269,
                -1.1230363677624517,
                -0.17633838124037443,
                0.34330248057661716
            ]
        },
        {
            "positions": [
                -1.1077783171098203,
                -1.7002067806057124,
                -0.4563040764374374,
                -1.1686278182476082,
                -0.18897792499183946,
                0.4896423317545997
            ]
        },
        {
            "positions": [
                -1.0247052474821619,
                -1.6928780664457859,
                -0.5470418370333481,
                -1.2142192687327649,
                -0.20161746874330447,
                0.6359821829325825
            ]
        },
        {
            "positions": [
                -0.9416321778545034,
                -1.6855493522858593,
                -0.6377795976292586,
                -1.259810719217921,
                -0.2142570124947695,
                0.782322034110565
            ]
        },
        {
            "positions": [
                -0.8585591082268447,
                -1.6782206381259328,
                -0.7285173582251692,
                -1.3054021697030778,
                -0.2268965562462345,
                0.9286618852885478
            ]
        },
        {
            "positions": [
                -0.775486038599186,
                -1.6708919239660063,
                -0.8192551188210797,
                -1.3509936201882344,
                -0.23953609999769956,
                1.0750017364665307
            ]
        },
        {
            "positions": [
                -0.6924129689715275,
                -1.6635632098060797,
                -0.9099928794169903,
                -1.3965850706733907,
                -0.25217564374916457,
                1.2213415876445128
            ]
        },
        {
            "positions": [
                -0.6093398993438688,
                -1.6562344956461532,
                -1.000730640012901,
                -1.4421765211585473,
                -0.2648151875006296,
                1.3676814388224958
            ]
        },
        {
            "positions": [
                -0.5262668297162103,
                -1.6489057814862267,
                -1.0914684006088113,
                -1.487767971643704,
                -0.27745473125209463,
                1.5140212900004784
            ]
        },
        {
            "positions": [
                -0.4431937600885516,
                -1.6415770673263002,
                -1.182206161204722,
                -1.5333594221288604,
                -0.29009427500355967,
                1.660361141178461
            ]
        },
        {
            "positions": [
                -0.3601206904608931,
                -1.6342483531663736,
                -1.2729439218006326,
                -1.578950872614017,
                -0.30273381875502464,
                1.8067009923564434
            ]
        },
        {
            "positions": [
                -0.2770476208332344,
                -1.626919639006447,
                -1.3636816823965432,
                -1.6245423230991736,
                -0.3153733625064897,
                1.9530408435344264
            ]
        },
        {
            "positions": [
                -0.19397455120557594,
                -1.6195909248465206,
                -1.4544194429924537,
                -1.6701337735843298,
                -0.3280129062579547,
                2.0993806947124085
            ]
        },
        {
            "positions": [
                -0.11090148157791724,
                -1.612262210686594,
                -1.5451572035883645,
                -1.7157252240694865,
                -0.34065245000941974,
                2.2457205458903915
            ]
        },
        {
            "positions": [
                -0.027828411950258758,
                -1.6049334965266675,
                -1.635894964184275,
                -1.7613166745546431,
                -0.3532919937608847,
                2.392060397068374
            ]
        },
        {
            "positions": [
                0.055244657677400166,
                -1.597604782366741,
                -1.7266327247801856,
                -1.8069081250397994,
                -0.36593153751234975,
                2.538400248246357
            ]
        },
        {
            "positions": [
                0.1383177273050582,
                -1.5902760682068144,
                -1.8173704853760961,
                -1.852499575524956,
                -0.3785710812638148,
                2.684740099424339
            ]
        },
        {
            "positions": [
                0.2213907969327173,
                -1.582947354046888,
                -1.908108245972007,
                -1.8980910260101125,
                -0.3912106250152798,
                2.831079950602322
            ]
        },
        {
            "positions": [
                0.14017963489457974,
                -1.6148268037425895,
                -1.999503100602762,
                -1.952814351500706,
                -0.34954343299594437,
                2.892313176054714
            ]
        },
        {
            "positions": [
                0.05896847285644216,
                -1.6467062534382908,
                -2.090897955233517,
                -2.0075376769912996,
                -0.30787624097660893,
                2.953546401507106
            ]
        },
        {
            "positions": [
                -0.02224268918169539,
                -1.6785857031339924,
                -2.1822928098642724,
                -2.0622610024818933,
                -0.2662090489572735,
                3.0147796269594984
            ]
        },
        {
            "positions": [
                -0.10345385121983297,
                -1.7104651528296937,
                -2.2736876644950272,
                -2.1169843279724865,
                -0.22454185693793804,
                3.0760128524118904
            ]
        },
        {
            "positions": [
                -0.1846650132579705,
                -1.7423446025253952,
                -2.3650825191257825,
                -2.17170765346308,
                -0.18287466491860263,
                3.1372460778642823
            ]
        }
    ]
}