{
    "goal": {
        "global_pose": {
            "orientation": {
                "w": 0.5084816262002911,
                "x": -0.4908360881923452,
                "y": 0.5182115481033761,
                "z": -0.48164630358495003
            },
            "position": {
                "x": 0.5540239810943604,
                "y": -0.46912469901144505,
                "z": 0.16403168439865112
            }
        },
        "name": "move_to_storage_B"
    },
    "id": "KPIECE_move_to_storage_B_12",
    "joint_names": [
        "shoulder_pan_joint",
        "shoulder_lift_joint",
        "elbow_joint",
        "wrist_1_joint",
        "wrist_2_joint",
        "wrist_3_joint"
    ],
    "metrics": {
        "cart_traj_len": 0.8288327246917823,
        "distance_elbow_joint": 0.3584701868811897,
        "distance_shoulder_lift_joint": 0.4612036125959653,
        "distance_shoulder_pan_joint": 0.6482387788756961,
        "distance_wrist_1_joint": 3.022650907676871,
        "distance_wrist_2_joint": 2.712576838022745,
        "distance_wrist_3_joint": 3.119919790840752,
        "smoothness": 0.05090436053774638,
        "time": 0.144178348,
        "traj_len": 3.212951931618837,
        "weighted_distance": 4.722089309010825
    },
    "planner": "KPIECE",
    "start": {
        "state": {
            "elbow_joint": 1.664937868594044,
            "shoulder_lift_joint": -0.661644460510453,
            "shoulder_pan_joint": -0.9139846352900073,
            "wrist_1_joint": 2.146753192139373,
            "wrist_2_joint": -2.2341966793290973,
            "wrist_3_joint": 0.005466555786416001
        }
    },
    "waypoints": [
        {
            "positions": [
                -0.9139846352900073,
                -0.661644460510453,
                1.664937868594044,
                2.146753192139373,
                -2.2341966793290973,
                0.005466555786416001
            ]
        },
        {
            "positions": [
                -0.7970955412939797,
                -0.7465521844682415,
                1.696364578113636,
                2.089929377913194,
                -2.2028787509446497,
                -0.03992985327163893
            ]
        },
        {
            "positions": [
                -0.6802064472979523,
                -0.8314599084260299,
                1.7277912876332282,
                2.0331055636870152,
                -2.171560822560202,
                -0.08532626232969386
            ]
        },
        {
            "positions": [
                -0.696784870933298,
                -0.8431154350132455,
                1.7396159583469084,
                1.9167454325180346,
                -2.065563183310048,
                -0.20649134123867952
            ]
        },
        {
            "positions": [
                -0.7133632945686437,
                -0.854770961600461,
                1.7514406290605886,
                1.800385301349054,
                -1.959565544059894,
                -0.3276564201476652
            ]
        },
        {
            "positions": [
                -0.7299417182039892,
                -0.8664264881876765,
                1.7632652997742688,
                1.6840251701800737,
                -1.8535679048097402,
                -0.44882149905665086
            ]
        },
        {
            "positions": [
                -0.7465201418393349,
                -0.878082014774892,
                1.775089970487949,
                1.567665039011093,
                -1.7475702655595862,
                -0.5699865779656366
            ]
        },
        {
            "positions": [
                -0.7630985654746806,
                -0.8897375413621076,
                1.7869146412016292,
                1.4513049078421125,
                -1.6415726263094321,
                -0.6911516568746223
            ]
        },
        {
            "positions": [
                -0.7796769891100261,
                -0.9013930679493232,
                1.7987393119153094,
                1.3349447766731322,
                -1.5355749870592783,
                -0.8123167357836079
            ]
        },
        {
            "positions": [
                -0.7962554127453718,
                -0.9130485945365386,
                1.8105639826289897,
                1.2185846455041514,
                -1.4295773478091243,
                -0.9334818146925937
            ]
        },
        {
            "positions": [
                -0.8128338363807175,
                -0.9247041211237542,
                1.8223886533426699,
                1.102224514335171,
                -1.3235797085589702,
                -1.0546468936015791
            ]
        },
        {
            "positions": [
                -0.8294122600160632,
                -0.9363596477109697,
                1.83421332405635,
                0.9858643831661906,
                -1.2175820693088162,
                -1.175811972510565
            ]
        },
        {
            "positions": [
                -0.8459906836514088,
                -0.9480151742981853,
                1.8460379947700303,
                0.86950425199721,
                -1.1115844300586621,
                -1.2969770514195507
            ]
        },
        {
            "positions": [
                -0.8625691072867544,
                -0.9596707008854009,
                1.8578626654837107,
                0.7531441208282295,
                -1.0055867908085083,
                -1.4181421303285362
            ]
        },
        {
            "positions": [
                -0.8791475309221001,
                -0.9713262274726163,
                1.8696873361973907,
                0.6367839896592491,
                -0.8995891515583543,
                -1.5393072092375217
            ]
        },
        {
            "positions": [
                -0.8957259545574457,
                -0.9829817540598319,
                1.8815120069110711,
                0.5204238584902683,
                -0.7935915123082002,
                -1.6604722881465077
            ]
        },
        {
            "positions": [
                -0.9123043781927914,
                -0.9946372806470474,
                1.8933366776247513,
                0.4040637273212877,
                -0.6875938730580462,
                -1.7816373670554935
            ]
        },
        {
            "positions": [
                -0.928882801828137,
                -1.006292807234263,
                1.9051613483384315,
                0.28770359615230734,
                -0.5815962338078924,
                -1.9028024459644788
            ]
        },
        {
            "positions": [
                -0.9454612254634827,
                -1.0179483338214785,
                1.9169860190521117,
                0.17134346498332675,
                -0.47559859455773834,
                -2.0239675248734645
            ]
        },
        {
            "positions": [
                -0.9620396490988283,
                -1.0296038604086941,
                1.928810689765792,
                0.05498333381434617,
                -0.3696009553075841,
                -2.1451326037824505
            ]
        },
        {
            "positions": [
                -0.978618072734174,
                -1.0412593869959095,
                1.9406353604794722,
                -0.06137679735463397,
                -0.2636033160574305,
                -2.266297682691436
            ]
        },
        {
            "positions": [
                -0.9951964963695197,
                -1.052914913583125,
                1.9524600311931524,
                -0.17773692852361478,
                -0.15760567680727622,
                -2.3874627616004216
            ]
        },
        {
            "positions": [
                -1.0117749200048654,
                -1.0645704401703406,
                1.9642847019068326,
                -0.29409705969259514,
                -0.05160803755712218,
                -2.5086278405094076
            ]
        },
        {
            "positions": [
                -1.028353343640211,
                -1.0762259667575562,
                1.9761093726205128,
                -0.4104571908615755,
                0.05438960169303142,
                -2.629792919418393
            ]
        },
        {
            "positions": [
                -1.0449317672755565,
                -1.0878814933447716,
                1.987934043334193,
                -0.5268173220305563,
                0.16038724094318546,
                -2.7509579983273786
            ]
        },
        {
            "positions": [
                -1.0615101909109022,
                -1.0995370199319874,
                1.9997587140478732,
                -0.6431774531995371,
                0.2663848801933395,
                -2.8721230772363646
            ]
        },
        {
            "positions": [
                -1.0780886145462478,
                -1.1111925465192027,
                2.011583384761553,
                -0.759537584368517,
                0.37238251944349354,
                -2.9932881561453497
            ]
        },
        {
            "positions": [
                -1.0946670381815935,
                -1.1228480731064183,
                2.0234080554752336,
                -0.8758977155374977,
                0.47838015869364775,
                -3.1144532350543357
            ]
        }
    ]
}