{
    "goal": {
        "global_pose": {
            "orientation": {
                "w": -0.00223480608172531,
                "x": 0.0024358444001904467,
                "y": 0.7094548369677653,
                "z": -0.704743149386269
            },
            "position": {
                "x": -0.37947507619857795,
                "y": -0.6371506643295288,
                "z": 0.19426114857196808
            }
        },
        "name": "move_to_magneteinheit_C"
    },
    "id": "KPIECE_move_to_magneteinheit_C_92",
    "joint_names": [
        "shoulder_pan_joint",
        "shoulder_lift_joint",
        "elbow_joint",
        "wrist_1_joint",
        "wrist_2_joint",
        "wrist_3_joint"
    ],
    "metrics": {
        "cart_traj_len": 5.533620157507485,
        "distance_elbow_joint": 0.8023052903576495,
        "distance_shoulder_lift_joint": 3.4791034833026586,
        "distance_shoulder_pan_joint": 6.941345830251571,
        "distance_wrist_1_joint": 4.908657697063735,
        "distance_wrist_2_joint": 2.3207395352425557,
        "distance_wrist_3_joint": 1.6814196677571656,
        "smoothness": 0.7640291183769541,
        "time": 0.37057248499999995,
        "traj_len": 4.487044852012884,
        "weighted_distance": 5.543086511303604
    },
    "planner": "KPIECE",
    "start": {
        "state": {
            "elbow_joint": 1.9565354010623817,
            "shoulder_lift_joint": -1.4165861575791021,
            "shoulder_pan_joint": -1.6717766225146293,
            "wrist_1_joint": -0.5286633292919765,
            "wrist_2_joint": 1.472756589071564,
            "wrist_3_joint": -3.1238370188695823
        }
    },
    "waypoints": [
        {
            "positions": [
                -1.6717766225146293,
                -1.4165861575791021,
                1.9565354010623817,
                -0.5286633292919765,
                1.472756589071564,
                -3.1238370188695823
            ]
        },
        {
            "positions": [
                -1.661717710417046,
                -1.4642548919913856,
                1.929096954784122,
                -0.47146836815105575,
                1.4898189012455938,
                -2.976893171533118
            ]
        },
        {
            "positions": [
                -1.6376573976630318,
                -1.5194836153436353,
                1.9343008583806056,
                -0.4825683857530107,
                1.5376751622897076,
                -2.8082185807987696
            ]
        },
        {
            "positions": [
                -1.6135970849090173,
                -1.5747123386958848,
                1.9395047619770893,
                -0.49366840335496565,
                1.5855314233338216,
                -2.6395439900644213
            ]
        },
        {
            "positions": [
                -1.5895367721550029,
                -1.6299410620481343,
                1.944708665573573,
                -0.5047684209569205,
                1.6333876843779356,
                -2.470869399330073
            ]
        },
        {
            "positions": [
                -1.5654764594009887,
                -1.685169785400384,
                1.9499125691700567,
                -0.5158684385588755,
                1.6812439454220494,
                -2.3021948085957247
            ]
        },
        {
            "positions": [
                -1.4420246481920063,
                -1.741179305023173,
                1.935393459631459,
                -0.4219943777422684,
                1.616057337796557,
                -2.334555046402883
            ]
        },
        {
            "positions": [
                -1.3185728369830239,
                -1.797188824645962,
                1.9208743500928613,
                -0.32812031692566124,
                1.5508707301710647,
                -2.366915284210041
            ]
        },
        {
            "positions": [
                -1.1951210257740414,
                -1.8531983442687507,
                1.9063552405542634,
                -0.23424625610905409,
                1.4856841225455726,
                -2.399275522017199
            ]
        },
        {
            "positions": [
                -1.0716692145650593,
                -1.9092078638915397,
                1.8918361310156657,
                -0.14037219529244693,
                1.4204975149200803,
                -2.431635759824357
            ]
        },
        {
            "positions": [
                -0.9482174033560767,
                -1.9652173835143287,
                1.877317021477068,
                -0.04649813447583978,
                1.355310907294588,
                -2.463995997631515
            ]
        },
        {
            "positions": [
                -0.8247655921470944,
                -2.0212269031371175,
                1.86279791193847,
                0.04737592634076737,
                1.2901242996690958,
                -2.496356235438673
            ]
        },
        {
            "positions": [
                -0.701313780938112,
                -2.0772364227599067,
                1.8482788023998724,
                0.14124998715737458,
                1.2249376920436035,
                -2.528716473245831
            ]
        },
        {
            "positions": [
                -0.5778619697291297,
                -2.1332459423826955,
                1.8337596928612747,
                0.23512404797398168,
                1.1597510844181111,
                -2.5610767110529893
            ]
        },
        {
            "positions": [
                -0.45441015852014743,
                -2.1892554620054847,
                1.819240583322677,
                0.3289981087905888,
                1.0945644767926188,
                -2.5934369488601474
            ]
        },
        {
            "positions": [
                -0.3309583473111648,
                -2.2452649816282735,
                1.8047214737840793,
                0.422872169607196,
                1.0293778691671265,
                -2.6257971866673055
            ]
        },
        {
            "positions": [
                -0.20750653610218261,
                -2.3012745012510623,
                1.7902023642454814,
                0.5167462304238032,
                0.9641912615416344,
                -2.6581574244744637
            ]
        },
        {
            "positions": [
                -0.0840547248932002,
                -2.357284020873851,
                1.7756832547068837,
                0.6106202912404103,
                0.899004653916142,
                -2.6905176622816214
            ]
        },
        {
            "positions": [
                0.03939708631578198,
                -2.4132935404966402,
                1.761164145168286,
                0.7044943520570174,
                0.8338180462906498,
                -2.7228779000887795
            ]
        },
        {
            "positions": [
                0.1628488975247646,
                -2.469303060119429,
                1.746645035629688,
                0.7983684128736247,
                0.7686314386651574,
                -2.7552381378959376
            ]
        },
        {
            "positions": [
                0.286300708733747,
                -2.5253125797422182,
                1.7321259260910904,
                0.8922424736902318,
                0.7034448310396653,
                -2.7875983757030958
            ]
        },
        {
            "positions": [
                0.4097525199427292,
                -2.581322099365007,
                1.7176068165524927,
                0.9861165345068389,
                0.6382582234141729,
                -2.819958613510254
            ]
        },
        {
            "positions": [
                0.5332043311517118,
                -2.6373316189877958,
                1.703087707013895,
                1.079990595323446,
                0.5730716157886806,
                -2.852318851317412
            ]
        },
        {
            "positions": [
                0.6566561423606938,
                -2.693341138610585,
                1.6885685974752973,
                1.173864656140053,
                0.5078850081631883,
                -2.88467908912457
            ]
        },
        {
            "positions": [
                0.7801079535696762,
                -2.7493506582333738,
                1.6740494879366994,
                1.2677387169566603,
                0.44269840053769616,
                -2.917039326931728
            ]
        },
        {
            "positions": [
                0.9035597647786591,
                -2.805360177856163,
                1.6595303783981017,
                1.3616127777732676,
                0.3775117929122038,
                -2.9493995647388864
            ]
        },
        {
            "positions": [
                1.027011575987641,
                -2.8613696974789518,
                1.645011268859504,
                1.4554868385898745,
                0.3123251852867115,
                -2.981759802546044
            ]
        },
        {
            "positions": [
                1.1504633871966234,
                -2.9173792171017405,
                1.630492159320906,
                1.5493608994064818,
                0.24713857766121938,
                -3.0141200403532022
            ]
        },
        {
            "positions": [
                1.2739151984056059,
                -2.9733887367245293,
                1.6159730497823084,
                1.6432349602230891,
                0.18195197003572683,
                -3.0464802781603604
            ]
        },
        {
            "positions": [
                1.3973670096145883,
                -3.0293982563473185,
                1.6014539402437107,
                1.737109021039696,
                0.11676536241023472,
                -3.0788405159675185
            ]
        },
        {
            "positions": [
                1.2360252513594903,
                -2.95163611532505,
                1.6183536319423402,
                1.6306888041265117,
                0.1395892622385786,
                -3.0823043388888314
            ]
        },
        {
            "positions": [
                1.0746834931043923,
                -2.8738739743027817,
                1.6352533236409696,
                1.5242685872133273,
                0.1624131620669225,
                -3.0857681618101447
            ]
        },
        {
            "positions": [
                0.9133417348492942,
                -2.7961118332805133,
                1.6521530153395994,
                1.417848370300143,
                0.1852370618952664,
                -3.089231984731458
            ]
        },
        {
            "positions": [
                0.7519999765941962,
                -2.718349692258245,
                1.6690527070382288,
                1.3114281533869587,
                0.20806096172361027,
                -3.092695807652771
            ]
        },
        {
            "positions": [
                0.590658218339098,
                -2.6405875512359764,
                1.6859523987368583,
                1.2050079364737742,
                0.23088486155195415,
                -3.0961596305740837
            ]
        },
        {
            "positions": [
                0.42931646008400004,
                -2.562825410213708,
                1.702852090435488,
                1.09858771956059,
                0.2537087613802981,
                -3.099623453495397
            ]
        },
        {
            "positions": [
                0.26797470182890204,
                -2.4850632691914396,
                1.7197517821341175,
                0.9921675026474056,
                0.27653266120864195,
                -3.1030872764167103
            ]
        },
        {
            "positions": [
                0.10663294357380404,
                -2.407301128169171,
                1.736651473832747,
                0.8857472857342213,
                0.2993565610369858,
                -3.106551099338023
            ]
        },
        {
            "positions": [
                -0.05470881468129418,
                -2.3295389871469028,
                1.7535511655313765,
                0.779327068821037,
                0.3221804608653297,
                -3.110014922259336
            ]
        },
        {
            "positions": [
                -0.21605057293639218,
                -2.2517768461246344,
                1.770450857230006,
                0.6729068519078525,
                0.3450043606936736,
                -3.1134787451806494
            ]
        },
        {
            "positions": [
                -0.3773923311914902,
                -2.174014705102366,
                1.7873505489286357,
                0.5664866349946684,
                0.3678282605220175,
                -3.1169425681019627
            ]
        },
        {
            "positions": [
                -0.5387340894465882,
                -2.0962525640800975,
                1.8042502406272651,
                0.46006641808148396,
                0.3906521603503614,
                -3.1204063910232755
            ]
        },
        {
            "positions": [
                -0.7000758477016862,
                -2.018490423057829,
                1.8211499323258946,
                0.3536462011682997,
                0.41347606017870525,
                -3.1238702139445884
            ]
        },
        {
            "positions": [
                -0.8614176059567842,
                -1.9407282820355605,
                1.8380496240245243,
                0.24722598425511522,
                0.4362999600070492,
                -3.1273340368659017
            ]
        },
        {
            "positions": [
                -1.0227593642118822,
                -1.862966141013292,
                1.8549493157231538,
                0.14080576734193095,
                0.45912385983539306,
                -3.130797859787215
            ]
        },
        {
            "positions": [
                -1.1841011224669802,
                -1.7852039999910239,
                1.8718490074217833,
                0.03438555042874669,
                0.48194775966373693,
                -3.134261682708528
            ]
        },
        {
            "positions": [
                -1.3454428807220786,
                -1.7074418589687552,
                1.8887486991204128,
                -0.07203466648443779,
                0.5047716594920808,
                -3.1377255056298408
            ]
        },
        {
            "positions": [
                -1.5067846389771766,
                -1.6296797179464868,
                1.9056483908190422,
                -0.17845488339762205,
                0.5275955593204247,
                -3.141189328551154
            ]
        },
        {
            "positions": [
                -1.6681263972322742,
                -1.5519175769242186,
                1.922548082517672,
                -0.2848751003108063,
                0.5504194591487686,
                -3.1446531514724674
            ]
        },
        {
            "positions": [
                -1.8294681554873726,
                -1.47415543590195,
                1.9394477742163014,
                -0.391295317223991,
                0.5732433589771124,
                -3.1481169743937802
            ]
        },
        {
            "positions": [
                -1.9908099137424706,
                -1.3963932948796816,
                1.956347465914931,
                -0.4977155341371753,
                0.5960672588054563,
                -3.151580797315093
            ]
        },
        {
            "positions": [
                -2.1521516719975686,
                -1.3186311538574131,
                1.9732471576135606,
                -0.6041357510503591,
                0.6188911586338003,
                -3.1550446202364064
            ]
        },
        {
            "positions": [
                -2.3134934302526666,
                -1.2408690128351447,
                1.99014684931219,
                -0.7105559679635438,
                0.6417150584621442,
                -3.1585084431577197
            ]
        },
        {
            "positions": [
                -2.4748351885077646,
                -1.1631068718128763,
                2.0070465410108196,
                -0.816976184876728,
                0.664538958290488,
                -3.1619722660790326
            ]
        }
    ]
}