{
    "goal": {
        "global_pose": {
            "orientation": {
                "w": 0.7031023480610252,
                "x": -0.7110244013736278,
                "y": 0.0077485991402295624,
                "z": 0.005598929693374583
            },
            "position": {
                "x": -0.8841497679147869,
                "y": 0.44412534475326537,
                "z": 0.3711530566215515
            }
        },
        "name": "move_to_auspresseinheit_D"
    },
    "id": "KPIECE_move_to_auspresseinheit_D_48",
    "joint_names": [
        "shoulder_pan_joint",
        "shoulder_lift_joint",
        "elbow_joint",
        "wrist_1_joint",
        "wrist_2_joint",
        "wrist_3_joint"
    ],
    "metrics": {
        "cart_traj_len": 0.34355799862154923,
        "distance_elbow_joint": 0.6551191249276178,
        "distance_shoulder_lift_joint": 0.13127175501651722,
        "distance_shoulder_pan_joint": 0.13410944814372994,
        "distance_wrist_1_joint": 0.5905584036829641,
        "distance_wrist_2_joint": 1.43706227054304,
        "distance_wrist_3_joint": 0.058225835669206916,
        "smoothness": 0.0,
        "time": 0.043738904,
        "traj_len": 1.733882013858808,
        "weighted_distance": 2.2694534988731303
    },
    "planner": "KPIECE",
    "start": {
        "state": {
            "elbow_joint": -1.8275523626775212,
            "shoulder_lift_joint": -2.126789852344167,
            "shoulder_pan_joint": -0.03513704404078235,
            "wrist_1_joint": -2.347782403156801,
            "wrist_2_joint": -1.6058999987535132,
            "wrist_3_joint": -3.0880379163319196
        }
    },
    "waypoints": [
        {
            "positions": [
                -0.03513704404078235,
                -2.126789852344167,
                -1.8275523626775212,
                -2.347782403156801,
                -1.6058999987535132,
                -3.0880379163319196
            ]
        },
        {
            "positions": [
                -0.05190072505874859,
                -2.1431988217212314,
                -1.745662472061569,
                -2.421602203617171,
                -1.4262672149356332,
                -3.080759686873269
            ]
        },
        {
            "positions": [
                -0.06866440607671484,
                -2.159607791098296,
                -1.6637725814456168,
                -2.495422004077542,
                -1.2466344311177533,
                -3.073481457414618
            ]
        },
        {
            "positions": [
                -0.08542808709468108,
                -2.1760167604753606,
                -1.5818826908296646,
                -2.5692418045379126,
                -1.0670016472998731,
                -3.066203227955967
            ]
        },
        {
            "positions": [
                -0.10219176811264732,
                -2.1924257298524257,
                -1.4999928002137124,
                -2.643061604998283,
                -0.8873688634819932,
                -3.058924998497316
            ]
        },
        {
            "positions": [
                -0.11895544913061357,
                -2.2088346992294903,
                -1.41810290959776,
                -2.716881405458653,
                -0.7077360796641132,
                -3.0516467690386655
            ]
        },
        {
            "positions": [
                -0.1357191301485798,
                -2.225243668606555,
                -1.3362130189818078,
                -2.790701205919024,
                -0.5281032958462331,
                -3.0443685395800144
            ]
        },
        {
            "positions": [
                -0.15248281116654605,
                -2.2416526379836195,
                -1.2543231283658556,
                -2.8645210063793947,
                -0.3484705120283531,
                -3.0370903101213633
            ]
        },
        {
            "positions": [
                -0.1692464921845123,
                -2.258061607360684,
                -1.1724332377499034,
                -2.938340806839765,
                -0.16883772821047327,
                -3.0298120806627127
            ]
        }
    ]
}