{
    "goal": {
        "global_pose": {
            "orientation": {
                "w": -0.4816463035849501,
                "x": 0.5182115481033762,
                "y": 0.4908360881923453,
                "z": -0.5084816262002911
            },
            "position": {
                "x": -0.8240239810943604,
                "y": 0.19912469901144506,
                "z": 0.16403168439865112
            }
        },
        "name": "move_to_storage_D"
    },
    "id": "KPIECE_move_to_storage_D_89",
    "joint_names": [
        "shoulder_pan_joint",
        "shoulder_lift_joint",
        "elbow_joint",
        "wrist_1_joint",
        "wrist_2_joint",
        "wrist_3_joint"
    ],
    "metrics": {
        "cart_traj_len": 3.772177687437063,
        "distance_elbow_joint": 5.736628536905352,
        "distance_shoulder_lift_joint": 1.2659127525405252,
        "distance_shoulder_pan_joint": 2.811929748048762,
        "distance_wrist_1_joint": 3.5689828195996753,
        "distance_wrist_2_joint": 1.0452793088936838,
        "distance_wrist_3_joint": 3.3099337063398124,
        "smoothness": 0.25234319115937054,
        "time": 0.23864987,
        "traj_len": 4.211729677024371,
        "weighted_distance": 5.382638424927018
    },
    "planner": "KPIECE",
    "start": {
        "state": {
            "elbow_joint": -2.384821988534728,
            "shoulder_lift_joint": -2.2788054721415256,
            "shoulder_pan_joint": -0.1854694642142757,
            "wrist_1_joint": 1.4845938289331202,
            "wrist_2_joint": 0.17898776772866878,
            "wrist_3_joint": 0.037105688729662994
        }
    },
    "waypoints": [
        {
            "positions": [
                -0.1854694642142757,
                -2.2788054721415256,
                -2.384821988534728,
                1.4845938289331202,
                0.17898776772866878,
                0.037105688729662994
            ]
        },
        {
            "positions": [
                -0.14121984429244447,
                -2.22559624937204,
                -2.3771593723051585,
                1.442969135647799,
                0.13508427505818782,
                -0.0036970357976518417
            ]
        },
        {
            "positions": [
                -0.09697022437061323,
                -2.172387026602554,
                -2.369496756075589,
                1.401344442362478,
                0.09118078238770687,
                -0.04449976032496668
            ]
        },
        {
            "positions": [
                -0.05008219799675764,
                -2.1718143709792512,
                -2.1924070594781004,
                1.2999093308796366,
                0.09356684572997281,
                0.014315816767757408
            ]
        },
        {
            "positions": [
                -0.003194171622902045,
                -2.1712417153559485,
                -2.015317362880612,
                1.198474219396795,
                0.09595290907223876,
                0.0731313938604815
            ]
        },
        {
            "positions": [
                0.043693854750953554,
                -2.1706690597326457,
                -1.8382276662831234,
                1.0970391079139536,
                0.0983389724145047,
                0.13194697095320557
            ]
        },
        {
            "positions": [
                0.09058188112480914,
                -2.170096404109343,
                -1.661137969685635,
                0.9956039964311123,
                0.10072503575677064,
                0.19076254804592968
            ]
        },
        {
            "positions": [
                0.13746990749866475,
                -2.16952374848604,
                -1.4840482730881464,
                0.8941688849482708,
                0.1031110990990366,
                0.2495781251386538
            ]
        },
        {
            "positions": [
                0.18435793387252034,
                -2.1689510928627374,
                -1.3069585764906577,
                0.7927337734654295,
                0.10549716244130253,
                0.30839370223137785
            ]
        },
        {
            "positions": [
                0.23124596024637592,
                -2.1683784372394346,
                -1.129868879893169,
                0.691298661982588,
                0.10788322578356847,
                0.36720927932410197
            ]
        },
        {
            "positions": [
                0.2781339866202315,
                -2.1678057816161322,
                -0.9527791832956807,
                0.5898635504997467,
                0.11026928912583442,
                0.426024856416826
            ]
        },
        {
            "positions": [
                0.3250220129940872,
                -2.1672331259928295,
                -0.7756894866981918,
                0.48842843901690514,
                0.11265535246810036,
                0.48484043350955014
            ]
        },
        {
            "positions": [
                0.37191003936794276,
                -2.1666604703695267,
                -0.5985997901007034,
                0.3869933275340638,
                0.11504141581036631,
                0.5436560106022742
            ]
        },
        {
            "positions": [
                0.41879806574179834,
                -2.166087814746224,
                -0.4215100935032148,
                0.28555821605122245,
                0.11742747915263226,
                0.6024715876949983
            ]
        },
        {
            "positions": [
                0.4656860921156539,
                -2.165515159122921,
                -0.24442039690572637,
                0.1841231045683811,
                0.1198135424948982,
                0.6612871647877223
            ]
        },
        {
            "positions": [
                0.5125741184895095,
                -2.1649425034996184,
                -0.06733070030823773,
                0.08268799308553954,
                0.12219960583716415,
                0.7201027418804464
            ]
        },
        {
            "positions": [
                0.5594621448633651,
                -2.1643698478763156,
                0.1097589962892509,
                -0.01874711839730181,
                0.12458566917943009,
                0.7789183189731705
            ]
        },
        {
            "positions": [
                0.6063501712372207,
                -2.163797192253013,
                0.28684869288673953,
                -0.12018222988014315,
                0.12697173252169602,
                0.8377338960658947
            ]
        },
        {
            "positions": [
                0.6532381976110763,
                -2.16322453662971,
                0.4639383894842277,
                -0.2216173413629845,
                0.12935779586396196,
                0.8965494731586187
            ]
        },
        {
            "positions": [
                0.7001262239849319,
                -2.1626518810064073,
                0.6410280860817164,
                -0.32305245284582584,
                0.13174385920622791,
                0.9553650502513428
            ]
        },
        {
            "positions": [
                0.7470142503587875,
                -2.1620792253831045,
                0.8181177826792054,
                -0.42448756432866763,
                0.13412992254849387,
                1.014180627344067
            ]
        },
        {
            "positions": [
                0.7939022767326431,
                -2.1615065697598017,
                0.9952074792766941,
                -0.525922675811509,
                0.1365159858907598,
                1.0729962044367911
            ]
        },
        {
            "positions": [
                0.8407903031064987,
                -2.160933914136499,
                1.1722971758741823,
                -0.6273577872943503,
                0.13890204923302574,
                1.1318117815295152
            ]
        },
        {
            "positions": [
                0.8876783294803543,
                -2.1603612585131966,
                1.3493868724716709,
                -0.7287928987771919,
                0.1412881125752917,
                1.1906273586222393
            ]
        },
        {
            "positions": [
                0.9345663558542099,
                -2.159788602889894,
                1.5264765690691595,
                -0.830228010260033,
                0.14367417591755763,
                1.2494429357149635
            ]
        },
        {
            "positions": [
                0.9814543822280655,
                -2.159215947266591,
                1.7035662656666477,
                -0.9316631217428746,
                0.1460602392598236,
                1.3082585128076873
            ]
        },
        {
            "positions": [
                1.028342408601921,
                -2.1586432916432883,
                1.8806559622641363,
                -1.0330982332257157,
                0.14844630260208952,
                1.3670740899004115
            ]
        },
        {
            "positions": [
                1.0752304349757766,
                -2.1580706360199855,
                2.057745658861625,
                -1.1345333447085573,
                0.15083236594435548,
                1.4258896669931358
            ]
        },
        {
            "positions": [
                1.1221184613496322,
                -2.1574979803966827,
                2.2348353554591136,
                -1.2359684561913988,
                0.1532184292866214,
                1.4847052440858597
            ]
        },
        {
            "positions": [
                1.1690064877234878,
                -2.15692532477338,
                2.4119250520566022,
                -1.33740356767424,
                0.15560449262888737,
                1.5435208211785838
            ]
        },
        {
            "positions": [
                1.2158945140973434,
                -2.156352669150077,
                2.5890147486540913,
                -1.4388386791570817,
                0.1579905559711533,
                1.602336398271308
            ]
        },
        {
            "positions": [
                1.2988689711407047,
                -2.089090319176602,
                2.5441446427884133,
                -1.4008651314212301,
                0.21038247067522833,
                1.6953653452530084
            ]
        },
        {
            "positions": [
                1.3818434281840661,
                -2.021827969203127,
                2.4992745369227354,
                -1.3628915836853785,
                0.26277438537930337,
                1.788394292234709
            ]
        },
        {
            "positions": [
                1.4648178852274274,
                -1.9545656192296519,
                2.4544044310570574,
                -1.324918035949527,
                0.31516630008337837,
                1.8814232392164094
            ]
        },
        {
            "positions": [
                1.5477923422707889,
                -1.8873032692561766,
                2.4095343251913794,
                -1.2869444882136754,
                0.36755821478745343,
                1.97445218619811
            ]
        },
        {
            "positions": [
                1.6307667993141501,
                -1.8200409192827016,
                2.3646642193257015,
                -1.2489709404778238,
                0.41995012949152843,
                2.0674811331798106
            ]
        },
        {
            "positions": [
                1.7137412563575114,
                -1.7527785693092266,
                2.3197941134600235,
                -1.2109973927419722,
                0.47234204419560344,
                2.160510080161511
            ]
        },
        {
            "positions": [
                1.7967157134008729,
                -1.6855162193357516,
                2.2749240075943455,
                -1.1730238450061208,
                0.5247339588996784,
                2.2535390271432116
            ]
        },
        {
            "positions": [
                1.8796901704442344,
                -1.6182538693622763,
                2.2300539017286676,
                -1.1350502972702692,
                0.5771258736037534,
                2.346567974124912
            ]
        },
        {
            "positions": [
                1.9626646274875954,
                -1.5509915193888013,
                2.1851837958629896,
                -1.0970767495344176,
                0.6295177883078285,
                2.4395969211066126
            ]
        },
        {
            "positions": [
                2.045639084530957,
                -1.483729169415326,
                2.1403136899973116,
                -1.059103201798566,
                0.6819097030119036,
                2.532625868088313
            ]
        },
        {
            "positions": [
                2.1286135415743184,
                -1.416466819441851,
                2.0954435841316337,
                -1.0211296540627144,
                0.7343016177159786,
                2.6256548150700136
            ]
        },
        {
            "positions": [
                2.21158799861768,
                -1.349204469468376,
                2.0505734782659557,
                -0.9831561063268628,
                0.7866935324200536,
                2.718683762051714
            ]
        },
        {
            "positions": [
                2.294562455661041,
                -1.281942119494901,
                2.0057033724002777,
                -0.9451825585910112,
                0.8390854471241286,
                2.811712709033414
            ]
        },
        {
            "positions": [
                2.3775369127044024,
                -1.214679769521426,
                1.9608332665345998,
                -0.9072090108551597,
                0.8914773618282036,
                2.904741656015115
            ]
        },
        {
            "positions": [
                2.4605113697477634,
                -1.1474174195479507,
                1.9159631606689216,
                -0.8692354631193081,
                0.9438692765322786,
                2.9977706029968156
            ]
        },
        {
            "positions": [
                2.543485826791125,
                -1.0801550695744755,
                1.8710930548032436,
                -0.8312619153834565,
                0.9962611912363537,
                3.090799549978516
            ]
        },
        {
            "positions": [
                2.6264602838344864,
                -1.0128927196010005,
                1.8262229489375656,
                -0.7932883676476049,
                1.0486531059404287,
                3.1838284969602166
            ]
        }
    ]
}