{
    "goal": {
        "global_pose": {
            "orientation": {
                "w": 0.7047431468963623,
                "x": -0.7094548344612122,
                "y": 0.0024358443915843964,
                "z": -0.0022348060738295317
            },
            "position": {
                "x": 0.6094750761985779,
                "y": 0.3671506643295288,
                "z": 0.19426114857196808
            }
        },
        "name": "move_to_magneteinheit_A"
    },
    "id": "KPIECE_move_to_magneteinheit_A_22",
    "joint_names": [
        "shoulder_pan_joint",
        "shoulder_lift_joint",
        "elbow_joint",
        "wrist_1_joint",
        "wrist_2_joint",
        "wrist_3_joint"
    ],
    "metrics": {
        "cart_traj_len": 5.894386319961627,
        "distance_elbow_joint": 4.902422411164236,
        "distance_shoulder_lift_joint": 1.2844993179548376,
        "distance_shoulder_pan_joint": 8.981684501507338,
        "distance_wrist_1_joint": 3.5357980224150967,
        "distance_wrist_2_joint": 1.7104281924088074,
        "distance_wrist_3_joint": 3.6412087757938187,
        "smoothness": 0.2776239482806154,
        "time": 0.236000885,
        "traj_len": 4.9046958337132525,
        "weighted_distance": 6.048527505736886
    },
    "planner": "KPIECE",
    "start": {
        "state": {
            "elbow_joint": -1.9196185241190666,
            "shoulder_lift_joint": -1.2443396400964142,
            "shoulder_pan_joint": 2.6996025414629847,
            "wrist_1_joint": -1.5485510000780065,
            "wrist_2_joint": -1.5709468930060704,
            "wrist_3_joint": 0.4420197071253992
        }
    },
    "waypoints": [
        {
            "positions": [
                2.6996025414629847,
                -1.2443396400964142,
                -1.9196185241190666,
                -1.5485510000780065,
                -1.5709468930060704,
                0.4420197071253992
            ]
        },
        {
            "positions": [
                2.534491680026619,
                -1.2611997315225976,
                -1.7940058731915327,
                -1.5878428342897595,
                -1.5476173870422905,
                0.42523675933092303
            ]
        },
        {
            "positions": [
                2.369380818590253,
                -1.278059822948781,
                -1.6683932222639988,
                -1.6271346685015127,
                -1.5242878810785108,
                0.4084538115364469
            ]
        },
        {
            "positions": [
                2.204269957153887,
                -1.2949199143749643,
                -1.542780571336465,
                -1.6664265027132656,
                -1.5009583751147308,
                0.3916708637419708
            ]
        },
        {
            "positions": [
                2.039159095717521,
                -1.3117800058011475,
                -1.4171679204089311,
                -1.7057183369250188,
                -1.4776288691509512,
                0.37488791594749465
            ]
        },
        {
            "positions": [
                1.8740482342811553,
                -1.328640097227331,
                -1.2915552694813974,
                -1.7450101711367718,
                -1.4542993631871712,
                0.3581049681530185
            ]
        },
        {
            "positions": [
                1.7089373728447894,
                -1.3455001886535143,
                -1.1659426185538635,
                -1.784302005348525,
                -1.4309698572233915,
                0.3413220203585424
            ]
        },
        {
            "positions": [
                1.5438265114084233,
                -1.3623602800796977,
                -1.0403299676263296,
                -1.823593839560278,
                -1.4076403512596116,
                0.3245390725640663
            ]
        },
        {
            "positions": [
                1.3787156499720576,
                -1.379220371505881,
                -0.9147173166987956,
                -1.8628856737720312,
                -1.384310845295832,
                0.30775612476959013
            ]
        },
        {
            "positions": [
                1.2136047885356918,
                -1.3960804629320644,
                -0.7891046657712619,
                -1.9021775079837842,
                -1.360981339332052,
                0.29097317697511405
            ]
        },
        {
            "positions": [
                1.0484939270993259,
                -1.4129405543582476,
                -0.663492014843728,
                -1.9414693421955374,
                -1.3376518333682723,
                0.27419022918063785
            ]
        },
        {
            "positions": [
                0.8833830656629598,
                -1.429800645784431,
                -0.5378793639161941,
                -1.9807611764072903,
                -1.3143223274044924,
                0.25740728138616176
            ]
        },
        {
            "positions": [
                0.7182722042265939,
                -1.4466607372106144,
                -0.41226671298866013,
                -2.0200530106190433,
                -1.2909928214407125,
                0.2406243335916856
            ]
        },
        {
            "positions": [
                0.553161342790228,
                -1.4635208286367978,
                -0.2866540620611262,
                -2.0593448448307967,
                -1.2676633154769328,
                0.22384138579720947
            ]
        },
        {
            "positions": [
                0.3880504813538619,
                -1.4803809200629812,
                -0.1610414111335925,
                -2.0986366790425497,
                -1.2443338095131529,
                0.20705843800273335
            ]
        },
        {
            "positions": [
                0.22293961991749622,
                -1.4972410114891646,
                -0.035428760206058785,
                -2.1379285132543027,
                -1.2210043035493732,
                0.19027549020825724
            ]
        },
        {
            "positions": [
                0.05782875848113056,
                -1.514101102915348,
                0.09018389072147537,
                -2.1772203474660556,
                -1.1976747975855933,
                0.1734925424137811
            ]
        },
        {
            "positions": [
                -0.10728210295523555,
                -1.5309611943415313,
                0.2157965416490093,
                -2.2165121816778086,
                -1.1743452916218136,
                0.15670959461930495
            ]
        },
        {
            "positions": [
                -0.2723929643916012,
                -1.5478212857677145,
                0.3414091925765428,
                -2.255804015889562,
                -1.1510157856580339,
                0.13992664682482886
            ]
        },
        {
            "positions": [
                -0.4375038258279673,
                -1.5646813771938979,
                0.4670218435040767,
                -2.295095850101315,
                -1.127686279694254,
                0.12314369903035272
            ]
        },
        {
            "positions": [
                -0.602614687264333,
                -1.5815414686200813,
                0.5926344944316106,
                -2.334387684313068,
                -1.104356773730474,
                0.10636075123587657
            ]
        },
        {
            "positions": [
                -0.7677255487006991,
                -1.5984015600462647,
                0.7182471453591446,
                -2.3736795185248214,
                -1.0810272677666943,
                0.08957780344140048
            ]
        },
        {
            "positions": [
                -0.9328364101370652,
                -1.615261651472448,
                0.8438597962866785,
                -2.4129713527365744,
                -1.0576977618029144,
                0.07279485564692434
            ]
        },
        {
            "positions": [
                -1.0979472715734309,
                -1.6321217428986314,
                0.9694724472142124,
                -2.4522631869483273,
                -1.0343682558391345,
                0.056011907852448195
            ]
        },
        {
            "positions": [
                -1.263058133009797,
                -1.6489818343248146,
                1.0950850981417464,
                -2.4915550211600803,
                -1.0110387498753548,
                0.03922896005797205
            ]
        },
        {
            "positions": [
                -1.4281689944461626,
                -1.665841925750998,
                1.2206977490692803,
                -2.5308468553718333,
                -0.987709243911575,
                0.022446012263495907
            ]
        },
        {
            "positions": [
                -1.5932798558825287,
                -1.6827020171771814,
                1.3463103999968142,
                -2.5701386895835867,
                -0.9643797379477952,
                0.005663064469019763
            ]
        },
        {
            "positions": [
                -1.7583907173188948,
                -1.6995621086033648,
                1.4719230509243477,
                -2.6094305237953397,
                -0.9410502319840153,
                -0.011119883325456326
            ]
        },
        {
            "positions": [
                -1.923501578755261,
                -1.7164222000295482,
                1.5975357018518817,
                -2.6487223580070927,
                -0.9177207260202355,
                -0.02790283111993247
            ]
        },
        {
            "positions": [
                -2.088612440191627,
                -1.7332822914557315,
                1.7231483527794156,
                -2.688014192218846,
                -0.8943912200564557,
                -0.044685778914408614
            ]
        },
        {
            "positions": [
                -2.2537233016279923,
                -1.750142382881915,
                1.848761003706949,
                -2.7273060264305986,
                -0.871061714092676,
                -0.0614687267088847
            ]
        },
        {
            "positions": [
                -2.4188341630643584,
                -1.7670024743080983,
                1.974373654634483,
                -2.766597860642352,
                -0.8477322081288962,
                -0.07825167450336079
            ]
        },
        {
            "positions": [
                -2.5839450245007236,
                -1.7838625657342817,
                2.0999863055620174,
                -2.805889694854105,
                -0.8244027021651162,
                -0.09503462229783699
            ]
        },
        {
            "positions": [
                -2.7490558859370897,
                -1.8007226571604649,
                2.225598956489551,
                -2.845181529065858,
                -0.8010731962013364,
                -0.11181757009231308
            ]
        },
        {
            "positions": [
                -2.914166747373456,
                -1.8175827485866483,
                2.3512116074170852,
                -2.8844733632776114,
                -0.7777436902375566,
                -0.12860051788678928
            ]
        },
        {
            "positions": [
                -3.0792776088098215,
                -1.8344428400128316,
                2.476824258344619,
                -2.9237651974893644,
                -0.7544141842737768,
                -0.14538346568126537
            ]
        },
        {
            "positions": [
                -2.9606552254307648,
                -1.808724465270668,
                2.4580842720964506,
                -2.8437435743410777,
                -0.7213069441376097,
                -0.2584873769030118
            ]
        },
        {
            "positions": [
                -2.8420328420517076,
                -1.7830060905285041,
                2.439344285848282,
                -2.763721951192791,
                -0.6881997040014425,
                -0.3715912881247583
            ]
        },
        {
            "positions": [
                -2.723410458672651,
                -1.7572877157863405,
                2.4206042996001136,
                -2.6837003280445044,
                -0.6550924638652752,
                -0.4846951993465047
            ]
        },
        {
            "positions": [
                -2.604788075293594,
                -1.7315693410441768,
                2.401864313351945,
                -2.6036787048962178,
                -0.621985223729108,
                -0.5977991105682512
            ]
        },
        {
            "positions": [
                -2.486165691914537,
                -1.7058509663020132,
                2.3831243271037765,
                -2.523657081747931,
                -0.5888779835929409,
                -0.7109030217899975
            ]
        },
        {
            "positions": [
                -2.3675433085354802,
                -1.6801325915598495,
                2.364384340855608,
                -2.443635458599645,
                -0.5557707434567737,
                -0.824006933011744
            ]
        },
        {
            "positions": [
                -2.2489209251564235,
                -1.6544142168176856,
                2.3456443546074395,
                -2.363613835451358,
                -0.5226635033206064,
                -0.9371108442334904
            ]
        },
        {
            "positions": [
                -2.1302985417773663,
                -1.628695842075522,
                2.326904368359271,
                -2.2835922123030716,
                -0.4895562631844393,
                -1.050214755455237
            ]
        },
        {
            "positions": [
                -2.0116761583983096,
                -1.6029774673333583,
                2.3081643821111024,
                -2.203570589154785,
                -0.45644902304827206,
                -1.1633186666769832
            ]
        },
        {
            "positions": [
                -1.8930537750192526,
                -1.5772590925911945,
                2.2894243958629334,
                -2.1235489660064983,
                -0.4233417829121049,
                -1.2764225778987297
            ]
        },
        {
            "positions": [
                -1.7744313916401957,
                -1.5515407178490308,
                2.270684409614765,
                -2.0435273428582117,
                -0.39023454277593767,
                -1.3895264891204762
            ]
        },
        {
            "positions": [
                -1.6558090082611387,
                -1.5258223431068672,
                2.2519444233665964,
                -1.963505719709925,
                -0.3571273026397705,
                -1.5026304003422226
            ]
        },
        {
            "positions": [
                -1.537186624882082,
                -1.5001039683647035,
                2.233204437118428,
                -1.8834840965616384,
                -0.3240200625036033,
                -1.615734311563969
            ]
        },
        {
            "positions": [
                -1.418564241503025,
                -1.4743855936225398,
                2.2144644508702593,
                -1.8034624734133518,
                -0.2909128223674361,
                -1.7288382227857155
            ]
        },
        {
            "positions": [
                -1.2999418581239681,
                -1.448667218880376,
                2.195724464622091,
                -1.723440850265065,
                -0.25780558223126887,
                -1.8419421340074622
            ]
        },
        {
            "positions": [
                -1.1813194747449114,
                -1.4229488441382123,
                2.1769844783739223,
                -1.6434192271167787,
                -0.22469834209510176,
                -1.9550460452292084
            ]
        },
        {
            "positions": [
                -1.0626970913658544,
                -1.3972304693960487,
                2.1582444921257538,
                -1.5633976039684918,
                -0.19159110195893447,
                -2.068149956450955
            ]
        },
        {
            "positions": [
                -0.9440747079867977,
                -1.3715120946538848,
                2.1395045058775852,
                -1.4833759808202054,
                -0.1584838618227673,
                -2.181253867672701
            ]
        },
        {
            "positions": [
                -0.8254523246077405,
                -1.3457937199117211,
                2.1207645196294167,
                -1.4033543576719187,
                -0.12537662168660013,
                -2.294357778894448
            ]
        },
        {
            "positions": [
                -0.7068299412286838,
                -1.3200753451695575,
                2.102024533381248,
                -1.323332734523632,
                -0.09226938155043296,
                -2.407461690116194
            ]
        },
        {
            "positions": [
                -0.5882075578496266,
                -1.2943569704273936,
                2.0832845471330796,
                -1.2433111113753454,
                -0.05916214141426568,
                -2.5205656013379407
            ]
        },
        {
            "positions": [
                -0.4695851744705699,
                -1.2686385956852302,
                2.064544560884911,
                -1.163289488227059,
                -0.026054901278098508,
                -2.633669512559687
            ]
        },
        {
            "positions": [
                -0.35096279109151274,
                -1.2429202209430663,
                2.0458045746367426,
                -1.0832678650787722,
                0.007052338858068663,
                -2.7467734237814336
            ]
        },
        {
            "positions": [
                -0.232340407712456,
                -1.2172018462009027,
                2.027064588388574,
                -1.0032462419304857,
                0.040159578994235834,
                -2.85987733500318
            ]
        },
        {
            "positions": [
                -0.11371802433339928,
                -1.191483471458739,
                2.0083246021404055,
                -0.9232246187821991,
                0.07326681913040312,
                -2.9729812462249265
            ]
        },
        {
            "positions": [
                0.004904359045657447,
                -1.1657650967165751,
                1.9895846158922368,
                -0.8432029956339124,
                0.10637405926657018,
                -3.0860851574466728
            ]
        },
        {
            "positions": [
                0.12352674242471481,
                -1.1400467219744115,
                1.9708446296440683,
                -0.7631813724856258,
                0.13948129940273746,
                -3.1991890686684195
            ]
        }
    ]
}