{
    "goal": {
        "global_pose": {
            "orientation": {
                "w": -0.00223480608172531,
                "x": 0.0024358444001904467,
                "y": 0.7094548369677653,
                "z": -0.704743149386269
            },
            "position": {
                "x": -0.37947507619857795,
                "y": -0.6371506643295288,
                "z": 0.19426114857196808
            }
        },
        "name": "move_to_magneteinheit_C"
    },
    "id": "KPIECE_move_to_magneteinheit_C_124",
    "joint_names": [
        "shoulder_pan_joint",
        "shoulder_lift_joint",
        "elbow_joint",
        "wrist_1_joint",
        "wrist_2_joint",
        "wrist_3_joint"
    ],
    "metrics": {
        "cart_traj_len": 4.461528209128282,
        "distance_elbow_joint": 0.04900896593186088,
        "distance_shoulder_lift_joint": 1.8488026132855193,
        "distance_shoulder_pan_joint": 7.6886348010606795,
        "distance_wrist_1_joint": 0.6994038878784635,
        "distance_wrist_2_joint": 6.618721383130463,
        "distance_wrist_3_joint": 4.939585223966968,
        "smoothness": 0.6045390460171449,
        "time": 0.8274099420000001,
        "traj_len": 4.673773301654025,
        "weighted_distance": 6.248315980662056
    },
    "planner": "KPIECE",
    "start": {
        "state": {
            "elbow_joint": 1.9565354010623817,
            "shoulder_lift_joint": -1.4165861575791021,
            "shoulder_pan_joint": -1.6717766225146293,
            "wrist_1_joint": -0.5286633292919765,
            "wrist_2_joint": 1.472756589071564,
            "wrist_3_joint": -3.1238370188695823
        }
    },
    "waypoints": [
        {
            "positions": [
                -1.6717766225146293,
                -1.4165861575791021,
                1.9565354010623817,
                -0.5286633292919765,
                1.472756589071564,
                -3.1238370188695823
            ]
        },
        {
            "positions": [
                -1.5488153986880644,
                -1.4450391993201817,
                1.9567206832385333,
                -0.5464255429126215,
                1.3401363395221688,
                -3.0363675129929986
            ]
        },
        {
            "positions": [
                -1.4258541748614995,
                -1.473492241061261,
                1.9569059654146848,
                -0.5641877565332666,
                1.2075160899727737,
                -2.9488980071164153
            ]
        },
        {
            "positions": [
                -1.3028929510349345,
                -1.5019452828023405,
                1.9570912475908364,
                -0.5819499701539116,
                1.0748958404233788,
                -2.8614285012398315
            ]
        },
        {
            "positions": [
                -1.1799317272083696,
                -1.53039832454342,
                1.957276529766988,
                -0.5997121837745566,
                0.9422755908739837,
                -2.773958995363248
            ]
        },
        {
            "positions": [
                -1.0569705033818046,
                -1.5588513662844994,
                1.9574618119431395,
                -0.6174743973952017,
                0.8096553413245886,
                -2.6864894894866644
            ]
        },
        {
            "positions": [
                -0.9340092795552397,
                -1.587304408025579,
                1.9576470941192912,
                -0.6352366110158467,
                0.6770350917751936,
                -2.599019983610081
            ]
        },
        {
            "positions": [
                -0.8110480557286748,
                -1.6157574497666585,
                1.9578323762954426,
                -0.6529988246364917,
                0.5444148422257985,
                -2.5115504777334974
            ]
        },
        {
            "positions": [
                -0.6880868319021098,
                -1.6442104915077378,
                1.9580176584715943,
                -0.6707610382571368,
                0.4117945926764035,
                -2.424080971856914
            ]
        },
        {
            "positions": [
                -0.5651256080755449,
                -1.6726635332488173,
                1.958202940647746,
                -0.6885232518777819,
                0.2791743431270084,
                -2.3366114659803303
            ]
        },
        {
            "positions": [
                -0.44216438424897997,
                -1.7011165749898969,
                1.9583882228238974,
                -0.706285465498427,
                0.1465540935776133,
                -2.2491419601037466
            ]
        },
        {
            "positions": [
                -0.31920316042241503,
                -1.7295696167309762,
                1.958573505000049,
                -0.724047679119072,
                0.013933844028218179,
                -2.1616724542271633
            ]
        },
        {
            "positions": [
                -0.1962419365958501,
                -1.7580226584720557,
                1.9587587871762007,
                -0.741809892739717,
                -0.11868640552117671,
                -2.07420294835058
            ]
        },
        {
            "positions": [
                -0.07328071276928516,
                -1.7864757002131353,
                1.958944069352352,
                -0.7595721063603621,
                -0.2513066550705718,
                -1.9867334424739962
            ]
        },
        {
            "positions": [
                0.049680511057279775,
                -1.8149287419542146,
                1.9591293515285038,
                -0.7773343199810071,
                -0.3839269046199669,
                -1.8992639365974127
            ]
        },
        {
            "positions": [
                0.1726417348838447,
                -1.8433817836952942,
                1.9593146337046554,
                -0.7950965336016522,
                -0.516547154169362,
                -1.8117944307208291
            ]
        },
        {
            "positions": [
                0.29560295871040965,
                -1.8718348254363737,
                1.9594999158808069,
                -0.8128587472222972,
                -0.6491674037187569,
                -1.7243249248442456
            ]
        },
        {
            "positions": [
                0.4185641825369746,
                -1.900287867177453,
                1.9596851980569585,
                -0.8306209608429422,
                -0.781787653268152,
                -1.636855418967662
            ]
        },
        {
            "positions": [
                0.5415254063635395,
                -1.9287409089185328,
                1.9598704802331102,
                -0.8483831744635872,
                -0.9144079028175471,
                -1.5493859130910783
            ]
        },
        {
            "positions": [
                0.6644866301901045,
                -1.957193950659612,
                1.9600557624092616,
                -0.8661453880842324,
                -1.0470281523669422,
                -1.4619164072144948
            ]
        },
        {
            "positions": [
                0.7874478540166694,
                -1.9856469924006914,
                1.9602410445854133,
                -0.8839076017048774,
                -1.1796484019163374,
                -1.3744469013379113
            ]
        },
        {
            "positions": [
                0.9104090778432343,
                -2.014100034141771,
                1.960426326761565,
                -0.9016698153255225,
                -1.3122686514657325,
                -1.286977395461328
            ]
        },
        {
            "positions": [
                1.0333703016697993,
                -2.0425530758828505,
                1.9606116089377164,
                -0.9194320289461675,
                -1.4448889010151276,
                -1.1995078895847444
            ]
        },
        {
            "positions": [
                1.1563315254963642,
                -2.07100611762393,
                1.960796891113868,
                -0.9371942425668125,
                -1.5775091505645222,
                -1.1120383837081609
            ]
        },
        {
            "positions": [
                1.2792927493229291,
                -2.0994591593650096,
                1.9609821732900194,
                -0.9549564561874575,
                -1.7101294001139173,
                -1.0245688778315771
            ]
        },
        {
            "positions": [
                1.402253973149494,
                -2.127912201106089,
                1.961167455466171,
                -0.9727186698081026,
                -1.842749649663313,
                -0.9370993719549934
            ]
        },
        {
            "positions": [
                1.525215196976059,
                -2.1563652428471682,
                1.9613527376423228,
                -0.9904808834287477,
                -1.9753698992127076,
                -0.8496298660784101
            ]
        },
        {
            "positions": [
                1.648176420802624,
                -2.184818284588248,
                1.9615380198184742,
                -1.0082430970493927,
                -2.1079901487621027,
                -0.7621603602018263
            ]
        },
        {
            "positions": [
                1.7711376446291887,
                -2.2132713263293273,
                1.9617233019946259,
                -1.0260053106700378,
                -2.2406103983114978,
                -0.674690854325243
            ]
        },
        {
            "positions": [
                1.619504768417872,
                -2.17569570331021,
                1.9632883400303265,
                -1.018788814009309,
                -2.136847741320519,
                -0.7636351064474798
            ]
        },
        {
            "positions": [
                1.4678718922065557,
                -2.1381200802910922,
                1.9648533780660271,
                -1.0115723173485804,
                -2.0330850843295405,
                -0.8525793585697166
            ]
        },
        {
            "positions": [
                1.316239015995239,
                -2.1005444572719743,
                1.9664184161017277,
                -1.0043558206878518,
                -1.929322427338562,
                -0.9415236106919533
            ]
        },
        {
            "positions": [
                1.1646061397839227,
                -2.0629688342528567,
                1.9679834541374281,
                -0.9971393240271231,
                -1.8255597703475837,
                -1.0304678628141901
            ]
        },
        {
            "positions": [
                1.012973263572606,
                -2.025393211233739,
                1.9695484921731288,
                -0.9899228273663945,
                -1.721797113356605,
                -1.119412114936427
            ]
        },
        {
            "positions": [
                0.8613403873612895,
                -1.9878175882146214,
                1.9711135302088294,
                -0.9827063307056658,
                -1.6180344563656264,
                -1.2083563670586637
            ]
        },
        {
            "positions": [
                0.7097075111499729,
                -1.9502419651955039,
                1.97267856824453,
                -0.9754898340449372,
                -1.5142717993746477,
                -1.2973006191809004
            ]
        },
        {
            "positions": [
                0.5580746349386565,
                -1.912666342176386,
                1.9742436062802307,
                -0.9682733373842085,
                -1.4105091423836693,
                -1.3862448713031372
            ]
        },
        {
            "positions": [
                0.4064417587273397,
                -1.8750907191572685,
                1.9758086443159313,
                -0.9610568407234799,
                -1.3067464853926907,
                -1.4751891234253742
            ]
        },
        {
            "positions": [
                0.2548088825160233,
                -1.8375150961381508,
                1.977373682351632,
                -0.9538403440627512,
                -1.202983828401712,
                -1.5641333755476108
            ]
        },
        {
            "positions": [
                0.10317600630470669,
                -1.7999394731190332,
                1.9789387203873323,
                -0.9466238474020225,
                -1.0992211714107336,
                -1.6530776276698476
            ]
        },
        {
            "positions": [
                -0.04845686990660969,
                -1.7623638500999155,
                1.980503758423033,
                -0.9394073507412939,
                -0.9954585144197552,
                -1.7420218797920843
            ]
        },
        {
            "positions": [
                -0.20008974611792651,
                -1.724788227080798,
                1.9820687964587336,
                -0.9321908540805652,
                -0.8916958574287763,
                -1.8309661319143211
            ]
        },
        {
            "positions": [
                -0.3517226223292429,
                -1.6872126040616804,
                1.9836338344944342,
                -0.9249743574198366,
                -0.7879332004377979,
                -1.919910384036558
            ]
        },
        {
            "positions": [
                -0.5033554985405595,
                -1.6496369810425626,
                1.9851988725301348,
                -0.917757860759108,
                -0.6841705434468195,
                -2.0088546361587944
            ]
        },
        {
            "positions": [
                -0.6549883747518757,
                -1.6120613580234449,
                1.9867639105658355,
                -0.9105413640983794,
                -0.5804078864558408,
                -2.0977988882810314
            ]
        },
        {
            "positions": [
                -0.8066212509631923,
                -1.5744857350043273,
                1.988328948601536,
                -0.9033248674376507,
                -0.47664522946486243,
                -2.186743140403268
            ]
        },
        {
            "positions": [
                -0.9582541271745093,
                -1.5369101119852098,
                1.9898939866372365,
                -0.896108370776922,
                -0.37288257247388357,
                -2.275687392525505
            ]
        },
        {
            "positions": [
                -1.109887003385826,
                -1.499334488966092,
                1.9914590246729371,
                -0.8888918741161933,
                -0.2691199154829049,
                -2.3646316446477416
            ]
        },
        {
            "positions": [
                -1.261519879597142,
                -1.4617588659469742,
                1.9930240627086377,
                -0.8816753774554648,
                -0.16535725849192628,
                -2.4535758967699786
            ]
        },
        {
            "positions": [
                -1.4131527558084587,
                -1.4241832429278567,
                1.9945891007443384,
                -0.8744588807947361,
                -0.06159460150094809,
                -2.5425201488922156
            ]
        },
        {
            "positions": [
                -1.5647856320197753,
                -1.3866076199087392,
                1.996154138780039,
                -0.8672423841340074,
                0.042168055490030554,
                -2.631464401014452
            ]
        },
        {
            "positions": [
                -1.7164185082310914,
                -1.3490319968896216,
                1.9977191768157396,
                -0.8600258874732788,
                0.1459307124810092,
                -2.7204086531366887
            ]
        },
        {
            "positions": [
                -1.868051384442408,
                -1.3114563738705038,
                1.9992842148514403,
                -0.8528093908125501,
                0.2496933694719874,
                -2.8093529052589257
            ]
        },
        {
            "positions": [
                -2.019684260653725,
                -1.273880750851386,
                2.0008492528871407,
                -0.8455928941518215,
                0.3534560264629665,
                -2.8982971573811627
            ]
        },
        {
            "positions": [
                -2.1713171368650417,
                -1.2363051278322685,
                2.0024142909228413,
                -0.8383763974910928,
                0.4572186834539451,
                -2.9872414095033992
            ]
        },
        {
            "positions": [
                -2.3229500130763583,
                -1.1987295048131508,
                2.003979328958542,
                -0.8311599008303642,
                0.5609813404449233,
                -3.0761856616256362
            ]
        },
        {
            "positions": [
                -2.4745828892876744,
                -1.1611538817940332,
                2.0055443669942425,
                -0.8239434041696355,
                0.6647439974359021,
                -3.165129913747873
            ]
        }
    ]
}