{
    "goal": {
        "global_pose": {
            "orientation": {
                "w": -0.00223480608172531,
                "x": 0.0024358444001904467,
                "y": 0.7094548369677653,
                "z": -0.704743149386269
            },
            "position": {
                "x": 0.6205249238014221,
                "y": -0.6371506643295288,
                "z": 0.19426114857196808
            }
        },
        "name": "move_to_magneteinheit_B"
    },
    "id": "KPIECE_move_to_magneteinheit_B_53",
    "joint_names": [
        "shoulder_pan_joint",
        "shoulder_lift_joint",
        "elbow_joint",
        "wrist_1_joint",
        "wrist_2_joint",
        "wrist_3_joint"
    ],
    "metrics": {
        "cart_traj_len": 1.5460758627771645,
        "distance_elbow_joint": 0.9583342932322081,
        "distance_shoulder_lift_joint": 0.7815439434033106,
        "distance_shoulder_pan_joint": 1.6210432517391513,
        "distance_wrist_1_joint": 0.44148956600063105,
        "distance_wrist_2_joint": 2.9118345626687296,
        "distance_wrist_3_joint": 1.6137875737528948,
        "smoothness": 0.5374369294334954,
        "time": 0.42979736,
        "traj_len": 2.8858331883178776,
        "weighted_distance": 3.861208679542208
    },
    "planner": "KPIECE",
    "start": {
        "state": {
            "elbow_joint": 2.6216224122426386,
            "shoulder_lift_joint": -1.4174107377796124,
            "shoulder_pan_joint": 0.7066234856936794,
            "wrist_1_joint": 1.9546482284002225,
            "wrist_2_joint": -0.7096286983471962,
            "wrist_3_joint": 0.005740856962016249
        }
    },
    "waypoints": [
        {
            "positions": [
                0.7066234856936794,
                -1.4174107377796124,
                2.6216224122426386,
                1.9546482284002225,
                -0.7096286983471962,
                0.005740856962016249
            ]
        },
        {
            "positions": [
                0.6170837777011128,
                -1.4194667989114254,
                2.5743646528471897,
                1.943137539506706,
                -0.6199138631599396,
                -0.09890845335975315
            ]
        },
        {
            "positions": [
                0.5275440697085463,
                -1.4215228600432386,
                2.5271068934517404,
                1.93162685061319,
                -0.5301990279726829,
                -0.20355776368152254
            ]
        },
        {
            "positions": [
                0.4380043617159797,
                -1.4235789211750516,
                2.4798491340562916,
                1.9201161617196738,
                -0.44048419278542617,
                -0.30820707400329195
            ]
        },
        {
            "positions": [
                0.3484646537234131,
                -1.4256349823068646,
                2.4325913746608427,
                1.9086054728261574,
                -0.3507693575981695,
                -0.41285638432506133
            ]
        },
        {
            "positions": [
                0.2589249457308465,
                -1.4276910434386778,
                2.3853336152653934,
                1.897094783932641,
                -0.26105452241091276,
                -0.5175056946468308
            ]
        },
        {
            "positions": [
                0.16938523773828001,
                -1.4297471045704908,
                2.3380758558699446,
                1.885584095039125,
                -0.17133968722365614,
                -0.6221550049686002
            ]
        },
        {
            "positions": [
                0.06809847282700686,
                -1.4243127868055427,
                2.254916798077353,
                1.8654349014371954,
                -0.11950072506465985,
                -0.6837894140318707
            ]
        },
        {
            "positions": [
                -0.033188292084266297,
                -1.4188784690405944,
                2.1717577402847605,
                1.845285707835266,
                -0.06766176290566356,
                -0.7454238230951411
            ]
        },
        {
            "positions": [
                -0.13447505699553947,
                -1.4134441512756464,
                2.0885986824921687,
                1.8251365142333364,
                -0.015822800746667247,
                -0.8070582321584115
            ]
        },
        {
            "positions": [
                -0.19018539335624893,
                -1.3596652496101045,
                2.0582193565291873,
                1.8474206465071754,
                -0.17425341968011016,
                -0.7498447689703782
            ]
        },
        {
            "positions": [
                -0.2458957297169584,
                -1.3058863479445624,
                2.0278400305662063,
                1.8697047787810144,
                -0.33268403861355306,
                -0.6926313057823449
            ]
        },
        {
            "positions": [
                -0.3016060660776678,
                -1.2521074462790205,
                1.997460704603225,
                1.8919889110548533,
                -0.49111465754699596,
                -0.6354178425943116
            ]
        },
        {
            "positions": [
                -0.3573164024383773,
                -1.1983285446134784,
                1.9670813786402435,
                1.914273043328692,
                -0.6495452764804388,
                -0.5782043794062781
            ]
        },
        {
            "positions": [
                -0.4130267387990868,
                -1.1445496429479365,
                1.9367020526772623,
                1.936557175602531,
                -0.8079758954138818,
                -0.5209909162182448
            ]
        },
        {
            "positions": [
                -0.46873707515979623,
                -1.0907707412823946,
                1.906322726714281,
                1.95884130787637,
                -0.9664065143473246,
                -0.46377745303021145
            ]
        },
        {
            "positions": [
                -0.5244474115205058,
                -1.0369918396168525,
                1.8759434007512996,
                1.981125440150209,
                -1.1248371332807676,
                -0.40656398984217806
            ]
        },
        {
            "positions": [
                -0.5801577478812152,
                -0.9832129379513106,
                1.8455640747883184,
                2.0034095724240477,
                -1.2832677522142104,
                -0.34935052665414473
            ]
        },
        {
            "positions": [
                -0.6358680842419246,
                -0.9294340362857685,
                1.815184748825337,
                2.0256937046978867,
                -1.4416983711476536,
                -0.29213706346611135
            ]
        },
        {
            "positions": [
                -0.6915784206026341,
                -0.8756551346202266,
                1.7848054228623558,
                2.0479778369717256,
                -1.6001289900810964,
                -0.23492360027807802
            ]
        },
        {
            "positions": [
                -0.7472887569633435,
                -0.8218762329546846,
                1.7544260968993743,
                2.0702619692455646,
                -1.7585596090145392,
                -0.17771013709004468
            ]
        },
        {
            "positions": [
                -0.802999093324053,
                -0.7680973312891427,
                1.7240467709363931,
                2.0925461015194036,
                -1.916990227947982,
                -0.12049667390201135
            ]
        },
        {
            "positions": [
                -0.8587094296847626,
                -0.7143184296236007,
                1.6936674449734117,
                2.1148302337932425,
                -2.0754208468814253,
                -0.06328321071397791
            ]
        },
        {
            "positions": [
                -0.914419766045472,
                -0.6605395279580587,
                1.6632881190104305,
                2.1371143660670815,
                -2.233851465814868,
                -0.006069747525944534
            ]
        }
    ]
}