{
    "goal": {
        "global_pose": {
            "orientation": {
                "w": 0.7047431468963623,
                "x": -0.7094548344612122,
                "y": 0.0024358443915843964,
                "z": -0.0022348060738295317
            },
            "position": {
                "x": 0.6094750761985779,
                "y": 0.3671506643295288,
                "z": 0.19426114857196808
            }
        },
        "name": "move_to_magneteinheit_A"
    },
    "id": "KPIECE_move_to_magneteinheit_A_38",
    "joint_names": [
        "shoulder_pan_joint",
        "shoulder_lift_joint",
        "elbow_joint",
        "wrist_1_joint",
        "wrist_2_joint",
        "wrist_3_joint"
    ],
    "metrics": {
        "cart_traj_len": 3.5050863881659007,
        "distance_elbow_joint": 3.8761663536363544,
        "distance_shoulder_lift_joint": 0.11348998449573378,
        "distance_shoulder_pan_joint": 2.7623373824517645,
        "distance_wrist_1_joint": 0.8371619742866224,
        "distance_wrist_2_joint": 1.7087111994189643,
        "distance_wrist_3_joint": 2.584206266136745,
        "smoothness": 0.028704094450968477,
        "time": 0.18177694300000002,
        "traj_len": 3.4470383172262795,
        "weighted_distance": 4.426777481013165
    },
    "planner": "KPIECE",
    "start": {
        "state": {
            "elbow_joint": -1.9196185241190666,
            "shoulder_lift_joint": -1.2443396400964142,
            "shoulder_pan_joint": 2.6996025414629847,
            "wrist_1_joint": -1.5485510000780065,
            "wrist_2_joint": -1.5709468930060704,
            "wrist_3_joint": 0.4420197071253992
        }
    },
    "waypoints": [
        {
            "positions": [
                2.6996025414629847,
                -1.2443396400964142,
                -1.9196185241190666,
                -1.5485510000780065,
                -1.5709468930060704,
                0.4420197071253992
            ]
        },
        {
            "positions": [
                2.5883730200049433,
                -1.2409757984666339,
                -1.8066691000981077,
                -1.5172221011872349,
                -1.5142276576354612,
                0.5087249517315319
            ]
        },
        {
            "positions": [
                2.4771434985469023,
                -1.2376119568368535,
                -1.6937196760771487,
                -1.4858932022964635,
                -1.457508422264852,
                0.5754301963376647
            ]
        },
        {
            "positions": [
                2.3659139770888613,
                -1.2342481152070732,
                -1.58077025205619,
                -1.4545643034056919,
                -1.4007891868942428,
                0.6421354409437974
            ]
        },
        {
            "positions": [
                2.25468445563082,
                -1.2308842735772927,
                -1.467820828035231,
                -1.4232354045149203,
                -1.3440699515236336,
                0.7088406855499301
            ]
        },
        {
            "positions": [
                2.1434549341727784,
                -1.2275204319475124,
                -1.354871404014272,
                -1.3919065056241486,
                -1.2873507161530244,
                0.7755459301560629
            ]
        },
        {
            "positions": [
                2.0322254127147374,
                -1.224156590317732,
                -1.241921979993313,
                -1.3605776067333772,
                -1.2306314807824152,
                0.8422511747621956
            ]
        },
        {
            "positions": [
                1.9209958912566962,
                -1.2207927486879517,
                -1.128972555972354,
                -1.3292487078426056,
                -1.173912245411806,
                0.9089564193683284
            ]
        },
        {
            "positions": [
                1.809766369798655,
                -1.2174289070581714,
                -1.0160231319513953,
                -1.2979198089518342,
                -1.117193010041197,
                0.975661663974461
            ]
        },
        {
            "positions": [
                1.6985368483406138,
                -1.2140650654283909,
                -0.9030737079304361,
                -1.2665909100610624,
                -1.0604737746705877,
                1.0423669085805938
            ]
        },
        {
            "positions": [
                1.5873073268825726,
                -1.2107012237986106,
                -0.7901242839094771,
                -1.235262011170291,
                -1.0037545392999787,
                1.1090721531867267
            ]
        },
        {
            "positions": [
                1.4760778054245314,
                -1.2073373821688302,
                -0.6771748598885183,
                -1.2039331122795194,
                -0.9470353039293694,
                1.1757773977928592
            ]
        },
        {
            "positions": [
                1.3648482839664902,
                -1.20397354053905,
                -0.5642254358675594,
                -1.1726042133887478,
                -0.8903160685587602,
                1.242482642398992
            ]
        },
        {
            "positions": [
                1.253618762508449,
                -1.2006096989092696,
                -0.4512760118466006,
                -1.1412753144979764,
                -0.8335968331881511,
                1.3091878870051246
            ]
        },
        {
            "positions": [
                1.1423892410504077,
                -1.1972458572794893,
                -0.3383265878256414,
                -1.1099464156072048,
                -0.7768775978175418,
                1.3758931316112575
            ]
        },
        {
            "positions": [
                1.0311597195923665,
                -1.193882015649709,
                -0.22537716380468265,
                -1.0786175167164331,
                -0.7201583624469327,
                1.4425983762173904
            ]
        },
        {
            "positions": [
                0.9199301981343253,
                -1.1905181740199284,
                -0.11242773978372367,
                -1.0472886178256617,
                -0.6634391270763236,
                1.5093036208235229
            ]
        },
        {
            "positions": [
                0.8087006766762841,
                -1.1871543323901481,
                0.0005216842372355313,
                -1.0159597189348901,
                -0.6067198917057143,
                1.5760088654296558
            ]
        },
        {
            "positions": [
                0.6974711552182429,
                -1.1837904907603678,
                0.11347110825819451,
                -0.9846308200441185,
                -0.5500006563351052,
                1.6427141100357883
            ]
        },
        {
            "positions": [
                0.5862416337602019,
                -1.1804266491305875,
                0.22642053227915326,
                -0.953301921153347,
                -0.493281420964496,
                1.7094193546419212
            ]
        },
        {
            "positions": [
                0.47501211230216045,
                -1.1770628075008072,
                0.33936995630011246,
                -0.9219730222625754,
                -0.4365621855938868,
                1.776124599248054
            ]
        },
        {
            "positions": [
                0.36378259084411946,
                -1.1736989658710266,
                0.4523193803210712,
                -0.8906441233718039,
                -0.37984295022327763,
                1.8428298438541866
            ]
        },
        {
            "positions": [
                0.252553069386078,
                -1.1703351242412463,
                0.56526880434203,
                -0.8593152244810324,
                -0.32312371485266844,
                1.909535088460319
            ]
        },
        {
            "positions": [
                0.14132354792803659,
                -1.166971282611466,
                0.6782182283629892,
                -0.8279863255902608,
                -0.26640447948205925,
                1.976240333066452
            ]
        },
        {
            "positions": [
                0.030094026469995518,
                -1.1636074409816857,
                0.7911676523839479,
                -0.7966574266994892,
                -0.2096852441114501,
                2.042945577672585
            ]
        },
        {
            "positions": [
                0.04123498872232528,
                -1.1592068169813967,
                0.9526903698422056,
                -0.7845005090815709,
                -0.1612696552901588,
                2.179563848970888
            ]
        },
        {
            "positions": [
                0.05237595097465504,
                -1.1548061929811075,
                1.1142130873004632,
                -0.7723435914636526,
                -0.11285406646886752,
                2.316182120269191
            ]
        },
        {
            "positions": [
                0.0635169132269848,
                -1.1504055689808186,
                1.275735804758721,
                -0.7601866738457342,
                -0.06443847764757624,
                2.4528003915674943
            ]
        },
        {
            "positions": [
                0.07465787547931457,
                -1.1460049449805296,
                1.4372585222169787,
                -0.7480297562278159,
                -0.016022888826284942,
                2.5894186628657976
            ]
        },
        {
            "positions": [
                0.08579883773164435,
                -1.1416043209802407,
                1.5987812396752363,
                -0.7358728386098975,
                0.03239269999500635,
                2.7260369341641004
            ]
        },
        {
            "positions": [
                0.09693979998397409,
                -1.1372036969799515,
                1.7603039571334942,
                -0.7237159209919792,
                0.08080828881629762,
                2.8626552054624037
            ]
        },
        {
            "positions": [
                0.10808076223630386,
                -1.1328030729796625,
                1.9218266745917518,
                -0.7115590033740609,
                0.12922387763758894,
                2.999273476760707
            ]
        },
        {
            "positions": [
                0.12292289392876933,
                -1.1308496556006804,
                1.9565478295172865,
                -0.7113890257913841,
                0.1377643064128936,
                3.0262259732621444
            ]
        }
    ]
}