{
    "goal": {
        "global_pose": {
            "orientation": {
                "w": 0.7031023502349854,
                "x": -0.7110244035720825,
                "y": 0.007748599164187908,
                "z": 0.005598929710686207
            },
            "position": {
                "x": 0.11585023208521307,
                "y": 0.44412534475326537,
                "z": 0.3711530566215515
            }
        },
        "name": "move_to_auspresseinheit_A"
    },
    "id": "KPIECE_move_to_auspresseinheit_A_82",
    "joint_names": [
        "shoulder_pan_joint",
        "shoulder_lift_joint",
        "elbow_joint",
        "wrist_1_joint",
        "wrist_2_joint",
        "wrist_3_joint"
    ],
    "metrics": {
        "cart_traj_len": 1.7544282637357675,
        "distance_elbow_joint": 1.0030460540083448,
        "distance_shoulder_lift_joint": 0.5349322318863432,
        "distance_shoulder_pan_joint": 2.642182701477817,
        "distance_wrist_1_joint": 5.606755865072954,
        "distance_wrist_2_joint": 4.01932505442609,
        "distance_wrist_3_joint": 5.67081896044952,
        "smoothness": 0.6426680037406872,
        "time": 0.271488548,
        "traj_len": 4.413282323545717,
        "weighted_distance": 6.359621034913885
    },
    "planner": "KPIECE",
    "start": {
        "state": {
            "elbow_joint": 2.4225746658250005,
            "shoulder_lift_joint": -1.3736534386056498,
            "shoulder_pan_joint": -0.3378633547517467,
            "wrist_1_joint": -1.0288598680537169,
            "wrist_2_joint": 1.233022673432363,
            "wrist_3_joint": -3.0940220416140027
        }
    },
    "waypoints": [
        {
            "positions": [
                -0.3378633547517467,
                -1.3736534386056498,
                2.4225746658250005,
                -1.0288598680537169,
                1.233022673432363,
                -3.0940220416140027
            ]
        },
        {
            "positions": [
                -0.36982415321987794,
                -1.3895004764646743,
                2.4019983367204683,
                -0.9058116791546181,
                1.1419687657631057,
                -2.981388276983718
            ]
        },
        {
            "positions": [
                -0.4017849516880092,
                -1.4053475143236989,
                2.3814220076159356,
                -0.7827634902555194,
                1.0509148580938485,
                -2.868754512353433
            ]
        },
        {
            "positions": [
                -0.4337457501561404,
                -1.4211945521827234,
                2.3608456785114034,
                -0.6597153013564206,
                0.9598609504245912,
                -2.7561207477231484
            ]
        },
        {
            "positions": [
                -0.4657065486242717,
                -1.4370415900417481,
                2.3402693494068707,
                -0.5366671124573219,
                0.868807042755334,
                -2.6434869830928633
            ]
        },
        {
            "positions": [
                -0.4976673470924029,
                -1.4528886279007727,
                2.3196930203023385,
                -0.41361892355822305,
                0.7777531350860767,
                -2.5308532184625787
            ]
        },
        {
            "positions": [
                -0.5296281455605342,
                -1.4687356657597972,
                2.2991166911978063,
                -0.2905707346591244,
                0.6866992274168194,
                -2.418219453832294
            ]
        },
        {
            "positions": [
                -0.5615889440286654,
                -1.4845827036188217,
                2.2785403620932736,
                -0.16752254576002557,
                0.5956453197475622,
                -2.305585689202009
            ]
        },
        {
            "positions": [
                -0.5935497424967966,
                -1.5004297414778462,
                2.2579640329887414,
                -0.04447435686092682,
                0.5045914120783049,
                -2.1929519245717244
            ]
        },
        {
            "positions": [
                -0.6255105409649279,
                -1.5162767793368708,
                2.2373877038842087,
                0.0785738320381717,
                0.4135375044090477,
                -2.0803181599414398
            ]
        },
        {
            "positions": [
                -0.6574713394330591,
                -1.5321238171958953,
                2.2168113747796765,
                0.20162202093727077,
                0.3224835967397903,
                -1.967684395311155
            ]
        },
        {
            "positions": [
                -0.6894321379011903,
                -1.5479708550549198,
                2.1962350456751443,
                0.3246702098363694,
                0.23142968907053318,
                -1.85505063068087
            ]
        },
        {
            "positions": [
                -0.7213929363693216,
                -1.5638178929139444,
                2.1756587165706116,
                0.44771839873546804,
                0.14037578140127582,
                -1.7424168660505854
            ]
        },
        {
            "positions": [
                -0.7533537348374528,
                -1.579664930772969,
                2.1550823874660794,
                0.5707665876345669,
                0.049321873732018684,
                -1.6297831014203004
            ]
        },
        {
            "positions": [
                -0.7853145333055841,
                -1.5955119686319936,
                2.1345060583615467,
                0.6938147765336657,
                -0.04173203393723868,
                -1.5171493367900155
            ]
        },
        {
            "positions": [
                -0.8172753317737153,
                -1.6113590064910182,
                2.1139297292570145,
                0.8168629654327642,
                -0.13278594160649582,
                -1.4045155721597309
            ]
        },
        {
            "positions": [
                -0.8492361302418465,
                -1.6272060443500427,
                2.0933534001524823,
                0.9399111543318632,
                -0.22383984927575318,
                -1.291881807529446
            ]
        },
        {
            "positions": [
                -0.8811969287099779,
                -1.6430530822090672,
                2.0727770710479496,
                1.0629593432309619,
                -0.31489375694501054,
                -1.1792480428991612
            ]
        },
        {
            "positions": [
                -0.9131577271781091,
                -1.6589001200680917,
                2.0522007419434174,
                1.1860075321300603,
                -0.4059476646142677,
                -1.0666142782688768
            ]
        },
        {
            "positions": [
                -0.9451185256462402,
                -1.6747471579271163,
                2.0316244128388847,
                1.3090557210291596,
                -0.49700157228352504,
                -0.9539805136385917
            ]
        },
        {
            "positions": [
                -0.9770793241143716,
                -1.690594195786141,
                2.0110480837343525,
                1.4321039099282584,
                -0.5880554799527824,
                -0.8413467490083071
            ]
        },
        {
            "positions": [
                -1.0090401225825028,
                -1.7064412336451653,
                1.99047175462982,
                1.5551520988273568,
                -0.6791093876220393,
                -0.7287129843780225
            ]
        },
        {
            "positions": [
                -1.041000921050634,
                -1.72228827150419,
                1.9698954255252876,
                1.6782002877264557,
                -0.7701632952912967,
                -0.6160792197477374
            ]
        },
        {
            "positions": [
                -1.0729617195187653,
                -1.7381353093632146,
                1.9493190964207554,
                1.8012484766255545,
                -0.8612172029605543,
                -0.5034454551174523
            ]
        },
        {
            "positions": [
                -1.1049225179868964,
                -1.7539823472222391,
                1.928742767316223,
                1.924296665524653,
                -0.9522711106298114,
                -0.39081169048716813
            ]
        },
        {
            "positions": [
                -1.1368833164550276,
                -1.7698293850812636,
                1.9081664382116905,
                2.0473448544237516,
                -1.0433250182990688,
                -0.27817792585688306
            ]
        },
        {
            "positions": [
                -1.0631568068640462,
                -1.7753796364976928,
                1.9277119512674918,
                1.946122808719932,
                -0.9736059237912824,
                -0.3923769196445792
            ]
        },
        {
            "positions": [
                -0.9894302972730648,
                -1.780929887914122,
                1.9472574643232934,
                1.8449007630161125,
                -0.9038868292834962,
                -0.5065759134322754
            ]
        },
        {
            "positions": [
                -0.9157037876820834,
                -1.7864801393305512,
                1.9668029773790947,
                1.743678717312293,
                -0.8341677347757098,
                -0.6207749072199715
            ]
        },
        {
            "positions": [
                -0.8419772780911019,
                -1.7920303907469803,
                1.986348490434896,
                1.6424566716084734,
                -0.7644486402679236,
                -0.7349739010076677
            ]
        },
        {
            "positions": [
                -0.7682507685001205,
                -1.7975806421634095,
                2.0058940034906976,
                1.5412346259046537,
                -0.6947295457601372,
                -0.849172894795364
            ]
        },
        {
            "positions": [
                -0.6945242589091392,
                -1.8031308935798387,
                2.025439516546499,
                1.4400125802008343,
                -0.6250104512523509,
                -0.9633718885830601
            ]
        },
        {
            "positions": [
                -0.6207977493181577,
                -1.8086811449962679,
                2.0449850296023,
                1.3387905344970146,
                -0.5552913567445645,
                -1.0775708823707564
            ]
        },
        {
            "positions": [
                -0.5470712397271763,
                -1.814231396412697,
                2.0645305426581015,
                1.237568488793195,
                -0.4855722622367783,
                -1.1917698761584523
            ]
        },
        {
            "positions": [
                -0.47334473013619494,
                -1.8197816478291262,
                2.084076055713903,
                1.1363464430893755,
                -0.41585316772899206,
                -1.3059688699461487
            ]
        },
        {
            "positions": [
                -0.39961822054521345,
                -1.8253318992455554,
                2.1036215687697046,
                1.035124397385556,
                -0.3461340732212057,
                -1.4201678637338448
            ]
        },
        {
            "positions": [
                -0.3258917109542321,
                -1.8308821506619846,
                2.123167081825506,
                0.9339023516817364,
                -0.27641497871341936,
                -1.534366857521541
            ]
        },
        {
            "positions": [
                -0.2521652013632506,
                -1.8364324020784137,
                2.1427125948813073,
                0.8326803059779169,
                -0.20669588420563312,
                -1.6485658513092372
            ]
        },
        {
            "positions": [
                -0.17843869177226923,
                -1.841982653494843,
                2.1622581079371086,
                0.7314582602740971,
                -0.13697678969784677,
                -1.7627648450969333
            ]
        },
        {
            "positions": [
                -0.10471218218128775,
                -1.847532904911272,
                2.18180362099291,
                0.6302362145702776,
                -0.06725769519006042,
                -1.8769638388846297
            ]
        },
        {
            "positions": [
                -0.03098567259030638,
                -1.8530831563277013,
                2.2013491340487112,
                0.529014168866458,
                0.002461399317725821,
                -1.9911628326723256
            ]
        },
        {
            "positions": [
                0.04274083700067499,
                -1.8586334077441304,
                2.220894647104513,
                0.4277921231626385,
                0.07218049382551217,
                -2.1053618264600216
            ]
        },
        {
            "positions": [
                0.11646734659165658,
                -1.8641836591605596,
                2.2404401601603143,
                0.3265700774588187,
                0.14189958833329852,
                -2.219560820247718
            ]
        },
        {
            "positions": [
                0.19019385618263773,
                -1.8697339105769888,
                2.2599856732161157,
                0.2253480317549994,
                0.21161868284108465,
                -2.3337598140354143
            ]
        },
        {
            "positions": [
                0.2639203657736193,
                -1.875284161993418,
                2.279531186271917,
                0.12412598605117986,
                0.281337777348871,
                -2.4479588078231105
            ]
        },
        {
            "positions": [
                0.3376468753646007,
                -1.8808344134098471,
                2.2990766993277183,
                0.02290394034736032,
                0.35105687185665735,
                -2.5621578016108066
            ]
        },
        {
            "positions": [
                0.41137338495558207,
                -1.8863846648262763,
                2.3186222123835196,
                -0.07831810535645944,
                0.4207759663644437,
                -2.676356795398503
            ]
        },
        {
            "positions": [
                0.48509989454656344,
                -1.8919349162427055,
                2.3381677254393214,
                -0.17954015106027876,
                0.49049506087223005,
                -2.790555789186199
            ]
        },
        {
            "positions": [
                0.558826404137545,
                -1.8974851676591347,
                2.3577132384951227,
                -0.2807621967640985,
                0.5602141553800164,
                -2.904754782973895
            ]
        },
        {
            "positions": [
                0.6325529137285264,
                -1.9030354190755638,
                2.377258751550924,
                -0.38198424246791784,
                0.6299332498878025,
                -3.0189537767615913
            ]
        },
        {
            "positions": [
                0.7062794233195078,
                -1.908585670491993,
                2.3968042646067254,
                -0.48320628817173783,
                0.6996523443955888,
                -3.1331527705492874
            ]
        }
    ]
}