{
    "goal": {
        "global_pose": {
            "orientation": {
                "w": 0.7047431468963623,
                "x": -0.7094548344612122,
                "y": 0.0024358443915843964,
                "z": -0.0022348060738295317
            },
            "position": {
                "x": 0.6094750761985779,
                "y": 0.3671506643295288,
                "z": 0.19426114857196808
            }
        },
        "name": "move_to_magneteinheit_A"
    },
    "id": "KPIECE_move_to_magneteinheit_A_19",
    "joint_names": [
        "shoulder_pan_joint",
        "shoulder_lift_joint",
        "elbow_joint",
        "wrist_1_joint",
        "wrist_2_joint",
        "wrist_3_joint"
    ],
    "metrics": {
        "cart_traj_len": 3.4549157009617404,
        "distance_elbow_joint": 3.9113337575576246,
        "distance_shoulder_lift_joint": 0.8181708512632532,
        "distance_shoulder_pan_joint": 2.9884128810819792,
        "distance_wrist_1_joint": 3.682338186817323,
        "distance_wrist_2_joint": 2.478417864594845,
        "distance_wrist_3_joint": 0.5071181435545165,
        "smoothness": 0.4168399519003951,
        "time": 0.11741076,
        "traj_len": 3.792860620279835,
        "weighted_distance": 4.643359131425303
    },
    "planner": "KPIECE",
    "start": {
        "state": {
            "elbow_joint": -1.9196185241190666,
            "shoulder_lift_joint": -1.2443396400964142,
            "shoulder_pan_joint": 2.6996025414629847,
            "wrist_1_joint": -1.5485510000780065,
            "wrist_2_joint": -1.5709468930060704,
            "wrist_3_joint": 0.4420197071253992
        }
    },
    "waypoints": [
        {
            "positions": [
                2.6996025414629847,
                -1.2443396400964142,
                -1.9196185241190666,
                -1.5485510000780065,
                -1.5709468930060704,
                0.4420197071253992
            ]
        },
        {
            "positions": [
                2.603894437171849,
                -1.2210120314240784,
                -1.8386457051267249,
                -1.4447678606988437,
                -1.4898198020200544,
                0.4433555611236367
            ]
        },
        {
            "positions": [
                2.5081863328807126,
                -1.197684422751743,
                -1.7576728861343833,
                -1.340984721319681,
                -1.4086927110340384,
                0.4446914151218742
            ]
        },
        {
            "positions": [
                2.4124782285895767,
                -1.1743568140794072,
                -1.6767000671420416,
                -1.2372015819405182,
                -1.3275656200480224,
                0.44602726912011176
            ]
        },
        {
            "positions": [
                2.3167701242984404,
                -1.1510292054070714,
                -1.5957272481497,
                -1.1334184425613554,
                -1.2464385290620064,
                0.4473631231183493
            ]
        },
        {
            "positions": [
                2.2210620200073046,
                -1.127701596734736,
                -1.514754429157358,
                -1.0296353031821925,
                -1.1653114380759904,
                0.4486989771165868
            ]
        },
        {
            "positions": [
                2.1253539157161683,
                -1.1043739880624002,
                -1.4337816101650165,
                -0.9258521638030298,
                -1.0841843470899744,
                0.45003483111482434
            ]
        },
        {
            "positions": [
                2.0296458114250324,
                -1.0810463793900644,
                -1.3528087911726747,
                -0.822069024423867,
                -1.0030572561039584,
                0.4513706851130619
            ]
        },
        {
            "positions": [
                1.9339377071338963,
                -1.057718770717729,
                -1.2718359721803332,
                -0.7182858850447043,
                -0.9219301651179423,
                0.4527065391112994
            ]
        },
        {
            "positions": [
                1.8382296028427603,
                -1.0343911620453932,
                -1.1908631531879914,
                -0.6145027456655414,
                -0.8408030741319263,
                0.4540423931095369
            ]
        },
        {
            "positions": [
                1.742521498551624,
                -1.0110635533730576,
                -1.1098903341956496,
                -0.5107196062863786,
                -0.7596759831459103,
                0.45537824710777447
            ]
        },
        {
            "positions": [
                1.6468133942604881,
                -0.9877359447007219,
                -1.028917515203308,
                -0.40693646690721597,
                -0.6785488921598943,
                0.45671410110601196
            ]
        },
        {
            "positions": [
                1.551105289969352,
                -0.9644083360283862,
                -0.9479446962109663,
                -0.30315332752805313,
                -0.5974218011738783,
                0.4580499551042495
            ]
        },
        {
            "positions": [
                1.455397185678216,
                -0.9410807273560506,
                -0.8669718772186248,
                -0.19937018814889051,
                -0.5162947101878623,
                0.45938580910248705
            ]
        },
        {
            "positions": [
                1.35968908138708,
                -0.9177531186837149,
                -0.7859990582262828,
                -0.09558704876972746,
                -0.4351676192018463,
                0.46072166310072454
            ]
        },
        {
            "positions": [
                1.2639809770959438,
                -0.8944255100113792,
                -0.7050262392339413,
                0.008196090609435158,
                -0.3540405282158303,
                0.4620575170989621
            ]
        },
        {
            "positions": [
                1.168272872804808,
                -0.8710979013390436,
                -0.6240534202415997,
                0.111979229988598,
                -0.2729134372298143,
                0.46339337109719964
            ]
        },
        {
            "positions": [
                1.0725647685136717,
                -0.8477702926667079,
                -0.5430806012492577,
                0.21576236936776083,
                -0.1917863462437983,
                0.4647292250954371
            ]
        },
        {
            "positions": [
                0.9768566642225358,
                -0.8244426839943723,
                -0.4621077822569162,
                0.31954550874692367,
                -0.11065925525778231,
                0.4660650790936747
            ]
        },
        {
            "positions": [
                0.8811485599313997,
                -0.8011150753220366,
                -0.38113496326457463,
                0.4233286481260863,
                -0.029532164271766304,
                0.4674009330919122
            ]
        },
        {
            "positions": [
                0.7854404556402634,
                -0.7777874666497009,
                -0.30016214427223264,
                0.5271117875052493,
                0.0515949267142497,
                0.4687367870901497
            ]
        },
        {
            "positions": [
                0.6897323513491274,
                -0.7544598579773653,
                -0.2191893252798911,
                0.6308949268844117,
                0.1327220177002657,
                0.47007264108838726
            ]
        },
        {
            "positions": [
                0.5940242470579915,
                -0.7311322493050296,
                -0.13821650628754956,
                0.7346780662635746,
                0.2138491086862817,
                0.4714084950866248
            ]
        },
        {
            "positions": [
                0.4983161427668552,
                -0.7078046406326939,
                -0.05724368729520757,
                0.8384612056427374,
                0.2949761996722977,
                0.4727443490848623
            ]
        },
        {
            "positions": [
                0.40260803847571935,
                -0.6844770319603583,
                0.02372913169713403,
                0.9422443450219001,
                0.37610329065831377,
                0.47408020308309984
            ]
        },
        {
            "positions": [
                0.36238522820967434,
                -0.6941021088092588,
                0.1584911448845521,
                1.036322843094394,
                0.33194809169325834,
                0.4079126843198068
            ]
        },
        {
            "positions": [
                0.3221624179436293,
                -0.7037271856581593,
                0.29325315807197017,
                1.1304013411668878,
                0.2877928927282029,
                0.3417451655565138
            ]
        },
        {
            "positions": [
                0.2819396076775843,
                -0.7133522625070599,
                0.42801517125938815,
                1.2244798392393816,
                0.2436376937631475,
                0.27557764679322083
            ]
        },
        {
            "positions": [
                0.24171679741153929,
                -0.7229773393559603,
                0.5627771844468064,
                1.3185583373118757,
                0.19948249479809207,
                0.2094101280299278
            ]
        },
        {
            "positions": [
                0.20149398714549427,
                -0.7326024162048609,
                0.6975391976342242,
                1.4126368353843695,
                0.15532729583303667,
                0.14324260926663485
            ]
        },
        {
            "positions": [
                0.16086238653351526,
                -0.7507278019958025,
                0.8495290864054802,
                1.5002280531800853,
                0.11240984306573082,
                0.12723455084750457
            ]
        },
        {
            "positions": [
                0.12023078592153626,
                -0.7688531877867442,
                1.0015189751767362,
                1.587819270975801,
                0.06949239029842497,
                0.11122649242837429
            ]
        },
        {
            "positions": [
                0.07959918530955726,
                -0.7869785735776857,
                1.1535088639479922,
                1.6754104887715169,
                0.026574937531119114,
                0.09521843400924401
            ]
        },
        {
            "positions": [
                0.038967584697578245,
                -0.8051039593686273,
                1.305498752719248,
                1.7630017065672325,
                -0.01634251523618674,
                0.07921037559011372
            ]
        },
        {
            "positions": [
                -0.0016640159144007682,
                -0.8232293451595689,
                1.4574886414905042,
                1.8505929243629484,
                -0.05925996800349259,
                0.06320231717098343
            ]
        },
        {
            "positions": [
                -0.04229561652637975,
                -0.8413547309505106,
                1.60947853026176,
                1.938184142158664,
                -0.10217742077079844,
                0.047194258751853166
            ]
        },
        {
            "positions": [
                -0.08292721713835877,
                -0.8594801167414522,
                1.761468419033016,
                2.02577535995438,
                -0.1450948735381043,
                0.031186200332722874
            ]
        },
        {
            "positions": [
                0.02001434410195911,
                -0.8178275375684005,
                1.8765918262357868,
                1.9717694465619122,
                -0.14001011517108353,
                0.015104377909503423
            ]
        },
        {
            "positions": [
                0.12295590534227699,
                -0.7761749583953489,
                1.9917152334385577,
                1.9177635331694445,
                -0.13492535680406276,
                -0.000977444513716029
            ]
        }
    ]
}