{
    "goal": {
        "global_pose": {
            "orientation": {
                "w": 0.7031023502349854,
                "x": -0.7110244035720825,
                "y": 0.007748599164187908,
                "z": 0.005598929710686207
            },
            "position": {
                "x": 0.11585023208521307,
                "y": 0.44412534475326537,
                "z": 0.3711530566215515
            }
        },
        "name": "move_to_auspresseinheit_A"
    },
    "id": "KPIECE_move_to_auspresseinheit_A_48",
    "joint_names": [
        "shoulder_pan_joint",
        "shoulder_lift_joint",
        "elbow_joint",
        "wrist_1_joint",
        "wrist_2_joint",
        "wrist_3_joint"
    ],
    "metrics": {
        "cart_traj_len": 0.6907263255666707,
        "distance_elbow_joint": 0.07182230036357184,
        "distance_shoulder_lift_joint": 0.5366198875202679,
        "distance_shoulder_pan_joint": 1.0452312798077155,
        "distance_wrist_1_joint": 0.5509182286993655,
        "distance_wrist_2_joint": 1.3437456998713082,
        "distance_wrist_3_joint": 3.819537069957392,
        "smoothness": 1.10364095256246,
        "time": 0.105019395,
        "traj_len": 2.7143828886543657,
        "weighted_distance": 4.111157079789712
    },
    "planner": "KPIECE",
    "start": {
        "state": {
            "elbow_joint": 2.4225746658250005,
            "shoulder_lift_joint": -1.3736534386056498,
            "shoulder_pan_joint": -0.3378633547517467,
            "wrist_1_joint": -1.0288598680537169,
            "wrist_2_joint": 1.233022673432363,
            "wrist_3_joint": -3.0940220416140027
        }
    },
    "waypoints": [
        {
            "positions": [
                -0.3378633547517467,
                -1.3736534386056498,
                2.4225746658250005,
                -1.0288598680537169,
                1.233022673432363,
                -3.0940220416140027
            ]
        },
        {
            "positions": [
                -0.2978202810360857,
                -1.4059034648621107,
                2.417659795344963,
                -1.0059908279567482,
                1.1400113158201002,
                -2.9042967261336865
            ]
        },
        {
            "positions": [
                -0.25777720732042475,
                -1.4381534911185716,
                2.412744924864925,
                -0.9831217878597797,
                1.0469999582078373,
                -2.71457141065337
            ]
        },
        {
            "positions": [
                -0.2177341336047638,
                -1.4704035173750325,
                2.407830054384888,
                -0.9602527477628111,
                0.9539886005955744,
                -2.5248460951730536
            ]
        },
        {
            "positions": [
                -0.17769105988910278,
                -1.5026535436314934,
                2.40291518390485,
                -0.9373837076658424,
                0.8609772429833115,
                -2.335120779692737
            ]
        },
        {
            "positions": [
                -0.13764798617344182,
                -1.5349035698879545,
                2.3980003134248125,
                -0.9145146675688739,
                0.7679658853710486,
                -2.1453954642124207
            ]
        },
        {
            "positions": [
                -0.09760491245778086,
                -1.5671535961444154,
                2.3930854429447748,
                -0.8916456274719053,
                0.6749545277587857,
                -1.9556701487321042
            ]
        },
        {
            "positions": [
                -0.0575618387421199,
                -1.5994036224008763,
                2.388170572464737,
                -0.8687765873749367,
                0.5819431701465229,
                -1.765944833251788
            ]
        },
        {
            "positions": [
                -0.017518765026458827,
                -1.6316536486573372,
                2.3832557019847,
                -0.8459075472779681,
                0.4889318125342599,
                -1.5762195177714713
            ]
        },
        {
            "positions": [
                0.022524308689202133,
                -1.663903674913798,
                2.378340831504662,
                -0.8230385071809995,
                0.395920454921997,
                -1.386494202291155
            ]
        },
        {
            "positions": [
                0.06256738240486308,
                -1.696153701170259,
                2.3734259610246244,
                -0.8001694670840309,
                0.3029090973097342,
                -1.1967688868108386
            ]
        },
        {
            "positions": [
                0.13421188714387483,
                -1.7199447706097766,
                2.375945249420535,
                -0.7643663751140666,
                0.34886822217069857,
                -1.4103559884946417
            ]
        },
        {
            "positions": [
                0.20585639188288657,
                -1.7437358400492942,
                2.3784645378164457,
                -0.7285632831441021,
                0.39482734703166295,
                -1.6239430901784446
            ]
        },
        {
            "positions": [
                0.2775008966218983,
                -1.767526909488812,
                2.3809838262123564,
                -0.6927601911741377,
                0.4407864718926273,
                -1.8375301918622475
            ]
        },
        {
            "positions": [
                0.3491454013609101,
                -1.7913179789283296,
                2.383503114608267,
                -0.6569570992041733,
                0.48674559675359175,
                -2.0511172935460507
            ]
        },
        {
            "positions": [
                0.42078990609992184,
                -1.8151090483678471,
                2.3860224030041777,
                -0.621154007234209,
                0.5327047216145562,
                -2.264704395229854
            ]
        },
        {
            "positions": [
                0.4924344108389336,
                -1.8389001178073647,
                2.3885416914000883,
                -0.5853509152642445,
                0.5786638464755205,
                -2.4782914969136565
            ]
        },
        {
            "positions": [
                0.5640789155779453,
                -1.8626911872468825,
                2.391060979795999,
                -0.5495478232942801,
                0.6246229713364849,
                -2.6918785985974596
            ]
        },
        {
            "positions": [
                0.635723420316957,
                -1.8864822566864001,
                2.3935802681919096,
                -0.5137447313243158,
                0.6705820961974492,
                -2.9054657002812627
            ]
        },
        {
            "positions": [
                0.7073679250559688,
                -1.9102733261259177,
                2.3960995565878203,
                -0.47794163935435136,
                0.7165412210584137,
                -3.119052801965066
            ]
        }
    ]
}