{
    "goal": {
        "global_pose": {
            "orientation": {
                "w": -0.4816463035849501,
                "x": 0.5182115481033762,
                "y": 0.4908360881923453,
                "z": -0.5084816262002911
            },
            "position": {
                "x": -0.8240239810943604,
                "y": 0.19912469901144506,
                "z": 0.16403168439865112
            }
        },
        "name": "move_to_storage_D"
    },
    "id": "KPIECE_move_to_storage_D_98",
    "joint_names": [
        "shoulder_pan_joint",
        "shoulder_lift_joint",
        "elbow_joint",
        "wrist_1_joint",
        "wrist_2_joint",
        "wrist_3_joint"
    ],
    "metrics": {
        "cart_traj_len": 3.7247234393419775,
        "distance_elbow_joint": 4.210280476880705,
        "distance_shoulder_lift_joint": 1.2644635573609528,
        "distance_shoulder_pan_joint": 2.813579869786999,
        "distance_wrist_1_joint": 2.270470419761523,
        "distance_wrist_2_joint": 0.8829690542261975,
        "distance_wrist_3_joint": 6.253213980145327,
        "smoothness": 0.09417951227835644,
        "time": 0.063839694,
        "traj_len": 4.20653983199514,
        "weighted_distance": 5.77536533843878
    },
    "planner": "KPIECE",
    "start": {
        "state": {
            "elbow_joint": -2.384821988534728,
            "shoulder_lift_joint": -2.2788054721415256,
            "shoulder_pan_joint": -0.1854694642142757,
            "wrist_1_joint": 1.4845938289331202,
            "wrist_2_joint": 0.17898776772866878,
            "wrist_3_joint": 0.037105688729662994
        }
    },
    "waypoints": [
        {
            "positions": [
                -0.1854694642142757,
                -2.2788054721415256,
                -2.384821988534728,
                1.4845938289331202,
                0.17898776772866878,
                0.037105688729662994
            ]
        },
        {
            "positions": [
                -0.09566642348327173,
                -2.2572316857480983,
                -2.246565323597779,
                1.4165073341621666,
                0.20518302828336044,
                -0.014764426114266843
            ]
        },
        {
            "positions": [
                -0.005863382752267748,
                -2.235657899354671,
                -2.108308658660831,
                1.348420839391213,
                0.23137828883805206,
                -0.06663454095819668
            ]
        },
        {
            "positions": [
                0.08393965797873623,
                -2.2140841129612436,
                -1.970051993723882,
                1.280334344620259,
                0.25757354939274374,
                -0.11850465580212655
            ]
        },
        {
            "positions": [
                0.1737426987097402,
                -2.1925103265678163,
                -1.8317953287869335,
                1.2122478498493054,
                0.28376880994743536,
                -0.17037477064605636
            ]
        },
        {
            "positions": [
                0.2635457394407442,
                -2.1709365401743894,
                -1.693538663849985,
                1.1441613550783518,
                0.30996407050212704,
                -0.2222448854899862
            ]
        },
        {
            "positions": [
                0.3533487801717482,
                -2.149362753780962,
                -1.5552819989130362,
                1.076074860307398,
                0.33615933105681867,
                -0.2741150003339161
            ]
        },
        {
            "positions": [
                0.4431518209027522,
                -2.1277889673875348,
                -1.4170253339760879,
                1.0079883655364443,
                0.3623545916115103,
                -0.3259851151778459
            ]
        },
        {
            "positions": [
                0.5329548616337562,
                -2.1062151809941074,
                -1.278768669039139,
                0.9399018707654907,
                0.38854985216620197,
                -0.3778552300217757
            ]
        },
        {
            "positions": [
                0.6227579023647601,
                -2.08464139460068,
                -1.1405120041021906,
                0.871815375994537,
                0.4147451127208936,
                -0.42972534486570557
            ]
        },
        {
            "positions": [
                0.7125609430957641,
                -2.0630676082072528,
                -1.002255339165242,
                0.8037288812235833,
                0.4409403732755852,
                -0.48159545970963535
            ]
        },
        {
            "positions": [
                0.802363983826768,
                -2.0414938218138254,
                -0.8639986742282935,
                0.7356423864526297,
                0.4671356338302769,
                -0.5334655745535652
            ]
        },
        {
            "positions": [
                0.8921670245577721,
                -2.019920035420398,
                -0.7257420092913447,
                0.6675558916816758,
                0.4933308943849686,
                -0.5853356893974951
            ]
        },
        {
            "positions": [
                0.9819700652887761,
                -1.998346249026971,
                -0.5874853443543961,
                0.5994693969107222,
                0.5195261549396601,
                -0.6372058042414249
            ]
        },
        {
            "positions": [
                1.07177310601978,
                -1.9767724626335437,
                -0.4492286794174476,
                0.5313829021397685,
                0.5457214154943518,
                -0.6890759190853548
            ]
        },
        {
            "positions": [
                1.161576146750784,
                -1.9551986762401166,
                -0.31097201448049905,
                0.46329640736881483,
                0.5719166760490435,
                -0.7409460339292846
            ]
        },
        {
            "positions": [
                1.251379187481788,
                -1.9336248898466892,
                -0.17271534954355028,
                0.3952099125978612,
                0.5981119366037351,
                -0.7928161487732144
            ]
        },
        {
            "positions": [
                1.3411822282127919,
                -1.912051103453262,
                -0.03445868460660195,
                0.32712341782690757,
                0.6243071971584268,
                -0.8446862636171443
            ]
        },
        {
            "positions": [
                1.4309852689437959,
                -1.8904773170598346,
                0.10379798033034682,
                0.2590369230559537,
                0.6505024577131184,
                -0.896556378461074
            ]
        },
        {
            "positions": [
                1.5207883096747998,
                -1.8689035306664072,
                0.24205464526729514,
                0.19095042828500008,
                0.67669771826781,
                -0.948426493305004
            ]
        },
        {
            "positions": [
                1.6105913504058038,
                -1.8473297442729801,
                0.3803113102042439,
                0.12286393351404645,
                0.7028929788225017,
                -1.0002966081489337
            ]
        },
        {
            "positions": [
                1.7003943911368076,
                -1.8257559578795528,
                0.5185679751411922,
                0.05477743874309282,
                0.7290882393771932,
                -1.0521667229928635
            ]
        },
        {
            "positions": [
                1.7901974318678116,
                -1.8041821714861255,
                0.656824640078141,
                -0.01330905602786081,
                0.7552834999318849,
                -1.1040368378367935
            ]
        },
        {
            "positions": [
                1.880000472598816,
                -1.7826083850926981,
                0.7950813050150898,
                -0.08139555079881489,
                0.7814787604865766,
                -1.1559069526807233
            ]
        },
        {
            "positions": [
                1.9698035133298197,
                -1.761034598699271,
                0.9333379699520385,
                -0.14948204556976852,
                0.8076740210412683,
                -1.2077770675246533
            ]
        },
        {
            "positions": [
                2.059606554060824,
                -1.7394608123058437,
                1.0715946348889869,
                -0.21756854034072215,
                0.83386928159596,
                -1.259647182368583
            ]
        },
        {
            "positions": [
                2.1494095947918277,
                -1.7178870259124164,
                1.2098512998259356,
                -0.2856550351116758,
                0.8600645421506515,
                -1.3115172972125129
            ]
        },
        {
            "positions": [
                2.239212635522832,
                -1.696313239518989,
                1.348107964762884,
                -0.3537415298826294,
                0.8862598027053432,
                -1.3633874120564426
            ]
        },
        {
            "positions": [
                2.3290156762538357,
                -1.6747394531255617,
                1.4863646296998327,
                -0.42182802465358327,
                0.9124550632600349,
                -1.4152575269003727
            ]
        },
        {
            "positions": [
                2.41881871698484,
                -1.6531656667321344,
                1.6246212946367815,
                -0.4899145194245369,
                0.9386503238147265,
                -1.4671276417443024
            ]
        },
        {
            "positions": [
                2.5086217577158436,
                -1.6315918803387073,
                1.7628779595737298,
                -0.5580010141954903,
                0.9648455843694181,
                -1.5189977565882322
            ]
        },
        {
            "positions": [
                2.516587667572969,
                -1.5904418826348317,
                1.7670499948252132,
                -0.5731927193043512,
                0.9713196668751147,
                -1.2058570542664033
            ]
        },
        {
            "positions": [
                2.5245535774300945,
                -1.549291884930956,
                1.7712220300766965,
                -0.5883844244132121,
                0.9777937493808112,
                -0.8927163519445745
            ]
        },
        {
            "positions": [
                2.5325194872872197,
                -1.5081418872270804,
                1.7753940653281797,
                -0.6035761295220731,
                0.9842678318865078,
                -0.5795756496227457
            ]
        },
        {
            "positions": [
                2.540485397144345,
                -1.4669918895232048,
                1.779566100579663,
                -0.618767834630934,
                0.9907419143922043,
                -0.2664349473009169
            ]
        },
        {
            "positions": [
                2.54845130700147,
                -1.4258418918193292,
                1.7837381358311464,
                -0.6339595397397949,
                0.9972159968979009,
                0.04670575502091179
            ]
        },
        {
            "positions": [
                2.5564172168585957,
                -1.3846918941154533,
                1.7879101710826297,
                -0.6491512448486558,
                1.0036900794035974,
                0.3598464573427409
            ]
        },
        {
            "positions": [
                2.564383126715721,
                -1.343541896411578,
                1.792082206334113,
                -0.6643429499575167,
                1.010164161909294,
                0.6729871596645696
            ]
        },
        {
            "positions": [
                2.572349036572846,
                -1.3023918987077021,
                1.7962542415855962,
                -0.6795346550663777,
                1.0166382444149904,
                0.9861278619863985
            ]
        },
        {
            "positions": [
                2.5803149464299713,
                -1.2612419010038267,
                1.8004262768370796,
                -0.6947263601752386,
                1.023112326920687,
                1.2992685643082273
            ]
        },
        {
            "positions": [
                2.588280856287097,
                -1.2200919032999509,
                1.804598312088563,
                -0.7099180652840995,
                1.0295864094263836,
                1.6124092666300558
            ]
        },
        {
            "positions": [
                2.596246766144222,
                -1.1789419055960755,
                1.8087703473400463,
                -0.7251097703929604,
                1.0360604919320802,
                1.9255499689518847
            ]
        },
        {
            "positions": [
                2.6042126760013473,
                -1.1377919078921996,
                1.8129423825915296,
                -0.7403014755018213,
                1.0425345744377768,
                2.238690671273714
            ]
        },
        {
            "positions": [
                2.6121785858584725,
                -1.096641910188324,
                1.8171144178430128,
                -0.7554931806106823,
                1.0490086569434731,
                2.5518313735955425
            ]
        },
        {
            "positions": [
                2.620144495715598,
                -1.0554919124844484,
                1.821286453094496,
                -0.7706848857195432,
                1.0554827394491697,
                2.8649720759173714
            ]
        },
        {
            "positions": [
                2.6281104055727234,
                -1.0143419147805728,
                1.8254584883459795,
                -0.7858765908284041,
                1.0619568219548663,
                3.1781127782392
            ]
        }
    ]
}