{
    "goal": {
        "global_pose": {
            "orientation": {
                "w": -0.4816463035849501,
                "x": 0.5182115481033762,
                "y": 0.4908360881923453,
                "z": -0.5084816262002911
            },
            "position": {
                "x": -0.8240239810943604,
                "y": -0.300875300988555,
                "z": 0.16403168439865112
            }
        },
        "name": "move_to_storage_C"
    },
    "id": "KPIECE_move_to_storage_C_95",
    "joint_names": [
        "shoulder_pan_joint",
        "shoulder_lift_joint",
        "elbow_joint",
        "wrist_1_joint",
        "wrist_2_joint",
        "wrist_3_joint"
    ],
    "metrics": {
        "cart_traj_len": 0.5766257275007634,
        "distance_elbow_joint": 0.2582480829469167,
        "distance_shoulder_lift_joint": 0.18827617456722767,
        "distance_shoulder_pan_joint": 0.4953222233590959,
        "distance_wrist_1_joint": 0.07903878978659717,
        "distance_wrist_2_joint": 1.0624173995663462,
        "distance_wrist_3_joint": 0.06811722566348832,
        "smoothness": 2.5376526478085547e-16,
        "time": 0.016790213,
        "traj_len": 1.4667719304273832,
        "weighted_distance": 1.851785769620663
    },
    "planner": "KPIECE",
    "start": {
        "state": {
            "elbow_joint": 2.010868314990456,
            "shoulder_lift_joint": -1.1634956873337592,
            "shoulder_pan_joint": -2.4736205022346125,
            "wrist_1_joint": -0.8367026794202681,
            "wrist_2_joint": 0.6746043897044499,
            "wrist_3_joint": -3.1496632123970403
        }
    },
    "waypoints": [
        {
            "positions": [
                -2.4736205022346125,
                -1.1634956873337592,
                2.010868314990456,
                -0.8367026794202681,
                0.6746043897044499,
                -3.1496632123970403
            ]
        },
        {
            "positions": [
                -2.5561742061277952,
                -1.1321163249058879,
                1.9678269678326363,
                -0.8235295477891685,
                0.8516739562988409,
                -3.1383103414531255
            ]
        },
        {
            "positions": [
                -2.638727910020978,
                -1.1007369624780166,
                1.9247856206748168,
                -0.8103564161580691,
                1.028743522893232,
                -3.1269574705092107
            ]
        },
        {
            "positions": [
                -2.7212816139141607,
                -1.0693576000501452,
                1.8817442735169974,
                -0.7971832845269695,
                1.2058130894876231,
                -3.1156045995652963
            ]
        },
        {
            "positions": [
                -2.803835317807343,
                -1.0379782376222741,
                1.838702926359178,
                -0.78401015289587,
                1.382882656082014,
                -3.1042517286213815
            ]
        },
        {
            "positions": [
                -2.8863890217005257,
                -1.0065988751944028,
                1.7956615792013586,
                -0.7708370212647705,
                1.559952222676405,
                -3.0928988576774668
            ]
        },
        {
            "positions": [
                -2.9689427255937084,
                -0.9752195127665315,
                1.7526202320435391,
                -0.7576638896336709,
                1.737021789270796,
                -3.081545986733552
            ]
        }
    ]
}