{
    "goal": {
        "global_pose": {
            "orientation": {
                "w": 0.7047431493862688,
                "x": -0.7094548369677653,
                "y": 0.0024358444001904,
                "z": -0.0022348060817251984
            },
            "position": {
                "x": -0.39052492380142206,
                "y": 0.3671506643295288,
                "z": 0.19426114857196808
            }
        },
        "name": "move_to_magneteinheit_D"
    },
    "id": "KPIECE_move_to_magneteinheit_D_6",
    "joint_names": [
        "shoulder_pan_joint",
        "shoulder_lift_joint",
        "elbow_joint",
        "wrist_1_joint",
        "wrist_2_joint",
        "wrist_3_joint"
    ],
    "metrics": {
        "cart_traj_len": 6.192579410428424,
        "distance_elbow_joint": 3.8245293727594243,
        "distance_shoulder_lift_joint": 4.408690350121795,
        "distance_shoulder_pan_joint": 8.983678922438848,
        "distance_wrist_1_joint": 4.962687395385542,
        "distance_wrist_2_joint": 1.6581627078209393,
        "distance_wrist_3_joint": 6.201778197927068,
        "smoothness": 0.6383263704688764,
        "time": 0.258514611,
        "traj_len": 5.480832687325312,
        "weighted_distance": 7.00456518604219
    },
    "planner": "KPIECE",
    "start": {
        "state": {
            "elbow_joint": 0.749534889911806,
            "shoulder_lift_joint": -0.6476975780787326,
            "shoulder_pan_joint": -2.711696901376241,
            "wrist_1_joint": -0.07506478083263063,
            "wrist_2_joint": 0.43296659715538205,
            "wrist_3_joint": -3.14703540197715
        }
    },
    "waypoints": [
        {
            "positions": [
                -2.711696901376241,
                -0.6476975780787326,
                0.749534889911806,
                -0.07506478083263063,
                0.43296659715538205,
                -3.14703540197715
            ]
        },
        {
            "positions": [
                -2.7629196649060046,
                -0.6537013830463436,
                0.8266313851751608,
                -0.05918286719408054,
                0.45490098247832905,
                -2.9545381139763593
            ]
        },
        {
            "positions": [
                -2.814142428435768,
                -0.6597051880139546,
                0.9037278804385155,
                -0.04330095355553046,
                0.476835367801276,
                -2.762040825975569
            ]
        },
        {
            "positions": [
                -2.865365191965531,
                -0.6657089929815656,
                0.9808243757018702,
                -0.027419039916980373,
                0.498769753124223,
                -2.569543537974779
            ]
        },
        {
            "positions": [
                -2.9165879554952947,
                -0.6717127979491766,
                1.057920870965225,
                -0.011537126278430287,
                0.52070413844717,
                -2.377046249973988
            ]
        },
        {
            "positions": [
                -2.800578583314861,
                -0.718100286863504,
                0.950211874261655,
                0.01722564957853407,
                0.5113111541224563,
                -2.2930506174488077
            ]
        },
        {
            "positions": [
                -2.6845692111344275,
                -0.7644877757778314,
                0.8425028775580848,
                0.04598842543549843,
                0.5019181697977426,
                -2.209054984923627
            ]
        },
        {
            "positions": [
                -2.568559838953994,
                -0.8108752646921588,
                0.7347938808545148,
                0.07475120129246278,
                0.49252518547302887,
                -2.125059352398447
            ]
        },
        {
            "positions": [
                -2.4525504667735603,
                -0.8572627536064862,
                0.6270848841509447,
                0.10351397714942714,
                0.4831322011483151,
                -2.0410637198732666
            ]
        },
        {
            "positions": [
                -2.3365410945931266,
                -0.9036502425208136,
                0.5193758874473746,
                0.1322767530063915,
                0.47373921682360143,
                -1.9570680873480861
            ]
        },
        {
            "positions": [
                -2.2205317224126935,
                -0.9500377314351409,
                0.4116668907438046,
                0.16103952886335585,
                0.4643462324988877,
                -1.8730724548229059
            ]
        },
        {
            "positions": [
                -2.1045223502322594,
                -0.9964252203494683,
                0.30395789404023443,
                0.18980230472032023,
                0.45495324817417393,
                -1.7890768222977254
            ]
        },
        {
            "positions": [
                -1.988512978051826,
                -1.0428127092637958,
                0.1962488973366644,
                0.21856508057728458,
                0.44556026384946024,
                -1.705081189772545
            ]
        },
        {
            "positions": [
                -1.8725036058713926,
                -1.0892001981781232,
                0.08853990063309436,
                0.24732785643424893,
                0.43616727952474654,
                -1.6210855572473646
            ]
        },
        {
            "positions": [
                -1.7564942336909588,
                -1.1355876870924506,
                -0.01916909607047579,
                0.2760906322912133,
                0.4267742952000328,
                -1.537089924722184
            ]
        },
        {
            "positions": [
                -1.6404848615105254,
                -1.181975176006778,
                -0.12687809277404583,
                0.30485340814817763,
                0.4173813108753191,
                -1.453094292197004
            ]
        },
        {
            "positions": [
                -1.5244754893300918,
                -1.2283626649211055,
                -0.23458708947761586,
                0.333616184005142,
                0.40798832655060535,
                -1.3690986596718235
            ]
        },
        {
            "positions": [
                -1.4084661171496582,
                -1.2747501538354329,
                -0.3422960861811859,
                0.3623789598621064,
                0.39859534222589166,
                -1.285103027146643
            ]
        },
        {
            "positions": [
                -1.2924567449692246,
                -1.3211376427497603,
                -0.45000508288475616,
                0.39114173571907074,
                0.3892023579011779,
                -1.2011073946214625
            ]
        },
        {
            "positions": [
                -1.1764473727887912,
                -1.3675251316640875,
                -0.557714079588326,
                0.4199045115760351,
                0.3798093735764642,
                -1.1171117620962823
            ]
        },
        {
            "positions": [
                -1.0604380006083574,
                -1.413912620578415,
                -0.6654230762918962,
                0.44866728743299944,
                0.37041638925175047,
                -1.033116129571102
            ]
        },
        {
            "positions": [
                -0.9444286284279237,
                -1.4603001094927424,
                -0.7731320729954663,
                0.47743006328996385,
                0.3610234049270368,
                -0.9491204970459215
            ]
        },
        {
            "positions": [
                -0.8284192562474906,
                -1.5066875984070696,
                -0.8808410696990363,
                0.5061928391469281,
                0.3516304206023231,
                -0.8651248645207412
            ]
        },
        {
            "positions": [
                -0.7124098840670565,
                -1.5530750873213972,
                -0.9885500664026066,
                0.5349556150038925,
                0.34223743627760933,
                -0.7811292319955607
            ]
        },
        {
            "positions": [
                -0.5964005118866229,
                -1.5994625762357246,
                -1.0962590631061766,
                0.5637183908608568,
                0.3328444519528956,
                -0.6971335994703802
            ]
        },
        {
            "positions": [
                -0.48039113970618974,
                -1.6458500651500518,
                -1.2039680598097462,
                0.5924811667178213,
                0.3234514676281819,
                -0.6131379669452
            ]
        },
        {
            "positions": [
                -0.36438176752575613,
                -1.6922375540643793,
                -1.3116770565133167,
                0.6212439425747855,
                0.3140584833034682,
                -0.5291423344200197
            ]
        },
        {
            "positions": [
                -0.24837239534532252,
                -1.7386250429787067,
                -1.4193860532168867,
                0.65000671843175,
                0.30466549897875445,
                -0.4451467018948392
            ]
        },
        {
            "positions": [
                -0.1323630231648889,
                -1.785012531893034,
                -1.5270950499204567,
                0.6787694942887142,
                0.2952725146540407,
                -0.3611510693696589
            ]
        },
        {
            "positions": [
                -0.016353650984455376,
                -1.8314000208073615,
                -1.634804046624027,
                0.7075322701456787,
                0.285879530329327,
                -0.27715543684447863
            ]
        },
        {
            "positions": [
                0.1026334862771353,
                -1.7736144456247331,
                -1.6330665181929829,
                0.8115776292154508,
                0.3113920154979169,
                -0.20212454238204347
            ]
        },
        {
            "positions": [
                0.22162062353872597,
                -1.715828870442105,
                -1.6313289897619385,
                0.9156229882852231,
                0.3369045006665068,
                -0.12709364791960834
            ]
        },
        {
            "positions": [
                0.34060776080031663,
                -1.6580432952594766,
                -1.6295914613308944,
                1.0196683473549955,
                0.36241698583509663,
                -0.05206275345717318
            ]
        },
        {
            "positions": [
                0.45959489806190734,
                -1.6002577200768482,
                -1.62785393289985,
                1.1237137064247675,
                0.3879294710036865,
                0.022968141005261955
            ]
        },
        {
            "positions": [
                0.5785820353234981,
                -1.5424721448942198,
                -1.626116404468806,
                1.2277590654945398,
                0.4134419561722764,
                0.09799903546769712
            ]
        },
        {
            "positions": [
                0.6975691725850887,
                -1.4846865697115916,
                -1.6243788760377615,
                1.3318044245643121,
                0.43895444134086625,
                0.17302992993013228
            ]
        },
        {
            "positions": [
                0.8165563098466794,
                -1.4269009945289632,
                -1.6226413476067174,
                1.4358497836340844,
                0.4644669265094562,
                0.2480608243925675
            ]
        },
        {
            "positions": [
                0.93554344710827,
                -1.369115419346335,
                -1.620903819175673,
                1.5398951427038567,
                0.48997941167804604,
                0.32309171885500254
            ]
        },
        {
            "positions": [
                1.0545305843698607,
                -1.3113298441637067,
                -1.619166290744629,
                1.643940501773629,
                0.515491896846636,
                0.3981226133174377
            ]
        },
        {
            "positions": [
                1.1735177216314516,
                -1.2535442689810783,
                -1.6174287623135846,
                1.7479858608434014,
                0.5410043820152258,
                0.47315350777987286
            ]
        },
        {
            "positions": [
                1.2925048588930421,
                -1.1957586937984501,
                -1.6156912338825404,
                1.8520312199131732,
                0.5665168671838157,
                0.548184402242308
            ]
        },
        {
            "positions": [
                1.4114919961546328,
                -1.1379731186158217,
                -1.6139537054514963,
                1.9560765789829455,
                0.5920293523524056,
                0.6232152967047432
            ]
        },
        {
            "positions": [
                1.5304791334162233,
                -1.0801875434331936,
                -1.612216177020452,
                2.060121938052718,
                0.6175418375209953,
                0.6982461911671782
            ]
        },
        {
            "positions": [
                1.6494662706778143,
                -1.022401968250565,
                -1.6104786485894078,
                2.16416729712249,
                0.6430543226895853,
                0.7732770856296136
            ]
        },
        {
            "positions": [
                1.768453407939405,
                -0.9646163930679368,
                -1.6087411201583635,
                2.2682126561922624,
                0.6685668078581752,
                0.8483079800920486
            ]
        },
        {
            "positions": [
                1.8874405452009955,
                -0.9068308178853085,
                -1.6070035917273193,
                2.3722580152620347,
                0.6940792930267651,
                0.9233388745544837
            ]
        },
        {
            "positions": [
                2.0064276824625864,
                -0.8490452427026801,
                -1.605266063296275,
                2.476303374331807,
                0.7195917781953549,
                0.9983697690169191
            ]
        },
        {
            "positions": [
                2.1254148197241767,
                -0.7912596675200518,
                -1.6035285348652308,
                2.5803487334015793,
                0.7451042633639449,
                1.073400663479354
            ]
        },
        {
            "positions": [
                2.2444019569857674,
                -0.7334740923374237,
                -1.6017910064341865,
                2.684394092471351,
                0.7706167485325347,
                1.1484315579417892
            ]
        },
        {
            "positions": [
                2.3633890942473585,
                -0.675688517154795,
                -1.6000534780031423,
                2.788439451541124,
                0.7961292337011247,
                1.2234624524042244
            ]
        },
        {
            "positions": [
                2.482376231508949,
                -0.6179029419721669,
                -1.598315949572098,
                2.892484810610896,
                0.8216417188697145,
                1.2984933468666595
            ]
        },
        {
            "positions": [
                2.6013633687705395,
                -0.5601173667895387,
                -1.5965784211410539,
                2.996530169680668,
                0.8471542040383043,
                1.3735242413290947
            ]
        },
        {
            "positions": [
                2.7203505060321302,
                -0.5023317916069101,
                -1.5948408927100095,
                3.1005755287504404,
                0.8726666892068943,
                1.4485551357915298
            ]
        },
        {
            "positions": [
                2.839337643293721,
                -0.44454621642428194,
                -1.5931033642789654,
                3.2046208878202127,
                0.8981791743754841,
                1.523586030253965
            ]
        },
        {
            "positions": [
                2.71842315251249,
                -0.5180715805446854,
                -1.624372075949833,
                3.137300818750905,
                0.869247137800878,
                1.4623397596261267
            ]
        },
        {
            "positions": [
                2.597508661731259,
                -0.5915969446650889,
                -1.6556407876207009,
                3.069980749681597,
                0.8403151012262721,
                1.4010934889982882
            ]
        },
        {
            "positions": [
                2.476594170950028,
                -0.6651223087854924,
                -1.6869094992915685,
                3.0026606806122893,
                0.811383064651666,
                1.33984721837045
            ]
        },
        {
            "positions": [
                2.355679680168797,
                -0.738647672905896,
                -1.7181782109624364,
                2.935340611542981,
                0.7824510280770599,
                1.2786009477426115
            ]
        },
        {
            "positions": [
                2.234765189387566,
                -0.8121730370262994,
                -1.749446922633304,
                2.8680205424736736,
                0.7535189915024539,
                1.2173546771147732
            ]
        },
        {
            "positions": [
                2.1138506986063352,
                -0.8856984011467028,
                -1.7807156343041717,
                2.8007004734043655,
                0.7245869549278479,
                1.156108406486935
            ]
        },
        {
            "positions": [
                1.992936207825104,
                -0.9592237652671064,
                -1.8119843459750395,
                2.7333804043350574,
                0.6956549183532418,
                1.0948621358590964
            ]
        },
        {
            "positions": [
                1.872021717043873,
                -1.03274912938751,
                -1.8432530576459072,
                2.6660603352657497,
                0.6667228817786358,
                1.0336158652312581
            ]
        },
        {
            "positions": [
                1.7511072262626421,
                -1.1062744935079132,
                -1.8745217693167748,
                2.598740266196442,
                0.6377908452040297,
                0.9723695946034198
            ]
        },
        {
            "positions": [
                1.630192735481411,
                -1.1797998576283169,
                -1.9057904809876427,
                2.531420197127134,
                0.6088588086294238,
                0.9111233239755814
            ]
        },
        {
            "positions": [
                1.5092782447001802,
                -1.2533252217487203,
                -1.9370591926585103,
                2.4641001280578263,
                0.5799267720548177,
                0.849877053347743
            ]
        },
        {
            "positions": [
                1.3883637539189493,
                -1.3268505858691237,
                -1.968327904329378,
                2.396780058988518,
                0.5509947354802116,
                0.7886307827199047
            ]
        },
        {
            "positions": [
                1.267449263137718,
                -1.4003759499895274,
                -1.9995966160002459,
                2.3294599899192105,
                0.5220626989056056,
                0.7273845120920662
            ]
        },
        {
            "positions": [
                1.1465347723564872,
                -1.4739013141099309,
                -2.0308653276711137,
                2.2621399208499025,
                0.4931306623309995,
                0.6661382414642278
            ]
        },
        {
            "positions": [
                1.0256202815752564,
                -1.5474266782303343,
                -2.062134039341981,
                2.194819851780595,
                0.46419862575639353,
                0.6048919708363896
            ]
        },
        {
            "positions": [
                0.9047057907940252,
                -1.6209520423507378,
                -2.093402751012849,
                2.127499782711287,
                0.43526658918178746,
                0.5436457002085512
            ]
        },
        {
            "positions": [
                0.7837913000127941,
                -1.6944774064711414,
                -2.124671462683717,
                2.060179713641979,
                0.40633455260718143,
                0.4823994295807128
            ]
        },
        {
            "positions": [
                0.6628768092315633,
                -1.7680027705915446,
                -2.1559401743545843,
                1.9928596445726712,
                0.37740251603257546,
                0.42115315895287453
            ]
        },
        {
            "positions": [
                0.5419623184503322,
                -1.8415281347119483,
                -2.187208886025452,
                1.9255395755033633,
                0.3484704794579694,
                0.35990688832503603
            ]
        },
        {
            "positions": [
                0.421047827669101,
                -1.9150534988323518,
                -2.21847759769632,
                1.8582195064340552,
                0.3195384428833633,
                0.29866061769719776
            ]
        },
        {
            "positions": [
                0.30013333688787025,
                -1.9885788629527552,
                -2.2497463093671874,
                1.7908994373647475,
                0.29060640630875734,
                0.2374143470693595
            ]
        },
        {
            "positions": [
                0.17921884610663952,
                -2.0621042270731587,
                -2.2810150210380553,
                1.7235793682954397,
                0.26167436973415126,
                0.176168076441521
            ]
        },
        {
            "positions": [
                0.05830435532540834,
                -2.1356295911935623,
                -2.312283732708923,
                1.6562592992261318,
                0.23274233315954518,
                0.11492180581368272
            ]
        },
        {
            "positions": [
                -0.06261013545582239,
                -2.2091549553139656,
                -2.3435524443797906,
                1.588939230156824,
                0.2038102965849392,
                0.05367553518584445
            ]
        },
        {
            "positions": [
                -0.18352462623705373,
                -2.282680319434369,
                -2.3748211560506585,
                1.521619161087516,
                0.17487826001033308,
                -0.007570735441994055
            ]
        }
    ]
}