{
    "goal": {
        "global_pose": {
            "orientation": {
                "w": -0.4816463035849501,
                "x": 0.5182115481033762,
                "y": 0.4908360881923453,
                "z": -0.5084816262002911
            },
            "position": {
                "x": -0.8240239810943604,
                "y": -0.300875300988555,
                "z": 0.16403168439865112
            }
        },
        "name": "move_to_storage_C"
    },
    "id": "KPIECE_move_to_storage_C_96",
    "joint_names": [
        "shoulder_pan_joint",
        "shoulder_lift_joint",
        "elbow_joint",
        "wrist_1_joint",
        "wrist_2_joint",
        "wrist_3_joint"
    ],
    "metrics": {
        "cart_traj_len": 0.576682113951298,
        "distance_elbow_joint": 0.2597049880066453,
        "distance_shoulder_lift_joint": 0.18879142474448696,
        "distance_shoulder_pan_joint": 0.4957178668627873,
        "distance_wrist_1_joint": 0.08824212052240898,
        "distance_wrist_2_joint": 1.0619694665332533,
        "distance_wrist_3_joint": 0.073097925829813,
        "smoothness": 0.0,
        "time": 0.304873625,
        "traj_len": 1.4722512667678012,
        "weighted_distance": 1.8611639452812005
    },
    "planner": "KPIECE",
    "start": {
        "state": {
            "elbow_joint": 2.010868314990456,
            "shoulder_lift_joint": -1.1634956873337592,
            "shoulder_pan_joint": -2.4736205022346125,
            "wrist_1_joint": -0.8367026794202681,
            "wrist_2_joint": 0.6746043897044499,
            "wrist_3_joint": -3.1496632123970403
        }
    },
    "waypoints": [
        {
            "positions": [
                -2.4736205022346125,
                -1.1634956873337592,
                2.010868314990456,
                -0.8367026794202681,
                0.6746043897044499,
                -3.1496632123970403
            ]
        },
        {
            "positions": [
                -2.556240146711744,
                -1.1320304498763447,
                1.9675841503226816,
                -0.8219956593332,
                0.8515993007933255,
                -3.137480224758738
            ]
        },
        {
            "positions": [
                -2.638859791188875,
                -1.1005652124189302,
                1.9242999856549075,
                -0.8072886392461318,
                1.0285942118822011,
                -3.125297237120436
            ]
        },
        {
            "positions": [
                -2.721479435666006,
                -1.0690999749615158,
                1.881015820987133,
                -0.7925816191590636,
                1.2055891229710767,
                -3.113114249482134
            ]
        },
        {
            "positions": [
                -2.8040990801431374,
                -1.0376347375041013,
                1.8377316563193589,
                -0.7778745990719954,
                1.3825840340599522,
                -3.1009312618438316
            ]
        },
        {
            "positions": [
                -2.886718724620269,
                -1.0061695000466866,
                1.7944474916515847,
                -0.7631675789849273,
                1.5595789451488278,
                -3.088748274205529
            ]
        },
        {
            "positions": [
                -2.9693383690974,
                -0.9747042625892722,
                1.7511633269838105,
                -0.7484605588978591,
                1.7365738562377033,
                -3.0765652865672273
            ]
        }
    ]
}