{
    "goal": {
        "global_pose": {
            "orientation": {
                "w": 0.7047431468963623,
                "x": -0.7094548344612122,
                "y": 0.0024358443915843964,
                "z": -0.0022348060738295317
            },
            "position": {
                "x": 0.6094750761985779,
                "y": 0.3671506643295288,
                "z": 0.19426114857196808
            }
        },
        "name": "move_to_magneteinheit_A"
    },
    "id": "KPIECE_move_to_magneteinheit_A_116",
    "joint_names": [
        "shoulder_pan_joint",
        "shoulder_lift_joint",
        "elbow_joint",
        "wrist_1_joint",
        "wrist_2_joint",
        "wrist_3_joint"
    ],
    "metrics": {
        "cart_traj_len": 3.942968652031302,
        "distance_elbow_joint": 3.903607894419932,
        "distance_shoulder_lift_joint": 0.9246450979984469,
        "distance_shoulder_pan_joint": 2.892625478541883,
        "distance_wrist_1_joint": 0.7364449475621598,
        "distance_wrist_2_joint": 1.6902058038598675,
        "distance_wrist_3_joint": 3.5765086078102475,
        "smoothness": 0.12127084798268511,
        "time": 0.157052878,
        "traj_len": 3.7045968512366545,
        "weighted_distance": 4.827391199937608
    },
    "planner": "KPIECE",
    "start": {
        "state": {
            "elbow_joint": -1.9196185241190666,
            "shoulder_lift_joint": -1.2443396400964142,
            "shoulder_pan_joint": 2.6996025414629847,
            "wrist_1_joint": -1.5485510000780065,
            "wrist_2_joint": -1.5709468930060704,
            "wrist_3_joint": 0.4420197071253992
        }
    },
    "waypoints": [
        {
            "positions": [
                2.6996025414629847,
                -1.2443396400964142,
                -1.9196185241190666,
                -1.5485510000780065,
                -1.5709468930060704,
                0.4420197071253992
            ]
        },
        {
            "positions": [
                2.60191664994747,
                -1.2260718082193445,
                -1.8183966262956648,
                -1.5250548426909538,
                -1.5285871254377028,
                0.3298690241306514
            ]
        },
        {
            "positions": [
                2.504230758431956,
                -1.2078039763422748,
                -1.7171747284722632,
                -1.5015586853039011,
                -1.4862273578693352,
                0.21771834113590363
            ]
        },
        {
            "positions": [
                2.4065448669164415,
                -1.189536144465205,
                -1.6159528306488613,
                -1.4780625279168484,
                -1.443867590300968,
                0.10556765814115587
            ]
        },
        {
            "positions": [
                2.308858975400927,
                -1.1712683125881354,
                -1.5147309328254595,
                -1.4545663705297955,
                -1.4015078227326003,
                -0.006583024853591912
            ]
        },
        {
            "positions": [
                2.2111730838854124,
                -1.1530004807110656,
                -1.4135090350020576,
                -1.4310702131427429,
                -1.3591480551642328,
                -0.1187337078483397
            ]
        },
        {
            "positions": [
                2.113487192369898,
                -1.134732648833996,
                -1.312287137178656,
                -1.4075740557556902,
                -1.3167882875958652,
                -0.23088439084308743
            ]
        },
        {
            "positions": [
                2.015801300854384,
                -1.1164648169569262,
                -1.2110652393552541,
                -1.3840778983686375,
                -1.2744285200274978,
                -0.34303507383783527
            ]
        },
        {
            "positions": [
                1.9181154093388693,
                -1.0981969850798565,
                -1.1098433415318523,
                -1.3605817409815848,
                -1.2320687524591303,
                -0.455185756832583
            ]
        },
        {
            "positions": [
                1.8204295178233547,
                -1.0799291532027868,
                -1.0086214437084506,
                -1.337085583594532,
                -1.1897089848907627,
                -0.567336439827331
            ]
        },
        {
            "positions": [
                1.7227436263078404,
                -1.0616613213257171,
                -0.9073995458850488,
                -1.3135894262074792,
                -1.1473492173223951,
                -0.6794871228220786
            ]
        },
        {
            "positions": [
                1.625057734792326,
                -1.0433934894486474,
                -0.8061776480616469,
                -1.2900932688204265,
                -1.1049894497540276,
                -0.7916378058168264
            ]
        },
        {
            "positions": [
                1.5273718432768115,
                -1.0251256575715777,
                -0.7049557502382453,
                -1.2665971114333738,
                -1.0626296821856602,
                -0.903788488811574
            ]
        },
        {
            "positions": [
                1.429685951761297,
                -1.006857825694508,
                -0.6037338524148435,
                -1.2431009540463211,
                -1.0202699146172924,
                -1.015939171806322
            ]
        },
        {
            "positions": [
                1.3320000602457827,
                -0.9885899938174383,
                -0.5025119545914416,
                -1.2196047966592682,
                -0.9779101470489251,
                -1.1280898548010696
            ]
        },
        {
            "positions": [
                1.2343141687302683,
                -0.9703221619403686,
                -0.40129005676803975,
                -1.1961086392722156,
                -0.9355503794805576,
                -1.2402405377958172
            ]
        },
        {
            "positions": [
                1.1366282772147538,
                -0.9520543300632989,
                -0.3000681589446381,
                -1.1726124818851629,
                -0.8931906119121901,
                -1.3523912207905653
            ]
        },
        {
            "positions": [
                1.0389423856992395,
                -0.9337864981862293,
                -0.19884626112123627,
                -1.1491163244981102,
                -0.8508308443438226,
                -1.464541903785313
            ]
        },
        {
            "positions": [
                0.9412564941837247,
                -0.9155186663091595,
                -0.09762436329783442,
                -1.1256201671110575,
                -0.8084710767754549,
                -1.576692586780061
            ]
        },
        {
            "positions": [
                0.8435706026682104,
                -0.8972508344320897,
                0.0035975345255674362,
                -1.1021240097240046,
                -0.7661113092070875,
                -1.6888432697748086
            ]
        },
        {
            "positions": [
                0.7458847111526961,
                -0.87898300255502,
                0.10481943234896907,
                -1.0786278523369521,
                -0.7237515416387199,
                -1.8009939527695562
            ]
        },
        {
            "positions": [
                0.6481988196371815,
                -0.8607151706779504,
                0.2060413301723707,
                -1.0551316949498992,
                -0.6813917740703525,
                -1.9131446357643043
            ]
        },
        {
            "positions": [
                0.5505129281216674,
                -0.8424473388008807,
                0.30726322799577277,
                -1.0316355375628465,
                -0.639032006501985,
                -2.025295318759052
            ]
        },
        {
            "positions": [
                0.45282703660615287,
                -0.824179506923811,
                0.4084851258191744,
                -1.0081393801757939,
                -0.5966722389336174,
                -2.1374460017537995
            ]
        },
        {
            "positions": [
                0.3551411450906383,
                -0.8059116750467413,
                0.509707023642576,
                -0.9846432227887412,
                -0.5543124713652499,
                -2.249596684748547
            ]
        },
        {
            "positions": [
                0.2574552535751238,
                -0.7876438431696715,
                0.6109289214659781,
                -0.9611470654016884,
                -0.5119527037968823,
                -2.361747367743295
            ]
        },
        {
            "positions": [
                0.15976936205960923,
                -0.7693760112926019,
                0.7121508192893797,
                -0.9376509080146357,
                -0.4695929362285147,
                -2.4738980507380433
            ]
        },
        {
            "positions": [
                0.06208347054409513,
                -0.7511081794155322,
                0.8133727171127818,
                -0.9141547506275829,
                -0.4272331686601474,
                -2.586048733732791
            ]
        },
        {
            "positions": [
                -0.035602420971419524,
                -0.7328403475384625,
                0.9145946149361834,
                -0.8906585932405302,
                -0.3848734010917798,
                -2.6981994167275385
            ]
        },
        {
            "positions": [
                -0.021746155881413175,
                -0.7740135810849111,
                1.0682549049951073,
                -0.8990681754436793,
                -0.3477126791841916,
                -2.7748156918454203
            ]
        },
        {
            "positions": [
                -0.007889890791406826,
                -0.8151868146313597,
                1.2219151950540312,
                -0.9074777576468284,
                -0.31055195727660334,
                -2.8514319669633017
            ]
        },
        {
            "positions": [
                0.013728106863170723,
                -0.8703200376892927,
                1.3489275575951702,
                -0.8971888615937641,
                -0.23891681258820321,
                -2.8986081225835596
            ]
        },
        {
            "positions": [
                0.03534610451774827,
                -0.9254532607472257,
                1.4759399201363093,
                -0.8868999655406999,
                -0.1672816678998031,
                -2.945784278203817
            ]
        },
        {
            "positions": [
                0.05696410217232582,
                -0.9805864838051587,
                1.6029522826774485,
                -0.8766110694876357,
                -0.09564652321140293,
                -2.992960433824075
            ]
        },
        {
            "positions": [
                0.07858209982690337,
                -1.0357197068630917,
                1.7299646452185875,
                -0.8663221734345714,
                -0.024011378523002835,
                -3.040136589444333
            ]
        },
        {
            "positions": [
                0.10020009748148093,
                -1.0908529299210246,
                1.8569770077597267,
                -0.8560332773815073,
                0.047623766165397374,
                -3.0873127450645903
            ]
        },
        {
            "positions": [
                0.12181809513605846,
                -1.1459861529789577,
                1.9839893703008658,
                -0.845744381328443,
                0.11925891085379749,
                -3.134488900684848
            ]
        }
    ]
}