{
    "goal": {
        "global_pose": {
            "orientation": {
                "w": 0.7047431493862688,
                "x": -0.7094548369677653,
                "y": 0.0024358444001904,
                "z": -0.0022348060817251984
            },
            "position": {
                "x": -0.39052492380142206,
                "y": 0.3671506643295288,
                "z": 0.19426114857196808
            }
        },
        "name": "move_to_magneteinheit_D"
    },
    "id": "KPIECE_move_to_magneteinheit_D_102",
    "joint_names": [
        "shoulder_pan_joint",
        "shoulder_lift_joint",
        "elbow_joint",
        "wrist_1_joint",
        "wrist_2_joint",
        "wrist_3_joint"
    ],
    "metrics": {
        "cart_traj_len": 5.560336726734354,
        "distance_elbow_joint": 3.115821297047123,
        "distance_shoulder_lift_joint": 1.6680901656884894,
        "distance_shoulder_pan_joint": 4.329671898295712,
        "distance_wrist_1_joint": 2.090130300802004,
        "distance_wrist_2_joint": 0.818025762924922,
        "distance_wrist_3_joint": 6.729825399425485,
        "smoothness": 0.44509078433050786,
        "time": 0.26791492699999997,
        "traj_len": 4.330307705485112,
        "weighted_distance": 5.926159944412708
    },
    "planner": "KPIECE",
    "start": {
        "state": {
            "elbow_joint": 0.749534889911806,
            "shoulder_lift_joint": -0.6476975780787326,
            "shoulder_pan_joint": -2.711696901376241,
            "wrist_1_joint": -0.07506478083263063,
            "wrist_2_joint": 0.43296659715538205,
            "wrist_3_joint": -3.14703540197715
        }
    },
    "waypoints": [
        {
            "positions": [
                -2.711696901376241,
                -0.6476975780787326,
                0.749534889911806,
                -0.07506478083263063,
                0.43296659715538205,
                -3.14703540197715
            ]
        },
        {
            "positions": [
                -2.78753353408668,
                -0.7298110828267391,
                0.7498034967925321,
                -0.12566368466300393,
                0.3872464720120556,
                -3.067474956692916
            ]
        },
        {
            "positions": [
                -2.8633701667971194,
                -0.8119245875747455,
                0.7500721036732584,
                -0.17626258849337725,
                0.34152634686872907,
                -2.987914511408681
            ]
        },
        {
            "positions": [
                -2.9392067995075584,
                -0.894038092322752,
                0.7503407105539845,
                -0.22686149232375058,
                0.2958062217254026,
                -2.908354066124447
            ]
        },
        {
            "positions": [
                -2.853501194930516,
                -0.9224236271334959,
                0.6908011515027541,
                -0.27103567373580667,
                0.281374055985715,
                -2.7515885977180004
            ]
        },
        {
            "positions": [
                -2.7677955903534737,
                -0.9508091619442398,
                0.6312615924515238,
                -0.3152098551478628,
                0.26694189024602744,
                -2.5948231293115533
            ]
        },
        {
            "positions": [
                -2.682089985776431,
                -0.9791946967549838,
                0.5717220334002935,
                -0.3593840365599189,
                0.2525097245063398,
                -2.438057660905107
            ]
        },
        {
            "positions": [
                -2.596384381199389,
                -1.0075802315657278,
                0.512182474349063,
                -0.403558217971975,
                0.2380775587666522,
                -2.28129219249866
            ]
        },
        {
            "positions": [
                -2.5106787766223464,
                -1.0359657663764716,
                0.4526429152978327,
                -0.4477323993840311,
                0.22364539302696462,
                -2.124526724092213
            ]
        },
        {
            "positions": [
                -2.4249731720453043,
                -1.0643513011872157,
                0.3931033562466023,
                -0.4919065807960872,
                0.20921322728727704,
                -1.9677612556857667
            ]
        },
        {
            "positions": [
                -2.3392675674682617,
                -1.0927368359979595,
                0.33356379719537194,
                -0.5360807622081433,
                0.19478106154758945,
                -1.81099578727932
            ]
        },
        {
            "positions": [
                -2.2535619628912196,
                -1.1211223708087035,
                0.27402423814414156,
                -0.5802549436201994,
                0.1803488958079018,
                -1.6542303188728733
            ]
        },
        {
            "positions": [
                -2.167856358314177,
                -1.1495079056194475,
                0.21448467909291113,
                -0.6244291250322556,
                0.16591673006821422,
                -1.4974648504664265
            ]
        },
        {
            "positions": [
                -2.0821507537371344,
                -1.1778934404301913,
                0.15494512004168082,
                -0.6686033064443115,
                0.15148456432852664,
                -1.34069938205998
            ]
        },
        {
            "positions": [
                -1.9964451491600923,
                -1.2062789752409353,
                0.09540556099045039,
                -0.7127774878563677,
                0.13705239858883903,
                -1.1839339136535332
            ]
        },
        {
            "positions": [
                -1.91073954458305,
                -1.234664510051679,
                0.03586600193922007,
                -0.7569516692684237,
                0.12262023284915144,
                -1.0271684452470866
            ]
        },
        {
            "positions": [
                -1.8250339400060076,
                -1.2630500448624231,
                -0.023673557112010357,
                -0.8011258506804799,
                0.10818806710946385,
                -0.8704029768406398
            ]
        },
        {
            "positions": [
                -1.7393283354289653,
                -1.2914355796731671,
                -0.08321311616324067,
                -0.8453000320925359,
                0.09375590136977627,
                -0.7136375084341933
            ]
        },
        {
            "positions": [
                -1.653622730851923,
                -1.319821114483911,
                -0.142752675214471,
                -0.8894742135045921,
                0.07932373563008865,
                -0.5568720400277463
            ]
        },
        {
            "positions": [
                -1.5679171262748803,
                -1.348206649294655,
                -0.20229223426570142,
                -0.9336483949166483,
                0.06489156989040104,
                -0.4001065716212997
            ]
        },
        {
            "positions": [
                -1.482211521697838,
                -1.376592184105399,
                -0.26183179331693185,
                -0.9778225763287043,
                0.050459404150713455,
                -0.24334110321485314
            ]
        },
        {
            "positions": [
                -1.3965059171207956,
                -1.4049777189161428,
                -0.3213713523681623,
                -1.0219967577407605,
                0.03602723841102584,
                -0.08657563480840613
            ]
        },
        {
            "positions": [
                -1.3108003125437533,
                -1.4333632537268868,
                -0.3809109114193925,
                -1.0661709391528165,
                0.021595072671338256,
                0.07018983359803999
            ]
        },
        {
            "positions": [
                -1.225094707966711,
                -1.4617487885376308,
                -0.4404504704706229,
                -1.1103451205648727,
                0.00716290693165067,
                0.226955302004487
            ]
        },
        {
            "positions": [
                -1.1393891033896686,
                -1.4901343233483746,
                -0.49999002952185334,
                -1.1545193019769286,
                -0.007269258808036916,
                0.383720770410934
            ]
        },
        {
            "positions": [
                -1.053683498812626,
                -1.5185198581591186,
                -0.5595295885730838,
                -1.1986934833889848,
                -0.021701424547724557,
                0.5404862388173806
            ]
        },
        {
            "positions": [
                -0.9679778942355839,
                -1.5469053929698624,
                -0.619069147624314,
                -1.2428676648010408,
                -0.03613359028741209,
                0.6972517072238267
            ]
        },
        {
            "positions": [
                -0.8822722896585415,
                -1.5752909277806064,
                -0.6786087066755444,
                -1.287041846213097,
                -0.05056575602709973,
                0.8540171756302737
            ]
        },
        {
            "positions": [
                -0.796566685081499,
                -1.6036764625913502,
                -0.7381482657267748,
                -1.3312160276251532,
                -0.06499792176678731,
                1.0107826440367202
            ]
        },
        {
            "positions": [
                -0.7108610805044568,
                -1.6320619974020945,
                -0.7976878247780053,
                -1.3753902090372092,
                -0.0794300875064749,
                1.1675481124431673
            ]
        },
        {
            "positions": [
                -0.6251554759274143,
                -1.6604475322128383,
                -0.8572273838292357,
                -1.4195643904492654,
                -0.09386225324616254,
                1.3243135808496143
            ]
        },
        {
            "positions": [
                -0.5394498713503721,
                -1.688833067023582,
                -0.9167669428804659,
                -1.4637385718613214,
                -0.10829441898585007,
                1.4810790492560604
            ]
        },
        {
            "positions": [
                -0.4537442667733296,
                -1.717218601834326,
                -0.9763065019316963,
                -1.5079127532733776,
                -0.12272658472553771,
                1.6378445176625074
            ]
        },
        {
            "positions": [
                -0.36803866219628745,
                -1.74560413664507,
                -1.0358460609829265,
                -1.5520869346854336,
                -0.1371587504652253,
                1.7946099860689544
            ]
        },
        {
            "positions": [
                -0.2823330576192449,
                -1.7739896714558139,
                -1.095385620034157,
                -1.5962611160974898,
                -0.15159091620491288,
                1.9513754544754005
            ]
        },
        {
            "positions": [
                -0.1966274530422023,
                -1.802375206266558,
                -1.1549251790853874,
                -1.640435297509546,
                -0.16602308194460053,
                2.1081409228818475
            ]
        },
        {
            "positions": [
                -0.11092184846516018,
                -1.830760741077302,
                -1.2144647381366176,
                -1.684609478921602,
                -0.18045524768428806,
                2.2649063912882936
            ]
        },
        {
            "positions": [
                -0.025216243888117607,
                -1.8591462758880457,
                -1.2740042971878482,
                -1.7287836603336582,
                -0.1948874134239757,
                2.4216718596947406
            ]
        },
        {
            "positions": [
                0.06048936068892452,
                -1.8875318106987897,
                -1.3335438562390785,
                -1.7729578417457141,
                -0.20931957916366328,
                2.5784373281011876
            ]
        },
        {
            "positions": [
                0.1461949652659671,
                -1.9159173455095337,
                -1.393083415290309,
                -1.8171320231577703,
                -0.22375174490335092,
                2.7352027965076346
            ]
        },
        {
            "positions": [
                0.23190056984300966,
                -1.9443028803202775,
                -1.4526229743415393,
                -1.8613062045698265,
                -0.23818391064303845,
                2.8919682649140808
            ]
        },
        {
            "positions": [
                0.3176061744200518,
                -1.9726884151310216,
                -1.5121625333927695,
                -1.9054803859818825,
                -0.2526160763827261,
                3.048733733320527
            ]
        },
        {
            "positions": [
                0.4033117789970939,
                -2.001073949941765,
                -1.5717020924440002,
                -1.9496545673939385,
                -0.2670482421224136,
                3.205499201726974
            ]
        },
        {
            "positions": [
                0.48901738357413627,
                -2.0294594847525094,
                -1.6312416514952304,
                -1.9938287488059947,
                -0.28148040786210127,
                3.3622646701334205
            ]
        },
        {
            "positions": [
                0.37669441406035287,
                -1.9817381082500574,
                -1.7534805038878518,
                -2.022389804277435,
                -0.26421728154419477,
                3.325510448914268
            ]
        },
        {
            "positions": [
                0.2643714445465694,
                -1.9340167317476051,
                -1.8757193562804733,
                -2.0509508597488746,
                -0.2469541552262883,
                3.288756227695116
            ]
        },
        {
            "positions": [
                0.15204847503278596,
                -1.886295355245153,
                -1.9979582086730947,
                -2.0795119152203148,
                -0.22969102890838183,
                3.252002006475964
            ]
        },
        {
            "positions": [
                0.03972550551900256,
                -1.838573978742701,
                -2.120197061065716,
                -2.108072970691755,
                -0.21242790259047534,
                3.2152477852568113
            ]
        },
        {
            "positions": [
                -0.07259746399478095,
                -1.790852602240249,
                -2.242435913458338,
                -2.1366340261631946,
                -0.19516477627256884,
                3.178493564037659
            ]
        },
        {
            "positions": [
                -0.1849204335085644,
                -1.7431312257377967,
                -2.364674765850959,
                -2.165195081634635,
                -0.17790164995466237,
                3.1417393428185068
            ]
        }
    ]
}