{
    "goal": {
        "global_pose": {
            "orientation": {
                "w": 0.005598929693374612,
                "x": 0.007748599140229565,
                "y": 0.7110244013736278,
                "z": -0.7031023480610252
            },
            "position": {
                "x": -0.8858502320852131,
                "y": -0.7141253447532654,
                "z": 0.3711530566215515
            }
        },
        "name": "move_to_auspresseinheit_C"
    },
    "id": "KPIECE_move_to_auspresseinheit_C_52",
    "joint_names": [
        "shoulder_pan_joint",
        "shoulder_lift_joint",
        "elbow_joint",
        "wrist_1_joint",
        "wrist_2_joint",
        "wrist_3_joint"
    ],
    "metrics": {
        "cart_traj_len": 0.4931680943754581,
        "distance_elbow_joint": 0.99233431079692,
        "distance_shoulder_lift_joint": 0.32143240229494674,
        "distance_shoulder_pan_joint": 0.25637632891230133,
        "distance_wrist_1_joint": 0.6545662333299127,
        "distance_wrist_2_joint": 1.3136743760051544,
        "distance_wrist_3_joint": 0.04579945696246979,
        "smoothness": 6.459479416000911e-16,
        "time": 0.27759014,
        "traj_len": 1.8931938908367796,
        "weighted_distance": 2.3757151831736296
    },
    "planner": "KPIECE",
    "start": {
        "state": {
            "elbow_joint": 1.7527959577737207,
            "shoulder_lift_joint": -0.9740617694225068,
            "shoulder_pan_joint": -2.967991417825858,
            "wrist_1_joint": -0.759517768980727,
            "wrist_2_joint": 1.7443932448377408,
            "wrist_3_joint": -3.0840537646736568
        }
    },
    "waypoints": [
        {
            "positions": [
                -2.967991417825858,
                -0.9740617694225068,
                1.7527959577737207,
                -0.759517768980727,
                1.7443932448377408,
                -3.0840537646736568
            ]
        },
        {
            "positions": [
                -2.9423537849346277,
                -0.9419185291930121,
                1.6535625266940286,
                -0.6940611456477357,
                1.6130258072372254,
                -3.088633710369904
            ]
        },
        {
            "positions": [
                -2.9167161520433975,
                -0.9097752889635174,
                1.5543290956143365,
                -0.6286045223147444,
                1.48165836963671,
                -3.0932136560661507
            ]
        },
        {
            "positions": [
                -2.8910785191521677,
                -0.8776320487340228,
                1.4550956645346447,
                -0.5631478989817532,
                1.3502909320361947,
                -3.0977936017623975
            ]
        },
        {
            "positions": [
                -2.8654408862609375,
                -0.845488808504528,
                1.3558622334549526,
                -0.49769127564876187,
                1.218923494435679,
                -3.1023735474586447
            ]
        },
        {
            "positions": [
                -2.8398032533697073,
                -0.8133455682750335,
                1.2566288023752605,
                -0.43223465231577063,
                1.0875560568351637,
                -3.106953493154892
            ]
        },
        {
            "positions": [
                -2.814165620478477,
                -0.7812023280455387,
                1.1573953712955687,
                -0.3667780289827794,
                0.9561886192346483,
                -3.1115334388511386
            ]
        },
        {
            "positions": [
                -2.788527987587247,
                -0.7490590878160441,
                1.0581619402158768,
                -0.3013214056497881,
                0.8248211816341329,
                -3.1161133845473854
            ]
        },
        {
            "positions": [
                -2.762890354696017,
                -0.7169158475865494,
                0.9589285091361845,
                -0.23586478231679675,
                0.6934537440336173,
                -3.1206933302436326
            ]
        },
        {
            "positions": [
                -2.737252721804787,
                -0.6847726073570547,
                0.8596950780564926,
                -0.17040815898380557,
                0.5620863064331019,
                -3.12527327593988
            ]
        },
        {
            "positions": [
                -2.7116150889135566,
                -0.65262936712756,
                0.7604616469768006,
                -0.10495153565081425,
                0.4307188688325865,
                -3.1298532216361266
            ]
        }
    ]
}