{
    "goal": {
        "global_pose": {
            "orientation": {
                "w": 0.7031023480610252,
                "x": -0.7110244013736278,
                "y": 0.0077485991402295624,
                "z": 0.005598929693374583
            },
            "position": {
                "x": -0.8841497679147869,
                "y": 0.44412534475326537,
                "z": 0.3711530566215515
            }
        },
        "name": "move_to_auspresseinheit_D"
    },
    "id": "KPIECE_move_to_auspresseinheit_D_87",
    "joint_names": [
        "shoulder_pan_joint",
        "shoulder_lift_joint",
        "elbow_joint",
        "wrist_1_joint",
        "wrist_2_joint",
        "wrist_3_joint"
    ],
    "metrics": {
        "cart_traj_len": 0.34340324824350016,
        "distance_elbow_joint": 0.6376786034397526,
        "distance_shoulder_lift_joint": 0.1204667829243169,
        "distance_shoulder_pan_joint": 0.1339154408619039,
        "distance_wrist_1_joint": 0.5282119668597183,
        "distance_wrist_2_joint": 1.438453522496341,
        "distance_wrist_3_joint": 0.009542367812903851,
        "smoothness": 7.89491931748053e-16,
        "time": 0.15834484100000001,
        "traj_len": 1.693596375880315,
        "weighted_distance": 2.2031838119813796
    },
    "planner": "KPIECE",
    "start": {
        "state": {
            "elbow_joint": -1.8275523626775212,
            "shoulder_lift_joint": -2.126789852344167,
            "shoulder_pan_joint": -0.03513704404078235,
            "wrist_1_joint": -2.347782403156801,
            "wrist_2_joint": -1.6058999987535132,
            "wrist_3_joint": -3.0880379163319196
        }
    },
    "waypoints": [
        {
            "positions": [
                -0.03513704404078235,
                -2.126789852344167,
                -1.8275523626775212,
                -2.347782403156801,
                -1.6058999987535132,
                -3.0880379163319196
            ]
        },
        {
            "positions": [
                -0.05187647414852034,
                -2.1418482002097066,
                -1.7478425372475521,
                -2.4138088990142657,
                -1.4260933084414706,
                -3.0892307123085327
            ]
        },
        {
            "positions": [
                -0.06861590425625833,
                -2.156906548075246,
                -1.668132711817583,
                -2.4798353948717304,
                -1.2462866181294279,
                -3.0904235082851454
            ]
        },
        {
            "positions": [
                -0.08535533436399631,
                -2.1719648959407856,
                -1.588422886387614,
                -2.545861890729195,
                -1.0664799278173853,
                -3.0916163042617586
            ]
        },
        {
            "positions": [
                -0.1020947644717343,
                -2.1870232438063253,
                -1.508713060957645,
                -2.61188838658666,
                -0.8866732375053427,
                -3.0928091002383713
            ]
        },
        {
            "positions": [
                -0.11883419457947228,
                -2.202081591671865,
                -1.4290032355276758,
                -2.677914882444125,
                -0.7068665471933,
                -3.0940018962149844
            ]
        },
        {
            "positions": [
                -0.1355736246872103,
                -2.2171399395374047,
                -1.3492934100977068,
                -2.7439413783015896,
                -0.5270598568812574,
                -3.0951946921915976
            ]
        },
        {
            "positions": [
                -0.15231305479494828,
                -2.232198287402944,
                -1.2695835846677377,
                -2.8099678741590544,
                -0.3472531665692147,
                -3.0963874881682103
            ]
        },
        {
            "positions": [
                -0.16905248490268626,
                -2.2472566352684837,
                -1.1898737592377686,
                -2.875994370016519,
                -0.1674464762571722,
                -3.0975802841448234
            ]
        }
    ]
}