{
    "goal": {
        "global_pose": {
            "orientation": {
                "w": 0.7047431468963623,
                "x": -0.7094548344612122,
                "y": 0.0024358443915843964,
                "z": -0.0022348060738295317
            },
            "position": {
                "x": 0.6094750761985779,
                "y": 0.3671506643295288,
                "z": 0.19426114857196808
            }
        },
        "name": "move_to_magneteinheit_A"
    },
    "id": "KPIECE_move_to_magneteinheit_A_20",
    "joint_names": [
        "shoulder_pan_joint",
        "shoulder_lift_joint",
        "elbow_joint",
        "wrist_1_joint",
        "wrist_2_joint",
        "wrist_3_joint"
    ],
    "metrics": {
        "cart_traj_len": 3.262972162058589,
        "distance_elbow_joint": 3.909522470494421,
        "distance_shoulder_lift_joint": 0.6559001691860907,
        "distance_shoulder_pan_joint": 2.5764379863211966,
        "distance_wrist_1_joint": 3.464846347483344,
        "distance_wrist_2_joint": 2.1014207385264005,
        "distance_wrist_3_joint": 0.7832931313183813,
        "smoothness": 0.07530021705639771,
        "time": 0.095177547,
        "traj_len": 3.6730669532871074,
        "weighted_distance": 4.541395621609765
    },
    "planner": "KPIECE",
    "start": {
        "state": {
            "elbow_joint": -1.9196185241190666,
            "shoulder_lift_joint": -1.2443396400964142,
            "shoulder_pan_joint": 2.6996025414629847,
            "wrist_1_joint": -1.5485510000780065,
            "wrist_2_joint": -1.5709468930060704,
            "wrist_3_joint": 0.4420197071253992
        }
    },
    "waypoints": [
        {
            "positions": [
                2.6996025414629847,
                -1.2443396400964142,
                -1.9196185241190666,
                -1.5485510000780065,
                -1.5709468930060704,
                0.4420197071253992
            ]
        },
        {
            "positions": [
                2.606454727959273,
                -1.228803489878609,
                -1.8340732070363706,
                -1.4432410615035263,
                -1.5028533399006205,
                0.41855815457214235
            ]
        },
        {
            "positions": [
                2.5133069144555615,
                -1.213267339660804,
                -1.7485278899536743,
                -1.337931122929046,
                -1.4347597867951707,
                0.3950966020188855
            ]
        },
        {
            "positions": [
                2.42015910095185,
                -1.1977311894429987,
                -1.6629825728709782,
                -1.2326211843545658,
                -1.3666662336897208,
                0.3716350494656287
            ]
        },
        {
            "positions": [
                2.3270112874481383,
                -1.1821950392251936,
                -1.577437255788282,
                -1.1273112457800858,
                -1.2985726805842712,
                0.34817349691237187
            ]
        },
        {
            "positions": [
                2.2338634739444267,
                -1.1666588890073886,
                -1.4918919387055858,
                -1.0220013072056056,
                -1.2304791274788214,
                0.324711944359115
            ]
        },
        {
            "positions": [
                2.140715660440715,
                -1.1511227387895835,
                -1.4063466216228897,
                -0.9166913686311253,
                -1.1623855743733715,
                0.3012503918058582
            ]
        },
        {
            "positions": [
                2.0475678469370036,
                -1.1355865885717784,
                -1.3208013045401936,
                -0.8113814300566453,
                -1.0942920212679217,
                0.27778883925260134
            ]
        },
        {
            "positions": [
                1.954420033433292,
                -1.120050438353973,
                -1.2352559874574975,
                -0.706071491482165,
                -1.0261984681624718,
                0.2543272866993445
            ]
        },
        {
            "positions": [
                1.8612722199295806,
                -1.104514288136168,
                -1.1497106703748012,
                -0.6007615529076848,
                -0.9581049150570221,
                0.23086573414608771
            ]
        },
        {
            "positions": [
                1.7681244064258688,
                -1.088978137918363,
                -1.064165353292105,
                -0.4954516143332046,
                -0.8900113619515723,
                0.20740418159283086
            ]
        },
        {
            "positions": [
                1.6749765929221574,
                -1.0734419877005579,
                -0.978620036209409,
                -0.3901416757587246,
                -0.8219178088461224,
                0.18394262903957403
            ]
        },
        {
            "positions": [
                1.5818287794184458,
                -1.0579058374827528,
                -0.8930747191267128,
                -0.28483173718424415,
                -0.7538242557406726,
                0.1604810764863172
            ]
        },
        {
            "positions": [
                1.4886809659147342,
                -1.0423696872649475,
                -0.8075294020440167,
                -0.17952179860976414,
                -0.6857307026352228,
                0.13701952393306038
            ]
        },
        {
            "positions": [
                1.3955331524110226,
                -1.0268335370471424,
                -0.7219840849613206,
                -0.07421186003528413,
                -0.6176371495297731,
                0.11355797137980356
            ]
        },
        {
            "positions": [
                1.3023853389073112,
                -1.0112973868293373,
                -0.6364387678786245,
                0.031098078539196106,
                -0.5495435964243234,
                0.09009641882654673
            ]
        },
        {
            "positions": [
                1.2092375254035994,
                -0.9957612366115323,
                -0.5508934507959282,
                0.13640801711367656,
                -0.4814500433188733,
                0.06663486627328985
            ]
        },
        {
            "positions": [
                1.1160897118998878,
                -0.9802250863937272,
                -0.46534813371323214,
                0.24171795568815657,
                -0.4133564902134237,
                0.04317331372003308
            ]
        },
        {
            "positions": [
                1.0229418983961764,
                -0.964688936175922,
                -0.37980281663053606,
                0.3470278942626368,
                -0.34526293710797384,
                0.019711761166776254
            ]
        },
        {
            "positions": [
                0.9297940848924648,
                -0.9491527859581169,
                -0.29425749954784,
                0.4523378328371168,
                -0.277169384002524,
                -0.003749791386480572
            ]
        },
        {
            "positions": [
                0.836646271388753,
                -0.9336166357403117,
                -0.20871218246514345,
                0.5576477714115973,
                -0.20907583089707416,
                -0.027211343939737453
            ]
        },
        {
            "positions": [
                0.7434984578850414,
                -0.9180804855225067,
                -0.12316686538244737,
                0.6629577099860773,
                -0.1409822777916243,
                -0.05067289649299428
            ]
        },
        {
            "positions": [
                0.6503506443813301,
                -0.9025443353047016,
                -0.037621548299751284,
                0.7682676485605573,
                -0.07288872468617447,
                -0.0741344490462511
            ]
        },
        {
            "positions": [
                0.5572028308776185,
                -0.8870081850868965,
                0.0479237687829448,
                0.8735775871350377,
                -0.004795171580724844,
                -0.09759600159950788
            ]
        },
        {
            "positions": [
                0.46405501737390686,
                -0.8714720348690912,
                0.1334690858656411,
                0.9788875257095182,
                0.06329838152472522,
                -0.12105755415276476
            ]
        },
        {
            "positions": [
                0.37090720387019527,
                -0.8559358846512861,
                0.21901440294833696,
                1.0841974642839982,
                0.13139193463017484,
                -0.14451910670602164
            ]
        },
        {
            "positions": [
                0.27775939036648367,
                -0.840399734433481,
                0.3045597200310334,
                1.1895074028584784,
                0.19948548773562458,
                -0.16798065925927838
            ]
        },
        {
            "positions": [
                0.25104880260627604,
                -0.8008141684950931,
                0.4964013430057479,
                1.2903417918433013,
                0.19327766471038366,
                -0.14995606899926295
            ]
        },
        {
            "positions": [
                0.22433821484606845,
                -0.7612286025567051,
                0.6882429659804625,
                1.3911761808281242,
                0.18706984168514276,
                -0.13193147873924754
            ]
        },
        {
            "positions": [
                0.19762762708586085,
                -0.7216430366183171,
                0.880084588955177,
                1.492010569812947,
                0.18086201865990187,
                -0.11390688847923211
            ]
        },
        {
            "positions": [
                0.17091703932565322,
                -0.6820574706799292,
                1.0719262119298916,
                1.59284495879777,
                0.17465419563466095,
                -0.09588229821921669
            ]
        },
        {
            "positions": [
                0.16174276779572144,
                -0.6898459082968776,
                1.2253631043409297,
                1.6479566157514802,
                0.13057792944613936,
                -0.07787580419577855
            ]
        },
        {
            "positions": [
                0.15256849626578967,
                -0.6976343459138261,
                1.3787999967519677,
                1.7030682727051905,
                0.08650166325761775,
                -0.0598693101723404
            ]
        },
        {
            "positions": [
                0.1433942247358579,
                -0.7054227835307746,
                1.5322368891630058,
                1.7581799296589007,
                0.04242539706909616,
                -0.04186281614890225
            ]
        },
        {
            "positions": [
                0.1366510015378344,
                -0.7288403458370281,
                1.684792574900455,
                1.810885068907713,
                -0.015550691970296016,
                -0.026137842207793034
            ]
        },
        {
            "positions": [
                0.12990777833981096,
                -0.7522579081432814,
                1.8373482606379044,
                1.8635902081565254,
                -0.0735267810096882,
                -0.01041286826668382
            ]
        },
        {
            "positions": [
                0.12316455514178748,
                -0.7756754704495349,
                1.9899039463753536,
                1.9162953474053377,
                -0.1315028700490804,
                0.0053121056744253985
            ]
        }
    ]
}