{
    "goal": {
        "global_pose": {
            "orientation": {
                "w": 0.7047431468963623,
                "x": -0.7094548344612122,
                "y": 0.0024358443915843964,
                "z": -0.0022348060738295317
            },
            "position": {
                "x": 0.6094750761985779,
                "y": 0.3671506643295288,
                "z": 0.19426114857196808
            }
        },
        "name": "move_to_magneteinheit_A"
    },
    "id": "KPIECE_move_to_magneteinheit_A_64",
    "joint_names": [
        "shoulder_pan_joint",
        "shoulder_lift_joint",
        "elbow_joint",
        "wrist_1_joint",
        "wrist_2_joint",
        "wrist_3_joint"
    ],
    "metrics": {
        "cart_traj_len": 3.3066204028965185,
        "distance_elbow_joint": 3.877765225821648,
        "distance_shoulder_lift_joint": 0.9229113199083303,
        "distance_shoulder_pan_joint": 2.6695261900837552,
        "distance_wrist_1_joint": 1.310332101697679,
        "distance_wrist_2_joint": 2.8107742023625097,
        "distance_wrist_3_joint": 2.5960941196869753,
        "smoothness": 0.21462384480084165,
        "time": 0.122996906,
        "traj_len": 3.7666169382565178,
        "weighted_distance": 4.847751819451471
    },
    "planner": "KPIECE",
    "start": {
        "state": {
            "elbow_joint": -1.9196185241190666,
            "shoulder_lift_joint": -1.2443396400964142,
            "shoulder_pan_joint": 2.6996025414629847,
            "wrist_1_joint": -1.5485510000780065,
            "wrist_2_joint": -1.5709468930060704,
            "wrist_3_joint": 0.4420197071253992
        }
    },
    "waypoints": [
        {
            "positions": [
                2.6996025414629847,
                -1.2443396400964142,
                -1.9196185241190666,
                -1.5485510000780065,
                -1.5709468930060704,
                0.4420197071253992
            ]
        },
        {
            "positions": [
                2.595468777923167,
                -1.260570564640599,
                -1.7959183166600063,
                -1.5060594497770068,
                -1.4806475106074626,
                0.4478847077070276
            ]
        },
        {
            "positions": [
                2.4913350143833495,
                -1.2768014891847836,
                -1.6722181092009458,
                -1.4635678994760073,
                -1.3903481282088548,
                0.453749708288656
            ]
        },
        {
            "positions": [
                2.387201250843532,
                -1.2930324137289682,
                -1.5485179017418855,
                -1.4210763491750076,
                -1.3000487458102472,
                0.45961470887028444
            ]
        },
        {
            "positions": [
                2.2830674873037142,
                -1.3092633382731529,
                -1.424817694282825,
                -1.3785847988740079,
                -1.2097493634116394,
                0.4654797094519128
            ]
        },
        {
            "positions": [
                2.1789337237638966,
                -1.3254942628173376,
                -1.3011174868237645,
                -1.3360932485730082,
                -1.1194499810130316,
                0.4713447100335412
            ]
        },
        {
            "positions": [
                2.0747999602240794,
                -1.3417251873615224,
                -1.1774172793647044,
                -1.2936016982720087,
                -1.0291505986144238,
                0.47720971061516965
            ]
        },
        {
            "positions": [
                1.9706661966842616,
                -1.357956111905707,
                -1.053717071905644,
                -1.251110147971009,
                -0.938851216215816,
                0.48307471119679807
            ]
        },
        {
            "positions": [
                1.866532433144444,
                -1.3741870364498918,
                -0.9300168644465835,
                -1.2086185976700092,
                -0.8485518338172082,
                0.4889397117784265
            ]
        },
        {
            "positions": [
                1.7623986696046265,
                -1.3904179609940766,
                -0.8063166569875231,
                -1.1661270473690095,
                -0.7582524514186005,
                0.49480471236005485
            ]
        },
        {
            "positions": [
                1.6582649060648087,
                -1.406648885538261,
                -0.6826164495284626,
                -1.12363549706801,
                -0.6679530690199927,
                0.5006697129416833
            ]
        },
        {
            "positions": [
                1.5541311425249913,
                -1.4228798100824458,
                -0.5589162420694023,
                -1.0811439467670103,
                -0.5776536866213849,
                0.5065347135233117
            ]
        },
        {
            "positions": [
                1.4499973789851737,
                -1.4391107346266305,
                -0.435216034610342,
                -1.0386523964660106,
                -0.48735430422277726,
                0.5123997141049401
            ]
        },
        {
            "positions": [
                1.345863615445356,
                -1.4553416591708153,
                -0.31151582715128145,
                -0.996160846165011,
                -0.39705492182416946,
                0.5182647146865685
            ]
        },
        {
            "positions": [
                1.2417298519055384,
                -1.471572583715,
                -0.18781561969222094,
                -0.9536692958640113,
                -0.30675553942556166,
                0.524129715268197
            ]
        },
        {
            "positions": [
                1.137596088365721,
                -1.4878035082591845,
                -0.06411541223316086,
                -0.9111777455630118,
                -0.2164561570269541,
                0.5299947158498254
            ]
        },
        {
            "positions": [
                1.0334623248259032,
                -1.5040344328033695,
                0.059584795225899656,
                -0.8686861952620121,
                -0.12615677462834607,
                0.5358597164314538
            ]
        },
        {
            "positions": [
                0.9293285612860855,
                -1.520265357347554,
                0.1832850026849604,
                -0.8261946449610124,
                -0.03585739222973827,
                0.5417247170130822
            ]
        },
        {
            "positions": [
                0.8251947977462681,
                -1.5364962818917387,
                0.30698521014402047,
                -0.7837030946600128,
                0.0544419901688693,
                0.5475897175947106
            ]
        },
        {
            "positions": [
                0.7210610342064505,
                -1.5527272064359234,
                0.430685417603081,
                -0.7412115443590132,
                0.1447413725674771,
                0.553454718176339
            ]
        },
        {
            "positions": [
                0.6169272706666327,
                -1.5689581309801082,
                0.5543856250621415,
                -0.6987199940580134,
                0.2350407549660849,
                0.5593197187579675
            ]
        },
        {
            "positions": [
                0.5127935071268155,
                -1.585189055524293,
                0.6780858325212016,
                -0.6562284437570138,
                0.32534013736469247,
                0.5651847193395958
            ]
        },
        {
            "positions": [
                0.40865974358699786,
                -1.6014199800684774,
                0.8017860399802621,
                -0.6137368934560141,
                0.4156395197633005,
                0.5710497199212242
            ]
        },
        {
            "positions": [
                0.30452598004718023,
                -1.6176509046126624,
                0.9254862474393226,
                -0.5712453431550144,
                0.5059389021619081,
                0.5769147205028526
            ]
        },
        {
            "positions": [
                0.2003922165073626,
                -1.6338818291568469,
                1.0491864548983827,
                -0.5287537928540149,
                0.5962382845605159,
                0.5827797210844811
            ]
        },
        {
            "positions": [
                0.0962584529675449,
                -1.6501127537010316,
                1.1728866623574432,
                -0.4862622425530151,
                0.6865376669591237,
                0.5886447216661095
            ]
        },
        {
            "positions": [
                0.0945045307019059,
                -1.605663649964566,
                1.2407450714088828,
                -0.5081410245759762,
                0.639485440712087,
                0.7965279964102413
            ]
        },
        {
            "positions": [
                0.09275060843626688,
                -1.5612145462281002,
                1.3086034804603224,
                -0.5300198065989373,
                0.5924332144650504,
                1.0044112711543731
            ]
        },
        {
            "positions": [
                0.09099668617062788,
                -1.5167654424916346,
                1.3764618895117617,
                -0.5518985886218984,
                0.5453809882180138,
                1.212294545898505
            ]
        },
        {
            "positions": [
                0.08924276390498886,
                -1.472316338755169,
                1.4443202985632013,
                -0.5737773706448596,
                0.4983287619709772,
                1.4201778206426368
            ]
        },
        {
            "positions": [
                0.08748884163934986,
                -1.4278672350187034,
                1.512178707614641,
                -0.5956561526678207,
                0.45127653572394055,
                1.6280610953867687
            ]
        },
        {
            "positions": [
                0.08573491937371085,
                -1.3834181312822378,
                1.5800371166660805,
                -0.6175349346907818,
                0.40422430947690396,
                1.8359443701309004
            ]
        },
        {
            "positions": [
                0.08398099710807184,
                -1.338969027545772,
                1.64789552571752,
                -0.6394137167137429,
                0.3571720832298673,
                2.0438276448750323
            ]
        },
        {
            "positions": [
                0.08222707484243283,
                -1.2945199238093064,
                1.7157539347689594,
                -0.661292498736704,
                0.3101198569828307,
                2.251710919619164
            ]
        },
        {
            "positions": [
                0.08047315257679383,
                -1.2500708200728408,
                1.783612343820399,
                -0.6831712807596652,
                0.26306763073579403,
                2.459594194363296
            ]
        },
        {
            "positions": [
                0.07871923031115483,
                -1.205621716336375,
                1.8514707528718386,
                -0.7050500627826263,
                0.21601540448875745,
                2.667477469107428
            ]
        },
        {
            "positions": [
                0.07696530804551581,
                -1.1611726125999093,
                1.9193291619232782,
                -0.7269288448055874,
                0.1689631782417208,
                2.8753607438515596
            ]
        },
        {
            "positions": [
                0.12385426471180362,
                -1.1329745473973187,
                1.958146701702582,
                -0.7195521028854719,
                0.13324802456180715,
                3.0381138268123746
            ]
        }
    ]
}