{
    "goal": {
        "global_pose": {
            "orientation": {
                "w": -0.4816463035849501,
                "x": 0.5182115481033762,
                "y": 0.4908360881923453,
                "z": -0.5084816262002911
            },
            "position": {
                "x": -0.8240239810943604,
                "y": -0.300875300988555,
                "z": 0.16403168439865112
            }
        },
        "name": "move_to_storage_C"
    },
    "id": "KPIECE_move_to_storage_C_12",
    "joint_names": [
        "shoulder_pan_joint",
        "shoulder_lift_joint",
        "elbow_joint",
        "wrist_1_joint",
        "wrist_2_joint",
        "wrist_3_joint"
    ],
    "metrics": {
        "cart_traj_len": 0.5774838614676747,
        "distance_elbow_joint": 0.25777325810365226,
        "distance_shoulder_lift_joint": 0.18962565582495639,
        "distance_shoulder_pan_joint": 0.4947116504008675,
        "distance_wrist_1_joint": 0.07443264037519948,
        "distance_wrist_2_joint": 1.0745175294923297,
        "distance_wrist_3_joint": 0.06079452287885312,
        "smoothness": 2.5376526478085547e-16,
        "time": 0.014297643,
        "traj_len": 1.4669203308550396,
        "weighted_distance": 1.849971478888551
    },
    "planner": "KPIECE",
    "start": {
        "state": {
            "elbow_joint": 2.010868314990456,
            "shoulder_lift_joint": -1.1634956873337592,
            "shoulder_pan_joint": -2.4736205022346125,
            "wrist_1_joint": -0.8367026794202681,
            "wrist_2_joint": 0.6746043897044499,
            "wrist_3_joint": -3.1496632123970403
        }
    },
    "waypoints": [
        {
            "positions": [
                -2.4736205022346125,
                -1.1634956873337592,
                2.010868314990456,
                -0.8367026794202681,
                0.6746043897044499,
                -3.1496632123970403
            ]
        },
        {
            "positions": [
                -2.55607244396809,
                -1.131891411362933,
                1.9679061053065139,
                -0.8242972393577348,
                0.8536906446198382,
                -3.1395307919172315
            ]
        },
        {
            "positions": [
                -2.6385243857015683,
                -1.100287135392107,
                1.9249438956225717,
                -0.8118917992952016,
                1.0327768995352264,
                -3.1293983714374227
            ]
        },
        {
            "positions": [
                -2.7209763274350465,
                -1.068682859421281,
                1.8819816859386296,
                -0.7994863592326684,
                1.2118631544506147,
                -3.1192659509576135
            ]
        },
        {
            "positions": [
                -2.803428269168524,
                -1.037078583450455,
                1.8390194762546876,
                -0.7870809191701351,
                1.3909494093660029,
                -3.1091335304778047
            ]
        },
        {
            "positions": [
                -2.885880210902002,
                -1.0054743074796288,
                1.7960572665707457,
                -0.7746754791076018,
                1.5700356642813915,
                -3.099001109997996
            ]
        },
        {
            "positions": [
                -2.96833215263548,
                -0.9738700315088028,
                1.7530950568868036,
                -0.7622700390450686,
                1.7491219191967795,
                -3.088868689518187
            ]
        }
    ]
}