{
    "goal": {
        "global_pose": {
            "orientation": {
                "w": -0.4816463035849501,
                "x": 0.5182115481033762,
                "y": 0.4908360881923453,
                "z": -0.5084816262002911
            },
            "position": {
                "x": -0.8240239810943604,
                "y": -0.300875300988555,
                "z": 0.16403168439865112
            }
        },
        "name": "move_to_storage_C"
    },
    "id": "KPIECE_move_to_storage_C_111",
    "joint_names": [
        "shoulder_pan_joint",
        "shoulder_lift_joint",
        "elbow_joint",
        "wrist_1_joint",
        "wrist_2_joint",
        "wrist_3_joint"
    ],
    "metrics": {
        "cart_traj_len": 0.5763814694650209,
        "distance_elbow_joint": 0.2561126543027421,
        "distance_shoulder_lift_joint": 0.18984247684921984,
        "distance_shoulder_pan_joint": 0.49528610183235067,
        "distance_wrist_1_joint": 0.07007490060097743,
        "distance_wrist_2_joint": 1.059602270729605,
        "distance_wrist_3_joint": 0.05833388936384276,
        "smoothness": 2.5376526478085547e-16,
        "time": 0.015956148,
        "traj_len": 1.4591957694835664,
        "weighted_distance": 1.8372798490532154
    },
    "planner": "KPIECE",
    "start": {
        "state": {
            "elbow_joint": 2.010868314990456,
            "shoulder_lift_joint": -1.1634956873337592,
            "shoulder_pan_joint": -2.4736205022346125,
            "wrist_1_joint": -0.8367026794202681,
            "wrist_2_joint": 0.6746043897044499,
            "wrist_3_joint": -3.1496632123970403
        }
    },
    "waypoints": [
        {
            "positions": [
                -2.4736205022346125,
                -1.1634956873337592,
                2.010868314990456,
                -0.8367026794202681,
                0.6746043897044499,
                -3.1496632123970403
            ]
        },
        {
            "positions": [
                -2.5561681858733376,
                -1.131855274525556,
                1.9681828726066655,
                -0.8250235293201051,
                0.8512047681593841,
                -3.1399408975030667
            ]
        },
        {
            "positions": [
                -2.6387158695120627,
                -1.1002148617173526,
                1.9254974302228751,
                -0.8133443792199423,
                1.0278051466143183,
                -3.1302185826090927
            ]
        },
        {
            "positions": [
                -2.721263553150788,
                -1.0685744489091493,
                1.8828119878390848,
                -0.8016652291197794,
                1.2044055250692525,
                -3.1204962677151187
            ]
        },
        {
            "positions": [
                -2.803811236789513,
                -1.036934036100946,
                1.8401265454552944,
                -0.7899860790196165,
                1.3810059035241866,
                -3.110773952821145
            ]
        },
        {
            "positions": [
                -2.886358920428238,
                -1.0052936232927427,
                1.797441103071504,
                -0.7783069289194535,
                1.5576062819791208,
                -3.1010516379271715
            ]
        },
        {
            "positions": [
                -2.968906604066963,
                -0.9736532104845393,
                1.7547556606877137,
                -0.7666277788192907,
                1.7342066604340547,
                -3.0913293230331975
            ]
        }
    ]
}