{
    "goal": {
        "global_pose": {
            "orientation": {
                "w": 0.7031023502349854,
                "x": -0.7110244035720825,
                "y": 0.007748599164187908,
                "z": 0.005598929710686207
            },
            "position": {
                "x": 0.11585023208521307,
                "y": 0.44412534475326537,
                "z": 0.3711530566215515
            }
        },
        "name": "move_to_auspresseinheit_A"
    },
    "id": "KPIECE_move_to_auspresseinheit_A_120",
    "joint_names": [
        "shoulder_pan_joint",
        "shoulder_lift_joint",
        "elbow_joint",
        "wrist_1_joint",
        "wrist_2_joint",
        "wrist_3_joint"
    ],
    "metrics": {
        "cart_traj_len": 3.5320512161863777,
        "distance_elbow_joint": 2.4537495332751864,
        "distance_shoulder_lift_joint": 2.833306293249241,
        "distance_shoulder_pan_joint": 2.114328825240382,
        "distance_wrist_1_joint": 3.0274405520898213,
        "distance_wrist_2_joint": 1.956202149317273,
        "distance_wrist_3_joint": 2.606442273545035,
        "smoothness": 0.7990566308204173,
        "time": 0.574406088,
        "traj_len": 3.8718819231372406,
        "weighted_distance": 5.018764476961844
    },
    "planner": "KPIECE",
    "start": {
        "state": {
            "elbow_joint": 2.4225746658250005,
            "shoulder_lift_joint": -1.3736534386056498,
            "shoulder_pan_joint": -0.3378633547517467,
            "wrist_1_joint": -1.0288598680537169,
            "wrist_2_joint": 1.233022673432363,
            "wrist_3_joint": -3.0940220416140027
        }
    },
    "waypoints": [
        {
            "positions": [
                -0.3378633547517467,
                -1.3736534386056498,
                2.4225746658250005,
                -1.0288598680537169,
                1.233022673432363,
                -3.0940220416140027
            ]
        },
        {
            "positions": [
                -0.2627268362138498,
                -1.4538629919464752,
                2.3634423909764264,
                -0.9432407039780306,
                1.2669242427926581,
                -3.0328359493156647
            ]
        },
        {
            "positions": [
                -0.18759031767595283,
                -1.5340725452873007,
                2.3043101161278523,
                -0.8576215399023445,
                1.3008258121529532,
                -2.9716498570173266
            ]
        },
        {
            "positions": [
                -0.11245379913805587,
                -1.614282098628126,
                2.2451778412792787,
                -0.7720023758266583,
                1.3347273815132485,
                -2.910463764718988
            ]
        },
        {
            "positions": [
                -0.03731728060015893,
                -1.6944916519689515,
                2.1860455664307046,
                -0.686383211750972,
                1.3686289508735436,
                -2.84927767242065
            ]
        },
        {
            "positions": [
                0.03781923793773806,
                -1.7747012053097768,
                2.1269132915821305,
                -0.6007640476752858,
                1.4025305202338387,
                -2.788091580122312
            ]
        },
        {
            "positions": [
                0.112955756475635,
                -1.8549107586506022,
                2.0677810167335564,
                -0.5151448835995996,
                1.4364320895941338,
                -2.726905487823974
            ]
        },
        {
            "positions": [
                0.18809227501353193,
                -1.9351203119914278,
                2.0086487418849828,
                -0.4295257195239135,
                1.4703336589544291,
                -2.665719395525636
            ]
        },
        {
            "positions": [
                0.26322879355142886,
                -2.0153298653322533,
                1.9495164670364087,
                -0.34390655544822724,
                1.5042352283147242,
                -2.6045333032272975
            ]
        },
        {
            "positions": [
                0.3383653120893258,
                -2.0955394186730785,
                1.8903841921878346,
                -0.2582873913725411,
                1.5381367976750193,
                -2.5433472109289594
            ]
        },
        {
            "positions": [
                0.41350183062722284,
                -2.175748972013904,
                1.8312519173392605,
                -0.17266822729685483,
                1.5720383670353144,
                -2.4821611186306214
            ]
        },
        {
            "positions": [
                0.4886383491651198,
                -2.2559585253547296,
                1.7721196424906864,
                -0.08704906322116857,
                1.6059399363956097,
                -2.4209750263322833
            ]
        },
        {
            "positions": [
                0.5637748677030168,
                -2.3361680786955548,
                1.7129873676421128,
                -0.0014298991454824161,
                1.6398415057559048,
                -2.3597889340339453
            ]
        },
        {
            "positions": [
                0.6389113862409137,
                -2.4163776320363803,
                1.6538550927935387,
                0.08418926493020384,
                1.6737430751162,
                -2.2986028417356072
            ]
        },
        {
            "positions": [
                0.7140479047788106,
                -2.496587185377206,
                1.5947228179449646,
                0.16980842900588988,
                1.707644644476495,
                -2.237416749437269
            ]
        },
        {
            "positions": [
                0.7891844233167078,
                -2.576796738718031,
                1.5355905430963905,
                0.25542759308157637,
                1.74154621383679,
                -2.1762306571389307
            ]
        },
        {
            "positions": [
                0.8643209418546045,
                -2.657006292058856,
                1.4764582682478167,
                0.3410467571572624,
                1.7754477831970852,
                -2.1150445648405927
            ]
        },
        {
            "positions": [
                0.9394574603925017,
                -2.7372158453996818,
                1.4173259933992426,
                0.42666592123294866,
                1.8093493525573805,
                -2.053858472542254
            ]
        },
        {
            "positions": [
                1.0145939789303984,
                -2.8174253987405073,
                1.3581937185506687,
                0.5122850853086347,
                1.8432509219176756,
                -1.9926723802439164
            ]
        },
        {
            "positions": [
                1.0897304974682955,
                -2.897634952081333,
                1.2990614437020946,
                0.5979042493843212,
                1.877152491277971,
                -1.9314862879455783
            ]
        },
        {
            "positions": [
                1.1648670160061925,
                -2.977844505422158,
                1.2399291688535208,
                0.6835234134600072,
                1.911054060638266,
                -1.8703001956472403
            ]
        },
        {
            "positions": [
                1.2400035345440894,
                -3.0580540587629836,
                1.1807968940049467,
                0.7691425775356935,
                1.944955629998561,
                -1.809114103348902
            ]
        },
        {
            "positions": [
                1.2084469500767632,
                -2.9904713721105187,
                1.252089350561131,
                0.6968226889180223,
                1.8717633245426155,
                -1.8868514171888982
            ]
        },
        {
            "positions": [
                1.176890365609437,
                -2.9228886854580534,
                1.3233818071173151,
                0.6245028003003512,
                1.79857101908667,
                -1.9645887310288943
            ]
        },
        {
            "positions": [
                1.1453337811421107,
                -2.8553059988055884,
                1.3946742636734994,
                0.5521829116826802,
                1.7253787136307244,
                -2.0423260448688905
            ]
        },
        {
            "positions": [
                1.1137771966747845,
                -2.787723312153123,
                1.4659667202296838,
                0.47986302306500905,
                1.6521864081747788,
                -2.1200633587088866
            ]
        },
        {
            "positions": [
                1.0822206122074582,
                -2.720140625500658,
                1.537259176785868,
                0.407543134447338,
                1.578994102718833,
                -2.197800672548883
            ]
        },
        {
            "positions": [
                1.0506640277401322,
                -2.652557938848193,
                1.6085516333420524,
                0.33522324582966684,
                1.5058017972628874,
                -2.275537986388879
            ]
        },
        {
            "positions": [
                1.019107443272806,
                -2.584975252195728,
                1.6798440898982365,
                0.26290335721199576,
                1.432609491806942,
                -2.3532753002288747
            ]
        },
        {
            "positions": [
                0.9875508588054798,
                -2.517392565543263,
                1.7511365464544209,
                0.19058346859432462,
                1.3594171863509963,
                -2.4310126140688713
            ]
        },
        {
            "positions": [
                0.9559942743381535,
                -2.4498098788907976,
                1.8224290030106052,
                0.1182635799766536,
                1.2862248808950507,
                -2.508749927908867
            ]
        },
        {
            "positions": [
                0.9244376898708273,
                -2.3822271922383327,
                1.8937214595667895,
                0.045943691358982464,
                1.213032575439105,
                -2.5864872417488636
            ]
        },
        {
            "positions": [
                0.8928811054035011,
                -2.3146445055858678,
                1.9650139161229738,
                -0.02637619725868867,
                1.1398402699831593,
                -2.6642245555888593
            ]
        },
        {
            "positions": [
                0.8613245209361748,
                -2.2470618189334024,
                2.036306372679158,
                -0.09869608587635981,
                1.0666479645272138,
                -2.741961869428856
            ]
        },
        {
            "positions": [
                0.8297679364688486,
                -2.1794791322809375,
                2.107598829235342,
                -0.17101597449403083,
                0.9934556590712684,
                -2.8196991832688516
            ]
        },
        {
            "positions": [
                0.7982113520015224,
                -2.111896445628472,
                2.1788912857915266,
                -0.24333586311170197,
                0.9202633536153229,
                -2.8974364971088478
            ]
        },
        {
            "positions": [
                0.7666547675341963,
                -2.044313758976007,
                2.2501837423477107,
                -0.315655751729373,
                0.8470710481593771,
                -2.975173810948844
            ]
        },
        {
            "positions": [
                0.73509818306687,
                -1.976731072323542,
                2.321476198903895,
                -0.38797564034704424,
                0.7738787427034315,
                -3.05291112478884
            ]
        },
        {
            "positions": [
                0.7035415985995438,
                -1.909148385671077,
                2.3927686554600793,
                -0.4602955289647153,
                0.700686437247486,
                -3.1306484386288362
            ]
        }
    ]
}