{
    "goal": {
        "global_pose": {
            "orientation": {
                "w": 0.5084816262002911,
                "x": -0.4908360881923452,
                "y": 0.5182115481033761,
                "z": -0.48164630358495003
            },
            "position": {
                "x": 0.5540239810943604,
                "y": -0.46912469901144505,
                "z": 0.16403168439865112
            }
        },
        "name": "move_to_storage_B"
    },
    "id": "KPIECE_move_to_storage_B_21",
    "joint_names": [
        "shoulder_pan_joint",
        "shoulder_lift_joint",
        "elbow_joint",
        "wrist_1_joint",
        "wrist_2_joint",
        "wrist_3_joint"
    ],
    "metrics": {
        "cart_traj_len": 0.8438934846316979,
        "distance_elbow_joint": 0.8110842459028902,
        "distance_shoulder_lift_joint": 0.8373715068474419,
        "distance_shoulder_pan_joint": 0.18115798671028138,
        "distance_wrist_1_joint": 2.9810286839904085,
        "distance_wrist_2_joint": 2.7050164786923734,
        "distance_wrist_3_joint": 3.1486722759711223,
        "smoothness": 0.1411583842892253,
        "time": 0.045763649000000003,
        "traj_len": 3.265628756934033,
        "weighted_distance": 4.75896216550831
    },
    "planner": "KPIECE",
    "start": {
        "state": {
            "elbow_joint": 1.664937868594044,
            "shoulder_lift_joint": -0.661644460510453,
            "shoulder_pan_joint": -0.9139846352900073,
            "wrist_1_joint": 2.146753192139373,
            "wrist_2_joint": -2.2341966793290973,
            "wrist_3_joint": 0.005466555786416001
        }
    },
    "waypoints": [
        {
            "positions": [
                -0.9139846352900073,
                -0.661644460510453,
                1.664937868594044,
                2.146753192139373,
                -2.2341966793290973,
                0.005466555786416001
            ]
        },
        {
            "positions": [
                -0.9202409036561436,
                -0.6957472312969302,
                1.6954724094975517,
                2.0066990237507456,
                -2.117224858608066,
                -0.0597874040128889
            ]
        },
        {
            "positions": [
                -0.9264971720222801,
                -0.7298500020834072,
                1.7260069504010593,
                1.8666448553621182,
                -2.0002530378870356,
                -0.1250413638121938
            ]
        },
        {
            "positions": [
                -0.9327534403884165,
                -0.7639527728698844,
                1.7565414913045672,
                1.7265906869734908,
                -1.8832812171660045,
                -0.1902953236114987
            ]
        },
        {
            "positions": [
                -0.9390097087545529,
                -0.7980555436563616,
                1.787076032208075,
                1.5865365185848632,
                -1.7663093964449734,
                -0.2555492834108036
            ]
        },
        {
            "positions": [
                -0.9452659771206893,
                -0.8321583144428386,
                1.8176105731115828,
                1.446482350196236,
                -1.6493375757239426,
                -0.3208032432101085
            ]
        },
        {
            "positions": [
                -0.9515222454868257,
                -0.8662610852293158,
                1.8481451140150904,
                1.3064281818076084,
                -1.5323657550029117,
                -0.3860572030094134
            ]
        },
        {
            "positions": [
                -0.9577785138529621,
                -0.9003638560157929,
                1.8786796549185982,
                1.1663740134189808,
                -1.4153939342818807,
                -0.4513111628087183
            ]
        },
        {
            "positions": [
                -0.9640347822190984,
                -0.9344666268022701,
                1.909214195822106,
                1.0263198450303535,
                -1.2984221135608496,
                -0.5165651226080232
            ]
        },
        {
            "positions": [
                -0.9702910505852349,
                -0.9685693975887472,
                1.9397487367256137,
                0.8862656766417261,
                -1.1814502928398187,
                -0.5818190824073282
            ]
        },
        {
            "positions": [
                -0.9765473189513713,
                -1.0026721683752242,
                1.9702832776291215,
                0.7462115082530987,
                -1.0644784721187879,
                -0.6470730422066331
            ]
        },
        {
            "positions": [
                -0.9828035873175077,
                -1.0367749391617014,
                2.0008178185326293,
                0.6061573398644711,
                -0.9475066513977568,
                -0.712327002005938
            ]
        },
        {
            "positions": [
                -0.9890598556836441,
                -1.0708777099481785,
                2.031352359436137,
                0.4661031714758437,
                -0.830534830676726,
                -0.7775809618052428
            ]
        },
        {
            "positions": [
                -0.9953161240497805,
                -1.1049804807346557,
                2.061886900339645,
                0.32604900308721607,
                -0.7135630099556949,
                -0.8428349216045478
            ]
        },
        {
            "positions": [
                -1.0015723924159168,
                -1.1390832515211329,
                2.0924214412431525,
                0.18599483469858868,
                -0.596591189234664,
                -0.9080888814038527
            ]
        },
        {
            "positions": [
                -1.0078286607820532,
                -1.1731860223076098,
                2.12295598214666,
                0.0459406663099613,
                -0.47961936851363296,
                -0.9733428412031576
            ]
        },
        {
            "positions": [
                -1.0140849291481897,
                -1.207288793094087,
                2.153490523050168,
                -0.09411350207866631,
                -0.3626475477926021,
                -1.0385968010024624
            ]
        },
        {
            "positions": [
                -1.0203411975143262,
                -1.2413915638805642,
                2.184025063953676,
                -0.23416767046729392,
                -0.24567572707157104,
                -1.1038507608017674
            ]
        },
        {
            "positions": [
                -1.0265974658804624,
                -1.2754943346670413,
                2.2145596048571834,
                -0.3742218388559211,
                -0.1287039063505402,
                -1.1691047206010723
            ]
        },
        {
            "positions": [
                -1.0328537342465989,
                -1.3095971054535185,
                2.2450941457606914,
                -0.5142760072445487,
                -0.011732085629509115,
                -1.2343586804003772
            ]
        },
        {
            "positions": [
                -1.0397747217747866,
                -1.2885505652419211,
                2.219435482567776,
                -0.5498315055341584,
                0.041884790480800224,
                -1.4464527959319693
            ]
        },
        {
            "positions": [
                -1.0466957093029743,
                -1.2675040250303238,
                2.1937768193748597,
                -0.5853870038237681,
                0.09550166659110956,
                -1.6585469114635614
            ]
        },
        {
            "positions": [
                -1.0536166968311622,
                -1.2464574848187264,
                2.168118156181944,
                -0.6209425021133776,
                0.1491185427014189,
                -1.8706410269951534
            ]
        },
        {
            "positions": [
                -1.06053768435935,
                -1.225410944607129,
                2.142459492989028,
                -0.6564980004029873,
                0.20273541881172824,
                -2.0827351425267455
            ]
        },
        {
            "positions": [
                -1.0674586718875376,
                -1.2043644043955315,
                2.1168008297961123,
                -0.692053498692597,
                0.2563522949220376,
                -2.294829258058338
            ]
        },
        {
            "positions": [
                -1.0743796594157253,
                -1.1833178641839341,
                2.091142166603196,
                -0.7276089969822066,
                0.3099691710323469,
                -2.5069233735899297
            ]
        },
        {
            "positions": [
                -1.0813006469439133,
                -1.1622713239723368,
                2.0654835034102805,
                -0.7631644952718164,
                0.3635860471426563,
                -2.719017489121522
            ]
        },
        {
            "positions": [
                -1.088221634472101,
                -1.1412247837607394,
                2.0398248402173644,
                -0.798719993561426,
                0.4172029232529656,
                -2.931111604653114
            ]
        },
        {
            "positions": [
                -1.0951426220002887,
                -1.120178243549142,
                2.014166177024449,
                -0.8342754918510357,
                0.47081979936327495,
                -3.143205720184706
            ]
        }
    ]
}