{
    "goal": {
        "global_pose": {
            "orientation": {
                "w": -0.4816463035849501,
                "x": 0.5182115481033762,
                "y": 0.4908360881923453,
                "z": -0.5084816262002911
            },
            "position": {
                "x": -0.8240239810943604,
                "y": -0.300875300988555,
                "z": 0.16403168439865112
            }
        },
        "name": "move_to_storage_C"
    },
    "id": "KPIECE_move_to_storage_C_38",
    "joint_names": [
        "shoulder_pan_joint",
        "shoulder_lift_joint",
        "elbow_joint",
        "wrist_1_joint",
        "wrist_2_joint",
        "wrist_3_joint"
    ],
    "metrics": {
        "cart_traj_len": 0.5767350101538227,
        "distance_elbow_joint": 0.2591140770469156,
        "distance_shoulder_lift_joint": 0.18942449199227218,
        "distance_shoulder_pan_joint": 0.4954011925347812,
        "distance_wrist_1_joint": 0.0803694459690506,
        "distance_wrist_2_joint": 1.0603265834825506,
        "distance_wrist_3_joint": 0.07144783738018923,
        "smoothness": 2.5376526478085547e-16,
        "time": 0.075904097,
        "traj_len": 1.4683608645036,
        "weighted_distance": 1.8546361725734077
    },
    "planner": "KPIECE",
    "start": {
        "state": {
            "elbow_joint": 2.010868314990456,
            "shoulder_lift_joint": -1.1634956873337592,
            "shoulder_pan_joint": -2.4736205022346125,
            "wrist_1_joint": -0.8367026794202681,
            "wrist_2_joint": 0.6746043897044499,
            "wrist_3_joint": -3.1496632123970403
        }
    },
    "waypoints": [
        {
            "positions": [
                -2.4736205022346125,
                -1.1634956873337592,
                2.010868314990456,
                -0.8367026794202681,
                0.6746043897044499,
                -3.1496632123970403
            ]
        },
        {
            "positions": [
                -2.556187367657076,
                -1.1319249386683805,
                1.9676826354826367,
                -0.8233077717587597,
                0.8513254869515416,
                -3.137755239500342
            ]
        },
        {
            "positions": [
                -2.6387542330795397,
                -1.1003541900030018,
                1.9244969559748173,
                -0.8099128640972513,
                1.0280465841986335,
                -3.125847266603644
            ]
        },
        {
            "positions": [
                -2.721321098502003,
                -1.0687834413376232,
                1.881311276466998,
                -0.7965179564357427,
                1.204767681445725,
                -3.1139392937069457
            ]
        },
        {
            "positions": [
                -2.8038879639244665,
                -1.0372126926722445,
                1.8381255969591788,
                -0.7831230487742343,
                1.381488778692817,
                -3.1020313208102475
            ]
        },
        {
            "positions": [
                -2.8864548293469303,
                -1.0056419440068658,
                1.7949399174513596,
                -0.7697281411127259,
                1.5582098759399088,
                -3.0901233479135493
            ]
        },
        {
            "positions": [
                -2.9690216947693937,
                -0.974071195341487,
                1.7517542379435402,
                -0.7563332334512175,
                1.7349309731870006,
                -3.078215375016851
            ]
        }
    ]
}