{
    "goal": {
        "global_pose": {
            "orientation": {
                "w": -0.00223480608172531,
                "x": 0.0024358444001904467,
                "y": 0.7094548369677653,
                "z": -0.704743149386269
            },
            "position": {
                "x": -0.37947507619857795,
                "y": -0.6371506643295288,
                "z": 0.19426114857196808
            }
        },
        "name": "move_to_magneteinheit_C"
    },
    "id": "KPIECE_move_to_magneteinheit_C_50",
    "joint_names": [
        "shoulder_pan_joint",
        "shoulder_lift_joint",
        "elbow_joint",
        "wrist_1_joint",
        "wrist_2_joint",
        "wrist_3_joint"
    ],
    "metrics": {
        "cart_traj_len": 4.934896933776924,
        "distance_elbow_joint": 0.21736195547189974,
        "distance_shoulder_lift_joint": 3.330311554741617,
        "distance_shoulder_pan_joint": 6.754663035401087,
        "distance_wrist_1_joint": 0.6296048838498989,
        "distance_wrist_2_joint": 3.5886054283394793,
        "distance_wrist_3_joint": 3.7972156018769923,
        "smoothness": 0.7046158644368766,
        "time": 0.552583541,
        "traj_len": 4.279925520342728,
        "weighted_distance": 5.489116866639326
    },
    "planner": "KPIECE",
    "start": {
        "state": {
            "elbow_joint": 1.9565354010623817,
            "shoulder_lift_joint": -1.4165861575791021,
            "shoulder_pan_joint": -1.6717766225146293,
            "wrist_1_joint": -0.5286633292919765,
            "wrist_2_joint": 1.472756589071564,
            "wrist_3_joint": -3.1238370188695823
        }
    },
    "waypoints": [
        {
            "positions": [
                -1.6717766225146293,
                -1.4165861575791021,
                1.9565354010623817,
                -0.5286633292919765,
                1.472756589071564,
                -3.1238370188695823
            ]
        },
        {
            "positions": [
                -1.5424180477599108,
                -1.4834633948133242,
                1.9530077016953296,
                -0.5218287438066351,
                1.3771488506530756,
                -3.041593163772906
            ]
        },
        {
            "positions": [
                -1.4130594730051924,
                -1.5503406320475464,
                1.9494800023282777,
                -0.5149941583212937,
                1.2815411122345872,
                -2.95934930867623
            ]
        },
        {
            "positions": [
                -1.283700898250474,
                -1.6172178692817685,
                1.9459523029612256,
                -0.5081595728359524,
                1.1859333738160989,
                -2.8771054535795537
            ]
        },
        {
            "positions": [
                -1.1543423234957555,
                -1.6840951065159904,
                1.9424246035941735,
                -0.501324987350611,
                1.0903256353976103,
                -2.7948615984828775
            ]
        },
        {
            "positions": [
                -1.024983748741037,
                -1.7509723437502127,
                1.9388969042271216,
                -0.4944904018652696,
                0.9947178969791219,
                -2.712617743386201
            ]
        },
        {
            "positions": [
                -0.8956251739863186,
                -1.8178495809844346,
                1.9353692048600695,
                -0.4876558163799283,
                0.8991101585606336,
                -2.6303738882895247
            ]
        },
        {
            "positions": [
                -0.7662665992316,
                -1.884726818218657,
                1.9318415054930174,
                -0.4808212308945869,
                0.8035024201421451,
                -2.5481300331928485
            ]
        },
        {
            "positions": [
                -0.6369080244768817,
                -1.9516040554528788,
                1.9283138061259653,
                -0.4739866454092455,
                0.7078946817236568,
                -2.4658861780961723
            ]
        },
        {
            "positions": [
                -0.5075494497221631,
                -2.018481292687101,
                1.9247861067589134,
                -0.4671520599239042,
                0.6122869433051684,
                -2.383642322999496
            ]
        },
        {
            "positions": [
                -0.37819087496744475,
                -2.085358529921323,
                1.9212584073918613,
                -0.4603174744385628,
                0.5166792048866801,
                -2.30139846790282
            ]
        },
        {
            "positions": [
                -0.24883230021272618,
                -2.1522357671555454,
                1.9177307080248092,
                -0.4534828889532214,
                0.4210714664681916,
                -2.2191546128061432
            ]
        },
        {
            "positions": [
                -0.11947372545800783,
                -2.2191130043897673,
                1.9142030086577573,
                -0.4466483034678801,
                0.32546372804970325,
                -2.136910757709467
            ]
        },
        {
            "positions": [
                0.009884849296710518,
                -2.2859902416239892,
                1.9106753092907052,
                -0.4398137179825387,
                0.2298559896312149,
                -2.054666902612791
            ]
        },
        {
            "positions": [
                0.1392434240514293,
                -2.3528674788582116,
                1.907147609923653,
                -0.4329791324971973,
                0.13424825121272632,
                -1.9724230475161146
            ]
        },
        {
            "positions": [
                0.26860199880614766,
                -2.419744716092434,
                1.9036199105566012,
                -0.426144547011856,
                0.03864051279423797,
                -1.8901791924194384
            ]
        },
        {
            "positions": [
                0.397960573560866,
                -2.4866219533266554,
                1.900092211189549,
                -0.4193099615265146,
                -0.056967225624250384,
                -1.8079353373227622
            ]
        },
        {
            "positions": [
                0.5273191483155844,
                -2.5534991905608777,
                1.896564511822497,
                -0.41247537604117324,
                -0.15257496404273851,
                -1.725691482226086
            ]
        },
        {
            "positions": [
                0.6566777230703031,
                -2.6203764277951,
                1.8930368124554449,
                -0.4056407905558319,
                -0.2481827024612271,
                -1.6434476271294096
            ]
        },
        {
            "positions": [
                0.7860362978250215,
                -2.687253665029322,
                1.889509113088393,
                -0.3988062050704905,
                -0.34379044087971544,
                -1.5612037720327334
            ]
        },
        {
            "positions": [
                0.9153948725797398,
                -2.754130902263544,
                1.8859814137213409,
                -0.39197161958514914,
                -0.4393981792982038,
                -1.4789599169360572
            ]
        },
        {
            "positions": [
                1.0447534473344582,
                -2.821008139497766,
                1.8824537143542888,
                -0.3851370340998078,
                -0.5350059177166924,
                -1.396716061839381
            ]
        },
        {
            "positions": [
                1.174112022089177,
                -2.8878853767319885,
                1.8789260149872369,
                -0.3783024486144664,
                -0.6306136561351807,
                -1.3144722067427046
            ]
        },
        {
            "positions": [
                1.303470596843895,
                -2.9547626139662104,
                1.8753983156201848,
                -0.37146786312912505,
                -0.7262213945536691,
                -1.2322283516460284
            ]
        },
        {
            "positions": [
                1.1459949378421217,
                -2.8800903182014395,
                1.8810743518714224,
                -0.39115158886608536,
                -0.6683202510239088,
                -1.3116286405899216
            ]
        },
        {
            "positions": [
                0.9885192788403485,
                -2.805418022436668,
                1.88675038812266,
                -0.4108353146030457,
                -0.6104191074941486,
                -1.391028929533815
            ]
        },
        {
            "positions": [
                0.8310436198385751,
                -2.730745726671897,
                1.8924264243738977,
                -0.430519040340006,
                -0.5525179639643883,
                -1.4704292184777081
            ]
        },
        {
            "positions": [
                0.6735679608368018,
                -2.656073430907126,
                1.8981024606251353,
                -0.4502027660769663,
                -0.4946168204346281,
                -1.5498295074216013
            ]
        },
        {
            "positions": [
                0.5160923018350284,
                -2.5814011351423547,
                1.903778496876373,
                -0.4698864918139266,
                -0.43671567690486784,
                -1.6292297963654947
            ]
        },
        {
            "positions": [
                0.3586166428332551,
                -2.5067288393775837,
                1.9094545331276105,
                -0.4895702175508869,
                -0.3788145333751076,
                -1.7086300853093879
            ]
        },
        {
            "positions": [
                0.2011409838314817,
                -2.4320565436128123,
                1.915130569378848,
                -0.5092539432878472,
                -0.32091338984534734,
                -1.7880303742532813
            ]
        },
        {
            "positions": [
                0.04366532482970853,
                -2.3573842478480413,
                1.9208066056300857,
                -0.5289376690248075,
                -0.2630122463155872,
                -1.8674306631971742
            ]
        },
        {
            "positions": [
                -0.11381033417206488,
                -2.28271195208327,
                1.9264826418813232,
                -0.5486213947617679,
                -0.2051111027858269,
                -1.9468309521410676
            ]
        },
        {
            "positions": [
                -0.2712859931738383,
                -2.208039656318499,
                1.932158678132561,
                -0.5683051204987282,
                -0.1472099592560666,
                -2.026231241084961
            ]
        },
        {
            "positions": [
                -0.42876165217561146,
                -2.133367360553728,
                1.9378347143837986,
                -0.5879888462356885,
                -0.08930881572630645,
                -2.105631530028854
            ]
        },
        {
            "positions": [
                -0.5862373111773849,
                -2.0586950647889566,
                1.9435107506350362,
                -0.6076725719726488,
                -0.031407672196546166,
                -2.1850318189727473
            ]
        },
        {
            "positions": [
                -0.7437129701791583,
                -1.9840227690241856,
                1.9491867868862738,
                -0.6273562977096091,
                0.026493471333214003,
                -2.2644321079166403
            ]
        },
        {
            "positions": [
                -0.9011886291809317,
                -1.9093504732594144,
                1.9548628231375114,
                -0.6470400234465694,
                0.0843946148629744,
                -2.3438323968605337
            ]
        },
        {
            "positions": [
                -1.0586642881827046,
                -1.8346781774946432,
                1.9605388593887492,
                -0.6667237491835297,
                0.14229575839273456,
                -2.423232685804427
            ]
        },
        {
            "positions": [
                -1.216139947184478,
                -1.7600058817298723,
                1.9662148956399867,
                -0.68640747492049,
                0.20019690192249473,
                -2.5026329747483205
            ]
        },
        {
            "positions": [
                -1.3736156061862514,
                -1.6853335859651009,
                1.9718909318912243,
                -0.7060912006574503,
                0.2580980454522551,
                -2.582033263692214
            ]
        },
        {
            "positions": [
                -1.5310912651880249,
                -1.6106612902003299,
                1.977566968142462,
                -0.7257749263944107,
                0.3159991889820153,
                -2.661433552636107
            ]
        },
        {
            "positions": [
                -1.6885669241897983,
                -1.5359889944355587,
                1.9832430043936995,
                -0.745458652131371,
                0.37390033251177557,
                -2.7408338415799998
            ]
        },
        {
            "positions": [
                -1.8460425831915717,
                -1.4613166986707875,
                1.988919040644937,
                -0.7651423778683313,
                0.43180147604153585,
                -2.820234130523893
            ]
        },
        {
            "positions": [
                -2.003518242193345,
                -1.3866444029060163,
                1.9945950768961747,
                -0.7848261036052916,
                0.4897026195712959,
                -2.8996344194677866
            ]
        },
        {
            "positions": [
                -2.160993901195118,
                -1.3119721071412453,
                2.0002711131474125,
                -0.8045098293422519,
                0.5476037631010562,
                -2.97903470841168
            ]
        },
        {
            "positions": [
                -2.3184695601968914,
                -1.237299811376474,
                2.00594714939865,
                -0.8241935550792122,
                0.6055049066308165,
                -3.0584349973555733
            ]
        },
        {
            "positions": [
                -2.475945219198665,
                -1.162627515611703,
                2.0116231856498876,
                -0.8438772808161725,
                0.6634060501605766,
                -3.1378352862994663
            ]
        }
    ]
}