{
    "goal": {
        "global_pose": {
            "orientation": {
                "w": 0.005598929693374612,
                "x": 0.007748599140229565,
                "y": 0.7110244013736278,
                "z": -0.7031023480610252
            },
            "position": {
                "x": -0.8858502320852131,
                "y": -0.7141253447532654,
                "z": 0.3711530566215515
            }
        },
        "name": "move_to_auspresseinheit_C"
    },
    "id": "KPIECE_move_to_auspresseinheit_C_1",
    "joint_names": [
        "shoulder_pan_joint",
        "shoulder_lift_joint",
        "elbow_joint",
        "wrist_1_joint",
        "wrist_2_joint",
        "wrist_3_joint"
    ],
    "metrics": {
        "cart_traj_len": 0.4917156377452556,
        "distance_elbow_joint": 0.9892565964649378,
        "distance_shoulder_lift_joint": 0.3198781250871944,
        "distance_shoulder_pan_joint": 0.25538565863053364,
        "distance_wrist_1_joint": 0.6563899123975266,
        "distance_wrist_2_joint": 1.315547452057822,
        "distance_wrist_3_joint": 0.03781539188185867,
        "smoothness": 1.6148698667872622e-16,
        "time": 0.341977905,
        "traj_len": 1.8905748164301441,
        "weighted_distance": 2.3710422359669048
    },
    "planner": "KPIECE",
    "start": {
        "state": {
            "elbow_joint": 1.7527959577737207,
            "shoulder_lift_joint": -0.9740617694225068,
            "shoulder_pan_joint": -2.967991417825858,
            "wrist_1_joint": -0.759517768980727,
            "wrist_2_joint": 1.7443932448377408,
            "wrist_3_joint": -3.0840537646736568
        }
    },
    "waypoints": [
        {
            "positions": [
                -2.967991417825858,
                -0.9740617694225068,
                1.7527959577737207,
                -0.759517768980727,
                1.7443932448377408,
                -3.0840537646736568
            ]
        },
        {
            "positions": [
                -2.9424528519628046,
                -0.9420739569137874,
                1.6538702981272269,
                -0.6938787777409743,
                1.6128384996319587,
                -3.0878353038618425
            ]
        },
        {
            "positions": [
                -2.9169142860997512,
                -0.9100861444050679,
                1.554944638480733,
                -0.6282397865012217,
                1.4812837544261763,
                -3.0916168430500286
            ]
        },
        {
            "positions": [
                -2.891375720236698,
                -0.8780983318963484,
                1.4560189788342393,
                -0.562600795261469,
                1.3497290092203942,
                -3.0953983822382143
            ]
        },
        {
            "positions": [
                -2.8658371543736445,
                -0.846110519387629,
                1.3570933191877455,
                -0.4969618040217163,
                1.2181742640146118,
                -3.0991799214264004
            ]
        },
        {
            "positions": [
                -2.840298588510591,
                -0.8141227068789096,
                1.2581676595412516,
                -0.43132281278196366,
                1.08661951880883,
                -3.102961460614586
            ]
        },
        {
            "positions": [
                -2.8147600226475378,
                -0.7821348943701901,
                1.1592419998947578,
                -0.365683821542211,
                0.9550647736030476,
                -3.106742999802772
            ]
        },
        {
            "positions": [
                -2.7892214567844844,
                -0.7501470818614707,
                1.0603163402482643,
                -0.3000448303024584,
                0.8235100283972654,
                -3.110524538990958
            ]
        },
        {
            "positions": [
                -2.763682890921431,
                -0.7181592693527512,
                0.9613906806017704,
                -0.23440583906270562,
                0.691955283191483,
                -3.1143060781791436
            ]
        },
        {
            "positions": [
                -2.7381443250583777,
                -0.6861714568440318,
                0.8624650209552767,
                -0.16876684782295304,
                0.5604005379857009,
                -3.1180876173673298
            ]
        },
        {
            "positions": [
                -2.7126057591953243,
                -0.6541836443353124,
                0.7635393613087829,
                -0.10312785658320037,
                0.4288457927799187,
                -3.1218691565555154
            ]
        }
    ]
}