{
    "goal": {
        "global_pose": {
            "orientation": {
                "w": 0.7031023502349854,
                "x": -0.7110244035720825,
                "y": 0.007748599164187908,
                "z": 0.005598929710686207
            },
            "position": {
                "x": 0.11585023208521307,
                "y": 0.44412534475326537,
                "z": 0.3711530566215515
            }
        },
        "name": "move_to_auspresseinheit_A"
    },
    "id": "KPIECE_move_to_auspresseinheit_A_87",
    "joint_names": [
        "shoulder_pan_joint",
        "shoulder_lift_joint",
        "elbow_joint",
        "wrist_1_joint",
        "wrist_2_joint",
        "wrist_3_joint"
    ],
    "metrics": {
        "cart_traj_len": 0.7555871803338278,
        "distance_elbow_joint": 0.03073714013897,
        "distance_shoulder_lift_joint": 0.8137315843067621,
        "distance_shoulder_pan_joint": 1.0418808665967991,
        "distance_wrist_1_joint": 0.5678588246180529,
        "distance_wrist_2_joint": 0.5334933878331368,
        "distance_wrist_3_joint": 0.8061722631294765,
        "smoothness": 0.9690114180545488,
        "time": 0.799342656,
        "traj_len": 1.9477869664373457,
        "weighted_distance": 2.550994081791124
    },
    "planner": "KPIECE",
    "start": {
        "state": {
            "elbow_joint": 2.4225746658250005,
            "shoulder_lift_joint": -1.3736534386056498,
            "shoulder_pan_joint": -0.3378633547517467,
            "wrist_1_joint": -1.0288598680537169,
            "wrist_2_joint": 1.233022673432363,
            "wrist_3_joint": -3.0940220416140027
        }
    },
    "waypoints": [
        {
            "positions": [
                -0.3378633547517467,
                -1.3736534386056498,
                2.4225746658250005,
                -1.0288598680537169,
                1.233022673432363,
                -3.0940220416140027
            ]
        },
        {
            "positions": [
                -0.20817174893730717,
                -1.457990254091139,
                2.4206376287723868,
                -0.9642640250902899,
                1.175727426889795,
                -3.046883964971041
            ]
        },
        {
            "positions": [
                -0.07848014312286761,
                -1.542327069576628,
                2.418700591719773,
                -0.8996681821268627,
                1.1184321803472268,
                -2.99974588832808
            ]
        },
        {
            "positions": [
                0.05121146269157195,
                -1.6266638850621171,
                2.4167635546671593,
                -0.8350723391634356,
                1.0611369338046588,
                -2.9526078116851187
            ]
        },
        {
            "positions": [
                0.1809030685060115,
                -1.7110007005476064,
                2.4148265176145456,
                -0.7704764962000086,
                1.0038416872620908,
                -2.905469735042157
            ]
        },
        {
            "positions": [
                0.310594674320451,
                -1.7953375160330953,
                2.412889480561932,
                -0.7058806532365816,
                0.9465464407195225,
                -2.8583316583991953
            ]
        },
        {
            "positions": [
                0.44028628013489063,
                -1.8796743315185847,
                2.410952443509318,
                -0.6412848102731544,
                0.8892511941769545,
                -2.811193581756234
            ]
        },
        {
            "positions": [
                0.5699778859493303,
                -1.9640111470040738,
                2.4090154064567044,
                -0.5766889673097273,
                0.8319559476343864,
                -2.764055505113273
            ]
        },
        {
            "positions": [
                0.6996694917637698,
                -2.048347962489563,
                2.4070783694040907,
                -0.5120931243463003,
                0.7746607010918183,
                -2.7169174284703113
            ]
        },
        {
            "positions": [
                0.701843501804411,
                -1.9788294322781383,
                2.3994579475450606,
                -0.4865470838909821,
                0.7370949933455222,
                -2.931451253463204
            ]
        },
        {
            "positions": [
                0.7040175118450522,
                -1.9093109020667138,
                2.3918375256860305,
                -0.461001043435664,
                0.6995292855992262,
                -3.1459850784560963
            ]
        }
    ]
}