{
    "goal": {
        "global_pose": {
            "orientation": {
                "w": 0.7047431493862688,
                "x": -0.7094548369677653,
                "y": 0.0024358444001904,
                "z": -0.0022348060817251984
            },
            "position": {
                "x": -0.39052492380142206,
                "y": 0.3671506643295288,
                "z": 0.19426114857196808
            }
        },
        "name": "move_to_magneteinheit_D"
    },
    "id": "KPIECE_move_to_magneteinheit_D_148",
    "joint_names": [
        "shoulder_pan_joint",
        "shoulder_lift_joint",
        "elbow_joint",
        "wrist_1_joint",
        "wrist_2_joint",
        "wrist_3_joint"
    ],
    "metrics": {
        "cart_traj_len": 5.803863291594046,
        "distance_elbow_joint": 4.10294558611961,
        "distance_shoulder_lift_joint": 2.665253917030049,
        "distance_shoulder_pan_joint": 4.233674195124874,
        "distance_wrist_1_joint": 2.271309833517159,
        "distance_wrist_2_joint": 0.9435965106743326,
        "distance_wrist_3_joint": 3.511785067908294,
        "smoothness": 1.219605734935904,
        "time": 0.389754371,
        "traj_len": 4.210530264749836,
        "weighted_distance": 5.288387428165828
    },
    "planner": "KPIECE",
    "start": {
        "state": {
            "elbow_joint": 0.749534889911806,
            "shoulder_lift_joint": -0.6476975780787326,
            "shoulder_pan_joint": -2.711696901376241,
            "wrist_1_joint": -0.07506478083263063,
            "wrist_2_joint": 0.43296659715538205,
            "wrist_3_joint": -3.14703540197715
        }
    },
    "waypoints": [
        {
            "positions": [
                -2.711696901376241,
                -0.6476975780787326,
                0.749534889911806,
                -0.07506478083263063,
                0.43296659715538205,
                -3.14703540197715
            ]
        },
        {
            "positions": [
                -2.7828319195406013,
                -0.7450480060792496,
                0.6730009232136309,
                -0.12067766083892492,
                0.43865275106042473,
                -3.0715826129162327
            ]
        },
        {
            "positions": [
                -2.853966937704962,
                -0.8423984340797666,
                0.5964669565154559,
                -0.16629054084521921,
                0.44433890496546746,
                -2.9961298238553153
            ]
        },
        {
            "positions": [
                -2.925101955869322,
                -0.9397488620802834,
                0.5199329898172809,
                -0.2119034208515135,
                0.45002505887051014,
                -2.9206770347943976
            ]
        },
        {
            "positions": [
                -2.9962369740336827,
                -1.0370992900808005,
                0.44339902311910573,
                -0.25751630085780786,
                0.4557112127755529,
                -2.84522424573348
            ]
        },
        {
            "positions": [
                -3.067371992198043,
                -1.1344497180813173,
                0.3668650564209307,
                -0.3031291808641021,
                0.46139736668059556,
                -2.769771456672563
            ]
        },
        {
            "positions": [
                -2.9343047576137966,
                -1.0269470010915778,
                0.4028579011862552,
                -0.2922755494747869,
                0.41557186110895983,
                -2.76356936624342
            ]
        },
        {
            "positions": [
                -2.8012375230295503,
                -0.9194442841018381,
                0.43885074595157963,
                -0.28142191808547173,
                0.3697463555373241,
                -2.7573672758142775
            ]
        },
        {
            "positions": [
                -2.668170288445304,
                -0.8119415671120984,
                0.47484359071690413,
                -0.2705682866961565,
                0.3239208499656884,
                -2.7511651853851347
            ]
        },
        {
            "positions": [
                -2.5729117227036378,
                -0.8619252947633489,
                0.3877889011284152,
                -0.23108125107943756,
                0.3262163995100886,
                -2.6416761267063706
            ]
        },
        {
            "positions": [
                -2.477653156961972,
                -0.9119090224145993,
                0.3007342115399262,
                -0.1915942154627186,
                0.3285119490544887,
                -2.532187068027606
            ]
        },
        {
            "positions": [
                -2.3823945912203057,
                -0.9618927500658497,
                0.21367952195143725,
                -0.15210717984599964,
                0.3308074985988889,
                -2.422698009348842
            ]
        },
        {
            "positions": [
                -2.28713602547864,
                -1.0118764777171,
                0.1266248323629483,
                -0.11262014422928066,
                0.3331030481432891,
                -2.313208950670078
            ]
        },
        {
            "positions": [
                -2.1918774597369737,
                -1.0618602053683506,
                0.039570142774459305,
                -0.0731331086125617,
                0.3353985976876893,
                -2.2037198919913137
            ]
        },
        {
            "positions": [
                -2.0966188939953074,
                -1.111843933019601,
                -0.04748454681402964,
                -0.03364607299584274,
                0.33769414723208946,
                -2.0942308333125497
            ]
        },
        {
            "positions": [
                -2.0013603282536416,
                -1.1618276606708515,
                -0.13453923640251858,
                0.005840962620876244,
                0.33998969677648966,
                -1.9847417746337854
            ]
        },
        {
            "positions": [
                -1.9061017625119754,
                -1.211811388322102,
                -0.22159392599100752,
                0.0453279982375952,
                0.34228524632088986,
                -1.8752527159550212
            ]
        },
        {
            "positions": [
                -1.8108431967703094,
                -1.2617951159733523,
                -0.3086486155794966,
                0.08481503385431416,
                0.34458079586529,
                -1.7657636572762572
            ]
        },
        {
            "positions": [
                -1.7155846310286433,
                -1.3117788436246027,
                -0.3957033051679855,
                0.12430206947103312,
                0.3468763454096902,
                -1.656274598597493
            ]
        },
        {
            "positions": [
                -1.620326065286977,
                -1.3617625712758532,
                -0.48275799475647446,
                0.16378910508775207,
                0.3491718949540904,
                -1.5467855399187287
            ]
        },
        {
            "positions": [
                -1.525067499545311,
                -1.4117462989271035,
                -0.5698126843449633,
                0.20327614070447103,
                0.35146744449849054,
                -1.4372964812399645
            ]
        },
        {
            "positions": [
                -1.429808933803645,
                -1.461730026578354,
                -0.6568673739334523,
                0.24276317632119004,
                0.35376299404289074,
                -1.3278074225612004
            ]
        },
        {
            "positions": [
                -1.334550368061979,
                -1.5117137542296044,
                -0.7439220635219412,
                0.282250211937909,
                0.35605854358729094,
                -1.2183183638824362
            ]
        },
        {
            "positions": [
                -1.2392918023203128,
                -1.5616974818808549,
                -0.8309767531104304,
                0.32173724755462796,
                0.35835409313169114,
                -1.108829305203672
            ]
        },
        {
            "positions": [
                -1.1440332365786468,
                -1.6116812095321054,
                -0.9180314426989191,
                0.3612242831713469,
                0.3606496426760913,
                -0.9993402465249079
            ]
        },
        {
            "positions": [
                -1.0487746708369805,
                -1.6616649371833558,
                -1.0050861322874083,
                0.4007113187880659,
                0.3629451922204915,
                -0.8898511878461435
            ]
        },
        {
            "positions": [
                -0.9535161050953147,
                -1.7116486648346063,
                -1.0921408218758972,
                0.44019835440478483,
                0.3652407417648917,
                -0.7803621291673795
            ]
        },
        {
            "positions": [
                -0.8582575393536485,
                -1.7616323924858568,
                -1.1791955114643862,
                0.4796853900215039,
                0.36753629130929183,
                -0.6708730704886152
            ]
        },
        {
            "positions": [
                -0.7629989736119824,
                -1.811616120137107,
                -1.2662502010528751,
                0.5191724256382227,
                0.36983184085369203,
                -0.5613840118098512
            ]
        },
        {
            "positions": [
                -0.6677404078703164,
                -1.8615998477883575,
                -1.353304890641364,
                0.5586594612549418,
                0.37212739039809223,
                -0.45189495313108674
            ]
        },
        {
            "positions": [
                -0.5724818421286502,
                -1.911583575439608,
                -1.440359580229853,
                0.5981464968716607,
                0.37442293994249237,
                -0.3424058944523227
            ]
        },
        {
            "positions": [
                -0.4772232763869839,
                -1.9615673030908585,
                -1.5274142698183422,
                0.6376335324883797,
                0.37671848948689257,
                -0.23291683577355826
            ]
        },
        {
            "positions": [
                -0.3819647106453181,
                -2.0115510307421087,
                -1.6144689594068309,
                0.6771205681050986,
                0.37901403903129277,
                -0.12342777709479424
            ]
        },
        {
            "positions": [
                -0.28670614490365187,
                -2.061534758393359,
                -1.70152364899532,
                0.7166076037218176,
                0.38130958857569297,
                -0.013938718416030227
            ]
        },
        {
            "positions": [
                -0.19144757916198607,
                -2.1115184860446097,
                -1.7885783385838088,
                0.7560946393385366,
                0.3836051381200931,
                0.09555034026273379
            ]
        },
        {
            "positions": [
                -0.09618901342031966,
                -2.16150221369586,
                -1.875633028172298,
                0.7955816749552556,
                0.3859006876644933,
                0.20503939894149836
            ]
        },
        {
            "positions": [
                -0.04496625301895992,
                -2.136967921699698,
                -1.9869435021791944,
                0.8952371149183251,
                0.3275922307184471,
                0.18697193339833063
            ]
        },
        {
            "positions": [
                0.006256507382399815,
                -2.112433629703536,
                -2.0982539761860908,
                0.9948925548813948,
                0.26928377377240087,
                0.1689044678551629
            ]
        },
        {
            "positions": [
                0.05747926778375956,
                -2.0878993377073742,
                -2.209564450192987,
                1.0945479948444645,
                0.21097531682635465,
                0.15083700231199515
            ]
        },
        {
            "positions": [
                0.10870202818511929,
                -2.0633650457112123,
                -2.3208749241998836,
                1.194203434807534,
                0.15266685988030843,
                0.1327695367688274
            ]
        },
        {
            "positions": [
                0.15992478858647902,
                -2.0388307537150503,
                -2.43218539820678,
                1.2938588747706037,
                0.09435840293426218,
                0.11470207122565967
            ]
        },
        {
            "positions": [
                0.21114754898783877,
                -2.0142964617188883,
                -2.543495872213677,
                1.3935143147336735,
                0.03604994598821598,
                0.09663460568249194
            ]
        },
        {
            "positions": [
                0.2623703093891985,
                -1.9897621697227263,
                -2.6548063462205733,
                1.493169754696743,
                -0.022258510957830213,
                0.0785671401393242
            ]
        },
        {
            "positions": [
                0.31359306979055823,
                -1.9652278777265644,
                -2.7661168202274697,
                1.5928251946598126,
                -0.08056696790387648,
                0.06049967459615646
            ]
        },
        {
            "positions": [
                0.21418626132766383,
                -2.027259606427602,
                -2.6918494587497923,
                1.5633669830674581,
                -0.03071862167046903,
                0.06353378312501698
            ]
        },
        {
            "positions": [
                0.11477945286476945,
                -2.0892913351286397,
                -2.617582097272115,
                1.5339087714751036,
                0.01912972456293842,
                0.0665678916538775
            ]
        },
        {
            "positions": [
                0.01537264440187508,
                -2.151323063829677,
                -2.5433147357944375,
                1.504450559882749,
                0.06897807079634587,
                0.069602000182738
            ]
        },
        {
            "positions": [
                -0.08403416406101932,
                -2.213354792530715,
                -2.46904737431676,
                1.4749923482903944,
                0.11882641702975331,
                0.07263610871159852
            ]
        },
        {
            "positions": [
                -0.18344097252391367,
                -2.2753865212317526,
                -2.3947800128390826,
                1.4455341366980399,
                0.16867476326316078,
                0.07567021724045904
            ]
        }
    ]
}