{
    "goal": {
        "global_pose": {
            "orientation": {
                "w": -0.4816463035849501,
                "x": 0.5182115481033762,
                "y": 0.4908360881923453,
                "z": -0.5084816262002911
            },
            "position": {
                "x": -0.8240239810943604,
                "y": 0.19912469901144506,
                "z": 0.16403168439865112
            }
        },
        "name": "move_to_storage_D"
    },
    "id": "KPIECE_move_to_storage_D_150",
    "joint_names": [
        "shoulder_pan_joint",
        "shoulder_lift_joint",
        "elbow_joint",
        "wrist_1_joint",
        "wrist_2_joint",
        "wrist_3_joint"
    ],
    "metrics": {
        "cart_traj_len": 3.9388303346033053,
        "distance_elbow_joint": 4.2109035955873315,
        "distance_shoulder_lift_joint": 1.2652673503108922,
        "distance_shoulder_pan_joint": 2.814381285774719,
        "distance_wrist_1_joint": 2.269595365298841,
        "distance_wrist_2_joint": 1.0482886867902879,
        "distance_wrist_3_joint": 3.1430664943719466,
        "smoothness": 0.028950834645948175,
        "time": 0.05675137499999999,
        "traj_len": 3.840768514000032,
        "weighted_distance": 4.9351311855883875
    },
    "planner": "KPIECE",
    "start": {
        "state": {
            "elbow_joint": -2.384821988534728,
            "shoulder_lift_joint": -2.2788054721415256,
            "shoulder_pan_joint": -0.1854694642142757,
            "wrist_1_joint": 1.4845938289331202,
            "wrist_2_joint": 0.17898776772866878,
            "wrist_3_joint": 0.037105688729662994
        }
    },
    "waypoints": [
        {
            "positions": [
                -0.1854694642142757,
                -2.2788054721415256,
                -2.384821988534728,
                1.4845938289331202,
                0.17898776772866878,
                0.037105688729662994
            ]
        },
        {
            "positions": [
                -0.10474658824608701,
                -2.2650757196304085,
                -2.2695012871124787,
                1.4353063420410899,
                0.22750351025362237,
                -0.011374010469671944
            ]
        },
        {
            "positions": [
                -0.024023712277898318,
                -2.251345967119291,
                -2.15418058569023,
                1.3860188551490595,
                0.2760192527785759,
                -0.05985370966900688
            ]
        },
        {
            "positions": [
                0.05669916369029038,
                -2.237616214608174,
                -2.038859884267981,
                1.336731368257029,
                0.32453499530352947,
                -0.10833340886834184
            ]
        },
        {
            "positions": [
                0.13742203965847907,
                -2.223886462097057,
                -1.9235391828457318,
                1.2874438813649987,
                0.3730507378284831,
                -0.15681310806767676
            ]
        },
        {
            "positions": [
                0.21481556098641627,
                -2.1922636496696213,
                -1.808497355973763,
                1.2272064755052219,
                0.4006184008520685,
                -0.23735438755384547
            ]
        },
        {
            "positions": [
                0.2922090823143535,
                -2.1606408372421857,
                -1.6934555291017939,
                1.1669690696454451,
                0.42818606387565394,
                -0.31789566704001415
            ]
        },
        {
            "positions": [
                0.3696026036422907,
                -2.1290180248147497,
                -1.578413702229825,
                1.1067316637856683,
                0.4557537268992394,
                -0.3984369465261829
            ]
        },
        {
            "positions": [
                0.4469961249702279,
                -2.097395212387314,
                -1.463371875357856,
                1.0464942579258918,
                0.4833213899228248,
                -0.4789782260123515
            ]
        },
        {
            "positions": [
                0.5243896462981651,
                -2.0657723999598785,
                -1.3483300484858871,
                0.9862568520661149,
                0.5108890529464103,
                -0.5595195054985203
            ]
        },
        {
            "positions": [
                0.6017831676261023,
                -2.034149587532443,
                -1.2332882216139183,
                0.9260194462063382,
                0.5384567159699957,
                -0.640060784984689
            ]
        },
        {
            "positions": [
                0.6791766889540395,
                -2.0025267751050073,
                -1.1182463947419492,
                0.8657820403465615,
                0.566024378993581,
                -0.7206020644708577
            ]
        },
        {
            "positions": [
                0.7565702102819767,
                -1.9709039626775715,
                -1.0032045678699804,
                0.8055446344867847,
                0.5935920420171665,
                -0.8011433439570264
            ]
        },
        {
            "positions": [
                0.8339637316099139,
                -1.939281150250136,
                -0.8881627409980113,
                0.7453072286270079,
                0.621159705040752,
                -0.8816846234431952
            ]
        },
        {
            "positions": [
                0.9113572529378511,
                -1.9076583378227001,
                -0.7731209141260424,
                0.6850698227672312,
                0.6487273680643374,
                -0.9622259029293638
            ]
        },
        {
            "positions": [
                0.9887507742657883,
                -1.8760355253952645,
                -0.6580790872540734,
                0.6248324169074544,
                0.6762950310879228,
                -1.0427671824155325
            ]
        },
        {
            "positions": [
                1.0661442955937255,
                -1.844412712967829,
                -0.5430372603821045,
                0.5645950110476777,
                0.7038626941115083,
                -1.123308461901701
            ]
        },
        {
            "positions": [
                1.1435378169216628,
                -1.8127899005403931,
                -0.42799543351013547,
                0.504357605187901,
                0.7314303571350937,
                -1.20384974138787
            ]
        },
        {
            "positions": [
                1.2209313382495999,
                -1.7811670881129575,
                -0.3129536066381666,
                0.4441201993281242,
                0.7589980201586791,
                -1.2843910208740386
            ]
        },
        {
            "positions": [
                1.298324859577537,
                -1.749544275685522,
                -0.19791177976619778,
                0.3838827934683474,
                0.7865656831822645,
                -1.3649323003602072
            ]
        },
        {
            "positions": [
                1.3757183809054743,
                -1.7179214632580861,
                -0.08286995289422894,
                0.32364538760857076,
                0.81413334620585,
                -1.4454735798463758
            ]
        },
        {
            "positions": [
                1.4531119022334114,
                -1.6862986508306506,
                0.03217187397774013,
                0.263407981748794,
                0.8417010092294354,
                -1.5260148593325447
            ]
        },
        {
            "positions": [
                1.5305054235613487,
                -1.654675838403215,
                0.1472137008497092,
                0.2031705758890172,
                0.869268672253021,
                -1.6065561388187135
            ]
        },
        {
            "positions": [
                1.607898944889286,
                -1.6230530259757792,
                0.26225552772167804,
                0.14293317002924044,
                0.8968363352766063,
                -1.6870974183048821
            ]
        },
        {
            "positions": [
                1.685292466217223,
                -1.5914302135483436,
                0.3772973545936469,
                0.08269576416946367,
                0.9244039983001917,
                -1.7676386977910508
            ]
        },
        {
            "positions": [
                1.7626859875451601,
                -1.5598074011209078,
                0.4923391814656157,
                0.0224583583096869,
                0.9519716613237772,
                -1.8481799772772196
            ]
        },
        {
            "positions": [
                1.8400795088730975,
                -1.5281845886934722,
                0.607381008337585,
                -0.03777904755008987,
                0.9795393243473626,
                -1.9287212567633882
            ]
        },
        {
            "positions": [
                1.9174730302010345,
                -1.4965617762660366,
                0.7224228352095539,
                -0.09801645340986642,
                1.007106987370948,
                -2.009262536249557
            ]
        },
        {
            "positions": [
                1.9948665515289719,
                -1.464938963838601,
                0.8374646620815227,
                -0.1582538592696432,
                1.0346746503945334,
                -2.0898038157357255
            ]
        },
        {
            "positions": [
                2.072260072856909,
                -1.4333161514111652,
                0.952506488953492,
                -0.2184912651294202,
                1.062242313418119,
                -2.1703450952218946
            ]
        },
        {
            "positions": [
                2.1496535941848465,
                -1.4016933389837294,
                1.0675483158254608,
                -0.27872867098919674,
                1.0898099764417042,
                -2.250886374708063
            ]
        },
        {
            "positions": [
                2.2270471155127836,
                -1.3700705265562938,
                1.1825901426974297,
                -0.3389660768489735,
                1.11737763946529,
                -2.331427654194232
            ]
        },
        {
            "positions": [
                2.3044406368407206,
                -1.3384477141288582,
                1.2976319695693985,
                -0.3992034827087502,
                1.1449453024888752,
                -2.4119689336804004
            ]
        },
        {
            "positions": [
                2.358519167627341,
                -1.2842961154124874,
                1.3857069091499328,
                -0.4635031583182453,
                1.1312234438171949,
                -2.5276342456740477
            ]
        },
        {
            "positions": [
                2.4125976984139617,
                -1.2301445166961167,
                1.4737818487304672,
                -0.5278028339277403,
                1.1175015851455146,
                -2.643299557667695
            ]
        },
        {
            "positions": [
                2.466676229200582,
                -1.175992917979746,
                1.5618567883110015,
                -0.5921025095372353,
                1.1037797264738343,
                -2.758964869661342
            ]
        },
        {
            "positions": [
                2.5207547599872027,
                -1.121841319263375,
                1.6499317278915357,
                -0.6564021851467303,
                1.0900578678021542,
                -2.874630181654989
            ]
        },
        {
            "positions": [
                2.574833290773823,
                -1.0676897205470042,
                1.7380066674720702,
                -0.7207018607562254,
                1.076336009130474,
                -2.9902954936486363
            ]
        },
        {
            "positions": [
                2.6289118215604437,
                -1.0135381218306334,
                1.8260816070526045,
                -0.7850015363657205,
                1.0626141504587936,
                -3.1059608056422836
            ]
        }
    ]
}