{
    "goal": {
        "global_pose": {
            "orientation": {
                "w": 0.005598929693374612,
                "x": 0.007748599140229565,
                "y": 0.7110244013736278,
                "z": -0.7031023480610252
            },
            "position": {
                "x": -0.8858502320852131,
                "y": -0.7141253447532654,
                "z": 0.3711530566215515
            }
        },
        "name": "move_to_auspresseinheit_C"
    },
    "id": "KPIECE_move_to_auspresseinheit_C_98",
    "joint_names": [
        "shoulder_pan_joint",
        "shoulder_lift_joint",
        "elbow_joint",
        "wrist_1_joint",
        "wrist_2_joint",
        "wrist_3_joint"
    ],
    "metrics": {
        "cart_traj_len": 0.492678876053897,
        "distance_elbow_joint": 0.9915484876587735,
        "distance_shoulder_lift_joint": 0.3214597264793684,
        "distance_shoulder_pan_joint": 0.25638310854696833,
        "distance_wrist_1_joint": 0.6570249057987075,
        "distance_wrist_2_joint": 1.3192229480125235,
        "distance_wrist_3_joint": 0.043077644122778924,
        "smoothness": 4.844609600361787e-16,
        "time": 0.897189131,
        "traj_len": 1.894390883798568,
        "weighted_distance": 2.3772084390469232
    },
    "planner": "KPIECE",
    "start": {
        "state": {
            "elbow_joint": 1.7527959577737207,
            "shoulder_lift_joint": -0.9740617694225068,
            "shoulder_pan_joint": -2.967991417825858,
            "wrist_1_joint": -0.759517768980727,
            "wrist_2_joint": 1.7443932448377408,
            "wrist_3_joint": -3.0840537646736568
        }
    },
    "waypoints": [
        {
            "positions": [
                -2.967991417825858,
                -0.9740617694225068,
                1.7527959577737207,
                -0.759517768980727,
                1.7443932448377408,
                -3.0840537646736568
            ]
        },
        {
            "positions": [
                -2.942353106971161,
                -0.9419157967745699,
                1.6536411090078433,
                -0.6938152784008562,
                1.6124709500364884,
                -3.0883615290859345
            ]
        },
        {
            "positions": [
                -2.916714796116464,
                -0.9097698241266331,
                1.554486260241966,
                -0.6281127878209855,
                1.480548655235236,
                -3.0926692934982127
            ]
        },
        {
            "positions": [
                -2.8910764852617676,
                -0.8776238514786963,
                1.4553314114760887,
                -0.5624102972411147,
                1.3486263604339839,
                -3.0969770579104905
            ]
        },
        {
            "positions": [
                -2.8654381744070707,
                -0.8454778788307594,
                1.3561765627102114,
                -0.496707806661244,
                1.2167040656327313,
                -3.1012848223227683
            ]
        },
        {
            "positions": [
                -2.839799863552374,
                -0.8133319061828226,
                1.2570217139443338,
                -0.4310053160813732,
                1.084781770831479,
                -3.105592586735046
            ]
        },
        {
            "positions": [
                -2.814161552697677,
                -0.7811859335348857,
                1.1578668651784567,
                -0.36530282550150245,
                0.9528594760302268,
                -3.109900351147324
            ]
        },
        {
            "positions": [
                -2.78852324184298,
                -0.7490399608869489,
                1.0587120164125792,
                -0.29960033492163174,
                0.8209371812289744,
                -3.114208115559602
            ]
        },
        {
            "positions": [
                -2.7628849309882835,
                -0.7168939882390121,
                0.9595571676467018,
                -0.23389784434176097,
                0.6890148864277219,
                -3.1185158799718797
            ]
        },
        {
            "positions": [
                -2.7372466201335865,
                -0.6847480155910752,
                0.8604023188808245,
                -0.1681953537618902,
                0.5570925916264697,
                -3.122823644384158
            ]
        },
        {
            "positions": [
                -2.7116083092788896,
                -0.6526020429431384,
                0.7612474701149472,
                -0.10249286318201942,
                0.42517029682521723,
                -3.1271314087964357
            ]
        }
    ]
}