{
    "goal": {
        "global_pose": {
            "orientation": {
                "w": 0.005598929693374612,
                "x": 0.007748599140229565,
                "y": 0.7110244013736278,
                "z": -0.7031023480610252
            },
            "position": {
                "x": -0.8858502320852131,
                "y": -0.7141253447532654,
                "z": 0.3711530566215515
            }
        },
        "name": "move_to_auspresseinheit_C"
    },
    "id": "KPIECE_move_to_auspresseinheit_C_88",
    "joint_names": [
        "shoulder_pan_joint",
        "shoulder_lift_joint",
        "elbow_joint",
        "wrist_1_joint",
        "wrist_2_joint",
        "wrist_3_joint"
    ],
    "metrics": {
        "cart_traj_len": 0.49221604205109154,
        "distance_elbow_joint": 0.990012446651942,
        "distance_shoulder_lift_joint": 0.3197956466284204,
        "distance_shoulder_pan_joint": 0.2560411489357617,
        "distance_wrist_1_joint": 0.6610366550050674,
        "distance_wrist_2_joint": 1.3128149940225708,
        "distance_wrist_3_joint": 0.04205042917560142,
        "smoothness": 3.2297397335745243e-16,
        "time": 0.5531813329999999,
        "traj_len": 1.8925515370576738,
        "weighted_distance": 2.3748060610917694
    },
    "planner": "KPIECE",
    "start": {
        "state": {
            "elbow_joint": 1.7527959577737207,
            "shoulder_lift_joint": -0.9740617694225068,
            "shoulder_pan_joint": -2.967991417825858,
            "wrist_1_joint": -0.759517768980727,
            "wrist_2_joint": 1.7443932448377408,
            "wrist_3_joint": -3.0840537646736568
        }
    },
    "waypoints": [
        {
            "positions": [
                -2.967991417825858,
                -0.9740617694225068,
                1.7527959577737207,
                -0.759517768980727,
                1.7443932448377408,
                -3.0840537646736568
            ]
        },
        {
            "positions": [
                -2.942387302932282,
                -0.9420822047596648,
                1.6537947131085264,
                -0.6934141034802203,
                1.6131117454354837,
                -3.0882588075912167
            ]
        },
        {
            "positions": [
                -2.9167831880387056,
                -0.9101026400968227,
                1.5547934684433322,
                -0.6273104379797135,
                1.4818302460332267,
                -3.092463850508777
            ]
        },
        {
            "positions": [
                -2.8911790731451292,
                -0.8781230754339806,
                1.455792223778138,
                -0.5612067724792068,
                1.3505487466309696,
                -3.096668893426337
            ]
        },
        {
            "positions": [
                -2.8655749582515533,
                -0.8461435107711386,
                1.3567909791129438,
                -0.4951031069787,
                1.2192672472287125,
                -3.1008739363438975
            ]
        },
        {
            "positions": [
                -2.8399708433579773,
                -0.8141639461082966,
                1.2577897344477496,
                -0.4289994414781933,
                1.0879857478264554,
                -3.1050789792614575
            ]
        },
        {
            "positions": [
                -2.814366728464401,
                -0.7821843814454545,
                1.1587884897825553,
                -0.3628957759776866,
                0.9567042484241983,
                -3.1092840221790174
            ]
        },
        {
            "positions": [
                -2.7887626135708246,
                -0.7502048167826125,
                1.0597872451173613,
                -0.29679211047717985,
                0.8254227490219413,
                -3.113489065096578
            ]
        },
        {
            "positions": [
                -2.7631584986772486,
                -0.7182252521197705,
                0.960786000452167,
                -0.23068844497667307,
                0.6941412496196842,
                -3.117694108014138
            ]
        },
        {
            "positions": [
                -2.7375543837836727,
                -0.6862456874569284,
                0.8617847557869729,
                -0.16458477947616634,
                0.5628597502174271,
                -3.1218991509316982
            ]
        },
        {
            "positions": [
                -2.7119502688900963,
                -0.6542661227940864,
                0.7627835111217787,
                -0.09848111397565958,
                0.43157825081516993,
                -3.126104193849258
            ]
        }
    ]
}