{
    "goal": {
        "global_pose": {
            "orientation": {
                "w": 0.7047431468963623,
                "x": -0.7094548344612122,
                "y": 0.0024358443915843964,
                "z": -0.0022348060738295317
            },
            "position": {
                "x": 0.6094750761985779,
                "y": 0.3671506643295288,
                "z": 0.19426114857196808
            }
        },
        "name": "move_to_magneteinheit_A"
    },
    "id": "KPIECE_move_to_magneteinheit_A_41",
    "joint_names": [
        "shoulder_pan_joint",
        "shoulder_lift_joint",
        "elbow_joint",
        "wrist_1_joint",
        "wrist_2_joint",
        "wrist_3_joint"
    ],
    "metrics": {
        "cart_traj_len": 5.080089579924421,
        "distance_elbow_joint": 3.9057809250878845,
        "distance_shoulder_lift_joint": 1.8332567938716309,
        "distance_shoulder_pan_joint": 6.744422708674354,
        "distance_wrist_1_joint": 1.8979065696467732,
        "distance_wrist_2_joint": 2.0882972220396994,
        "distance_wrist_3_joint": 4.094835378573808,
        "smoothness": 0.31259502724194177,
        "time": 0.13118032699999999,
        "traj_len": 4.53480976424526,
        "weighted_distance": 5.721920494617889
    },
    "planner": "KPIECE",
    "start": {
        "state": {
            "elbow_joint": -1.9196185241190666,
            "shoulder_lift_joint": -1.2443396400964142,
            "shoulder_pan_joint": 2.6996025414629847,
            "wrist_1_joint": -1.5485510000780065,
            "wrist_2_joint": -1.5709468930060704,
            "wrist_3_joint": 0.4420197071253992
        }
    },
    "waypoints": [
        {
            "positions": [
                2.6996025414629847,
                -1.2443396400964142,
                -1.9196185241190666,
                -1.5485510000780065,
                -1.5709468930060704,
                0.4420197071253992
            ]
        },
        {
            "positions": [
                2.5583709658964,
                -1.2150771335520818,
                -1.909517744792855,
                -1.5092032445420251,
                -1.5136027856057361,
                0.32589872549722443
            ]
        },
        {
            "positions": [
                2.417139390329815,
                -1.1858146270077494,
                -1.8994169654666433,
                -1.4698554890060438,
                -1.4562586782054021,
                0.2097777438690497
            ]
        },
        {
            "positions": [
                2.2759078147632303,
                -1.156552120463417,
                -1.8893161861404317,
                -1.4305077334700624,
                -1.3989145708050679,
                0.09365676224087499
            ]
        },
        {
            "positions": [
                2.1346762391966454,
                -1.1272896139190847,
                -1.87921540681422,
                -1.3911599779340813,
                -1.3415704634047338,
                -0.022464219387299755
            ]
        },
        {
            "positions": [
                1.9934446636300605,
                -1.0980271073747523,
                -1.8691146274880084,
                -1.3518122223981,
                -1.2842263560043996,
                -0.13858520101547456
            ]
        },
        {
            "positions": [
                1.8522130880634755,
                -1.06876460083042,
                -1.8590138481617968,
                -1.3124644668621186,
                -1.2268822486040656,
                -0.2547061826436492
            ]
        },
        {
            "positions": [
                1.7109815124968906,
                -1.0395020942860875,
                -1.848913068835585,
                -1.2731167113261372,
                -1.1695381412037313,
                -0.37082716427182394
            ]
        },
        {
            "positions": [
                1.5697499369303058,
                -1.0102395877417552,
                -1.8388122895093735,
                -1.2337689557901559,
                -1.112194033803397,
                -0.4869481458999987
            ]
        },
        {
            "positions": [
                1.4285183613637211,
                -0.9809770811974228,
                -1.8287115101831617,
                -1.1944212002541748,
                -1.054849926403063,
                -0.6030691275281733
            ]
        },
        {
            "positions": [
                1.287286785797136,
                -0.9517145746530904,
                -1.8186107308569501,
                -1.1550734447181934,
                -0.9975058190027288,
                -0.7191901091563483
            ]
        },
        {
            "positions": [
                1.1460552102305512,
                -0.922452068108758,
                -1.8085099515307386,
                -1.115725689182212,
                -0.9401617116023948,
                -0.8353110907845228
            ]
        },
        {
            "positions": [
                1.0048236346639663,
                -0.8931895615644256,
                -1.7984091722045268,
                -1.0763779336462307,
                -0.8828176042020606,
                -0.9514320724126976
            ]
        },
        {
            "positions": [
                0.8635920590973816,
                -0.8639270550200933,
                -1.7883083928783152,
                -1.0370301781102493,
                -0.8254734968017264,
                -1.0675530540408724
            ]
        },
        {
            "positions": [
                0.7223604835307966,
                -0.8346645484757609,
                -1.7782076135521034,
                -0.9976824225742681,
                -0.7681293894013923,
                -1.1836740356690472
            ]
        },
        {
            "positions": [
                0.5811289079642119,
                -0.8054020419314285,
                -1.7681068342258919,
                -0.9583346670382868,
                -0.7107852820010582,
                -1.299795017297222
            ]
        },
        {
            "positions": [
                0.43989733239762696,
                -0.7761395353870961,
                -1.7580060548996803,
                -0.9189869115023055,
                -0.6534411746007239,
                -1.4159159989253967
            ]
        },
        {
            "positions": [
                0.298665756831042,
                -0.7468770288427637,
                -1.7479052755734685,
                -0.8796391559663241,
                -0.5960970672003899,
                -1.5320369805535714
            ]
        },
        {
            "positions": [
                0.15743418126445752,
                -0.7176145222984314,
                -1.737804496247257,
                -0.8402914004303429,
                -0.5387529598000558,
                -1.6481579621817457
            ]
        },
        {
            "positions": [
                0.01620260569787213,
                -0.688352015754099,
                -1.7277037169210452,
                -0.8009436448943614,
                -0.48140885239972153,
                -1.764278943809921
            ]
        },
        {
            "positions": [
                -0.1250289698687128,
                -0.6590895092097666,
                -1.7176029375948336,
                -0.7615958893583802,
                -0.4240647449993873,
                -1.8803999254380956
            ]
        },
        {
            "positions": [
                -0.2662605454352973,
                -0.6298270026654342,
                -1.707502158268622,
                -0.7222481338223989,
                -0.36672063759905327,
                -1.99652090706627
            ]
        },
        {
            "positions": [
                -0.40749212100188226,
                -0.6005644961211019,
                -1.6974013789424103,
                -0.6829003782864176,
                -0.30937653019871925,
                -2.1126418886944447
            ]
        },
        {
            "positions": [
                -0.5487236965684672,
                -0.5713019895767695,
                -1.6873005996161987,
                -0.6435526227504362,
                -0.2520324227983848,
                -2.22876287032262
            ]
        },
        {
            "positions": [
                -0.6899552721350521,
                -0.5420394830324371,
                -1.677199820289987,
                -0.6042048672144549,
                -0.19468831539805076,
                -2.344883851950794
            ]
        },
        {
            "positions": [
                -0.8311868477016366,
                -0.5127769764881047,
                -1.6670990409637754,
                -0.5648571116784736,
                -0.13734420799771674,
                -2.461004833578969
            ]
        },
        {
            "positions": [
                -0.9724184232682216,
                -0.48351446994377234,
                -1.6569982616375638,
                -0.5255093561424924,
                -0.0800001005973825,
                -2.5771258152071437
            ]
        },
        {
            "positions": [
                -1.113649998834807,
                -0.45425196339943996,
                -1.646897482311352,
                -0.48616160060651104,
                -0.022655993197048252,
                -2.693246796835319
            ]
        },
        {
            "positions": [
                -1.2548815744013915,
                -0.4249894568551076,
                -1.6367967029851405,
                -0.4468138450705297,
                0.03468811420328577,
                -2.809367778463493
            ]
        },
        {
            "positions": [
                -1.396113149967976,
                -0.3957269503107752,
                -1.6266959236589287,
                -0.4074660895345483,
                0.09203222160362001,
                -2.925488760091668
            ]
        },
        {
            "positions": [
                -1.537344725534561,
                -0.3664644437664428,
                -1.6165951443327171,
                -0.3681183339985672,
                0.14937632900395403,
                -3.0416097417198427
            ]
        },
        {
            "positions": [
                -1.6785763011011459,
                -0.33720193722211045,
                -1.6064943650065056,
                -0.3287705784625856,
                0.20672043640428828,
                -3.157730723348018
            ]
        },
        {
            "positions": [
                -1.8198078766677308,
                -0.30793943067777807,
                -1.5963935856802938,
                -0.2894228229266045,
                0.2640645438046225,
                -3.273851704976192
            ]
        },
        {
            "positions": [
                -1.961039452234316,
                -0.2786769241334457,
                -1.5862928063540822,
                -0.25007506739062313,
                0.32140865120495654,
                -3.389972686604367
            ]
        },
        {
            "positions": [
                -1.856850416485463,
                -0.3220566280288788,
                -1.4076700459879372,
                -0.28004659923859265,
                0.311611567313523,
                -3.376830537362165
            ]
        },
        {
            "positions": [
                -1.7526613807366098,
                -0.3654363319243119,
                -1.229047285621792,
                -0.3100181310865622,
                0.30181448342208944,
                -3.3636883881199626
            ]
        },
        {
            "positions": [
                -1.6484723449877567,
                -0.408816035819745,
                -1.050424525255647,
                -0.3399896629345317,
                0.2920173995306559,
                -3.3505462388777607
            ]
        },
        {
            "positions": [
                -1.5442833092389037,
                -0.4521957397151782,
                -0.871801764889502,
                -0.3699611947825012,
                0.28222031563922234,
                -3.337404089635559
            ]
        },
        {
            "positions": [
                -1.4400942734900506,
                -0.4955754436106113,
                -0.693179004523357,
                -0.39993272663047075,
                0.2724232317477888,
                -3.3242619403933564
            ]
        },
        {
            "positions": [
                -1.3359052377411975,
                -0.5389551475060443,
                -0.514556244157212,
                -0.42990425847844027,
                0.2626261478563553,
                -3.3111197911511545
            ]
        },
        {
            "positions": [
                -1.2317162019923444,
                -0.5823348514014774,
                -0.335933483791067,
                -0.45987579032640974,
                0.2528290639649218,
                -3.2979776419089526
            ]
        },
        {
            "positions": [
                -1.1275271662434914,
                -0.6257145552969107,
                -0.1573107234249218,
                -0.4898473221743793,
                0.2430319800734882,
                -3.2848354926667502
            ]
        },
        {
            "positions": [
                -1.0233381304946383,
                -0.6690942591923438,
                0.02131203694122319,
                -0.5198188540223487,
                0.23323489618205467,
                -3.2716933434245483
            ]
        },
        {
            "positions": [
                -0.9191490947457852,
                -0.7124739630877769,
                0.19993479730736818,
                -0.5497903858703184,
                0.22343781229062112,
                -3.2585511941823464
            ]
        },
        {
            "positions": [
                -0.8149600589969321,
                -0.7558536669832101,
                0.3785575576735134,
                -0.5797619177182878,
                0.21364072839918757,
                -3.245409044940144
            ]
        },
        {
            "positions": [
                -0.7107710232480791,
                -0.7992333708786431,
                0.5571803180396582,
                -0.6097334495662574,
                0.20384364450775405,
                -3.232266895697942
            ]
        },
        {
            "positions": [
                -0.606581987499226,
                -0.8426130747740762,
                0.7358030784058032,
                -0.6397049814142268,
                0.1940465606163205,
                -3.2191247464557398
            ]
        },
        {
            "positions": [
                -0.5023929517503729,
                -0.8859927786695093,
                0.9144258387719482,
                -0.6696765132621963,
                0.18424947672488698,
                -3.205982597213538
            ]
        },
        {
            "positions": [
                -0.39820391600151983,
                -0.9293724825649425,
                1.0930485991380936,
                -0.6996480451101659,
                0.17445239283345343,
                -3.192840447971336
            ]
        },
        {
            "positions": [
                -0.29401488025266675,
                -0.9727521864603756,
                1.2716713595042386,
                -0.7296195769581355,
                0.16465530894201985,
                -3.1796982987291336
            ]
        },
        {
            "positions": [
                -0.18982584450381368,
                -1.0161318903558088,
                1.4502941198703836,
                -0.7595911088061049,
                0.15485822505058633,
                -3.1665561494869316
            ]
        },
        {
            "positions": [
                -0.0856368087549606,
                -1.0595115942512419,
                1.6289168802365286,
                -0.7895626406540744,
                0.14506114115915278,
                -3.1534140002447297
            ]
        },
        {
            "positions": [
                0.018552226993892473,
                -1.102891298146675,
                1.8075396406026736,
                -0.819534172502044,
                0.13526405726771926,
                -3.1402718510025274
            ]
        },
        {
            "positions": [
                0.12274126274274569,
                -1.146271002042108,
                1.9861624009688184,
                -0.8495057043500135,
                0.1254669733762857,
                -3.1271297017603255
            ]
        }
    ]
}