{
    "goal": {
        "global_pose": {
            "orientation": {
                "w": 0.5084816262002911,
                "x": -0.4908360881923452,
                "y": 0.5182115481033761,
                "z": -0.48164630358495003
            },
            "position": {
                "x": 0.5540239810943604,
                "y": -0.46912469901144505,
                "z": 0.16403168439865112
            }
        },
        "name": "move_to_storage_B"
    },
    "id": "KPIECE_move_to_storage_B_17",
    "joint_names": [
        "shoulder_pan_joint",
        "shoulder_lift_joint",
        "elbow_joint",
        "wrist_1_joint",
        "wrist_2_joint",
        "wrist_3_joint"
    ],
    "metrics": {
        "cart_traj_len": 1.9078663155589803,
        "distance_elbow_joint": 0.4757682033927044,
        "distance_shoulder_lift_joint": 0.6250600333325023,
        "distance_shoulder_pan_joint": 1.9028503773430718,
        "distance_wrist_1_joint": 2.99420769903322,
        "distance_wrist_2_joint": 2.717036495061663,
        "distance_wrist_3_joint": 3.6979588762659845,
        "smoothness": 0.22178394910219182,
        "time": 0.11821737099999999,
        "traj_len": 3.523191973825603,
        "weighted_distance": 5.051736694549311
    },
    "planner": "KPIECE",
    "start": {
        "state": {
            "elbow_joint": 1.664937868594044,
            "shoulder_lift_joint": -0.661644460510453,
            "shoulder_pan_joint": -0.9139846352900073,
            "wrist_1_joint": 2.146753192139373,
            "wrist_2_joint": -2.2341966793290973,
            "wrist_3_joint": 0.005466555786416001
        }
    },
    "waypoints": [
        {
            "positions": [
                -0.9139846352900073,
                -0.661644460510453,
                1.664937868594044,
                2.146753192139373,
                -2.2341966793290973,
                0.005466555786416001
            ]
        },
        {
            "positions": [
                -0.818291689318094,
                -0.7219769558265101,
                1.6581925290654371,
                2.0957543222200066,
                -2.113878530690046,
                -0.02534029159588357
            ]
        },
        {
            "positions": [
                -0.7225987433461808,
                -0.7823094511425671,
                1.6514471895368303,
                2.04475545230064,
                -1.9935603820509946,
                -0.05614713897818314
            ]
        },
        {
            "positions": [
                -0.6269057973742675,
                -0.8426419464586241,
                1.6447018500082233,
                1.9937565823812733,
                -1.8732422334119434,
                -0.08695398636048271
            ]
        },
        {
            "positions": [
                -0.5312128514023542,
                -0.9029744417746812,
                1.6379565104796165,
                1.9427577124619066,
                -1.752924084772892,
                -0.11776083374278228
            ]
        },
        {
            "positions": [
                -0.435519905430441,
                -0.9633069370907383,
                1.6312111709510098,
                1.89175884254254,
                -1.6326059361338405,
                -0.14856768112508187
            ]
        },
        {
            "positions": [
                -0.3398269594585278,
                -1.0236394324067954,
                1.624465831422403,
                1.8407599726231734,
                -1.5122877874947895,
                -0.17937452850738142
            ]
        },
        {
            "positions": [
                -0.24413401348661445,
                -1.0839719277228523,
                1.617720491893796,
                1.7897611027038065,
                -1.391969638855738,
                -0.210181375889681
            ]
        },
        {
            "positions": [
                -0.1484410675147012,
                -1.1443044230389094,
                1.6109751523651892,
                1.7387622327844399,
                -1.2716514902166867,
                -0.24098822327198055
            ]
        },
        {
            "positions": [
                -0.05274812154278798,
                -1.2046369183549666,
                1.6042298128365824,
                1.6877633628650732,
                -1.1513333415776354,
                -0.2717950706542801
            ]
        },
        {
            "positions": [
                -0.09614869919261515,
                -1.201217436042967,
                1.6215239856547174,
                1.5821292849584516,
                -1.083242793356377,
                -0.12926601857822642
            ]
        },
        {
            "positions": [
                -0.1395492768424423,
                -1.1977979537309675,
                1.6388181584728527,
                1.47649520705183,
                -1.0151522451351187,
                0.013263033497827259
            ]
        },
        {
            "positions": [
                -0.1829498544922695,
                -1.194378471418968,
                1.6561123312909878,
                1.3708611291452084,
                -0.9470616969138602,
                0.15579208557388097
            ]
        },
        {
            "positions": [
                -0.22635043214209666,
                -1.1909589891069685,
                1.6734065041091228,
                1.2652270512385866,
                -0.8789711486926018,
                0.2983211376499346
            ]
        },
        {
            "positions": [
                -0.26975100979192385,
                -1.187539506794969,
                1.690700676927258,
                1.159592973331965,
                -0.8108806004713434,
                0.44085018972598833
            ]
        },
        {
            "positions": [
                -0.313151587441751,
                -1.1841200244829695,
                1.7079948497453932,
                1.0539588954253434,
                -0.742790052250085,
                0.583379241802042
            ]
        },
        {
            "positions": [
                -0.35655216509157817,
                -1.1807005421709698,
                1.7252890225635282,
                0.9483248175187217,
                -0.6746995040288266,
                0.7259082938780957
            ]
        },
        {
            "positions": [
                -0.3999527427414053,
                -1.1772810598589702,
                1.7425831953816633,
                0.8426907396121002,
                -0.6066089558075682,
                0.8684373459541493
            ]
        },
        {
            "positions": [
                -0.4433533203912325,
                -1.1738615775469707,
                1.7598773681997986,
                0.7370566617054785,
                -0.5385184075863098,
                1.0109663980302033
            ]
        },
        {
            "positions": [
                -0.4867538980410597,
                -1.1704420952349712,
                1.7771715410179336,
                0.6314225837988567,
                -0.47042785936505127,
                1.1534954501062566
            ]
        },
        {
            "positions": [
                -0.5301544756908868,
                -1.1670226129229717,
                1.7944657138360687,
                0.5257885058922351,
                -0.402337311143793,
                1.2960245021823105
            ]
        },
        {
            "positions": [
                -0.573555053340714,
                -1.1636031306109722,
                1.8117598866542037,
                0.42015442798561353,
                -0.3342467629225345,
                1.4385535542583643
            ]
        },
        {
            "positions": [
                -0.6169556309905411,
                -1.1601836482989727,
                1.829054059472339,
                0.31452035007899193,
                -0.26615621470127615,
                1.5810826063344177
            ]
        },
        {
            "positions": [
                -0.6603562086403684,
                -1.1567641659869732,
                1.846348232290474,
                0.2088862721723701,
                -0.19806566648001767,
                1.7236116584104715
            ]
        },
        {
            "positions": [
                -0.7037567862901956,
                -1.1533446836749737,
                1.8636424051086093,
                0.1032521942657485,
                -0.1299751182587594,
                1.8661407104865253
            ]
        },
        {
            "positions": [
                -0.7471573639400226,
                -1.1499252013629742,
                1.8809365779267444,
                -0.002381883640872884,
                -0.06188457003750103,
                2.0086697625625787
            ]
        },
        {
            "positions": [
                -0.7905579415898499,
                -1.1465057190509746,
                1.8982307507448795,
                -0.10801596154749471,
                0.006205978183757566,
                2.1511988146386325
            ]
        },
        {
            "positions": [
                -0.833958519239677,
                -1.143086236738975,
                1.9155249235630145,
                -0.21365003945411631,
                0.07429652640501594,
                2.2937278667146863
            ]
        },
        {
            "positions": [
                -0.8773590968895041,
                -1.1396667544269754,
                1.9328190963811496,
                -0.3192841173607379,
                0.1423870746262743,
                2.4362569187907397
            ]
        },
        {
            "positions": [
                -0.9207596745393314,
                -1.136247272114976,
                1.9501132691992848,
                -0.42491819526735974,
                0.2104776228475329,
                2.5787859708667935
            ]
        },
        {
            "positions": [
                -0.9641602521891585,
                -1.1328277898029764,
                1.96740744201742,
                -0.5305522731739811,
                0.2785681710687913,
                2.7213150229428473
            ]
        },
        {
            "positions": [
                -1.0075608298389858,
                -1.1294083074909769,
                1.984701614835555,
                -0.636186351080603,
                0.34665871929004943,
                2.8638440750189007
            ]
        },
        {
            "positions": [
                -1.050961407488813,
                -1.1259888251789774,
                2.0019957876536902,
                -0.7418204289872248,
                0.41474926751130803,
                3.006373127094955
            ]
        },
        {
            "positions": [
                -1.0943619851386401,
                -1.1225693428669778,
                2.0192899604718253,
                -0.8474545068938463,
                0.4828398157325665,
                3.1489021791710083
            ]
        }
    ]
}