{
    "goal": {
        "global_pose": {
            "orientation": {
                "w": -0.4816463035849501,
                "x": 0.5182115481033762,
                "y": 0.4908360881923453,
                "z": -0.5084816262002911
            },
            "position": {
                "x": -0.8240239810943604,
                "y": 0.19912469901144506,
                "z": 0.16403168439865112
            }
        },
        "name": "move_to_storage_D"
    },
    "id": "KPIECE_move_to_storage_D_19",
    "joint_names": [
        "shoulder_pan_joint",
        "shoulder_lift_joint",
        "elbow_joint",
        "wrist_1_joint",
        "wrist_2_joint",
        "wrist_3_joint"
    ],
    "metrics": {
        "cart_traj_len": 3.25463313889085,
        "distance_elbow_joint": 4.208742969571934,
        "distance_shoulder_lift_joint": 1.2656565979489014,
        "distance_shoulder_pan_joint": 2.8131043381223906,
        "distance_wrist_1_joint": 2.2689785774152496,
        "distance_wrist_2_joint": 1.568395876245467,
        "distance_wrist_3_joint": 3.128310178133383,
        "smoothness": 0.0294421986139276,
        "time": 0.120636683,
        "traj_len": 3.9055330670008828,
        "weighted_distance": 5.034598628228949
    },
    "planner": "KPIECE",
    "start": {
        "state": {
            "elbow_joint": -2.384821988534728,
            "shoulder_lift_joint": -2.2788054721415256,
            "shoulder_pan_joint": -0.1854694642142757,
            "wrist_1_joint": 1.4845938289331202,
            "wrist_2_joint": 0.17898776772866878,
            "wrist_3_joint": 0.037105688729662994
        }
    },
    "waypoints": [
        {
            "positions": [
                -0.1854694642142757,
                -2.2788054721415256,
                -2.384821988534728,
                1.4845938289331202,
                0.17898776772866878,
                0.037105688729662994
            ]
        },
        {
            "positions": [
                -0.09341068112145126,
                -2.247295879432651,
                -2.2373498056362706,
                1.4470381721070513,
                0.16459906271124547,
                -0.0342777758025416
            ]
        },
        {
            "positions": [
                -0.0013518980286268134,
                -2.2157862867237768,
                -2.0898776227378133,
                1.4094825152809825,
                0.15021035769382218,
                -0.10566124033474619
            ]
        },
        {
            "positions": [
                0.09070688506419763,
                -2.184276694014902,
                -1.942405439839356,
                1.3719268584549136,
                0.1358216526763989,
                -0.17704470486695081
            ]
        },
        {
            "positions": [
                0.18276566815702208,
                -2.1527671013060274,
                -1.794933256940899,
                1.3343712016288447,
                0.12143294765897558,
                -0.24842816939915538
            ]
        },
        {
            "positions": [
                0.27482445124984656,
                -2.121257508597153,
                -1.6474610740424414,
                1.2968155448027756,
                0.10704424264155228,
                -0.31981163393136003
            ]
        },
        {
            "positions": [
                0.366883234342671,
                -2.089747915888278,
                -1.4999888911439843,
                1.2592598879767067,
                0.09265553762412898,
                -0.3911950984635646
            ]
        },
        {
            "positions": [
                0.45894201743549545,
                -2.058238323179404,
                -1.352516708245527,
                1.2217042311506379,
                0.07826683260670568,
                -0.46257856299576927
            ]
        },
        {
            "positions": [
                0.5510008005283199,
                -2.0267287304705293,
                -1.2050445253470699,
                1.184148574324569,
                0.06387812758928238,
                -0.5339620275279737
            ]
        },
        {
            "positions": [
                0.6430595836211443,
                -1.9952191377616546,
                -1.0575723424486125,
                1.1465929174985001,
                0.04948942257185909,
                -0.6053454920601784
            ]
        },
        {
            "positions": [
                0.7351183667139688,
                -1.9637095450527802,
                -0.910100159550155,
                1.1090372606724312,
                0.03510071755443578,
                -0.6767289565923831
            ]
        },
        {
            "positions": [
                0.8271771498067931,
                -1.9321999523439057,
                -0.7626279766516979,
                1.0714816038463624,
                0.020712012537012492,
                -0.7481124211245875
            ]
        },
        {
            "positions": [
                0.9192359328996177,
                -1.900690359635031,
                -0.6151557937532406,
                1.0339259470202933,
                0.0063233075195891775,
                -0.8194958856567922
            ]
        },
        {
            "positions": [
                1.011294715992442,
                -1.8691807669261566,
                -0.4676836108547835,
                0.9963702901942245,
                -0.00806539749783411,
                -0.8908793501889968
            ]
        },
        {
            "positions": [
                1.1033534990852665,
                -1.837671174217282,
                -0.32021142795632596,
                0.9588146333681555,
                -0.022454102515257424,
                -0.9622628147212015
            ]
        },
        {
            "positions": [
                1.1954122821780908,
                -1.8061615815084076,
                -0.17273924505786864,
                0.9212589765420867,
                -0.03684280753268074,
                -1.033646279253406
            ]
        },
        {
            "positions": [
                1.2874710652709154,
                -1.774651988799533,
                -0.02526706215941177,
                0.8837033197160178,
                -0.051231512550104025,
                -1.1050297437856105
            ]
        },
        {
            "positions": [
                1.37952984836374,
                -1.7431423960906582,
                0.12220512073904599,
                0.8461476628899488,
                -0.06562021756752734,
                -1.1764132083178154
            ]
        },
        {
            "positions": [
                1.4715886314565643,
                -1.7116328033817838,
                0.26967730363750286,
                0.80859200606388,
                -0.0800089225849506,
                -1.2477966728500198
            ]
        },
        {
            "positions": [
                1.5636474145493886,
                -1.6801232106729094,
                0.4171494865359602,
                0.7710363492378112,
                -0.09439762760237394,
                -1.3191801373822243
            ]
        },
        {
            "positions": [
                1.6557061976422132,
                -1.6486136179640347,
                0.5646216694344179,
                0.7334806924117422,
                -0.10878633261979723,
                -1.3905636019144292
            ]
        },
        {
            "positions": [
                1.7477649807350377,
                -1.61710402525516,
                0.7120938523328748,
                0.6959250355856733,
                -0.12317503763722051,
                -1.4619470664466336
            ]
        },
        {
            "positions": [
                1.8398237638278618,
                -1.5855944325462856,
                0.8595660352313321,
                0.6583693787596044,
                -0.1375637426546438,
                -1.533330530978838
            ]
        },
        {
            "positions": [
                1.9318825469206864,
                -1.5540848398374112,
                1.0070382181297894,
                0.6208137219335355,
                -0.15195244767206714,
                -1.604713995511043
            ]
        },
        {
            "positions": [
                2.023941330013511,
                -1.5225752471285365,
                1.1545104010282468,
                0.5832580651074666,
                -0.16634115268949046,
                -1.6760974600432474
            ]
        },
        {
            "positions": [
                2.0723477759080176,
                -1.4848848721053673,
                1.208825044708252,
                0.5035981838166721,
                -0.09522296946481805,
                -1.777295010269376
            ]
        },
        {
            "positions": [
                2.120754221802524,
                -1.447194497082198,
                1.263139688388257,
                0.4239383025258777,
                -0.024104786240145643,
                -1.8784925604955047
            ]
        },
        {
            "positions": [
                2.1691606676970308,
                -1.4095041220590288,
                1.3174543320682623,
                0.3442784212350833,
                0.04701339698452678,
                -1.9796901107216334
            ]
        },
        {
            "positions": [
                2.2175671135915374,
                -1.3718137470358593,
                1.3717689757482676,
                0.26461853994428886,
                0.11813158020919917,
                -2.080887660947762
            ]
        },
        {
            "positions": [
                2.265973559486044,
                -1.3341233720126902,
                1.4260836194282729,
                0.18495865865349437,
                0.18924976343387162,
                -2.1820852111738906
            ]
        },
        {
            "positions": [
                2.3143800053805506,
                -1.2964329969895207,
                1.480398263108278,
                0.10529877736269999,
                0.260367946658544,
                -2.2832827614000193
            ]
        },
        {
            "positions": [
                2.362786451275057,
                -1.2587426219663516,
                1.5347129067882832,
                0.025638896071905504,
                0.3314861298832164,
                -2.384480311626148
            ]
        },
        {
            "positions": [
                2.4111928971695638,
                -1.2210522469431822,
                1.5890275504682883,
                -0.05402098521888887,
                0.4026043131078888,
                -2.4856778618522766
            ]
        },
        {
            "positions": [
                2.4595993430640704,
                -1.183361871920013,
                1.6433421941482935,
                -0.1336808665096833,
                0.4737224963325613,
                -2.586875412078405
            ]
        },
        {
            "positions": [
                2.4876052648714113,
                -1.1549930389654481,
                1.6734386586297791,
                -0.242131513505091,
                0.5708897141334373,
                -2.670930258299291
            ]
        },
        {
            "positions": [
                2.515611186678752,
                -1.1266242060108833,
                1.703535123111265,
                -0.35058216050049873,
                0.6680569319343133,
                -2.754985104520177
            ]
        },
        {
            "positions": [
                2.5436171084860923,
                -1.0982553730563187,
                1.7336315875927506,
                -0.4590328074959064,
                0.7652241497351893,
                -2.8390399507410624
            ]
        },
        {
            "positions": [
                2.5716230302934333,
                -1.0698865401017539,
                1.7637280520742362,
                -0.5674834544913141,
                0.8623913675360652,
                -2.9230947969619483
            ]
        },
        {
            "positions": [
                2.5996289521007743,
                -1.041517707147189,
                1.793824516555722,
                -0.675934101486722,
                0.9595585853369412,
                -3.007149643182834
            ]
        },
        {
            "positions": [
                2.627634873908115,
                -1.0131488741926242,
                1.8239209810372077,
                -0.7843847484821296,
                1.056725803137817,
                -3.09120448940372
            ]
        }
    ]
}