{
    "goal": {
        "global_pose": {
            "orientation": {
                "w": 0.5084816262002911,
                "x": -0.4908360881923452,
                "y": 0.5182115481033761,
                "z": -0.48164630358495003
            },
            "position": {
                "x": 0.5540239810943604,
                "y": -0.46912469901144505,
                "z": 0.16403168439865112
            }
        },
        "name": "move_to_storage_B"
    },
    "id": "KPIECE_move_to_storage_B_84",
    "joint_names": [
        "shoulder_pan_joint",
        "shoulder_lift_joint",
        "elbow_joint",
        "wrist_1_joint",
        "wrist_2_joint",
        "wrist_3_joint"
    ],
    "metrics": {
        "cart_traj_len": 1.7461170580028793,
        "distance_elbow_joint": 0.3491933569780503,
        "distance_shoulder_lift_joint": 1.2413438716661171,
        "distance_shoulder_pan_joint": 1.531460809437763,
        "distance_wrist_1_joint": 2.982944106907018,
        "distance_wrist_2_joint": 2.7088617780034903,
        "distance_wrist_3_joint": 3.139990606181646,
        "smoothness": 0.1747034460830407,
        "time": 0.085781096,
        "traj_len": 3.457425997642478,
        "weighted_distance": 4.891378295168743
    },
    "planner": "KPIECE",
    "start": {
        "state": {
            "elbow_joint": 1.664937868594044,
            "shoulder_lift_joint": -0.661644460510453,
            "shoulder_pan_joint": -0.9139846352900073,
            "wrist_1_joint": 2.146753192139373,
            "wrist_2_joint": -2.2341966793290973,
            "wrist_3_joint": 0.005466555786416001
        }
    },
    "waypoints": [
        {
            "positions": [
                -0.9139846352900073,
                -0.661644460510453,
                1.664937868594044,
                2.146753192139373,
                -2.2341966793290973,
                0.005466555786416001
            ]
        },
        {
            "positions": [
                -0.8577522255834047,
                -0.732469406810446,
                1.6903924556736543,
                2.1140827537801745,
                -2.160031211378472,
                0.14100649462956213
            ]
        },
        {
            "positions": [
                -0.8015198158768022,
                -0.8032943531104391,
                1.7158470427532646,
                2.0814123154209763,
                -2.085865743427847,
                0.2765464334727083
            ]
        },
        {
            "positions": [
                -0.7452874061701997,
                -0.8741192994104321,
                1.7413016298328752,
                2.0487418770617776,
                -2.0117002754772217,
                0.41208637231585443
            ]
        },
        {
            "positions": [
                -0.6890549964635971,
                -0.944944245710425,
                1.7667562169124855,
                2.0160714387025793,
                -1.9375348075265963,
                0.5476263111590005
            ]
        },
        {
            "positions": [
                -0.6328225867569945,
                -1.0157691920104182,
                1.7922108039920959,
                1.9834010003433806,
                -1.863369339575971,
                0.6831662500021467
            ]
        },
        {
            "positions": [
                -0.5765901770503921,
                -1.086594138310411,
                1.8176653910717062,
                1.9507305619841822,
                -1.7892038716253458,
                0.8187061888452928
            ]
        },
        {
            "positions": [
                -0.5203577673437896,
                -1.157419084610404,
                1.8431199781513166,
                1.9180601236249837,
                -1.7150384036747206,
                0.954246127688439
            ]
        },
        {
            "positions": [
                -0.464125357637187,
                -1.228244030910397,
                1.868574565230927,
                1.8853896852657852,
                -1.6408729357240954,
                1.089786066531585
            ]
        },
        {
            "positions": [
                -0.4078929479305845,
                -1.29906897721039,
                1.8940291523105373,
                1.8527192469065867,
                -1.56670746777347,
                1.2253260053747312
            ]
        },
        {
            "positions": [
                -0.3516605382239819,
                -1.369893923510383,
                1.9194837393901478,
                1.820048808547388,
                -1.4925419998228446,
                1.3608659442178774
            ]
        },
        {
            "positions": [
                -0.29542812851737943,
                -1.4407188698103761,
                1.9449383264697582,
                1.7873783701881896,
                -1.4183765318722195,
                1.4964058830610234
            ]
        },
        {
            "positions": [
                -0.23919571881077678,
                -1.5115438161103691,
                1.9703929135493685,
                1.754707931828991,
                -1.3442110639215943,
                1.6319458219041696
            ]
        },
        {
            "positions": [
                -0.28428371317701534,
                -1.4909414731595165,
                1.9726949299716172,
                1.6183448346396945,
                -1.248480739574437,
                1.7116043134864798
            ]
        },
        {
            "positions": [
                -0.32937170754325396,
                -1.4703391302086637,
                1.974996946393866,
                1.4819817374503979,
                -1.1527504152272798,
                1.7912628050687898
            ]
        },
        {
            "positions": [
                -0.3744597019094925,
                -1.449736787257811,
                1.9772989628161146,
                1.3456186402611012,
                -1.0570200908801226,
                1.8709212966511
            ]
        },
        {
            "positions": [
                -0.4195476962757311,
                -1.4291344443069585,
                1.9796009792383633,
                1.2092555430718046,
                -0.9612897665329654,
                1.95057978823341
            ]
        },
        {
            "positions": [
                -0.4646356906419697,
                -1.4085321013561056,
                1.9819029956606122,
                1.0728924458825082,
                -0.8655594421858083,
                2.03023827981572
            ]
        },
        {
            "positions": [
                -0.5097236850082083,
                -1.387929758405253,
                1.984205012082861,
                0.9365293486932115,
                -0.769829117838651,
                2.1098967713980303
            ]
        },
        {
            "positions": [
                -0.5548116793744469,
                -1.3673274154544004,
                1.9865070285051096,
                0.8001662515039148,
                -0.6740987934914938,
                2.18955526298034
            ]
        },
        {
            "positions": [
                -0.5998996737406854,
                -1.3467250725035478,
                1.9888090449273583,
                0.6638031543146183,
                -0.5783684691443366,
                2.2692137545626503
            ]
        },
        {
            "positions": [
                -0.644987668106924,
                -1.326122729552695,
                1.991111061349607,
                0.5274400571253217,
                -0.48263814479717937,
                2.3488722461449605
            ]
        },
        {
            "positions": [
                -0.6900756624731625,
                -1.3055203866018423,
                1.9934130777718557,
                0.3910769599360251,
                -0.38690782045002226,
                2.4285307377272707
            ]
        },
        {
            "positions": [
                -0.7351636568394012,
                -1.2849180436509897,
                1.9957150941941044,
                0.25471386274672825,
                -0.2911774961028648,
                2.508189229309581
            ]
        },
        {
            "positions": [
                -0.7802516512056397,
                -1.2643157007001369,
                1.9980171106163531,
                0.11835076555743185,
                -0.1954471717557078,
                2.5878477208918906
            ]
        },
        {
            "positions": [
                -0.8253396455718784,
                -1.2437133577492843,
                2.000319127038602,
                -0.018012331631864997,
                -0.09971684740855058,
                2.6675062124742013
            ]
        },
        {
            "positions": [
                -0.870427639938117,
                -1.2231110147984317,
                2.0026211434608507,
                -0.1543754288211614,
                -0.0039865230613933544,
                2.747164704056511
            ]
        },
        {
            "positions": [
                -0.9155156343043556,
                -1.2025086718475788,
                2.0049231598830994,
                -0.290738526010458,
                0.09174380128576387,
                2.8268231956388212
            ]
        },
        {
            "positions": [
                -0.9606036286705941,
                -1.1819063288967262,
                2.007225176305348,
                -0.4271016231997544,
                0.1874741256329211,
                2.906481687221131
            ]
        },
        {
            "positions": [
                -1.0056916230368327,
                -1.1613039859458736,
                2.009527192727597,
                -0.5634647203890513,
                0.2832044499800783,
                2.986140178803441
            ]
        },
        {
            "positions": [
                -1.0507796174030712,
                -1.1407016429950207,
                2.0118292091498455,
                -0.6998278175783477,
                0.37893477432723555,
                3.0657986703857514
            ]
        },
        {
            "positions": [
                -1.0958676117693098,
                -1.1200993000441681,
                2.0141312255720942,
                -0.8361909147676446,
                0.4746650986743928,
                3.1454571619680616
            ]
        }
    ]
}