{
    "goal": {
        "global_pose": {
            "orientation": {
                "w": 0.7047431468963623,
                "x": -0.7094548344612122,
                "y": 0.0024358443915843964,
                "z": -0.0022348060738295317
            },
            "position": {
                "x": 0.6094750761985779,
                "y": 0.3671506643295288,
                "z": 0.19426114857196808
            }
        },
        "name": "move_to_magneteinheit_A"
    },
    "id": "KPIECE_move_to_magneteinheit_A_34",
    "joint_names": [
        "shoulder_pan_joint",
        "shoulder_lift_joint",
        "elbow_joint",
        "wrist_1_joint",
        "wrist_2_joint",
        "wrist_3_joint"
    ],
    "metrics": {
        "cart_traj_len": 3.9133867892952274,
        "distance_elbow_joint": 3.869489150522818,
        "distance_shoulder_lift_joint": 0.9247143670089182,
        "distance_shoulder_pan_joint": 2.673637057734835,
        "distance_wrist_1_joint": 0.8570186605026221,
        "distance_wrist_2_joint": 1.986594869345455,
        "distance_wrist_3_joint": 2.8195425267332603,
        "smoothness": 0.24992365735499117,
        "time": 0.157417589,
        "traj_len": 3.623671705859667,
        "weighted_distance": 4.649053152542193
    },
    "planner": "KPIECE",
    "start": {
        "state": {
            "elbow_joint": -1.9196185241190666,
            "shoulder_lift_joint": -1.2443396400964142,
            "shoulder_pan_joint": 2.6996025414629847,
            "wrist_1_joint": -1.5485510000780065,
            "wrist_2_joint": -1.5709468930060704,
            "wrist_3_joint": 0.4420197071253992
        }
    },
    "waypoints": [
        {
            "positions": [
                2.6996025414629847,
                -1.2443396400964142,
                -1.9196185241190666,
                -1.5485510000780065,
                -1.5709468930060704,
                0.4420197071253992
            ]
        },
        {
            "positions": [
                2.5473770717113484,
                -1.2772408172440834,
                -1.8299209092492608,
                -1.545299046863105,
                -1.4788426818387843,
                0.4318006314468693
            ]
        },
        {
            "positions": [
                2.395151601959712,
                -1.310141994391753,
                -1.740223294379455,
                -1.5420470936482031,
                -1.3867384706714985,
                0.4215815557683394
            ]
        },
        {
            "positions": [
                2.242926132208076,
                -1.3430431715394224,
                -1.6505256795096492,
                -1.5387951404333016,
                -1.2946342595042126,
                0.41136248008980947
            ]
        },
        {
            "positions": [
                2.0907006624564395,
                -1.3759443486870917,
                -1.5608280646398436,
                -1.5355431872183998,
                -1.2025300483369266,
                0.4011434044112796
            ]
        },
        {
            "positions": [
                1.9384751927048032,
                -1.408845525834761,
                -1.4711304497700377,
                -1.5322912340034982,
                -1.1104258371696405,
                0.39092432873274974
            ]
        },
        {
            "positions": [
                1.7862497229531669,
                -1.4417467029824305,
                -1.3814328349002318,
                -1.5290392807885964,
                -1.0183216260023547,
                0.3807052530542198
            ]
        },
        {
            "positions": [
                1.6340242532015306,
                -1.4746478801301,
                -1.291735220030426,
                -1.5257873275736948,
                -0.9262174148350687,
                0.3704861773756899
            ]
        },
        {
            "positions": [
                1.4817987834498942,
                -1.5075490572777692,
                -1.2020376051606203,
                -1.5225353743587933,
                -0.8341132036677827,
                0.36026710169716003
            ]
        },
        {
            "positions": [
                1.329573313698258,
                -1.5404502344254385,
                -1.1123399902908144,
                -1.5192834211438915,
                -0.7420089925004968,
                0.35004802601863017
            ]
        },
        {
            "positions": [
                1.1773478439466216,
                -1.573351411573108,
                -1.0226423754210086,
                -1.51603146792899,
                -0.6499047813332108,
                0.33982895034010024
            ]
        },
        {
            "positions": [
                1.0251223741949853,
                -1.6062525887207775,
                -0.9329447605512029,
                -1.5127795147140881,
                -0.557800570165925,
                0.3296098746615703
            ]
        },
        {
            "positions": [
                0.8728969044433491,
                -1.6391537658684467,
                -0.843247145681397,
                -1.5095275614991865,
                -0.46569635899863904,
                0.31939079898304046
            ]
        },
        {
            "positions": [
                0.8329932915563045,
                -1.6130777944487074,
                -0.7137928145848321,
                -1.4752510246293908,
                -0.4289284065972248,
                0.44213140982999005
            ]
        },
        {
            "positions": [
                0.79308967866926,
                -1.587001823028968,
                -0.5843384834882672,
                -1.4409744877595954,
                -0.3921604541958105,
                0.5648720206769396
            ]
        },
        {
            "positions": [
                0.7531860657822154,
                -1.5609258516092288,
                -0.45488415239170227,
                -1.4066979508897997,
                -0.3553925017943963,
                0.6876126315238893
            ]
        },
        {
            "positions": [
                0.7132824528951707,
                -1.5348498801894894,
                -0.3254298212951373,
                -1.3724214140200042,
                -0.318624549392982,
                0.8103532423708388
            ]
        },
        {
            "positions": [
                0.6733788400081262,
                -1.50877390876975,
                -0.1959754901985724,
                -1.3381448771502085,
                -0.2818565969915678,
                0.9330938532177885
            ]
        },
        {
            "positions": [
                0.6334752271210815,
                -1.4826979373500107,
                -0.06652115910200751,
                -1.303868340280413,
                -0.24508864459015353,
                1.0558344640647381
            ]
        },
        {
            "positions": [
                0.593571614234037,
                -1.4566219659302715,
                0.06293317199455739,
                -1.2695918034106173,
                -0.20832069218873928,
                1.1785750749116877
            ]
        },
        {
            "positions": [
                0.5536680013469923,
                -1.430545994510532,
                0.1923875030911224,
                -1.2353152665408218,
                -0.17155273978732505,
                1.3013156857586372
            ]
        },
        {
            "positions": [
                0.5137643884599478,
                -1.4044700230907927,
                0.3218418341876874,
                -1.201038729671026,
                -0.13478478738591076,
                1.424056296605587
            ]
        },
        {
            "positions": [
                0.4738607755729032,
                -1.3783940516710533,
                0.4512961652842522,
                -1.1667621928012304,
                -0.09801683498449654,
                1.5467969074525365
            ]
        },
        {
            "positions": [
                0.43395716268585854,
                -1.352318080251314,
                0.5807504963808172,
                -1.132485655931435,
                -0.061248882583082254,
                1.6695375182994863
            ]
        },
        {
            "positions": [
                0.394053549798814,
                -1.3262421088315746,
                0.710204827477382,
                -1.0982091190616394,
                -0.024480930181668026,
                1.7922781291464356
            ]
        },
        {
            "positions": [
                0.35414993691176944,
                -1.3001661374118352,
                0.839659158573947,
                -1.0639325821918437,
                0.012287022219746202,
                1.9150187399933853
            ]
        },
        {
            "positions": [
                0.31424632402472485,
                -1.274090165992096,
                0.9691134896705118,
                -1.029656045322048,
                0.049054974621160485,
                2.037759350840335
            ]
        },
        {
            "positions": [
                0.2743427111376803,
                -1.2480141945723566,
                1.0985678207670768,
                -0.9953795084522525,
                0.08582292702257466,
                2.1604999616872846
            ]
        },
        {
            "positions": [
                0.23443909825063558,
                -1.2219382231526172,
                1.2280221518636418,
                -0.9611029715824568,
                0.12259087942398894,
                2.2832405725342344
            ]
        },
        {
            "positions": [
                0.194535485363591,
                -1.195862251732878,
                1.3574764829602066,
                -0.9268264347126612,
                0.15935883182540322,
                2.4059811833811837
            ]
        },
        {
            "positions": [
                0.15463187247654642,
                -1.1697862803131387,
                1.4869308140567719,
                -0.8925498978428656,
                0.1961267842268175,
                2.5287217942281335
            ]
        },
        {
            "positions": [
                0.11472825958950184,
                -1.1437103088933993,
                1.6163851451533362,
                -0.85827336097307,
                0.23289473662823168,
                2.651462405075083
            ]
        },
        {
            "positions": [
                0.07482464670245723,
                -1.11763433747366,
                1.7458394762499012,
                -0.8239968241032745,
                0.2696626890296459,
                2.7742030159220326
            ]
        },
        {
            "positions": [
                0.09111103436056002,
                -1.1204279417543594,
                1.813849859634518,
                -0.7798419959273111,
                0.22100092659306608,
                2.854903483139336
            ]
        },
        {
            "positions": [
                0.10739742201866281,
                -1.123221546035059,
                1.8818602430191351,
                -0.7356871677513477,
                0.17233916415648629,
                2.935603950356639
            ]
        },
        {
            "positions": [
                0.12368380967676562,
                -1.1260151503157587,
                1.949870626403752,
                -0.6915323395753844,
                0.12367740171990647,
                3.016304417573942
            ]
        }
    ]
}