{
    "goal": {
        "global_pose": {
            "orientation": {
                "w": 0.7031023502349854,
                "x": -0.7110244035720825,
                "y": 0.007748599164187908,
                "z": 0.005598929710686207
            },
            "position": {
                "x": 0.11585023208521307,
                "y": 0.44412534475326537,
                "z": 0.3711530566215515
            }
        },
        "name": "move_to_auspresseinheit_A"
    },
    "id": "KPIECE_move_to_auspresseinheit_A_115",
    "joint_names": [
        "shoulder_pan_joint",
        "shoulder_lift_joint",
        "elbow_joint",
        "wrist_1_joint",
        "wrist_2_joint",
        "wrist_3_joint"
    ],
    "metrics": {
        "cart_traj_len": 4.220562865685299,
        "distance_elbow_joint": 0.15035451690124724,
        "distance_shoulder_lift_joint": 2.5982169468621823,
        "distance_shoulder_pan_joint": 8.767069489872405,
        "distance_wrist_1_joint": 2.337252272551993,
        "distance_wrist_2_joint": 2.2463403485596807,
        "distance_wrist_3_joint": 8.749984622783115,
        "smoothness": 0.8121011595764245,
        "time": 0.31007141,
        "traj_len": 4.9848990157806234,
        "weighted_distance": 6.850750328555878
    },
    "planner": "KPIECE",
    "start": {
        "state": {
            "elbow_joint": 2.4225746658250005,
            "shoulder_lift_joint": -1.3736534386056498,
            "shoulder_pan_joint": -0.3378633547517467,
            "wrist_1_joint": -1.0288598680537169,
            "wrist_2_joint": 1.233022673432363,
            "wrist_3_joint": -3.0940220416140027
        }
    },
    "waypoints": [
        {
            "positions": [
                -0.3378633547517467,
                -1.3736534386056498,
                2.4225746658250005,
                -1.0288598680537169,
                1.233022673432363,
                -3.0940220416140027
            ]
        },
        {
            "positions": [
                -0.21089726195000127,
                -1.4336967430369032,
                2.413125655754752,
                -0.9461168115209992,
                1.1556863057379496,
                -3.0712663580047397
            ]
        },
        {
            "positions": [
                -0.08393116914825582,
                -1.4937400474681568,
                2.403676645684503,
                -0.8633737549882816,
                1.078349938043536,
                -3.0485106743954766
            ]
        },
        {
            "positions": [
                0.043034923653489654,
                -1.5537833518994102,
                2.3942276356142544,
                -0.780630698455564,
                1.0010135703491225,
                -3.0257549907862136
            ]
        },
        {
            "positions": [
                0.17000101645523508,
                -1.6138266563306636,
                2.3847786255440058,
                -0.6978876419228464,
                0.9236772026547091,
                -3.0029993071769505
            ]
        },
        {
            "positions": [
                0.2969671092569806,
                -1.6738699607619172,
                2.3753296154737575,
                -0.6151445853901287,
                0.8463408349602956,
                -2.980243623567687
            ]
        },
        {
            "positions": [
                0.42393320205872603,
                -1.7339132651931706,
                2.365880605403509,
                -0.5324015288574112,
                0.7690044672658821,
                -2.957487939958424
            ]
        },
        {
            "positions": [
                0.5508992948604714,
                -1.793956569624424,
                2.35643159533326,
                -0.4496584723246936,
                0.6916680995714686,
                -2.934732256349161
            ]
        },
        {
            "positions": [
                0.6778653876622169,
                -1.8539998740556776,
                2.3469825852630115,
                -0.36691541579197595,
                0.6143317318770551,
                -2.911976572739898
            ]
        },
        {
            "positions": [
                0.8048314804639624,
                -1.914043178486931,
                2.337533575192763,
                -0.2841723592592583,
                0.5369953641826416,
                -2.889220889130635
            ]
        },
        {
            "positions": [
                0.6617374668383,
                -1.8758274067552274,
                2.337358608143756,
                -0.2581152547895294,
                0.5112303511795623,
                -2.7353394478010142
            ]
        },
        {
            "positions": [
                0.5186434532126378,
                -1.8376116350235239,
                2.3371836410947484,
                -0.2320581503198005,
                0.48546533817648285,
                -2.5814580064713937
            ]
        },
        {
            "positions": [
                0.37554943958697556,
                -1.79939586329182,
                2.3370086740457414,
                -0.20600104585007162,
                0.4597003251734035,
                -2.427576565141773
            ]
        },
        {
            "positions": [
                0.2324554259613133,
                -1.7611800915601166,
                2.336833706996734,
                -0.1799439413803427,
                0.4339353121703241,
                -2.2736951238121526
            ]
        },
        {
            "positions": [
                0.08936141233565109,
                -1.722964319828413,
                2.336658739947727,
                -0.15388683691061378,
                0.4081702991672448,
                -2.1198136824825324
            ]
        },
        {
            "positions": [
                -0.05373260129001123,
                -1.6847485480967095,
                2.3364837728987196,
                -0.12782973244088489,
                0.38240528616416536,
                -1.9659322411529119
            ]
        },
        {
            "positions": [
                -0.19682661491567355,
                -1.6465327763650057,
                2.3363088058497126,
                -0.10177262797115597,
                0.35664027316108604,
                -1.8120507998232913
            ]
        },
        {
            "positions": [
                -0.33992062854133576,
                -1.6083170046333022,
                2.336133838800705,
                -0.07571552350142705,
                0.3308752601580066,
                -1.6581693584936708
            ]
        },
        {
            "positions": [
                -0.48301464216699797,
                -1.5701012329015986,
                2.335958871751698,
                -0.04965841903169815,
                0.3051102471549273,
                -1.5042879171640502
            ]
        },
        {
            "positions": [
                -0.6261086557926602,
                -1.531885461169895,
                2.335783904702691,
                -0.023601314561969233,
                0.2793452341518479,
                -1.3504064758344299
            ]
        },
        {
            "positions": [
                -0.7692026694183224,
                -1.4936696894381916,
                2.3356089376536837,
                0.0024557899077596868,
                0.25358022114876855,
                -1.1965250345048093
            ]
        },
        {
            "positions": [
                -0.9122966830439848,
                -1.455453917706488,
                2.3354339706046767,
                0.02851289437748855,
                0.22781520814568917,
                -1.0426435931751887
            ]
        },
        {
            "positions": [
                -1.055390696669647,
                -1.4172381459747843,
                2.3352590035556693,
                0.05456999884721747,
                0.2020501951426098,
                -0.8887621518455684
            ]
        },
        {
            "positions": [
                -1.1984847102953093,
                -1.3790223742430807,
                2.3350840365066623,
                0.08062710331694639,
                0.17628518213953043,
                -0.7348807105159478
            ]
        },
        {
            "positions": [
                -1.3415787239209718,
                -1.340806602511377,
                2.334909069457655,
                0.10668420778667537,
                0.150520169136451,
                -0.5809992691863268
            ]
        },
        {
            "positions": [
                -1.4846727375466338,
                -1.3025908307796734,
                2.334734102408648,
                0.13274131225640423,
                0.12475515613337168,
                -0.4271178278567067
            ]
        },
        {
            "positions": [
                -1.6277667511722962,
                -1.2643750590479699,
                2.3345591353596404,
                0.15879841672613315,
                0.09899014313029225,
                -0.27323638652708615
            ]
        },
        {
            "positions": [
                -1.7708607647979582,
                -1.2261592873162663,
                2.3343841683106334,
                0.18485552119586202,
                0.07322513012721293,
                -0.11935494519746559
            ]
        },
        {
            "positions": [
                -1.9139547784236206,
                -1.1879435155845628,
                2.3342092012616265,
                0.210912625665591,
                0.047460117124133505,
                0.03452649613215497
            ]
        },
        {
            "positions": [
                -2.0570487920492826,
                -1.1497277438528593,
                2.334034234212619,
                0.23696973013531986,
                0.021695104121054243,
                0.1884079374617751
            ]
        },
        {
            "positions": [
                -2.200142805674945,
                -1.1115119721211557,
                2.333859267163612,
                0.26302683460504883,
                -0.004069908882025186,
                0.3422893787913961
            ]
        },
        {
            "positions": [
                -2.343236819300607,
                -1.0732962003894522,
                2.3336843001146046,
                0.2890839390747777,
                -0.029834921885104504,
                0.4961708201210162
            ]
        },
        {
            "positions": [
                -2.48633083292627,
                -1.0350804286577484,
                2.3335093330655976,
                0.31514104354450656,
                -0.05559993488818393,
                0.6500522614506372
            ]
        },
        {
            "positions": [
                -2.629424846551932,
                -0.9968646569260449,
                2.33333436601659,
                0.3411981480142354,
                -0.08136494789126325,
                0.8039337027802573
            ]
        },
        {
            "positions": [
                -2.7725188601775943,
                -0.9586488851943412,
                2.333159398967583,
                0.3672552524839644,
                -0.10712996089434268,
                0.9578151441098779
            ]
        },
        {
            "positions": [
                -2.9156128738032563,
                -0.9204331134626377,
                2.3329844319185757,
                0.39331235695369327,
                -0.132894973897422,
                1.111696585439498
            ]
        },
        {
            "positions": [
                -3.0587068874289187,
                -0.882217341730934,
                2.3328094648695687,
                0.41936946142342224,
                -0.15865998690050143,
                1.2655780267691195
            ]
        },
        {
            "positions": [
                -2.9243913057587827,
                -0.9188602478103949,
                2.334973369010491,
                0.38761864202789176,
                -0.12813649803525792,
                1.1087785783976916
            ]
        },
        {
            "positions": [
                -2.7900757240886467,
                -0.9555031538898558,
                2.337137273151413,
                0.3558678226323613,
                -0.09761300917001442,
                0.9519791300262634
            ]
        },
        {
            "positions": [
                -2.65576014241851,
                -0.9921460599693167,
                2.339301177292335,
                0.3241170032368308,
                -0.06708952030477092,
                0.7951796816548355
            ]
        },
        {
            "positions": [
                -2.521444560748374,
                -1.0287889660487777,
                2.3414650814332565,
                0.2923661838413003,
                -0.03656603143952741,
                0.6383802332834075
            ]
        },
        {
            "positions": [
                -2.387128979078238,
                -1.0654318721282385,
                2.3436289855741785,
                0.26061536444576977,
                -0.00604254257428391,
                0.48158078491197953
            ]
        },
        {
            "positions": [
                -2.2528133974081017,
                -1.1020747782076994,
                2.3457928897151006,
                0.22886454505023932,
                0.024480946290959593,
                0.3247813365405515
            ]
        },
        {
            "positions": [
                -2.1184978157379657,
                -1.1387176842871602,
                2.3479567938560226,
                0.1971137256547088,
                0.055004435156203096,
                0.16798188816912352
            ]
        },
        {
            "positions": [
                -1.9841822340678297,
                -1.175360590366621,
                2.3501206979969447,
                0.16536290625917832,
                0.0855279240214466,
                0.01118243979769562
            ]
        },
        {
            "positions": [
                -1.8498666523976934,
                -1.2120034964460822,
                2.3522846021378667,
                0.13361208686364778,
                0.11605141288669013,
                -0.1456170085737325
            ]
        },
        {
            "positions": [
                -1.7155510707275574,
                -1.248646402525543,
                2.3544485062787888,
                0.1018612674681173,
                0.1465749017519336,
                -0.3024164569451604
            ]
        },
        {
            "positions": [
                -1.5812354890574214,
                -1.285289308605004,
                2.3566124104197104,
                0.07011044807258687,
                0.17709839061717708,
                -0.4592159053165885
            ]
        },
        {
            "positions": [
                -1.4469199073872852,
                -1.3219322146844648,
                2.3587763145606324,
                0.03835962867705639,
                0.2076218794824206,
                -0.6160153536880164
            ]
        },
        {
            "positions": [
                -1.312604325717149,
                -1.3585751207639256,
                2.3609402187015545,
                0.0066088092815258515,
                0.23814536834766414,
                -0.7728148020594445
            ]
        },
        {
            "positions": [
                -1.178288744047013,
                -1.3952180268433865,
                2.3631041228424765,
                -0.02514201011400463,
                0.2686688572129076,
                -0.9296142504308724
            ]
        },
        {
            "positions": [
                -1.0439731623768767,
                -1.4318609329228473,
                2.3652680269833986,
                -0.056892829509535114,
                0.2991923460781511,
                -1.0864136988023003
            ]
        },
        {
            "positions": [
                -0.9096575807067406,
                -1.4685038390023082,
                2.3674319311243206,
                -0.0886436489050656,
                0.3297158349433946,
                -1.2432131471737282
            ]
        },
        {
            "positions": [
                -0.7753419990366046,
                -1.5051467450817693,
                2.3695958352652426,
                -0.12039446830059608,
                0.3602393238086381,
                -1.4000125955451561
            ]
        },
        {
            "positions": [
                -0.6410264173664681,
                -1.5417896511612303,
                2.3717597394061642,
                -0.15214528769612667,
                0.3907628126738817,
                -1.5568120439165845
            ]
        },
        {
            "positions": [
                -0.5067108356963321,
                -1.5784325572406912,
                2.3739236435470863,
                -0.18389610709165716,
                0.42128630153912516,
                -1.7136114922880124
            ]
        },
        {
            "positions": [
                -0.3723952540261961,
                -1.615075463320152,
                2.3760875476880083,
                -0.21564692648718764,
                0.45180979040436864,
                -1.8704109406594402
            ]
        },
        {
            "positions": [
                -0.2380796723560601,
                -1.651718369399613,
                2.3782514518289304,
                -0.24739774588271812,
                0.4823332792696121,
                -2.0272103890308686
            ]
        },
        {
            "positions": [
                -0.10376409068592407,
                -1.6883612754790738,
                2.3804153559698524,
                -0.2791485652782485,
                0.5128567681348556,
                -2.1840098374022965
            ]
        },
        {
            "positions": [
                0.03055149098421195,
                -1.7250041815585346,
                2.3825792601107745,
                -0.310899384673779,
                0.5433802570000992,
                -2.3408092857737244
            ]
        },
        {
            "positions": [
                0.1648670726543484,
                -1.7616470876379955,
                2.3847431642516965,
                -0.34265020406930946,
                0.5739037458653427,
                -2.4976087341451523
            ]
        },
        {
            "positions": [
                0.2991826543244849,
                -1.7982899937174563,
                2.386907068392618,
                -0.37440102346484005,
                0.6044272347305862,
                -2.6544081825165806
            ]
        },
        {
            "positions": [
                0.4334982359946209,
                -1.8349328997969174,
                2.38907097253354,
                -0.40615184286037054,
                0.6349507235958297,
                -2.8112076308880085
            ]
        },
        {
            "positions": [
                0.5678138176647569,
                -1.8715758058763783,
                2.391234876674462,
                -0.437902662255901,
                0.6654742124610732,
                -2.968007079259436
            ]
        },
        {
            "positions": [
                0.702129399334893,
                -1.9082187119558391,
                2.3933987808153843,
                -0.4696534816514315,
                0.6959977013263167,
                -3.1248065276308643
            ]
        }
    ]
}