{
    "goal": {
        "global_pose": {
            "orientation": {
                "w": -0.00223480608172531,
                "x": 0.0024358444001904467,
                "y": 0.7094548369677653,
                "z": -0.704743149386269
            },
            "position": {
                "x": 0.6205249238014221,
                "y": -0.6371506643295288,
                "z": 0.19426114857196808
            }
        },
        "name": "move_to_magneteinheit_B"
    },
    "id": "KPIECE_move_to_magneteinheit_B_145",
    "joint_names": [
        "shoulder_pan_joint",
        "shoulder_lift_joint",
        "elbow_joint",
        "wrist_1_joint",
        "wrist_2_joint",
        "wrist_3_joint"
    ],
    "metrics": {
        "cart_traj_len": 4.189390621726491,
        "distance_elbow_joint": 4.4974844225755595,
        "distance_shoulder_lift_joint": 0.869276604600056,
        "distance_shoulder_pan_joint": 3.567891624912332,
        "distance_wrist_1_joint": 4.488552856654112,
        "distance_wrist_2_joint": 1.7754556104866033,
        "distance_wrist_3_joint": 3.1428712588947283,
        "smoothness": 0.26085511693735314,
        "time": 1.919398956,
        "traj_len": 4.282701528022166,
        "weighted_distance": 5.557992745861906
    },
    "planner": "KPIECE",
    "start": {
        "state": {
            "elbow_joint": 2.6216224122426386,
            "shoulder_lift_joint": -1.4174107377796124,
            "shoulder_pan_joint": 0.7066234856936794,
            "wrist_1_joint": 1.9546482284002225,
            "wrist_2_joint": -0.7096286983471962,
            "wrist_3_joint": 0.005740856962016249
        }
    },
    "waypoints": [
        {
            "positions": [
                0.7066234856936794,
                -1.4174107377796124,
                2.6216224122426386,
                1.9546482284002225,
                -0.7096286983471962,
                0.005740856962016249
            ]
        },
        {
            "positions": [
                0.5530613270254414,
                -1.404797088014555,
                2.5985513892236107,
                1.965842531757656,
                -0.6692619488065,
                -0.060368769666660715
            ]
        },
        {
            "positions": [
                0.39949916835720356,
                -1.3921834382494978,
                2.575480366204583,
                1.9770368351150893,
                -0.6288951992658038,
                -0.12647839629533766
            ]
        },
        {
            "positions": [
                0.24593700968896565,
                -1.3795697884844405,
                2.5524093431855546,
                1.9882311384725226,
                -0.5885284497251076,
                -0.1925880229240146
            ]
        },
        {
            "positions": [
                0.09237485102072775,
                -1.3669561387193832,
                2.5293383201665267,
                1.9994254418299562,
                -0.5481617001844115,
                -0.2586976495526916
            ]
        },
        {
            "positions": [
                0.03361874176950515,
                -1.393042501127332,
                2.4098516006758297,
                1.9726310664085105,
                -0.5438243486180946,
                -0.3281525876479837
            ]
        },
        {
            "positions": [
                -0.02513736748171746,
                -1.4191288635352808,
                2.2903648811851323,
                1.945836690987065,
                -0.5394869970517777,
                -0.39760752574327585
            ]
        },
        {
            "positions": [
                0.06115191150645164,
                -1.4295194733514225,
                2.173773832632086,
                1.8371819939758653,
                -0.5133362467973818,
                -0.44007050146129945
            ]
        },
        {
            "positions": [
                0.14744119049462073,
                -1.4399100831675642,
                2.0571827840790395,
                1.728527296964666,
                -0.4871854965429858,
                -0.482533477179323
            ]
        },
        {
            "positions": [
                0.23373046948278986,
                -1.4503006929837061,
                1.9405917355259934,
                1.6198725999534664,
                -0.4610347462885898,
                -0.5249964528973465
            ]
        },
        {
            "positions": [
                0.32001974847095893,
                -1.4606913027998478,
                1.824000686972947,
                1.5112179029422668,
                -0.43488399603419386,
                -0.5674594286153701
            ]
        },
        {
            "positions": [
                0.406309027459128,
                -1.4710819126159895,
                1.7074096384199007,
                1.402563205931067,
                -0.4087332457797979,
                -0.6099224043333937
            ]
        },
        {
            "positions": [
                0.4925983064472972,
                -1.4814725224321312,
                1.5908185898668543,
                1.2939085089198676,
                -0.3825824955254019,
                -0.6523853800514172
            ]
        },
        {
            "positions": [
                0.5788875854354663,
                -1.4918631322482732,
                1.474227541313808,
                1.1852538119086682,
                -0.35643174527100596,
                -0.6948483557694408
            ]
        },
        {
            "positions": [
                0.6651768644236353,
                -1.5022537420644149,
                1.3576364927607618,
                1.0765991148974685,
                -0.33028099501661,
                -0.7373113314874644
            ]
        },
        {
            "positions": [
                0.7514661434118044,
                -1.5126443518805566,
                1.2410454442077155,
                0.967944417886269,
                -0.30413024476221406,
                -0.779774307205488
            ]
        },
        {
            "positions": [
                0.8377554223999735,
                -1.5230349616966983,
                1.124454395654669,
                0.8592897208750694,
                -0.2779794945078181,
                -0.8222372829235116
            ]
        },
        {
            "positions": [
                0.9240447013881427,
                -1.53342557151284,
                1.0078633471016227,
                0.7506350238638697,
                -0.2518287442534221,
                -0.8647002586415351
            ]
        },
        {
            "positions": [
                1.0103339803763118,
                -1.543816181328982,
                0.8912722985485764,
                0.6419803268526703,
                -0.22567799399902616,
                -0.9071632343595587
            ]
        },
        {
            "positions": [
                1.096623259364481,
                -1.5542067911451236,
                0.77468124999553,
                0.5333256298414708,
                -0.1995272437446302,
                -0.9496262100775823
            ]
        },
        {
            "positions": [
                1.18291253835265,
                -1.5645974009612653,
                0.6580902014424839,
                0.42467093283027113,
                -0.1733764934902342,
                -0.9920891857956058
            ]
        },
        {
            "positions": [
                1.269201817340819,
                -1.574988010777407,
                0.5414991528894375,
                0.31601623581907146,
                -0.14722574323583826,
                -1.0345521615136293
            ]
        },
        {
            "positions": [
                1.3554910963289881,
                -1.585378620593549,
                0.42490810433639115,
                0.207361538807872,
                -0.12107499298144231,
                -1.077015137231653
            ]
        },
        {
            "positions": [
                1.4417803753171572,
                -1.5957692304096907,
                0.3083170557833448,
                0.09870684179667255,
                -0.09492424272704636,
                -1.1194781129496767
            ]
        },
        {
            "positions": [
                1.5280696543053263,
                -1.6061598402258324,
                0.19172600723029865,
                -0.009947855214527124,
                -0.06877349247265041,
                -1.1619410886677002
            ]
        },
        {
            "positions": [
                1.6143589332934953,
                -1.616550450041974,
                0.07513495867725206,
                -0.1186025522257268,
                -0.042622742218254406,
                -1.2044040643857237
            ]
        },
        {
            "positions": [
                1.7006482122816644,
                -1.6269410598581158,
                -0.04145608987579408,
                -0.22725724923692625,
                -0.016471991963858512,
                -1.2468670401037474
            ]
        },
        {
            "positions": [
                1.7869374912698337,
                -1.6373316696742577,
                -0.15804713842884066,
                -0.3359119462481257,
                0.009678758290537548,
                -1.2893300158217709
            ]
        },
        {
            "positions": [
                1.8732267702580028,
                -1.6477222794903994,
                -0.2746381869818868,
                -0.4445666432593256,
                0.0358295085449335,
                -1.3317929915397944
            ]
        },
        {
            "positions": [
                1.9595160492461718,
                -1.658112889306541,
                -0.39122923553493294,
                -0.553221340270525,
                0.061980258799329446,
                -1.374255967257818
            ]
        },
        {
            "positions": [
                2.045805328234341,
                -1.6685034991226828,
                -0.5078202840879795,
                -0.6618760372817245,
                0.0881310090537254,
                -1.4167189429758416
            ]
        },
        {
            "positions": [
                2.13209460722251,
                -1.6788941089388247,
                -0.6244113326410257,
                -0.770530734292924,
                0.11428175930812134,
                -1.459181918693865
            ]
        },
        {
            "positions": [
                2.2183838862106793,
                -1.6892847187549664,
                -0.7410023811940722,
                -0.8791854313041234,
                0.1404325095625173,
                -1.5016448944118888
            ]
        },
        {
            "positions": [
                2.304673165198848,
                -1.6996753285711081,
                -0.8575934297471184,
                -0.9878401283153233,
                0.16658325981691324,
                -1.5441078701299122
            ]
        },
        {
            "positions": [
                2.3909624441870174,
                -1.7100659383872499,
                -0.9741844783001645,
                -1.0964948253265228,
                0.1927340100713093,
                -1.5865708458479357
            ]
        },
        {
            "positions": [
                2.4772517231751863,
                -1.7204565482033916,
                -1.090775526853211,
                -1.2051495223377222,
                0.21888476032570525,
                -1.6290338215659594
            ]
        },
        {
            "positions": [
                2.5635410021633556,
                -1.7308471580195333,
                -1.2073665754062572,
                -1.313804219348922,
                0.2450355105801012,
                -1.671496797283983
            ]
        },
        {
            "positions": [
                2.6498302811515244,
                -1.7412377678356752,
                -1.3239576239593038,
                -1.4224589163601216,
                0.27118626083449715,
                -1.7139597730020066
            ]
        },
        {
            "positions": [
                2.7361195601396937,
                -1.751628377651817,
                -1.44054867251235,
                -1.531113613371321,
                0.2973370110888931,
                -1.7564227487200301
            ]
        },
        {
            "positions": [
                2.7357007648149034,
                -1.790490443950213,
                -1.4810961123342492,
                -1.6211434491270635,
                0.24002598174054618,
                -1.880992875387716
            ]
        },
        {
            "positions": [
                2.735281969490113,
                -1.8293525102486092,
                -1.5216435521561484,
                -1.7111732848828058,
                0.18271495239219926,
                -2.005563002055402
            ]
        },
        {
            "positions": [
                2.734863174165323,
                -1.8682145765470053,
                -1.5621909919780474,
                -1.8012031206385484,
                0.12540392304385234,
                -2.130133128723088
            ]
        },
        {
            "positions": [
                2.734444378840533,
                -1.9070766428454013,
                -1.6027384317999467,
                -1.891232956394291,
                0.06809289369550542,
                -2.254703255390774
            ]
        },
        {
            "positions": [
                2.7340255835157428,
                -1.9459387091437976,
                -1.643285871621846,
                -1.9812627921500332,
                0.010781864347158499,
                -2.37927338205846
            ]
        },
        {
            "positions": [
                2.7336067881909525,
                -1.9848007754421937,
                -1.683833311443745,
                -2.071292627905776,
                -0.04652916500118842,
                -2.503843508726146
            ]
        },
        {
            "positions": [
                2.733187992866162,
                -2.02366284174059,
                -1.7243807512656442,
                -2.1613224636615183,
                -0.10384019434953534,
                -2.628413635393832
            ]
        },
        {
            "positions": [
                2.732769197541372,
                -2.062524908038986,
                -1.7649281910875434,
                -2.2513522994172606,
                -0.16115122369788226,
                -2.752983762061518
            ]
        },
        {
            "positions": [
                2.714888327162072,
                -2.093338217094042,
                -1.7371947362761986,
                -2.299601774911551,
                -0.2386516402638168,
                -2.8490204220293163
            ]
        },
        {
            "positions": [
                2.6970074567827718,
                -2.124151526149098,
                -1.7094612814648538,
                -2.3478512504058417,
                -0.31615205682975134,
                -2.945057081997115
            ]
        },
        {
            "positions": [
                2.6791265864034712,
                -2.154964835204154,
                -1.6817278266535087,
                -2.3961007259001326,
                -0.39365247339568593,
                -3.0410937419649136
            ]
        },
        {
            "positions": [
                2.661245716024171,
                -2.18577814425921,
                -1.653994371842164,
                -2.444350201394423,
                -0.47115288996162047,
                -3.137130401932712
            ]
        }
    ]
}