{
    "goal": {
        "global_pose": {
            "orientation": {
                "w": 0.5084816217422485,
                "x": -0.49083608388900757,
                "y": 0.5182115435600281,
                "z": -0.4816462993621826
            },
            "position": {
                "x": 0.5540239810943604,
                "y": 0.030875300988554955,
                "z": 0.16403168439865112
            }
        },
        "name": "move_to_storage_A"
    },
    "id": "KPIECE_move_to_storage_A_42",
    "joint_names": [
        "shoulder_pan_joint",
        "shoulder_lift_joint",
        "elbow_joint",
        "wrist_1_joint",
        "wrist_2_joint",
        "wrist_3_joint"
    ],
    "metrics": {
        "cart_traj_len": 0.3536204894472464,
        "distance_elbow_joint": 0.45383400871752033,
        "distance_shoulder_lift_joint": 0.23188997420943913,
        "distance_shoulder_pan_joint": 0.4621961938730265,
        "distance_wrist_1_joint": 0.26306573282908297,
        "distance_wrist_2_joint": 1.09988957584444,
        "distance_wrist_3_joint": 0.1081721568325702,
        "smoothness": 6.661338165333112e-16,
        "time": 0.112634152,
        "traj_len": 1.6183471946112427,
        "weighted_distance": 2.048986887377453
    },
    "planner": "KPIECE",
    "start": {
        "state": {
            "elbow_joint": 1.971548259319323,
            "shoulder_lift_joint": -1.1394851275133948,
            "shoulder_pan_joint": 0.1228115487234821,
            "wrist_1_joint": -0.7804723859257726,
            "wrist_2_joint": 0.12958671773740124,
            "wrist_3_joint": -3.192489227718131
        }
    },
    "waypoints": [
        {
            "positions": [
                0.1228115487234821,
                -1.1394851275133948,
                1.971548259319323,
                -0.7804723859257726,
                0.12958671773740124,
                -3.192489227718131
            ]
        },
        {
            "positions": [
                0.05678352102733546,
                -1.1726122666861718,
                2.0363816891361117,
                -0.8180532049013559,
                0.28671380000089264,
                -3.1770360624563354
            ]
        },
        {
            "positions": [
                -0.009244506668811187,
                -1.2057394058589488,
                2.1012151189529003,
                -0.8556340238769392,
                0.4438408822643841,
                -3.1615828971945397
            ]
        },
        {
            "positions": [
                -0.07527253436495782,
                -1.2388665450317258,
                2.1660485487696888,
                -0.8932148428525224,
                0.6009679645278755,
                -3.146129731932744
            ]
        },
        {
            "positions": [
                -0.14130056206110447,
                -1.271993684204503,
                2.2308819785864773,
                -0.9307956618281057,
                0.758095046791367,
                -3.130676566670948
            ]
        },
        {
            "positions": [
                -0.20732858975725116,
                -1.30512082337728,
                2.2957154084032663,
                -0.968376480803689,
                0.9152221290548584,
                -3.1152234014091524
            ]
        },
        {
            "positions": [
                -0.27335661745339773,
                -1.338247962550057,
                2.360548838220055,
                -1.0059572997792723,
                1.0723492113183497,
                -3.0997702361473567
            ]
        },
        {
            "positions": [
                -0.3393846451495444,
                -1.371375101722834,
                2.4253822680368433,
                -1.0435381187548556,
                1.2294762935818413,
                -3.084317070885561
            ]
        }
    ]
}{
    "goal": {
        "global_pose": {
            "orientation": {
                "w": 0.5084816217422485,
                "x": -0.49083608388900757,
                "y": 0.5182115435600281,
                "z": -0.4816462993621826
            },
            "position": {
                "x": 0.5540239810943604,
                "y": 0.030875300988554955,
                "z": 0.16403168439865112
            }
        },
        "name": "move_to_storage_A"
    },
    "id": "KPIECE_move_to_storage_A_42",
    "joint_names": [
        "shoulder_pan_joint",
        "shoulder_lift_joint",
        "elbow_joint",
        "wrist_1_joint",
        "wrist_2_joint",
        "wrist_3_joint"
    ],
    "metrics": {
        "cart_traj_len": 0.35345042594717213,
        "distance_elbow_joint": 0.4476319424506747,
        "distance_shoulder_lift_joint": 0.2351707623508572,
        "distance_shoulder_pan_joint": 0.4622333568014148,
        "distance_wrist_1_joint": 0.23542858032990766,
        "distance_wrist_2_joint": 1.0990881171738147,
        "distance_wrist_3_joint": 0.08788375304854368,
        "smoothness": 2.2204460668324854e-16,
        "time": 0.079856971,
        "traj_len": 1.6023222248209665,
        "weighted_distance": 2.0193367019286366
    },
    "planner": "KPIECE",
    "start": {
        "state": {
            "elbow_joint": 1.97154746011099,
            "shoulder_lift_joint": -1.13948474672311,
            "shoulder_pan_joint": 0.12281154466712228,
            "wrist_1_joint": -0.7804688027058302,
            "wrist_2_joint": 0.12958655903071145,
            "wrist_3_joint": 3.0906928834467795
        }
    },
    "waypoints": [
        {
            "positions": [
                0.12281154466712228,
                -1.13948474672311,
                1.97154746011099,
                -0.7804688027058302,
                0.12958655903071145,
                3.0906928834467795
            ]
        },
        {
            "positions": [
                0.05677820798120589,
                -1.1730805699160896,
                2.035494880461086,
                -0.8141014570386741,
                0.2865991471983993,
                3.1032477053108574
            ]
        },
        {
            "positions": [
                -0.0092551287047105,
                -1.2066763931090692,
                2.099442300811183,
                -0.8477341113715181,
                0.4436117353660871,
                3.1158025271749348
            ]
        },
        {
            "positions": [
                -0.0752884653906269,
                -1.2402722163020488,
                2.163389721161279,
                -0.881366765704362,
                0.6006243235337749,
                3.1283573490390126
            ]
        },
        {
            "positions": [
                -0.14132180207654327,
                -1.2738680394950284,
                2.2273371415113754,
                -0.914999420037206,
                0.7576369117014627,
                3.14091217090309
            ]
        },
        {
            "positions": [
                -0.2073551387624597,
                -1.307463862688008,
                2.291284561861472,
                -0.9486320743700499,
                0.9146494998691506,
                3.153466992767168
            ]
        },
        {
            "positions": [
                -0.2733884754483761,
                -1.3410596858809876,
                2.3552319822115684,
                -0.9822647287028938,
                1.0716620880368384,
                3.1660218146312453
            ]
        },
        {
            "positions": [
                -0.3394218121342925,
                -1.3746555090739672,
                2.4191794025616646,
                -1.0158973830357378,
                1.2286746762045262,
                3.178576636495323
            ]
        }
    ]
}{
    "goal": {
        "global_pose": {
            "orientation": {
                "w": 0.5084816217422485,
                "x": -0.49083608388900757,
                "y": 0.5182115435600281,
                "z": -0.4816462993621826
            },
            "position": {
                "x": 0.5540239810943604,
                "y": 0.030875300988554955,
                "z": 0.16403168439865112
            }
        },
        "name": "move_to_storage_A"
    },
    "id": "KPIECE_move_to_storage_A_42",
    "joint_names": [
        "shoulder_pan_joint",
        "shoulder_lift_joint",
        "elbow_joint",
        "wrist_1_joint",
        "wrist_2_joint",
        "wrist_3_joint"
    ],
    "metrics": {
        "cart_traj_len": 0.3533722641704283,
        "distance_elbow_joint": 0.45072774427205164,
        "distance_shoulder_lift_joint": 0.23423482283077357,
        "distance_shoulder_pan_joint": 0.4597137109548214,
        "distance_wrist_1_joint": 0.25065604270801667,
        "distance_wrist_2_joint": 1.1091647865471868,
        "distance_wrist_3_joint": 0.10455395878565144,
        "smoothness": 0.0,
        "time": 0.064366568,
        "traj_len": 1.6152557277714577,
        "weighted_distance": 2.044010717419311
    },
    "planner": "KPIECE",
    "start": {
        "state": {
            "elbow_joint": 1.9715472970024885,
            "shoulder_lift_joint": -1.1394870060712896,
            "shoulder_pan_joint": 0.12281152778156021,
            "wrist_1_joint": -0.780463741449964,
            "wrist_2_joint": 0.12958659822042276,
            "wrist_3_joint": 3.090690232415272
        }
    },
    "waypoints": [
        {
            "positions": [
                0.12281152778156021,
                -1.1394870060712896,
                1.9715472970024885,
                -0.780463741449964,
                0.12958659822042276,
                3.090690232415272
            ]
        },
        {
            "positions": [
                0.05713814050230001,
                -1.172949123618543,
                2.035936974755639,
                -0.8162717475511092,
                0.2880387105843066,
                3.1056265122417934
            ]
        },
        {
            "positions": [
                -0.008535246776960187,
                -1.2064112411657963,
                2.100326652508789,
                -0.8520797536522544,
                0.4464908229481904,
                3.120562792068315
            ]
        },
        {
            "positions": [
                -0.07420863405622039,
                -1.2398733587130497,
                2.1647163302619394,
                -0.8878877597533997,
                0.6049429353120742,
                3.1354990718948366
            ]
        },
        {
            "positions": [
                -0.13988202133548058,
                -1.273335476260303,
                2.2291060080150893,
                -0.9236957658545449,
                0.763395047675958,
                3.1504353517213586
            ]
        },
        {
            "positions": [
                -0.20555540861474078,
                -1.3067975938075564,
                2.2934956857682396,
                -0.9595037719556903,
                0.9218471600398419,
                3.16537163154788
            ]
        },
        {
            "positions": [
                -0.27122879589400095,
                -1.3402597113548098,
                2.35788536352139,
                -0.9953117780568355,
                1.0802992724037257,
                3.1803079113744017
            ]
        },
        {
            "positions": [
                -0.33690218317326115,
                -1.3737218289020632,
                2.42227504127454,
                -1.0311197841579807,
                1.2387513847676095,
                3.1952441912009233
            ]
        }
    ]
}