{
    "goal": {
        "global_pose": {
            "orientation": {
                "w": 0.005598929693374612,
                "x": 0.007748599140229565,
                "y": 0.7110244013736278,
                "z": -0.7031023480610252
            },
            "position": {
                "x": -0.8858502320852131,
                "y": -0.7141253447532654,
                "z": 0.3711530566215515
            }
        },
        "name": "move_to_auspresseinheit_C"
    },
    "id": "KPIECE_move_to_auspresseinheit_C_58",
    "joint_names": [
        "shoulder_pan_joint",
        "shoulder_lift_joint",
        "elbow_joint",
        "wrist_1_joint",
        "wrist_2_joint",
        "wrist_3_joint"
    ],
    "metrics": {
        "cart_traj_len": 0.4934453201355338,
        "distance_elbow_joint": 0.9948899306896856,
        "distance_shoulder_lift_joint": 0.3229370872018985,
        "distance_shoulder_pan_joint": 0.25644749310284753,
        "distance_wrist_1_joint": 0.6570597702351983,
        "distance_wrist_2_joint": 1.3140315211332938,
        "distance_wrist_3_joint": 0.04579664327523858,
        "smoothness": 1.6148698667872622e-16,
        "time": 1.577932876,
        "traj_len": 1.8950362649928794,
        "weighted_distance": 2.3777819545864864
    },
    "planner": "KPIECE",
    "start": {
        "state": {
            "elbow_joint": 1.7527959577737207,
            "shoulder_lift_joint": -0.9740617694225068,
            "shoulder_pan_joint": -2.967991417825858,
            "wrist_1_joint": -0.759517768980727,
            "wrist_2_joint": 1.7443932448377408,
            "wrist_3_joint": -3.0840537646736568
        }
    },
    "waypoints": [
        {
            "positions": [
                -2.967991417825858,
                -0.9740617694225068,
                1.7527959577737207,
                -0.759517768980727,
                1.7443932448377408,
                -3.0840537646736568
            ]
        },
        {
            "positions": [
                -2.9423466685155732,
                -0.9417680607023169,
                1.653306964704752,
                -0.6938117919572071,
                1.6129900927244114,
                -3.0886334290011805
            ]
        },
        {
            "positions": [
                -2.9167019192052885,
                -0.9094743519821271,
                1.5538179716357836,
                -0.6281058149336873,
                1.481586940611082,
                -3.0932130933287043
            ]
        },
        {
            "positions": [
                -2.891057169895004,
                -0.8771806432619372,
                1.454328978566815,
                -0.5623998379101675,
                1.3501837884977528,
                -3.0977927576562285
            ]
        },
        {
            "positions": [
                -2.865412420584719,
                -0.8448869345417473,
                1.3548399854978463,
                -0.49669386088664763,
                1.2187806363844231,
                -3.1023724219837523
            ]
        },
        {
            "positions": [
                -2.8397676712744344,
                -0.8125932258215576,
                1.255350992428878,
                -0.4309878838631278,
                1.087377484271094,
                -3.106952086311276
            ]
        },
        {
            "positions": [
                -2.8141229219641493,
                -0.7802995171013677,
                1.1558619993599093,
                -0.365281906839608,
                0.9559743321577646,
                -3.1115317506388
            ]
        },
        {
            "positions": [
                -2.7884781726538646,
                -0.7480058083811778,
                1.0563730062909409,
                -0.29957592981608816,
                0.8245711800444352,
                -3.1161114149663236
            ]
        },
        {
            "positions": [
                -2.76283342334358,
                -0.715712099660988,
                0.9568840132219721,
                -0.23386995279256828,
                0.6931680279311057,
                -3.120691079293848
            ]
        },
        {
            "positions": [
                -2.737188674033295,
                -0.683418390940798,
                0.8573950201530036,
                -0.1681639757690484,
                0.5617648758177765,
                -3.1252707436213716
            ]
        },
        {
            "positions": [
                -2.7115439247230104,
                -0.6511246822206083,
                0.7579060270840351,
                -0.10245799874552863,
                0.430361723704447,
                -3.1298504079488954
            ]
        }
    ]
}