{
    "goal": {
        "global_pose": {
            "orientation": {
                "w": 0.5084816262002911,
                "x": -0.4908360881923452,
                "y": 0.5182115481033761,
                "z": -0.48164630358495003
            },
            "position": {
                "x": 0.5540239810943604,
                "y": -0.46912469901144505,
                "z": 0.16403168439865112
            }
        },
        "name": "move_to_storage_B"
    },
    "id": "KPIECE_move_to_storage_B_31",
    "joint_names": [
        "shoulder_pan_joint",
        "shoulder_lift_joint",
        "elbow_joint",
        "wrist_1_joint",
        "wrist_2_joint",
        "wrist_3_joint"
    ],
    "metrics": {
        "cart_traj_len": 1.0485015108294982,
        "distance_elbow_joint": 0.34991306200000283,
        "distance_shoulder_lift_joint": 0.45816741813322737,
        "distance_shoulder_pan_joint": 0.5579394790343567,
        "distance_wrist_1_joint": 2.9825996127804433,
        "distance_wrist_2_joint": 2.8491857889707055,
        "distance_wrist_3_joint": 3.4674714738423726,
        "smoothness": 0.4371236694699678,
        "time": 0.068316835,
        "traj_len": 3.26577354309222,
        "weighted_distance": 4.840661647357415
    },
    "planner": "KPIECE",
    "start": {
        "state": {
            "elbow_joint": 1.664937868594044,
            "shoulder_lift_joint": -0.661644460510453,
            "shoulder_pan_joint": -0.9139846352900073,
            "wrist_1_joint": 2.146753192139373,
            "wrist_2_joint": -2.2341966793290973,
            "wrist_3_joint": 0.005466555786416001
        }
    },
    "waypoints": [
        {
            "positions": [
                -0.9139846352900073,
                -0.661644460510453,
                1.664937868594044,
                2.146753192139373,
                -2.2341966793290973,
                0.005466555786416001
            ]
        },
        {
            "positions": [
                -0.8510794952799469,
                -0.6957336536318502,
                1.6664962035952666,
                2.1147689808227232,
                -2.1282669631790494,
                -0.024612118219784797
            ]
        },
        {
            "positions": [
                -0.7881743552698863,
                -0.7298228467532475,
                1.6680545385964891,
                2.0827847695060737,
                -2.0223372470290015,
                -0.05469079222598559
            ]
        },
        {
            "positions": [
                -0.7252692152598259,
                -0.7639120398746447,
                1.6696128735977118,
                2.0508005581894238,
                -1.9164075308789537,
                -0.0847694662321864
            ]
        },
        {
            "positions": [
                -0.8245969132197122,
                -0.7718827810392183,
                1.7223053235715526,
                1.9888038240329131,
                -1.896321729474354,
                -0.12043804091598499
            ]
        },
        {
            "positions": [
                -0.9239246111795983,
                -0.7798535222037918,
                1.7749977735453932,
                1.9268070898764025,
                -1.8762359280697543,
                -0.1561066155997836
            ]
        },
        {
            "positions": [
                -0.928018952436389,
                -0.7947117087729912,
                1.7778185690529744,
                1.8028070630043393,
                -1.7662242160020991,
                -0.031939510906480756
            ]
        },
        {
            "positions": [
                -0.9321132936931795,
                -0.8095698953421908,
                1.7806393645605556,
                1.6788070361322764,
                -1.656212503934444,
                0.09222759378682208
            ]
        },
        {
            "positions": [
                -0.9362076349499702,
                -0.8244280819113903,
                1.7834601600681368,
                1.5548070092602133,
                -1.546200791866789,
                0.2163946984801249
            ]
        },
        {
            "positions": [
                -0.9403019762067608,
                -0.8392862684805897,
                1.7862809555757178,
                1.4308069823881504,
                -1.436189079799134,
                0.34056180317342777
            ]
        },
        {
            "positions": [
                -0.9443963174635513,
                -0.8541444550497893,
                1.789101751083299,
                1.3068069555160875,
                -1.3261773677314788,
                0.4647289078667306
            ]
        },
        {
            "positions": [
                -0.948490658720342,
                -0.8690026416189888,
                1.7919225465908801,
                1.1828069286440244,
                -1.2161656556638238,
                0.5888960125600334
            ]
        },
        {
            "positions": [
                -0.9525849999771326,
                -0.8838608281881882,
                1.7947433420984613,
                1.0588069017719612,
                -1.1061539435961687,
                0.7130631172533363
            ]
        },
        {
            "positions": [
                -0.9566793412339232,
                -0.8987190147573878,
                1.7975641376060425,
                0.9348068748998982,
                -0.9961422315285134,
                0.8372302219466391
            ]
        },
        {
            "positions": [
                -0.9607736824907138,
                -0.9135772013265873,
                1.8003849331136237,
                0.8108068480278352,
                -0.8861305194608583,
                0.9613973266399419
            ]
        },
        {
            "positions": [
                -0.9648680237475045,
                -0.9284353878957867,
                1.8032057286212049,
                0.6868068211557723,
                -0.7761188073932033,
                1.0855644313332447
            ]
        },
        {
            "positions": [
                -0.9689623650042951,
                -0.9432935744649862,
                1.8060265241287858,
                0.5628067942837092,
                -0.6661070953255481,
                1.2097315360265475
            ]
        },
        {
            "positions": [
                -0.9730567062610856,
                -0.9581517610341858,
                1.808847319636367,
                0.43880676741164626,
                -0.5560953832578932,
                1.3338986407198503
            ]
        },
        {
            "positions": [
                -0.9771510475178763,
                -0.9730099476033852,
                1.8116681151439482,
                0.31480674053958313,
                -0.44608367119023784,
                1.4580657454131531
            ]
        },
        {
            "positions": [
                -0.9812453887746669,
                -0.9878681341725848,
                1.8144889106515294,
                0.19080671366752,
                -0.3360719591225829,
                1.582232850106456
            ]
        },
        {
            "positions": [
                -0.9853397300314575,
                -1.0027263207417842,
                1.8173097061591106,
                0.0668066867954571,
                -0.22606024705492778,
                1.7063999547997586
            ]
        },
        {
            "positions": [
                -0.9894340712882481,
                -1.0175845073109837,
                1.8201305016666918,
                -0.057193340076606036,
                -0.11604853498727263,
                1.8305670594930616
            ]
        },
        {
            "positions": [
                -0.9935284125450388,
                -1.0324426938801832,
                1.822951297174273,
                -0.18119336694866917,
                -0.0060368229196174905,
                1.9547341641863645
            ]
        },
        {
            "positions": [
                -0.9976227538018293,
                -1.0473008804493826,
                1.8257720926818541,
                -0.3051933938207321,
                0.10397488914803765,
                2.0789012688796675
            ]
        },
        {
            "positions": [
                -1.0017170950586198,
                -1.062159067018582,
                1.828592888189435,
                -0.429193420692795,
                0.21398660121569257,
                2.2030683735729704
            ]
        },
        {
            "positions": [
                -1.0058114363154105,
                -1.0770172535877818,
                1.8314136836970163,
                -0.5531934475648579,
                0.3239983132833477,
                2.327235478266273
            ]
        },
        {
            "positions": [
                -1.0099057775722011,
                -1.0918754401569812,
                1.8342344792045975,
                -0.6771934744369212,
                0.43401002535100286,
                2.451402582959576
            ]
        },
        {
            "positions": [
                -1.0140001188289918,
                -1.1067336267261807,
                1.8370552747121787,
                -0.8011935013089839,
                0.5440217374186582,
                2.575569687652879
            ]
        },
        {
            "positions": [
                -1.0408311706406617,
                -1.111093044032014,
                1.896320493339468,
                -0.8127444744196791,
                0.5203659466776751,
                2.766977020720716
            ]
        },
        {
            "positions": [
                -1.0676622224523313,
                -1.1154524613378471,
                1.9555857119667575,
                -0.8242954475303744,
                0.49671015593669193,
                2.958384353788553
            ]
        },
        {
            "positions": [
                -1.0944932742640012,
                -1.1198118786436804,
                2.0148509305940467,
                -0.8358464206410696,
                0.47305436519570876,
                3.14979168685639
            ]
        }
    ]
}