{
    "goal": {
        "global_pose": {
            "orientation": {
                "w": -0.4816463035849501,
                "x": 0.5182115481033762,
                "y": 0.4908360881923453,
                "z": -0.5084816262002911
            },
            "position": {
                "x": -0.8240239810943604,
                "y": 0.19912469901144506,
                "z": 0.16403168439865112
            }
        },
        "name": "move_to_storage_D"
    },
    "id": "KPIECE_move_to_storage_D_38",
    "joint_names": [
        "shoulder_pan_joint",
        "shoulder_lift_joint",
        "elbow_joint",
        "wrist_1_joint",
        "wrist_2_joint",
        "wrist_3_joint"
    ],
    "metrics": {
        "cart_traj_len": 3.87113947607996,
        "distance_elbow_joint": 4.211605712815858,
        "distance_shoulder_lift_joint": 1.4934737811351928,
        "distance_shoulder_pan_joint": 2.8123148155469266,
        "distance_wrist_1_joint": 2.2748880110497285,
        "distance_wrist_2_joint": 1.0730333124762865,
        "distance_wrist_3_joint": 3.9657064476723947,
        "smoothness": 0.40852090843889277,
        "time": 0.249048009,
        "traj_len": 3.978821695011777,
        "weighted_distance": 5.206760633980323
    },
    "planner": "KPIECE",
    "start": {
        "state": {
            "elbow_joint": -2.384821988534728,
            "shoulder_lift_joint": -2.2788054721415256,
            "shoulder_pan_joint": -0.1854694642142757,
            "wrist_1_joint": 1.4845938289331202,
            "wrist_2_joint": 0.17898776772866878,
            "wrist_3_joint": 0.037105688729662994
        }
    },
    "waypoints": [
        {
            "positions": [
                -0.1854694642142757,
                -2.2788054721415256,
                -2.384821988534728,
                1.4845938289331202,
                0.17898776772866878,
                0.037105688729662994
            ]
        },
        {
            "positions": [
                -0.163227746999331,
                -2.2090027416229825,
                -2.3786089843738933,
                1.4093508598060518,
                0.12943815085857474,
                0.07935149866334627
            ]
        },
        {
            "positions": [
                -0.14098602978438632,
                -2.13920001110444,
                -2.372395980213059,
                1.3341078906789834,
                0.07988853398848073,
                0.12159730859702955
            ]
        },
        {
            "positions": [
                -0.06316852752198385,
                -2.0843390691789967,
                -2.3658498562287766,
                1.3078445797493747,
                0.1331002146472511,
                0.23352504332357837
            ]
        },
        {
            "positions": [
                0.014648974740418624,
                -2.0294781272535536,
                -2.359303732244494,
                1.2815812688197659,
                0.1863118953060215,
                0.3454527780501272
            ]
        },
        {
            "positions": [
                0.09246647700282112,
                -1.9746171853281103,
                -2.3527576082602115,
                1.2553179578901572,
                0.2395235759647919,
                0.457380512776676
            ]
        },
        {
            "positions": [
                0.1650213597765497,
                -1.9410393158228139,
                -2.2564999341592547,
                1.1961712178723158,
                0.2646691132107764,
                0.35105684822382277
            ]
        },
        {
            "positions": [
                0.23757624255027826,
                -1.9074614463175177,
                -2.160242260058298,
                1.1370244778544742,
                0.28981465045676097,
                0.24473318367096947
            ]
        },
        {
            "positions": [
                0.31013112532400683,
                -1.8738835768122213,
                -2.0639845859573405,
                1.0778777378366329,
                0.3149601877027455,
                0.13840951911811616
            ]
        },
        {
            "positions": [
                0.3826860080977354,
                -1.8403057073069249,
                -1.9677269118563836,
                1.0187309978187913,
                0.34010572494873,
                0.03208585456526292
            ]
        },
        {
            "positions": [
                0.45524089087146397,
                -1.8067278378016285,
                -1.8714692377554267,
                0.9595842578009499,
                0.3652512621947145,
                -0.07423780998759033
            ]
        },
        {
            "positions": [
                0.5277957736451926,
                -1.773149968296332,
                -1.7752115636544696,
                0.9004375177831084,
                0.39039679944069905,
                -0.1805614745404437
            ]
        },
        {
            "positions": [
                0.6003506564189212,
                -1.739572098791036,
                -1.6789538895535125,
                0.841290777765267,
                0.41554233668668356,
                -0.28688513909329694
            ]
        },
        {
            "positions": [
                0.6729055391926497,
                -1.7059942292857395,
                -1.5826962154525557,
                0.7821440377474255,
                0.44068787393266806,
                -0.3932088036461502
            ]
        },
        {
            "positions": [
                0.7454604219663783,
                -1.6724163597804431,
                -1.4864385413515988,
                0.722997297729584,
                0.4658334111786526,
                -0.49953246819900343
            ]
        },
        {
            "positions": [
                0.8180153047401069,
                -1.638838490275147,
                -1.3901808672506417,
                0.6638505577117425,
                0.49097894842463713,
                -0.6058561327518567
            ]
        },
        {
            "positions": [
                0.8905701875138354,
                -1.6052606207698505,
                -1.2939231931496846,
                0.604703817693901,
                0.5161244856706216,
                -0.71217979730471
            ]
        },
        {
            "positions": [
                0.963125070287564,
                -1.5716827512645541,
                -1.1976655190487278,
                0.5455570776760597,
                0.5412700229166062,
                -0.8185034618575634
            ]
        },
        {
            "positions": [
                1.0356799530612926,
                -1.5381048817592577,
                -1.1014078449477709,
                0.4864103376582182,
                0.5664155601625906,
                -0.9248271264104165
            ]
        },
        {
            "positions": [
                1.1082348358350211,
                -1.5045270122539613,
                -1.0051501708468138,
                0.4272635976403767,
                0.5915610974085752,
                -1.0311507909632698
            ]
        },
        {
            "positions": [
                1.1807897186087497,
                -1.4709491427486652,
                -0.9088924967458567,
                0.3681168576225352,
                0.6167066346545598,
                -1.1374744555161231
            ]
        },
        {
            "positions": [
                1.2533446013824783,
                -1.4373712732433688,
                -0.8126348226448998,
                0.30897011760469373,
                0.6418521719005443,
                -1.2437981200689765
            ]
        },
        {
            "positions": [
                1.3258994841562068,
                -1.4037934037380724,
                -0.716377148543943,
                0.24982337758685236,
                0.6669977091465288,
                -1.3501217846218299
            ]
        },
        {
            "positions": [
                1.3984543669299354,
                -1.3702155342327762,
                -0.6201194744429859,
                0.19067663756901077,
                0.6921432463925133,
                -1.4564454491746828
            ]
        },
        {
            "positions": [
                1.471009249703664,
                -1.3366376647274798,
                -0.5238618003420288,
                0.1315298975511694,
                0.7172887836384978,
                -1.5627691137275361
            ]
        },
        {
            "positions": [
                1.5435641324773925,
                -1.3030597952221834,
                -0.4276041262410719,
                0.0723831575333278,
                0.7424343208844824,
                -1.6690927782803895
            ]
        },
        {
            "positions": [
                1.6161190152511211,
                -1.269481925716887,
                -0.33134645214011504,
                0.013236417515486432,
                0.7675798581304669,
                -1.7754164428332428
            ]
        },
        {
            "positions": [
                1.6886738980248497,
                -1.2359040562115906,
                -0.23508877803915773,
                -0.04591032250235516,
                0.7927253953764514,
                -1.8817401073860962
            ]
        },
        {
            "positions": [
                1.7612287807985783,
                -1.2023261867062944,
                -0.13883110393820086,
                -0.10505706252019653,
                0.8178709326224359,
                -1.9880637719389496
            ]
        },
        {
            "positions": [
                1.8337836635723068,
                -1.168748317200998,
                -0.04257342983724399,
                -0.1642038025380379,
                0.8430164698684205,
                -2.094387436491803
            ]
        },
        {
            "positions": [
                1.9063385463460354,
                -1.1351704476957016,
                0.05368424426371288,
                -0.2233505425558795,
                0.8681620071144049,
                -2.200711101044656
            ]
        },
        {
            "positions": [
                1.978893429119764,
                -1.1015925781904055,
                0.14994191836466975,
                -0.28249728257372086,
                0.8933075443603895,
                -2.307034765597509
            ]
        },
        {
            "positions": [
                2.0514483118934925,
                -1.068014708685109,
                0.24619959246562706,
                -0.34164402259156246,
                0.9184530816063741,
                -2.4133584301503626
            ]
        },
        {
            "positions": [
                2.124003194667221,
                -1.0344368391798127,
                0.34245726656658393,
                -0.40079076260940383,
                0.9435986188523585,
                -2.519682094703216
            ]
        },
        {
            "positions": [
                2.1965580774409497,
                -1.0008589696745163,
                0.4387149406675408,
                -0.4599375026272454,
                0.9687441560983431,
                -2.6260057592560693
            ]
        },
        {
            "positions": [
                2.2691129602146782,
                -0.9672811001692201,
                0.5349726147684981,
                -0.5190842426450868,
                0.9938896933443276,
                -2.732329423808922
            ]
        },
        {
            "positions": [
                2.341667842988407,
                -0.9337032306639237,
                0.631230288869455,
                -0.5782309826629284,
                1.019035230590312,
                -2.8386530883617755
            ]
        },
        {
            "positions": [
                2.4142227257621354,
                -0.9001253611586274,
                0.727487962970412,
                -0.6373777226807698,
                1.0441807678362967,
                -2.944976752914629
            ]
        },
        {
            "positions": [
                2.4567472508762385,
                -0.9230840951890863,
                0.9473471152325558,
                -0.6679610145679377,
                1.0461091368139532,
                -2.973591624501444
            ]
        },
        {
            "positions": [
                2.4992717759903416,
                -0.9460428292195452,
                1.1672062674946995,
                -0.6985443064551056,
                1.0480375057916098,
                -3.0022064960882595
            ]
        },
        {
            "positions": [
                2.5417963011044447,
                -0.9690015632500042,
                1.3870654197568433,
                -0.7291275983422734,
                1.0499658747692662,
                -3.030821367675075
            ]
        },
        {
            "positions": [
                2.5843208262185478,
                -0.9919602972804631,
                1.606924572018987,
                -0.7597108902294413,
                1.0518942437469228,
                -3.05943623926189
            ]
        },
        {
            "positions": [
                2.626845351332651,
                -1.014919031310922,
                1.826783724281131,
                -0.7902941821166092,
                1.0538226127245793,
                -3.0880511108487054
            ]
        }
    ]
}