{
    "goal": {
        "global_pose": {
            "orientation": {
                "w": -0.00223480608172531,
                "x": 0.0024358444001904467,
                "y": 0.7094548369677653,
                "z": -0.704743149386269
            },
            "position": {
                "x": -0.37947507619857795,
                "y": -0.6371506643295288,
                "z": 0.19426114857196808
            }
        },
        "name": "move_to_magneteinheit_C"
    },
    "id": "KPIECE_move_to_magneteinheit_C_69",
    "joint_names": [
        "shoulder_pan_joint",
        "shoulder_lift_joint",
        "elbow_joint",
        "wrist_1_joint",
        "wrist_2_joint",
        "wrist_3_joint"
    ],
    "metrics": {
        "cart_traj_len": 1.265592491776526,
        "distance_elbow_joint": 0.37846806370318475,
        "distance_shoulder_lift_joint": 0.5278596377736466,
        "distance_shoulder_pan_joint": 1.4250810058521146,
        "distance_wrist_1_joint": 1.8123568803743237,
        "distance_wrist_2_joint": 0.8889306734494408,
        "distance_wrist_3_joint": 0.9852041956080941,
        "smoothness": 1.7192722657652306,
        "time": 1.29743103,
        "traj_len": 2.45314093699502,
        "weighted_distance": 3.2694948236387775
    },
    "planner": "KPIECE",
    "start": {
        "state": {
            "elbow_joint": 1.9565354010623817,
            "shoulder_lift_joint": -1.4165861575791021,
            "shoulder_pan_joint": -1.6717766225146293,
            "wrist_1_joint": -0.5286633292919765,
            "wrist_2_joint": 1.472756589071564,
            "wrist_3_joint": -3.1238370188695823
        }
    },
    "waypoints": [
        {
            "positions": [
                -1.6717766225146293,
                -1.4165861575791021,
                1.9565354010623817,
                -0.5286633292919765,
                1.472756589071564,
                -3.1238370188695823
            ]
        },
        {
            "positions": [
                -1.568530440144389,
                -1.404496721242442,
                1.9500193254820262,
                -0.505153922472517,
                1.3664886307511275,
                -3.072919563703515
            ]
        },
        {
            "positions": [
                -1.4652842577741485,
                -1.3924072849057816,
                1.9435032499016704,
                -0.4816445156530576,
                1.2602206724306912,
                -3.0220021085374484
            ]
        },
        {
            "positions": [
                -1.362038075403908,
                -1.3803178485691214,
                1.936987174321315,
                -0.4581351088335982,
                1.1539527141102548,
                -2.9710846533713813
            ]
        },
        {
            "positions": [
                -1.4901054422093027,
                -1.3974956776797243,
                1.9190002083678286,
                -0.3718507440178245,
                1.0913671040224462,
                -2.930524336675348
            ]
        },
        {
            "positions": [
                -1.6181728090146972,
                -1.414673506790327,
                1.9010132424143422,
                -0.28556637920205075,
                1.0287814939346378,
                -2.889964019979315
            ]
        },
        {
            "positions": [
                -1.7462401758200916,
                -1.43185133590093,
                1.8830262764608556,
                -0.19928201438627707,
                0.9661958838468292,
                -2.849403703283282
            ]
        },
        {
            "positions": [
                -1.8743075426254863,
                -1.4490291650115328,
                1.8650393105073693,
                -0.11299764957050334,
                0.9036102737590207,
                -2.808843386587249
            ]
        },
        {
            "positions": [
                -2.002374909430881,
                -1.4662069941221356,
                1.847052344553883,
                -0.026713284754729616,
                0.8410246636712122,
                -2.768283069891216
            ]
        },
        {
            "positions": [
                -2.130442276236275,
                -1.4833848232327385,
                1.8290653786003963,
                0.05957108006104406,
                0.7784390535834036,
                -2.727722753195183
            ]
        },
        {
            "positions": [
                -2.25850964304167,
                -1.5005626523433413,
                1.81107841264691,
                0.14585544487681779,
                0.7158534434955951,
                -2.68716243649915
            ]
        },
        {
            "positions": [
                -2.3865770098470644,
                -1.5177404814539441,
                1.7930914466934236,
                0.23213980969259154,
                0.6532678334077866,
                -2.646602119803117
            ]
        },
        {
            "positions": [
                -2.4307289080057095,
                -1.503612217768541,
                1.8246854684372602,
                0.16060627133051186,
                0.6771967376862746,
                -2.725292158788865
            ]
        },
        {
            "positions": [
                -2.4748808061643546,
                -1.489483954083138,
                1.8562794901810966,
                0.08907273296843221,
                0.7011256419647627,
                -2.8039821977746135
            ]
        },
        {
            "positions": [
                -2.474380860568165,
                -1.4243015203815306,
                1.8866467033504073,
                -0.09262459996468717,
                0.6968088201190252,
                -2.87410004148864
            ]
        },
        {
            "positions": [
                -2.473880914971976,
                -1.3591190866799232,
                1.917013916519718,
                -0.27432193289780654,
                0.6924919982732878,
                -2.9442178852026664
            ]
        },
        {
            "positions": [
                -2.4733809693757864,
                -1.2939366529783156,
                1.9473811296890289,
                -0.4560192658309259,
                0.6881751764275502,
                -3.0143357289166928
            ]
        },
        {
            "positions": [
                -2.472881023779597,
                -1.2287542192767082,
                1.9777483428583396,
                -0.6377165987640453,
                0.6838583545818128,
                -3.084453572630719
            ]
        },
        {
            "positions": [
                -2.4723810781834077,
                -1.1635717855751009,
                2.0081155560276502,
                -0.8194139316971646,
                0.6795415327360753,
                -3.1545714163447456
            ]
        }
    ]
}