{
    "goal": {
        "global_pose": {
            "orientation": {
                "w": 0.7031023502349854,
                "x": -0.7110244035720825,
                "y": 0.007748599164187908,
                "z": 0.005598929710686207
            },
            "position": {
                "x": 0.11585023208521307,
                "y": 0.44412534475326537,
                "z": 0.3711530566215515
            }
        },
        "name": "move_to_auspresseinheit_A"
    },
    "id": "KPIECE_move_to_auspresseinheit_A_17",
    "joint_names": [
        "shoulder_pan_joint",
        "shoulder_lift_joint",
        "elbow_joint",
        "wrist_1_joint",
        "wrist_2_joint",
        "wrist_3_joint"
    ],
    "metrics": {
        "cart_traj_len": 1.1669515445576328,
        "distance_elbow_joint": 0.5798864607501315,
        "distance_shoulder_lift_joint": 0.5322444314567389,
        "distance_shoulder_pan_joint": 1.939010362355439,
        "distance_wrist_1_joint": 1.6558734402794868,
        "distance_wrist_2_joint": 0.5161995367196194,
        "distance_wrist_3_joint": 3.0996850731562366,
        "smoothness": 0.9592813271163148,
        "time": 0.8894008729999999,
        "traj_len": 2.8849435531250265,
        "weighted_distance": 4.085871073348892
    },
    "planner": "KPIECE",
    "start": {
        "state": {
            "elbow_joint": 2.4225746658250005,
            "shoulder_lift_joint": -1.3736534386056498,
            "shoulder_pan_joint": -0.3378633547517467,
            "wrist_1_joint": -1.0288598680537169,
            "wrist_2_joint": 1.233022673432363,
            "wrist_3_joint": -3.0940220416140027
        }
    },
    "waypoints": [
        {
            "positions": [
                -0.3378633547517467,
                -1.3736534386056498,
                2.4225746658250005,
                -1.0288598680537169,
                1.233022673432363,
                -3.0940220416140027
            ]
        },
        {
            "positions": [
                -0.3823936569109657,
                -1.3943313323630906,
                2.3919277771748,
                -0.9173319444553955,
                1.231714104401901,
                -2.9414642081342937
            ]
        },
        {
            "positions": [
                -0.42692395907018466,
                -1.4150092261205314,
                2.361280888524599,
                -0.805804020857074,
                1.230405535371439,
                -2.7889063746545846
            ]
        },
        {
            "positions": [
                -0.47145426122940365,
                -1.435687119877972,
                2.330633999874398,
                -0.6942760972587526,
                1.229096966340977,
                -2.6363485411748755
            ]
        },
        {
            "positions": [
                -0.5159845633886226,
                -1.4563650136354127,
                2.2999871112241976,
                -0.5827481736604312,
                1.227788397310515,
                -2.4837907076951664
            ]
        },
        {
            "positions": [
                -0.5605148655478416,
                -1.4770429073928535,
                2.269340222573997,
                -0.47122025006210977,
                1.2264798282800529,
                -2.3312328742154573
            ]
        },
        {
            "positions": [
                -0.6050451677070605,
                -1.4977208011502943,
                2.238693333923796,
                -0.35969232646378835,
                1.225171259249591,
                -2.1786750407357482
            ]
        },
        {
            "positions": [
                -0.6495754698662796,
                -1.5183986949077348,
                2.2080464452735953,
                -0.24816440286546693,
                1.223862690219129,
                -2.026117207256039
            ]
        },
        {
            "positions": [
                -0.6941057720254986,
                -1.5390765886651758,
                2.177399556623395,
                -0.1366364792671455,
                1.222554121188667,
                -1.8735593737763296
            ]
        },
        {
            "positions": [
                -0.7386360741847176,
                -1.5597544824226164,
                2.1467526679731943,
                -0.025108555668823973,
                1.2212455521582049,
                -1.7210015402966206
            ]
        },
        {
            "positions": [
                -0.7831663763439365,
                -1.5804323761800572,
                2.1161057793229934,
                0.08641936792949728,
                1.219936983127743,
                -1.5684437068169115
            ]
        },
        {
            "positions": [
                -0.662142890183599,
                -1.607162980407658,
                2.1386386680115446,
                0.04487778840630019,
                1.178375652272492,
                -1.6959982343832856
            ]
        },
        {
            "positions": [
                -0.5411194040232614,
                -1.6338935846352587,
                2.1611715567000958,
                0.003336208883103098,
                1.136814321417241,
                -1.8235527619496594
            ]
        },
        {
            "positions": [
                -0.4200959178629239,
                -1.6606241888628595,
                2.1837044453886465,
                -0.038205370640093994,
                1.0952529905619903,
                -1.9511072895160333
            ]
        },
        {
            "positions": [
                -0.29907243170258635,
                -1.6873547930904602,
                2.2062373340771977,
                -0.07974695016329109,
                1.0536916597067394,
                -2.0786618170824074
            ]
        },
        {
            "positions": [
                -0.17804894554224882,
                -1.714085397318061,
                2.228770222765749,
                -0.12128852968648818,
                1.0121303288514885,
                -2.2062163446487815
            ]
        },
        {
            "positions": [
                -0.05702545938191128,
                -1.740816001545662,
                2.2513031114543,
                -0.16283010920968527,
                0.9705689979962376,
                -2.3337708722151556
            ]
        },
        {
            "positions": [
                0.06399802677842625,
                -1.7675466057732627,
                2.2738360001428513,
                -0.20437168873288236,
                0.9290076671409868,
                -2.461325399781529
            ]
        },
        {
            "positions": [
                0.1850215129387638,
                -1.7942772100008635,
                2.2963688888314024,
                -0.24591326825607945,
                0.8874463362857359,
                -2.5888799273479033
            ]
        },
        {
            "positions": [
                0.3060449990991012,
                -1.8210078142284642,
                2.3189017775199536,
                -0.28745484777927655,
                0.845885005430485,
                -2.7164344549142774
            ]
        },
        {
            "positions": [
                0.42706848525943886,
                -1.847738418456065,
                2.3414346662085044,
                -0.32899642730247364,
                0.8043236745752341,
                -2.843988982480651
            ]
        },
        {
            "positions": [
                0.5480919714197763,
                -1.8744690226836658,
                2.3639675548970556,
                -0.37053800682567073,
                0.7627623437199833,
                -2.971543510047025
            ]
        },
        {
            "positions": [
                0.6691154575801139,
                -1.9011996269112665,
                2.3865004435856068,
                -0.4120795863488678,
                0.7212010128647324,
                -3.099098037613399
            ]
        },
        {
            "positions": [
                0.7105409644193131,
                -1.9058978700623888,
                2.389523353571118,
                -0.4541748363667759,
                0.7168231367127437,
                -3.142550445176057
            ]
        }
    ]
}