{
    "goal": {
        "global_pose": {
            "orientation": {
                "w": 0.7047431493862688,
                "x": -0.7094548369677653,
                "y": 0.0024358444001904,
                "z": -0.0022348060817251984
            },
            "position": {
                "x": -0.39052492380142206,
                "y": 0.3671506643295288,
                "z": 0.19426114857196808
            }
        },
        "name": "move_to_magneteinheit_D"
    },
    "id": "KPIECE_move_to_magneteinheit_D_145",
    "joint_names": [
        "shoulder_pan_joint",
        "shoulder_lift_joint",
        "elbow_joint",
        "wrist_1_joint",
        "wrist_2_joint",
        "wrist_3_joint"
    ],
    "metrics": {
        "cart_traj_len": 4.033924216827112,
        "distance_elbow_joint": 3.2071618048600534,
        "distance_shoulder_lift_joint": 1.2039753831233964,
        "distance_shoulder_pan_joint": 2.933871517439612,
        "distance_wrist_1_joint": 2.103043386574773,
        "distance_wrist_2_joint": 1.8353693694261937,
        "distance_wrist_3_joint": 6.269479163689043,
        "smoothness": 0.15054028917565146,
        "time": 0.12385316200000002,
        "traj_len": 4.189618195625117,
        "weighted_distance": 5.833547094906505
    },
    "planner": "KPIECE",
    "start": {
        "state": {
            "elbow_joint": 0.749534889911806,
            "shoulder_lift_joint": -0.6476975780787326,
            "shoulder_pan_joint": -2.711696901376241,
            "wrist_1_joint": -0.07506478083263063,
            "wrist_2_joint": 0.43296659715538205,
            "wrist_3_joint": -3.14703540197715
        }
    },
    "waypoints": [
        {
            "positions": [
                -2.711696901376241,
                -0.6476975780787326,
                0.749534889911806,
                -0.07506478083263063,
                0.43296659715538205,
                -3.14703540197715
            ]
        },
        {
            "positions": [
                -2.7374182692177134,
                -0.6982696301297026,
                0.764506103895321,
                -0.07160961763297208,
                0.41108689643935764,
                -2.9345440320586644
            ]
        },
        {
            "positions": [
                -2.7631396370591856,
                -0.7488416821806724,
                0.779477317878836,
                -0.06815445443331351,
                0.3892071957233333,
                -2.7220526621401784
            ]
        },
        {
            "positions": [
                -2.788861004900658,
                -0.7994137342316423,
                0.7944485318623511,
                -0.06469929123365496,
                0.3673274950073089,
                -2.5095612922216928
            ]
        },
        {
            "positions": [
                -2.7822082590634776,
                -0.8388302051794594,
                0.7733433238506652,
                -0.07141860729985375,
                0.33590658503345217,
                -2.284181347726115
            ]
        },
        {
            "positions": [
                -2.7755555132262972,
                -0.8782466761272765,
                0.7522381158389793,
                -0.07813792336605255,
                0.30448567505959545,
                -2.058801403230537
            ]
        },
        {
            "positions": [
                -2.768902767389117,
                -0.9176631470750936,
                0.7311329078272933,
                -0.08485723943225133,
                0.27306476508573874,
                -1.8334214587349589
            ]
        },
        {
            "positions": [
                -2.7622500215519366,
                -0.9570796180229106,
                0.7100276998156074,
                -0.09157655549845013,
                0.24164385511188202,
                -1.608041514239381
            ]
        },
        {
            "positions": [
                -2.755597275714756,
                -0.9964960889707277,
                0.6889224918039215,
                -0.09829587156464892,
                0.2102229451380253,
                -1.382661569743803
            ]
        },
        {
            "positions": [
                -2.651875869178997,
                -0.994351312439888,
                0.5966469164381513,
                -0.16766632294233316,
                0.23366159781039453,
                -1.2793049169143829
            ]
        },
        {
            "positions": [
                -2.5481544626432377,
                -0.9922065359090481,
                0.5043713410723811,
                -0.2370367743200174,
                0.25710025048276375,
                -1.1759482640849626
            ]
        },
        {
            "positions": [
                -2.4444330561074787,
                -0.9900617593782083,
                0.4120957657066109,
                -0.3064072256977016,
                0.28053890315513297,
                -1.0725916112555423
            ]
        },
        {
            "positions": [
                -2.3407116495717197,
                -0.9879169828473684,
                0.31982019034084064,
                -0.3757776770753859,
                0.3039775558275022,
                -0.9692349584261222
            ]
        },
        {
            "positions": [
                -2.2369902430359603,
                -0.9857722063165286,
                0.22754461497507045,
                -0.4451481284530701,
                0.3274162084998714,
                -0.865878305596702
            ]
        },
        {
            "positions": [
                -2.1332688365002013,
                -0.9836274297856887,
                0.13526903960930026,
                -0.5145185798307543,
                0.35085486117224063,
                -0.7625216527672818
            ]
        },
        {
            "positions": [
                -2.0295474299644423,
                -0.981482653254849,
                0.04299346424353001,
                -0.5838890312084386,
                0.37429351384460985,
                -0.6591649999378617
            ]
        },
        {
            "positions": [
                -1.9258260234286828,
                -0.9793378767240091,
                -0.049282111122240235,
                -0.6532594825861229,
                0.3977321665169791,
                -0.5558083471084414
            ]
        },
        {
            "positions": [
                -1.8221046168929238,
                -0.9771931001931693,
                -0.14155768648801037,
                -0.722629933963807,
                0.4211708191893483,
                -0.4524516942790213
            ]
        },
        {
            "positions": [
                -1.7183832103571646,
                -0.9750483236623294,
                -0.23383326185378062,
                -0.7920003853414913,
                0.44460947186171756,
                -0.349095041449601
            ]
        },
        {
            "positions": [
                -1.6146618038214053,
                -0.9729035471314896,
                -0.32610883721955075,
                -0.8613708367191756,
                0.4680481245340868,
                -0.24573838862018094
            ]
        },
        {
            "positions": [
                -1.510940397285646,
                -0.9707587706006497,
                -0.418384412585321,
                -0.9307412880968599,
                0.491486777206456,
                -0.14238173579076063
            ]
        },
        {
            "positions": [
                -1.407218990749887,
                -0.96861399406981,
                -0.5106599879510912,
                -1.000111739474544,
                0.5149254298788253,
                -0.03902508296134055
            ]
        },
        {
            "positions": [
                -1.303497584214128,
                -0.9664692175389702,
                -0.6029355633168615,
                -1.069482190852228,
                0.5383640825511944,
                0.06433156986807953
            ]
        },
        {
            "positions": [
                -1.1997761776783689,
                -0.9643244410081303,
                -0.6952111386826315,
                -1.1388526422299123,
                0.5618027352235637,
                0.1676882226974996
            ]
        },
        {
            "positions": [
                -1.0960547711426096,
                -0.9621796644772905,
                -0.787486714048402,
                -1.2082230936075968,
                0.5852413878959329,
                0.27104487552692014
            ]
        },
        {
            "positions": [
                -0.9923333646068504,
                -0.9600348879464506,
                -0.879762289414172,
                -1.2775935449852809,
                0.6086800405683022,
                0.3744015283563402
            ]
        },
        {
            "positions": [
                -0.8886119580710914,
                -0.9578901114156109,
                -0.9720378647799423,
                -1.3469639963629652,
                0.6321186932406713,
                0.4777581811857603
            ]
        },
        {
            "positions": [
                -0.7848905515353322,
                -0.955745334884771,
                -1.0643134401457126,
                -1.4163344477406494,
                0.6555573459130406,
                0.5811148340151804
            ]
        },
        {
            "positions": [
                -0.6811691449995729,
                -0.9536005583539312,
                -1.1565890155114826,
                -1.4857048991183337,
                0.6789959985854098,
                0.6844714868446009
            ]
        },
        {
            "positions": [
                -0.5774477384638139,
                -0.9514557818230913,
                -1.248864590877253,
                -1.555075350496018,
                0.702434651257779,
                0.787828139674021
            ]
        },
        {
            "positions": [
                -0.47372633192805447,
                -0.9493110052922515,
                -1.3411401662430231,
                -1.6244458018737022,
                0.7258733039301483,
                0.8911847925034411
            ]
        },
        {
            "positions": [
                -0.37000492539229546,
                -0.9471662287614117,
                -1.4334157416087936,
                -1.6938162532513863,
                0.7493119566025175,
                0.9945414453328612
            ]
        },
        {
            "positions": [
                -0.266283518856536,
                -0.9450214522305719,
                -1.5256913169745636,
                -1.7631867046290708,
                0.7727506092748867,
                1.0978980981622817
            ]
        },
        {
            "positions": [
                -0.162562112320777,
                -0.942876675699732,
                -1.617966892340334,
                -1.8325571560067548,
                0.7961892619472559,
                1.2012547509917018
            ]
        },
        {
            "positions": [
                -0.058840705785018085,
                -0.9407318991688922,
                -1.710242467706104,
                -1.9019276073844391,
                0.8196279146196251,
                1.3046114038211218
            ]
        },
        {
            "positions": [
                -0.06160692456362936,
                -1.0001149127377256,
                -1.7649512770943823,
                -1.9253241903491924,
                0.7504546756936225,
                1.4507414714721738
            ]
        },
        {
            "positions": [
                -0.06437314334224063,
                -1.059497926306559,
                -1.8196600864826606,
                -1.9487207733139456,
                0.6812814367676197,
                1.5968715391232258
            ]
        },
        {
            "positions": [
                -0.06713936212085189,
                -1.1188809398753923,
                -1.8743688958709388,
                -1.9721173562786989,
                0.612108197841617,
                1.7430016067742777
            ]
        },
        {
            "positions": [
                -0.06990558089946317,
                -1.1782639534442256,
                -1.9290777052592172,
                -1.995513939243452,
                0.5429349589156143,
                1.8891316744253297
            ]
        },
        {
            "positions": [
                -0.07267179967807444,
                -1.2376469670130592,
                -1.9837865146474953,
                -2.018910522208205,
                0.4737617199896115,
                2.035261742076382
            ]
        },
        {
            "positions": [
                -0.07543801845668571,
                -1.2970299805818926,
                -2.0384953240357735,
                -2.0423071051729584,
                0.40458848106360873,
                2.1813918097274336
            ]
        },
        {
            "positions": [
                -0.07820423723529699,
                -1.356412994150726,
                -2.093204133424052,
                -2.0657036881377118,
                0.335415242137606,
                2.327521877378486
            ]
        },
        {
            "positions": [
                -0.09609150112684274,
                -1.4203682587253479,
                -2.1389700496945694,
                -2.0809826048163353,
                0.2489138962300697,
                2.4600088581007205
            ]
        },
        {
            "positions": [
                -0.1139787650183885,
                -1.4843235232999699,
                -2.184735965965087,
                -2.0962615214949585,
                0.1624125503225334,
                2.5924958388229546
            ]
        },
        {
            "positions": [
                -0.13186602890993426,
                -1.548278787874592,
                -2.230501882235604,
                -2.111540438173582,
                0.0759112044149971,
                2.7249828195451893
            ]
        },
        {
            "positions": [
                -0.14975329280148,
                -1.6122340524492138,
                -2.2762677985061215,
                -2.1268193548522056,
                -0.010590141492539173,
                2.857469800267424
            ]
        },
        {
            "positions": [
                -0.16764055669302574,
                -1.676189317023836,
                -2.322033714776639,
                -2.1420982715308288,
                -0.0970914874000755,
                2.989956780989658
            ]
        },
        {
            "positions": [
                -0.1855278205845715,
                -1.740144581598458,
                -2.3677996310471565,
                -2.1573771882094523,
                -0.18359283330761184,
                3.1224437617118928
            ]
        }
    ]
}