{
    "goal": {
        "global_pose": {
            "orientation": {
                "w": -0.4816463035849501,
                "x": 0.5182115481033762,
                "y": 0.4908360881923453,
                "z": -0.5084816262002911
            },
            "position": {
                "x": -0.8240239810943604,
                "y": -0.300875300988555,
                "z": 0.16403168439865112
            }
        },
        "name": "move_to_storage_C"
    },
    "id": "KPIECE_move_to_storage_C_85",
    "joint_names": [
        "shoulder_pan_joint",
        "shoulder_lift_joint",
        "elbow_joint",
        "wrist_1_joint",
        "wrist_2_joint",
        "wrist_3_joint"
    ],
    "metrics": {
        "cart_traj_len": 0.5758935733291308,
        "distance_elbow_joint": 0.2601529576176429,
        "distance_shoulder_lift_joint": 0.18906777509790407,
        "distance_shoulder_pan_joint": 0.4937398152612942,
        "distance_wrist_1_joint": 0.08699358734163787,
        "distance_wrist_2_joint": 1.0676638818670643,
        "distance_wrist_3_joint": 0.061688577411596945,
        "smoothness": 2.5376526478085547e-16,
        "time": 0.190883085,
        "traj_len": 1.4694579254259512,
        "weighted_distance": 1.8540068011280424
    },
    "planner": "KPIECE",
    "start": {
        "state": {
            "elbow_joint": 2.010868314990456,
            "shoulder_lift_joint": -1.1634956873337592,
            "shoulder_pan_joint": -2.4736205022346125,
            "wrist_1_joint": -0.8367026794202681,
            "wrist_2_joint": 0.6746043897044499,
            "wrist_3_joint": -3.1496632123970403
        }
    },
    "waypoints": [
        {
            "positions": [
                -2.4736205022346125,
                -1.1634956873337592,
                2.010868314990456,
                -0.8367026794202681,
                0.6746043897044499,
                -3.1496632123970403
            ]
        },
        {
            "positions": [
                -2.555910471444828,
                -1.1319843914841086,
                1.9675094887208486,
                -0.8222037481966618,
                0.8525483700156273,
                -3.139381782828441
            ]
        },
        {
            "positions": [
                -2.638200440655044,
                -1.1004730956344577,
                1.9241506624512414,
                -0.8077048169730555,
                1.0304923503268046,
                -3.129100353259841
            ]
        },
        {
            "positions": [
                -2.72049040986526,
                -1.068961799784807,
                1.8807918361816345,
                -0.7932058857494492,
                1.2084363306379822,
                -3.118818923691242
            ]
        },
        {
            "positions": [
                -2.8027803790754753,
                -1.0374505039351565,
                1.8374330099120273,
                -0.7787069545258428,
                1.3863803109491593,
                -3.1085374941226425
            ]
        },
        {
            "positions": [
                -2.8850703482856908,
                -1.0059392080855059,
                1.79407418364242,
                -0.7642080233022366,
                1.5643242912603368,
                -3.0982560645540427
            ]
        },
        {
            "positions": [
                -2.9673603174959067,
                -0.9744279122358551,
                1.750715357372813,
                -0.7497090920786302,
                1.7422682715715143,
                -3.0879746349854433
            ]
        }
    ]
}