{
    "goal": {
        "global_pose": {
            "orientation": {
                "w": 0.5084816262002911,
                "x": -0.4908360881923452,
                "y": 0.5182115481033761,
                "z": -0.48164630358495003
            },
            "position": {
                "x": 0.5540239810943604,
                "y": -0.46912469901144505,
                "z": 0.16403168439865112
            }
        },
        "name": "move_to_storage_B"
    },
    "id": "KPIECE_move_to_storage_B_7",
    "joint_names": [
        "shoulder_pan_joint",
        "shoulder_lift_joint",
        "elbow_joint",
        "wrist_1_joint",
        "wrist_2_joint",
        "wrist_3_joint"
    ],
    "metrics": {
        "cart_traj_len": 1.8295897153700293,
        "distance_elbow_joint": 2.0520432003711786,
        "distance_shoulder_lift_joint": 0.7984532633048647,
        "distance_shoulder_pan_joint": 1.3453745158641595,
        "distance_wrist_1_joint": 2.985155558099124,
        "distance_wrist_2_joint": 2.720728821043698,
        "distance_wrist_3_joint": 4.733879423451997,
        "smoothness": 0.8995398425840648,
        "time": 0.103984455,
        "traj_len": 3.8256548174312623,
        "weighted_distance": 5.459787359245948
    },
    "planner": "KPIECE",
    "start": {
        "state": {
            "elbow_joint": 1.664937868594044,
            "shoulder_lift_joint": -0.661644460510453,
            "shoulder_pan_joint": -0.9139846352900073,
            "wrist_1_joint": 2.146753192139373,
            "wrist_2_joint": -2.2341966793290973,
            "wrist_3_joint": 0.005466555786416001
        }
    },
    "waypoints": [
        {
            "positions": [
                -0.9139846352900073,
                -0.661644460510453,
                1.664937868594044,
                2.146753192139373,
                -2.2341966793290973,
                0.005466555786416001
            ]
        },
        {
            "positions": [
                -0.8492344925552022,
                -0.7089012240757915,
                1.778905397993478,
                2.142927415280007,
                -2.2125640540547717,
                0.13297887840531675
            ]
        },
        {
            "positions": [
                -0.784484349820397,
                -0.7561579876411298,
                1.8928729273929117,
                2.1391016384206414,
                -2.1909314287804462,
                0.2604912010242175
            ]
        },
        {
            "positions": [
                -0.7197342070855921,
                -0.8034147512064682,
                2.0068404567923457,
                2.1352758615612752,
                -2.169298803506121,
                0.38800352364311824
            ]
        },
        {
            "positions": [
                -0.6549840643507869,
                -0.8506715147718067,
                2.1208079861917795,
                2.1314500847019096,
                -2.1476661782317956,
                0.515515846262019
            ]
        },
        {
            "positions": [
                -0.5902339216159819,
                -0.8979282783371452,
                2.2347755155912137,
                2.1276243078425434,
                -2.12603355295747,
                0.6430281688809197
            ]
        },
        {
            "positions": [
                -0.5254837788811768,
                -0.9451850419024835,
                2.3487430449906475,
                2.1237985309831777,
                -2.1044009276831446,
                0.7705404914998204
            ]
        },
        {
            "positions": [
                -0.4607336361463717,
                -0.992441805467822,
                2.4627105743900812,
                2.1199727541238116,
                -2.0827683024088195,
                0.8980528141187213
            ]
        },
        {
            "positions": [
                -0.3959834934115666,
                -1.0396985690331604,
                2.576678103789515,
                2.116146977264446,
                -2.061135677134494,
                1.025565136737622
            ]
        },
        {
            "positions": [
                -0.3312333506767615,
                -1.0869553325984989,
                2.6906456331889492,
                2.1123212004050798,
                -2.0395030518601684,
                1.1530774593565227
            ]
        },
        {
            "positions": [
                -0.4156059200620725,
                -1.0681615242280893,
                2.596254575970168,
                2.0684265942926165,
                -1.9883270602795038,
                1.064523048963859
            ]
        },
        {
            "positions": [
                -0.49997848944738343,
                -1.0493677158576795,
                2.501863518751387,
                2.024531988180154,
                -1.937151068698839,
                0.9759686385711955
            ]
        },
        {
            "positions": [
                -0.5843510588326943,
                -1.03057390748727,
                2.407472461532606,
                1.9806373820676908,
                -1.8859750771181742,
                0.887414228178532
            ]
        },
        {
            "positions": [
                -0.6687236282180054,
                -1.0117800991168602,
                2.313081404313825,
                1.9367427759552278,
                -1.8347990855375094,
                0.7988598177858683
            ]
        },
        {
            "positions": [
                -0.7530961976033164,
                -0.9929862907464506,
                2.218690347095044,
                1.8928481698427648,
                -1.7836230939568447,
                0.7103054073932047
            ]
        },
        {
            "positions": [
                -0.8374687669886273,
                -0.974192482376041,
                2.124299289876263,
                1.8489535637303018,
                -1.73244710237618,
                0.6217509970005412
            ]
        },
        {
            "positions": [
                -0.9218413363739383,
                -0.9553986740056313,
                2.0299082326574815,
                1.8050589576178389,
                -1.6812711107955152,
                0.5331965866078775
            ]
        },
        {
            "positions": [
                -1.0062139057592492,
                -0.9366048656352216,
                1.9355171754387008,
                1.7611643515053759,
                -1.6300951192148503,
                0.44464217621521396
            ]
        },
        {
            "positions": [
                -1.0905864751445602,
                -0.9178110572648119,
                1.8411261182199197,
                1.7172697453929129,
                -1.5789191276341856,
                0.3560877658225503
            ]
        },
        {
            "positions": [
                -1.090749980483716,
                -0.9280109630589686,
                1.849966914260282,
                1.5894861398252798,
                -1.4756465641667462,
                0.49555170713994623
            ]
        },
        {
            "positions": [
                -1.0909134858228717,
                -0.9382108688531251,
                1.8588077103006442,
                1.4617025342576464,
                -1.372374000699307,
                0.6350156484573422
            ]
        },
        {
            "positions": [
                -1.0910769911620275,
                -0.9484107746472817,
                1.8676485063410062,
                1.3339189286900133,
                -1.2691014372318676,
                0.7744795897747381
            ]
        },
        {
            "positions": [
                -1.0912404965011833,
                -0.9586106804414383,
                1.8764893023813685,
                1.2061353231223801,
                -1.1658288737644282,
                0.9139435310921339
            ]
        },
        {
            "positions": [
                -1.0914040018403388,
                -0.9688105862355949,
                1.8853300984217307,
                1.0783517175547468,
                -1.062556310296989,
                1.0534074724095297
            ]
        },
        {
            "positions": [
                -1.0915675071794946,
                -0.9790104920297515,
                1.894170894462093,
                0.9505681119871138,
                -0.9592837468295498,
                1.1928714137269258
            ]
        },
        {
            "positions": [
                -1.0917310125186503,
                -0.9892103978239081,
                1.9030116905024552,
                0.8227845064194805,
                -0.8560111833621105,
                1.3323353550443215
            ]
        },
        {
            "positions": [
                -1.0918945178578061,
                -0.9994103036180647,
                1.9118524865428173,
                0.6950009008518472,
                -0.7527386198946711,
                1.4717992963617175
            ]
        },
        {
            "positions": [
                -1.0920580231969619,
                -1.0096102094122212,
                1.9206932825831795,
                0.567217295284214,
                -0.6494660564272318,
                1.6112632376791134
            ]
        },
        {
            "positions": [
                -1.0922215285361176,
                -1.0198101152063779,
                1.9295340786235418,
                0.4394336897165809,
                -0.5461934929597925,
                1.7507271789965093
            ]
        },
        {
            "positions": [
                -1.0923850338752734,
                -1.0300100210005345,
                1.938374874663904,
                0.31165008414894757,
                -0.44292092949235307,
                1.8901911203139052
            ]
        },
        {
            "positions": [
                -1.0925485392144292,
                -1.0402099267946912,
                1.9472156707042663,
                0.18386647858131466,
                -0.3396483660249139,
                2.029655061631301
            ]
        },
        {
            "positions": [
                -1.092712044553585,
                -1.0504098325888476,
                1.9560564667446283,
                0.05608287301368131,
                -0.23637580255747448,
                2.169119002948697
            ]
        },
        {
            "positions": [
                -1.0928755498927407,
                -1.0606097383830042,
                1.9648972627849906,
                -0.07170073255395182,
                -0.1331032390900353,
                2.308582944266093
            ]
        },
        {
            "positions": [
                -1.0930390552318965,
                -1.0708096441771608,
                1.9737380588253528,
                -0.19948433812158517,
                -0.029830675622595892,
                2.448046885583489
            ]
        },
        {
            "positions": [
                -1.093202560571052,
                -1.0810095499713175,
                1.982578854865715,
                -0.3272679436892185,
                0.07344188784484351,
                2.5875108269008846
            ]
        },
        {
            "positions": [
                -1.0933660659102078,
                -1.0912094557654741,
                1.9914196509060773,
                -0.45505154925685143,
                0.1767144513122827,
                2.7269747682182808
            ]
        },
        {
            "positions": [
                -1.0935295712493636,
                -1.1014093615596305,
                2.0002604469464393,
                -0.5828351548244848,
                0.2799870147797221,
                2.8664387095356765
            ]
        },
        {
            "positions": [
                -1.0936930765885193,
                -1.1116092673537872,
                2.0091012429868016,
                -0.7106187603921177,
                0.3832595782471613,
                3.005902650853072
            ]
        },
        {
            "positions": [
                -1.093856581927675,
                -1.1218091731479438,
                2.017942039027164,
                -0.8384023659597509,
                0.48653214171460046,
                3.1453665921704683
            ]
        }
    ]
}