{
    "goal": {
        "global_pose": {
            "orientation": {
                "w": 0.7047431468963623,
                "x": -0.7094548344612122,
                "y": 0.0024358443915843964,
                "z": -0.0022348060738295317
            },
            "position": {
                "x": 0.6094750761985779,
                "y": 0.3671506643295288,
                "z": 0.19426114857196808
            }
        },
        "name": "move_to_magneteinheit_A"
    },
    "id": "KPIECE_move_to_magneteinheit_A_146",
    "joint_names": [
        "shoulder_pan_joint",
        "shoulder_lift_joint",
        "elbow_joint",
        "wrist_1_joint",
        "wrist_2_joint",
        "wrist_3_joint"
    ],
    "metrics": {
        "cart_traj_len": 3.8320009589270394,
        "distance_elbow_joint": 3.903108951149004,
        "distance_shoulder_lift_joint": 0.0988901111360605,
        "distance_shoulder_pan_joint": 3.416249614908412,
        "distance_wrist_1_joint": 0.7062750103381369,
        "distance_wrist_2_joint": 1.6887555636286333,
        "distance_wrist_3_joint": 2.697511034992804,
        "smoothness": 0.1821132836125949,
        "time": 0.142455476,
        "traj_len": 3.5370595536622016,
        "weighted_distance": 4.505645672942495
    },
    "planner": "KPIECE",
    "start": {
        "state": {
            "elbow_joint": -1.9196185241190666,
            "shoulder_lift_joint": -1.2443396400964142,
            "shoulder_pan_joint": 2.6996025414629847,
            "wrist_1_joint": -1.5485510000780065,
            "wrist_2_joint": -1.5709468930060704,
            "wrist_3_joint": 0.4420197071253992
        }
    },
    "waypoints": [
        {
            "positions": [
                2.6996025414629847,
                -1.2443396400964142,
                -1.9196185241190666,
                -1.5485510000780065,
                -1.5709468930060704,
                0.4420197071253992
            ]
        },
        {
            "positions": [
                2.584320196389947,
                -1.2406617976405252,
                -1.7897297093343023,
                -1.526096051752492,
                -1.5192840596149593,
                0.514204882229099
            ]
        },
        {
            "positions": [
                2.4690378513169087,
                -1.236983955184636,
                -1.659840894549538,
                -1.5036411034269774,
                -1.4676212262238482,
                0.5863900573327987
            ]
        },
        {
            "positions": [
                2.353755506243871,
                -1.233306112728747,
                -1.5299520797647737,
                -1.4811861551014631,
                -1.415958392832737,
                0.6585752324364984
            ]
        },
        {
            "positions": [
                2.238473161170833,
                -1.2296282702728578,
                -1.4000632649800093,
                -1.4587312067759486,
                -1.3642955594416262,
                0.7307604075401982
            ]
        },
        {
            "positions": [
                2.123190816097795,
                -1.2259504278169688,
                -1.2701744501952448,
                -1.436276258450434,
                -1.312632726050515,
                0.802945582643898
            ]
        },
        {
            "positions": [
                2.007908471024757,
                -1.2222725853610799,
                -1.1402856354104804,
                -1.4138213101249195,
                -1.260969892659404,
                0.8751307577475977
            ]
        },
        {
            "positions": [
                1.8926261259517192,
                -1.2185947429051907,
                -1.0103968206257161,
                -1.391366361799405,
                -1.2093070592682928,
                0.9473159328512974
            ]
        },
        {
            "positions": [
                1.7773437808786812,
                -1.2149169004493017,
                -0.8805080058409518,
                -1.3689114134738904,
                -1.1576442258771817,
                1.0195011079549974
            ]
        },
        {
            "positions": [
                1.6620614358056434,
                -1.2112390579934127,
                -0.7506191910561875,
                -1.3464564651483761,
                -1.1059813924860706,
                1.091686283058697
            ]
        },
        {
            "positions": [
                1.5467790907326053,
                -1.2075612155375235,
                -0.6207303762714229,
                -1.3240015168228616,
                -1.0543185590949595,
                1.1638714581623968
            ]
        },
        {
            "positions": [
                1.4314967456595673,
                -1.2038833730816345,
                -0.4908415614866586,
                -1.301546568497347,
                -1.0026557257038484,
                1.2360566332660965
            ]
        },
        {
            "positions": [
                1.3162144005865293,
                -1.2002055306257453,
                -0.36095274670189426,
                -1.2790916201718325,
                -0.9509928923127374,
                1.3082418083697962
            ]
        },
        {
            "positions": [
                1.2009320555134915,
                -1.1965276881698563,
                -0.23106393191712993,
                -1.256636671846318,
                -0.8993300589216264,
                1.380426983473496
            ]
        },
        {
            "positions": [
                1.0856497104404537,
                -1.1928498457139673,
                -0.1011751171323656,
                -1.2341817235208037,
                -0.8476672255305154,
                1.4526121585771956
            ]
        },
        {
            "positions": [
                0.9703673653674156,
                -1.1891720032580781,
                0.02871369765239873,
                -1.2117267751952892,
                -0.7960043921394043,
                1.5247973336808953
            ]
        },
        {
            "positions": [
                0.8550850202943776,
                -1.1854941608021892,
                0.15860251243716306,
                -1.1892718268697746,
                -0.7443415587482932,
                1.5969825087845955
            ]
        },
        {
            "positions": [
                0.7398026752213396,
                -1.1818163183463,
                0.2884913272219274,
                -1.16681687854426,
                -0.6926787253571821,
                1.6691676838882952
            ]
        },
        {
            "positions": [
                0.624520330148302,
                -1.178138475890411,
                0.4183801420066917,
                -1.1443619302187455,
                -0.6410158919660711,
                1.7413528589919949
            ]
        },
        {
            "positions": [
                0.5092379850752637,
                -1.174460633434522,
                0.548268956791456,
                -1.1219069818932312,
                -0.58935305857496,
                1.8135380340956946
            ]
        },
        {
            "positions": [
                0.39395564000222594,
                -1.1707827909786328,
                0.6781577715762208,
                -1.0994520335677167,
                -0.5376902251838489,
                1.8857232091993943
            ]
        },
        {
            "positions": [
                0.2786732949291877,
                -1.1671049485227438,
                0.8080465863609851,
                -1.0769970852422022,
                -0.4860273917927378,
                1.957908384303094
            ]
        },
        {
            "positions": [
                0.16339094985614988,
                -1.1634271060668548,
                0.9379354011457495,
                -1.0545421369166876,
                -0.4343645584016267,
                2.0300935594067937
            ]
        },
        {
            "positions": [
                0.048108604783112074,
                -1.1597492636109656,
                1.0678242159305138,
                -1.032087188591173,
                -0.3827017250105158,
                2.1022787345104934
            ]
        },
        {
            "positions": [
                -0.06717374028992618,
                -1.1560714211550767,
                1.1977130307152781,
                -1.0096322402656588,
                -0.3310388916194045,
                2.1744639096141936
            ]
        },
        {
            "positions": [
                -0.18245608536296398,
                -1.1523935786991875,
                1.3276018455000425,
                -0.9871772919401441,
                -0.2793760582282936,
                2.2466490847178933
            ]
        },
        {
            "positions": [
                -0.29773843043600173,
                -1.1487157362432985,
                1.457490660284807,
                -0.9647223436146297,
                -0.22771322483718248,
                2.318834259821593
            ]
        },
        {
            "positions": [
                -0.2279203232677642,
                -1.1481713683628076,
                1.545157288075662,
                -0.9443146179688364,
                -0.17012624226055817,
                2.455617006871028
            ]
        },
        {
            "positions": [
                -0.15810221609952668,
                -1.1476270004823168,
                1.632823915866517,
                -0.923906892323043,
                -0.11253925968393386,
                2.5923997539204633
            ]
        },
        {
            "positions": [
                -0.08828410893128916,
                -1.1470826326018262,
                1.7204905436573719,
                -0.9034991666772496,
                -0.054952277107309544,
                2.7291825009698982
            ]
        },
        {
            "positions": [
                -0.01846600176305163,
                -1.1465382647213354,
                1.808157171448227,
                -0.8830914410314563,
                0.0026347054693147687,
                2.865965248019333
            ]
        },
        {
            "positions": [
                0.05135210540518592,
                -1.1459938968408445,
                1.895823799239082,
                -0.862683715385663,
                0.06022168804593908,
                3.0027479950687685
            ]
        },
        {
            "positions": [
                0.12117021257342343,
                -1.1454495289603537,
                1.983490427029937,
                -0.8422759897398696,
                0.11780867062256342,
                3.1395307421182035
            ]
        }
    ]
}