{
    "goal": {
        "global_pose": {
            "orientation": {
                "w": 0.7047431493862688,
                "x": -0.7094548369677653,
                "y": 0.0024358444001904,
                "z": -0.0022348060817251984
            },
            "position": {
                "x": -0.39052492380142206,
                "y": 0.3671506643295288,
                "z": 0.19426114857196808
            }
        },
        "name": "move_to_magneteinheit_D"
    },
    "id": "KPIECE_move_to_magneteinheit_D_77",
    "joint_names": [
        "shoulder_pan_joint",
        "shoulder_lift_joint",
        "elbow_joint",
        "wrist_1_joint",
        "wrist_2_joint",
        "wrist_3_joint"
    ],
    "metrics": {
        "cart_traj_len": 8.07602703266691,
        "distance_elbow_joint": 7.651438820436773,
        "distance_shoulder_lift_joint": 2.350973740800734,
        "distance_shoulder_pan_joint": 9.542112596595594,
        "distance_wrist_1_joint": 4.4377384262138495,
        "distance_wrist_2_joint": 1.5243757167134817,
        "distance_wrist_3_joint": 3.5289151778195884,
        "smoothness": 0.6539475652188594,
        "time": 0.137146691,
        "traj_len": 5.388464946399857,
        "weighted_distance": 6.4850211238782025
    },
    "planner": "KPIECE",
    "start": {
        "state": {
            "elbow_joint": 0.749534889911806,
            "shoulder_lift_joint": -0.6476975780787326,
            "shoulder_pan_joint": -2.711696901376241,
            "wrist_1_joint": -0.07506478083263063,
            "wrist_2_joint": 0.43296659715538205,
            "wrist_3_joint": -3.14703540197715
        }
    },
    "waypoints": [
        {
            "positions": [
                -2.711696901376241,
                -0.6476975780787326,
                0.749534889911806,
                -0.07506478083263063,
                0.43296659715538205,
                -3.14703540197715
            ]
        },
        {
            "positions": [
                -2.815565413405423,
                -0.5937263585932822,
                0.7335669123000432,
                -0.09470428118847082,
                0.4707375383197454,
                -3.2454014554519865
            ]
        },
        {
            "positions": [
                -2.9194339254346056,
                -0.5397551391078318,
                0.7175989346882805,
                -0.11434378154431102,
                0.5085084794841088,
                -3.3437675089268235
            ]
        },
        {
            "positions": [
                -2.9121783505617054,
                -0.5038246751619891,
                0.553453244974029,
                -0.04834566259399642,
                0.5715169253963308,
                -3.3211983286448428
            ]
        },
        {
            "positions": [
                -2.9049227756888056,
                -0.4678942112161464,
                0.3893075552597775,
                0.01765245635631818,
                0.6345253713085529,
                -3.298629148362862
            ]
        },
        {
            "positions": [
                -2.8976672008159055,
                -0.43196374727030373,
                0.22516186554552603,
                0.08365057530663278,
                0.697533817220775,
                -3.2760599680808813
            ]
        },
        {
            "positions": [
                -2.8904116259430057,
                -0.39603328332446097,
                0.0610161758312745,
                0.14964869425694738,
                0.760542263132997,
                -3.2534907877989006
            ]
        },
        {
            "positions": [
                -2.8831560510701055,
                -0.3601028193786183,
                -0.10312951388297709,
                0.21564681320726198,
                0.8235507090452191,
                -3.23092160751692
            ]
        },
        {
            "positions": [
                -2.875900476197206,
                -0.3241723554327756,
                -0.26727520359722845,
                0.2816449321575766,
                0.8865591549574411,
                -3.208352427234939
            ]
        },
        {
            "positions": [
                -2.8686449013243056,
                -0.2882418914869329,
                -0.43142089331148004,
                0.3476430511078912,
                0.9495676008696632,
                -3.1857832469529583
            ]
        },
        {
            "positions": [
                -2.825307831005106,
                -0.3588711951850325,
                -0.39902091289425895,
                0.27657285477637555,
                0.8634307346262169,
                -3.1010586399832336
            ]
        },
        {
            "positions": [
                -2.781970760685907,
                -0.4295004988831321,
                -0.3666209324770379,
                0.2055026584448599,
                0.7772938683827706,
                -3.016334033013509
            ]
        },
        {
            "positions": [
                -2.7386336903667075,
                -0.5001298025812316,
                -0.33422095205981683,
                0.13443246211334428,
                0.6911570021393243,
                -2.931609426043784
            ]
        },
        {
            "positions": [
                -2.6952966200475084,
                -0.5707591062793312,
                -0.3018209716425958,
                0.06336226578182863,
                0.6050201358958779,
                -2.8468848190740594
            ]
        },
        {
            "positions": [
                -2.651959549728309,
                -0.6413884099774307,
                -0.2694209912253747,
                -0.007707930549686992,
                0.5188832696524316,
                -2.7621602121043347
            ]
        },
        {
            "positions": [
                -2.6086224794091093,
                -0.7120177136755304,
                -0.23702101080815366,
                -0.07877812688120261,
                0.4327464034089853,
                -2.67743560513461
            ]
        },
        {
            "positions": [
                -2.56528540908991,
                -0.78264701737363,
                -0.2046210303909326,
                -0.14984832321271824,
                0.346609537165539,
                -2.5927109981648853
            ]
        },
        {
            "positions": [
                -2.5219483387707107,
                -0.8532763210717296,
                -0.17222104997371152,
                -0.22091851954423392,
                0.2604726709220926,
                -2.5079863911951605
            ]
        },
        {
            "positions": [
                -2.4786112684515116,
                -0.9239056247698291,
                -0.13982106955649043,
                -0.2919887158757496,
                0.1743358046786463,
                -2.423261784225436
            ]
        },
        {
            "positions": [
                -2.435274198132312,
                -0.9945349284679287,
                -0.10742108913926943,
                -0.36305891220726516,
                0.08819893843520002,
                -2.338537177255711
            ]
        },
        {
            "positions": [
                -2.267108449511898,
                -1.0153838838612728,
                -0.0486548236935806,
                -0.2857140020828669,
                0.0873446206779693,
                -2.2758385805052583
            ]
        },
        {
            "positions": [
                -2.098942700891483,
                -1.0362328392546167,
                0.010111441752108222,
                -0.2083690919584686,
                0.08649030292073859,
                -2.2131399837548056
            ]
        },
        {
            "positions": [
                -1.930776952271069,
                -1.057081794647961,
                0.06887770719779707,
                -0.1310241818340703,
                0.08563598516350787,
                -2.1504413870043524
            ]
        },
        {
            "positions": [
                -1.7626112036506545,
                -1.077930750041305,
                0.12764397264348587,
                -0.053679271709672016,
                0.08478166740627716,
                -2.0877427902538996
            ]
        },
        {
            "positions": [
                -1.59444545503024,
                -1.098779705434649,
                0.1864102380891747,
                0.023665638414726242,
                0.08392734964904644,
                -2.025044193503447
            ]
        },
        {
            "positions": [
                -1.4262797064098258,
                -1.119628660827993,
                0.24517650353486356,
                0.10101054853912456,
                0.08307303189181572,
                -1.9623455967529941
            ]
        },
        {
            "positions": [
                -1.2581139577894114,
                -1.1404776162213373,
                0.3039427689805524,
                0.17835545866352287,
                0.08221871413458501,
                -1.8996470000025412
            ]
        },
        {
            "positions": [
                -1.089948209168997,
                -1.1613265716146812,
                0.36270903442624114,
                0.25570036878792113,
                0.08136439637735429,
                -1.8369484032520882
            ]
        },
        {
            "positions": [
                -0.9217824605485829,
                -1.1821755270080254,
                0.42147529987193,
                0.3330452789123193,
                0.08051007862012359,
                -1.7742498065016354
            ]
        },
        {
            "positions": [
                -0.7536167119281683,
                -1.2030244824013694,
                0.48024156531761886,
                0.41039018903671765,
                0.07965576086289287,
                -1.7115512097511827
            ]
        },
        {
            "positions": [
                -0.585450963307754,
                -1.2238734377947136,
                0.5390078307633076,
                0.4877350991611159,
                0.07880144310566216,
                -1.64885261300073
            ]
        },
        {
            "positions": [
                -0.4172852146873396,
                -1.2447223931880576,
                0.5977740962089966,
                0.5650800092855143,
                0.07794712534843144,
                -1.586154016250277
            ]
        },
        {
            "positions": [
                -0.24911946606692537,
                -1.2655713485814015,
                0.6565403616546853,
                0.6424249194099125,
                0.07709280759120073,
                -1.523455419499824
            ]
        },
        {
            "positions": [
                -0.0809537174465107,
                -1.2864203039747457,
                0.7153066271003742,
                0.7197698295343109,
                0.07623848983397001,
                -1.4607568227493712
            ]
        },
        {
            "positions": [
                0.08721203117390353,
                -1.30726925936809,
                0.7740728925460629,
                0.797114739658709,
                0.0753841720767393,
                -1.3980582259989185
            ]
        },
        {
            "positions": [
                0.2553777797943182,
                -1.3281182147614339,
                0.8328391579917518,
                0.8744596497831074,
                0.07452985431950858,
                -1.3353596292484655
            ]
        },
        {
            "positions": [
                0.423543528414732,
                -1.3489671701547779,
                0.8916054234374406,
                0.9518045599075056,
                0.07367553656227786,
                -1.2726610324980128
            ]
        },
        {
            "positions": [
                0.5917092770351462,
                -1.369816125548122,
                0.9503716888831294,
                1.0291494700319037,
                0.07282121880504715,
                -1.20996243574756
            ]
        },
        {
            "positions": [
                0.7598750256555613,
                -1.3906650809414662,
                1.0091379543288184,
                1.1064943801563023,
                0.07196690104781643,
                -1.147263838997107
            ]
        },
        {
            "positions": [
                0.9280407742759755,
                -1.4115140363348102,
                1.067904219774507,
                1.1838392902807005,
                0.07111258329058572,
                -1.084565242246654
            ]
        },
        {
            "positions": [
                1.0962065228963898,
                -1.4323629917281542,
                1.1266704852201959,
                1.2611842004050988,
                0.070258265533355,
                -1.0218666454962013
            ]
        },
        {
            "positions": [
                1.264372271516804,
                -1.4532119471214984,
                1.1854367506658845,
                1.338529110529497,
                0.0694039477761243,
                -0.9591680487457486
            ]
        },
        {
            "positions": [
                1.4325380201372186,
                -1.4740609025148426,
                1.2442030161115736,
                1.4158740206538953,
                0.06854963001889357,
                -0.8964694519952956
            ]
        },
        {
            "positions": [
                1.6007037687576329,
                -1.4949098579081865,
                1.3029692815572624,
                1.4932189307782937,
                0.06769531226166287,
                -0.8337708552448428
            ]
        },
        {
            "positions": [
                1.7688695173780475,
                -1.5157588133015305,
                1.361735547002951,
                1.5705638409026919,
                0.06684099450443215,
                -0.7710722584943899
            ]
        },
        {
            "positions": [
                1.9370352659984613,
                -1.5366077686948745,
                1.42050181244864,
                1.6479087510270902,
                0.06598667674720143,
                -0.7083736617439371
            ]
        },
        {
            "positions": [
                2.105201014618876,
                -1.557456724088219,
                1.4792680778943288,
                1.7252536611514884,
                0.06513235898997072,
                -0.6456750649934841
            ]
        },
        {
            "positions": [
                2.2733667632392907,
                -1.5783056794815629,
                1.5380343433400177,
                1.802598571275887,
                0.06427804123274,
                -0.5829764682430314
            ]
        },
        {
            "positions": [
                2.4415325118597044,
                -1.5991546348749068,
                1.5968006087857065,
                1.879943481400285,
                0.06342372347550929,
                -0.5202778714925786
            ]
        },
        {
            "positions": [
                2.609698260480119,
                -1.6200035902682508,
                1.6555668742313951,
                1.9572883915246833,
                0.06256940571827857,
                -0.4575792747421259
            ]
        },
        {
            "positions": [
                2.7778640091005338,
                -1.640852545661595,
                1.7143331396770842,
                2.034633301649082,
                0.061715087961047854,
                -0.3948806779916727
            ]
        },
        {
            "positions": [
                2.9460297577209484,
                -1.6617015010549392,
                1.7730994051227729,
                2.11197821177348,
                0.06086077020381714,
                -0.33218208124121995
            ]
        },
        {
            "positions": [
                3.114195506341362,
                -1.6825504564482832,
                1.8318656705684617,
                2.189323121897878,
                0.06000645244658642,
                -0.2694834844907672
            ]
        },
        {
            "positions": [
                2.9766644171429766,
                -1.7074341851669326,
                1.6565658175128974,
                2.1612652637549754,
                0.0649320176372584,
                -0.2587376908893565
            ]
        },
        {
            "positions": [
                2.839133327944591,
                -1.7323179138855818,
                1.4812659644573332,
                2.133207405612073,
                0.06985758282793036,
                -0.24799189728794577
            ]
        },
        {
            "positions": [
                2.7016022387462053,
                -1.7572016426042312,
                1.3059661114017687,
                2.10514954746917,
                0.07478314801860234,
                -0.23724610368653506
            ]
        },
        {
            "positions": [
                2.5640711495478197,
                -1.7820853713228806,
                1.1306662583462044,
                2.0770916893262674,
                0.0797087132092743,
                -0.22650031008512433
            ]
        },
        {
            "positions": [
                2.4265400603494336,
                -1.8069691000415298,
                0.9553664052906399,
                2.049033831183365,
                0.08463427839994628,
                -0.21575451648371363
            ]
        },
        {
            "positions": [
                2.289008971151048,
                -1.8318528287601792,
                0.7800665522350756,
                2.0209759730404624,
                0.08955984359061825,
                -0.20500872288230293
            ]
        },
        {
            "positions": [
                2.1514778819526623,
                -1.8567365574788286,
                0.6047666991795111,
                1.9929181148975597,
                0.09448540878129022,
                -0.1942629292808922
            ]
        },
        {
            "positions": [
                2.0139467927542767,
                -1.8816202861974778,
                0.42946684612394703,
                1.9648602567546571,
                0.09941097397196219,
                -0.1835171356794815
            ]
        },
        {
            "positions": [
                1.876415703555891,
                -1.9065040149161272,
                0.25416699306838253,
                1.9368023986117544,
                0.10433653916263418,
                -0.17277134207807077
            ]
        },
        {
            "positions": [
                1.7388846143575052,
                -1.9313877436347766,
                0.07886714001281803,
                1.908744540468852,
                0.10926210435330615,
                -0.16202554847666006
            ]
        },
        {
            "positions": [
                1.6013535251591198,
                -1.9562714723534258,
                -0.09643271304274603,
                1.8806866823259494,
                0.11418766954397812,
                -0.15127975487524936
            ]
        },
        {
            "positions": [
                1.463822435960734,
                -1.9811552010720752,
                -0.27173256609831054,
                1.8526288241830466,
                0.11911323473465009,
                -0.14053396127383863
            ]
        },
        {
            "positions": [
                1.3262913467623483,
                -2.0060389297907246,
                -0.4470324191538748,
                1.8245709660401441,
                0.12403879992532206,
                -0.12978816767242793
            ]
        },
        {
            "positions": [
                1.1887602575639624,
                -2.030922658509374,
                -0.6223322722094395,
                1.7965131078972414,
                0.12896436511599402,
                -0.1190423740710172
            ]
        },
        {
            "positions": [
                1.0512291683655768,
                -2.0558063872280234,
                -0.7976321252650038,
                1.7684552497543389,
                0.13388993030666602,
                -0.1082965804696065
            ]
        },
        {
            "positions": [
                0.9136980791671911,
                -2.0806901159466724,
                -0.9729319783205677,
                1.7403973916114364,
                0.13881549549733796,
                -0.0975507868681958
            ]
        },
        {
            "positions": [
                0.7761669899688055,
                -2.105573844665322,
                -1.1482318313761324,
                1.7123395334685336,
                0.14374106068800996,
                -0.08680499326678506
            ]
        },
        {
            "positions": [
                0.6386359007704199,
                -2.1304575733839712,
                -1.3235316844316967,
                1.684281675325631,
                0.14866662587868193,
                -0.07605919966537433
            ]
        },
        {
            "positions": [
                0.5011048115720342,
                -2.1553413021026206,
                -1.498831537487261,
                1.6562238171827284,
                0.1535921910693539,
                -0.06531340606396363
            ]
        },
        {
            "positions": [
                0.36357372237364816,
                -2.18022503082127,
                -1.6741313905428257,
                1.6281659590398259,
                0.15851775626002587,
                -0.0545676124625529
            ]
        },
        {
            "positions": [
                0.22604263317526252,
                -2.205108759539919,
                -1.8494312435983895,
                1.6001081008969231,
                0.16344332145069784,
                -0.0438218188611422
            ]
        },
        {
            "positions": [
                0.08851154397687733,
                -2.2299924882585684,
                -2.024731096653954,
                1.5720502427540206,
                0.1683688866413698,
                -0.033076025259731495
            ]
        },
        {
            "positions": [
                -0.049019545221508753,
                -2.254876216977218,
                -2.200030949709519,
                1.5439923846111179,
                0.17329445183204178,
                -0.022330231658320765
            ]
        },
        {
            "positions": [
                -0.18655063441989436,
                -2.2797599456958673,
                -2.3753308027650823,
                1.5159345264682154,
                0.17822001702271376,
                -0.011584438056910038
            ]
        }
    ]
}