{
    "goal": {
        "global_pose": {
            "orientation": {
                "w": -0.00223480608172531,
                "x": 0.0024358444001904467,
                "y": 0.7094548369677653,
                "z": -0.704743149386269
            },
            "position": {
                "x": -0.37947507619857795,
                "y": -0.6371506643295288,
                "z": 0.19426114857196808
            }
        },
        "name": "move_to_magneteinheit_C"
    },
    "id": "KPIECE_move_to_magneteinheit_C_24",
    "joint_names": [
        "shoulder_pan_joint",
        "shoulder_lift_joint",
        "elbow_joint",
        "wrist_1_joint",
        "wrist_2_joint",
        "wrist_3_joint"
    ],
    "metrics": {
        "cart_traj_len": 0.5773922858341005,
        "distance_elbow_joint": 0.09220194343151844,
        "distance_shoulder_lift_joint": 0.31942200647319186,
        "distance_shoulder_pan_joint": 0.8038825910213305,
        "distance_wrist_1_joint": 0.30277698901214,
        "distance_wrist_2_joint": 1.037831998652604,
        "distance_wrist_3_joint": 0.7534897725955738,
        "smoothness": 1.040816220165394,
        "time": 0.699854596,
        "traj_len": 1.819232063587919,
        "weighted_distance": 2.4813693465589215
    },
    "planner": "KPIECE",
    "start": {
        "state": {
            "elbow_joint": 1.9565354010623817,
            "shoulder_lift_joint": -1.4165861575791021,
            "shoulder_pan_joint": -1.6717766225146293,
            "wrist_1_joint": -0.5286633292919765,
            "wrist_2_joint": 1.472756589071564,
            "wrist_3_joint": -3.1238370188695823
        }
    },
    "waypoints": [
        {
            "positions": [
                -1.6717766225146293,
                -1.4165861575791021,
                1.9565354010623817,
                -0.5286633292919765,
                1.472756589071564,
                -3.1238370188695823
            ]
        },
        {
            "positions": [
                -1.6986530945984089,
                -1.4231263088901125,
                1.9709239131960374,
                -0.5824831867096812,
                1.2881450611796552,
                -3.050642536848605
            ]
        },
        {
            "positions": [
                -1.7255295666821884,
                -1.4296664602011229,
                1.9853124253296932,
                -0.636303044127386,
                1.1035335332877465,
                -2.9774480548276276
            ]
        },
        {
            "positions": [
                -1.7524060387659681,
                -1.4362066115121335,
                1.999700937463349,
                -0.6901229015450909,
                0.9189220053958377,
                -2.90425357280665
            ]
        },
        {
            "positions": [
                -1.7792825108497476,
                -1.4427467628231438,
                2.0140894495970048,
                -0.7439427589627957,
                0.7343104775039289,
                -2.8310590907856725
            ]
        },
        {
            "positions": [
                -1.8061589829335272,
                -1.4492869141341542,
                2.0284779617306605,
                -0.7977626163805005,
                0.5496989496120201,
                -2.757864608764695
            ]
        },
        {
            "positions": [
                -1.9735340405841353,
                -1.3776066016546193,
                2.0234131160398507,
                -0.8061820418614045,
                0.5783925394102851,
                -2.854743949387367
            ]
        },
        {
            "positions": [
                -2.1409090982347436,
                -1.3059262891750842,
                2.0183482703490405,
                -0.8146014673423085,
                0.6070861292085501,
                -2.9516232900100388
            ]
        },
        {
            "positions": [
                -2.3082841558853517,
                -1.2342459766955494,
                2.0132834246582307,
                -0.8230208928232124,
                0.6357797190068152,
                -3.04850263063271
            ]
        },
        {
            "positions": [
                -2.47565921353596,
                -1.1625656642160145,
                2.008218578967421,
                -0.8314403183041165,
                0.6644733088050802,
                -3.145381971255382
            ]
        }
    ]
}