{
    "goal": {
        "global_pose": {
            "orientation": {
                "w": 0.7047431468963623,
                "x": -0.7094548344612122,
                "y": 0.0024358443915843964,
                "z": -0.0022348060738295317
            },
            "position": {
                "x": 0.6094750761985779,
                "y": 0.3671506643295288,
                "z": 0.19426114857196808
            }
        },
        "name": "move_to_magneteinheit_A"
    },
    "id": "KPIECE_move_to_magneteinheit_A_62",
    "joint_names": [
        "shoulder_pan_joint",
        "shoulder_lift_joint",
        "elbow_joint",
        "wrist_1_joint",
        "wrist_2_joint",
        "wrist_3_joint"
    ],
    "metrics": {
        "cart_traj_len": 3.7398271097023508,
        "distance_elbow_joint": 5.07832389397165,
        "distance_shoulder_lift_joint": 1.520583248754932,
        "distance_shoulder_pan_joint": 3.7153758733221434,
        "distance_wrist_1_joint": 5.734194746529409,
        "distance_wrist_2_joint": 1.4323996016001364,
        "distance_wrist_3_joint": 5.874951535084537,
        "smoothness": 0.2736277385649959,
        "time": 0.119030056,
        "traj_len": 4.832786866732569,
        "weighted_distance": 6.5017171822189725
    },
    "planner": "KPIECE",
    "start": {
        "state": {
            "elbow_joint": -1.9196185241190666,
            "shoulder_lift_joint": -1.2443396400964142,
            "shoulder_pan_joint": 2.6996025414629847,
            "wrist_1_joint": -1.5485510000780065,
            "wrist_2_joint": -1.5709468930060704,
            "wrist_3_joint": 0.4420197071253992
        }
    },
    "waypoints": [
        {
            "positions": [
                2.6996025414629847,
                -1.2443396400964142,
                -1.9196185241190666,
                -1.5485510000780065,
                -1.5709468930060704,
                0.4420197071253992
            ]
        },
        {
            "positions": [
                2.607068675134393,
                -1.2599231086416456,
                -1.7871712831835294,
                -1.5812071782401875,
                -1.5480136503530055,
                0.348323927332266
            ]
        },
        {
            "positions": [
                2.5145348088058017,
                -1.275506577186877,
                -1.6547240422479923,
                -1.6138633564023688,
                -1.5250804076999407,
                0.25462814753913293
            ]
        },
        {
            "positions": [
                2.4220009424772098,
                -1.2910900457321084,
                -1.522276801312455,
                -1.6465195345645498,
                -1.5021471650468758,
                0.16093236774599978
            ]
        },
        {
            "positions": [
                2.3294670761486183,
                -1.3066735142773396,
                -1.389829560376918,
                -1.6791757127267308,
                -1.479213922393811,
                0.06723658795286669
            ]
        },
        {
            "positions": [
                2.2369332098200267,
                -1.322256982822571,
                -1.2573823194413807,
                -1.711831890888912,
                -1.4562806797407462,
                -0.026459191840266405
            ]
        },
        {
            "positions": [
                2.1443993434914352,
                -1.3378404513678024,
                -1.1249350785058434,
                -1.744488069051093,
                -1.4333474370876813,
                -0.12015497163339961
            ]
        },
        {
            "positions": [
                2.0518654771628437,
                -1.3534239199130338,
                -0.9924878375703065,
                -1.7771442472132741,
                -1.4104141944346165,
                -0.21385075142653265
            ]
        },
        {
            "positions": [
                1.959331610834252,
                -1.3690073884582652,
                -0.8600405966347693,
                -1.8098004253754554,
                -1.3874809517815516,
                -0.3075465312196658
            ]
        },
        {
            "positions": [
                1.8667977445056605,
                -1.3845908570034966,
                -0.727593355699232,
                -1.8424566035376364,
                -1.3645477091284868,
                -0.40124231101279884
            ]
        },
        {
            "positions": [
                1.7742638781770688,
                -1.4001743255487278,
                -0.5951461147636949,
                -1.8751127816998174,
                -1.341614466475422,
                -0.494938090805932
            ]
        },
        {
            "positions": [
                1.6817300118484773,
                -1.4157577940939592,
                -0.46269887382815766,
                -1.9077689598619987,
                -1.3186812238223569,
                -0.5886338705990651
            ]
        },
        {
            "positions": [
                1.5891961455198855,
                -1.4313412626391906,
                -0.3302516328926204,
                -1.9404251380241797,
                -1.295747981169292,
                -0.6823296503921984
            ]
        },
        {
            "positions": [
                1.4966622791912942,
                -1.446924731184422,
                -0.19780439195708355,
                -1.9730813161863607,
                -1.2728147385162274,
                -0.7760254301853312
            ]
        },
        {
            "positions": [
                1.4041284128627025,
                -1.4625081997296534,
                -0.06535715102154627,
                -2.005737494348542,
                -1.2498814958631626,
                -0.8697212099784645
            ]
        },
        {
            "positions": [
                1.311594546534111,
                -1.4780916682748848,
                0.06709008991399101,
                -2.038393672510723,
                -1.2269482532100975,
                -0.9634169897715975
            ]
        },
        {
            "positions": [
                1.2190606802055193,
                -1.4936751368201162,
                0.19953733084952807,
                -2.071049850672904,
                -1.2040150105570326,
                -1.0571127695647307
            ]
        },
        {
            "positions": [
                1.1265268138769278,
                -1.5092586053653476,
                0.33198457178506535,
                -2.1037060288350853,
                -1.1810817679039678,
                -1.1508085493578637
            ]
        },
        {
            "positions": [
                1.0339929475483363,
                -1.5248420739105788,
                0.46443181272060263,
                -2.1363622069972665,
                -1.158148525250903,
                -1.2445043291509967
            ]
        },
        {
            "positions": [
                0.9414590812197445,
                -1.5404255424558102,
                0.5968790536561399,
                -2.1690183851594473,
                -1.135215282597838,
                -1.3382001089441302
            ]
        },
        {
            "positions": [
                0.848925214891153,
                -1.5560090110010416,
                0.7293262945916767,
                -2.2016745633216286,
                -1.1122820399447733,
                -1.4318958887372633
            ]
        },
        {
            "positions": [
                0.7563913485625613,
                -1.571592479546273,
                0.861773535527214,
                -2.2343307414838094,
                -1.0893487972917084,
                -1.5255916685303963
            ]
        },
        {
            "positions": [
                0.6638574822339698,
                -1.5871759480915044,
                0.9942207764627513,
                -2.2669869196459906,
                -1.0664155546386436,
                -1.6192874483235293
            ]
        },
        {
            "positions": [
                0.5713236159053783,
                -1.6027594166367358,
                1.1266680173982886,
                -2.299643097808172,
                -1.0434823119855787,
                -1.7129832281166624
            ]
        },
        {
            "positions": [
                0.4787897495767863,
                -1.618342885181967,
                1.2591152583338259,
                -2.332299275970353,
                -1.0205490693325139,
                -1.8066790079097959
            ]
        },
        {
            "positions": [
                0.3862558832481948,
                -1.6339263537271984,
                1.3915624992693632,
                -2.364955454132534,
                -0.997615826679449,
                -1.900374787702929
            ]
        },
        {
            "positions": [
                0.29372201691960376,
                -1.6495098222724298,
                1.5240097402048995,
                -2.3976116322947147,
                -0.9746825840263843,
                -1.9940705674960615
            ]
        },
        {
            "positions": [
                0.20118815059101225,
                -1.6650932908176612,
                1.6564569811404368,
                -2.430267810456896,
                -0.9517493413733195,
                -2.0877663472891945
            ]
        },
        {
            "positions": [
                0.1086542842624203,
                -1.6806767593628926,
                1.788904222075974,
                -2.4629239886190772,
                -0.9288160987202546,
                -2.181462127082328
            ]
        },
        {
            "positions": [
                0.01612041793382879,
                -1.696260227908124,
                1.9213514630115114,
                -2.4955801667812585,
                -0.9058828560671898,
                -2.275157906875461
            ]
        },
        {
            "positions": [
                -0.07641344839476272,
                -1.7118436964533554,
                2.0537987039470487,
                -2.5282363449434393,
                -0.8829496134141248,
                -2.368853686668594
            ]
        },
        {
            "positions": [
                -0.16894731472335422,
                -1.7274271649985868,
                2.1862459448825855,
                -2.5608925231056205,
                -0.86001637076106,
                -2.462549466461727
            ]
        },
        {
            "positions": [
                -0.2614811810519462,
                -1.743010633543818,
                2.318693185818123,
                -2.5935487012678013,
                -0.8370831281079951,
                -2.5562452462548606
            ]
        },
        {
            "positions": [
                -0.3540150473805377,
                -1.7585941020890494,
                2.45114042675366,
                -2.6262048794299826,
                -0.8141498854549303,
                -2.6499410260479936
            ]
        },
        {
            "positions": [
                -0.4465489137091292,
                -1.7741775706342808,
                2.583587667689197,
                -2.658861057592164,
                -0.7912166428018654,
                -2.7436368058411267
            ]
        },
        {
            "positions": [
                -0.4246556668572048,
                -1.736071981472086,
                2.5614677560675285,
                -2.481019338783885,
                -0.7661139754404834,
                -2.640202381913511
            ]
        },
        {
            "positions": [
                -0.40276242000528045,
                -1.697966392309891,
                2.53934784444586,
                -2.303177619975606,
                -0.7410113080791014,
                -2.536767957985895
            ]
        },
        {
            "positions": [
                -0.3808691731533561,
                -1.6598608031476965,
                2.5172279328241918,
                -2.125335901167327,
                -0.7159086407177195,
                -2.433333534058279
            ]
        },
        {
            "positions": [
                -0.3589759263014317,
                -1.6217552139855016,
                2.4951080212025234,
                -1.9474941823590481,
                -0.6908059733563375,
                -2.329899110130663
            ]
        },
        {
            "positions": [
                -0.3370826794495073,
                -1.5836496248233067,
                2.472988109580855,
                -1.7696524635507693,
                -0.6657033059949555,
                -2.2264646862030473
            ]
        },
        {
            "positions": [
                -0.315189432597583,
                -1.5455440356611119,
                2.4508681979591866,
                -1.5918107447424903,
                -0.6406006386335735,
                -2.1230302622754316
            ]
        },
        {
            "positions": [
                -0.29329618574565863,
                -1.507438446498917,
                2.4287482863375187,
                -1.4139690259342117,
                -0.6154979712721916,
                -2.0195958383478154
            ]
        },
        {
            "positions": [
                -0.27140293889373424,
                -1.4693328573367221,
                2.4066283747158503,
                -1.2361273071259327,
                -0.5903953039108096,
                -1.9161614144201995
            ]
        },
        {
            "positions": [
                -0.2495096920418099,
                -1.4312272681745275,
                2.384508463094182,
                -1.0582855883176538,
                -0.5652926365494276,
                -1.8127269904925836
            ]
        },
        {
            "positions": [
                -0.2276164451898855,
                -1.3931216790123326,
                2.3623885514725136,
                -0.8804438695093748,
                -0.5401899691880456,
                -1.7092925665649676
            ]
        },
        {
            "positions": [
                -0.20572319833796116,
                -1.3550160898501378,
                2.340268639850845,
                -0.702602150701096,
                -0.5150873018266637,
                -1.605858142637352
            ]
        },
        {
            "positions": [
                -0.18382995148603676,
                -1.316910500687943,
                2.318148728229177,
                -0.5247604318928167,
                -0.4899846344652817,
                -1.502423718709736
            ]
        },
        {
            "positions": [
                -0.16193670463411242,
                -1.2788049115257483,
                2.2960288166075085,
                -0.34691871308453814,
                -0.46488196710389973,
                -1.39898929478212
            ]
        },
        {
            "positions": [
                -0.14004345778218807,
                -1.2406993223635534,
                2.27390890498584,
                -0.16907699427625955,
                -0.4397792997425178,
                -1.2955548708545042
            ]
        },
        {
            "positions": [
                -0.11815021093026373,
                -1.2025937332013585,
                2.2517889933641717,
                0.008764724532019486,
                -0.41467663238113583,
                -1.1921204469268885
            ]
        },
        {
            "positions": [
                -0.09625696407833928,
                -1.1644881440391637,
                2.2296690817425033,
                0.18660644334029852,
                -0.3895739650197538,
                -1.0886860229992723
            ]
        },
        {
            "positions": [
                -0.07436371722641494,
                -1.1263825548769688,
                2.207549170120835,
                0.36444816214857756,
                -0.36447129765837183,
                -0.9852515990716566
            ]
        },
        {
            "positions": [
                -0.052470470374490596,
                -1.088276965714774,
                2.1854292584991666,
                0.5422898809568562,
                -0.3393686302969899,
                -0.8818171751440407
            ]
        },
        {
            "positions": [
                -0.030577223522566255,
                -1.0501713765525793,
                2.163309346877498,
                0.7201315997651352,
                -0.3142659629356079,
                -0.7783827512164248
            ]
        },
        {
            "positions": [
                -0.008683976670641802,
                -1.0120657873903842,
                2.1411894352558303,
                0.8979733185734142,
                -0.2891632955742258,
                -0.6749483272888086
            ]
        },
        {
            "positions": [
                0.01320927018128254,
                -0.9739601982281896,
                2.119069523634162,
                1.0758150373816933,
                -0.26406062821284393,
                -0.5715139033611929
            ]
        },
        {
            "positions": [
                0.03510251703320688,
                -0.9358546090659948,
                2.0969496120124935,
                1.2536567561899719,
                -0.23895796085146193,
                -0.4680794794335772
            ]
        },
        {
            "positions": [
                0.05699576388513128,
                -0.8977490199038,
                2.074829700390825,
                1.431498474998251,
                -0.21385529349008003,
                -0.36464505550596105
            ]
        },
        {
            "positions": [
                0.07888901073705568,
                -0.8596434307416051,
                2.0527097887691568,
                1.6093401938065304,
                -0.18875262612869792,
                -0.26121063157834534
            ]
        },
        {
            "positions": [
                0.10078225758897996,
                -0.8215378415794102,
                2.0305898771474884,
                1.787181912614809,
                -0.16364995876731603,
                -0.1577762076507292
            ]
        },
        {
            "positions": [
                0.12267550444090436,
                -0.7834322524172155,
                2.00846996552582,
                1.9650236314230873,
                -0.13854729140593405,
                -0.054341783723113525
            ]
        }
    ]
}