{
    "goal": {
        "global_pose": {
            "orientation": {
                "w": 0.005598929693374612,
                "x": 0.007748599140229565,
                "y": 0.7110244013736278,
                "z": -0.7031023480610252
            },
            "position": {
                "x": 0.1141497679147869,
                "y": -0.7141253447532654,
                "z": 0.3711530566215515
            }
        },
        "name": "move_to_auspresseinheit_B"
    },
    "id": "KPIECE_move_to_auspresseinheit_B_150",
    "joint_names": [
        "shoulder_pan_joint",
        "shoulder_lift_joint",
        "elbow_joint",
        "wrist_1_joint",
        "wrist_2_joint",
        "wrist_3_joint"
    ],
    "metrics": {
        "cart_traj_len": 0.5647910309363526,
        "distance_elbow_joint": 0.0654980907164866,
        "distance_shoulder_lift_joint": 0.29428645020150723,
        "distance_shoulder_pan_joint": 0.5757804336120476,
        "distance_wrist_1_joint": 0.3390618331489994,
        "distance_wrist_2_joint": 1.0023680400716504,
        "distance_wrist_3_joint": 0.009233894536194942,
        "smoothness": 0.0,
        "time": 0.271199219,
        "traj_len": 1.512028022983333,
        "weighted_distance": 1.9094832820896668
    },
    "planner": "KPIECE",
    "start": {
        "state": {
            "elbow_joint": 2.0193083361928714,
            "shoulder_lift_joint": -1.1220246554650708,
            "shoulder_pan_joint": -1.0952077554168747,
            "wrist_1_joint": -0.8559753972642168,
            "wrist_2_joint": 0.4759566250798843,
            "wrist_3_joint": -3.1240929996934557
        }
    },
    "waypoints": [
        {
            "positions": [
                -1.0952077554168747,
                -1.1220246554650708,
                2.0193083361928714,
                -0.8559753972642168,
                0.4759566250798843,
                -3.1240929996934557
            ]
        },
        {
            "positions": [
                -1.1911711610188827,
                -1.171072397165322,
                2.0083919877401235,
                -0.7994650917393835,
                0.643017965091826,
                -3.1225540172707564
            ]
        },
        {
            "positions": [
                -1.2871345666208904,
                -1.2201201388655731,
                1.9974756392873758,
                -0.7429547862145504,
                0.8100793051037678,
                -3.121015034848057
            ]
        },
        {
            "positions": [
                -1.3830979722228984,
                -1.2691678805658244,
                1.9865592908346281,
                -0.6864444806897171,
                0.9771406451157094,
                -3.119476052425358
            ]
        },
        {
            "positions": [
                -1.4790613778249062,
                -1.3182156222660757,
                1.9756429423818804,
                -0.6299341751648839,
                1.1442019851276513,
                -3.117937070002659
            ]
        },
        {
            "positions": [
                -1.5750247834269144,
                -1.3672633639663268,
                1.9647265939291325,
                -0.5734238696400507,
                1.3112633251395929,
                -3.11639808757996
            ]
        },
        {
            "positions": [
                -1.6709881890289222,
                -1.416311105666578,
                1.9538102454763848,
                -0.5169135641152174,
                1.4783246651515347,
                -3.1148591051572607
            ]
        }
    ]
}