{
    "goal": {
        "global_pose": {
            "orientation": {
                "w": -0.00223480608172531,
                "x": 0.0024358444001904467,
                "y": 0.7094548369677653,
                "z": -0.704743149386269
            },
            "position": {
                "x": 0.6205249238014221,
                "y": -0.6371506643295288,
                "z": 0.19426114857196808
            }
        },
        "name": "move_to_magneteinheit_B"
    },
    "id": "KPIECE_move_to_magneteinheit_B_78",
    "joint_names": [
        "shoulder_pan_joint",
        "shoulder_lift_joint",
        "elbow_joint",
        "wrist_1_joint",
        "wrist_2_joint",
        "wrist_3_joint"
    ],
    "metrics": {
        "cart_traj_len": 4.05299702788648,
        "distance_elbow_joint": 5.328789019137169,
        "distance_shoulder_lift_joint": 1.1294936626713925,
        "distance_shoulder_pan_joint": 2.8225340194031516,
        "distance_wrist_1_joint": 6.756662731011591,
        "distance_wrist_2_joint": 1.176250928899383,
        "distance_wrist_3_joint": 4.1327134253542654,
        "smoothness": 0.3175213439178296,
        "time": 2.497654428,
        "traj_len": 4.6202211837180425,
        "weighted_distance": 6.127379888426738
    },
    "planner": "KPIECE",
    "start": {
        "state": {
            "elbow_joint": 2.6216224122426386,
            "shoulder_lift_joint": -1.4174107377796124,
            "shoulder_pan_joint": 0.7066234856936794,
            "wrist_1_joint": 1.9546482284002225,
            "wrist_2_joint": -0.7096286983471962,
            "wrist_3_joint": 0.005740856962016249
        }
    },
    "waypoints": [
        {
            "positions": [
                0.7066234856936794,
                -1.4174107377796124,
                2.6216224122426386,
                1.9546482284002225,
                -0.7096286983471962,
                0.005740856962016249
            ]
        },
        {
            "positions": [
                0.5921970161923592,
                -1.4002205607837093,
                2.58789035851777,
                1.9385142385651535,
                -0.6066714653844985,
                0.1006554128457829
            ]
        },
        {
            "positions": [
                0.477770546691039,
                -1.383030383787806,
                2.5541583047929017,
                1.9223802487300843,
                -0.5037142324218007,
                0.19556996872954957
            ]
        },
        {
            "positions": [
                0.4265305042534914,
                -1.4321939859316,
                2.431609400016818,
                1.8271739594651633,
                -0.4729645314940797,
                0.18696958229933267
            ]
        },
        {
            "positions": [
                0.37529046181594383,
                -1.481357588075394,
                2.3090604952407334,
                1.7319676702002422,
                -0.4422148305663587,
                0.17836919586911576
            ]
        },
        {
            "positions": [
                0.3240504193783962,
                -1.530521190219188,
                2.1865115904646495,
                1.6367613809353212,
                -0.4114651296386377,
                0.16976880943889883
            ]
        },
        {
            "positions": [
                0.2728103769408486,
                -1.579684792362982,
                2.0639626856885656,
                1.5415550916704002,
                -0.3807154287109167,
                0.16116842300868192
            ]
        },
        {
            "positions": [
                0.3169802396776046,
                -1.5838906403379889,
                1.9291911927779193,
                1.4228665155839948,
                -0.36388826899359317,
                0.0964626782456273
            ]
        },
        {
            "positions": [
                0.3611501024143606,
                -1.588096488312996,
                1.794419699867273,
                1.3041779394975896,
                -0.34706110927626965,
                0.03175693348257269
            ]
        },
        {
            "positions": [
                0.40531996515111657,
                -1.5923023362880029,
                1.6596482069566267,
                1.1854893634111843,
                -0.3302339495589462,
                -0.03294881128048194
            ]
        },
        {
            "positions": [
                0.4494898278878726,
                -1.59650818426301,
                1.5248767140459805,
                1.0668007873247791,
                -0.3134067898416227,
                -0.09765455604353654
            ]
        },
        {
            "positions": [
                0.4936596906246286,
                -1.600714032238017,
                1.3901052211353342,
                0.9481122112383737,
                -0.29657963012429917,
                -0.16236030080659117
            ]
        },
        {
            "positions": [
                0.5378295533613846,
                -1.604919880213024,
                1.255333728224688,
                0.8294236351519685,
                -0.2797524704069757,
                -0.2270660455696458
            ]
        },
        {
            "positions": [
                0.5819994160981405,
                -1.609125728188031,
                1.1205622353140416,
                0.7107350590655632,
                -0.2629253106896522,
                -0.2917717903327004
            ]
        },
        {
            "positions": [
                0.6261692788348966,
                -1.6133315761630378,
                0.9857907424033954,
                0.592046482979158,
                -0.24609815097232868,
                -0.35647753509575497
            ]
        },
        {
            "positions": [
                0.6703391415716526,
                -1.617537424138045,
                0.8510192494927491,
                0.4733579068927527,
                -0.22927099125500516,
                -0.42118327985880966
            ]
        },
        {
            "positions": [
                0.7145090043084086,
                -1.6217432721130518,
                0.7162477565821028,
                0.3546693308063473,
                -0.21244383153768168,
                -0.48588902462186423
            ]
        },
        {
            "positions": [
                0.7586788670451645,
                -1.625949120088059,
                0.5814762636714566,
                0.23598075471994218,
                -0.1956166718203582,
                -0.5505947693849189
            ]
        },
        {
            "positions": [
                0.8028487297819207,
                -1.6301549680630658,
                0.4467047707608103,
                0.1172921786335368,
                -0.17878951210303468,
                -0.6153005141479735
            ]
        },
        {
            "positions": [
                0.8470185925186766,
                -1.634360816038073,
                0.311933277850164,
                -0.0013963974528685696,
                -0.16196235238571116,
                -0.6800062589110282
            ]
        },
        {
            "positions": [
                0.8911884552554326,
                -1.6385666640130798,
                0.17716178493951773,
                -0.12008497353927372,
                -0.14513519266838767,
                -0.7447120036740827
            ]
        },
        {
            "positions": [
                0.9353583179921885,
                -1.6427725119880867,
                0.04239029202887146,
                -0.23877354962567887,
                -0.1283080329510642,
                -0.8094177484371373
            ]
        },
        {
            "positions": [
                0.9795281807289447,
                -1.6469783599630938,
                -0.09238120088177482,
                -0.35746212571208424,
                -0.11148087323374067,
                -0.8741234932001919
            ]
        },
        {
            "positions": [
                1.0236980434657006,
                -1.6511842079381007,
                -0.2271526937924211,
                -0.4761507017984894,
                -0.09465371351641721,
                -0.9388292379632465
            ]
        },
        {
            "positions": [
                1.0678679062024568,
                -1.6553900559131078,
                -0.36192418670306736,
                -0.5948392778848948,
                -0.07782655379909365,
                -1.0035349827263014
            ]
        },
        {
            "positions": [
                1.1120377689392127,
                -1.6595959038881147,
                -0.49669567961371364,
                -0.7135278539713001,
                -0.06099939408177013,
                -1.068240727489356
            ]
        },
        {
            "positions": [
                1.1562076316759686,
                -1.6638017518631218,
                -0.6314671725243599,
                -0.8322164300577055,
                -0.04417223436444667,
                -1.1329464722524105
            ]
        },
        {
            "positions": [
                1.2003774944127246,
                -1.6680075998381287,
                -0.7662386654350062,
                -0.9509050061441104,
                -0.027345074647123158,
                -1.1976522170154653
            ]
        },
        {
            "positions": [
                1.2445473571494805,
                -1.6722134478131356,
                -0.9010101583456525,
                -1.0695935822305158,
                -0.010517914929799699,
                -1.2623579617785199
            ]
        },
        {
            "positions": [
                1.2887172198862364,
                -1.6764192957881427,
                -1.0357816512562987,
                -1.1882821583169212,
                0.006309244787523816,
                -1.3270637065415745
            ]
        },
        {
            "positions": [
                1.3328870826229926,
                -1.6806251437631496,
                -1.170553144166945,
                -1.3069707344033266,
                0.02313640450484733,
                -1.391769451304629
            ]
        },
        {
            "positions": [
                1.3770569453597485,
                -1.6848309917381568,
                -1.3053246370775913,
                -1.425659310489732,
                0.039963564222170844,
                -1.4564751960676838
            ]
        },
        {
            "positions": [
                1.4212268080965047,
                -1.6890368397131637,
                -1.4400961299882375,
                -1.5443478865761373,
                0.05679072393949436,
                -1.5211809408307384
            ]
        },
        {
            "positions": [
                1.4653966708332606,
                -1.6932426876881708,
                -1.5748676228988838,
                -1.6630364626625422,
                0.07361788365681782,
                -1.585886685593793
            ]
        },
        {
            "positions": [
                1.5095665335700166,
                -1.6974485356631777,
                -1.7096391158095303,
                -1.7817250387489474,
                0.09044504337414133,
                -1.6505924303568476
            ]
        },
        {
            "positions": [
                1.6412325873174198,
                -1.6981222401689418,
                -1.8141696095254016,
                -1.8248978688249258,
                0.10123895000924288,
                -1.72287947508538
            ]
        },
        {
            "positions": [
                1.772898641064823,
                -1.6987959446747058,
                -1.9187001032412732,
                -1.8680706989009042,
                0.11203285664434443,
                -1.7951665198139126
            ]
        },
        {
            "positions": [
                1.9045646948122266,
                -1.69946964918047,
                -2.0232305969571445,
                -1.9112435289768825,
                0.12282676327944597,
                -1.867453564542445
            ]
        },
        {
            "positions": [
                2.008133645982459,
                -1.74003994628469,
                -2.0560456741926894,
                -1.784490291504357,
                0.14803899758696107,
                -1.8080763658821635
            ]
        },
        {
            "positions": [
                2.1117025971526915,
                -1.7806102433889102,
                -2.0888607514282347,
                -1.6577370540318315,
                0.17325123189447614,
                -1.748699167221882
            ]
        },
        {
            "positions": [
                2.2152715483229235,
                -1.8211805404931303,
                -2.1216758286637796,
                -1.530983816559306,
                0.19846346620199123,
                -1.6893219685616003
            ]
        },
        {
            "positions": [
                2.318840499493156,
                -1.8617508375973504,
                -2.154490905899325,
                -1.4042305790867804,
                0.2236757005095063,
                -1.6299447699013188
            ]
        },
        {
            "positions": [
                2.4224094506633884,
                -1.9023211347015705,
                -2.18730598313487,
                -1.2774773416142549,
                0.2488879348170214,
                -1.5705675712410372
            ]
        },
        {
            "positions": [
                2.4394895818725155,
                -1.9434513173991292,
                -2.150173081437751,
                -1.1162627140234083,
                0.2644403845123904,
                -1.4574979435972282
            ]
        },
        {
            "positions": [
                2.456569713081643,
                -1.9845815000966878,
                -2.113040179740632,
                -0.9550480864325614,
                0.2799928342077594,
                -1.3444283159534192
            ]
        },
        {
            "positions": [
                2.47364984429077,
                -2.0257116827942467,
                -2.075907278043513,
                -0.7938334588417149,
                0.2955452839031284,
                -1.2313586883096101
            ]
        },
        {
            "positions": [
                2.4907299754998973,
                -2.066841865491805,
                -2.038774376346394,
                -0.6326188312508682,
                0.31109773359849735,
                -1.1182890606658011
            ]
        },
        {
            "positions": [
                2.5078101067090244,
                -2.107972048189364,
                -2.001641474649275,
                -0.47140420366002145,
                0.32665018329386636,
                -1.0052194330219921
            ]
        },
        {
            "positions": [
                2.524890237918152,
                -2.1491022308869225,
                -1.9645085729521563,
                -0.31018957606917474,
                0.34220263298923537,
                -0.8921498053781831
            ]
        },
        {
            "positions": [
                2.541970369127279,
                -2.1902324135844813,
                -1.9273756712550374,
                -0.14897494847832804,
                0.3577550826846043,
                -0.7790801777343741
            ]
        },
        {
            "positions": [
                2.559050500336406,
                -2.23136259628204,
                -1.8902427695579187,
                0.012239679112518553,
                0.37330753237997333,
                -0.6660105500905651
            ]
        },
        {
            "positions": [
                2.5761306315455337,
                -2.272492778979599,
                -1.8531098678607996,
                0.17345430670336537,
                0.38885998207534234,
                -0.5529409224467561
            ]
        },
        {
            "positions": [
                2.593210762754661,
                -2.3136229616771575,
                -1.8159769661636809,
                0.33466893429421196,
                0.4044124317707113,
                -0.43987129480294707
            ]
        },
        {
            "positions": [
                2.610290893963788,
                -2.354753144374716,
                -1.778844064466562,
                0.4958835618850588,
                0.4199648814660803,
                -0.32680166715913805
            ]
        },
        {
            "positions": [
                2.627371025172915,
                -2.3958833270722746,
                -1.741711162769443,
                0.6570981894759054,
                0.4355173311614493,
                -0.21373203951532904
            ]
        },
        {
            "positions": [
                2.6444511563820425,
                -2.4370135097698333,
                -1.7045782610723241,
                0.8183128170667522,
                0.45106978085681826,
                -0.10066241187152003
            ]
        },
        {
            "positions": [
                2.6615312875911696,
                -2.478143692467392,
                -1.6674453593752052,
                0.9795274446575988,
                0.46662223055218727,
                0.012407215772288902
            ]
        }
    ]
}