{
    "goal": {
        "global_pose": {
            "orientation": {
                "w": 0.7047431468963623,
                "x": -0.7094548344612122,
                "y": 0.0024358443915843964,
                "z": -0.0022348060738295317
            },
            "position": {
                "x": 0.6094750761985779,
                "y": 0.3671506643295288,
                "z": 0.19426114857196808
            }
        },
        "name": "move_to_magneteinheit_A"
    },
    "id": "KPIECE_move_to_magneteinheit_A_68",
    "joint_names": [
        "shoulder_pan_joint",
        "shoulder_lift_joint",
        "elbow_joint",
        "wrist_1_joint",
        "wrist_2_joint",
        "wrist_3_joint"
    ],
    "metrics": {
        "cart_traj_len": 3.195880586677193,
        "distance_elbow_joint": 3.917201215593181,
        "distance_shoulder_lift_joint": 0.6316952598362995,
        "distance_shoulder_pan_joint": 2.9583332513393135,
        "distance_wrist_1_joint": 3.4749136804873357,
        "distance_wrist_2_joint": 1.4361434060655638,
        "distance_wrist_3_joint": 0.6872566766547094,
        "smoothness": 0.12608584310207635,
        "time": 0.271887255,
        "traj_len": 3.6201579371591515,
        "weighted_distance": 4.403534254418685
    },
    "planner": "KPIECE",
    "start": {
        "state": {
            "elbow_joint": -1.9196185241190666,
            "shoulder_lift_joint": -1.2443396400964142,
            "shoulder_pan_joint": 2.6996025414629847,
            "wrist_1_joint": -1.5485510000780065,
            "wrist_2_joint": -1.5709468930060704,
            "wrist_3_joint": 0.4420197071253992
        }
    },
    "waypoints": [
        {
            "positions": [
                2.6996025414629847,
                -1.2443396400964142,
                -1.9196185241190666,
                -1.5485510000780065,
                -1.5709468930060704,
                0.4420197071253992
            ]
        },
        {
            "positions": [
                2.5401380925702313,
                -1.2547200321296295,
                -1.8451943413335354,
                -1.4868429036904895,
                -1.5393624129091505,
                0.3931561122103775
            ]
        },
        {
            "positions": [
                2.3806736436774782,
                -1.2651004241628445,
                -1.7707701585480045,
                -1.4251348073029726,
                -1.5077779328122307,
                0.34429251729535576
            ]
        },
        {
            "positions": [
                2.221209194784725,
                -1.2754808161960596,
                -1.6963459757624735,
                -1.3634267109154556,
                -1.4761934527153109,
                0.295428922380334
            ]
        },
        {
            "positions": [
                2.0617447458919713,
                -1.2858612082292749,
                -1.6219217929769423,
                -1.301718614527939,
                -1.444608972618391,
                0.24656532746531235
            ]
        },
        {
            "positions": [
                1.9022802969992179,
                -1.2962416002624901,
                -1.547497610191411,
                -1.240010518140422,
                -1.4130244925214712,
                0.19770173255029064
            ]
        },
        {
            "positions": [
                1.7428158481064646,
                -1.3066219922957052,
                -1.47307342740588,
                -1.178302421752905,
                -1.3814400124245514,
                0.14883813763526893
            ]
        },
        {
            "positions": [
                1.5833513992137114,
                -1.3170023843289203,
                -1.3986492446203491,
                -1.116594325365388,
                -1.3498555323276316,
                0.0999745427202472
            ]
        },
        {
            "positions": [
                1.423886950320958,
                -1.3273827763621355,
                -1.324225061834818,
                -1.054886228977871,
                -1.3182710522307117,
                0.05111094780522549
            ]
        },
        {
            "positions": [
                1.3528421413263103,
                -1.3121111066908557,
                -1.1971748021522284,
                -0.9383105082097272,
                -1.273571305373271,
                0.04262364434512107
            ]
        },
        {
            "positions": [
                1.2817973323316627,
                -1.296839437019576,
                -1.0701245424696386,
                -0.8217347874415831,
                -1.22887155851583,
                0.03413634088501665
            ]
        },
        {
            "positions": [
                1.210752523337015,
                -1.281567767348296,
                -0.9430742827870491,
                -0.7051590666734391,
                -1.1841718116583893,
                0.025649037424912237
            ]
        },
        {
            "positions": [
                1.1397077143423675,
                -1.2662960976770161,
                -0.8160240231044594,
                -0.5885833459052952,
                -1.1394720648009484,
                0.017161733964807815
            ]
        },
        {
            "positions": [
                1.0686629053477197,
                -1.2510244280057363,
                -0.6889737634218698,
                -0.4720076251371511,
                -1.0947723179435078,
                0.008674430504703401
            ]
        },
        {
            "positions": [
                0.9976180963530722,
                -1.2357527583344565,
                -0.5619235037392801,
                -0.3554319043690072,
                -1.050072571086067,
                0.00018712704459898644
            ]
        },
        {
            "positions": [
                0.9265732873584246,
                -1.2204810886631767,
                -0.4348732440566905,
                -0.23885618360086314,
                -1.0053728242286262,
                -0.008300176415505435
            ]
        },
        {
            "positions": [
                0.855528478363777,
                -1.2052094189918967,
                -0.30782298437410094,
                -0.1222804628327192,
                -0.9606730773711853,
                -0.016787479875609856
            ]
        },
        {
            "positions": [
                0.7844836693691294,
                -1.189937749320617,
                -0.18077272469151118,
                -0.0057047420645752744,
                -0.9159733305137445,
                -0.02527478333571427
            ]
        },
        {
            "positions": [
                0.7134388603744817,
                -1.1746660796493371,
                -0.05372246500892164,
                0.11087097870356888,
                -0.8712735836563037,
                -0.033762086795818685
            ]
        },
        {
            "positions": [
                0.6423940513798341,
                -1.1593944099780573,
                0.07332779467366812,
                0.2274466994717128,
                -0.8265738367988629,
                -0.042249390255923114
            ]
        },
        {
            "positions": [
                0.5713492423851865,
                -1.1441227403067775,
                0.20037805435625766,
                0.34402242023985674,
                -0.7818740899414222,
                -0.050736693716027514
            ]
        },
        {
            "positions": [
                0.5003044333905388,
                -1.1288510706354975,
                0.3274283140388474,
                0.4605981410080009,
                -0.7371743430839812,
                -0.05922399717613194
            ]
        },
        {
            "positions": [
                0.42925962439589127,
                -1.1135794009642177,
                0.45447857372143696,
                0.5771738617761448,
                -0.6924745962265405,
                -0.06771130063623636
            ]
        },
        {
            "positions": [
                0.35821481540124345,
                -1.098307731292938,
                0.5815288334040267,
                0.6937495825442888,
                -0.6477748493690997,
                -0.07619860409634077
            ]
        },
        {
            "positions": [
                0.28717000640659607,
                -1.083036061621658,
                0.708579093086616,
                0.8103253033124327,
                -0.6030751025116589,
                -0.0846859075564452
            ]
        },
        {
            "positions": [
                0.21612519741194824,
                -1.0677643919503783,
                0.8356293527692058,
                0.9269010240805768,
                -0.558375355654218,
                -0.09317321101654963
            ]
        },
        {
            "positions": [
                0.14508038841730087,
                -1.0524927222790985,
                0.9626796124517956,
                1.0434767448487205,
                -0.5136756087967773,
                -0.10166051447665403
            ]
        },
        {
            "positions": [
                0.07403557942265304,
                -1.0372210526078185,
                1.0897298721343853,
                1.160052465616865,
                -0.4689758619393365,
                -0.11014781793675846
            ]
        },
        {
            "positions": [
                0.0029907704280054404,
                -1.0219493829365387,
                1.2167801318169746,
                1.2766281863850089,
                -0.42427611508189567,
                -0.11863512139686286
            ]
        },
        {
            "positions": [
                -0.06805403856664219,
                -1.006677713265259,
                1.3438303914995644,
                1.3932039071531528,
                -0.3795763682244549,
                -0.1271224248569673
            ]
        },
        {
            "positions": [
                -0.03483559355590002,
                -0.966300388093523,
                1.4641741638106769,
                1.4981548656368244,
                -0.3363246594073122,
                -0.11055500615540378
            ]
        },
        {
            "positions": [
                -0.0016171485451578482,
                -0.9259230629217872,
                1.5845179361217896,
                1.603105824120496,
                -0.29307295059016947,
                -0.09398758745384028
            ]
        },
        {
            "positions": [
                0.03160129646558432,
                -0.8855457377500513,
                1.704861708432902,
                1.7080567826041675,
                -0.2498212417730268,
                -0.07742016875227678
            ]
        },
        {
            "positions": [
                0.06481974147632649,
                -0.8451684125783154,
                1.8252054807440148,
                1.8130077410878391,
                -0.2065695329558841,
                -0.06085275005071328
            ]
        },
        {
            "positions": [
                0.09803818648706868,
                -0.8047910874065796,
                1.9455492530551273,
                1.9179586995715108,
                -0.1633178241387414,
                -0.04428533134914977
            ]
        },
        {
            "positions": [
                0.12262263274304444,
                -0.7787306527915574,
                1.9975826914741142,
                1.9263626804093295,
                -0.13480348694050648,
                -0.009007880184624104
            ]
        }
    ]
}