{
    "goal": {
        "global_pose": {
            "orientation": {
                "w": -0.4816463035849501,
                "x": 0.5182115481033762,
                "y": 0.4908360881923453,
                "z": -0.5084816262002911
            },
            "position": {
                "x": -0.8240239810943604,
                "y": 0.19912469901144506,
                "z": 0.16403168439865112
            }
        },
        "name": "move_to_storage_D"
    },
    "id": "KPIECE_move_to_storage_D_105",
    "joint_names": [
        "shoulder_pan_joint",
        "shoulder_lift_joint",
        "elbow_joint",
        "wrist_1_joint",
        "wrist_2_joint",
        "wrist_3_joint"
    ],
    "metrics": {
        "cart_traj_len": 4.131057620684865,
        "distance_elbow_joint": 4.2114618979350835,
        "distance_shoulder_lift_joint": 1.2634082852287905,
        "distance_shoulder_pan_joint": 2.8142041523392787,
        "distance_wrist_1_joint": 2.2674683911081823,
        "distance_wrist_2_joint": 0.8817681408122335,
        "distance_wrist_3_joint": 4.352995718682932,
        "smoothness": 0.11297989928056833,
        "time": 0.218267266,
        "traj_len": 3.9738276995997825,
        "weighted_distance": 5.257997200017586
    },
    "planner": "KPIECE",
    "start": {
        "state": {
            "elbow_joint": -2.384821988534728,
            "shoulder_lift_joint": -2.2788054721415256,
            "shoulder_pan_joint": -0.1854694642142757,
            "wrist_1_joint": 1.4845938289331202,
            "wrist_2_joint": 0.17898776772866878,
            "wrist_3_joint": 0.037105688729662994
        }
    },
    "waypoints": [
        {
            "positions": [
                -0.1854694642142757,
                -2.2788054721415256,
                -2.384821988534728,
                1.4845938289331202,
                0.17898776772866878,
                0.037105688729662994
            ]
        },
        {
            "positions": [
                -0.0890651222971555,
                -2.255851243357586,
                -2.2755412329374645,
                1.4020919974654065,
                0.19054160447752405,
                0.0926092916015103
            ]
        },
        {
            "positions": [
                0.007339219619964699,
                -2.2328970145736466,
                -2.166260477340201,
                1.3195901659976925,
                0.20209544122637932,
                0.14811289447335757
            ]
        },
        {
            "positions": [
                0.10374356153708489,
                -2.209942785789707,
                -2.0569797217429375,
                1.2370883345299788,
                0.21364927797523459,
                0.20361649734520484
            ]
        },
        {
            "positions": [
                0.2001479034542051,
                -2.186988557005767,
                -1.9476989661456736,
                1.1545865030622648,
                0.22520311472408988,
                0.2591201002170522
            ]
        },
        {
            "positions": [
                0.2965522453713253,
                -2.1640343282218275,
                -1.8384182105484101,
                1.0720846715945511,
                0.23675695147294515,
                0.3146237030888994
            ]
        },
        {
            "positions": [
                0.3929565872884455,
                -2.1410800994378882,
                -1.7291374549511467,
                0.9895828401268374,
                0.24831078822180042,
                0.3701273059607467
            ]
        },
        {
            "positions": [
                0.48936092920556573,
                -2.1181258706539485,
                -1.6198566993538832,
                0.9070810086591236,
                0.25986462497065566,
                0.425630908832594
            ]
        },
        {
            "positions": [
                0.585765271122686,
                -2.095171641870009,
                -1.5105759437566195,
                0.8245791771914097,
                0.27141846171951095,
                0.4811345117044413
            ]
        },
        {
            "positions": [
                0.6821696130398063,
                -2.072217413086069,
                -1.4012951881593558,
                0.7420773457236959,
                0.28297229846836625,
                0.5366381145762886
            ]
        },
        {
            "positions": [
                0.7785739549569264,
                -2.04926318430213,
                -1.2920144325620926,
                0.6595755142559822,
                0.2945261352172215,
                0.5921417174481359
            ]
        },
        {
            "positions": [
                0.8749782968740466,
                -2.02630895551819,
                -1.182733676964829,
                0.5770736827882683,
                0.3060799719660768,
                0.6476453203199832
            ]
        },
        {
            "positions": [
                0.9345040592659862,
                -1.9925908472255855,
                -1.0808137384604568,
                0.5302625530931342,
                0.33135260087030183,
                0.5255352552587494
            ]
        },
        {
            "positions": [
                0.9940298216579259,
                -1.958872738932981,
                -0.9788937999560847,
                0.483451423398,
                0.3566252297745269,
                0.40342519019751566
            ]
        },
        {
            "positions": [
                1.0535555840498656,
                -1.9251546306403766,
                -0.8769738614517125,
                0.43664029370286583,
                0.3818978586787519,
                0.2813151251362819
            ]
        },
        {
            "positions": [
                1.1130813464418052,
                -1.891436522347772,
                -0.7750539229473404,
                0.3898291640077317,
                0.407170487582977,
                0.1592050600750481
            ]
        },
        {
            "positions": [
                1.1726071088337449,
                -1.8577184140551675,
                -0.6731339844429682,
                0.34301803431259753,
                0.4324431164872021,
                0.03709499501381419
            ]
        },
        {
            "positions": [
                1.2321328712256845,
                -1.824000305762563,
                -0.5712140459385961,
                0.2962069046174634,
                0.4577157453914271,
                -0.08501507004741948
            ]
        },
        {
            "positions": [
                1.2916586336176241,
                -1.7902821974699583,
                -0.46929410743422406,
                0.24939577492232923,
                0.4829883742956522,
                -0.20712513510865338
            ]
        },
        {
            "positions": [
                1.3511843960095637,
                -1.756564089177354,
                -0.367374168929852,
                0.2025846452271951,
                0.5082610031998772,
                -0.32923520016988705
            ]
        },
        {
            "positions": [
                1.4107101584015034,
                -1.7228459808847494,
                -0.2654542304254798,
                0.15577351553206092,
                0.5335336321041023,
                -0.45134526523112095
            ]
        },
        {
            "positions": [
                1.470235920793443,
                -1.6891278725921448,
                -0.16353429192110758,
                0.10896238583692675,
                0.5588062610083273,
                -0.5734553302923548
            ]
        },
        {
            "positions": [
                1.5297616831853826,
                -1.6554097642995402,
                -0.06161435341673571,
                0.06215125614179262,
                0.5840788899125524,
                -0.6955653953535883
            ]
        },
        {
            "positions": [
                1.5892874455773223,
                -1.6216916560069357,
                0.0403055850876366,
                0.015340126446658497,
                0.6093515188167775,
                -0.8176754604148222
            ]
        },
        {
            "positions": [
                1.648813207969262,
                -1.5879735477143313,
                0.14222552359200868,
                -0.03147100324847574,
                0.6346241477210025,
                -0.9397855254760561
            ]
        },
        {
            "positions": [
                1.7083389703612015,
                -1.5542554394217267,
                0.24414546209638077,
                -0.07828213294360986,
                0.6598967766252276,
                -1.06189559053729
            ]
        },
        {
            "positions": [
                1.7678647327531412,
                -1.5205373311291221,
                0.3460654006007531,
                -0.1250932626387441,
                0.6851694055294526,
                -1.1840056555985237
            ]
        },
        {
            "positions": [
                1.8273904951450808,
                -1.4868192228365178,
                0.44798533910512495,
                -0.1719043923338781,
                0.7104420344336777,
                -1.3061157206597573
            ]
        },
        {
            "positions": [
                1.8869162575370204,
                -1.4531011145439132,
                0.549905277609497,
                -0.21871552202901223,
                0.7357146633379027,
                -1.4282257857209908
            ]
        },
        {
            "positions": [
                1.94644201992896,
                -1.4193830062513086,
                0.6518252161138693,
                -0.26552665172414647,
                0.7609872922421278,
                -1.5503358507822251
            ]
        },
        {
            "positions": [
                2.0059677823208997,
                -1.385664897958704,
                0.7537451546182412,
                -0.3123377814192806,
                0.7862599211463528,
                -1.6724459158434586
            ]
        },
        {
            "positions": [
                2.0654935447128393,
                -1.3519467896660995,
                0.8556650931226137,
                -0.3591489111144148,
                0.8115325500505779,
                -1.794555980904693
            ]
        },
        {
            "positions": [
                2.125019307104779,
                -1.318228681373495,
                0.9575850316269854,
                -0.40596004080954895,
                0.836805178954803,
                -1.9166660459659264
            ]
        },
        {
            "positions": [
                2.1845450694967186,
                -1.2845105730808903,
                1.0595049701313575,
                -0.4527711705046831,
                0.8620778078590281,
                -2.03877611102716
            ]
        },
        {
            "positions": [
                2.244070831888658,
                -1.2507924647882858,
                1.16142490863573,
                -0.4995823001998172,
                0.8873504367632532,
                -2.160886176088394
            ]
        },
        {
            "positions": [
                2.303596594280598,
                -1.2170743564956814,
                1.263344847140102,
                -0.5463934298949513,
                0.9126230656674781,
                -2.2829962411496276
            ]
        },
        {
            "positions": [
                2.3631223566725374,
                -1.183356248203077,
                1.3652647856444737,
                -0.5932045595900854,
                0.9378956945717032,
                -2.4051063062108615
            ]
        },
        {
            "positions": [
                2.422648119064477,
                -1.1496381399104725,
                1.4671847241488463,
                -0.6400156892852198,
                0.9631683234759283,
                -2.5272163712720954
            ]
        },
        {
            "positions": [
                2.4821738814564167,
                -1.115920031617868,
                1.5691046626532184,
                -0.6868268189803539,
                0.9884409523801534,
                -2.649326436333329
            ]
        },
        {
            "positions": [
                2.5416996438483563,
                -1.0822019233252633,
                1.6710246011575904,
                -0.733637948675488,
                1.0137135812843785,
                -2.771436501394563
            ]
        },
        {
            "positions": [
                2.601225406240296,
                -1.0484838150326588,
                1.7729445396619625,
                -0.7804490783706222,
                1.0389862101886034,
                -2.8935465664557967
            ]
        },
        {
            "positions": [
                2.628734688125003,
                -1.0153971869127352,
                1.8266399094003554,
                -0.7828745621750626,
                1.0607559085409024,
                -3.094810766772629
            ]
        }
    ]
}