{
    "goal": {
        "global_pose": {
            "orientation": {
                "w": 0.7031023480610252,
                "x": -0.7110244013736278,
                "y": 0.0077485991402295624,
                "z": 0.005598929693374583
            },
            "position": {
                "x": -0.8841497679147869,
                "y": 0.44412534475326537,
                "z": 0.3711530566215515
            }
        },
        "name": "move_to_auspresseinheit_D"
    },
    "id": "KPIECE_move_to_auspresseinheit_D_33",
    "joint_names": [
        "shoulder_pan_joint",
        "shoulder_lift_joint",
        "elbow_joint",
        "wrist_1_joint",
        "wrist_2_joint",
        "wrist_3_joint"
    ],
    "metrics": {
        "cart_traj_len": 0.3429845276044334,
        "distance_elbow_joint": 0.6328786391716184,
        "distance_shoulder_lift_joint": 0.11773528006024758,
        "distance_shoulder_pan_joint": 0.1333908891730002,
        "distance_wrist_1_joint": 0.5108685033830436,
        "distance_wrist_2_joint": 1.4435533073432096,
        "distance_wrist_3_joint": 0.014229459090455698,
        "smoothness": 0.0,
        "time": 0.036268389,
        "traj_len": 1.6889807808917114,
        "weighted_distance": 2.1989854040281256
    },
    "planner": "KPIECE",
    "start": {
        "state": {
            "elbow_joint": -1.8275523626775212,
            "shoulder_lift_joint": -2.126789852344167,
            "shoulder_pan_joint": -0.03513704404078235,
            "wrist_1_joint": -2.347782403156801,
            "wrist_2_joint": -1.6058999987535132,
            "wrist_3_joint": -3.0880379163319196
        }
    },
    "waypoints": [
        {
            "positions": [
                -0.03513704404078235,
                -2.126789852344167,
                -1.8275523626775212,
                -2.347782403156801,
                -1.6058999987535132,
                -3.0880379163319196
            ]
        },
        {
            "positions": [
                -0.05181090518740737,
                -2.141506762351698,
                -1.7484425327810689,
                -2.4116409660796814,
                -1.425455835335612,
                -3.0898165987182264
            ]
        },
        {
            "positions": [
                -0.0684847663340324,
                -2.1562236723592285,
                -1.6693327028846165,
                -2.475499529002562,
                -1.2450116719177107,
                -3.0915952811045333
            ]
        },
        {
            "positions": [
                -0.08515862748065742,
                -2.1709405823667596,
                -1.5902228729881642,
                -2.5393580919254424,
                -1.0645675084998096,
                -3.0933739634908406
            ]
        },
        {
            "positions": [
                -0.10183248862728245,
                -2.1856574923742906,
                -1.511113043091712,
                -2.603216654848323,
                -0.8841233450819084,
                -3.0951526458771474
            ]
        },
        {
            "positions": [
                -0.11850634977390748,
                -2.2003744023818217,
                -1.4320032131952596,
                -2.667075217771203,
                -0.7036791816640071,
                -3.0969313282634543
            ]
        },
        {
            "positions": [
                -0.1351802109205325,
                -2.2150913123893528,
                -1.3528933832988075,
                -2.7309337806940834,
                -0.5232350182461061,
                -3.0987100106497616
            ]
        },
        {
            "positions": [
                -0.15185407206715754,
                -2.2298082223968834,
                -1.2737835534023552,
                -2.794792343616964,
                -0.3427908548282048,
                -3.1004886930360684
            ]
        },
        {
            "positions": [
                -0.16852793321378257,
                -2.2445251324044144,
                -1.1946737235059028,
                -2.8586509065398444,
                -0.16234669141030356,
                -3.1022673754223753
            ]
        }
    ]
}