{
    "goal": {
        "global_pose": {
            "orientation": {
                "w": 0.005598929693374612,
                "x": 0.007748599140229565,
                "y": 0.7110244013736278,
                "z": -0.7031023480610252
            },
            "position": {
                "x": -0.8858502320852131,
                "y": -0.7141253447532654,
                "z": 0.3711530566215515
            }
        },
        "name": "move_to_auspresseinheit_C"
    },
    "id": "KPIECE_move_to_auspresseinheit_C_42",
    "joint_names": [
        "shoulder_pan_joint",
        "shoulder_lift_joint",
        "elbow_joint",
        "wrist_1_joint",
        "wrist_2_joint",
        "wrist_3_joint"
    ],
    "metrics": {
        "cart_traj_len": 0.491667550599778,
        "distance_elbow_joint": 0.9884513208094644,
        "distance_shoulder_lift_joint": 0.31905588841635013,
        "distance_shoulder_pan_joint": 0.25617338651469224,
        "distance_wrist_1_joint": 0.6650890695896382,
        "distance_wrist_2_joint": 1.3015637487151024,
        "distance_wrist_3_joint": 0.051938051648822814,
        "smoothness": 8.074349268950106e-16,
        "time": 1.76526039,
        "traj_len": 1.8926889511206193,
        "weighted_distance": 2.377561857722414
    },
    "planner": "KPIECE",
    "start": {
        "state": {
            "elbow_joint": 1.7527959577737207,
            "shoulder_lift_joint": -0.9740617694225068,
            "shoulder_pan_joint": -2.967991417825858,
            "wrist_1_joint": -0.759517768980727,
            "wrist_2_joint": 1.7443932448377408,
            "wrist_3_joint": -3.0840537646736568
        }
    },
    "waypoints": [
        {
            "positions": [
                -2.967991417825858,
                -0.9740617694225068,
                1.7527959577737207,
                -0.759517768980727,
                1.7443932448377408,
                -3.0840537646736568
            ]
        },
        {
            "positions": [
                -2.942374079174389,
                -0.9421561805808718,
                1.6539508256927742,
                -0.6930088620217632,
                1.6142368699662306,
                -3.089247569838539
            ]
        },
        {
            "positions": [
                -2.9167567405229193,
                -0.9102505917392367,
                1.5551056936118277,
                -0.6264999550627993,
                1.4840804950947204,
                -3.0944413750034214
            ]
        },
        {
            "positions": [
                -2.8911394018714502,
                -0.8783450028976018,
                1.4562605615308812,
                -0.5599910481038355,
                1.3539241202232102,
                -3.0996351801683035
            ]
        },
        {
            "positions": [
                -2.865522063219981,
                -0.8464394140559667,
                1.3574154294499348,
                -0.4934821411448717,
                1.2237677453517,
                -3.104828985333186
            ]
        },
        {
            "positions": [
                -2.8399047245685116,
                -0.8145338252143317,
                1.2585702973689885,
                -0.4269732341859079,
                1.0936113704801897,
                -3.110022790498068
            ]
        },
        {
            "positions": [
                -2.8142873859170425,
                -0.7826282363726967,
                1.159725165288042,
                -0.36046432722694405,
                0.9634549956086794,
                -3.1152165956629503
            ]
        },
        {
            "positions": [
                -2.7886700472655734,
                -0.7507226475310617,
                1.0608800332070956,
                -0.29395542026798027,
                0.8332986207371692,
                -3.120410400827833
            ]
        },
        {
            "positions": [
                -2.7630527086141043,
                -0.7188170586894267,
                0.9620349011261491,
                -0.22744651330901644,
                0.7031422458656589,
                -3.125604205992715
            ]
        },
        {
            "positions": [
                -2.737435369962635,
                -0.6869114698477916,
                0.8631897690452027,
                -0.1609376063500526,
                0.5729858709941487,
                -3.1307980111575975
            ]
        },
        {
            "positions": [
                -2.7118180313111657,
                -0.6550058810061566,
                0.7643446369642563,
                -0.09442869939108878,
                0.4428294961226385,
                -3.1359918163224796
            ]
        }
    ]
}