{
    "goal": {
        "global_pose": {
            "orientation": {
                "w": -0.4816463035849501,
                "x": 0.5182115481033762,
                "y": 0.4908360881923453,
                "z": -0.5084816262002911
            },
            "position": {
                "x": -0.8240239810943604,
                "y": 0.19912469901144506,
                "z": 0.16403168439865112
            }
        },
        "name": "move_to_storage_D"
    },
    "id": "KPIECE_move_to_storage_D_17",
    "joint_names": [
        "shoulder_pan_joint",
        "shoulder_lift_joint",
        "elbow_joint",
        "wrist_1_joint",
        "wrist_2_joint",
        "wrist_3_joint"
    ],
    "metrics": {
        "cart_traj_len": 0.5385517918169379,
        "distance_elbow_joint": 0.5591658756633431,
        "distance_shoulder_lift_joint": 0.1565513448357736,
        "distance_shoulder_pan_joint": 0.24041035746463663,
        "distance_wrist_1_joint": 3.86623760846189,
        "distance_wrist_2_joint": 1.775332229159637,
        "distance_wrist_3_joint": 3.214016506517102,
        "smoothness": 0.24795638681825866,
        "time": 0.107417396,
        "traj_len": 3.1323655473303846,
        "weighted_distance": 4.677746976136922
    },
    "planner": "KPIECE",
    "start": {
        "state": {
            "elbow_joint": -2.384821988534728,
            "shoulder_lift_joint": -2.2788054721415256,
            "shoulder_pan_joint": -0.1854694642142757,
            "wrist_1_joint": 1.4845938289331202,
            "wrist_2_joint": 0.17898776772866878,
            "wrist_3_joint": 0.037105688729662994
        }
    },
    "waypoints": [
        {
            "positions": [
                -0.1854694642142757,
                -2.2788054721415256,
                -2.384821988534728,
                1.4845938289331202,
                0.17898776772866878,
                0.037105688729662994
            ]
        },
        {
            "positions": [
                0.010294596246313459,
                -2.280564172896324,
                -2.385998364750707,
                1.502435012620247,
                0.13091087058766393,
                0.08202494121064549
            ]
        },
        {
            "positions": [
                0.008434333871144822,
                -2.27411447939295,
                -2.3627488022737335,
                1.3420851615879652,
                0.058941898420220934,
                -0.05002077770752614
            ]
        },
        {
            "positions": [
                0.006574071495976185,
                -2.267664785889576,
                -2.3394992397967598,
                1.1817353105556836,
                -0.013027073747222062,
                -0.18206649662569777
            ]
        },
        {
            "positions": [
                0.004713809120807548,
                -2.261215092386202,
                -2.3162496773197865,
                1.0213854595234015,
                -0.08499604591466509,
                -0.3141122155438695
            ]
        },
        {
            "positions": [
                0.002853546745638912,
                -2.254765398882828,
                -2.2930001148428127,
                0.8610356084911199,
                -0.15696501808210805,
                -0.446157934462041
            ]
        },
        {
            "positions": [
                0.0009932843704702748,
                -2.2483157053794542,
                -2.2697505523658394,
                0.700685757458838,
                -0.22893399024955113,
                -0.5782036533802127
            ]
        },
        {
            "positions": [
                -0.0008669780046983624,
                -2.24186601187608,
                -2.2465009898888657,
                0.5403359064265563,
                -0.3009029624169941,
                -0.7102493722983844
            ]
        },
        {
            "positions": [
                -0.0027272403798669995,
                -2.2354163183727063,
                -2.2232514274118924,
                0.37998605539427444,
                -0.3728719345844371,
                -0.8422950912165561
            ]
        },
        {
            "positions": [
                -0.004587502755035635,
                -2.228966624869332,
                -2.2000018649349187,
                0.21963620436199283,
                -0.44484090675188004,
                -0.9743408101347275
            ]
        },
        {
            "positions": [
                -0.006447765130204272,
                -2.2225169313659583,
                -2.1767523024579454,
                0.05928635332971077,
                -0.5168098789193231,
                -1.1063865290528994
            ]
        },
        {
            "positions": [
                -0.00830802750537291,
                -2.216067237862584,
                -2.1535027399809716,
                -0.10106349770257106,
                -0.5887788510867662,
                -1.238432247971071
            ]
        },
        {
            "positions": [
                -0.010168289880541546,
                -2.2096175443592103,
                -2.1302531775039983,
                -0.26141334873485267,
                -0.6607478232542091,
                -1.3704779668892426
            ]
        },
        {
            "positions": [
                -0.012028552255710184,
                -2.203167850855836,
                -2.1070036150270246,
                -0.4217631997671345,
                -0.7327167954216521,
                -1.5025236858074142
            ]
        },
        {
            "positions": [
                -0.013888814630878817,
                -2.1967181573524623,
                -2.0837540525500513,
                -0.5821130507994161,
                -0.804685767589095,
                -1.6345694047255859
            ]
        },
        {
            "positions": [
                -0.015749077006047458,
                -2.1902684638490886,
                -2.0605044900730776,
                -0.7424629018316982,
                -0.8766547397565382,
                -1.7666151236437577
            ]
        },
        {
            "positions": [
                -0.017609339381216095,
                -2.1838187703457144,
                -2.0372549275961043,
                -0.9028127528639798,
                -0.9486237119239812,
                -1.8986608425619291
            ]
        },
        {
            "positions": [
                -0.01946960175638473,
                -2.1773690768423406,
                -2.0140053651191305,
                -1.0631626038962614,
                -1.0205926840914241,
                -2.0307065614801005
            ]
        },
        {
            "positions": [
                -0.02132986413155337,
                -2.1709193833389664,
                -1.9907558026421572,
                -1.2235124549285434,
                -1.0925616562588671,
                -2.1627522803982724
            ]
        },
        {
            "positions": [
                -0.023190126506722003,
                -2.1644696898355926,
                -1.9675062401651837,
                -1.3838623059608255,
                -1.1645306284263102,
                -2.2947979993164442
            ]
        },
        {
            "positions": [
                -0.025050388881890637,
                -2.1580199963322184,
                -1.9442566776882102,
                -1.544212156993107,
                -1.2364996005937532,
                -2.4268437182346156
            ]
        },
        {
            "positions": [
                -0.026910651257059277,
                -2.1515703028288446,
                -1.9210071152112367,
                -1.7045620080253892,
                -1.3084685727611962,
                -2.5588894371527875
            ]
        },
        {
            "positions": [
                -0.028770913632227918,
                -2.1451206093254704,
                -1.8977575527342632,
                -1.8649118590576708,
                -1.3804375449286392,
                -2.690935156070959
            ]
        },
        {
            "positions": [
                -0.03063117600739655,
                -2.1386709158220967,
                -1.8745079902572896,
                -2.0252617100899526,
                -1.4524065170960823,
                -2.8229808749891308
            ]
        },
        {
            "positions": [
                -0.03249143838256519,
                -2.1322212223187225,
                -1.8512584277803161,
                -2.1856115611222346,
                -1.5243754892635253,
                -2.9550265939073026
            ]
        },
        {
            "positions": [
                -0.034351700757733826,
                -2.1257715288153487,
                -1.8280088653033426,
                -2.3459614121545163,
                -1.596344461430968,
                -3.087072312825474
            ]
        }
    ]
}