{
    "goal": {
        "global_pose": {
            "orientation": {
                "w": 0.5084816262002911,
                "x": -0.4908360881923452,
                "y": 0.5182115481033761,
                "z": -0.48164630358495003
            },
            "position": {
                "x": 0.5540239810943604,
                "y": -0.46912469901144505,
                "z": 0.16403168439865112
            }
        },
        "name": "move_to_storage_B"
    },
    "id": "KPIECE_move_to_storage_B_25",
    "joint_names": [
        "shoulder_pan_joint",
        "shoulder_lift_joint",
        "elbow_joint",
        "wrist_1_joint",
        "wrist_2_joint",
        "wrist_3_joint"
    ],
    "metrics": {
        "cart_traj_len": 1.1909853386697367,
        "distance_elbow_joint": 0.34898697295728454,
        "distance_shoulder_lift_joint": 0.5678635610294398,
        "distance_shoulder_pan_joint": 1.0801345495071575,
        "distance_wrist_1_joint": 3.7178713158984116,
        "distance_wrist_2_joint": 3.5743822202796998,
        "distance_wrist_3_joint": 3.1452765459456993,
        "smoothness": 0.38951784257834693,
        "time": 0.152751672,
        "traj_len": 3.526260790925381,
        "weighted_distance": 5.100717772400979
    },
    "planner": "KPIECE",
    "start": {
        "state": {
            "elbow_joint": 1.664937868594044,
            "shoulder_lift_joint": -0.661644460510453,
            "shoulder_pan_joint": -0.9139846352900073,
            "wrist_1_joint": 2.146753192139373,
            "wrist_2_joint": -2.2341966793290973,
            "wrist_3_joint": 0.005466555786416001
        }
    },
    "waypoints": [
        {
            "positions": [
                -0.9139846352900073,
                -0.661644460510453,
                1.664937868594044,
                2.146753192139373,
                -2.2341966793290973,
                0.005466555786416001
            ]
        },
        {
            "positions": [
                -0.8497706909331774,
                -0.7349500394742154,
                1.6794163186521691,
                2.1993296731364067,
                -2.2960856809715997,
                -0.08965010507423957
            ]
        },
        {
            "positions": [
                -0.7855567465763474,
                -0.808255618437978,
                1.6938947687102943,
                2.2519061541334406,
                -2.3579746826141017,
                -0.18476676593489513
            ]
        },
        {
            "positions": [
                -0.7213428022195176,
                -0.8815611974017405,
                1.7083732187684195,
                2.304482635130474,
                -2.419863684256604,
                -0.27988342679555067
            ]
        },
        {
            "positions": [
                -0.6571288578626877,
                -0.954866776365503,
                1.7228516688265447,
                2.3570591161275076,
                -2.481752685899106,
                -0.37500008765620624
            ]
        },
        {
            "positions": [
                -0.5929149135058578,
                -1.0281723553292657,
                1.73733011888467,
                2.4096355971245416,
                -2.5436416875416086,
                -0.47011674851686186
            ]
        },
        {
            "positions": [
                -0.5287009691490279,
                -1.1014779342930279,
                1.7518085689427951,
                2.462212078121575,
                -2.6055306891841106,
                -0.5652334093775174
            ]
        },
        {
            "positions": [
                -0.46448702479219794,
                -1.1747835132567905,
                1.7662870190009203,
                2.5147885591186085,
                -2.667419690826613,
                -0.660350070238173
            ]
        },
        {
            "positions": [
                -0.48971250235257185,
                -1.1725945329254663,
                1.7761925319029366,
                2.3807951211618414,
                -2.5417733224753256,
                -0.7595284670350174
            ]
        },
        {
            "positions": [
                -0.5149379799129458,
                -1.1704055525941424,
                1.786098044804953,
                2.2468016832050743,
                -2.416126954124038,
                -0.8587068638318619
            ]
        },
        {
            "positions": [
                -0.5401634574733197,
                -1.1682165722628182,
                1.7960035577069693,
                2.1128082452483072,
                -2.290480585772751,
                -0.9578852606287063
            ]
        },
        {
            "positions": [
                -0.5653889350336936,
                -1.1660275919314942,
                1.8059090706089855,
                1.9788148072915404,
                -2.164834217421464,
                -1.0570636574255508
            ]
        },
        {
            "positions": [
                -0.5906144125940676,
                -1.16383861160017,
                1.815814583511002,
                1.8448213693347733,
                -2.039187849070176,
                -1.1562420542223952
            ]
        },
        {
            "positions": [
                -0.6158398901544415,
                -1.161649631268846,
                1.8257200964130182,
                1.7108279313780064,
                -1.913541480718889,
                -1.2554204510192395
            ]
        },
        {
            "positions": [
                -0.6410653677148154,
                -1.1594606509375218,
                1.8356256093150347,
                1.5768344934212393,
                -1.7878951123676017,
                -1.354598847816084
            ]
        },
        {
            "positions": [
                -0.6662908452751893,
                -1.1572716706061978,
                1.845531122217051,
                1.4428410554644722,
                -1.6622487440163143,
                -1.4537772446129282
            ]
        },
        {
            "positions": [
                -0.6915163228355632,
                -1.1550826902748736,
                1.8554366351190672,
                1.308847617507705,
                -1.5366023756650269,
                -1.5529556414097727
            ]
        },
        {
            "positions": [
                -0.7167418003959372,
                -1.1528937099435497,
                1.8653421480210837,
                1.174854179550938,
                -1.4109560073137395,
                -1.6521340382066172
            ]
        },
        {
            "positions": [
                -0.7419672779563111,
                -1.1507047296122255,
                1.8752476609231,
                1.040860741594171,
                -1.2853096389624523,
                -1.7513124350034617
            ]
        },
        {
            "positions": [
                -0.767192755516685,
                -1.1485157492809015,
                1.8851531738251162,
                0.906867303637404,
                -1.159663270611165,
                -1.850490831800306
            ]
        },
        {
            "positions": [
                -0.7924182330770589,
                -1.1463267689495773,
                1.8950586867271326,
                0.7728738656806369,
                -1.0340169022598775,
                -1.9496692285971504
            ]
        },
        {
            "positions": [
                -0.8176437106374328,
                -1.1441377886182533,
                1.9049641996291489,
                0.6388804277238698,
                -0.9083705339085901,
                -2.0488476253939947
            ]
        },
        {
            "positions": [
                -0.8428691881978068,
                -1.1419488082869291,
                1.9148697125311651,
                0.5048869897671029,
                -0.782724165557303,
                -2.148026022190839
            ]
        },
        {
            "positions": [
                -0.8680946657581807,
                -1.1397598279556052,
                1.9247752254331816,
                0.3708935518103358,
                -0.6570777972060156,
                -2.2472044189876836
            ]
        },
        {
            "positions": [
                -0.8933201433185547,
                -1.137570847624281,
                1.9346807383351978,
                0.23690011385356868,
                -0.5314314288547282,
                -2.346382815784528
            ]
        },
        {
            "positions": [
                -0.9185456208789284,
                -1.135381867292957,
                1.9445862512372143,
                0.10290667589680158,
                -0.40578506050344076,
                -2.4455612125813726
            ]
        },
        {
            "positions": [
                -0.9437710984393024,
                -1.1331928869616328,
                1.9544917641392305,
                -0.031086762059965523,
                -0.28013869215215337,
                -2.544739609378217
            ]
        },
        {
            "positions": [
                -0.9689965759996764,
                -1.1310039066303088,
                1.9643972770412468,
                -0.16508020001673263,
                -0.15449232380086597,
                -2.6439180061750616
            ]
        },
        {
            "positions": [
                -0.9942220535600502,
                -1.1288149262989846,
                1.974302789943263,
                -0.2990736379734993,
                -0.02884595544957902,
                -2.743096402971905
            ]
        },
        {
            "positions": [
                -1.019447531120424,
                -1.1266259459676606,
                1.9842083028452795,
                -0.4330670759302664,
                0.09680041290170838,
                -2.8422747997687505
            ]
        },
        {
            "positions": [
                -1.0446730086807983,
                -1.1244369656363364,
                1.9941138157472957,
                -0.5670605138870339,
                0.22244678125299622,
                -2.941453196565595
            ]
        },
        {
            "positions": [
                -1.069898486241172,
                -1.1222479853050125,
                2.004019328649312,
                -0.7010539518438006,
                0.34809314960428317,
                -3.0406315933624386
            ]
        },
        {
            "positions": [
                -1.095123963801546,
                -1.1200590049736883,
                2.0139248415513284,
                -0.8350473898005678,
                0.4737395179555704,
                -3.139809990159283
            ]
        }
    ]
}