{
    "goal": {
        "global_pose": {
            "orientation": {
                "w": 0.7031023480610252,
                "x": -0.7110244013736278,
                "y": 0.0077485991402295624,
                "z": 0.005598929693374583
            },
            "position": {
                "x": -0.8841497679147869,
                "y": 0.44412534475326537,
                "z": 0.3711530566215515
            }
        },
        "name": "move_to_auspresseinheit_D"
    },
    "id": "KPIECE_move_to_auspresseinheit_D_81",
    "joint_names": [
        "shoulder_pan_joint",
        "shoulder_lift_joint",
        "elbow_joint",
        "wrist_1_joint",
        "wrist_2_joint",
        "wrist_3_joint"
    ],
    "metrics": {
        "cart_traj_len": 0.3436603873375351,
        "distance_elbow_joint": 0.6347862760106031,
        "distance_shoulder_lift_joint": 0.11935961664579242,
        "distance_shoulder_pan_joint": 0.13447413742149553,
        "distance_wrist_1_joint": 0.5085300494846319,
        "distance_wrist_2_joint": 1.4440716645989056,
        "distance_wrist_3_joint": 0.0130977145616753,
        "smoothness": 3.947459674368863e-16,
        "time": 0.051229222,
        "traj_len": 1.6894731305123214,
        "weighted_distance": 2.1984350347303856
    },
    "planner": "KPIECE",
    "start": {
        "state": {
            "elbow_joint": -1.8275523626775212,
            "shoulder_lift_joint": -2.126789852344167,
            "shoulder_pan_joint": -0.03513704404078235,
            "wrist_1_joint": -2.347782403156801,
            "wrist_2_joint": -1.6058999987535132,
            "wrist_3_joint": -3.0880379163319196
        }
    },
    "waypoints": [
        {
            "positions": [
                -0.03513704404078235,
                -2.126789852344167,
                -1.8275523626775212,
                -2.347782403156801,
                -1.6058999987535132,
                -3.0880379163319196
            ]
        },
        {
            "positions": [
                -0.05194631121846929,
                -2.141709804424891,
                -1.7482040781761958,
                -2.41134865934238,
                -1.42539104067865,
                -3.089675130652129
            ]
        },
        {
            "positions": [
                -0.06875557839615623,
                -2.156629756505615,
                -1.6688557936748705,
                -2.474914915527959,
                -1.2448820826037867,
                -3.0913123449723385
            ]
        },
        {
            "positions": [
                -0.08556484557384317,
                -2.171549708586339,
                -1.589507509173545,
                -2.5384811717135376,
                -1.0643731245289236,
                -3.092949559292548
            ]
        },
        {
            "positions": [
                -0.1023741127515301,
                -2.186469660667063,
                -1.5101592246722197,
                -2.602047427899117,
                -0.8838641664540604,
                -3.0945867736127575
            ]
        },
        {
            "positions": [
                -0.11918337992921704,
                -2.201389612747787,
                -1.4308109401708942,
                -2.665613684084696,
                -0.7033552083791972,
                -3.0962239879329667
            ]
        },
        {
            "positions": [
                -0.135992647106904,
                -2.216309564828511,
                -1.3514626556695688,
                -2.7291799402702748,
                -0.5228462503043341,
                -3.097861202253176
            ]
        },
        {
            "positions": [
                -0.15280191428459095,
                -2.2312295169092353,
                -1.2721143711682434,
                -2.7927461964558535,
                -0.34233729222947074,
                -3.0994984165733857
            ]
        },
        {
            "positions": [
                -0.16961118146227788,
                -2.2461494689899593,
                -1.192766086666918,
                -2.8563124526414327,
                -0.16182833415460762,
                -3.101135630893595
            ]
        }
    ]
}