{
    "goal": {
        "global_pose": {
            "orientation": {
                "w": 0.7047431468963623,
                "x": -0.7094548344612122,
                "y": 0.0024358443915843964,
                "z": -0.0022348060738295317
            },
            "position": {
                "x": 0.6094750761985779,
                "y": 0.3671506643295288,
                "z": 0.19426114857196808
            }
        },
        "name": "move_to_magneteinheit_A"
    },
    "id": "KPIECE_move_to_magneteinheit_A_123",
    "joint_names": [
        "shoulder_pan_joint",
        "shoulder_lift_joint",
        "elbow_joint",
        "wrist_1_joint",
        "wrist_2_joint",
        "wrist_3_joint"
    ],
    "metrics": {
        "cart_traj_len": 3.3295762134360496,
        "distance_elbow_joint": 3.8708052139734557,
        "distance_shoulder_lift_joint": 1.001033647781585,
        "distance_shoulder_pan_joint": 2.631073492344527,
        "distance_wrist_1_joint": 4.307946492420959,
        "distance_wrist_2_joint": 1.6919893749262602,
        "distance_wrist_3_joint": 3.497317729666762,
        "smoothness": 0.12296639858932516,
        "time": 0.336850353,
        "traj_len": 4.123125750097073,
        "weighted_distance": 5.4767451353695735
    },
    "planner": "KPIECE",
    "start": {
        "state": {
            "elbow_joint": -1.9196185241190666,
            "shoulder_lift_joint": -1.2443396400964142,
            "shoulder_pan_joint": 2.6996025414629847,
            "wrist_1_joint": -1.5485510000780065,
            "wrist_2_joint": -1.5709468930060704,
            "wrist_3_joint": 0.4420197071253992
        }
    },
    "waypoints": [
        {
            "positions": [
                2.6996025414629847,
                -1.2443396400964142,
                -1.9196185241190666,
                -1.5485510000780065,
                -1.5709468930060704,
                0.4420197071253992
            ]
        },
        {
            "positions": [
                2.600430218237916,
                -1.222006327645451,
                -1.8358571963803745,
                -1.4410707625639179,
                -1.5088186275559818,
                0.4228909089569594
            ]
        },
        {
            "positions": [
                2.5012578950128472,
                -1.1996730151944877,
                -1.7520958686416825,
                -1.3335905250498292,
                -1.4466903621058935,
                0.4037621107885196
            ]
        },
        {
            "positions": [
                2.4020855717877785,
                -1.1773397027435244,
                -1.6683345409029904,
                -1.2261102875357406,
                -1.384562096655805,
                0.3846333126200798
            ]
        },
        {
            "positions": [
                2.3029132485627093,
                -1.1550063902925614,
                -1.5845732131642984,
                -1.1186300500216522,
                -1.3224338312057164,
                0.36550451445164
            ]
        },
        {
            "positions": [
                2.2037409253376405,
                -1.132673077841598,
                -1.5008118854256063,
                -1.0111498125075635,
                -1.260305565755628,
                0.34637571628320024
            ]
        },
        {
            "positions": [
                2.104568602112572,
                -1.1103397653906348,
                -1.4170505576869141,
                -0.9036695749934748,
                -1.1981773003055396,
                0.3272469181147604
            ]
        },
        {
            "positions": [
                2.005396278887503,
                -1.0880064529396716,
                -1.333289229948222,
                -0.7961893374793861,
                -1.136049034855451,
                0.30811811994632066
            ]
        },
        {
            "positions": [
                1.9062239556624343,
                -1.0656731404887083,
                -1.2495279022095303,
                -0.6887090999652976,
                -1.0739207694053627,
                0.28898932177788084
            ]
        },
        {
            "positions": [
                1.8070516324373656,
                -1.043339828037745,
                -1.165766574470838,
                -0.581228862451209,
                -1.0117925039552742,
                0.26986052360944107
            ]
        },
        {
            "positions": [
                1.7078793092122968,
                -1.0210065155867818,
                -1.082005246732146,
                -0.47374862493712033,
                -0.9496642385051857,
                0.2507317254410013
            ]
        },
        {
            "positions": [
                1.6087069859872278,
                -0.9986732031358186,
                -0.998243918993454,
                -0.3662683874230317,
                -0.8875359730550973,
                0.2316029272725615
            ]
        },
        {
            "positions": [
                1.509534662762159,
                -0.9763398906848555,
                -0.9144825912547618,
                -0.25878814990894305,
                -0.8254077076050088,
                0.2124741291041217
            ]
        },
        {
            "positions": [
                1.4103623395370903,
                -0.9540065782338922,
                -0.8307212635160699,
                -0.15130791239485464,
                -0.7632794421549204,
                0.19334533093568193
            ]
        },
        {
            "positions": [
                1.3111900163120214,
                -0.931673265782929,
                -0.7469599357773775,
                -0.04382767488076578,
                -0.7011511767048318,
                0.17421653276724208
            ]
        },
        {
            "positions": [
                1.2120176930869526,
                -0.9093399533319657,
                -0.6631986080386856,
                0.06365256263332286,
                -0.6390229112547434,
                0.15508773459880232
            ]
        },
        {
            "positions": [
                1.1128453698618839,
                -0.8870066408810026,
                -0.5794372802999936,
                0.17113280014741128,
                -0.576894645804655,
                0.13595893643036255
            ]
        },
        {
            "positions": [
                1.013673046636815,
                -0.8646733284300393,
                -0.4956759525613015,
                0.27861303766150014,
                -0.5147663803545663,
                0.11683013826192273
            ]
        },
        {
            "positions": [
                0.9145007234117464,
                -0.842340015979076,
                -0.41191462482260954,
                0.38609327517558856,
                -0.45263811490447803,
                0.09770134009348297
            ]
        },
        {
            "positions": [
                0.8153284001866776,
                -0.8200067035281129,
                -0.3281532970839174,
                0.4935735126896772,
                -0.3905098494543897,
                0.0785725419250432
            ]
        },
        {
            "positions": [
                0.7161560769616087,
                -0.7976733910771496,
                -0.24439196934522522,
                0.6010537502037658,
                -0.32838158400430095,
                0.059443743756603384
            ]
        },
        {
            "positions": [
                0.6169837537365397,
                -0.7753400786261864,
                -0.1606306416065333,
                0.7085339877178545,
                -0.26625331855421264,
                0.040314945588163564
            ]
        },
        {
            "positions": [
                0.5178114305114709,
                -0.7530067661752231,
                -0.07686931386784135,
                0.8160142252319431,
                -0.20412505310412432,
                0.0211861474197238
            ]
        },
        {
            "positions": [
                0.4186391072864022,
                -0.73067345372426,
                0.0068920138708510326,
                0.9234944627460318,
                -0.14199678765403556,
                0.0020573492512839797
            ]
        },
        {
            "positions": [
                0.3194667840613333,
                -0.7083401412732967,
                0.0906533416095428,
                1.0309747002601204,
                -0.07986852220394733,
                -0.017071448917155785
            ]
        },
        {
            "positions": [
                0.2747291144318403,
                -0.7037048602975584,
                0.2255963558178976,
                0.9944211876483888,
                -0.06114128856735543,
                0.08908150105971666
            ]
        },
        {
            "positions": [
                0.2299914448023473,
                -0.6990695793218201,
                0.3605393700262524,
                0.9578676750366574,
                -0.042414054930763535,
                0.1952344510365891
            ]
        },
        {
            "positions": [
                0.18525377517285432,
                -0.6944342983460818,
                0.49548238423460716,
                0.9213141624249258,
                -0.02368682129417165,
                0.3013874010134615
            ]
        },
        {
            "positions": [
                0.14051610554336133,
                -0.6897990173703435,
                0.630425398442962,
                0.8847606498131944,
                -0.004959587657579742,
                0.407540350990334
            ]
        },
        {
            "positions": [
                0.09577843591386836,
                -0.6851637363946053,
                0.7653684126513168,
                0.8482071372014628,
                0.013767645979012144,
                0.5136933009672064
            ]
        },
        {
            "positions": [
                0.09759506170022905,
                -0.714620919333257,
                0.8444229644648549,
                0.745163588599851,
                0.02091930170842404,
                0.6808574225498627
            ]
        },
        {
            "positions": [
                0.09941168748658974,
                -0.7440781022719087,
                0.923477516278393,
                0.6421200399982392,
                0.028070957437835935,
                0.8480215441325191
            ]
        },
        {
            "positions": [
                0.10122831327295041,
                -0.7735352852105605,
                1.0025320680919312,
                0.5390764913966273,
                0.03522261316724783,
                1.0151856657151752
            ]
        },
        {
            "positions": [
                0.1030449390593111,
                -0.8029924681492122,
                1.0815866199054693,
                0.4360329427950156,
                0.042374268896659725,
                1.1823497872978317
            ]
        },
        {
            "positions": [
                0.10486156484567179,
                -0.832449651087864,
                1.1606411717190073,
                0.3329893941934038,
                0.04952592462607162,
                1.349513908880488
            ]
        },
        {
            "positions": [
                0.10667819063203247,
                -0.8619068340265157,
                1.2396957235325454,
                0.22994584559179188,
                0.056677580355483516,
                1.5166780304631442
            ]
        },
        {
            "positions": [
                0.10849481641839316,
                -0.8913640169651675,
                1.3187502753460834,
                0.12690229699018007,
                0.06382923608489541,
                1.6838421520458005
            ]
        },
        {
            "positions": [
                0.11031144220475383,
                -0.9208211999038192,
                1.3978048271596215,
                0.023858748388568385,
                0.0709808918143073,
                1.851006273628457
            ]
        },
        {
            "positions": [
                0.11212806799111452,
                -0.950278382842471,
                1.4768593789731597,
                -0.07918480021304342,
                0.07813254754371919,
                2.018170395211113
            ]
        },
        {
            "positions": [
                0.11394469377747521,
                -0.9797355657811226,
                1.5559139307866978,
                -0.18222834881465522,
                0.08528420327313109,
                2.1853345167937697
            ]
        },
        {
            "positions": [
                0.1157613195638359,
                -1.0091927487197745,
                1.634968482600236,
                -0.28527189741626713,
                0.09243585900254299,
                2.3524986383764257
            ]
        },
        {
            "positions": [
                0.11757794535019658,
                -1.0386499316584263,
                1.7140230344137741,
                -0.38831544601787904,
                0.09958751473195489,
                2.5196627599590817
            ]
        },
        {
            "positions": [
                0.11939457113655727,
                -1.068107114597078,
                1.7930775862273123,
                -0.49135899461949073,
                0.10673917046136679,
                2.686826881541738
            ]
        },
        {
            "positions": [
                0.12121119692291794,
                -1.0975642975357296,
                1.87213213804085,
                -0.5944025432211026,
                0.11389082619077867,
                2.8539910031243947
            ]
        },
        {
            "positions": [
                0.12302782270927863,
                -1.1270214804743814,
                1.9511866898543884,
                -0.6974460918227144,
                0.12104248192019057,
                3.0211551247070507
            ]
        }
    ]
}