{
    "goal": {
        "global_pose": {
            "orientation": {
                "w": -0.00223480608172531,
                "x": 0.0024358444001904467,
                "y": 0.7094548369677653,
                "z": -0.704743149386269
            },
            "position": {
                "x": 0.6205249238014221,
                "y": -0.6371506643295288,
                "z": 0.19426114857196808
            }
        },
        "name": "move_to_magneteinheit_B"
    },
    "id": "KPIECE_move_to_magneteinheit_B_143",
    "joint_names": [
        "shoulder_pan_joint",
        "shoulder_lift_joint",
        "elbow_joint",
        "wrist_1_joint",
        "wrist_2_joint",
        "wrist_3_joint"
    ],
    "metrics": {
        "cart_traj_len": 1.5545936763765935,
        "distance_elbow_joint": 0.9774277739900874,
        "distance_shoulder_lift_joint": 1.3566136280271475,
        "distance_shoulder_pan_joint": 1.6198459403410808,
        "distance_wrist_1_joint": 0.8194198892209563,
        "distance_wrist_2_joint": 1.5245414848183512,
        "distance_wrist_3_joint": 0.6499696687609262,
        "smoothness": 0.6610530338812808,
        "time": 0.15978146399999998,
        "traj_len": 2.635871465978292,
        "weighted_distance": 3.254492141136572
    },
    "planner": "KPIECE",
    "start": {
        "state": {
            "elbow_joint": 2.6216224122426386,
            "shoulder_lift_joint": -1.4174107377796124,
            "shoulder_pan_joint": 0.7066234856936794,
            "wrist_1_joint": 1.9546482284002225,
            "wrist_2_joint": -0.7096286983471962,
            "wrist_3_joint": 0.005740856962016249
        }
    },
    "waypoints": [
        {
            "positions": [
                0.7066234856936794,
                -1.4174107377796124,
                2.6216224122426386,
                1.9546482284002225,
                -0.7096286983471962,
                0.005740856962016249
            ]
        },
        {
            "positions": [
                0.6474666427493355,
                -1.4971191223957423,
                2.6323464045602223,
                1.8818775593695984,
                -0.7165446343484505,
                0.08833350197077201
            ]
        },
        {
            "positions": [
                0.5800822851015678,
                -1.5709071592452584,
                2.625498435140799,
                1.8026685692639464,
                -0.7204731539848092,
                0.17111037872753382
            ]
        },
        {
            "positions": [
                0.5126979274537999,
                -1.6446951960947744,
                2.618650465721375,
                1.7234595791582943,
                -0.7244016736211679,
                0.2538872554842956
            ]
        },
        {
            "positions": [
                0.4453135698060322,
                -1.7184832329442905,
                2.6118024963019515,
                1.6442505890526422,
                -0.7283301932575266,
                0.3366641322410574
            ]
        },
        {
            "positions": [
                0.3547445015091366,
                -1.6481138240867925,
                2.5487251714076695,
                1.6781854057108674,
                -0.8287195259180613,
                0.3153943726755984
            ]
        },
        {
            "positions": [
                0.2641754332122411,
                -1.5777444152292945,
                2.485647846513387,
                1.7121202223690923,
                -0.929108858578596,
                0.2941246131101394
            ]
        },
        {
            "positions": [
                0.17360636491534548,
                -1.5073750063717966,
                2.4225705216191047,
                1.7460550390273175,
                -1.0294981912391308,
                0.27285485354468036
            ]
        },
        {
            "positions": [
                0.08303729661844994,
                -1.4370055975142988,
                2.3594931967248227,
                1.7799898556855425,
                -1.1298875238996655,
                0.25158509397922135
            ]
        },
        {
            "positions": [
                -0.007531771678445598,
                -1.3666361886568008,
                2.2964158718305407,
                1.8139246723437676,
                -1.2302768565602,
                0.23031533441376234
            ]
        },
        {
            "positions": [
                -0.09810083997534125,
                -1.2962667797993028,
                2.2333385469362583,
                1.8478594890019926,
                -1.330666189220735,
                0.2090455748483033
            ]
        },
        {
            "positions": [
                -0.18866990827223673,
                -1.2258973709418048,
                2.170261222041976,
                1.8817943056602178,
                -1.4310555218812695,
                0.1877758152828443
            ]
        },
        {
            "positions": [
                -0.2792389765691323,
                -1.155527962084307,
                2.107183897147694,
                1.9157291223184427,
                -1.5314448545418045,
                0.16650605571738528
            ]
        },
        {
            "positions": [
                -0.3698080448660278,
                -1.085158553226809,
                2.044106572253412,
                1.949663938976668,
                -1.631834187202339,
                0.14523629615192626
            ]
        },
        {
            "positions": [
                -0.4603771131629234,
                -1.0147891443693111,
                1.9810292473591296,
                1.9835987556348929,
                -1.7322235198628737,
                0.12396653658646725
            ]
        },
        {
            "positions": [
                -0.5509461814598189,
                -0.9444197355118132,
                1.9179519224648474,
                2.017533572293118,
                -1.8326128525234084,
                0.10269677702100824
            ]
        },
        {
            "positions": [
                -0.6415152497567147,
                -0.8740503266543151,
                1.8548745975705652,
                2.051468388951343,
                -1.9330021851839434,
                0.0814270174555492
            ]
        },
        {
            "positions": [
                -0.7320843180536101,
                -0.8036809177968173,
                1.791797272676283,
                2.085403205609568,
                -2.033391517844478,
                0.06015725789009019
            ]
        },
        {
            "positions": [
                -0.8226533863505057,
                -0.7333115089393193,
                1.7287199477820008,
                2.1193380222677933,
                -2.133780850505013,
                0.038887498324631176
            ]
        },
        {
            "positions": [
                -0.9132224546474014,
                -0.6629421000818214,
                1.6656426228877186,
                2.1532728389260183,
                -2.2341701831655474,
                0.017617738759172184
            ]
        }
    ]
}