{
    "goal": {
        "global_pose": {
            "orientation": {
                "w": 0.005598929693374612,
                "x": 0.007748599140229565,
                "y": 0.7110244013736278,
                "z": -0.7031023480610252
            },
            "position": {
                "x": 0.1141497679147869,
                "y": -0.7141253447532654,
                "z": 0.3711530566215515
            }
        },
        "name": "move_to_auspresseinheit_B"
    },
    "id": "KPIECE_move_to_auspresseinheit_B_106",
    "joint_names": [
        "shoulder_pan_joint",
        "shoulder_lift_joint",
        "elbow_joint",
        "wrist_1_joint",
        "wrist_2_joint",
        "wrist_3_joint"
    ],
    "metrics": {
        "cart_traj_len": 0.5647587223561833,
        "distance_elbow_joint": 0.06666497920903103,
        "distance_shoulder_lift_joint": 0.2934774101385098,
        "distance_shoulder_pan_joint": 0.5778522918112392,
        "distance_wrist_1_joint": 0.33880386635548954,
        "distance_wrist_2_joint": 0.9863854098124085,
        "distance_wrist_3_joint": 0.0026687827014284515,
        "smoothness": 5.075305295617109e-16,
        "time": 0.5243789050000001,
        "traj_len": 1.505274971567689,
        "weighted_distance": 1.8964122920923239
    },
    "planner": "KPIECE",
    "start": {
        "state": {
            "elbow_joint": 2.0193083361928714,
            "shoulder_lift_joint": -1.1220246554650708,
            "shoulder_pan_joint": -1.0952077554168747,
            "wrist_1_joint": -0.8559753972642168,
            "wrist_2_joint": 0.4759566250798843,
            "wrist_3_joint": -3.1240929996934557
        }
    },
    "waypoints": [
        {
            "positions": [
                -1.0952077554168747,
                -1.1220246554650708,
                2.0193083361928714,
                -0.8559753972642168,
                0.4759566250798843,
                -3.1240929996934557
            ]
        },
        {
            "positions": [
                -1.1915164707187478,
                -1.1709375571548224,
                2.0081975063246995,
                -0.7995080862049685,
                0.6403541933819523,
                -3.123648202576551
            ]
        },
        {
            "positions": [
                -1.2878251860206211,
                -1.219850458844574,
                1.9970866764565278,
                -0.7430407751457203,
                0.8047517616840205,
                -3.123203405459646
            ]
        },
        {
            "positions": [
                -1.3841339013224943,
                -1.2687633605343258,
                1.985975846588356,
                -0.686573464086472,
                0.9691493299860885,
                -3.1227586083427417
            ]
        },
        {
            "positions": [
                -1.4804426166243674,
                -1.3176762622240774,
                1.974865016720184,
                -0.6301061530272238,
                1.1335468982881567,
                -3.122313811225837
            ]
        },
        {
            "positions": [
                -1.5767513319262407,
                -1.366589163913829,
                1.9637541868520123,
                -0.5736388419679754,
                1.2979444665902247,
                -3.121869014108932
            ]
        },
        {
            "positions": [
                -1.6730600472281139,
                -1.4155020656035806,
                1.9526433569838404,
                -0.5171715309087273,
                1.4623420348922929,
                -3.121424216992027
            ]
        }
    ]
}