{
    "goal": {
        "global_pose": {
            "orientation": {
                "w": 0.5084816262002911,
                "x": -0.4908360881923452,
                "y": 0.5182115481033761,
                "z": -0.48164630358495003
            },
            "position": {
                "x": 0.5540239810943604,
                "y": -0.46912469901144505,
                "z": 0.16403168439865112
            }
        },
        "name": "move_to_storage_B"
    },
    "id": "KPIECE_move_to_storage_B_95",
    "joint_names": [
        "shoulder_pan_joint",
        "shoulder_lift_joint",
        "elbow_joint",
        "wrist_1_joint",
        "wrist_2_joint",
        "wrist_3_joint"
    ],
    "metrics": {
        "cart_traj_len": 2.213016842859703,
        "distance_elbow_joint": 1.8701965620210155,
        "distance_shoulder_lift_joint": 0.45867678078923024,
        "distance_shoulder_pan_joint": 1.7685783646164714,
        "distance_wrist_1_joint": 2.994172479307795,
        "distance_wrist_2_joint": 2.704812923087529,
        "distance_wrist_3_joint": 4.740224799642209,
        "smoothness": 0.3661368436460831,
        "time": 0.109087593,
        "traj_len": 3.8126974584228748,
        "weighted_distance": 5.451247280315211
    },
    "planner": "KPIECE",
    "start": {
        "state": {
            "elbow_joint": 1.664937868594044,
            "shoulder_lift_joint": -0.661644460510453,
            "shoulder_pan_joint": -0.9139846352900073,
            "wrist_1_joint": 2.146753192139373,
            "wrist_2_joint": -2.2341966793290973,
            "wrist_3_joint": 0.005466555786416001
        }
    },
    "waypoints": [
        {
            "positions": [
                -0.9139846352900073,
                -0.661644460510453,
                1.664937868594044,
                2.146753192139373,
                -2.2341966793290973,
                0.005466555786416001
            ]
        },
        {
            "positions": [
                -0.8346021257956436,
                -0.6999883669289905,
                1.5890307230760106,
                2.145749082890636,
                -2.123718568703755,
                0.08606105347419243
            ]
        },
        {
            "positions": [
                -0.7552196163012799,
                -0.738332273347528,
                1.5131235775579772,
                2.1447449736418984,
                -2.013240458078413,
                0.16665555116196887
            ]
        },
        {
            "positions": [
                -0.6758371068069162,
                -0.7766761797660655,
                1.4372164320399439,
                2.143740864393161,
                -1.9027623474530708,
                0.24725004884974525
            ]
        },
        {
            "positions": [
                -0.5964545973125526,
                -0.8150200861846031,
                1.3613092865219105,
                2.1427367551444236,
                -1.7922842368277287,
                0.32784454653752176
            ]
        },
        {
            "positions": [
                -0.5170720878181889,
                -0.8533639926031406,
                1.2854021410038774,
                2.1417326458956865,
                -1.6818061262023867,
                0.40843904422529814
            ]
        },
        {
            "positions": [
                -0.43768957832382527,
                -0.891707899021678,
                1.209494995485844,
                2.140728536646949,
                -1.5713280155770446,
                0.4890335419130745
            ]
        },
        {
            "positions": [
                -0.3583070688294616,
                -0.9300518054402156,
                1.1335878499678107,
                2.1397244273982117,
                -1.4608499049517025,
                0.5696280396008508
            ]
        },
        {
            "positions": [
                -0.27892455933509785,
                -0.9683957118587532,
                1.0576807044497771,
                2.138720318149474,
                -1.3503717943263602,
                0.6502225372886274
            ]
        },
        {
            "positions": [
                -0.1995420498407342,
                -1.0067396182772905,
                0.981773558931744,
                2.137716208900737,
                -1.2398936837010182,
                0.7308170349764038
            ]
        },
        {
            "positions": [
                -0.12015954034637061,
                -1.045083524695828,
                0.9058664134137107,
                2.1367120996519993,
                -1.129415573075676,
                0.8114115326641802
            ]
        },
        {
            "positions": [
                -0.15626151329721633,
                -1.047870106792267,
                0.9470191951485507,
                2.0261887149549467,
                -1.0701551354151537,
                0.6656974651543859
            ]
        },
        {
            "positions": [
                -0.19236348624806204,
                -1.0506566888887063,
                0.9881719768833908,
                1.915665330257894,
                -1.0108946977546311,
                0.5199833976445917
            ]
        },
        {
            "positions": [
                -0.2284654591989078,
                -1.0534432709851453,
                1.0293247586182308,
                1.8051419455608413,
                -0.9516342600941087,
                0.37426933013479746
            ]
        },
        {
            "positions": [
                -0.26456743214975353,
                -1.0562298530815843,
                1.070477540353071,
                1.6946185608637887,
                -0.8923738224335862,
                0.22855526262500314
            ]
        },
        {
            "positions": [
                -0.30066940510059925,
                -1.0590164351780236,
                1.1116303220879111,
                1.584095176166736,
                -0.8331133847730638,
                0.08284119511520893
            ]
        },
        {
            "positions": [
                -0.33677137805144497,
                -1.0618030172744626,
                1.1527831038227512,
                1.4735717914696833,
                -0.7738529471125413,
                -0.06287287239458528
            ]
        },
        {
            "positions": [
                -0.3728733510022907,
                -1.0645895993709016,
                1.1939358855575912,
                1.3630484067726307,
                -0.7145925094520189,
                -0.2085869399043796
            ]
        },
        {
            "positions": [
                -0.4089753239531364,
                -1.0673761814673408,
                1.2350886672924313,
                1.2525250220755781,
                -0.6553320717914963,
                -0.3543010074141739
            ]
        },
        {
            "positions": [
                -0.4450772969039822,
                -1.0701627635637798,
                1.2762414490272713,
                1.1420016373785256,
                -0.596071634130974,
                -0.500015074923968
            ]
        },
        {
            "positions": [
                -0.4811792698548279,
                -1.0729493456602188,
                1.3173942307621114,
                1.0314782526814728,
                -0.5368111964704515,
                -0.6457291424337623
            ]
        },
        {
            "positions": [
                -0.5172812428056737,
                -1.075735927756658,
                1.3585470124969516,
                0.9209548679844202,
                -0.47755075880992903,
                -0.7914432099435567
            ]
        },
        {
            "positions": [
                -0.5533832157565193,
                -1.078522509853097,
                1.3996997942317917,
                0.8104314832873676,
                -0.41829032114940656,
                -0.9371572774533508
            ]
        },
        {
            "positions": [
                -0.5894851887073651,
                -1.081309091949536,
                1.4408525759666317,
                0.699908098590315,
                -0.3590298834888841,
                -1.082871344963145
            ]
        },
        {
            "positions": [
                -0.6255871616582107,
                -1.0840956740459753,
                1.4820053577014718,
                0.5893847138932622,
                -0.2997694458283616,
                -1.2285854124729394
            ]
        },
        {
            "positions": [
                -0.6616891346090565,
                -1.0868822561424143,
                1.5231581394363118,
                0.4788613291962094,
                -0.24050900816783904,
                -1.374299479982734
            ]
        },
        {
            "positions": [
                -0.6977911075599021,
                -1.0896688382388533,
                1.564310921171152,
                0.368337944499157,
                -0.1812485705073167,
                -1.520013547492528
            ]
        },
        {
            "positions": [
                -0.733893080510748,
                -1.0924554203352925,
                1.605463702905992,
                0.2578145598021042,
                -0.12198813284679422,
                -1.6657276150023221
            ]
        },
        {
            "positions": [
                -0.7699950534615938,
                -1.0952420024317315,
                1.6466164846408322,
                0.14729117510505163,
                -0.06272769518627186,
                -1.8114416825121162
            ]
        },
        {
            "positions": [
                -0.8060970264124394,
                -1.0980285845281705,
                1.6877692663756723,
                0.036767790407998824,
                -0.003467257525749279,
                -1.9571557500219108
            ]
        },
        {
            "positions": [
                -0.8421989993632852,
                -1.1008151666246098,
                1.7289220481105123,
                -0.07375559428905376,
                0.05579318013477308,
                -2.1028698175317047
            ]
        },
        {
            "positions": [
                -0.8783009723141308,
                -1.1036017487210488,
                1.7700748298453524,
                -0.18427897898610635,
                0.11505361779529566,
                -2.2485838850414996
            ]
        },
        {
            "positions": [
                -0.9144029452649767,
                -1.1063883308174878,
                1.8112276115801924,
                -0.29480236368315893,
                0.17431405545581802,
                -2.3942979525512937
            ]
        },
        {
            "positions": [
                -0.9505049182158225,
                -1.109174912913927,
                1.8523803933150327,
                -0.4053257483802115,
                0.2335744931163406,
                -2.540012020061088
            ]
        },
        {
            "positions": [
                -0.9866068911666681,
                -1.111961495010366,
                1.8935331750498725,
                -0.5158491330772641,
                0.29283493077686296,
                -2.685726087570882
            ]
        },
        {
            "positions": [
                -1.022708864117514,
                -1.114748077106805,
                1.9346859567847128,
                -0.6263725177743171,
                0.35209536843738554,
                -2.831440155080676
            ]
        },
        {
            "positions": [
                -1.0588108370683595,
                -1.1175346592032442,
                1.9758387385195528,
                -0.7368959024713693,
                0.4113558060979079,
                -2.97715422259047
            ]
        },
        {
            "positions": [
                -1.0949128100192054,
                -1.1203212412996832,
                2.016991520254393,
                -0.8474192871684221,
                0.4706162437584304,
                -3.122868290100265
            ]
        }
    ]
}