{
    "goal": {
        "global_pose": {
            "orientation": {
                "w": 0.7031023502349854,
                "x": -0.7110244035720825,
                "y": 0.007748599164187908,
                "z": 0.005598929710686207
            },
            "position": {
                "x": 0.11585023208521307,
                "y": 0.44412534475326537,
                "z": 0.3711530566215515
            }
        },
        "name": "move_to_auspresseinheit_A"
    },
    "id": "KPIECE_move_to_auspresseinheit_A_49",
    "joint_names": [
        "shoulder_pan_joint",
        "shoulder_lift_joint",
        "elbow_joint",
        "wrist_1_joint",
        "wrist_2_joint",
        "wrist_3_joint"
    ],
    "metrics": {
        "cart_traj_len": 2.4561156758150693,
        "distance_elbow_joint": 0.939698810815325,
        "distance_shoulder_lift_joint": 2.772948243985682,
        "distance_shoulder_pan_joint": 1.8256777601733138,
        "distance_wrist_1_joint": 5.838752963286381,
        "distance_wrist_2_joint": 0.5294992082467563,
        "distance_wrist_3_joint": 1.7624414530888992,
        "smoothness": 0.8859313209291105,
        "time": 0.367763256,
        "traj_len": 3.697163566789594,
        "weighted_distance": 4.854086270072596
    },
    "planner": "KPIECE",
    "start": {
        "state": {
            "elbow_joint": 2.4225746658250005,
            "shoulder_lift_joint": -1.3736534386056498,
            "shoulder_pan_joint": -0.3378633547517467,
            "wrist_1_joint": -1.0288598680537169,
            "wrist_2_joint": 1.233022673432363,
            "wrist_3_joint": -3.0940220416140027
        }
    },
    "waypoints": [
        {
            "positions": [
                -0.3378633547517467,
                -1.3736534386056498,
                2.4225746658250005,
                -1.0288598680537169,
                1.233022673432363,
                -3.0940220416140027
            ]
        },
        {
            "positions": [
                -0.266079980846495,
                -1.4563668402216363,
                2.39841607309886,
                -0.8692332136284815,
                1.2191289646305155,
                -3.0506300603891847
            ]
        },
        {
            "positions": [
                -0.1942966069412432,
                -1.5390802418376228,
                2.3742574803727194,
                -0.7096065592032461,
                1.2052352558286679,
                -3.0072380791643667
            ]
        },
        {
            "positions": [
                -0.12251323303599146,
                -1.6217936434536093,
                2.350098887646579,
                -0.549979904778011,
                1.1913415470268203,
                -2.9638460979395487
            ]
        },
        {
            "positions": [
                -0.050729859130739685,
                -1.7045070450695956,
                2.3259402949204384,
                -0.39035325035277546,
                1.1774478382249727,
                -2.9204541167147307
            ]
        },
        {
            "positions": [
                0.02105351477451206,
                -1.787220446685582,
                2.3017817021942983,
                -0.2307265959275402,
                1.163554129423125,
                -2.8770621354899126
            ]
        },
        {
            "positions": [
                0.09283688867976381,
                -1.8699338483015686,
                2.277623109468158,
                -0.07109994150230492,
                1.1496604206212775,
                -2.8336701542650946
            ]
        },
        {
            "positions": [
                0.16462026258501555,
                -1.9526472499175551,
                2.2534645167420173,
                0.08852671292293035,
                1.13576671181943,
                -2.7902781730402766
            ]
        },
        {
            "positions": [
                0.23640363649026735,
                -2.0353606515335416,
                2.229305924015877,
                0.24815336734816595,
                1.1218730030175823,
                -2.7468861918154586
            ]
        },
        {
            "positions": [
                0.30818701039551916,
                -2.118074053149528,
                2.2051473312897363,
                0.4077800217734011,
                1.1079792942157347,
                -2.7034942105906405
            ]
        },
        {
            "positions": [
                0.37997038430077085,
                -2.2007874547655146,
                2.1809887385635958,
                0.5674066761986365,
                1.094085585413887,
                -2.6601022293658225
            ]
        },
        {
            "positions": [
                0.45175375820602265,
                -2.283500856381501,
                2.1568301458374552,
                0.7270333306238719,
                1.0801918766120393,
                -2.6167102481410045
            ]
        },
        {
            "positions": [
                0.5235371321112743,
                -2.3662142579974876,
                2.1326715531113147,
                0.886659985049107,
                1.0662981678101917,
                -2.5733182669161865
            ]
        },
        {
            "positions": [
                0.5953205060165261,
                -2.448927659613474,
                2.108512960385174,
                1.0462866394743424,
                1.0524044590083441,
                -2.5299262856913685
            ]
        },
        {
            "positions": [
                0.6671038799217779,
                -2.53164106122946,
                2.084354367659034,
                1.2059132938995776,
                1.0385107502064965,
                -2.4865343044665504
            ]
        },
        {
            "positions": [
                0.7388872538270297,
                -2.614354462845447,
                2.060195774932893,
                1.3655399483248132,
                1.024617041404649,
                -2.4431423232417324
            ]
        },
        {
            "positions": [
                0.8106706277322815,
                -2.6970678644614337,
                2.036037182206753,
                1.5251666027500488,
                1.0107233326028013,
                -2.3997503420169144
            ]
        },
        {
            "positions": [
                0.8824540016375331,
                -2.7797812660774195,
                2.0118785894806126,
                1.684793257175284,
                0.9968296238009537,
                -2.3563583607920964
            ]
        },
        {
            "positions": [
                0.9542373755427851,
                -2.862494667693406,
                1.987719996754472,
                1.844419911600519,
                0.9829359149991062,
                -2.3129663795672784
            ]
        },
        {
            "positions": [
                1.0260207494480367,
                -2.945208069309393,
                1.9635614040283316,
                2.004046566025754,
                0.9690422061972586,
                -2.2695743983424603
            ]
        },
        {
            "positions": [
                1.0978041233532885,
                -3.027921470925379,
                1.939402811302191,
                2.1636732204509896,
                0.955148497395411,
                -2.2261824171176423
            ]
        },
        {
            "positions": [
                1.07180343788207,
                -2.953342790147649,
                1.969837941721692,
                1.9872585621322116,
                0.9383734952480907,
                -2.2858225390238114
            ]
        },
        {
            "positions": [
                1.0458027524108513,
                -2.8787641093699188,
                2.000273072141193,
                1.8108439038134334,
                0.9215984931007704,
                -2.345462660929981
            ]
        },
        {
            "positions": [
                1.0198020669396328,
                -2.8041854285921888,
                2.030708202560694,
                1.6344292454946552,
                0.9048234909534502,
                -2.40510278283615
            ]
        },
        {
            "positions": [
                0.9938013814684141,
                -2.7296067478144588,
                2.0611433329801954,
                1.4580145871758772,
                0.8880484888061299,
                -2.4647429047423195
            ]
        },
        {
            "positions": [
                0.9678006959971956,
                -2.6550280670367283,
                2.091578463399696,
                1.2815999288570992,
                0.8712734866588095,
                -2.5243830266484886
            ]
        },
        {
            "positions": [
                0.9418000105259771,
                -2.5804493862589983,
                2.1220135938191973,
                1.105185270538321,
                0.8544984845114892,
                -2.5840231485546576
            ]
        },
        {
            "positions": [
                0.9157993250547585,
                -2.505870705481268,
                2.1524487242386985,
                0.9287706122195429,
                0.8377234823641689,
                -2.643663270460827
            ]
        },
        {
            "positions": [
                0.8897986395835399,
                -2.431292024703538,
                2.1828838546581992,
                0.7523559539007649,
                0.8209484802168487,
                -2.7033033923669962
            ]
        },
        {
            "positions": [
                0.8637979541123213,
                -2.356713343925808,
                2.2133189850777004,
                0.5759412955819869,
                0.8041734780695284,
                -2.7629435142731653
            ]
        },
        {
            "positions": [
                0.8377972686411028,
                -2.282134663148078,
                2.2437541154972016,
                0.3995266372632087,
                0.7873984759222081,
                -2.822583636179335
            ]
        },
        {
            "positions": [
                0.8117965831698841,
                -2.2075559823703474,
                2.2741892459167024,
                0.2231119789444307,
                0.7706234737748878,
                -2.882223758085504
            ]
        },
        {
            "positions": [
                0.7857958976986656,
                -2.132977301592617,
                2.3046243763362035,
                0.04669732062565224,
                0.7538484716275675,
                -2.9418638799916734
            ]
        },
        {
            "positions": [
                0.759795212227447,
                -2.058398620814887,
                2.3350595067557047,
                -0.12971733769312577,
                0.7370734694802472,
                -3.0015040018978425
            ]
        },
        {
            "positions": [
                0.7337945267562285,
                -1.983819940037157,
                2.3654946371752055,
                -0.3061319960119038,
                0.720298467332927,
                -3.061144123804012
            ]
        },
        {
            "positions": [
                0.7077938412850099,
                -1.9092412592594268,
                2.3959297675947067,
                -0.48254665433068156,
                0.7035234651856067,
                -3.120784245710181
            ]
        }
    ]
}