{
    "goal": {
        "global_pose": {
            "orientation": {
                "w": 0.7047431468963623,
                "x": -0.7094548344612122,
                "y": 0.0024358443915843964,
                "z": -0.0022348060738295317
            },
            "position": {
                "x": 0.6094750761985779,
                "y": 0.3671506643295288,
                "z": 0.19426114857196808
            }
        },
        "name": "move_to_magneteinheit_A"
    },
    "id": "KPIECE_move_to_magneteinheit_A_43",
    "joint_names": [
        "shoulder_pan_joint",
        "shoulder_lift_joint",
        "elbow_joint",
        "wrist_1_joint",
        "wrist_2_joint",
        "wrist_3_joint"
    ],
    "metrics": {
        "cart_traj_len": 3.213449620160742,
        "distance_elbow_joint": 3.90744444266243,
        "distance_shoulder_lift_joint": 0.7216826833308769,
        "distance_shoulder_pan_joint": 2.8473009651927765,
        "distance_wrist_1_joint": 0.9458953106945186,
        "distance_wrist_2_joint": 1.697597531092772,
        "distance_wrist_3_joint": 3.562659367817978,
        "smoothness": 0.08599821464316854,
        "time": 0.108376636,
        "traj_len": 3.6989972020523827,
        "weighted_distance": 4.842663717233997
    },
    "planner": "KPIECE",
    "start": {
        "state": {
            "elbow_joint": -1.9196185241190666,
            "shoulder_lift_joint": -1.2443396400964142,
            "shoulder_pan_joint": 2.6996025414629847,
            "wrist_1_joint": -1.5485510000780065,
            "wrist_2_joint": -1.5709468930060704,
            "wrist_3_joint": 0.4420197071253992
        }
    },
    "waypoints": [
        {
            "positions": [
                2.6996025414629847,
                -1.2443396400964142,
                -1.9196185241190666,
                -1.5485510000780065,
                -1.5709468930060704,
                0.4420197071253992
            ]
        },
        {
            "positions": [
                2.6039388124747003,
                -1.2554950372843217,
                -1.7957945301031355,
                -1.519298966884412,
                -1.5214108919301845,
                0.3632097872469213
            ]
        },
        {
            "positions": [
                2.508275083486416,
                -1.2666504344722291,
                -1.6719705360872044,
                -1.490046933690817,
                -1.471874890854299,
                0.28439986736844347
            ]
        },
        {
            "positions": [
                2.4126113544981314,
                -1.2778058316601366,
                -1.5481465420712732,
                -1.4607949004972225,
                -1.422338889778413,
                0.20558994748996567
            ]
        },
        {
            "positions": [
                2.316947625509847,
                -1.288961228848044,
                -1.424322548055342,
                -1.431542867303628,
                -1.3728028887025272,
                0.12678002761148782
            ]
        },
        {
            "positions": [
                2.2212838965215624,
                -1.3001166260359514,
                -1.300498554039411,
                -1.4022908341100333,
                -1.3232668876266416,
                0.04797010773300997
            ]
        },
        {
            "positions": [
                2.125620167533278,
                -1.3112720232238588,
                -1.1766745600234798,
                -1.3730388009164385,
                -1.2737308865507557,
                -0.030839812145467826
            ]
        },
        {
            "positions": [
                2.0299564385449935,
                -1.3224274204117663,
                -1.0528505660075487,
                -1.3437867677228439,
                -1.22419488547487,
                -0.10964973202394568
            ]
        },
        {
            "positions": [
                1.934292709556709,
                -1.3335828175996738,
                -0.9290265719916175,
                -1.3145347345292493,
                -1.1746588843989842,
                -0.18845965190242353
            ]
        },
        {
            "positions": [
                1.8386289805684244,
                -1.3447382147875813,
                -0.8052025779756864,
                -1.2852827013356545,
                -1.1251228833230984,
                -0.2672695717809014
            ]
        },
        {
            "positions": [
                1.74296525158014,
                -1.3558936119754887,
                -0.6813785839597553,
                -1.2560306681420599,
                -1.0755868822472126,
                -0.34607949165937923
            ]
        },
        {
            "positions": [
                1.6473015225918555,
                -1.3670490091633962,
                -0.5575545899438241,
                -1.2267786349484653,
                -1.026050881171327,
                -0.424889411537857
            ]
        },
        {
            "positions": [
                1.551637793603571,
                -1.3782044063513037,
                -0.433730595927893,
                -1.1975266017548707,
                -0.9765148800954412,
                -0.5036993314163348
            ]
        },
        {
            "positions": [
                1.4559740646152866,
                -1.3893598035392112,
                -0.30990660191196184,
                -1.168274568561276,
                -0.9269788790195553,
                -0.5825092512948128
            ]
        },
        {
            "positions": [
                1.360310335627002,
                -1.4005152007271184,
                -0.1860826078960307,
                -1.1390225353676813,
                -0.8774428779436696,
                -0.6613191711732905
            ]
        },
        {
            "positions": [
                1.2646466066387176,
                -1.411670597915026,
                -0.06225861388009957,
                -1.1097705021740867,
                -0.8279068768677839,
                -0.7401290910517683
            ]
        },
        {
            "positions": [
                1.1689828776504332,
                -1.4228259951029334,
                0.06156538013583157,
                -1.080518468980492,
                -0.7783708757918981,
                -0.8189390109302462
            ]
        },
        {
            "positions": [
                1.0733191486621487,
                -1.4339813922908409,
                0.1853893741517627,
                -1.0512664357868973,
                -0.7288348747160124,
                -0.897748930808724
            ]
        },
        {
            "positions": [
                0.977655419673864,
                -1.4451367894787484,
                0.30921336816769385,
                -1.0220144025933027,
                -0.6792988736401264,
                -0.9765588506872019
            ]
        },
        {
            "positions": [
                0.8819916906855796,
                -1.4562921866666558,
                0.433037362183625,
                -0.9927623693997081,
                -0.6297628725642407,
                -1.0553687705656798
            ]
        },
        {
            "positions": [
                0.7863279616972951,
                -1.4674475838545633,
                0.5568613561995561,
                -0.9635103362061134,
                -0.580226871488355,
                -1.1341786904441578
            ]
        },
        {
            "positions": [
                0.6906642327090107,
                -1.4786029810424708,
                0.6806853502154873,
                -0.9342583030125188,
                -0.5306908704124693,
                -1.2129886103226353
            ]
        },
        {
            "positions": [
                0.5950005037207262,
                -1.4897583782303783,
                0.8045093442314184,
                -0.9050062698189241,
                -0.48115486933658347,
                -1.2917985302011132
            ]
        },
        {
            "positions": [
                0.49933677473244176,
                -1.5009137754182857,
                0.9283333382473495,
                -0.8757542366253295,
                -0.4316188682606976,
                -1.3706084500795912
            ]
        },
        {
            "positions": [
                0.4036730457441573,
                -1.512069172606193,
                1.0521573322632807,
                -0.8465022034317348,
                -0.382082867184812,
                -1.4494183699580687
            ]
        },
        {
            "positions": [
                0.30800931675587284,
                -1.5232245697941007,
                1.1759813262792118,
                -0.8172501702381401,
                -0.33254686610892614,
                -1.5282282898365467
            ]
        },
        {
            "positions": [
                0.21234558776758838,
                -1.534379966982008,
                1.299805320295143,
                -0.7879981370445455,
                -0.2830108650330403,
                -1.6070382097150246
            ]
        },
        {
            "positions": [
                0.11668185877930393,
                -1.5455353641699154,
                1.423629314311074,
                -0.7587461038509508,
                -0.23347486395715467,
                -1.6858481295935022
            ]
        },
        {
            "positions": [
                0.02101812979101958,
                -1.556690761357823,
                1.547453308327005,
                -0.7294940706573562,
                -0.18393886288126882,
                -1.7646580494719804
            ]
        },
        {
            "positions": [
                0.01268280109001435,
                -1.5053445784907549,
                1.6270465141415815,
                -0.7470805983702314,
                -0.13362410100469668,
                -1.9410836199503445
            ]
        },
        {
            "positions": [
                0.004347472389009122,
                -1.453998395623687,
                1.7066397199561578,
                -0.7646671260831068,
                -0.08330933912812455,
                -2.1175091904287084
            ]
        },
        {
            "positions": [
                -0.0039878563119961075,
                -1.4026522127566192,
                1.7862329257707343,
                -0.7822536537959821,
                -0.032994577251552415,
                -2.2939347609070726
            ]
        },
        {
            "positions": [
                -0.012323185013001335,
                -1.3513060298895512,
                1.8658261315853109,
                -0.7998401815088574,
                0.017320184625019722,
                -2.4703603313854368
            ]
        },
        {
            "positions": [
                0.02152062466619624,
                -1.3003193222392522,
                1.896326078324824,
                -0.8139632491144492,
                0.04465279799044003,
                -2.6329301637122224
            ]
        },
        {
            "positions": [
                0.055364434345393815,
                -1.249332614588953,
                1.926826025064337,
                -0.828086316720041,
                0.07198541135586034,
                -2.7954999960390077
            ]
        },
        {
            "positions": [
                0.08920824402459139,
                -1.1983459069386537,
                1.9573259718038498,
                -0.8422093843256326,
                0.09931802472128065,
                -2.958069828365793
            ]
        },
        {
            "positions": [
                0.12305205370378898,
                -1.1473591992883547,
                1.9878259185433629,
                -0.8563324519312244,
                0.12665063808670096,
                -3.1206396606925786
            ]
        }
    ]
}