{
    "goal": {
        "global_pose": {
            "orientation": {
                "w": -0.00223480608172531,
                "x": 0.0024358444001904467,
                "y": 0.7094548369677653,
                "z": -0.704743149386269
            },
            "position": {
                "x": -0.37947507619857795,
                "y": -0.6371506643295288,
                "z": 0.19426114857196808
            }
        },
        "name": "move_to_magneteinheit_C"
    },
    "id": "KPIECE_move_to_magneteinheit_C_54",
    "joint_names": [
        "shoulder_pan_joint",
        "shoulder_lift_joint",
        "elbow_joint",
        "wrist_1_joint",
        "wrist_2_joint",
        "wrist_3_joint"
    ],
    "metrics": {
        "cart_traj_len": 1.4765610188027272,
        "distance_elbow_joint": 0.40633758572599055,
        "distance_shoulder_lift_joint": 0.6340489241580469,
        "distance_shoulder_pan_joint": 1.9302887374583417,
        "distance_wrist_1_joint": 1.809479058707312,
        "distance_wrist_2_joint": 2.0035656020521637,
        "distance_wrist_3_joint": 0.9517798641509625,
        "smoothness": 1.02336256880613,
        "time": 0.8833584750000001,
        "traj_len": 2.7812766443223187,
        "weighted_distance": 3.6677110247829257
    },
    "planner": "KPIECE",
    "start": {
        "state": {
            "elbow_joint": 1.9565354010623817,
            "shoulder_lift_joint": -1.4165861575791021,
            "shoulder_pan_joint": -1.6717766225146293,
            "wrist_1_joint": -0.5286633292919765,
            "wrist_2_joint": 1.472756589071564,
            "wrist_3_joint": -3.1238370188695823
        }
    },
    "waypoints": [
        {
            "positions": [
                -1.6717766225146293,
                -1.4165861575791021,
                1.9565354010623817,
                -0.5286633292919765,
                1.472756589071564,
                -3.1238370188695823
            ]
        },
        {
            "positions": [
                -1.5523072005403518,
                -1.4365491784236692,
                1.9520928759593206,
                -0.5706892113813526,
                1.428608557657451,
                -3.049768547652251
            ]
        },
        {
            "positions": [
                -1.4328377785660744,
                -1.4565121992682362,
                1.9476503508562595,
                -0.6127150934707288,
                1.3844605262433378,
                -2.975700076434919
            ]
        },
        {
            "positions": [
                -1.3133683565917968,
                -1.4764752201128033,
                1.9432078257531982,
                -0.6547409755601049,
                1.3403124948292247,
                -2.9016316052175872
            ]
        },
        {
            "positions": [
                -1.1938989346175193,
                -1.4964382409573704,
                1.938765300650137,
                -0.6967668576494811,
                1.2961644634151117,
                -2.827563134000256
            ]
        },
        {
            "positions": [
                -1.323968278723648,
                -1.5074732968480007,
                1.9578255579697308,
                -0.7865140326468659,
                1.1739945670226062,
                -2.810200757594302
            ]
        },
        {
            "positions": [
                -1.4540376228297767,
                -1.5185083527386312,
                1.9768858152893245,
                -0.8762612076442506,
                1.0518246706301004,
                -2.7928383811883486
            ]
        },
        {
            "positions": [
                -1.5841069669359054,
                -1.5295434086292614,
                1.9959460726089182,
                -0.9660083826416355,
                0.9296547742375948,
                -2.7754760047823948
            ]
        },
        {
            "positions": [
                -1.714176311042034,
                -1.5405784645198917,
                2.0150063299285117,
                -1.0557555576390203,
                0.8074848778450892,
                -2.758113628376441
            ]
        },
        {
            "positions": [
                -1.8442456551481627,
                -1.551613520410522,
                2.0340665872481054,
                -1.1455027326364051,
                0.6853149814525835,
                -2.7407512519704875
            ]
        },
        {
            "positions": [
                -1.9743149992542914,
                -1.5626485763011524,
                2.053126844567699,
                -1.23524990763379,
                0.5631450850600779,
                -2.7233888755645337
            ]
        },
        {
            "positions": [
                -2.10438434336042,
                -1.5736836321917826,
                2.072187101887293,
                -1.3249970826311745,
                0.44097518866757224,
                -2.70602649915858
            ]
        },
        {
            "positions": [
                -2.234453687466549,
                -1.584718688082413,
                2.0912473592068865,
                -1.4147442576285596,
                0.3188052922750666,
                -2.688664122752626
            ]
        },
        {
            "positions": [
                -2.3645230315726775,
                -1.5957537439730434,
                2.1103076165264802,
                -1.5044914326259442,
                0.19663539588256085,
                -2.6713017463466726
            ]
        },
        {
            "positions": [
                -2.494592375678806,
                -1.6067887998636736,
                2.129367873846074,
                -1.594238607623329,
                0.07446549949005538,
                -2.6539393699407188
            ]
        },
        {
            "positions": [
                -2.559446806732364,
                -1.572588753414149,
                2.1705610830042628,
                -1.5664293201043762,
                0.12375023127064524,
                -2.7918799834623895
            ]
        },
        {
            "positions": [
                -2.558063902745004,
                -1.5083711787406404,
                2.155202524206167,
                -1.459670103247011,
                0.21135404732448904,
                -2.8643582605650697
            ]
        },
        {
            "positions": [
                -2.5566809987576438,
                -1.444153604067132,
                2.1398439654080708,
                -1.3529108863896455,
                0.29895786337833286,
                -2.93683653766775
            ]
        },
        {
            "positions": [
                -2.5552980947702832,
                -1.3799360293936231,
                2.124485406609975,
                -1.24615166953228,
                0.38656167943217656,
                -3.0093148147704296
            ]
        },
        {
            "positions": [
                -2.553915190782923,
                -1.3157184547201146,
                2.109126847811879,
                -1.1393924526749148,
                0.47416549548602044,
                -3.08179309187311
            ]
        },
        {
            "positions": [
                -2.526804670283941,
                -1.264793142476809,
                2.077347691889467,
                -1.0430399108657331,
                0.5426903343109171,
                -3.099802589636346
            ]
        },
        {
            "positions": [
                -2.499694149784959,
                -1.2138678302335038,
                2.0455685359670546,
                -0.9466873690565514,
                0.6112151731358137,
                -3.1178120873995816
            ]
        },
        {
            "positions": [
                -2.472583629285977,
                -1.1629425179901982,
                2.0137893800446425,
                -0.8503348272473696,
                0.6797400119607104,
                -3.1358215851628177
            ]
        }
    ]
}