{
    "goal": {
        "global_pose": {
            "orientation": {
                "w": 0.5084816262002911,
                "x": -0.4908360881923452,
                "y": 0.5182115481033761,
                "z": -0.48164630358495003
            },
            "position": {
                "x": 0.5540239810943604,
                "y": -0.46912469901144505,
                "z": 0.16403168439865112
            }
        },
        "name": "move_to_storage_B"
    },
    "id": "KPIECE_move_to_storage_B_2",
    "joint_names": [
        "shoulder_pan_joint",
        "shoulder_lift_joint",
        "elbow_joint",
        "wrist_1_joint",
        "wrist_2_joint",
        "wrist_3_joint"
    ],
    "metrics": {
        "cart_traj_len": 1.6462504844328476,
        "distance_elbow_joint": 1.7470293039991962,
        "distance_shoulder_lift_joint": 0.5102515949176174,
        "distance_shoulder_pan_joint": 1.186109566092882,
        "distance_wrist_1_joint": 3.025796761101986,
        "distance_wrist_2_joint": 2.732785994871116,
        "distance_wrist_3_joint": 4.31039588029766,
        "smoothness": 0.46696411273422034,
        "time": 0.13371627,
        "traj_len": 3.6759174502810126,
        "weighted_distance": 5.281263449009989
    },
    "planner": "KPIECE",
    "start": {
        "state": {
            "elbow_joint": 1.664937868594044,
            "shoulder_lift_joint": -0.661644460510453,
            "shoulder_pan_joint": -0.9139846352900073,
            "wrist_1_joint": 2.146753192139373,
            "wrist_2_joint": -2.2341966793290973,
            "wrist_3_joint": 0.005466555786416001
        }
    },
    "waypoints": [
        {
            "positions": [
                -0.9139846352900073,
                -0.661644460510453,
                1.664937868594044,
                2.146753192139373,
                -2.2341966793290973,
                0.005466555786416001
            ]
        },
        {
            "positions": [
                -0.9582319432440285,
                -0.6862546083935968,
                1.6582997391749568,
                2.085154670243781,
                -2.249919506268708,
                -0.09189237911659887
            ]
        },
        {
            "positions": [
                -0.9126092005230226,
                -0.7281584192586293,
                1.5958103923806095,
                1.962687471149445,
                -2.1794299200835785,
                -0.13512311367060537
            ]
        },
        {
            "positions": [
                -0.8669864578020169,
                -0.7700622301236619,
                1.533321045586262,
                1.8402202720551093,
                -2.108940333898449,
                -0.17835384822461187
            ]
        },
        {
            "positions": [
                -0.821363715081011,
                -0.8119660409886945,
                1.4708316987919148,
                1.7177530729607733,
                -2.038450747713319,
                -0.22158458277861837
            ]
        },
        {
            "positions": [
                -0.7757409723600053,
                -0.8538698518537271,
                1.4083423519975673,
                1.5952858738664375,
                -1.9679611615281893,
                -0.26481531733262487
            ]
        },
        {
            "positions": [
                -0.7301182296389994,
                -0.8957736627187598,
                1.34585300520322,
                1.4728186747721015,
                -1.8974715753430598,
                -0.30804605188663137
            ]
        },
        {
            "positions": [
                -0.6844954869179936,
                -0.9376774735837923,
                1.2833636584088728,
                1.3503514756777655,
                -1.8269819891579302,
                -0.35127678644063787
            ]
        },
        {
            "positions": [
                -0.6388727441969877,
                -0.979581284448825,
                1.2208743116145253,
                1.2278842765834295,
                -1.7564924029728004,
                -0.39450752099464437
            ]
        },
        {
            "positions": [
                -0.593250001475982,
                -1.0214850953138574,
                1.158384964820178,
                1.1054170774890937,
                -1.6860028167876706,
                -0.43773825554865087
            ]
        },
        {
            "positions": [
                -0.5476272587549761,
                -1.0633889061788901,
                1.0958956180258306,
                0.9829498783947577,
                -1.615513230602541,
                -0.48096899010265737
            ]
        },
        {
            "positions": [
                -0.5020045160339703,
                -1.1052927170439228,
                1.0334062712314833,
                0.8604826793004219,
                -1.5450236444174115,
                -0.5241997246566639
            ]
        },
        {
            "positions": [
                -0.4563817733129645,
                -1.1471965279089553,
                0.970916924437136,
                0.7380154802060858,
                -1.4745340582322817,
                -0.5674304592106704
            ]
        },
        {
            "positions": [
                -0.48420838584373826,
                -1.1461226354081242,
                1.016699896604192,
                0.667708565024838,
                -1.3901132878020608,
                -0.404930508545428
            ]
        },
        {
            "positions": [
                -0.512034998374512,
                -1.145048742907293,
                1.062482868771248,
                0.5974016498435901,
                -1.3056925173718399,
                -0.2424305578801857
            ]
        },
        {
            "positions": [
                -0.5398616109052858,
                -1.143974850406462,
                1.108265840938304,
                0.5270947346623425,
                -1.221271746941619,
                -0.07993060721494338
            ]
        },
        {
            "positions": [
                -0.5676882234360595,
                -1.142900957905631,
                1.15404881310536,
                0.4567878194810946,
                -1.136850976511398,
                0.08256934345029898
            ]
        },
        {
            "positions": [
                -0.5955148359668333,
                -1.1418270654048,
                1.199831785272416,
                0.38648090429984683,
                -1.0524302060811772,
                0.24506929411554135
            ]
        },
        {
            "positions": [
                -0.6233414484976071,
                -1.1407531729039688,
                1.245614757439472,
                0.31617398911859906,
                -0.9680094356509563,
                0.4075692447807836
            ]
        },
        {
            "positions": [
                -0.6511680610283809,
                -1.1396792804031377,
                1.291397729606528,
                0.2458670739373512,
                -0.8835886652207354,
                0.5700691954460261
            ]
        },
        {
            "positions": [
                -0.6789946735591545,
                -1.1386053879023066,
                1.337180701773584,
                0.17556015875610342,
                -0.7991678947905145,
                0.7325691461112683
            ]
        },
        {
            "positions": [
                -0.7068212860899283,
                -1.1375314954014755,
                1.38296367394064,
                0.10525324357485566,
                -0.7147471243602936,
                0.8950690967765108
            ]
        },
        {
            "positions": [
                -0.7346478986207021,
                -1.1364576029006443,
                1.428746646107696,
                0.034946328393607895,
                -0.6303263539300727,
                1.0575690474417532
            ]
        },
        {
            "positions": [
                -0.7624745111514759,
                -1.1353837103998132,
                1.474529618274752,
                -0.03536058678763998,
                -0.5459055834998519,
                1.2200689981069957
            ]
        },
        {
            "positions": [
                -0.7903011236822497,
                -1.1343098178989823,
                1.520312590441808,
                -0.10566750196888763,
                -0.46148481306963096,
                1.3825689487722377
            ]
        },
        {
            "positions": [
                -0.8181277362130235,
                -1.1332359253981512,
                1.566095562608864,
                -0.1759744171501354,
                -0.37706404263941007,
                1.5450688994374802
            ]
        },
        {
            "positions": [
                -0.8459543487437973,
                -1.13216203289732,
                1.61187853477592,
                -0.24628133233138338,
                -0.2926432722091892,
                1.7075688501027226
            ]
        },
        {
            "positions": [
                -0.873780961274571,
                -1.131088140396489,
                1.657661506942976,
                -0.31658824751263104,
                -0.20822250177896828,
                1.8700688007679651
            ]
        },
        {
            "positions": [
                -0.9016075738053447,
                -1.1300142478956579,
                1.703444479110032,
                -0.3868951626938789,
                -0.12380173134874739,
                2.032568751433207
            ]
        },
        {
            "positions": [
                -0.9294341863361185,
                -1.1289403553948267,
                1.749227451277088,
                -0.45720207787512657,
                -0.0393809609185265,
                2.195068702098449
            ]
        },
        {
            "positions": [
                -0.9572607988668923,
                -1.1278664628939956,
                1.7950104234441442,
                -0.5275089930563744,
                0.045039809511694395,
                2.357568652763692
            ]
        },
        {
            "positions": [
                -0.9850874113976661,
                -1.1267925703931645,
                1.8407933956112,
                -0.5978159082376223,
                0.1294605799419153,
                2.520068603428934
            ]
        },
        {
            "positions": [
                -1.0129140239284398,
                -1.1257186778923336,
                1.886576367778256,
                -0.66812282341887,
                0.21388135037213618,
                2.6825685540941766
            ]
        },
        {
            "positions": [
                -1.0407406364592136,
                -1.1246447853915025,
                1.932359339945312,
                -0.7384297386001176,
                0.2983021208023571,
                2.8450685047594186
            ]
        },
        {
            "positions": [
                -1.0685672489899873,
                -1.1235708928906714,
                1.978142312112368,
                -0.8087366537813657,
                0.38272289123257797,
                3.0075684554246616
            ]
        },
        {
            "positions": [
                -1.0963938615207611,
                -1.1224970003898402,
                2.023925284279424,
                -0.8790435689626135,
                0.4671436616627988,
                3.1700684060899036
            ]
        }
    ]
}