{
    "goal": {
        "global_pose": {
            "orientation": {
                "w": 0.7047431468963623,
                "x": -0.7094548344612122,
                "y": 0.0024358443915843964,
                "z": -0.0022348060738295317
            },
            "position": {
                "x": 0.6094750761985779,
                "y": 0.3671506643295288,
                "z": 0.19426114857196808
            }
        },
        "name": "move_to_magneteinheit_A"
    },
    "id": "KPIECE_move_to_magneteinheit_A_10",
    "joint_names": [
        "shoulder_pan_joint",
        "shoulder_lift_joint",
        "elbow_joint",
        "wrist_1_joint",
        "wrist_2_joint",
        "wrist_3_joint"
    ],
    "metrics": {
        "cart_traj_len": 3.389482782435432,
        "distance_elbow_joint": 3.887181299858593,
        "distance_shoulder_lift_joint": 0.4416688096288095,
        "distance_shoulder_pan_joint": 2.7172570292814697,
        "distance_wrist_1_joint": 1.0004984497520555,
        "distance_wrist_2_joint": 1.706420590444274,
        "distance_wrist_3_joint": 2.6294449957222272,
        "smoothness": 0.11726387912912019,
        "time": 0.152283085,
        "traj_len": 3.518873566169639,
        "weighted_distance": 4.5109068053250905
    },
    "planner": "KPIECE",
    "start": {
        "state": {
            "elbow_joint": -1.9196185241190666,
            "shoulder_lift_joint": -1.2443396400964142,
            "shoulder_pan_joint": 2.6996025414629847,
            "wrist_1_joint": -1.5485510000780065,
            "wrist_2_joint": -1.5709468930060704,
            "wrist_3_joint": 0.4420197071253992
        }
    },
    "waypoints": [
        {
            "positions": [
                2.6996025414629847,
                -1.2443396400964142,
                -1.9196185241190666,
                -1.5485510000780065,
                -1.5709468930060704,
                0.4420197071253992
            ]
        },
        {
            "positions": [
                2.56624727945771,
                -1.23147293434258,
                -1.8491260324046843,
                -1.503164846098715,
                -1.4949048417332993,
                0.48347073701060866
            ]
        },
        {
            "positions": [
                2.4328920174524353,
                -1.218606228588746,
                -1.778633540690302,
                -1.4577786921194238,
                -1.4188627904605284,
                0.5249217668958182
            ]
        },
        {
            "positions": [
                2.2995367554471606,
                -1.205739522834912,
                -1.7081410489759197,
                -1.4123925381401323,
                -1.3428207391877574,
                0.5663727967810276
            ]
        },
        {
            "positions": [
                2.1661814934418864,
                -1.1928728170810778,
                -1.6376485572615374,
                -1.3670063841608409,
                -1.2667786879149865,
                0.607823826666237
            ]
        },
        {
            "positions": [
                2.0328262314366117,
                -1.1800061113272438,
                -1.567156065547155,
                -1.3216202301815496,
                -1.1907366366422154,
                0.6492748565514466
            ]
        },
        {
            "positions": [
                1.899470969431337,
                -1.1671394055734097,
                -1.496663573832773,
                -1.2762340762022581,
                -1.1146945853694445,
                0.6907258864366561
            ]
        },
        {
            "positions": [
                1.7661157074260623,
                -1.1542726998195756,
                -1.4261710821183906,
                -1.2308479222229667,
                -1.0386525340966735,
                0.7321769163218655
            ]
        },
        {
            "positions": [
                1.6327604454207878,
                -1.1414059940657415,
                -1.3556785904040083,
                -1.1854617682436754,
                -0.9626104828239025,
                0.773627946207075
            ]
        },
        {
            "positions": [
                1.499405183415513,
                -1.1285392883119074,
                -1.285186098689626,
                -1.140075614264384,
                -0.8865684315511315,
                0.8150789760922845
            ]
        },
        {
            "positions": [
                1.3660499214102384,
                -1.1156725825580733,
                -1.2146936069752436,
                -1.0946894602850925,
                -0.8105263802783605,
                0.856530005977494
            ]
        },
        {
            "positions": [
                1.2326946594049637,
                -1.102805876804239,
                -1.1442011152608613,
                -1.0493033063058013,
                -0.7344843290055895,
                0.8979810358627035
            ]
        },
        {
            "positions": [
                1.0993393973996892,
                -1.089939171050405,
                -1.0737086235464792,
                -1.0039171523265098,
                -0.6584422777328186,
                0.9394320657479129
            ]
        },
        {
            "positions": [
                0.9659841353944145,
                -1.0770724652965709,
                -1.003216131832097,
                -0.9585309983472183,
                -0.5824002264600475,
                0.9808830956331225
            ]
        },
        {
            "positions": [
                0.83262887338914,
                -1.0642057595427368,
                -0.9327236401177145,
                -0.913144844367927,
                -0.5063581751872765,
                1.022334125518332
            ]
        },
        {
            "positions": [
                0.6992736113838651,
                -1.0513390537889027,
                -0.8622311484033323,
                -0.8677586903886355,
                -0.43031612391450547,
                1.0637851554035413
            ]
        },
        {
            "positions": [
                0.5659183493785909,
                -1.0384723480350686,
                -0.7917386566889499,
                -0.8223725364093442,
                -0.3542740726417346,
                1.1052361852887507
            ]
        },
        {
            "positions": [
                0.43256308737331617,
                -1.0256056422812345,
                -0.7212461649745676,
                -0.7769863824300528,
                -0.2782320213689635,
                1.1466872151739604
            ]
        },
        {
            "positions": [
                0.29920782536804147,
                -1.0127389365274004,
                -0.6507536732601853,
                -0.7316002284507614,
                -0.20218997009619266,
                1.1881382450591698
            ]
        },
        {
            "positions": [
                0.16585256336276655,
                -0.9998722307735664,
                -0.580261181545803,
                -0.68621407447147,
                -0.1261479188234215,
                1.2295892749443793
            ]
        },
        {
            "positions": [
                0.15639352559529712,
                -1.0138207677902336,
                -0.37107780689804165,
                -0.683125685547064,
                -0.10726638680550503,
                1.3660946283621442
            ]
        },
        {
            "positions": [
                0.14693448782782767,
                -1.0277693048069008,
                -0.16189443225028033,
                -0.6800372966226579,
                -0.08838485478758856,
                1.5025999817799094
            ]
        },
        {
            "positions": [
                0.13747545006035822,
                -1.0417178418235682,
                0.04728894239748105,
                -0.6769489076982519,
                -0.06950332276967208,
                1.6391053351976743
            ]
        },
        {
            "positions": [
                0.1280164122928888,
                -1.0556663788402354,
                0.2564723170452423,
                -0.6738605187738458,
                -0.05062179075175563,
                1.7756106886154392
            ]
        },
        {
            "positions": [
                0.11855737452541935,
                -1.0696149158569026,
                0.4656556916930037,
                -0.6707721298494398,
                -0.03174025873383915,
                1.9121160420332042
            ]
        },
        {
            "positions": [
                0.10909833675794992,
                -1.08356345287357,
                0.6748390663407651,
                -0.6676837409250338,
                -0.012858726715922683,
                2.048621395450969
            ]
        },
        {
            "positions": [
                0.09963929899048048,
                -1.0975119898902372,
                0.8840224409885264,
                -0.6645953520006277,
                0.006022805301993783,
                2.1851267488687345
            ]
        },
        {
            "positions": [
                0.09018026122301104,
                -1.1114605269069044,
                1.0932058156362876,
                -0.6615069630762217,
                0.024904337319910236,
                2.3216321022864994
            ]
        },
        {
            "positions": [
                0.0807212234555416,
                -1.1254090639235717,
                1.3023891902840492,
                -0.6584185741518156,
                0.043785869337826716,
                2.4581374557042643
            ]
        },
        {
            "positions": [
                0.07126218568807216,
                -1.1393576009402389,
                1.5115725649318104,
                -0.6553301852274096,
                0.0626674013557432,
                2.5946428091220293
            ]
        },
        {
            "positions": [
                0.06180314792060272,
                -1.1533061379569063,
                1.7207559395795715,
                -0.6522417963030035,
                0.08154893337365965,
                2.731148162539794
            ]
        },
        {
            "positions": [
                0.05234411015313328,
                -1.1672546749735735,
                1.9299393142273331,
                -0.6491534073785975,
                0.10043046539157613,
                2.867653515957559
            ]
        },
        {
            "positions": [
                0.08734340913894362,
                -1.1523451969205962,
                1.94875104498343,
                -0.6997038359049208,
                0.11795208141488953,
                2.969559109402593
            ]
        },
        {
            "positions": [
                0.12234270812475394,
                -1.137435718867619,
                1.9675627757395266,
                -0.750254264431244,
                0.13547369743820292,
                3.0714647028476265
            ]
        }
    ]
}