{
    "goal": {
        "global_pose": {
            "orientation": {
                "w": -0.4816463035849501,
                "x": 0.5182115481033762,
                "y": 0.4908360881923453,
                "z": -0.5084816262002911
            },
            "position": {
                "x": -0.8240239810943604,
                "y": -0.300875300988555,
                "z": 0.16403168439865112
            }
        },
        "name": "move_to_storage_C"
    },
    "id": "KPIECE_move_to_storage_C_62",
    "joint_names": [
        "shoulder_pan_joint",
        "shoulder_lift_joint",
        "elbow_joint",
        "wrist_1_joint",
        "wrist_2_joint",
        "wrist_3_joint"
    ],
    "metrics": {
        "cart_traj_len": 0.5770421636037921,
        "distance_elbow_joint": 0.25769949255023583,
        "distance_shoulder_lift_joint": 0.18948643160993783,
        "distance_shoulder_pan_joint": 0.4941002101811054,
        "distance_wrist_1_joint": 0.07080025777413579,
        "distance_wrist_2_joint": 1.0721137699242225,
        "distance_wrist_3_joint": 0.07002195229209729,
        "smoothness": 2.5376526478085547e-16,
        "time": 0.192439893,
        "traj_len": 1.467726852766459,
        "weighted_distance": 1.8539633347545705
    },
    "planner": "KPIECE",
    "start": {
        "state": {
            "elbow_joint": 2.010868314990456,
            "shoulder_lift_joint": -1.1634956873337592,
            "shoulder_pan_joint": -2.4736205022346125,
            "wrist_1_joint": -0.8367026794202681,
            "wrist_2_joint": 0.6746043897044499,
            "wrist_3_joint": -3.1496632123970403
        }
    },
    "waypoints": [
        {
            "positions": [
                -2.4736205022346125,
                -1.1634956873337592,
                2.010868314990456,
                -0.8367026794202681,
                0.6746043897044499,
                -3.1496632123970403
            ]
        },
        {
            "positions": [
                -2.5559705372647965,
                -1.1319146153987696,
                1.9679183995654166,
                -0.8249026364579122,
                0.8532900180251537,
                -3.137992887015024
            ]
        },
        {
            "positions": [
                -2.638320572294981,
                -1.10033354346378,
                1.9249684841403771,
                -0.8131025934955561,
                1.0319756463458574,
                -3.1263225616330077
            ]
        },
        {
            "positions": [
                -2.7206706073251654,
                -1.0687524715287902,
                1.882018568715338,
                -0.8013025505332002,
                1.210661274666561,
                -3.1146522362509916
            ]
        },
        {
            "positions": [
                -2.8030206423553494,
                -1.0371713995938006,
                1.8390686532902987,
                -0.7895025075708443,
                1.3893469029872647,
                -3.1029819108689756
            ]
        },
        {
            "positions": [
                -2.8853706773855334,
                -1.005590327658811,
                1.7961187378652592,
                -0.7777024646084882,
                1.5680325313079688,
                -3.091311585486959
            ]
        },
        {
            "positions": [
                -2.967720712415718,
                -0.9740092557238214,
                1.75316882244022,
                -0.7659024216461323,
                1.7467181596286725,
                -3.079641260104943
            ]
        }
    ]
}