{
    "goal": {
        "global_pose": {
            "orientation": {
                "w": 0.5084816217422485,
                "x": -0.49083608388900757,
                "y": 0.5182115435600281,
                "z": -0.4816462993621826
            },
            "position": {
                "x": 0.5540239810943604,
                "y": 0.030875300988554955,
                "z": 0.16403168439865112
            }
        },
        "name": "move_to_storage_A"
    },
    "id": "KPIECE_move_to_storage_A_102",
    "joint_names": [
        "shoulder_pan_joint",
        "shoulder_lift_joint",
        "elbow_joint",
        "wrist_1_joint",
        "wrist_2_joint",
        "wrist_3_joint"
    ],
    "metrics": {
        "cart_traj_len": 0.3537793744569835,
        "distance_elbow_joint": 0.44918350101166094,
        "distance_shoulder_lift_joint": 0.2347609269407518,
        "distance_shoulder_pan_joint": 0.4603603295547596,
        "distance_wrist_1_joint": 0.24341227498615947,
        "distance_wrist_2_joint": 1.1095236154235348,
        "distance_wrist_3_joint": 0.09913798676400276,
        "smoothness": 4.440892098500626e-16,
        "time": 0.049989892999999994,
        "traj_len": 1.6113282206555153,
        "weighted_distance": 2.0365634040261478
    },
    "planner": "KPIECE",
    "start": {
        "state": {
            "elbow_joint": 1.971548259319323,
            "shoulder_lift_joint": -1.1394851275133948,
            "shoulder_pan_joint": 0.1228115487234821,
            "wrist_1_joint": -0.7804723859257726,
            "wrist_2_joint": 0.12958671773740124,
            "wrist_3_joint": -3.192489227718131
        }
    },
    "waypoints": [
        {
            "positions": [
                0.1228115487234821,
                -1.1394851275133948,
                1.971548259319323,
                -0.7804723859257726,
                0.12958671773740124,
                -3.192489227718131
            ]
        },
        {
            "positions": [
                0.05704578735851645,
                -1.173022402790645,
                2.0357173308924175,
                -0.8152455680666525,
                0.2880900913693348,
                -3.1783266581804166
            ]
        },
        {
            "positions": [
                -0.008719974006449194,
                -1.2065596780678953,
                2.0998864024655117,
                -0.8500187502075325,
                0.4465934650012683,
                -3.1641640886427016
            ]
        },
        {
            "positions": [
                -0.07448573537141484,
                -1.2400969533451456,
                2.1640554740386064,
                -0.8847919323484124,
                0.6050968386332019,
                -3.150001519104987
            ]
        },
        {
            "positions": [
                -0.1402514967363805,
                -1.2736342286223958,
                2.2282245456117007,
                -0.9195651144892923,
                0.7636002122651354,
                -3.1358389495672725
            ]
        },
        {
            "positions": [
                -0.2060172581013462,
                -1.307171503899646,
                2.292393617184795,
                -0.9543382966301722,
                0.922103585897069,
                -3.121676380029558
            ]
        },
        {
            "positions": [
                -0.2717830194663118,
                -1.3407087791768963,
                2.3565626887578897,
                -0.9891114787710522,
                1.0806069595290024,
                -3.107513810491843
            ]
        },
        {
            "positions": [
                -0.3375487808312775,
                -1.3742460544541466,
                2.420731760330984,
                -1.023884660911932,
                1.239110333160936,
                -3.0933512409541284
            ]
        }
    ]
}{
    "goal": {
        "global_pose": {
            "orientation": {
                "w": 0.5084816217422485,
                "x": -0.49083608388900757,
                "y": 0.5182115435600281,
                "z": -0.4816462993621826
            },
            "position": {
                "x": 0.5540239810943604,
                "y": 0.030875300988554955,
                "z": 0.16403168439865112
            }
        },
        "name": "move_to_storage_A"
    },
    "id": "KPIECE_move_to_storage_A_102",
    "joint_names": [
        "shoulder_pan_joint",
        "shoulder_lift_joint",
        "elbow_joint",
        "wrist_1_joint",
        "wrist_2_joint",
        "wrist_3_joint"
    ],
    "metrics": {
        "cart_traj_len": 0.3525988737245641,
        "distance_elbow_joint": 0.4490345803918303,
        "distance_shoulder_lift_joint": 0.2365338882427681,
        "distance_shoulder_pan_joint": 0.4621025895890859,
        "distance_wrist_1_joint": 0.2358682886429042,
        "distance_wrist_2_joint": 1.0943989505585427,
        "distance_wrist_3_joint": 0.09185952659064389,
        "smoothness": 8.881784197001252e-16,
        "time": 0.07257678000000001,
        "traj_len": 1.6030588959909662,
        "weighted_distance": 2.0208374789672003
    },
    "planner": "KPIECE",
    "start": {
        "state": {
            "elbow_joint": 1.97154746011099,
            "shoulder_lift_joint": -1.13948474672311,
            "shoulder_pan_joint": 0.12281154466712228,
            "wrist_1_joint": -0.7804688027058302,
            "wrist_2_joint": 0.12958655903071145,
            "wrist_3_joint": 3.0906928834467795
        }
    },
    "waypoints": [
        {
            "positions": [
                0.12281154466712228,
                -1.13948474672311,
                1.97154746011099,
                -0.7804688027058302,
                0.12958655903071145,
                3.0906928834467795
            ]
        },
        {
            "positions": [
                0.05679688901153859,
                -1.1732753021863624,
                2.035695257309823,
                -0.8141642725119593,
                0.2859292662533604,
                3.103815672959729
            ]
        },
        {
            "positions": [
                -0.009217766644045097,
                -1.2070658576496152,
                2.0998430545086557,
                -0.8478597423180885,
                0.44227197347600933,
                3.1169384624726777
            ]
        },
        {
            "positions": [
                -0.0752324222996288,
                -1.2408564131128677,
                2.1639908517074886,
                -0.8815552121242177,
                0.5986146806986583,
                3.130061251985627
            ]
        },
        {
            "positions": [
                -0.14124707795521246,
                -1.2746469685761204,
                2.2281386489063215,
                -0.9152506819303469,
                0.7549573879213073,
                3.143184041498576
            ]
        },
        {
            "positions": [
                -0.2072617336107962,
                -1.3084375240393729,
                2.2922864461051544,
                -0.9489461517364761,
                0.9113000951439563,
                3.156306831011525
            ]
        },
        {
            "positions": [
                -0.27327638926637987,
                -1.3422280795026253,
                2.3564342433039873,
                -0.9826416215426053,
                1.0676428023666051,
                3.169429620524474
            ]
        },
        {
            "positions": [
                -0.3392910449219636,
                -1.376018634965878,
                2.42058204050282,
                -1.0163370913487344,
                1.2239855095892542,
                3.1825524100374234
            ]
        }
    ]
}{
    "goal": {
        "global_pose": {
            "orientation": {
                "w": 0.5084816217422485,
                "x": -0.49083608388900757,
                "y": 0.5182115435600281,
                "z": -0.4816462993621826
            },
            "position": {
                "x": 0.5540239810943604,
                "y": 0.030875300988554955,
                "z": 0.16403168439865112
            }
        },
        "name": "move_to_storage_A"
    },
    "id": "KPIECE_move_to_storage_A_102",
    "joint_names": [
        "shoulder_pan_joint",
        "shoulder_lift_joint",
        "elbow_joint",
        "wrist_1_joint",
        "wrist_2_joint",
        "wrist_3_joint"
    ],
    "metrics": {
        "cart_traj_len": 0.3524155641828741,
        "distance_elbow_joint": 0.44928385924049863,
        "distance_shoulder_lift_joint": 0.23370715287956423,
        "distance_shoulder_pan_joint": 0.45903625725941,
        "distance_wrist_1_joint": 0.2417210129608902,
        "distance_wrist_2_joint": 1.1048590339668214,
        "distance_wrist_3_joint": 0.09911897088104382,
        "smoothness": 9.992007271825419e-16,
        "time": 0.044762797,
        "traj_len": 1.6086411306404633,
        "weighted_distance": 2.032866025068555
    },
    "planner": "KPIECE",
    "start": {
        "state": {
            "elbow_joint": 1.9715472970024885,
            "shoulder_lift_joint": -1.1394870060712896,
            "shoulder_pan_joint": 0.12281152778156021,
            "wrist_1_joint": -0.780463741449964,
            "wrist_2_joint": 0.12958659822042276,
            "wrist_3_joint": 3.090690232415272
        }
    },
    "waypoints": [
        {
            "positions": [
                0.12281152778156021,
                -1.1394870060712896,
                1.9715472970024885,
                -0.780463741449964,
                0.12958659822042276,
                3.090690232415272
            ]
        },
        {
            "positions": [
                0.05723491960164449,
                -1.1728737421969417,
                2.035730705465417,
                -0.8149953147300911,
                0.2874236030728258,
                3.104850085398278
            ]
        },
        {
            "positions": [
                -0.008341688578271222,
                -1.2062604783225936,
                2.0999141139283455,
                -0.8495268880102184,
                0.4452606079252288,
                3.1190099383812844
            ]
        },
        {
            "positions": [
                -0.07391829675818692,
                -1.2396472144482458,
                2.1640975223912737,
                -0.8840584612903455,
                0.6030976127776319,
                3.1331697913642906
            ]
        },
        {
            "positions": [
                -0.13949490493810265,
                -1.2730339505738977,
                2.228280930854202,
                -0.9185900345704727,
                0.7609346176300349,
                3.147329644347297
            ]
        },
        {
            "positions": [
                -0.20507151311801838,
                -1.3064206866995498,
                2.2924643393171307,
                -0.9531216078505999,
                0.918771622482438,
                3.161489497330303
            ]
        },
        {
            "positions": [
                -0.27064812129793403,
                -1.3398074228252017,
                2.356647747780059,
                -0.987653181130727,
                1.076608627334841,
                3.1756493503133094
            ]
        },
        {
            "positions": [
                -0.33622472947784976,
                -1.3731941589508538,
                2.420831156242987,
                -1.0221847544108542,
                1.2344456321872441,
                3.1898092032963157
            ]
        }
    ]
}