{
    "goal": {
        "global_pose": {
            "orientation": {
                "w": 0.7031023480610252,
                "x": -0.7110244013736278,
                "y": 0.0077485991402295624,
                "z": 0.005598929693374583
            },
            "position": {
                "x": -0.8841497679147869,
                "y": 0.44412534475326537,
                "z": 0.3711530566215515
            }
        },
        "name": "move_to_auspresseinheit_D"
    },
    "id": "KPIECE_move_to_auspresseinheit_D_109",
    "joint_names": [
        "shoulder_pan_joint",
        "shoulder_lift_joint",
        "elbow_joint",
        "wrist_1_joint",
        "wrist_2_joint",
        "wrist_3_joint"
    ],
    "metrics": {
        "cart_traj_len": 0.34456302009922674,
        "distance_elbow_joint": 0.6669783461492271,
        "distance_shoulder_lift_joint": 0.13689413183091048,
        "distance_shoulder_pan_joint": 0.13332147453204402,
        "distance_wrist_1_joint": 0.621849693209493,
        "distance_wrist_2_joint": 1.443476384647131,
        "distance_wrist_3_joint": 0.07476005712310885,
        "smoothness": 1.973729820695923e-15,
        "time": 0.051411024,
        "traj_len": 1.7542177993316324,
        "weighted_distance": 2.3004621882558203
    },
    "planner": "KPIECE",
    "start": {
        "state": {
            "elbow_joint": -1.8275523626775212,
            "shoulder_lift_joint": -2.126789852344167,
            "shoulder_pan_joint": -0.03513704404078235,
            "wrist_1_joint": -2.347782403156801,
            "wrist_2_joint": -1.6058999987535132,
            "wrist_3_joint": -3.0880379163319196
        }
    },
    "waypoints": [
        {
            "positions": [
                -0.03513704404078235,
                -2.126789852344167,
                -1.8275523626775212,
                -2.347782403156801,
                -1.6058999987535132,
                -3.0880379163319196
            ]
        },
        {
            "positions": [
                -0.05180222835728785,
                -2.1439016188230307,
                -1.7441800694088678,
                -2.4255136148079877,
                -1.4254654506726219,
                -3.078692909191531
            ]
        },
        {
            "positions": [
                -0.06846741267379336,
                -2.1610133853018945,
                -1.6608077761402145,
                -2.503244826459174,
                -1.2450309025917305,
                -3.0693479020511423
            ]
        },
        {
            "positions": [
                -0.08513259699029885,
                -2.1781251517807583,
                -1.5774354828715609,
                -2.580976038110361,
                -1.064596354510839,
                -3.060002894910754
            ]
        },
        {
            "positions": [
                -0.10179778130680436,
                -2.195236918259622,
                -1.4940631896029077,
                -2.658707249761547,
                -0.8841618064299477,
                -3.050657887770365
            ]
        },
        {
            "positions": [
                -0.11846296562330985,
                -2.212348684738486,
                -1.4106908963342542,
                -2.736438461412734,
                -0.7037272583490564,
                -3.0413128806299765
            ]
        },
        {
            "positions": [
                -0.13512814993981537,
                -2.2294604512173497,
                -1.3273186030656008,
                -2.8141696730639207,
                -0.5232927102681648,
                -3.031967873489588
            ]
        },
        {
            "positions": [
                -0.15179333425632086,
                -2.2465722176962135,
                -1.2439463097969474,
                -2.891900884715107,
                -0.3428581621872735,
                -3.022622866349199
            ]
        },
        {
            "positions": [
                -0.16845851857282637,
                -2.2636839841750773,
                -1.160574016528294,
                -2.969632096366294,
                -0.1624236141063822,
                -3.0132778592088107
            ]
        }
    ]
}