{
    "goal": {
        "global_pose": {
            "orientation": {
                "w": 0.005598929693374612,
                "x": 0.007748599140229565,
                "y": 0.7110244013736278,
                "z": -0.7031023480610252
            },
            "position": {
                "x": -0.8858502320852131,
                "y": -0.7141253447532654,
                "z": 0.3711530566215515
            }
        },
        "name": "move_to_auspresseinheit_C"
    },
    "id": "KPIECE_move_to_auspresseinheit_C_64",
    "joint_names": [
        "shoulder_pan_joint",
        "shoulder_lift_joint",
        "elbow_joint",
        "wrist_1_joint",
        "wrist_2_joint",
        "wrist_3_joint"
    ],
    "metrics": {
        "cart_traj_len": 0.49317695820718865,
        "distance_elbow_joint": 0.9940160451851155,
        "distance_shoulder_lift_joint": 0.3224286151235476,
        "distance_shoulder_pan_joint": 0.25620741794650925,
        "distance_wrist_1_joint": 0.6565307106603527,
        "distance_wrist_2_joint": 1.3201265000577282,
        "distance_wrist_3_joint": 0.0432023630520888,
        "smoothness": 4.844609600361787e-16,
        "time": 0.8087211049999999,
        "traj_len": 1.8953922158818057,
        "weighted_distance": 2.3781449890298116
    },
    "planner": "KPIECE",
    "start": {
        "state": {
            "elbow_joint": 1.7527959577737207,
            "shoulder_lift_joint": -0.9740617694225068,
            "shoulder_pan_joint": -2.967991417825858,
            "wrist_1_joint": -0.759517768980727,
            "wrist_2_joint": 1.7443932448377408,
            "wrist_3_joint": -3.0840537646736568
        }
    },
    "waypoints": [
        {
            "positions": [
                -2.967991417825858,
                -0.9740617694225068,
                1.7527959577737207,
                -0.759517768980727,
                1.7443932448377408,
                -3.0840537646736568
            ]
        },
        {
            "positions": [
                -2.942370676031207,
                -0.941818907910152,
                1.6533943532552091,
                -0.6938646979146917,
                1.612380594831968,
                -3.088374000978866
            ]
        },
        {
            "positions": [
                -2.916749934236556,
                -0.9095760463977972,
                1.5539927487366976,
                -0.6282116268486564,
                1.4803679448261953,
                -3.0926942372840744
            ]
        },
        {
            "positions": [
                -2.8911291924419054,
                -0.8773331848854425,
                1.454591144218186,
                -0.5625585557826212,
                1.3483552948204225,
                -3.0970144735892835
            ]
        },
        {
            "positions": [
                -2.8655084506472543,
                -0.8450903233730878,
                1.3551895396996745,
                -0.49690548471658585,
                1.2163426448146495,
                -3.101334709894492
            ]
        },
        {
            "positions": [
                -2.8398877088526033,
                -0.812847461860733,
                1.255787935181163,
                -0.4312524136505506,
                1.0843299948088767,
                -3.105654946199701
            ]
        },
        {
            "positions": [
                -2.8142669670579523,
                -0.7806046003483782,
                1.1563863306626514,
                -0.3655993425845154,
                0.9523173448031039,
                -3.1099751825049102
            ]
        },
        {
            "positions": [
                -2.7886462252633013,
                -0.7483617388360235,
                1.0569847261441399,
                -0.2999462715184801,
                0.8203046947973311,
                -3.114295418810119
            ]
        },
        {
            "positions": [
                -2.7630254834686507,
                -0.7161188773236686,
                0.9575831216256282,
                -0.23429320045244473,
                0.6882920447915581,
                -3.118615655115328
            ]
        },
        {
            "positions": [
                -2.7374047416739997,
                -0.683876015811314,
                0.8581815171071167,
                -0.1686401293864095,
                0.5562793947857854,
                -3.1229358914205365
            ]
        },
        {
            "positions": [
                -2.7117839998793487,
                -0.6516331542989592,
                0.7587799125886051,
                -0.1029870583203742,
                0.4242667447800126,
                -3.1272561277257456
            ]
        }
    ]
}