{
    "goal": {
        "global_pose": {
            "orientation": {
                "w": 0.7031023480610252,
                "x": -0.7110244013736278,
                "y": 0.0077485991402295624,
                "z": 0.005598929693374583
            },
            "position": {
                "x": -0.8841497679147869,
                "y": 0.44412534475326537,
                "z": 0.3711530566215515
            }
        },
        "name": "move_to_auspresseinheit_D"
    },
    "id": "KPIECE_move_to_auspresseinheit_D_25",
    "joint_names": [
        "shoulder_pan_joint",
        "shoulder_lift_joint",
        "elbow_joint",
        "wrist_1_joint",
        "wrist_2_joint",
        "wrist_3_joint"
    ],
    "metrics": {
        "cart_traj_len": 0.34428093908425034,
        "distance_elbow_joint": 0.6691014792213086,
        "distance_shoulder_lift_joint": 0.13890439727689285,
        "distance_shoulder_pan_joint": 0.13324963096049744,
        "distance_wrist_1_joint": 0.6247260746727097,
        "distance_wrist_2_joint": 1.4443640522647303,
        "distance_wrist_3_joint": 0.08092180269067795,
        "smoothness": 4.934324565125532e-16,
        "time": 0.46948196099999995,
        "traj_len": 1.7582000560478939,
        "weighted_distance": 2.3069896335713374
    },
    "planner": "KPIECE",
    "start": {
        "state": {
            "elbow_joint": -1.8275523626775212,
            "shoulder_lift_joint": -2.126789852344167,
            "shoulder_pan_joint": -0.03513704404078235,
            "wrist_1_joint": -2.347782403156801,
            "wrist_2_joint": -1.6058999987535132,
            "wrist_3_joint": -3.0880379163319196
        }
    },
    "waypoints": [
        {
            "positions": [
                -0.03513704404078235,
                -2.126789852344167,
                -1.8275523626775212,
                -2.347782403156801,
                -1.6058999987535132,
                -3.0880379163319196
            ]
        },
        {
            "positions": [
                -0.051793247910844525,
                -2.1441529020037784,
                -1.7439146777748575,
                -2.4258731624908894,
                -1.425354492220422,
                -3.077922690995585
            ]
        },
        {
            "positions": [
                -0.06844945178090671,
                -2.16151595166339,
                -1.660276992872194,
                -2.5039639218249783,
                -1.2448089856873306,
                -3.06780746565925
            ]
        },
        {
            "positions": [
                -0.08510565565096889,
                -2.1788790013230015,
                -1.5766393079695304,
                -2.5820546811590672,
                -1.0642634791542394,
                -3.057692240322915
            ]
        },
        {
            "positions": [
                -0.10176185952103106,
                -2.1962420509826135,
                -1.493001623066867,
                -2.6601454404931557,
                -0.883717972621148,
                -3.0475770149865804
            ]
        },
        {
            "positions": [
                -0.11841806339109326,
                -2.213605100642225,
                -1.4093639381642034,
                -2.738236199827244,
                -0.7031724660880567,
                -3.037461789650246
            ]
        },
        {
            "positions": [
                -0.13507426726115543,
                -2.2309681503018366,
                -1.3257262532615397,
                -2.816326959161333,
                -0.5226269595549655,
                -3.0273465643139112
            ]
        },
        {
            "positions": [
                -0.1517304711312176,
                -2.248331199961448,
                -1.2420885683588763,
                -2.894417718495422,
                -0.3420814530218741,
                -3.0172313389775764
            ]
        },
        {
            "positions": [
                -0.1683866750012798,
                -2.2656942496210597,
                -1.1584508834562126,
                -2.9725084778295106,
                -0.16153594648878286,
                -3.0071161136412417
            ]
        }
    ]
}