{
    "goal": {
        "global_pose": {
            "orientation": {
                "w": 0.7031023502349854,
                "x": -0.7110244035720825,
                "y": 0.007748599164187908,
                "z": 0.005598929710686207
            },
            "position": {
                "x": 0.11585023208521307,
                "y": 0.44412534475326537,
                "z": 0.3711530566215515
            }
        },
        "name": "move_to_auspresseinheit_A"
    },
    "id": "KPIECE_move_to_auspresseinheit_A_28",
    "joint_names": [
        "shoulder_pan_joint",
        "shoulder_lift_joint",
        "elbow_joint",
        "wrist_1_joint",
        "wrist_2_joint",
        "wrist_3_joint"
    ],
    "metrics": {
        "cart_traj_len": 0.7266602394370593,
        "distance_elbow_joint": 0.10053989689219733,
        "distance_shoulder_lift_joint": 0.731146132404755,
        "distance_shoulder_pan_joint": 1.0454312991965677,
        "distance_wrist_1_joint": 0.56312021319378,
        "distance_wrist_2_joint": 1.4678539677404925,
        "distance_wrist_3_joint": 2.051012679569557,
        "smoothness": 1.2712785171974474,
        "time": 0.133785722,
        "traj_len": 2.4411276470101577,
        "weighted_distance": 3.4773702318089077
    },
    "planner": "KPIECE",
    "start": {
        "state": {
            "elbow_joint": 2.4225746658250005,
            "shoulder_lift_joint": -1.3736534386056498,
            "shoulder_pan_joint": -0.3378633547517467,
            "wrist_1_joint": -1.0288598680537169,
            "wrist_2_joint": 1.233022673432363,
            "wrist_3_joint": -3.0940220416140027
        }
    },
    "waypoints": [
        {
            "positions": [
                -0.3378633547517467,
                -1.3736534386056498,
                2.4225746658250005,
                -1.0288598680537169,
                1.233022673432363,
                -3.0940220416140027
            ]
        },
        {
            "positions": [
                -0.28714852800785196,
                -1.4425214915438513,
                2.415345137486823,
                -0.9817207528557755,
                1.12289369065168,
                -2.982044988302719
            ]
        },
        {
            "positions": [
                -0.23643370126395713,
                -1.5113895444820526,
                2.4081156091486458,
                -0.9345816376578342,
                1.0127647078709971,
                -2.8700679349914346
            ]
        },
        {
            "positions": [
                -0.18571887452006233,
                -1.5802575974202542,
                2.4008860808104684,
                -0.887442522459893,
                0.9026357250903141,
                -2.758090881680151
            ]
        },
        {
            "positions": [
                -0.13500404777616754,
                -1.6491256503584557,
                2.393656552472291,
                -0.8403034072619516,
                0.7925067423096313,
                -2.6461138283688665
            ]
        },
        {
            "positions": [
                -0.08428922103227271,
                -1.7179937032966572,
                2.3864270241341137,
                -0.7931642920640103,
                0.6823777595289482,
                -2.5341367750575827
            ]
        },
        {
            "positions": [
                -0.03357439428837794,
                -1.7868617562348585,
                2.3791974957959363,
                -0.7460251768660691,
                0.5722487767482652,
                -2.422159721746299
            ]
        },
        {
            "positions": [
                0.017140432455516885,
                -1.85572980917306,
                2.371967967457759,
                -0.6988860616681276,
                0.4621197939675822,
                -2.3101826684350146
            ]
        },
        {
            "positions": [
                0.06785525919941165,
                -1.9245978621112614,
                2.3647384391195816,
                -0.6517469464701864,
                0.35199081118689934,
                -2.1982056151237304
            ]
        },
        {
            "positions": [
                0.11857008594330648,
                -1.993465915049463,
                2.3575089107814042,
                -0.604607831272245,
                0.24186182840621626,
                -2.0862285618124465
            ]
        },
        {
            "positions": [
                0.20279998412374783,
                -1.9740292404342554,
                2.3637856650756106,
                -0.5843398918712303,
                0.32141628246683845,
                -2.2267492818010797
            ]
        },
        {
            "positions": [
                0.2870298823041892,
                -1.954592565819048,
                2.3700624193698174,
                -0.5640719524702154,
                0.4009707365274606,
                -2.367270001789713
            ]
        },
        {
            "positions": [
                0.3712597804846305,
                -1.9351558912038402,
                2.376339173664024,
                -0.5438040130692006,
                0.4805251905880828,
                -2.5077907217783464
            ]
        },
        {
            "positions": [
                0.4554896786650719,
                -1.9157192165886328,
                2.3826159279582306,
                -0.5235360736681857,
                0.560079644648705,
                -2.6483114417669795
            ]
        },
        {
            "positions": [
                0.5397195768455132,
                -1.8962825419734253,
                2.388892682252437,
                -0.5032681342671709,
                0.6396340987093272,
                -2.7888321617556127
            ]
        },
        {
            "positions": [
                0.6236437606451671,
                -1.9033576834158774,
                2.390937867441221,
                -0.4845038945635539,
                0.6790945249149446,
                -2.95913996166803
            ]
        },
        {
            "positions": [
                0.7075679444448211,
                -1.9104328248583295,
                2.3929830526300053,
                -0.4657396548599369,
                0.718554951120562,
                -3.1294477615804475
            ]
        }
    ]
}