{
    "goal": {
        "global_pose": {
            "orientation": {
                "w": 0.005598929693374612,
                "x": 0.007748599140229565,
                "y": 0.7110244013736278,
                "z": -0.7031023480610252
            },
            "position": {
                "x": -0.8858502320852131,
                "y": -0.7141253447532654,
                "z": 0.3711530566215515
            }
        },
        "name": "move_to_auspresseinheit_C"
    },
    "id": "KPIECE_move_to_auspresseinheit_C_141",
    "joint_names": [
        "shoulder_pan_joint",
        "shoulder_lift_joint",
        "elbow_joint",
        "wrist_1_joint",
        "wrist_2_joint",
        "wrist_3_joint"
    ],
    "metrics": {
        "cart_traj_len": 0.4930041932547188,
        "distance_elbow_joint": 0.9902324968140062,
        "distance_shoulder_lift_joint": 0.32008009717761776,
        "distance_shoulder_pan_joint": 0.2574286289073191,
        "distance_wrist_1_joint": 0.6635008134406732,
        "distance_wrist_2_joint": 1.3018313416239162,
        "distance_wrist_3_joint": 0.04584162209098386,
        "smoothness": 4.844609574787718e-16,
        "time": 0.617419351,
        "traj_len": 1.8918020509700575,
        "weighted_distance": 2.3740114572809192
    },
    "planner": "KPIECE",
    "start": {
        "state": {
            "elbow_joint": 1.7527959577737207,
            "shoulder_lift_joint": -0.9740617694225068,
            "shoulder_pan_joint": -2.967991417825858,
            "wrist_1_joint": -0.759517768980727,
            "wrist_2_joint": 1.7443932448377408,
            "wrist_3_joint": -3.0840537646736568
        }
    },
    "waypoints": [
        {
            "positions": [
                -2.967991417825858,
                -0.9740617694225068,
                1.7527959577737207,
                -0.759517768980727,
                1.7443932448377408,
                -3.0840537646736568
            ]
        },
        {
            "positions": [
                -2.942248554935126,
                -0.942053759704745,
                1.6537727080923201,
                -0.6931676876366597,
                1.6142101106753493,
                -3.0886379268827553
            ]
        },
        {
            "positions": [
                -2.916505692044394,
                -0.9100457499869832,
                1.5547494584109194,
                -0.6268176062925923,
                1.4840269765129577,
                -3.0932220890918534
            ]
        },
        {
            "positions": [
                -2.8907628291536622,
                -0.8780377402692214,
                1.4557262087295189,
                -0.560467524948525,
                1.353843842350566,
                -3.097806251300952
            ]
        },
        {
            "positions": [
                -2.8650199662629303,
                -0.8460297305514597,
                1.356702959048118,
                -0.4941174436044577,
                1.2236607081881743,
                -3.1023904135100504
            ]
        },
        {
            "positions": [
                -2.8392771033721984,
                -0.814021720833698,
                1.2576797093667176,
                -0.42776736226039036,
                1.0934775740257827,
                -3.106974575719149
            ]
        },
        {
            "positions": [
                -2.8135342404814665,
                -0.7820137111159361,
                1.158656459685317,
                -0.361417280916323,
                0.9632944398633911,
                -3.111558737928247
            ]
        },
        {
            "positions": [
                -2.7877913775907346,
                -0.7500057013981744,
                1.0596332100039163,
                -0.29506719957225575,
                0.8331113057009996,
                -3.1161429001373455
            ]
        },
        {
            "positions": [
                -2.7620485147000027,
                -0.7179976916804125,
                0.9606099603225157,
                -0.2287171182281884,
                0.7029281715386078,
                -3.120727062346444
            ]
        },
        {
            "positions": [
                -2.7363056518092708,
                -0.6859896819626508,
                0.8615867106411151,
                -0.16236703688412102,
                0.5727450373762162,
                -3.125311224555542
            ]
        },
        {
            "positions": [
                -2.710562788918539,
                -0.653981672244889,
                0.7625634609597145,
                -0.09601695554005377,
                0.44256190321382455,
                -3.1298953867646406
            ]
        }
    ]
}