{
    "goal": {
        "global_pose": {
            "orientation": {
                "w": -0.00223480608172531,
                "x": 0.0024358444001904467,
                "y": 0.7094548369677653,
                "z": -0.704743149386269
            },
            "position": {
                "x": -0.37947507619857795,
                "y": -0.6371506643295288,
                "z": 0.19426114857196808
            }
        },
        "name": "move_to_magneteinheit_C"
    },
    "id": "KPIECE_move_to_magneteinheit_C_13",
    "joint_names": [
        "shoulder_pan_joint",
        "shoulder_lift_joint",
        "elbow_joint",
        "wrist_1_joint",
        "wrist_2_joint",
        "wrist_3_joint"
    ],
    "metrics": {
        "cart_traj_len": 1.119931021422868,
        "distance_elbow_joint": 1.092644316162906,
        "distance_shoulder_lift_joint": 0.6287808324834125,
        "distance_shoulder_pan_joint": 1.2294138010533497,
        "distance_wrist_1_joint": 1.7298029662668206,
        "distance_wrist_2_joint": 2.5884906034231494,
        "distance_wrist_3_joint": 1.297838717906075,
        "smoothness": 1.8907385913071726,
        "time": 0.615633366,
        "traj_len": 2.9269388851316513,
        "weighted_distance": 3.934582854992106
    },
    "planner": "KPIECE",
    "start": {
        "state": {
            "elbow_joint": 1.9565354010623817,
            "shoulder_lift_joint": -1.4165861575791021,
            "shoulder_pan_joint": -1.6717766225146293,
            "wrist_1_joint": -0.5286633292919765,
            "wrist_2_joint": 1.472756589071564,
            "wrist_3_joint": -3.1238370188695823
        }
    },
    "waypoints": [
        {
            "positions": [
                -1.6717766225146293,
                -1.4165861575791021,
                1.9565354010623817,
                -0.5286633292919765,
                1.472756589071564,
                -3.1238370188695823
            ]
        },
        {
            "positions": [
                -1.6575214229780855,
                -1.4486536198117774,
                1.9290196468648855,
                -0.4159591178328572,
                1.4138456236590706,
                -3.025870806577441
            ]
        },
        {
            "positions": [
                -1.6432662234415414,
                -1.4807210820444525,
                1.9015038926673895,
                -0.30325490637373803,
                1.3549346582465773,
                -2.9279045942853
            ]
        },
        {
            "positions": [
                -1.6290110239049975,
                -1.5127885442771278,
                1.8739881384698935,
                -0.19055069491461885,
                1.296023692834084,
                -2.8299383819931587
            ]
        },
        {
            "positions": [
                -1.6147558243684537,
                -1.5448560065098031,
                1.8464723842723973,
                -0.07784648345549959,
                1.2371127274215907,
                -2.7319721697010175
            ]
        },
        {
            "positions": [
                -1.6873108687892648,
                -1.5133328937795993,
                1.887285899147035,
                -0.15022612018961518,
                1.1327590781225878,
                -2.779506448840522
            ]
        },
        {
            "positions": [
                -1.759865913210076,
                -1.4818097810493953,
                1.9280994140216727,
                -0.22260575692373075,
                1.0284054288235849,
                -2.827040727980027
            ]
        },
        {
            "positions": [
                -1.8324209576308872,
                -1.4502866683191915,
                1.9689129288963103,
                -0.2949853936578463,
                0.924051779524582,
                -2.8745750071195317
            ]
        },
        {
            "positions": [
                -1.9049760020516984,
                -1.4187635555889877,
                2.009726443770948,
                -0.3673650303919619,
                0.819698130225579,
                -2.9221092862590363
            ]
        },
        {
            "positions": [
                -1.9775310464725095,
                -1.3872404428587837,
                2.0505399586455857,
                -0.4397446671260775,
                0.7153444809265761,
                -2.9696435653985414
            ]
        },
        {
            "positions": [
                -2.0500860908933207,
                -1.3557173301285799,
                2.0913534735202233,
                -0.512124303860193,
                0.6109908316275732,
                -3.017177844538046
            ]
        },
        {
            "positions": [
                -2.122641135314132,
                -1.324194217398376,
                2.132166988394861,
                -0.5845039405943087,
                0.5066371823285702,
                -3.064712123677551
            ]
        },
        {
            "positions": [
                -2.195196179734943,
                -1.292671104668172,
                2.1729805032694984,
                -0.6568835773284242,
                0.4022835330295673,
                -3.1122464028170556
            ]
        },
        {
            "positions": [
                -2.267751224155754,
                -1.2611479919379682,
                2.213794018144136,
                -0.7292632140625399,
                0.2979298837305643,
                -3.15978068195656
            ]
        },
        {
            "positions": [
                -2.3403062685765654,
                -1.2296248792077642,
                2.254607533018774,
                -0.8016428507966554,
                0.19357623443156147,
                -3.207314961096065
            ]
        },
        {
            "positions": [
                -2.412861312997377,
                -1.1981017664775604,
                2.295421047893411,
                -0.8740224875307709,
                0.08922258513255854,
                -3.2548492402355698
            ]
        },
        {
            "positions": [
                -2.485416357418188,
                -1.1665786537473566,
                2.336234562768049,
                -0.9464021242648865,
                -0.015131064166444386,
                -3.3023835193750743
            ]
        },
        {
            "positions": [
                -2.5579714018389987,
                -1.1350555410171526,
                2.3770480776426868,
                -1.0187817609990022,
                -0.11948471346544731,
                -3.3499177985145794
            ]
        },
        {
            "positions": [
                -2.63052644625981,
                -1.1035324282869488,
                2.4178615925173244,
                -1.0911613977331176,
                -0.2238383627644503,
                -3.397452077654084
            ]
        },
        {
            "positions": [
                -2.6044227160905074,
                -1.113396995841925,
                2.3493295773293252,
                -1.04688286337433,
                -0.07518908749992786,
                -3.3573697508566767
            ]
        },
        {
            "positions": [
                -2.578318985921204,
                -1.1232615633969012,
                2.280797562141326,
                -1.0026043290155424,
                0.07346018776459456,
                -3.3172874240592694
            ]
        },
        {
            "positions": [
                -2.5522152557519013,
                -1.1331261309518772,
                2.212265546953327,
                -0.9583257946567547,
                0.222109463029117,
                -3.277205097261862
            ]
        },
        {
            "positions": [
                -2.5261115255825985,
                -1.1429906985068534,
                2.143733531765328,
                -0.9140472602979671,
                0.3707587382936394,
                -3.2371227704644547
            ]
        },
        {
            "positions": [
                -2.5000077954132953,
                -1.1528552660618296,
                2.0752015165773288,
                -0.8697687259391794,
                0.5194080135581618,
                -3.1970404436670474
            ]
        },
        {
            "positions": [
                -2.4739040652439925,
                -1.1627198336168059,
                2.0066695013893296,
                -0.8254901915803918,
                0.6680572888226843,
                -3.15695811686964
            ]
        }
    ]
}