{
    "goal": {
        "global_pose": {
            "orientation": {
                "w": 0.005598929693374612,
                "x": 0.007748599140229565,
                "y": 0.7110244013736278,
                "z": -0.7031023480610252
            },
            "position": {
                "x": -0.8858502320852131,
                "y": -0.7141253447532654,
                "z": 0.3711530566215515
            }
        },
        "name": "move_to_auspresseinheit_C"
    },
    "id": "KPIECE_move_to_auspresseinheit_C_33",
    "joint_names": [
        "shoulder_pan_joint",
        "shoulder_lift_joint",
        "elbow_joint",
        "wrist_1_joint",
        "wrist_2_joint",
        "wrist_3_joint"
    ],
    "metrics": {
        "cart_traj_len": 0.49302109259405835,
        "distance_elbow_joint": 0.9912711792853818,
        "distance_shoulder_lift_joint": 0.32095704087269183,
        "distance_shoulder_pan_joint": 0.2566395833223942,
        "distance_wrist_1_joint": 0.6560090238908157,
        "distance_wrist_2_joint": 1.309613917993186,
        "distance_wrist_3_joint": 0.03424034356615602,
        "smoothness": 3.2297397080004555e-16,
        "time": 0.665185241,
        "traj_len": 1.8891085434486354,
        "weighted_distance": 2.367030780946234
    },
    "planner": "KPIECE",
    "start": {
        "state": {
            "elbow_joint": 1.7527959577737207,
            "shoulder_lift_joint": -0.9740617694225068,
            "shoulder_pan_joint": -2.967991417825858,
            "wrist_1_joint": -0.759517768980727,
            "wrist_2_joint": 1.7443932448377408,
            "wrist_3_joint": -3.0840537646736568
        }
    },
    "waypoints": [
        {
            "positions": [
                -2.967991417825858,
                -0.9740617694225068,
                1.7527959577737207,
                -0.759517768980727,
                1.7443932448377408,
                -3.0840537646736568
            ]
        },
        {
            "positions": [
                -2.9423274594936184,
                -0.9419660653352376,
                1.6536688398451824,
                -0.6939168665916454,
                1.6134318530384222,
                -3.0874777990302724
            ]
        },
        {
            "positions": [
                -2.9166635011613793,
                -0.9098703612479684,
                1.5545417219166442,
                -0.6283159642025639,
                1.4824704612391035,
                -3.090901833386888
            ]
        },
        {
            "positions": [
                -2.8909995428291397,
                -0.8777746571606992,
                1.4554146039881062,
                -0.5627150618134823,
                1.351509069439785,
                -3.0943258677435037
            ]
        },
        {
            "positions": [
                -2.8653355844969,
                -0.84567895307343,
                1.356287486059568,
                -0.4971141594244007,
                1.2205476776404662,
                -3.0977499021001194
            ]
        },
        {
            "positions": [
                -2.8396716261646606,
                -0.8135832489861609,
                1.2571603681310297,
                -0.4315132570353191,
                1.0895862858411478,
                -3.1011739364567346
            ]
        },
        {
            "positions": [
                -2.8140076678324215,
                -0.7814875448988917,
                1.1580332502024917,
                -0.36591235464623756,
                0.9586248940418293,
                -3.10459797081335
            ]
        },
        {
            "positions": [
                -2.788343709500182,
                -0.7493918408116225,
                1.0589061322739535,
                -0.300311452257156,
                0.8276635022425106,
                -3.108022005169966
            ]
        },
        {
            "positions": [
                -2.7626797511679424,
                -0.7172961367243533,
                0.9597790143454152,
                -0.23471054986807438,
                0.6967021104431919,
                -3.1114460395265815
            ]
        },
        {
            "positions": [
                -2.7370157928357033,
                -0.6852004326370842,
                0.860651896416877,
                -0.16910964747899282,
                0.5657407186438734,
                -3.114870073883197
            ]
        },
        {
            "positions": [
                -2.7113518345034637,
                -0.6531047285498149,
                0.7615247784883389,
                -0.10350874508991127,
                0.4347793268445547,
                -3.118294108239813
            ]
        }
    ]
}