{
    "goal": {
        "global_pose": {
            "orientation": {
                "w": 0.7031023480610252,
                "x": -0.7110244013736278,
                "y": 0.0077485991402295624,
                "z": 0.005598929693374583
            },
            "position": {
                "x": -0.8841497679147869,
                "y": 0.44412534475326537,
                "z": 0.3711530566215515
            }
        },
        "name": "move_to_auspresseinheit_D"
    },
    "id": "KPIECE_move_to_auspresseinheit_D_143",
    "joint_names": [
        "shoulder_pan_joint",
        "shoulder_lift_joint",
        "elbow_joint",
        "wrist_1_joint",
        "wrist_2_joint",
        "wrist_3_joint"
    ],
    "metrics": {
        "cart_traj_len": 0.34301432551498257,
        "distance_elbow_joint": 0.6510758772562695,
        "distance_shoulder_lift_joint": 0.12860383896940508,
        "distance_shoulder_pan_joint": 0.13344155366186597,
        "distance_wrist_1_joint": 0.5824169725905244,
        "distance_wrist_2_joint": 1.4318586486028575,
        "distance_wrist_3_joint": 0.0500365189917642,
        "smoothness": 0.0,
        "time": 0.202996801,
        "traj_len": 1.7255240972158825,
        "weighted_distance": 2.2564977441268574
    },
    "planner": "KPIECE",
    "start": {
        "state": {
            "elbow_joint": -1.8275523626775212,
            "shoulder_lift_joint": -2.126789852344167,
            "shoulder_pan_joint": -0.03513704404078235,
            "wrist_1_joint": -2.347782403156801,
            "wrist_2_joint": -1.6058999987535132,
            "wrist_3_joint": -3.0880379163319196
        }
    },
    "waypoints": [
        {
            "positions": [
                -0.03513704404078235,
                -2.126789852344167,
                -1.8275523626775212,
                -2.347782403156801,
                -1.6058999987535132,
                -3.0880379163319196
            ]
        },
        {
            "positions": [
                -0.0518172382485156,
                -2.1428653322153424,
                -1.7461678780204875,
                -2.4205845247306166,
                -1.426917667678156,
                -3.081783351457949
            ]
        },
        {
            "positions": [
                -0.06849743245624884,
                -2.1589408120865183,
                -1.6647833933634537,
                -2.493386646304432,
                -1.2479353366027988,
                -3.0755287865839787
            ]
        },
        {
            "positions": [
                -0.0851776266639821,
                -2.175016291957694,
                -1.5833989087064202,
                -2.5661887678782476,
                -1.0689530055274417,
                -3.069274221710008
            ]
        },
        {
            "positions": [
                -0.10185782087171533,
                -2.1910917718288694,
                -1.5020144240493865,
                -2.638990889452063,
                -0.8899706744520844,
                -3.0630196568360377
            ]
        },
        {
            "positions": [
                -0.11853801507944858,
                -2.207167251700045,
                -1.4206299393923527,
                -2.7117930110258786,
                -0.7109883433767272,
                -3.056765091962067
            ]
        },
        {
            "positions": [
                -0.13521820928718184,
                -2.2232427315712204,
                -1.3392454547353192,
                -2.7845951325996943,
                -0.5320060123013701,
                -3.0505105270880963
            ]
        },
        {
            "positions": [
                -0.15189840349491507,
                -2.2393182114423964,
                -1.2578609700782855,
                -2.8573972541735095,
                -0.3530236812260128,
                -3.044255962214126
            ]
        },
        {
            "positions": [
                -0.16857859770264833,
                -2.255393691313572,
                -1.1764764854212517,
                -2.9301993757473253,
                -0.1740413501506557,
                -3.0380013973401554
            ]
        }
    ]
}