{
    "goal": {
        "global_pose": {
            "orientation": {
                "w": 0.5084816217422485,
                "x": -0.49083608388900757,
                "y": 0.5182115435600281,
                "z": -0.4816462993621826
            },
            "position": {
                "x": 0.5540239810943604,
                "y": 0.030875300988554955,
                "z": 0.16403168439865112
            }
        },
        "name": "move_to_storage_A"
    },
    "id": "KPIECE_move_to_storage_A_39",
    "joint_names": [
        "shoulder_pan_joint",
        "shoulder_lift_joint",
        "elbow_joint",
        "wrist_1_joint",
        "wrist_2_joint",
        "wrist_3_joint"
    ],
    "metrics": {
        "cart_traj_len": 0.3534074016954643,
        "distance_elbow_joint": 0.4497086035551343,
        "distance_shoulder_lift_joint": 0.23553391077506491,
        "distance_shoulder_pan_joint": 0.464547863027663,
        "distance_wrist_1_joint": 0.23770325832107997,
        "distance_wrist_2_joint": 1.0897490141779955,
        "distance_wrist_3_joint": 0.09778047779716204,
        "smoothness": 4.440892133664971e-16,
        "time": 0.037275546,
        "traj_len": 1.6046878598824443,
        "weighted_distance": 2.024360727673677
    },
    "planner": "KPIECE",
    "start": {
        "state": {
            "elbow_joint": 1.971548259319323,
            "shoulder_lift_joint": -1.1394851275133948,
            "shoulder_pan_joint": 0.1228115487234821,
            "wrist_1_joint": -0.7804723859257726,
            "wrist_2_joint": 0.12958671773740124,
            "wrist_3_joint": -3.192489227718131
        }
    },
    "waypoints": [
        {
            "positions": [
                0.1228115487234821,
                -1.1394851275133948,
                1.971548259319323,
                -0.7804723859257726,
                0.12958671773740124,
                -3.192489227718131
            ]
        },
        {
            "positions": [
                0.056447568290958816,
                -1.17313282905269,
                2.035792345541485,
                -0.8144299942573555,
                0.28526514833425776,
                -3.1785205880328222
            ]
        },
        {
            "positions": [
                -0.009916412141564468,
                -1.2067805305919848,
                2.1000364317636473,
                -0.8483876025889383,
                0.44094357893111424,
                -3.1645519483475133
            ]
        },
        {
            "positions": [
                -0.07628039257408775,
                -1.2404282321312798,
                2.164280517985809,
                -0.8823452109205212,
                0.5966220095279707,
                -3.1505833086622044
            ]
        },
        {
            "positions": [
                -0.14264437300661104,
                -1.2740759336705747,
                2.228524604207971,
                -0.916302819252104,
                0.7523004401248272,
                -3.136614668976896
            ]
        },
        {
            "positions": [
                -0.20900835343913432,
                -1.3077236352098698,
                2.292768690430133,
                -0.9502604275836869,
                0.9079788707216838,
                -3.122646029291587
            ]
        },
        {
            "positions": [
                -0.2753723338716576,
                -1.3413713367491646,
                2.3570127766522955,
                -0.9842180359152697,
                1.0636573013185402,
                -3.108677389606278
            ]
        },
        {
            "positions": [
                -0.3417363143041809,
                -1.3750190382884597,
                2.4212568628744573,
                -1.0181756442468526,
                1.2193357319153968,
                -3.094708749920969
            ]
        }
    ]
}{
    "goal": {
        "global_pose": {
            "orientation": {
                "w": 0.5084816217422485,
                "x": -0.49083608388900757,
                "y": 0.5182115435600281,
                "z": -0.4816462993621826
            },
            "position": {
                "x": 0.5540239810943604,
                "y": 0.030875300988554955,
                "z": 0.16403168439865112
            }
        },
        "name": "move_to_storage_A"
    },
    "id": "KPIECE_move_to_storage_A_39",
    "joint_names": [
        "shoulder_pan_joint",
        "shoulder_lift_joint",
        "elbow_joint",
        "wrist_1_joint",
        "wrist_2_joint",
        "wrist_3_joint"
    ],
    "metrics": {
        "cart_traj_len": 0.3530525411787366,
        "distance_elbow_joint": 0.45345211043766076,
        "distance_shoulder_lift_joint": 0.2333723984288405,
        "distance_shoulder_pan_joint": 0.46245168593050623,
        "distance_wrist_1_joint": 0.25587084685492956,
        "distance_wrist_2_joint": 1.0955398770180018,
        "distance_wrist_3_joint": 0.09138982286338493,
        "smoothness": 4.440892098500626e-16,
        "time": 0.032373541,
        "traj_len": 1.6099927768575,
        "weighted_distance": 2.0313215184044657
    },
    "planner": "KPIECE",
    "start": {
        "state": {
            "elbow_joint": 1.97154746011099,
            "shoulder_lift_joint": -1.13948474672311,
            "shoulder_pan_joint": 0.12281154466712228,
            "wrist_1_joint": -0.7804688027058302,
            "wrist_2_joint": 0.12958655903071145,
            "wrist_3_joint": 3.0906928834467795
        }
    },
    "waypoints": [
        {
            "positions": [
                0.12281154466712228,
                -1.13948474672311,
                1.97154746011099,
                -0.7804688027058302,
                0.12958655903071145,
                3.0906928834467795
            ]
        },
        {
            "positions": [
                0.0567470181056214,
                -1.172823660784373,
                2.036326333030656,
                -0.817021780827963,
                0.28609225574756886,
                3.103748572427263
            ]
        },
        {
            "positions": [
                -0.009317508455879489,
                -1.2061625748456357,
                2.1011052059503217,
                -0.8535747589500957,
                0.44259795246442624,
                3.1168042614077467
            ]
        },
        {
            "positions": [
                -0.07538203501738037,
                -1.2395014889068987,
                2.1658840788699876,
                -0.8901277370722286,
                0.5991036491812837,
                3.12985995038823
            ]
        },
        {
            "positions": [
                -0.14144656157888125,
                -1.2728404029681617,
                2.230662951789653,
                -0.9266807151943613,
                0.7556093458981411,
                3.142915639368714
            ]
        },
        {
            "positions": [
                -0.20751108814038216,
                -1.3061793170294247,
                2.295441824709319,
                -0.9632336933164942,
                0.9121150426149985,
                3.1559713283491972
            ]
        },
        {
            "positions": [
                -0.273575614701883,
                -1.3395182310906875,
                2.360220697628985,
                -0.999786671438627,
                1.0686207393318559,
                3.169027017329681
            ]
        },
        {
            "positions": [
                -0.33964014126338393,
                -1.3728571451519505,
                2.4249995705486507,
                -1.0363396495607597,
                1.2251264360487133,
                3.1820827063101644
            ]
        }
    ]
}{
    "goal": {
        "global_pose": {
            "orientation": {
                "w": 0.5084816217422485,
                "x": -0.49083608388900757,
                "y": 0.5182115435600281,
                "z": -0.4816462993621826
            },
            "position": {
                "x": 0.5540239810943604,
                "y": 0.030875300988554955,
                "z": 0.16403168439865112
            }
        },
        "name": "move_to_storage_A"
    },
    "id": "KPIECE_move_to_storage_A_39",
    "joint_names": [
        "shoulder_pan_joint",
        "shoulder_lift_joint",
        "elbow_joint",
        "wrist_1_joint",
        "wrist_2_joint",
        "wrist_3_joint"
    ],
    "metrics": {
        "cart_traj_len": 0.35353951946199513,
        "distance_elbow_joint": 0.45099910128204,
        "distance_shoulder_lift_joint": 0.23432407809479705,
        "distance_shoulder_pan_joint": 0.4639341717254445,
        "distance_wrist_1_joint": 0.24185353057046144,
        "distance_wrist_2_joint": 1.0932498575176743,
        "distance_wrist_3_joint": 0.0904857785387736,
        "smoothness": 2.2204460668324854e-16,
        "time": 0.077461451,
        "traj_len": 1.6046328295685561,
        "weighted_distance": 2.0226026458241555
    },
    "planner": "KPIECE",
    "start": {
        "state": {
            "elbow_joint": 1.9715472970024885,
            "shoulder_lift_joint": -1.1394870060712896,
            "shoulder_pan_joint": 0.12281152778156021,
            "wrist_1_joint": -0.780463741449964,
            "wrist_2_joint": 0.12958659822042276,
            "wrist_3_joint": 3.090690232415272
        }
    },
    "waypoints": [
        {
            "positions": [
                0.12281152778156021,
                -1.1394870060712896,
                1.9715472970024885,
                -0.780463741449964,
                0.12958659822042276,
                3.090690232415272
            ]
        },
        {
            "positions": [
                0.05653521753506814,
                -1.1729618743705463,
                2.03597574004278,
                -0.8150142458171727,
                0.28576514929437624,
                3.103616772206525
            ]
        },
        {
            "positions": [
                -0.009741092711423927,
                -1.206436742669803,
                2.1004041830830715,
                -0.8495647501843815,
                0.44194370036832975,
                3.116543311997779
            ]
        },
        {
            "positions": [
                -0.07601740295791598,
                -1.2399116109690598,
                2.164832626123363,
                -0.8841152545515903,
                0.5981222514422831,
                3.129469851789032
            ]
        },
        {
            "positions": [
                -0.14229371320440806,
                -1.2733864792683165,
                2.229261069163654,
                -0.9186657589187991,
                0.7543008025162367,
                3.1423963915802853
            ]
        },
        {
            "positions": [
                -0.20857002345090017,
                -1.3068613475675732,
                2.2936895122039456,
                -0.953216263286008,
                0.9104793535901902,
                3.1553229313715385
            ]
        },
        {
            "positions": [
                -0.2748463336973922,
                -1.34033621586683,
                2.358117955244237,
                -0.9877667676532167,
                1.0666579046641436,
                3.168249471162792
            ]
        },
        {
            "positions": [
                -0.34112264394388425,
                -1.3738110841660867,
                2.4225463982845286,
                -1.0223172720204254,
                1.222836455738097,
                3.1811760109540455
            ]
        }
    ]
}