{
    "goal": {
        "global_pose": {
            "orientation": {
                "w": -0.00223480608172531,
                "x": 0.0024358444001904467,
                "y": 0.7094548369677653,
                "z": -0.704743149386269
            },
            "position": {
                "x": -0.37947507619857795,
                "y": -0.6371506643295288,
                "z": 0.19426114857196808
            }
        },
        "name": "move_to_magneteinheit_C"
    },
    "id": "KPIECE_move_to_magneteinheit_C_132",
    "joint_names": [
        "shoulder_pan_joint",
        "shoulder_lift_joint",
        "elbow_joint",
        "wrist_1_joint",
        "wrist_2_joint",
        "wrist_3_joint"
    ],
    "metrics": {
        "cart_traj_len": 1.3743909464014517,
        "distance_elbow_joint": 1.6554514245577616,
        "distance_shoulder_lift_joint": 0.32822972309266096,
        "distance_shoulder_pan_joint": 1.431973890283788,
        "distance_wrist_1_joint": 2.678729550806158,
        "distance_wrist_2_joint": 2.0653505135225907,
        "distance_wrist_3_joint": 3.206383202752986,
        "smoothness": 0.8125922333739486,
        "time": 1.127512383,
        "traj_len": 3.3713674236155193,
        "weighted_distance": 4.745836572707773
    },
    "planner": "KPIECE",
    "start": {
        "state": {
            "elbow_joint": 1.9565354010623817,
            "shoulder_lift_joint": -1.4165861575791021,
            "shoulder_pan_joint": -1.6717766225146293,
            "wrist_1_joint": -0.5286633292919765,
            "wrist_2_joint": 1.472756589071564,
            "wrist_3_joint": -3.1238370188695823
        }
    },
    "waypoints": [
        {
            "positions": [
                -1.6717766225146293,
                -1.4165861575791021,
                1.9565354010623817,
                -0.5286633292919765,
                1.472756589071564,
                -3.1238370188695823
            ]
        },
        {
            "positions": [
                -1.5757607577635946,
                -1.4279017456718202,
                1.9310505781362215,
                -0.49450070949470615,
                1.4870477489891476,
                -3.082354216064809
            ]
        },
        {
            "positions": [
                -1.4797448930125598,
                -1.4392173337645384,
                1.9055657552100613,
                -0.46033808969743584,
                1.5013389089067313,
                -3.0408714132600365
            ]
        },
        {
            "positions": [
                -1.5013691494248882,
                -1.4272820009733187,
                1.8518124144696233,
                -0.3839555714035366,
                1.398823966093646,
                -2.9336615055790185
            ]
        },
        {
            "positions": [
                -1.5229934058372165,
                -1.415346668182099,
                1.7980590737291853,
                -0.30757305310963734,
                1.2963090232805607,
                -2.826451597898
            ]
        },
        {
            "positions": [
                -1.5446176622495449,
                -1.4034113353908793,
                1.7443057329887472,
                -0.23119053481573804,
                1.1937940804674754,
                -2.719241690216982
            ]
        },
        {
            "positions": [
                -1.5662419186618732,
                -1.3914760025996593,
                1.6905523922483092,
                -0.1548080165218388,
                1.09127913765439,
                -2.612031782535964
            ]
        },
        {
            "positions": [
                -1.5878661750742016,
                -1.3795406698084396,
                1.6367990515078712,
                -0.07842549822793948,
                0.9887641948413047,
                -2.5048218748549456
            ]
        },
        {
            "positions": [
                -1.6094904314865297,
                -1.3676053370172199,
                1.5830457107674332,
                -0.0020429799340402344,
                0.8862492520282195,
                -2.3976119671739275
            ]
        },
        {
            "positions": [
                -1.631114687898858,
                -1.3556700042260001,
                1.5292923700269951,
                0.07433953835985907,
                0.7837343092151341,
                -2.2904020594929095
            ]
        },
        {
            "positions": [
                -1.6527389443111864,
                -1.3437346714347804,
                1.4755390292865571,
                0.15072205665375826,
                0.6812193664020488,
                -2.1831921518118915
            ]
        },
        {
            "positions": [
                -1.6743632007235147,
                -1.3317993386435607,
                1.421785688546119,
                0.22710457494765768,
                0.5787044235889635,
                -2.075982244130873
            ]
        },
        {
            "positions": [
                -1.695987457135843,
                -1.319864005852341,
                1.368032347805681,
                0.30348709324155687,
                0.4761894807758782,
                -1.968772336449855
            ]
        },
        {
            "positions": [
                -1.7176117135481714,
                -1.307928673061121,
                1.314279007065243,
                0.3798696115354562,
                0.3736745379627928,
                -1.861562428768837
            ]
        },
        {
            "positions": [
                -1.7392359699604998,
                -1.2959933402699013,
                1.260525666324805,
                0.45625212982935537,
                0.27115959514970767,
                -1.7543525210878188
            ]
        },
        {
            "positions": [
                -1.7608602263728281,
                -1.2840580074786816,
                1.206772325584367,
                0.5326346481232548,
                0.1686446523366223,
                -1.6471426134068006
            ]
        },
        {
            "positions": [
                -1.7824844827851565,
                -1.2721226746874619,
                1.153018984843929,
                0.609017166417154,
                0.06612970952353686,
                -1.5399327057257826
            ]
        },
        {
            "positions": [
                -1.8815418555011059,
                -1.276772330482752,
                1.233179189098417,
                0.6109221626691399,
                0.09154715896705751,
                -1.6733167621391316
            ]
        },
        {
            "positions": [
                -1.9805992282170553,
                -1.2814219862780425,
                1.313339393352905,
                0.6128271589211258,
                0.11696460841057815,
                -1.8067008185524807
            ]
        },
        {
            "positions": [
                -2.0796566009330046,
                -1.2860716420733327,
                1.393499597607393,
                0.6147321551731117,
                0.1423820578540988,
                -1.9400848749658297
            ]
        },
        {
            "positions": [
                -2.1831727835335566,
                -1.2857735515106012,
                1.469367685320923,
                0.6249805860499208,
                0.18734899834101687,
                -2.05323069031847
            ]
        },
        {
            "positions": [
                -2.2866889661341085,
                -1.2854754609478696,
                1.5452357730344533,
                0.6352290169267298,
                0.23231593882793494,
                -2.16637650567111
            ]
        },
        {
            "positions": [
                -2.390205148734661,
                -1.2851773703851381,
                1.6211038607479833,
                0.6454774478035388,
                0.277282879314853,
                -2.2795223210237503
            ]
        },
        {
            "positions": [
                -2.493721331335213,
                -1.2848792798224065,
                1.6969719484615136,
                0.6557258786803478,
                0.3222498198017711,
                -2.3926681363763906
            ]
        },
        {
            "positions": [
                -2.597237513935765,
                -1.284581189259675,
                1.7728400361750436,
                0.6659743095571569,
                0.36721676028868916,
                -2.5058139517290305
            ]
        },
        {
            "positions": [
                -2.5819313214534505,
                -1.2691981308058475,
                1.8018542808010678,
                0.48046282056252876,
                0.40477575323107373,
                -2.587888657179773
            ]
        },
        {
            "positions": [
                -2.5666251289711366,
                -1.25381507235202,
                1.8308685254270922,
                0.29495133156790065,
                0.44233474617345836,
                -2.669963362630515
            ]
        },
        {
            "positions": [
                -2.5513189364888222,
                -1.2384320138981926,
                1.8598827700531164,
                0.10943984257327255,
                0.47989373911584293,
                -2.7520380680812573
            ]
        },
        {
            "positions": [
                -2.5360127440065083,
                -1.2230489554443653,
                1.8888970146791406,
                -0.07607164642135555,
                0.5174527320582275,
                -2.8341127735319995
            ]
        },
        {
            "positions": [
                -2.520706551524194,
                -1.2076658969905378,
                1.917911259305165,
                -0.26158313541598366,
                0.5550117250006121,
                -2.916187478982742
            ]
        },
        {
            "positions": [
                -2.5054003590418796,
                -1.1922828385367104,
                1.9469255039311892,
                -0.44709462441061176,
                0.5925707179429966,
                -2.9982621844334845
            ]
        },
        {
            "positions": [
                -2.4900941665595657,
                -1.1768997800828829,
                1.9759397485572137,
                -0.6326061134052399,
                0.6301297108853814,
                -3.0803368898842267
            ]
        },
        {
            "positions": [
                -2.4747879740772514,
                -1.1615167216290554,
                2.004953993183238,
                -0.8181176023998681,
                0.6676887038277659,
                -3.162411595334969
            ]
        }
    ]
}