{
    "goal": {
        "global_pose": {
            "orientation": {
                "w": 0.7047431468963623,
                "x": -0.7094548344612122,
                "y": 0.0024358443915843964,
                "z": -0.0022348060738295317
            },
            "position": {
                "x": 0.6094750761985779,
                "y": 0.3671506643295288,
                "z": 0.19426114857196808
            }
        },
        "name": "move_to_magneteinheit_A"
    },
    "id": "KPIECE_move_to_magneteinheit_A_75",
    "joint_names": [
        "shoulder_pan_joint",
        "shoulder_lift_joint",
        "elbow_joint",
        "wrist_1_joint",
        "wrist_2_joint",
        "wrist_3_joint"
    ],
    "metrics": {
        "cart_traj_len": 3.232532733611161,
        "distance_elbow_joint": 3.939993655448067,
        "distance_shoulder_lift_joint": 1.0778476009196505,
        "distance_shoulder_pan_joint": 2.595781715278985,
        "distance_wrist_1_joint": 3.55727924633901,
        "distance_wrist_2_joint": 1.8345071496200789,
        "distance_wrist_3_joint": 0.7699446529722345,
        "smoothness": 0.2499948640718381,
        "time": 0.097086115,
        "traj_len": 3.7115164044603146,
        "weighted_distance": 4.550497744476047
    },
    "planner": "KPIECE",
    "start": {
        "state": {
            "elbow_joint": -1.9196185241190666,
            "shoulder_lift_joint": -1.2443396400964142,
            "shoulder_pan_joint": 2.6996025414629847,
            "wrist_1_joint": -1.5485510000780065,
            "wrist_2_joint": -1.5709468930060704,
            "wrist_3_joint": 0.4420197071253992
        }
    },
    "waypoints": [
        {
            "positions": [
                2.6996025414629847,
                -1.2443396400964142,
                -1.9196185241190666,
                -1.5485510000780065,
                -1.5709468930060704,
                0.4420197071253992
            ]
        },
        {
            "positions": [
                2.59463896651421,
                -1.230961557257485,
                -1.8672049501977617,
                -1.4418107024029923,
                -1.496177447039925,
                0.40740889739067226
            ]
        },
        {
            "positions": [
                2.4896753915654357,
                -1.2175834744185556,
                -1.8147913762764567,
                -1.3350704047279782,
                -1.4214080010737797,
                0.37279808765594535
            ]
        },
        {
            "positions": [
                2.384711816616661,
                -1.2042053915796265,
                -1.7623778023551517,
                -1.228330107052964,
                -1.3466385551076343,
                0.33818727792121844
            ]
        },
        {
            "positions": [
                2.2797482416678867,
                -1.1908273087406973,
                -1.7099642284338468,
                -1.1215898093779497,
                -1.2718691091414889,
                0.30357646818649153
            ]
        },
        {
            "positions": [
                2.174784666719112,
                -1.1774492259017681,
                -1.6575506545125418,
                -1.0148495117029355,
                -1.1970996631753437,
                0.26896565845176457
            ]
        },
        {
            "positions": [
                2.069821091770338,
                -1.1640711430628388,
                -1.6051370805912368,
                -0.9081092140279214,
                -1.1223302172091982,
                0.23435484871703768
            ]
        },
        {
            "positions": [
                1.9648575168215634,
                -1.1506930602239096,
                -1.5527235066699319,
                -0.8013689163529073,
                -1.0475607712430528,
                0.19974403898231075
            ]
        },
        {
            "positions": [
                1.859893941872789,
                -1.1373149773849804,
                -1.500309932748627,
                -0.694628618677893,
                -0.9727913252769076,
                0.16513322924758383
            ]
        },
        {
            "positions": [
                1.7549303669240144,
                -1.1239368945460513,
                -1.447896358827322,
                -0.5878883210028789,
                -0.8980218793107623,
                0.13052241951285692
            ]
        },
        {
            "positions": [
                1.6499667919752399,
                -1.110558811707122,
                -1.395482784906017,
                -0.48114802332786466,
                -0.823252433344617,
                0.09591160977813001
            ]
        },
        {
            "positions": [
                1.5450032170264654,
                -1.0971807288681927,
                -1.3430692109847118,
                -0.3744077256528504,
                -0.7484829873784715,
                0.06130080004340305
            ]
        },
        {
            "positions": [
                1.440039642077691,
                -1.0838026460292636,
                -1.290655637063407,
                -0.2676674279778364,
                -0.6737135414123262,
                0.026689990308676192
            ]
        },
        {
            "positions": [
                1.3350760671289164,
                -1.0704245631903344,
                -1.2382420631421018,
                -0.16092713030282213,
                -0.5989440954461808,
                -0.007920819426050774
            ]
        },
        {
            "positions": [
                1.230112492180142,
                -1.057046480351405,
                -1.185828489220797,
                -0.0541868326278081,
                -0.5241746494800354,
                -0.042531629160777684
            ]
        },
        {
            "positions": [
                1.1251489172313673,
                -1.0436683975124759,
                -1.133414915299492,
                0.05255346504720615,
                -0.44940520351389,
                -0.07714243889550465
            ]
        },
        {
            "positions": [
                1.020185342282593,
                -1.0302903146735467,
                -1.0810013413781872,
                0.1592937627222204,
                -0.3746357575477448,
                -0.1117532486302315
            ]
        },
        {
            "positions": [
                0.9152217673338185,
                -1.0169122318346173,
                -1.028587767456882,
                0.26603406039723465,
                -0.2998663115815994,
                -0.14636405836495847
            ]
        },
        {
            "positions": [
                0.810258192385044,
                -1.0035341489956882,
                -0.9761741935355772,
                0.3727743580722487,
                -0.22509686561545417,
                -0.18097486809968533
            ]
        },
        {
            "positions": [
                0.7052946174362694,
                -0.990156066156759,
                -0.9237606196142721,
                0.479514655747263,
                -0.15032741964930862,
                -0.2155856778344123
            ]
        },
        {
            "positions": [
                0.6399061362688871,
                -0.9335719652927144,
                -0.7715092167032729,
                0.5617844206805946,
                -0.13094303254524797,
                -0.20546439284815557
            ]
        },
        {
            "positions": [
                0.5745176551015048,
                -0.8769878644286698,
                -0.6192578137922737,
                0.6440541856139264,
                -0.11155864544118729,
                -0.19534310786189882
            ]
        },
        {
            "positions": [
                0.5091291739341224,
                -0.8204037635646252,
                -0.4670064108812745,
                0.7263239505472581,
                -0.09217425833712664,
                -0.1852218228756421
            ]
        },
        {
            "positions": [
                0.4437406927667401,
                -0.7638196627005807,
                -0.31475500797027534,
                0.8085937154805898,
                -0.07278987123306598,
                -0.17510053788938537
            ]
        },
        {
            "positions": [
                0.3783522115993577,
                -0.707235561836536,
                -0.16250360505927597,
                0.8908634804139215,
                -0.053405484129005296,
                -0.16497925290312862
            ]
        },
        {
            "positions": [
                0.31296373043197545,
                -0.6506514609724914,
                -0.010252202148276823,
                0.9731332453472531,
                -0.034021097024944644,
                -0.1548579679168719
            ]
        },
        {
            "positions": [
                0.24757524926459307,
                -0.5940673601084467,
                0.14199920076272232,
                1.055403010280585,
                -0.014636709920883978,
                -0.14473668293061515
            ]
        },
        {
            "positions": [
                0.1821867680972108,
                -0.5374832592444022,
                0.29425060367372147,
                1.1376727752139164,
                0.004747677183176674,
                -0.13461539794435845
            ]
        },
        {
            "positions": [
                0.11679828692982841,
                -0.48089915838035757,
                0.4465020065847208,
                1.2199425401472481,
                0.024132064287237354,
                -0.1244941129581017
            ]
        },
        {
            "positions": [
                0.11624896212981327,
                -0.5253399908649592,
                0.6284015847563875,
                1.3319431022095751,
                -0.004238241134681575,
                -0.12327364937441761
            ]
        },
        {
            "positions": [
                0.11569963732979813,
                -0.5697808233495608,
                0.8103011629280543,
                1.4439436642719021,
                -0.032608546556600504,
                -0.1220531857907335
            ]
        },
        {
            "positions": [
                0.11515031252978299,
                -0.6142216558341624,
                0.9922007410997211,
                1.555944226334229,
                -0.06097885197851943,
                -0.12083272220704941
            ]
        },
        {
            "positions": [
                0.11460098772976784,
                -0.6586624883187641,
                1.174100319271388,
                1.667944788396556,
                -0.08934915740043836,
                -0.1196122586233653
            ]
        },
        {
            "positions": [
                0.1140516629297527,
                -0.7031033208033657,
                1.3559998974430547,
                1.779945350458883,
                -0.11771946282235729,
                -0.11839179503968121
            ]
        },
        {
            "positions": [
                0.11350233812973756,
                -0.7475441532879673,
                1.5378994756147215,
                1.89194591252121,
                -0.14608976824427622,
                -0.1171713314559971
            ]
        },
        {
            "positions": [
                0.11295301332972242,
                -0.7919849857725689,
                1.7197990537863883,
                2.003946474583537,
                -0.17446007366619515,
                -0.11595086787231301
            ]
        },
        {
            "positions": [
                0.12208520047544419,
                -0.7886636939611864,
                2.020375131329001,
                2.008728246261003,
                -0.13362401929285583,
                -0.10324640982198946
            ]
        }
    ]
}