{
    "goal": {
        "global_pose": {
            "orientation": {
                "w": -0.00223480608172531,
                "x": 0.0024358444001904467,
                "y": 0.7094548369677653,
                "z": -0.704743149386269
            },
            "position": {
                "x": 0.6205249238014221,
                "y": -0.6371506643295288,
                "z": 0.19426114857196808
            }
        },
        "name": "move_to_magneteinheit_B"
    },
    "id": "KPIECE_move_to_magneteinheit_B_12",
    "joint_names": [
        "shoulder_pan_joint",
        "shoulder_lift_joint",
        "elbow_joint",
        "wrist_1_joint",
        "wrist_2_joint",
        "wrist_3_joint"
    ],
    "metrics": {
        "cart_traj_len": 3.3573133285384236,
        "distance_elbow_joint": 4.448931322299637,
        "distance_shoulder_lift_joint": 1.063110422093867,
        "distance_shoulder_pan_joint": 2.694366304242207,
        "distance_wrist_1_joint": 1.230005000725237,
        "distance_wrist_2_joint": 1.5484124398072325,
        "distance_wrist_3_joint": 0.6528314528099244,
        "smoothness": 0.4961800004809071,
        "time": 3.677827859,
        "traj_len": 3.411401023330166,
        "weighted_distance": 3.965064600751219
    },
    "planner": "KPIECE",
    "start": {
        "state": {
            "elbow_joint": 2.6216224122426386,
            "shoulder_lift_joint": -1.4174107377796124,
            "shoulder_pan_joint": 0.7066234856936794,
            "wrist_1_joint": 1.9546482284002225,
            "wrist_2_joint": -0.7096286983471962,
            "wrist_3_joint": 0.005740856962016249
        }
    },
    "waypoints": [
        {
            "positions": [
                0.7066234856936794,
                -1.4174107377796124,
                2.6216224122426386,
                1.9546482284002225,
                -0.7096286983471962,
                0.005740856962016249
            ]
        },
        {
            "positions": [
                0.526167037951764,
                -1.4614946519220888,
                2.615323243651814,
                1.932063990365391,
                -0.7204521162298331,
                0.0411102614061742
            ]
        },
        {
            "positions": [
                0.5005217970388713,
                -1.4913240641093484,
                2.4792441981702646,
                1.8208210488429628,
                -0.6541138513260438,
                0.02144186576831924
            ]
        },
        {
            "positions": [
                0.4748765561259787,
                -1.5211534762966077,
                2.343165152688715,
                1.7095781073205347,
                -0.5877755864222547,
                0.0017734701304642775
            ]
        },
        {
            "positions": [
                0.449231315213086,
                -1.5509828884838672,
                2.2070861072071657,
                1.5983351657981064,
                -0.5214373215184654,
                -0.017894925507390684
            ]
        },
        {
            "positions": [
                0.42358607430019335,
                -1.5808123006711268,
                2.0710070617256164,
                1.4870922242756786,
                -0.4550990566146762,
                -0.037563321145245646
            ]
        },
        {
            "positions": [
                0.3979408333873007,
                -1.610641712858386,
                1.9349280162440667,
                1.3758492827532502,
                -0.38876079171088695,
                -0.057231716783100614
            ]
        },
        {
            "positions": [
                0.372295592474408,
                -1.6404711250456456,
                1.7988489707625173,
                1.2646063412308222,
                -0.32242252680709776,
                -0.07690011242095557
            ]
        },
        {
            "positions": [
                0.4908890195860435,
                -1.6653143269677173,
                1.617357014457641,
                1.2718287930268521,
                -0.27128667887009844,
                -0.08801838688117253
            ]
        },
        {
            "positions": [
                0.6094824466976789,
                -1.6901575288897888,
                1.4358650581527646,
                1.2790512448228821,
                -0.22015083093309912,
                -0.09913666134138947
            ]
        },
        {
            "positions": [
                0.7280758738093145,
                -1.7150007308118604,
                1.2543731018478883,
                1.286273696618912,
                -0.16901498299609982,
                -0.11025493580160642
            ]
        },
        {
            "positions": [
                0.8466693009209499,
                -1.7398439327339321,
                1.072881145543012,
                1.2934961484149419,
                -0.1178791350591005,
                -0.12137321026182338
            ]
        },
        {
            "positions": [
                0.9652627280325855,
                -1.7646871346560036,
                0.8913891892381357,
                1.3007186002109719,
                -0.0667432871221012,
                -0.13249148472204034
            ]
        },
        {
            "positions": [
                1.083856155144221,
                -1.7895303365780753,
                0.7098972329332593,
                1.3079410520070018,
                -0.015607439185101879,
                -0.14360975918225727
            ]
        },
        {
            "positions": [
                1.2024495822558565,
                -1.814373538500147,
                0.5284052766283831,
                1.3151635038030318,
                0.035528408751897445,
                -0.15472803364247423
            ]
        },
        {
            "positions": [
                1.3210430093674919,
                -1.8392167404222184,
                0.34691332032350664,
                1.3223859555990618,
                0.08666425668889677,
                -0.1658463081026912
            ]
        },
        {
            "positions": [
                1.4396364364791274,
                -1.86405994234429,
                0.1654213640186304,
                1.3296084073950918,
                0.1378001046258961,
                -0.17696458256290815
            ]
        },
        {
            "positions": [
                1.558229863590763,
                -1.8889031442663617,
                -0.016070592286245855,
                1.3368308591911215,
                0.18893595256289536,
                -0.1880828570231251
            ]
        },
        {
            "positions": [
                1.6768232907023986,
                -1.9137463461884332,
                -0.19756254859112232,
                1.3440533109871515,
                0.2400718004998948,
                -0.19920113148334206
            ]
        },
        {
            "positions": [
                1.795416717814034,
                -1.9385895481105049,
                -0.37905450489599857,
                1.3512757627831815,
                0.291207648436894,
                -0.210319405943559
            ]
        },
        {
            "positions": [
                1.9140101449256695,
                -1.9634327500325766,
                -0.560546461200875,
                1.3584982145792115,
                0.34234349637389333,
                -0.22143768040377595
            ]
        },
        {
            "positions": [
                2.0326035720373046,
                -1.9882759519546482,
                -0.7420384175057511,
                1.3657206663752415,
                0.39347934431089265,
                -0.23255595486399291
            ]
        },
        {
            "positions": [
                2.15119699914894,
                -2.01311915387672,
                -0.9235303738106275,
                1.3729431181712715,
                0.444615192247892,
                -0.24367422932420987
            ]
        },
        {
            "positions": [
                2.2697904262605757,
                -2.037962355798791,
                -1.105022330115504,
                1.3801655699673012,
                0.4957510401848913,
                -0.2547925037844268
            ]
        },
        {
            "positions": [
                2.3883838533722113,
                -2.062805557720863,
                -1.2865142864203805,
                1.3873880217633312,
                0.5468868881218907,
                -0.26591077824464376
            ]
        },
        {
            "positions": [
                2.506977280483847,
                -2.0876487596429345,
                -1.4680062427252565,
                1.3946104735593612,
                0.5980227360588899,
                -0.2770290527048607
            ]
        },
        {
            "positions": [
                2.6255707075954824,
                -2.112491961565006,
                -1.6494981990301327,
                1.4018329253553912,
                0.6491585839958893,
                -0.2881473271650777
            ]
        },
        {
            "positions": [
                2.6610304643227556,
                -2.181135861776299,
                -1.6983455058867531,
                1.3535251765456793,
                0.6063510811854058,
                -0.2389676837850933
            ]
        },
        {
            "positions": [
                2.6964902210500292,
                -2.249779761987592,
                -1.7471928127433736,
                1.3052174277359674,
                0.5635435783749223,
                -0.18978804040510894
            ]
        },
        {
            "positions": [
                2.684542293567591,
                -2.326693561282888,
                -1.7204874469721658,
                1.2031770837986862,
                0.5360891396822869,
                -0.1265063160602604
            ]
        },
        {
            "positions": [
                2.672594366085153,
                -2.4036073605781834,
                -1.693782081200958,
                1.1011367398614047,
                0.5086347009896516,
                -0.06322459171541184
            ]
        },
        {
            "positions": [
                2.660646438602715,
                -2.4805211598734793,
                -1.6670767154297503,
                0.9990963959241235,
                0.48118026229701616,
                5.7132629436733374e-05
            ]
        }
    ]
}