{
    "goal": {
        "global_pose": {
            "orientation": {
                "w": -0.4816463035849501,
                "x": 0.5182115481033762,
                "y": 0.4908360881923453,
                "z": -0.5084816262002911
            },
            "position": {
                "x": -0.8240239810943604,
                "y": -0.300875300988555,
                "z": 0.16403168439865112
            }
        },
        "name": "move_to_storage_C"
    },
    "id": "KPIECE_move_to_storage_C_129",
    "joint_names": [
        "shoulder_pan_joint",
        "shoulder_lift_joint",
        "elbow_joint",
        "wrist_1_joint",
        "wrist_2_joint",
        "wrist_3_joint"
    ],
    "metrics": {
        "cart_traj_len": 0.5769624486666581,
        "distance_elbow_joint": 0.2617049614128697,
        "distance_shoulder_lift_joint": 0.19126013983063817,
        "distance_shoulder_pan_joint": 0.4930236969382431,
        "distance_wrist_1_joint": 0.08560424437487069,
        "distance_wrist_2_joint": 1.077805509968135,
        "distance_wrist_3_joint": 0.07299275719844323,
        "smoothness": 0.0,
        "time": 0.046795929,
        "traj_len": 1.4772918837261644,
        "weighted_distance": 1.8686322748104005
    },
    "planner": "KPIECE",
    "start": {
        "state": {
            "elbow_joint": 2.010868314990456,
            "shoulder_lift_joint": -1.1634956873337592,
            "shoulder_pan_joint": -2.4736205022346125,
            "wrist_1_joint": -0.8367026794202681,
            "wrist_2_joint": 0.6746043897044499,
            "wrist_3_joint": -3.1496632123970403
        }
    },
    "waypoints": [
        {
            "positions": [
                -2.4736205022346125,
                -1.1634956873337592,
                2.010868314990456,
                -0.8367026794202681,
                0.6746043897044499,
                -3.1496632123970403
            ]
        },
        {
            "positions": [
                -2.5557911183909865,
                -1.1316189973619861,
                1.9672508214216442,
                -0.8224353053577896,
                0.8542386413658057,
                -3.1374977528639665
            ]
        },
        {
            "positions": [
                -2.63796173454736,
                -1.099742307390213,
                1.9236333278528326,
                -0.8081679312953112,
                1.0338728930271617,
                -3.1253322933308927
            ]
        },
        {
            "positions": [
                -2.720132350703734,
                -1.0678656174184402,
                1.880015834284021,
                -0.7939005572328328,
                1.2135071446885175,
                -3.113166833797819
            ]
        },
        {
            "positions": [
                -2.802302966860108,
                -1.0359889274466672,
                1.8363983407152094,
                -0.7796331831703543,
                1.3931413963498733,
                -3.1010013742647446
            ]
        },
        {
            "positions": [
                -2.8844735830164816,
                -1.004112237474894,
                1.7927808471463977,
                -0.7653658091078759,
                1.5727756480112292,
                -3.088835914731671
            ]
        },
        {
            "positions": [
                -2.9666441991728556,
                -0.972235547503121,
                1.7491633535775861,
                -0.7510984350453974,
                1.7524098996725848,
                -3.076670455198597
            ]
        }
    ]
}