{
    "goal": {
        "global_pose": {
            "orientation": {
                "w": 0.005598929693374612,
                "x": 0.007748599140229565,
                "y": 0.7110244013736278,
                "z": -0.7031023480610252
            },
            "position": {
                "x": 0.1141497679147869,
                "y": -0.7141253447532654,
                "z": 0.3711530566215515
            }
        },
        "name": "move_to_auspresseinheit_B"
    },
    "id": "KPIECE_move_to_auspresseinheit_B_54",
    "joint_names": [
        "shoulder_pan_joint",
        "shoulder_lift_joint",
        "elbow_joint",
        "wrist_1_joint",
        "wrist_2_joint",
        "wrist_3_joint"
    ],
    "metrics": {
        "cart_traj_len": 0.5650640821436774,
        "distance_elbow_joint": 0.060117401422872696,
        "distance_shoulder_lift_joint": 0.2958149156894332,
        "distance_shoulder_pan_joint": 0.5792720717501927,
        "distance_wrist_1_joint": 0.31820402839634565,
        "distance_wrist_2_joint": 0.9844671190323626,
        "distance_wrist_3_joint": 0.004356070680955337,
        "smoothness": 5.075305295617109e-16,
        "time": 0.241253302,
        "traj_len": 1.4974082966820248,
        "weighted_distance": 1.8851034177897992
    },
    "planner": "KPIECE",
    "start": {
        "state": {
            "elbow_joint": 2.0193083361928714,
            "shoulder_lift_joint": -1.1220246554650708,
            "shoulder_pan_joint": -1.0952077554168747,
            "wrist_1_joint": -0.8559753972642168,
            "wrist_2_joint": 0.4759566250798843,
            "wrist_3_joint": -3.1240929996934557
        }
    },
    "waypoints": [
        {
            "positions": [
                -1.0952077554168747,
                -1.1220246554650708,
                2.0193083361928714,
                -0.8559753972642168,
                0.4759566250798843,
                -3.1240929996934557
            ]
        },
        {
            "positions": [
                -1.1917531007085733,
                -1.1713271414133097,
                2.0092887692890593,
                -0.8029413925314925,
                0.6400344782519447,
                -3.124819011473615
            ]
        },
        {
            "positions": [
                -1.2882984460002722,
                -1.2206296273615485,
                1.9992692023852472,
                -0.7499073877987682,
                0.8041123314240051,
                -3.1255450232537743
            ]
        },
        {
            "positions": [
                -1.384843791291971,
                -1.2699321133097874,
                1.989249635481435,
                -0.696873383066044,
                0.9681901845960657,
                -3.126271035033933
            ]
        },
        {
            "positions": [
                -1.4813891365836698,
                -1.3192345992580263,
                1.979230068577623,
                -0.6438393783333197,
                1.132268037768126,
                -3.1269970468140924
            ]
        },
        {
            "positions": [
                -1.5779344818753684,
                -1.368537085206265,
                1.9692105016738108,
                -0.5908053736005954,
                1.2963458909401866,
                -3.1277230585942517
            ]
        },
        {
            "positions": [
                -1.6744798271670673,
                -1.417839571154504,
                1.9591909347699987,
                -0.5377713688678711,
                1.460423744112247,
                -3.128449070374411
            ]
        }
    ]
}