{
    "goal": {
        "global_pose": {
            "orientation": {
                "w": 0.005598929693374612,
                "x": 0.007748599140229565,
                "y": 0.7110244013736278,
                "z": -0.7031023480610252
            },
            "position": {
                "x": 0.1141497679147869,
                "y": -0.7141253447532654,
                "z": 0.3711530566215515
            }
        },
        "name": "move_to_auspresseinheit_B"
    },
    "id": "KPIECE_move_to_auspresseinheit_B_85",
    "joint_names": [
        "shoulder_pan_joint",
        "shoulder_lift_joint",
        "elbow_joint",
        "wrist_1_joint",
        "wrist_2_joint",
        "wrist_3_joint"
    ],
    "metrics": {
        "cart_traj_len": 0.5656042935847805,
        "distance_elbow_joint": 0.06211988266507906,
        "distance_shoulder_lift_joint": 0.29417757547505996,
        "distance_shoulder_pan_joint": 0.5768165402844982,
        "distance_wrist_1_joint": 0.3204044901291889,
        "distance_wrist_2_joint": 0.9997693334041737,
        "distance_wrist_3_joint": 0.001078660800710729,
        "smoothness": 2.5376526478085547e-16,
        "time": 0.011592611999999999,
        "traj_len": 1.5014547887827694,
        "weighted_distance": 1.891215912552952
    },
    "planner": "KPIECE",
    "start": {
        "state": {
            "elbow_joint": 2.0193083361928714,
            "shoulder_lift_joint": -1.1220246554650708,
            "shoulder_pan_joint": -1.0952077554168747,
            "wrist_1_joint": -0.8559753972642168,
            "wrist_2_joint": 0.4759566250798843,
            "wrist_3_joint": -3.1240929996934557
        }
    },
    "waypoints": [
        {
            "positions": [
                -1.0952077554168747,
                -1.1220246554650708,
                2.0193083361928714,
                -0.8559753972642168,
                0.4759566250798843,
                -3.1240929996934557
            ]
        },
        {
            "positions": [
                -1.191343845464291,
                -1.1710542513775808,
                2.0089550224153583,
                -0.8025746489093519,
                0.6425848473139133,
                -3.1242727764935743
            ]
        },
        {
            "positions": [
                -1.2874799355117075,
                -1.2200838472900908,
                1.9986017086378451,
                -0.7491739005544872,
                0.8092130695479423,
                -3.1244525532936924
            ]
        },
        {
            "positions": [
                -1.3836160255591237,
                -1.2691134432026008,
                1.988248394860332,
                -0.6957731521996223,
                0.9758412917819712,
                -3.124632330093811
            ]
        },
        {
            "positions": [
                -1.47975211560654,
                -1.3181430391151108,
                1.9778950810828186,
                -0.6423724038447576,
                1.1424695140160002,
                -3.1248121068939296
            ]
        },
        {
            "positions": [
                -1.5758882056539565,
                -1.3671726350276208,
                1.9675417673053055,
                -0.5889716554898927,
                1.3090977362500291,
                -3.124991883694048
            ]
        },
        {
            "positions": [
                -1.672024295701373,
                -1.4162022309401308,
                1.9571884535277924,
                -0.5355709071350279,
                1.475725958484058,
                -3.1251716604941664
            ]
        }
    ]
}