{
    "goal": {
        "global_pose": {
            "orientation": {
                "w": -0.00223480608172531,
                "x": 0.0024358444001904467,
                "y": 0.7094548369677653,
                "z": -0.704743149386269
            },
            "position": {
                "x": 0.6205249238014221,
                "y": -0.6371506643295288,
                "z": 0.19426114857196808
            }
        },
        "name": "move_to_magneteinheit_B"
    },
    "id": "KPIECE_move_to_magneteinheit_B_87",
    "joint_names": [
        "shoulder_pan_joint",
        "shoulder_lift_joint",
        "elbow_joint",
        "wrist_1_joint",
        "wrist_2_joint",
        "wrist_3_joint"
    ],
    "metrics": {
        "cart_traj_len": 1.6613330342642698,
        "distance_elbow_joint": 0.9595233897092748,
        "distance_shoulder_lift_joint": 1.1838527675505817,
        "distance_shoulder_pan_joint": 1.642018518771401,
        "distance_wrist_1_joint": 0.3304890793351789,
        "distance_wrist_2_joint": 1.51389243804621,
        "distance_wrist_3_joint": 0.08623265180261724,
        "smoothness": 0.8343256825337033,
        "time": 0.517221387,
        "traj_len": 2.3908176101943166,
        "weighted_distance": 2.780801263341537
    },
    "planner": "KPIECE",
    "start": {
        "state": {
            "elbow_joint": 2.6216224122426386,
            "shoulder_lift_joint": -1.4174107377796124,
            "shoulder_pan_joint": 0.7066234856936794,
            "wrist_1_joint": 1.9546482284002225,
            "wrist_2_joint": -0.7096286983471962,
            "wrist_3_joint": 0.005740856962016249
        }
    },
    "waypoints": [
        {
            "positions": [
                0.7066234856936794,
                -1.4174107377796124,
                2.6216224122426386,
                1.9546482284002225,
                -0.7096286983471962,
                0.005740856962016249
            ]
        },
        {
            "positions": [
                0.5405565377483064,
                -1.4500156502348478,
                2.552142399846735,
                1.9178114479846062,
                -0.7238619896277106,
                -0.018266376082841172
            ]
        },
        {
            "positions": [
                0.3744895898029333,
                -1.482620562690083,
                2.482662387450832,
                1.8809746675689902,
                -0.7380952809082251,
                -0.0422736091276986
            ]
        },
        {
            "positions": [
                0.37956480068019066,
                -1.5565842529583804,
                2.418155519822367,
                1.934677063553886,
                -0.7605669742228865,
                -0.042084255792330175
            ]
        },
        {
            "positions": [
                0.38464001155744804,
                -1.630547943226678,
                2.3536486521939026,
                1.9883794595387816,
                -0.783038667537548,
                -0.04189490245696176
            ]
        },
        {
            "positions": [
                0.27839233475537417,
                -1.5511454986743565,
                2.296056754142274,
                2.000639066117391,
                -0.9002753148452511,
                -0.04188329902594478
            ]
        },
        {
            "positions": [
                0.1721446579533003,
                -1.4717430541220349,
                2.2384648560906455,
                2.012898672696001,
                -1.0175119621529543,
                -0.0418716955949278
            ]
        },
        {
            "positions": [
                0.06589698115122644,
                -1.3923406095697135,
                2.1808729580390165,
                2.025158279274611,
                -1.1347486094606574,
                -0.041860092163910824
            ]
        },
        {
            "positions": [
                -0.040350695650847423,
                -1.312938165017392,
                2.123281059987388,
                2.0374178858532206,
                -1.2519852567683605,
                -0.041848488732893846
            ]
        },
        {
            "positions": [
                -0.14659837245292134,
                -1.2335357204650703,
                2.0656891619357594,
                2.0496774924318304,
                -1.3692219040760638,
                -0.04183688530187687
            ]
        },
        {
            "positions": [
                -0.25284604925499515,
                -1.1541332759127487,
                2.008097263884131,
                2.06193709901044,
                -1.486458551383767,
                -0.04182528187085989
            ]
        },
        {
            "positions": [
                -0.3590937260570691,
                -1.0747308313604274,
                1.950505365832502,
                2.07419670558905,
                -1.60369519869147,
                -0.04181367843984291
            ]
        },
        {
            "positions": [
                -0.4653414028591429,
                -0.9953283868081058,
                1.8929134677808734,
                2.08645631216766,
                -1.7209318459991731,
                -0.041802075008825934
            ]
        },
        {
            "positions": [
                -0.5715890796612169,
                -0.9159259422557842,
                1.8353215697292447,
                2.098715918746269,
                -1.8381684933068763,
                -0.041790471577808956
            ]
        },
        {
            "positions": [
                -0.6778367564632908,
                -0.8365234977034626,
                1.777729671677616,
                2.110975525324879,
                -1.9554051406145794,
                -0.04177886814679198
            ]
        },
        {
            "positions": [
                -0.7840844332653645,
                -0.7571210531511411,
                1.7201377736259875,
                2.123235131903489,
                -2.0726417879222825,
                -0.041767264715775
            ]
        },
        {
            "positions": [
                -0.8903321100674383,
                -0.6777186085988195,
                1.6625458755743587,
                2.1354947384820986,
                -2.1898784352299856,
                -0.04175566128475802
            ]
        },
        {
            "positions": [
                -0.915094189568692,
                -0.6598323811231622,
                1.6629927286153536,
                2.137790186072937,
                -2.223521136393406,
                -0.004055423414796208
            ]
        }
    ]
}