{
    "goal": {
        "global_pose": {
            "orientation": {
                "w": 0.7047431468963623,
                "x": -0.7094548344612122,
                "y": 0.0024358443915843964,
                "z": -0.0022348060738295317
            },
            "position": {
                "x": 0.6094750761985779,
                "y": 0.3671506643295288,
                "z": 0.19426114857196808
            }
        },
        "name": "move_to_magneteinheit_A"
    },
    "id": "KPIECE_move_to_magneteinheit_A_18",
    "joint_names": [
        "shoulder_pan_joint",
        "shoulder_lift_joint",
        "elbow_joint",
        "wrist_1_joint",
        "wrist_2_joint",
        "wrist_3_joint"
    ],
    "metrics": {
        "cart_traj_len": 3.3781161550365884,
        "distance_elbow_joint": 3.8724545174613283,
        "distance_shoulder_lift_joint": 0.7456830249844995,
        "distance_shoulder_pan_joint": 3.397550740203342,
        "distance_wrist_1_joint": 2.9365035297769575,
        "distance_wrist_2_joint": 1.6911904990953053,
        "distance_wrist_3_joint": 4.589226775460796,
        "smoothness": 0.23307956843617314,
        "time": 0.152808212,
        "traj_len": 4.151217783612687,
        "weighted_distance": 5.571243727102243
    },
    "planner": "KPIECE",
    "start": {
        "state": {
            "elbow_joint": -1.9196185241190666,
            "shoulder_lift_joint": -1.2443396400964142,
            "shoulder_pan_joint": 2.6996025414629847,
            "wrist_1_joint": -1.5485510000780065,
            "wrist_2_joint": -1.5709468930060704,
            "wrist_3_joint": 0.4420197071253992
        }
    },
    "waypoints": [
        {
            "positions": [
                2.6996025414629847,
                -1.2443396400964142,
                -1.9196185241190666,
                -1.5485510000780065,
                -1.5709468930060704,
                0.4420197071253992
            ]
        },
        {
            "positions": [
                2.5697150344967272,
                -1.2256390068644665,
                -1.8711710345158925,
                -1.4663175142069536,
                -1.5132343212646577,
                0.39827015602716
            ]
        },
        {
            "positions": [
                2.4398275275304697,
                -1.2069383736325188,
                -1.8227235449127182,
                -1.3840840283359004,
                -1.455521749523245,
                0.3545206049289208
            ]
        },
        {
            "positions": [
                2.3099400205642118,
                -1.188237740400571,
                -1.774276055309544,
                -1.3018505424648474,
                -1.3978091777818324,
                0.3107710538306816
            ]
        },
        {
            "positions": [
                2.1800525135979543,
                -1.1695371071686234,
                -1.7258285657063699,
                -1.2196170565937945,
                -1.3400966060404196,
                0.2670215027324424
            ]
        },
        {
            "positions": [
                2.0501650066316968,
                -1.1508364739366757,
                -1.6773810761031955,
                -1.1373835707227413,
                -1.2823840342990072,
                0.22327195163420324
            ]
        },
        {
            "positions": [
                1.9202774996654393,
                -1.132135840704728,
                -1.6289335865000214,
                -1.0551500848516884,
                -1.2246714625575943,
                0.17952240053596408
            ]
        },
        {
            "positions": [
                1.7903899926991813,
                -1.1134352074727802,
                -1.580486096896847,
                -0.9729165989806353,
                -1.1669588908161816,
                0.13577284943772483
            ]
        },
        {
            "positions": [
                1.660502485732924,
                -1.0947345742408325,
                -1.532038607293673,
                -0.8906831131095824,
                -1.109246319074769,
                0.09202329833948569
            ]
        },
        {
            "positions": [
                1.5306149787666663,
                -1.0760339410088848,
                -1.4835911176904988,
                -0.8084496272385292,
                -1.0515337473333561,
                0.048273747241246445
            ]
        },
        {
            "positions": [
                1.4007274718004088,
                -1.0573333077769371,
                -1.4351436280873244,
                -0.7262161413674763,
                -0.9938211755919437,
                0.0045241961430073085
            ]
        },
        {
            "positions": [
                1.270839964834151,
                -1.0386326745449894,
                -1.3866961384841503,
                -0.6439826554964232,
                -0.936108603850531,
                -0.039225354955231884
            ]
        },
        {
            "positions": [
                1.1409524578678936,
                -1.0199320413130417,
                -1.3382486488809762,
                -0.5617491696253702,
                -0.8783960321091183,
                -0.08297490605347102
            ]
        },
        {
            "positions": [
                1.011064950901636,
                -1.001231408081094,
                -1.2898011592778018,
                -0.4795156837543173,
                -0.8206834603677057,
                -0.1267244571517102
            ]
        },
        {
            "positions": [
                0.8811774439353781,
                -0.9825307748491463,
                -1.2413536696746277,
                -0.39728219788326413,
                -0.7629708886262929,
                -0.17047400824994952
            ]
        },
        {
            "positions": [
                0.7512899369691206,
                -0.9638301416171986,
                -1.1929061800714535,
                -0.3150487120122112,
                -0.7052583168848803,
                -0.2142235593481886
            ]
        },
        {
            "positions": [
                0.6214024300028633,
                -0.9451295083852509,
                -1.1444586904682792,
                -0.23281522614115824,
                -0.6475457451434676,
                -0.2579731104464278
            ]
        },
        {
            "positions": [
                0.4915149230366058,
                -0.9264288751533032,
                -1.0960112008651053,
                -0.15058174027010507,
                -0.589833173402055,
                -0.301722661544667
            ]
        },
        {
            "positions": [
                0.3616274160703479,
                -0.9077282419213555,
                -1.047563711261931,
                -0.0683482543990519,
                -0.5321206016606421,
                -0.3454722126429063
            ]
        },
        {
            "positions": [
                0.23173990910409037,
                -0.8890276086894078,
                -0.9991162216587567,
                0.013885231472001047,
                -0.4744080299192295,
                -0.38922176374114537
            ]
        },
        {
            "positions": [
                0.10185240213783286,
                -0.8703269754574601,
                -0.9506687320555824,
                0.096118717343054,
                -0.41669545817781706,
                -0.43297131483938456
            ]
        },
        {
            "positions": [
                -0.02803510482842464,
                -0.8516263422255124,
                -0.9022212424524083,
                0.17835220321410694,
                -0.3589828864364044,
                -0.47672086593762375
            ]
        },
        {
            "positions": [
                -0.1579226117946826,
                -0.8329257089935647,
                -0.853773752849234,
                0.2605856890851601,
                -0.30127031469499155,
                -0.5204704170358629
            ]
        },
        {
            "positions": [
                -0.28781011876094004,
                -0.814225075761617,
                -0.8053262632460598,
                0.34281917495621306,
                -0.24355774295357902,
                -0.5642199681341021
            ]
        },
        {
            "positions": [
                -0.27789656965067094,
                -0.8317381967982669,
                -0.6780457824785789,
                0.2928040896154592,
                -0.2322159356658067,
                -0.39531643200811406
            ]
        },
        {
            "positions": [
                -0.2679830205404019,
                -0.8492513178349168,
                -0.550765301711098,
                0.24278900427470526,
                -0.22087412837803436,
                -0.22641289588212593
            ]
        },
        {
            "positions": [
                -0.2580694714301328,
                -0.8667644388715668,
                -0.4234848209436172,
                0.19277391893395135,
                -0.20953232109026204,
                -0.0575093597561378
            ]
        },
        {
            "positions": [
                -0.24815592231986372,
                -0.8842775599082168,
                -0.2962043401761364,
                0.14275883359319747,
                -0.19819051380248973,
                0.11139417636985027
            ]
        },
        {
            "positions": [
                -0.23824237320959463,
                -0.9017906809448667,
                -0.1689238594086554,
                0.09274374825244353,
                -0.18684870651471738,
                0.28029771249583857
            ]
        },
        {
            "positions": [
                -0.22832882409932556,
                -0.9193038019815166,
                -0.04164337864117462,
                0.04272866291168964,
                -0.17550689922694507,
                0.44920124862182653
            ]
        },
        {
            "positions": [
                -0.2184152749890565,
                -0.9368169230181667,
                0.08563710212630626,
                -0.007286422429064243,
                -0.16416509193917272,
                0.6181047847478148
            ]
        },
        {
            "positions": [
                -0.2085017258787874,
                -0.9543300440548166,
                0.21291758289378704,
                -0.05730150776981813,
                -0.15282328465140044,
                0.7870083208738027
            ]
        },
        {
            "positions": [
                -0.1985881767685183,
                -0.9718431650914665,
                0.34019806366126804,
                -0.10731659311057207,
                -0.1414814773636281,
                0.955911856999791
            ]
        },
        {
            "positions": [
                -0.18867462765824924,
                -0.9893562861281164,
                0.46747854442874903,
                -0.157331678451326,
                -0.13013967007585575,
                1.1248153931257794
            ]
        },
        {
            "positions": [
                -0.17876107854798015,
                -1.0068694071647664,
                0.5947590251962298,
                -0.20734676379207995,
                -0.11879786278808344,
                1.2937189292517672
            ]
        },
        {
            "positions": [
                -0.16884752943771109,
                -1.0243825282014163,
                0.7220395059637106,
                -0.2573618491328338,
                -0.10745605550031112,
                1.462622465377755
            ]
        },
        {
            "positions": [
                -0.15893398032744202,
                -1.0418956492380662,
                0.8493199867311916,
                -0.3073769344735877,
                -0.0961142482125388,
                1.6315260015037434
            ]
        },
        {
            "positions": [
                -0.14902043121717293,
                -1.0594087702747164,
                0.9766004674986724,
                -0.35739201981434154,
                -0.08477244092476646,
                1.8004295376297317
            ]
        },
        {
            "positions": [
                -0.13910688210690383,
                -1.0769218913113663,
                1.1038809482661534,
                -0.4074071051550955,
                -0.07343063363699415,
                1.9693330737557195
            ]
        },
        {
            "positions": [
                -0.12919333299663477,
                -1.0944350123480162,
                1.231161429033634,
                -0.4574221904958493,
                -0.06208882634922183,
                2.1382366098817074
            ]
        },
        {
            "positions": [
                -0.1192797838863657,
                -1.1119481333846661,
                1.3584419098011151,
                -0.5074372758366033,
                -0.050747019061449516,
                2.3071401460076957
            ]
        },
        {
            "positions": [
                -0.10936623477609661,
                -1.129461254421316,
                1.4857223905685957,
                -0.5574523611773572,
                -0.03940521177367717,
                2.476043682133684
            ]
        },
        {
            "positions": [
                -0.05144268577745295,
                -1.1293781839238153,
                1.6025007912620124,
                -0.5936678158296496,
                0.0005069926920510601,
                2.6117245446170614
            ]
        },
        {
            "positions": [
                0.006480863221190708,
                -1.1292951134263145,
                1.719279191955429,
                -0.6298832704819419,
                0.040419197157779294,
                2.7474054071004383
            ]
        },
        {
            "positions": [
                0.06440441221983437,
                -1.1292120429288137,
                1.8360575926488458,
                -0.6660987251342343,
                0.08033140162350752,
                2.8830862695838153
            ]
        },
        {
            "positions": [
                0.12232796121847804,
                -1.129128972431313,
                1.9528359933422625,
                -0.7023141797865267,
                0.12024360608923576,
                3.0187671320671927
            ]
        }
    ]
}