{
    "goal": {
        "global_pose": {
            "orientation": {
                "w": 0.005598929693374612,
                "x": 0.007748599140229565,
                "y": 0.7110244013736278,
                "z": -0.7031023480610252
            },
            "position": {
                "x": -0.8858502320852131,
                "y": -0.7141253447532654,
                "z": 0.3711530566215515
            }
        },
        "name": "move_to_auspresseinheit_C"
    },
    "id": "KPIECE_move_to_auspresseinheit_C_120",
    "joint_names": [
        "shoulder_pan_joint",
        "shoulder_lift_joint",
        "elbow_joint",
        "wrist_1_joint",
        "wrist_2_joint",
        "wrist_3_joint"
    ],
    "metrics": {
        "cart_traj_len": 0.4926414015753348,
        "distance_elbow_joint": 0.9899582487161234,
        "distance_shoulder_lift_joint": 0.3199118595773184,
        "distance_shoulder_pan_joint": 0.25611964900903006,
        "distance_wrist_1_joint": 0.6549380631936463,
        "distance_wrist_2_joint": 1.3176813653744686,
        "distance_wrist_3_joint": 0.04245335892892399,
        "smoothness": 3.2297397080004555e-16,
        "time": 0.10045309799999999,
        "traj_len": 1.8923695581993256,
        "weighted_distance": 2.374571264718217
    },
    "planner": "KPIECE",
    "start": {
        "state": {
            "elbow_joint": 1.7527959577737207,
            "shoulder_lift_joint": -0.9740617694225068,
            "shoulder_pan_joint": -2.967991417825858,
            "wrist_1_joint": -0.759517768980727,
            "wrist_2_joint": 1.7443932448377408,
            "wrist_3_joint": -3.0840537646736568
        }
    },
    "waypoints": [
        {
            "positions": [
                -2.967991417825858,
                -0.9740617694225068,
                1.7527959577737207,
                -0.759517768980727,
                1.7443932448377408,
                -3.0840537646736568
            ]
        },
        {
            "positions": [
                -2.942379452924955,
                -0.9420705834647749,
                1.6538001329021084,
                -0.6940239626613623,
                1.612625108300294,
                -3.088299100566549
            ]
        },
        {
            "positions": [
                -2.916767488024052,
                -0.9100793975070431,
                1.554804308030496,
                -0.6285301563419977,
                1.480856971762847,
                -3.0925444364594417
            ]
        },
        {
            "positions": [
                -2.8911555231231487,
                -0.8780882115493113,
                1.4558084831588838,
                -0.5630363500226331,
                1.3490888352254002,
                -3.096789772352334
            ]
        },
        {
            "positions": [
                -2.865543558222246,
                -0.8460970255915794,
                1.3568126582872713,
                -0.49754254370326845,
                1.2173206986879532,
                -3.1010351082452265
            ]
        },
        {
            "positions": [
                -2.839931593321343,
                -0.8141058396338476,
                1.257816833415659,
                -0.4320487373839038,
                1.0855525621505064,
                -3.1052804441381188
            ]
        },
        {
            "positions": [
                -2.81431962842044,
                -0.7821146536761158,
                1.1588210085440467,
                -0.3665549310645392,
                0.9537844256130598,
                -3.109525780031011
            ]
        },
        {
            "positions": [
                -2.7887076635195367,
                -0.7501234677183839,
                1.0598251836724344,
                -0.3010611247451746,
                0.8220162890756129,
                -3.1137711159239037
            ]
        },
        {
            "positions": [
                -2.763095698618634,
                -0.7181322817606521,
                0.9608293588008219,
                -0.2355673184258099,
                0.6902481525381658,
                -3.118016451816796
            ]
        },
        {
            "positions": [
                -2.737483733717731,
                -0.6861410958029202,
                0.8618335339292096,
                -0.17007351210644528,
                0.5584800160007191,
                -3.1222617877096885
            ]
        },
        {
            "positions": [
                -2.711871768816828,
                -0.6541499098451884,
                0.7628377090575973,
                -0.10457970578708063,
                0.4267118794632723,
                -3.1265071236025808
            ]
        }
    ]
}