{
    "goal": {
        "global_pose": {
            "orientation": {
                "w": 0.005598929693374612,
                "x": 0.007748599140229565,
                "y": 0.7110244013736278,
                "z": -0.7031023480610252
            },
            "position": {
                "x": 0.1141497679147869,
                "y": -0.7141253447532654,
                "z": 0.3711530566215515
            }
        },
        "name": "move_to_auspresseinheit_B"
    },
    "id": "KPIECE_move_to_auspresseinheit_B_39",
    "joint_names": [
        "shoulder_pan_joint",
        "shoulder_lift_joint",
        "elbow_joint",
        "wrist_1_joint",
        "wrist_2_joint",
        "wrist_3_joint"
    ],
    "metrics": {
        "cart_traj_len": 0.565026727784083,
        "distance_elbow_joint": 0.06410071154885832,
        "distance_shoulder_lift_joint": 0.29545587424095965,
        "distance_shoulder_pan_joint": 0.5796632139839986,
        "distance_wrist_1_joint": 0.3377965399526762,
        "distance_wrist_2_joint": 0.984532476879187,
        "distance_wrist_3_joint": 0.0034607995276987324,
        "smoothness": 5.075305255429287e-16,
        "time": 0.181262185,
        "traj_len": 1.5049948890721785,
        "weighted_distance": 1.8958534310490986
    },
    "planner": "KPIECE",
    "start": {
        "state": {
            "elbow_joint": 2.0193083361928714,
            "shoulder_lift_joint": -1.1220246554650708,
            "shoulder_pan_joint": -1.0952077554168747,
            "wrist_1_joint": -0.8559753972642168,
            "wrist_2_joint": 0.4759566250798843,
            "wrist_3_joint": -3.1240929996934557
        }
    },
    "waypoints": [
        {
            "positions": [
                -1.0952077554168747,
                -1.1220246554650708,
                2.0193083361928714,
                -0.8559753972642168,
                0.4759566250798843,
                -3.1240929996934557
            ]
        },
        {
            "positions": [
                -1.1918182910808743,
                -1.1712673011718975,
                2.0086248842680616,
                -0.7996759739387708,
                0.6400453712264155,
                -3.1235161997721725
            ]
        },
        {
            "positions": [
                -1.2884288267448742,
                -1.220509946878724,
                1.997941432343252,
                -0.7433765506133247,
                0.8041341173729466,
                -3.1229393998508894
            ]
        },
        {
            "positions": [
                -1.385039362408874,
                -1.2697525925855506,
                1.9872579804184423,
                -0.6870771272878786,
                0.9682228635194778,
                -3.1223625999296063
            ]
        },
        {
            "positions": [
                -1.4816498980728736,
                -1.3189952382923773,
                1.9765745284936325,
                -0.6307777039624327,
                1.1323116096660089,
                -3.121785800008323
            ]
        },
        {
            "positions": [
                -1.5782604337368735,
                -1.3682378839992038,
                1.965891076568823,
                -0.5744782806369866,
                1.29640035581254,
                -3.12120900008704
            ]
        },
        {
            "positions": [
                -1.6748709694008732,
                -1.4174805297060304,
                1.955207624644013,
                -0.5181788573115406,
                1.4604891019590713,
                -3.120632200165757
            ]
        }
    ]
}