{
    "goal": {
        "global_pose": {
            "orientation": {
                "w": 0.7031023480610252,
                "x": -0.7110244013736278,
                "y": 0.0077485991402295624,
                "z": 0.005598929693374583
            },
            "position": {
                "x": -0.8841497679147869,
                "y": 0.44412534475326537,
                "z": 0.3711530566215515
            }
        },
        "name": "move_to_auspresseinheit_D"
    },
    "id": "KPIECE_move_to_auspresseinheit_D_150",
    "joint_names": [
        "shoulder_pan_joint",
        "shoulder_lift_joint",
        "elbow_joint",
        "wrist_1_joint",
        "wrist_2_joint",
        "wrist_3_joint"
    ],
    "metrics": {
        "cart_traj_len": 0.3440917489059291,
        "distance_elbow_joint": 0.6562075709596755,
        "distance_shoulder_lift_joint": 0.1312781527660567,
        "distance_shoulder_pan_joint": 0.1337412684826213,
        "distance_wrist_1_joint": 0.5824534813378115,
        "distance_wrist_2_joint": 1.4425379247288985,
        "distance_wrist_3_joint": 0.03963306443000558,
        "smoothness": 2.1711027995136393e-15,
        "time": 0.044492437999999995,
        "traj_len": 1.7279616496627086,
        "weighted_distance": 2.2561269905818224
    },
    "planner": "KPIECE",
    "start": {
        "state": {
            "elbow_joint": -1.8275523626775212,
            "shoulder_lift_joint": -2.126789852344167,
            "shoulder_pan_joint": -0.03513704404078235,
            "wrist_1_joint": -2.347782403156801,
            "wrist_2_joint": -1.6058999987535132,
            "wrist_3_joint": -3.0880379163319196
        }
    },
    "waypoints": [
        {
            "positions": [
                -0.03513704404078235,
                -2.126789852344167,
                -1.8275523626775212,
                -2.347782403156801,
                -1.6058999987535132,
                -3.0880379163319196
            ]
        },
        {
            "positions": [
                -0.05185470260111001,
                -2.143199621439924,
                -1.7455264163075617,
                -2.4205890883240273,
                -1.4255827581624008,
                -3.083083783278169
            ]
        },
        {
            "positions": [
                -0.06857236116143767,
                -2.159609390535681,
                -1.6635004699376024,
                -2.4933957734912537,
                -1.2452655175712886,
                -3.078129650224418
            ]
        },
        {
            "positions": [
                -0.08529001972176534,
                -2.176019159631438,
                -1.5814745235676428,
                -2.56620245865848,
                -1.0649482769801764,
                -3.0731755171706676
            ]
        },
        {
            "positions": [
                -0.102007678282093,
                -2.192428928727195,
                -1.4994485771976835,
                -2.6390091438257066,
                -0.8846310363890639,
                -3.068221384116917
            ]
        },
        {
            "positions": [
                -0.11872533684242068,
                -2.2088386978229524,
                -1.417422630827724,
                -2.711815828992933,
                -0.7043137957979516,
                -3.063267251063166
            ]
        },
        {
            "positions": [
                -0.13544299540274832,
                -2.2252484669187096,
                -1.3353966844577645,
                -2.7846225141601595,
                -0.5239965552068393,
                -3.0583131180094156
            ]
        },
        {
            "positions": [
                -0.152160653963076,
                -2.2416582360144663,
                -1.253370738087805,
                -2.857429199327386,
                -0.3436793146157271,
                -3.053358984955665
            ]
        },
        {
            "positions": [
                -0.16887831252340366,
                -2.2580680051102235,
                -1.1713447917178457,
                -2.9302358844946124,
                -0.16336207402461478,
                -3.048404851901914
            ]
        }
    ]
}