{
    "goal": {
        "global_pose": {
            "orientation": {
                "w": 0.7047431493862688,
                "x": -0.7094548369677653,
                "y": 0.0024358444001904,
                "z": -0.0022348060817251984
            },
            "position": {
                "x": -0.39052492380142206,
                "y": 0.3671506643295288,
                "z": 0.19426114857196808
            }
        },
        "name": "move_to_magneteinheit_D"
    },
    "id": "KPIECE_move_to_magneteinheit_D_99",
    "joint_names": [
        "shoulder_pan_joint",
        "shoulder_lift_joint",
        "elbow_joint",
        "wrist_1_joint",
        "wrist_2_joint",
        "wrist_3_joint"
    ],
    "metrics": {
        "cart_traj_len": 6.923538297451522,
        "distance_elbow_joint": 3.0947303064664244,
        "distance_shoulder_lift_joint": 1.1080642892699344,
        "distance_shoulder_pan_joint": 9.065490857066608,
        "distance_wrist_1_joint": 2.239798780908986,
        "distance_wrist_2_joint": 3.0472555509109163,
        "distance_wrist_3_joint": 6.987814074556322,
        "smoothness": 0.47224680444889194,
        "time": 0.237508352,
        "traj_len": 5.05402353171997,
        "weighted_distance": 6.6937161831162015
    },
    "planner": "KPIECE",
    "start": {
        "state": {
            "elbow_joint": 0.749534889911806,
            "shoulder_lift_joint": -0.6476975780787326,
            "shoulder_pan_joint": -2.711696901376241,
            "wrist_1_joint": -0.07506478083263063,
            "wrist_2_joint": 0.43296659715538205,
            "wrist_3_joint": -3.14703540197715
        }
    },
    "waypoints": [
        {
            "positions": [
                -2.711696901376241,
                -0.6476975780787326,
                0.749534889911806,
                -0.07506478083263063,
                0.43296659715538205,
                -3.14703540197715
            ]
        },
        {
            "positions": [
                -2.793162408957652,
                -0.682293015986964,
                0.6384969193064384,
                -0.06781552861837593,
                0.3931868056747493,
                -3.092757711254596
            ]
        },
        {
            "positions": [
                -2.8746279165390627,
                -0.7168884538951954,
                0.5274589487010708,
                -0.06056627640412124,
                0.3534070141941165,
                -3.0384800205320417
            ]
        },
        {
            "positions": [
                -2.956093424120473,
                -0.7514838918034268,
                0.4164209780957032,
                -0.053317024189866544,
                0.31362722271348376,
                -2.9842023298094875
            ]
        },
        {
            "positions": [
                -3.037558931701884,
                -0.7860793297116582,
                0.30538300749033565,
                -0.04606777197561185,
                0.273847431232851,
                -2.9299246390869333
            ]
        },
        {
            "positions": [
                -2.8765472679599515,
                -0.797196390996619,
                0.2509975756519236,
                -0.07569918257768357,
                0.22758416045830443,
                -2.837714380378293
            ]
        },
        {
            "positions": [
                -2.715535604218019,
                -0.8083134522815799,
                0.19661214381351153,
                -0.1053305931797553,
                0.1813208896837579,
                -2.7455041216696525
            ]
        },
        {
            "positions": [
                -2.554523940476087,
                -0.8194305135665407,
                0.14222671197509945,
                -0.13496200378182702,
                0.13505761890921136,
                -2.653293862961012
            ]
        },
        {
            "positions": [
                -2.3935122767341546,
                -0.8305475748515017,
                0.0878412801366874,
                -0.16459341438389874,
                0.0887943481346648,
                -2.5610836042523717
            ]
        },
        {
            "positions": [
                -2.232500612992222,
                -0.8416646361364625,
                0.033455848298275304,
                -0.1942248249859705,
                0.04253107736011824,
                -2.468873345543731
            ]
        },
        {
            "positions": [
                -2.0714889492502895,
                -0.8527816974214233,
                -0.020929583540136742,
                -0.22385623558804219,
                -0.0037321934144282642,
                -2.376663086835091
            ]
        },
        {
            "positions": [
                -1.9104772855083572,
                -0.8638987587063842,
                -0.07531501537854879,
                -0.25348764619011394,
                -0.04999546418897488,
                -2.28445282812645
            ]
        },
        {
            "positions": [
                -1.749465621766425,
                -0.875015819991345,
                -0.12970044721696083,
                -0.28311905679218563,
                -0.09625873496352139,
                -2.19224256941781
            ]
        },
        {
            "positions": [
                -1.5884539580244925,
                -0.8861328812763059,
                -0.18408587905537294,
                -0.3127504673942574,
                -0.14252200573806795,
                -2.100032310709169
            ]
        },
        {
            "positions": [
                -1.42744229428256,
                -0.8972499425612668,
                -0.23847131089378504,
                -0.34238187799632913,
                -0.1887852765126145,
                -2.0078220520005288
            ]
        },
        {
            "positions": [
                -1.2664306305406277,
                -0.9083670038462276,
                -0.2928567427321971,
                -0.3720132885984009,
                -0.23504854728716112,
                -1.9156117932918884
            ]
        },
        {
            "positions": [
                -1.1054189667986956,
                -0.9194840651311884,
                -0.34724217457060913,
                -0.4016446992004725,
                -0.2813118180617075,
                -1.823401534583248
            ]
        },
        {
            "positions": [
                -0.9444073030567632,
                -0.9306011264161493,
                -0.4016276064090212,
                -0.43127610980254427,
                -0.32757508883625414,
                -1.7311912758746075
            ]
        },
        {
            "positions": [
                -0.7833956393148305,
                -0.9417181877011103,
                -0.4560130382474332,
                -0.460907520404616,
                -0.37383835961080075,
                -1.6389810171659671
            ]
        },
        {
            "positions": [
                -0.6223839755728982,
                -0.9528352489860711,
                -0.5103984700858454,
                -0.4905389310066878,
                -0.42010163038534726,
                -1.5467707584573265
            ]
        },
        {
            "positions": [
                -0.4613723118309663,
                -0.9639523102710319,
                -0.5647839019242573,
                -0.5201703416087594,
                -0.46636490115989376,
                -1.4545604997486863
            ]
        },
        {
            "positions": [
                -0.3003606480890335,
                -0.9750693715559928,
                -0.6191693337626695,
                -0.5498017522108312,
                -0.5126281719344403,
                -1.3623502410400457
            ]
        },
        {
            "positions": [
                -0.1393489843471012,
                -0.9861864328409536,
                -0.6735547656010815,
                -0.5794331628129029,
                -0.5588914427089868,
                -1.2701399823314052
            ]
        },
        {
            "positions": [
                0.02166267939483113,
                -0.9973034941259145,
                -0.7279401974394937,
                -0.6090645734149747,
                -0.6051547134835336,
                -1.1779297236227648
            ]
        },
        {
            "positions": [
                0.1826743431367639,
                -1.0084205554108754,
                -0.7823256292779057,
                -0.6386959840170464,
                -0.6514179842580801,
                -1.0857194649141242
            ]
        },
        {
            "positions": [
                0.3436860068786962,
                -1.0195376166958363,
                -0.8367110611163178,
                -0.6683273946191182,
                -0.6976812550326266,
                -0.9935092062054838
            ]
        },
        {
            "positions": [
                0.5046976706206285,
                -1.030654677980797,
                -0.8910964929547298,
                -0.6979588052211899,
                -0.7439445258071733,
                -0.9012989474968434
            ]
        },
        {
            "positions": [
                0.6657093343625604,
                -1.041771739265758,
                -0.9454819247931416,
                -0.7275902158232614,
                -0.7902077965817196,
                -0.809088688788203
            ]
        },
        {
            "positions": [
                0.8267209981044927,
                -1.0528888005507189,
                -0.9998673566315539,
                -0.7572216264253332,
                -0.8364710673562661,
                -0.7168784300795625
            ]
        },
        {
            "positions": [
                0.9877326618464255,
                -1.0640058618356796,
                -1.054252788469966,
                -0.786853037027405,
                -0.8827343381308128,
                -0.6246681713709221
            ]
        },
        {
            "positions": [
                1.1487443255883574,
                -1.0751229231206405,
                -1.108638220308378,
                -0.8164844476294767,
                -0.9289976089053593,
                -0.5324579126622817
            ]
        },
        {
            "positions": [
                1.3097559893302901,
                -1.0862399844056014,
                -1.16302365214679,
                -0.8461158582315484,
                -0.9752608796799058,
                -0.4402476539536413
            ]
        },
        {
            "positions": [
                1.470767653072223,
                -1.0973570456905621,
                -1.217409083985202,
                -0.8757472688336202,
                -1.0215241504544526,
                -0.3480373952450009
            ]
        },
        {
            "positions": [
                1.6317793168141548,
                -1.108474106975523,
                -1.2717945158236144,
                -0.905378679435692,
                -1.067787421228999,
                -0.25582713653636
            ]
        },
        {
            "positions": [
                1.7927909805560875,
                -1.119591168260484,
                -1.3261799476620264,
                -0.9350100900377637,
                -1.1140506920035456,
                -0.1636168778277196
            ]
        },
        {
            "positions": [
                1.9538026442980203,
                -1.1307082295454447,
                -1.3805653795004384,
                -0.9646415006398354,
                -1.160313962778092,
                -0.0714066191190792
            ]
        },
        {
            "positions": [
                2.1148143080399513,
                -1.1418252908304056,
                -1.4349508113388503,
                -0.994272911241907,
                -1.2065772335526386,
                0.020803639589560774
            ]
        },
        {
            "positions": [
                2.275825971781884,
                -1.1529423521153666,
                -1.4893362431772623,
                -1.0239043218439787,
                -1.252840504327185,
                0.11301389829820119
            ]
        },
        {
            "positions": [
                2.436837635523817,
                -1.1640594134003273,
                -1.5437216750156746,
                -1.0535357324460506,
                -1.2991037751017316,
                0.20522415700684205
            ]
        },
        {
            "positions": [
                2.5978492992657487,
                -1.1751764746852882,
                -1.5981071068540866,
                -1.0831671430481222,
                -1.3453670458762783,
                0.29743441571548246
            ]
        },
        {
            "positions": [
                2.758860963007681,
                -1.1862935359702491,
                -1.6524925386924987,
                -1.1127985536501939,
                -1.3916303166508248,
                0.38964467442412287
            ]
        },
        {
            "positions": [
                2.645660619468012,
                -1.2081961641001882,
                -1.6791349570718108,
                -1.156801284049324,
                -1.3446049844544898,
                0.25690875141815955
            ]
        },
        {
            "positions": [
                2.5324602759283423,
                -1.2300987922301274,
                -1.7057773754511232,
                -1.2008040144484542,
                -1.2975796522581549,
                0.12417282841219623
            ]
        },
        {
            "positions": [
                2.419259932388673,
                -1.2520014203600667,
                -1.7324197938304353,
                -1.2448067448475844,
                -1.2505543200618199,
                -0.008563094593767084
            ]
        },
        {
            "positions": [
                2.3060595888490036,
                -1.2739040484900057,
                -1.7590622122097477,
                -1.2888094752467145,
                -1.203528987865485,
                -0.1412990175997304
            ]
        },
        {
            "positions": [
                2.192859245309334,
                -1.2958066766199448,
                -1.7857046305890598,
                -1.332812205645845,
                -1.15650365566915,
                -0.2740349406056938
            ]
        },
        {
            "positions": [
                2.079658901769665,
                -1.317709304749884,
                -1.8123470489683722,
                -1.3768149360449748,
                -1.109478323472815,
                -0.40677086361165704
            ]
        },
        {
            "positions": [
                1.9664585582299958,
                -1.3396119328798233,
                -1.8389894673476843,
                -1.4208176664441052,
                -1.06245299127648,
                -0.5395067866176203
            ]
        },
        {
            "positions": [
                1.8532582146903263,
                -1.3615145610097623,
                -1.8656318857269967,
                -1.4648203968432354,
                -1.015427659080145,
                -0.6722427096235837
            ]
        },
        {
            "positions": [
                1.7400578711506571,
                -1.3834171891397014,
                -1.8922743041063088,
                -1.5088231272423656,
                -0.96840232688381,
                -0.8049786326295469
            ]
        },
        {
            "positions": [
                1.6268575276109876,
                -1.4053198172696406,
                -1.9189167224856212,
                -1.5528258576414957,
                -0.9213769946874749,
                -0.9377145556355104
            ]
        },
        {
            "positions": [
                1.5136571840713184,
                -1.4272224453995799,
                -1.9455591408649333,
                -1.5968285880406259,
                -0.8743516624911399,
                -1.0704504786414735
            ]
        },
        {
            "positions": [
                1.400456840531649,
                -1.449125073529519,
                -1.9722015592442457,
                -1.640831318439756,
                -0.827326330294805,
                -1.203186401647437
            ]
        },
        {
            "positions": [
                1.2872564969919797,
                -1.471027701659458,
                -1.9988439776235578,
                -1.6848340488388862,
                -0.78030099809847,
                -1.3359223246534002
            ]
        },
        {
            "positions": [
                1.1740561534523104,
                -1.4929303297893972,
                -2.02548639600287,
                -1.7288367792380164,
                -0.733275665902135,
                -1.4686582476593635
            ]
        },
        {
            "positions": [
                1.0608558099126413,
                -1.5148329579193363,
                -2.0521288143821823,
                -1.7728395096371465,
                -0.6862503337058,
                -1.6013941706653267
            ]
        },
        {
            "positions": [
                0.9476554663729717,
                -1.5367355860492755,
                -2.0787712327614947,
                -1.816842240036277,
                -0.6392250015094649,
                -1.7341300936712902
            ]
        },
        {
            "positions": [
                0.8344551228333024,
                -1.5586382141792146,
                -2.1054136511408066,
                -1.8608449704354069,
                -0.5921996693131301,
                -1.8668660166772537
            ]
        },
        {
            "positions": [
                0.7212547792936332,
                -1.5805408423091538,
                -2.132056069520119,
                -1.9048477008345372,
                -0.5451743371167951,
                -1.9996019396832168
            ]
        },
        {
            "positions": [
                0.6080544357539641,
                -1.602443470439093,
                -2.1586984878994313,
                -1.9488504312336672,
                -0.4981490049204601,
                -2.13233786268918
            ]
        },
        {
            "positions": [
                0.4948540922142941,
                -1.6243460985690321,
                -2.1853409062787437,
                -1.9928531616327976,
                -0.451123672724125,
                -2.2650737856951437
            ]
        },
        {
            "positions": [
                0.381653748674625,
                -1.6462487266989712,
                -2.2119833246580556,
                -2.0368558920319275,
                -0.40409834052779003,
                -2.3978097087011068
            ]
        },
        {
            "positions": [
                0.26845340513495586,
                -1.6681513548289104,
                -2.238625743037368,
                -2.080858622431058,
                -0.35707300833145506,
                -2.53054563170707
            ]
        },
        {
            "positions": [
                0.15525306159528673,
                -1.6900539829588497,
                -2.2652681614166803,
                -2.1248613528301883,
                -0.3100476761351201,
                -2.6632815547130333
            ]
        },
        {
            "positions": [
                0.042052718055617166,
                -1.7119566110887887,
                -2.291910579795992,
                -2.1688640832293182,
                -0.2630223439387851,
                -2.796017477718997
            ]
        },
        {
            "positions": [
                -0.0711476254840524,
                -1.7338592392187278,
                -2.3185529981753046,
                -2.212866813628448,
                -0.21599701174245012,
                -2.9287534007249603
            ]
        },
        {
            "positions": [
                -0.18434796902372175,
                -1.755761867348667,
                -2.345195416554617,
                -2.2568695440275786,
                -0.16897167954611506,
                -3.0614893237309233
            ]
        }
    ]
}