{
    "goal": {
        "global_pose": {
            "orientation": {
                "w": 0.7031023480610252,
                "x": -0.7110244013736278,
                "y": 0.0077485991402295624,
                "z": 0.005598929693374583
            },
            "position": {
                "x": -0.8841497679147869,
                "y": 0.44412534475326537,
                "z": 0.3711530566215515
            }
        },
        "name": "move_to_auspresseinheit_D"
    },
    "id": "KPIECE_move_to_auspresseinheit_D_18",
    "joint_names": [
        "shoulder_pan_joint",
        "shoulder_lift_joint",
        "elbow_joint",
        "wrist_1_joint",
        "wrist_2_joint",
        "wrist_3_joint"
    ],
    "metrics": {
        "cart_traj_len": 0.3446676822324285,
        "distance_elbow_joint": 0.6705023083204251,
        "distance_shoulder_lift_joint": 0.1401902063972833,
        "distance_shoulder_pan_joint": 0.13390355113646785,
        "distance_wrist_1_joint": 0.6220577419949831,
        "distance_wrist_2_joint": 1.4475904789449519,
        "distance_wrist_3_joint": 0.08080035378793227,
        "smoothness": 1.0855514023135934e-15,
        "time": 0.15039656299999998,
        "traj_len": 1.7592738958394294,
        "weighted_distance": 2.307876419806278
    },
    "planner": "KPIECE",
    "start": {
        "state": {
            "elbow_joint": -1.8275523626775212,
            "shoulder_lift_joint": -2.126789852344167,
            "shoulder_pan_joint": -0.03513704404078235,
            "wrist_1_joint": -2.347782403156801,
            "wrist_2_joint": -1.6058999987535132,
            "wrist_3_joint": -3.0880379163319196
        }
    },
    "waypoints": [
        {
            "positions": [
                -0.03513704404078235,
                -2.126789852344167,
                -1.8275523626775212,
                -2.347782403156801,
                -1.6058999987535132,
                -3.0880379163319196
            ]
        },
        {
            "positions": [
                -0.05187498793284083,
                -2.144313628143827,
                -1.743739574137468,
                -2.4255396209061737,
                -1.4249511888853943,
                -3.077937872108428
            ]
        },
        {
            "positions": [
                -0.0686129318248993,
                -2.161837403943488,
                -1.659926785597415,
                -2.5032968386555465,
                -1.2440023790172752,
                -3.0678378278849365
            ]
        },
        {
            "positions": [
                -0.08535087571695779,
                -2.179361179743148,
                -1.5761139970573619,
                -2.5810540564049194,
                -1.0630535691491563,
                -3.057737783661445
            ]
        },
        {
            "positions": [
                -0.10208881960901628,
                -2.1968849555428083,
                -1.4923012085173086,
                -2.658811274154292,
                -0.8821047592810373,
                -3.0476377394379535
            ]
        },
        {
            "positions": [
                -0.11882676350107477,
                -2.214408731342469,
                -1.4084884199772554,
                -2.7365684919036655,
                -0.7011559494129183,
                -3.037537695214462
            ]
        },
        {
            "positions": [
                -0.13556470739313323,
                -2.231932507142129,
                -1.3246756314372023,
                -2.8143257096530383,
                -0.5202071395447994,
                -3.0274376509909704
            ]
        },
        {
            "positions": [
                -0.15230265128519171,
                -2.24945628294179,
                -1.2408628428971493,
                -2.892082927402411,
                -0.33925832967668024,
                -3.017337606767479
            ]
        },
        {
            "positions": [
                -0.1690405951772502,
                -2.26698005874145,
                -1.157050054357096,
                -2.969840145151784,
                -0.15830951980856137,
                -3.0072375625439873
            ]
        }
    ]
}