{
    "goal": {
        "global_pose": {
            "orientation": {
                "w": -0.00223480608172531,
                "x": 0.0024358444001904467,
                "y": 0.7094548369677653,
                "z": -0.704743149386269
            },
            "position": {
                "x": 0.6205249238014221,
                "y": -0.6371506643295288,
                "z": 0.19426114857196808
            }
        },
        "name": "move_to_magneteinheit_B"
    },
    "id": "KPIECE_move_to_magneteinheit_B_110",
    "joint_names": [
        "shoulder_pan_joint",
        "shoulder_lift_joint",
        "elbow_joint",
        "wrist_1_joint",
        "wrist_2_joint",
        "wrist_3_joint"
    ],
    "metrics": {
        "cart_traj_len": 1.491178898135306,
        "distance_elbow_joint": 0.9547175142064248,
        "distance_shoulder_lift_joint": 0.7547517069847136,
        "distance_shoulder_pan_joint": 1.6201334861167047,
        "distance_wrist_1_joint": 0.9257173672717358,
        "distance_wrist_2_joint": 1.5211521692758436,
        "distance_wrist_3_joint": 0.41630794312953034,
        "smoothness": 0.33571036672250454,
        "time": 0.093798533,
        "traj_len": 2.4885297239504602,
        "weighted_distance": 3.0777046008009923
    },
    "planner": "KPIECE",
    "start": {
        "state": {
            "elbow_joint": 2.6216224122426386,
            "shoulder_lift_joint": -1.4174107377796124,
            "shoulder_pan_joint": 0.7066234856936794,
            "wrist_1_joint": 1.9546482284002225,
            "wrist_2_joint": -0.7096286983471962,
            "wrist_3_joint": 0.005740856962016249
        }
    },
    "waypoints": [
        {
            "positions": [
                0.7066234856936794,
                -1.4174107377796124,
                2.6216224122426386,
                1.9546482284002225,
                -0.7096286983471962,
                0.005740856962016249
            ]
        },
        {
            "positions": [
                0.6166958500056834,
                -1.3917995150857827,
                2.577015150146463,
                1.8501804965782862,
                -0.7313336566265866,
                0.07187878166225371
            ]
        },
        {
            "positions": [
                0.551771459641208,
                -1.3731071381446245,
                2.534282603731643,
                1.762759050585611,
                -0.7514689160288369,
                0.11845422862385654
            ]
        },
        {
            "positions": [
                0.4868470692767327,
                -1.354414761203466,
                2.4915500573168234,
                1.675337604592936,
                -0.7716041754310874,
                0.1650296755854594
            ]
        },
        {
            "positions": [
                0.4219226789122573,
                -1.3357223842623078,
                2.4488175109020034,
                1.5879161586002608,
                -0.7917394348333378,
                0.2116051225470622
            ]
        },
        {
            "positions": [
                0.31919708819415865,
                -1.2839482801494302,
                2.388670386835404,
                1.6309150276365512,
                -0.9024349296633148,
                0.19541714735133262
            ]
        },
        {
            "positions": [
                0.21647149747605998,
                -1.2321741760365525,
                2.328523262768805,
                1.6739138966728415,
                -1.013130424493292,
                0.17922917215560305
            ]
        },
        {
            "positions": [
                0.11374590675796131,
                -1.180400071923675,
                2.2683761387022057,
                1.7169127657091319,
                -1.1238259193232691,
                0.16304119695987346
            ]
        },
        {
            "positions": [
                0.011020316039862643,
                -1.1286259678107973,
                2.2082290146356067,
                1.759911634745422,
                -1.2345214141532461,
                0.1468532217641439
            ]
        },
        {
            "positions": [
                -0.09170527467823608,
                -1.0768518636979196,
                2.1480818905690073,
                1.8029105037817124,
                -1.345216908983223,
                0.1306652465684143
            ]
        },
        {
            "positions": [
                -0.1944308653963347,
                -1.025077759585042,
                2.087934766502408,
                1.8459093728180027,
                -1.4559124038132003,
                0.11447727137268471
            ]
        },
        {
            "positions": [
                -0.2971564561144333,
                -0.9733036554721645,
                2.027787642435809,
                1.888908241854293,
                -1.5666078986431773,
                0.09828929617695514
            ]
        },
        {
            "positions": [
                -0.39988204683253203,
                -0.9215295513592868,
                1.9676405183692098,
                1.9319071108905834,
                -1.6773033934731545,
                0.08210132098122555
            ]
        },
        {
            "positions": [
                -0.5026076375506306,
                -0.8697554472464093,
                1.9074933943026107,
                1.9749059799268736,
                -1.7879988883031315,
                0.06591334578549599
            ]
        },
        {
            "positions": [
                -0.6053332282687295,
                -0.8179813431335315,
                1.8473462702360113,
                2.017904848963164,
                -1.8986943831331087,
                0.04972537058976639
            ]
        },
        {
            "positions": [
                -0.7080588189868279,
                -0.766207239020654,
                1.7871991461694123,
                2.0609037179994543,
                -2.009389877963086,
                0.0335373953940368
            ]
        },
        {
            "positions": [
                -0.8107844097049267,
                -0.7144331349077764,
                1.727052022102813,
                2.1039025870357446,
                -2.1200853727930626,
                0.01734942019830721
            ]
        },
        {
            "positions": [
                -0.9135100004230252,
                -0.6626590307948987,
                1.6669048980362138,
                2.146901456072035,
                -2.23078086762304,
                0.0011614450025776535
            ]
        }
    ]
}