{
    "goal": {
        "global_pose": {
            "orientation": {
                "w": 0.5084816262002911,
                "x": -0.4908360881923452,
                "y": 0.5182115481033761,
                "z": -0.48164630358495003
            },
            "position": {
                "x": 0.5540239810943604,
                "y": -0.46912469901144505,
                "z": 0.16403168439865112
            }
        },
        "name": "move_to_storage_B"
    },
    "id": "KPIECE_move_to_storage_B_86",
    "joint_names": [
        "shoulder_pan_joint",
        "shoulder_lift_joint",
        "elbow_joint",
        "wrist_1_joint",
        "wrist_2_joint",
        "wrist_3_joint"
    ],
    "metrics": {
        "cart_traj_len": 2.2587137090654275,
        "distance_elbow_joint": 1.4910227875840798,
        "distance_shoulder_lift_joint": 1.7718914642031223,
        "distance_shoulder_pan_joint": 0.8846188220199996,
        "distance_wrist_1_joint": 3.474529831388666,
        "distance_wrist_2_joint": 2.700484288341347,
        "distance_wrist_3_joint": 3.333089509652012,
        "smoothness": 0.3746282128017496,
        "time": 0.080452831,
        "traj_len": 3.695353393545634,
        "weighted_distance": 5.147507148341152
    },
    "planner": "KPIECE",
    "start": {
        "state": {
            "elbow_joint": 1.664937868594044,
            "shoulder_lift_joint": -0.661644460510453,
            "shoulder_pan_joint": -0.9139846352900073,
            "wrist_1_joint": 2.146753192139373,
            "wrist_2_joint": -2.2341966793290973,
            "wrist_3_joint": 0.005466555786416001
        }
    },
    "waypoints": [
        {
            "positions": [
                -0.9139846352900073,
                -0.661644460510453,
                1.664937868594044,
                2.146753192139373,
                -2.2341966793290973,
                0.005466555786416001
            ]
        },
        {
            "positions": [
                -0.9031726882323243,
                -0.7303971299257156,
                1.7013047698732584,
                2.1054614393678874,
                -2.2103963555868553,
                -0.03770486094558313
            ]
        },
        {
            "positions": [
                -0.8923607411746413,
                -0.7991497993409782,
                1.7376716711524727,
                2.0641696865964017,
                -2.1865960318446134,
                -0.08087627767758226
            ]
        },
        {
            "positions": [
                -0.874056873800806,
                -0.8535149732368372,
                1.7061451640934628,
                1.888499271124388,
                -2.0863875264799425,
                -0.07125336650669131
            ]
        },
        {
            "positions": [
                -0.8557530064269706,
                -0.9078801471326962,
                1.674618657034453,
                1.712828855652374,
                -1.9861790211152721,
                -0.06163045533580037
            ]
        },
        {
            "positions": [
                -0.8374491390531353,
                -0.9622453210285552,
                1.6430921499754432,
                1.5371584401803604,
                -1.8859705157506013,
                -0.05200754416490942
            ]
        },
        {
            "positions": [
                -0.8191452716793001,
                -1.0166104949244141,
                1.6115656429164333,
                1.3614880247083465,
                -1.7857620103859306,
                -0.04238463299401847
            ]
        },
        {
            "positions": [
                -0.8008414043054647,
                -1.0709756688202732,
                1.5800391358574235,
                1.1858176092363326,
                -1.68555350502126,
                -0.03276172182312752
            ]
        },
        {
            "positions": [
                -0.7825375369316294,
                -1.1253408427161322,
                1.5485126287984137,
                1.0101471937643192,
                -1.5853449996565891,
                -0.023138810652236573
            ]
        },
        {
            "positions": [
                -0.7642336695577941,
                -1.1797060166119913,
                1.5169861217394038,
                0.8344767782923053,
                -1.4851364942919185,
                -0.013515899481345614
            ]
        },
        {
            "positions": [
                -0.7459298021839589,
                -1.23407119050785,
                1.4854596146803942,
                0.6588063628202916,
                -1.3849279889272479,
                -0.003892988310454676
            ]
        },
        {
            "positions": [
                -0.7276259348101235,
                -1.2884363644037093,
                1.4539331076213844,
                0.4831359473482777,
                -1.284719483562577,
                0.005729922860436276
            ]
        },
        {
            "positions": [
                -0.7093220674362881,
                -1.3428015382995682,
                1.4224066005623746,
                0.3074655318762638,
                -1.1845109781979064,
                0.015352834031327228
            ]
        },
        {
            "positions": [
                -0.6910182000624528,
                -1.3971667121954274,
                1.3908800935033647,
                0.1317951164042499,
                -1.0843024728332358,
                0.02497574520221818
            ]
        },
        {
            "positions": [
                -0.6727143326886176,
                -1.4515318860912862,
                1.3593535864443549,
                -0.04387529906776333,
                -0.9840939674685651,
                0.03459865637310912
            ]
        },
        {
            "positions": [
                -0.6544104653147823,
                -1.5058970599871453,
                1.327827079385345,
                -0.21954571453977723,
                -0.8838854621038943,
                0.04422156754400006
            ]
        },
        {
            "positions": [
                -0.636106597940947,
                -1.5602622338830043,
                1.2963005723263352,
                -0.3952161300117911,
                -0.7836769567392237,
                0.053844478714891036
            ]
        },
        {
            "positions": [
                -0.6178027305671117,
                -1.6146274077788632,
                1.2647740652673254,
                -0.570886545483805,
                -0.683468451374553,
                0.06346738988578199
            ]
        },
        {
            "positions": [
                -0.5994988631932764,
                -1.6689925816747222,
                1.2332475582083156,
                -0.7465569609558185,
                -0.5832599460098824,
                0.07309030105667291
            ]
        },
        {
            "positions": [
                -0.5811949958194411,
                -1.7233577555705812,
                1.2017210511493057,
                -0.9222273764278324,
                -0.48305144064521155,
                0.08271321222756386
            ]
        },
        {
            "positions": [
                -0.5628911284456057,
                -1.7777229294664403,
                1.1701945440902959,
                -1.0978977918998463,
                -0.3828429352805409,
                0.09233612339845483
            ]
        },
        {
            "positions": [
                -0.5962364606440806,
                -1.7367346172634943,
                1.223370285213013,
                -1.0835303639405058,
                -0.3297722762622415,
                0.28443201559295334
            ]
        },
        {
            "positions": [
                -0.6295817928425556,
                -1.6957463050605484,
                1.2765460263357302,
                -1.0691629359811656,
                -0.27670161724394204,
                0.47652790778745185
            ]
        },
        {
            "positions": [
                -0.6629271250410304,
                -1.6547579928576024,
                1.3297217674584474,
                -1.0547955080218252,
                -0.22363095822564266,
                0.6686237999819504
            ]
        },
        {
            "positions": [
                -0.6962724572395053,
                -1.6137696806546566,
                1.3828975085811646,
                -1.0404280800624848,
                -0.17056029920734322,
                0.860719692176449
            ]
        },
        {
            "positions": [
                -0.7296177894379802,
                -1.5727813684517107,
                1.4360732497038815,
                -1.0260606521031443,
                -0.11748964018904379,
                1.0528155843709475
            ]
        },
        {
            "positions": [
                -0.762963121636455,
                -1.5317930562487647,
                1.4892489908265987,
                -1.0116932241438041,
                -0.0644189811707444,
                1.2449114765654459
            ]
        },
        {
            "positions": [
                -0.7963084538349299,
                -1.4908047440458188,
                1.5424247319493158,
                -0.9973257961844637,
                -0.011348322152444967,
                1.4370073687599445
            ]
        },
        {
            "positions": [
                -0.8296537860334048,
                -1.4498164318428728,
                1.595600473072033,
                -0.9829583682251233,
                0.04172233686585447,
                1.629103260954443
            ]
        },
        {
            "positions": [
                -0.8629991182318797,
                -1.4088281196399268,
                1.6487762141947502,
                -0.968590940265783,
                0.09479299588415391,
                1.8211991531489413
            ]
        },
        {
            "positions": [
                -0.8963444504303546,
                -1.3678398074369809,
                1.7019519553174673,
                -0.9542235123064426,
                0.14786365490245335,
                2.01329504534344
            ]
        },
        {
            "positions": [
                -0.9296897826288294,
                -1.3268514952340351,
                1.7551276964401845,
                -0.9398560843471022,
                0.20093431392075278,
                2.205390937537939
            ]
        },
        {
            "positions": [
                -0.9630351148273043,
                -1.285863183031089,
                1.8083034375629015,
                -0.9254886563877619,
                0.2540049729390521,
                2.397486829732437
            ]
        },
        {
            "positions": [
                -0.9963804470257792,
                -1.2448748708281432,
                1.8614791786856189,
                -0.9111212284284215,
                0.30707563195735155,
                2.5895827219269356
            ]
        },
        {
            "positions": [
                -1.029725779224254,
                -1.2038865586251972,
                1.9146549198083358,
                -0.8967538004690812,
                0.360146290975651,
                2.7816786141214345
            ]
        },
        {
            "positions": [
                -1.063071111422729,
                -1.1628982464222513,
                1.967830660931053,
                -0.8823863725097407,
                0.4132169499939504,
                2.973774506315933
            ]
        },
        {
            "positions": [
                -1.0964164436212038,
                -1.1219099342193053,
                2.02100640205377,
                -0.8680189445504004,
                0.4662876090122498,
                3.1658703985104313
            ]
        }
    ]
}