{
    "goal": {
        "global_pose": {
            "orientation": {
                "w": 0.005598929693374612,
                "x": 0.007748599140229565,
                "y": 0.7110244013736278,
                "z": -0.7031023480610252
            },
            "position": {
                "x": -0.8858502320852131,
                "y": -0.7141253447532654,
                "z": 0.3711530566215515
            }
        },
        "name": "move_to_auspresseinheit_C"
    },
    "id": "KPIECE_move_to_auspresseinheit_C_8",
    "joint_names": [
        "shoulder_pan_joint",
        "shoulder_lift_joint",
        "elbow_joint",
        "wrist_1_joint",
        "wrist_2_joint",
        "wrist_3_joint"
    ],
    "metrics": {
        "cart_traj_len": 0.492372913777925,
        "distance_elbow_joint": 0.9901553880710077,
        "distance_shoulder_lift_joint": 0.31990807560472856,
        "distance_shoulder_pan_joint": 0.255835267671769,
        "distance_wrist_1_joint": 0.6569128900542825,
        "distance_wrist_2_joint": 1.31710253195069,
        "distance_wrist_3_joint": 0.047351802896661965,
        "smoothness": 9.689219149575435e-16,
        "time": 0.960165723,
        "traj_len": 1.8940079081802008,
        "weighted_distance": 2.378231482435517
    },
    "planner": "KPIECE",
    "start": {
        "state": {
            "elbow_joint": 1.7527959577737207,
            "shoulder_lift_joint": -0.9740617694225068,
            "shoulder_pan_joint": -2.967991417825858,
            "wrist_1_joint": -0.759517768980727,
            "wrist_2_joint": 1.7443932448377408,
            "wrist_3_joint": -3.0840537646736568
        }
    },
    "waypoints": [
        {
            "positions": [
                -2.967991417825858,
                -0.9740617694225068,
                1.7527959577737207,
                -0.759517768980727,
                1.7443932448377408,
                -3.0840537646736568
            ]
        },
        {
            "positions": [
                -2.9424078910586813,
                -0.9420709618620339,
                1.6537804189666199,
                -0.6938264799752987,
                1.612682991642672,
                -3.088788944963323
            ]
        },
        {
            "positions": [
                -2.916824364291504,
                -0.9100801543015611,
                1.554764880159519,
                -0.6281351909698705,
                1.4809727384476028,
                -3.0935241252529893
            ]
        },
        {
            "positions": [
                -2.891240837524327,
                -0.8780893467410882,
                1.4557493413524183,
                -0.5624439019644423,
                1.349262485252534,
                -3.0982593055426553
            ]
        },
        {
            "positions": [
                -2.8656573107571504,
                -0.8460985391806153,
                1.3567338025453175,
                -0.49675261295901396,
                1.2175522320574648,
                -3.1029944858323217
            ]
        },
        {
            "positions": [
                -2.8400737839899737,
                -0.8141077316201425,
                1.2577182637382167,
                -0.4310613239535857,
                1.0858419788623959,
                -3.1077296661219878
            ]
        },
        {
            "positions": [
                -2.8144902572227966,
                -0.7821169240596697,
                1.158702724931116,
                -0.36537003494815745,
                0.9541317256673268,
                -3.1124648464116538
            ]
        },
        {
            "positions": [
                -2.7889067304556194,
                -0.7501261164991968,
                1.0596871861240154,
                -0.29967874594272925,
                0.8224214724722579,
                -3.1172000267013202
            ]
        },
        {
            "positions": [
                -2.7633232036884428,
                -0.7181353089387239,
                0.9606716473169145,
                -0.23398745693730094,
                0.6907112192771889,
                -3.1219352069909863
            ]
        },
        {
            "positions": [
                -2.737739676921266,
                -0.686144501378251,
                0.8616561085098138,
                -0.16829616793187263,
                0.5590009660821198,
                -3.1266703872806527
            ]
        },
        {
            "positions": [
                -2.712156150154089,
                -0.6541536938177782,
                0.762640569702713,
                -0.10260487892644446,
                0.4272907128870508,
                -3.1314055675703187
            ]
        }
    ]
}