{
    "goal": {
        "global_pose": {
            "orientation": {
                "w": 0.7047431493862688,
                "x": -0.7094548369677653,
                "y": 0.0024358444001904,
                "z": -0.0022348060817251984
            },
            "position": {
                "x": -0.39052492380142206,
                "y": 0.3671506643295288,
                "z": 0.19426114857196808
            }
        },
        "name": "move_to_magneteinheit_D"
    },
    "id": "KPIECE_move_to_magneteinheit_D_103",
    "joint_names": [
        "shoulder_pan_joint",
        "shoulder_lift_joint",
        "elbow_joint",
        "wrist_1_joint",
        "wrist_2_joint",
        "wrist_3_joint"
    ],
    "metrics": {
        "cart_traj_len": 4.5266728077948395,
        "distance_elbow_joint": 4.494684161414009,
        "distance_shoulder_lift_joint": 1.628090985878276,
        "distance_shoulder_pan_joint": 3.5884477843735008,
        "distance_wrist_1_joint": 3.0246590926343058,
        "distance_wrist_2_joint": 0.911793852122205,
        "distance_wrist_3_joint": 3.853206541502964,
        "smoothness": 0.3801653399426489,
        "time": 0.13731527999999998,
        "traj_len": 4.183405600455836,
        "weighted_distance": 5.39849501673269
    },
    "planner": "KPIECE",
    "start": {
        "state": {
            "elbow_joint": 0.749534889911806,
            "shoulder_lift_joint": -0.6476975780787326,
            "shoulder_pan_joint": -2.711696901376241,
            "wrist_1_joint": -0.07506478083263063,
            "wrist_2_joint": 0.43296659715538205,
            "wrist_3_joint": -3.14703540197715
        }
    },
    "waypoints": [
        {
            "positions": [
                -2.711696901376241,
                -0.6476975780787326,
                0.749534889911806,
                -0.07506478083263063,
                0.43296659715538205,
                -3.14703540197715
            ]
        },
        {
            "positions": [
                -2.7437080099559914,
                -0.6737140506489342,
                0.6346985832952247,
                0.055508459060883586,
                0.367632008537078,
                -3.1496206018762076
            ]
        },
        {
            "positions": [
                -2.775719118535742,
                -0.6997305232191358,
                0.5198622766786434,
                0.1860816989543978,
                0.3022974199187739,
                -3.1522058017752648
            ]
        },
        {
            "positions": [
                -2.8077302271154925,
                -0.7257469957893373,
                0.40502597006206215,
                0.316654938847912,
                0.23696283130046983,
                -3.1547910016743224
            ]
        },
        {
            "positions": [
                -2.839741335695243,
                -0.7517634683595389,
                0.29018966344548086,
                0.44722817874142623,
                0.17162824268216575,
                -3.1573762015733795
            ]
        },
        {
            "positions": [
                -2.8717524442749935,
                -0.7777799409297403,
                0.17535335682889952,
                0.5778014186349405,
                0.10629365406386165,
                -3.159961401472437
            ]
        },
        {
            "positions": [
                -2.903763552854744,
                -0.8037964134999419,
                0.060517050212318346,
                0.7083746585284547,
                0.04095906544555761,
                -3.1625466013714942
            ]
        },
        {
            "positions": [
                -2.935774661434494,
                -0.8298128860701435,
                -0.05431925640426294,
                0.8389478984219689,
                -0.024375523172746494,
                -3.165131801270552
            ]
        },
        {
            "positions": [
                -2.967785770014245,
                -0.855829358640345,
                -0.16915556302084422,
                0.9695211383154831,
                -0.08971011179105054,
                -3.167717001169609
            ]
        },
        {
            "positions": [
                -2.9997968785939952,
                -0.8818458312105466,
                -0.28399186963742556,
                1.1000943782089974,
                -0.1550447004093547,
                -3.1703022010686666
            ]
        },
        {
            "positions": [
                -2.860770733731199,
                -0.9200626177412508,
                -0.2532788953724298,
                1.0658624377369599,
                -0.15397126446100437,
                -3.025615575675883
            ]
        },
        {
            "positions": [
                -2.721744588868403,
                -0.958279404271955,
                -0.22256592110743403,
                1.0316304972649222,
                -0.15289782851265402,
                -2.8809289502831
            ]
        },
        {
            "positions": [
                -2.582718444005607,
                -0.9964961908026592,
                -0.19185294684243828,
                0.9973985567928847,
                -0.1518243925643037,
                -2.7362423248903167
            ]
        },
        {
            "positions": [
                -2.4436922991428105,
                -1.0347129773333634,
                -0.1611399725774425,
                0.9631666163208472,
                -0.15075095661595336,
                -2.5915556994975333
            ]
        },
        {
            "positions": [
                -2.3046661542800146,
                -1.0729297638640676,
                -0.13042699831244675,
                0.9289346758488096,
                -0.14967752066760304,
                -2.4468690741047503
            ]
        },
        {
            "positions": [
                -2.165640009417219,
                -1.1111465503947717,
                -0.099714024047451,
                0.8947027353767721,
                -0.14860408471925268,
                -2.3021824487119673
            ]
        },
        {
            "positions": [
                -2.0266138645544225,
                -1.149363336925476,
                -0.06900104978245525,
                0.8604707949047345,
                -0.14753064877090236,
                -2.157495823319184
            ]
        },
        {
            "positions": [
                -1.8875877196916262,
                -1.1875801234561802,
                -0.03828807551745947,
                0.8262388544326971,
                -0.14645721282255203,
                -2.0128091979264005
            ]
        },
        {
            "positions": [
                -1.7485615748288301,
                -1.2257969099868844,
                -0.00757510125246369,
                0.7920069139606595,
                -0.14538377687420168,
                -1.8681225725336172
            ]
        },
        {
            "positions": [
                -1.609535429966034,
                -1.2640136965175885,
                0.023137873012532062,
                0.7577749734886219,
                -0.14431034092585135,
                -1.723435947140834
            ]
        },
        {
            "positions": [
                -1.470509285103238,
                -1.3022304830482927,
                0.053850847277527814,
                0.7235430330165844,
                -0.14323690497750102,
                -1.5787493217480508
            ]
        },
        {
            "positions": [
                -1.331483140240442,
                -1.340447269578997,
                0.08456382154252357,
                0.6893110925445469,
                -0.1421634690291507,
                -1.4340626963552676
            ]
        },
        {
            "positions": [
                -1.1924569953776456,
                -1.3786640561097012,
                0.11527679580751937,
                0.6550791520725092,
                -0.14109003308080034,
                -1.2893760709624842
            ]
        },
        {
            "positions": [
                -1.0534308505148497,
                -1.4168808426404054,
                0.14598977007251507,
                0.6208472116004717,
                -0.14001659713245002,
                -1.1446894455697012
            ]
        },
        {
            "positions": [
                -0.9144047056520535,
                -1.4550976291711095,
                0.17670274433751082,
                0.5866152711284343,
                -0.1389431611840997,
                -1.0000028201769178
            ]
        },
        {
            "positions": [
                -0.7753785607892572,
                -1.4933144157018137,
                0.20741571860250663,
                0.5523833306563967,
                -0.13786972523574936,
                -0.8553161947841343
            ]
        },
        {
            "positions": [
                -0.6363524159264613,
                -1.531531202232518,
                0.23812869286750232,
                0.5181513901843592,
                -0.136796289287399,
                -0.7106295693913514
            ]
        },
        {
            "positions": [
                -0.497326271063665,
                -1.5697479887632224,
                0.2688416671324982,
                0.4839194497123216,
                -0.13572285333904868,
                -0.5659429439985679
            ]
        },
        {
            "positions": [
                -0.35830012620086915,
                -1.6079647752939263,
                0.29955464139749394,
                0.4496875092402841,
                -0.13464941739069836,
                -0.42125631860578494
            ]
        },
        {
            "positions": [
                -0.21927398133807285,
                -1.6461815618246307,
                0.3302676156624897,
                0.4154555687682465,
                -0.13357598144234803,
                -0.2765696932130015
            ]
        },
        {
            "positions": [
                -0.08024783647527656,
                -1.6843983483553349,
                0.36098058992748544,
                0.3812236282962089,
                -0.13250254549399768,
                -0.13188306782021808
            ]
        },
        {
            "positions": [
                0.058778308387519185,
                -1.722615134886039,
                0.39169356419248114,
                0.3469916878241714,
                -0.13142910954564735,
                0.012803557572564905
            ]
        },
        {
            "positions": [
                0.05046104255024131,
                -1.7537564897842266,
                0.16418712059669646,
                0.4176262264607855,
                -0.12180934755921659,
                0.04304958749023391
            ]
        },
        {
            "positions": [
                0.04214377671296343,
                -1.784897844682414,
                -0.06331932299908821,
                0.48826076509739963,
                -0.11218958557278583,
                0.07329561740790291
            ]
        },
        {
            "positions": [
                0.03382651087568555,
                -1.8160391995806013,
                -0.2908257665948729,
                0.5588953037340137,
                -0.10256982358635507,
                0.10354164732557192
            ]
        },
        {
            "positions": [
                0.025509245038407673,
                -1.847180554478789,
                -0.5183322101906576,
                0.6295298423706279,
                -0.0929500615999243,
                0.13378767724324092
            ]
        },
        {
            "positions": [
                0.01719197920112979,
                -1.8783219093769765,
                -0.7458386537864424,
                0.700164381007242,
                -0.08333029961349353,
                0.16403370716090993
            ]
        },
        {
            "positions": [
                0.008874713363851913,
                -1.9094632642751639,
                -0.973345097382227,
                0.770798919643856,
                -0.07371053762706278,
                0.19427973707857893
            ]
        },
        {
            "positions": [
                0.00055744752657403,
                -1.9406046191733513,
                -1.2008515409780118,
                0.8414334582804703,
                -0.06409077564063201,
                0.22452576699624793
            ]
        },
        {
            "positions": [
                -0.007759818310703839,
                -1.9717459740715388,
                -1.4283579845737964,
                0.9120679969170844,
                -0.05447101365420126,
                0.25477179691391694
            ]
        },
        {
            "positions": [
                -0.01607708414798173,
                -2.0028873289697264,
                -1.655864428169581,
                0.9827025355536985,
                -0.044851251667770486,
                0.28501782683158594
            ]
        },
        {
            "positions": [
                -0.024394349985259606,
                -2.0340286838679136,
                -1.8833708717653659,
                1.0533370741903125,
                -0.035231489681339725,
                0.31526385674925494
            ]
        },
        {
            "positions": [
                -0.03271161582253748,
                -2.065170038766101,
                -2.11087731536115,
                1.1239716128269266,
                -0.025611727694908965,
                0.34550988666692395
            ]
        },
        {
            "positions": [
                -0.04102888165981536,
                -2.0963113936642888,
                -2.338383758956935,
                1.1946061514635409,
                -0.015991965708478204,
                0.37575591658459295
            ]
        },
        {
            "positions": [
                -0.08835069170211443,
                -2.1561371170951955,
                -2.3568486405854197,
                1.277533744653035,
                0.0455846409103859,
                0.28112870833186454
            ]
        },
        {
            "positions": [
                -0.13567250174441353,
                -2.215962840526102,
                -2.3753135222139043,
                1.3604613378425292,
                0.10716124752925,
                0.18650150007913618
            ]
        },
        {
            "positions": [
                -0.1829943117867126,
                -2.2757885639570086,
                -2.393778403842389,
                1.4433889310320234,
                0.1687378541481141,
                0.09187429182640776
            ]
        }
    ]
}