{
    "goal": {
        "global_pose": {
            "orientation": {
                "w": 0.5084816217422485,
                "x": -0.49083608388900757,
                "y": 0.5182115435600281,
                "z": -0.4816462993621826
            },
            "position": {
                "x": 0.5540239810943604,
                "y": 0.030875300988554955,
                "z": 0.16403168439865112
            }
        },
        "name": "move_to_storage_A"
    },
    "id": "KPIECE_move_to_storage_A_32",
    "joint_names": [
        "shoulder_pan_joint",
        "shoulder_lift_joint",
        "elbow_joint",
        "wrist_1_joint",
        "wrist_2_joint",
        "wrist_3_joint"
    ],
    "metrics": {
        "cart_traj_len": 0.3532538866800595,
        "distance_elbow_joint": 0.44740181705316284,
        "distance_shoulder_lift_joint": 0.23342132173580388,
        "distance_shoulder_pan_joint": 0.46175519815995897,
        "distance_wrist_1_joint": 0.2361459225725301,
        "distance_wrist_2_joint": 1.0988862649079925,
        "distance_wrist_3_joint": 0.09400703279678968,
        "smoothness": 4.440892133664971e-16,
        "time": 0.078032583,
        "traj_len": 1.6036263770673758,
        "weighted_distance": 2.023527565984793
    },
    "planner": "KPIECE",
    "start": {
        "state": {
            "elbow_joint": 1.971548259319323,
            "shoulder_lift_joint": -1.1394851275133948,
            "shoulder_pan_joint": 0.1228115487234821,
            "wrist_1_joint": -0.7804723859257726,
            "wrist_2_joint": 0.12958671773740124,
            "wrist_3_joint": -3.192489227718131
        }
    },
    "waypoints": [
        {
            "positions": [
                0.1228115487234821,
                -1.1394851275133948,
                1.971548259319323,
                -0.7804723859257726,
                0.12958671773740124,
                -3.192489227718131
            ]
        },
        {
            "positions": [
                0.05684652041491654,
                -1.1728310306185097,
                2.035462804612632,
                -0.8142075177218483,
                0.28657046986711443,
                -3.179059651604304
            ]
        },
        {
            "positions": [
                -0.009118507893649014,
                -1.2061769337236246,
                2.099377349905941,
                -0.8479426495179241,
                0.4435542219968276,
                -3.165630075490477
            ]
        },
        {
            "positions": [
                -0.07508353620221458,
                -1.2395228368287394,
                2.16329189519925,
                -0.8816777813139998,
                0.6005379741265409,
                -3.15220049937665
            ]
        },
        {
            "positions": [
                -0.14104856451078013,
                -1.272868739933854,
                2.2272064404925587,
                -0.9154129131100756,
                0.757521726256254,
                -3.1387709232628227
            ]
        },
        {
            "positions": [
                -0.20701359281934573,
                -1.306214643038969,
                2.291120985785868,
                -0.9491480449061512,
                0.9145054783859673,
                -3.1253413471489955
            ]
        },
        {
            "positions": [
                -0.27297862112791127,
                -1.3395605461440838,
                2.355035531079177,
                -0.982883176702227,
                1.0714892305156805,
                -3.1119117710351687
            ]
        },
        {
            "positions": [
                -0.33894364943647687,
                -1.3729064492491987,
                2.418950076372486,
                -1.0166183084983027,
                1.2284729826453937,
                -3.0984821949213415
            ]
        }
    ]
}{
    "goal": {
        "global_pose": {
            "orientation": {
                "w": 0.5084816217422485,
                "x": -0.49083608388900757,
                "y": 0.5182115435600281,
                "z": -0.4816462993621826
            },
            "position": {
                "x": 0.5540239810943604,
                "y": 0.030875300988554955,
                "z": 0.16403168439865112
            }
        },
        "name": "move_to_storage_A"
    },
    "id": "KPIECE_move_to_storage_A_32",
    "joint_names": [
        "shoulder_pan_joint",
        "shoulder_lift_joint",
        "elbow_joint",
        "wrist_1_joint",
        "wrist_2_joint",
        "wrist_3_joint"
    ],
    "metrics": {
        "cart_traj_len": 0.35306819121972577,
        "distance_elbow_joint": 0.4535877473790366,
        "distance_shoulder_lift_joint": 0.2338260544695825,
        "distance_shoulder_pan_joint": 0.46094875073710456,
        "distance_wrist_1_joint": 0.2565966172458982,
        "distance_wrist_2_joint": 1.1023047957937016,
        "distance_wrist_3_joint": 0.10509115030592397,
        "smoothness": 4.440892133664971e-16,
        "time": 0.10542706900000001,
        "traj_len": 1.6162781678693947,
        "weighted_distance": 2.044856677027193
    },
    "planner": "KPIECE",
    "start": {
        "state": {
            "elbow_joint": 1.97154746011099,
            "shoulder_lift_joint": -1.13948474672311,
            "shoulder_pan_joint": 0.12281154466712228,
            "wrist_1_joint": -0.7804688027058302,
            "wrist_2_joint": 0.12958655903071145,
            "wrist_3_joint": 3.0906928834467795
        }
    },
    "waypoints": [
        {
            "positions": [
                0.12281154466712228,
                -1.13948474672311,
                1.97154746011099,
                -0.7804688027058302,
                0.12958655903071145,
                3.0906928834467795
            ]
        },
        {
            "positions": [
                0.05696172313325021,
                -1.1728884687901933,
                2.0363457097365667,
                -0.817125462312387,
                0.287058672715526,
                3.1057059049190543
            ]
        },
        {
            "positions": [
                -0.008888098400621866,
                -1.2062921908572763,
                2.101143959362143,
                -0.853782121918944,
                0.4445307864003405,
                3.120718926391329
            ]
        },
        {
            "positions": [
                -0.07473791993449395,
                -1.2396959129243597,
                2.16594220898772,
                -0.8904387815255008,
                0.602002900085155,
                3.135731947863604
            ]
        },
        {
            "positions": [
                -0.140587741468366,
                -1.2730996349914427,
                2.2307404586132966,
                -0.9270954411320578,
                0.7594750137699695,
                3.150744969335879
            ]
        },
        {
            "positions": [
                -0.2064375630022381,
                -1.306503357058526,
                2.2955387082388734,
                -0.9637521007386146,
                0.916947127454784,
                3.165757990808154
            ]
        },
        {
            "positions": [
                -0.2722873845361102,
                -1.3399070791256091,
                2.3603369578644497,
                -1.0004087603451715,
                1.0744192411395985,
                3.1807710122804287
            ]
        },
        {
            "positions": [
                -0.33813720606998227,
                -1.3733108011926924,
                2.4251352074900265,
                -1.0370654199517284,
                1.231891354824413,
                3.1957840337527035
            ]
        }
    ]
}{
    "goal": {
        "global_pose": {
            "orientation": {
                "w": 0.5084816217422485,
                "x": -0.49083608388900757,
                "y": 0.5182115435600281,
                "z": -0.4816462993621826
            },
            "position": {
                "x": 0.5540239810943604,
                "y": 0.030875300988554955,
                "z": 0.16403168439865112
            }
        },
        "name": "move_to_storage_A"
    },
    "id": "KPIECE_move_to_storage_A_32",
    "joint_names": [
        "shoulder_pan_joint",
        "shoulder_lift_joint",
        "elbow_joint",
        "wrist_1_joint",
        "wrist_2_joint",
        "wrist_3_joint"
    ],
    "metrics": {
        "cart_traj_len": 0.35338716637754986,
        "distance_elbow_joint": 0.4496820243385442,
        "distance_shoulder_lift_joint": 0.23527200178690033,
        "distance_shoulder_pan_joint": 0.4597338085926066,
        "distance_wrist_1_joint": 0.23770913025645224,
        "distance_wrist_2_joint": 1.1102831187926137,
        "distance_wrist_3_joint": 0.08687396430196026,
        "smoothness": 8.881784213138256e-16,
        "time": 0.057096495,
        "traj_len": 1.6060990156491215,
        "weighted_distance": 2.0251652341777113
    },
    "planner": "KPIECE",
    "start": {
        "state": {
            "elbow_joint": 1.9715472970024885,
            "shoulder_lift_joint": -1.1394870060712896,
            "shoulder_pan_joint": 0.12281152778156021,
            "wrist_1_joint": -0.780463741449964,
            "wrist_2_joint": 0.12958659822042276,
            "wrist_3_joint": 3.090690232415272
        }
    },
    "waypoints": [
        {
            "positions": [
                0.12281152778156021,
                -1.1394870060712896,
                1.9715472970024885,
                -0.780463741449964,
                0.12958659822042276,
                3.090690232415272
            ]
        },
        {
            "positions": [
                0.057135269411187836,
                -1.173097292040847,
                2.035787586193709,
                -0.8144221886294571,
                0.28819847233365326,
                3.1031007987441233
            ]
        },
        {
            "positions": [
                -0.008540988959184537,
                -1.206707578010404,
                2.1000278753849297,
                -0.8483806358089503,
                0.4468103464468838,
                3.1155113650729747
            ]
        },
        {
            "positions": [
                -0.0742172473295569,
                -1.2403178639799612,
                2.1642681645761503,
                -0.8823390829884435,
                0.6054222205601143,
                3.127921931401826
            ]
        },
        {
            "positions": [
                -0.13989350569992928,
                -1.2739281499495183,
                2.228508453767371,
                -0.9162975301679367,
                0.7640340946733448,
                3.140332497730678
            ]
        },
        {
            "positions": [
                -0.20556976407030167,
                -1.3075384359190756,
                2.2927487429585915,
                -0.95025597734743,
                0.9226459687865753,
                3.1527430640595293
            ]
        },
        {
            "positions": [
                -0.271246022440674,
                -1.3411487218886327,
                2.356989032149812,
                -0.9842144245269231,
                1.0812578428998059,
                3.1651536303883807
            ]
        },
        {
            "positions": [
                -0.33692228081104636,
                -1.37475900785819,
                2.4212293213410327,
                -1.0181728717064162,
                1.2398697170130364,
                3.177564196717232
            ]
        }
    ]
}