{
    "goal": {
        "global_pose": {
            "orientation": {
                "w": 0.5084816262002911,
                "x": -0.4908360881923452,
                "y": 0.5182115481033761,
                "z": -0.48164630358495003
            },
            "position": {
                "x": 0.5540239810943604,
                "y": -0.46912469901144505,
                "z": 0.16403168439865112
            }
        },
        "name": "move_to_storage_B"
    },
    "id": "KPIECE_move_to_storage_B_115",
    "joint_names": [
        "shoulder_pan_joint",
        "shoulder_lift_joint",
        "elbow_joint",
        "wrist_1_joint",
        "wrist_2_joint",
        "wrist_3_joint"
    ],
    "metrics": {
        "cart_traj_len": 0.7291998943019943,
        "distance_elbow_joint": 0.35429025658765667,
        "distance_shoulder_lift_joint": 0.4595670291765306,
        "distance_shoulder_pan_joint": 0.3828962750845567,
        "distance_wrist_1_joint": 3.196050934247452,
        "distance_wrist_2_joint": 2.7195039065505267,
        "distance_wrist_3_joint": 3.1530187521010027,
        "smoothness": 0.2463935645213163,
        "time": 0.117101507,
        "traj_len": 3.203954923800852,
        "weighted_distance": 4.742037483903698
    },
    "planner": "KPIECE",
    "start": {
        "state": {
            "elbow_joint": 1.664937868594044,
            "shoulder_lift_joint": -0.661644460510453,
            "shoulder_pan_joint": -0.9139846352900073,
            "wrist_1_joint": 2.146753192139373,
            "wrist_2_joint": -2.2341966793290973,
            "wrist_3_joint": 0.005466555786416001
        }
    },
    "waypoints": [
        {
            "positions": [
                -0.9139846352900073,
                -0.661644460510453,
                1.664937868594044,
                2.146753192139373,
                -2.2341966793290973,
                0.005466555786416001
            ]
        },
        {
            "positions": [
                -0.863398524359983,
                -0.7090844952541386,
                1.7740494603778818,
                2.197107709742575,
                -2.2178669241395026,
                0.011209086869394522
            ]
        },
        {
            "positions": [
                -0.8128124134299587,
                -0.7565245299978244,
                1.8831610521617195,
                2.2474622273457765,
                -2.2015371689499084,
                0.016951617952373044
            ]
        },
        {
            "positions": [
                -0.824081375558939,
                -0.7711120083853907,
                1.8886037350825187,
                2.1236485513841346,
                -2.094063393103055,
                -0.10870972964502879
            ]
        },
        {
            "positions": [
                -0.8353503376879193,
                -0.7856994867729571,
                1.8940464180033179,
                1.9998348754224926,
                -1.9865896172562014,
                -0.23437107724243061
            ]
        },
        {
            "positions": [
                -0.8466192998168997,
                -0.8002869651605234,
                1.8994891009241173,
                1.8760211994608507,
                -1.8791158414093478,
                -0.3600324248398324
            ]
        },
        {
            "positions": [
                -0.85788826194588,
                -0.8148744435480899,
                1.9049317838449165,
                1.7522075234992087,
                -1.7716420655624943,
                -0.4856937724372343
            ]
        },
        {
            "positions": [
                -0.8691572240748603,
                -0.8294619219356563,
                1.9103744667657157,
                1.6283938475375668,
                -1.664168289715641,
                -0.6113551200346361
            ]
        },
        {
            "positions": [
                -0.8804261862038406,
                -0.8440494003232226,
                1.9158171496865148,
                1.5045801715759248,
                -1.5566945138687873,
                -0.7370164676320379
            ]
        },
        {
            "positions": [
                -0.8916951483328209,
                -0.858636878710789,
                1.9212598326073143,
                1.3807664956142829,
                -1.4492207380219337,
                -0.8626778152294399
            ]
        },
        {
            "positions": [
                -0.9029641104618013,
                -0.8732243570983553,
                1.9267025155281134,
                1.256952819652641,
                -1.3417469621750802,
                -0.9883391628268416
            ]
        },
        {
            "positions": [
                -0.9142330725907816,
                -0.8878118354859217,
                1.9321451984489126,
                1.1331391436909992,
                -1.2342731863282268,
                -1.1140005104242434
            ]
        },
        {
            "positions": [
                -0.925502034719762,
                -0.902399313873488,
                1.9375878813697118,
                1.009325467729357,
                -1.1267994104813732,
                -1.2396618580216452
            ]
        },
        {
            "positions": [
                -0.9367709968487423,
                -0.9169867922610544,
                1.9430305642905112,
                0.8855117917677153,
                -1.0193256346345196,
                -1.365323205619047
            ]
        },
        {
            "positions": [
                -0.9480399589777226,
                -0.9315742706486208,
                1.9484732472113104,
                0.7616981158060734,
                -0.9118518587876663,
                -1.4909845532164487
            ]
        },
        {
            "positions": [
                -0.959308921106703,
                -0.9461617490361871,
                1.9539159301321096,
                0.6378844398444314,
                -0.8043780829408127,
                -1.6166459008138507
            ]
        },
        {
            "positions": [
                -0.9705778832356833,
                -0.9607492274237536,
                1.9593586130529088,
                0.5140707638827893,
                -0.6969043070939591,
                -1.7423072484112527
            ]
        },
        {
            "positions": [
                -0.9818468453646636,
                -0.9753367058113199,
                1.9648012959737082,
                0.39025708792114777,
                -0.5894305312471058,
                -1.8679685960086543
            ]
        },
        {
            "positions": [
                -0.9931158074936439,
                -0.9899241841988863,
                1.9702439788945074,
                0.2664434119595056,
                -0.4819567554002522,
                -1.9936299436060563
            ]
        },
        {
            "positions": [
                -1.0043847696226242,
                -1.0045116625864527,
                1.9756866618153066,
                0.14262973599786344,
                -0.3744829795533986,
                -2.1192912912034583
            ]
        },
        {
            "positions": [
                -1.0156537317516046,
                -1.0190991409740189,
                1.9811293447361058,
                0.018816060036221938,
                -0.26700920370654524,
                -2.24495263880086
            ]
        },
        {
            "positions": [
                -1.0269226938805849,
                -1.0336866193615855,
                1.9865720276569052,
                -0.10499761592542001,
                -0.15953542785969166,
                -2.3706139863982614
            ]
        },
        {
            "positions": [
                -1.0381916560095652,
                -1.0482740977491518,
                1.9920147105777044,
                -0.2288112918870624,
                -0.05206165201283808,
                -2.4962753339956634
            ]
        },
        {
            "positions": [
                -1.0494606181385455,
                -1.0628615761367182,
                1.9974573934985036,
                -0.3526249678487039,
                0.05541212383401506,
                -2.621936681593065
            ]
        },
        {
            "positions": [
                -1.0607295802675258,
                -1.0774490545242845,
                2.002900076419303,
                -0.47643864381034584,
                0.16288589968086908,
                -2.747598029190467
            ]
        },
        {
            "positions": [
                -1.0719985423965062,
                -1.0920365329118509,
                2.008342759340102,
                -0.6002523197719878,
                0.27035967552772266,
                -2.873259376787869
            ]
        },
        {
            "positions": [
                -1.0832675045254865,
                -1.1066240112994172,
                2.013785442260901,
                -0.7240659957336297,
                0.3778334513745758,
                -2.9989207243852705
            ]
        },
        {
            "positions": [
                -1.0945364666544668,
                -1.1212114896869836,
                2.0192281251817006,
                -0.8478796716952718,
                0.4853072272214293,
                -3.1245820719826725
            ]
        }
    ]
}