{
    "goal": {
        "global_pose": {
            "orientation": {
                "w": 0.5084816217422485,
                "x": -0.49083608388900757,
                "y": 0.5182115435600281,
                "z": -0.4816462993621826
            },
            "position": {
                "x": 0.5540239810943604,
                "y": 0.030875300988554955,
                "z": 0.16403168439865112
            }
        },
        "name": "move_to_storage_A"
    },
    "id": "KPIECE_move_to_storage_A_30",
    "joint_names": [
        "shoulder_pan_joint",
        "shoulder_lift_joint",
        "elbow_joint",
        "wrist_1_joint",
        "wrist_2_joint",
        "wrist_3_joint"
    ],
    "metrics": {
        "cart_traj_len": 0.35352692619283266,
        "distance_elbow_joint": 0.45233499436492797,
        "distance_shoulder_lift_joint": 0.23335486038659914,
        "distance_shoulder_pan_joint": 0.46159020543458396,
        "distance_wrist_1_joint": 0.25320861149832374,
        "distance_wrist_2_joint": 1.1025112795756704,
        "distance_wrist_3_joint": 0.10781219623318616,
        "smoothness": 6.661338165333112e-16,
        "time": 0.104626005,
        "traj_len": 1.615800775929165,
        "weighted_distance": 2.0450321344745803
    },
    "planner": "KPIECE",
    "start": {
        "state": {
            "elbow_joint": 1.971548259319323,
            "shoulder_lift_joint": -1.1394851275133948,
            "shoulder_pan_joint": 0.1228115487234821,
            "wrist_1_joint": -0.7804723859257726,
            "wrist_2_joint": 0.12958671773740124,
            "wrist_3_joint": -3.192489227718131
        }
    },
    "waypoints": [
        {
            "positions": [
                0.1228115487234821,
                -1.1394851275133948,
                1.971548259319323,
                -0.7804723859257726,
                0.12958671773740124,
                -3.192489227718131
            ]
        },
        {
            "positions": [
                0.05687009080425583,
                -1.1728215361400518,
                2.0361675442285985,
                -0.8166450447112474,
                0.28708832910535415,
                -3.1770874853991047
            ]
        },
        {
            "positions": [
                -0.009071367114970447,
                -1.2061579447667088,
                2.1007868291378737,
                -0.8528177034967223,
                0.444589940473307,
                -3.1616857430800778
            ]
        },
        {
            "positions": [
                -0.07501282503419673,
                -1.2394943533933658,
                2.1654061140471494,
                -0.8889903622821971,
                0.60209155184126,
                -3.1462840007610513
            ]
        },
        {
            "positions": [
                -0.140954282953423,
                -1.272830762020023,
                2.2300253989564247,
                -0.9251630210676719,
                0.7595931632092129,
                -3.130882258442025
            ]
        },
        {
            "positions": [
                -0.20689574087264928,
                -1.30616717064668,
                2.2946446838657,
                -0.9613356798531467,
                0.9170947745771658,
                -3.1154805161229984
            ]
        },
        {
            "positions": [
                -0.27283719879187557,
                -1.339503579273337,
                2.3592639687749757,
                -0.9975083386386215,
                1.0745963859451186,
                -3.1000787738039715
            ]
        },
        {
            "positions": [
                -0.33877865671110186,
                -1.372839987899994,
                2.423883253684251,
                -1.0336809974240964,
                1.2320979973130717,
                -3.084677031484945
            ]
        }
    ]
}{
    "goal": {
        "global_pose": {
            "orientation": {
                "w": 0.5084816217422485,
                "x": -0.49083608388900757,
                "y": 0.5182115435600281,
                "z": -0.4816462993621826
            },
            "position": {
                "x": 0.5540239810943604,
                "y": 0.030875300988554955,
                "z": 0.16403168439865112
            }
        },
        "name": "move_to_storage_A"
    },
    "id": "KPIECE_move_to_storage_A_30",
    "joint_names": [
        "shoulder_pan_joint",
        "shoulder_lift_joint",
        "elbow_joint",
        "wrist_1_joint",
        "wrist_2_joint",
        "wrist_3_joint"
    ],
    "metrics": {
        "cart_traj_len": 0.35318943244281276,
        "distance_elbow_joint": 0.44891678274902214,
        "distance_shoulder_lift_joint": 0.23259092702708872,
        "distance_shoulder_pan_joint": 0.4634997803857542,
        "distance_wrist_1_joint": 0.23955259112429084,
        "distance_wrist_2_joint": 1.0910155042740795,
        "distance_wrist_3_joint": 0.0901562720726723,
        "smoothness": 0.0,
        "time": 0.061029808,
        "traj_len": 1.6017902040007947,
        "weighted_distance": 2.0190622816487416
    },
    "planner": "KPIECE",
    "start": {
        "state": {
            "elbow_joint": 1.97154746011099,
            "shoulder_lift_joint": -1.13948474672311,
            "shoulder_pan_joint": 0.12281154466712228,
            "wrist_1_joint": -0.7804688027058302,
            "wrist_2_joint": 0.12958655903071145,
            "wrist_3_joint": 3.0906928834467795
        }
    },
    "waypoints": [
        {
            "positions": [
                0.12281154466712228,
                -1.13948474672311,
                1.97154746011099,
                -0.7804688027058302,
                0.12958655903071145,
                3.0906928834467795
            ]
        },
        {
            "positions": [
                0.05659729032630026,
                -1.172712022012694,
                2.0356784290751357,
                -0.8146906014378718,
                0.2854459167841514,
                3.1035723508857327
            ]
        },
        {
            "positions": [
                -0.009616964014521764,
                -1.2059392973022782,
                2.099809398039282,
                -0.8489124001699133,
                0.4413052745375913,
                3.116451818324686
            ]
        },
        {
            "positions": [
                -0.07583121835534377,
                -1.2391665725918624,
                2.163940367003428,
                -0.8831341989019548,
                0.5971646322910312,
                3.129331285763639
            ]
        },
        {
            "positions": [
                -0.1420454726961658,
                -1.2723938478814463,
                2.228071335967574,
                -0.9173559976339963,
                0.7530239900444712,
                3.1422107532025922
            ]
        },
        {
            "positions": [
                -0.20825972703698786,
                -1.3056211231710304,
                2.29220230493172,
                -0.9515777963660379,
                0.9088833477979111,
                3.1550902206415454
            ]
        },
        {
            "positions": [
                -0.2744739813778098,
                -1.3388483984606145,
                2.356333273895866,
                -0.9857995950980795,
                1.064742705551351,
                3.1679696880804986
            ]
        },
        {
            "positions": [
                -0.3406882357186319,
                -1.3720756737501987,
                2.420464242860012,
                -1.020021393830121,
                1.220602063304791,
                3.180849155519452
            ]
        }
    ]
}{
    "goal": {
        "global_pose": {
            "orientation": {
                "w": 0.5084816217422485,
                "x": -0.49083608388900757,
                "y": 0.5182115435600281,
                "z": -0.4816462993621826
            },
            "position": {
                "x": 0.5540239810943604,
                "y": 0.030875300988554955,
                "z": 0.16403168439865112
            }
        },
        "name": "move_to_storage_A"
    },
    "id": "KPIECE_move_to_storage_A_30",
    "joint_names": [
        "shoulder_pan_joint",
        "shoulder_lift_joint",
        "elbow_joint",
        "wrist_1_joint",
        "wrist_2_joint",
        "wrist_3_joint"
    ],
    "metrics": {
        "cart_traj_len": 0.35247409940695795,
        "distance_elbow_joint": 0.45141251164812113,
        "distance_shoulder_lift_joint": 0.23351854635454394,
        "distance_shoulder_pan_joint": 0.4611509029596354,
        "distance_wrist_1_joint": 0.2520895806697683,
        "distance_wrist_2_joint": 1.0961699635970894,
        "distance_wrist_3_joint": 0.09423120850440636,
        "smoothness": 4.440892098500626e-16,
        "time": 0.025587412,
        "traj_len": 1.6089041965678268,
        "weighted_distance": 2.031082143835949
    },
    "planner": "KPIECE",
    "start": {
        "state": {
            "elbow_joint": 1.9715472970024885,
            "shoulder_lift_joint": -1.1394870060712896,
            "shoulder_pan_joint": 0.12281152778156021,
            "wrist_1_joint": -0.780463741449964,
            "wrist_2_joint": 0.12958659822042276,
            "wrist_3_joint": 3.090690232415272
        }
    },
    "waypoints": [
        {
            "positions": [
                0.12281152778156021,
                -1.1394870060712896,
                1.9715472970024885,
                -0.780463741449964,
                0.12958659822042276,
                3.090690232415272
            ]
        },
        {
            "positions": [
                0.05693282735875517,
                -1.172846798407653,
                2.0360347986665057,
                -0.8164765386885023,
                0.28618230730572125,
                3.104151833630187
            ]
        },
        {
            "positions": [
                -0.00894587306404987,
                -1.2062065907440165,
                2.1005223003305233,
                -0.8524893359270407,
                0.44277801639101977,
                3.117613434845102
            ]
        },
        {
            "positions": [
                -0.07482457348685492,
                -1.2395663830803798,
                2.1650098019945405,
                -0.8885021331655789,
                0.5993737254763182,
                3.1310750360600172
            ]
        },
        {
            "positions": [
                -0.14070327390965995,
                -1.2729261754167434,
                2.2294973036585577,
                -0.9245149304041173,
                0.7559694345616167,
                3.144536637274933
            ]
        },
        {
            "positions": [
                -0.20658197433246503,
                -1.3062859677531067,
                2.293984805322575,
                -0.9605277276426556,
                0.9125651436469152,
                3.157998238489848
            ]
        },
        {
            "positions": [
                -0.27246067475527,
                -1.33964576008947,
                2.3584723069865925,
                -0.9965405248811939,
                1.0691608527322136,
                3.171459839704763
            ]
        },
        {
            "positions": [
                -0.33833937517807516,
                -1.3730055524258336,
                2.4229598086506097,
                -1.0325533221197323,
                1.2257565618175121,
                3.184921440919678
            ]
        }
    ]
}