{
    "goal": {
        "global_pose": {
            "orientation": {
                "w": 0.7031023502349854,
                "x": -0.7110244035720825,
                "y": 0.007748599164187908,
                "z": 0.005598929710686207
            },
            "position": {
                "x": 0.11585023208521307,
                "y": 0.44412534475326537,
                "z": 0.3711530566215515
            }
        },
        "name": "move_to_auspresseinheit_A"
    },
    "id": "KPIECE_move_to_auspresseinheit_A_149",
    "joint_names": [
        "shoulder_pan_joint",
        "shoulder_lift_joint",
        "elbow_joint",
        "wrist_1_joint",
        "wrist_2_joint",
        "wrist_3_joint"
    ],
    "metrics": {
        "cart_traj_len": 1.1354211222083825,
        "distance_elbow_joint": 1.0840041478776987,
        "distance_shoulder_lift_joint": 0.7770649929784443,
        "distance_shoulder_pan_joint": 1.0406480593473852,
        "distance_wrist_1_joint": 0.9143158750006011,
        "distance_wrist_2_joint": 2.254444546367696,
        "distance_wrist_3_joint": 2.7637458027428017,
        "smoothness": 0.8802650293613581,
        "time": 0.809707968,
        "traj_len": 2.9722421543869246,
        "weighted_distance": 4.186941061344013
    },
    "planner": "KPIECE",
    "start": {
        "state": {
            "elbow_joint": 2.4225746658250005,
            "shoulder_lift_joint": -1.3736534386056498,
            "shoulder_pan_joint": -0.3378633547517467,
            "wrist_1_joint": -1.0288598680537169,
            "wrist_2_joint": 1.233022673432363,
            "wrist_3_joint": -3.0940220416140027
        }
    },
    "waypoints": [
        {
            "positions": [
                -0.3378633547517467,
                -1.3736534386056498,
                2.4225746658250005,
                -1.0288598680537169,
                1.233022673432363,
                -3.0940220416140027
            ]
        },
        {
            "positions": [
                -0.29846414911614727,
                -1.4181598556662374,
                2.382723372303772,
                -0.9757355194963202,
                1.133351806395593,
                -2.9971255659078126
            ]
        },
        {
            "positions": [
                -0.25906494348054776,
                -1.4626662727268251,
                2.3428720787825443,
                -0.9226111709389235,
                1.033680939358823,
                -2.900229090201622
            ]
        },
        {
            "positions": [
                -0.2196657378449483,
                -1.5071726897874127,
                2.3030207852613165,
                -0.8694868223815267,
                0.934010072322053,
                -2.803332614495432
            ]
        },
        {
            "positions": [
                -0.18026653220934882,
                -1.5516791068480003,
                2.263169491740088,
                -0.8163624738241301,
                0.834339205285283,
                -2.706436138789242
            ]
        },
        {
            "positions": [
                -0.14086732657374934,
                -1.596185523908588,
                2.22331819821886,
                -0.7632381252667333,
                0.7346683382485131,
                -2.6095396630830514
            ]
        },
        {
            "positions": [
                -0.10146812093814986,
                -1.6406919409691756,
                2.183466904697632,
                -0.7101137767093366,
                0.6349974712117431,
                -2.5126431873768613
            ]
        },
        {
            "positions": [
                -0.062068915302550376,
                -1.6851983580297634,
                2.143615611176404,
                -0.65698942815194,
                0.535326604174973,
                -2.4157467116706712
            ]
        },
        {
            "positions": [
                -0.02266970966695092,
                -1.729704775090351,
                2.103764317655176,
                -0.6038650795945433,
                0.43565573713820305,
                -2.318850235964481
            ]
        },
        {
            "positions": [
                0.01672949596864859,
                -1.7742111921509385,
                2.0639130241339476,
                -0.5507407310371465,
                0.33598487010143296,
                -2.2219537602582906
            ]
        },
        {
            "positions": [
                0.056128701604248044,
                -1.818717609211526,
                2.0240617306127198,
                -0.4976163824797498,
                0.236314003064663,
                -2.1250572845521005
            ]
        },
        {
            "positions": [
                0.09552790723984755,
                -1.8632240262721138,
                1.9842104370914917,
                -0.44449203392235315,
                0.13664313602789302,
                -2.0281608088459104
            ]
        },
        {
            "positions": [
                0.134927112875447,
                -1.9077304433327014,
                1.9443591435702636,
                -0.3913676853649565,
                0.03697226899112316,
                -1.9312643331397201
            ]
        },
        {
            "positions": [
                0.17432631851104646,
                -1.9522368603932891,
                1.9045078500490356,
                -0.3382433368075597,
                -0.06269859804564715,
                -1.8343678574335298
            ]
        },
        {
            "positions": [
                0.21372552414664597,
                -1.9967432774538767,
                1.8646565565278075,
                -0.2851189882501631,
                -0.16236946508241704,
                -1.7374713817273397
            ]
        },
        {
            "positions": [
                0.26826493943444674,
                -2.003200246362235,
                1.9560937535400673,
                -0.3098867841937181,
                -0.114651023711279,
                -1.8432225629937846
            ]
        },
        {
            "positions": [
                0.32280435472224744,
                -2.0096572152705936,
                2.047530950552327,
                -0.33465458013727317,
                -0.06693258234014096,
                -1.9489737442602295
            ]
        },
        {
            "positions": [
                0.37734377001004815,
                -2.016114184178952,
                2.1389681475645865,
                -0.35942237608082817,
                -0.019214140969002924,
                -2.0547249255266746
            ]
        },
        {
            "positions": [
                0.43188318529784897,
                -2.0225711530873105,
                2.2304053445768464,
                -0.3841901720243832,
                0.028504300402135113,
                -2.1604761067931193
            ]
        },
        {
            "positions": [
                0.4864226005856497,
                -2.029028121995669,
                2.321842541589106,
                -0.40895796796793826,
                0.07622274177327315,
                -2.2662272880595644
            ]
        },
        {
            "positions": [
                0.5296950213876475,
                -2.004690060077984,
                2.3356225522929477,
                -0.41830517106379267,
                0.20031478197271824,
                -2.441915135364347
            ]
        },
        {
            "positions": [
                0.5729674421896452,
                -1.9803519981602988,
                2.349402562996789,
                -0.4276523741596471,
                0.3244068221721633,
                -2.61760298266913
            ]
        },
        {
            "positions": [
                0.616239862991643,
                -1.9560139362426139,
                2.3631825737006302,
                -0.43699957725550154,
                0.44849886237160835,
                -2.7932908299739125
            ]
        },
        {
            "positions": [
                0.6595122837936408,
                -1.9316758743249287,
                2.3769625844044717,
                -0.44634678035135594,
                0.5725909025710534,
                -2.9689786772786957
            ]
        },
        {
            "positions": [
                0.7027847045956386,
                -1.9073378124072438,
                2.390742595108313,
                -0.45569398344721035,
                0.6966829427704985,
                -3.1446665245834784
            ]
        }
    ]
}