{
    "goal": {
        "global_pose": {
            "orientation": {
                "w": -0.4816463035849501,
                "x": 0.5182115481033762,
                "y": 0.4908360881923453,
                "z": -0.5084816262002911
            },
            "position": {
                "x": -0.8240239810943604,
                "y": 0.19912469901144506,
                "z": 0.16403168439865112
            }
        },
        "name": "move_to_storage_D"
    },
    "id": "KPIECE_move_to_storage_D_26",
    "joint_names": [
        "shoulder_pan_joint",
        "shoulder_lift_joint",
        "elbow_joint",
        "wrist_1_joint",
        "wrist_2_joint",
        "wrist_3_joint"
    ],
    "metrics": {
        "cart_traj_len": 3.7519243709978176,
        "distance_elbow_joint": 4.207763510602848,
        "distance_shoulder_lift_joint": 1.2649381921652982,
        "distance_shoulder_pan_joint": 2.8138156888582535,
        "distance_wrist_1_joint": 2.262996118427288,
        "distance_wrist_2_joint": 0.8777986286253562,
        "distance_wrist_3_joint": 3.139862887690386,
        "smoothness": 2.5051186202325538e-16,
        "time": 0.083988098,
        "traj_len": 3.81669687378621,
        "weighted_distance": 4.897723506773615
    },
    "planner": "KPIECE",
    "start": {
        "state": {
            "elbow_joint": -2.384821988534728,
            "shoulder_lift_joint": -2.2788054721415256,
            "shoulder_pan_joint": -0.1854694642142757,
            "wrist_1_joint": 1.4845938289331202,
            "wrist_2_joint": 0.17898776772866878,
            "wrist_3_joint": 0.037105688729662994
        }
    },
    "waypoints": [
        {
            "positions": [
                -0.1854694642142757,
                -2.2788054721415256,
                -2.384821988534728,
                1.4845938289331202,
                0.17898776772866878,
                0.037105688729662994
            ]
        },
        {
            "positions": [
                -0.08761897933074211,
                -2.2326544993539956,
                -2.2638679613738346,
                1.4308990873919782,
                0.2062560372160061,
                0.07609144247948976
            ]
        },
        {
            "positions": [
                0.010231505552791481,
                -2.186503526566466,
                -2.1429139342129417,
                1.3772043458508363,
                0.2335243067033434,
                0.11507719622931652
            ]
        },
        {
            "positions": [
                0.10808199043632508,
                -2.140352553778936,
                -2.0219599070520484,
                1.3235096043096943,
                0.2607925761906807,
                0.15406294997914327
            ]
        },
        {
            "positions": [
                0.20593247531985867,
                -2.094201580991406,
                -1.9010058798911553,
                1.2698148627685524,
                0.28806084567801804,
                0.19304870372897004
            ]
        },
        {
            "positions": [
                0.30378296020339224,
                -2.048050608203876,
                -1.7800518527302622,
                1.2161201212274104,
                0.31532911516535533,
                0.2320344574787968
            ]
        },
        {
            "positions": [
                0.4016334450869259,
                -2.001899635416346,
                -1.659097825569369,
                1.1624253796862685,
                0.3425973846526926,
                0.2710202112286236
            ]
        },
        {
            "positions": [
                0.49948392997045954,
                -1.9557486626288165,
                -1.538143798408476,
                1.1087306381451265,
                0.3698656541400299,
                0.31000596497845034
            ]
        },
        {
            "positions": [
                0.5973344148539931,
                -1.9095976898412865,
                -1.4171897712475827,
                1.0550358966039846,
                0.3971339236273672,
                0.34899171872827706
            ]
        },
        {
            "positions": [
                0.6951848997375267,
                -1.8634467170537565,
                -1.2962357440866896,
                1.0013411550628426,
                0.42440219311470456,
                0.3879774724781039
            ]
        },
        {
            "positions": [
                0.7930353846210603,
                -1.8172957442662268,
                -1.1752817169257965,
                0.9476464135217005,
                0.4516704626020419,
                0.4269632262279306
            ]
        },
        {
            "positions": [
                0.8908858695045939,
                -1.771144771478697,
                -1.0543276897649032,
                0.8939516719805586,
                0.4789387320893792,
                0.4659489799777574
            ]
        },
        {
            "positions": [
                0.9887363543881275,
                -1.724993798691167,
                -0.9333736626040101,
                0.8402569304394166,
                0.5062070015767165,
                0.5049347337275841
            ]
        },
        {
            "positions": [
                1.086586839271661,
                -1.678842825903637,
                -0.812419635443117,
                0.7865621888982746,
                0.5334752710640538,
                0.543920487477411
            ]
        },
        {
            "positions": [
                1.1844373241551946,
                -1.6326918531161072,
                -0.6914656082822239,
                0.7328674473571326,
                0.5607435405513911,
                0.5829062412272377
            ]
        },
        {
            "positions": [
                1.2822878090387284,
                -1.5865408803285772,
                -0.5705115811213306,
                0.6791727058159905,
                0.5880118100387285,
                0.6218919949770645
            ]
        },
        {
            "positions": [
                1.3801382939222617,
                -1.5403899075410474,
                -0.4495575539604375,
                0.6254779642748487,
                0.6152800795260657,
                0.6608777487268912
            ]
        },
        {
            "positions": [
                1.4779887788057955,
                -1.4942389347535174,
                -0.3286035267995442,
                0.5717832227337066,
                0.6425483490134031,
                0.699863502476718
            ]
        },
        {
            "positions": [
                1.575839263689329,
                -1.4480879619659877,
                -0.2076494996386513,
                0.5180884811925648,
                0.6698166185007404,
                0.7388492562265447
            ]
        },
        {
            "positions": [
                1.6736897485728628,
                -1.4019369891784577,
                -0.086695472477758,
                0.4643937396514226,
                0.6970848879880777,
                0.7778350099763716
            ]
        },
        {
            "positions": [
                1.771540233456396,
                -1.3557860163909279,
                0.03425855468313488,
                0.4106989981102809,
                0.724353157475415,
                0.8168207637261983
            ]
        },
        {
            "positions": [
                1.8693907183399299,
                -1.3096350436033979,
                0.1552125818440282,
                0.3570042565691387,
                0.7516214269627522,
                0.8558065174760251
            ]
        },
        {
            "positions": [
                1.9672412032234634,
                -1.263484070815868,
                0.2761666090049215,
                0.30330951502799697,
                0.7788896964500895,
                0.8947922712258518
            ]
        },
        {
            "positions": [
                2.065091688106997,
                -1.2173330980283381,
                0.39712063616581483,
                0.2496147734868548,
                0.8061579659374268,
                0.9337780249756786
            ]
        },
        {
            "positions": [
                2.1629421729905305,
                -1.1711821252408083,
                0.5180746633267077,
                0.19592003194571306,
                0.8334262354247641,
                0.9727637787255053
            ]
        },
        {
            "positions": [
                2.2607926578740645,
                -1.1250311524532783,
                0.639028690487601,
                0.14222529040457088,
                0.8606945049121015,
                1.011749532475332
            ]
        },
        {
            "positions": [
                2.358643142757598,
                -1.0788801796657486,
                0.7599827176484939,
                0.08853054886342893,
                0.8879627743994387,
                1.0507352862251589
            ]
        },
        {
            "positions": [
                2.4564936276411315,
                -1.0327292068782186,
                0.880936744809387,
                0.034835807322287,
                0.9152310438867761,
                1.0897210399749857
            ]
        },
        {
            "positions": [
                2.4721165910050265,
                -1.0310144862507649,
                0.9665735427419991,
                -0.03909492875193625,
                0.9280997122928897,
                1.279470816015446
            ]
        },
        {
            "positions": [
                2.487739554368922,
                -1.0292997656233112,
                1.0522103406746113,
                -0.1130256648261595,
                0.9409683806990031,
                1.4692205920559063
            ]
        },
        {
            "positions": [
                2.5033625177328167,
                -1.0275850449958572,
                1.1378471386072233,
                -0.1869564009003827,
                0.9538370491051167,
                1.6589703680963666
            ]
        },
        {
            "positions": [
                2.518985481096712,
                -1.0258703243684035,
                1.2234839365398356,
                -0.26088713697460597,
                0.9667057175112302,
                1.8487201441368268
            ]
        },
        {
            "positions": [
                2.534608444460607,
                -1.0241556037409498,
                1.3091207344724478,
                -0.33481787304882915,
                0.9795743859173438,
                2.0384699201772873
            ]
        },
        {
            "positions": [
                2.5502314078245023,
                -1.0224408831134961,
                1.3947575324050598,
                -0.40874860912305244,
                0.9924430543234573,
                2.2282196962177476
            ]
        },
        {
            "positions": [
                2.565854371188397,
                -1.0207261624860424,
                1.480394330337672,
                -0.48267934519727573,
                1.005311722729571,
                2.417969472258208
            ]
        },
        {
            "positions": [
                2.5814773345522926,
                -1.0190114418585887,
                1.5660311282702843,
                -0.556610081271499,
                1.0181803911356844,
                2.607719248298668
            ]
        },
        {
            "positions": [
                2.5971002979161875,
                -1.0172967212311348,
                1.6516679262028964,
                -0.6305408173457222,
                1.0310490595417978,
                2.7974690243391285
            ]
        },
        {
            "positions": [
                2.612723261280083,
                -1.015582000603681,
                1.7373047241355084,
                -0.7044715534199454,
                1.0439177279479115,
                2.9872188003795888
            ]
        },
        {
            "positions": [
                2.6283462246439777,
                -1.0138672799762274,
                1.8229415220681207,
                -0.7784022894941687,
                1.056786396354025,
                3.176968576420049
            ]
        }
    ]
}