{
    "goal": {
        "global_pose": {
            "orientation": {
                "w": 0.7031023502349854,
                "x": -0.7110244035720825,
                "y": 0.007748599164187908,
                "z": 0.005598929710686207
            },
            "position": {
                "x": 0.11585023208521307,
                "y": 0.44412534475326537,
                "z": 0.3711530566215515
            }
        },
        "name": "move_to_auspresseinheit_A"
    },
    "id": "KPIECE_move_to_auspresseinheit_A_57",
    "joint_names": [
        "shoulder_pan_joint",
        "shoulder_lift_joint",
        "elbow_joint",
        "wrist_1_joint",
        "wrist_2_joint",
        "wrist_3_joint"
    ],
    "metrics": {
        "cart_traj_len": 0.6801077078544381,
        "distance_elbow_joint": 0.1770867969436991,
        "distance_shoulder_lift_joint": 0.5390665209357757,
        "distance_shoulder_pan_joint": 1.0437195249185383,
        "distance_wrist_1_joint": 1.2564069600676482,
        "distance_wrist_2_joint": 1.32784239313481,
        "distance_wrist_3_joint": 0.09149093022107779,
        "smoothness": 1.5485324515004846,
        "time": 0.360817471,
        "traj_len": 2.106089534236745,
        "weighted_distance": 2.6838115321061875
    },
    "planner": "KPIECE",
    "start": {
        "state": {
            "elbow_joint": 2.4225746658250005,
            "shoulder_lift_joint": -1.3736534386056498,
            "shoulder_pan_joint": -0.3378633547517467,
            "wrist_1_joint": -1.0288598680537169,
            "wrist_2_joint": 1.233022673432363,
            "wrist_3_joint": -3.0940220416140027
        }
    },
    "waypoints": [
        {
            "positions": [
                -0.3378633547517467,
                -1.3736534386056498,
                2.4225746658250005,
                -1.0288598680537169,
                1.233022673432363,
                -3.0940220416140027
            ]
        },
        {
            "positions": [
                -0.25925538038017915,
                -1.4280930015320685,
                2.4099408022153894,
                -0.9159905108653272,
                1.1178591864955787,
                -3.0901228367816733
            ]
        },
        {
            "positions": [
                -0.1806474060086115,
                -1.4825325644584875,
                2.3973069386057784,
                -0.8031211536769376,
                1.0026956995587946,
                -3.0862236319493435
            ]
        },
        {
            "positions": [
                -0.1020394316370439,
                -1.5369721273849062,
                2.3846730749961673,
                -0.690251796488548,
                0.8875322126220102,
                -3.0823244271170136
            ]
        },
        {
            "positions": [
                -0.023431457265476296,
                -1.591411690311325,
                2.3720392113865563,
                -0.5773824393001583,
                0.772368725685226,
                -3.078425222284684
            ]
        },
        {
            "positions": [
                0.05517651710609134,
                -1.6458512532377438,
                2.3594053477769457,
                -0.4645130821117688,
                0.6572052387484417,
                -3.0745260174523548
            ]
        },
        {
            "positions": [
                0.13378449147765892,
                -1.7002908161641626,
                2.3467714841673346,
                -0.35164372492337914,
                0.5420417518116574,
                -3.070626812620025
            ]
        },
        {
            "positions": [
                0.2123924658492265,
                -1.7547303790905815,
                2.3341376205577236,
                -0.2387743677349895,
                0.4268782648748731,
                -3.066727607787695
            ]
        },
        {
            "positions": [
                0.29100044022079413,
                -1.8091699420170002,
                2.3215037569481125,
                -0.12590501054659986,
                0.3117147779380888,
                -3.0628284029553656
            ]
        },
        {
            "positions": [
                0.3947143727072935,
                -1.8350574463981064,
                2.3405077289648153,
                -0.21426803618673265,
                0.41334840234822284,
                -3.0779027258459757
            ]
        },
        {
            "positions": [
                0.4984283051937929,
                -1.8609449507792128,
                2.359511700981518,
                -0.30263106182686544,
                0.5149820267583568,
                -3.0929770487365857
            ]
        },
        {
            "positions": [
                0.6021422376802923,
                -1.8868324551603193,
                2.378515672998221,
                -0.39099408746699826,
                0.6166156511684908,
                -3.1080513716271962
            ]
        },
        {
            "positions": [
                0.7058561701667916,
                -1.9127199595414255,
                2.3975196450149237,
                -0.479357113107131,
                0.7182492755786248,
                -3.1231256945178063
            ]
        }
    ]
}