{
    "goal": {
        "global_pose": {
            "orientation": {
                "w": -0.00223480608172531,
                "x": 0.0024358444001904467,
                "y": 0.7094548369677653,
                "z": -0.704743149386269
            },
            "position": {
                "x": -0.37947507619857795,
                "y": -0.6371506643295288,
                "z": 0.19426114857196808
            }
        },
        "name": "move_to_magneteinheit_C"
    },
    "id": "KPIECE_move_to_magneteinheit_C_110",
    "joint_names": [
        "shoulder_pan_joint",
        "shoulder_lift_joint",
        "elbow_joint",
        "wrist_1_joint",
        "wrist_2_joint",
        "wrist_3_joint"
    ],
    "metrics": {
        "cart_traj_len": 2.140021589755957,
        "distance_elbow_joint": 1.885775443391419,
        "distance_shoulder_lift_joint": 0.4646860032722522,
        "distance_shoulder_pan_joint": 1.6319427737337555,
        "distance_wrist_1_joint": 7.638284422034366,
        "distance_wrist_2_joint": 3.6887792240745063,
        "distance_wrist_3_joint": 4.811902271110435,
        "smoothness": 0.6263597865496189,
        "time": 0.553357346,
        "traj_len": 4.485685024343188,
        "weighted_distance": 6.408762620502221
    },
    "planner": "KPIECE",
    "start": {
        "state": {
            "elbow_joint": 1.9565354010623817,
            "shoulder_lift_joint": -1.4165861575791021,
            "shoulder_pan_joint": -1.6717766225146293,
            "wrist_1_joint": -0.5286633292919765,
            "wrist_2_joint": 1.472756589071564,
            "wrist_3_joint": -3.1238370188695823
        }
    },
    "waypoints": [
        {
            "positions": [
                -1.6717766225146293,
                -1.4165861575791021,
                1.9565354010623817,
                -0.5286633292919765,
                1.472756589071564,
                -3.1238370188695823
            ]
        },
        {
            "positions": [
                -1.716841593849803,
                -1.4204850047869226,
                1.9226467986491118,
                -0.3931562791347985,
                1.3895508729005124,
                -3.035027073434589
            ]
        },
        {
            "positions": [
                -1.7619065651849766,
                -1.4243838519947432,
                1.8887581962358417,
                -0.25764922897762055,
                1.3063451567294608,
                -2.946217127999596
            ]
        },
        {
            "positions": [
                -1.8069715365201502,
                -1.4282826992025637,
                1.8548695938225719,
                -0.12214217882044259,
                1.2231394405584095,
                -2.857407182564603
            ]
        },
        {
            "positions": [
                -1.8520365078553238,
                -1.4321815464103842,
                1.8209809914093018,
                0.013364871336735362,
                1.139933724387358,
                -2.76859723712961
            ]
        },
        {
            "positions": [
                -1.8971014791904974,
                -1.436080393618205,
                1.787092388996032,
                0.14887192149391326,
                1.0567280082163064,
                -2.6797872916946166
            ]
        },
        {
            "positions": [
                -1.942166450525671,
                -1.4399792408260255,
                1.753203786582762,
                0.2843789716510913,
                0.9735222920452551,
                -2.5909773462596233
            ]
        },
        {
            "positions": [
                -1.9872314218608447,
                -1.443878088033846,
                1.719315184169492,
                0.41988602180826917,
                0.8903165758742035,
                -2.5021674008246304
            ]
        },
        {
            "positions": [
                -2.0322963931960185,
                -1.4477769352416665,
                1.6854265817562222,
                0.5553930719654472,
                0.807110859703152,
                -2.413357455389637
            ]
        },
        {
            "positions": [
                -2.077361364531192,
                -1.451675782449487,
                1.6515379793429523,
                0.6909001221226252,
                0.7239051435321006,
                -2.3245475099546438
            ]
        },
        {
            "positions": [
                -2.1224263358663658,
                -1.4555746296573076,
                1.6176493769296822,
                0.826407172279803,
                0.6406994273610491,
                -2.235737564519651
            ]
        },
        {
            "positions": [
                -2.1674913072015394,
                -1.459473476865128,
                1.5837607745164122,
                0.961914222436981,
                0.5574937111899976,
                -2.1469276190846576
            ]
        },
        {
            "positions": [
                -2.212556278536713,
                -1.4633723240729486,
                1.5498721721031423,
                1.097421272594159,
                0.47428799501894614,
                -2.0581176736496642
            ]
        },
        {
            "positions": [
                -2.2576212498718866,
                -1.4672711712807691,
                1.5159835696898725,
                1.232928322751337,
                0.3910822788478947,
                -1.9693077282146714
            ]
        },
        {
            "positions": [
                -2.3026862212070602,
                -1.4711700184885899,
                1.4820949672766024,
                1.3684353729085148,
                0.30787656267684316,
                -1.8804977827796783
            ]
        },
        {
            "positions": [
                -2.347751192542234,
                -1.4750688656964104,
                1.4482063648633325,
                1.5039424230656933,
                0.2246708465057916,
                -1.791687837344685
            ]
        },
        {
            "positions": [
                -2.3928161638774075,
                -1.478967712904231,
                1.4143177624500627,
                1.6394494732228708,
                0.14146513033474006,
                -1.7028778919096919
            ]
        },
        {
            "positions": [
                -2.437881135212581,
                -1.4828665601120514,
                1.3804291600367926,
                1.7749565233800488,
                0.05825941416368852,
                -1.6140679464746985
            ]
        },
        {
            "positions": [
                -2.4829461065477547,
                -1.486765407319872,
                1.3465405576235228,
                1.9104635735372268,
                -0.02494630200736281,
                -1.5252580010397057
            ]
        },
        {
            "positions": [
                -2.5280110778829283,
                -1.4906642545276925,
                1.3126519552102527,
                2.045970623694405,
                -0.10815201817841436,
                -1.4364480556047123
            ]
        },
        {
            "positions": [
                -2.573076049218102,
                -1.494563101735513,
                1.2787633527969828,
                2.1814776738515826,
                -0.19135773434946568,
                -1.3476381101697192
            ]
        },
        {
            "positions": [
                -2.6181410205532756,
                -1.4984619489433335,
                1.2448747503837128,
                2.316984724008761,
                -0.27456345052051745,
                -1.258828164734726
            ]
        },
        {
            "positions": [
                -2.663205991888449,
                -1.502360796151154,
                1.210986147970443,
                2.4524917741659387,
                -0.3577691666915688,
                -1.170018219299733
            ]
        },
        {
            "positions": [
                -2.708270963223623,
                -1.5062596433589748,
                1.177097545557173,
                2.587998824323117,
                -0.4409748828626203,
                -1.0812082738647395
            ]
        },
        {
            "positions": [
                -2.7533359345587964,
                -1.5101584905667953,
                1.143208943143903,
                2.7235058744802947,
                -0.5241805990336716,
                -0.9923983284297466
            ]
        },
        {
            "positions": [
                -2.79840090589397,
                -1.5140573377746158,
                1.1093203407306331,
                2.8590129246374723,
                -0.6073863152047232,
                -0.9035883829947533
            ]
        },
        {
            "positions": [
                -2.8434658772291437,
                -1.5179561849824363,
                1.0754317383173633,
                2.9945199747946507,
                -0.6905920313757745,
                -0.8147784375597604
            ]
        },
        {
            "positions": [
                -2.8885308485643173,
                -1.5218550321902569,
                1.0415431359040932,
                3.1300270249518287,
                -0.7737977475468263,
                -0.7259684921247671
            ]
        },
        {
            "positions": [
                -2.8719233066569547,
                -1.507478347043813,
                1.0803744630334184,
                2.970843262240206,
                -0.7161087520485816,
                -0.8225298418993919
            ]
        },
        {
            "positions": [
                -2.8553157647495917,
                -1.4931016618973691,
                1.1192057901627437,
                2.8116594995285835,
                -0.6584197565503369,
                -0.9190911916740168
            ]
        },
        {
            "positions": [
                -2.838708222842229,
                -1.4787249767509252,
                1.158037117292069,
                2.652475736816961,
                -0.6007307610520922,
                -1.0156525414486417
            ]
        },
        {
            "positions": [
                -2.8221006809348665,
                -1.4643482916044812,
                1.1968684444213942,
                2.4932919741053383,
                -0.5430417655538475,
                -1.1122138912232664
            ]
        },
        {
            "positions": [
                -2.805493139027504,
                -1.4499716064580375,
                1.2356997715507192,
                2.3341082113937155,
                -0.4853527700556028,
                -1.2087752409978914
            ]
        },
        {
            "positions": [
                -2.788885597120141,
                -1.4355949213115935,
                1.2745310986800444,
                2.174924448682093,
                -0.4276637745573581,
                -1.3053365907725163
            ]
        },
        {
            "positions": [
                -2.7722780552127784,
                -1.4212182361651495,
                1.3133624258093697,
                2.0157406859704703,
                -0.36997477905911336,
                -1.4018979405471412
            ]
        },
        {
            "positions": [
                -2.755670513305416,
                -1.4068415510187058,
                1.352193752938695,
                1.856556923258848,
                -0.3122857835608687,
                -1.498459290321766
            ]
        },
        {
            "positions": [
                -2.739062971398053,
                -1.3924648658722618,
                1.3910250800680202,
                1.6973731605472253,
                -0.254596788062624,
                -1.5950206400963909
            ]
        },
        {
            "positions": [
                -2.72245542949069,
                -1.3780881807258178,
                1.4298564071973454,
                1.5381893978356025,
                -0.1969077925643793,
                -1.6915819898710156
            ]
        },
        {
            "positions": [
                -2.7058478875833276,
                -1.3637114955793739,
                1.4686877343266707,
                1.3790056351239801,
                -0.1392187970661346,
                -1.7881433396456405
            ]
        },
        {
            "positions": [
                -2.689240345675965,
                -1.3493348104329301,
                1.5075190614559957,
                1.2198218724123575,
                -0.08152980156788991,
                -1.8847046894202653
            ]
        },
        {
            "positions": [
                -2.672632803768602,
                -1.3349581252864862,
                1.5463503885853211,
                1.0606381097007347,
                -0.023840806069645226,
                -1.9812660391948904
            ]
        },
        {
            "positions": [
                -2.6560252618612394,
                -1.3205814401400422,
                1.5851817157146462,
                0.9014543469891119,
                0.03384818942859957,
                -2.0778273889695154
            ]
        },
        {
            "positions": [
                -2.639417719953877,
                -1.3062047549935984,
                1.6240130428439714,
                0.7422705842774895,
                0.09153718492684415,
                -2.17438873874414
            ]
        },
        {
            "positions": [
                -2.622810178046514,
                -1.2918280698471545,
                1.6628443699732967,
                0.5830868215658671,
                0.14922618042508884,
                -2.270950088518765
            ]
        },
        {
            "positions": [
                -2.6062026361391513,
                -1.2774513847007105,
                1.701675697102622,
                0.4239030588542443,
                0.20691517592333364,
                -2.3675114382933895
            ]
        },
        {
            "positions": [
                -2.5895950942317887,
                -1.2630746995542668,
                1.7405070242319471,
                0.2647192961426219,
                0.2646041714215783,
                -2.464072788068014
            ]
        },
        {
            "positions": [
                -2.572987552324426,
                -1.2486980144078228,
                1.7793383513612724,
                0.10553553343099908,
                0.322293166919823,
                -2.5606341378426394
            ]
        },
        {
            "positions": [
                -2.556380010417063,
                -1.2343213292613788,
                1.8181696784905976,
                -0.05364822928062374,
                0.3799821624180677,
                -2.6571954876172645
            ]
        },
        {
            "positions": [
                -2.5397724685097005,
                -1.219944644114935,
                1.8570010056199227,
                -0.21283199199224612,
                0.4376711579163124,
                -2.7537568373918893
            ]
        },
        {
            "positions": [
                -2.523164926602338,
                -1.2055679589684911,
                1.8958323327492481,
                -0.3720157547038685,
                0.4953601534145571,
                -2.850318187166514
            ]
        },
        {
            "positions": [
                -2.5065573846949754,
                -1.1911912738220471,
                1.9346636598785731,
                -0.5311995174154913,
                0.5530491489128018,
                -2.946879536941139
            ]
        },
        {
            "positions": [
                -2.4899498427876123,
                -1.1768145886756034,
                1.9734949870078984,
                -0.6903832801271137,
                0.6107381444110465,
                -3.0434408867157634
            ]
        },
        {
            "positions": [
                -2.4733423008802498,
                -1.1624379035291594,
                2.0123263141372236,
                -0.8495670428387366,
                0.6684271399092913,
                -3.1400022364903886
            ]
        }
    ]
}