{
    "goal": {
        "global_pose": {
            "orientation": {
                "w": 0.005598929693374612,
                "x": 0.007748599140229565,
                "y": 0.7110244013736278,
                "z": -0.7031023480610252
            },
            "position": {
                "x": 0.1141497679147869,
                "y": -0.7141253447532654,
                "z": 0.3711530566215515
            }
        },
        "name": "move_to_auspresseinheit_B"
    },
    "id": "KPIECE_move_to_auspresseinheit_B_56",
    "joint_names": [
        "shoulder_pan_joint",
        "shoulder_lift_joint",
        "elbow_joint",
        "wrist_1_joint",
        "wrist_2_joint",
        "wrist_3_joint"
    ],
    "metrics": {
        "cart_traj_len": 0.5642019472905707,
        "distance_elbow_joint": 0.06209424089276672,
        "distance_shoulder_lift_joint": 0.294581681631815,
        "distance_shoulder_pan_joint": 0.5748531311966849,
        "distance_wrist_1_joint": 0.3258910481103784,
        "distance_wrist_2_joint": 1.0038057799938882,
        "distance_wrist_3_joint": 0.002453643588717913,
        "smoothness": 2.5376526478085547e-16,
        "time": 0.128755042,
        "traj_len": 1.5045529320745916,
        "weighted_distance": 1.896914241787423
    },
    "planner": "KPIECE",
    "start": {
        "state": {
            "elbow_joint": 2.0193083361928714,
            "shoulder_lift_joint": -1.1220246554650708,
            "shoulder_pan_joint": -1.0952077554168747,
            "wrist_1_joint": -0.8559753972642168,
            "wrist_2_joint": 0.4759566250798843,
            "wrist_3_joint": -3.1240929996934557
        }
    },
    "waypoints": [
        {
            "positions": [
                -1.0952077554168747,
                -1.1220246554650708,
                2.0193083361928714,
                -0.8559753972642168,
                0.4759566250798843,
                -3.1240929996934557
            ]
        },
        {
            "positions": [
                -1.1910166106163222,
                -1.1711216024037066,
                2.008959296044077,
                -0.8016602225791537,
                0.6432575884121989,
                -3.1245019402915752
            ]
        },
        {
            "positions": [
                -1.2868254658157696,
                -1.2202185493423425,
                1.9986102558952825,
                -0.7473450478940906,
                0.8105585517445137,
                -3.124910880889695
            ]
        },
        {
            "positions": [
                -1.382634321015217,
                -1.2693154962809783,
                1.988261215746488,
                -0.6930298732090276,
                0.9778595150768283,
                -3.125319821487815
            ]
        },
        {
            "positions": [
                -1.4784431762146646,
                -1.318412443219614,
                1.9779121755976936,
                -0.6387146985239646,
                1.1451604784091431,
                -3.1257287620859344
            ]
        },
        {
            "positions": [
                -1.5742520314141122,
                -1.36750939015825,
                1.9675631354488992,
                -0.5843995238389015,
                1.3124614417414577,
                -3.126137702684054
            ]
        },
        {
            "positions": [
                -1.6700608866135596,
                -1.4166063370968858,
                1.9572140953001047,
                -0.5300843491538384,
                1.4797624050737725,
                -3.1265466432821736
            ]
        }
    ]
}