{
    "goal": {
        "global_pose": {
            "orientation": {
                "w": 0.7031023502349854,
                "x": -0.7110244035720825,
                "y": 0.007748599164187908,
                "z": 0.005598929710686207
            },
            "position": {
                "x": 0.11585023208521307,
                "y": 0.44412534475326537,
                "z": 0.3711530566215515
            }
        },
        "name": "move_to_auspresseinheit_A"
    },
    "id": "KPIECE_move_to_auspresseinheit_A_32",
    "joint_names": [
        "shoulder_pan_joint",
        "shoulder_lift_joint",
        "elbow_joint",
        "wrist_1_joint",
        "wrist_2_joint",
        "wrist_3_joint"
    ],
    "metrics": {
        "cart_traj_len": 0.6726013302951392,
        "distance_elbow_joint": 0.06744127080866935,
        "distance_shoulder_lift_joint": 0.7152617076747638,
        "distance_shoulder_pan_joint": 1.0447214455589289,
        "distance_wrist_1_joint": 0.6883496131762599,
        "distance_wrist_2_joint": 0.588317980326658,
        "distance_wrist_3_joint": 0.4473498071273503,
        "smoothness": 0.8972672706768573,
        "time": 0.085508834,
        "traj_len": 1.8845269498398343,
        "weighted_distance": 2.39223933427035
    },
    "planner": "KPIECE",
    "start": {
        "state": {
            "elbow_joint": 2.4225746658250005,
            "shoulder_lift_joint": -1.3736534386056498,
            "shoulder_pan_joint": -0.3378633547517467,
            "wrist_1_joint": -1.0288598680537169,
            "wrist_2_joint": 1.233022673432363,
            "wrist_3_joint": -3.0940220416140027
        }
    },
    "waypoints": [
        {
            "positions": [
                -0.3378633547517467,
                -1.3736534386056498,
                2.4225746658250005,
                -1.0288598680537169,
                1.233022673432363,
                -3.0940220416140027
            ]
        },
        {
            "positions": [
                -0.24058186995797382,
                -1.4628268115182497,
                2.4253242982075722,
                -0.9398604369812491,
                1.1534111417998123,
                -3.064533135362987
            ]
        },
        {
            "positions": [
                -0.14330038516420093,
                -1.5520001844308497,
                2.428073930590144,
                -0.8508610059087813,
                1.0737996101672616,
                -3.035044229111971
            ]
        },
        {
            "positions": [
                -0.04601890037042805,
                -1.6411735573434496,
                2.4308235629727157,
                -0.7618615748363136,
                0.9941880785347107,
                -3.005555322860955
            ]
        },
        {
            "positions": [
                0.05126258442334486,
                -1.7303469302560495,
                2.433573195355288,
                -0.6728621437638458,
                0.91457654690216,
                -2.9760664166099393
            ]
        },
        {
            "positions": [
                0.14854406921711777,
                -1.8195203031686495,
                2.4363228277378597,
                -0.5838627126913779,
                0.8349650152696091,
                -2.9465775103589236
            ]
        },
        {
            "positions": [
                0.24582555401089062,
                -1.9086936760812492,
                2.4390724601204314,
                -0.49486328161891013,
                0.7553534836370583,
                -2.9170886041079074
            ]
        },
        {
            "positions": [
                0.3431070388046636,
                -1.9978670489938493,
                2.441822092503003,
                -0.40586385054644236,
                0.6757419520045076,
                -2.8875996978568916
            ]
        },
        {
            "positions": [
                0.46435738947216976,
                -1.9675176832316612,
                2.425757477792781,
                -0.42764838243610415,
                0.6860877049707751,
                -2.967908852313638
            ]
        },
        {
            "positions": [
                0.585607740139676,
                -1.937168317469473,
                2.409692863082559,
                -0.44943291432576593,
                0.6964334579370427,
                -3.0482180067703846
            ]
        },
        {
            "positions": [
                0.7068580908071822,
                -1.9068189517072849,
                2.3936282483723366,
                -0.4712174462154277,
                0.7067792109033102,
                -3.128527161227131
            ]
        }
    ]
}