{
    "goal": {
        "global_pose": {
            "orientation": {
                "w": 0.5084816217422485,
                "x": -0.49083608388900757,
                "y": 0.5182115435600281,
                "z": -0.4816462993621826
            },
            "position": {
                "x": 0.5540239810943604,
                "y": 0.030875300988554955,
                "z": 0.16403168439865112
            }
        },
        "name": "move_to_storage_A"
    },
    "id": "KPIECE_move_to_storage_A_40",
    "joint_names": [
        "shoulder_pan_joint",
        "shoulder_lift_joint",
        "elbow_joint",
        "wrist_1_joint",
        "wrist_2_joint",
        "wrist_3_joint"
    ],
    "metrics": {
        "cart_traj_len": 0.3536350511603514,
        "distance_elbow_joint": 0.44831095266935006,
        "distance_shoulder_lift_joint": 0.23499587627879737,
        "distance_shoulder_pan_joint": 0.4633774301289406,
        "distance_wrist_1_joint": 0.2365338506240896,
        "distance_wrist_2_joint": 1.0957200001280663,
        "distance_wrist_3_joint": 0.09814369348073049,
        "smoothness": 4.440892098500626e-16,
        "time": 0.05554161,
        "traj_len": 1.6053291884563659,
        "weighted_distance": 2.0262337083919
    },
    "planner": "KPIECE",
    "start": {
        "state": {
            "elbow_joint": 1.971548259319323,
            "shoulder_lift_joint": -1.1394851275133948,
            "shoulder_pan_joint": 0.1228115487234821,
            "wrist_1_joint": -0.7804723859257726,
            "wrist_2_joint": 0.12958671773740124,
            "wrist_3_joint": -3.192489227718131
        }
    },
    "waypoints": [
        {
            "positions": [
                0.1228115487234821,
                -1.1394851275133948,
                1.971548259319323,
                -0.7804723859257726,
                0.12958671773740124,
                -3.192489227718131
            ]
        },
        {
            "positions": [
                0.0566147729907763,
                -1.1730559669817944,
                2.03559268112923,
                -0.8142629360149283,
                0.28611814632712496,
                -3.1784687000780267
            ]
        },
        {
            "positions": [
                -0.009582002741929496,
                -1.2066268064501942,
                2.099637102939137,
                -0.8480534861040839,
                0.44264957491684875,
                -3.1644481724379223
            ]
        },
        {
            "positions": [
                -0.0757787784746353,
                -1.2401976459185937,
                2.1636815247490446,
                -0.8818440361932396,
                0.5991810035065724,
                -3.150427644797818
            ]
        },
        {
            "positions": [
                -0.1419755542073411,
                -1.2737684853869933,
                2.2277259465589516,
                -0.9156345862823952,
                0.7557124320962962,
                -3.136407117157714
            ]
        },
        {
            "positions": [
                -0.20817232994004692,
                -1.307339324855393,
                2.2917703683688586,
                -0.9494251363715509,
                0.91224386068602,
                -3.1223865895176095
            ]
        },
        {
            "positions": [
                -0.2743691056727527,
                -1.3409101643237926,
                2.355814790178766,
                -0.9832156864607066,
                1.0687752892757436,
                -3.108366061877505
            ]
        },
        {
            "positions": [
                -0.3405658814054585,
                -1.3744810037921922,
                2.419859211988673,
                -1.0170062365498622,
                1.2253067178654675,
                -3.0943455342374007
            ]
        }
    ]
}{
    "goal": {
        "global_pose": {
            "orientation": {
                "w": 0.5084816217422485,
                "x": -0.49083608388900757,
                "y": 0.5182115435600281,
                "z": -0.4816462993621826
            },
            "position": {
                "x": 0.5540239810943604,
                "y": 0.030875300988554955,
                "z": 0.16403168439865112
            }
        },
        "name": "move_to_storage_A"
    },
    "id": "KPIECE_move_to_storage_A_40",
    "joint_names": [
        "shoulder_pan_joint",
        "shoulder_lift_joint",
        "elbow_joint",
        "wrist_1_joint",
        "wrist_2_joint",
        "wrist_3_joint"
    ],
    "metrics": {
        "cart_traj_len": 0.3534588844237179,
        "distance_elbow_joint": 0.44961766304553796,
        "distance_shoulder_lift_joint": 0.23593183132462703,
        "distance_shoulder_pan_joint": 0.4635418513038766,
        "distance_wrist_1_joint": 0.23562859636427547,
        "distance_wrist_2_joint": 1.0947885368951606,
        "distance_wrist_3_joint": 0.09260204634852354,
        "smoothness": 0.0,
        "time": 0.039704935,
        "traj_len": 1.6037800738511503,
        "weighted_distance": 2.021813975428621
    },
    "planner": "KPIECE",
    "start": {
        "state": {
            "elbow_joint": 1.97154746011099,
            "shoulder_lift_joint": -1.13948474672311,
            "shoulder_pan_joint": 0.12281154466712228,
            "wrist_1_joint": -0.7804688027058302,
            "wrist_2_joint": 0.12958655903071145,
            "wrist_3_joint": 3.0906928834467795
        }
    },
    "waypoints": [
        {
            "positions": [
                0.12281154466712228,
                -1.13948474672311,
                1.97154746011099,
                -0.7804688027058302,
                0.12958655903071145,
                3.0906928834467795
            ]
        },
        {
            "positions": [
                0.05659128019513991,
                -1.1731892940551996,
                2.035778554831781,
                -0.8141300307578695,
                0.2859849214443058,
                3.1039217472108542
            ]
        },
        {
            "positions": [
                -0.009628984276842459,
                -1.2068938413872892,
                2.100009649552572,
                -0.8477912588099089,
                0.44238328385790016,
                3.117150610974929
            ]
        },
        {
            "positions": [
                -0.07584924874882483,
                -1.2405983887193788,
                2.1642407442733633,
                -0.8814524868619482,
                0.5987816462714945,
                3.1303794747390037
            ]
        },
        {
            "positions": [
                -0.1420695132208072,
                -1.2743029360514682,
                2.2284718389941545,
                -0.9151137149139876,
                0.7551800086850889,
                3.143608338503079
            ]
        },
        {
            "positions": [
                -0.20828977769278956,
                -1.3080074833835578,
                2.2927029337149456,
                -0.9487749429660269,
                0.9115783710986833,
                3.1568372022671536
            ]
        },
        {
            "positions": [
                -0.27451004216477193,
                -1.3417120307156474,
                2.3569340284357367,
                -0.9824361710180662,
                1.0679767335122776,
                3.1700660660312283
            ]
        },
        {
            "positions": [
                -0.3407303066367543,
                -1.375416578047737,
                2.421165123156528,
                -1.0160973990701057,
                1.2243750959258721,
                3.183294929795303
            ]
        }
    ]
}{
    "goal": {
        "global_pose": {
            "orientation": {
                "w": 0.5084816217422485,
                "x": -0.49083608388900757,
                "y": 0.5182115435600281,
                "z": -0.4816462993621826
            },
            "position": {
                "x": 0.5540239810943604,
                "y": 0.030875300988554955,
                "z": 0.16403168439865112
            }
        },
        "name": "move_to_storage_A"
    },
    "id": "KPIECE_move_to_storage_A_40",
    "joint_names": [
        "shoulder_pan_joint",
        "shoulder_lift_joint",
        "elbow_joint",
        "wrist_1_joint",
        "wrist_2_joint",
        "wrist_3_joint"
    ],
    "metrics": {
        "cart_traj_len": 0.3538463637907597,
        "distance_elbow_joint": 0.4540614626431725,
        "distance_shoulder_lift_joint": 0.23396923222806798,
        "distance_shoulder_pan_joint": 0.46003330671000614,
        "distance_wrist_1_joint": 0.25739994575371883,
        "distance_wrist_2_joint": 1.112308495347811,
        "distance_wrist_3_joint": 0.09299635997172562,
        "smoothness": 8.881784197001252e-16,
        "time": 0.057871131000000006,
        "traj_len": 1.6157873630693187,
        "weighted_distance": 2.0411932695605977
    },
    "planner": "KPIECE",
    "start": {
        "state": {
            "elbow_joint": 1.9715472970024885,
            "shoulder_lift_joint": -1.1394870060712896,
            "shoulder_pan_joint": 0.12281152778156021,
            "wrist_1_joint": -0.780463741449964,
            "wrist_2_joint": 0.12958659822042276,
            "wrist_3_joint": 3.090690232415272
        }
    },
    "waypoints": [
        {
            "positions": [
                0.12281152778156021,
                -1.1394870060712896,
                1.9715472970024885,
                -0.780463741449964,
                0.12958659822042276,
                3.090690232415272
            ]
        },
        {
            "positions": [
                0.057092483965845056,
                -1.1729111821038707,
                2.0364132202372276,
                -0.8172351622719238,
                0.2884878118415386,
                3.103975426696947
            ]
        },
        {
            "positions": [
                -0.008626559849870097,
                -1.206335358136452,
                2.101279143471966,
                -0.8540065830938837,
                0.44738902546265447,
                3.117260620978622
            ]
        },
        {
            "positions": [
                -0.07434560366558524,
                -1.239759534169033,
                2.1661450667067053,
                -0.8907780039158435,
                0.6062902390837703,
                3.130545815260297
            ]
        },
        {
            "positions": [
                -0.1400646474813004,
                -1.2731837102016141,
                2.2310109899414443,
                -0.9275494247378033,
                0.7651914527048862,
                3.143831009541972
            ]
        },
        {
            "positions": [
                -0.2057836912970156,
                -1.3066078862341954,
                2.2958769131761834,
                -0.9643208455597632,
                0.9240926663260021,
                3.157116203823647
            ]
        },
        {
            "positions": [
                -0.2715027351127307,
                -1.3400320622667765,
                2.360742836410922,
                -1.001092266381723,
                1.082993879947118,
                3.1704013981053225
            ]
        },
        {
            "positions": [
                -0.3372217789284459,
                -1.3734562382993576,
                2.425608759645661,
                -1.0378636872036828,
                1.2418950935682338,
                3.1836865923869975
            ]
        }
    ]
}