{
    "goal": {
        "global_pose": {
            "orientation": {
                "w": 0.005598929693374612,
                "x": 0.007748599140229565,
                "y": 0.7110244013736278,
                "z": -0.7031023480610252
            },
            "position": {
                "x": -0.8858502320852131,
                "y": -0.7141253447532654,
                "z": 0.3711530566215515
            }
        },
        "name": "move_to_auspresseinheit_C"
    },
    "id": "KPIECE_move_to_auspresseinheit_C_54",
    "joint_names": [
        "shoulder_pan_joint",
        "shoulder_lift_joint",
        "elbow_joint",
        "wrist_1_joint",
        "wrist_2_joint",
        "wrist_3_joint"
    ],
    "metrics": {
        "cart_traj_len": 0.49288738056343806,
        "distance_elbow_joint": 1.0028571499215313,
        "distance_shoulder_lift_joint": 0.3254269798934003,
        "distance_shoulder_pan_joint": 0.25595325867474417,
        "distance_wrist_1_joint": 0.6905963275778395,
        "distance_wrist_2_joint": 1.305275912871459,
        "distance_wrist_3_joint": 0.06625902645159387,
        "smoothness": 1.6148698667872622e-16,
        "time": 0.011770291,
        "traj_len": 1.9095467146395158,
        "weighted_distance": 2.4030728138662494
    },
    "planner": "KPIECE",
    "start": {
        "state": {
            "elbow_joint": 1.7527959577737207,
            "shoulder_lift_joint": -0.9740617694225068,
            "shoulder_pan_joint": -2.967991417825858,
            "wrist_1_joint": -0.759517768980727,
            "wrist_2_joint": 1.7443932448377408,
            "wrist_3_joint": -3.0840537646736568
        }
    },
    "waypoints": [
        {
            "positions": [
                -2.967991417825858,
                -0.9740617694225068,
                1.7527959577737207,
                -0.759517768980727,
                1.7443932448377408,
                -3.0840537646736568
            ]
        },
        {
            "positions": [
                -2.9423960919583836,
                -0.9415190714331667,
                1.6525102427815674,
                -0.690458136222943,
                1.6138656535505949,
                -3.090679667318816
            ]
        },
        {
            "positions": [
                -2.916800766090909,
                -0.9089763734438268,
                1.5522245277894144,
                -0.621398503465159,
                1.4833380622634489,
                -3.0973055699639755
            ]
        },
        {
            "positions": [
                -2.891205440223435,
                -0.8764336754544867,
                1.4519388127972612,
                -0.5523388707073751,
                1.3528104709763031,
                -3.103931472609135
            ]
        },
        {
            "positions": [
                -2.8656101143559605,
                -0.8438909774651466,
                1.3516530978051082,
                -0.48327923794959116,
                1.2222828796891572,
                -3.1105573752542943
            ]
        },
        {
            "positions": [
                -2.840014788488486,
                -0.8113482794758067,
                1.251367382812955,
                -0.4142196051918072,
                1.0917552884020112,
                -3.1171832778994535
            ]
        },
        {
            "positions": [
                -2.8144194626210113,
                -0.7788055814864666,
                1.1510816678208018,
                -0.3451599724340233,
                0.9612276971148654,
                -3.123809180544613
            ]
        },
        {
            "positions": [
                -2.788824136753537,
                -0.7462628834971266,
                1.0507959528286488,
                -0.27610033967623937,
                0.8307001058277196,
                -3.1304350831897727
            ]
        },
        {
            "positions": [
                -2.7632288108860625,
                -0.7137201855077866,
                0.9505102378364956,
                -0.20704070691845533,
                0.7001725145405735,
                -3.137060985834932
            ]
        },
        {
            "positions": [
                -2.737633485018588,
                -0.6811774875184464,
                0.8502245228443425,
                -0.1379810741606714,
                0.5696449232534277,
                -3.143686888480091
            ]
        },
        {
            "positions": [
                -2.712038159151114,
                -0.6486347895291065,
                0.7499388078521892,
                -0.06892144140288747,
                0.4391173319662817,
                -3.1503127911252506
            ]
        }
    ]
}