{
    "goal": {
        "global_pose": {
            "orientation": {
                "w": 0.7047431468963623,
                "x": -0.7094548344612122,
                "y": 0.0024358443915843964,
                "z": -0.0022348060738295317
            },
            "position": {
                "x": 0.6094750761985779,
                "y": 0.3671506643295288,
                "z": 0.19426114857196808
            }
        },
        "name": "move_to_magneteinheit_A"
    },
    "id": "KPIECE_move_to_magneteinheit_A_110",
    "joint_names": [
        "shoulder_pan_joint",
        "shoulder_lift_joint",
        "elbow_joint",
        "wrist_1_joint",
        "wrist_2_joint",
        "wrist_3_joint"
    ],
    "metrics": {
        "cart_traj_len": 3.1658169949426096,
        "distance_elbow_joint": 3.8707753364378137,
        "distance_shoulder_lift_joint": 0.3026863507265074,
        "distance_shoulder_pan_joint": 2.7407538728559424,
        "distance_wrist_1_joint": 2.4660235769799392,
        "distance_wrist_2_joint": 1.695561310864982,
        "distance_wrist_3_joint": 3.7138863699738387,
        "smoothness": 0.16825209839941882,
        "time": 0.11172369800000001,
        "traj_len": 3.845736186718874,
        "weighted_distance": 5.136053392015277
    },
    "planner": "KPIECE",
    "start": {
        "state": {
            "elbow_joint": -1.9196185241190666,
            "shoulder_lift_joint": -1.2443396400964142,
            "shoulder_pan_joint": 2.6996025414629847,
            "wrist_1_joint": -1.5485510000780065,
            "wrist_2_joint": -1.5709468930060704,
            "wrist_3_joint": 0.4420197071253992
        }
    },
    "waypoints": [
        {
            "positions": [
                2.6996025414629847,
                -1.2443396400964142,
                -1.9196185241190666,
                -1.5485510000780065,
                -1.5709468930060704,
                0.4420197071253992
            ]
        },
        {
            "positions": [
                2.5947847642027813,
                -1.240286320785117,
                -1.8310623748763744,
                -1.4820598430865917,
                -1.5291151783223944,
                0.35389429101105946
            ]
        },
        {
            "positions": [
                2.4899669869425773,
                -1.2362330014738196,
                -1.7425062256336818,
                -1.4155686860951768,
                -1.4872834636387184,
                0.26576887489671974
            ]
        },
        {
            "positions": [
                2.385149209682374,
                -1.2321796821625226,
                -1.6539500763909896,
                -1.349077529103762,
                -1.4454517489550425,
                0.17764345878238008
            ]
        },
        {
            "positions": [
                2.28033143242217,
                -1.2281263628512253,
                -1.565393927148297,
                -1.2825863721123472,
                -1.4036200342713665,
                0.08951804266804037
            ]
        },
        {
            "positions": [
                2.1755136551619665,
                -1.224073043539928,
                -1.4768377779056048,
                -1.2160952151209323,
                -1.3617883195876905,
                0.0013926265537006488
            ]
        },
        {
            "positions": [
                2.0706958779017626,
                -1.2200197242286308,
                -1.3882816286629125,
                -1.1496040581295175,
                -1.3199566049040148,
                -0.08673278956063901
            ]
        },
        {
            "positions": [
                1.965878100641559,
                -1.2159664049173338,
                -1.29972547942022,
                -1.0831129011381027,
                -1.2781248902203388,
                -0.17485820567497878
            ]
        },
        {
            "positions": [
                1.8610603233813554,
                -1.2119130856060365,
                -1.2111693301775275,
                -1.016621744146688,
                -1.2362931755366628,
                -0.26298362178931844
            ]
        },
        {
            "positions": [
                1.7562425461211517,
                -1.2078597662947392,
                -1.1226131809348352,
                -0.9501305871552731,
                -1.1944614608529869,
                -0.3511090379036581
            ]
        },
        {
            "positions": [
                1.651424768860948,
                -1.203806446983442,
                -1.034057031692143,
                -0.8836394301638582,
                -1.152629746169311,
                -0.4392344540179979
            ]
        },
        {
            "positions": [
                1.5466069916007443,
                -1.199753127672145,
                -0.9455008824494504,
                -0.8171482731724434,
                -1.110798031485635,
                -0.5273598701323375
            ]
        },
        {
            "positions": [
                1.4417892143405409,
                -1.1956998083608477,
                -0.8569447332067581,
                -0.7506571161810286,
                -1.068966316801959,
                -0.6154852862466772
            ]
        },
        {
            "positions": [
                1.336971437080337,
                -1.1916464890495504,
                -0.7683885839640656,
                -0.6841659591896138,
                -1.027134602118283,
                -0.7036107023610169
            ]
        },
        {
            "positions": [
                1.2321536598201333,
                -1.1875931697382531,
                -0.6798324347213731,
                -0.6176748021981988,
                -0.985302887434607,
                -0.7917361184753567
            ]
        },
        {
            "positions": [
                1.1273358825599298,
                -1.183539850426956,
                -0.591276285478681,
                -0.5511836452067842,
                -0.9434711727509312,
                -0.8798615345896962
            ]
        },
        {
            "positions": [
                1.022518105299726,
                -1.1794865311156588,
                -0.5027201362359885,
                -0.48469248821536937,
                -0.9016394580672551,
                -0.9679869507040361
            ]
        },
        {
            "positions": [
                0.9177003280395222,
                -1.1754332118043616,
                -0.41416398699329604,
                -0.4182013312239543,
                -0.8598077433835791,
                -1.0561123668183758
            ]
        },
        {
            "positions": [
                0.8128825507793187,
                -1.1713798924930643,
                -0.32560783775060376,
                -0.3517101742325397,
                -0.8179760286999033,
                -1.1442377829327155
            ]
        },
        {
            "positions": [
                0.708064773519115,
                -1.1673265731817672,
                -0.23705168850791147,
                -0.28521901724112486,
                -0.7761443140162273,
                -1.2323631990470552
            ]
        },
        {
            "positions": [
                0.6032469962589113,
                -1.16327325387047,
                -0.14849553926521897,
                -0.2187278602497098,
                -0.7343125993325513,
                -1.3204886151613948
            ]
        },
        {
            "positions": [
                0.49842921899870785,
                -1.1592199345591727,
                -0.059939390022526684,
                -0.1522367032582952,
                -0.6924808846488755,
                -1.4086140312757345
            ]
        },
        {
            "positions": [
                0.39361144173850393,
                -1.1551666152478755,
                0.02861675922016582,
                -0.08574554626688036,
                -0.6506491699651994,
                -1.4967394473900741
            ]
        },
        {
            "positions": [
                0.28879366447830046,
                -1.1511132959365784,
                0.11717290846285833,
                -0.019254389275465522,
                -0.6088174552815234,
                -1.5848648635044138
            ]
        },
        {
            "positions": [
                0.183975887218097,
                -1.1470599766252811,
                0.2057290577055504,
                0.04723676771594931,
                -0.5669857405978476,
                -1.6729902796187535
            ]
        },
        {
            "positions": [
                0.07915810995789323,
                -1.1430066573139839,
                0.294285206948243,
                0.11372792470736406,
                -0.5251540259141717,
                -1.7611156957330931
            ]
        },
        {
            "positions": [
                0.07567477914885086,
                -1.1514565608222607,
                0.43085365666013453,
                0.05351726091987829,
                -0.48078096957244754,
                -1.8766261208844495
            ]
        },
        {
            "positions": [
                0.07219144833980848,
                -1.1599064643305372,
                0.5674221063720262,
                -0.006693402867607487,
                -0.4364079132307234,
                -1.9921365460358058
            ]
        },
        {
            "positions": [
                0.06870811753076611,
                -1.168356367838814,
                0.7039905560839177,
                -0.06690406665509324,
                -0.3920348568889993,
                -2.107646971187162
            ]
        },
        {
            "positions": [
                0.06522478672172374,
                -1.1768062713470908,
                0.8405590057958092,
                -0.12711473044257904,
                -0.34766180054727513,
                -2.2231573963385185
            ]
        },
        {
            "positions": [
                0.06174145591268136,
                -1.1852561748553674,
                0.9771274555077007,
                -0.1873253942300648,
                -0.303288744205551,
                -2.3386678214898753
            ]
        },
        {
            "positions": [
                0.058258125103638994,
                -1.1937060783636442,
                1.1136959052195923,
                -0.24753605801755055,
                -0.2589156878638269,
                -2.4541782466412316
            ]
        },
        {
            "positions": [
                0.05477479429459662,
                -1.2021559818719207,
                1.2502643549314838,
                -0.30774672180503637,
                -0.21454263152210273,
                -2.569688671792588
            ]
        },
        {
            "positions": [
                0.051291463485554245,
                -1.2106058853801975,
                1.3868328046433755,
                -0.3679573855925221,
                -0.17016957518037856,
                -2.6851990969439443
            ]
        },
        {
            "positions": [
                0.04780813267651187,
                -1.2190557888884743,
                1.5234012543552669,
                -0.42816804938000796,
                -0.1257965188386544,
                -2.8007095220953007
            ]
        },
        {
            "positions": [
                0.0443248018674695,
                -1.227505692396751,
                1.6599697040671586,
                -0.4883787131674937,
                -0.08142346249693033,
                -2.916219947246657
            ]
        },
        {
            "positions": [
                0.04084147105842713,
                -1.2359555959050277,
                1.79653815377905,
                -0.5485893769549794,
                -0.03705040615520615,
                -3.0317303723980134
            ]
        },
        {
            "positions": [
                0.06817240520888798,
                -1.1998207861206833,
                1.848077706625616,
                -0.5957318271323879,
                0.01683786851616636,
                -3.1117758025481552
            ]
        },
        {
            "positions": [
                0.09550333935934885,
                -1.1636859763363387,
                1.8996172594721819,
                -0.6428742773097963,
                0.07072614318753886,
                -3.1918212326982975
            ]
        },
        {
            "positions": [
                0.12283427350980972,
                -1.1275511665519944,
                1.951156812318748,
                -0.6900167274872048,
                0.12461441785891139,
                -3.2718666628484394
            ]
        }
    ]
}