{
    "goal": {
        "global_pose": {
            "orientation": {
                "w": 0.7031023480610252,
                "x": -0.7110244013736278,
                "y": 0.0077485991402295624,
                "z": 0.005598929693374583
            },
            "position": {
                "x": -0.8841497679147869,
                "y": 0.44412534475326537,
                "z": 0.3711530566215515
            }
        },
        "name": "move_to_auspresseinheit_D"
    },
    "id": "KPIECE_move_to_auspresseinheit_D_92",
    "joint_names": [
        "shoulder_pan_joint",
        "shoulder_lift_joint",
        "elbow_joint",
        "wrist_1_joint",
        "wrist_2_joint",
        "wrist_3_joint"
    ],
    "metrics": {
        "cart_traj_len": 0.34390282648964426,
        "distance_elbow_joint": 0.653313931117846,
        "distance_shoulder_lift_joint": 0.13003578016737416,
        "distance_shoulder_pan_joint": 0.134372309741546,
        "distance_wrist_1_joint": 0.57899854757733,
        "distance_wrist_2_joint": 1.4359376443856338,
        "distance_wrist_3_joint": 0.04370244653745692,
        "smoothness": 0.0,
        "time": 0.045661320000000005,
        "traj_len": 1.725213221467766,
        "weighted_distance": 2.253597511661092
    },
    "planner": "KPIECE",
    "start": {
        "state": {
            "elbow_joint": -1.8275523626775212,
            "shoulder_lift_joint": -2.126789852344167,
            "shoulder_pan_joint": -0.03513704404078235,
            "wrist_1_joint": -2.347782403156801,
            "wrist_2_joint": -1.6058999987535132,
            "wrist_3_joint": -3.0880379163319196
        }
    },
    "waypoints": [
        {
            "positions": [
                -0.03513704404078235,
                -2.126789852344167,
                -1.8275523626775212,
                -2.347782403156801,
                -1.6058999987535132,
                -3.0880379163319196
            ]
        },
        {
            "positions": [
                -0.051933582758475594,
                -2.143044324865089,
                -1.7458881212877904,
                -2.4201572216039673,
                -1.426407793205309,
                -3.0825751105147376
            ]
        },
        {
            "positions": [
                -0.06873012147616885,
                -2.1592987973860103,
                -1.6642238798980598,
                -2.4925320400511333,
                -1.2469155876571048,
                -3.0771123046975553
            ]
        },
        {
            "positions": [
                -0.0855266601938621,
                -2.175553269906932,
                -1.582559638508329,
                -2.5649068584982997,
                -1.0674233821089005,
                -3.0716494988803733
            ]
        },
        {
            "positions": [
                -0.10232319891155534,
                -2.191807742427854,
                -1.5008953971185983,
                -2.6372816769454657,
                -0.8879311765606963,
                -3.066186693063191
            ]
        },
        {
            "positions": [
                -0.1191197376292486,
                -2.2080622149487756,
                -1.4192311557288675,
                -2.709656495392632,
                -0.7084389710124921,
                -3.060723887246009
            ]
        },
        {
            "positions": [
                -0.13591627634694184,
                -2.2243166874696976,
                -1.3375669143391367,
                -2.7820313138397985,
                -0.5289467654642879,
                -3.055261081428827
            ]
        },
        {
            "positions": [
                -0.15271281506463508,
                -2.240571159990619,
                -1.2559026729494058,
                -2.8544061322869645,
                -0.34945455991608365,
                -3.0497982756116446
            ]
        },
        {
            "positions": [
                -0.16950935378232834,
                -2.256825632511541,
                -1.1742384315596752,
                -2.926780950734131,
                -0.16996235436787935,
                -3.0443354697944627
            ]
        }
    ]
}