{
    "goal": {
        "global_pose": {
            "orientation": {
                "w": 0.005598929693374612,
                "x": 0.007748599140229565,
                "y": 0.7110244013736278,
                "z": -0.7031023480610252
            },
            "position": {
                "x": 0.1141497679147869,
                "y": -0.7141253447532654,
                "z": 0.3711530566215515
            }
        },
        "name": "move_to_auspresseinheit_B"
    },
    "id": "LazyPRM_move_to_auspresseinheit_B_17",
    "joint_names": [
        "shoulder_pan_joint",
        "shoulder_lift_joint",
        "elbow_joint",
        "wrist_1_joint",
        "wrist_2_joint",
        "wrist_3_joint"
    ],
    "metrics": {
        "cart_traj_len": 0.5650160635510979,
        "distance_elbow_joint": 0.0620804874144949,
        "distance_shoulder_lift_joint": 0.29445046857707813,
        "distance_shoulder_pan_joint": 0.573743814430024,
        "distance_wrist_1_joint": 0.31755105475834455,
        "distance_wrist_2_joint": 1.0097097141137101,
        "distance_wrist_3_joint": 0.007386791715140895,
        "smoothness": 5.075305255429287e-16,
        "time": 0.011760955,
        "traj_len": 1.5049658903140606,
        "weighted_distance": 1.899198958327202
    },
    "planner": "LazyPRM",
    "start": {
        "state": {
            "elbow_joint": 2.0193083361928714,
            "shoulder_lift_joint": -1.1220246554650708,
            "shoulder_pan_joint": -1.0952077554168747,
            "wrist_1_joint": -0.8559753972642168,
            "wrist_2_joint": 0.4759566250798843,
            "wrist_3_joint": -3.1240929996934557
        }
    },
    "waypoints": [
        {
            "positions": [
                -1.0952077554168747,
                -1.1220246554650708,
                2.0193083361928714,
                -0.8559753972642168,
                0.4759566250798843,
                -3.1240929996934557
            ]
        },
        {
            "positions": [
                -1.1908317244885454,
                -1.1710997335612505,
                2.0089615882904557,
                -0.8030502214711593,
                0.6442415774321693,
                -3.125324131645979
            ]
        },
        {
            "positions": [
                -1.286455693560216,
                -1.2201748116574302,
                1.9986148403880397,
                -0.7501250456781019,
                0.8125265297844544,
                -3.1265552635985028
            ]
        },
        {
            "positions": [
                -1.3820796626318868,
                -1.2692498897536098,
                1.988268092485624,
                -0.6971998698850446,
                0.9808114821367393,
                -3.127786395551026
            ]
        },
        {
            "positions": [
                -1.4777036317035572,
                -1.3183249678497895,
                1.9779213445832082,
                -0.6442746940919871,
                1.1490964344890244,
                -3.1290175275035494
            ]
        },
        {
            "positions": [
                -1.573327600775228,
                -1.3674000459459692,
                1.9675745966807923,
                -0.5913495182989297,
                1.3173813868413093,
                -3.1302486594560732
            ]
        },
        {
            "positions": [
                -1.6689515698468986,
                -1.416475124042149,
                1.9572278487783765,
                -0.5384243425058722,
                1.4856663391935945,
                -3.1314797914085966
            ]
        }
    ]
}