{
    "goal": {
        "global_pose": {
            "orientation": {
                "w": 0.005598929693374612,
                "x": 0.007748599140229565,
                "y": 0.7110244013736278,
                "z": -0.7031023480610252
            },
            "position": {
                "x": -0.8858502320852131,
                "y": -0.7141253447532654,
                "z": 0.3711530566215515
            }
        },
        "name": "move_to_auspresseinheit_C"
    },
    "id": "LazyPRM_move_to_auspresseinheit_C_25",
    "joint_names": [
        "shoulder_pan_joint",
        "shoulder_lift_joint",
        "elbow_joint",
        "wrist_1_joint",
        "wrist_2_joint",
        "wrist_3_joint"
    ],
    "metrics": {
        "cart_traj_len": 0.49353468092932484,
        "distance_elbow_joint": 1.0023933416473958,
        "distance_shoulder_lift_joint": 0.326058198051032,
        "distance_shoulder_pan_joint": 0.25586149794325896,
        "distance_wrist_1_joint": 0.6743162903764588,
        "distance_wrist_2_joint": 1.3168293740013515,
        "distance_wrist_3_joint": 0.05854835391597879,
        "smoothness": 1.6148698667872622e-16,
        "time": 0.012456968,
        "traj_len": 1.9063071777485066,
        "weighted_distance": 2.396299110742489
    },
    "planner": "LazyPRM",
    "start": {
        "state": {
            "elbow_joint": 1.7527959577737207,
            "shoulder_lift_joint": -0.9740617694225068,
            "shoulder_pan_joint": -2.967991417825858,
            "wrist_1_joint": -0.759517768980727,
            "wrist_2_joint": 1.7443932448377408,
            "wrist_3_joint": -3.0840537646736568
        }
    },
    "waypoints": [
        {
            "positions": [
                -2.967991417825858,
                -0.9740617694225068,
                1.7527959577737207,
                -0.759517768980727,
                1.7443932448377408,
                -3.0840537646736568
            ]
        },
        {
            "positions": [
                -2.942405268031532,
                -0.9414559496174035,
                1.652556623608981,
                -0.6920861399430811,
                1.6127103074376057,
                -3.0899086000652547
            ]
        },
        {
            "positions": [
                -2.916819118237206,
                -0.9088501298123004,
                1.5523172894442414,
                -0.6246545109054352,
                1.4810273700374705,
                -3.0957634354568526
            ]
        },
        {
            "positions": [
                -2.89123296844288,
                -0.8762443100071972,
                1.452077955279502,
                -0.5572228818677893,
                1.3493444326373354,
                -3.1016182708484505
            ]
        },
        {
            "positions": [
                -2.865646818648554,
                -0.8436384902020939,
                1.3518386211147624,
                -0.48979125283014346,
                1.2176614952372002,
                -3.1074731062400485
            ]
        },
        {
            "positions": [
                -2.8400606688542283,
                -0.8110326703969908,
                1.2515992869500228,
                -0.4223596237924976,
                1.085978557837065,
                -3.1133279416316464
            ]
        },
        {
            "positions": [
                -2.8144745190599028,
                -0.7784268505918877,
                1.1513599527852834,
                -0.3549279947548517,
                0.95429562043693,
                -3.119182777023244
            ]
        },
        {
            "positions": [
                -2.788888369265577,
                -0.7458210307867844,
                1.0511206186205437,
                -0.2874963657172059,
                0.8226126830367949,
                -3.125037612414842
            ]
        },
        {
            "positions": [
                -2.763302219471251,
                -0.7132152109816812,
                0.950881284455804,
                -0.22006473667955995,
                0.6909297456366597,
                -3.1308924478064397
            ]
        },
        {
            "positions": [
                -2.737716069676925,
                -0.680609391176578,
                0.8506419502910644,
                -0.15263310764191407,
                0.5592468082365245,
                -3.1367472831980376
            ]
        },
        {
            "positions": [
                -2.712129919882599,
                -0.6480035713714748,
                0.750402616126325,
                -0.08520147860426817,
                0.4275638708363894,
                -3.1426021185896356
            ]
        }
    ]
}