{
    "goal": {
        "global_pose": {
            "orientation": {
                "w": 0.5084816217422485,
                "x": -0.49083608388900757,
                "y": 0.5182115435600281,
                "z": -0.4816462993621826
            },
            "position": {
                "x": 0.5540239810943604,
                "y": 0.030875300988554955,
                "z": 0.16403168439865112
            }
        },
        "name": "move_to_storage_A"
    },
    "id": "LazyPRMstar_move_to_storage_A_27",
    "joint_names": [
        "shoulder_pan_joint",
        "shoulder_lift_joint",
        "elbow_joint",
        "wrist_1_joint",
        "wrist_2_joint",
        "wrist_3_joint"
    ],
    "metrics": {
        "cart_traj_len": 0.35336478002283594,
        "distance_elbow_joint": 0.4494450087796966,
        "distance_shoulder_lift_joint": 0.2344693741551338,
        "distance_shoulder_pan_joint": 0.46197180073898686,
        "distance_wrist_1_joint": 0.23642054255218492,
        "distance_wrist_2_joint": 1.1001922388723002,
        "distance_wrist_3_joint": 0.09500633590940843,
        "smoothness": 8.881784197001252e-16,
        "time": 5.0003710439999995,
        "traj_len": 1.6054610867310708,
        "weighted_distance": 2.0258654334014916
    },
    "planner": "LazyPRMstar",
    "start": {
        "state": {
            "elbow_joint": 1.971548259319323,
            "shoulder_lift_joint": -1.1394851275133948,
            "shoulder_pan_joint": 0.1228115487234821,
            "wrist_1_joint": -0.7804723859257726,
            "wrist_2_joint": 0.12958671773740124,
            "wrist_3_joint": -3.192489227718131
        }
    },
    "waypoints": [
        {
            "positions": [
                0.1228115487234821,
                -1.1394851275133948,
                1.971548259319323,
                -0.7804723859257726,
                0.12958671773740124,
                -3.192489227718131
            ]
        },
        {
            "positions": [
                0.05681557718934112,
                -1.1729807523926996,
                2.035754689144994,
                -0.8142467491475133,
                0.2867570375763013,
                -3.178916894016787
            ]
        },
        {
            "positions": [
                -0.009180394344799864,
                -1.2064763772720044,
                2.099961118970665,
                -0.848021112369254,
                0.4439273574152013,
                -3.165344560315443
            ]
        },
        {
            "positions": [
                -0.07517636587894083,
                -1.2399720021513092,
                2.164167548796336,
                -0.8817954755909947,
                0.6010976772541013,
                -3.151772226614099
            ]
        },
        {
            "positions": [
                -0.14117233741308183,
                -1.2734676270306142,
                2.228373978622007,
                -0.9155698388127355,
                0.7582679970930014,
                -3.138199892912755
            ]
        },
        {
            "positions": [
                -0.20716830894722282,
                -1.306963251909919,
                2.2925804084476775,
                -0.9493442020344761,
                0.9154383169319015,
                -3.1246275592114108
            ]
        },
        {
            "positions": [
                -0.27316428048136376,
                -1.3404588767892238,
                2.3567868382733486,
                -0.9831185652562169,
                1.0726086367708014,
                -3.111055225510067
            ]
        },
        {
            "positions": [
                -0.33916025201550476,
                -1.3739545016685286,
                2.4209932680990196,
                -1.0168929284779575,
                1.2297789566097015,
                -3.0974828918087227
            ]
        }
    ]
}{
    "goal": {
        "global_pose": {
            "orientation": {
                "w": 0.5084816217422485,
                "x": -0.49083608388900757,
                "y": 0.5182115435600281,
                "z": -0.4816462993621826
            },
            "position": {
                "x": 0.5540239810943604,
                "y": 0.030875300988554955,
                "z": 0.16403168439865112
            }
        },
        "name": "move_to_storage_A"
    },
    "id": "LazyPRMstar_move_to_storage_A_27",
    "joint_names": [
        "shoulder_pan_joint",
        "shoulder_lift_joint",
        "elbow_joint",
        "wrist_1_joint",
        "wrist_2_joint",
        "wrist_3_joint"
    ],
    "metrics": {
        "cart_traj_len": 0.35290574107953004,
        "distance_elbow_joint": 0.4502647012789285,
        "distance_shoulder_lift_joint": 0.23219618281792664,
        "distance_shoulder_pan_joint": 0.45859534941904456,
        "distance_wrist_1_joint": 0.25059864495751194,
        "distance_wrist_2_joint": 1.1095534393270035,
        "distance_wrist_3_joint": 0.08952161355768773,
        "smoothness": 4.440892098500626e-16,
        "time": 5.000076532,
        "traj_len": 1.6095744566058767,
        "weighted_distance": 2.0322217503899505
    },
    "planner": "LazyPRMstar",
    "start": {
        "state": {
            "elbow_joint": 1.97154746011099,
            "shoulder_lift_joint": -1.13948474672311,
            "shoulder_pan_joint": 0.12281154466712228,
            "wrist_1_joint": -0.7804688027058302,
            "wrist_2_joint": 0.12958655903071145,
            "wrist_3_joint": 3.0906928834467795
        }
    },
    "waypoints": [
        {
            "positions": [
                0.12281154466712228,
                -1.13948474672311,
                1.97154746011099,
                -0.7804688027058302,
                0.12958655903071145,
                3.0906928834467795
            ]
        },
        {
            "positions": [
                0.057297923321544486,
                -1.1726556299828137,
                2.0358709888651227,
                -0.8162686091283319,
                0.2880941932202834,
                3.103481685383592
            ]
        },
        {
            "positions": [
                -0.00821569802403331,
                -1.2058265132425177,
                2.100194517619255,
                -0.8520684155508336,
                0.4466018274098553,
                3.1162704873204046
            ]
        },
        {
            "positions": [
                -0.0737293193696111,
                -1.2389973965022214,
                2.164518046373388,
                -0.8878682219733353,
                0.6051094615994272,
                3.129059289257217
            ]
        },
        {
            "positions": [
                -0.1392429407151889,
                -1.2721682797619251,
                2.2288415751275203,
                -0.923668028395837,
                0.7636170957889992,
                3.1418480911940296
            ]
        },
        {
            "positions": [
                -0.2047565620607667,
                -1.3053391630216291,
                2.293165103881653,
                -0.9594678348183387,
                0.9221247299785711,
                3.154636893130842
            ]
        },
        {
            "positions": [
                -0.27027018340634446,
                -1.3385100462813329,
                2.3574886326357856,
                -0.9952676412408404,
                1.080632364168143,
                3.1674256950676547
            ]
        },
        {
            "positions": [
                -0.33578380475192227,
                -1.3716809295410366,
                2.4218121613899184,
                -1.0310674476633421,
                1.239139998357715,
                3.1802144970044672
            ]
        }
    ]
}{
    "goal": {
        "global_pose": {
            "orientation": {
                "w": 0.5084816217422485,
                "x": -0.49083608388900757,
                "y": 0.5182115435600281,
                "z": -0.4816462993621826
            },
            "position": {
                "x": 0.5540239810943604,
                "y": 0.030875300988554955,
                "z": 0.16403168439865112
            }
        },
        "name": "move_to_storage_A"
    },
    "id": "LazyPRMstar_move_to_storage_A_27",
    "joint_names": [
        "shoulder_pan_joint",
        "shoulder_lift_joint",
        "elbow_joint",
        "wrist_1_joint",
        "wrist_2_joint",
        "wrist_3_joint"
    ],
    "metrics": {
        "cart_traj_len": 0.35249201898360816,
        "distance_elbow_joint": 0.45427689049945386,
        "distance_shoulder_lift_joint": 0.2333613929226377,
        "distance_shoulder_pan_joint": 0.46129664150174016,
        "distance_wrist_1_joint": 0.2605663423916562,
        "distance_wrist_2_joint": 1.09626727629682,
        "distance_wrist_3_joint": 0.0925238248384006,
        "smoothness": 0.0,
        "time": 5.001140059,
        "traj_len": 1.6119219486224228,
        "weighted_distance": 2.034741663409875
    },
    "planner": "LazyPRMstar",
    "start": {
        "state": {
            "elbow_joint": 1.9715472970024885,
            "shoulder_lift_joint": -1.1394870060712896,
            "shoulder_pan_joint": 0.12281152778156021,
            "wrist_1_joint": -0.780463741449964,
            "wrist_2_joint": 0.12958659822042276,
            "wrist_3_joint": 3.090690232415272
        }
    },
    "waypoints": [
        {
            "positions": [
                0.12281152778156021,
                -1.1394870060712896,
                1.9715472970024885,
                -0.780463741449964,
                0.12958659822042276,
                3.090690232415272
            ]
        },
        {
            "positions": [
                0.05691200756702591,
                -1.1728243479173808,
                2.036443995645268,
                -0.817687504648772,
                0.28619620911996846,
                3.1039079216779006
            ]
        },
        {
            "positions": [
                -0.008987512647508383,
                -1.2061616897634717,
                2.1013406942880466,
                -0.8549112678475801,
                0.4428058200195142,
                3.117125610940529
            ]
        },
        {
            "positions": [
                -0.07488703286204268,
                -1.2394990316095629,
                2.166237392930826,
                -0.892135031046388,
                0.5994154309190599,
                3.1303433002031578
            ]
        },
        {
            "positions": [
                -0.14078655307657698,
                -1.272836373455654,
                2.231134091573605,
                -0.9293587942451961,
                0.7560250418186055,
                3.1435609894657865
            ]
        },
        {
            "positions": [
                -0.2066860732911113,
                -1.3061737153017452,
                2.2960307902163843,
                -0.9665825574440041,
                0.9126346527181513,
                3.1567786787284153
            ]
        },
        {
            "positions": [
                -0.2725855935056456,
                -1.3395110571478361,
                2.360927488859163,
                -1.0038063206428123,
                1.069244263617697,
                3.1699963679910437
            ]
        },
        {
            "positions": [
                -0.3384851137201799,
                -1.3728483989939273,
                2.4258241875019424,
                -1.0410300838416202,
                1.2258538745172427,
                3.1832140572536725
            ]
        }
    ]
}