{
    "goal": {
        "global_pose": {
            "orientation": {
                "w": -0.00223480608172531,
                "x": 0.0024358444001904467,
                "y": 0.7094548369677653,
                "z": -0.704743149386269
            },
            "position": {
                "x": 0.6205249238014221,
                "y": -0.6371506643295288,
                "z": 0.19426114857196808
            }
        },
        "name": "move_to_magneteinheit_B"
    },
    "id": "LazyPRMstar_move_to_magneteinheit_B_85",
    "joint_names": [
        "shoulder_pan_joint",
        "shoulder_lift_joint",
        "elbow_joint",
        "wrist_1_joint",
        "wrist_2_joint",
        "wrist_3_joint"
    ],
    "metrics": {
        "cart_traj_len": 1.4024852662200142,
        "distance_elbow_joint": 0.9600646368605372,
        "distance_shoulder_lift_joint": 0.7578170803155917,
        "distance_shoulder_pan_joint": 1.6195452216933264,
        "distance_wrist_1_joint": 0.5383586687579012,
        "distance_wrist_2_joint": 2.767205167453345,
        "distance_wrist_3_joint": 0.5887956588660976,
        "smoothness": 0.718973368436357,
        "time": 5.017664656,
        "traj_len": 2.6891981023990774,
        "weighted_distance": 3.4227096850142344
    },
    "planner": "LazyPRMstar",
    "start": {
        "state": {
            "elbow_joint": 2.6216224122426386,
            "shoulder_lift_joint": -1.4174107377796124,
            "shoulder_pan_joint": 0.7066234856936794,
            "wrist_1_joint": 1.9546482284002225,
            "wrist_2_joint": -0.7096286983471962,
            "wrist_3_joint": 0.005740856962016249
        }
    },
    "waypoints": [
        {
            "positions": [
                0.7066234856936794,
                -1.4174107377796124,
                2.6216224122426386,
                1.9546482284002225,
                -0.7096286983471962,
                0.005740856962016249
            ]
        },
        {
            "positions": [
                0.5709376747868105,
                -1.402278841728049,
                2.6055318129635396,
                1.92579628991049,
                -0.6066156871138717,
                -0.04284825224136711
            ]
        },
        {
            "positions": [
                0.4352518638799416,
                -1.3871469456764858,
                2.5894412136844402,
                1.8969443514207573,
                -0.5036026758805472,
                -0.09143736144475047
            ]
        },
        {
            "positions": [
                0.29956605297307265,
                -1.3720150496249226,
                2.5733506144053413,
                1.8680924129310248,
                -0.40058966464722257,
                -0.1400264706481338
            ]
        },
        {
            "positions": [
                0.16388024206620377,
                -1.3568831535733592,
                2.5572600151262423,
                1.8392404744412922,
                -0.29757665341389805,
                -0.18861557985151717
            ]
        },
        {
            "positions": [
                0.028194431159334843,
                -1.3417512575217958,
                2.541169415847143,
                1.8103885359515597,
                -0.19456364218057343,
                -0.23720468905490052
            ]
        },
        {
            "positions": [
                -0.10749137974753406,
                -1.3266193614702326,
                2.525078816568044,
                1.7815365974618271,
                -0.09155063094724897,
                -0.2857937982582839
            ]
        },
        {
            "positions": [
                -0.16944756099769656,
                -1.2753096919312932,
                2.458654121092202,
                1.809632523447943,
                -0.25686810018212575,
                -0.26292756720860716
            ]
        },
        {
            "positions": [
                -0.23140374224785906,
                -1.224000022392354,
                2.3922294256163603,
                1.8377284494340589,
                -0.4221855694170025,
                -0.2400613361589304
            ]
        },
        {
            "positions": [
                -0.29335992349802154,
                -1.1726903528534145,
                2.325804730140519,
                1.8658243754201747,
                -0.5875030386518794,
                -0.21719510510925366
            ]
        },
        {
            "positions": [
                -0.3553161047481841,
                -1.121380683314475,
                2.259380034664677,
                1.8939203014062904,
                -0.752820507886756,
                -0.19432887405957694
            ]
        },
        {
            "positions": [
                -0.41727228599834654,
                -1.0700710137755358,
                2.1929553391888352,
                1.9220162273924064,
                -0.9181379771216329,
                -0.17146264300990022
            ]
        },
        {
            "positions": [
                -0.4792284672485091,
                -1.0187613442365964,
                2.1265306437129934,
                1.9501121533785222,
                -1.0834554463565096,
                -0.14859641196022347
            ]
        },
        {
            "positions": [
                -0.5411846484986715,
                -0.9674516746976569,
                2.060105948237152,
                1.978208079364638,
                -1.2487729155913863,
                -0.12573018091054675
            ]
        },
        {
            "positions": [
                -0.6031408297488341,
                -0.9161420051587175,
                1.9936812527613101,
                2.0063040053507537,
                -1.4140903848262631,
                -0.10286394986087
            ]
        },
        {
            "positions": [
                -0.6650970109989965,
                -0.8648323356197782,
                1.9272565572854683,
                2.0343999313368695,
                -1.5794078540611398,
                -0.07999771881119327
            ]
        },
        {
            "positions": [
                -0.7270531922491591,
                -0.8135226660808388,
                1.8608318618096265,
                2.0624958573229857,
                -1.7447253232960167,
                -0.057131487761516525
            ]
        },
        {
            "positions": [
                -0.7890093734993215,
                -0.7622129965418994,
                1.7944071663337848,
                2.0905917833091014,
                -1.9100427925308934,
                -0.03426525671183983
            ]
        },
        {
            "positions": [
                -0.8509655547494841,
                -0.71090332700296,
                1.7279824708579432,
                2.118687709295217,
                -2.0753602617657703,
                -0.011399025662163054
            ]
        },
        {
            "positions": [
                -0.9129217359996465,
                -0.6595936574640207,
                1.6615577753821014,
                2.146783635281333,
                -2.240677731000647,
                0.011467205387513687
            ]
        }
    ]
}