{
    "goal": {
        "global_pose": {
            "orientation": {
                "w": 0.7047431468963623,
                "x": -0.7094548344612122,
                "y": 0.0024358443915843964,
                "z": -0.0022348060738295317
            },
            "position": {
                "x": 0.6094750761985779,
                "y": 0.3671506643295288,
                "z": 0.19426114857196808
            }
        },
        "name": "move_to_magneteinheit_A"
    },
    "id": "LazyPRM_move_to_magneteinheit_A_28",
    "joint_names": [
        "shoulder_pan_joint",
        "shoulder_lift_joint",
        "elbow_joint",
        "wrist_1_joint",
        "wrist_2_joint",
        "wrist_3_joint"
    ],
    "metrics": {
        "cart_traj_len": 3.873491632554517,
        "distance_elbow_joint": 3.9052056059917675,
        "distance_shoulder_lift_joint": 0.939515061429379,
        "distance_shoulder_pan_joint": 5.0661759577194525,
        "distance_wrist_1_joint": 3.450392656351341,
        "distance_wrist_2_joint": 1.909995153329634,
        "distance_wrist_3_joint": 4.164751375954611,
        "smoothness": 0.24233172514096957,
        "time": 0.158867311,
        "traj_len": 4.4086319659023685,
        "weighted_distance": 5.755512694136499
    },
    "planner": "LazyPRM",
    "start": {
        "state": {
            "elbow_joint": -1.9196185241190666,
            "shoulder_lift_joint": -1.2443396400964142,
            "shoulder_pan_joint": 2.6996025414629847,
            "wrist_1_joint": -1.5485510000780065,
            "wrist_2_joint": -1.5709468930060704,
            "wrist_3_joint": 0.4420197071253992
        }
    },
    "waypoints": [
        {
            "positions": [
                2.6996025414629847,
                -1.2443396400964142,
                -1.9196185241190666,
                -1.5485510000780065,
                -1.5709468930060704,
                0.4420197071253992
            ]
        },
        {
            "positions": [
                2.5580514199081428,
                -1.2182276125502285,
                -1.9000084919407514,
                -1.4804444426097179,
                -1.5086942241929444,
                0.5115920651449819
            ]
        },
        {
            "positions": [
                2.4165002983533013,
                -1.1921155850040428,
                -1.8803984597624361,
                -1.4123378851414292,
                -1.4464415553798184,
                0.5811644231645645
            ]
        },
        {
            "positions": [
                2.2749491767984593,
                -1.166003557457857,
                -1.8607884275841209,
                -1.3442313276731406,
                -1.3841888865666925,
                0.6507367811841472
            ]
        },
        {
            "positions": [
                2.1333980552436174,
                -1.1398915299116714,
                -1.8411783954058056,
                -1.2761247702048517,
                -1.3219362177535665,
                0.72030913920373
            ]
        },
        {
            "positions": [
                1.9918469336887756,
                -1.1137795023654857,
                -1.8215683632274904,
                -1.208018212736563,
                -1.2596835489404405,
                0.7898814972233126
            ]
        },
        {
            "positions": [
                1.850295812133934,
                -1.0876674748193,
                -1.8019583310491751,
                -1.1399116552682744,
                -1.1974308801273144,
                0.8594538552428953
            ]
        },
        {
            "positions": [
                1.708744690579092,
                -1.0615554472731143,
                -1.7823482988708599,
                -1.0718050977999858,
                -1.1351782113141884,
                0.929026213262478
            ]
        },
        {
            "positions": [
                1.56719356902425,
                -1.0354434197269287,
                -1.7627382666925446,
                -1.0036985403316971,
                -1.0729255425010624,
                0.9985985712820606
            ]
        },
        {
            "positions": [
                1.4256424474694083,
                -1.0093313921807427,
                -1.7431282345142294,
                -0.9355919828634085,
                -1.0106728736879365,
                1.0681709293016435
            ]
        },
        {
            "positions": [
                1.2840913259145665,
                -0.9832193646345571,
                -1.7235182023359141,
                -0.8674854253951197,
                -0.9484202048748105,
                1.1377432873212259
            ]
        },
        {
            "positions": [
                1.1425402043597246,
                -0.9571073370883714,
                -1.7039081701575989,
                -0.7993788679268311,
                -0.8861675360616845,
                1.2073156453408087
            ]
        },
        {
            "positions": [
                1.0009890828048829,
                -0.9309953095421857,
                -1.6842981379792836,
                -0.7312723104585425,
                -0.8239148672485586,
                1.2768880033603915
            ]
        },
        {
            "positions": [
                0.8594379612500409,
                -0.904883281996,
                -1.6646881058009684,
                -0.6631657529902538,
                -0.7616621984354326,
                1.346460361379974
            ]
        },
        {
            "positions": [
                0.7178868396951992,
                -0.8787712544498143,
                -1.6450780736226531,
                -0.5950591955219651,
                -0.6994095296223065,
                1.4160327193995568
            ]
        },
        {
            "positions": [
                0.5763357181403572,
                -0.8526592269036286,
                -1.6254680414443379,
                -0.5269526380536764,
                -0.6371568608091804,
                1.4856050774191396
            ]
        },
        {
            "positions": [
                0.43478459658551527,
                -0.8265471993574429,
                -1.6058580092660228,
                -0.4588460805853878,
                -0.5749041919960546,
                1.555177435438722
            ]
        },
        {
            "positions": [
                0.2932334750306733,
                -0.8004351718112572,
                -1.5862479770877074,
                -0.3907395231170989,
                -0.5126515231829285,
                1.6247497934583048
            ]
        },
        {
            "positions": [
                0.1516823534758318,
                -0.7743231442650715,
                -1.5666379449093923,
                -0.3226329656488105,
                -0.45039885436980254,
                1.6943221514778877
            ]
        },
        {
            "positions": [
                0.010131231920989858,
                -0.7482111167188857,
                -1.547027912731077,
                -0.25452640818052163,
                -0.38814618555667657,
                1.76389450949747
            ]
        },
        {
            "positions": [
                -0.13141988963385165,
                -0.7220990891727,
                -1.5274178805527618,
                -0.186419850712233,
                -0.3258935167435506,
                1.833466867517053
            ]
        },
        {
            "positions": [
                -0.27297101118869405,
                -0.6959870616265144,
                -1.5078078483744466,
                -0.11831329324394435,
                -0.26364084793042464,
                1.9030392255366357
            ]
        },
        {
            "positions": [
                -0.41452213274353555,
                -0.6698750340803287,
                -1.4881978161961313,
                -0.05020673577565571,
                -0.20138817911729867,
                1.9726115835562181
            ]
        },
        {
            "positions": [
                -0.5560732542983775,
                -0.643763006534143,
                -1.468587784017816,
                0.017899821692632933,
                -0.13913551030417248,
                2.042183941575801
            ]
        },
        {
            "positions": [
                -0.697624375853219,
                -0.6176509789879573,
                -1.4489777518395008,
                0.08600637916092158,
                -0.07688284149104674,
                2.111756299595384
            ]
        },
        {
            "positions": [
                -0.8391754974080614,
                -0.5915389514417715,
                -1.4293677196611856,
                0.15411293662921044,
                -0.01463017267792055,
                2.181328657614966
            ]
        },
        {
            "positions": [
                -0.9807266189629029,
                -0.5654269238955858,
                -1.4097576874828703,
                0.22221949409749886,
                0.047622496135205195,
                2.250901015634549
            ]
        },
        {
            "positions": [
                -1.1222777405177446,
                -0.5393148963494001,
                -1.390147655304555,
                0.2903260515657877,
                0.10987516494833144,
                2.320473373654132
            ]
        },
        {
            "positions": [
                -1.0694306783585366,
                -0.5491314336991582,
                -1.2465133334020546,
                0.3599158721297894,
                0.10001536528042043,
                2.2224311055829
            ]
        },
        {
            "positions": [
                -1.0165836161993282,
                -0.5589479710489162,
                -1.1028790114995544,
                0.42950569269379113,
                0.09015556561250941,
                2.124388837511668
            ]
        },
        {
            "positions": [
                -0.9637365540401202,
                -0.5687645083986743,
                -0.9592446895970539,
                0.4990955132577928,
                0.0802957659445984,
                2.0263465694404363
            ]
        },
        {
            "positions": [
                -0.9108894918809121,
                -0.5785810457484324,
                -0.8156103676945534,
                0.5686853338217945,
                0.07043596627668738,
                1.9283043013692047
            ]
        },
        {
            "positions": [
                -0.8580424297217039,
                -0.5883975830981905,
                -0.671976045792053,
                0.6382751543857962,
                0.06057616660877638,
                1.8302620332979729
            ]
        },
        {
            "positions": [
                -0.8051953675624957,
                -0.5982141204479484,
                -0.5283417238895526,
                0.7078649749497978,
                0.050716366940865364,
                1.7322197652267413
            ]
        },
        {
            "positions": [
                -0.7523483054032876,
                -0.6080306577977065,
                -0.384707401987052,
                0.7774547955137996,
                0.04085656727295435,
                1.6341774971555094
            ]
        },
        {
            "positions": [
                -0.6995012432440794,
                -0.6178471951474646,
                -0.24107308008455175,
                0.8470446160778012,
                0.030996767605043343,
                1.5361352290842776
            ]
        },
        {
            "positions": [
                -0.6466541810848712,
                -0.6276637324972226,
                -0.09743875818205128,
                0.916634436641803,
                0.021136967937132323,
                1.4380929610130457
            ]
        },
        {
            "positions": [
                -0.5938071189256631,
                -0.6374802698469807,
                0.046195563720449195,
                0.9862242572058046,
                0.011277168269221316,
                1.340050692941814
            ]
        },
        {
            "positions": [
                -0.5409600567664549,
                -0.6472968071967388,
                0.18982988562294967,
                1.0558140777698064,
                0.0014173686013102954,
                1.2420084248705823
            ]
        },
        {
            "positions": [
                -0.4881129946072468,
                -0.6571133445464968,
                0.3334642075254499,
                1.125403898333808,
                -0.008442431066600711,
                1.1439661567993504
            ]
        },
        {
            "positions": [
                -0.4352659324480387,
                -0.6669298818962549,
                0.4770985294279504,
                1.1949937188978095,
                -0.018302230734511704,
                1.0459238887281188
            ]
        },
        {
            "positions": [
                -0.38241887028883037,
                -0.676746419246013,
                0.6207328513304511,
                1.2645835394618115,
                -0.02816203040242274,
                0.9478816206568867
            ]
        },
        {
            "positions": [
                -0.3295718081296223,
                -0.686562956595771,
                0.7643671732329513,
                1.3341733600258132,
                -0.038021830070333745,
                0.8498393525856551
            ]
        },
        {
            "positions": [
                -0.2767247459704141,
                -0.696379493945529,
                0.9080014951354516,
                1.4037631805898148,
                -0.04788162973824475,
                0.7517970845144233
            ]
        },
        {
            "positions": [
                -0.22387768381120599,
                -0.7061960312952871,
                1.0516358170379518,
                1.4733530011538163,
                -0.05774142940615576,
                0.6537548164431917
            ]
        },
        {
            "positions": [
                -0.17103062165199778,
                -0.7160125686450451,
                1.1952701389404525,
                1.5429428217178183,
                -0.0676012290740668,
                0.5557125483719596
            ]
        },
        {
            "positions": [
                -0.11818355949278958,
                -0.7258291059948032,
                1.3389044608429528,
                1.6125326422818198,
                -0.0774610287419778,
                0.457670280300728
            ]
        },
        {
            "positions": [
                -0.06533649733358149,
                -0.7356456433445613,
                1.4825387827454535,
                1.6821224628458216,
                -0.0873208284098888,
                0.35962801222949614
            ]
        },
        {
            "positions": [
                -0.012489435174373398,
                -0.7454621806943194,
                1.6261731046479537,
                1.751712283409823,
                -0.09718062807779981,
                0.2615857441582645
            ]
        },
        {
            "positions": [
                0.040357626984834916,
                -0.7552787180440774,
                1.7698074265504544,
                1.821302103973825,
                -0.10704042774571085,
                0.16354347608703268
            ]
        },
        {
            "positions": [
                0.09320468914404291,
                -0.7650952553938355,
                1.913441748452955,
                1.8908919245378266,
                -0.11690022741362185,
                0.06550120801580067
            ]
        },
        {
            "positions": [
                0.12201793522097476,
                -0.773805214031765,
                1.985587081872701,
                1.9018416562733336,
                -0.11929793042689964,
                0.03417566422825452
            ]
        }
    ]
}