{
    "goal": {
        "global_pose": {
            "orientation": {
                "w": 0.7031023502349854,
                "x": -0.7110244035720825,
                "y": 0.007748599164187908,
                "z": 0.005598929710686207
            },
            "position": {
                "x": 0.11585023208521307,
                "y": 0.44412534475326537,
                "z": 0.3711530566215515
            }
        },
        "name": "move_to_auspresseinheit_A"
    },
    "id": "LazyPRM_move_to_auspresseinheit_A_13",
    "joint_names": [
        "shoulder_pan_joint",
        "shoulder_lift_joint",
        "elbow_joint",
        "wrist_1_joint",
        "wrist_2_joint",
        "wrist_3_joint"
    ],
    "metrics": {
        "cart_traj_len": 0.7135036297311511,
        "distance_elbow_joint": 0.028733517250584484,
        "distance_shoulder_lift_joint": 0.7537208743131474,
        "distance_shoulder_pan_joint": 1.0455738959303122,
        "distance_wrist_1_joint": 1.7539519792078426,
        "distance_wrist_2_joint": 0.6169974794035183,
        "distance_wrist_3_joint": 0.09211185822628565,
        "smoothness": 1.3994026213120665,
        "time": 0.057000857,
        "traj_len": 2.0714945339854727,
        "weighted_distance": 2.6165364089566236
    },
    "planner": "LazyPRM",
    "start": {
        "state": {
            "elbow_joint": 2.4225746658250005,
            "shoulder_lift_joint": -1.3736534386056498,
            "shoulder_pan_joint": -0.3378633547517467,
            "wrist_1_joint": -1.0288598680537169,
            "wrist_2_joint": 1.233022673432363,
            "wrist_3_joint": -3.0940220416140027
        }
    },
    "waypoints": [
        {
            "positions": [
                -0.3378633547517467,
                -1.3736534386056498,
                2.4225746658250005,
                -1.0288598680537169,
                1.233022673432363,
                -3.0940220416140027
            ]
        },
        {
            "positions": [
                -0.24789725546831215,
                -1.445339864882455,
                2.4194467096945873,
                -0.900779535455864,
                1.1699254696529895,
                -3.090896497426579
            ]
        },
        {
            "positions": [
                -0.15793115618487755,
                -1.51702629115926,
                2.416318753564174,
                -0.7726992028580111,
                1.106828265873616,
                -3.087770953239155
            ]
        },
        {
            "positions": [
                -0.06796505690144294,
                -1.5887127174360651,
                2.413190797433761,
                -0.6446188702601581,
                1.0437310620942424,
                -3.084645409051731
            ]
        },
        {
            "positions": [
                0.02200104238199163,
                -1.6603991437128702,
                2.410062841303348,
                -0.5165385376623052,
                0.9806338583148687,
                -3.081519864864307
            ]
        },
        {
            "positions": [
                0.11196714166542632,
                -1.7320855699896756,
                2.406934885172935,
                -0.38845820506445217,
                0.917536654535495,
                -3.078394320676883
            ]
        },
        {
            "positions": [
                0.20193324094886084,
                -1.8037719962664807,
                2.403806929042522,
                -0.26037787246659927,
                0.8544394507561215,
                -3.0752687764894593
            ]
        },
        {
            "positions": [
                0.2918993402322955,
                -1.8754584225432858,
                2.4006789729121087,
                -0.13229753986874637,
                0.7913422469767479,
                -3.072143232302035
            ]
        },
        {
            "positions": [
                0.38186543951573,
                -1.9471448488200909,
                2.3975510167816956,
                -0.004217207270893475,
                0.7282450431973744,
                -3.069017688114611
            ]
        },
        {
            "positions": [
                0.47183153879916473,
                -2.018831275096896,
                2.3944230606512824,
                0.12386312532695948,
                0.6651478394180007,
                -3.0658921439271873
            ]
        },
        {
            "positions": [
                0.5504578729256316,
                -1.9826502624895956,
                2.394617031343571,
                -0.07654653661542926,
                0.6815220545477194,
                -3.0872194641070108
            ]
        },
        {
            "positions": [
                0.6290842070520986,
                -1.946469249882295,
                2.39481100203586,
                -0.276956198557818,
                0.697896269677438,
                -3.108546784286834
            ]
        },
        {
            "positions": [
                0.7077105411785656,
                -1.9102882372749947,
                2.395004972728149,
                -0.47736586050020674,
                0.7142704848071567,
                -3.1298741044666576
            ]
        }
    ]
}