{
    "goal": {
        "global_pose": {
            "orientation": {
                "w": -0.4816463035849501,
                "x": 0.5182115481033762,
                "y": 0.4908360881923453,
                "z": -0.5084816262002911
            },
            "position": {
                "x": -0.8240239810943604,
                "y": -0.300875300988555,
                "z": 0.16403168439865112
            }
        },
        "name": "move_to_storage_C"
    },
    "id": "LazyPRM_move_to_storage_C_76",
    "joint_names": [
        "shoulder_pan_joint",
        "shoulder_lift_joint",
        "elbow_joint",
        "wrist_1_joint",
        "wrist_2_joint",
        "wrist_3_joint"
    ],
    "metrics": {
        "cart_traj_len": 0.5769335972687397,
        "distance_elbow_joint": 0.2564816573978732,
        "distance_shoulder_lift_joint": 0.18848276626846738,
        "distance_shoulder_pan_joint": 0.49391926504503436,
        "distance_wrist_1_joint": 0.07034302930201097,
        "distance_wrist_2_joint": 1.0772030680906708,
        "distance_wrist_3_joint": 0.06716208489011777,
        "smoothness": 0.0,
        "time": 0.011767340999999999,
        "traj_len": 1.4675121365747454,
        "weighted_distance": 1.853499969831964
    },
    "planner": "LazyPRM",
    "start": {
        "state": {
            "elbow_joint": 2.010868314990456,
            "shoulder_lift_joint": -1.1634956873337592,
            "shoulder_pan_joint": -2.4736205022346125,
            "wrist_1_joint": -0.8367026794202681,
            "wrist_2_joint": 0.6746043897044499,
            "wrist_3_joint": -3.1496632123970403
        }
    },
    "waypoints": [
        {
            "positions": [
                -2.4736205022346125,
                -1.1634956873337592,
                2.010868314990456,
                -0.8367026794202681,
                0.6746043897044499,
                -3.1496632123970403
            ]
        },
        {
            "positions": [
                -2.5559403797421183,
                -1.1320818929556813,
                1.9681213720908102,
                -0.8249788412032663,
                0.8541382343862284,
                -3.138469531582021
            ]
        },
        {
            "positions": [
                -2.638260257249624,
                -1.1006680985776034,
                1.9253744291911647,
                -0.8132550029862644,
                1.033672079068007,
                -3.127275850767001
            ]
        },
        {
            "positions": [
                -2.72058013475713,
                -1.0692543041995255,
                1.8826274862915193,
                -0.8015311647692627,
                1.2132059237497854,
                -3.1160821699519814
            ]
        },
        {
            "positions": [
                -2.8029000122646353,
                -1.0378405098214476,
                1.8398805433918737,
                -0.7898073265522608,
                1.3927397684315639,
                -3.104888489136962
            ]
        },
        {
            "positions": [
                -2.885219889772141,
                -1.0064267154433697,
                1.797133600492228,
                -0.778083488335259,
                1.5722736131133423,
                -3.093694808321942
            ]
        },
        {
            "positions": [
                -2.967539767279647,
                -0.9750129210652918,
                1.7543866575925826,
                -0.7663596501182571,
                1.7518074577951206,
                -3.0825011275069225
            ]
        }
    ]
}