{
    "goal": {
        "global_pose": {
            "orientation": {
                "w": 0.005598929693374612,
                "x": 0.007748599140229565,
                "y": 0.7110244013736278,
                "z": -0.7031023480610252
            },
            "position": {
                "x": 0.1141497679147869,
                "y": -0.7141253447532654,
                "z": 0.3711530566215515
            }
        },
        "name": "move_to_auspresseinheit_B"
    },
    "id": "LazyPRM_move_to_auspresseinheit_B_79",
    "joint_names": [
        "shoulder_pan_joint",
        "shoulder_lift_joint",
        "elbow_joint",
        "wrist_1_joint",
        "wrist_2_joint",
        "wrist_3_joint"
    ],
    "metrics": {
        "cart_traj_len": 0.5640773739440315,
        "distance_elbow_joint": 0.0640618354434439,
        "distance_shoulder_lift_joint": 0.2955354449239165,
        "distance_shoulder_pan_joint": 0.5772434958773203,
        "distance_wrist_1_joint": 0.33595921632997594,
        "distance_wrist_2_joint": 0.9888085691033786,
        "distance_wrist_3_joint": 0.003390803261291264,
        "smoothness": 5.075305255429287e-16,
        "time": 0.01188821,
        "traj_len": 1.5049914833444495,
        "weighted_distance": 1.89645689560698
    },
    "planner": "LazyPRM",
    "start": {
        "state": {
            "elbow_joint": 2.0193083361928714,
            "shoulder_lift_joint": -1.1220246554650708,
            "shoulder_pan_joint": -1.0952077554168747,
            "wrist_1_joint": -0.8559753972642168,
            "wrist_2_joint": 0.4759566250798843,
            "wrist_3_joint": -3.1240929996934557
        }
    },
    "waypoints": [
        {
            "positions": [
                -1.0952077554168747,
                -1.1220246554650708,
                2.0193083361928714,
                -0.8559753972642168,
                0.4759566250798843,
                -3.1240929996934557
            ]
        },
        {
            "positions": [
                -1.1914150047297614,
                -1.1712805629523901,
                2.008631363618964,
                -0.7999821945425541,
                0.6407580532637807,
                -3.1235278658165737
            ]
        },
        {
            "positions": [
                -1.287622254042648,
                -1.2205364704397097,
                1.9979543910450568,
                -0.7439889918208915,
                0.8055594814476772,
                -3.1229627319396918
            ]
        },
        {
            "positions": [
                -1.3838295033555348,
                -1.269792377927029,
                1.9872774184711495,
                -0.6879957890992288,
                0.9703609096315735,
                -3.1223975980628103
            ]
        },
        {
            "positions": [
                -1.4800367526684215,
                -1.3190482854143484,
                1.9766004458972422,
                -0.6320025863775662,
                1.13516233781547,
                -3.1218324641859283
            ]
        },
        {
            "positions": [
                -1.5762440019813082,
                -1.368304192901668,
                1.9659234733233348,
                -0.5760093836559035,
                1.2999637659993664,
                -3.1212673303090464
            ]
        },
        {
            "positions": [
                -1.672451251294195,
                -1.4175601003889873,
                1.9552465007494275,
                -0.5200161809342408,
                1.464765194183263,
                -3.1207021964321644
            ]
        }
    ]
}