{
    "goal": {
        "global_pose": {
            "orientation": {
                "w": 0.7047431493862688,
                "x": -0.7094548369677653,
                "y": 0.0024358444001904,
                "z": -0.0022348060817251984
            },
            "position": {
                "x": -0.39052492380142206,
                "y": 0.3671506643295288,
                "z": 0.19426114857196808
            }
        },
        "name": "move_to_magneteinheit_D"
    },
    "id": "LazyPRMstar_move_to_magneteinheit_D_117",
    "joint_names": [
        "shoulder_pan_joint",
        "shoulder_lift_joint",
        "elbow_joint",
        "wrist_1_joint",
        "wrist_2_joint",
        "wrist_3_joint"
    ],
    "metrics": {
        "cart_traj_len": 4.598065496823234,
        "distance_elbow_joint": 3.14047002787658,
        "distance_shoulder_lift_joint": 1.629373212875347,
        "distance_shoulder_pan_joint": 3.1380600434414356,
        "distance_wrist_1_joint": 1.5312655986398018,
        "distance_wrist_2_joint": 0.27266945079429805,
        "distance_wrist_3_joint": 3.2086896176323996,
        "smoothness": 0.12634652340051364,
        "time": 5.058757192,
        "traj_len": 3.5945135903568186,
        "weighted_distance": 4.598025906403612
    },
    "planner": "LazyPRMstar",
    "start": {
        "state": {
            "elbow_joint": 0.749534889911806,
            "shoulder_lift_joint": -0.6476975780787326,
            "shoulder_pan_joint": -2.711696901376241,
            "wrist_1_joint": -0.07506478083263063,
            "wrist_2_joint": 0.43296659715538205,
            "wrist_3_joint": -3.14703540197715
        }
    },
    "waypoints": [
        {
            "positions": [
                -2.711696901376241,
                -0.6476975780787326,
                0.749534889911806,
                -0.07506478083263063,
                0.43296659715538205,
                -3.14703540197715
            ]
        },
        {
            "positions": [
                -2.7371446067128815,
                -0.7500848953848984,
                0.6091904714706224,
                -0.03406490266758566,
                0.42473741749105215,
                -3.0716747327185896
            ]
        },
        {
            "positions": [
                -2.7250334117455095,
                -0.7770930111091654,
                0.5736794244950727,
                -0.02463755625007536,
                0.42435518886625645,
                -3.0503194312255246
            ]
        },
        {
            "positions": [
                -2.612214795987198,
                -0.8333332172392046,
                0.4933942460891416,
                0.019793803925176434,
                0.4157403584856699,
                -2.963492911815122
            ]
        },
        {
            "positions": [
                -2.499396180228887,
                -0.8895734233692438,
                0.4131090676832105,
                0.06422516410042822,
                0.4071255281050834,
                -2.876666392404719
            ]
        },
        {
            "positions": [
                -2.386577564470576,
                -0.945813629499283,
                0.33282388927727935,
                0.10865652427568004,
                0.3985106977244969,
                -2.7898398729943166
            ]
        },
        {
            "positions": [
                -2.2737589487122647,
                -1.0020538356293223,
                0.25253871087134827,
                0.15308788445093183,
                0.38989586734391035,
                -2.703013353583914
            ]
        },
        {
            "positions": [
                -2.1609403329539534,
                -1.0582940417593616,
                0.17225353246541714,
                0.19751924462618364,
                0.3812810369633238,
                -2.6161868341735115
            ]
        },
        {
            "positions": [
                -2.0481217171956425,
                -1.1145342478894007,
                0.09196835405948606,
                0.24195060480143543,
                0.3726662065827373,
                -2.5293603147631085
            ]
        },
        {
            "positions": [
                -1.935303101437331,
                -1.17077445401944,
                0.011683175653554922,
                0.2863819649766872,
                0.3640513762021508,
                -2.442533795352706
            ]
        },
        {
            "positions": [
                -1.8224844856790199,
                -1.2270146601494791,
                -0.06860200275237616,
                0.330813325151939,
                0.35543654582156425,
                -2.3557072759423034
            ]
        },
        {
            "positions": [
                -1.7096658699207086,
                -1.2832548662795185,
                -0.14888718115830724,
                0.3752446853271908,
                0.34682171544097773,
                -2.2688807565319005
            ]
        },
        {
            "positions": [
                -1.5968472541623975,
                -1.3394950724095578,
                -0.22917235956423843,
                0.41967604550244264,
                0.3382068850603912,
                -2.182054237121498
            ]
        },
        {
            "positions": [
                -1.4840286384040862,
                -1.395735278539597,
                -0.3094575379701695,
                0.4641074056776944,
                0.3295920546798047,
                -2.0952277177110954
            ]
        },
        {
            "positions": [
                -1.371210022645775,
                -1.451975484669636,
                -0.3897427163761006,
                0.5085387658529462,
                0.32097722429921816,
                -2.0084011983006924
            ]
        },
        {
            "positions": [
                -1.2583914068874638,
                -1.5082156907996755,
                -0.4700278947820318,
                0.552970126028198,
                0.31236239391863163,
                -1.92157467889029
            ]
        },
        {
            "positions": [
                -1.1455727911291524,
                -1.5644558969297147,
                -0.5503130731879629,
                0.5974014862034498,
                0.3037475635380451,
                -1.8347481594798873
            ]
        },
        {
            "positions": [
                -1.0327541753708414,
                -1.6206961030597538,
                -0.6305982515938939,
                0.6418328463787015,
                0.2951327331574586,
                -1.7479216400694848
            ]
        },
        {
            "positions": [
                -0.9199355596125303,
                -1.676936309189793,
                -0.710883429999825,
                0.6862642065539534,
                0.28651790277687206,
                -1.661095120659082
            ]
        },
        {
            "positions": [
                -0.807116943854219,
                -1.7331765153198324,
                -0.7911686084057561,
                0.7306955667292052,
                0.27790307239628553,
                -1.5742686012486793
            ]
        },
        {
            "positions": [
                -0.6942983280959076,
                -1.7894167214498715,
                -0.8714537868116872,
                0.775126926904457,
                0.269288242015699,
                -1.4874420818382768
            ]
        },
        {
            "positions": [
                -0.5814797123375968,
                -1.8456569275799108,
                -0.9517389652176182,
                0.8195582870797088,
                0.2606734116351125,
                -1.400615562427874
            ]
        },
        {
            "positions": [
                -0.46866109657928545,
                -1.90189713370995,
                -1.0320241436235496,
                0.8639896472549606,
                0.25205858125452596,
                -1.3137890430174712
            ]
        },
        {
            "positions": [
                -0.35584248082097414,
                -1.9581373398399893,
                -1.1123093220294804,
                0.9084210074302123,
                0.24344375087393944,
                -1.226962523607069
            ]
        },
        {
            "positions": [
                -0.24302386506266282,
                -2.0143775459700284,
                -1.1925945004354117,
                0.9528523676054641,
                0.2348289204933529,
                -1.1401360041966662
            ]
        },
        {
            "positions": [
                -0.1302052493043515,
                -2.070617752100068,
                -1.2728796788413428,
                0.9972837277807161,
                0.22621409011276639,
                -1.0533094847862634
            ]
        },
        {
            "positions": [
                -0.017386633546040642,
                -2.126857958230107,
                -1.3531648572472739,
                1.0417150879559678,
                0.21759925973217986,
                -0.9664829653758606
            ]
        },
        {
            "positions": [
                0.09543198221227056,
                -2.183098164360146,
                -1.4334500356532052,
                1.0861464481312195,
                0.20898442935159334,
                -0.8796564459654581
            ]
        },
        {
            "positions": [
                0.07029958395698287,
                -2.19827599250828,
                -1.5597074069801997,
                1.138836415985541,
                0.20193182875687463,
                -0.7512526203139472
            ]
        },
        {
            "positions": [
                0.045167185701695166,
                -2.2134538206564143,
                -1.6859647783071943,
                1.1915263838398626,
                0.19487922816215594,
                -0.6228487946624364
            ]
        },
        {
            "positions": [
                0.020034787446407465,
                -2.2286316488045483,
                -1.8122221496341888,
                1.2442163516941842,
                0.18782662756743723,
                -0.4944449690109255
            ]
        },
        {
            "positions": [
                -0.005097610808880229,
                -2.2438094769526824,
                -1.9384795209611836,
                1.2969063195485058,
                0.18077402697271852,
                -0.3660411433594146
            ]
        },
        {
            "positions": [
                -0.03023000906416795,
                -2.2589873051008165,
                -2.0647368922881784,
                1.3495962874028273,
                0.1737214263779998,
                -0.23763731770790375
            ]
        },
        {
            "positions": [
                -0.055362407319455645,
                -2.2741651332489505,
                -2.1909942636151727,
                1.402286255257149,
                0.16666882578328113,
                -0.10923349205639282
            ]
        },
        {
            "positions": [
                -0.0837509857903017,
                -2.2755655981427125,
                -2.239368375719967,
                1.4165037934937503,
                0.16727196005315437,
                -0.06629246142440495
            ]
        },
        {
            "positions": [
                -0.1751055198753549,
                -2.2770318050215286,
                -2.377246287134301,
                1.45278647586774,
                0.17236559740643803,
                0.050354000203872734
            ]
        },
        {
            "positions": [
                -0.18460376696737338,
                -2.2770707909540797,
                -2.3909351379647736,
                1.4562008178071713,
                0.17304050520547828,
                0.06165421565524995
            ]
        }
    ]
}