{
    "goal": {
        "global_pose": {
            "orientation": {
                "w": -0.00223480608172531,
                "x": 0.0024358444001904467,
                "y": 0.7094548369677653,
                "z": -0.704743149386269
            },
            "position": {
                "x": 0.6205249238014221,
                "y": -0.6371506643295288,
                "z": 0.19426114857196808
            }
        },
        "name": "move_to_magneteinheit_B"
    },
    "id": "LazyPRMstar_move_to_magneteinheit_B_87",
    "joint_names": [
        "shoulder_pan_joint",
        "shoulder_lift_joint",
        "elbow_joint",
        "wrist_1_joint",
        "wrist_2_joint",
        "wrist_3_joint"
    ],
    "metrics": {
        "cart_traj_len": 2.218373479965659,
        "distance_elbow_joint": 0.9545165131693472,
        "distance_shoulder_lift_joint": 1.8999131624543575,
        "distance_shoulder_pan_joint": 1.6213656001454606,
        "distance_wrist_1_joint": 0.35083912988581334,
        "distance_wrist_2_joint": 1.8055774928291373,
        "distance_wrist_3_joint": 0.845552824062456,
        "smoothness": 0.9298410700082842,
        "time": 5.024390596,
        "traj_len": 2.734550186510859,
        "weighted_distance": 3.365306374371646
    },
    "planner": "LazyPRMstar",
    "start": {
        "state": {
            "elbow_joint": 2.6216224122426386,
            "shoulder_lift_joint": -1.4174107377796124,
            "shoulder_pan_joint": 0.7066234856936794,
            "wrist_1_joint": 1.9546482284002225,
            "wrist_2_joint": -0.7096286983471962,
            "wrist_3_joint": 0.005740856962016249
        }
    },
    "waypoints": [
        {
            "positions": [
                0.7066234856936794,
                -1.4174107377796124,
                2.6216224122426386,
                1.9546482284002225,
                -0.7096286983471962,
                0.005740856962016249
            ]
        },
        {
            "positions": [
                0.6352045898434786,
                -1.4004165565228406,
                2.596746468993709,
                1.9137538958007116,
                -0.7011801808170782,
                -0.051734696336825675
            ]
        },
        {
            "positions": [
                0.5637856939932779,
                -1.3834223752660686,
                2.57187052574478,
                1.8728595632012008,
                -0.6927316632869602,
                -0.1092102496356676
            ]
        },
        {
            "positions": [
                0.5318050348631366,
                -1.4979331554031003,
                2.4421503597153276,
                1.9046464573984543,
                -0.6673801467083526,
                -0.17109610704751543
            ]
        },
        {
            "positions": [
                0.49982437573299515,
                -1.6124439355401323,
                2.3124301936858753,
                1.9364333515957075,
                -0.6420286301297449,
                -0.23298196445936326
            ]
        },
        {
            "positions": [
                0.4678437166028538,
                -1.7269547156771639,
                2.182710027656423,
                1.968220245792961,
                -0.6166771135511371,
                -0.2948678218712111
            ]
        },
        {
            "positions": [
                0.43586305747271237,
                -1.8414654958141958,
                2.052989861626971,
                2.000007139990214,
                -0.5913255969725294,
                -0.3567536792830589
            ]
        },
        {
            "positions": [
                0.403882398342571,
                -1.9559762759512276,
                1.9232696955975186,
                2.0317940341874676,
                -0.5659740803939217,
                -0.4186395366949067
            ]
        },
        {
            "positions": [
                0.3024497435122362,
                -1.8564862067777157,
                1.9035647881725781,
                2.0402644952413542,
                -0.6938143015382189,
                -0.38624165743294264
            ]
        },
        {
            "positions": [
                0.20101708868190143,
                -1.7569961376042038,
                1.8838598807476374,
                2.048734956295241,
                -0.821654522682516,
                -0.35384377817097856
            ]
        },
        {
            "positions": [
                0.09958443385156668,
                -1.657506068430692,
                1.864154973322697,
                2.0572054173491274,
                -0.9494947438268131,
                -0.32144589890901454
            ]
        },
        {
            "positions": [
                -0.0018482209787681336,
                -1.5580159992571798,
                1.8444500658977563,
                2.0656758784030136,
                -1.0773349649711101,
                -0.28904801964705046
            ]
        },
        {
            "positions": [
                -0.10328087580910295,
                -1.4585259300836682,
                1.8247451584728158,
                2.0741463394569,
                -1.2051751861154074,
                -0.2566501403850864
            ]
        },
        {
            "positions": [
                -0.20471353063943765,
                -1.359035860910156,
                1.8050402510478754,
                2.082616800510787,
                -1.3330154072597047,
                -0.22425226112312233
            ]
        },
        {
            "positions": [
                -0.30614618546977246,
                -1.2595457917366444,
                1.7853353436229347,
                2.0910872615646734,
                -1.4608556284040017,
                -0.1918543818611583
            ]
        },
        {
            "positions": [
                -0.40757884030010727,
                -1.1600557225631323,
                1.7656304361979942,
                2.09955772261856,
                -1.5886958495482988,
                -0.1594565025991942
            ]
        },
        {
            "positions": [
                -0.509011495130442,
                -1.0605656533896206,
                1.7459255287730535,
                2.1080281836724466,
                -1.7165360706925958,
                -0.12705862333723017
            ]
        },
        {
            "positions": [
                -0.6104441499607769,
                -0.9610755842161085,
                1.726220621348113,
                2.1164986447263328,
                -1.8443762918368931,
                -0.09466074407526609
            ]
        },
        {
            "positions": [
                -0.7118768047911115,
                -0.8615855150425966,
                1.7065157139231726,
                2.1249691057802194,
                -1.9722165129811902,
                -0.06226286481330201
            ]
        },
        {
            "positions": [
                -0.8133094596214463,
                -0.7620954458690847,
                1.686810806498232,
                2.133439566834106,
                -2.1000567341254874,
                -0.02986498555133793
            ]
        },
        {
            "positions": [
                -0.9147421144517811,
                -0.6626053766955728,
                1.6671058990732914,
                2.1419100278879926,
                -2.2278969552697845,
                0.002532893710626116
            ]
        }
    ]
}