{
    "goal": {
        "global_pose": {
            "orientation": {
                "w": -0.00223480608172531,
                "x": 0.0024358444001904467,
                "y": 0.7094548369677653,
                "z": -0.704743149386269
            },
            "position": {
                "x": 0.6205249238014221,
                "y": -0.6371506643295288,
                "z": 0.19426114857196808
            }
        },
        "name": "move_to_magneteinheit_B"
    },
    "id": "LazyPRMstar_move_to_magneteinheit_B_55",
    "joint_names": [
        "shoulder_pan_joint",
        "shoulder_lift_joint",
        "elbow_joint",
        "wrist_1_joint",
        "wrist_2_joint",
        "wrist_3_joint"
    ],
    "metrics": {
        "cart_traj_len": 1.4629627875329054,
        "distance_elbow_joint": 0.9575845330313837,
        "distance_shoulder_lift_joint": 0.8441371770612952,
        "distance_shoulder_pan_joint": 1.6206872674914239,
        "distance_wrist_1_joint": 0.3573052670830421,
        "distance_wrist_2_joint": 1.5171246459700745,
        "distance_wrist_3_joint": 0.006422002683613573,
        "smoothness": 0.18622397365502563,
        "time": 5.018534893,
        "traj_len": 2.3028809985148677,
        "weighted_distance": 2.681517259265951
    },
    "planner": "LazyPRMstar",
    "start": {
        "state": {
            "elbow_joint": 2.6216224122426386,
            "shoulder_lift_joint": -1.4174107377796124,
            "shoulder_pan_joint": 0.7066234856936794,
            "wrist_1_joint": 1.9546482284002225,
            "wrist_2_joint": -0.7096286983471962,
            "wrist_3_joint": 0.005740856962016249
        }
    },
    "waypoints": [
        {
            "positions": [
                0.7066234856936794,
                -1.4174107377796124,
                2.6216224122426386,
                1.9546482284002225,
                -0.7096286983471962,
                0.005740856962016249
            ]
        },
        {
            "positions": [
                0.5112582274734103,
                -1.428439268450655,
                2.5545307805377453,
                1.933626404516897,
                -0.7734378494898453,
                0.007062265332848888
            ]
        },
        {
            "positions": [
                0.31589296925314114,
                -1.4394677991216978,
                2.487439148832852,
                1.9126045806335714,
                -0.8372470006324945,
                0.008383673703681527
            ]
        },
        {
            "positions": [
                0.12052771103287208,
                -1.4504963297927402,
                2.4203475171279587,
                1.891582756750246,
                -0.9010561517751436,
                0.009705082074514166
            ]
        },
        {
            "positions": [
                -0.07483754718739716,
                -1.461524860463783,
                2.3532558854230654,
                1.8705609328669204,
                -0.9648653029177927,
                0.011026490445346806
            ]
        },
        {
            "positions": [
                -0.15876017064843193,
                -1.3815225550260704,
                2.2843340848018845,
                1.8978827300218943,
                -1.0910541070577404,
                0.011140127365375108
            ]
        },
        {
            "positions": [
                -0.2426827941094667,
                -1.301520249588358,
                2.215412284180703,
                1.9252045271768683,
                -1.2172429111976883,
                0.011253764285403409
            ]
        },
        {
            "positions": [
                -0.32660541757050143,
                -1.2215179441506456,
                2.146490483559522,
                1.9525263243318425,
                -1.343431715337636,
                0.01136740120543171
            ]
        },
        {
            "positions": [
                -0.41052804103153623,
                -1.141515638712933,
                2.0775686829383413,
                1.9798481214868164,
                -1.469620519477584,
                0.011481038125460013
            ]
        },
        {
            "positions": [
                -0.49445066449257097,
                -1.0615133332752207,
                2.0086468823171604,
                2.0071699186417904,
                -1.5958093236175317,
                0.011594675045488313
            ]
        },
        {
            "positions": [
                -0.5783732879536057,
                -0.9815110278375082,
                1.939725081695979,
                2.0344917157967646,
                -1.7219981277574794,
                0.011708311965516615
            ]
        },
        {
            "positions": [
                -0.6622959114146405,
                -0.9015087223997957,
                1.870803281074798,
                2.0618135129517383,
                -1.8481869318974273,
                0.011821948885544917
            ]
        },
        {
            "positions": [
                -0.7462185348756754,
                -0.8215064169620832,
                1.801881480453617,
                2.0891353101067125,
                -1.974375736037375,
                0.01193558580557322
            ]
        },
        {
            "positions": [
                -0.83014115833671,
                -0.7415041115243708,
                1.7329596798324358,
                2.1164571072616862,
                -2.1005645401773227,
                0.01204922272560152
            ]
        },
        {
            "positions": [
                -0.9140637817977447,
                -0.6615018060866583,
                1.664037879211255,
                2.1437789044166604,
                -2.2267533443172707,
                0.012162859645629822
            ]
        }
    ]
}