{
    "goal": {
        "global_pose": {
            "orientation": {
                "w": 0.7031023480610252,
                "x": -0.7110244013736278,
                "y": 0.0077485991402295624,
                "z": 0.005598929693374583
            },
            "position": {
                "x": -0.8841497679147869,
                "y": 0.44412534475326537,
                "z": 0.3711530566215515
            }
        },
        "name": "move_to_auspresseinheit_D"
    },
    "id": "LazyPRMstar_move_to_auspresseinheit_D_78",
    "joint_names": [
        "shoulder_pan_joint",
        "shoulder_lift_joint",
        "elbow_joint",
        "wrist_1_joint",
        "wrist_2_joint",
        "wrist_3_joint"
    ],
    "metrics": {
        "cart_traj_len": 0.3426812161807167,
        "distance_elbow_joint": 0.6378763198606721,
        "distance_shoulder_lift_joint": 0.12170216886404495,
        "distance_shoulder_pan_joint": 0.13393676202828908,
        "distance_wrist_1_joint": 0.5321444643656226,
        "distance_wrist_2_joint": 1.4405129851134824,
        "distance_wrist_3_joint": 0.0030007953617801064,
        "smoothness": 0.0,
        "time": 5.000156437,
        "traj_len": 1.6938634819825036,
        "weighted_distance": 2.2017794021646577
    },
    "planner": "LazyPRMstar",
    "start": {
        "state": {
            "elbow_joint": -1.8275523626775212,
            "shoulder_lift_joint": -2.126789852344167,
            "shoulder_pan_joint": -0.03513704404078235,
            "wrist_1_joint": -2.347782403156801,
            "wrist_2_joint": -1.6058999987535132,
            "wrist_3_joint": -3.0880379163319196
        }
    },
    "waypoints": [
        {
            "positions": [
                -0.03513704404078235,
                -2.126789852344167,
                -1.8275523626775212,
                -2.347782403156801,
                -1.6058999987535132,
                -3.0880379163319196
            ]
        },
        {
            "positions": [
                -0.051879139294318484,
                -2.1420026234521723,
                -1.7478178226949372,
                -2.4143004612025036,
                -1.425835875614328,
                -3.0876628169116973
            ]
        },
        {
            "positions": [
                -0.06862123454785463,
                -2.157215394560178,
                -1.6680832827123533,
                -2.4808185192482064,
                -1.2457717524751426,
                -3.0872877174914746
            ]
        },
        {
            "positions": [
                -0.08536332980139075,
                -2.1724281656681836,
                -1.5883487427297691,
                -2.547336577293909,
                -1.0657076293359573,
                -3.086912618071252
            ]
        },
        {
            "positions": [
                -0.1021054250549269,
                -2.187640936776189,
                -1.5086142027471852,
                -2.613854635339612,
                -0.885643506196772,
                -3.0865375186510295
            ]
        },
        {
            "positions": [
                -0.11884752030846302,
                -2.202853707884195,
                -1.4288796627646012,
                -2.680372693385315,
                -0.7055793830575867,
                -3.0861624192308073
            ]
        },
        {
            "positions": [
                -0.13558961556199917,
                -2.2180664789922004,
                -1.349145122782017,
                -2.746890751431018,
                -0.5255152599184014,
                -3.0857873198105845
            ]
        },
        {
            "positions": [
                -0.1523317108155353,
                -2.2332792501002063,
                -1.269410582799433,
                -2.8134088094767207,
                -0.34545113677921613,
                -3.085412220390362
            ]
        },
        {
            "positions": [
                -0.16907380606907144,
                -2.248492021208212,
                -1.1896760428168491,
                -2.8799268675224234,
                -0.16538701364003083,
                -3.0850371209701395
            ]
        }
    ]
}