{
    "goal": {
        "global_pose": {
            "orientation": {
                "w": 0.5084816217422485,
                "x": -0.49083608388900757,
                "y": 0.5182115435600281,
                "z": -0.4816462993621826
            },
            "position": {
                "x": 0.5540239810943604,
                "y": 0.030875300988554955,
                "z": 0.16403168439865112
            }
        },
        "name": "move_to_storage_A"
    },
    "id": "LazyPRM_move_to_storage_A_130",
    "joint_names": [
        "shoulder_pan_joint",
        "shoulder_lift_joint",
        "elbow_joint",
        "wrist_1_joint",
        "wrist_2_joint",
        "wrist_3_joint"
    ],
    "metrics": {
        "cart_traj_len": 0.3524394625575305,
        "distance_elbow_joint": 0.4506239894942665,
        "distance_shoulder_lift_joint": 0.23352752656831322,
        "distance_shoulder_pan_joint": 0.4571416953621252,
        "distance_wrist_1_joint": 0.24632862459215088,
        "distance_wrist_2_joint": 1.113377370273459,
        "distance_wrist_3_joint": 0.09141514777089998,
        "smoothness": 4.440892098500626e-16,
        "time": 0.021854874,
        "traj_len": 1.6100976225251733,
        "weighted_distance": 2.033457804939317
    },
    "planner": "LazyPRM",
    "start": {
        "state": {
            "elbow_joint": 1.971548259319323,
            "shoulder_lift_joint": -1.1394851275133948,
            "shoulder_pan_joint": 0.1228115487234821,
            "wrist_1_joint": -0.7804723859257726,
            "wrist_2_joint": 0.12958671773740124,
            "wrist_3_joint": -3.192489227718131
        }
    },
    "waypoints": [
        {
            "positions": [
                0.1228115487234821,
                -1.1394851275133948,
                1.971548259319323,
                -0.7804723859257726,
                0.12958671773740124,
                -3.192489227718131
            ]
        },
        {
            "positions": [
                0.05750559224317851,
                -1.1728462027374396,
                2.0359231149613612,
                -0.815662189438937,
                0.2886406277764668,
                -3.1794299208937167
            ]
        },
        {
            "positions": [
                -0.007800364237125074,
                -1.2062072779614843,
                2.1002979706033993,
                -0.8508519929521015,
                0.44769453781553237,
                -3.1663706140693026
            ]
        },
        {
            "positions": [
                -0.07310632071742867,
                -1.239568353185529,
                2.1646728262454373,
                -0.8860417964652658,
                0.6067484478545979,
                -3.153311307244888
            ]
        },
        {
            "positions": [
                -0.13841227719773225,
                -1.2729294284095738,
                2.2290476818874754,
                -0.9212315999784303,
                0.7658023578936636,
                -3.140252000420474
            ]
        },
        {
            "positions": [
                -0.20371823367803588,
                -1.3062905036336185,
                2.2934225375295134,
                -0.9564214034915947,
                0.9248562679327292,
                -3.1271926935960597
            ]
        },
        {
            "positions": [
                -0.26902419015833945,
                -1.3396515788576633,
                2.3577973931715515,
                -0.9916112070047591,
                1.0839101779717946,
                -3.1141333867716456
            ]
        },
        {
            "positions": [
                -0.3343301466386431,
                -1.373012654081708,
                2.4221722488135895,
                -1.0268010105179235,
                1.2429640880108603,
                -3.101074079947231
            ]
        }
    ]
}{
    "goal": {
        "global_pose": {
            "orientation": {
                "w": 0.5084816217422485,
                "x": -0.49083608388900757,
                "y": 0.5182115435600281,
                "z": -0.4816462993621826
            },
            "position": {
                "x": 0.5540239810943604,
                "y": 0.030875300988554955,
                "z": 0.16403168439865112
            }
        },
        "name": "move_to_storage_A"
    },
    "id": "LazyPRM_move_to_storage_A_130",
    "joint_names": [
        "shoulder_pan_joint",
        "shoulder_lift_joint",
        "elbow_joint",
        "wrist_1_joint",
        "wrist_2_joint",
        "wrist_3_joint"
    ],
    "metrics": {
        "cart_traj_len": 0.35232033063667556,
        "distance_elbow_joint": 0.45070572506393747,
        "distance_shoulder_lift_joint": 0.2347236994070414,
        "distance_shoulder_pan_joint": 0.45993341918210523,
        "distance_wrist_1_joint": 0.2496868436285078,
        "distance_wrist_2_joint": 1.1005588600497926,
        "distance_wrist_3_joint": 0.09277257722197563,
        "smoothness": 8.881784197001252e-16,
        "time": 0.022167874,
        "traj_len": 1.6088446551961937,
        "weighted_distance": 2.0308057471544667
    },
    "planner": "LazyPRM",
    "start": {
        "state": {
            "elbow_joint": 1.97154746011099,
            "shoulder_lift_joint": -1.13948474672311,
            "shoulder_pan_joint": 0.12281154466712228,
            "wrist_1_joint": -0.7804688027058302,
            "wrist_2_joint": 0.12958655903071145,
            "wrist_3_joint": 3.0906928834467795
        }
    },
    "waypoints": [
        {
            "positions": [
                0.12281154466712228,
                -1.13948474672311,
                1.97154746011099,
                -0.7804688027058302,
                0.12958655903071145,
                3.0906928834467795
            ]
        },
        {
            "positions": [
                0.05710677049825011,
                -1.1730167037812587,
                2.035933992262981,
                -0.816138351795617,
                0.28680925332353896,
                3.1039461087642044
            ]
        },
        {
            "positions": [
                -0.008598003670622065,
                -1.2065486608394076,
                2.100320524414972,
                -0.8518079008854038,
                0.44403194761636644,
                3.1171993340816297
            ]
        },
        {
            "positions": [
                -0.07430277783949422,
                -1.2400806178975563,
                2.164707056566963,
                -0.8874774499751906,
                0.601254641909194,
                3.1304525593990546
            ]
        },
        {
            "positions": [
                -0.1400075520083664,
                -1.273612574955705,
                2.2290935887189542,
                -0.9231469990649774,
                0.7584773362020215,
                3.14370578471648
            ]
        },
        {
            "positions": [
                -0.2057123261772386,
                -1.307144532013854,
                2.2934801208709454,
                -0.9588165481547644,
                0.915700030494849,
                3.156959010033905
            ]
        },
        {
            "positions": [
                -0.2714171003461107,
                -1.3406764890720027,
                2.357866653022936,
                -0.9944860972445512,
                1.0729227247876765,
                3.1702122353513302
            ]
        },
        {
            "positions": [
                -0.33712187451498293,
                -1.3742084461301514,
                2.4222531851749274,
                -1.030155646334338,
                1.2301454190805041,
                3.183465460668755
            ]
        }
    ]
}{
    "goal": {
        "global_pose": {
            "orientation": {
                "w": 0.5084816217422485,
                "x": -0.49083608388900757,
                "y": 0.5182115435600281,
                "z": -0.4816462993621826
            },
            "position": {
                "x": 0.5540239810943604,
                "y": 0.030875300988554955,
                "z": 0.16403168439865112
            }
        },
        "name": "move_to_storage_A"
    },
    "id": "LazyPRM_move_to_storage_A_130",
    "joint_names": [
        "shoulder_pan_joint",
        "shoulder_lift_joint",
        "elbow_joint",
        "wrist_1_joint",
        "wrist_2_joint",
        "wrist_3_joint"
    ],
    "metrics": {
        "cart_traj_len": 0.3526655595036524,
        "distance_elbow_joint": 0.4519058481073577,
        "distance_shoulder_lift_joint": 0.2352591356160918,
        "distance_shoulder_pan_joint": 0.46247096754597966,
        "distance_wrist_1_joint": 0.24687427370102388,
        "distance_wrist_2_joint": 1.0932783065262641,
        "distance_wrist_3_joint": 0.0972496609447222,
        "smoothness": 2.2204460668324854e-16,
        "time": 0.02197549,
        "traj_len": 1.608427241886135,
        "weighted_distance": 2.0301945952440548
    },
    "planner": "LazyPRM",
    "start": {
        "state": {
            "elbow_joint": 1.9715472970024885,
            "shoulder_lift_joint": -1.1394870060712896,
            "shoulder_pan_joint": 0.12281152778156021,
            "wrist_1_joint": -0.780463741449964,
            "wrist_2_joint": 0.12958659822042276,
            "wrist_3_joint": 3.090690232415272
        }
    },
    "waypoints": [
        {
            "positions": [
                0.12281152778156021,
                -1.1394870060712896,
                1.9715472970024885,
                -0.780463741449964,
                0.12958659822042276,
                3.090690232415272
            ]
        },
        {
            "positions": [
                0.05674424670356312,
                -1.1730954540164455,
                2.0361052753035396,
                -0.8157314948358245,
                0.2857692134384605,
                3.1045830411216606
            ]
        },
        {
            "positions": [
                -0.009323034374433964,
                -1.2067039019616015,
                2.1006632536045906,
                -0.850999248221685,
                0.4419518286564982,
                3.11847584982805
            ]
        },
        {
            "positions": [
                -0.07539031545243105,
                -1.2403123499067574,
                2.1652212319056416,
                -0.8862670016075457,
                0.598134443874536,
                3.1323686585344386
            ]
        },
        {
            "positions": [
                -0.14145759653042814,
                -1.2739207978519134,
                2.2297792102066927,
                -0.9215347549934062,
                0.7543170590925736,
                3.1462614672408273
            ]
        },
        {
            "positions": [
                -0.20752487760842522,
                -1.3075292457970695,
                2.294337188507744,
                -0.9568025083792668,
                0.9104996743106114,
                3.160154275947216
            ]
        },
        {
            "positions": [
                -0.2735921586864223,
                -1.3411376937422255,
                2.358895166808795,
                -0.9920702617651274,
                1.0666822895286492,
                3.1740470846536053
            ]
        },
        {
            "positions": [
                -0.3396594397644194,
                -1.3747461416873814,
                2.423453145109846,
                -1.0273380151509879,
                1.2228649047466869,
                3.187939893359994
            ]
        }
    ]
}