{
    "goal": {
        "global_pose": {
            "orientation": {
                "w": 0.7031023480610252,
                "x": -0.7110244013736278,
                "y": 0.0077485991402295624,
                "z": 0.005598929693374583
            },
            "position": {
                "x": -0.8841497679147869,
                "y": 0.44412534475326537,
                "z": 0.3711530566215515
            }
        },
        "name": "move_to_auspresseinheit_D"
    },
    "id": "LazyPRM_move_to_auspresseinheit_D_111",
    "joint_names": [
        "shoulder_pan_joint",
        "shoulder_lift_joint",
        "elbow_joint",
        "wrist_1_joint",
        "wrist_2_joint",
        "wrist_3_joint"
    ],
    "metrics": {
        "cart_traj_len": 0.34243103627723726,
        "distance_elbow_joint": 0.6313502431997307,
        "distance_shoulder_lift_joint": 0.11745434384508258,
        "distance_shoulder_pan_joint": 0.13336688260774918,
        "distance_wrist_1_joint": 0.510449202317377,
        "distance_wrist_2_joint": 1.4328880550393546,
        "distance_wrist_3_joint": 0.012104794071992941,
        "smoothness": 1.9737298371844314e-16,
        "time": 0.012202816,
        "traj_len": 1.6845217484738175,
        "weighted_distance": 2.1920676008239357
    },
    "planner": "LazyPRM",
    "start": {
        "state": {
            "elbow_joint": -1.8275523626775212,
            "shoulder_lift_joint": -2.126789852344167,
            "shoulder_pan_joint": -0.03513704404078235,
            "wrist_1_joint": -2.347782403156801,
            "wrist_2_joint": -1.6058999987535132,
            "wrist_3_joint": -3.0880379163319196
        }
    },
    "waypoints": [
        {
            "positions": [
                -0.03513704404078235,
                -2.126789852344167,
                -1.8275523626775212,
                -2.347782403156801,
                -1.6058999987535132,
                -3.0880379163319196
            ]
        },
        {
            "positions": [
                -0.05180790436675099,
                -2.141471645324802,
                -1.748633582277555,
                -2.411588553446473,
                -1.4267889918735939,
                -3.089551015590919
            ]
        },
        {
            "positions": [
                -0.06847876469271964,
                -2.1561534383054375,
                -1.6697148018775885,
                -2.475394703736145,
                -1.2476779849936745,
                -3.091064114849918
            ]
        },
        {
            "positions": [
                -0.08514962501868828,
                -2.170835231286073,
                -1.5907960214776222,
                -2.5392008540258173,
                -1.0685669781137552,
                -3.0925772141089167
            ]
        },
        {
            "positions": [
                -0.10182048534465693,
                -2.185517024266708,
                -1.5118772410776558,
                -2.603007004315489,
                -0.8894559712338359,
                -3.094090313367916
            ]
        },
        {
            "positions": [
                -0.11849134567062558,
                -2.2001988172473435,
                -1.4329584606776895,
                -2.6668131546051614,
                -0.7103449643539166,
                -3.0956034126269154
            ]
        },
        {
            "positions": [
                -0.13516220599659423,
                -2.2148806102279788,
                -1.3540396802777233,
                -2.7306193048948337,
                -0.5312339574739973,
                -3.0971165118859143
            ]
        },
        {
            "positions": [
                -0.15183306632256288,
                -2.229562403208614,
                -1.275120899877757,
                -2.7944254551845056,
                -0.35212295059407794,
                -3.098629611144913
            ]
        },
        {
            "positions": [
                -0.16850392664853153,
                -2.2442441961892494,
                -1.1962021194777905,
                -2.858231605474178,
                -0.1730119437141587,
                -3.1001427104039125
            ]
        }
    ]
}