{
    "goal": {
        "global_pose": {
            "orientation": {
                "w": -0.4816463035849501,
                "x": 0.5182115481033762,
                "y": 0.4908360881923453,
                "z": -0.5084816262002911
            },
            "position": {
                "x": -0.8240239810943604,
                "y": -0.300875300988555,
                "z": 0.16403168439865112
            }
        },
        "name": "move_to_storage_C"
    },
    "id": "LazyPRMstar_move_to_storage_C_81",
    "joint_names": [
        "shoulder_pan_joint",
        "shoulder_lift_joint",
        "elbow_joint",
        "wrist_1_joint",
        "wrist_2_joint",
        "wrist_3_joint"
    ],
    "metrics": {
        "cart_traj_len": 0.5772287810650331,
        "distance_elbow_joint": 0.25543741948236276,
        "distance_shoulder_lift_joint": 0.19054761702587597,
        "distance_shoulder_pan_joint": 0.49429858966449336,
        "distance_wrist_1_joint": 0.06382979009274214,
        "distance_wrist_2_joint": 1.074510701925048,
        "distance_wrist_3_joint": 0.05584855716754911,
        "smoothness": 2.5376526478085547e-16,
        "time": 5.00068401,
        "traj_len": 1.4609834616990267,
        "weighted_distance": 1.8397038570680226
    },
    "planner": "LazyPRMstar",
    "start": {
        "state": {
            "elbow_joint": 2.010868314990456,
            "shoulder_lift_joint": -1.1634956873337592,
            "shoulder_pan_joint": -2.4736205022346125,
            "wrist_1_joint": -0.8367026794202681,
            "wrist_2_joint": 0.6746043897044499,
            "wrist_3_joint": -3.1496632123970403
        }
    },
    "waypoints": [
        {
            "positions": [
                -2.4736205022346125,
                -1.1634956873337592,
                2.010868314990456,
                -0.8367026794202681,
                0.6746043897044499,
                -3.1496632123970403
            ]
        },
        {
            "positions": [
                -2.556003600512028,
                -1.1317377511627797,
                1.9682954117433953,
                -0.8260643810714777,
                0.8536895066919579,
                -3.140355119535782
            ]
        },
        {
            "positions": [
                -2.6383866987894438,
                -1.0999798149918005,
                1.925722508496335,
                -0.8154260827226874,
                1.032774623679466,
                -3.131047026674524
            ]
        },
        {
            "positions": [
                -2.7207697970668594,
                -1.0682218788208213,
                1.8831496052492744,
                -0.8047877843738971,
                1.211859740666974,
                -3.1217389338132655
            ]
        },
        {
            "positions": [
                -2.8031528953442746,
                -1.0364639426498419,
                1.840576702002214,
                -0.7941494860251067,
                1.3909448576544818,
                -3.1124308409520074
            ]
        },
        {
            "positions": [
                -2.88553599362169,
                -1.0047060064788624,
                1.7980037987551536,
                -0.7835111876763163,
                1.57002997464199,
                -3.1031227480907493
            ]
        },
        {
            "positions": [
                -2.967919091899106,
                -0.9729480703078832,
                1.755430895508093,
                -0.772872889327526,
                1.7491150916294977,
                -3.093814655229491
            ]
        }
    ]
}