{
    "goal": {
        "global_pose": {
            "orientation": {
                "w": -0.4816463035849501,
                "x": 0.5182115481033762,
                "y": 0.4908360881923453,
                "z": -0.5084816262002911
            },
            "position": {
                "x": -0.8240239810943604,
                "y": -0.300875300988555,
                "z": 0.16403168439865112
            }
        },
        "name": "move_to_storage_C"
    },
    "id": "LazyPRMstar_move_to_storage_C_118",
    "joint_names": [
        "shoulder_pan_joint",
        "shoulder_lift_joint",
        "elbow_joint",
        "wrist_1_joint",
        "wrist_2_joint",
        "wrist_3_joint"
    ],
    "metrics": {
        "cart_traj_len": 0.5772000812971169,
        "distance_elbow_joint": 0.25590284390321005,
        "distance_shoulder_lift_joint": 0.19046196178036023,
        "distance_shoulder_pan_joint": 0.49442936156066386,
        "distance_wrist_1_joint": 0.06531402659126895,
        "distance_wrist_2_joint": 1.0725925886177832,
        "distance_wrist_3_joint": 0.058906002080505004,
        "smoothness": 2.5376526478085547e-16,
        "time": 5.000398979000001,
        "traj_len": 1.4620556708052506,
        "weighted_distance": 1.8420980983389166
    },
    "planner": "LazyPRMstar",
    "start": {
        "state": {
            "elbow_joint": 2.010868314990456,
            "shoulder_lift_joint": -1.1634956873337592,
            "shoulder_pan_joint": -2.4736205022346125,
            "wrist_1_joint": -0.8367026794202681,
            "wrist_2_joint": 0.6746043897044499,
            "wrist_3_joint": -3.1496632123970403
        }
    },
    "waypoints": [
        {
            "positions": [
                -2.4736205022346125,
                -1.1634956873337592,
                2.010868314990456,
                -0.8367026794202681,
                0.6746043897044499,
                -3.1496632123970403
            ]
        },
        {
            "positions": [
                -2.5560253958280565,
                -1.1317520270370325,
                1.9682178410065876,
                -0.8258170083217233,
                0.8533698211407471,
                -3.139845545383623
            ]
        },
        {
            "positions": [
                -2.6384302894215006,
                -1.1000083667403058,
                1.9255673670227191,
                -0.8149313372231785,
                1.0321352525770444,
                -3.130027878370205
            ]
        },
        {
            "positions": [
                -2.7208351830149446,
                -1.068264706443579,
                1.8829168930388507,
                -0.8040456661246336,
                1.2109006840133416,
                -3.1202102113567878
            ]
        },
        {
            "positions": [
                -2.8032400766083883,
                -1.0365210461468524,
                1.8402664190549824,
                -0.7931599950260888,
                1.3896661154496388,
                -3.1103925443433704
            ]
        },
        {
            "positions": [
                -2.8856449702018323,
                -1.0047773858501257,
                1.7976159450711142,
                -0.782274323927544,
                1.568431546885936,
                -3.1005748773299526
            ]
        },
        {
            "positions": [
                -2.9680498637952764,
                -0.973033725553399,
                1.7549654710872458,
                -0.7713886528289992,
                1.747196978322233,
                -3.0907572103165353
            ]
        }
    ]
}