{
    "goal": {
        "global_pose": {
            "orientation": {
                "w": -0.4816463035849501,
                "x": 0.5182115481033762,
                "y": 0.4908360881923453,
                "z": -0.5084816262002911
            },
            "position": {
                "x": -0.8240239810943604,
                "y": 0.19912469901144506,
                "z": 0.16403168439865112
            }
        },
        "name": "move_to_storage_D"
    },
    "id": "LazyPRM_move_to_storage_D_63",
    "joint_names": [
        "shoulder_pan_joint",
        "shoulder_lift_joint",
        "elbow_joint",
        "wrist_1_joint",
        "wrist_2_joint",
        "wrist_3_joint"
    ],
    "metrics": {
        "cart_traj_len": 0.5973848044678047,
        "distance_elbow_joint": 0.8135517891955715,
        "distance_shoulder_lift_joint": 0.44794790219410086,
        "distance_shoulder_pan_joint": 0.16667243921491445,
        "distance_wrist_1_joint": 3.8280695942355685,
        "distance_wrist_2_joint": 1.7776954355961463,
        "distance_wrist_3_joint": 3.1323633076307256,
        "smoothness": 0.11987575363856,
        "time": 0.111135015,
        "traj_len": 3.188463653245404,
        "weighted_distance": 4.694336173854637
    },
    "planner": "LazyPRM",
    "start": {
        "state": {
            "elbow_joint": -2.384821988534728,
            "shoulder_lift_joint": -2.2788054721415256,
            "shoulder_pan_joint": -0.1854694642142757,
            "wrist_1_joint": 1.4845938289331202,
            "wrist_2_joint": 0.17898776772866878,
            "wrist_3_joint": 0.037105688729662994
        }
    },
    "waypoints": [
        {
            "positions": [
                -0.1854694642142757,
                -2.2788054721415256,
                -2.384821988534728,
                1.4845938289331202,
                0.17898776772866878,
                0.037105688729662994
            ]
        },
        {
            "positions": [
                -0.14565397827065546,
                -2.2037482716355936,
                -2.417123990150496,
                1.341597292995846,
                0.14472617533706733,
                0.033466822552299824
            ]
        },
        {
            "positions": [
                -0.10583849232703521,
                -2.128691071129662,
                -2.4494259917662644,
                1.198600757058572,
                0.11046458294546589,
                0.029827956374936654
            ]
        },
        {
            "positions": [
                -0.06602300638341496,
                -2.05363387062373,
                -2.4817279933820324,
                1.0556042211212977,
                0.07620299055386445,
                0.026189090197573484
            ]
        },
        {
            "positions": [
                -0.026207520439794713,
                -1.978576670117798,
                -2.5140299949978004,
                0.9126076851840236,
                0.041941398162263,
                0.022550224020210313
            ]
        },
        {
            "positions": [
                -0.026529715893726605,
                -1.984999239690423,
                -2.484275917487692,
                0.7710388395106986,
                -0.029391169925986574,
                -0.11300663871549718
            ]
        },
        {
            "positions": [
                -0.0268519113476585,
                -1.9914218092630478,
                -2.454521839977583,
                0.6294699938373738,
                -0.10072373801423615,
                -0.24856350145120468
            ]
        },
        {
            "positions": [
                -0.02717410680159039,
                -1.9978443788356728,
                -2.4247677624674746,
                0.48790114816404895,
                -0.17205630610248573,
                -0.3841203641869122
            ]
        },
        {
            "positions": [
                -0.027496302255522284,
                -2.0042669484082976,
                -2.395013684957366,
                0.346332302490724,
                -0.2433888741907353,
                -0.5196772269226196
            ]
        },
        {
            "positions": [
                -0.027818497709454177,
                -2.0106895179809228,
                -2.3652596074472574,
                0.20476345681739916,
                -0.3147214422789849,
                -0.6552340896583272
            ]
        },
        {
            "positions": [
                -0.02814069316338607,
                -2.0171120875535475,
                -2.3355055299371488,
                0.06319461114407432,
                -0.38605401036723447,
                -0.7907909523940347
            ]
        },
        {
            "positions": [
                -0.028462888617317963,
                -2.0235346571261723,
                -2.3057514524270397,
                -0.07837423452925074,
                -0.4573865784554841,
                -0.9263478151297423
            ]
        },
        {
            "positions": [
                -0.028785084071249856,
                -2.0299572266987975,
                -2.275997374916931,
                -0.21994308020257558,
                -0.5287191465437335,
                -1.0619046778654497
            ]
        },
        {
            "positions": [
                -0.02910727952518175,
                -2.0363797962714223,
                -2.2462432974068225,
                -0.3615119258759004,
                -0.6000517146319833,
                -1.1974615406011575
            ]
        },
        {
            "positions": [
                -0.02942947497911364,
                -2.042802365844047,
                -2.216489219896714,
                -0.5030807715492253,
                -0.6713842827202328,
                -1.3330184033368648
            ]
        },
        {
            "positions": [
                -0.029751670433045538,
                -2.0492249354166723,
                -2.1867351423866053,
                -0.6446496172225503,
                -0.7427168508084825,
                -1.4685752660725724
            ]
        },
        {
            "positions": [
                -0.030073865886977427,
                -2.055647504989297,
                -2.1569810648764967,
                -0.7862184628958749,
                -0.814049418896732,
                -1.60413212880828
            ]
        },
        {
            "positions": [
                -0.030396061340909324,
                -2.0620700745619223,
                -2.127226987366388,
                -0.9277873085691998,
                -0.8853819869849815,
                -1.7396889915439873
            ]
        },
        {
            "positions": [
                -0.030718256794841216,
                -2.068492644134547,
                -2.0974729098562794,
                -1.069356154242525,
                -0.9567145550732312,
                -1.875245854279695
            ]
        },
        {
            "positions": [
                -0.03104045224877311,
                -2.074915213707172,
                -2.067718832346171,
                -1.2109249999158496,
                -1.0280471231614807,
                -2.0108027170154026
            ]
        },
        {
            "positions": [
                -0.031362647702705,
                -2.081337783279797,
                -2.037964754836062,
                -1.3524938455891746,
                -1.0993796912497302,
                -2.1463595797511097
            ]
        },
        {
            "positions": [
                -0.031684843156636895,
                -2.087760352852422,
                -2.0082106773259536,
                -1.4940626912624992,
                -1.17071225933798,
                -2.2819164424868172
            ]
        },
        {
            "positions": [
                -0.032007038610568785,
                -2.0941829224250466,
                -1.9784565998158448,
                -1.6356315369358243,
                -1.2420448274262297,
                -2.4174733052225252
            ]
        },
        {
            "positions": [
                -0.03232923406450068,
                -2.1006054919976718,
                -1.948702522305736,
                -1.7772003826091494,
                -1.3133773955144792,
                -2.5530301679582323
            ]
        },
        {
            "positions": [
                -0.03265142951843257,
                -2.1070280615702965,
                -1.9189484447956273,
                -1.918769228282474,
                -1.3847099636027287,
                -2.68858703069394
            ]
        },
        {
            "positions": [
                -0.03297362497236447,
                -2.1134506311429213,
                -1.8891943672855187,
                -2.0603380739557986,
                -1.4560425316909782,
                -2.8241438934296474
            ]
        },
        {
            "positions": [
                -0.03329582042629636,
                -2.1198732007155465,
                -1.85944028977541,
                -2.201906919629124,
                -1.527375099779228,
                -2.959700756165355
            ]
        },
        {
            "positions": [
                -0.03361801588022825,
                -2.1262957702881713,
                -1.8296862122653015,
                -2.3434757653024487,
                -1.5987076678674774,
                -3.0952576189010625
            ]
        }
    ]
}