{
    "goal": {
        "global_pose": {
            "orientation": {
                "w": 0.7047431493862688,
                "x": -0.7094548369677653,
                "y": 0.0024358444001904,
                "z": -0.0022348060817251984
            },
            "position": {
                "x": -0.39052492380142206,
                "y": 0.3671506643295288,
                "z": 0.19426114857196808
            }
        },
        "name": "move_to_magneteinheit_D"
    },
    "id": "LazyPRMstar_move_to_magneteinheit_D_2",
    "joint_names": [
        "shoulder_pan_joint",
        "shoulder_lift_joint",
        "elbow_joint",
        "wrist_1_joint",
        "wrist_2_joint",
        "wrist_3_joint"
    ],
    "metrics": {
        "cart_traj_len": 3.8878206412229317,
        "distance_elbow_joint": 3.580065596861073,
        "distance_shoulder_lift_joint": 1.1596116719834946,
        "distance_shoulder_pan_joint": 2.9140273495329723,
        "distance_wrist_1_joint": 3.5614181557420057,
        "distance_wrist_2_joint": 1.341660710668817,
        "distance_wrist_3_joint": 0.30932838460734935,
        "smoothness": 0.66526208061218,
        "time": 5.057734727,
        "traj_len": 3.5869362789706365,
        "weighted_distance": 4.288105351436836
    },
    "planner": "LazyPRMstar",
    "start": {
        "state": {
            "elbow_joint": 0.749534889911806,
            "shoulder_lift_joint": -0.6476975780787326,
            "shoulder_pan_joint": -2.711696901376241,
            "wrist_1_joint": -0.07506478083263063,
            "wrist_2_joint": 0.43296659715538205,
            "wrist_3_joint": -3.14703540197715
        }
    },
    "waypoints": [
        {
            "positions": [
                -2.711696901376241,
                -0.6476975780787326,
                0.749534889911806,
                -0.07506478083263063,
                0.43296659715538205,
                -3.14703540197715
            ]
        },
        {
            "positions": [
                -2.7665398952647675,
                -0.6520040593940525,
                0.6570763172781308,
                -0.015128179543510645,
                0.39277598308398065,
                -3.1285581317813436
            ]
        },
        {
            "positions": [
                -2.8213828891532935,
                -0.6563105407093724,
                0.5646177446444556,
                0.04480842174560934,
                0.3525853690125793,
                -3.1100808615855375
            ]
        },
        {
            "positions": [
                -2.87622588304182,
                -0.6606170220246923,
                0.4721591720107804,
                0.10474502303472932,
                0.3123947549411779,
                -3.091603591389731
            ]
        },
        {
            "positions": [
                -2.786749581136814,
                -0.6845756196103042,
                0.3259879810320544,
                0.022998446350491045,
                0.2714435356413514,
                -3.0868868107030667
            ]
        },
        {
            "positions": [
                -2.697273279231809,
                -0.7085342171959161,
                0.1798167900533284,
                -0.058748130333747234,
                0.2304923163415249,
                -3.0821700300164023
            ]
        },
        {
            "positions": [
                -2.607796977326803,
                -0.7324928147815281,
                0.03364559907460235,
                -0.14049470701798553,
                0.1895410970416984,
                -3.077453249329738
            ]
        },
        {
            "positions": [
                -2.5183206754217977,
                -0.75645141236714,
                -0.11252559190412359,
                -0.2222412837022238,
                0.14858987774187188,
                -3.0727364686430736
            ]
        },
        {
            "positions": [
                -2.428844373516792,
                -0.780410009952752,
                -0.2586967828828497,
                -0.3039878603864621,
                0.10763865844204537,
                -3.0680196879564092
            ]
        },
        {
            "positions": [
                -2.339368071611786,
                -0.8043686075383639,
                -0.4048679738615757,
                -0.3857344370707004,
                0.06668743914221886,
                -3.0633029072697444
            ]
        },
        {
            "positions": [
                -2.249891769706781,
                -0.8283272051239758,
                -0.5510391648403016,
                -0.46748101375493867,
                0.025736219842392327,
                -3.05858612658308
            ]
        },
        {
            "positions": [
                -2.160415467801775,
                -0.8522858027095878,
                -0.6972103558190276,
                -0.5492275904391769,
                -0.015214999457434153,
                -3.0538693458964157
            ]
        },
        {
            "positions": [
                -2.0709391658967693,
                -0.8762444002951997,
                -0.8433815467977538,
                -0.6309741671234153,
                -0.05616621875726069,
                -3.0491525652097513
            ]
        },
        {
            "positions": [
                -1.981462863991764,
                -0.9002029978808116,
                -0.9895527377764798,
                -0.7127207438076535,
                -0.09711743805708717,
                -3.044435784523087
            ]
        },
        {
            "positions": [
                -1.8919865620867582,
                -0.9241615954664235,
                -1.1357239287552057,
                -0.794467320491892,
                -0.13806865735691376,
                -3.0397190038364226
            ]
        },
        {
            "positions": [
                -1.8025102601817526,
                -0.9481201930520355,
                -1.2818951197339317,
                -0.8762138971761301,
                -0.17901987665674018,
                -3.035002223149758
            ]
        },
        {
            "positions": [
                -1.713033958276747,
                -0.9720787906376475,
                -1.428066310712658,
                -0.9579604738603684,
                -0.21997109595656678,
                -3.030285442463094
            ]
        },
        {
            "positions": [
                -1.6235576563717415,
                -0.9960373882232594,
                -1.5742375016913837,
                -1.0397070505446067,
                -0.26092231525639326,
                -3.0255686617764295
            ]
        },
        {
            "positions": [
                -1.5340813544667358,
                -1.0199959858088712,
                -1.72040869267011,
                -1.1214536272288451,
                -0.30187353455621974,
                -3.020851881089765
            ]
        },
        {
            "positions": [
                -1.4446050525617304,
                -1.0439545833944832,
                -1.8665798836488356,
                -1.2032002039130831,
                -0.3428247538560462,
                -3.0161351004031003
            ]
        },
        {
            "positions": [
                -1.3551287506567247,
                -1.0679131809800952,
                -2.012751074627562,
                -1.2849467805973216,
                -0.3837759731558728,
                -3.011418319716436
            ]
        },
        {
            "positions": [
                -1.2656524487517191,
                -1.091871778565707,
                -2.158922265606288,
                -1.3666933572815598,
                -0.4247271924556993,
                -3.0067015390297716
            ]
        },
        {
            "positions": [
                -1.1761761468467133,
                -1.115830376151319,
                -2.305093456585014,
                -1.4484399339657983,
                -0.46567841175552577,
                -3.001984758343107
            ]
        },
        {
            "positions": [
                -1.086699844941708,
                -1.1397889737369309,
                -2.45126464756374,
                -1.5301865106500363,
                -0.5066296310553522,
                -2.997267977656443
            ]
        },
        {
            "positions": [
                -0.9972235430367022,
                -1.163747571322543,
                -2.597435838542466,
                -1.6119330873342748,
                -0.5475808503551789,
                -2.9925511969697784
            ]
        },
        {
            "positions": [
                -0.867695700264289,
                -1.1582816886846317,
                -2.5767178461910643,
                -1.7976370319761374,
                -0.5436067127037568,
                -3.0022807701047456
            ]
        },
        {
            "positions": [
                -0.7381678574918757,
                -1.1528158060467206,
                -2.5559998538396624,
                -1.983340976618,
                -0.5396325750523348,
                -3.0120103432397127
            ]
        },
        {
            "positions": [
                -0.6086400147194626,
                -1.1473499234088094,
                -2.5352818614882606,
                -2.1690449212598626,
                -0.5356584374009127,
                -3.02173991637468
            ]
        },
        {
            "positions": [
                -0.47911217194704936,
                -1.1418840407708981,
                -2.5145638691368593,
                -2.3547488659017253,
                -0.5316842997494906,
                -3.031469489509647
            ]
        },
        {
            "positions": [
                -0.3495843291746361,
                -1.136418158132987,
                -2.4938458767854574,
                -2.540452810543588,
                -0.5277101620980685,
                -3.041199062644614
            ]
        },
        {
            "positions": [
                -0.22005648640222286,
                -1.1309522754950758,
                -2.4731278844340556,
                -2.7261567551854506,
                -0.5237360244466465,
                -3.0509286357795813
            ]
        },
        {
            "positions": [
                -0.19877296171139372,
                -1.2373489063242629,
                -2.4509228095242124,
                -2.652885202479429,
                -0.4636329898753816,
                -3.0690944908515267
            ]
        },
        {
            "positions": [
                -0.17748943702056458,
                -1.34374553715345,
                -2.428717734614369,
                -2.579613649773408,
                -0.4035299553041167,
                -3.0872603459234718
            ]
        },
        {
            "positions": [
                -0.1562059123297354,
                -1.450142167982637,
                -2.406512659704526,
                -2.5063420970673866,
                -0.3434269207328518,
                -3.105426200995417
            ]
        },
        {
            "positions": [
                -0.16603204471483843,
                -1.5473343314575223,
                -2.3924554298482392,
                -2.396044791888586,
                -0.291107142887542,
                -3.1194159261868637
            ]
        },
        {
            "positions": [
                -0.17585817709994148,
                -1.6445264949324077,
                -2.378398199991952,
                -2.285747486709785,
                -0.2387873650422323,
                -3.1334056513783097
            ]
        },
        {
            "positions": [
                -0.1856843094850445,
                -1.741718658407293,
                -2.3643409701356655,
                -2.1754501815309846,
                -0.18646758719692255,
                -3.147395376569756
            ]
        }
    ]
}