{
    "goal": {
        "global_pose": {
            "orientation": {
                "w": -0.4816463035849501,
                "x": 0.5182115481033762,
                "y": 0.4908360881923453,
                "z": -0.5084816262002911
            },
            "position": {
                "x": -0.8240239810943604,
                "y": 0.19912469901144506,
                "z": 0.16403168439865112
            }
        },
        "name": "move_to_storage_D"
    },
    "id": "LazyPRMstar_move_to_storage_D_142",
    "joint_names": [
        "shoulder_pan_joint",
        "shoulder_lift_joint",
        "elbow_joint",
        "wrist_1_joint",
        "wrist_2_joint",
        "wrist_3_joint"
    ],
    "metrics": {
        "cart_traj_len": 3.8376080082178725,
        "distance_elbow_joint": 4.210392417732546,
        "distance_shoulder_lift_joint": 1.2657210502571132,
        "distance_shoulder_pan_joint": 2.8145049456003775,
        "distance_wrist_1_joint": 2.271285622226177,
        "distance_wrist_2_joint": 0.887139445347593,
        "distance_wrist_3_joint": 3.1299458486201703,
        "smoothness": 4.554761127308803e-16,
        "time": 5.036826738999999,
        "traj_len": 3.8182442731946806,
        "weighted_distance": 4.8987045322817835
    },
    "planner": "LazyPRMstar",
    "start": {
        "state": {
            "elbow_joint": -2.384821988534728,
            "shoulder_lift_joint": -2.2788054721415256,
            "shoulder_pan_joint": -0.1854694642142757,
            "wrist_1_joint": 1.4845938289331202,
            "wrist_2_joint": 0.17898776772866878,
            "wrist_3_joint": 0.037105688729662994
        }
    },
    "waypoints": [
        {
            "positions": [
                -0.1854694642142757,
                -2.2788054721415256,
                -2.384821988534728,
                1.4845938289331202,
                0.17898776772866878,
                0.037105688729662994
            ]
        },
        {
            "positions": [
                -0.09666263634538118,
                -2.2426488798707,
                -2.2697054570096435,
                1.4237493485006072,
                0.20614317390509446,
                -0.020051469857172266
            ]
        },
        {
            "positions": [
                -0.007855808476486648,
                -2.2064922875998736,
                -2.1545889254845587,
                1.3629048680680942,
                0.23329858008152016,
                -0.07720862844400753
            ]
        },
        {
            "positions": [
                0.08095101939240787,
                -2.170335695329048,
                -2.0394723939594743,
                1.3020603876355812,
                0.2604539862579458,
                -0.1343657870308428
            ]
        },
        {
            "positions": [
                0.1697578472613024,
                -2.134179103058222,
                -1.92435586243439,
                1.2412159072030682,
                0.2876093924343715,
                -0.19152294561767805
            ]
        },
        {
            "positions": [
                0.258564675130197,
                -2.0980225107873958,
                -1.8092393309093056,
                1.1803714267705552,
                0.3147647986107972,
                -0.24868010420451334
            ]
        },
        {
            "positions": [
                0.3473715029990915,
                -2.06186591851657,
                -1.694122799384221,
                1.1195269463380422,
                0.34192020478722285,
                -0.3058372627913486
            ]
        },
        {
            "positions": [
                0.43617833086798596,
                -2.025709326245744,
                -1.5790062678591366,
                1.0586824659055294,
                0.3690756109636485,
                -0.36299442137818383
            ]
        },
        {
            "positions": [
                0.5249851587368806,
                -1.9895527339749182,
                -1.463889736334052,
                0.9978379854730163,
                0.39623101714007425,
                -0.42015157996501906
            ]
        },
        {
            "positions": [
                0.613791986605775,
                -1.9533961417040921,
                -1.3487732048089676,
                0.9369935050405034,
                0.4233864233164999,
                -0.4773087385518543
            ]
        },
        {
            "positions": [
                0.7025988144746697,
                -1.9172395494332664,
                -1.233656673283883,
                0.8761490246079903,
                0.45054182949292554,
                -0.5344658971386896
            ]
        },
        {
            "positions": [
                0.791405642343564,
                -1.8810829571624403,
                -1.1185401417587986,
                0.8153045441754774,
                0.4776972356693513,
                -0.5916230557255248
            ]
        },
        {
            "positions": [
                0.8802124702124586,
                -1.8449263648916143,
                -1.003423610233714,
                0.7544600637429643,
                0.5048526418457769,
                -0.6487802143123601
            ]
        },
        {
            "positions": [
                0.9690192980813531,
                -1.8087697726207885,
                -0.8883070787086296,
                0.6936155833104514,
                0.5320080480222026,
                -0.7059373728991953
            ]
        },
        {
            "positions": [
                1.0578261259502475,
                -1.7726131803499627,
                -0.7731905471835452,
                0.6327711028779385,
                0.5591634541986282,
                -0.7630945314860306
            ]
        },
        {
            "positions": [
                1.146632953819142,
                -1.7364565880791367,
                -0.6580740156584608,
                0.5719266224454255,
                0.586318860375054,
                -0.8202516900728658
            ]
        },
        {
            "positions": [
                1.2354397816880367,
                -1.7002999958083107,
                -0.542957484133376,
                0.5110821420129124,
                0.6134742665514796,
                -0.8774088486597011
            ]
        },
        {
            "positions": [
                1.3242466095569312,
                -1.664143403537485,
                -0.4278409526082916,
                0.45023766158039935,
                0.6406296727279054,
                -0.9345660072465364
            ]
        },
        {
            "positions": [
                1.4130534374258257,
                -1.627986811266659,
                -0.3127244210832072,
                0.38939318114788657,
                0.667785078904331,
                -0.9917231658333716
            ]
        },
        {
            "positions": [
                1.50186026529472,
                -1.5918302189958329,
                -0.1976078895581228,
                0.32854870071537357,
                0.6949404850807567,
                -1.0488803244202067
            ]
        },
        {
            "positions": [
                1.5906670931636149,
                -1.555673626725007,
                -0.08249135803303798,
                0.26770422028286034,
                0.7220958912571823,
                -1.1060374830070423
            ]
        },
        {
            "positions": [
                1.6794739210325091,
                -1.519517034454181,
                0.03262517349204641,
                0.20685973985034734,
                0.7492512974336081,
                -1.1631946415938774
            ]
        },
        {
            "positions": [
                1.7682807489014036,
                -1.483360442183355,
                0.1477417050171308,
                0.14601525941783455,
                0.7764067036100337,
                -1.2203518001807125
            ]
        },
        {
            "positions": [
                1.8570875767702981,
                -1.4472038499125293,
                0.2628582365422152,
                0.08517077898532155,
                0.8035621097864594,
                -1.2775089587675479
            ]
        },
        {
            "positions": [
                1.9458944046391928,
                -1.4110472576417032,
                0.3779747680673,
                0.024326298552808323,
                0.8307175159628851,
                -1.3346661173543832
            ]
        },
        {
            "positions": [
                2.0347012325080875,
                -1.3748906653708772,
                0.4930912995923844,
                -0.03651818187970446,
                0.8578729221393108,
                -1.3918232759412186
            ]
        },
        {
            "positions": [
                2.123508060376982,
                -1.3387340731000514,
                0.6082078311174686,
                -0.09736266231221737,
                0.8850283283157364,
                -1.4489804345280537
            ]
        },
        {
            "positions": [
                2.1656353454610753,
                -1.3115966021654148,
                0.709654714290831,
                -0.15480675656062065,
                0.9001199020457802,
                -1.585968744974925
            ]
        },
        {
            "positions": [
                2.2077626305451683,
                -1.2844591312307783,
                0.8111015974641934,
                -0.21225085080902395,
                0.915211475775824,
                -1.722957055421796
            ]
        },
        {
            "positions": [
                2.2498899156292618,
                -1.2573216602961417,
                0.9125484806375559,
                -0.26969494505742725,
                0.9303030495058677,
                -1.859945365868667
            ]
        },
        {
            "positions": [
                2.2920172007133552,
                -1.230184189361505,
                1.0139953638109183,
                -0.32713903930583055,
                0.9453946232359115,
                -1.996933676315538
            ]
        },
        {
            "positions": [
                2.3341444857974483,
                -1.2030467184268685,
                1.1154422469842808,
                -0.38458313355423385,
                0.9604861969659553,
                -2.1339219867624095
            ]
        },
        {
            "positions": [
                2.3762717708815417,
                -1.175909247492232,
                1.2168891301576432,
                -0.44202722780263715,
                0.9755777706959992,
                -2.2709102972092805
            ]
        },
        {
            "positions": [
                2.418399055965635,
                -1.1487717765575953,
                1.3183360133310056,
                -0.49947132205104045,
                0.9906693444260429,
                -2.4078986076561515
            ]
        },
        {
            "positions": [
                2.4605263410497282,
                -1.1216343056229587,
                1.4197828965043682,
                -0.5569154162994437,
                1.0057609181560867,
                -2.544886918103023
            ]
        },
        {
            "positions": [
                2.5026536261338217,
                -1.0944968346883222,
                1.5212297796777305,
                -0.6143595105478471,
                1.0208524918861304,
                -2.681875228549894
            ]
        },
        {
            "positions": [
                2.544780911217915,
                -1.0673593637536856,
                1.6226766628510931,
                -0.6718036047962503,
                1.0359440656161742,
                -2.818863538996765
            ]
        },
        {
            "positions": [
                2.586908196302008,
                -1.040221892819049,
                1.7241235460244553,
                -0.7292476990446536,
                1.051035639346218,
                -2.9558518494436363
            ]
        },
        {
            "positions": [
                2.6290354813861017,
                -1.0130844218844124,
                1.8255704291978179,
                -0.7866917932930569,
                1.0661272130762618,
                -3.0928401598905073
            ]
        }
    ]
}