{
    "goal": {
        "global_pose": {
            "orientation": {
                "w": 0.7047431493862688,
                "x": -0.7094548369677653,
                "y": 0.0024358444001904,
                "z": -0.0022348060817251984
            },
            "position": {
                "x": -0.39052492380142206,
                "y": 0.3671506643295288,
                "z": 0.19426114857196808
            }
        },
        "name": "move_to_magneteinheit_D"
    },
    "id": "LazyPRM_move_to_magneteinheit_D_143",
    "joint_names": [
        "shoulder_pan_joint",
        "shoulder_lift_joint",
        "elbow_joint",
        "wrist_1_joint",
        "wrist_2_joint",
        "wrist_3_joint"
    ],
    "metrics": {
        "cart_traj_len": 4.075660029271852,
        "distance_elbow_joint": 3.4823214914438605,
        "distance_shoulder_lift_joint": 1.635199538003447,
        "distance_shoulder_pan_joint": 4.3960109115679575,
        "distance_wrist_1_joint": 2.9510920581198716,
        "distance_wrist_2_joint": 0.45458073497981155,
        "distance_wrist_3_joint": 3.1374989476864243,
        "smoothness": 0.47760620080253385,
        "time": 0.12803805499999998,
        "traj_len": 4.007081691430981,
        "weighted_distance": 5.073201589753153
    },
    "planner": "LazyPRM",
    "start": {
        "state": {
            "elbow_joint": 0.749534889911806,
            "shoulder_lift_joint": -0.6476975780787326,
            "shoulder_pan_joint": -2.711696901376241,
            "wrist_1_joint": -0.07506478083263063,
            "wrist_2_joint": 0.43296659715538205,
            "wrist_3_joint": -3.14703540197715
        }
    },
    "waypoints": [
        {
            "positions": [
                -2.711696901376241,
                -0.6476975780787326,
                0.749534889911806,
                -0.07506478083263063,
                0.43296659715538205,
                -3.14703540197715
            ]
        },
        {
            "positions": [
                -2.7695145300209605,
                -0.7318417834913042,
                0.6263827422217425,
                -0.06403133575420125,
                0.3767604010906478,
                -3.1348005093430813
            ]
        },
        {
            "positions": [
                -2.82733215866568,
                -0.8159859889038759,
                0.5032305945316792,
                -0.05299789067577186,
                0.32055420502591353,
                -3.1225656167090126
            ]
        },
        {
            "positions": [
                -2.7243439336689055,
                -0.8337439433658186,
                0.4113063073936337,
                0.03236045068111407,
                0.3137571535384602,
                -3.046247978479853
            ]
        },
        {
            "positions": [
                -2.621355708672131,
                -0.8515018978277614,
                0.31938202025558826,
                0.117718792038,
                0.3069601020510068,
                -2.969930340250693
            ]
        },
        {
            "positions": [
                -2.5183674836753567,
                -0.8692598522897041,
                0.22745773311754275,
                0.20307713339488587,
                0.30016305056355347,
                -2.8936127020215334
            ]
        },
        {
            "positions": [
                -2.4153792586785823,
                -0.887017806751647,
                0.1355334459794973,
                0.28843547475177184,
                0.2933659990761001,
                -2.8172950637923737
            ]
        },
        {
            "positions": [
                -2.312391033681808,
                -0.9047757612135897,
                0.04360915884145178,
                0.37379381610865775,
                0.28656894758864676,
                -2.740977425563214
            ]
        },
        {
            "positions": [
                -2.2094028086850335,
                -0.9225337156755324,
                -0.04831512829659368,
                0.4591521574655436,
                0.27977189610119335,
                -2.6646597873340543
            ]
        },
        {
            "positions": [
                -2.106414583688259,
                -0.9402916701374753,
                -0.14023941543463925,
                0.5445104988224296,
                0.27297484461374,
                -2.5883421491048946
            ]
        },
        {
            "positions": [
                -2.0034263586914847,
                -0.958049624599418,
                -0.2321637025726846,
                0.6298688401793155,
                0.26617779312628664,
                -2.512024510875735
            ]
        },
        {
            "positions": [
                -1.9004381336947103,
                -0.9758075790613607,
                -0.32408798971073016,
                0.7152271815362015,
                0.2593807416388333,
                -2.435706872646575
            ]
        },
        {
            "positions": [
                -1.797449908697936,
                -0.9935655335233036,
                -0.4160122768487756,
                0.8005855228930874,
                0.25258369015137994,
                -2.3593892344174154
            ]
        },
        {
            "positions": [
                -1.6944616837011617,
                -1.0113234879852464,
                -0.5079365639868211,
                0.8859438642499733,
                0.24578663866392658,
                -2.2830715961882557
            ]
        },
        {
            "positions": [
                -1.5914734587043873,
                -1.029081442447189,
                -0.5998608511248665,
                0.9713022056068591,
                0.23898958717647323,
                -2.206753957959096
            ]
        },
        {
            "positions": [
                -1.488485233707613,
                -1.0468393969091319,
                -0.691785138262912,
                1.0566605469637451,
                0.23219253568901987,
                -2.1304363197299363
            ]
        },
        {
            "positions": [
                -1.3854970087108385,
                -1.0645973513710747,
                -0.7837094254009577,
                1.1420188883206313,
                0.22539548420156652,
                -2.0541186815007766
            ]
        },
        {
            "positions": [
                -1.282508783714064,
                -1.0823553058330173,
                -0.8756337125390029,
                1.2273772296775172,
                0.21859843271411317,
                -1.977801043271617
            ]
        },
        {
            "positions": [
                -1.17952055871729,
                -1.1001132602949601,
                -0.9675579996770484,
                1.312735571034403,
                0.2118013812266598,
                -1.9014834050424574
            ]
        },
        {
            "positions": [
                -1.0765323337205155,
                -1.117871214756903,
                -1.059482286815094,
                1.3980939123912888,
                0.20500432973920646,
                -1.8251657668132977
            ]
        },
        {
            "positions": [
                -0.9735441087237409,
                -1.1356291692188458,
                -1.1514065739531394,
                1.483452253748175,
                0.19820727825175305,
                -1.748848128584138
            ]
        },
        {
            "positions": [
                -0.8705558837269667,
                -1.1533871236807884,
                -1.2433308610911848,
                1.5688105951050608,
                0.19141022676429972,
                -1.6725304903549782
            ]
        },
        {
            "positions": [
                -0.7675676587301923,
                -1.1711450781427313,
                -1.3352551482292303,
                1.6541689364619467,
                0.18461317527684637,
                -1.5962128521258185
            ]
        },
        {
            "positions": [
                -0.6645794337334179,
                -1.188903032604674,
                -1.4271794353672758,
                1.7395272778188324,
                0.17781612378939302,
                -1.5198952138966588
            ]
        },
        {
            "positions": [
                -0.5615912087366435,
                -1.2066609870666167,
                -1.5191037225053212,
                1.8248856191757186,
                0.17101907230193963,
                -1.4435775756674991
            ]
        },
        {
            "positions": [
                -0.45860298373986896,
                -1.2244189415285596,
                -1.6110280096433667,
                1.9102439605326045,
                0.16422202081448628,
                -1.3672599374383394
            ]
        },
        {
            "positions": [
                -0.35929411252210186,
                -1.2988402474268586,
                -1.6966949538098834,
                1.9365191383542029,
                0.1734749551518784,
                -1.270833747961535
            ]
        },
        {
            "positions": [
                -0.2599852413043348,
                -1.3732615533251575,
                -1.7823618979764002,
                1.9627943161758012,
                0.18272788948927055,
                -1.1744075584847307
            ]
        },
        {
            "positions": [
                -0.16067637008656777,
                -1.4476828592234565,
                -1.868028842142917,
                1.9890694939973996,
                0.19198082382666268,
                -1.0779813690079263
            ]
        },
        {
            "positions": [
                -0.06136749886880066,
                -1.5221041651217555,
                -1.953695786309434,
                2.015344671818998,
                0.2012337581640548,
                -0.9815551795311219
            ]
        },
        {
            "positions": [
                0.037941372348966385,
                -1.5965254710200547,
                -2.0393627304759505,
                2.0416198496405964,
                0.21048669250144697,
                -0.8851289900543177
            ]
        },
        {
            "positions": [
                0.13725024356673343,
                -1.6709467769183535,
                -2.1250296746424677,
                2.0678950274621952,
                0.21973962683883907,
                -0.7887028005775133
            ]
        },
        {
            "positions": [
                0.23655911478450053,
                -1.7453680828166527,
                -2.210696618808984,
                2.0941702052837936,
                0.22899256117623124,
                -0.6922766111007089
            ]
        },
        {
            "positions": [
                0.33586798600226764,
                -1.8197893887149517,
                -2.2963635629755013,
                2.120445383105392,
                0.23824549551362337,
                -0.5958504216239046
            ]
        },
        {
            "positions": [
                0.43517685722003474,
                -1.8942106946132506,
                -2.382030507142018,
                2.1467205609269904,
                0.2474984298510155,
                -0.4994242321471002
            ]
        },
        {
            "positions": [
                0.5344857284378017,
                -1.9686320005115496,
                -2.467697451308535,
                2.1729957387485888,
                0.2567513641884076,
                -0.40299804267029593
            ]
        },
        {
            "positions": [
                0.6337945996555687,
                -2.0430533064098486,
                -2.5533643954750516,
                2.199270916570187,
                0.26600429852579976,
                -0.30657185319349156
            ]
        },
        {
            "positions": [
                0.4972531169960237,
                -2.0830272746885705,
                -2.523460694465551,
                2.0864781897840112,
                0.25199531837119943,
                -0.25706595337636357
            ]
        },
        {
            "positions": [
                0.36071163433647874,
                -2.1230012429672924,
                -2.49355699345605,
                1.9736854629978358,
                0.23798633821659904,
                -0.2075600535592356
            ]
        },
        {
            "positions": [
                0.22417015167693372,
                -2.162975211246014,
                -2.4636532924465495,
                1.8608927362116598,
                0.2239773580619987,
                -0.1580541537421076
            ]
        },
        {
            "positions": [
                0.08762866901738875,
                -2.202949179524736,
                -2.4337495914370493,
                1.7481000094254844,
                0.20996837790739833,
                -0.10854825392497963
            ]
        },
        {
            "positions": [
                -0.04891281364215627,
                -2.2429231478034577,
                -2.4038458904275486,
                1.6353072826393085,
                0.19595939775279797,
                -0.05904235410785161
            ]
        },
        {
            "positions": [
                -0.1854542963017013,
                -2.2828971160821796,
                -2.373942189418048,
                1.5225145558531328,
                0.1819504175981976,
                -0.009536454290723627
            ]
        }
    ]
}