{
    "goal": {
        "global_pose": {
            "orientation": {
                "w": 0.7031023502349854,
                "x": -0.7110244035720825,
                "y": 0.007748599164187908,
                "z": 0.005598929710686207
            },
            "position": {
                "x": 0.11585023208521307,
                "y": 0.44412534475326537,
                "z": 0.3711530566215515
            }
        },
        "name": "move_to_auspresseinheit_A"
    },
    "id": "LazyPRM_move_to_auspresseinheit_A_37",
    "joint_names": [
        "shoulder_pan_joint",
        "shoulder_lift_joint",
        "elbow_joint",
        "wrist_1_joint",
        "wrist_2_joint",
        "wrist_3_joint"
    ],
    "metrics": {
        "cart_traj_len": 1.6168580491773479,
        "distance_elbow_joint": 0.6857644014677149,
        "distance_shoulder_lift_joint": 1.1601416586330469,
        "distance_shoulder_pan_joint": 2.000038979257331,
        "distance_wrist_1_joint": 0.6233203990682677,
        "distance_wrist_2_joint": 0.9864383776119533,
        "distance_wrist_3_joint": 0.05067169792946524,
        "smoothness": 1.2553352528239838,
        "time": 0.073688269,
        "traj_len": 2.3465667503754886,
        "weighted_distance": 2.6865363735685643
    },
    "planner": "LazyPRM",
    "start": {
        "state": {
            "elbow_joint": 2.4225746658250005,
            "shoulder_lift_joint": -1.3736534386056498,
            "shoulder_pan_joint": -0.3378633547517467,
            "wrist_1_joint": -1.0288598680537169,
            "wrist_2_joint": 1.233022673432363,
            "wrist_3_joint": -3.0940220416140027
        }
    },
    "waypoints": [
        {
            "positions": [
                -0.3378633547517467,
                -1.3736534386056498,
                2.4225746658250005,
                -1.0288598680537169,
                1.233022673432363,
                -3.0940220416140027
            ]
        },
        {
            "positions": [
                -0.22426875985513603,
                -1.4687747732310412,
                2.3760727843810847,
                -1.002965319477108,
                1.1646671384868967,
                -3.0972370141663745
            ]
        },
        {
            "positions": [
                -0.11067416495852533,
                -1.5638961078564326,
                2.329570902937169,
                -0.977070770900499,
                1.0963116035414306,
                -3.1004519867187468
            ]
        },
        {
            "positions": [
                0.0029204299380853893,
                -1.659017442481824,
                2.283069021493253,
                -0.9511762223238901,
                1.0279560685959643,
                -3.1036669592711186
            ]
        },
        {
            "positions": [
                0.11651502483469606,
                -1.7541387771072154,
                2.236567140049337,
                -0.9252816737472811,
                0.9596005336504981,
                -3.106881931823491
            ]
        },
        {
            "positions": [
                0.23010961973130678,
                -1.8492601117326068,
                2.1900652586054212,
                -0.8993871251706722,
                0.8912449987050319,
                -3.1100969043758626
            ]
        },
        {
            "positions": [
                0.3437042146279175,
                -1.9443814463579983,
                2.1435633771615055,
                -0.8734925765940633,
                0.8228894637595656,
                -3.113311876928235
            ]
        },
        {
            "positions": [
                0.45729880952452817,
                -2.0395027809833897,
                2.0970614957175897,
                -0.8475980280174543,
                0.7545339288140994,
                -3.1165268494806067
            ]
        },
        {
            "positions": [
                0.6136954939947141,
                -2.107085250575875,
                2.0642915125773955,
                -0.8227762452756164,
                0.6838337586139633,
                -3.120032591929868
            ]
        },
        {
            "positions": [
                0.8036964307963868,
                -2.1448143615941615,
                2.0743694387900353,
                -0.7459662448511674,
                0.6141384718501401,
                -3.120615718603485
            ]
        },
        {
            "positions": [
                0.9936973675980595,
                -2.1825434726124486,
                2.084447365002675,
                -0.6691562444267184,
                0.544443185086317,
                -3.1211988452771022
            ]
        },
        {
            "positions": [
                1.1836983043997322,
                -2.2202725836307353,
                2.094525291215315,
                -0.5923462440022693,
                0.4747478983224937,
                -3.1217819719507194
            ]
        },
        {
            "positions": [
                1.1039864564934532,
                -2.146444496739478,
                2.1632555151679638,
                -0.552985634358963,
                0.5237213129873832,
                -3.120214249291516
            ]
        },
        {
            "positions": [
                1.0242746085871743,
                -2.07261640984822,
                2.231985739120613,
                -0.5136250247156565,
                0.5726947276522728,
                -3.1186465266323133
            ]
        },
        {
            "positions": [
                0.9445627606808954,
                -1.9987883229569623,
                2.3007159630732623,
                -0.4742644150723501,
                0.6216681423171624,
                -3.1170788039731105
            ]
        },
        {
            "positions": [
                0.8648509127746165,
                -1.9249602360657045,
                2.369446187025911,
                -0.4349038054290437,
                0.6706415569820519,
                -3.1155110813139073
            ]
        },
        {
            "positions": [
                0.70522098429388,
                -1.906750070022774,
                2.3917727607975054,
                -0.4642681418726383,
                0.7029115008245778,
                -3.132151958269844
            ]
        }
    ]
}