{
    "goal": {
        "global_pose": {
            "orientation": {
                "w": -0.00223480608172531,
                "x": 0.0024358444001904467,
                "y": 0.7094548369677653,
                "z": -0.704743149386269
            },
            "position": {
                "x": -0.37947507619857795,
                "y": -0.6371506643295288,
                "z": 0.19426114857196808
            }
        },
        "name": "move_to_magneteinheit_C"
    },
    "id": "LazyPRMstar_move_to_magneteinheit_C_92",
    "joint_names": [
        "shoulder_pan_joint",
        "shoulder_lift_joint",
        "elbow_joint",
        "wrist_1_joint",
        "wrist_2_joint",
        "wrist_3_joint"
    ],
    "metrics": {
        "cart_traj_len": 5.758791756141368,
        "distance_elbow_joint": 1.3540219976605363,
        "distance_shoulder_lift_joint": 3.866737139344585,
        "distance_shoulder_pan_joint": 10.347634917208445,
        "distance_wrist_1_joint": 0.5741571723647836,
        "distance_wrist_2_joint": 1.3061963430809693,
        "distance_wrist_3_joint": 6.460662083515143,
        "smoothness": 0.5543118885968409,
        "time": 5.196849208000001,
        "traj_len": 4.889724905674599,
        "weighted_distance": 6.221823473520483
    },
    "planner": "LazyPRMstar",
    "start": {
        "state": {
            "elbow_joint": 1.9565354010623817,
            "shoulder_lift_joint": -1.4165861575791021,
            "shoulder_pan_joint": -1.6717766225146293,
            "wrist_1_joint": -0.5286633292919765,
            "wrist_2_joint": 1.472756589071564,
            "wrist_3_joint": -3.1238370188695823
        }
    },
    "waypoints": [
        {
            "positions": [
                -1.6717766225146293,
                -1.4165861575791021,
                1.9565354010623817,
                -0.5286633292919765,
                1.472756589071564,
                -3.1238370188695823
            ]
        },
        {
            "positions": [
                -1.5178033398313777,
                -1.4748669900966205,
                1.979234672291076,
                -0.5427728634153847,
                1.4389596960040523,
                -3.020173941217627
            ]
        },
        {
            "positions": [
                -1.3638300571481259,
                -1.5331478226141388,
                2.0019339435197705,
                -0.5568823975387929,
                1.4051628029365406,
                -2.9165108635656716
            ]
        },
        {
            "positions": [
                -1.2098567744648743,
                -1.5914286551316574,
                2.024633214748465,
                -0.5709919316622011,
                1.3713659098690287,
                -2.8128477859137164
            ]
        },
        {
            "positions": [
                -1.0558834917816227,
                -1.6497094876491758,
                2.0473324859771593,
                -0.5851014657856093,
                1.337569016801517,
                -2.7091847082617613
            ]
        },
        {
            "positions": [
                -0.901910209098371,
                -1.7079903201666942,
                2.0700317572058538,
                -0.5992109999090175,
                1.3037721237340054,
                -2.6055216306098057
            ]
        },
        {
            "positions": [
                -0.7479369264151193,
                -1.7662711526842125,
                2.092731028434548,
                -0.6133205340324257,
                1.2699752306664935,
                -2.5018585529578505
            ]
        },
        {
            "positions": [
                -0.5939636437318676,
                -1.824551985201731,
                2.1154302996632426,
                -0.6274300681558339,
                1.2361783375989819,
                -2.3981954753058954
            ]
        },
        {
            "positions": [
                -0.439990361048616,
                -1.8828328177192495,
                2.1381295708919366,
                -0.6415396022792421,
                1.2023814445314702,
                -2.2945323976539402
            ]
        },
        {
            "positions": [
                -0.28601707836536416,
                -1.9411136502367679,
                2.160828842120631,
                -0.6556491364026503,
                1.1685845514639586,
                -2.1908693200019846
            ]
        },
        {
            "positions": [
                -0.13204379568211277,
                -1.9993944827542862,
                2.1835281133493254,
                -0.6697586705260585,
                1.134787658396447,
                -2.0872062423500295
            ]
        },
        {
            "positions": [
                0.02192948700113906,
                -2.057675315271805,
                2.20622738457802,
                -0.6838682046494667,
                1.100990765328935,
                -1.9835431646980741
            ]
        },
        {
            "positions": [
                0.17590276968439067,
                -2.115956147789323,
                2.2289266558067142,
                -0.697977738772875,
                1.0671938722614234,
                -1.8798800870461188
            ]
        },
        {
            "positions": [
                0.3298760523676425,
                -2.1742369803068415,
                2.2516259270354086,
                -0.7120872728962832,
                1.0333969791939115,
                -1.7762170093941634
            ]
        },
        {
            "positions": [
                0.4838493350508941,
                -2.23251781282436,
                2.274325198264103,
                -0.7261968070196914,
                0.9996000861264,
                -1.6725539317422082
            ]
        },
        {
            "positions": [
                0.6378226177341457,
                -2.2907986453418783,
                2.2970244694927975,
                -0.7403063411430995,
                0.9658031930588882,
                -1.5688908540902529
            ]
        },
        {
            "positions": [
                0.7917959004173973,
                -2.3490794778593966,
                2.319723740721492,
                -0.7544158752665078,
                0.9320062999913765,
                -1.4652277764382977
            ]
        },
        {
            "positions": [
                0.945769183100649,
                -2.407360310376915,
                2.3424230119501863,
                -0.7685254093899159,
                0.8982094069238649,
                -1.3615646987863426
            ]
        },
        {
            "positions": [
                1.099742465783901,
                -2.465641142894434,
                2.3651222831788807,
                -0.7826349435133242,
                0.864412513856353,
                -1.257901621134387
            ]
        },
        {
            "positions": [
                1.2537157484671526,
                -2.5239219754119517,
                2.387821554407575,
                -0.7967444776367323,
                0.8306156207888413,
                -1.1542385434824318
            ]
        },
        {
            "positions": [
                1.4076890311504038,
                -2.5822028079294705,
                2.4105208256362696,
                -0.8108540117601406,
                0.7968187277213297,
                -1.0505754658304767
            ]
        },
        {
            "positions": [
                1.5616623138336554,
                -2.6404836404469885,
                2.433220096864964,
                -0.8249635458835487,
                0.763021834653818,
                -0.9469123881785215
            ]
        },
        {
            "positions": [
                1.7156355965169074,
                -2.6987644729645073,
                2.4559193680936584,
                -0.839073080006957,
                0.7292249415863061,
                -0.8432493105265659
            ]
        },
        {
            "positions": [
                1.869608879200159,
                -2.7570453054820256,
                2.4786186393223524,
                -0.8531826141303651,
                0.6954280485187945,
                -0.7395862328746108
            ]
        },
        {
            "positions": [
                2.023582161883411,
                -2.815326137999544,
                2.5013179105510472,
                -0.8672921482537733,
                0.6616311554512828,
                -0.6359231552226552
            ]
        },
        {
            "positions": [
                2.1775554445666625,
                -2.8736069705170624,
                2.524017181779741,
                -0.8814016823771815,
                0.6278342623837712,
                -0.5322600775707
            ]
        },
        {
            "positions": [
                2.331528727249914,
                -2.9318878030345807,
                2.5467164530084356,
                -0.8955112165005898,
                0.5940373693162593,
                -0.42859699991874445
            ]
        },
        {
            "positions": [
                2.4855020099331657,
                -2.9901686355520996,
                2.56941572423713,
                -0.9096207506239979,
                0.5602404762487476,
                -0.3249339222667893
            ]
        },
        {
            "positions": [
                2.6394752926164173,
                -3.0484494680696175,
                2.5921149954658245,
                -0.9237302847474061,
                0.526443583181236,
                -0.22127084461483415
            ]
        },
        {
            "positions": [
                2.793448575299669,
                -3.1067303005871363,
                2.614814266694519,
                -0.9378398188708144,
                0.4926466901137243,
                -0.117607766962879
            ]
        },
        {
            "positions": [
                2.9474218579829206,
                -3.1650111331046547,
                2.6375135379232133,
                -0.9519493529942226,
                0.4588497970462124,
                -0.013944689310923408
            ]
        },
        {
            "positions": [
                3.101395140666172,
                -3.223291965622173,
                2.6602128091519077,
                -0.9660588871176308,
                0.42505290397870077,
                0.08971838834103174
            ]
        },
        {
            "positions": [
                2.9215737486007645,
                -3.1568393420318017,
                2.639233951423811,
                -0.9616472221324975,
                0.4333913768170268,
                -0.015026988313953035
            ]
        },
        {
            "positions": [
                2.7417523565353568,
                -3.09038671844143,
                2.6182550936957134,
                -0.9572355571473644,
                0.4417298496553527,
                -0.11977236496893781
            ]
        },
        {
            "positions": [
                2.5619309644699486,
                -3.0239340948510587,
                2.5972762359676165,
                -0.9528238921622312,
                0.45006832249367873,
                -0.22451774162392257
            ]
        },
        {
            "positions": [
                2.382109572404541,
                -2.957481471260687,
                2.576297378239519,
                -0.9484122271770979,
                0.45840679533200474,
                -0.32926311827890736
            ]
        },
        {
            "positions": [
                2.202288180339133,
                -2.8910288476703156,
                2.555318520511422,
                -0.9440005621919647,
                0.4667452681703307,
                -0.43400849493389215
            ]
        },
        {
            "positions": [
                2.022466788273725,
                -2.8245762240799444,
                2.5343396627833252,
                -0.9395888972068316,
                0.4750837410086567,
                -0.5387538715888769
            ]
        },
        {
            "positions": [
                1.8426453962083176,
                -2.7581236004895726,
                2.513360805055228,
                -0.9351772322216984,
                0.4834222138469827,
                -0.6434992482438616
            ]
        },
        {
            "positions": [
                1.6628240041429099,
                -2.6916709768992013,
                2.492381947327131,
                -0.9307655672365651,
                0.4917606866853087,
                -0.7482446248988465
            ]
        },
        {
            "positions": [
                1.4830026120775017,
                -2.6252183533088296,
                2.4714030895990335,
                -0.926353902251432,
                0.5000991595236347,
                -0.8529900015538313
            ]
        },
        {
            "positions": [
                1.3031812200120942,
                -2.5587657297184583,
                2.4504242318709366,
                -0.9219422372662988,
                0.5084376323619606,
                -0.957735378208816
            ]
        },
        {
            "positions": [
                1.1233598279466863,
                -2.492313106128087,
                2.4294453741428397,
                -0.9175305722811655,
                0.5167761052002866,
                -1.062480754863801
            ]
        },
        {
            "positions": [
                0.9435384358812784,
                -2.4258604825377157,
                2.4084665164147423,
                -0.9131189072960324,
                0.5251145780386126,
                -1.1672261315187855
            ]
        },
        {
            "positions": [
                0.7637170438158707,
                -2.359407858947344,
                2.3874876586866454,
                -0.9087072423108992,
                0.5334530508769386,
                -1.2719715081737704
            ]
        },
        {
            "positions": [
                0.583895651750463,
                -2.2929552353569727,
                2.3665088009585484,
                -0.9042955773257659,
                0.5417915237152646,
                -1.376716884828755
            ]
        },
        {
            "positions": [
                0.40407425968505484,
                -2.226502611766601,
                2.345529943230451,
                -0.8998839123406327,
                0.5501299965535906,
                -1.4814622614837398
            ]
        },
        {
            "positions": [
                0.22425286761964758,
                -2.1600499881762296,
                2.324551085502354,
                -0.8954722473554996,
                0.5584684693919166,
                -1.5862076381387247
            ]
        },
        {
            "positions": [
                0.044431475554239874,
                -2.0935973645858583,
                2.303572227774257,
                -0.8910605823703663,
                0.5668069422302425,
                -1.6909530147937093
            ]
        },
        {
            "positions": [
                -0.13538991651116872,
                -2.0271447409954866,
                2.28259337004616,
                -0.8866489173852331,
                0.5751454150685685,
                -1.7956983914486944
            ]
        },
        {
            "positions": [
                -0.315211308576576,
                -1.960692117405115,
                2.261614512318063,
                -0.8822372524000999,
                0.5834838879068945,
                -1.900443768103679
            ]
        },
        {
            "positions": [
                -0.4950327006419837,
                -1.8942394938147438,
                2.2406356545899655,
                -0.8778255874149667,
                0.5918223607452205,
                -2.005189144758664
            ]
        },
        {
            "positions": [
                -0.6748540927073914,
                -1.8277868702243723,
                2.2196567968618686,
                -0.8734139224298335,
                0.6001608335835464,
                -2.1099345214136482
            ]
        },
        {
            "positions": [
                -0.8546754847727995,
                -1.7613342466340007,
                2.198677939133771,
                -0.8690022574447003,
                0.6084993064218724,
                -2.2146798980686335
            ]
        },
        {
            "positions": [
                -1.0344968768382072,
                -1.6948816230436292,
                2.1776990814056743,
                -0.8645905924595672,
                0.6168377792601984,
                -2.319425274723618
            ]
        },
        {
            "positions": [
                -1.2143182689036154,
                -1.628428999453258,
                2.1567202236775773,
                -0.8601789274744339,
                0.6251762520985245,
                -2.4241706513786028
            ]
        },
        {
            "positions": [
                -1.3941396609690226,
                -1.5619763758628864,
                2.13574136594948,
                -0.8557672624893007,
                0.6335147249368505,
                -2.5289160280335876
            ]
        },
        {
            "positions": [
                -1.5739610530344308,
                -1.4955237522725149,
                2.114762508221383,
                -0.8513555975041676,
                0.6418531977751765,
                -2.6336614046885725
            ]
        },
        {
            "positions": [
                -1.753782445099839,
                -1.4290711286821434,
                2.093783650493286,
                -0.8469439325190343,
                0.6501916706135025,
                -2.7384067813435573
            ]
        },
        {
            "positions": [
                -1.9336038371652462,
                -1.362618505091772,
                2.0728047927651887,
                -0.8425322675339011,
                0.6585301434518285,
                -2.8431521579985417
            ]
        },
        {
            "positions": [
                -2.1134252292306535,
                -1.2961658815014006,
                2.0518259350370918,
                -0.838120602548768,
                0.6668686162901544,
                -2.9478975346535266
            ]
        },
        {
            "positions": [
                -2.2932466212960625,
                -1.229713257911029,
                2.0308470773089944,
                -0.8337089375636347,
                0.6752070891284804,
                -3.0526429113085114
            ]
        },
        {
            "positions": [
                -2.4730680133614693,
                -1.1632606343206573,
                2.0098682195808975,
                -0.8292972725785015,
                0.6835455619668064,
                -3.1573882879634962
            ]
        }
    ]
}