{
    "goal": {
        "global_pose": {
            "orientation": {
                "w": 0.7047431468963623,
                "x": -0.7094548344612122,
                "y": 0.0024358443915843964,
                "z": -0.0022348060738295317
            },
            "position": {
                "x": 0.6094750761985779,
                "y": 0.3671506643295288,
                "z": 0.19426114857196808
            }
        },
        "name": "move_to_magneteinheit_A"
    },
    "id": "LazyPRM_move_to_magneteinheit_A_94",
    "joint_names": [
        "shoulder_pan_joint",
        "shoulder_lift_joint",
        "elbow_joint",
        "wrist_1_joint",
        "wrist_2_joint",
        "wrist_3_joint"
    ],
    "metrics": {
        "cart_traj_len": 3.570857820601066,
        "distance_elbow_joint": 3.8991002005304924,
        "distance_shoulder_lift_joint": 0.45375612105596863,
        "distance_shoulder_pan_joint": 3.5263081062147834,
        "distance_wrist_1_joint": 0.7328182736624068,
        "distance_wrist_2_joint": 1.700075795186654,
        "distance_wrist_3_joint": 2.680433165183917,
        "smoothness": 0.12482574811067726,
        "time": 0.077865312,
        "traj_len": 3.6045099059142873,
        "weighted_distance": 4.559194233749109
    },
    "planner": "LazyPRM",
    "start": {
        "state": {
            "elbow_joint": -1.9196185241190666,
            "shoulder_lift_joint": -1.2443396400964142,
            "shoulder_pan_joint": 2.6996025414629847,
            "wrist_1_joint": -1.5485510000780065,
            "wrist_2_joint": -1.5709468930060704,
            "wrist_3_joint": 0.4420197071253992
        }
    },
    "waypoints": [
        {
            "positions": [
                2.6996025414629847,
                -1.2443396400964142,
                -1.9196185241190666,
                -1.5485510000780065,
                -1.5709468930060704,
                0.4420197071253992
            ]
        },
        {
            "positions": [
                2.566902168843641,
                -1.2520383243592879,
                -1.7956111740669018,
                -1.5442070851334806,
                -1.5497605034366502,
                0.5367157443610681
            ]
        },
        {
            "positions": [
                2.4342017962242974,
                -1.2597370086221615,
                -1.6716038240147368,
                -1.5398631701889547,
                -1.5285741138672297,
                0.6314117815967368
            ]
        },
        {
            "positions": [
                2.301501423604954,
                -1.2674356928850352,
                -1.5475964739625718,
                -1.5355192552444286,
                -1.5073877242978095,
                0.7261078188324057
            ]
        },
        {
            "positions": [
                2.16880105098561,
                -1.275134377147909,
                -1.423589123910407,
                -1.5311753402999027,
                -1.4862013347283891,
                0.8208038560680746
            ]
        },
        {
            "positions": [
                2.0361006783662665,
                -1.2828330614107826,
                -1.2995817738582423,
                -1.5268314253553767,
                -1.465014945158969,
                0.9154998933037435
            ]
        },
        {
            "positions": [
                1.9034003057469229,
                -1.2905317456736562,
                -1.1755744238060772,
                -1.5224875104108508,
                -1.4438285555895485,
                1.0101959305394121
            ]
        },
        {
            "positions": [
                1.770699933127579,
                -1.29823042993653,
                -1.0515670737539122,
                -1.5181435954663247,
                -1.4226421660201283,
                1.1048919677750813
            ]
        },
        {
            "positions": [
                1.6379995605082354,
                -1.3059291141994036,
                -0.9275597237017474,
                -1.5137996805217988,
                -1.401455776450708,
                1.19958800501075
            ]
        },
        {
            "positions": [
                1.5052991878888917,
                -1.3136277984622773,
                -0.8035523736495824,
                -1.509455765577273,
                -1.3802693868812876,
                1.294284042246419
            ]
        },
        {
            "positions": [
                1.372598815269548,
                -1.321326482725151,
                -0.6795450235974176,
                -1.505111850632747,
                -1.3590829973118674,
                1.3889800794820877
            ]
        },
        {
            "positions": [
                1.2398984426502044,
                -1.3290251669880249,
                -0.5555376735452526,
                -1.500767935688221,
                -1.337896607742447,
                1.4836761167177568
            ]
        },
        {
            "positions": [
                1.1071980700308608,
                -1.3367238512508983,
                -0.43153032349308784,
                -1.496424020743695,
                -1.3167102181730268,
                1.5783721539534254
            ]
        },
        {
            "positions": [
                0.9744976974115171,
                -1.3444225355137722,
                -0.30752297344092305,
                -1.492080105799169,
                -1.2955238286036064,
                1.6730681911890941
            ]
        },
        {
            "positions": [
                0.8417973247921733,
                -1.352121219776646,
                -0.18351562338875782,
                -1.4877361908546431,
                -1.2743374390341862,
                1.7677642284247632
            ]
        },
        {
            "positions": [
                0.7090969521728299,
                -1.3598199040395196,
                -0.05950827333659303,
                -1.4833922759101172,
                -1.253151049464766,
                1.8624602656604319
            ]
        },
        {
            "positions": [
                0.576396579553486,
                -1.3675185883023933,
                0.06449907671557176,
                -1.4790483609655913,
                -1.2319646598953455,
                1.957156302896101
            ]
        },
        {
            "positions": [
                0.4436962069341428,
                -1.375217272565267,
                0.18850642676773655,
                -1.4747044460210652,
                -1.2107782703259253,
                2.0518523401317696
            ]
        },
        {
            "positions": [
                0.3109958343147987,
                -1.3829159568281406,
                0.3125137768199018,
                -1.4703605310765393,
                -1.189591880756505,
                2.1465483773674388
            ]
        },
        {
            "positions": [
                0.17829546169545507,
                -1.3906146410910143,
                0.43652112687206657,
                -1.4660166161320134,
                -1.1684054911870847,
                2.2412444146031074
            ]
        },
        {
            "positions": [
                0.04559508907611143,
                -1.398313325353888,
                0.5605284769242314,
                -1.4616727011874875,
                -1.1472191016176643,
                2.335940451838776
            ]
        },
        {
            "positions": [
                -0.08710528354323221,
                -1.4060120096167616,
                0.6845358269763961,
                -1.4573287862429614,
                -1.126032712048244,
                2.430636489074445
            ]
        },
        {
            "positions": [
                -0.21980565616257586,
                -1.4137106938796353,
                0.8085431770285614,
                -1.4529848712984355,
                -1.1048463224788236,
                2.5253325263101143
            ]
        },
        {
            "positions": [
                -0.35250602878191944,
                -1.421409378142509,
                0.9325505270807262,
                -1.4486409563539095,
                -1.0836599329094034,
                2.620028563545783
            ]
        },
        {
            "positions": [
                -0.3093969800573849,
                -1.3962560705961569,
                1.0277260861107897,
                -1.391103844541336,
                -0.9734064024466773,
                2.6657035007061043
            ]
        },
        {
            "positions": [
                -0.2662879313328504,
                -1.3711027630498047,
                1.1229016451408536,
                -1.3335667327287624,
                -0.8631528719839513,
                2.711378437866425
            ]
        },
        {
            "positions": [
                -0.22317888260831586,
                -1.3459494555034526,
                1.2180772041709171,
                -1.2760296209161888,
                -0.7528993415212253,
                2.7570533750267465
            ]
        },
        {
            "positions": [
                -0.1800698338837813,
                -1.3207961479571004,
                1.3132527632009807,
                -1.218492509103615,
                -0.6426458110584992,
                2.802728312187068
            ]
        },
        {
            "positions": [
                -0.13696078515924678,
                -1.2956428404107483,
                1.4084283222310443,
                -1.1609553972910414,
                -0.532392280595773,
                2.848403249347389
            ]
        },
        {
            "positions": [
                -0.09385173643471229,
                -1.2704895328643961,
                1.503603881261108,
                -1.1034182854784678,
                -0.422138750133047,
                2.89407818650771
            ]
        },
        {
            "positions": [
                -0.0507426877101777,
                -1.2453362253180438,
                1.5987794402911717,
                -1.0458811736658942,
                -0.3118852196703209,
                2.9397531236680314
            ]
        },
        {
            "positions": [
                -0.007633638985643176,
                -1.2201829177716916,
                1.6939549993212353,
                -0.9883440618533206,
                -0.20163168920759478,
                2.9854280608283528
            ]
        },
        {
            "positions": [
                0.03547540973889135,
                -1.1950296102253395,
                1.789130558351299,
                -0.9308069500407469,
                -0.09137815874486865,
                3.031102997988674
            ]
        },
        {
            "positions": [
                0.07858445846342588,
                -1.1698763026789873,
                1.8843061173813624,
                -0.8732698382281733,
                0.01887537171785736,
                3.076777935148995
            ]
        },
        {
            "positions": [
                0.12169350718796039,
                -1.1447229951326352,
                1.9794816764114262,
                -0.8157327264155997,
                0.12912890218058343,
                3.1224528723093163
            ]
        }
    ]
}