{
    "goal": {
        "global_pose": {
            "orientation": {
                "w": 0.7047431468963623,
                "x": -0.7094548344612122,
                "y": 0.0024358443915843964,
                "z": -0.0022348060738295317
            },
            "position": {
                "x": 0.6094750761985779,
                "y": 0.3671506643295288,
                "z": 0.19426114857196808
            }
        },
        "name": "move_to_magneteinheit_A"
    },
    "id": "LazyPRM_move_to_magneteinheit_A_73",
    "joint_names": [
        "shoulder_pan_joint",
        "shoulder_lift_joint",
        "elbow_joint",
        "wrist_1_joint",
        "wrist_2_joint",
        "wrist_3_joint"
    ],
    "metrics": {
        "cart_traj_len": 3.0654560272215208,
        "distance_elbow_joint": 3.920293590832724,
        "distance_shoulder_lift_joint": 0.4631423391233642,
        "distance_shoulder_pan_joint": 2.9253893685329637,
        "distance_wrist_1_joint": 3.5023383389895093,
        "distance_wrist_2_joint": 1.4457979876789389,
        "distance_wrist_3_joint": 0.46409957628721515,
        "smoothness": 0.045277076670673634,
        "time": 0.165324036,
        "traj_len": 3.5666596699775996,
        "weighted_distance": 4.312469904902247
    },
    "planner": "LazyPRM",
    "start": {
        "state": {
            "elbow_joint": -1.9196185241190666,
            "shoulder_lift_joint": -1.2443396400964142,
            "shoulder_pan_joint": 2.6996025414629847,
            "wrist_1_joint": -1.5485510000780065,
            "wrist_2_joint": -1.5709468930060704,
            "wrist_3_joint": 0.4420197071253992
        }
    },
    "waypoints": [
        {
            "positions": [
                2.6996025414629847,
                -1.2443396400964142,
                -1.9196185241190666,
                -1.5485510000780065,
                -1.5709468930060704,
                0.4420197071253992
            ]
        },
        {
            "positions": [
                2.5976988014945723,
                -1.2434044269984634,
                -1.7892592662980795,
                -1.4513208552734702,
                -1.5321025104915051,
                0.4284744356173
            ]
        },
        {
            "positions": [
                2.4957950615261595,
                -1.2424692139005125,
                -1.6589000084770924,
                -1.3540907104689341,
                -1.4932581279769397,
                0.4149291641092008
            ]
        },
        {
            "positions": [
                2.393891321557747,
                -1.2415340008025617,
                -1.5285407506561053,
                -1.2568605656643979,
                -1.4544137454623745,
                0.4013838926011016
            ]
        },
        {
            "positions": [
                2.2919875815893342,
                -1.240598787704611,
                -1.3981814928351182,
                -1.1596304208598618,
                -1.415569362947809,
                0.3878386210930024
            ]
        },
        {
            "positions": [
                2.190083841620922,
                -1.23966357460666,
                -1.2678222350141313,
                -1.0624002760553255,
                -1.3767249804332438,
                0.3742933495849032
            ]
        },
        {
            "positions": [
                2.0881801016525094,
                -1.2387283615087092,
                -1.1374629771931442,
                -0.9651701312507893,
                -1.3378805979186785,
                0.360748078076804
            ]
        },
        {
            "positions": [
                1.9862763616840966,
                -1.2377931484107585,
                -1.0071037193721573,
                -0.8679399864462531,
                -1.299036215404113,
                0.3472028065687047
            ]
        },
        {
            "positions": [
                1.8843726217156842,
                -1.2368579353128075,
                -0.8767444615511699,
                -0.770709841641717,
                -1.2601918328895478,
                0.3336575350606056
            ]
        },
        {
            "positions": [
                1.7824688817472716,
                -1.2359227222148568,
                -0.746385203730183,
                -0.6734796968371808,
                -1.2213474503749824,
                0.3201122635525063
            ]
        },
        {
            "positions": [
                1.680565141778859,
                -1.234987509116906,
                -0.6160259459091959,
                -0.5762495520326446,
                -1.1825030678604171,
                0.3065669920444072
            ]
        },
        {
            "positions": [
                1.5786614018104463,
                -1.234052296018955,
                -0.4856666880882088,
                -0.47901940722810843,
                -1.143658685345852,
                0.29302172053630793
            ]
        },
        {
            "positions": [
                1.476757661842034,
                -1.2331170829210043,
                -0.35530743026722167,
                -0.38178926242357214,
                -1.1048143028312865,
                0.2794764490282088
            ]
        },
        {
            "positions": [
                1.3748539218736213,
                -1.2321818698230536,
                -0.22494817244623455,
                -0.2845591176190361,
                -1.0659699203167212,
                0.26593117752010953
            ]
        },
        {
            "positions": [
                1.2729501819052087,
                -1.2312466567251026,
                -0.09458891462524766,
                -0.18732897281449978,
                -1.027125537802156,
                0.25238590601201033
            ]
        },
        {
            "positions": [
                1.1710464419367959,
                -1.2303114436271518,
                0.035770343195739684,
                -0.0900988280099635,
                -0.9882811552875905,
                0.2388406345039111
            ]
        },
        {
            "positions": [
                1.0691427019683835,
                -1.229376230529201,
                0.1661296010167268,
                0.007131316794572573,
                -0.9494367727730252,
                0.22529536299581193
            ]
        },
        {
            "positions": [
                0.9672389619999708,
                -1.2284410174312501,
                0.2964888588377139,
                0.10436146159910886,
                -0.9105923902584598,
                0.2117500914877127
            ]
        },
        {
            "positions": [
                0.8653352220315584,
                -1.2275058043332994,
                0.4268481166587006,
                0.20159160640364493,
                -0.8717480077438946,
                0.19820481997961353
            ]
        },
        {
            "positions": [
                0.7634314820631456,
                -1.2265705912353486,
                0.5572073744796882,
                0.2988217512081812,
                -0.8329036252293291,
                0.18465954847151428
            ]
        },
        {
            "positions": [
                0.6615277420947332,
                -1.2256353781373976,
                0.6875666323006748,
                0.3960518960127173,
                -0.7940592427147639,
                0.17111427696341514
            ]
        },
        {
            "positions": [
                0.5596240021263204,
                -1.224700165039447,
                0.8179258901216624,
                0.4932820408172536,
                -0.7552148602001986,
                0.15756900545531588
            ]
        },
        {
            "positions": [
                0.45772026215790795,
                -1.2237649519414961,
                0.9482851479426491,
                0.5905121856217896,
                -0.7163704776856333,
                0.14402373394721674
            ]
        },
        {
            "positions": [
                0.35581652218949555,
                -1.2228297388435452,
                1.0786444057636362,
                0.6877423304263262,
                -0.6775260951710679,
                0.13047846243911748
            ]
        },
        {
            "positions": [
                0.25391278222108316,
                -1.2218945257455944,
                1.2090036635846233,
                0.7849724752308622,
                -0.6386817126565026,
                0.11693319093101834
            ]
        },
        {
            "positions": [
                0.1520090422526703,
                -1.2209593126476437,
                1.3393629214056104,
                0.8822026200353983,
                -0.5998373301419373,
                0.10338791942291908
            ]
        },
        {
            "positions": [
                0.05010530228425791,
                -1.2200240995496927,
                1.4697221792265975,
                0.9794327648399344,
                -0.5609929476273721,
                0.08984264791481988
            ]
        },
        {
            "positions": [
                -0.05179843768415478,
                -1.219088886451742,
                1.6000814370475849,
                1.0766629096444706,
                -0.5221485651128066,
                0.07629737640672068
            ]
        },
        {
            "positions": [
                -0.03390552658726762,
                -1.1583025145520995,
                1.6628862352293172,
                1.208170620152635,
                -0.4639898242674457,
                0.05989749241414304
            ]
        },
        {
            "positions": [
                -0.016012615490380466,
                -1.0975161426524571,
                1.7256910334110496,
                1.3396783306607993,
                -0.40583108342208485,
                0.0434976084215654
            ]
        },
        {
            "positions": [
                0.0018802956065066823,
                -1.0367297707528147,
                1.788495831592782,
                1.4711860411689637,
                -0.34767234257672397,
                0.027097724428987766
            ]
        },
        {
            "positions": [
                0.019773206703393845,
                -0.9759433988531724,
                1.8513006297745143,
                1.602693751677128,
                -0.2895136017313631,
                0.010697840436410117
            ]
        },
        {
            "positions": [
                0.03766611780028099,
                -0.91515702695353,
                1.9141054279562466,
                1.7342014621852924,
                -0.2313548608860022,
                -0.005702043556167522
            ]
        },
        {
            "positions": [
                0.07992803475097521,
                -0.84817716396329,
                1.9573902473349525,
                1.8439944005483975,
                -0.1782518831065666,
                -0.013890956358991744
            ]
        },
        {
            "positions": [
                0.12218995170166944,
                -0.78119730097305,
                2.0006750667136584,
                1.9537873389115028,
                -0.12514890532713094,
                -0.022079869161815965
            ]
        }
    ]
}