{
    "goal": {
        "global_pose": {
            "orientation": {
                "w": 0.5084816262002911,
                "x": -0.4908360881923452,
                "y": 0.5182115481033761,
                "z": -0.48164630358495003
            },
            "position": {
                "x": 0.5540239810943604,
                "y": -0.46912469901144505,
                "z": 0.16403168439865112
            }
        },
        "name": "move_to_storage_B"
    },
    "id": "LazyPRMstar_move_to_storage_B_144",
    "joint_names": [
        "shoulder_pan_joint",
        "shoulder_lift_joint",
        "elbow_joint",
        "wrist_1_joint",
        "wrist_2_joint",
        "wrist_3_joint"
    ],
    "metrics": {
        "cart_traj_len": 0.8753843601878315,
        "distance_elbow_joint": 0.35337353460663046,
        "distance_shoulder_lift_joint": 0.46165558002000573,
        "distance_shoulder_pan_joint": 0.18994779059425781,
        "distance_wrist_1_joint": 2.99351577667206,
        "distance_wrist_2_joint": 2.715322005692497,
        "distance_wrist_3_joint": 3.1372527042112703,
        "smoothness": 0.0012151493859013836,
        "time": 5.0549177,
        "traj_len": 3.1386410103413738,
        "weighted_distance": 4.6727305274950135
    },
    "planner": "LazyPRMstar",
    "start": {
        "state": {
            "elbow_joint": 1.664937868594044,
            "shoulder_lift_joint": -0.661644460510453,
            "shoulder_pan_joint": -0.9139846352900073,
            "wrist_1_joint": 2.146753192139373,
            "wrist_2_joint": -2.2341966793290973,
            "wrist_3_joint": 0.005466555786416001
        }
    },
    "waypoints": [
        {
            "positions": [
                -0.9139846352900073,
                -0.661644460510453,
                1.664937868594044,
                2.146753192139373,
                -2.2341966793290973,
                0.005466555786416001
            ]
        },
        {
            "positions": [
                -0.9135960973637814,
                -0.6997608582834756,
                1.6871413058460307,
                2.0517340506415156,
                -2.162713378278364,
                -0.14822309240888634
            ]
        },
        {
            "positions": [
                -0.9132075594375555,
                -0.7378772560564982,
                1.7093447430980173,
                1.9567149091436578,
                -2.0912300772276304,
                -0.30191274060418866
            ]
        },
        {
            "positions": [
                -0.9128190215113297,
                -0.7759936538295209,
                1.731548180350004,
                1.8616957676458001,
                -2.019746776176897,
                -0.455602388799491
            ]
        },
        {
            "positions": [
                -0.9124304835851037,
                -0.8141100516025435,
                1.7537516176019907,
                1.7666766261479425,
                -1.9482634751261638,
                -0.6092920369947934
            ]
        },
        {
            "positions": [
                -0.9120419456588779,
                -0.852226449375566,
                1.7759550548539775,
                1.6716574846500847,
                -1.8767801740754304,
                -0.7629816851900958
            ]
        },
        {
            "positions": [
                -0.9116534077326519,
                -0.8903428471485887,
                1.7981584921059641,
                1.576638343152227,
                -1.805296873024697,
                -0.9166713333853981
            ]
        },
        {
            "positions": [
                -0.9112648698064261,
                -0.9284592449216114,
                1.8203619293579507,
                1.4816192016543694,
                -1.7338135719739636,
                -1.0703609815807005
            ]
        },
        {
            "positions": [
                -0.9108763318802002,
                -0.9665756426946339,
                1.8425653666099375,
                1.3866000601565118,
                -1.6623302709232304,
                -1.2240506297760028
            ]
        },
        {
            "positions": [
                -0.9104877939539743,
                -1.0046920404676565,
                1.8647688038619243,
                1.291580918658654,
                -1.590846969872497,
                -1.377740277971305
            ]
        },
        {
            "positions": [
                -0.9100992560277484,
                -1.0428084382406793,
                1.886972241113911,
                1.1965617771607961,
                -1.5193636688217635,
                -1.5314299261666076
            ]
        },
        {
            "positions": [
                -0.9097107181015225,
                -1.0809248360137018,
                1.9091756783658975,
                1.1015426356629388,
                -1.4478803677710301,
                -1.6851195743619096
            ]
        },
        {
            "positions": [
                -0.9093221801752966,
                -1.1190412337867244,
                1.9313791156178843,
                1.006523494165081,
                -1.3763970667202967,
                -1.8388092225572121
            ]
        },
        {
            "positions": [
                -0.9225568469952643,
                -1.1193454342684197,
                1.9375885647309408,
                0.8741459171152404,
                -1.243716895785747,
                -1.9311647172620436
            ]
        },
        {
            "positions": [
                -0.935791513815232,
                -1.119649634750115,
                1.9437980138439972,
                0.7417683400653998,
                -1.1110367248511972,
                -2.023520211966875
            ]
        },
        {
            "positions": [
                -0.9490261806351996,
                -1.1199538352318104,
                1.9500074629570536,
                0.6093907630155594,
                -0.9783565539166474,
                -2.115875706671707
            ]
        },
        {
            "positions": [
                -0.9622608474551673,
                -1.1202580357135057,
                1.95621691207011,
                0.47701318596571884,
                -0.8456763829820977,
                -2.2082312013765386
            ]
        },
        {
            "positions": [
                -0.9754955142751349,
                -1.120562236195201,
                1.9624263611831665,
                0.3446356089158783,
                -0.7129962120475479,
                -2.3005866960813703
            ]
        },
        {
            "positions": [
                -0.9887301810951026,
                -1.1208664366768963,
                1.968635810296223,
                0.21225803186603787,
                -0.5803160411129982,
                -2.3929421907862016
            ]
        },
        {
            "positions": [
                -1.0019648479150702,
                -1.1211706371585914,
                1.9748452594092794,
                0.07988045481619732,
                -0.4476358701784484,
                -2.4852976854910334
            ]
        },
        {
            "positions": [
                -1.0151995147350379,
                -1.1214748376402868,
                1.9810547085223358,
                -0.05249712223364322,
                -0.31495569924389866,
                -2.577653180195865
            ]
        },
        {
            "positions": [
                -1.0284341815550055,
                -1.121779038121982,
                1.9872641576353922,
                -0.18487469928348377,
                -0.1822755283093489,
                -2.6700086749006964
            ]
        },
        {
            "positions": [
                -1.0416688483749732,
                -1.1220832386036774,
                1.9934736067484486,
                -0.3172522763333243,
                -0.04959535737479914,
                -2.762364169605528
            ]
        },
        {
            "positions": [
                -1.0549035151949409,
                -1.1223874390853728,
                1.999683055861505,
                -0.44962985338316463,
                0.08308481355975061,
                -2.85471966431036
            ]
        },
        {
            "positions": [
                -1.0681381820149085,
                -1.122691639567068,
                2.0058925049745615,
                -0.5820074304330052,
                0.21576498449430037,
                -2.947075159015191
            ]
        },
        {
            "positions": [
                -1.0813728488348762,
                -1.1229958400487634,
                2.012101954087618,
                -0.7143850074828457,
                0.34844515542885013,
                -3.0394306537200233
            ]
        },
        {
            "positions": [
                -1.0946075156548438,
                -1.1233000405304587,
                2.0183114032006744,
                -0.8467625845326862,
                0.48112532636339983,
                -3.1317861484248546
            ]
        }
    ]
}