{
    "goal": {
        "global_pose": {
            "orientation": {
                "w": -0.00223480608172531,
                "x": 0.0024358444001904467,
                "y": 0.7094548369677653,
                "z": -0.704743149386269
            },
            "position": {
                "x": 0.6205249238014221,
                "y": -0.6371506643295288,
                "z": 0.19426114857196808
            }
        },
        "name": "move_to_magneteinheit_B"
    },
    "id": "LazyPRM_move_to_magneteinheit_B_93",
    "joint_names": [
        "shoulder_pan_joint",
        "shoulder_lift_joint",
        "elbow_joint",
        "wrist_1_joint",
        "wrist_2_joint",
        "wrist_3_joint"
    ],
    "metrics": {
        "cart_traj_len": 2.0968831166000585,
        "distance_elbow_joint": 1.1130893073224717,
        "distance_shoulder_lift_joint": 1.4459884433243344,
        "distance_shoulder_pan_joint": 1.7215376116361223,
        "distance_wrist_1_joint": 0.9663144841755074,
        "distance_wrist_2_joint": 3.5754829726823276,
        "distance_wrist_3_joint": 0.7434361719934636,
        "smoothness": 0.8307395652961629,
        "time": 0.201759668,
        "traj_len": 3.092870671582345,
        "weighted_distance": 3.948989591272556
    },
    "planner": "LazyPRM",
    "start": {
        "state": {
            "elbow_joint": 2.6216224122426386,
            "shoulder_lift_joint": -1.4174107377796124,
            "shoulder_pan_joint": 0.7066234856936794,
            "wrist_1_joint": 1.9546482284002225,
            "wrist_2_joint": -0.7096286983471962,
            "wrist_3_joint": 0.005740856962016249
        }
    },
    "waypoints": [
        {
            "positions": [
                0.7066234856936794,
                -1.4174107377796124,
                2.6216224122426386,
                1.9546482284002225,
                -0.7096286983471962,
                0.005740856962016249
            ]
        },
        {
            "positions": [
                0.7233343862862409,
                -1.4525044389636146,
                2.6321957767960567,
                2.0092456912369183,
                -0.6114301439157068,
                -0.05236066421431741
            ]
        },
        {
            "positions": [
                0.7400452868788023,
                -1.4875981401476168,
                2.6427691413494747,
                2.0638431540736146,
                -0.5132315894842173,
                -0.11046218539065107
            ]
        },
        {
            "positions": [
                0.7567561874713639,
                -1.522691841331619,
                2.653342505902893,
                2.1184406169103105,
                -0.41503303505272787,
                -0.16856370656698472
            ]
        },
        {
            "positions": [
                0.7342526732679211,
                -1.5706411547787373,
                2.599408481363644,
                2.188712385304503,
                -0.27823511355768743,
                -0.19660091404287364
            ]
        },
        {
            "positions": [
                0.7117491590644783,
                -1.6185904682258556,
                2.5454744568243948,
                2.258984153698696,
                -0.141437192062647,
                -0.22463812151876256
            ]
        },
        {
            "positions": [
                0.6892456448610357,
                -1.6665397816729737,
                2.491540432285146,
                2.329255922092888,
                -0.004639270567606546,
                -0.25267532899465145
            ]
        },
        {
            "positions": [
                0.6667421306575929,
                -1.714489095120092,
                2.4376064077458968,
                2.399527690487081,
                0.1321586509274339,
                -0.2807125364705404
            ]
        },
        {
            "positions": [
                0.6442386164541501,
                -1.7624384085672102,
                2.383672383206648,
                2.4697994588812735,
                0.26895657242247434,
                -0.3087497439464293
            ]
        },
        {
            "positions": [
                0.5440076592741419,
                -1.728181373077877,
                2.254805143249189,
                2.489041831196195,
                0.2079727709736135,
                -0.33974528433628365
            ]
        },
        {
            "positions": [
                0.44377670209413356,
                -1.6939243375885438,
                2.1259379032917303,
                2.508284203511116,
                0.14698896952475263,
                -0.370740824726138
            ]
        },
        {
            "positions": [
                0.3394984143578419,
                -1.6412898302867784,
                2.0932631669431583,
                2.478628344443997,
                -0.02053348434288943,
                -0.36505417327090667
            ]
        },
        {
            "positions": [
                0.23522012662155017,
                -1.5886553229850133,
                2.0605884305945863,
                2.448972485376878,
                -0.1880559382105315,
                -0.35936752181567533
            ]
        },
        {
            "positions": [
                0.13094183888525845,
                -1.536020815683248,
                2.027913694246014,
                2.419316626309759,
                -0.35557839207817354,
                -0.353680870360444
            ]
        },
        {
            "positions": [
                0.02666355114896679,
                -1.4833863083814829,
                1.9952389578974419,
                2.38966076724264,
                -0.5231008459458156,
                -0.34799421890521265
            ]
        },
        {
            "positions": [
                -0.07761473658732487,
                -1.4307518010797176,
                1.96256422154887,
                2.360004908175521,
                -0.6906232998134577,
                -0.3423075674499813
            ]
        },
        {
            "positions": [
                -0.18189302432361665,
                -1.3781172937779524,
                1.9298894852002977,
                2.330349049108402,
                -0.8581457536810997,
                -0.33662091599474997
            ]
        },
        {
            "positions": [
                -0.2861713120599082,
                -1.3254827864761871,
                1.8972147488517257,
                2.300693190041283,
                -1.0256682075487418,
                -0.3309342645395186
            ]
        },
        {
            "positions": [
                -0.3904495997962,
                -1.272848279174422,
                1.8645400125031535,
                2.271037330974164,
                -1.1931906614163839,
                -0.32524761308428723
            ]
        },
        {
            "positions": [
                -0.49472788753249164,
                -1.2202137718726567,
                1.8318652761545815,
                2.2413814719070446,
                -1.3607131152840257,
                -0.3195609616290559
            ]
        },
        {
            "positions": [
                -0.5990061752687833,
                -1.1675792645708913,
                1.7991905398060093,
                2.211725612839926,
                -1.528235569151668,
                -0.31387431017382456
            ]
        },
        {
            "positions": [
                -0.7032844630050751,
                -1.1149447572691262,
                1.7665158034574373,
                2.1820697537728067,
                -1.69575802301931,
                -0.3081876587185932
            ]
        },
        {
            "positions": [
                -0.8075627507413669,
                -1.0623102499673611,
                1.733841067108865,
                2.152413894705688,
                -1.863280476886952,
                -0.3025010072633619
            ]
        },
        {
            "positions": [
                -0.9118410384776584,
                -1.0096757426655958,
                1.701166330760293,
                2.1227580356385687,
                -2.030802930754594,
                -0.29681435580813054
            ]
        },
        {
            "positions": [
                -0.9123833525956031,
                -0.8649861865312768,
                1.7246621534180782,
                2.133730767243904,
                -2.1542868152401127,
                -0.2690835365609139
            ]
        },
        {
            "positions": [
                -0.9129256667135477,
                -0.7202966303969578,
                1.748157976075863,
                2.144703498849239,
                -2.277770699725632,
                -0.2413527173136972
            ]
        },
        {
            "positions": [
                -0.9137871945503107,
                -0.6908871332137159,
                1.707057279473839,
                2.1421000598585413,
                -2.252685484843357,
                -0.122569525867263
            ]
        },
        {
            "positions": [
                -0.9146487223870737,
                -0.6614776360304739,
                1.665956582871815,
                2.139496620867843,
                -2.2276002699610817,
                -0.003786334420828804
            ]
        }
    ]
}