{
    "goal": {
        "global_pose": {
            "orientation": {
                "w": -0.4816463035849501,
                "x": 0.5182115481033762,
                "y": 0.4908360881923453,
                "z": -0.5084816262002911
            },
            "position": {
                "x": -0.8240239810943604,
                "y": -0.300875300988555,
                "z": 0.16403168439865112
            }
        },
        "name": "move_to_storage_C"
    },
    "id": "LazyPRMstar_move_to_storage_C_95",
    "joint_names": [
        "shoulder_pan_joint",
        "shoulder_lift_joint",
        "elbow_joint",
        "wrist_1_joint",
        "wrist_2_joint",
        "wrist_3_joint"
    ],
    "metrics": {
        "cart_traj_len": 0.5761045918709612,
        "distance_elbow_joint": 0.2600762438466331,
        "distance_shoulder_lift_joint": 0.18916036969858308,
        "distance_shoulder_pan_joint": 0.49439691252333917,
        "distance_wrist_1_joint": 0.08607506416173016,
        "distance_wrist_2_joint": 1.0636613851770949,
        "distance_wrist_3_joint": 0.05806408850157441,
        "smoothness": 0.0,
        "time": 5.000272865,
        "traj_len": 1.466776760079377,
        "weighted_distance": 1.8485937061049755
    },
    "planner": "LazyPRMstar",
    "start": {
        "state": {
            "elbow_joint": 2.010868314990456,
            "shoulder_lift_joint": -1.1634956873337592,
            "shoulder_pan_joint": -2.4736205022346125,
            "wrist_1_joint": -0.8367026794202681,
            "wrist_2_joint": 0.6746043897044499,
            "wrist_3_joint": -3.1496632123970403
        }
    },
    "waypoints": [
        {
            "positions": [
                -2.4736205022346125,
                -1.1634956873337592,
                2.010868314990456,
                -0.8367026794202681,
                0.6746043897044499,
                -3.1496632123970403
            ]
        },
        {
            "positions": [
                -2.5560199876551692,
                -1.131968959050662,
                1.9675222743493503,
                -0.8223568353933131,
                0.8518812872339657,
                -3.1399858643134446
            ]
        },
        {
            "positions": [
                -2.6384194730757256,
                -1.1004422307675648,
                1.9241762337082449,
                -0.808010991366358,
                1.0291581847634816,
                -3.130308516229849
            ]
        },
        {
            "positions": [
                -2.720818958496282,
                -1.0689155024844677,
                1.8808301930671392,
                -0.793665147339403,
                1.2064350822929972,
                -3.120631168146253
            ]
        },
        {
            "positions": [
                -2.8032184439168386,
                -1.0373887742013705,
                1.8374841524260337,
                -0.779319303312448,
                1.3837119798225133,
                -3.110953820062657
            ]
        },
        {
            "positions": [
                -2.8856179293373954,
                -1.0058620459182732,
                1.7941381117849282,
                -0.764973459285493,
                1.5609888773520288,
                -3.1012764719790615
            ]
        },
        {
            "positions": [
                -2.9680174147579517,
                -0.9743353176351761,
                1.7507920711438227,
                -0.7506276152585379,
                1.7382657748815449,
                -3.091599123895466
            ]
        }
    ]
}