{
    "goal": {
        "global_pose": {
            "orientation": {
                "w": -0.00223480608172531,
                "x": 0.0024358444001904467,
                "y": 0.7094548369677653,
                "z": -0.704743149386269
            },
            "position": {
                "x": 0.6205249238014221,
                "y": -0.6371506643295288,
                "z": 0.19426114857196808
            }
        },
        "name": "move_to_magneteinheit_B"
    },
    "id": "LazyPRM_move_to_magneteinheit_B_34",
    "joint_names": [
        "shoulder_pan_joint",
        "shoulder_lift_joint",
        "elbow_joint",
        "wrist_1_joint",
        "wrist_2_joint",
        "wrist_3_joint"
    ],
    "metrics": {
        "cart_traj_len": 1.6820203152203712,
        "distance_elbow_joint": 0.956234354146275,
        "distance_shoulder_lift_joint": 1.363799915427938,
        "distance_shoulder_pan_joint": 1.6204327795430529,
        "distance_wrist_1_joint": 0.39222436547171835,
        "distance_wrist_2_joint": 1.5200732640177457,
        "distance_wrist_3_joint": 0.527309603381729,
        "smoothness": 0.5419568886325169,
        "time": 1.969621851,
        "traj_len": 2.5258808922806435,
        "weighted_distance": 3.0572849259173376
    },
    "planner": "LazyPRM",
    "start": {
        "state": {
            "elbow_joint": 2.6216224122426386,
            "shoulder_lift_joint": -1.4174107377796124,
            "shoulder_pan_joint": 0.7066234856936794,
            "wrist_1_joint": 1.9546482284002225,
            "wrist_2_joint": -0.7096286983471962,
            "wrist_3_joint": 0.005740856962016249
        }
    },
    "waypoints": [
        {
            "positions": [
                0.7066234856936794,
                -1.4174107377796124,
                2.6216224122426386,
                1.9546482284002225,
                -0.7096286983471962,
                0.005740856962016249
            ]
        },
        {
            "positions": [
                0.6956775647659661,
                -1.5097637454851989,
                2.5926902653097295,
                1.9119419374507343,
                -0.7246237863617113,
                0.0860200921679546
            ]
        },
        {
            "positions": [
                0.6847316438382529,
                -1.6021167531907856,
                2.5637581183768203,
                1.869235646501246,
                -0.7396188743762265,
                0.16629932737389297
            ]
        },
        {
            "positions": [
                0.6564483263927867,
                -1.721377149095412,
                2.512682613141173,
                1.85276991699114,
                -0.8001572534305299,
                0.2678921852265276
            ]
        },
        {
            "positions": [
                0.544287067804061,
                -1.6456747559445448,
                2.452161573495115,
                1.8735089208527569,
                -0.9022675897829879,
                0.2489523084324406
            ]
        },
        {
            "positions": [
                0.4321258092153353,
                -1.569972362793678,
                2.391640533849057,
                1.8942479247143738,
                -1.004377926135446,
                0.2300124316383536
            ]
        },
        {
            "positions": [
                0.31996455062660956,
                -1.4942699696428108,
                2.3311194942029996,
                1.9149869285759906,
                -1.106488262487904,
                0.2110725548442666
            ]
        },
        {
            "positions": [
                0.20780329203788384,
                -1.4185675764919439,
                2.2705984545569415,
                1.9357259324376075,
                -1.2085985988403618,
                0.1921326780501796
            ]
        },
        {
            "positions": [
                0.09564203344915811,
                -1.3428651833410767,
                2.210077414910884,
                1.9564649362992244,
                -1.31070893519282,
                0.1731928012560926
            ]
        },
        {
            "positions": [
                -0.016519225139567606,
                -1.2671627901902098,
                2.149556375264826,
                1.9772039401608412,
                -1.4128192715452779,
                0.15425292446200561
            ]
        },
        {
            "positions": [
                -0.12868048372829333,
                -1.1914603970393427,
                2.0890353356187683,
                1.997942944022458,
                -1.514929607897736,
                0.13531304766791863
            ]
        },
        {
            "positions": [
                -0.24084174231701905,
                -1.1157580038884758,
                2.0285142959727103,
                2.0186819478840747,
                -1.6170399442501937,
                0.11637317087383164
            ]
        },
        {
            "positions": [
                -0.35300300090574477,
                -1.0400556107376087,
                1.9679932563266527,
                2.039420951745692,
                -1.719150280602652,
                0.09743329407974463
            ]
        },
        {
            "positions": [
                -0.4651642594944705,
                -0.9643532175867415,
                1.9074722166805946,
                2.0601599556073085,
                -1.82126061695511,
                0.07849341728565765
            ]
        },
        {
            "positions": [
                -0.5773255180831962,
                -0.8886508244358746,
                1.846951177034537,
                2.0808989594689256,
                -1.9233709533075678,
                0.05955354049157066
            ]
        },
        {
            "positions": [
                -0.6894867766719219,
                -0.8129484312850076,
                1.7864301373884792,
                2.101637963330542,
                -2.025481289660026,
                0.040613663697483676
            ]
        },
        {
            "positions": [
                -0.8016480352606477,
                -0.7372460381341405,
                1.7259090977424214,
                2.1223769671921593,
                -2.127591626012484,
                0.021673786903396663
            ]
        },
        {
            "positions": [
                -0.9138092938493735,
                -0.6615436449832734,
                1.6653880580963636,
                2.143115971053776,
                -2.229701962364942,
                0.0027339101093097054
            ]
        }
    ]
}