{
    "goal": {
        "global_pose": {
            "orientation": {
                "w": -0.4816463035849501,
                "x": 0.5182115481033762,
                "y": 0.4908360881923453,
                "z": -0.5084816262002911
            },
            "position": {
                "x": -0.8240239810943604,
                "y": 0.19912469901144506,
                "z": 0.16403168439865112
            }
        },
        "name": "move_to_storage_D"
    },
    "id": "LazyPRM_move_to_storage_D_85",
    "joint_names": [
        "shoulder_pan_joint",
        "shoulder_lift_joint",
        "elbow_joint",
        "wrist_1_joint",
        "wrist_2_joint",
        "wrist_3_joint"
    ],
    "metrics": {
        "cart_traj_len": 0.8111483649228866,
        "distance_elbow_joint": 0.5544890384313712,
        "distance_shoulder_lift_joint": 0.16303071346454834,
        "distance_shoulder_pan_joint": 0.7915721607505601,
        "distance_wrist_1_joint": 3.845114542894822,
        "distance_wrist_2_joint": 1.8336193262438125,
        "distance_wrist_3_joint": 3.184856026543942,
        "smoothness": 0.2752138421838853,
        "time": 0.123132373,
        "traj_len": 3.220664808440806,
        "weighted_distance": 4.735095324336732
    },
    "planner": "LazyPRM",
    "start": {
        "state": {
            "elbow_joint": -2.384821988534728,
            "shoulder_lift_joint": -2.2788054721415256,
            "shoulder_pan_joint": -0.1854694642142757,
            "wrist_1_joint": 1.4845938289331202,
            "wrist_2_joint": 0.17898776772866878,
            "wrist_3_joint": 0.037105688729662994
        }
    },
    "waypoints": [
        {
            "positions": [
                -0.1854694642142757,
                -2.2788054721415256,
                -2.384821988534728,
                1.4845938289331202,
                0.17898776772866878,
                0.037105688729662994
            ]
        },
        {
            "positions": [
                -0.13296513566811663,
                -2.2372917409261706,
                -2.3821064741862292,
                1.49542766007548,
                0.20958390970804536,
                0.058343153887968055
            ]
        },
        {
            "positions": [
                -0.02800431366635034,
                -2.208242331855211,
                -2.2839422823894444,
                1.4560720198846278,
                0.1589075643782655,
                0.06036876730479865
            ]
        },
        {
            "positions": [
                0.07695650833541595,
                -2.1791929227842513,
                -2.18577809059266,
                1.4167163796937756,
                0.10823121904848565,
                0.062394380721629235
            ]
        },
        {
            "positions": [
                0.18191733033718227,
                -2.150143513713292,
                -2.0876138987958752,
                1.3773607395029237,
                0.057554873718705796,
                0.06441999413845982
            ]
        },
        {
            "positions": [
                0.28687815233894853,
                -2.1210941046423324,
                -1.9894497069990906,
                1.3380050993120716,
                0.006878528388925935,
                0.06644560755529041
            ]
        },
        {
            "positions": [
                0.27299882433036876,
                -2.1213253805538694,
                -1.9825315871340587,
                1.1781417014429822,
                -0.06270050652174,
                -0.07075074495420153
            ]
        },
        {
            "positions": [
                0.25911949632178893,
                -2.121556656465407,
                -1.9756134672690269,
                1.018278303573893,
                -0.13227954143240592,
                -0.20794709746369347
            ]
        },
        {
            "positions": [
                0.24524016831320916,
                -2.121787932376944,
                -1.968695347403995,
                0.8584149057048036,
                -0.20185857634307186,
                -0.34514344997318536
            ]
        },
        {
            "positions": [
                0.23136084030462936,
                -2.122019208288481,
                -1.9617772275389629,
                0.6985515078357143,
                -0.2714376112537378,
                -0.4823398024826774
            ]
        },
        {
            "positions": [
                0.21748151229604956,
                -2.1222504842000185,
                -1.954859107673931,
                0.538688109966625,
                -0.3410166461644037,
                -0.6195361549921693
            ]
        },
        {
            "positions": [
                0.2036021842874698,
                -2.1224817601115555,
                -1.9479409878088991,
                0.37882471209753565,
                -0.41059568107506966,
                -0.7567325075016612
            ]
        },
        {
            "positions": [
                0.18972285627889,
                -2.1227130360230926,
                -1.9410228679438672,
                0.21896131422844634,
                -0.48017471598573563,
                -0.8939288600111532
            ]
        },
        {
            "positions": [
                0.1758435282703102,
                -2.1229443119346296,
                -1.9341047480788354,
                0.05909791635935702,
                -0.5497537508964015,
                -1.0311252125206452
            ]
        },
        {
            "positions": [
                0.16196420026173042,
                -2.123175587846167,
                -1.9271866282138035,
                -0.1007654815097323,
                -0.6193327858070675,
                -1.168321565030137
            ]
        },
        {
            "positions": [
                0.14808487225315062,
                -2.123406863757704,
                -1.9202685083487716,
                -0.2606288793788216,
                -0.6889118207177334,
                -1.305517917539629
            ]
        },
        {
            "positions": [
                0.13420554424457082,
                -2.123638139669241,
                -1.9133503884837397,
                -0.42049227724791094,
                -0.7584908556283994,
                -1.4427142700491211
            ]
        },
        {
            "positions": [
                0.12032621623599105,
                -2.1238694155807787,
                -1.9064322686187076,
                -0.5803556751170003,
                -0.8280698905390653,
                -1.5799106225586128
            ]
        },
        {
            "positions": [
                0.10644688822741125,
                -2.1241006914923157,
                -1.8995141487536757,
                -0.7402190729860896,
                -0.8976489254497312,
                -1.7171069750681047
            ]
        },
        {
            "positions": [
                0.09256756021883145,
                -2.1243319674038528,
                -1.8925960288886439,
                -0.9000824708551789,
                -0.9672279603603973,
                -1.8543033275775969
            ]
        },
        {
            "positions": [
                0.07868823221025165,
                -2.1245632433153903,
                -1.885677909023612,
                -1.0599458687242682,
                -1.036806995271063,
                -1.991499680087089
            ]
        },
        {
            "positions": [
                0.06480890420167187,
                -2.1247945192269273,
                -1.87875978915858,
                -1.2198092665933575,
                -1.106386030181729,
                -2.1286960325965807
            ]
        },
        {
            "positions": [
                0.0509295761930921,
                -2.1250257951384643,
                -1.8718416692935482,
                -1.3796726644624469,
                -1.175965065092395,
                -2.2658923851060724
            ]
        },
        {
            "positions": [
                0.037050248184512274,
                -2.1252570710500014,
                -1.8649235494285163,
                -1.5395360623315362,
                -1.245544100003061,
                -2.4030887376155645
            ]
        },
        {
            "positions": [
                0.023170920175932475,
                -2.125488346961539,
                -1.8580054295634842,
                -1.6993994602006255,
                -1.315123134913727,
                -2.5402850901250567
            ]
        },
        {
            "positions": [
                0.009291592167352702,
                -2.125719622873076,
                -1.8510873096984524,
                -1.8592628580697148,
                -1.3847021698243926,
                -2.6774814426345483
            ]
        },
        {
            "positions": [
                -0.00458773584122707,
                -2.125950898784613,
                -1.8441691898334205,
                -2.0191262559388043,
                -1.4542812047350586,
                -2.81467779514404
            ]
        },
        {
            "positions": [
                -0.018467063849806897,
                -2.1261821746961505,
                -1.8372510699683886,
                -2.1789896538078937,
                -1.5238602396457246,
                -2.9518741476535326
            ]
        },
        {
            "positions": [
                -0.03234639185838668,
                -2.1264134506076875,
                -1.8303329501033567,
                -2.338853051676983,
                -1.5934392745563906,
                -3.0890705001630243
            ]
        }
    ]
}