{
    "goal": {
        "global_pose": {
            "orientation": {
                "w": 0.5084816262002911,
                "x": -0.4908360881923452,
                "y": 0.5182115481033761,
                "z": -0.48164630358495003
            },
            "position": {
                "x": 0.5540239810943604,
                "y": -0.46912469901144505,
                "z": 0.16403168439865112
            }
        },
        "name": "move_to_storage_B"
    },
    "id": "LazyPRMstar_move_to_storage_B_124",
    "joint_names": [
        "shoulder_pan_joint",
        "shoulder_lift_joint",
        "elbow_joint",
        "wrist_1_joint",
        "wrist_2_joint",
        "wrist_3_joint"
    ],
    "metrics": {
        "cart_traj_len": 1.0691472778587543,
        "distance_elbow_joint": 0.3581980101255673,
        "distance_shoulder_lift_joint": 0.4614593328080301,
        "distance_shoulder_pan_joint": 0.6641108085654938,
        "distance_wrist_1_joint": 3.8624389746572154,
        "distance_wrist_2_joint": 2.714873639298114,
        "distance_wrist_3_joint": 4.158437230295287,
        "smoothness": 0.4638907219781717,
        "time": 5.0586309289999996,
        "traj_len": 3.4956427156890206,
        "weighted_distance": 5.207082203143678
    },
    "planner": "LazyPRMstar",
    "start": {
        "state": {
            "elbow_joint": 1.664937868594044,
            "shoulder_lift_joint": -0.661644460510453,
            "shoulder_pan_joint": -0.9139846352900073,
            "wrist_1_joint": 2.146753192139373,
            "wrist_2_joint": -2.2341966793290973,
            "wrist_3_joint": 0.005466555786416001
        }
    },
    "waypoints": [
        {
            "positions": [
                -0.9139846352900073,
                -0.661644460510453,
                1.664937868594044,
                2.146753192139373,
                -2.2341966793290973,
                0.005466555786416001
            ]
        },
        {
            "positions": [
                -0.9843198050148313,
                -0.7075571117522467,
                1.7233659063172215,
                2.2169383380550274,
                -2.1931378741873866,
                0.09308242402876049
            ]
        },
        {
            "positions": [
                -1.0546549747396552,
                -0.7534697629940404,
                1.7817939440403991,
                2.2871234839706815,
                -2.152079069045676,
                0.18069829227110498
            ]
        },
        {
            "positions": [
                -1.1249901444644792,
                -0.7993824142358341,
                1.8402219817635768,
                2.3573086298863357,
                -2.1110202639039652,
                0.26831416051344953
            ]
        },
        {
            "positions": [
                -1.1953253141893032,
                -0.8452950654776278,
                1.8986500194867544,
                2.42749377580199,
                -2.069961458762255,
                0.355930028755794
            ]
        },
        {
            "positions": [
                -1.2656604839141272,
                -0.8912077167194216,
                1.957078057209932,
                2.497678921717644,
                -2.0289026536205443,
                0.44354589699813857
            ]
        },
        {
            "positions": [
                -1.3359956536389512,
                -0.9371203679612152,
                2.0155060949331096,
                2.567864067633298,
                -1.9878438484788337,
                0.531161765240483
            ]
        },
        {
            "positions": [
                -1.326684123246007,
                -0.9442735766288024,
                2.0157995481556674,
                2.4355052945885562,
                -1.8929007404616087,
                0.39144091828505145
            ]
        },
        {
            "positions": [
                -1.3173725928530629,
                -0.9514267852963897,
                2.0160930013782252,
                2.3031465215438143,
                -1.7979576324443836,
                0.2517200713296199
            ]
        },
        {
            "positions": [
                -1.3080610624601186,
                -0.9585799939639769,
                2.016386454600783,
                2.1707877484990723,
                -1.7030145244271586,
                0.11199922437418836
            ]
        },
        {
            "positions": [
                -1.2987495320671743,
                -0.9657332026315641,
                2.016679907823341,
                2.0384289754543303,
                -1.6080714164099337,
                -0.02772162258124322
            ]
        },
        {
            "positions": [
                -1.2894380016742302,
                -0.9728864112991513,
                2.016973361045898,
                1.9060702024095884,
                -1.5131283083927085,
                -0.16744246953667474
            ]
        },
        {
            "positions": [
                -1.2801264712812859,
                -0.9800396199667386,
                2.017266814268456,
                1.7737114293648464,
                -1.4181852003754836,
                -0.30716331649210626
            ]
        },
        {
            "positions": [
                -1.2708149408883416,
                -0.9871928286343258,
                2.017560267491014,
                1.6413526563201049,
                -1.3232420923582586,
                -0.4468841634475377
            ]
        },
        {
            "positions": [
                -1.2615034104953975,
                -0.9943460373019131,
                2.0178537207135716,
                1.5089938832753627,
                -1.2282989843410337,
                -0.5866050104029694
            ]
        },
        {
            "positions": [
                -1.2521918801024532,
                -1.0014992459695002,
                2.0181471739361294,
                1.376635110230621,
                -1.1333558763238085,
                -0.7263258573584008
            ]
        },
        {
            "positions": [
                -1.242880349709509,
                -1.0086524546370874,
                2.018440627158687,
                1.2442763371858787,
                -1.0384127683065834,
                -0.8660467043138325
            ]
        },
        {
            "positions": [
                -1.2335688193165648,
                -1.0158056633046748,
                2.018734080381245,
                1.111917564141137,
                -0.9434696602893586,
                -1.0057675512692639
            ]
        },
        {
            "positions": [
                -1.2242572889236205,
                -1.022958871972262,
                2.019027533603803,
                0.9795587910963948,
                -0.8485265522721335,
                -1.1454883982246955
            ]
        },
        {
            "positions": [
                -1.2149457585306762,
                -1.0301120806398492,
                2.0193209868263606,
                0.847200018051653,
                -0.7535834442549085,
                -1.285209245180127
            ]
        },
        {
            "positions": [
                -1.2056342281377321,
                -1.0372652893074363,
                2.019614440048918,
                0.7148412450069113,
                -0.6586403362376836,
                -1.4249300921355583
            ]
        },
        {
            "positions": [
                -1.1963226977447878,
                -1.0444184979750235,
                2.019907893271476,
                0.5824824719621693,
                -0.5636972282204586,
                -1.5646509390909897
            ]
        },
        {
            "positions": [
                -1.1870111673518435,
                -1.051571706642611,
                2.0202013464940336,
                0.4501236989174271,
                -0.4687541202032335,
                -1.7043717860464218
            ]
        },
        {
            "positions": [
                -1.1776996369588995,
                -1.058724915310198,
                2.0204947997165914,
                0.3177649258726851,
                -0.37381101218600854,
                -1.844092633001853
            ]
        },
        {
            "positions": [
                -1.1683881065659552,
                -1.0658781239777853,
                2.020788252939149,
                0.1854061528279436,
                -0.2788679041687836,
                -1.9838134799572846
            ]
        },
        {
            "positions": [
                -1.159076576173011,
                -1.0730313326453724,
                2.021081706161707,
                0.05304737978320162,
                -0.18392479615155866,
                -2.123534326912716
            ]
        },
        {
            "positions": [
                -1.1497650457800668,
                -1.0801845413129598,
                2.021375159384265,
                -0.0793113932615408,
                -0.08898168813433327,
                -2.263255173868148
            ]
        },
        {
            "positions": [
                -1.1404535153871225,
                -1.087337749980547,
                2.0216686126068226,
                -0.21167016630628277,
                0.005961419882891672,
                -2.402976020823579
            ]
        },
        {
            "positions": [
                -1.1311419849941784,
                -1.0944909586481342,
                2.02196206582938,
                -0.3440289393510243,
                0.10090452790011639,
                -2.5426968677790107
            ]
        },
        {
            "positions": [
                -1.121830454601234,
                -1.1016441673157213,
                2.022255519051938,
                -0.47638771239576627,
                0.19584763591734156,
                -2.682417714734442
            ]
        },
        {
            "positions": [
                -1.1125189242082898,
                -1.1087973759833087,
                2.0225489722744956,
                -0.6087464854405087,
                0.2907907439345667,
                -2.822138561689874
            ]
        },
        {
            "positions": [
                -1.1032073938153457,
                -1.115950584650896,
                2.0228424254970534,
                -0.7411052584852502,
                0.38573385195179144,
                -2.961859408645305
            ]
        },
        {
            "positions": [
                -1.0938958634224014,
                -1.123103793318483,
                2.023135878719611,
                -0.873464031529992,
                0.48067695996901655,
                -3.101580255600737
            ]
        }
    ]
}