{
    "goal": {
        "global_pose": {
            "orientation": {
                "w": 0.7031023480610252,
                "x": -0.7110244013736278,
                "y": 0.0077485991402295624,
                "z": 0.005598929693374583
            },
            "position": {
                "x": -0.8841497679147869,
                "y": 0.44412534475326537,
                "z": 0.3711530566215515
            }
        },
        "name": "move_to_auspresseinheit_D"
    },
    "id": "LazyPRMstar_move_to_auspresseinheit_D_125",
    "joint_names": [
        "shoulder_pan_joint",
        "shoulder_lift_joint",
        "elbow_joint",
        "wrist_1_joint",
        "wrist_2_joint",
        "wrist_3_joint"
    ],
    "metrics": {
        "cart_traj_len": 0.3431224045471599,
        "distance_elbow_joint": 0.6353888120070676,
        "distance_shoulder_lift_joint": 0.12000338193962401,
        "distance_shoulder_pan_joint": 0.1335940777374838,
        "distance_wrist_1_joint": 0.5061044831677362,
        "distance_wrist_2_joint": 1.4483627232728191,
        "distance_wrist_3_joint": 0.015186205810246545,
        "smoothness": 0.0,
        "time": 5.000274376,
        "traj_len": 1.6907512188181255,
        "weighted_distance": 2.20079060839418
    },
    "planner": "LazyPRMstar",
    "start": {
        "state": {
            "elbow_joint": -1.8275523626775212,
            "shoulder_lift_joint": -2.126789852344167,
            "shoulder_pan_joint": -0.03513704404078235,
            "wrist_1_joint": -2.347782403156801,
            "wrist_2_joint": -1.6058999987535132,
            "wrist_3_joint": -3.0880379163319196
        }
    },
    "waypoints": [
        {
            "positions": [
                -0.03513704404078235,
                -2.126789852344167,
                -1.8275523626775212,
                -2.347782403156801,
                -1.6058999987535132,
                -3.0880379163319196
            ]
        },
        {
            "positions": [
                -0.05183630375796783,
                -2.14179027508662,
                -1.7481287611766376,
                -2.411045463552768,
                -1.4248546583444108,
                -3.0899361920582002
            ]
        },
        {
            "positions": [
                -0.0685355634751533,
                -2.1567906978290727,
                -1.6687051596757543,
                -2.474308523948735,
                -1.2438093179353085,
                -3.0918344677844813
            ]
        },
        {
            "positions": [
                -0.08523482319233877,
                -2.171791120571526,
                -1.589281558174871,
                -2.5375715843447018,
                -1.062763977526206,
                -3.093732743510762
            ]
        },
        {
            "positions": [
                -0.10193408290952424,
                -2.186791543313979,
                -1.5098579566739874,
                -2.6008346447406687,
                -0.8817186371171036,
                -3.095631019237043
            ]
        },
        {
            "positions": [
                -0.11863334262670971,
                -2.201791966056432,
                -1.4304343551731038,
                -2.664097705136636,
                -0.7006732967080013,
                -3.0975292949633237
            ]
        },
        {
            "positions": [
                -0.13533260234389521,
                -2.216792388798885,
                -1.3510107536722205,
                -2.727360765532603,
                -0.5196279562988988,
                -3.0994275706896044
            ]
        },
        {
            "positions": [
                -0.15203186206108069,
                -2.2317928115413377,
                -1.271587152171337,
                -2.79062382592857,
                -0.33858261588979643,
                -3.1013258464158855
            ]
        },
        {
            "positions": [
                -0.16873112177826616,
                -2.246793234283791,
                -1.1921635506704535,
                -2.853886886324537,
                -0.15753727548069416,
                -3.103224122142166
            ]
        }
    ]
}