{
    "goal": {
        "global_pose": {
            "orientation": {
                "w": -0.4816463035849501,
                "x": 0.5182115481033762,
                "y": 0.4908360881923453,
                "z": -0.5084816262002911
            },
            "position": {
                "x": -0.8240239810943604,
                "y": 0.19912469901144506,
                "z": 0.16403168439865112
            }
        },
        "name": "move_to_storage_D"
    },
    "id": "LazyPRM_move_to_storage_D_43",
    "joint_names": [
        "shoulder_pan_joint",
        "shoulder_lift_joint",
        "elbow_joint",
        "wrist_1_joint",
        "wrist_2_joint",
        "wrist_3_joint"
    ],
    "metrics": {
        "cart_traj_len": 3.8225538196627173,
        "distance_elbow_joint": 4.21152954386047,
        "distance_shoulder_lift_joint": 1.2655760913547514,
        "distance_shoulder_pan_joint": 2.8110612973732705,
        "distance_wrist_1_joint": 2.277345987522619,
        "distance_wrist_2_joint": 0.8660940421847195,
        "distance_wrist_3_joint": 3.237856436574815,
        "smoothness": 0.2767391838608118,
        "time": 0.152582084,
        "traj_len": 3.830073550060187,
        "weighted_distance": 4.928348232595543
    },
    "planner": "LazyPRM",
    "start": {
        "state": {
            "elbow_joint": -2.384821988534728,
            "shoulder_lift_joint": -2.2788054721415256,
            "shoulder_pan_joint": -0.1854694642142757,
            "wrist_1_joint": 1.4845938289331202,
            "wrist_2_joint": 0.17898776772866878,
            "wrist_3_joint": 0.037105688729662994
        }
    },
    "waypoints": [
        {
            "positions": [
                -0.1854694642142757,
                -2.2788054721415256,
                -2.384821988534728,
                1.4845938289331202,
                0.17898776772866878,
                0.037105688729662994
            ]
        },
        {
            "positions": [
                -0.15007996260421397,
                -2.2789176382155283,
                -2.3673365578165484,
                1.4818006159350374,
                0.18537951789342627,
                0.09237348535209107
            ]
        },
        {
            "positions": [
                -0.0657956737267446,
                -2.2398135694358374,
                -2.2522880718569285,
                1.422390087214969,
                0.20608263613009864,
                0.019414858833795914
            ]
        },
        {
            "positions": [
                0.01848861515072478,
                -2.200709500656147,
                -2.1372395858973086,
                1.3629795584949007,
                0.226785754366771,
                -0.05354376768449924
            ]
        },
        {
            "positions": [
                0.10277290402819417,
                -2.161605431876456,
                -2.0221910999376886,
                1.3035690297748326,
                0.2474888726034434,
                -0.1265023942027944
            ]
        },
        {
            "positions": [
                0.18705719290566353,
                -2.1225013630967653,
                -1.9071426139780685,
                1.2441585010547642,
                0.2681919908401158,
                -0.19946102072108957
            ]
        },
        {
            "positions": [
                0.2713414817831329,
                -2.0833972943170744,
                -1.7920941280184486,
                1.1847479723346959,
                0.28889510907678817,
                -0.2724196472393848
            ]
        },
        {
            "positions": [
                0.3556257706606023,
                -2.044293225537384,
                -1.6770456420588284,
                1.1253374436146277,
                0.30959822731346054,
                -0.34537827375767993
            ]
        },
        {
            "positions": [
                0.4399100595380716,
                -2.005189156757693,
                -1.5619971560992085,
                1.0659269148945594,
                0.3303013455501329,
                -0.4183369002759751
            ]
        },
        {
            "positions": [
                0.524194348415541,
                -1.9660850879780025,
                -1.4469486701395886,
                1.006516386174491,
                0.3510044637868053,
                -0.4912955267942702
            ]
        },
        {
            "positions": [
                0.6084786372930104,
                -1.9269810191983117,
                -1.3319001841799685,
                0.9471058574544227,
                0.37170758202347765,
                -0.5642541533125655
            ]
        },
        {
            "positions": [
                0.6927629261704797,
                -1.887876950418621,
                -1.2168516982203488,
                0.8876953287343544,
                0.39241070026015,
                -0.6372127798308606
            ]
        },
        {
            "positions": [
                0.7770472150479493,
                -1.8487728816389302,
                -1.1018032122607286,
                0.8282848000142861,
                0.4131138184968224,
                -0.7101714063491558
            ]
        },
        {
            "positions": [
                0.8613315039254186,
                -1.8096688128592395,
                -0.9867547263011087,
                0.7688742712942178,
                0.43381693673349475,
                -0.7831300328674509
            ]
        },
        {
            "positions": [
                0.9456157928028879,
                -1.770564744079549,
                -0.8717062403414886,
                0.7094637425741495,
                0.4545200549701672,
                -0.8560886593857461
            ]
        },
        {
            "positions": [
                1.0299000816803572,
                -1.731460675299858,
                -0.7566577543818689,
                0.6500532138540812,
                0.47522317320683954,
                -0.9290472859040412
            ]
        },
        {
            "positions": [
                1.1141843705578267,
                -1.6923566065201672,
                -0.6416092684222487,
                0.590642685134013,
                0.4959262914435119,
                -1.0020059124223366
            ]
        },
        {
            "positions": [
                1.198468659435296,
                -1.6532525377404768,
                -0.5265607824626288,
                0.5312321564139446,
                0.5166294096801842,
                -1.0749645389406315
            ]
        },
        {
            "positions": [
                1.2827529483127653,
                -1.614148468960786,
                -0.4115122965030089,
                0.4718216276938765,
                0.5373325279168566,
                -1.1479231654589266
            ]
        },
        {
            "positions": [
                1.3670372371902348,
                -1.575044400181095,
                -0.29646381054338855,
                0.4124110989738079,
                0.5580356461535291,
                -1.2208817919772221
            ]
        },
        {
            "positions": [
                1.4513215260677041,
                -1.5359403314014044,
                -0.18141532458376863,
                0.35300057025373976,
                0.5787387643902014,
                -1.2938404184955172
            ]
        },
        {
            "positions": [
                1.5356058149451735,
                -1.4968362626217138,
                -0.06636683862414916,
                0.2935900415336714,
                0.5994418826268737,
                -1.3667990450138123
            ]
        },
        {
            "positions": [
                1.6198901038226428,
                -1.457732193842023,
                0.04868164733547076,
                0.23417951281360327,
                0.6201450008635461,
                -1.4397576715321074
            ]
        },
        {
            "positions": [
                1.7041743927001125,
                -1.418628125062332,
                0.16373013329509112,
                0.1747689840935347,
                0.6408481191002185,
                -1.5127162980504028
            ]
        },
        {
            "positions": [
                1.7884586815775818,
                -1.3795240562826416,
                0.27877861925471104,
                0.11535845537346656,
                0.6615512373368909,
                -1.5856749245686979
            ]
        },
        {
            "positions": [
                1.8727429704550511,
                -1.3404199875029508,
                0.39382710521433095,
                0.055947926653398206,
                0.6822543555735633,
                -1.658633551086993
            ]
        },
        {
            "positions": [
                1.9570272593325204,
                -1.3013159187232601,
                0.5088755911739509,
                -0.0034626020666699286,
                0.7029574738102355,
                -1.731592177605288
            ]
        },
        {
            "positions": [
                2.0413115482099897,
                -1.2622118499435693,
                0.6239240771335712,
                -0.06287313078673851,
                0.7236605920469081,
                -1.8045508041235834
            ]
        },
        {
            "positions": [
                2.125595837087459,
                -1.2231077811638786,
                0.7389725630931911,
                -0.12228365950680664,
                0.7443637102835805,
                -1.8775094306418785
            ]
        },
        {
            "positions": [
                2.2098801259649283,
                -1.1840037123841878,
                0.8540210490528106,
                -0.181694188226875,
                0.7650668285202529,
                -1.9504680571601736
            ]
        },
        {
            "positions": [
                2.2941644148423976,
                -1.1448996436044971,
                0.9690695350124305,
                -0.24110471694694313,
                0.7857699467569252,
                -2.0234266836784682
            ]
        },
        {
            "positions": [
                2.3784487037198674,
                -1.1057955748248063,
                1.084118020972051,
                -0.3005152456670115,
                0.8064730649935976,
                -2.096385310196764
            ]
        },
        {
            "positions": [
                2.4627329925973367,
                -1.0666915060451156,
                1.199166506931671,
                -0.35992577438707984,
                0.82717618323027,
                -2.169343936715059
            ]
        },
        {
            "positions": [
                2.485998541249002,
                -1.0590861070293534,
                1.2888152281308238,
                -0.42175811498742544,
                0.8583055584707154,
                -2.3008969678415214
            ]
        },
        {
            "positions": [
                2.5092640899006677,
                -1.051480708013591,
                1.3784639493299768,
                -0.48359045558777103,
                0.8894349337111609,
                -2.4324499989679835
            ]
        },
        {
            "positions": [
                2.532529638552333,
                -1.0438753089978288,
                1.4681126705291296,
                -0.5454227961881166,
                0.9205643089516063,
                -2.564003030094446
            ]
        },
        {
            "positions": [
                2.5557951872039983,
                -1.0362699099820665,
                1.5577613917282824,
                -0.6072551367884622,
                0.9516936841920518,
                -2.695556061220908
            ]
        },
        {
            "positions": [
                2.5790607358556636,
                -1.0286645109663042,
                1.6474101129274354,
                -0.6690874773888078,
                0.9828230594324974,
                -2.8271090923473707
            ]
        },
        {
            "positions": [
                2.6023262845073294,
                -1.0210591119505419,
                1.7370588341265885,
                -0.7309198179891534,
                1.0139524346729427,
                -2.958662123473833
            ]
        },
        {
            "positions": [
                2.6255918331589947,
                -1.0134537129347796,
                1.8267075553257413,
                -0.792752158589499,
                1.0450818099133883,
                -3.0902151546002954
            ]
        }
    ]
}