{
    "goal": {
        "global_pose": {
            "orientation": {
                "w": -0.00223480608172531,
                "x": 0.0024358444001904467,
                "y": 0.7094548369677653,
                "z": -0.704743149386269
            },
            "position": {
                "x": -0.37947507619857795,
                "y": -0.6371506643295288,
                "z": 0.19426114857196808
            }
        },
        "name": "move_to_magneteinheit_C"
    },
    "id": "LazyPRMstar_move_to_magneteinheit_C_67",
    "joint_names": [
        "shoulder_pan_joint",
        "shoulder_lift_joint",
        "elbow_joint",
        "wrist_1_joint",
        "wrist_2_joint",
        "wrist_3_joint"
    ],
    "metrics": {
        "cart_traj_len": 1.6551437926117933,
        "distance_elbow_joint": 0.21072014495244895,
        "distance_shoulder_lift_joint": 1.1942305678516716,
        "distance_shoulder_pan_joint": 1.8128582357952607,
        "distance_wrist_1_joint": 0.30099633468143716,
        "distance_wrist_2_joint": 1.626841176162046,
        "distance_wrist_3_joint": 0.511033618415055,
        "smoothness": 1.1886653904925017,
        "time": 5.074716506,
        "traj_len": 2.378377614647834,
        "weighted_distance": 2.9336981483328364
    },
    "planner": "LazyPRMstar",
    "start": {
        "state": {
            "elbow_joint": 1.9565354010623817,
            "shoulder_lift_joint": -1.4165861575791021,
            "shoulder_pan_joint": -1.6717766225146293,
            "wrist_1_joint": -0.5286633292919765,
            "wrist_2_joint": 1.472756589071564,
            "wrist_3_joint": -3.1238370188695823
        }
    },
    "waypoints": [
        {
            "positions": [
                -1.6717766225146293,
                -1.4165861575791021,
                1.9565354010623817,
                -0.5286633292919765,
                1.472756589071564,
                -3.1238370188695823
            ]
        },
        {
            "positions": [
                -1.631795906034216,
                -1.4519319252648368,
                1.9659687394160854,
                -0.5458126217133485,
                1.3867414287635498,
                -3.105895273341368
            ]
        },
        {
            "positions": [
                -1.5918151895538024,
                -1.4872776929505713,
                1.9754020777697892,
                -0.5629619141347206,
                1.3007262684555356,
                -3.087953527813154
            ]
        },
        {
            "positions": [
                -1.5310856912655155,
                -1.5443274322360092,
                1.9915165293471757,
                -0.5937720530075072,
                1.151367943872458,
                -3.0582117377833073
            ]
        },
        {
            "positions": [
                -1.4703561929772289,
                -1.6013771715214473,
                2.0076309809245623,
                -0.624582191880294,
                1.0020096192893804,
                -3.028469947753461
            ]
        },
        {
            "positions": [
                -1.409626694688942,
                -1.6584269108068852,
                2.023745432501949,
                -0.6553923307530806,
                0.8526512947063025,
                -2.9987281577236145
            ]
        },
        {
            "positions": [
                -1.348897196400655,
                -1.715476650092323,
                2.0398598840793354,
                -0.6862024696258672,
                0.7032929701232249,
                -2.968986367693768
            ]
        },
        {
            "positions": [
                -1.2881676981123684,
                -1.7725263893777612,
                2.055974335656722,
                -0.7170126084986539,
                0.5539346455401472,
                -2.9392445776639216
            ]
        },
        {
            "positions": [
                -1.2274381998240815,
                -1.829576128663199,
                2.0720887872341085,
                -0.7478227473714405,
                0.4045763209570695,
                -2.909502787634075
            ]
        },
        {
            "positions": [
                -1.1667087015357946,
                -1.886625867948637,
                2.088203238811495,
                -0.7786328862442271,
                0.2552179963739917,
                -2.8797609976042287
            ]
        },
        {
            "positions": [
                -1.330182490887848,
                -1.7961020107633698,
                2.0783217004110783,
                -0.7850112334603754,
                0.3063808193070509,
                -2.9131306972479414
            ]
        },
        {
            "positions": [
                -1.4936562802399012,
                -1.7055781535781027,
                2.068440162010661,
                -0.7913895806765238,
                0.35754364224011015,
                -2.946500396891654
            ]
        },
        {
            "positions": [
                -1.6571300695919544,
                -1.6150542963928358,
                2.058558623610244,
                -0.797767927892672,
                0.4087064651731694,
                -2.979870096535367
            ]
        },
        {
            "positions": [
                -1.8206038589440077,
                -1.5245304392075685,
                2.0486770852098273,
                -0.8041462751088204,
                0.4598692881062286,
                -3.0132397961790796
            ]
        },
        {
            "positions": [
                -1.984077648296061,
                -1.4340065820223016,
                2.0387955468094106,
                -0.8105246223249687,
                0.5110321110392879,
                -3.046609495822792
            ]
        },
        {
            "positions": [
                -2.147551437648114,
                -1.3434827248370345,
                2.0289140084089934,
                -0.816902969541117,
                0.5621949339723471,
                -3.0799791954665046
            ]
        },
        {
            "positions": [
                -2.3110252270001674,
                -1.2529588676517673,
                2.019032470008576,
                -0.8232813167572653,
                0.6133577569054063,
                -3.1133488951102173
            ]
        },
        {
            "positions": [
                -2.4744990163522207,
                -1.1624350104665002,
                2.0091509316081595,
                -0.8296596639734136,
                0.6645205798384656,
                -3.14671859475393
            ]
        }
    ]
}