{
    "goal": {
        "global_pose": {
            "orientation": {
                "w": 0.005598929693374612,
                "x": 0.007748599140229565,
                "y": 0.7110244013736278,
                "z": -0.7031023480610252
            },
            "position": {
                "x": 0.1141497679147869,
                "y": -0.7141253447532654,
                "z": 0.3711530566215515
            }
        },
        "name": "move_to_auspresseinheit_B"
    },
    "id": "LazyPRMstar_move_to_auspresseinheit_B_127",
    "joint_names": [
        "shoulder_pan_joint",
        "shoulder_lift_joint",
        "elbow_joint",
        "wrist_1_joint",
        "wrist_2_joint",
        "wrist_3_joint"
    ],
    "metrics": {
        "cart_traj_len": 0.5653131702014896,
        "distance_elbow_joint": 0.06200531647035468,
        "distance_shoulder_lift_joint": 0.29571351290416814,
        "distance_shoulder_pan_joint": 0.5760493807053768,
        "distance_wrist_1_joint": 0.32507887959585824,
        "distance_wrist_2_joint": 1.0041670697296317,
        "distance_wrist_3_joint": 0.0067742851903025425,
        "smoothness": 5.075305295617109e-16,
        "time": 5.000420503,
        "traj_len": 1.5065817085693336,
        "weighted_distance": 1.9006796059046318
    },
    "planner": "LazyPRMstar",
    "start": {
        "state": {
            "elbow_joint": 2.0193083361928714,
            "shoulder_lift_joint": -1.1220246554650708,
            "shoulder_pan_joint": -1.0952077554168747,
            "wrist_1_joint": -0.8559753972642168,
            "wrist_2_joint": 0.4759566250798843,
            "wrist_3_joint": -3.1240929996934557
        }
    },
    "waypoints": [
        {
            "positions": [
                -1.0952077554168747,
                -1.1220246554650708,
                2.0193083361928714,
                -0.8559753972642168,
                0.4759566250798843,
                -3.1240929996934557
            ]
        },
        {
            "positions": [
                -1.1912159855344375,
                -1.1713102409490987,
                2.0089741167811455,
                -0.8017955839982405,
                0.6433178033681562,
                -3.1229639521617387
            ]
        },
        {
            "positions": [
                -1.2872242156520002,
                -1.220595826433127,
                1.99863989736942,
                -0.747615770732264,
                0.8106789816564282,
                -3.1218349046300213
            ]
        },
        {
            "positions": [
                -1.383232445769563,
                -1.2698814119171549,
                1.988305677957694,
                -0.6934359574662876,
                0.9780401599447002,
                -3.1207058570983044
            ]
        },
        {
            "positions": [
                -1.4792406758871257,
                -1.3191669974011828,
                1.9779714585459682,
                -0.6392561442003113,
                1.145401338232972,
                -3.1195768095665874
            ]
        },
        {
            "positions": [
                -1.5752489060046888,
                -1.368452582885211,
                1.9676372391342425,
                -0.585076330934335,
                1.312762516521244,
                -3.11844776203487
            ]
        },
        {
            "positions": [
                -1.6712571361222515,
                -1.417738168369239,
                1.9573030197225167,
                -0.5308965176683585,
                1.480123694809516,
                -3.117318714503153
            ]
        }
    ]
}