{
    "goal": {
        "global_pose": {
            "orientation": {
                "w": 0.005598929693374612,
                "x": 0.007748599140229565,
                "y": 0.7110244013736278,
                "z": -0.7031023480610252
            },
            "position": {
                "x": -0.8858502320852131,
                "y": -0.7141253447532654,
                "z": 0.3711530566215515
            }
        },
        "name": "move_to_auspresseinheit_C"
    },
    "id": "LazyPRM_move_to_auspresseinheit_C_93",
    "joint_names": [
        "shoulder_pan_joint",
        "shoulder_lift_joint",
        "elbow_joint",
        "wrist_1_joint",
        "wrist_2_joint",
        "wrist_3_joint"
    ],
    "metrics": {
        "cart_traj_len": 0.49337503670129274,
        "distance_elbow_joint": 1.0067984210603564,
        "distance_shoulder_lift_joint": 0.3285864793807167,
        "distance_shoulder_pan_joint": 0.2554004429111605,
        "distance_wrist_1_joint": 0.6820831765441031,
        "distance_wrist_2_joint": 1.3212588843882132,
        "distance_wrist_3_joint": 0.06817577262926777,
        "smoothness": 0.0,
        "time": 0.012677678,
        "traj_len": 1.913714497231449,
        "weighted_distance": 2.4087334396119195
    },
    "planner": "LazyPRM",
    "start": {
        "state": {
            "elbow_joint": 1.7527959577737207,
            "shoulder_lift_joint": -0.9740617694225068,
            "shoulder_pan_joint": -2.967991417825858,
            "wrist_1_joint": -0.759517768980727,
            "wrist_2_joint": 1.7443932448377408,
            "wrist_3_joint": -3.0840537646736568
        }
    },
    "waypoints": [
        {
            "positions": [
                -2.967991417825858,
                -0.9740617694225068,
                1.7527959577737207,
                -0.759517768980727,
                1.7443932448377408,
                -3.0840537646736568
            ]
        },
        {
            "positions": [
                -2.942451373534742,
                -0.9412031214844351,
                1.6521161156676851,
                -0.6913094513263167,
                1.6122673563989196,
                -3.0908713419365834
            ]
        },
        {
            "positions": [
                -2.916911329243626,
                -0.9083444735463634,
                1.5514362735616494,
                -0.6231011336719063,
                1.4801414679600982,
                -3.0976889191995105
            ]
        },
        {
            "positions": [
                -2.89137128495251,
                -0.8754858256082918,
                1.4507564314556136,
                -0.5548928160174961,
                1.348015579521277,
                -3.104506496462437
            ]
        },
        {
            "positions": [
                -2.865831240661394,
                -0.8426271776702201,
                1.350076589349578,
                -0.48668449836308575,
                1.2158896910824555,
                -3.111324073725364
            ]
        },
        {
            "positions": [
                -2.840291196370278,
                -0.8097685297321484,
                1.2493967472435425,
                -0.4184761807086754,
                1.0837638026436343,
                -3.1181416509882904
            ]
        },
        {
            "positions": [
                -2.8147511520791615,
                -0.7769098817940767,
                1.1487169051375068,
                -0.3502678630542651,
                0.9516379142048129,
                -3.1249592282512175
            ]
        },
        {
            "positions": [
                -2.7892111077880455,
                -0.744051233856005,
                1.048037063031471,
                -0.28205954539985484,
                0.8195120257659917,
                -3.131776805514144
            ]
        },
        {
            "positions": [
                -2.7636710634969295,
                -0.7111925859179333,
                0.9473572209254355,
                -0.21385122774544452,
                0.6873861373271704,
                -3.138594382777071
            ]
        },
        {
            "positions": [
                -2.7381310192058135,
                -0.6783339379798616,
                0.8466773788193999,
                -0.14564291009103414,
                0.5552602488883489,
                -3.145411960039998
            ]
        },
        {
            "positions": [
                -2.7125909749146975,
                -0.64547529004179,
                0.7459975367133642,
                -0.07743459243662384,
                0.42313436044952757,
                -3.1522295373029245
            ]
        }
    ]
}