{
    "goal": {
        "global_pose": {
            "orientation": {
                "w": 0.7047431493862688,
                "x": -0.7094548369677653,
                "y": 0.0024358444001904,
                "z": -0.0022348060817251984
            },
            "position": {
                "x": -0.39052492380142206,
                "y": 0.3671506643295288,
                "z": 0.19426114857196808
            }
        },
        "name": "move_to_magneteinheit_D"
    },
    "id": "LazyPRMstar_move_to_magneteinheit_D_70",
    "joint_names": [
        "shoulder_pan_joint",
        "shoulder_lift_joint",
        "elbow_joint",
        "wrist_1_joint",
        "wrist_2_joint",
        "wrist_3_joint"
    ],
    "metrics": {
        "cart_traj_len": 4.683132299069211,
        "distance_elbow_joint": 3.112996758041394,
        "distance_shoulder_lift_joint": 1.0958428527607602,
        "distance_shoulder_pan_joint": 3.4876561676024953,
        "distance_wrist_1_joint": 2.120306227232777,
        "distance_wrist_2_joint": 0.7244176003613096,
        "distance_wrist_3_joint": 0.17580281770016315,
        "smoothness": 0.48587241085562155,
        "time": 5.030804865,
        "traj_len": 3.2736863661167823,
        "weighted_distance": 3.7300605741319153
    },
    "planner": "LazyPRMstar",
    "start": {
        "state": {
            "elbow_joint": 0.749534889911806,
            "shoulder_lift_joint": -0.6476975780787326,
            "shoulder_pan_joint": -2.711696901376241,
            "wrist_1_joint": -0.07506478083263063,
            "wrist_2_joint": 0.43296659715538205,
            "wrist_3_joint": -3.14703540197715
        }
    },
    "waypoints": [
        {
            "positions": [
                -2.711696901376241,
                -0.6476975780787326,
                0.749534889911806,
                -0.07506478083263063,
                0.43296659715538205,
                -3.14703540197715
            ]
        },
        {
            "positions": [
                -2.6981563744192427,
                -0.7440314501384016,
                0.5703237528806027,
                -0.0666326942056133,
                0.4892039336771839,
                -3.149145273974312
            ]
        },
        {
            "positions": [
                -2.5679664738434895,
                -0.7860382169783247,
                0.4568350568331276,
                -0.13709497793667458,
                0.46296591750573574,
                -3.152570490254789
            ]
        },
        {
            "positions": [
                -2.4377765732677363,
                -0.8280449838182478,
                0.3433463607856525,
                -0.2075572616677359,
                0.43672790133428757,
                -3.1559957065352657
            ]
        },
        {
            "positions": [
                -2.307586672691983,
                -0.8700517506581709,
                0.22985766473817737,
                -0.2780195453987972,
                0.4104898851628394,
                -3.159420922815743
            ]
        },
        {
            "positions": [
                -2.17739677211623,
                -0.912058517498094,
                0.11636896869070229,
                -0.3484818291298585,
                0.38425186899139124,
                -3.16284613909622
            ]
        },
        {
            "positions": [
                -2.0472068715404763,
                -0.9540652843380171,
                0.0028802726432272108,
                -0.41894411286091976,
                0.3580138528199431,
                -3.1662713553766966
            ]
        },
        {
            "positions": [
                -1.9170169709647233,
                -0.9960720511779402,
                -0.11060842340424792,
                -0.4894063965919811,
                0.3317758366484949,
                -3.1696965716571737
            ]
        },
        {
            "positions": [
                -1.78682707038897,
                -1.0380788180178633,
                -0.22409711945172306,
                -0.5598686803230424,
                0.30553782047704675,
                -3.1731217879376508
            ]
        },
        {
            "positions": [
                -1.656637169813217,
                -1.0800855848577864,
                -0.3375858154991981,
                -0.6303309640541037,
                0.2792998043055986,
                -3.176547004218128
            ]
        },
        {
            "positions": [
                -1.5264472692374635,
                -1.1220923516977095,
                -0.4510745115466732,
                -0.700793247785165,
                0.2530617881341504,
                -3.1799722204986045
            ]
        },
        {
            "positions": [
                -1.3962573686617104,
                -1.1640991185376326,
                -0.5645632075941482,
                -0.7712555315162262,
                0.22682377196270226,
                -3.1833974367790816
            ]
        },
        {
            "positions": [
                -1.2660674680859572,
                -1.2061058853775557,
                -0.6780519036416235,
                -0.8417178152472875,
                0.2005857557912541,
                -3.1868226530595587
            ]
        },
        {
            "positions": [
                -1.135877567510204,
                -1.2481126522174788,
                -0.7915405996890985,
                -0.9121800989783488,
                0.17434773961980593,
                -3.1902478693400353
            ]
        },
        {
            "positions": [
                -1.0056876669344508,
                -1.290119419057402,
                -0.9050292957365735,
                -0.9826423827094102,
                0.14810972344835777,
                -3.1936730856205124
            ]
        },
        {
            "positions": [
                -0.8754977663586974,
                -1.332126185897325,
                -1.0185179917840488,
                -1.0531046664404715,
                0.1218717072769096,
                -3.1970983019009895
            ]
        },
        {
            "positions": [
                -0.7453078657829442,
                -1.3741329527372481,
                -1.1320066878315238,
                -1.1235669501715326,
                0.09563369110546144,
                -3.200523518181466
            ]
        },
        {
            "positions": [
                -0.6151179652071912,
                -1.4161397195771712,
                -1.2454953838789988,
                -1.194029233902594,
                0.06939567493401327,
                -3.2039487344619433
            ]
        },
        {
            "positions": [
                -0.484928064631438,
                -1.4581464864170943,
                -1.3589840799264739,
                -1.2644915176336553,
                0.043157658762565165,
                -3.2073739507424204
            ]
        },
        {
            "positions": [
                -0.35473816405568437,
                -1.5001532532570174,
                -1.472472775973949,
                -1.3349538013647166,
                0.016919642591116946,
                -3.2107991670228975
            ]
        },
        {
            "positions": [
                -0.22454826347993118,
                -1.5421600200969405,
                -1.5859614720214241,
                -1.405416085095778,
                -0.009318373580331218,
                -3.214224383303374
            ]
        },
        {
            "positions": [
                -0.09435836290417798,
                -1.5841667869368636,
                -1.6994501680688991,
                -1.475878368826839,
                -0.03555638975177938,
                -3.217649599583851
            ]
        },
        {
            "positions": [
                0.035831537671574765,
                -1.6261735537767867,
                -1.8129388641163742,
                -1.5463406525579004,
                -0.06179440592322755,
                -3.2210748158643283
            ]
        },
        {
            "positions": [
                0.1660214382473284,
                -1.6681803206167098,
                -1.9264275601638496,
                -1.6168029362889618,
                -0.08803242209467571,
                -3.224500032144805
            ]
        },
        {
            "positions": [
                0.2962113388230814,
                -1.710187087456633,
                -2.0399162562113244,
                -1.687265220020023,
                -0.11427043826612392,
                -3.227925248425282
            ]
        },
        {
            "positions": [
                0.1762743569722881,
                -1.718525423302348,
                -2.1208026591908906,
                -1.8100756237178606,
                -0.1304469112401739,
                -3.2041970056122744
            ]
        },
        {
            "positions": [
                0.05633737512149481,
                -1.726863759148063,
                -2.2016890621704563,
                -1.932886027415698,
                -0.1466233842142239,
                -3.1804687627992667
            ]
        },
        {
            "positions": [
                -0.06359960672929849,
                -1.7352020949937779,
                -2.282575465150022,
                -2.0556964311135353,
                -0.1627998571882739,
                -3.1567405199862586
            ]
        },
        {
            "positions": [
                -0.1835365885800918,
                -1.7435404308394928,
                -2.3634618681295883,
                -2.178506834811373,
                -0.1789763301623239,
                -3.133012277173251
            ]
        }
    ]
}