{
    "goal": {
        "global_pose": {
            "orientation": {
                "w": 0.005598929693374612,
                "x": 0.007748599140229565,
                "y": 0.7110244013736278,
                "z": -0.7031023480610252
            },
            "position": {
                "x": -0.8858502320852131,
                "y": -0.7141253447532654,
                "z": 0.3711530566215515
            }
        },
        "name": "move_to_auspresseinheit_C"
    },
    "id": "LazyPRMstar_move_to_auspresseinheit_C_144",
    "joint_names": [
        "shoulder_pan_joint",
        "shoulder_lift_joint",
        "elbow_joint",
        "wrist_1_joint",
        "wrist_2_joint",
        "wrist_3_joint"
    ],
    "metrics": {
        "cart_traj_len": 0.4928910474403122,
        "distance_elbow_joint": 1.0050945940718397,
        "distance_shoulder_lift_joint": 0.32718158809658704,
        "distance_shoulder_pan_joint": 0.2562868736416335,
        "distance_wrist_1_joint": 0.6963061132220634,
        "distance_wrist_2_joint": 1.304434603969554,
        "distance_wrist_3_joint": 0.075569340712343,
        "smoothness": 1.6148698667872622e-16,
        "time": 5.00006139,
        "traj_len": 1.9143858319873819,
        "weighted_distance": 2.411794458972473
    },
    "planner": "LazyPRMstar",
    "start": {
        "state": {
            "elbow_joint": 1.7527959577737207,
            "shoulder_lift_joint": -0.9740617694225068,
            "shoulder_pan_joint": -2.967991417825858,
            "wrist_1_joint": -0.759517768980727,
            "wrist_2_joint": 1.7443932448377408,
            "wrist_3_joint": -3.0840537646736568
        }
    },
    "waypoints": [
        {
            "positions": [
                -2.967991417825858,
                -0.9740617694225068,
                1.7527959577737207,
                -0.759517768980727,
                1.7443932448377408,
                -3.0840537646736568
            ]
        },
        {
            "positions": [
                -2.942362730461695,
                -0.9413436106128481,
                1.6522864983665366,
                -0.6898871576585206,
                1.6139497844407855,
                -3.091610698744891
            ]
        },
        {
            "positions": [
                -2.9167340430975313,
                -0.9086254518031893,
                1.5517770389593526,
                -0.6202565463363143,
                1.48350632404383,
                -3.0991676328161253
            ]
        },
        {
            "positions": [
                -2.8911053557333677,
                -0.8759072929935307,
                1.4512675795521688,
                -0.550625935014108,
                1.3530628636468747,
                -3.1067245668873595
            ]
        },
        {
            "positions": [
                -2.8654766683692046,
                -0.843189134183872,
                1.3507581201449848,
                -0.4809953236919016,
                1.2226194032499191,
                -3.114281500958594
            ]
        },
        {
            "positions": [
                -2.8398479810050414,
                -0.8104709753742132,
                1.250248660737801,
                -0.4113647123696953,
                1.0921759428529638,
                -3.1218384350298285
            ]
        },
        {
            "positions": [
                -2.814219293640878,
                -0.7777528165645545,
                1.149739201330617,
                -0.34173410104748897,
                0.9617324824560084,
                -3.1293953691010628
            ]
        },
        {
            "positions": [
                -2.7885906062767143,
                -0.7450346577548959,
                1.0492297419234329,
                -0.27210348972528264,
                0.8312890220590531,
                -3.136952303172297
            ]
        },
        {
            "positions": [
                -2.762961918912551,
                -0.7123164989452371,
                0.9487202825162488,
                -0.20247287840307626,
                0.7008455616620977,
                -3.1445092372435313
            ]
        },
        {
            "positions": [
                -2.737333231548388,
                -0.6795983401355784,
                0.8482108231090649,
                -0.13284226708086988,
                0.5704021012651421,
                -3.1520661713147655
            ]
        },
        {
            "positions": [
                -2.7117045441842245,
                -0.6468801813259197,
                0.747701363701881,
                -0.0632116557586636,
                0.43995864086818687,
                -3.1596231053859998
            ]
        }
    ]
}