{
    "goal": {
        "global_pose": {
            "orientation": {
                "w": 0.5084816217422485,
                "x": -0.49083608388900757,
                "y": 0.5182115435600281,
                "z": -0.4816462993621826
            },
            "position": {
                "x": 0.5540239810943604,
                "y": 0.030875300988554955,
                "z": 0.16403168439865112
            }
        },
        "name": "move_to_storage_A"
    },
    "id": "LazyPRM_move_to_storage_A_105",
    "joint_names": [
        "shoulder_pan_joint",
        "shoulder_lift_joint",
        "elbow_joint",
        "wrist_1_joint",
        "wrist_2_joint",
        "wrist_3_joint"
    ],
    "metrics": {
        "cart_traj_len": 0.35329582912216806,
        "distance_elbow_joint": 0.4492531213800748,
        "distance_shoulder_lift_joint": 0.23281170588058475,
        "distance_shoulder_pan_joint": 0.4626750405147964,
        "distance_wrist_1_joint": 0.24100857980085155,
        "distance_wrist_2_joint": 1.0954980886070942,
        "distance_wrist_3_joint": 0.0922176638305694,
        "smoothness": 0.0,
        "time": 0.021964631000000002,
        "traj_len": 1.6042020446358902,
        "weighted_distance": 2.0234639102497125
    },
    "planner": "LazyPRM",
    "start": {
        "state": {
            "elbow_joint": 1.971548259319323,
            "shoulder_lift_joint": -1.1394851275133948,
            "shoulder_pan_joint": 0.1228115487234821,
            "wrist_1_joint": -0.7804723859257726,
            "wrist_2_joint": 0.12958671773740124,
            "wrist_3_joint": -3.192489227718131
        }
    },
    "waypoints": [
        {
            "positions": [
                0.1228115487234821,
                -1.1394851275133948,
                1.971548259319323,
                -0.7804723859257726,
                0.12958671773740124,
                -3.192489227718131
            ]
        },
        {
            "positions": [
                0.05671511436422548,
                -1.1727439426391926,
                2.0357272766593337,
                -0.81490218304018,
                0.28608644468127187,
                -3.1793152757423355
            ]
        },
        {
            "positions": [
                -0.00938131999503114,
                -1.2060027577649906,
                2.0999062939993443,
                -0.8493319801545873,
                0.44258617162514247,
                -3.16614132376654
            ]
        },
        {
            "positions": [
                -0.07547775435428777,
                -1.2392615728907883,
                2.1640853113393552,
                -0.8837617772689947,
                0.5990858985690131,
                -3.1529673717907443
            ]
        },
        {
            "positions": [
                -0.14157418871354438,
                -1.272520388016586,
                2.2282643286793657,
                -0.918191574383402,
                0.7555856255128837,
                -3.1397934198149486
            ]
        },
        {
            "positions": [
                -0.20767062307280104,
                -1.305779203142384,
                2.2924433460193763,
                -0.9526213714978095,
                0.9120853524567543,
                -3.126619467839153
            ]
        },
        {
            "positions": [
                -0.27376705743205765,
                -1.3390380182681818,
                2.3566223633593872,
                -0.9870511686122168,
                1.0685850794006249,
                -3.1134455158633574
            ]
        },
        {
            "positions": [
                -0.3398634917913143,
                -1.3722968333939796,
                2.4208013806993978,
                -1.0214809657266242,
                1.2250848063444955,
                -3.1002715638875618
            ]
        }
    ]
}{
    "goal": {
        "global_pose": {
            "orientation": {
                "w": 0.5084816217422485,
                "x": -0.49083608388900757,
                "y": 0.5182115435600281,
                "z": -0.4816462993621826
            },
            "position": {
                "x": 0.5540239810943604,
                "y": 0.030875300988554955,
                "z": 0.16403168439865112
            }
        },
        "name": "move_to_storage_A"
    },
    "id": "LazyPRM_move_to_storage_A_105",
    "joint_names": [
        "shoulder_pan_joint",
        "shoulder_lift_joint",
        "elbow_joint",
        "wrist_1_joint",
        "wrist_2_joint",
        "wrist_3_joint"
    ],
    "metrics": {
        "cart_traj_len": 0.3531585482323208,
        "distance_elbow_joint": 0.4538621144797972,
        "distance_shoulder_lift_joint": 0.23514402065620432,
        "distance_shoulder_pan_joint": 0.45856193872003154,
        "distance_wrist_1_joint": 0.2599147789369882,
        "distance_wrist_2_joint": 1.113534395621849,
        "distance_wrist_3_joint": 0.10946783281967809,
        "smoothness": 1.3322676295501878e-15,
        "time": 0.022057728999999998,
        "traj_len": 1.621877024078752,
        "weighted_distance": 2.0549622676420953
    },
    "planner": "LazyPRM",
    "start": {
        "state": {
            "elbow_joint": 1.97154746011099,
            "shoulder_lift_joint": -1.13948474672311,
            "shoulder_pan_joint": 0.12281154466712228,
            "wrist_1_joint": -0.7804688027058302,
            "wrist_2_joint": 0.12958655903071145,
            "wrist_3_joint": 3.0906928834467795
        }
    },
    "waypoints": [
        {
            "positions": [
                0.12281154466712228,
                -1.13948474672311,
                1.97154746011099,
                -0.7804688027058302,
                0.12958655903071145,
                3.0906928834467795
            ]
        },
        {
            "positions": [
                0.05730269627854635,
                -1.1730767496739962,
                2.0363849050366754,
                -0.8175994854111143,
                0.2886629012624042,
                3.106331145278162
            ]
        },
        {
            "positions": [
                -0.008206152110029577,
                -1.2066687526248827,
                2.1012223499623603,
                -0.8547301681163982,
                0.4477392434940969,
                3.1219694071095447
            ]
        },
        {
            "positions": [
                -0.0737150004986055,
                -1.240260755575769,
                2.166059794888046,
                -0.8918608508216823,
                0.6068155857257896,
                3.137607668940927
            ]
        },
        {
            "positions": [
                -0.13922384888718142,
                -1.2738527585266552,
                2.2308972398137312,
                -0.9289915335269663,
                0.7658919279574824,
                3.15324593077231
            ]
        },
        {
            "positions": [
                -0.20473269727575738,
                -1.3074447614775417,
                2.2957346847394167,
                -0.9661222162322504,
                0.9249682701891752,
                3.1688841926036924
            ]
        },
        {
            "positions": [
                -0.2702415456643333,
                -1.341036764428428,
                2.3605721296651017,
                -1.0032528989375344,
                1.0840446124208678,
                3.184522454435075
            ]
        },
        {
            "positions": [
                -0.33575039405290924,
                -1.3746287673793143,
                2.425409574590787,
                -1.0403835816428184,
                1.2431209546525606,
                3.2001607162664576
            ]
        }
    ]
}{
    "goal": {
        "global_pose": {
            "orientation": {
                "w": 0.5084816217422485,
                "x": -0.49083608388900757,
                "y": 0.5182115435600281,
                "z": -0.4816462993621826
            },
            "position": {
                "x": 0.5540239810943604,
                "y": 0.030875300988554955,
                "z": 0.16403168439865112
            }
        },
        "name": "move_to_storage_A"
    },
    "id": "LazyPRM_move_to_storage_A_105",
    "joint_names": [
        "shoulder_pan_joint",
        "shoulder_lift_joint",
        "elbow_joint",
        "wrist_1_joint",
        "wrist_2_joint",
        "wrist_3_joint"
    ],
    "metrics": {
        "cart_traj_len": 0.35330983428588647,
        "distance_elbow_joint": 0.45246246591250916,
        "distance_shoulder_lift_joint": 0.23375016721902653,
        "distance_shoulder_pan_joint": 0.4638356370610114,
        "distance_wrist_1_joint": 0.2583912136566102,
        "distance_wrist_2_joint": 1.0908400554122737,
        "distance_wrist_3_joint": 0.09956462358168183,
        "smoothness": 2.2204460668324854e-16,
        "time": 0.021811383,
        "traj_len": 1.6120930999303709,
        "weighted_distance": 2.036468678638432
    },
    "planner": "LazyPRM",
    "start": {
        "state": {
            "elbow_joint": 1.9715472970024885,
            "shoulder_lift_joint": -1.1394870060712896,
            "shoulder_pan_joint": 0.12281152778156021,
            "wrist_1_joint": -0.780463741449964,
            "wrist_2_joint": 0.12958659822042276,
            "wrist_3_joint": 3.090690232415272
        }
    },
    "waypoints": [
        {
            "positions": [
                0.12281152778156021,
                -1.1394870060712896,
                1.9715472970024885,
                -0.780463741449964,
                0.12958659822042276,
                3.090690232415272
            ]
        },
        {
            "positions": [
                0.056549293915701446,
                -1.1728798871025792,
                2.036184792132847,
                -0.8173767719723369,
                0.2854208918507476,
                3.1049137500697976
            ]
        },
        {
            "positions": [
                -0.009712939950157318,
                -1.2062727681338685,
                2.1008222872632056,
                -0.8542898024947098,
                0.44125518548107234,
                3.119137267724324
            ]
        },
        {
            "positions": [
                -0.0759751738160161,
                -1.239665649165158,
                2.165459782393564,
                -0.8912028330170827,
                0.5970894791113972,
                3.1333607853788497
            ]
        },
        {
            "positions": [
                -0.14223740768187484,
                -1.2730585301964477,
                2.2300972775239223,
                -0.9281158635394555,
                0.752923772741722,
                3.147584303033376
            ]
        },
        {
            "positions": [
                -0.20849964154773362,
                -1.3064514112277372,
                2.294734772654281,
                -0.9650288940618285,
                0.9087580663720468,
                3.1618078206879017
            ]
        },
        {
            "positions": [
                -0.2747618754135924,
                -1.3398442922590266,
                2.3593722677846394,
                -1.0019419245842014,
                1.0645923600023717,
                3.176031338342428
            ]
        },
        {
            "positions": [
                -0.34102410927945115,
                -1.3732371732903161,
                2.4240097629149977,
                -1.0388549551065742,
                1.2204266536326964,
                3.1902548559969537
            ]
        }
    ]
}