{
    "goal": {
        "global_pose": {
            "orientation": {
                "w": 0.005598929693374612,
                "x": 0.007748599140229565,
                "y": 0.7110244013736278,
                "z": -0.7031023480610252
            },
            "position": {
                "x": 0.1141497679147869,
                "y": -0.7141253447532654,
                "z": 0.3711530566215515
            }
        },
        "name": "move_to_auspresseinheit_B"
    },
    "id": "LazyPRM_move_to_auspresseinheit_B_146",
    "joint_names": [
        "shoulder_pan_joint",
        "shoulder_lift_joint",
        "elbow_joint",
        "wrist_1_joint",
        "wrist_2_joint",
        "wrist_3_joint"
    ],
    "metrics": {
        "cart_traj_len": 0.5653880215894781,
        "distance_elbow_joint": 0.06509456144813663,
        "distance_shoulder_lift_joint": 0.29388368664916675,
        "distance_shoulder_pan_joint": 0.5768809253249247,
        "distance_wrist_1_joint": 0.3376053048247051,
        "distance_wrist_2_joint": 1.0019575072067204,
        "distance_wrist_3_joint": 0.0013884387756135652,
        "smoothness": 5.075305295617109e-16,
        "time": 0.011794431000000001,
        "traj_len": 1.5089103433369615,
        "weighted_distance": 1.9024064008018686
    },
    "planner": "LazyPRM",
    "start": {
        "state": {
            "elbow_joint": 2.0193083361928714,
            "shoulder_lift_joint": -1.1220246554650708,
            "shoulder_pan_joint": -1.0952077554168747,
            "wrist_1_joint": -0.8559753972642168,
            "wrist_2_joint": 0.4759566250798843,
            "wrist_3_joint": -3.1240929996934557
        }
    },
    "waypoints": [
        {
            "positions": [
                -1.0952077554168747,
                -1.1220246554650708,
                2.0193083361928714,
                -0.8559753972642168,
                0.4759566250798843,
                -3.1240929996934557
            ]
        },
        {
            "positions": [
                -1.191354576304362,
                -1.1710052699065985,
                2.0084592426181818,
                -0.7997078464600993,
                0.642949542947671,
                -3.1238615932308536
            ]
        },
        {
            "positions": [
                -1.2875013971918496,
                -1.2199858843481264,
                1.9976101490434925,
                -0.7434402956559818,
                0.8099424608154577,
                -3.123630186768251
            ]
        },
        {
            "positions": [
                -1.383648218079337,
                -1.2689664987896543,
                1.986761055468803,
                -0.6871727448518643,
                0.9769353786832444,
                -3.123398780305649
            ]
        },
        {
            "positions": [
                -1.4797950389668244,
                -1.317947113231182,
                1.9759119618941137,
                -0.6309051940477468,
                1.1439282965510311,
                -3.1231673738430468
            ]
        },
        {
            "positions": [
                -1.575941859854312,
                -1.3669277276727096,
                1.9650628683194242,
                -0.5746376432436292,
                1.310921214418818,
                -3.122935967380444
            ]
        },
        {
            "positions": [
                -1.6720886807417994,
                -1.4159083421142376,
                1.9542137747447348,
                -0.5183700924395117,
                1.4779141322866047,
                -3.122704560917842
            ]
        }
    ]
}