{
    "goal": {
        "global_pose": {
            "orientation": {
                "w": 0.005598929693374612,
                "x": 0.007748599140229565,
                "y": 0.7110244013736278,
                "z": -0.7031023480610252
            },
            "position": {
                "x": -0.8858502320852131,
                "y": -0.7141253447532654,
                "z": 0.3711530566215515
            }
        },
        "name": "move_to_auspresseinheit_C"
    },
    "id": "LazyPRM_move_to_auspresseinheit_C_141",
    "joint_names": [
        "shoulder_pan_joint",
        "shoulder_lift_joint",
        "elbow_joint",
        "wrist_1_joint",
        "wrist_2_joint",
        "wrist_3_joint"
    ],
    "metrics": {
        "cart_traj_len": 0.49439568249613514,
        "distance_elbow_joint": 1.0149831573692956,
        "distance_shoulder_lift_joint": 0.3311908124363695,
        "distance_shoulder_pan_joint": 0.25679286243365507,
        "distance_wrist_1_joint": 0.713062138363005,
        "distance_wrist_2_joint": 1.3012501411658328,
        "distance_wrist_3_joint": 0.08836440717158611,
        "smoothness": 4.0371746459348705e-16,
        "time": 0.012672927,
        "traj_len": 1.9250048101082096,
        "weighted_distance": 2.428309002744864
    },
    "planner": "LazyPRM",
    "start": {
        "state": {
            "elbow_joint": 1.7527959577737207,
            "shoulder_lift_joint": -0.9740617694225068,
            "shoulder_pan_joint": -2.967991417825858,
            "wrist_1_joint": -0.759517768980727,
            "wrist_2_joint": 1.7443932448377408,
            "wrist_3_joint": -3.0840537646736568
        }
    },
    "waypoints": [
        {
            "positions": [
                -2.967991417825858,
                -0.9740617694225068,
                1.7527959577737207,
                -0.759517768980727,
                1.7443932448377408,
                -3.0840537646736568
            ]
        },
        {
            "positions": [
                -2.9423121315824923,
                -0.9409426881788698,
                1.651297642036791,
                -0.6882115551444264,
                1.6142682307211575,
                -3.092890205390815
            ]
        },
        {
            "positions": [
                -2.916632845339127,
                -0.9078236069352329,
                1.5497993262998615,
                -0.616905341308126,
                1.4841432166045743,
                -3.101726646107974
            ]
        },
        {
            "positions": [
                -2.8909535590957613,
                -0.874704525691596,
                1.448301010562932,
                -0.5455991274718255,
                1.354018202487991,
                -3.110563086825133
            ]
        },
        {
            "positions": [
                -2.865274272852396,
                -0.8415854444479589,
                1.3468026948260023,
                -0.47429291363552495,
                1.2238931883714077,
                -3.119399527542291
            ]
        },
        {
            "positions": [
                -2.8395949866090304,
                -0.8084663632043221,
                1.245304379089073,
                -0.40298669979922447,
                1.0937681742548244,
                -3.1282359682594496
            ]
        },
        {
            "positions": [
                -2.8139157003656647,
                -0.775347281960685,
                1.1438060633521432,
                -0.331680485962924,
                0.9636431601382411,
                -3.1370724089766084
            ]
        },
        {
            "positions": [
                -2.7882364141222995,
                -0.7422282007170482,
                1.0423077476152138,
                -0.2603742721266235,
                0.833518146021658,
                -3.145908849693767
            ]
        },
        {
            "positions": [
                -2.762557127878934,
                -0.7091091194734112,
                0.9408094318782841,
                -0.18906805829032292,
                0.7033931319050746,
                -3.1547452904109257
            ]
        },
        {
            "positions": [
                -2.7368778416355686,
                -0.6759900382297742,
                0.8393111161413547,
                -0.11776184445402249,
                0.5732681177884913,
                -3.163581731128084
            ]
        },
        {
            "positions": [
                -2.711198555392203,
                -0.6428709569861373,
                0.7378128004044251,
                -0.046455630617721996,
                0.4431431036719079,
                -3.172418171845243
            ]
        }
    ]
}