{
    "goal": {
        "global_pose": {
            "orientation": {
                "w": -0.4816463035849501,
                "x": 0.5182115481033762,
                "y": 0.4908360881923453,
                "z": -0.5084816262002911
            },
            "position": {
                "x": -0.8240239810943604,
                "y": -0.300875300988555,
                "z": 0.16403168439865112
            }
        },
        "name": "move_to_storage_C"
    },
    "id": "LazyPRM_move_to_storage_C_67",
    "joint_names": [
        "shoulder_pan_joint",
        "shoulder_lift_joint",
        "elbow_joint",
        "wrist_1_joint",
        "wrist_2_joint",
        "wrist_3_joint"
    ],
    "metrics": {
        "cart_traj_len": 0.576381283970099,
        "distance_elbow_joint": 0.2593184856049249,
        "distance_shoulder_lift_joint": 0.18968691811680138,
        "distance_shoulder_pan_joint": 0.492979218141921,
        "distance_wrist_1_joint": 0.07746617350703455,
        "distance_wrist_2_joint": 1.0742690467942624,
        "distance_wrist_3_joint": 0.05606649278116915,
        "smoothness": 0.0,
        "time": 0.011803219,
        "traj_len": 1.4662149688726116,
        "weighted_distance": 1.8476077886850737
    },
    "planner": "LazyPRM",
    "start": {
        "state": {
            "elbow_joint": 2.010868314990456,
            "shoulder_lift_joint": -1.1634956873337592,
            "shoulder_pan_joint": -2.4736205022346125,
            "wrist_1_joint": -0.8367026794202681,
            "wrist_2_joint": 0.6746043897044499,
            "wrist_3_joint": -3.1496632123970403
        }
    },
    "waypoints": [
        {
            "positions": [
                -2.4736205022346125,
                -1.1634956873337592,
                2.010868314990456,
                -0.8367026794202681,
                0.6746043897044499,
                -3.1496632123970403
            ]
        },
        {
            "positions": [
                -2.555783705258266,
                -1.131881200980959,
                1.967648567389635,
                -0.823791650502429,
                0.853649230836827,
                -3.1403187969335122
            ]
        },
        {
            "positions": [
                -2.6379469082819194,
                -1.1002667146281588,
                1.9244288197888142,
                -0.81088062158459,
                1.0326940719692042,
                -3.1309743814699837
            ]
        },
        {
            "positions": [
                -2.720110111305573,
                -1.0686522282753586,
                1.8812090721879935,
                -0.7979695926667508,
                1.211738913101581,
                -3.1216299660064557
            ]
        },
        {
            "positions": [
                -2.8022733143292267,
                -1.0370377419225583,
                1.8379893245871726,
                -0.7850585637489117,
                1.3907837542339583,
                -3.1122855505429277
            ]
        },
        {
            "positions": [
                -2.88443651735288,
                -1.005423255569758,
                1.7947695769863516,
                -0.7721475348310727,
                1.5698285953663351,
                -3.102941135079399
            ]
        },
        {
            "positions": [
                -2.9665997203765335,
                -0.9738087692169578,
                1.751549829385531,
                -0.7592365059132336,
                1.7488734364987122,
                -3.093596719615871
            ]
        }
    ]
}