{
    "goal": {
        "global_pose": {
            "orientation": {
                "w": 0.005598929693374612,
                "x": 0.007748599140229565,
                "y": 0.7110244013736278,
                "z": -0.7031023480610252
            },
            "position": {
                "x": 0.1141497679147869,
                "y": -0.7141253447532654,
                "z": 0.3711530566215515
            }
        },
        "name": "move_to_auspresseinheit_B"
    },
    "id": "LazyPRMstar_move_to_auspresseinheit_B_13",
    "joint_names": [
        "shoulder_pan_joint",
        "shoulder_lift_joint",
        "elbow_joint",
        "wrist_1_joint",
        "wrist_2_joint",
        "wrist_3_joint"
    ],
    "metrics": {
        "cart_traj_len": 0.5653082183032242,
        "distance_elbow_joint": 0.062106963861758846,
        "distance_shoulder_lift_joint": 0.2944864631943116,
        "distance_shoulder_pan_joint": 0.5757598946628981,
        "distance_wrist_1_joint": 0.32060244720424025,
        "distance_wrist_2_joint": 1.0031460492226314,
        "distance_wrist_3_joint": 0.005714113262342835,
        "smoothness": 0.0,
        "time": 5.000165718,
        "traj_len": 1.5039334863644014,
        "weighted_distance": 1.896573925361134
    },
    "planner": "LazyPRMstar",
    "start": {
        "state": {
            "elbow_joint": 2.0193083361928714,
            "shoulder_lift_joint": -1.1220246554650708,
            "shoulder_pan_joint": -1.0952077554168747,
            "wrist_1_joint": -0.8559753972642168,
            "wrist_2_joint": 0.4759566250798843,
            "wrist_3_joint": -3.1240929996934557
        }
    },
    "waypoints": [
        {
            "positions": [
                -1.0952077554168747,
                -1.1220246554650708,
                2.0193083361928714,
                -0.8559753972642168,
                0.4759566250798843,
                -3.1240929996934557
            ]
        },
        {
            "positions": [
                -1.191167737860691,
                -1.1711057326641228,
                2.008957175549245,
                -0.8025416560635101,
                0.6431476332836562,
                -3.125045351903846
            ]
        },
        {
            "positions": [
                -1.2871277203045073,
                -1.2201868098631747,
                1.9986060149056184,
                -0.7491079148628034,
                0.8103386414874281,
                -3.1259977041142366
            ]
        },
        {
            "positions": [
                -1.3830877027483237,
                -1.2692678870622265,
                1.988254854261992,
                -0.6956741736620966,
                0.9775296496912,
                -3.126950056324627
            ]
        },
        {
            "positions": [
                -1.47904768519214,
                -1.3183489642612785,
                1.9779036936183656,
                -0.64224043246139,
                1.1447206578949718,
                -3.1279024085350176
            ]
        },
        {
            "positions": [
                -1.5750076676359566,
                -1.3674300414603304,
                1.967552532974739,
                -0.5888066912606833,
                1.3119116660987438,
                -3.128854760745408
            ]
        },
        {
            "positions": [
                -1.6709676500797728,
                -1.4165111186593824,
                1.9572013723311126,
                -0.5353729500599765,
                1.4791026743025157,
                -3.1298071129557985
            ]
        }
    ]
}