{
    "goal": {
        "global_pose": {
            "orientation": {
                "w": -0.00223480608172531,
                "x": 0.0024358444001904467,
                "y": 0.7094548369677653,
                "z": -0.704743149386269
            },
            "position": {
                "x": 0.6205249238014221,
                "y": -0.6371506643295288,
                "z": 0.19426114857196808
            }
        },
        "name": "move_to_magneteinheit_B"
    },
    "id": "LazyPRMstar_move_to_magneteinheit_B_83",
    "joint_names": [
        "shoulder_pan_joint",
        "shoulder_lift_joint",
        "elbow_joint",
        "wrist_1_joint",
        "wrist_2_joint",
        "wrist_3_joint"
    ],
    "metrics": {
        "cart_traj_len": 1.6388571578211821,
        "distance_elbow_joint": 0.9576849627225639,
        "distance_shoulder_lift_joint": 1.522445578405786,
        "distance_shoulder_pan_joint": 1.6216471101022474,
        "distance_wrist_1_joint": 0.3493714169303126,
        "distance_wrist_2_joint": 1.5242111599431,
        "distance_wrist_3_joint": 0.06148998598684293,
        "smoothness": 0.5861038248223169,
        "time": 5.010200588,
        "traj_len": 2.457000247067723,
        "weighted_distance": 2.8343275680376023
    },
    "planner": "LazyPRMstar",
    "start": {
        "state": {
            "elbow_joint": 2.6216224122426386,
            "shoulder_lift_joint": -1.4174107377796124,
            "shoulder_pan_joint": 0.7066234856936794,
            "wrist_1_joint": 1.9546482284002225,
            "wrist_2_joint": -0.7096286983471962,
            "wrist_3_joint": 0.005740856962016249
        }
    },
    "waypoints": [
        {
            "positions": [
                0.7066234856936794,
                -1.4174107377796124,
                2.6216224122426386,
                1.9546482284002225,
                -0.7096286983471962,
                0.005740856962016249
            ]
        },
        {
            "positions": [
                0.7020775413660711,
                -1.5894679307753639,
                2.6168935389316825,
                1.9172610332172664,
                -0.8354871489392817,
                0.018848005232190164
            ]
        },
        {
            "positions": [
                0.6479916109296696,
                -1.6948622678997833,
                2.5834192288633853,
                1.8950219025806039,
                -0.9775125856315677,
                0.028822857697821547
            ]
        },
        {
            "positions": [
                0.5939056804932681,
                -1.800256605024203,
                2.5499449187950876,
                1.8727827719439416,
                -1.1195380223238538,
                0.03879771016345293
            ]
        },
        {
            "positions": [
                0.4778341955008192,
                -1.7125950887810342,
                2.481790498081625,
                1.893360153518867,
                -1.2052535481674262,
                0.036610546103037066
            ]
        },
        {
            "positions": [
                0.3617627105083702,
                -1.6249335725378653,
                2.4136360773681624,
                1.9139375350937926,
                -1.2909690740109987,
                0.0344233820426212
            ]
        },
        {
            "positions": [
                0.24569122551592132,
                -1.5372720562946964,
                2.3454816566547,
                1.934514916668718,
                -1.3766845998545714,
                0.032236217982205335
            ]
        },
        {
            "positions": [
                0.12961974052347236,
                -1.4496105400515276,
                2.2773272359412373,
                1.9550922982436436,
                -1.4624001256981438,
                0.03004905392178947
            ]
        },
        {
            "positions": [
                0.013548255531023456,
                -1.3619490238083587,
                2.2091728152277748,
                1.9756696798185691,
                -1.5481156515417163,
                0.027861889861373605
            ]
        },
        {
            "positions": [
                -0.10252322946142545,
                -1.2742875075651898,
                2.141018394514312,
                1.9962470613934946,
                -1.633831177385289,
                0.02567472580095774
            ]
        },
        {
            "positions": [
                -0.21859471445387435,
                -1.186625991322021,
                2.07286397380085,
                2.0168244429684203,
                -1.7195467032288612,
                0.023487561740541875
            ]
        },
        {
            "positions": [
                -0.33466619944632336,
                -1.098964475078852,
                2.0047095530873875,
                2.0374018245433456,
                -1.8052622290724338,
                0.02130039768012601
            ]
        },
        {
            "positions": [
                -0.45073768443877227,
                -1.0113029588356832,
                1.936555132373925,
                2.0579792061182713,
                -1.8909777549160063,
                0.019113233619710145
            ]
        },
        {
            "positions": [
                -0.5668091694312212,
                -0.9236414425925144,
                1.8684007116604624,
                2.0785565876931966,
                -1.9766932807595787,
                0.01692606955929428
            ]
        },
        {
            "positions": [
                -0.6828806544236701,
                -0.8359799263493455,
                1.8002462909469998,
                2.0991339692681223,
                -2.0624088066031514,
                0.014738905498878414
            ]
        },
        {
            "positions": [
                -0.798952139416119,
                -0.7483184101061766,
                1.7320918702335373,
                2.1197113508430476,
                -2.1481243324467236,
                0.01255174143846255
            ]
        },
        {
            "positions": [
                -0.9150236244085679,
                -0.6606568938630077,
                1.6639374495200747,
                2.1402887324179733,
                -2.2338398582902963,
                0.010364577378046686
            ]
        }
    ]
}