{
    "goal": {
        "global_pose": {
            "orientation": {
                "w": 0.005598929693374612,
                "x": 0.007748599140229565,
                "y": 0.7110244013736278,
                "z": -0.7031023480610252
            },
            "position": {
                "x": -0.8858502320852131,
                "y": -0.7141253447532654,
                "z": 0.3711530566215515
            }
        },
        "name": "move_to_auspresseinheit_C"
    },
    "id": "LazyPRM_move_to_auspresseinheit_C_102",
    "joint_names": [
        "shoulder_pan_joint",
        "shoulder_lift_joint",
        "elbow_joint",
        "wrist_1_joint",
        "wrist_2_joint",
        "wrist_3_joint"
    ],
    "metrics": {
        "cart_traj_len": 0.49279225686065165,
        "distance_elbow_joint": 1.0050632353370401,
        "distance_shoulder_lift_joint": 0.3273500520189939,
        "distance_shoulder_pan_joint": 0.2562060372581838,
        "distance_wrist_1_joint": 0.6956738589171794,
        "distance_wrist_2_joint": 1.3049846344765874,
        "distance_wrist_3_joint": 0.06552271841474644,
        "smoothness": 3.2297397335745243e-16,
        "time": 0.012634071,
        "traj_len": 1.9117532624328724,
        "weighted_distance": 2.405515426399505
    },
    "planner": "LazyPRM",
    "start": {
        "state": {
            "elbow_joint": 1.7527959577737207,
            "shoulder_lift_joint": -0.9740617694225068,
            "shoulder_pan_joint": -2.967991417825858,
            "wrist_1_joint": -0.759517768980727,
            "wrist_2_joint": 1.7443932448377408,
            "wrist_3_joint": -3.0840537646736568
        }
    },
    "waypoints": [
        {
            "positions": [
                -2.967991417825858,
                -0.9740617694225068,
                1.7527959577737207,
                -0.759517768980727,
                1.7443932448377408,
                -3.0840537646736568
            ]
        },
        {
            "positions": [
                -2.9423708141000398,
                -0.9413267642206073,
                1.6522896342400166,
                -0.689950383089009,
                1.6138947813900821,
                -3.0906060365151315
            ]
        },
        {
            "positions": [
                -2.916750210374221,
                -0.908591759018708,
                1.5517833107063126,
                -0.6203829971972911,
                1.4833963179424234,
                -3.097158308356606
            ]
        },
        {
            "positions": [
                -2.891129606648403,
                -0.8758567538168086,
                1.4512769871726086,
                -0.5508156113055732,
                1.3528978544947647,
                -3.1037105801980807
            ]
        },
        {
            "positions": [
                -2.8655090029225843,
                -0.8431217486149092,
                1.3507706636389045,
                -0.4812482254138552,
                1.2223993910471058,
                -3.1102628520395554
            ]
        },
        {
            "positions": [
                -2.839888399196766,
                -0.8103867434130099,
                1.2502643401052005,
                -0.4116808395221373,
                1.0919009275994471,
                -3.1168151238810298
            ]
        },
        {
            "positions": [
                -2.814267795470948,
                -0.7776517382111104,
                1.1497580165714965,
                -0.3421134536304194,
                0.9614024641517884,
                -3.1233673957225045
            ]
        },
        {
            "positions": [
                -2.788647191745129,
                -0.744916733009211,
                1.0492516930377926,
                -0.27254606773870144,
                0.8309040007041297,
                -3.1299196675639793
            ]
        },
        {
            "positions": [
                -2.763026588019311,
                -0.7121817278073117,
                0.9487453695040885,
                -0.20297868184698342,
                0.7004055372564708,
                -3.136471939405454
            ]
        },
        {
            "positions": [
                -2.7374059842934924,
                -0.6794467226054122,
                0.8482390459703846,
                -0.13341129595526557,
                0.5699070738088121,
                -3.1430242112469284
            ]
        },
        {
            "positions": [
                -2.711785380567674,
                -0.6467117174035129,
                0.7477327224366805,
                -0.06384391006354762,
                0.43940861036115353,
                -3.149576483088403
            ]
        }
    ]
}