{
    "goal": {
        "global_pose": {
            "orientation": {
                "w": 0.7031023480610252,
                "x": -0.7110244013736278,
                "y": 0.0077485991402295624,
                "z": 0.005598929693374583
            },
            "position": {
                "x": -0.8841497679147869,
                "y": 0.44412534475326537,
                "z": 0.3711530566215515
            }
        },
        "name": "move_to_auspresseinheit_D"
    },
    "id": "LazyPRMstar_move_to_auspresseinheit_D_149",
    "joint_names": [
        "shoulder_pan_joint",
        "shoulder_lift_joint",
        "elbow_joint",
        "wrist_1_joint",
        "wrist_2_joint",
        "wrist_3_joint"
    ],
    "metrics": {
        "cart_traj_len": 0.34464150528991516,
        "distance_elbow_joint": 0.6737462045455063,
        "distance_shoulder_lift_joint": 0.1416984289890082,
        "distance_shoulder_pan_joint": 0.13330844120945393,
        "distance_wrist_1_joint": 0.635010622835094,
        "distance_wrist_2_joint": 1.448938961030208,
        "distance_wrist_3_joint": 0.09196018037823306,
        "smoothness": 9.868649132379265e-16,
        "time": 5.001702806,
        "traj_len": 1.7676715868586854,
        "weighted_distance": 2.3221827627491494
    },
    "planner": "LazyPRMstar",
    "start": {
        "state": {
            "elbow_joint": -1.8275523626775212,
            "shoulder_lift_joint": -2.126789852344167,
            "shoulder_pan_joint": -0.03513704404078235,
            "wrist_1_joint": -2.347782403156801,
            "wrist_2_joint": -1.6058999987535132,
            "wrist_3_joint": -3.0880379163319196
        }
    },
    "waypoints": [
        {
            "positions": [
                -0.03513704404078235,
                -2.126789852344167,
                -1.8275523626775212,
                -2.347782403156801,
                -1.6058999987535132,
                -3.0880379163319196
            ]
        },
        {
            "positions": [
                -0.051800599191964086,
                -2.144502155967793,
                -1.743334087109333,
                -2.4271587310111875,
                -1.4247826286247371,
                -3.0765428937846404
            ]
        },
        {
            "positions": [
                -0.06846415434314583,
                -2.162214459591419,
                -1.6591158115411446,
                -2.506535058865574,
                -1.243665258495961,
                -3.065047871237361
            ]
        },
        {
            "positions": [
                -0.08512770949432757,
                -2.179926763215045,
                -1.5748975359729562,
                -2.5859113867199612,
                -1.0625478883671853,
                -3.053552848690082
            ]
        },
        {
            "positions": [
                -0.1017912646455093,
                -2.197639066838671,
                -1.490679260404768,
                -2.665287714574348,
                -0.8814305182384092,
                -3.042057826142803
            ]
        },
        {
            "positions": [
                -0.11845481979669106,
                -2.215351370462297,
                -1.4064609848365799,
                -2.7446640424287345,
                -0.7003131481096332,
                -3.030562803595524
            ]
        },
        {
            "positions": [
                -0.1351183749478728,
                -2.233063674085923,
                -1.3222427092683915,
                -2.8240403702831216,
                -0.5191957779808574,
                -3.019067781048245
            ]
        },
        {
            "positions": [
                -0.15178193009905452,
                -2.250775977709549,
                -1.238024433700203,
                -2.9034166981375082,
                -0.3380784078520813,
                -3.0075727585009657
            ]
        },
        {
            "positions": [
                -0.16844548525023628,
                -2.268488281333175,
                -1.153806158132015,
                -2.982793025991895,
                -0.1569610377233052,
                -2.9960777359536865
            ]
        }
    ]
}