{
    "goal": {
        "global_pose": {
            "orientation": {
                "w": 0.7031023480610252,
                "x": -0.7110244013736278,
                "y": 0.0077485991402295624,
                "z": 0.005598929693374583
            },
            "position": {
                "x": -0.8841497679147869,
                "y": 0.44412534475326537,
                "z": 0.3711530566215515
            }
        },
        "name": "move_to_auspresseinheit_D"
    },
    "id": "LazyPRMstar_move_to_auspresseinheit_D_86",
    "joint_names": [
        "shoulder_pan_joint",
        "shoulder_lift_joint",
        "elbow_joint",
        "wrist_1_joint",
        "wrist_2_joint",
        "wrist_3_joint"
    ],
    "metrics": {
        "cart_traj_len": 0.3446789940643794,
        "distance_elbow_joint": 0.6638884608639659,
        "distance_shoulder_lift_joint": 0.13459222202739562,
        "distance_shoulder_pan_joint": 0.13348628656466693,
        "distance_wrist_1_joint": 0.61534846481096,
        "distance_wrist_2_joint": 1.4385015152401452,
        "distance_wrist_3_joint": 0.07838969971948417,
        "smoothness": 0.0,
        "time": 5.000313672000001,
        "traj_len": 1.7504875461501055,
        "weighted_distance": 2.296701118717168
    },
    "planner": "LazyPRMstar",
    "start": {
        "state": {
            "elbow_joint": -1.8275523626775212,
            "shoulder_lift_joint": -2.126789852344167,
            "shoulder_pan_joint": -0.03513704404078235,
            "wrist_1_joint": -2.347782403156801,
            "wrist_2_joint": -1.6058999987535132,
            "wrist_3_joint": -3.0880379163319196
        }
    },
    "waypoints": [
        {
            "positions": [
                -0.03513704404078235,
                -2.126789852344167,
                -1.8275523626775212,
                -2.347782403156801,
                -1.6058999987535132,
                -3.0880379163319196
            ]
        },
        {
            "positions": [
                -0.051822829861365716,
                -2.1436138800975915,
                -1.7445663050695255,
                -2.424700961258171,
                -1.4260873093484951,
                -3.078239203866984
            ]
        },
        {
            "positions": [
                -0.06850861568194908,
                -2.1604379078510156,
                -1.6615802474615298,
                -2.501619519359541,
                -1.2462746199434769,
                -3.0684404914020487
            ]
        },
        {
            "positions": [
                -0.08519440150253245,
                -2.1772619356044403,
                -1.578594189853534,
                -2.578538077460911,
                -1.0664619305384586,
                -3.058641778937113
            ]
        },
        {
            "positions": [
                -0.10188018732311582,
                -2.194085963357865,
                -1.4956081322455383,
                -2.655456635562281,
                -0.8866492411334406,
                -3.0488430664721777
            ]
        },
        {
            "positions": [
                -0.11856597314369918,
                -2.210909991111289,
                -1.4126220746375426,
                -2.7323751936636507,
                -0.7068365517284224,
                -3.039044354007242
            ]
        },
        {
            "positions": [
                -0.13525175896428254,
                -2.2277340188647137,
                -1.3296360170295467,
                -2.8092937517650207,
                -0.5270238623234043,
                -3.0292456415423064
            ]
        },
        {
            "positions": [
                -0.15193754478486593,
                -2.244558046618138,
                -1.246649959421551,
                -2.8862123098663908,
                -0.347211172918386,
                -3.019446929077371
            ]
        },
        {
            "positions": [
                -0.1686233306054493,
                -2.2613820743715625,
                -1.1636639018135553,
                -2.963130867967761,
                -0.16739848351336797,
                -3.0096482166124354
            ]
        }
    ]
}