{
    "goal": {
        "global_pose": {
            "orientation": {
                "w": 0.7031023502349854,
                "x": -0.7110244035720825,
                "y": 0.007748599164187908,
                "z": 0.005598929710686207
            },
            "position": {
                "x": 0.11585023208521307,
                "y": 0.44412534475326537,
                "z": 0.3711530566215515
            }
        },
        "name": "move_to_auspresseinheit_A"
    },
    "id": "LazyPRMstar_move_to_auspresseinheit_A_79",
    "joint_names": [
        "shoulder_pan_joint",
        "shoulder_lift_joint",
        "elbow_joint",
        "wrist_1_joint",
        "wrist_2_joint",
        "wrist_3_joint"
    ],
    "metrics": {
        "cart_traj_len": 0.7932817776413593,
        "distance_elbow_joint": 0.23075751995568705,
        "distance_shoulder_lift_joint": 0.5370130223263765,
        "distance_shoulder_pan_joint": 1.0460642345473197,
        "distance_wrist_1_joint": 0.5485097637960181,
        "distance_wrist_2_joint": 0.5212110947023887,
        "distance_wrist_3_joint": 0.27082396343611315,
        "smoothness": 0.42251325944070206,
        "time": 5.014919463,
        "traj_len": 1.7760573185468713,
        "weighted_distance": 2.183059409208677
    },
    "planner": "LazyPRMstar",
    "start": {
        "state": {
            "elbow_joint": 2.4225746658250005,
            "shoulder_lift_joint": -1.3736534386056498,
            "shoulder_pan_joint": -0.3378633547517467,
            "wrist_1_joint": -1.0288598680537169,
            "wrist_2_joint": 1.233022673432363,
            "wrist_3_joint": -3.0940220416140027
        }
    },
    "waypoints": [
        {
            "positions": [
                -0.3378633547517467,
                -1.3736534386056498,
                2.4225746658250005,
                -1.0288598680537169,
                1.233022673432363,
                -3.0940220416140027
            ]
        },
        {
            "positions": [
                -0.2925729635138876,
                -1.4802186928052676,
                2.3903716603320664,
                -0.9316154580535747,
                1.2033063618106237,
                -3.130678943926093
            ]
        },
        {
            "positions": [
                -0.2472825722760285,
                -1.5867839470048857,
                2.3581686548391323,
                -0.8343710480534324,
                1.173590050188884,
                -3.167335846238183
            ]
        },
        {
            "positions": [
                -0.20199218103816938,
                -1.6933492012045037,
                2.3259656493461986,
                -0.7371266380532902,
                1.1438737385671447,
                -3.203992748550273
            ]
        },
        {
            "positions": [
                -0.15670178980031027,
                -1.7999144554041215,
                2.2937626438532646,
                -0.639882228053148,
                1.1141574269454053,
                -3.240649650862363
            ]
        },
        {
            "positions": [
                0.016278744118866345,
                -1.8220648565097024,
                2.3141517434500547,
                -0.6079758032940581,
                1.0336882573023192,
                -3.2158103800248123
            ]
        },
        {
            "positions": [
                0.18925927803804296,
                -1.8442152576152835,
                2.334540843046845,
                -0.5760693785349683,
                0.9532190876592329,
                -3.1909711091872617
            ]
        },
        {
            "positions": [
                0.36223981195721955,
                -1.8663656587208644,
                2.3549299426436354,
                -0.5441629537758784,
                0.8727499180161468,
                -3.1661318383497115
            ]
        },
        {
            "positions": [
                0.5352203458763962,
                -1.8885160598264454,
                2.3753190422404256,
                -0.5122565290167886,
                0.7922807483730605,
                -3.141292567512161
            ]
        },
        {
            "positions": [
                0.7082008797955728,
                -1.9106664609320263,
                2.3957081418372157,
                -0.48035010425769875,
                0.7118115787299744,
                -3.11645329667461
            ]
        }
    ]
}