{
    "goal": {
        "global_pose": {
            "orientation": {
                "w": 0.7047431468963623,
                "x": -0.7094548344612122,
                "y": 0.0024358443915843964,
                "z": -0.0022348060738295317
            },
            "position": {
                "x": 0.6094750761985779,
                "y": 0.3671506643295288,
                "z": 0.19426114857196808
            }
        },
        "name": "move_to_magneteinheit_A"
    },
    "id": "LazyPRMstar_move_to_magneteinheit_A_88",
    "joint_names": [
        "shoulder_pan_joint",
        "shoulder_lift_joint",
        "elbow_joint",
        "wrist_1_joint",
        "wrist_2_joint",
        "wrist_3_joint"
    ],
    "metrics": {
        "cart_traj_len": 4.532474991948108,
        "distance_elbow_joint": 7.709713210130369,
        "distance_shoulder_lift_joint": 1.0620423953532854,
        "distance_shoulder_pan_joint": 4.839738514245264,
        "distance_wrist_1_joint": 8.801069801638072,
        "distance_wrist_2_joint": 7.0620418006978944,
        "distance_wrist_3_joint": 6.6194429749581865,
        "smoothness": 0.499111069825675,
        "time": 5.044233509000001,
        "traj_len": 6.007832279368581,
        "weighted_distance": 8.0744068667163
    },
    "planner": "LazyPRMstar",
    "start": {
        "state": {
            "elbow_joint": -1.9196185241190666,
            "shoulder_lift_joint": -1.2443396400964142,
            "shoulder_pan_joint": 2.6996025414629847,
            "wrist_1_joint": -1.5485510000780065,
            "wrist_2_joint": -1.5709468930060704,
            "wrist_3_joint": 0.4420197071253992
        }
    },
    "waypoints": [
        {
            "positions": [
                2.6996025414629847,
                -1.2443396400964142,
                -1.9196185241190666,
                -1.5485510000780065,
                -1.5709468930060704,
                0.4420197071253992
            ]
        },
        {
            "positions": [
                2.5962585329032417,
                -1.2582852186485494,
                -1.8238711908308414,
                -1.5342499784840007,
                -1.5083042217835514,
                0.34474091627551806
            ]
        },
        {
            "positions": [
                2.4929145243434987,
                -1.2722307972006845,
                -1.728123857542616,
                -1.5199489568899947,
                -1.4456615505610322,
                0.2474621254256369
            ]
        },
        {
            "positions": [
                2.3895705157837557,
                -1.28617637575282,
                -1.632376524254391,
                -1.5056479352959888,
                -1.383018879338513,
                0.15018333457575578
            ]
        },
        {
            "positions": [
                2.2862265072240127,
                -1.3001219543049551,
                -1.5366291909661658,
                -1.4913469137019828,
                -1.320376208115994,
                0.05290454372587461
            ]
        },
        {
            "positions": [
                2.182882498664269,
                -1.3140675328570903,
                -1.4408818576779405,
                -1.477045892107977,
                -1.257733536893475,
                -0.044374247124006505
            ]
        },
        {
            "positions": [
                2.079538490104526,
                -1.3280131114092255,
                -1.3451345243897155,
                -1.462744870513971,
                -1.1950908656709558,
                -0.14165303797388762
            ]
        },
        {
            "positions": [
                1.9761944815447834,
                -1.3419586899613607,
                -1.2493871911014902,
                -1.4484438489199651,
                -1.1324481944484366,
                -0.23893182882376884
            ]
        },
        {
            "positions": [
                1.8728504729850401,
                -1.355904268513496,
                -1.153639857813265,
                -1.4341428273259593,
                -1.0698055232259176,
                -0.33621061967364996
            ]
        },
        {
            "positions": [
                1.7695064644252971,
                -1.3698498470656313,
                -1.0578925245250397,
                -1.4198418057319533,
                -1.0071628520033986,
                -0.43348941052353107
            ]
        },
        {
            "positions": [
                1.6661624558655541,
                -1.3837954256177665,
                -0.9621451912368144,
                -1.4055407841379475,
                -0.9445201807808794,
                -0.5307682013734122
            ]
        },
        {
            "positions": [
                1.562818447305811,
                -1.3977410041699017,
                -0.8663978579485891,
                -1.3912397625439414,
                -0.8818775095583602,
                -0.6280469922232935
            ]
        },
        {
            "positions": [
                1.459474438746068,
                -1.4116865827220368,
                -0.7706505246603641,
                -1.3769387409499356,
                -0.8192348383358412,
                -0.7253257830731744
            ]
        },
        {
            "positions": [
                1.3561304301863248,
                -1.425632161274172,
                -0.6749031913721386,
                -1.3626377193559296,
                -0.756592167113322,
                -0.8226045739230557
            ]
        },
        {
            "positions": [
                1.252786421626582,
                -1.4395777398263074,
                -0.5791558580839136,
                -1.3483366977619238,
                -0.693949495890803,
                -0.9198833647729369
            ]
        },
        {
            "positions": [
                1.1494424130668388,
                -1.4535233183784426,
                -0.4834085247956883,
                -1.3340356761679177,
                -0.6313068246682838,
                -1.017162155622818
            ]
        },
        {
            "positions": [
                1.0460984045070958,
                -1.4674688969305778,
                -0.38766119150746303,
                -1.319734654573912,
                -0.5686641534457648,
                -1.114440946472699
            ]
        },
        {
            "positions": [
                0.9427543959473528,
                -1.481414475482713,
                -0.29191385821923777,
                -1.3054336329799061,
                -0.5060214822232456,
                -1.2117197373225803
            ]
        },
        {
            "positions": [
                0.8394103873876098,
                -1.4953600540348482,
                -0.19616652493101272,
                -1.2911326113859,
                -0.4433788110007266,
                -1.3089985281724612
            ]
        },
        {
            "positions": [
                0.7360663788278665,
                -1.5093056325869836,
                -0.10041919164278745,
                -1.2768315897918943,
                -0.3807361397782074,
                -1.4062773190223425
            ]
        },
        {
            "positions": [
                0.6327223702681235,
                -1.5232512111391188,
                -0.004671858354562186,
                -1.2625305681978882,
                -0.31809346855568843,
                -1.5035561098722234
            ]
        },
        {
            "positions": [
                0.5293783617083803,
                -1.537196789691254,
                0.09107547493366316,
                -1.2482295466038824,
                -0.2554507973331692,
                -1.6008349007221048
            ]
        },
        {
            "positions": [
                0.4827641868586678,
                -1.5194366927161436,
                0.03306445373151945,
                -1.1114541537029536,
                -0.33659077839771895,
                -1.556515947279466
            ]
        },
        {
            "positions": [
                0.4361500120089553,
                -1.5016765957410334,
                -0.024946567470624265,
                -0.9746787608020246,
                -0.4177307594622687,
                -1.5121969938368274
            ]
        },
        {
            "positions": [
                0.3895358371592429,
                -1.483916498765923,
                -0.08295758867276798,
                -0.8379033679010959,
                -0.49887074052681835,
                -1.4678780403941887
            ]
        },
        {
            "positions": [
                0.34292166230953036,
                -1.4661564017908129,
                -0.1409686098749117,
                -0.701127975000167,
                -0.5800107215913681,
                -1.42355908695155
            ]
        },
        {
            "positions": [
                0.29630748745981794,
                -1.4483963048157025,
                -0.19897963107705538,
                -0.5643525820992381,
                -0.6611507026559178,
                -1.3792401335089115
            ]
        },
        {
            "positions": [
                0.24969331261010547,
                -1.4306362078405923,
                -0.25699065227919915,
                -0.4275771891983092,
                -0.7422906837204675,
                -1.3349211800662728
            ]
        },
        {
            "positions": [
                0.203079137760393,
                -1.412876110865482,
                -0.3150016734813428,
                -0.29080179629738045,
                -0.8234306647850171,
                -1.290602226623634
            ]
        },
        {
            "positions": [
                0.15646496291068052,
                -1.3951160138903718,
                -0.3730126946834865,
                -0.15402640339645157,
                -0.9045706458495669,
                -1.2462832731809954
            ]
        },
        {
            "positions": [
                0.1098507880609681,
                -1.3773559169152614,
                -0.43102371588563015,
                -0.0172510104955228,
                -0.9857106269141165,
                -1.2019643197383567
            ]
        },
        {
            "positions": [
                0.06323661321125557,
                -1.359595819940151,
                -0.4890347370877739,
                0.1195243824054062,
                -1.0668506079786662,
                -1.157645366295718
            ]
        },
        {
            "positions": [
                0.0166224383615432,
                -1.3418357229650408,
                -0.5470457582899176,
                0.25629977530633496,
                -1.147990589043216,
                -1.1133264128530795
            ]
        },
        {
            "positions": [
                -0.02999173648816933,
                -1.3240756259899304,
                -0.6050567794920614,
                0.39307516820726396,
                -1.2291305701077657,
                -1.0690074594104408
            ]
        },
        {
            "positions": [
                -0.07660591133788175,
                -1.3063155290148203,
                -0.663067800694205,
                0.5298505611081925,
                -1.3102705511723154,
                -1.0246885059678021
            ]
        },
        {
            "positions": [
                -0.12322008618759428,
                -1.28855543203971,
                -0.7210788218963488,
                0.6666259540091215,
                -1.391410532236865,
                -0.9803695525251633
            ]
        },
        {
            "positions": [
                -0.1698342610373067,
                -1.2707953350645997,
                -0.7790898430984925,
                0.8034013469100505,
                -1.4725505133014147,
                -0.9360505990825247
            ]
        },
        {
            "positions": [
                -0.21644843588701923,
                -1.2530352380894894,
                -0.8371008643006362,
                0.9401767398109793,
                -1.5536904943659646,
                -0.891731645639886
            ]
        },
        {
            "positions": [
                -0.26306261073673165,
                -1.2352751411143792,
                -0.8951118855027799,
                1.076952132711908,
                -1.634830475430514,
                -0.8474126921972474
            ]
        },
        {
            "positions": [
                -0.30967678558644407,
                -1.2175150441392688,
                -0.9531229067049235,
                1.2137275256128368,
                -1.7159704564950637,
                -0.8030937387546088
            ]
        },
        {
            "positions": [
                -0.3562909604361567,
                -1.1997549471641586,
                -1.0111339279070675,
                1.350502918513766,
                -1.7971104375596136,
                -0.75877478531197
            ]
        },
        {
            "positions": [
                -0.40290513528586913,
                -1.1819948501890483,
                -1.069144949109211,
                1.4872783114146948,
                -1.8782504186241633,
                -0.7144558318693314
            ]
        },
        {
            "positions": [
                -0.44951931013558155,
                -1.1642347532139379,
                -1.127155970311355,
                1.6240537043156236,
                -1.959390399688713,
                -0.6701368784266927
            ]
        },
        {
            "positions": [
                -0.49613348498529386,
                -1.1464746562388277,
                -1.1851669915134986,
                1.7608290972165523,
                -2.0405303807532627,
                -0.6258179249840541
            ]
        },
        {
            "positions": [
                -0.5427476598350065,
                -1.1287145592637173,
                -1.2431780127156424,
                1.8976044901174816,
                -2.1216703618178125,
                -0.5814989715414152
            ]
        },
        {
            "positions": [
                -0.5893618346847189,
                -1.1109544622886072,
                -1.301189033917786,
                2.0343798830184103,
                -2.202810342882362,
                -0.5371800180987767
            ]
        },
        {
            "positions": [
                -0.6359760095344313,
                -1.0931943653134968,
                -1.3592000551199297,
                2.1711552759193387,
                -2.283950323946912,
                -0.492861064656138
            ]
        },
        {
            "positions": [
                -0.6825901843841438,
                -1.0754342683383866,
                -1.4172110763220733,
                2.3079306688202674,
                -2.365090305011462,
                -0.4485421112134993
            ]
        },
        {
            "positions": [
                -0.7292043592338564,
                -1.0576741713632762,
                -1.4752220975242172,
                2.4447060617211966,
                -2.4462302860760117,
                -0.4042231577708606
            ]
        },
        {
            "positions": [
                -0.7758185340835688,
                -1.039914074388166,
                -1.5332331187263608,
                2.5814814546221254,
                -2.5273702671405607,
                -0.3599042043282219
            ]
        },
        {
            "positions": [
                -0.8224327089332812,
                -1.0221539774130557,
                -1.5912441399285047,
                2.718256847523054,
                -2.6085102482051106,
                -0.3155852508855834
            ]
        },
        {
            "positions": [
                -0.8690468837829937,
                -1.0043938804379455,
                -1.6492551611306483,
                2.8550322404239834,
                -2.6896502292696605,
                -0.2712662974429447
            ]
        },
        {
            "positions": [
                -0.9156610586327063,
                -0.9866337834628351,
                -1.7072661823327921,
                2.991807633324912,
                -2.7707902103342104,
                -0.2269473440003058
            ]
        },
        {
            "positions": [
                -0.9622752334824187,
                -0.9688736864877249,
                -1.7652772035349358,
                3.128583026225841,
                -2.8519301913987603,
                -0.18262839055766733
            ]
        },
        {
            "positions": [
                -1.0088894083321311,
                -0.9511135895126146,
                -1.8232882247370794,
                3.2653584191267693,
                -2.9330701724633097,
                -0.13830943711502863
            ]
        },
        {
            "positions": [
                -0.9798830861667427,
                -0.9558085137582507,
                -1.726245775726646,
                3.163123537525916,
                -2.854379753748057,
                -0.2181572038715314
            ]
        },
        {
            "positions": [
                -0.9508767640013542,
                -0.9605034380038867,
                -1.6292033267162127,
                3.060888655925062,
                -2.7756893350328045,
                -0.29800497062803416
            ]
        },
        {
            "positions": [
                -0.9218704418359658,
                -0.9651983622495228,
                -1.5321608777057794,
                2.9586537743242087,
                -2.696998916317552,
                -0.37785273738453695
            ]
        },
        {
            "positions": [
                -0.8928641196705773,
                -0.9698932864951588,
                -1.4351184286953462,
                2.856418892723355,
                -2.6183084976022992,
                -0.4577005041410397
            ]
        },
        {
            "positions": [
                -0.863857797505189,
                -0.9745882107407949,
                -1.3380759796849129,
                2.7541840111225016,
                -2.5396180788870466,
                -0.5375482708975424
            ]
        },
        {
            "positions": [
                -0.8348514753398004,
                -0.9792831349864309,
                -1.2410335306744795,
                2.6519491295216477,
                -2.460927660171794,
                -0.6173960376540453
            ]
        },
        {
            "positions": [
                -0.8058451531744121,
                -0.983978059232067,
                -1.1439910816640464,
                2.5497142479207944,
                -2.3822372414565414,
                -0.697243804410548
            ]
        },
        {
            "positions": [
                -0.7768388310090236,
                -0.988672983477703,
                -1.046948632653613,
                2.447479366319941,
                -2.3035468227412887,
                -0.7770915711670507
            ]
        },
        {
            "positions": [
                -0.7478325088436352,
                -0.9933679077233392,
                -0.9499061836431796,
                2.345244484719087,
                -2.224856404026036,
                -0.8569393379235536
            ]
        },
        {
            "positions": [
                -0.7188261866782468,
                -0.9980628319689752,
                -0.8528637346327465,
                2.243009603118234,
                -2.1461659853107835,
                -0.9367871046800562
            ]
        },
        {
            "positions": [
                -0.6898198645128583,
                -1.0027577562146113,
                -0.755821285622313,
                2.1407747215173805,
                -2.067475566595531,
                -1.0166348714365592
            ]
        },
        {
            "positions": [
                -0.6608135423474698,
                -1.0074526804602473,
                -0.6587788366118796,
                2.0385398399165267,
                -1.988785147880278,
                -1.096482638193062
            ]
        },
        {
            "positions": [
                -0.6318072201820815,
                -1.0121476047058833,
                -0.5617363876014465,
                1.9363049583156733,
                -1.9100947291650257,
                -1.1763304049495646
            ]
        },
        {
            "positions": [
                -0.602800898016693,
                -1.0168425289515195,
                -0.46469393859101316,
                1.8340700767148195,
                -1.8314043104497728,
                -1.2561781717060674
            ]
        },
        {
            "positions": [
                -0.5737945758513046,
                -1.0215374531971555,
                -0.3676514895805798,
                1.7318351951139659,
                -1.7527138917345202,
                -1.3360259384625703
            ]
        },
        {
            "positions": [
                -0.5447882536859161,
                -1.0262323774427915,
                -0.2706090405701467,
                1.6296003135131125,
                -1.6740234730192676,
                -1.4158737052190729
            ]
        },
        {
            "positions": [
                -0.5157819315205276,
                -1.0309273016884275,
                -0.1735665915597131,
                1.527365431912259,
                -1.595333054304015,
                -1.4957214719755758
            ]
        },
        {
            "positions": [
                -0.4867756093551392,
                -1.0356222259340637,
                -0.07652414254927975,
                1.4251305503114053,
                -1.5166426355887623,
                -1.5755692387320785
            ]
        },
        {
            "positions": [
                -0.45776928718975074,
                -1.0403171501796997,
                0.02051830646115338,
                1.322895668710552,
                -1.4379522168735097,
                -1.6554170054885813
            ]
        },
        {
            "positions": [
                -0.4287629650243624,
                -1.0450120744253357,
                0.11756075547158651,
                1.2206607871096984,
                -1.3592617981582573,
                -1.7352647722450838
            ]
        },
        {
            "positions": [
                -0.39975664285897383,
                -1.0497069986709717,
                0.21460320448202008,
                1.118425905508845,
                -1.2805713794430045,
                -1.8151125390015868
            ]
        },
        {
            "positions": [
                -0.3707503206935854,
                -1.054401922916608,
                0.31164565349245343,
                1.0161910239079912,
                -1.2018809607277519,
                -1.8949603057580895
            ]
        },
        {
            "positions": [
                -0.3417439985281969,
                -1.059096847162244,
                0.4086881025028868,
                0.9139561423071374,
                -1.1231905420124992,
                -1.9748080725145924
            ]
        },
        {
            "positions": [
                -0.31273767636280847,
                -1.06379177140788,
                0.5057305515133201,
                0.811721260706284,
                -1.0445001232972464,
                -2.054655839271095
            ]
        },
        {
            "positions": [
                -0.28373135419742,
                -1.068486695653516,
                0.6027730005237535,
                0.7094863791054302,
                -0.9658097045819938,
                -2.1345036060275984
            ]
        },
        {
            "positions": [
                -0.2547250320320317,
                -1.0731816198991522,
                0.6998154495341864,
                0.6072514975045773,
                -0.8871192858667416,
                -2.2143513727841007
            ]
        },
        {
            "positions": [
                -0.22571870986664322,
                -1.0778765441447882,
                0.7968578985446197,
                0.5050166159037235,
                -0.8084288671514885,
                -2.2941991395406034
            ]
        },
        {
            "positions": [
                -0.19671238770125477,
                -1.0825714683904242,
                0.8939003475550531,
                0.4027817343028697,
                -0.7297384484362359,
                -2.374046906297106
            ]
        },
        {
            "positions": [
                -0.1677060655358663,
                -1.0872663926360602,
                0.9909427965654865,
                0.3005468527020163,
                -0.6510480297209833,
                -2.453894673053609
            ]
        },
        {
            "positions": [
                -0.13869974337047786,
                -1.0919613168816964,
                1.0879852455759198,
                0.1983119711011625,
                -0.5723576110057307,
                -2.533742439810112
            ]
        },
        {
            "positions": [
                -0.10969342120508951,
                -1.0966562411273324,
                1.1850276945863527,
                0.09607708950030958,
                -0.4936671922904785,
                -2.6135902065666143
            ]
        },
        {
            "positions": [
                -0.08068709903970106,
                -1.1013511653729684,
                1.282070143596786,
                -0.006157792100544235,
                -0.41497677357522544,
                -2.693437973323117
            ]
        },
        {
            "positions": [
                -0.051680776874312495,
                -1.1060460896186046,
                1.3791125926072199,
                -0.1083926737013976,
                -0.3362863548599728,
                -2.77328574007962
            ]
        },
        {
            "positions": [
                -0.02267445470892404,
                -1.1107410138642406,
                1.4761550416176532,
                -0.2106275553022514,
                -0.2575959361447202,
                -2.853133506836123
            ]
        },
        {
            "positions": [
                0.006331867456464302,
                -1.1154359381098766,
                1.5731974906280866,
                -0.3128624369031052,
                -0.1789055174294676,
                -2.9329812735926257
            ]
        },
        {
            "positions": [
                0.035338189621852756,
                -1.1201308623555126,
                1.67023993963852,
                -0.4150973185039586,
                -0.10021509871421497,
                -3.0128290403491285
            ]
        },
        {
            "positions": [
                0.06434451178724121,
                -1.1248257866011486,
                1.7672823886489528,
                -0.517332200104812,
                -0.02152467999896235,
                -3.092676807105631
            ]
        },
        {
            "positions": [
                0.09335083395262966,
                -1.1295207108467848,
                1.8643248376593862,
                -0.6195670817056653,
                0.05716573871629027,
                -3.172524573862134
            ]
        },
        {
            "positions": [
                0.12235715611801808,
                -1.1342156350924208,
                1.9613672866698197,
                -0.7218019633065191,
                0.13585615743154303,
                -3.2523723406186367
            ]
        }
    ]
}