{
    "goal": {
        "global_pose": {
            "orientation": {
                "w": 0.7031023502349854,
                "x": -0.7110244035720825,
                "y": 0.007748599164187908,
                "z": 0.005598929710686207
            },
            "position": {
                "x": 0.11585023208521307,
                "y": 0.44412534475326537,
                "z": 0.3711530566215515
            }
        },
        "name": "move_to_auspresseinheit_A"
    },
    "id": "LazyPRM_move_to_auspresseinheit_A_62",
    "joint_names": [
        "shoulder_pan_joint",
        "shoulder_lift_joint",
        "elbow_joint",
        "wrist_1_joint",
        "wrist_2_joint",
        "wrist_3_joint"
    ],
    "metrics": {
        "cart_traj_len": 0.8286965142402967,
        "distance_elbow_joint": 0.24126645116858114,
        "distance_shoulder_lift_joint": 0.8972389513724544,
        "distance_shoulder_pan_joint": 1.042729869968079,
        "distance_wrist_1_joint": 1.1086107898022424,
        "distance_wrist_2_joint": 0.5888386153785765,
        "distance_wrist_3_joint": 0.04116372131428925,
        "smoothness": 1.6787355487856643,
        "time": 0.21228654,
        "traj_len": 1.9798607019192596,
        "weighted_distance": 2.387388792554246
    },
    "planner": "LazyPRM",
    "start": {
        "state": {
            "elbow_joint": 2.4225746658250005,
            "shoulder_lift_joint": -1.3736534386056498,
            "shoulder_pan_joint": -0.3378633547517467,
            "wrist_1_joint": -1.0288598680537169,
            "wrist_2_joint": 1.233022673432363,
            "wrist_3_joint": -3.0940220416140027
        }
    },
    "waypoints": [
        {
            "positions": [
                -0.3378633547517467,
                -1.3736534386056498,
                2.4225746658250005,
                -1.0288598680537169,
                1.233022673432363,
                -3.0940220416140027
            ]
        },
        {
            "positions": [
                -0.23287914211341781,
                -1.453119864587073,
                2.407371070408977,
                -0.9355602823002006,
                1.1708625235383614,
                -3.0943241631902727
            ]
        },
        {
            "positions": [
                -0.12789492947508888,
                -1.5325862905684964,
                2.392167474992953,
                -0.8422606965466843,
                1.10870237364436,
                -3.0946262847665427
            ]
        },
        {
            "positions": [
                -0.022910716836759937,
                -1.6120527165499197,
                2.3769638795769295,
                -0.7489611107931681,
                1.0465422237503583,
                -3.0949284063428126
            ]
        },
        {
            "positions": [
                0.08207349580156897,
                -1.691519142531343,
                2.3617602841609058,
                -0.6556615250396518,
                0.9843820738563567,
                -3.0952305279190826
            ]
        },
        {
            "positions": [
                0.18705770843989794,
                -1.7709855685127662,
                2.346556688744882,
                -0.5623619392861355,
                0.922221923962355,
                -3.095532649495353
            ]
        },
        {
            "positions": [
                0.29204192107822685,
                -1.8504519944941895,
                2.3313530933288584,
                -0.46906235353261927,
                0.8600617740683535,
                -3.095834771071623
            ]
        },
        {
            "positions": [
                0.3970261337165559,
                -1.9299184204756128,
                2.3161494979128348,
                -0.375762767779103,
                0.7979016241743518,
                -3.096136892647893
            ]
        },
        {
            "positions": [
                0.5020103463548846,
                -2.009384846457036,
                2.300945902496811,
                -0.28246318202558673,
                0.7357414742803503,
                -3.096439014224163
            ]
        },
        {
            "positions": [
                0.6069945589932138,
                -2.0888512724384594,
                2.2857423070807874,
                -0.18916359627207047,
                0.6735813243863487,
                -3.096741135800433
            ]
        },
        {
            "positions": [
                0.655930537104773,
                -1.997830713668637,
                2.3379593532929714,
                -0.3236208552823684,
                0.6882799575526297,
                -3.1159634493643624
            ]
        },
        {
            "positions": [
                0.7048665152163324,
                -1.9068101548988146,
                2.3901763995051555,
                -0.45807811429266637,
                0.7029785907189108,
                -3.135185762928292
            ]
        }
    ]
}