{
    "goal": {
        "global_pose": {
            "orientation": {
                "w": 0.005598929693374612,
                "x": 0.007748599140229565,
                "y": 0.7110244013736278,
                "z": -0.7031023480610252
            },
            "position": {
                "x": 0.1141497679147869,
                "y": -0.7141253447532654,
                "z": 0.3711530566215515
            }
        },
        "name": "move_to_auspresseinheit_B"
    },
    "id": "LazyPRM_move_to_auspresseinheit_B_64",
    "joint_names": [
        "shoulder_pan_joint",
        "shoulder_lift_joint",
        "elbow_joint",
        "wrist_1_joint",
        "wrist_2_joint",
        "wrist_3_joint"
    ],
    "metrics": {
        "cart_traj_len": 0.5648224058116162,
        "distance_elbow_joint": 0.06304107635665757,
        "distance_shoulder_lift_joint": 0.2931964500207409,
        "distance_shoulder_pan_joint": 0.5743221790379254,
        "distance_wrist_1_joint": 0.32111534571658173,
        "distance_wrist_2_joint": 1.0060721687264262,
        "distance_wrist_3_joint": 0.005297631999714003,
        "smoothness": 0.0,
        "time": 0.011637996000000001,
        "traj_len": 1.5043419996324126,
        "weighted_distance": 1.8975846833015073
    },
    "planner": "LazyPRM",
    "start": {
        "state": {
            "elbow_joint": 2.0193083361928714,
            "shoulder_lift_joint": -1.1220246554650708,
            "shoulder_pan_joint": -1.0952077554168747,
            "wrist_1_joint": -0.8559753972642168,
            "wrist_2_joint": 0.4759566250798843,
            "wrist_3_joint": -3.1240929996934557
        }
    },
    "waypoints": [
        {
            "positions": [
                -1.0952077554168747,
                -1.1220246554650708,
                2.0193083361928714,
                -0.8559753972642168,
                0.4759566250798843,
                -3.1240929996934557
            ]
        },
        {
            "positions": [
                -1.1909281185898621,
                -1.1708907304685277,
                2.0088014901334286,
                -0.8024561729781199,
                0.643635319867622,
                -3.1232100610268367
            ]
        },
        {
            "positions": [
                -1.2866484817628498,
                -1.2197568054719845,
                1.9982946440739855,
                -0.7489369486920229,
                0.8113140146553597,
                -3.122327122360218
            ]
        },
        {
            "positions": [
                -1.3823688449358373,
                -1.2686228804754411,
                1.9877877980145426,
                -0.6954177244059259,
                0.9789927094430975,
                -3.1214441836935984
            ]
        },
        {
            "positions": [
                -1.4780892081088248,
                -1.317488955478898,
                1.9772809519550998,
                -0.641898500119829,
                1.146671404230835,
                -3.1205612450269795
            ]
        },
        {
            "positions": [
                -1.5738095712818125,
                -1.3663550304823548,
                1.9667741058956567,
                -0.5883792758337321,
                1.3143500990185728,
                -3.1196783063603606
            ]
        },
        {
            "positions": [
                -1.6695299344548,
                -1.4152211054858117,
                1.9562672598362139,
                -0.534860051547635,
                1.4820287938063106,
                -3.1187953676937417
            ]
        }
    ]
}