{
    "goal": {
        "global_pose": {
            "orientation": {
                "w": -0.00223480608172531,
                "x": 0.0024358444001904467,
                "y": 0.7094548369677653,
                "z": -0.704743149386269
            },
            "position": {
                "x": -0.37947507619857795,
                "y": -0.6371506643295288,
                "z": 0.19426114857196808
            }
        },
        "name": "move_to_magneteinheit_C"
    },
    "id": "LazyPRMstar_move_to_magneteinheit_C_42",
    "joint_names": [
        "shoulder_pan_joint",
        "shoulder_lift_joint",
        "elbow_joint",
        "wrist_1_joint",
        "wrist_2_joint",
        "wrist_3_joint"
    ],
    "metrics": {
        "cart_traj_len": 0.7194326753975022,
        "distance_elbow_joint": 0.23793610258103337,
        "distance_shoulder_lift_joint": 0.2526761393891781,
        "distance_shoulder_pan_joint": 1.0083835711255789,
        "distance_wrist_1_joint": 2.5950927685657263,
        "distance_wrist_2_joint": 1.3684487287874436,
        "distance_wrist_3_joint": 0.04481569838809696,
        "smoothness": 1.2320136279902254,
        "time": 5.0100870230000005,
        "traj_len": 2.346775023055482,
        "weighted_distance": 3.0920100101659473
    },
    "planner": "LazyPRMstar",
    "start": {
        "state": {
            "elbow_joint": 1.9565354010623817,
            "shoulder_lift_joint": -1.4165861575791021,
            "shoulder_pan_joint": -1.6717766225146293,
            "wrist_1_joint": -0.5286633292919765,
            "wrist_2_joint": 1.472756589071564,
            "wrist_3_joint": -3.1238370188695823
        }
    },
    "waypoints": [
        {
            "positions": [
                -1.6717766225146293,
                -1.4165861575791021,
                1.9565354010623817,
                -0.5286633292919765,
                1.472756589071564,
                -3.1238370188695823
            ]
        },
        {
            "positions": [
                -1.7723406368064107,
                -1.4051471521193837,
                1.946237845698064,
                -0.4007309510114798,
                1.3525579196798032,
                -3.124808681396869
            ]
        },
        {
            "positions": [
                -1.8729046510981922,
                -1.393708146659665,
                1.9359402903337464,
                -0.2727985727309831,
                1.2323592502880423,
                -3.1257803439241556
            ]
        },
        {
            "positions": [
                -1.9734686653899736,
                -1.3822691411999466,
                1.9256427349694287,
                -0.14486619445048649,
                1.1121605808962816,
                -3.1267520064514422
            ]
        },
        {
            "positions": [
                -2.074032679681755,
                -1.370830135740228,
                1.915345179605111,
                -0.01693381616998979,
                0.9919619115045206,
                -3.127723668978729
            ]
        },
        {
            "positions": [
                -2.1745966939735366,
                -1.3593911302805095,
                1.9050476242407937,
                0.11099856211050685,
                0.8717632421127598,
                -3.128695331506016
            ]
        },
        {
            "positions": [
                -2.275160708265318,
                -1.3479521248207909,
                1.894750068876476,
                0.2389309403910035,
                0.7515645727209991,
                -3.1296669940333026
            ]
        },
        {
            "positions": [
                -2.3757247225570994,
                -1.3365131193610724,
                1.8844525135121584,
                0.36686331867150024,
                0.6313659033292383,
                -3.1306386565605893
            ]
        },
        {
            "positions": [
                -2.476288736848881,
                -1.3250741139013538,
                1.8741549581478407,
                0.4947956969519969,
                0.5111672339374774,
                -3.131610319087876
            ]
        },
        {
            "positions": [
                -2.5768527511406623,
                -1.3136351084416353,
                1.863857402783523,
                0.6227280752324935,
                0.3909685645457166,
                -3.1325819816151625
            ]
        },
        {
            "positions": [
                -2.5596348440574044,
                -1.2886809267330168,
                1.8880670868338856,
                0.38211118122561744,
                0.43874534858931596,
                -3.1385937708889156
            ]
        },
        {
            "positions": [
                -2.542416936974147,
                -1.2637267450243983,
                1.912276770884248,
                0.14149428721874135,
                0.4865221326329153,
                -3.144605560162668
            ]
        },
        {
            "positions": [
                -2.5251990298908895,
                -1.2387725633157798,
                1.9364864549346104,
                -0.09912260678813478,
                0.5342989166765147,
                -3.1506173494364207
            ]
        },
        {
            "positions": [
                -2.5079811228076316,
                -1.213818381607161,
                1.9606961389849729,
                -0.3397395007950108,
                0.582075700720114,
                -3.1566291387101737
            ]
        },
        {
            "positions": [
                -2.4907632157243738,
                -1.1888641998985425,
                1.9849058230353354,
                -0.580356394801887,
                0.6298524847637135,
                -3.1626409279839267
            ]
        },
        {
            "positions": [
                -2.4735453086411163,
                -1.163910018189924,
                2.009115507085698,
                -0.820973288808763,
                0.6776292688073129,
                -3.1686527172576793
            ]
        }
    ]
}