{
    "goal": {
        "global_pose": {
            "orientation": {
                "w": -0.00223480608172531,
                "x": 0.0024358444001904467,
                "y": 0.7094548369677653,
                "z": -0.704743149386269
            },
            "position": {
                "x": -0.37947507619857795,
                "y": -0.6371506643295288,
                "z": 0.19426114857196808
            }
        },
        "name": "move_to_magneteinheit_C"
    },
    "id": "LazyPRM_move_to_magneteinheit_C_148",
    "joint_names": [
        "shoulder_pan_joint",
        "shoulder_lift_joint",
        "elbow_joint",
        "wrist_1_joint",
        "wrist_2_joint",
        "wrist_3_joint"
    ],
    "metrics": {
        "cart_traj_len": 0.6828716433788786,
        "distance_elbow_joint": 1.115879179530637,
        "distance_shoulder_lift_joint": 0.2873981864829551,
        "distance_shoulder_pan_joint": 0.8004211613992964,
        "distance_wrist_1_joint": 1.5856654625894708,
        "distance_wrist_2_joint": 0.7899267761029019,
        "distance_wrist_3_joint": 0.4358467058262816,
        "smoothness": 1.148455536676711,
        "time": 0.21292994299999998,
        "traj_len": 2.2394502610979203,
        "weighted_distance": 2.8744430977628483
    },
    "planner": "LazyPRM",
    "start": {
        "state": {
            "elbow_joint": 1.9565354010623817,
            "shoulder_lift_joint": -1.4165861575791021,
            "shoulder_pan_joint": -1.6717766225146293,
            "wrist_1_joint": -0.5286633292919765,
            "wrist_2_joint": 1.472756589071564,
            "wrist_3_joint": -3.1238370188695823
        }
    },
    "waypoints": [
        {
            "positions": [
                -1.6717766225146293,
                -1.4165861575791021,
                1.9565354010623817,
                -0.5286633292919765,
                1.472756589071564,
                -3.1238370188695823
            ]
        },
        {
            "positions": [
                -1.6873898946197157,
                -1.4253827528672862,
                2.0126280027457897,
                -0.6308359488009296,
                1.4557256863619266,
                -3.0974418802703276
            ]
        },
        {
            "positions": [
                -1.703003166724802,
                -1.4341793481554705,
                2.0687206044291973,
                -0.7330085683098828,
                1.438694783652289,
                -3.071046741671073
            ]
        },
        {
            "positions": [
                -1.7912283151629644,
                -1.4210559438995445,
                2.1479124018122846,
                -0.8580485682400064,
                1.3982792793311638,
                -3.044470051035646
            ]
        },
        {
            "positions": [
                -1.8794534636011269,
                -1.4079325396436186,
                2.2271041991953715,
                -0.98308856817013,
                1.3578637750100386,
                -3.0178933604002185
            ]
        },
        {
            "positions": [
                -1.9676786120392893,
                -1.3948091353876926,
                2.306295996578459,
                -1.1081285681002537,
                1.3174482706889135,
                -2.9913166697647915
            ]
        },
        {
            "positions": [
                -2.055903760477452,
                -1.3816857311317665,
                2.385487793961546,
                -1.2331685680303774,
                1.2770327663677883,
                -2.9647399791293645
            ]
        },
        {
            "positions": [
                -2.144128908915614,
                -1.3685623268758407,
                2.464679591344633,
                -1.3582085679605012,
                1.2366172620466631,
                -2.938163288493937
            ]
        },
        {
            "positions": [
                -2.232354057353777,
                -1.3554389226199146,
                2.5438713887277205,
                -1.4832485678906246,
                1.196201757725538,
                -2.91158659785851
            ]
        },
        {
            "positions": [
                -2.2942989879713775,
                -1.3191439041095638,
                2.476396023243371,
                -1.3943708424634527,
                1.1191608605716168,
                -2.9459554388752545
            ]
        },
        {
            "positions": [
                -2.3562439185889787,
                -1.282848885599213,
                2.408920657759022,
                -1.305493117036281,
                1.0421199634176954,
                -2.9803242798919993
            ]
        },
        {
            "positions": [
                -2.4181888492065795,
                -1.2465538670888623,
                2.3414452922746727,
                -1.216615391609109,
                0.9650790662637743,
                -3.0146931209087438
            ]
        },
        {
            "positions": [
                -2.431691082883416,
                -1.2260089883788676,
                2.25991601842161,
                -1.1255036296817822,
                0.8945167529399962,
                -3.0448155613499877
            ]
        },
        {
            "positions": [
                -2.4451933165602524,
                -1.2054641096688732,
                2.1783867445685474,
                -1.0343918677544555,
                0.8239544396162182,
                -3.0749380017912316
            ]
        },
        {
            "positions": [
                -2.4586955502370893,
                -1.1849192309588785,
                2.096857470715485,
                -0.9432801058271288,
                0.7533921262924401,
                -3.1050604422324755
            ]
        },
        {
            "positions": [
                -2.4721977839139258,
                -1.1643743522488839,
                2.015328196862422,
                -0.8521683438998021,
                0.6828298129686621,
                -3.1351828826737194
            ]
        }
    ]
}