{
    "goal": {
        "global_pose": {
            "orientation": {
                "w": 0.5084816262002911,
                "x": -0.4908360881923452,
                "y": 0.5182115481033761,
                "z": -0.48164630358495003
            },
            "position": {
                "x": 0.5540239810943604,
                "y": -0.46912469901144505,
                "z": 0.16403168439865112
            }
        },
        "name": "move_to_storage_B"
    },
    "id": "LazyPRM_move_to_storage_B_45",
    "joint_names": [
        "shoulder_pan_joint",
        "shoulder_lift_joint",
        "elbow_joint",
        "wrist_1_joint",
        "wrist_2_joint",
        "wrist_3_joint"
    ],
    "metrics": {
        "cart_traj_len": 1.7496091456922231,
        "distance_elbow_joint": 0.9969398930614837,
        "distance_shoulder_lift_joint": 0.688288300764776,
        "distance_shoulder_pan_joint": 1.424136666161164,
        "distance_wrist_1_joint": 3.399079066401278,
        "distance_wrist_2_joint": 2.7014305668193095,
        "distance_wrist_3_joint": 3.1386111656282805,
        "smoothness": 0.2637373300419077,
        "time": 0.167587658,
        "traj_len": 3.5140412147321625,
        "weighted_distance": 4.972546392273624
    },
    "planner": "LazyPRM",
    "start": {
        "state": {
            "elbow_joint": 1.664937868594044,
            "shoulder_lift_joint": -0.661644460510453,
            "shoulder_pan_joint": -0.9139846352900073,
            "wrist_1_joint": 2.146753192139373,
            "wrist_2_joint": -2.2341966793290973,
            "wrist_3_joint": 0.005466555786416001
        }
    },
    "waypoints": [
        {
            "positions": [
                -0.9139846352900073,
                -0.661644460510453,
                1.664937868594044,
                2.146753192139373,
                -2.2341966793290973,
                0.005466555786416001
            ]
        },
        {
            "positions": [
                -0.7896957734040869,
                -0.7762780309040057,
                1.6002743962335215,
                2.187767669972288,
                -2.220446841912186,
                0.02995732226187427
            ]
        },
        {
            "positions": [
                -0.6654069115181664,
                -0.8909116012975584,
                1.5356109238729991,
                2.2287821478052026,
                -2.206697004495275,
                0.05444808873733254
            ]
        },
        {
            "positions": [
                -0.5411180496322461,
                -1.005545171691111,
                1.4709474515124765,
                2.2697966256381177,
                -2.192947167078364,
                0.0789388552127908
            ]
        },
        {
            "positions": [
                -0.4168291877463257,
                -1.1201787420846638,
                1.4062839791519541,
                2.3108111034710324,
                -2.1791973296614526,
                0.10342962168824908
            ]
        },
        {
            "positions": [
                -0.29254032586040535,
                -1.2348123124782164,
                1.3416205067914317,
                2.351825581303947,
                -2.1654474922445415,
                0.12792038816370735
            ]
        },
        {
            "positions": [
                -0.3222696724060188,
                -1.230548592152401,
                1.3665694894306493,
                2.2335290377025876,
                -2.067940774476588,
                0.2396299190248551
            ]
        },
        {
            "positions": [
                -0.3519990189516322,
                -1.226284871826586,
                1.3915184720698666,
                2.115232494101228,
                -1.9704340567086338,
                0.3513394498860028
            ]
        },
        {
            "positions": [
                -0.38172836549724565,
                -1.2220211515007706,
                1.416467454709084,
                1.9969359504998687,
                -1.87292733894068,
                0.4630489807471505
            ]
        },
        {
            "positions": [
                -0.411457712042859,
                -1.2177574311749553,
                1.4414164373483016,
                1.8786394068985093,
                -1.7754206211727261,
                0.5747585116082983
            ]
        },
        {
            "positions": [
                -0.44118705858847246,
                -1.21349371084914,
                1.4663654199875191,
                1.7603428632971498,
                -1.6779139034047723,
                0.6864680424694459
            ]
        },
        {
            "positions": [
                -0.4709164051340859,
                -1.2092299905233248,
                1.4913144026267364,
                1.6420463196957904,
                -1.5804071856368185,
                0.7981775733305937
            ]
        },
        {
            "positions": [
                -0.5006457516796994,
                -1.2049662701975095,
                1.516263385265954,
                1.523749776094431,
                -1.4829004678688646,
                0.9098871041917415
            ]
        },
        {
            "positions": [
                -0.5303750982253127,
                -1.2007025498716941,
                1.5412123679051715,
                1.4054532324930717,
                -1.3853937501009108,
                1.0215966350528891
            ]
        },
        {
            "positions": [
                -0.5601044447709261,
                -1.196438829545879,
                1.566161350544389,
                1.2871566888917123,
                -1.287887032332957,
                1.1333061659140369
            ]
        },
        {
            "positions": [
                -0.5898337913165396,
                -1.1921751092200636,
                1.5911103331836063,
                1.1688601452903529,
                -1.1903803145650032,
                1.2450156967751846
            ]
        },
        {
            "positions": [
                -0.619563137862153,
                -1.1879113888942483,
                1.6160593158228238,
                1.0505636016889934,
                -1.0928735967970493,
                1.3567252276363324
            ]
        },
        {
            "positions": [
                -0.6492924844077664,
                -1.1836476685684332,
                1.6410082984620413,
                0.932267058087634,
                -0.9953668790290955,
                1.4684347584974802
            ]
        },
        {
            "positions": [
                -0.6790218309533799,
                -1.1793839482426178,
                1.6659572811012588,
                0.8139705144862746,
                -0.8978601612611417,
                1.580144289358628
            ]
        },
        {
            "positions": [
                -0.7087511774989933,
                -1.1751202279168025,
                1.6909062637404761,
                0.6956739708849151,
                -0.8003534434931878,
                1.6918538202197757
            ]
        },
        {
            "positions": [
                -0.7384805240446067,
                -1.1708565075909871,
                1.7158552463796937,
                0.5773774272835557,
                -0.7028467257252338,
                1.8035633510809235
            ]
        },
        {
            "positions": [
                -0.7682098705902201,
                -1.166592787265172,
                1.7408042290189112,
                0.45908088368219646,
                -0.6053400079572802,
                1.915272881942071
            ]
        },
        {
            "positions": [
                -0.7979392171358336,
                -1.1623290669393567,
                1.7657532116581287,
                0.3407843400808366,
                -0.5078332901893261,
                2.026982412803219
            ]
        },
        {
            "positions": [
                -0.8276685636814469,
                -1.1580653466135413,
                1.790702194297346,
                0.22248779647947758,
                -0.4103265724213725,
                2.1386919436643663
            ]
        },
        {
            "positions": [
                -0.8573979102270605,
                -1.1538016262877262,
                1.8156511769365635,
                0.10419125287811815,
                -0.31281985465341844,
                2.2504014745255145
            ]
        },
        {
            "positions": [
                -0.8871272567726738,
                -1.1495379059619109,
                1.840600159575781,
                -0.014105290723241293,
                -0.21531313688546483,
                2.362111005386662
            ]
        },
        {
            "positions": [
                -0.9168566033182873,
                -1.1452741856360955,
                1.8655491422149986,
                -0.13240183432460073,
                -0.11780641911751077,
                2.47382053624781
            ]
        },
        {
            "positions": [
                -0.9465859498639007,
                -1.1410104653102804,
                1.8904981248542159,
                -0.25069837792596017,
                -0.020299701349557164,
                2.5855300671089574
            ]
        },
        {
            "positions": [
                -0.9763152964095141,
                -1.136746744984465,
                1.9154471074934334,
                -0.3689949215273196,
                0.07720701641839689,
                2.697239597970105
            ]
        },
        {
            "positions": [
                -1.0060446429551275,
                -1.1324830246586497,
                1.940396090132651,
                -0.48729146512867905,
                0.1747137341863505,
                2.808949128831253
            ]
        },
        {
            "positions": [
                -1.035773989500741,
                -1.1282193043328343,
                1.9653450727718682,
                -0.6055880087300385,
                0.27222045195430455,
                2.9206586596924007
            ]
        },
        {
            "positions": [
                -1.0655033360463544,
                -1.1239555840070192,
                1.9902940554110857,
                -0.7238845523313979,
                0.36972716972225816,
                3.0323681905535484
            ]
        },
        {
            "positions": [
                -1.0952326825919678,
                -1.1196918636812039,
                2.0152430380503032,
                -0.8421810959327574,
                0.4672338874902124,
                3.144077721414696
            ]
        }
    ]
}