{
    "goal": {
        "global_pose": {
            "orientation": {
                "w": 0.5084816262002911,
                "x": -0.4908360881923452,
                "y": 0.5182115481033761,
                "z": -0.48164630358495003
            },
            "position": {
                "x": 0.5540239810943604,
                "y": -0.46912469901144505,
                "z": 0.16403168439865112
            }
        },
        "name": "move_to_storage_B"
    },
    "id": "LazyPRM_move_to_storage_B_2",
    "joint_names": [
        "shoulder_pan_joint",
        "shoulder_lift_joint",
        "elbow_joint",
        "wrist_1_joint",
        "wrist_2_joint",
        "wrist_3_joint"
    ],
    "metrics": {
        "cart_traj_len": 2.5828702674926536,
        "distance_elbow_joint": 1.3277871000141372,
        "distance_shoulder_lift_joint": 0.792223116774565,
        "distance_shoulder_pan_joint": 2.4368870260082574,
        "distance_wrist_1_joint": 3.020119789641364,
        "distance_wrist_2_joint": 2.7153582663344364,
        "distance_wrist_3_joint": 3.461818215152002,
        "smoothness": 0.256626373236975,
        "time": 0.092887937,
        "traj_len": 3.7086646537432797,
        "weighted_distance": 5.139387901317097
    },
    "planner": "LazyPRM",
    "start": {
        "state": {
            "elbow_joint": 1.664937868594044,
            "shoulder_lift_joint": -0.661644460510453,
            "shoulder_pan_joint": -0.9139846352900073,
            "wrist_1_joint": 2.146753192139373,
            "wrist_2_joint": -2.2341966793290973,
            "wrist_3_joint": 0.005466555786416001
        }
    },
    "waypoints": [
        {
            "positions": [
                -0.9139846352900073,
                -0.661644460510453,
                1.664937868594044,
                2.146753192139373,
                -2.2341966793290973,
                0.005466555786416001
            ]
        },
        {
            "positions": [
                -0.8011992866776216,
                -0.724319106581271,
                1.6165214482051653,
                2.115889298486104,
                -2.1394983297519587,
                0.022743489340634256
            ]
        },
        {
            "positions": [
                -0.6884139380652359,
                -0.786993752652089,
                1.5681050278162865,
                2.0850254048328347,
                -2.0447999801748202,
                0.04002042289485251
            ]
        },
        {
            "positions": [
                -0.5756285894528503,
                -0.849668398722907,
                1.5196886074274079,
                2.054161511179565,
                -1.950101630597682,
                0.05729735644907076
            ]
        },
        {
            "positions": [
                -0.4628432408404646,
                -0.9123430447937251,
                1.471272187038529,
                2.0232976175262958,
                -1.8554032810205436,
                0.07457429000328902
            ]
        },
        {
            "positions": [
                -0.3500578922280789,
                -0.975017690864543,
                1.4228557666496504,
                1.9924337238730265,
                -1.7607049314434051,
                0.09185122355750727
            ]
        },
        {
            "positions": [
                -0.23727254361569328,
                -1.037692336935361,
                1.3744393462607718,
                1.961569830219757,
                -1.6660065818662666,
                0.10912815711172552
            ]
        },
        {
            "positions": [
                -0.12448719500330763,
                -1.100366983006179,
                1.326022925871893,
                1.9307059365664876,
                -1.5713082322891283,
                0.12640509066594377
            ]
        },
        {
            "positions": [
                -0.011701846390921866,
                -1.163041629076997,
                1.2776065054830144,
                1.8998420429132183,
                -1.4766098827119898,
                0.14368202422016205
            ]
        },
        {
            "positions": [
                0.1010835022214639,
                -1.225716275147815,
                1.2291900850941355,
                1.868978149259949,
                -1.3819115331348515,
                0.1609589577743803
            ]
        },
        {
            "positions": [
                0.21386885083384932,
                -1.288390921218633,
                1.180773664705257,
                1.8381142556066796,
                -1.287213183557713,
                0.17823589132859854
            ]
        },
        {
            "positions": [
                0.16352140699214168,
                -1.282026434446849,
                1.2132206991716166,
                1.7338265304871154,
                -1.219198769305288,
                0.0517340113436055
            ]
        },
        {
            "positions": [
                0.11317396315043401,
                -1.275661947675065,
                1.2456677336379762,
                1.629538805367551,
                -1.1511843550528629,
                -0.07476786864138754
            ]
        },
        {
            "positions": [
                0.06282651930872638,
                -1.269297460903281,
                1.2781147681043359,
                1.5252510802479868,
                -1.0831699408004376,
                -0.2012697486263806
            ]
        },
        {
            "positions": [
                0.012479075467018708,
                -1.262932974131497,
                1.3105618025706953,
                1.4209633551284226,
                -1.0151555265480126,
                -0.32777162861137366
            ]
        },
        {
            "positions": [
                -0.03786836837468893,
                -1.256568487359713,
                1.343008837037055,
                1.3166756300088585,
                -0.9471411122955875,
                -0.4542735085963667
            ]
        },
        {
            "positions": [
                -0.08821581221639657,
                -1.250204000587929,
                1.3754558715034146,
                1.2123879048892943,
                -0.8791266980431625,
                -0.5807753885813598
            ]
        },
        {
            "positions": [
                -0.1385632560581042,
                -1.2438395138161449,
                1.4079029059697743,
                1.10810017976973,
                -0.8111122837907374,
                -0.7072772685663526
            ]
        },
        {
            "positions": [
                -0.1889106998998119,
                -1.2374750270443609,
                1.440349940436134,
                1.0038124546501657,
                -0.7430978695383123,
                -0.8337791485513458
            ]
        },
        {
            "positions": [
                -0.2392581437415195,
                -1.2311105402725768,
                1.4727969749024936,
                0.8995247295306015,
                -0.6750834552858872,
                -0.9602810285363387
            ]
        },
        {
            "positions": [
                -0.2896055875832272,
                -1.2247460535007928,
                1.505244009368853,
                0.7952370044110371,
                -0.607069041033462,
                -1.0867829085213319
            ]
        },
        {
            "positions": [
                -0.3399530314249348,
                -1.2183815667290088,
                1.5376910438352127,
                0.6909492792914731,
                -0.539054626781037,
                -1.2132847885063247
            ]
        },
        {
            "positions": [
                -0.39030047526664247,
                -1.2120170799572247,
                1.5701380783015724,
                0.5866615541719087,
                -0.47104021252861183,
                -1.339786668491318
            ]
        },
        {
            "positions": [
                -0.4406479191083501,
                -1.2056525931854405,
                1.602585112767932,
                0.4823738290523445,
                -0.4030257982761868,
                -1.4662885484763108
            ]
        },
        {
            "positions": [
                -0.49099536295005775,
                -1.1992881064136567,
                1.6350321472342917,
                0.3780861039327803,
                -0.33501138402376174,
                -1.5927904284613037
            ]
        },
        {
            "positions": [
                -0.5413428067917654,
                -1.1929236196418724,
                1.6674791817006511,
                0.2737983788132161,
                -0.2669969697713368,
                -1.7192923084462968
            ]
        },
        {
            "positions": [
                -0.5916902506334731,
                -1.1865591328700884,
                1.699926216167011,
                0.1695106536936517,
                -0.19898255551891153,
                -1.84579418843129
            ]
        },
        {
            "positions": [
                -0.6420376944751807,
                -1.1801946460983044,
                1.7323732506333704,
                0.06522292857408751,
                -0.13096814126648648,
                -1.9722960684162831
            ]
        },
        {
            "positions": [
                -0.6923851383168883,
                -1.1738301593265204,
                1.76482028509973,
                -0.03906479654547668,
                -0.06295372701406143,
                -2.098797948401276
            ]
        },
        {
            "positions": [
                -0.7427325821585959,
                -1.1674656725547363,
                1.7972673195660898,
                -0.14335252166504087,
                0.005060687238363615,
                -2.225299828386269
            ]
        },
        {
            "positions": [
                -0.7930800260003037,
                -1.1611011857829523,
                1.8297143540324494,
                -0.2476402467846055,
                0.07307510149078889,
                -2.3518017083712626
            ]
        },
        {
            "positions": [
                -0.8434274698420112,
                -1.1547366990111683,
                1.862161388498809,
                -0.3519279719041697,
                0.14108951574321393,
                -2.4783035883562556
            ]
        },
        {
            "positions": [
                -0.893774913683719,
                -1.1483722122393842,
                1.8946084229651685,
                -0.45621569702373344,
                0.20910392999563898,
                -2.6048054683412483
            ]
        },
        {
            "positions": [
                -0.9441223575254265,
                -1.1420077254676002,
                1.9270554574315284,
                -0.5605034221432976,
                0.27711834424806403,
                -2.7313073483262413
            ]
        },
        {
            "positions": [
                -0.9944698013671343,
                -1.1356432386958162,
                1.9595024918978878,
                -0.6647911472628623,
                0.3451327585004893,
                -2.857809228311235
            ]
        },
        {
            "positions": [
                -1.044817245208842,
                -1.1292787519240322,
                1.9919495263642477,
                -0.7690788723824264,
                0.41314717275291435,
                -2.9843111082962275
            ]
        },
        {
            "positions": [
                -1.0951646890505495,
                -1.1229142651522481,
                2.024396560830607,
                -0.8733665975019907,
                0.4811615870053394,
                -3.1108129882812205
            ]
        }
    ]
}