{
    "goal": {
        "global_pose": {
            "orientation": {
                "w": -0.4816463035849501,
                "x": 0.5182115481033762,
                "y": 0.4908360881923453,
                "z": -0.5084816262002911
            },
            "position": {
                "x": -0.8240239810943604,
                "y": -0.300875300988555,
                "z": 0.16403168439865112
            }
        },
        "name": "move_to_storage_C"
    },
    "id": "LazyPRM_move_to_storage_C_37",
    "joint_names": [
        "shoulder_pan_joint",
        "shoulder_lift_joint",
        "elbow_joint",
        "wrist_1_joint",
        "wrist_2_joint",
        "wrist_3_joint"
    ],
    "metrics": {
        "cart_traj_len": 0.577453997462873,
        "distance_elbow_joint": 0.26066319893389656,
        "distance_shoulder_lift_joint": 0.1906007609057837,
        "distance_shoulder_pan_joint": 0.49526950665345426,
        "distance_wrist_1_joint": 0.08387785243475798,
        "distance_wrist_2_joint": 1.0661619190359883,
        "distance_wrist_3_joint": 0.07272496316654875,
        "smoothness": 0.0,
        "time": 0.011751524000000001,
        "traj_len": 1.472853760945203,
        "weighted_distance": 1.8613940740569346
    },
    "planner": "LazyPRM",
    "start": {
        "state": {
            "elbow_joint": 2.010868314990456,
            "shoulder_lift_joint": -1.1634956873337592,
            "shoulder_pan_joint": -2.4736205022346125,
            "wrist_1_joint": -0.8367026794202681,
            "wrist_2_joint": 0.6746043897044499,
            "wrist_3_joint": -3.1496632123970403
        }
    },
    "waypoints": [
        {
            "positions": [
                -2.4736205022346125,
                -1.1634956873337592,
                2.010868314990456,
                -0.8367026794202681,
                0.6746043897044499,
                -3.1496632123970403
            ]
        },
        {
            "positions": [
                -2.5561654200101884,
                -1.1317288938494618,
                1.9674244485014731,
                -0.8227230373478085,
                0.8522980428771146,
                -3.1375423852026154
            ]
        },
        {
            "positions": [
                -2.638710337785764,
                -1.0999621003651647,
                1.9239805820124902,
                -0.8087433952753488,
                1.0299916960497795,
                -3.1254215580081905
            ]
        },
        {
            "positions": [
                -2.7212552555613394,
                -1.0681953068808674,
                1.8805367155235075,
                -0.7947637532028891,
                1.207685349222444,
                -3.1133007308137657
            ]
        },
        {
            "positions": [
                -2.8038001733369153,
                -1.03642851339657,
                1.8370928490345249,
                -0.7807841111304294,
                1.385379002395109,
                -3.1011799036193413
            ]
        },
        {
            "positions": [
                -2.8863450911124913,
                -1.0046617199122727,
                1.793648982545542,
                -0.7668044690579698,
                1.5630726555677734,
                -3.0890590764249164
            ]
        },
        {
            "positions": [
                -2.9688900088880668,
                -0.9728949264279755,
                1.7502051160565593,
                -0.7528248269855101,
                1.7407663087404381,
                -3.0769382492304915
            ]
        }
    ]
}