{
    "goal": {
        "global_pose": {
            "orientation": {
                "w": -0.4816463035849501,
                "x": 0.5182115481033762,
                "y": 0.4908360881923453,
                "z": -0.5084816262002911
            },
            "position": {
                "x": -0.8240239810943604,
                "y": 0.19912469901144506,
                "z": 0.16403168439865112
            }
        },
        "name": "move_to_storage_D"
    },
    "id": "LazyPRM_move_to_storage_D_8",
    "joint_names": [
        "shoulder_pan_joint",
        "shoulder_lift_joint",
        "elbow_joint",
        "wrist_1_joint",
        "wrist_2_joint",
        "wrist_3_joint"
    ],
    "metrics": {
        "cart_traj_len": 0.6122818839195578,
        "distance_elbow_joint": 0.5542897194615461,
        "distance_shoulder_lift_joint": 0.2029897867261492,
        "distance_shoulder_pan_joint": 0.3350280384361391,
        "distance_wrist_1_joint": 3.91962318981841,
        "distance_wrist_2_joint": 2.091970310732731,
        "distance_wrist_3_joint": 3.296972943508152,
        "smoothness": 0.47218093202802847,
        "time": 0.153081621,
        "traj_len": 3.2250386026655753,
        "weighted_distance": 4.796500117403373
    },
    "planner": "LazyPRM",
    "start": {
        "state": {
            "elbow_joint": -2.384821988534728,
            "shoulder_lift_joint": -2.2788054721415256,
            "shoulder_pan_joint": -0.1854694642142757,
            "wrist_1_joint": 1.4845938289331202,
            "wrist_2_joint": 0.17898776772866878,
            "wrist_3_joint": 0.037105688729662994
        }
    },
    "waypoints": [
        {
            "positions": [
                -0.1854694642142757,
                -2.2788054721415256,
                -2.384821988534728,
                1.4845938289331202,
                0.17898776772866878,
                0.037105688729662994
            ]
        },
        {
            "positions": [
                -0.06379477224500325,
                -2.1897051394735927,
                -2.356018277682443,
                1.508558146507485,
                0.25768452235611367,
                0.07948767201017044
            ]
        },
        {
            "positions": [
                0.0578799197242692,
                -2.1006048068056593,
                -2.3272145668301585,
                1.53252246408185,
                0.3363812769835586,
                0.12186965529067789
            ]
        },
        {
            "positions": [
                0.05421277354436544,
                -2.1015963716612704,
                -2.3073472749198793,
                1.3776546818950628,
                0.2589982049244449,
                -0.006618703787207608
            ]
        },
        {
            "positions": [
                0.050545627364461686,
                -2.102587936516882,
                -2.2874799830096,
                1.2227868997082756,
                0.18161513286533126,
                -0.1351070628650931
            ]
        },
        {
            "positions": [
                0.046878481184557924,
                -2.103579501372493,
                -2.267612691099321,
                1.0679191175214884,
                0.10423206080621761,
                -0.2635954219429786
            ]
        },
        {
            "positions": [
                0.04321133500465417,
                -2.1045710662281047,
                -2.2477453991890424,
                0.9130513353347012,
                0.026848988747103952,
                -0.3920837810208641
            ]
        },
        {
            "positions": [
                0.03954418882475041,
                -2.105562631083716,
                -2.2278781072787632,
                0.758183553147914,
                -0.05053408331200976,
                -0.5205721400987495
            ]
        },
        {
            "positions": [
                0.03587704264484665,
                -2.106554195939327,
                -2.208010815368484,
                0.6033157709611268,
                -0.12791715537112336,
                -0.6490604991766351
            ]
        },
        {
            "positions": [
                0.03220989646494289,
                -2.1075457607949386,
                -2.188143523458205,
                0.44844798877433956,
                -0.20530022743023713,
                -0.7775488582545207
            ]
        },
        {
            "positions": [
                0.028542750285039133,
                -2.1085373256505497,
                -2.168276231547926,
                0.29358020658755235,
                -0.28268329948935067,
                -0.906037217332406
            ]
        },
        {
            "positions": [
                0.024875604105135375,
                -2.1095288905061613,
                -2.1484089396376467,
                0.13871242440076514,
                -0.3600663715484643,
                -1.0345255764102914
            ]
        },
        {
            "positions": [
                0.021208457925231614,
                -2.1105204553617725,
                -2.128541647727368,
                -0.016155357786022062,
                -0.4374494436075781,
                -1.163013935488177
            ]
        },
        {
            "positions": [
                0.01754131174532786,
                -2.1115120202173836,
                -2.108674355817089,
                -0.17102313997280927,
                -0.5148325156666916,
                -1.2915022945660626
            ]
        },
        {
            "positions": [
                0.013874165565424104,
                -2.112503585072995,
                -2.0888070639068097,
                -0.3258909221595965,
                -0.5922155877258053,
                -1.419990653643948
            ]
        },
        {
            "positions": [
                0.010207019385520336,
                -2.1134951499286063,
                -2.0689397719965306,
                -0.4807587043463837,
                -0.6695986597849191,
                -1.5484790127218335
            ]
        },
        {
            "positions": [
                0.006539873205616574,
                -2.114486714784218,
                -2.0490724800862514,
                -0.6356264865331709,
                -0.7469817318440328,
                -1.676967371799719
            ]
        },
        {
            "positions": [
                0.0028727270257128262,
                -2.115478279639829,
                -2.0292051881759723,
                -0.7904942687199581,
                -0.8243648039031464,
                -1.8054557308776045
            ]
        },
        {
            "positions": [
                -0.0007944191541909354,
                -2.11646984449544,
                -2.009337896265693,
                -0.9453620509067453,
                -0.9017478759622599,
                -1.93394408995549
            ]
        },
        {
            "positions": [
                -0.004461565334094697,
                -2.1174614093510518,
                -1.9894706043554142,
                -1.1002298330935325,
                -0.9791309480213737,
                -2.0624324490333756
            ]
        },
        {
            "positions": [
                -0.008128711513998452,
                -2.118452974206663,
                -1.9696033124451353,
                -1.2550976152803197,
                -1.0565140200804872,
                -2.1909208081112608
            ]
        },
        {
            "positions": [
                -0.011795857693902206,
                -2.1194445390622745,
                -1.9497360205348562,
                -1.409965397467107,
                -1.133897092139601,
                -2.3194091671891464
            ]
        },
        {
            "positions": [
                -0.015463003873805975,
                -2.1204361039178856,
                -1.929868728624577,
                -1.5648331796538941,
                -1.2112801641987148,
                -2.447897526267032
            ]
        },
        {
            "positions": [
                -0.01913015005370973,
                -2.1214276687734968,
                -1.9100014367142981,
                -1.7197009618406813,
                -1.2886632362578283,
                -2.5763858853449175
            ]
        },
        {
            "positions": [
                -0.022797296233613484,
                -2.1224192336291083,
                -1.890134144804019,
                -1.8745687440274685,
                -1.3660463083169418,
                -2.704874244422803
            ]
        },
        {
            "positions": [
                -0.026464442413517253,
                -2.1234107984847195,
                -1.8702668528937398,
                -2.0294365262142557,
                -1.4434293803760556,
                -2.8333626035006887
            ]
        },
        {
            "positions": [
                -0.030131588593420994,
                -2.124402363340331,
                -1.850399560983461,
                -2.184304308401043,
                -1.5208124524351692,
                -2.961850962578574
            ]
        },
        {
            "positions": [
                -0.03379873477332477,
                -2.125393928195942,
                -1.8305322690731818,
                -2.33917209058783,
                -1.598195524494283,
                -3.0903393216564594
            ]
        }
    ]
}