{
    "goal": {
        "global_pose": {
            "orientation": {
                "w": 0.7031023502349854,
                "x": -0.7110244035720825,
                "y": 0.007748599164187908,
                "z": 0.005598929710686207
            },
            "position": {
                "x": 0.11585023208521307,
                "y": 0.44412534475326537,
                "z": 0.3711530566215515
            }
        },
        "name": "move_to_auspresseinheit_A"
    },
    "id": "LazyPRMstar_move_to_auspresseinheit_A_135",
    "joint_names": [
        "shoulder_pan_joint",
        "shoulder_lift_joint",
        "elbow_joint",
        "wrist_1_joint",
        "wrist_2_joint",
        "wrist_3_joint"
    ],
    "metrics": {
        "cart_traj_len": 0.7078058486459528,
        "distance_elbow_joint": 0.6565393738311553,
        "distance_shoulder_lift_joint": 0.5389044274508099,
        "distance_shoulder_pan_joint": 1.0426950457255584,
        "distance_wrist_1_joint": 2.680189138606205,
        "distance_wrist_2_joint": 0.5266808462741901,
        "distance_wrist_3_joint": 2.3974356241232067,
        "smoothness": 1.0955675460125167,
        "time": 5.035445632,
        "traj_len": 2.800436475982115,
        "weighted_distance": 3.9804755606758766
    },
    "planner": "LazyPRMstar",
    "start": {
        "state": {
            "elbow_joint": 2.4225746658250005,
            "shoulder_lift_joint": -1.3736534386056498,
            "shoulder_pan_joint": -0.3378633547517467,
            "wrist_1_joint": -1.0288598680537169,
            "wrist_2_joint": 1.233022673432363,
            "wrist_3_joint": -3.0940220416140027
        }
    },
    "waypoints": [
        {
            "positions": [
                -0.3378633547517467,
                -1.3736534386056498,
                2.4225746658250005,
                -1.0288598680537169,
                1.233022673432363,
                -3.0940220416140027
            ]
        },
        {
            "positions": [
                -0.25890419450546454,
                -1.391275561778049,
                2.4541093154973566,
                -1.1353961879142969,
                1.210051866420411,
                -2.975501782338862
            ]
        },
        {
            "positions": [
                -0.17994503425918232,
                -1.408897684950448,
                2.4856439651697126,
                -1.2419325077748768,
                1.187081059408459,
                -2.856981523063721
            ]
        },
        {
            "positions": [
                -0.10098587401290013,
                -1.4265198081228472,
                2.5171786148420683,
                -1.3484688276354568,
                1.1641102523965072,
                -2.7384612637885803
            ]
        },
        {
            "positions": [
                -0.02202671376661791,
                -1.4441419312952464,
                2.5487132645144244,
                -1.4550051474960368,
                1.1411394453845551,
                -2.6199410045134393
            ]
        },
        {
            "positions": [
                0.05693244647966428,
                -1.4617640544676456,
                2.5802479141867805,
                -1.5615414673566166,
                1.118168638372603,
                -2.5014207452382986
            ]
        },
        {
            "positions": [
                0.13589160672594647,
                -1.4793861776400445,
                2.6117825638591365,
                -1.6680777872171966,
                1.0951978313606512,
                -2.382900485963158
            ]
        },
        {
            "positions": [
                0.21485076697222866,
                -1.4970083008124437,
                2.6433172135314926,
                -1.7746141070777766,
                1.0722270243486993,
                -2.264380226688017
            ]
        },
        {
            "positions": [
                0.2938099272185109,
                -1.514630423984843,
                2.6748518632038483,
                -1.8811504269383565,
                1.0492562173367472,
                -2.145859967412876
            ]
        },
        {
            "positions": [
                0.37276908746479315,
                -1.532252547157242,
                2.7063865128762044,
                -1.9876867467989365,
                1.0262854103247951,
                -2.0273397081377356
            ]
        },
        {
            "positions": [
                0.45172824771107534,
                -1.549874670329641,
                2.7379211625485604,
                -2.0942230666595165,
                1.0033146033128433,
                -1.9088194488625945
            ]
        },
        {
            "positions": [
                0.47473765164405135,
                -1.58284586994117,
                2.7069036282660517,
                -1.9474207084776614,
                0.9763170782078733,
                -2.019022451714576
            ]
        },
        {
            "positions": [
                0.4977470555770274,
                -1.615817069552699,
                2.675886093983543,
                -1.8006183502958062,
                0.9493195531029032,
                -2.1292254545665577
            ]
        },
        {
            "positions": [
                0.5207564595100034,
                -1.648788269164228,
                2.6448685597010346,
                -1.6538159921139512,
                0.9223220279979332,
                -2.2394284574185397
            ]
        },
        {
            "positions": [
                0.5437658634429795,
                -1.6817594687757569,
                2.613851025418526,
                -1.507013633932096,
                0.8953245028929632,
                -2.3496314602705213
            ]
        },
        {
            "positions": [
                0.5667752673759555,
                -1.7147306683872858,
                2.582833491136017,
                -1.360211275750241,
                0.8683269777879932,
                -2.459834463122503
            ]
        },
        {
            "positions": [
                0.5897846713089315,
                -1.7477018679988148,
                2.5518159568535084,
                -1.213408917568386,
                0.8413294526830231,
                -2.5700374659744845
            ]
        },
        {
            "positions": [
                0.6127940752419075,
                -1.780673067610344,
                2.5207984225709996,
                -1.0666065593865308,
                0.8143319275780531,
                -2.680240468826466
            ]
        },
        {
            "positions": [
                0.6358034791748837,
                -1.8136442672218729,
                2.489780888288491,
                -0.9198042012046757,
                0.7873344024730831,
                -2.790443471678448
            ]
        },
        {
            "positions": [
                0.6588128831078597,
                -1.8466154668334018,
                2.4587633540059826,
                -0.7730018430228205,
                0.760336877368113,
                -2.9006464745304297
            ]
        },
        {
            "positions": [
                0.6818222870408357,
                -1.8795866664449308,
                2.427745819723474,
                -0.6261994848409655,
                0.7333393522631431,
                -3.0108494773824113
            ]
        },
        {
            "positions": [
                0.7048316909738117,
                -1.9125578660564597,
                2.396728285440965,
                -0.47939712665911044,
                0.706341827158173,
                -3.121052480234393
            ]
        }
    ]
}