{
    "goal": {
        "global_pose": {
            "orientation": {
                "w": -0.4816463035849501,
                "x": 0.5182115481033762,
                "y": 0.4908360881923453,
                "z": -0.5084816262002911
            },
            "position": {
                "x": -0.8240239810943604,
                "y": 0.19912469901144506,
                "z": 0.16403168439865112
            }
        },
        "name": "move_to_storage_D"
    },
    "id": "LazyPRM_move_to_storage_D_32",
    "joint_names": [
        "shoulder_pan_joint",
        "shoulder_lift_joint",
        "elbow_joint",
        "wrist_1_joint",
        "wrist_2_joint",
        "wrist_3_joint"
    ],
    "metrics": {
        "cart_traj_len": 4.001807081686561,
        "distance_elbow_joint": 4.209194525053407,
        "distance_shoulder_lift_joint": 1.2655998864421778,
        "distance_shoulder_pan_joint": 2.814599575821375,
        "distance_wrist_1_joint": 2.400558418304696,
        "distance_wrist_2_joint": 0.9038020242265745,
        "distance_wrist_3_joint": 3.154222997369257,
        "smoothness": 0.06567324343395116,
        "time": 0.162361585,
        "traj_len": 3.8403095483590235,
        "weighted_distance": 4.935664480542338
    },
    "planner": "LazyPRM",
    "start": {
        "state": {
            "elbow_joint": -2.384821988534728,
            "shoulder_lift_joint": -2.2788054721415256,
            "shoulder_pan_joint": -0.1854694642142757,
            "wrist_1_joint": 1.4845938289331202,
            "wrist_2_joint": 0.17898776772866878,
            "wrist_3_joint": 0.037105688729662994
        }
    },
    "waypoints": [
        {
            "positions": [
                -0.1854694642142757,
                -2.2788054721415256,
                -2.384821988534728,
                1.4845938289331202,
                0.17898776772866878,
                0.037105688729662994
            ]
        },
        {
            "positions": [
                -0.15020805655496994,
                -2.268854250387802,
                -2.3821040591039373,
                1.46769341733877,
                0.17081997168343938,
                0.06274991218095367
            ]
        },
        {
            "positions": [
                -0.06980384405442414,
                -2.23089951337057,
                -2.281795093264511,
                1.3952877066276426,
                0.19511007792932303,
                0.13407625341814372
            ]
        },
        {
            "positions": [
                0.010600368446121666,
                -2.1929447763533383,
                -2.1814861274250843,
                1.322881995916515,
                0.21940018417520668,
                0.20540259465533373
            ]
        },
        {
            "positions": [
                0.09100458094666747,
                -2.154990039336106,
                -2.081177161585658,
                1.2504762852053877,
                0.24369029042109033,
                0.2767289358925238
            ]
        },
        {
            "positions": [
                0.17140879344721327,
                -2.117035302318874,
                -1.9808681957462315,
                1.1780705744942601,
                0.267980396666974,
                0.3480552771297138
            ]
        },
        {
            "positions": [
                0.25181300594775907,
                -2.0790805653016418,
                -1.880559229906805,
                1.1056648637831328,
                0.2922705029128576,
                0.41938161836690385
            ]
        },
        {
            "positions": [
                0.3322172184483049,
                -2.04112582828441,
                -1.7802502640673785,
                1.0332591530720054,
                0.3165606091587413,
                0.49070795960409386
            ]
        },
        {
            "positions": [
                0.41262143094885073,
                -2.003171091267178,
                -1.679941298227952,
                0.960853442360878,
                0.34085071540462497,
                0.5620343008412839
            ]
        },
        {
            "positions": [
                0.4930256434493965,
                -1.9652163542499457,
                -1.5796323323885257,
                0.8884477316497505,
                0.3651408216505086,
                0.633360642078474
            ]
        },
        {
            "positions": [
                0.5734298559499422,
                -1.9272616172327137,
                -1.479323366549099,
                0.8160420209386231,
                0.3894309278963922,
                0.704686983315664
            ]
        },
        {
            "positions": [
                0.6538340684504881,
                -1.8893068802154815,
                -1.3790144007096727,
                0.7436363102274957,
                0.4137210341422759,
                0.7760133245528541
            ]
        },
        {
            "positions": [
                0.7342382809510339,
                -1.8513521431982496,
                -1.2787054348702462,
                0.6712305995163683,
                0.4380111403881595,
                0.847339665790044
            ]
        },
        {
            "positions": [
                0.8146424934515797,
                -1.8133974061810174,
                -1.1783964690308197,
                0.5988248888052409,
                0.4623012466340432,
                0.9186660070272341
            ]
        },
        {
            "positions": [
                0.8950467059521254,
                -1.7754426691637855,
                -1.0780875031913932,
                0.5264191780941134,
                0.4865913528799269,
                0.9899923482644242
            ]
        },
        {
            "positions": [
                0.9754509184526714,
                -1.7374879321465535,
                -0.977778537351967,
                0.4540134673829861,
                0.5108814591258105,
                1.061318689501614
            ]
        },
        {
            "positions": [
                1.0558551309532171,
                -1.6995331951293213,
                -0.8774695715125405,
                0.38160775667185853,
                0.5351715653716942,
                1.132645030738804
            ]
        },
        {
            "positions": [
                1.136259343453763,
                -1.6615784581120892,
                -0.777160605673114,
                0.3092020459607312,
                0.5594616716175778,
                1.2039713719759941
            ]
        },
        {
            "positions": [
                1.2166635559543086,
                -1.6236237210948572,
                -0.6768516398336875,
                0.23679633524960386,
                0.5837517778634616,
                1.2752977132131842
            ]
        },
        {
            "positions": [
                1.2970677684548544,
                -1.5856689840776252,
                -0.576542673994261,
                0.1643906245384763,
                0.6080418841093451,
                1.3466240544503743
            ]
        },
        {
            "positions": [
                1.3774719809554004,
                -1.547714247060393,
                -0.4762337081548347,
                0.09198491382734897,
                0.6323319903552287,
                1.4179503956875643
            ]
        },
        {
            "positions": [
                1.457876193455946,
                -1.509759510043161,
                -0.3759247423154082,
                0.01957920311622141,
                0.6566220966011125,
                1.4892767369247544
            ]
        },
        {
            "positions": [
                1.5382804059564918,
                -1.471804773025929,
                -0.27561577647598146,
                -0.052826507594905925,
                0.680912202846996,
                1.5606030781619442
            ]
        },
        {
            "positions": [
                1.6186846184570378,
                -1.433850036008697,
                -0.17530681063655518,
                -0.12523221830603326,
                0.7052023090928796,
                1.6319294193991343
            ]
        },
        {
            "positions": [
                1.6990888309575836,
                -1.3958952989914648,
                -0.0749978447971289,
                -0.19763792901716082,
                0.7294924153387634,
                1.7032557606363243
            ]
        },
        {
            "positions": [
                1.7794930434581293,
                -1.3579405619742329,
                0.025311121042297824,
                -0.27004363972828815,
                0.753782521584647,
                1.7745821018735144
            ]
        },
        {
            "positions": [
                1.859897255958675,
                -1.319985824957001,
                0.1256200868817241,
                -0.3424493504394155,
                0.7780726278305308,
                1.8459084431107045
            ]
        },
        {
            "positions": [
                1.9403014684592208,
                -1.2820310879397687,
                0.22592905272115082,
                -0.41485506115054305,
                0.8023627340764143,
                1.9172347843478945
            ]
        },
        {
            "positions": [
                2.0207056809597663,
                -1.2440763509225365,
                0.3262380185605771,
                -0.4872607718616704,
                0.8266528403222979,
                1.9885611255850846
            ]
        },
        {
            "positions": [
                2.101109893460313,
                -1.2061216139053046,
                0.4265469844000034,
                -0.5596664825727977,
                0.8509429465681817,
                2.0598874668222744
            ]
        },
        {
            "positions": [
                2.1815141059608587,
                -1.1681668768880724,
                0.5268559502394301,
                -0.6320721932839253,
                0.8752330528140653,
                2.1312138080594645
            ]
        },
        {
            "positions": [
                2.2619183184614045,
                -1.1302121398708405,
                0.6271649160788564,
                -0.7044779039950528,
                0.8995231590599488,
                2.2025401492966545
            ]
        },
        {
            "positions": [
                2.34232253096195,
                -1.0922574028536083,
                0.7274738819182831,
                -0.77688361470618,
                0.9238132653058326,
                2.2738664905338446
            ]
        },
        {
            "positions": [
                2.422726743462496,
                -1.0543026658363763,
                0.8277828477577095,
                -0.8492893254173077,
                0.9481033715517162,
                2.3451928317710347
            ]
        },
        {
            "positions": [
                2.4571273048199296,
                -1.0474531524802049,
                0.9938811292178712,
                -0.8381767814249298,
                0.9678285096038942,
                2.4862154741590157
            ]
        },
        {
            "positions": [
                2.4915278661773637,
                -1.0406036391240334,
                1.1599794106780328,
                -0.8270642374325519,
                0.9875536476560723,
                2.6272381165469962
            ]
        },
        {
            "positions": [
                2.5259284275347973,
                -1.033754125767862,
                1.3260776921381945,
                -0.815951693440174,
                1.0072787857082504,
                2.7682607589349773
            ]
        },
        {
            "positions": [
                2.560328988892231,
                -1.0269046124116907,
                1.4921759735983562,
                -0.8048391494477961,
                1.0270039237604285,
                2.9092834013229583
            ]
        },
        {
            "positions": [
                2.594729550249665,
                -1.0200550990555193,
                1.6582742550585179,
                -0.7937266054554182,
                1.0467290618126064,
                3.050306043710939
            ]
        },
        {
            "positions": [
                2.6291301116070986,
                -1.0132055856993478,
                1.8243725365186796,
                -0.7826140614630402,
                1.0664541998647845,
                3.19132868609892
            ]
        }
    ]
}