{
    "goal": {
        "global_pose": {
            "orientation": {
                "w": 0.7047431468963623,
                "x": -0.7094548344612122,
                "y": 0.0024358443915843964,
                "z": -0.0022348060738295317
            },
            "position": {
                "x": 0.6094750761985779,
                "y": 0.3671506643295288,
                "z": 0.19426114857196808
            }
        },
        "name": "move_to_magneteinheit_A"
    },
    "id": "LazyPRM_move_to_magneteinheit_A_58",
    "joint_names": [
        "shoulder_pan_joint",
        "shoulder_lift_joint",
        "elbow_joint",
        "wrist_1_joint",
        "wrist_2_joint",
        "wrist_3_joint"
    ],
    "metrics": {
        "cart_traj_len": 3.0307259437531906,
        "distance_elbow_joint": 3.904307720784443,
        "distance_shoulder_lift_joint": 1.5907057127614226,
        "distance_shoulder_pan_joint": 2.821235418585397,
        "distance_wrist_1_joint": 0.7100725661655621,
        "distance_wrist_2_joint": 1.7086848221502864,
        "distance_wrist_3_joint": 3.574175348210913,
        "smoothness": 0.09315428887000628,
        "time": 0.082766951,
        "traj_len": 3.7827478885934256,
        "weighted_distance": 4.8863370405034185
    },
    "planner": "LazyPRM",
    "start": {
        "state": {
            "elbow_joint": -1.9196185241190666,
            "shoulder_lift_joint": -1.2443396400964142,
            "shoulder_pan_joint": 2.6996025414629847,
            "wrist_1_joint": -1.5485510000780065,
            "wrist_2_joint": -1.5709468930060704,
            "wrist_3_joint": 0.4420197071253992
        }
    },
    "waypoints": [
        {
            "positions": [
                2.6996025414629847,
                -1.2443396400964142,
                -1.9196185241190666,
                -1.5485510000780065,
                -1.5709468930060704,
                0.4420197071253992
            ]
        },
        {
            "positions": [
                2.590485816055342,
                -1.2754232621783732,
                -1.7924683121093217,
                -1.5394684472371463,
                -1.5479205244918295,
                0.348150942603207
            ]
        },
        {
            "positions": [
                2.4813690906476995,
                -1.3065068842603325,
                -1.6653181000995767,
                -1.530385894396286,
                -1.5248941559775884,
                0.2542821780810148
            ]
        },
        {
            "positions": [
                2.3722523652400564,
                -1.3375905063422917,
                -1.538167888089832,
                -1.5213033415554258,
                -1.5018677874633475,
                0.16041341355882255
            ]
        },
        {
            "positions": [
                2.263135639832414,
                -1.3686741284242507,
                -1.411017676080087,
                -1.5122207887145656,
                -1.4788414189491066,
                0.06654464903663038
            ]
        },
        {
            "positions": [
                2.1540189144247712,
                -1.3997577505062098,
                -1.283867464070342,
                -1.5031382358737053,
                -1.4558150504348655,
                -0.027324115485561906
            ]
        },
        {
            "positions": [
                2.0449021890171286,
                -1.430841372588169,
                -1.156717252060597,
                -1.494055683032845,
                -1.4327886819206246,
                -0.12119288000775408
            ]
        },
        {
            "positions": [
                1.935785463609486,
                -1.4619249946701283,
                -1.029567040050852,
                -1.4849731301919848,
                -1.4097623134063837,
                -0.21506164452994636
            ]
        },
        {
            "positions": [
                1.8266687382018434,
                -1.4930086167520873,
                -0.9024168280411073,
                -1.4758905773511246,
                -1.3867359448921428,
                -0.3089304090521384
            ]
        },
        {
            "positions": [
                1.7175520127942006,
                -1.5240922388340463,
                -0.7752666160313622,
                -1.4668080245102644,
                -1.3637095763779017,
                -0.4027991735743307
            ]
        },
        {
            "positions": [
                1.6084352873865577,
                -1.5551758609160056,
                -0.6481164040216172,
                -1.4577254716694041,
                -1.3406832078636608,
                -0.496667938096523
            ]
        },
        {
            "positions": [
                1.4993185619789153,
                -1.5862594829979648,
                -0.5209661920118724,
                -1.448642918828544,
                -1.31765683934942,
                -0.590536702618715
            ]
        },
        {
            "positions": [
                1.3902018365712725,
                -1.6173431050799238,
                -0.3938159800021275,
                -1.4395603659876839,
                -1.294630470835179,
                -0.6844054671409073
            ]
        },
        {
            "positions": [
                1.2810851111636299,
                -1.6484267271618829,
                -0.26666576799238273,
                -1.4304778131468237,
                -1.271604102320938,
                -0.7782742316630994
            ]
        },
        {
            "positions": [
                1.171968385755987,
                -1.6795103492438421,
                -0.13951555598263754,
                -1.4213952603059634,
                -1.248577733806697,
                -0.8721429961852919
            ]
        },
        {
            "positions": [
                1.0628516603483444,
                -1.7105939713258014,
                -0.012365343972892795,
                -1.4123127074651032,
                -1.2255513652924561,
                -0.966011760707484
            ]
        },
        {
            "positions": [
                0.9537349349407018,
                -1.7416775934077604,
                0.11478486803685195,
                -1.403230154624243,
                -1.202524996778215,
                -1.059880525229676
            ]
        },
        {
            "positions": [
                0.844618209533059,
                -1.7727612154897194,
                0.24193508004659714,
                -1.3941476017833827,
                -1.1794986282639741,
                -1.1537492897518686
            ]
        },
        {
            "positions": [
                0.7355014841254164,
                -1.8038448375716787,
                0.36908529205634233,
                -1.3850650489425225,
                -1.1564722597497332,
                -1.2476180542740605
            ]
        },
        {
            "positions": [
                0.6263847587177738,
                -1.834928459653638,
                0.4962355040660871,
                -1.3759824961016622,
                -1.133445891235492,
                -1.3414868187962528
            ]
        },
        {
            "positions": [
                0.5172680333101307,
                -1.866012081735597,
                0.6233857160758323,
                -1.366899943260802,
                -1.1104195227212512,
                -1.435355583318445
            ]
        },
        {
            "positions": [
                0.4081513079024881,
                -1.897095703817556,
                0.750535928085577,
                -1.3578173904199418,
                -1.0873931542070103,
                -1.5292243478406373
            ]
        },
        {
            "positions": [
                0.29903458249484594,
                -1.9281793258995152,
                0.8776861400953218,
                -1.3487348375790815,
                -1.0643667856927692,
                -1.6230931123628292
            ]
        },
        {
            "positions": [
                0.18991785708720288,
                -1.9592629479814745,
                1.004836352105067,
                -1.3396522847382213,
                -1.0413404171785283,
                -1.7169618768850214
            ]
        },
        {
            "positions": [
                0.08080113167956028,
                -1.9903465700634335,
                1.131986564114812,
                -1.330569731897361,
                -1.0183140486642874,
                -1.810830641407214
            ]
        },
        {
            "positions": [
                0.07075844089428567,
                -1.9395543654660092,
                1.1992762085862756,
                -1.286986454950876,
                -0.9343770648900969,
                -1.9109920804464982
            ]
        },
        {
            "positions": [
                0.060715750109011035,
                -1.8887621608685852,
                1.266565853057739,
                -1.243403178004391,
                -0.8504400811159063,
                -2.011153519485782
            ]
        },
        {
            "positions": [
                0.05067305932373642,
                -1.837969956271161,
                1.3338554975292027,
                -1.199819901057906,
                -0.7665030973417157,
                -2.1113149585250666
            ]
        },
        {
            "positions": [
                0.040630368538461796,
                -1.7871777516737368,
                1.4011451420006664,
                -1.156236624111421,
                -0.6825661135675252,
                -2.2114763975643505
            ]
        },
        {
            "positions": [
                0.030587677753187173,
                -1.7363855470763125,
                1.4684347864721299,
                -1.1126533471649362,
                -0.5986291297933346,
                -2.311637836603635
            ]
        },
        {
            "positions": [
                0.020544986967912557,
                -1.6855933424788885,
                1.5357244309435936,
                -1.0690700702184512,
                -0.5146921460191439,
                -2.411799275642919
            ]
        },
        {
            "positions": [
                0.010502296182637927,
                -1.6348011378814644,
                1.6030140754150572,
                -1.0254867932719662,
                -0.43075516224495336,
                -2.5119607146822034
            ]
        },
        {
            "positions": [
                0.00045960539736331074,
                -1.5840089332840401,
                1.6703037198865207,
                -0.9819035163254812,
                -0.3468181784707628,
                -2.6121221537214874
            ]
        },
        {
            "positions": [
                0.02080835248399266,
                -1.5109487422815384,
                1.7227012993496635,
                -0.9579993359233084,
                -0.2660588272015996,
                -2.698794401615492
            ]
        },
        {
            "positions": [
                0.04115709957062201,
                -1.437888551279037,
                1.7750988788128064,
                -0.9340951555211356,
                -0.18529947593243645,
                -2.7854666495094964
            ]
        },
        {
            "positions": [
                0.06150584665725137,
                -1.3648283602765352,
                1.8274964582759492,
                -0.9101909751189627,
                -0.10454012466327328,
                -2.8721388974035005
            ]
        },
        {
            "positions": [
                0.08185459374388071,
                -1.2917681692740337,
                1.8798940377390918,
                -0.88628679471679,
                -0.02378077339411011,
                -2.958811145297505
            ]
        },
        {
            "positions": [
                0.10220334083051008,
                -1.218707978271532,
                1.9322916172022346,
                -0.8623826143146172,
                0.05697857787505306,
                -3.0454833931915095
            ]
        },
        {
            "positions": [
                0.12255208791713942,
                -1.1456477872690303,
                1.9846891966653775,
                -0.8384784339124444,
                0.13773792914421626,
                -3.132155641085514
            ]
        }
    ]
}