{
    "goal": {
        "global_pose": {
            "orientation": {
                "w": 0.7031023480610252,
                "x": -0.7110244013736278,
                "y": 0.0077485991402295624,
                "z": 0.005598929693374583
            },
            "position": {
                "x": -0.8841497679147869,
                "y": 0.44412534475326537,
                "z": 0.3711530566215515
            }
        },
        "name": "move_to_auspresseinheit_D"
    },
    "id": "LazyPRM_move_to_auspresseinheit_D_68",
    "joint_names": [
        "shoulder_pan_joint",
        "shoulder_lift_joint",
        "elbow_joint",
        "wrist_1_joint",
        "wrist_2_joint",
        "wrist_3_joint"
    ],
    "metrics": {
        "cart_traj_len": 0.34418488386718976,
        "distance_elbow_joint": 0.6634241201845359,
        "distance_shoulder_lift_joint": 0.13527427157804084,
        "distance_shoulder_pan_joint": 0.1334734048109668,
        "distance_wrist_1_joint": 0.6111065173823946,
        "distance_wrist_2_joint": 1.4395941477334346,
        "distance_wrist_3_joint": 0.05811359687602513,
        "smoothness": 0.0,
        "time": 0.012497131,
        "traj_len": 1.7438423261767098,
        "weighted_distance": 2.2820854316684285
    },
    "planner": "LazyPRM",
    "start": {
        "state": {
            "elbow_joint": -1.8275523626775212,
            "shoulder_lift_joint": -2.126789852344167,
            "shoulder_pan_joint": -0.03513704404078235,
            "wrist_1_joint": -2.347782403156801,
            "wrist_2_joint": -1.6058999987535132,
            "wrist_3_joint": -3.0880379163319196
        }
    },
    "waypoints": [
        {
            "positions": [
                -0.03513704404078235,
                -2.126789852344167,
                -1.8275523626775212,
                -2.347782403156801,
                -1.6058999987535132,
                -3.0880379163319196
            ]
        },
        {
            "positions": [
                -0.0518212196421532,
                -2.143699136291422,
                -1.7446243476544543,
                -2.4241707178296004,
                -1.425950730286834,
                -3.0807737167224163
            ]
        },
        {
            "positions": [
                -0.06850539524352406,
                -2.160608420238677,
                -1.6616963326313872,
                -2.5005590325023994,
                -1.2460014618201545,
                -3.0735095171129134
            ]
        },
        {
            "positions": [
                -0.0851895708448949,
                -2.177517704185932,
                -1.5787683176083203,
                -2.576947347175199,
                -1.0660521933534752,
                -3.06624531750341
            ]
        },
        {
            "positions": [
                -0.10187374644626576,
                -2.1944269881331873,
                -1.4958403025852531,
                -2.653335661847998,
                -0.8861029248867959,
                -3.0589811178939073
            ]
        },
        {
            "positions": [
                -0.1185579220476366,
                -2.2113362720804424,
                -1.4129122875621862,
                -2.7297239765207975,
                -0.7061536564201165,
                -3.051716918284404
            ]
        },
        {
            "positions": [
                -0.13524209764900746,
                -2.2282455560276975,
                -1.3299842725391193,
                -2.806112291193597,
                -0.5262043879534373,
                -3.0444527186749006
            ]
        },
        {
            "positions": [
                -0.1519262732503783,
                -2.2451548399749526,
                -1.2470562575160522,
                -2.8825006058663964,
                -0.3462551194867578,
                -3.0371885190653978
            ]
        },
        {
            "positions": [
                -0.16861044885174917,
                -2.2620641239222077,
                -1.1641282424929853,
                -2.9588889205391955,
                -0.16630585102007853,
                -3.0299243194558945
            ]
        }
    ]
}