{
    "goal": {
        "global_pose": {
            "orientation": {
                "w": 0.5084816217422485,
                "x": -0.49083608388900757,
                "y": 0.5182115435600281,
                "z": -0.4816462993621826
            },
            "position": {
                "x": 0.5540239810943604,
                "y": 0.030875300988554955,
                "z": 0.16403168439865112
            }
        },
        "name": "move_to_storage_A"
    },
    "id": "LazyPRM_move_to_storage_A_79",
    "joint_names": [
        "shoulder_pan_joint",
        "shoulder_lift_joint",
        "elbow_joint",
        "wrist_1_joint",
        "wrist_2_joint",
        "wrist_3_joint"
    ],
    "metrics": {
        "cart_traj_len": 0.3535165294870577,
        "distance_elbow_joint": 0.45015192718251673,
        "distance_shoulder_lift_joint": 0.23313546627113801,
        "distance_shoulder_pan_joint": 0.45977203964245134,
        "distance_wrist_1_joint": 0.2448754600591122,
        "distance_wrist_2_joint": 1.1098926963812072,
        "distance_wrist_3_joint": 0.0893230094023103,
        "smoothness": 4.440892098500626e-16,
        "time": 0.011850920000000001,
        "traj_len": 1.6084621844913656,
        "weighted_distance": 2.0299174303856984
    },
    "planner": "LazyPRM",
    "start": {
        "state": {
            "elbow_joint": 1.971548259319323,
            "shoulder_lift_joint": -1.1394851275133948,
            "shoulder_pan_joint": 0.1228115487234821,
            "wrist_1_joint": -0.7804723859257726,
            "wrist_2_joint": 0.12958671773740124,
            "wrist_3_joint": -3.192489227718131
        }
    },
    "waypoints": [
        {
            "positions": [
                0.1228115487234821,
                -1.1394851275133948,
                1.971548259319323,
                -0.7804723859257726,
                0.12958671773740124,
                -3.192489227718131
            ]
        },
        {
            "positions": [
                0.05712982877456048,
                -1.1727901941235575,
                2.035855677488254,
                -0.8154545945056458,
                0.28814281722043084,
                -3.1797287978035156
            ]
        },
        {
            "positions": [
                -0.008551891174361143,
                -1.2060952607337199,
                2.100163095657185,
                -0.8504368030855189,
                0.4466989167034604,
                -3.1669683678888996
            ]
        },
        {
            "positions": [
                -0.07423361112328275,
                -1.2394003273438825,
                2.164470513826116,
                -0.8854190116653922,
                0.60525501618649,
                -3.154207937974284
            ]
        },
        {
            "positions": [
                -0.13991533107220439,
                -1.2727053939540451,
                2.228777931995047,
                -0.9204012202452653,
                0.7638111156695196,
                -3.141447508059668
            ]
        },
        {
            "positions": [
                -0.20559705102112602,
                -1.3060104605642078,
                2.293085350163978,
                -0.9553834288251385,
                0.9223672151525493,
                -3.1286870781450524
            ]
        },
        {
            "positions": [
                -0.2712787709700476,
                -1.3393155271743702,
                2.357392768332909,
                -0.9903656374050116,
                1.0809233146355788,
                -3.1159266482304364
            ]
        },
        {
            "positions": [
                -0.33696049091896924,
                -1.3726205937845328,
                2.4217001865018397,
                -1.0253478459848848,
                1.2394794141186085,
                -3.103166218315821
            ]
        }
    ]
}{
    "goal": {
        "global_pose": {
            "orientation": {
                "w": 0.5084816217422485,
                "x": -0.49083608388900757,
                "y": 0.5182115435600281,
                "z": -0.4816462993621826
            },
            "position": {
                "x": 0.5540239810943604,
                "y": 0.030875300988554955,
                "z": 0.16403168439865112
            }
        },
        "name": "move_to_storage_A"
    },
    "id": "LazyPRM_move_to_storage_A_79",
    "joint_names": [
        "shoulder_pan_joint",
        "shoulder_lift_joint",
        "elbow_joint",
        "wrist_1_joint",
        "wrist_2_joint",
        "wrist_3_joint"
    ],
    "metrics": {
        "cart_traj_len": 0.3538408938250465,
        "distance_elbow_joint": 0.4509529162103796,
        "distance_shoulder_lift_joint": 0.2342788419772628,
        "distance_shoulder_pan_joint": 0.4597032175580399,
        "distance_wrist_1_joint": 0.24929435963103264,
        "distance_wrist_2_joint": 1.1129919397848782,
        "distance_wrist_3_joint": 0.10467626473282277,
        "smoothness": 8.881784197001252e-16,
        "time": 0.012038558999999999,
        "traj_len": 1.6161366092921774,
        "weighted_distance": 2.0453694944376117
    },
    "planner": "LazyPRM",
    "start": {
        "state": {
            "elbow_joint": 1.97154746011099,
            "shoulder_lift_joint": -1.13948474672311,
            "shoulder_pan_joint": 0.12281154466712228,
            "wrist_1_joint": -0.7804688027058302,
            "wrist_2_joint": 0.12958655903071145,
            "wrist_3_joint": 3.0906928834467795
        }
    },
    "waypoints": [
        {
            "positions": [
                0.12281154466712228,
                -1.13948474672311,
                1.97154746011099,
                -0.7804688027058302,
                0.12958655903071145,
                3.0906928834467795
            ]
        },
        {
            "positions": [
                0.05713965644454516,
                -1.1729531527198618,
                2.0359693052839014,
                -0.8160822826531205,
                0.2885854075714083,
                3.1056466355514685
            ]
        },
        {
            "positions": [
                -0.00853223177803196,
                -1.2064215587166136,
                2.1003911504568125,
                -0.8516957626004109,
                0.44758425611210517,
                3.1206003876561574
            ]
        },
        {
            "positions": [
                -0.0742041200006091,
                -1.2398899647133654,
                2.164812995629724,
                -0.8873092425477013,
                0.6065831046528021,
                3.1355541397608464
            ]
        },
        {
            "positions": [
                -0.1398760082231862,
                -1.2733583707101173,
                2.2292348408026355,
                -0.9229227224949916,
                0.765581953193499,
                3.1505078918655354
            ]
        },
        {
            "positions": [
                -0.20554789644576332,
                -1.306826776706869,
                2.293656685975547,
                -0.9585362024422821,
                0.9245808017341959,
                3.1654616439702243
            ]
        },
        {
            "positions": [
                -0.27121978466834046,
                -1.340295182703621,
                2.358078531148458,
                -0.9941496823895725,
                1.0835796502748927,
                3.1804153960749133
            ]
        },
        {
            "positions": [
                -0.3368916728909176,
                -1.3737635887003727,
                2.4225003763213695,
                -1.0297631623368628,
                1.2425784988155897,
                3.1953691481796023
            ]
        }
    ]
}{
    "goal": {
        "global_pose": {
            "orientation": {
                "w": 0.5084816217422485,
                "x": -0.49083608388900757,
                "y": 0.5182115435600281,
                "z": -0.4816462993621826
            },
            "position": {
                "x": 0.5540239810943604,
                "y": 0.030875300988554955,
                "z": 0.16403168439865112
            }
        },
        "name": "move_to_storage_A"
    },
    "id": "LazyPRM_move_to_storage_A_79",
    "joint_names": [
        "shoulder_pan_joint",
        "shoulder_lift_joint",
        "elbow_joint",
        "wrist_1_joint",
        "wrist_2_joint",
        "wrist_3_joint"
    ],
    "metrics": {
        "cart_traj_len": 0.3538257006179119,
        "distance_elbow_joint": 0.45328192680716173,
        "distance_shoulder_lift_joint": 0.2347409333180106,
        "distance_shoulder_pan_joint": 0.4598858841947429,
        "distance_wrist_1_joint": 0.2522834363237363,
        "distance_wrist_2_joint": 1.113151808371863,
        "distance_wrist_3_joint": 0.10743254720357509,
        "smoothness": 8.881784197001252e-16,
        "time": 0.022060109,
        "traj_len": 1.6188812606918055,
        "weighted_distance": 2.0496528670294
    },
    "planner": "LazyPRM",
    "start": {
        "state": {
            "elbow_joint": 1.9715472970024885,
            "shoulder_lift_joint": -1.1394870060712896,
            "shoulder_pan_joint": 0.12281152778156021,
            "wrist_1_joint": -0.780463741449964,
            "wrist_2_joint": 0.12958659822042276,
            "wrist_3_joint": 3.090690232415272
        }
    },
    "waypoints": [
        {
            "positions": [
                0.12281152778156021,
                -1.1394870060712896,
                1.9715472970024885,
                -0.780463741449964,
                0.12958659822042276,
                3.090690232415272
            ]
        },
        {
            "positions": [
                0.05711354432516838,
                -1.1730214251167197,
                2.0363018579749403,
                -0.8165042323533549,
                0.2886082851306889,
                3.10603773915864
            ]
        },
        {
            "positions": [
                -0.008584439131223448,
                -1.2065558441621498,
                2.1010564189473917,
                -0.8525447232567458,
                0.447629972040955,
                3.1213852459020077
            ]
        },
        {
            "positions": [
                -0.07428242258761528,
                -1.2400902632075799,
                2.1658109799198435,
                -0.8885852141601367,
                0.6066516589512212,
                3.1367327526453757
            ]
        },
        {
            "positions": [
                -0.1399804060440071,
                -1.27362468225301,
                2.2305655408922953,
                -0.9246257050635276,
                0.7656733458614873,
                3.152080259388743
            ]
        },
        {
            "positions": [
                -0.205678389500399,
                -1.30715910129844,
                2.295320101864747,
                -0.9606661959669185,
                0.9246950327717535,
                3.167427766132111
            ]
        },
        {
            "positions": [
                -0.27137637295679073,
                -1.3406935203438701,
                2.3600746628371985,
                -0.9967066868703094,
                1.0837167196820197,
                3.182775272875479
            ]
        },
        {
            "positions": [
                -0.3370743564131827,
                -1.3742279393893002,
                2.4248292238096503,
                -1.0327471777737003,
                1.2427384065922857,
                3.198122779618847
            ]
        }
    ]
}