{
    "goal": {
        "global_pose": {
            "orientation": {
                "w": 0.7031023502349854,
                "x": -0.7110244035720825,
                "y": 0.007748599164187908,
                "z": 0.005598929710686207
            },
            "position": {
                "x": 0.11585023208521307,
                "y": 0.44412534475326537,
                "z": 0.3711530566215515
            }
        },
        "name": "move_to_auspresseinheit_A"
    },
    "id": "LazyPRMstar_move_to_auspresseinheit_A_43",
    "joint_names": [
        "shoulder_pan_joint",
        "shoulder_lift_joint",
        "elbow_joint",
        "wrist_1_joint",
        "wrist_2_joint",
        "wrist_3_joint"
    ],
    "metrics": {
        "cart_traj_len": 0.880265028224379,
        "distance_elbow_joint": 0.22270111570409723,
        "distance_shoulder_lift_joint": 1.520256273891321,
        "distance_shoulder_pan_joint": 1.695629142494563,
        "distance_wrist_1_joint": 3.047890715003535,
        "distance_wrist_2_joint": 1.2749954425856371,
        "distance_wrist_3_joint": 0.21232746665527635,
        "smoothness": 1.074451693746835,
        "time": 5.009034542999999,
        "traj_len": 2.82379180470771,
        "weighted_distance": 3.566698928594079
    },
    "planner": "LazyPRMstar",
    "start": {
        "state": {
            "elbow_joint": 2.4225746658250005,
            "shoulder_lift_joint": -1.3736534386056498,
            "shoulder_pan_joint": -0.3378633547517467,
            "wrist_1_joint": -1.0288598680537169,
            "wrist_2_joint": 1.233022673432363,
            "wrist_3_joint": -3.0940220416140027
        }
    },
    "waypoints": [
        {
            "positions": [
                -0.3378633547517467,
                -1.3736534386056498,
                2.4225746658250005,
                -1.0288598680537169,
                1.233022673432363,
                -3.0940220416140027
            ]
        },
        {
            "positions": [
                -0.37052266226292563,
                -1.4765606926090142,
                2.4324150738148322,
                -0.8488168527613176,
                1.270450191968134,
                -3.0848013282118925
            ]
        },
        {
            "positions": [
                -0.4031819697741045,
                -1.5794679466123787,
                2.442255481804664,
                -0.6687738374689183,
                1.3078777105039048,
                -3.075580614809782
            ]
        },
        {
            "positions": [
                -0.4358412772852834,
                -1.682375200615743,
                2.4520958897944958,
                -0.4887308221765191,
                1.3453052290396756,
                -3.066359901407672
            ]
        },
        {
            "positions": [
                -0.4685005847964623,
                -1.7852824546191077,
                2.4619362977843275,
                -0.3086878068841198,
                1.3827327475754465,
                -3.0571391880055616
            ]
        },
        {
            "positions": [
                -0.5011598923076411,
                -1.888189708622472,
                2.4717767057741593,
                -0.1286447915917206,
                1.4201602661112176,
                -3.0479184746034513
            ]
        },
        {
            "positions": [
                -0.53381919981882,
                -1.9910969626258366,
                2.4816171137639915,
                0.0513982237006787,
                1.4575877846469885,
                -3.038697761201341
            ]
        },
        {
            "positions": [
                -0.5664785073299989,
                -2.0940042166292008,
                2.4914575217538233,
                0.23144123899307778,
                1.4950153031827593,
                -3.0294770477992308
            ]
        },
        {
            "positions": [
                -0.5991378148411779,
                -2.1969114706325654,
                2.501297929743655,
                0.4114842542854773,
                1.5324428217185302,
                -3.0202563343971205
            ]
        },
        {
            "positions": [
                -0.6317971223523566,
                -2.29981872463593,
                2.511138337733487,
                0.5915272695778764,
                1.569870340254301,
                -3.01103562099501
            ]
        },
        {
            "positions": [
                -0.6644564298635356,
                -2.4027259786392943,
                2.5209787457233186,
                0.7715702848702757,
                1.607297858790072,
                -3.0018149075929
            ]
        },
        {
            "positions": [
                -0.5399986055560106,
                -2.35807291192496,
                2.5096790151955206,
                0.6581647792266809,
                1.5254141990420784,
                -3.0127349378323705
            ]
        },
        {
            "positions": [
                -0.4155407812484858,
                -2.3134198452106256,
                2.498379284667722,
                0.5447592735830862,
                1.443530539294085,
                -3.0236549680718405
            ]
        },
        {
            "positions": [
                -0.2910829569409609,
                -2.2687667784962917,
                2.487079554139924,
                0.43135376793949143,
                1.3616468795460914,
                -3.034574998311311
            ]
        },
        {
            "positions": [
                -0.16662513263343598,
                -2.2241137117819574,
                2.4757798236121262,
                0.3179482622958967,
                1.279763219798098,
                -3.045495028550781
            ]
        },
        {
            "positions": [
                -0.04216730832591109,
                -2.179460645067623,
                2.4644800930843282,
                0.20454275665230193,
                1.1978795600501044,
                -3.0564150587902517
            ]
        },
        {
            "positions": [
                0.08229051598161374,
                -2.1348075783532887,
                2.45318036255653,
                0.09113725100870718,
                1.1159959003021112,
                -3.0673350890297217
            ]
        },
        {
            "positions": [
                0.2067483402891387,
                -2.090154511638955,
                2.441880632028732,
                -0.022268254634887574,
                1.0341122405541174,
                -3.0782551192691923
            ]
        },
        {
            "positions": [
                0.33120616459666363,
                -2.0455014449246205,
                2.430580901500934,
                -0.13567376027848232,
                0.952228580806124,
                -3.0891751495086623
            ]
        },
        {
            "positions": [
                0.4556639889041887,
                -2.000848378210286,
                2.419281170973136,
                -0.24907926592207708,
                0.8703449210581305,
                -3.100095179748133
            ]
        },
        {
            "positions": [
                0.5801218132117134,
                -1.9561953114959518,
                2.4079814404453375,
                -0.3624847715656718,
                0.7884612613101372,
                -3.111015209987603
            ]
        },
        {
            "positions": [
                0.7045796375192385,
                -1.9115422447816177,
                2.3966817099175395,
                -0.4758902772092666,
                0.7065776015621437,
                -3.1219352402270735
            ]
        }
    ]
}