{
    "goal": {
        "global_pose": {
            "orientation": {
                "w": -0.4816463035849501,
                "x": 0.5182115481033762,
                "y": 0.4908360881923453,
                "z": -0.5084816262002911
            },
            "position": {
                "x": -0.8240239810943604,
                "y": -0.300875300988555,
                "z": 0.16403168439865112
            }
        },
        "name": "move_to_storage_C"
    },
    "id": "LazyPRMstar_move_to_storage_C_18",
    "joint_names": [
        "shoulder_pan_joint",
        "shoulder_lift_joint",
        "elbow_joint",
        "wrist_1_joint",
        "wrist_2_joint",
        "wrist_3_joint"
    ],
    "metrics": {
        "cart_traj_len": 0.5777496432910539,
        "distance_elbow_joint": 0.25672493388853823,
        "distance_shoulder_lift_joint": 0.19056243401407358,
        "distance_shoulder_pan_joint": 0.4942033049242105,
        "distance_wrist_1_joint": 0.06508333606196037,
        "distance_wrist_2_joint": 1.0773429874478908,
        "distance_wrist_3_joint": 0.07250825254409587,
        "smoothness": 5.075305295617109e-16,
        "time": 5.000421782,
        "traj_len": 1.4684771870481235,
        "weighted_distance": 1.855766169935968
    },
    "planner": "LazyPRMstar",
    "start": {
        "state": {
            "elbow_joint": 2.010868314990456,
            "shoulder_lift_joint": -1.1634956873337592,
            "shoulder_pan_joint": -2.4736205022346125,
            "wrist_1_joint": -0.8367026794202681,
            "wrist_2_joint": 0.6746043897044499,
            "wrist_3_joint": -3.1496632123970403
        }
    },
    "waypoints": [
        {
            "positions": [
                -2.4736205022346125,
                -1.1634956873337592,
                2.010868314990456,
                -0.8367026794202681,
                0.6746043897044499,
                -3.1496632123970403
            ]
        },
        {
            "positions": [
                -2.5559877197219807,
                -1.131735281664747,
                1.9680808260090328,
                -0.8258554567432748,
                0.8541615542790983,
                -3.137578503639691
            ]
        },
        {
            "positions": [
                -2.6383549372093493,
                -1.0999748759957346,
                1.9252933370276097,
                -0.8150082340662813,
                1.0337187188537469,
                -3.125493794882342
            ]
        },
        {
            "positions": [
                -2.720722154696718,
                -1.0682144703267225,
                1.8825058480461867,
                -0.8041610113892879,
                1.2132758834283952,
                -3.1134090861249923
            ]
        },
        {
            "positions": [
                -2.803089372184086,
                -1.03645406465771,
                1.8397183590647637,
                -0.7933137887122945,
                1.3928330480030437,
                -3.101324377367643
            ]
        },
        {
            "positions": [
                -2.8854565896714544,
                -1.004693658988698,
                1.7969308700833406,
                -0.7824665660353012,
                1.5723902125776923,
                -3.089239668610294
            ]
        },
        {
            "positions": [
                -2.967823807158823,
                -0.9729332533196856,
                1.7541433811019176,
                -0.7716193433583077,
                1.7519473771523406,
                -3.0771549598529444
            ]
        }
    ]
}