{
    "goal": {
        "global_pose": {
            "orientation": {
                "w": 0.5084816217422485,
                "x": -0.49083608388900757,
                "y": 0.5182115435600281,
                "z": -0.4816462993621826
            },
            "position": {
                "x": 0.5540239810943604,
                "y": 0.030875300988554955,
                "z": 0.16403168439865112
            }
        },
        "name": "move_to_storage_A"
    },
    "id": "LazyPRM_move_to_storage_A_27",
    "joint_names": [
        "shoulder_pan_joint",
        "shoulder_lift_joint",
        "elbow_joint",
        "wrist_1_joint",
        "wrist_2_joint",
        "wrist_3_joint"
    ],
    "metrics": {
        "cart_traj_len": 0.35279972767116125,
        "distance_elbow_joint": 0.4488719185147254,
        "distance_shoulder_lift_joint": 0.23365688595054057,
        "distance_shoulder_pan_joint": 0.4606159331498254,
        "distance_wrist_1_joint": 0.24401262062417206,
        "distance_wrist_2_joint": 1.1004593612663456,
        "distance_wrist_3_joint": 0.1043854498317427,
        "smoothness": 6.661338165333112e-16,
        "time": 0.022077144,
        "traj_len": 1.6099696175199554,
        "weighted_distance": 2.035987487901474
    },
    "planner": "LazyPRM",
    "start": {
        "state": {
            "elbow_joint": 1.971548259319323,
            "shoulder_lift_joint": -1.1394851275133948,
            "shoulder_pan_joint": 0.1228115487234821,
            "wrist_1_joint": -0.7804723859257726,
            "wrist_2_joint": 0.12958671773740124,
            "wrist_3_joint": -3.192489227718131
        }
    },
    "waypoints": [
        {
            "positions": [
                0.1228115487234821,
                -1.1394851275133948,
                1.971548259319323,
                -0.7804723859257726,
                0.12958671773740124,
                -3.192489227718131
            ]
        },
        {
            "positions": [
                0.057009272559221336,
                -1.1728646826491864,
                2.0356728191071407,
                -0.8153313317292258,
                0.28679519791830776,
                -3.1775770205993106
            ]
        },
        {
            "positions": [
                -0.008793003605039429,
                -1.2062442377849778,
                2.0997973788949587,
                -0.850190277532679,
                0.44400367809921426,
                -3.1626648134804904
            ]
        },
        {
            "positions": [
                -0.0745952797693002,
                -1.2396237929207694,
                2.1639219386827766,
                -0.885049223336132,
                0.6012121582801208,
                -3.14775260636167
            ]
        },
        {
            "positions": [
                -0.14039755593356096,
                -1.2730033480565608,
                2.2280464984705945,
                -0.9199081691395852,
                0.7584206384610273,
                -3.1328403992428497
            ]
        },
        {
            "positions": [
                -0.20619983209782178,
                -1.3063829031923524,
                2.2921710582584125,
                -0.9547671149430383,
                0.9156291186419339,
                -3.117928192124029
            ]
        },
        {
            "positions": [
                -0.2720021082620825,
                -1.3397624583281438,
                2.3562956180462304,
                -0.9896260607464915,
                1.0728375988228402,
                -3.103015985005209
            ]
        },
        {
            "positions": [
                -0.3378043844263433,
                -1.3731420134639354,
                2.4204201778340484,
                -1.0244850065499447,
                1.2300460790037469,
                -3.0881037778863885
            ]
        }
    ]
}{
    "goal": {
        "global_pose": {
            "orientation": {
                "w": 0.5084816217422485,
                "x": -0.49083608388900757,
                "y": 0.5182115435600281,
                "z": -0.4816462993621826
            },
            "position": {
                "x": 0.5540239810943604,
                "y": 0.030875300988554955,
                "z": 0.16403168439865112
            }
        },
        "name": "move_to_storage_A"
    },
    "id": "LazyPRM_move_to_storage_A_27",
    "joint_names": [
        "shoulder_pan_joint",
        "shoulder_lift_joint",
        "elbow_joint",
        "wrist_1_joint",
        "wrist_2_joint",
        "wrist_3_joint"
    ],
    "metrics": {
        "cart_traj_len": 0.3540666527268987,
        "distance_elbow_joint": 0.4541733450340599,
        "distance_shoulder_lift_joint": 0.23340513089144288,
        "distance_shoulder_pan_joint": 0.4622207438507054,
        "distance_wrist_1_joint": 0.2599714207339452,
        "distance_wrist_2_joint": 1.1041514674756605,
        "distance_wrist_3_joint": 0.09972142340113566,
        "smoothness": 6.661338165333112e-16,
        "time": 0.022037432000000003,
        "traj_len": 1.616676693525007,
        "weighted_distance": 2.043822219861313
    },
    "planner": "LazyPRM",
    "start": {
        "state": {
            "elbow_joint": 1.97154746011099,
            "shoulder_lift_joint": -1.13948474672311,
            "shoulder_pan_joint": 0.12281154466712228,
            "wrist_1_joint": -0.7804688027058302,
            "wrist_2_joint": 0.12958655903071145,
            "wrist_3_joint": 3.0906928834467795
        }
    },
    "waypoints": [
        {
            "positions": [
                0.12281154466712228,
                -1.13948474672311,
                1.97154746011099,
                -0.7804688027058302,
                0.12958655903071145,
                3.0906928834467795
            ]
        },
        {
            "positions": [
                0.05678000983130724,
                -1.1728283368504588,
                2.036429366544427,
                -0.8176075770963938,
                0.2873224829558058,
                3.1049388010755132
            ]
        },
        {
            "positions": [
                -0.009251525004507807,
                -1.206171926977808,
                2.1013112729778642,
                -0.8547463514869573,
                0.44505840688090015,
                3.119184718704247
            ]
        },
        {
            "positions": [
                -0.07528305984032287,
                -1.2395155171051568,
                2.166193179411301,
                -0.891885125877521,
                0.6027943308059945,
                3.1334306363329807
            ]
        },
        {
            "positions": [
                -0.14131459467613788,
                -1.272859107232506,
                2.2310750858447386,
                -0.9290239002680846,
                0.7605302547310889,
                3.147676553961714
            ]
        },
        {
            "positions": [
                -0.20734612951195297,
                -1.3062026973598548,
                2.2959569922781755,
                -0.9661626746586482,
                0.9182661786561833,
                3.1619224715904477
            ]
        },
        {
            "positions": [
                -0.273377664347768,
                -1.3395462874872037,
                2.360838898711613,
                -1.0033014490492118,
                1.0760021025812776,
                3.1761683892191814
            ]
        },
        {
            "positions": [
                -0.3394091991835831,
                -1.3728898776145528,
                2.42572080514505,
                -1.0404402234397754,
                1.233738026506372,
                3.190414306847915
            ]
        }
    ]
}{
    "goal": {
        "global_pose": {
            "orientation": {
                "w": 0.5084816217422485,
                "x": -0.49083608388900757,
                "y": 0.5182115435600281,
                "z": -0.4816462993621826
            },
            "position": {
                "x": 0.5540239810943604,
                "y": 0.030875300988554955,
                "z": 0.16403168439865112
            }
        },
        "name": "move_to_storage_A"
    },
    "id": "LazyPRM_move_to_storage_A_27",
    "joint_names": [
        "shoulder_pan_joint",
        "shoulder_lift_joint",
        "elbow_joint",
        "wrist_1_joint",
        "wrist_2_joint",
        "wrist_3_joint"
    ],
    "metrics": {
        "cart_traj_len": 0.35346023658594294,
        "distance_elbow_joint": 0.4484635998626163,
        "distance_shoulder_lift_joint": 0.23403594987743648,
        "distance_shoulder_pan_joint": 0.4588190320448881,
        "distance_wrist_1_joint": 0.24011475367545088,
        "distance_wrist_2_joint": 1.1134871638862247,
        "distance_wrist_3_joint": 0.10212871750886743,
        "smoothness": 8.881784197001252e-16,
        "time": 0.022035288,
        "traj_len": 1.6115362908899955,
        "weighted_distance": 2.0383592836972815
    },
    "planner": "LazyPRM",
    "start": {
        "state": {
            "elbow_joint": 1.9715472970024885,
            "shoulder_lift_joint": -1.1394870060712896,
            "shoulder_pan_joint": 0.12281152778156021,
            "wrist_1_joint": -0.780463741449964,
            "wrist_2_joint": 0.12958659822042276,
            "wrist_3_joint": 3.090690232415272
        }
    },
    "waypoints": [
        {
            "positions": [
                0.12281152778156021,
                -1.1394870060712896,
                1.9715472970024885,
                -0.780463741449964,
                0.12958659822042276,
                3.090690232415272
            ]
        },
        {
            "positions": [
                0.057265951775147636,
                -1.1729207131966377,
                2.035613525554291,
                -0.8147658491178855,
                0.28865619306131196,
                3.105280049202253
            ]
        },
        {
            "positions": [
                -0.008279624231264937,
                -1.2063544203219858,
                2.099679754106093,
                -0.849067956785807,
                0.4477257879022012,
                3.119869865989234
            ]
        },
        {
            "positions": [
                -0.07382520023767752,
                -1.239788127447334,
                2.1637459826578955,
                -0.8833700644537287,
                0.6067953827430904,
                3.1344596827762152
            ]
        },
        {
            "positions": [
                -0.13937077624409008,
                -1.2732218345726818,
                2.227812211209698,
                -0.9176721721216502,
                0.7658649775839796,
                3.149049499563196
            ]
        },
        {
            "positions": [
                -0.20491635225050267,
                -1.3066555416980299,
                2.2918784397615,
                -0.9519742797895718,
                0.924934572424869,
                3.163639316350177
            ]
        },
        {
            "positions": [
                -0.2704619282569153,
                -1.340089248823378,
                2.3559446683133025,
                -0.9862763874574934,
                1.084004167265758,
                3.178229133137158
            ]
        },
        {
            "positions": [
                -0.33600750426332787,
                -1.373522955948726,
                2.420010896865105,
                -1.0205784951254149,
                1.2430737621066474,
                3.1928189499241393
            ]
        }
    ]
}