{
    "goal": {
        "global_pose": {
            "orientation": {
                "w": 0.7031023480610252,
                "x": -0.7110244013736278,
                "y": 0.0077485991402295624,
                "z": 0.005598929693374583
            },
            "position": {
                "x": -0.8841497679147869,
                "y": 0.44412534475326537,
                "z": 0.3711530566215515
            }
        },
        "name": "move_to_auspresseinheit_D"
    },
    "id": "LazyPRM_move_to_auspresseinheit_D_38",
    "joint_names": [
        "shoulder_pan_joint",
        "shoulder_lift_joint",
        "elbow_joint",
        "wrist_1_joint",
        "wrist_2_joint",
        "wrist_3_joint"
    ],
    "metrics": {
        "cart_traj_len": 0.3444031006362877,
        "distance_elbow_joint": 0.6564895797990262,
        "distance_shoulder_lift_joint": 0.13062762088705115,
        "distance_shoulder_pan_joint": 0.13341690684573118,
        "distance_wrist_1_joint": 0.5820965616261198,
        "distance_wrist_2_joint": 1.440895521609087,
        "distance_wrist_3_joint": 0.03278217162612096,
        "smoothness": 6.908054404438162e-16,
        "time": 0.012404524,
        "traj_len": 1.7251980646850773,
        "weighted_distance": 2.250525447285719
    },
    "planner": "LazyPRM",
    "start": {
        "state": {
            "elbow_joint": -1.8275523626775212,
            "shoulder_lift_joint": -2.126789852344167,
            "shoulder_pan_joint": -0.03513704404078235,
            "wrist_1_joint": -2.347782403156801,
            "wrist_2_joint": -1.6058999987535132,
            "wrist_3_joint": -3.0880379163319196
        }
    },
    "waypoints": [
        {
            "positions": [
                -0.03513704404078235,
                -2.126789852344167,
                -1.8275523626775212,
                -2.347782403156801,
                -1.6058999987535132,
                -3.0880379163319196
            ]
        },
        {
            "positions": [
                -0.05181415739649875,
                -2.143118304955048,
                -1.745491165202643,
                -2.420544473360066,
                -1.4257880585523772,
                -3.0839401448786545
            ]
        },
        {
            "positions": [
                -0.06849127075221514,
                -2.1594467575659295,
                -1.6634299677277646,
                -2.493306543563331,
                -1.2456761183512415,
                -3.0798423734253895
            ]
        },
        {
            "positions": [
                -0.08516838410793154,
                -2.175775210176811,
                -1.5813687702528862,
                -2.566068613766596,
                -1.0655641781501055,
                -3.0757446019721244
            ]
        },
        {
            "positions": [
                -0.10184549746364793,
                -2.1921036627876926,
                -1.499307572778008,
                -2.6388306839698608,
                -0.8854522379489697,
                -3.0716468305188593
            ]
        },
        {
            "positions": [
                -0.11852261081936433,
                -2.208432115398574,
                -1.41724637530313,
                -2.7115927541731257,
                -0.7053402977478338,
                -3.067549059065594
            ]
        },
        {
            "positions": [
                -0.13519972417508075,
                -2.2247605680094553,
                -1.3351851778282515,
                -2.7843548243763907,
                -0.5252283575466978,
                -3.0634512876123288
            ]
        },
        {
            "positions": [
                -0.15187683753079714,
                -2.2410890206203367,
                -1.2531239803533731,
                -2.8571168945796557,
                -0.3451164173455621,
                -3.0593535161590637
            ]
        },
        {
            "positions": [
                -0.16855395088651354,
                -2.257417473231218,
                -1.171062782878495,
                -2.9298789647829206,
                -0.16500447714442612,
                -3.0552557447057986
            ]
        }
    ]
}