{
    "goal": {
        "global_pose": {
            "orientation": {
                "w": 0.7047431493862688,
                "x": -0.7094548369677653,
                "y": 0.0024358444001904,
                "z": -0.0022348060817251984
            },
            "position": {
                "x": -0.39052492380142206,
                "y": 0.3671506643295288,
                "z": 0.19426114857196808
            }
        },
        "name": "move_to_magneteinheit_D"
    },
    "id": "LazyPRMstar_move_to_magneteinheit_D_18",
    "joint_names": [
        "shoulder_pan_joint",
        "shoulder_lift_joint",
        "elbow_joint",
        "wrist_1_joint",
        "wrist_2_joint",
        "wrist_3_joint"
    ],
    "metrics": {
        "cart_traj_len": 4.214732925036526,
        "distance_elbow_joint": 3.092112243376999,
        "distance_shoulder_lift_joint": 1.1341467059989996,
        "distance_shoulder_pan_joint": 2.6565422445041067,
        "distance_wrist_1_joint": 3.3256775142681354,
        "distance_wrist_2_joint": 1.960600323251907,
        "distance_wrist_3_joint": 6.380772433176597,
        "smoothness": 0.13233659996023553,
        "time": 5.041348946,
        "traj_len": 4.306953849831309,
        "weighted_distance": 6.049601157799579
    },
    "planner": "LazyPRMstar",
    "start": {
        "state": {
            "elbow_joint": 0.749534889911806,
            "shoulder_lift_joint": -0.6476975780787326,
            "shoulder_pan_joint": -2.711696901376241,
            "wrist_1_joint": -0.07506478083263063,
            "wrist_2_joint": 0.43296659715538205,
            "wrist_3_joint": -3.14703540197715
        }
    },
    "waypoints": [
        {
            "positions": [
                -2.711696901376241,
                -0.6476975780787326,
                0.749534889911806,
                -0.07506478083263063,
                0.43296659715538205,
                -3.14703540197715
            ]
        },
        {
            "positions": [
                -2.7224426988400396,
                -0.6526487103721219,
                0.6981511309327477,
                0.03720825287099533,
                0.418453280977574,
                -3.0136965304060355
            ]
        },
        {
            "positions": [
                -2.733188496303838,
                -0.6575998426655112,
                0.6467673719536895,
                0.14948128657462129,
                0.40393996479976596,
                -2.880357658834921
            ]
        },
        {
            "positions": [
                -2.7439342937676363,
                -0.6625509749589005,
                0.5953836129746313,
                0.26175432027824724,
                0.38942664862195786,
                -2.747018787263806
            ]
        },
        {
            "positions": [
                -2.754680091231435,
                -0.6675021072522898,
                0.543999853995573,
                0.3740273539818732,
                0.3749133324441498,
                -2.6136799156926913
            ]
        },
        {
            "positions": [
                -2.7654258886952334,
                -0.672453239545679,
                0.4926160950165148,
                0.4863003876854992,
                0.36040001626634177,
                -2.4803410441215767
            ]
        },
        {
            "positions": [
                -2.679465227446049,
                -0.6961455636968664,
                0.4097588005433582,
                0.4605639718773829,
                0.3798297685609691,
                -2.356491115177362
            ]
        },
        {
            "positions": [
                -2.593504566196865,
                -0.7198378878480538,
                0.32690150607020163,
                0.4348275560692666,
                0.39925952085559646,
                -2.232641186233147
            ]
        },
        {
            "positions": [
                -2.507543904947681,
                -0.7435302119992412,
                0.24404421159704504,
                0.40909114026115034,
                0.41868927315022375,
                -2.108791257288932
            ]
        },
        {
            "positions": [
                -2.4215832436984965,
                -0.7672225361504286,
                0.16118691712388838,
                0.38335472445303403,
                0.4381190254448511,
                -1.9849413283447173
            ]
        },
        {
            "positions": [
                -2.3356225824493126,
                -0.7909148603016158,
                0.07832962265073179,
                0.3576183086449177,
                0.45754877773947844,
                -1.8610913994005025
            ]
        },
        {
            "positions": [
                -2.2496619212001283,
                -0.8146071844528032,
                -0.00452767182242475,
                0.3318818928368015,
                0.47697853003410573,
                -1.7372414704562875
            ]
        },
        {
            "positions": [
                -2.163701259950944,
                -0.8382995086039906,
                -0.08738496629558146,
                0.30614547702868516,
                0.4964082823287331,
                -1.6133915415120725
            ]
        },
        {
            "positions": [
                -2.07774059870176,
                -0.861991832755178,
                -0.17024226076873805,
                0.28040906122056886,
                0.5158380346233604,
                -1.4895416125678578
            ]
        },
        {
            "positions": [
                -1.9917799374525758,
                -0.8856841569063654,
                -0.25309955524189465,
                0.25467264541245255,
                0.5352677869179877,
                -1.3656916836236428
            ]
        },
        {
            "positions": [
                -1.9058192762033919,
                -0.9093764810575528,
                -0.33595684971505124,
                0.2289362296043363,
                0.554697539212615,
                -1.241841754679428
            ]
        },
        {
            "positions": [
                -1.8198586149542075,
                -0.9330688052087401,
                -0.41881414418820784,
                0.20319981379622,
                0.5741272915072424,
                -1.117991825735213
            ]
        },
        {
            "positions": [
                -1.7368282795823267,
                -0.9618750450058308,
                -0.48959382459712975,
                0.1383105843052472,
                0.598478726031264,
                -1.014444786147754
            ]
        },
        {
            "positions": [
                -1.6537979442104458,
                -0.9906812848029214,
                -0.5603735050060517,
                0.07342135481427439,
                0.6228301605552855,
                -0.9108977465602949
            ]
        },
        {
            "positions": [
                -1.570767608838565,
                -1.0194875246000121,
                -0.6311531854149734,
                0.008532125323301554,
                0.6471815950793071,
                -0.8073507069728357
            ]
        },
        {
            "positions": [
                -1.487737273466684,
                -1.0482937643971026,
                -0.7019328658238954,
                -0.05635710416767123,
                0.6715330296033286,
                -0.7038036673853767
            ]
        },
        {
            "positions": [
                -1.4047069380948034,
                -1.0771000041941934,
                -0.7727125462328173,
                -0.12124633365864404,
                0.6958844641273502,
                -0.6002566277979176
            ]
        },
        {
            "positions": [
                -1.3216766027229225,
                -1.1059062439912841,
                -0.8434922266417391,
                -0.1861355631496169,
                0.7202358986513717,
                -0.4967095882104584
            ]
        },
        {
            "positions": [
                -1.2386462673510417,
                -1.1347124837883746,
                -0.914271907050661,
                -0.25102479264058974,
                0.7445873331753933,
                -0.3931625486229994
            ]
        },
        {
            "positions": [
                -1.1556159319791608,
                -1.1635187235854654,
                -0.9850515874595829,
                -0.3159140221315625,
                0.7689387676994148,
                -0.28961550903554023
            ]
        },
        {
            "positions": [
                -1.07258559660728,
                -1.1923249633825561,
                -1.0558312678685047,
                -0.38080325162253537,
                0.7932902022234364,
                -0.1860684694480811
            ]
        },
        {
            "positions": [
                -0.9895552612353992,
                -1.2211312031796466,
                -1.1266109482774267,
                -0.4456924811135081,
                0.8176416367474579,
                -0.08252142986062205
            ]
        },
        {
            "positions": [
                -0.9065249258635182,
                -1.2499374429767374,
                -1.1973906286863485,
                -0.5105817106044811,
                0.8419930712714796,
                0.02102560972683709
            ]
        },
        {
            "positions": [
                -0.8234945904916374,
                -1.278743682773828,
                -1.2681703090952703,
                -0.5754709400954539,
                0.866344505795501,
                0.12457264931429624
            ]
        },
        {
            "positions": [
                -0.7404642551197564,
                -1.3075499225709186,
                -1.3389499895041923,
                -0.6403601695864267,
                0.8906959403195227,
                0.22811968890175538
            ]
        },
        {
            "positions": [
                -0.6574339197478758,
                -1.3363561623680094,
                -1.409729669913114,
                -0.7052493990773995,
                0.9150473748435441,
                0.3316667284892143
            ]
        },
        {
            "positions": [
                -0.5744035843759947,
                -1.3651624021651,
                -1.4805093503220361,
                -0.7701386285683723,
                0.9393988093675658,
                0.43521376807667367
            ]
        },
        {
            "positions": [
                -0.49137324900411405,
                -1.3939686419621906,
                -1.551289030730958,
                -0.835027858059345,
                0.9637502438915873,
                0.5387608076641326
            ]
        },
        {
            "positions": [
                -0.4083429136322332,
                -1.4227748817592814,
                -1.6220687111398797,
                -0.8999170875503179,
                0.9881016784156089,
                0.6423078472515917
            ]
        },
        {
            "positions": [
                -0.3253125782603523,
                -1.4515811215563719,
                -1.6928483915488015,
                -0.9648063170412907,
                1.0124531129396304,
                0.7458548868390509
            ]
        },
        {
            "positions": [
                -0.24228224288847156,
                -1.4803873613534626,
                -1.7636280719577235,
                -1.0296955465322635,
                1.036804547463652,
                0.84940192642651
            ]
        },
        {
            "positions": [
                -0.24442816803711442,
                -1.531284759186288,
                -1.8030384651405458,
                -1.1247839736386611,
                1.0186726367118932,
                1.0028895988310147
            ]
        },
        {
            "positions": [
                -0.24657409318575732,
                -1.5821821570191132,
                -1.842448858323368,
                -1.2198724007450588,
                1.0005407259601342,
                1.1563772712355196
            ]
        },
        {
            "positions": [
                -0.2487200183344002,
                -1.6330795548519386,
                -1.8818592515061905,
                -1.3149608278514562,
                0.9824088152083754,
                1.3098649436400243
            ]
        },
        {
            "positions": [
                -0.2508659434830431,
                -1.6839769526847639,
                -1.9212696446890127,
                -1.4100492549578538,
                0.9642769044566166,
                1.4633526160445292
            ]
        },
        {
            "positions": [
                -0.25301186863168595,
                -1.7348743505175892,
                -1.960680037871835,
                -1.5051376820642515,
                0.9461449937048577,
                1.6168402884490338
            ]
        },
        {
            "positions": [
                -0.24819481665320653,
                -1.739708287008123,
                -1.9937058955945761,
                -1.5734234405866436,
                0.853958980830316,
                1.757266093583561
            ]
        },
        {
            "positions": [
                -0.24337776467472708,
                -1.744542223498657,
                -2.0267317533173173,
                -1.6417091991090358,
                0.7617729679557743,
                1.897691898718088
            ]
        },
        {
            "positions": [
                -0.23856071269624765,
                -1.7493761599891908,
                -2.0597576110400584,
                -1.709994957631428,
                0.6695869550812326,
                2.038117703852615
            ]
        },
        {
            "positions": [
                -0.2337436607177682,
                -1.7542100964797245,
                -2.0927834687628,
                -1.7782807161538199,
                0.5774009422066908,
                2.178543508987142
            ]
        },
        {
            "positions": [
                -0.22892660873928877,
                -1.7590440329702584,
                -2.125809326485541,
                -1.846566474676212,
                0.4852149293321491,
                2.318969314121669
            ]
        },
        {
            "positions": [
                -0.22410955676080935,
                -1.7638779694607922,
                -2.1588351842082822,
                -1.9148522331986042,
                0.3930289164576074,
                2.4593951192561962
            ]
        },
        {
            "positions": [
                -0.2192925047823299,
                -1.768711905951326,
                -2.1918610419310234,
                -1.9831379917209964,
                0.3008429035830656,
                2.5998209243907233
            ]
        },
        {
            "positions": [
                -0.21271896242984958,
                -1.7670750769209014,
                -2.2215148999009124,
                -2.041606108754229,
                0.20873314418868044,
                2.7247321547691
            ]
        },
        {
            "positions": [
                -0.2061454200773693,
                -1.7654382478904767,
                -2.2511687578708015,
                -2.1000742257874614,
                0.11662338479429529,
                2.849643385147477
            ]
        },
        {
            "positions": [
                -0.199571877724889,
                -1.763801418860052,
                -2.280822615840691,
                -2.1585423428206942,
                0.024513625399910144,
                2.974554615525854
            ]
        },
        {
            "positions": [
                -0.19299833537240868,
                -1.7621645898296272,
                -2.31047647381058,
                -2.2170104598539266,
                -0.06759613399447502,
                3.099465845904231
            ]
        },
        {
            "positions": [
                -0.18407188299654778,
                -1.75557952782492,
                -2.342577353465191,
                -2.2780119580645066,
                -0.1748246637019041,
                3.2337370311994498
            ]
        }
    ]
}