{
    "goal": {
        "global_pose": {
            "orientation": {
                "w": 0.005598929693374612,
                "x": 0.007748599140229565,
                "y": 0.7110244013736278,
                "z": -0.7031023480610252
            },
            "position": {
                "x": -0.8858502320852131,
                "y": -0.7141253447532654,
                "z": 0.3711530566215515
            }
        },
        "name": "move_to_auspresseinheit_C"
    },
    "id": "LazyPRMstar_move_to_auspresseinheit_C_99",
    "joint_names": [
        "shoulder_pan_joint",
        "shoulder_lift_joint",
        "elbow_joint",
        "wrist_1_joint",
        "wrist_2_joint",
        "wrist_3_joint"
    ],
    "metrics": {
        "cart_traj_len": 0.4927279187251132,
        "distance_elbow_joint": 0.9910062294662336,
        "distance_shoulder_lift_joint": 0.3206301335232332,
        "distance_shoulder_pan_joint": 0.2562121624628997,
        "distance_wrist_1_joint": 0.6563420712991531,
        "distance_wrist_2_joint": 1.3160470372912854,
        "distance_wrist_3_joint": 0.04866216706147508,
        "smoothness": 9.689219135737367e-16,
        "time": 5.00098855,
        "traj_len": 1.8944391785180859,
        "weighted_distance": 2.3787839842696243
    },
    "planner": "LazyPRMstar",
    "start": {
        "state": {
            "elbow_joint": 1.7527959577737207,
            "shoulder_lift_joint": -0.9740617694225068,
            "shoulder_pan_joint": -2.967991417825858,
            "wrist_1_joint": -0.759517768980727,
            "wrist_2_joint": 1.7443932448377408,
            "wrist_3_joint": -3.0840537646736568
        }
    },
    "waypoints": [
        {
            "positions": [
                -2.967991417825858,
                -0.9740617694225068,
                1.7527959577737207,
                -0.759517768980727,
                1.7443932448377408,
                -3.0840537646736568
            ]
        },
        {
            "positions": [
                -2.942370201579568,
                -0.9419987560701835,
                1.6536953348270973,
                -0.6938835618508117,
                1.6127885411086123,
                -3.0889199813798043
            ]
        },
        {
            "positions": [
                -2.916748985333278,
                -0.9099357427178602,
                1.554594711880474,
                -0.6282493547208964,
                1.4811838373794837,
                -3.093786198085952
            ]
        },
        {
            "positions": [
                -2.891127769086988,
                -0.8778727293655368,
                1.4554940889338506,
                -0.5626151475909811,
                1.3495791336503553,
                -3.0986524147920993
            ]
        },
        {
            "positions": [
                -2.865506552840698,
                -0.8458097160132134,
                1.3563934659872272,
                -0.4969809404610657,
                1.2179744299212265,
                -3.103518631498247
            ]
        },
        {
            "positions": [
                -2.839885336594408,
                -0.8137467026608902,
                1.2572928430406038,
                -0.4313467333311504,
                1.0863697261920982,
                -3.1083848482043943
            ]
        },
        {
            "positions": [
                -2.8142641203481182,
                -0.7816836893085668,
                1.1581922200939805,
                -0.3657125262012351,
                0.9547650224629697,
                -3.113251064910542
            ]
        },
        {
            "positions": [
                -2.7886429041018284,
                -0.7496206759562436,
                1.0590915971473571,
                -0.3000783190713198,
                0.8231603187338411,
                -3.1181172816166893
            ]
        },
        {
            "positions": [
                -2.763021687855538,
                -0.7175576626039202,
                0.9599909742007338,
                -0.23444411194140446,
                0.6915556150047124,
                -3.122983498322837
            ]
        },
        {
            "positions": [
                -2.737400471609248,
                -0.6854946492515969,
                0.8608903512541104,
                -0.16880990481148916,
                0.559950911275584,
                -3.1278497150289843
            ]
        },
        {
            "positions": [
                -2.7117792553629583,
                -0.6534316358992736,
                0.761789728307487,
                -0.1031756976815739,
                0.4283462075464556,
                -3.132715931735132
            ]
        }
    ]
}