{
    "goal": {
        "global_pose": {
            "orientation": {
                "w": 0.7031023502349854,
                "x": -0.7110244035720825,
                "y": 0.007748599164187908,
                "z": 0.005598929710686207
            },
            "position": {
                "x": 0.11585023208521307,
                "y": 0.44412534475326537,
                "z": 0.3711530566215515
            }
        },
        "name": "move_to_auspresseinheit_A"
    },
    "id": "LazyPRMstar_move_to_auspresseinheit_A_69",
    "joint_names": [
        "shoulder_pan_joint",
        "shoulder_lift_joint",
        "elbow_joint",
        "wrist_1_joint",
        "wrist_2_joint",
        "wrist_3_joint"
    ],
    "metrics": {
        "cart_traj_len": 0.6687468970850192,
        "distance_elbow_joint": 0.24986124966488799,
        "distance_shoulder_lift_joint": 0.9559506859952882,
        "distance_shoulder_pan_joint": 1.0433471845875206,
        "distance_wrist_1_joint": 0.7586038273428886,
        "distance_wrist_2_joint": 0.5286988513598269,
        "distance_wrist_3_joint": 0.4913992764213422,
        "smoothness": 1.012514680294071,
        "time": 5.0061916129999995,
        "traj_len": 2.0069531821574103,
        "weighted_distance": 2.509574128595757
    },
    "planner": "LazyPRMstar",
    "start": {
        "state": {
            "elbow_joint": 2.4225746658250005,
            "shoulder_lift_joint": -1.3736534386056498,
            "shoulder_pan_joint": -0.3378633547517467,
            "wrist_1_joint": -1.0288598680537169,
            "wrist_2_joint": 1.233022673432363,
            "wrist_3_joint": -3.0940220416140027
        }
    },
    "waypoints": [
        {
            "positions": [
                -0.3378633547517467,
                -1.3736534386056498,
                2.4225746658250005,
                -1.0288598680537169,
                1.233022673432363,
                -3.0940220416140027
            ]
        },
        {
            "positions": [
                -0.2410751111691205,
                -1.4802501793985035,
                2.438417035345617,
                -0.9346896635308913,
                1.2338136345083595,
                -3.131965210799504
            ]
        },
        {
            "positions": [
                -0.14428686758649428,
                -1.5868469201913573,
                2.4542594048662334,
                -0.8405194590080658,
                1.2346045955843559,
                -3.1699083799850056
            ]
        },
        {
            "positions": [
                -0.04749862400386806,
                -1.693443660984211,
                2.47010177438685,
                -0.7463492544852401,
                1.2353955566603523,
                -3.207851549170507
            ]
        },
        {
            "positions": [
                0.04928961957875816,
                -1.8000404017770646,
                2.4859441439074663,
                -0.6521790499624146,
                1.2361865177363487,
                -3.245794718356008
            ]
        },
        {
            "positions": [
                0.14607786316138444,
                -1.9066371425699185,
                2.501786513428083,
                -0.5580088454395891,
                1.236977478812345,
                -3.2837378875415095
            ]
        },
        {
            "positions": [
                0.2428661067440106,
                -2.013233883362772,
                2.5176288829486992,
                -0.4638386409167635,
                1.2377684398883415,
                -3.321681056727011
            ]
        },
        {
            "positions": [
                0.33965435032663693,
                -2.1198306241556257,
                2.5334712524693157,
                -0.36966843639393787,
                1.238559400964338,
                -3.3596242259125124
            ]
        },
        {
            "positions": [
                0.43111172020392113,
                -2.0673872490442977,
                2.4987300867141724,
                -0.39452153531471523,
                1.107768870007375,
                -3.3031749528818044
            ]
        },
        {
            "positions": [
                0.5225690900812053,
                -2.0149438739329697,
                2.4639889209590295,
                -0.41937463423549265,
                0.9769783390504119,
                -3.246725679851096
            ]
        },
        {
            "positions": [
                0.6140264599584895,
                -1.9625004988216415,
                2.4292477552038862,
                -0.44422773315627007,
                0.846187808093449,
                -3.190276406820388
            ]
        },
        {
            "positions": [
                0.7054838298357737,
                -1.9100571237103134,
                2.394506589448743,
                -0.4690808320770474,
                0.7153972771364859,
                -3.13382713378968
            ]
        }
    ]
}