{
    "goal": {
        "global_pose": {
            "orientation": {
                "w": -0.00223480608172531,
                "x": 0.0024358444001904467,
                "y": 0.7094548369677653,
                "z": -0.704743149386269
            },
            "position": {
                "x": -0.37947507619857795,
                "y": -0.6371506643295288,
                "z": 0.19426114857196808
            }
        },
        "name": "move_to_magneteinheit_C"
    },
    "id": "LazyPRMstar_move_to_magneteinheit_C_3",
    "joint_names": [
        "shoulder_pan_joint",
        "shoulder_lift_joint",
        "elbow_joint",
        "wrist_1_joint",
        "wrist_2_joint",
        "wrist_3_joint"
    ],
    "metrics": {
        "cart_traj_len": 6.080411564914526,
        "distance_elbow_joint": 1.2929554983755374,
        "distance_shoulder_lift_joint": 3.5393198165644417,
        "distance_shoulder_pan_joint": 7.501373389836512,
        "distance_wrist_1_joint": 3.7763203550864786,
        "distance_wrist_2_joint": 6.053048893071419,
        "distance_wrist_3_joint": 2.3641133132459147,
        "smoothness": 0.8095388119293303,
        "time": 5.0259888649999995,
        "traj_len": 4.952487381728531,
        "weighted_distance": 6.2517779183869
    },
    "planner": "LazyPRMstar",
    "start": {
        "state": {
            "elbow_joint": 1.9565354010623817,
            "shoulder_lift_joint": -1.4165861575791021,
            "shoulder_pan_joint": -1.6717766225146293,
            "wrist_1_joint": -0.5286633292919765,
            "wrist_2_joint": 1.472756589071564,
            "wrist_3_joint": -3.1238370188695823
        }
    },
    "waypoints": [
        {
            "positions": [
                -1.6717766225146293,
                -1.4165861575791021,
                1.9565354010623817,
                -0.5286633292919765,
                1.472756589071564,
                -3.1238370188695823
            ]
        },
        {
            "positions": [
                -1.5635668516458245,
                -1.473273234788677,
                1.9403243716126153,
                -0.5953942151281341,
                1.3566407085893288,
                -3.094032795028226
            ]
        },
        {
            "positions": [
                -1.4553570807770198,
                -1.529960311998252,
                1.9241133421628487,
                -0.6621251009642917,
                1.2405248281070935,
                -3.0642285711868693
            ]
        },
        {
            "positions": [
                -1.347147309908215,
                -1.586647389207827,
                1.9079023127130823,
                -0.7288559868004494,
                1.1244089476248584,
                -3.034424347345513
            ]
        },
        {
            "positions": [
                -1.2389375390394102,
                -1.643334466417402,
                1.8916912832633157,
                -0.7955868726366069,
                1.0082930671426233,
                -3.0046201235041563
            ]
        },
        {
            "positions": [
                -1.1307277681706054,
                -1.700021543626977,
                1.8754802538135493,
                -0.8623177584727646,
                0.8921771866603881,
                -2.9748158996628
            ]
        },
        {
            "positions": [
                -1.0225179973018006,
                -1.756708620836552,
                1.8592692243637827,
                -0.9290486443089222,
                0.7760613061781529,
                -2.9450116758214433
            ]
        },
        {
            "positions": [
                -0.9143082264329958,
                -1.813395698046127,
                1.8430581949140163,
                -0.9957795301450798,
                0.6599454256959177,
                -2.915207451980087
            ]
        },
        {
            "positions": [
                -0.806098455564191,
                -1.8700827752557019,
                1.8268471654642497,
                -1.0625104159812375,
                0.5438295452136827,
                -2.88540322813873
            ]
        },
        {
            "positions": [
                -0.6978886846953862,
                -1.926769852465277,
                1.8106361360144834,
                -1.129241301817395,
                0.42771366473144745,
                -2.8555990042973733
            ]
        },
        {
            "positions": [
                -0.5896789138265814,
                -1.983456929674852,
                1.7944251065647168,
                -1.1959721876535527,
                0.31159778424921236,
                -2.825794780456017
            ]
        },
        {
            "positions": [
                -0.48146914295777665,
                -2.040144006884427,
                1.7782140771149504,
                -1.2627030734897104,
                0.19548190376697727,
                -2.7959905566146603
            ]
        },
        {
            "positions": [
                -0.37325937208897186,
                -2.096831084094002,
                1.7620030476651838,
                -1.329433959325868,
                0.07936602328474196,
                -2.766186332773304
            ]
        },
        {
            "positions": [
                -0.2650496012201671,
                -2.1535181613035768,
                1.7457920182154174,
                -1.3961648451620254,
                -0.03674985719749313,
                -2.7363821089319473
            ]
        },
        {
            "positions": [
                -0.15683983035136229,
                -2.210205238513152,
                1.7295809887656508,
                -1.4628957309981834,
                -0.15286573767972844,
                -2.706577885090591
            ]
        },
        {
            "positions": [
                -0.0486300594825575,
                -2.266892315722727,
                1.7133699593158844,
                -1.5296266168343409,
                -0.26898161816196353,
                -2.6767736612492343
            ]
        },
        {
            "positions": [
                0.05957971138624729,
                -2.323579392932302,
                1.6971589298661178,
                -1.5963575026704984,
                -0.3850974986441986,
                -2.646969437407878
            ]
        },
        {
            "positions": [
                0.16778948225505186,
                -2.3802664701418768,
                1.6809479004163514,
                -1.663088388506656,
                -0.5012133791264337,
                -2.6171652135665213
            ]
        },
        {
            "positions": [
                0.27599925312385687,
                -2.436953547351452,
                1.6647368709665848,
                -1.7298192743428138,
                -0.617329259608669,
                -2.587360989725165
            ]
        },
        {
            "positions": [
                0.38420902399266166,
                -2.493640624561027,
                1.6485258415168185,
                -1.7965501601789713,
                -0.7334451400909039,
                -2.5575567658838083
            ]
        },
        {
            "positions": [
                0.49241879486146645,
                -2.550327701770602,
                1.6323148120670519,
                -1.863281046015129,
                -0.8495610205731392,
                -2.5277525420424514
            ]
        },
        {
            "positions": [
                0.6006285657302712,
                -2.6070147789801768,
                1.6161037826172855,
                -1.9300119318512865,
                -0.9656769010553745,
                -2.497948318201095
            ]
        },
        {
            "positions": [
                0.708838336599076,
                -2.6637018561897516,
                1.599892753167519,
                -1.9967428176874442,
                -1.0817927815376094,
                -2.4681440943597384
            ]
        },
        {
            "positions": [
                0.8170481074678808,
                -2.720388933399327,
                1.5836817237177525,
                -2.063473703523602,
                -1.1979086620198447,
                -2.438339870518382
            ]
        },
        {
            "positions": [
                0.9252578783366856,
                -2.777076010608902,
                1.567470694267986,
                -2.130204589359759,
                -1.31402454250208,
                -2.4085356466770254
            ]
        },
        {
            "positions": [
                1.0334676492054904,
                -2.8337630878184767,
                1.5512596648182195,
                -2.196935475195917,
                -1.4301404229843149,
                -2.378731422835669
            ]
        },
        {
            "positions": [
                1.1416774200742952,
                -2.890450165028052,
                1.5350486353684532,
                -2.2636663610320746,
                -1.5462563034665502,
                -2.3489271989943123
            ]
        },
        {
            "positions": [
                1.2498871909431,
                -2.947137242237627,
                1.5188376059186866,
                -2.330397246868232,
                -1.662372183948785,
                -2.319122975152956
            ]
        },
        {
            "positions": [
                1.3580969618119048,
                -3.003824319447202,
                1.50262657646892,
                -2.39712813270439,
                -1.7784880644310208,
                -2.2893187513115993
            ]
        },
        {
            "positions": [
                1.4663067326807093,
                -3.0605113966567767,
                1.4864155470191536,
                -2.4638590185405476,
                -1.8946039449132557,
                -2.259514527470243
            ]
        },
        {
            "positions": [
                1.3323988209543907,
                -3.007179870728955,
                1.5082313740158848,
                -2.4081909038554103,
                -1.8097675015102284,
                -2.2978080828869385
            ]
        },
        {
            "positions": [
                1.198490909228072,
                -2.9538483448011332,
                1.530047201012616,
                -2.352522789170273,
                -1.724931058107201,
                -2.336101638303634
            ]
        },
        {
            "positions": [
                1.0645829975017536,
                -2.900516818873312,
                1.5518630280093475,
                -2.296854674485136,
                -1.6400946147041737,
                -2.3743951937203294
            ]
        },
        {
            "positions": [
                0.9306750857754349,
                -2.84718529294549,
                1.5736788550060787,
                -2.2411865597999987,
                -1.5552581713011464,
                -2.412688749137025
            ]
        },
        {
            "positions": [
                0.7967671740491162,
                -2.7938537670176684,
                1.59549468200281,
                -2.1855184451148615,
                -1.470421727898119,
                -2.4509823045537207
            ]
        },
        {
            "positions": [
                0.6628592623227977,
                -2.7405222410898467,
                1.6173105089995414,
                -2.1298503304297243,
                -1.3855852844950918,
                -2.4892758599704163
            ]
        },
        {
            "positions": [
                0.528951350596479,
                -2.6871907151620253,
                1.6391263359962727,
                -2.074182215744587,
                -1.3007488410920645,
                -2.527569415387112
            ]
        },
        {
            "positions": [
                0.39504343887016047,
                -2.6338591892342036,
                1.660942162993004,
                -2.01851410105945,
                -1.2159123976890371,
                -2.5658629708038077
            ]
        },
        {
            "positions": [
                0.2611355271438416,
                -2.580527663306382,
                1.6827579899897351,
                -1.9628459863743126,
                -1.1310759542860098,
                -2.6041565262205033
            ]
        },
        {
            "positions": [
                0.12722761541752314,
                -2.52719613737856,
                1.7045738169864664,
                -1.9071778716891754,
                -1.0462395108829825,
                -2.6424500816371985
            ]
        },
        {
            "positions": [
                -0.006680296308795519,
                -2.4738646114507388,
                1.7263896439831978,
                -1.851509757004038,
                -0.9614030674799552,
                -2.680743637053894
            ]
        },
        {
            "positions": [
                -0.14058820803511396,
                -2.420533085522917,
                1.748205470979929,
                -1.795841642318901,
                -0.8765666240769279,
                -2.71903719247059
            ]
        },
        {
            "positions": [
                -0.27449611976143284,
                -2.3672015595950953,
                1.7700212979766605,
                -1.7401735276337635,
                -0.7917301806739006,
                -2.7573307478872855
            ]
        },
        {
            "positions": [
                -0.4084040314877513,
                -2.3138700336672735,
                1.7918371249733918,
                -1.6845054129486263,
                -0.7068937372708732,
                -2.795624303303981
            ]
        },
        {
            "positions": [
                -0.5423119432140702,
                -2.2605385077394518,
                1.813652951970123,
                -1.628837298263489,
                -0.6220572938678459,
                -2.8339178587206764
            ]
        },
        {
            "positions": [
                -0.6762198549403884,
                -2.2072069818116304,
                1.8354687789668542,
                -1.573169183578352,
                -0.5372208504648186,
                -2.8722114141373725
            ]
        },
        {
            "positions": [
                -0.810127766666707,
                -2.1538754558838087,
                1.8572846059635855,
                -1.5175010688932147,
                -0.4523844070617915,
                -2.9105049695540677
            ]
        },
        {
            "positions": [
                -0.9440356783930262,
                -2.100543929955987,
                1.879100432960317,
                -1.4618329542080775,
                -0.36754796365876397,
                -2.9487985249707633
            ]
        },
        {
            "positions": [
                -1.0779435901193444,
                -2.0472124040281656,
                1.9009162599570482,
                -1.4061648395229402,
                -0.28271152025573665,
                -2.987092080387459
            ]
        },
        {
            "positions": [
                -1.211851501845663,
                -1.9938808781003436,
                1.9227320869537794,
                -1.350496724837803,
                -0.19787507685270933,
                -3.0253856358041546
            ]
        },
        {
            "positions": [
                -1.3457594135719817,
                -1.9405493521725221,
                1.9445479139505106,
                -1.2948286101526658,
                -0.11303863344968224,
                -3.0636791912208503
            ]
        },
        {
            "positions": [
                -1.4796673252983004,
                -1.8872178262447004,
                1.966363740947242,
                -1.2391604954675284,
                -0.028202190046654696,
                -3.1019727466375455
            ]
        },
        {
            "positions": [
                -1.613575237024619,
                -1.8338863003168786,
                1.9881795679439733,
                -1.1834923807823912,
                0.05663425335637262,
                -3.140266302054241
            ]
        },
        {
            "positions": [
                -1.7474831487509372,
                -1.780554774389057,
                2.0099953949407046,
                -1.1278242660972542,
                0.14147069675939994,
                -3.178559857470937
            ]
        },
        {
            "positions": [
                -1.881391060477256,
                -1.7272232484612355,
                2.031811221937436,
                -1.072156151412117,
                0.22630714016242726,
                -3.2168534128876325
            ]
        },
        {
            "positions": [
                -2.015298972203575,
                -1.6738917225334138,
                2.0536270489341675,
                -1.0164880367269795,
                0.3111435835654546,
                -3.255146968304328
            ]
        },
        {
            "positions": [
                -2.1492068839298932,
                -1.620560196605592,
                2.0754428759308983,
                -0.9608199220418423,
                0.3959800269684819,
                -3.2934405237210234
            ]
        },
        {
            "positions": [
                -2.283114795656212,
                -1.5672286706777705,
                2.09725870292763,
                -0.9051518073567051,
                0.4808164703715092,
                -3.3317340791377195
            ]
        },
        {
            "positions": [
                -2.4170227073825306,
                -1.5138971447499487,
                2.119074529924361,
                -0.8494836926715681,
                0.5656529137745365,
                -3.3700276345544147
            ]
        },
        {
            "positions": [
                -2.5509306191088497,
                -1.460565618822127,
                2.1408903569210924,
                -0.7938155779864307,
                0.6504893571775638,
                -3.4083211899711103
            ]
        },
        {
            "positions": [
                -2.6848385308351683,
                -1.4072340928943055,
                2.1627061839178237,
                -0.7381474633012933,
                0.7353258005805912,
                -3.446614745387806
            ]
        },
        {
            "positions": [
                -2.614123607126736,
                -1.3265283349862063,
                2.1138578481066106,
                -0.7766185001675107,
                0.7167395960496736,
                -3.3423845440781355
            ]
        },
        {
            "positions": [
                -2.5434086834183036,
                -1.245822577078107,
                2.0650095122953975,
                -0.8150895370337281,
                0.698153391518756,
                -3.2381543427684645
            ]
        },
        {
            "positions": [
                -2.4726937597098715,
                -1.1651168191700079,
                2.0161611764841845,
                -0.8535605738999454,
                0.6795671869878385,
                -3.133924141458794
            ]
        }
    ]
}