{
    "goal": {
        "global_pose": {
            "orientation": {
                "w": 0.005598929693374612,
                "x": 0.007748599140229565,
                "y": 0.7110244013736278,
                "z": -0.7031023480610252
            },
            "position": {
                "x": -0.8858502320852131,
                "y": -0.7141253447532654,
                "z": 0.3711530566215515
            }
        },
        "name": "move_to_auspresseinheit_C"
    },
    "id": "LazyPRM_move_to_auspresseinheit_C_106",
    "joint_names": [
        "shoulder_pan_joint",
        "shoulder_lift_joint",
        "elbow_joint",
        "wrist_1_joint",
        "wrist_2_joint",
        "wrist_3_joint"
    ],
    "metrics": {
        "cart_traj_len": 0.49251052693223435,
        "distance_elbow_joint": 0.9917504069172155,
        "distance_shoulder_lift_joint": 0.32072155496602417,
        "distance_shoulder_pan_joint": 0.2566326270014758,
        "distance_wrist_1_joint": 0.6670464823595281,
        "distance_wrist_2_joint": 1.3025636424565332,
        "distance_wrist_3_joint": 0.05488005560643616,
        "smoothness": 1.6148698667872622e-16,
        "time": 0.012612423999999999,
        "traj_len": 1.8956779181356767,
        "weighted_distance": 2.3817986911861686
    },
    "planner": "LazyPRM",
    "start": {
        "state": {
            "elbow_joint": 1.7527959577737207,
            "shoulder_lift_joint": -0.9740617694225068,
            "shoulder_pan_joint": -2.967991417825858,
            "wrist_1_joint": -0.759517768980727,
            "wrist_2_joint": 1.7443932448377408,
            "wrist_3_joint": -3.0840537646736568
        }
    },
    "waypoints": [
        {
            "positions": [
                -2.967991417825858,
                -0.9740617694225068,
                1.7527959577737207,
                -0.759517768980727,
                1.7443932448377408,
                -3.0840537646736568
            ]
        },
        {
            "positions": [
                -2.9423281551257103,
                -0.9419896139259043,
                1.653620917081999,
                -0.6928131207447742,
                1.6141368805920875,
                -3.0895417702343004
            ]
        },
        {
            "positions": [
                -2.9166648924255627,
                -0.9099174584293019,
                1.5544458763902775,
                -0.6261084725088213,
                1.4838805163464341,
                -3.095029775794944
            ]
        },
        {
            "positions": [
                -2.891001629725415,
                -0.8778453029326996,
                1.455270835698556,
                -0.5594038242728685,
                1.3536241521007808,
                -3.1005177813555878
            ]
        },
        {
            "positions": [
                -2.8653383670252675,
                -0.8457731474360971,
                1.3560957950068344,
                -0.4926991760369157,
                1.2233677878551275,
                -3.1060057869162314
            ]
        },
        {
            "positions": [
                -2.83967510432512,
                -0.8137009919394946,
                1.2569207543151129,
                -0.4259945278009629,
                1.093111423609474,
                -3.1114937924768746
            ]
        },
        {
            "positions": [
                -2.8140118416249726,
                -0.7816288364428923,
                1.1577457136233913,
                -0.35928987956501013,
                0.9628550593638209,
                -3.1169817980375183
            ]
        },
        {
            "positions": [
                -2.788348578924825,
                -0.7495566809462899,
                1.05857067293167,
                -0.29258523132905734,
                0.8325986951181676,
                -3.122469803598162
            ]
        },
        {
            "positions": [
                -2.7626853162246774,
                -0.7174845254496874,
                0.9593956322399482,
                -0.22588058309310444,
                0.7023423308725143,
                -3.1279578091588056
            ]
        },
        {
            "positions": [
                -2.7370220535245298,
                -0.685412369953085,
                0.8602205915482267,
                -0.15917593485715165,
                0.572085966626861,
                -3.1334458147194493
            ]
        },
        {
            "positions": [
                -2.711358790824382,
                -0.6533402144564826,
                0.7610455508565052,
                -0.09247128662119891,
                0.4418296023812076,
                -3.138933820280093
            ]
        }
    ]
}