{
    "goal": {
        "global_pose": {
            "orientation": {
                "w": -0.4816463035849501,
                "x": 0.5182115481033762,
                "y": 0.4908360881923453,
                "z": -0.5084816262002911
            },
            "position": {
                "x": -0.8240239810943604,
                "y": 0.19912469901144506,
                "z": 0.16403168439865112
            }
        },
        "name": "move_to_storage_D"
    },
    "id": "LazyPRMstar_move_to_storage_D_79",
    "joint_names": [
        "shoulder_pan_joint",
        "shoulder_lift_joint",
        "elbow_joint",
        "wrist_1_joint",
        "wrist_2_joint",
        "wrist_3_joint"
    ],
    "metrics": {
        "cart_traj_len": 0.6733879860406311,
        "distance_elbow_joint": 0.8369813822608629,
        "distance_shoulder_lift_joint": 0.42829327921687055,
        "distance_shoulder_pan_joint": 0.1501077116389689,
        "distance_wrist_1_joint": 3.832825165707878,
        "distance_wrist_2_joint": 1.7903941373040333,
        "distance_wrist_3_joint": 3.120772763229886,
        "smoothness": 0.07457396984875184,
        "time": 5.037728777,
        "traj_len": 3.1873773606773486,
        "weighted_distance": 4.692988309044695
    },
    "planner": "LazyPRMstar",
    "start": {
        "state": {
            "elbow_joint": -2.384821988534728,
            "shoulder_lift_joint": -2.2788054721415256,
            "shoulder_pan_joint": -0.1854694642142757,
            "wrist_1_joint": 1.4845938289331202,
            "wrist_2_joint": 0.17898776772866878,
            "wrist_3_joint": 0.037105688729662994
        }
    },
    "waypoints": [
        {
            "positions": [
                -0.1854694642142757,
                -2.2788054721415256,
                -2.384821988534728,
                1.4845938289331202,
                0.17898776772866878,
                0.037105688729662994
            ]
        },
        {
            "positions": [
                -0.1760296755098581,
                -2.264283955814565,
                -2.402024853128667,
                1.4120865495206303,
                0.10132318699244428,
                -0.009812907524348116
            ]
        },
        {
            "positions": [
                -0.1665898868054405,
                -2.249762439487604,
                -2.419227717722607,
                1.3395792701081402,
                0.02365860625621978,
                -0.05673150377835923
            ]
        },
        {
            "positions": [
                -0.15584316364047263,
                -2.206237883603972,
                -2.436845024942113,
                1.2403024664161144,
                -0.06708175414805485,
                -0.1770827691953058
            ]
        },
        {
            "positions": [
                -0.1450964404755047,
                -2.1627133277203394,
                -2.4544623321616195,
                1.1410256627240885,
                -0.15782211455232947,
                -0.2974340346122524
            ]
        },
        {
            "positions": [
                -0.1343497173105368,
                -2.1191887718367073,
                -2.4720796393811257,
                1.0417488590320625,
                -0.2485624749566041,
                -0.41778530002919895
            ]
        },
        {
            "positions": [
                -0.12360299414556891,
                -2.0756642159530747,
                -2.489696946600632,
                0.9424720553400368,
                -0.33930283536087874,
                -0.5381365654461455
            ]
        },
        {
            "positions": [
                -0.11285627098060101,
                -2.0321396600694426,
                -2.5073142538201383,
                0.8431952516480109,
                -0.4300431957651534,
                -0.6584878308630921
            ]
        },
        {
            "positions": [
                -0.10210954781563311,
                -1.9886151041858102,
                -2.5249315610396446,
                0.743918447955985,
                -0.5207835561694281,
                -0.7788390962800387
            ]
        },
        {
            "positions": [
                -0.0985965059608791,
                -1.9958836784627132,
                -2.488254097368279,
                0.5811737224438407,
                -0.5781847568750037,
                -0.9001458319758379
            ]
        },
        {
            "positions": [
                -0.09508346410612507,
                -2.003152252739616,
                -2.4515766336969134,
                0.41842899693169644,
                -0.6355859575805792,
                -1.021452567671637
            ]
        },
        {
            "positions": [
                -0.09157042225137105,
                -2.010420827016519,
                -2.4148991700255475,
                0.2556842714195521,
                -0.6929871582861549,
                -1.1427593033674364
            ]
        },
        {
            "positions": [
                -0.08805738039661704,
                -2.017689401293422,
                -2.378221706354182,
                0.09293954590740783,
                -0.7503883589917304,
                -1.2640660390632354
            ]
        },
        {
            "positions": [
                -0.08454433854186302,
                -2.0249579755703246,
                -2.341544242682817,
                -0.06980517960473653,
                -0.807789559697306,
                -1.3853727747590345
            ]
        },
        {
            "positions": [
                -0.081031296687109,
                -2.032226549847228,
                -2.304866779011451,
                -0.2325499051168809,
                -0.8651907604028817,
                -1.5066795104548338
            ]
        },
        {
            "positions": [
                -0.07751825483235497,
                -2.0394951241241306,
                -2.268189315340085,
                -0.39529463062902526,
                -0.9225919611084572,
                -1.6279862461506331
            ]
        },
        {
            "positions": [
                -0.07400521297760096,
                -2.0467636984010333,
                -2.23151185166872,
                -0.5580393561411694,
                -0.9799931618140328,
                -1.7492929818464322
            ]
        },
        {
            "positions": [
                -0.07049217112284695,
                -2.0540322726779365,
                -2.1948343879973544,
                -0.7207840816533138,
                -1.0373943625196085,
                -1.8705997175422313
            ]
        },
        {
            "positions": [
                -0.06697912926809292,
                -2.0613008469548393,
                -2.1581569243259886,
                -0.8835288071654581,
                -1.094795563225184,
                -1.9919064532380306
            ]
        },
        {
            "positions": [
                -0.0634660874133389,
                -2.068569421231742,
                -2.121479460654623,
                -1.0462735326776027,
                -1.1521967639307595,
                -2.11321318893383
            ]
        },
        {
            "positions": [
                -0.05995304555858488,
                -2.0758379955086452,
                -2.0848019969832574,
                -1.2090182581897468,
                -1.2095979646363353,
                -2.234519924629629
            ]
        },
        {
            "positions": [
                -0.05644000370383086,
                -2.083106569785548,
                -2.048124533311892,
                -1.3717629837018914,
                -1.2669991653419108,
                -2.3558266603254285
            ]
        },
        {
            "positions": [
                -0.052926961849076845,
                -2.0903751440624507,
                -2.011447069640526,
                -1.5345077092140356,
                -1.3244003660474863,
                -2.4771333960212276
            ]
        },
        {
            "positions": [
                -0.04941391999432282,
                -2.097643718339354,
                -1.9747696059691606,
                -1.6972524347261797,
                -1.381801566753062,
                -2.5984401317170267
            ]
        },
        {
            "positions": [
                -0.04590087813956881,
                -2.1049122926162567,
                -1.938092142297795,
                -1.8599971602383238,
                -1.4392027674586376,
                -2.719746867412826
            ]
        },
        {
            "positions": [
                -0.04238783628481478,
                -2.1121808668931594,
                -1.9014146786264294,
                -2.0227418857504684,
                -1.4966039681642131,
                -2.8410536031086253
            ]
        },
        {
            "positions": [
                -0.03887479443006077,
                -2.1194494411700626,
                -1.8647372149550638,
                -2.1854866112626126,
                -1.5540051688697887,
                -2.962360338804424
            ]
        },
        {
            "positions": [
                -0.03536175257530675,
                -2.1267180154469654,
                -1.8280597512836982,
                -2.348231336774757,
                -1.6114063695753644,
                -3.0836670745002235
            ]
        }
    ]
}