{
    "goal": {
        "global_pose": {
            "orientation": {
                "w": 0.5084816262002911,
                "x": -0.4908360881923452,
                "y": 0.5182115481033761,
                "z": -0.48164630358495003
            },
            "position": {
                "x": 0.5540239810943604,
                "y": -0.46912469901144505,
                "z": 0.16403168439865112
            }
        },
        "name": "move_to_storage_B"
    },
    "id": "LazyPRM_move_to_storage_B_18",
    "joint_names": [
        "shoulder_pan_joint",
        "shoulder_lift_joint",
        "elbow_joint",
        "wrist_1_joint",
        "wrist_2_joint",
        "wrist_3_joint"
    ],
    "metrics": {
        "cart_traj_len": 0.8333948497654553,
        "distance_elbow_joint": 0.3618192782150005,
        "distance_shoulder_lift_joint": 0.6507176287304965,
        "distance_shoulder_pan_joint": 0.18153873140813015,
        "distance_wrist_1_joint": 3.0297893206203472,
        "distance_wrist_2_joint": 2.8786809297386844,
        "distance_wrist_3_joint": 3.1043734943738386,
        "smoothness": 0.19363799738636428,
        "time": 0.132403968,
        "traj_len": 3.1948269723236185,
        "weighted_distance": 4.724842497077888
    },
    "planner": "LazyPRM",
    "start": {
        "state": {
            "elbow_joint": 1.664937868594044,
            "shoulder_lift_joint": -0.661644460510453,
            "shoulder_pan_joint": -0.9139846352900073,
            "wrist_1_joint": 2.146753192139373,
            "wrist_2_joint": -2.2341966793290973,
            "wrist_3_joint": 0.005466555786416001
        }
    },
    "waypoints": [
        {
            "positions": [
                -0.9139846352900073,
                -0.661644460510453,
                1.664937868594044,
                2.146753192139373,
                -2.2341966793290973,
                0.005466555786416001
            ]
        },
        {
            "positions": [
                -0.9316353761447471,
                -0.7647616154499522,
                1.685858495459174,
                2.065215418726348,
                -2.1269296551493833,
                -0.02894762430588972
            ]
        },
        {
            "positions": [
                -0.9492861169994868,
                -0.8678787703894515,
                1.706779122324304,
                1.9836776453133225,
                -2.0196626309696692,
                -0.06336180439819544
            ]
        },
        {
            "positions": [
                -0.9544179584087987,
                -0.8830949540485759,
                1.7174672513509224,
                1.8632222947879613,
                -1.907376851667767,
                -0.18512321696621836
            ]
        },
        {
            "positions": [
                -0.9595497998181107,
                -0.8983111377077003,
                1.728155380377541,
                1.7427669442626001,
                -1.7950910723658644,
                -0.3068846295342412
            ]
        },
        {
            "positions": [
                -0.9646816412274226,
                -0.9135273213668247,
                1.7388435094041592,
                1.6223115937372388,
                -1.682805293063962,
                -0.42864604210226415
            ]
        },
        {
            "positions": [
                -0.9698134826367345,
                -0.9287435050259492,
                1.7495316384307775,
                1.5018562432118776,
                -1.5705195137620596,
                -0.5504074546702871
            ]
        },
        {
            "positions": [
                -0.9749453240460464,
                -0.9439596886850735,
                1.7602197674573958,
                1.3814008926865164,
                -1.4582337344601572,
                -0.6721688672383099
            ]
        },
        {
            "positions": [
                -0.9800771654553584,
                -0.9591758723441979,
                1.7709078964840144,
                1.2609455421611553,
                -1.345947955158255,
                -0.7939302798063328
            ]
        },
        {
            "positions": [
                -0.9852090068646703,
                -0.9743920560033223,
                1.7815960255106327,
                1.140490191635794,
                -1.2336621758563524,
                -0.9156916923743559
            ]
        },
        {
            "positions": [
                -0.9903408482739822,
                -0.9896082396624467,
                1.792284154537251,
                1.0200348411104327,
                -1.12137639655445,
                -1.0374531049423787
            ]
        },
        {
            "positions": [
                -0.9954726896832942,
                -1.004824423321571,
                1.8029722835638693,
                0.8995794905850716,
                -1.0090906172525476,
                -1.1592145175104016
            ]
        },
        {
            "positions": [
                -1.000604531092606,
                -1.0200406069806955,
                1.8136604125904878,
                0.7791241400597104,
                -0.8968048379506453,
                -1.2809759300784245
            ]
        },
        {
            "positions": [
                -1.005736372501918,
                -1.03525679063982,
                1.8243485416171061,
                0.658668789534349,
                -0.7845190586487429,
                -1.4027373426464476
            ]
        },
        {
            "positions": [
                -1.01086821391123,
                -1.0504729742989443,
                1.8350366706437244,
                0.5382134390089881,
                -0.6722332793468404,
                -1.5244987552144702
            ]
        },
        {
            "positions": [
                -1.0160000553205417,
                -1.0656891579580687,
                1.8457247996703428,
                0.41775808848362694,
                -0.5599475000449381,
                -1.646260167782493
            ]
        },
        {
            "positions": [
                -1.0211318967298537,
                -1.0809053416171932,
                1.8564129286969613,
                0.29730273795826534,
                -0.44766172074303556,
                -1.7680215803505164
            ]
        },
        {
            "positions": [
                -1.0262637381391657,
                -1.0961215252763177,
                1.8671010577235796,
                0.1768473874329044,
                -0.33537594144113325,
                -1.889782992918539
            ]
        },
        {
            "positions": [
                -1.0313955795484775,
                -1.111337708935442,
                1.877789186750198,
                0.05639203690754324,
                -0.22309016213923094,
                -2.011544405486562
            ]
        },
        {
            "positions": [
                -1.0365274209577895,
                -1.1265538925945664,
                1.8884773157768162,
                -0.06406331361781792,
                -0.11080438283732863,
                -2.133305818054585
            ]
        },
        {
            "positions": [
                -1.0416592623671015,
                -1.1417700762536906,
                1.8991654448034347,
                -0.1845186641431793,
                0.001481396464574125,
                -2.255067230622608
            ]
        },
        {
            "positions": [
                -1.0467911037764133,
                -1.1569862599128151,
                1.909853573830053,
                -0.3049740146685407,
                0.11376717576647621,
                -2.376828643190631
            ]
        },
        {
            "positions": [
                -1.0519229451857253,
                -1.1722024435719396,
                1.9205417028566714,
                -0.4254293651939016,
                0.22605295506837875,
                -2.498590055758654
            ]
        },
        {
            "positions": [
                -1.0570547865950373,
                -1.187418627231064,
                1.9312298318832897,
                -0.5458847157192626,
                0.33833873437028084,
                -2.6203514683266764
            ]
        },
        {
            "positions": [
                -1.062186628004349,
                -1.2026348108901883,
                1.9419179609099082,
                -0.6663400662446244,
                0.45062451367218337,
                -2.7421128808947
            ]
        },
        {
            "positions": [
                -1.067318469413661,
                -1.2178509945493128,
                1.9526060899365265,
                -0.7867954167699853,
                0.5629102929740861,
                -2.8638742934627226
            ]
        },
        {
            "positions": [
                -1.0814209180558993,
                -1.1705954472034943,
                1.9896816183727855,
                -0.8349157726254797,
                0.522123314256336,
                -2.981390616025073
            ]
        },
        {
            "positions": [
                -1.0955233666981374,
                -1.123339899857676,
                2.0267571468090444,
                -0.8830361284809741,
                0.4813363355385857,
                -3.098906938587423
            ]
        }
    ]
}