{
    "goal": {
        "global_pose": {
            "orientation": {
                "w": -0.4816463035849501,
                "x": 0.5182115481033762,
                "y": 0.4908360881923453,
                "z": -0.5084816262002911
            },
            "position": {
                "x": -0.8240239810943604,
                "y": 0.19912469901144506,
                "z": 0.16403168439865112
            }
        },
        "name": "move_to_storage_D"
    },
    "id": "LazyPRMstar_move_to_storage_D_55",
    "joint_names": [
        "shoulder_pan_joint",
        "shoulder_lift_joint",
        "elbow_joint",
        "wrist_1_joint",
        "wrist_2_joint",
        "wrist_3_joint"
    ],
    "metrics": {
        "cart_traj_len": 3.979099815099321,
        "distance_elbow_joint": 4.210825221286411,
        "distance_shoulder_lift_joint": 1.2650521673779629,
        "distance_shoulder_pan_joint": 2.8148021535594054,
        "distance_wrist_1_joint": 2.2752273114995343,
        "distance_wrist_2_joint": 1.266094557729881,
        "distance_wrist_3_joint": 3.1366137427138128,
        "smoothness": 0.016390212113705456,
        "time": 5.054170393,
        "traj_len": 3.8689294584118494,
        "weighted_distance": 4.978269228238268
    },
    "planner": "LazyPRMstar",
    "start": {
        "state": {
            "elbow_joint": -2.384821988534728,
            "shoulder_lift_joint": -2.2788054721415256,
            "shoulder_pan_joint": -0.1854694642142757,
            "wrist_1_joint": 1.4845938289331202,
            "wrist_2_joint": 0.17898776772866878,
            "wrist_3_joint": 0.037105688729662994
        }
    },
    "waypoints": [
        {
            "positions": [
                -0.1854694642142757,
                -2.2788054721415256,
                -2.384821988534728,
                1.4845938289331202,
                0.17898776772866878,
                0.037105688729662994
            ]
        },
        {
            "positions": [
                -0.16063677202366627,
                -2.256432921647553,
                -2.377551078244057,
                1.4826572926778163,
                0.23459753088088692,
                0.027856288575166515
            ]
        },
        {
            "positions": [
                -0.06904219569202663,
                -2.2186655400549538,
                -2.314011900678098,
                1.4664066672065352,
                0.30253210767903616,
                -0.08395211611826171
            ]
        },
        {
            "positions": [
                0.022552380639613012,
                -2.1808981584623544,
                -2.2504727231121393,
                1.450156041735254,
                0.3704666844771854,
                -0.19576052081168996
            ]
        },
        {
            "positions": [
                0.11414695697125266,
                -2.143130776869755,
                -2.1869335455461805,
                1.4339054162639728,
                0.43840126127533463,
                -0.30756892550511816
            ]
        },
        {
            "positions": [
                0.2057415333028923,
                -2.1053633952771555,
                -2.1233943679802216,
                1.4176547907926915,
                0.5063358380734839,
                -0.4193773301985464
            ]
        },
        {
            "positions": [
                0.2973361096345319,
                -2.067596013684556,
                -2.059855190414263,
                1.4014041653214104,
                0.5742704148716331,
                -0.5311857348919746
            ]
        },
        {
            "positions": [
                0.3889306859661716,
                -2.0298286320919567,
                -1.996316012848304,
                1.3851535398501291,
                0.6422049916697824,
                -0.6429941395854029
            ]
        },
        {
            "positions": [
                0.4805252622978112,
                -1.9920612504993576,
                -1.9327768352823451,
                1.368902914378848,
                0.7101395684679317,
                -0.7548025442788311
            ]
        },
        {
            "positions": [
                0.5721198386294508,
                -1.9542938689067582,
                -1.8692376577163863,
                1.3526522889075667,
                0.7780741452660809,
                -0.8666109489722593
            ]
        },
        {
            "positions": [
                0.6637144149610905,
                -1.9165264873141588,
                -1.8056984801504274,
                1.3364016634362856,
                0.8460087220642301,
                -0.9784193536656876
            ]
        },
        {
            "positions": [
                0.75530899129273,
                -1.8787591057215596,
                -1.7421593025844688,
                1.3201510379650043,
                0.9139432988623792,
                -1.0902277583591158
            ]
        },
        {
            "positions": [
                0.8469035676243697,
                -1.8409917241289602,
                -1.67862012501851,
                1.3039004124937232,
                0.9818778756605284,
                -1.202036163052544
            ]
        },
        {
            "positions": [
                0.9384981439560094,
                -1.8032243425363608,
                -1.615080947452551,
                1.287649787022442,
                1.0498124524586778,
                -1.3138445677459722
            ]
        },
        {
            "positions": [
                1.030092720287649,
                -1.7654569609437614,
                -1.551541769886592,
                1.2713991615511608,
                1.117747029256827,
                -1.4256529724394005
            ]
        },
        {
            "positions": [
                1.1216872966192886,
                -1.727689579351162,
                -1.4880025923206335,
                1.2551485360798798,
                1.1856816060549764,
                -1.5374613771328287
            ]
        },
        {
            "positions": [
                1.2132818729509283,
                -1.6899221977585626,
                -1.4244634147546746,
                1.2388979106085984,
                1.2536161828531256,
                -1.649269781826257
            ]
        },
        {
            "positions": [
                1.2741610542025155,
                -1.661446123880682,
                -1.285823709126379,
                1.15745520641695,
                1.2455703673143905,
                -1.7119489770342118
            ]
        },
        {
            "positions": [
                1.3350402354541027,
                -1.6329700500028015,
                -1.1471840034980834,
                1.0760125022253018,
                1.2375245517756555,
                -1.7746281722421668
            ]
        },
        {
            "positions": [
                1.3959194167056899,
                -1.6044939761249208,
                -1.0085442978697876,
                0.9945697980336535,
                1.2294787362369204,
                -1.837307367450122
            ]
        },
        {
            "positions": [
                1.456798597957277,
                -1.5760179022470404,
                -0.8699045922414921,
                0.9131270938420053,
                1.2214329206981853,
                -1.8999865626580767
            ]
        },
        {
            "positions": [
                1.5176777792088643,
                -1.5475418283691598,
                -0.7312648866131964,
                0.831684389650357,
                1.2133871051594503,
                -1.9626657578660316
            ]
        },
        {
            "positions": [
                1.5785569604604515,
                -1.5190657544912793,
                -0.5926251809849008,
                0.7502416854587086,
                1.2053412896207152,
                -2.0253449530739864
            ]
        },
        {
            "positions": [
                1.6394361417120387,
                -1.4905896806133987,
                -0.45398547535660516,
                0.6687989812670603,
                1.1972954740819801,
                -2.0880241482819417
            ]
        },
        {
            "positions": [
                1.7003153229636259,
                -1.4621136067355183,
                -0.3153457697283095,
                0.587356277075412,
                1.189249658543245,
                -2.1507033434898966
            ]
        },
        {
            "positions": [
                1.7611945042152128,
                -1.4336375328576376,
                -0.17670606410001377,
                0.5059135728837637,
                1.18120384300451,
                -2.213382538697852
            ]
        },
        {
            "positions": [
                1.8220736854668003,
                -1.405161458979757,
                -0.03806635847171824,
                0.4244708686921155,
                1.173158027465775,
                -2.2760617339058067
            ]
        },
        {
            "positions": [
                1.8829528667183872,
                -1.3766853851018765,
                0.10057334715657729,
                0.34302816450046714,
                1.1651122119270398,
                -2.3387409291137615
            ]
        },
        {
            "positions": [
                1.9438320479699747,
                -1.348209311223996,
                0.23921305278487304,
                0.2615854603088188,
                1.157066396388305,
                -2.4014201243217164
            ]
        },
        {
            "positions": [
                2.0047112292215616,
                -1.3197332373461155,
                0.37785275841316857,
                0.18014275611717068,
                1.14902058084957,
                -2.464099319529671
            ]
        },
        {
            "positions": [
                2.065590410473149,
                -1.2912571634682348,
                0.5164924640414643,
                0.09870005192552211,
                1.1409747653108349,
                -2.5267785147376265
            ]
        },
        {
            "positions": [
                2.126469591724736,
                -1.2627810895903542,
                0.6551321696697598,
                0.017257347733873996,
                1.1329289497720998,
                -2.5894577099455813
            ]
        },
        {
            "positions": [
                2.187348772976323,
                -1.2343050157124738,
                0.7937718752980556,
                -0.06418535645777435,
                1.1248831342333647,
                -2.652136905153536
            ]
        },
        {
            "positions": [
                2.2482279542279104,
                -1.2058289418345933,
                0.9324115809263509,
                -0.14562806064942269,
                1.1168373186946297,
                -2.7148161003614915
            ]
        },
        {
            "positions": [
                2.309107135479498,
                -1.1773528679567127,
                1.071051286554647,
                -0.22707076484107103,
                1.1087915031558946,
                -2.7774952955694463
            ]
        },
        {
            "positions": [
                2.369986316731085,
                -1.148876794078832,
                1.2096909921829424,
                -0.30851346903271937,
                1.1007456876171595,
                -2.840174490777401
            ]
        },
        {
            "positions": [
                2.430865497982672,
                -1.1204007202009516,
                1.3483306978112382,
                -0.3899561732243675,
                1.0926998720784245,
                -2.902853685985356
            ]
        },
        {
            "positions": [
                2.4917446792342592,
                -1.0919246463230712,
                1.4869704034395335,
                -0.4713988774160158,
                1.0846540565396894,
                -2.965532881193311
            ]
        },
        {
            "positions": [
                2.5526238604858467,
                -1.0634485724451905,
                1.6256101090678292,
                -0.5528415816076642,
                1.0766082410009543,
                -3.028212076401266
            ]
        },
        {
            "positions": [
                2.6135030417374336,
                -1.0349724985673099,
                1.7642498146961252,
                -0.6342842857993125,
                1.0685624254622192,
                -3.090891271609221
            ]
        },
        {
            "positions": [
                2.62933268934513,
                -1.0137533047635627,
                1.8260032327516824,
                -0.790633482566414,
                1.0621500402477015,
                -3.0995080539841497
            ]
        }
    ]
}