{
    "goal": {
        "global_pose": {
            "orientation": {
                "w": -0.00223480608172531,
                "x": 0.0024358444001904467,
                "y": 0.7094548369677653,
                "z": -0.704743149386269
            },
            "position": {
                "x": 0.6205249238014221,
                "y": -0.6371506643295288,
                "z": 0.19426114857196808
            }
        },
        "name": "move_to_magneteinheit_B"
    },
    "id": "LazyPRMstar_move_to_magneteinheit_B_28",
    "joint_names": [
        "shoulder_pan_joint",
        "shoulder_lift_joint",
        "elbow_joint",
        "wrist_1_joint",
        "wrist_2_joint",
        "wrist_3_joint"
    ],
    "metrics": {
        "cart_traj_len": 3.6249785759055237,
        "distance_elbow_joint": 5.864764121152802,
        "distance_shoulder_lift_joint": 0.7668639446791157,
        "distance_shoulder_pan_joint": 1.954476185717112,
        "distance_wrist_1_joint": 4.3992033518345774,
        "distance_wrist_2_joint": 1.9712565855316813,
        "distance_wrist_3_joint": 3.2785604552900502,
        "smoothness": 0.27530124187616983,
        "time": 5.070410666000001,
        "traj_len": 4.27026048903405,
        "weighted_distance": 5.582356625310828
    },
    "planner": "LazyPRMstar",
    "start": {
        "state": {
            "elbow_joint": 2.6216224122426386,
            "shoulder_lift_joint": -1.4174107377796124,
            "shoulder_pan_joint": 0.7066234856936794,
            "wrist_1_joint": 1.9546482284002225,
            "wrist_2_joint": -0.7096286983471962,
            "wrist_3_joint": 0.005740856962016249
        }
    },
    "waypoints": [
        {
            "positions": [
                0.7066234856936794,
                -1.4174107377796124,
                2.6216224122426386,
                1.9546482284002225,
                -0.7096286983471962,
                0.005740856962016249
            ]
        },
        {
            "positions": [
                0.7647461835000189,
                -1.458962314832481,
                2.653722239910185,
                1.9531814058222725,
                -0.618778828580087,
                0.015260371827387676
            ]
        },
        {
            "positions": [
                0.8228688813063585,
                -1.5005138918853498,
                2.6858220675777322,
                1.9517145832443223,
                -0.527928958812978,
                0.0247798866927591
            ]
        },
        {
            "positions": [
                0.9136011684807215,
                -1.5380943871473776,
                2.5971054510504317,
                1.9387321038990981,
                -0.39974089804351665,
                0.024757899496172155
            ]
        },
        {
            "positions": [
                1.0043334556550845,
                -1.5756748824094053,
                2.508388834523131,
                1.9257496245538737,
                -0.2715528372740553,
                0.02473591229958521
            ]
        },
        {
            "positions": [
                1.0950657428294475,
                -1.613255377671433,
                2.4196722179958305,
                1.9127671452086494,
                -0.143364776504594,
                0.024713925102998267
            ]
        },
        {
            "positions": [
                1.1857980300038105,
                -1.6508358729334607,
                2.33095560146853,
                1.899784665863425,
                -0.015176715735132684,
                0.02469193790641132
            ]
        },
        {
            "positions": [
                1.2765303171781734,
                -1.6884163681954885,
                2.2422389849412294,
                1.8868021865182008,
                0.1130113450343286,
                0.024669950709824376
            ]
        },
        {
            "positions": [
                1.3021173979266039,
                -1.693592019652331,
                2.094629183292812,
                1.7916321672367013,
                0.08996056797609187,
                -0.07071742642875994
            ]
        },
        {
            "positions": [
                1.3277044786750343,
                -1.6987676711091735,
                1.9470193816443941,
                1.6964621479552018,
                0.06690979091785514,
                -0.16610480356734425
            ]
        },
        {
            "positions": [
                1.3532915594234647,
                -1.703943322566016,
                1.7994095799959764,
                1.6012921286737025,
                0.043859013859618406,
                -0.2614921807059286
            ]
        },
        {
            "positions": [
                1.378878640171895,
                -1.7091189740228585,
                1.6517997783475589,
                1.506122109392203,
                0.020808236801381677,
                -0.3568795578445129
            ]
        },
        {
            "positions": [
                1.4044657209203257,
                -1.7142946254797011,
                1.5041899766991413,
                1.4109520901107035,
                -0.0022425402568550523,
                -0.4522669349830973
            ]
        },
        {
            "positions": [
                1.4300528016687561,
                -1.7194702769365438,
                1.3565801750507236,
                1.3157820708292043,
                -0.02529331731509178,
                -0.5476543121216816
            ]
        },
        {
            "positions": [
                1.4556398824171866,
                -1.7246459283933862,
                1.2089703734023058,
                1.2206120515477048,
                -0.048344094373328525,
                -0.643041689260266
            ]
        },
        {
            "positions": [
                1.481226963165617,
                -1.7298215798502288,
                1.0613605717538883,
                1.1254420322662053,
                -0.07139487143156524,
                -0.7384290663988502
            ]
        },
        {
            "positions": [
                1.5068140439140474,
                -1.7349972313070712,
                0.9137507701054706,
                1.0302720129847058,
                -0.09444564848980198,
                -0.8338164435374346
            ]
        },
        {
            "positions": [
                1.5324011246624778,
                -1.7401728827639138,
                0.766140968457053,
                0.9351019937032063,
                -0.1174964255480387,
                -0.9292038206760189
            ]
        },
        {
            "positions": [
                1.5579882054109082,
                -1.7453485342207562,
                0.6185311668086355,
                0.8399319744217071,
                -0.1405472026062754,
                -1.024591197814603
            ]
        },
        {
            "positions": [
                1.5835752861593386,
                -1.7505241856775988,
                0.47092136516021776,
                0.7447619551402076,
                -0.16359797966451217,
                -1.1199785749531874
            ]
        },
        {
            "positions": [
                1.609162366907769,
                -1.7556998371344414,
                0.32331156351180024,
                0.6495919358587081,
                -0.1866487567227489,
                -1.2153659520917717
            ]
        },
        {
            "positions": [
                1.6347494476561995,
                -1.7608754885912838,
                0.17570176186338227,
                0.5544219165772086,
                -0.20969953378098566,
                -1.3107533292303561
            ]
        },
        {
            "positions": [
                1.66033652840463,
                -1.7660511400481265,
                0.02809196021496474,
                0.45925189729570914,
                -0.23275031083922237,
                -1.4061407063689404
            ]
        },
        {
            "positions": [
                1.6859236091530605,
                -1.7712267915049689,
                -0.11951784143345279,
                0.36408187801420966,
                -0.2558010878974591,
                -1.5015280835075246
            ]
        },
        {
            "positions": [
                1.7115106899014907,
                -1.7764024429618115,
                -0.2671276430818703,
                0.2689118587327104,
                -0.2788518649556958,
                -1.596915460646109
            ]
        },
        {
            "positions": [
                1.7370977706499213,
                -1.7815780944186541,
                -0.4147374447302883,
                0.1737418394512107,
                -0.3019026420139326,
                -1.6923028377846934
            ]
        },
        {
            "positions": [
                1.7626848513983517,
                -1.7867537458754965,
                -0.5623472463787054,
                0.07857182016971143,
                -0.32495341907216924,
                -1.7876902149232776
            ]
        },
        {
            "positions": [
                1.7882719321467822,
                -1.7919293973323391,
                -0.7099570480271233,
                -0.01659819911178806,
                -0.348004196130406,
                -1.883077592061862
            ]
        },
        {
            "positions": [
                1.8138590128952126,
                -1.7971050487891815,
                -0.8575668496755409,
                -0.11176821839328754,
                -0.3710549731886427,
                -1.9784649692004463
            ]
        },
        {
            "positions": [
                1.839446093643643,
                -1.8022807002460242,
                -1.0051766513239584,
                -0.20693823767478658,
                -0.3941057502468794,
                -2.0738523463390304
            ]
        },
        {
            "positions": [
                1.8650331743920736,
                -1.8074563517028666,
                -1.1527864529723764,
                -0.3021082569562865,
                -0.41715652730511615,
                -2.169239723477615
            ]
        },
        {
            "positions": [
                1.890620255140504,
                -1.8126320031597092,
                -1.300396254620794,
                -0.39727827623778555,
                -0.4402073043633529,
                -2.2646271006161993
            ]
        },
        {
            "positions": [
                1.9162073358889344,
                -1.8178076546165518,
                -1.4480060562692114,
                -0.49244829551928504,
                -0.4632580814215896,
                -2.3600144777547833
            ]
        },
        {
            "positions": [
                1.9417944166373649,
                -1.8229833060733942,
                -1.595615857917629,
                -0.5876183148007845,
                -0.48630885847982636,
                -2.455401854893368
            ]
        },
        {
            "positions": [
                1.9673814973857953,
                -1.8281589575302368,
                -1.7432256595660465,
                -0.682788334082284,
                -0.5093596355380631,
                -2.5507892320319523
            ]
        },
        {
            "positions": [
                1.9929685781342257,
                -1.8333346089870792,
                -1.8908354612144649,
                -0.7779583533637835,
                -0.5324104125962998,
                -2.6461766091705368
            ]
        },
        {
            "positions": [
                2.018555658882656,
                -1.8385102604439219,
                -2.038445262862882,
                -0.8731283726452829,
                -0.5554611896545365,
                -2.741563986309121
            ]
        },
        {
            "positions": [
                2.0605249484622803,
                -1.8498557679268581,
                -2.087875504104696,
                -1.0229335607530534,
                -0.5840014638011847,
                -2.8053911394575546
            ]
        },
        {
            "positions": [
                2.102494238041904,
                -1.8612012754097944,
                -2.1373057453465103,
                -1.172738748860824,
                -0.6125417379478327,
                -2.8692182926059884
            ]
        },
        {
            "positions": [
                2.1444635276215283,
                -1.8725467828927307,
                -2.1867359865883245,
                -1.3225439369685947,
                -0.6410820120944809,
                -2.933045445754422
            ]
        },
        {
            "positions": [
                2.1864328172011525,
                -1.883892290375667,
                -2.236166227830139,
                -1.4723491250763654,
                -0.669622286241129,
                -2.996872598902856
            ]
        },
        {
            "positions": [
                2.2284021067807767,
                -1.8952377978586032,
                -2.2855964690719532,
                -1.622154313184136,
                -0.6981625603877771,
                -3.06069975205129
            ]
        },
        {
            "positions": [
                2.2703713963604004,
                -1.9065833053415395,
                -2.3350267103137674,
                -1.7719595012919065,
                -0.7267028345344252,
                -3.124526905199724
            ]
        },
        {
            "positions": [
                2.3123406859400246,
                -1.9179288128244758,
                -2.3844569515555816,
                -1.9217646893996772,
                -0.7552431086810734,
                -3.1883540583481578
            ]
        },
        {
            "positions": [
                2.370467183518486,
                -1.962319791096851,
                -2.262742710441516,
                -2.0088964284054565,
                -0.7085160939419475,
                -3.1806228115950925
            ]
        },
        {
            "positions": [
                2.428593681096947,
                -2.0067107693692265,
                -2.1410284693274506,
                -2.096028167411236,
                -0.6617890792028217,
                -3.1728915648420277
            ]
        },
        {
            "positions": [
                2.486720178675408,
                -2.051101747641602,
                -2.019314228213385,
                -2.1831599064170155,
                -0.6150620644636958,
                -3.1651603180889625
            ]
        },
        {
            "positions": [
                2.544846676253869,
                -2.095492725913977,
                -1.8975999870993197,
                -2.270291645422795,
                -0.56833504972457,
                -3.1574290713358972
            ]
        },
        {
            "positions": [
                2.6029731738323303,
                -2.1398837041863525,
                -1.7758857459852542,
                -2.3574233844285746,
                -0.5216080349854442,
                -3.1496978245828324
            ]
        },
        {
            "positions": [
                2.6610996714107915,
                -2.184274682458728,
                -1.6541715048711887,
                -2.444555123434354,
                -0.47488102024631834,
                -3.141966577829767
            ]
        }
    ]
}