{
    "goal": {
        "global_pose": {
            "orientation": {
                "w": -0.4816463035849501,
                "x": 0.5182115481033762,
                "y": 0.4908360881923453,
                "z": -0.5084816262002911
            },
            "position": {
                "x": -0.8240239810943604,
                "y": 0.19912469901144506,
                "z": 0.16403168439865112
            }
        },
        "name": "move_to_storage_D"
    },
    "id": "LazyPRM_move_to_storage_D_96",
    "joint_names": [
        "shoulder_pan_joint",
        "shoulder_lift_joint",
        "elbow_joint",
        "wrist_1_joint",
        "wrist_2_joint",
        "wrist_3_joint"
    ],
    "metrics": {
        "cart_traj_len": 4.090739023011273,
        "distance_elbow_joint": 4.208915161434993,
        "distance_shoulder_lift_joint": 1.2652682350609687,
        "distance_shoulder_pan_joint": 3.2893604759540316,
        "distance_wrist_1_joint": 2.504686191775612,
        "distance_wrist_2_joint": 1.4034430383627539,
        "distance_wrist_3_joint": 3.1423655542672506,
        "smoothness": 0.1904187851012565,
        "time": 0.191637775,
        "traj_len": 3.976686894495921,
        "weighted_distance": 5.099695970891644
    },
    "planner": "LazyPRM",
    "start": {
        "state": {
            "elbow_joint": -2.384821988534728,
            "shoulder_lift_joint": -2.2788054721415256,
            "shoulder_pan_joint": -0.1854694642142757,
            "wrist_1_joint": 1.4845938289331202,
            "wrist_2_joint": 0.17898776772866878,
            "wrist_3_joint": 0.037105688729662994
        }
    },
    "waypoints": [
        {
            "positions": [
                -0.1854694642142757,
                -2.2788054721415256,
                -2.384821988534728,
                1.4845938289331202,
                0.17898776772866878,
                0.037105688729662994
            ]
        },
        {
            "positions": [
                -0.09830648826545639,
                -2.248153572989001,
                -2.276343070036678,
                1.4164966845371663,
                0.2114993362941071,
                -0.021608378250492055
            ]
        },
        {
            "positions": [
                -0.011143512316637072,
                -2.2175016738364763,
                -2.1678641515386285,
                1.3483995401412123,
                0.2440109048595454,
                -0.0803224452306471
            ]
        },
        {
            "positions": [
                0.07601946363218229,
                -2.1868497746839513,
                -2.0593852330405786,
                1.2803023957452586,
                0.27652247342498376,
                -0.13903651221080215
            ]
        },
        {
            "positions": [
                0.16318243958100156,
                -2.1561978755314266,
                -1.950906314542529,
                1.2122052513493047,
                0.30903404199042206,
                -0.1977505791909572
            ]
        },
        {
            "positions": [
                0.2503454155298209,
                -2.125545976378902,
                -1.8424273960444792,
                1.1441081069533507,
                0.34154561055586036,
                -0.2564646461711122
            ]
        },
        {
            "positions": [
                0.3375083914786403,
                -2.0948940772263773,
                -1.7339484775464296,
                1.0760109625573968,
                0.3740571791212987,
                -0.31517871315126733
            ]
        },
        {
            "positions": [
                0.4246713674274597,
                -2.0642421780738527,
                -1.6254695590483799,
                1.0079138181614429,
                0.406568747686737,
                -0.37389278013142235
            ]
        },
        {
            "positions": [
                0.5118343433762789,
                -2.033590278921328,
                -1.51699064055033,
                0.939816673765489,
                0.43908031625217536,
                -0.4326068471115774
            ]
        },
        {
            "positions": [
                0.5989973193250981,
                -2.0029383797688034,
                -1.4085117220522805,
                0.8717195293695352,
                0.4715918848176136,
                -0.4913209140917324
            ]
        },
        {
            "positions": [
                0.6861602952739175,
                -1.9722864806162785,
                -1.3000328035542306,
                0.8036223849735813,
                0.504103453383052,
                -0.5500349810718874
            ]
        },
        {
            "positions": [
                0.7733232712227369,
                -1.9416345814637537,
                -1.1915538850561809,
                0.7355252405776275,
                0.5366150219484903,
                -0.6087490480520426
            ]
        },
        {
            "positions": [
                0.8604862471715563,
                -1.910982682311229,
                -1.0830749665581312,
                0.6674280961816735,
                0.5691265905139287,
                -0.6674631150321976
            ]
        },
        {
            "positions": [
                0.9476492231203756,
                -1.8803307831587044,
                -0.9745960480600813,
                0.5993309517857196,
                0.6016381590793669,
                -0.7261771820123527
            ]
        },
        {
            "positions": [
                1.034812199069195,
                -1.8496788840061795,
                -0.8661171295620316,
                0.5312338073897657,
                0.6341497276448053,
                -0.7848912489925077
            ]
        },
        {
            "positions": [
                1.121975175018014,
                -1.8190269848536549,
                -0.7576382110639819,
                0.46313666299381184,
                0.6666612962102435,
                -0.8436053159726626
            ]
        },
        {
            "positions": [
                1.2091381509668333,
                -1.78837508570113,
                -0.6491592925659322,
                0.3950395185978579,
                0.6991728647756819,
                -0.9023193829528178
            ]
        },
        {
            "positions": [
                1.2963011269156528,
                -1.7577231865486054,
                -0.5406803740678825,
                0.326942374201904,
                0.7316844333411202,
                -0.9610334499329728
            ]
        },
        {
            "positions": [
                1.3834641028644719,
                -1.7270712873960807,
                -0.4322014555698328,
                0.25884522980595026,
                0.7641960019065585,
                -1.0197475169131278
            ]
        },
        {
            "positions": [
                1.4706270788132914,
                -1.696419388243556,
                -0.3237225370717831,
                0.19074808540999633,
                0.7967075704719968,
                -1.078461583893283
            ]
        },
        {
            "positions": [
                1.5577900547621106,
                -1.6657674890910315,
                -0.2152436185737332,
                0.12265094101404239,
                0.829219139037435,
                -1.1371756508734379
            ]
        },
        {
            "positions": [
                1.64495303071093,
                -1.6351155899385066,
                -0.10676470007568373,
                0.05455379661808846,
                0.8617307076028734,
                -1.195889717853593
            ]
        },
        {
            "positions": [
                1.7321160066597494,
                -1.6044636907859817,
                0.0017142184223661872,
                -0.013543347777865256,
                0.8942422761683118,
                -1.2546037848337481
            ]
        },
        {
            "positions": [
                1.819278982608569,
                -1.573811791633457,
                0.1101931369204161,
                -0.08164049217381919,
                0.9267538447337501,
                -1.313317851813903
            ]
        },
        {
            "positions": [
                1.9064419585573882,
                -1.5431598924809324,
                0.21867205541846557,
                -0.14973763656977312,
                0.9592654132991885,
                -1.3720319187940582
            ]
        },
        {
            "positions": [
                1.9936049345062075,
                -1.5125079933284078,
                0.3271509739165155,
                -0.21783478096572706,
                0.9917769818646267,
                -1.4307459857742133
            ]
        },
        {
            "positions": [
                2.0807679104550267,
                -1.481856094175883,
                0.4356298924145654,
                -0.285931925361681,
                1.0242885504300652,
                -1.4894600527543684
            ]
        },
        {
            "positions": [
                2.167930886403846,
                -1.451204195023358,
                0.5441088109126149,
                -0.35402906975763493,
                1.0568001189955034,
                -1.5481741197345233
            ]
        },
        {
            "positions": [
                2.2550938623526657,
                -1.4205522958708334,
                0.6525877294106648,
                -0.42212621415358886,
                1.0893116875609419,
                -1.6068881867146785
            ]
        },
        {
            "positions": [
                2.342256838301485,
                -1.3899003967183088,
                0.7610666479087147,
                -0.4902233585495428,
                1.1218232561263801,
                -1.6656022536948336
            ]
        },
        {
            "positions": [
                2.429419814250304,
                -1.3592484975657841,
                0.8695455664067642,
                -0.5583205029454965,
                1.1543348246918184,
                -1.7243163206749883
            ]
        },
        {
            "positions": [
                2.516582790199123,
                -1.3285965984132595,
                0.9780244849048136,
                -0.6264176473414502,
                1.1868463932572566,
                -1.7830303876551434
            ]
        },
        {
            "positions": [
                2.6037457661479424,
                -1.2979446992607346,
                1.0865034034028636,
                -0.6945147917374044,
                1.219357961822695,
                -1.8417444546352986
            ]
        },
        {
            "positions": [
                2.690908742096762,
                -1.26729280010821,
                1.1949823219009135,
                -0.7626119361333581,
                1.2518695303881333,
                -1.9004585216154537
            ]
        },
        {
            "positions": [
                2.7780717180455814,
                -1.2366409009556851,
                1.303461240398963,
                -0.8307090805293122,
                1.2843810989535718,
                -1.9591725885956086
            ]
        },
        {
            "positions": [
                2.8652346939944007,
                -1.2059890018031605,
                1.4119401588970126,
                -0.8988062249252662,
                1.31689266751901,
                -2.0178866555757637
            ]
        },
        {
            "positions": [
                2.8254586410368416,
                -1.1739137076827266,
                1.4806323278975546,
                -0.8785918686057286,
                1.2726363110902745,
                -2.1991155239027345
            ]
        },
        {
            "positions": [
                2.785682588079282,
                -1.1418384135622925,
                1.5493244968980966,
                -0.858377512286191,
                1.228379954661539,
                -2.380344392229705
            ]
        },
        {
            "positions": [
                2.745906535121723,
                -1.1097631194418587,
                1.6180166658986384,
                -0.8381631559666534,
                1.1841235982328038,
                -2.561573260556676
            ]
        },
        {
            "positions": [
                2.706130482164164,
                -1.0776878253214248,
                1.6867088348991803,
                -0.8179487996471158,
                1.1398672418040683,
                -2.742802128883646
            ]
        },
        {
            "positions": [
                2.6663544292066046,
                -1.0456125312009907,
                1.7554010038997223,
                -0.7977344433275781,
                1.0956108853753328,
                -2.924030997210617
            ]
        },
        {
            "positions": [
                2.6265783762490456,
                -1.0135372370805569,
                1.8240931729002643,
                -0.7775200870080405,
                1.0513545289465973,
                -3.1052598655375876
            ]
        }
    ]
}