{
    "goal": {
        "global_pose": {
            "orientation": {
                "w": -0.4816463035849501,
                "x": 0.5182115481033762,
                "y": 0.4908360881923453,
                "z": -0.5084816262002911
            },
            "position": {
                "x": -0.8240239810943604,
                "y": -0.300875300988555,
                "z": 0.16403168439865112
            }
        },
        "name": "move_to_storage_C"
    },
    "id": "LazyPRMstar_move_to_storage_C_40",
    "joint_names": [
        "shoulder_pan_joint",
        "shoulder_lift_joint",
        "elbow_joint",
        "wrist_1_joint",
        "wrist_2_joint",
        "wrist_3_joint"
    ],
    "metrics": {
        "cart_traj_len": 0.5771839330042097,
        "distance_elbow_joint": 0.26139207049497437,
        "distance_shoulder_lift_joint": 0.19146502200515458,
        "distance_shoulder_pan_joint": 0.4930354271719195,
        "distance_wrist_1_joint": 0.08198124712138832,
        "distance_wrist_2_joint": 1.0780555194676276,
        "distance_wrist_3_joint": 0.07341617330408612,
        "smoothness": 5.075305295617109e-16,
        "time": 5.000158036999999,
        "traj_len": 1.4762606340227156,
        "weighted_distance": 1.8671407479786677
    },
    "planner": "LazyPRMstar",
    "start": {
        "state": {
            "elbow_joint": 2.010868314990456,
            "shoulder_lift_joint": -1.1634956873337592,
            "shoulder_pan_joint": -2.4736205022346125,
            "wrist_1_joint": -0.8367026794202681,
            "wrist_2_joint": 0.6746043897044499,
            "wrist_3_joint": -3.1496632123970403
        }
    },
    "waypoints": [
        {
            "positions": [
                -2.4736205022346125,
                -1.1634956873337592,
                2.010868314990456,
                -0.8367026794202681,
                0.6746043897044499,
                -3.1496632123970403
            ]
        },
        {
            "positions": [
                -2.5557930734299323,
                -1.1315848503329,
                1.96730296990796,
                -0.82303913823337,
                0.8542803096157212,
                -3.137427183513026
            ]
        },
        {
            "positions": [
                -2.637965644625252,
                -1.099674013332041,
                1.9237376248254643,
                -0.809375597046472,
                1.0339562295269924,
                -3.1251911546290114
            ]
        },
        {
            "positions": [
                -2.7201382158205725,
                -1.067763176331182,
                1.8801722797429687,
                -0.7957120558595739,
                1.2136321494382636,
                -3.112955125744997
            ]
        },
        {
            "positions": [
                -2.8023107870158923,
                -1.0358523393303227,
                1.836606934660473,
                -0.7820485146726759,
                1.3933080693495348,
                -3.100719096860983
            ]
        },
        {
            "positions": [
                -2.884483358211212,
                -1.0039415023294638,
                1.7930415895779772,
                -0.7683849734857778,
                1.5729839892608064,
                -3.0884830679769686
            ]
        },
        {
            "positions": [
                -2.966655929406532,
                -0.9720306653286046,
                1.7494762444954814,
                -0.7547214322988798,
                1.7526599091720774,
                -3.076247039092954
            ]
        }
    ]
}