{
    "goal": {
        "global_pose": {
            "orientation": {
                "w": 0.7031023502349854,
                "x": -0.7110244035720825,
                "y": 0.007748599164187908,
                "z": 0.005598929710686207
            },
            "position": {
                "x": 0.11585023208521307,
                "y": 0.44412534475326537,
                "z": 0.3711530566215515
            }
        },
        "name": "move_to_auspresseinheit_A"
    },
    "id": "LazyPRMstar_move_to_auspresseinheit_A_122",
    "joint_names": [
        "shoulder_pan_joint",
        "shoulder_lift_joint",
        "elbow_joint",
        "wrist_1_joint",
        "wrist_2_joint",
        "wrist_3_joint"
    ],
    "metrics": {
        "cart_traj_len": 0.6640599352510009,
        "distance_elbow_joint": 0.11916294356046642,
        "distance_shoulder_lift_joint": 0.5385563817307053,
        "distance_shoulder_pan_joint": 1.0426946519190758,
        "distance_wrist_1_joint": 0.5506428576745258,
        "distance_wrist_2_joint": 0.5357665769140902,
        "distance_wrist_3_joint": 0.16444495965840833,
        "smoothness": 0.2595349054424887,
        "time": 5.008260772,
        "traj_len": 1.717925601257887,
        "weighted_distance": 2.0896333949673336
    },
    "planner": "LazyPRMstar",
    "start": {
        "state": {
            "elbow_joint": 2.4225746658250005,
            "shoulder_lift_joint": -1.3736534386056498,
            "shoulder_pan_joint": -0.3378633547517467,
            "wrist_1_joint": -1.0288598680537169,
            "wrist_2_joint": 1.233022673432363,
            "wrist_3_joint": -3.0940220416140027
        }
    },
    "waypoints": [
        {
            "positions": [
                -0.3378633547517467,
                -1.3736534386056498,
                2.4225746658250005,
                -1.0288598680537169,
                1.233022673432363,
                -3.0940220416140027
            ]
        },
        {
            "positions": [
                -0.2357361892455491,
                -1.4444992569185229,
                2.429218840740098,
                -0.951536050884365,
                1.1573828467379568,
                -3.1081092843019738
            ]
        },
        {
            "positions": [
                -0.13360902373935146,
                -1.5153450752313962,
                2.4358630156551953,
                -0.8742122337150132,
                1.0817430200435507,
                -3.1221965269899443
            ]
        },
        {
            "positions": [
                -0.03148185823315386,
                -1.5861908935442692,
                2.442507190570293,
                -0.7968884165456613,
                1.0061031933491444,
                -3.1362837696779153
            ]
        },
        {
            "positions": [
                0.0706453072730438,
                -1.6570367118571423,
                2.44915136548539,
                -0.7195645993763096,
                0.9304633666547382,
                -3.1503710123658863
            ]
        },
        {
            "positions": [
                0.17277247277924151,
                -1.7278825301700156,
                2.4557955404004876,
                -0.6422407822069576,
                0.8548235399603319,
                -3.1644582550538574
            ]
        },
        {
            "positions": [
                0.274899638285439,
                -1.7987283484828884,
                2.462439715315585,
                -0.5649169650376058,
                0.7791837132659257,
                -3.178545497741828
            ]
        },
        {
            "positions": [
                0.3770268037916367,
                -1.8695741667957617,
                2.4690838902306824,
                -0.4875931478682539,
                0.7035438865715195,
                -3.192632740429799
            ]
        },
        {
            "positions": [
                0.5409290504794829,
                -1.8908919935660584,
                2.43275703065329,
                -0.4829050791237225,
                0.7066877815981427,
                -3.159715610008493
            ]
        },
        {
            "positions": [
                0.7048312971673291,
                -1.9122098203363551,
                2.396430171075898,
                -0.47821701037919107,
                0.7098316766247661,
                -3.126798479587187
            ]
        }
    ]
}