{
    "goal": {
        "global_pose": {
            "orientation": {
                "w": -0.00223480608172531,
                "x": 0.0024358444001904467,
                "y": 0.7094548369677653,
                "z": -0.704743149386269
            },
            "position": {
                "x": 0.6205249238014221,
                "y": -0.6371506643295288,
                "z": 0.19426114857196808
            }
        },
        "name": "move_to_magneteinheit_B"
    },
    "id": "LazyPRMstar_move_to_magneteinheit_B_144",
    "joint_names": [
        "shoulder_pan_joint",
        "shoulder_lift_joint",
        "elbow_joint",
        "wrist_1_joint",
        "wrist_2_joint",
        "wrist_3_joint"
    ],
    "metrics": {
        "cart_traj_len": 3.778037062154962,
        "distance_elbow_joint": 4.267566614515064,
        "distance_shoulder_lift_joint": 0.8096520066154866,
        "distance_shoulder_pan_joint": 2.3615460404755906,
        "distance_wrist_1_joint": 4.425602190227076,
        "distance_wrist_2_joint": 1.8749413895008877,
        "distance_wrist_3_joint": 3.353023229039073,
        "smoothness": 0.10330525777568451,
        "time": 5.052259403,
        "traj_len": 4.134287298963774,
        "weighted_distance": 5.486248400152812
    },
    "planner": "LazyPRMstar",
    "start": {
        "state": {
            "elbow_joint": 2.6216224122426386,
            "shoulder_lift_joint": -1.4174107377796124,
            "shoulder_pan_joint": 0.7066234856936794,
            "wrist_1_joint": 1.9546482284002225,
            "wrist_2_joint": -0.7096286983471962,
            "wrist_3_joint": 0.005740856962016249
        }
    },
    "waypoints": [
        {
            "positions": [
                0.7066234856936794,
                -1.4174107377796124,
                2.6216224122426386,
                1.9546482284002225,
                -0.7096286983471962,
                0.005740856962016249
            ]
        },
        {
            "positions": [
                0.8843526897712927,
                -1.4182316345174542,
                2.6211094670404798,
                1.8568713694405883,
                -0.6888480983848031,
                -0.01770020391171071
            ]
        },
        {
            "positions": [
                1.062081893848906,
                -1.4190525312552957,
                2.620596521838321,
                1.759094510480954,
                -0.6680674984224099,
                -0.04114126478543768
            ]
        },
        {
            "positions": [
                1.2398110979265193,
                -1.4198734279931373,
                2.6200835766361616,
                1.6613176515213197,
                -0.6472868984600166,
                -0.06458232565916464
            ]
        },
        {
            "positions": [
                1.4175403020041326,
                -1.4206943247309791,
                2.619570631434003,
                1.5635407925616855,
                -0.6265062984976235,
                -0.0880233865328916
            ]
        },
        {
            "positions": [
                1.479850141012951,
                -1.4450974240142183,
                2.4972423919422493,
                1.4946716952837351,
                -0.5779799392797142,
                -0.028884507593739617
            ]
        },
        {
            "positions": [
                1.5421599800217691,
                -1.4695005232974572,
                2.3749141524504953,
                1.425802598005785,
                -0.5294535800618049,
                0.030254371345412367
            ]
        },
        {
            "positions": [
                1.6044698190305875,
                -1.4939036225806963,
                2.2525859129587418,
                1.3569335007278345,
                -0.4809272208438956,
                0.08939325028456435
            ]
        },
        {
            "positions": [
                1.6667796580394056,
                -1.5183067218639354,
                2.1302576734669882,
                1.288064403449884,
                -0.43240086162598634,
                0.14853212922371634
            ]
        },
        {
            "positions": [
                1.729089497048224,
                -1.5427098211471744,
                2.0079294339752343,
                1.2191953061719338,
                -0.383874502408077,
                0.20767100816286832
            ]
        },
        {
            "positions": [
                1.7913993360570424,
                -1.5671129204304135,
                1.8856011944834807,
                1.1503262088939836,
                -0.33534814319016776,
                0.2668098871020203
            ]
        },
        {
            "positions": [
                1.8537091750658605,
                -1.5915160197136524,
                1.7632729549917272,
                1.0814571116160332,
                -0.28682178397225844,
                0.3259487660411723
            ]
        },
        {
            "positions": [
                1.916019014074679,
                -1.6159191189968916,
                1.6409447154999732,
                1.0125880143380828,
                -0.23829542475434912,
                0.3850876449803243
            ]
        },
        {
            "positions": [
                1.978328853083497,
                -1.6403222182801307,
                1.5186164760082197,
                0.9437189170601324,
                -0.1897690655364398,
                0.4442265239194763
            ]
        },
        {
            "positions": [
                2.0406386920923154,
                -1.6647253175633696,
                1.396288236516466,
                0.8748498197821821,
                -0.14124270631853053,
                0.5033654028586283
            ]
        },
        {
            "positions": [
                2.1029485311011338,
                -1.6891284168466087,
                1.2739599970247122,
                0.8059807225042317,
                -0.09271634710062115,
                0.5625042817977803
            ]
        },
        {
            "positions": [
                2.165258370109952,
                -1.7135315161298479,
                1.1516317575329587,
                0.7371116252262815,
                -0.044189987882712,
                0.6216431607369322
            ]
        },
        {
            "positions": [
                2.22756820911877,
                -1.7379346154130868,
                1.029303518041205,
                0.668242527948331,
                0.004336371335197375,
                0.6807820396760842
            ]
        },
        {
            "positions": [
                2.2898780481275884,
                -1.762337714696326,
                0.9069752785494514,
                0.5993734306703808,
                0.05286273055310664,
                0.7399209186152362
            ]
        },
        {
            "positions": [
                2.352187887136407,
                -1.786740813979565,
                0.7846470390576976,
                0.5305043333924304,
                0.1013890897710159,
                0.799059797554388
            ]
        },
        {
            "positions": [
                2.414497726145225,
                -1.811143913262804,
                0.6623187995659436,
                0.46163523611448,
                0.14991544898892528,
                0.8581986764935401
            ]
        },
        {
            "positions": [
                2.4768075651540435,
                -1.8355470125460431,
                0.5399905600741901,
                0.3927661388365298,
                0.19844180820683455,
                0.9173375554326921
            ]
        },
        {
            "positions": [
                2.5391174041628615,
                -1.8599501118292823,
                0.4176623205824366,
                0.32389704155857935,
                0.24696816742474392,
                0.9764764343718442
            ]
        },
        {
            "positions": [
                2.60142724317168,
                -1.8843532111125212,
                0.29533408109068304,
                0.25502794428062914,
                0.2954945266426531,
                1.035615313310996
            ]
        },
        {
            "positions": [
                2.663737082180498,
                -1.9087563103957603,
                0.173005841598929,
                0.1861588470026786,
                0.34402088586056245,
                1.094754192250148
            ]
        },
        {
            "positions": [
                2.675512009043077,
                -1.9261589264697432,
                0.07990774826629495,
                0.05081062195126196,
                0.32554744751555303,
                1.2014999539917735
            ]
        },
        {
            "positions": [
                2.687286935905655,
                -1.943561542543726,
                -0.01319034506633912,
                -0.08453760310015468,
                0.3070740091705436,
                1.308245715733399
            ]
        },
        {
            "positions": [
                2.6990618627682337,
                -1.960964158617709,
                -0.10628843839897323,
                -0.21988582815157132,
                0.2886005708255342,
                1.4149914774750245
            ]
        },
        {
            "positions": [
                2.710836789630812,
                -1.9783667746916918,
                -0.19938653173160725,
                -0.35523405320298795,
                0.2701271324805248,
                1.52173723921665
            ]
        },
        {
            "positions": [
                2.7226117164933905,
                -1.9957693907656748,
                -0.2924846250642414,
                -0.4905822782544046,
                0.25165369413551536,
                1.6284830009582756
            ]
        },
        {
            "positions": [
                2.7343866433559687,
                -2.0131720068396577,
                -0.38558271839687547,
                -0.6259305033058212,
                0.23318025579050594,
                1.7352287626999012
            ]
        },
        {
            "positions": [
                2.7461615702185473,
                -2.0305746229136403,
                -0.47868081172950944,
                -0.7612787283572379,
                0.21470681744549655,
                1.8419745244415267
            ]
        },
        {
            "positions": [
                2.7579364970811255,
                -2.0479772389876234,
                -0.5717789050621436,
                -0.8966269534086545,
                0.19623337910048713,
                1.948720286183152
            ]
        },
        {
            "positions": [
                2.769711423943704,
                -2.0653798550616065,
                -0.6648769983947778,
                -1.0319751784600713,
                0.1777599407554777,
                2.055466047924778
            ]
        },
        {
            "positions": [
                2.7814863508062824,
                -2.082782471135589,
                -0.7579750917274117,
                -1.167323403511488,
                0.1592865024104683,
                2.1622118096664034
            ]
        },
        {
            "positions": [
                2.793261277668861,
                -2.100185087209572,
                -0.8510731850600457,
                -1.3026716285629045,
                0.14081306406545888,
                2.268957571408029
            ]
        },
        {
            "positions": [
                2.805036204531439,
                -2.117587703283555,
                -0.9441712783926799,
                -1.4380198536143212,
                0.12233962572044946,
                2.375703333149654
            ]
        },
        {
            "positions": [
                2.816811131394018,
                -2.134990319357538,
                -1.0372693717253139,
                -1.5733680786657374,
                0.10386618737544007,
                2.4824490948912796
            ]
        },
        {
            "positions": [
                2.828586058256596,
                -2.1523929354315205,
                -1.1303674650579478,
                -1.7087163037171544,
                0.08539274903043065,
                2.589194856632905
            ]
        },
        {
            "positions": [
                2.8403609851191747,
                -2.1697955515055036,
                -1.223465558390582,
                -1.844064528768571,
                0.06691931068542123,
                2.6959406183745305
            ]
        },
        {
            "positions": [
                2.852135911981753,
                -2.1871981675794863,
                -1.316563651723216,
                -1.9794127538199877,
                0.04844587234041181,
                2.802686380116156
            ]
        },
        {
            "positions": [
                2.8639108388443315,
                -2.2046007836534693,
                -1.4096617450558502,
                -2.1147609788714044,
                0.029972433995402392,
                2.9094321418577818
            ]
        },
        {
            "positions": [
                2.830792276673897,
                -2.20574836577491,
                -1.470980773773696,
                -2.21586981074578,
                -0.06392149470262971,
                2.9839333343277326
            ]
        },
        {
            "positions": [
                2.7976737145034627,
                -2.2068959478963515,
                -1.5322998024915415,
                -2.316978642620155,
                -0.15781542340066182,
                3.058434526797683
            ]
        },
        {
            "positions": [
                2.764555152333028,
                -2.2080435300177923,
                -1.5936188312093873,
                -2.4180874744945307,
                -0.25170935209869394,
                3.1329357192676337
            ]
        },
        {
            "positions": [
                2.7121036519262107,
                -2.1985339228291387,
                -1.6197815167409064,
                -2.444520718160693,
                -0.36449013576563083,
                3.1520856591394537
            ]
        },
        {
            "positions": [
                2.659652151519393,
                -2.1890243156404856,
                -1.6459442022724255,
                -2.4709539618268552,
                -0.4772709194325677,
                3.1712355990112733
            ]
        }
    ]
}