{
    "goal": {
        "global_pose": {
            "orientation": {
                "w": 0.005598929693374612,
                "x": 0.007748599140229565,
                "y": 0.7110244013736278,
                "z": -0.7031023480610252
            },
            "position": {
                "x": -0.8858502320852131,
                "y": -0.7141253447532654,
                "z": 0.3711530566215515
            }
        },
        "name": "move_to_auspresseinheit_C"
    },
    "id": "LazyPRMstar_move_to_auspresseinheit_C_93",
    "joint_names": [
        "shoulder_pan_joint",
        "shoulder_lift_joint",
        "elbow_joint",
        "wrist_1_joint",
        "wrist_2_joint",
        "wrist_3_joint"
    ],
    "metrics": {
        "cart_traj_len": 0.4938519927396554,
        "distance_elbow_joint": 1.0165265638883183,
        "distance_shoulder_lift_joint": 0.3320145286390248,
        "distance_shoulder_pan_joint": 0.25547625778879324,
        "distance_wrist_1_joint": 0.7119301121631029,
        "distance_wrist_2_joint": 1.3158987120185697,
        "distance_wrist_3_joint": 0.08473418878981054,
        "smoothness": 3.2297397080004555e-16,
        "time": 5.0009119890000004,
        "traj_len": 1.9278434488535678,
        "weighted_distance": 2.4318465340248987
    },
    "planner": "LazyPRMstar",
    "start": {
        "state": {
            "elbow_joint": 1.7527959577737207,
            "shoulder_lift_joint": -0.9740617694225068,
            "shoulder_pan_joint": -2.967991417825858,
            "wrist_1_joint": -0.759517768980727,
            "wrist_2_joint": 1.7443932448377408,
            "wrist_3_joint": -3.0840537646736568
        }
    },
    "waypoints": [
        {
            "positions": [
                -2.967991417825858,
                -0.9740617694225068,
                1.7527959577737207,
                -0.759517768980727,
                1.7443932448377408,
                -3.0840537646736568
            ]
        },
        {
            "positions": [
                -2.9424437920469786,
                -0.9408603165586042,
                1.6511433013848889,
                -0.6883247577644167,
                1.6128033736358838,
                -3.092527183552638
            ]
        },
        {
            "positions": [
                -2.9168961662680992,
                -0.9076588636947018,
                1.549490644996057,
                -0.6171317465481064,
                1.481213502434027,
                -3.101000602431619
            ]
        },
        {
            "positions": [
                -2.89134854048922,
                -0.8744574108307993,
                1.4478379886072252,
                -0.5459387353317962,
                1.3496236312321699,
                -3.1094740213106
            ]
        },
        {
            "positions": [
                -2.8658009147103405,
                -0.8412559579668968,
                1.3461853322183934,
                -0.4747457241154858,
                1.218033760030313,
                -3.117947440189581
            ]
        },
        {
            "positions": [
                -2.8402532889314616,
                -0.8080545051029944,
                1.2445326758295616,
                -0.40355271289917555,
                1.086443888828456,
                -3.126420859068562
            ]
        },
        {
            "positions": [
                -2.814705663152582,
                -0.774853052239092,
                1.1428800194407298,
                -0.33235970168286527,
                0.954854017626599,
                -3.1348942779475433
            ]
        },
        {
            "positions": [
                -2.789158037373703,
                -0.7416515993751894,
                1.041227363051898,
                -0.261166690466555,
                0.8232641464247421,
                -3.143367696826524
            ]
        },
        {
            "positions": [
                -2.7636104115948235,
                -0.7084501465112869,
                0.939574706663066,
                -0.18997367925024466,
                0.691674275222885,
                -3.1518411157055053
            ]
        },
        {
            "positions": [
                -2.738062785815944,
                -0.6752486936473845,
                0.8379220502742342,
                -0.11878066803393439,
                0.560084404021028,
                -3.160314534584486
            ]
        },
        {
            "positions": [
                -2.7125151600370647,
                -0.642047240783482,
                0.7362693938854024,
                -0.047587656817624134,
                0.42849453281917127,
                -3.1687879534634673
            ]
        }
    ]
}