{
    "goal": {
        "global_pose": {
            "orientation": {
                "w": 0.7047431468963623,
                "x": -0.7094548344612122,
                "y": 0.0024358443915843964,
                "z": -0.0022348060738295317
            },
            "position": {
                "x": 0.6094750761985779,
                "y": 0.3671506643295288,
                "z": 0.19426114857196808
            }
        },
        "name": "move_to_magneteinheit_A"
    },
    "id": "LazyPRM_move_to_magneteinheit_A_89",
    "joint_names": [
        "shoulder_pan_joint",
        "shoulder_lift_joint",
        "elbow_joint",
        "wrist_1_joint",
        "wrist_2_joint",
        "wrist_3_joint"
    ],
    "metrics": {
        "cart_traj_len": 3.4705917375376485,
        "distance_elbow_joint": 3.8912827356208615,
        "distance_shoulder_lift_joint": 0.2294947246972452,
        "distance_shoulder_pan_joint": 2.7807663383310173,
        "distance_wrist_1_joint": 0.7696319663518528,
        "distance_wrist_2_joint": 1.7523635123374588,
        "distance_wrist_3_joint": 2.6369001661914098,
        "smoothness": 0.08437499522875123,
        "time": 0.128947296,
        "traj_len": 3.4728143404924268,
        "weighted_distance": 4.456033578711226
    },
    "planner": "LazyPRM",
    "start": {
        "state": {
            "elbow_joint": -1.9196185241190666,
            "shoulder_lift_joint": -1.2443396400964142,
            "shoulder_pan_joint": 2.6996025414629847,
            "wrist_1_joint": -1.5485510000780065,
            "wrist_2_joint": -1.5709468930060704,
            "wrist_3_joint": 0.4420197071253992
        }
    },
    "waypoints": [
        {
            "positions": [
                2.6996025414629847,
                -1.2443396400964142,
                -1.9196185241190666,
                -1.5485510000780065,
                -1.5709468930060704,
                0.4420197071253992
            ]
        },
        {
            "positions": [
                2.60036996119996,
                -1.2466433480447945,
                -1.793030524018007,
                -1.5261570813002348,
                -1.507048673023895,
                0.5174110980289994
            ]
        },
        {
            "positions": [
                2.5011373809369353,
                -1.2489470559931746,
                -1.6664425239169474,
                -1.5037631625224632,
                -1.4431504530417198,
                0.5928024889325998
            ]
        },
        {
            "positions": [
                2.4019048006739103,
                -1.2512507639415549,
                -1.5398545238158878,
                -1.4813692437446915,
                -1.3792522330595445,
                0.6681938798362
            ]
        },
        {
            "positions": [
                2.3026722204108854,
                -1.2535544718899352,
                -1.413266523714828,
                -1.4589753249669197,
                -1.315354013077369,
                0.7435852707398003
            ]
        },
        {
            "positions": [
                2.203439640147861,
                -1.2558581798383155,
                -1.2866785236137686,
                -1.4365814061891482,
                -1.251455793095194,
                0.8189766616434005
            ]
        },
        {
            "positions": [
                2.104207059884836,
                -1.2581618877866956,
                -1.160090523512709,
                -1.4141874874113765,
                -1.1875575731130186,
                0.8943680525470008
            ]
        },
        {
            "positions": [
                2.0049744796218114,
                -1.2604655957350759,
                -1.0335025234116495,
                -1.391793568633605,
                -1.1236593531308434,
                0.9697594434506012
            ]
        },
        {
            "positions": [
                1.9057418993587865,
                -1.2627693036834562,
                -0.9069145233105897,
                -1.3693996498558332,
                -1.059761133148668,
                1.0451508343542013
            ]
        },
        {
            "positions": [
                1.8065093190957615,
                -1.2650730116318363,
                -0.7803265232095302,
                -1.3470057310780614,
                -0.9958629131664928,
                1.1205422252578017
            ]
        },
        {
            "positions": [
                1.7072767388327368,
                -1.2673767195802166,
                -0.6537385231084707,
                -1.32461181230029,
                -0.9319646931843175,
                1.195933616161402
            ]
        },
        {
            "positions": [
                1.608044158569712,
                -1.2696804275285969,
                -0.5271505230074109,
                -1.3022178935225182,
                -0.8680664732021421,
                1.2713250070650022
            ]
        },
        {
            "positions": [
                1.508811578306687,
                -1.271984135476977,
                -0.4005625229063514,
                -1.2798239747447466,
                -0.8041682532199669,
                1.3467163979686025
            ]
        },
        {
            "positions": [
                1.4095789980436624,
                -1.2742878434253573,
                -0.2739745228052919,
                -1.2574300559669749,
                -0.7402700332377916,
                1.4221077888722027
            ]
        },
        {
            "positions": [
                1.3103464177806377,
                -1.2765915513737376,
                -0.14738652270423214,
                -1.2350361371892031,
                -0.6763718132556163,
                1.497499179775803
            ]
        },
        {
            "positions": [
                1.2111138375176127,
                -1.278895259322118,
                -0.020798522603172387,
                -1.2126422184114314,
                -0.612473593273441,
                1.5728905706794034
            ]
        },
        {
            "positions": [
                1.111881257254588,
                -1.281198967270498,
                0.10578947749788714,
                -1.1902482996336599,
                -0.5485753732912657,
                1.6482819615830038
            ]
        },
        {
            "positions": [
                1.012648676991563,
                -1.2835026752188783,
                0.23237747759894667,
                -1.167854380855888,
                -0.48467715330909034,
                1.7236733524866041
            ]
        },
        {
            "positions": [
                0.9134160967285383,
                -1.2858063831672586,
                0.3589654777000062,
                -1.1454604620781166,
                -0.4207789333269152,
                1.799064743390204
            ]
        },
        {
            "positions": [
                0.8141835164655133,
                -1.2881100911156387,
                0.48555347780106617,
                -1.1230665433003448,
                -0.3568807133447398,
                1.8744561342938044
            ]
        },
        {
            "positions": [
                0.7149509362024888,
                -1.290413799064019,
                0.6121414779021253,
                -1.100672624522573,
                -0.29298249336256466,
                1.9498475251974048
            ]
        },
        {
            "positions": [
                0.6157183559394639,
                -1.2927175070123993,
                0.7387294780031852,
                -1.0782787057448016,
                -0.22908427338038928,
                2.025238916101005
            ]
        },
        {
            "positions": [
                0.5164857756764394,
                -1.2950212149607794,
                0.8653174781042448,
                -1.0558847869670298,
                -0.1651860533982139,
                2.100630307004605
            ]
        },
        {
            "positions": [
                0.41725319541341443,
                -1.2973249229091597,
                0.9919054782053043,
                -1.0334908681892583,
                -0.10128783341603853,
                2.176021697908206
            ]
        },
        {
            "positions": [
                0.3180206151503895,
                -1.29962863085754,
                1.1184934783063638,
                -1.0110969494114865,
                -0.03738961343386338,
                2.251413088811806
            ]
        },
        {
            "positions": [
                0.21878803488736454,
                -1.3019323388059203,
                1.2450814784074238,
                -0.9887030306337148,
                0.026508606548311997,
                2.326804479715406
            ]
        },
        {
            "positions": [
                0.11955545462434003,
                -1.3042360467543004,
                1.3716694785084829,
                -0.9663091118559433,
                0.09040682653048715,
                2.4021958706190065
            ]
        },
        {
            "positions": [
                0.02032287436131492,
                -1.3065397547026807,
                1.4982574786095428,
                -0.9439151930781715,
                0.1543050465126626,
                2.477587261522607
            ]
        },
        {
            "positions": [
                0.039590729528493296,
                -1.2701314111033537,
                1.6021371606662496,
                -0.9089748876820083,
                0.1480556758754331,
                2.6068222024046706
            ]
        },
        {
            "positions": [
                0.05885858469567167,
                -1.2337230675040267,
                1.706016842722956,
                -0.8740345822858451,
                0.1418063052382036,
                2.736057143286734
            ]
        },
        {
            "positions": [
                0.07812643986285005,
                -1.1973147239046995,
                1.8098965247796626,
                -0.839094276889682,
                0.1355569346009741,
                2.865292084168798
            ]
        },
        {
            "positions": [
                0.09739429503002843,
                -1.1609063803053725,
                1.9137762068363693,
                -0.8041539714935187,
                0.1293075639637446,
                2.9945270250508615
            ]
        },
        {
            "positions": [
                0.12180954559066179,
                -1.139245144611702,
                1.9716642115017955,
                -0.7789190337261537,
                0.13142165423355248,
                3.078919873316809
            ]
        }
    ]
}