{
    "goal": {
        "global_pose": {
            "orientation": {
                "w": -0.4816463035849501,
                "x": 0.5182115481033762,
                "y": 0.4908360881923453,
                "z": -0.5084816262002911
            },
            "position": {
                "x": -0.8240239810943604,
                "y": -0.300875300988555,
                "z": 0.16403168439865112
            }
        },
        "name": "move_to_storage_C"
    },
    "id": "LazyPRM_move_to_storage_C_72",
    "joint_names": [
        "shoulder_pan_joint",
        "shoulder_lift_joint",
        "elbow_joint",
        "wrist_1_joint",
        "wrist_2_joint",
        "wrist_3_joint"
    ],
    "metrics": {
        "cart_traj_len": 0.5761982337299675,
        "distance_elbow_joint": 0.25527465298106744,
        "distance_shoulder_lift_joint": 0.18903356957928397,
        "distance_shoulder_pan_joint": 0.49492506697899774,
        "distance_wrist_1_joint": 0.07267993321206456,
        "distance_wrist_2_joint": 1.0665710287068104,
        "distance_wrist_3_joint": 0.060792363493571866,
        "smoothness": 0.0,
        "time": 0.01178419,
        "traj_len": 1.462626615015533,
        "weighted_distance": 1.8439393438662277
    },
    "planner": "LazyPRM",
    "start": {
        "state": {
            "elbow_joint": 2.010868314990456,
            "shoulder_lift_joint": -1.1634956873337592,
            "shoulder_pan_joint": -2.4736205022346125,
            "wrist_1_joint": -0.8367026794202681,
            "wrist_2_joint": 0.6746043897044499,
            "wrist_3_joint": -3.1496632123970403
        }
    },
    "waypoints": [
        {
            "positions": [
                -2.4736205022346125,
                -1.1634956873337592,
                2.010868314990456,
                -0.8367026794202681,
                0.6746043897044499,
                -3.1496632123970403
            ]
        },
        {
            "positions": [
                -2.556108013397779,
                -1.1319900924038786,
                1.9683225394936112,
                -0.8245893572182573,
                0.8523662278222517,
                -3.1395311518147784
            ]
        },
        {
            "positions": [
                -2.638595524560945,
                -1.1004844974739978,
                1.9257767639967667,
                -0.8124760350162465,
                1.0301280659400534,
                -3.1293990912325165
            ]
        },
        {
            "positions": [
                -2.7210830357241114,
                -1.0689789025441172,
                1.883230988499922,
                -0.8003627128142359,
                1.207889904057855,
                -3.1192670306502546
            ]
        },
        {
            "positions": [
                -2.803570546887278,
                -1.0374733076142366,
                1.8406852130030775,
                -0.7882493906122251,
                1.3856517421756567,
                -3.109134970067992
            ]
        },
        {
            "positions": [
                -2.886058058050444,
                -1.0059677126843558,
                1.798139437506233,
                -0.7761360684102143,
                1.5634135802934588,
                -3.0990029094857303
            ]
        },
        {
            "positions": [
                -2.9685455692136102,
                -0.9744621177544752,
                1.7555936620093884,
                -0.7640227462082035,
                1.7411754184112604,
                -3.0888708489034684
            ]
        }
    ]
}