{
    "goal": {
        "global_pose": {
            "orientation": {
                "w": -0.4816463035849501,
                "x": 0.5182115481033762,
                "y": 0.4908360881923453,
                "z": -0.5084816262002911
            },
            "position": {
                "x": -0.8240239810943604,
                "y": 0.19912469901144506,
                "z": 0.16403168439865112
            }
        },
        "name": "move_to_storage_D"
    },
    "id": "LazyPRMstar_move_to_storage_D_94",
    "joint_names": [
        "shoulder_pan_joint",
        "shoulder_lift_joint",
        "elbow_joint",
        "wrist_1_joint",
        "wrist_2_joint",
        "wrist_3_joint"
    ],
    "metrics": {
        "cart_traj_len": 3.746106320032071,
        "distance_elbow_joint": 4.217614494731703,
        "distance_shoulder_lift_joint": 1.2654682911865902,
        "distance_shoulder_pan_joint": 2.8130069635666506,
        "distance_wrist_1_joint": 2.2907981881963932,
        "distance_wrist_2_joint": 0.875147958353113,
        "distance_wrist_3_joint": 3.160314533834797,
        "smoothness": 0.038868643939499396,
        "time": 5.0550913909999995,
        "traj_len": 3.8239182038674993,
        "weighted_distance": 4.910084077089549
    },
    "planner": "LazyPRMstar",
    "start": {
        "state": {
            "elbow_joint": -2.384821988534728,
            "shoulder_lift_joint": -2.2788054721415256,
            "shoulder_pan_joint": -0.1854694642142757,
            "wrist_1_joint": 1.4845938289331202,
            "wrist_2_joint": 0.17898776772866878,
            "wrist_3_joint": 0.037105688729662994
        }
    },
    "waypoints": [
        {
            "positions": [
                -0.1854694642142757,
                -2.2788054721415256,
                -2.384821988534728,
                1.4845938289331202,
                0.17898776772866878,
                0.037105688729662994
            ]
        },
        {
            "positions": [
                -0.16413794419596206,
                -2.270591611038495,
                -2.3873961729259188,
                1.4862630965734596,
                0.17890374630159794,
                0.05618136001972045
            ]
        },
        {
            "positions": [
                -0.07771817967176958,
                -2.235973522051478,
                -2.28154403165604,
                1.433766399870873,
                0.1988783785968274,
                0.15190727360750833
            ]
        },
        {
            "positions": [
                0.008701584852422894,
                -2.201355433064461,
                -2.175691890386161,
                1.3812697031682863,
                0.21885301089205683,
                0.24763318719529626
            ]
        },
        {
            "positions": [
                0.09512134937661537,
                -2.1667373440774447,
                -2.069839749116282,
                1.3287730064656997,
                0.23882764318728625,
                0.3433591007830842
            ]
        },
        {
            "positions": [
                0.18154111390080785,
                -2.1321192550904278,
                -1.9639876078464031,
                1.2762763097631131,
                0.25880227548251566,
                0.43908501437087205
            ]
        },
        {
            "positions": [
                0.2679608784250003,
                -2.097501166103411,
                -1.8581354665765244,
                1.2237796130605265,
                0.2787769077777451,
                0.5348109279586599
            ]
        },
        {
            "positions": [
                0.3543806429491928,
                -2.062883077116394,
                -1.7522833253066454,
                1.17128291635794,
                0.29875154007297455,
                0.6305368415464478
            ]
        },
        {
            "positions": [
                0.44080040747338534,
                -2.028264988129377,
                -1.6464311840367665,
                1.1187862196553533,
                0.318726172368204,
                0.7262627551342357
            ]
        },
        {
            "positions": [
                0.5272201719975778,
                -1.9936468991423604,
                -1.5405790427668875,
                1.0662895229527667,
                0.33870080466343344,
                0.8219886687220236
            ]
        },
        {
            "positions": [
                0.6136399365217703,
                -1.9590288101553437,
                -1.4347269014970088,
                1.0137928262501803,
                0.3586754369586629,
                0.9177145823098114
            ]
        },
        {
            "positions": [
                0.7000597010459627,
                -1.9244107211683268,
                -1.32887476022713,
                0.9612961295475936,
                0.37865006925389233,
                1.0134404958975993
            ]
        },
        {
            "positions": [
                0.7864794655701551,
                -1.8897926321813099,
                -1.223022618957251,
                0.908799432845007,
                0.3986247015491218,
                1.1091664094853873
            ]
        },
        {
            "positions": [
                0.8728992300943477,
                -1.8551745431942932,
                -1.117170477687372,
                0.8563027361424203,
                0.4185993338443512,
                1.2048923230731754
            ]
        },
        {
            "positions": [
                0.9593189946185403,
                -1.8205564542072763,
                -1.0113183364174931,
                0.8038060394398338,
                0.4385739661395806,
                1.300618236660963
            ]
        },
        {
            "positions": [
                1.0457387591427327,
                -1.7859383652202596,
                -0.9054661951476144,
                0.7513093427372471,
                0.45854859843481005,
                1.396344150248751
            ]
        },
        {
            "positions": [
                1.1321585236669252,
                -1.7513202762332427,
                -0.7996140538777354,
                0.6988126460346605,
                0.4785232307300395,
                1.492070063836539
            ]
        },
        {
            "positions": [
                1.2185782881911176,
                -1.7167021872462258,
                -0.6937619126078565,
                0.6463159493320739,
                0.49849786302526894,
                1.5877959774243269
            ]
        },
        {
            "positions": [
                1.30499805271531,
                -1.6820840982592091,
                -0.5879097713379777,
                0.5938192526294873,
                0.5184724953204984,
                1.6835218910121148
            ]
        },
        {
            "positions": [
                1.3914178172395026,
                -1.6474660092721924,
                -0.48205763006809876,
                0.5413225559269008,
                0.5384471276157278,
                1.7792478045999025
            ]
        },
        {
            "positions": [
                1.477837581763695,
                -1.6128479202851755,
                -0.3762054887982198,
                0.4888258592243142,
                0.5584217599109572,
                1.8749737181876904
            ]
        },
        {
            "positions": [
                1.5642573462878875,
                -1.5782298312981586,
                -0.2703533475283413,
                0.4363291625217276,
                0.5783963922061867,
                1.9706996317754784
            ]
        },
        {
            "positions": [
                1.65067711081208,
                -1.5436117423111417,
                -0.16450120625846232,
                0.383832465819141,
                0.5983710245014161,
                2.066425545363266
            ]
        },
        {
            "positions": [
                1.7370968753362723,
                -1.508993653324125,
                -0.058649064988583355,
                0.3313357691165544,
                0.6183456567966455,
                2.1621514589510538
            ]
        },
        {
            "positions": [
                1.8235166398604652,
                -1.4743755643371081,
                0.04720307628129605,
                0.27883907241396755,
                0.638320289091875,
                2.257877372538842
            ]
        },
        {
            "positions": [
                1.9099364043846574,
                -1.4397574753500915,
                0.15305521755117457,
                0.22634237571138094,
                0.6582949213871044,
                2.35360328612663
            ]
        },
        {
            "positions": [
                1.99635616890885,
                -1.4051393863630746,
                0.25890735882105353,
                0.17384567900879455,
                0.6782695536823339,
                2.449329199714418
            ]
        },
        {
            "positions": [
                2.0827759334330427,
                -1.3705212973760577,
                0.3647595000909325,
                0.12134898230620794,
                0.6982441859775632,
                2.5450551133022055
            ]
        },
        {
            "positions": [
                2.169195697957235,
                -1.3359032083890408,
                0.47061164136081146,
                0.06885228560362133,
                0.7182188182727927,
                2.6407810268899934
            ]
        },
        {
            "positions": [
                2.2556154624814275,
                -1.301285119402024,
                0.57646378263069,
                0.016355588901034723,
                0.7381934505680221,
                2.7365069404777813
            ]
        },
        {
            "positions": [
                2.3420352270056197,
                -1.2666670304150074,
                0.6823159239005689,
                -0.036141107801551886,
                0.7581680828632515,
                2.8322328540655692
            ]
        },
        {
            "positions": [
                2.4284549915298124,
                -1.2320489414279905,
                0.7881680651704478,
                -0.08863780450413843,
                0.778142715158481,
                2.927958767653357
            ]
        },
        {
            "positions": [
                2.4568953497901784,
                -1.200804404217554,
                0.9366646469196115,
                -0.19067037871534642,
                0.8175462820255037,
                2.966453261212086
            ]
        },
        {
            "positions": [
                2.4853357080505445,
                -1.1695598670071177,
                1.0851612286687753,
                -0.2927029529265544,
                0.8569498488925265,
                3.004947754770815
            ]
        },
        {
            "positions": [
                2.5137760663109106,
                -1.1383153297966813,
                1.233657810417939,
                -0.39473552713776244,
                0.8963534157595492,
                3.0434422483295442
            ]
        },
        {
            "positions": [
                2.5422164245712766,
                -1.1070707925862446,
                1.3821543921671027,
                -0.4967681013489704,
                0.9357569826265719,
                3.081936741888273
            ]
        },
        {
            "positions": [
                2.5706567828316427,
                -1.0758262553758082,
                1.5306509739162664,
                -0.5988006755601785,
                0.9751605494935947,
                3.120431235447002
            ]
        },
        {
            "positions": [
                2.5990971410920087,
                -1.0445817181653718,
                1.67914755566543,
                -0.7008332497713864,
                1.0145641163606174,
                3.158925729005731
            ]
        },
        {
            "positions": [
                2.627537499352375,
                -1.0133371809549354,
                1.8276441374145935,
                -0.8028658239825944,
                1.0539676832276401,
                3.19742022256446
            ]
        }
    ]
}