{
    "goal": {
        "global_pose": {
            "orientation": {
                "w": 0.005598929693374612,
                "x": 0.007748599140229565,
                "y": 0.7110244013736278,
                "z": -0.7031023480610252
            },
            "position": {
                "x": -0.8858502320852131,
                "y": -0.7141253447532654,
                "z": 0.3711530566215515
            }
        },
        "name": "move_to_auspresseinheit_C"
    },
    "id": "LazyPRM_move_to_auspresseinheit_C_75",
    "joint_names": [
        "shoulder_pan_joint",
        "shoulder_lift_joint",
        "elbow_joint",
        "wrist_1_joint",
        "wrist_2_joint",
        "wrist_3_joint"
    ],
    "metrics": {
        "cart_traj_len": 0.49417809286772213,
        "distance_elbow_joint": 1.0175022378640248,
        "distance_shoulder_lift_joint": 0.33393818448613644,
        "distance_shoulder_pan_joint": 0.2563264168445998,
        "distance_wrist_1_joint": 0.7100619441256972,
        "distance_wrist_2_joint": 1.3160811366903462,
        "distance_wrist_3_joint": 0.08858867019078343,
        "smoothness": 6.45947944157498e-16,
        "time": 0.013003957,
        "traj_len": 1.929377772806971,
        "weighted_distance": 2.4343005178899335
    },
    "planner": "LazyPRM",
    "start": {
        "state": {
            "elbow_joint": 1.7527959577737207,
            "shoulder_lift_joint": -0.9740617694225068,
            "shoulder_pan_joint": -2.967991417825858,
            "wrist_1_joint": -0.759517768980727,
            "wrist_2_joint": 1.7443932448377408,
            "wrist_3_joint": -3.0840537646736568
        }
    },
    "waypoints": [
        {
            "positions": [
                -2.967991417825858,
                -0.9740617694225068,
                1.7527959577737207,
                -0.759517768980727,
                1.7443932448377408,
                -3.0840537646736568
            ]
        },
        {
            "positions": [
                -2.942358776141398,
                -0.9406679509738931,
                1.6510457339873181,
                -0.6885115745681573,
                1.6127851311687063,
                -3.092912631692735
            ]
        },
        {
            "positions": [
                -2.916726134456938,
                -0.9072741325252794,
                1.5492955102009156,
                -0.6175053801555875,
                1.4811770174996717,
                -3.1017714987118135
            ]
        },
        {
            "positions": [
                -2.891093492772478,
                -0.8738803140766659,
                1.4475452864145133,
                -0.5464991857430178,
                1.349568903830637,
                -3.110630365730892
            ]
        },
        {
            "positions": [
                -2.865460851088018,
                -0.8404864956280522,
                1.3457950626281108,
                -0.4754929913304481,
                1.2179607901616023,
                -3.11948923274997
            ]
        },
        {
            "positions": [
                -2.8398282094035583,
                -0.8070926771794386,
                1.2440448388417082,
                -0.40448679691787837,
                1.0863526764925677,
                -3.1283480997690485
            ]
        },
        {
            "positions": [
                -2.814195567719098,
                -0.7736988587308249,
                1.142294615055306,
                -0.33348060250530864,
                0.9547445628235331,
                -3.137206966788127
            ]
        },
        {
            "positions": [
                -2.788562926034638,
                -0.7403050402822113,
                1.0405443912689032,
                -0.262474408092739,
                0.8231364491544986,
                -3.146065833807205
            ]
        },
        {
            "positions": [
                -2.762930284350178,
                -0.7069112218335976,
                0.9387941674825008,
                -0.1914682136801692,
                0.6915283354854638,
                -3.1549247008262835
            ]
        },
        {
            "positions": [
                -2.7372976426657183,
                -0.673517403384984,
                0.8370439436960982,
                -0.12046201926759947,
                0.5599202218164292,
                -3.163783567845362
            ]
        },
        {
            "positions": [
                -2.711665000981258,
                -0.6401235849363703,
                0.7352937199096957,
                -0.04945582485502973,
                0.4283121081473946,
                -3.17264243486444
            ]
        }
    ]
}