{
    "goal": {
        "global_pose": {
            "orientation": {
                "w": 0.7031023480610252,
                "x": -0.7110244013736278,
                "y": 0.0077485991402295624,
                "z": 0.005598929693374583
            },
            "position": {
                "x": -0.8841497679147869,
                "y": 0.44412534475326537,
                "z": 0.3711530566215515
            }
        },
        "name": "move_to_auspresseinheit_D"
    },
    "id": "LazyPRMstar_move_to_auspresseinheit_D_33",
    "joint_names": [
        "shoulder_pan_joint",
        "shoulder_lift_joint",
        "elbow_joint",
        "wrist_1_joint",
        "wrist_2_joint",
        "wrist_3_joint"
    ],
    "metrics": {
        "cart_traj_len": 0.3455974951225578,
        "distance_elbow_joint": 0.6735109244653159,
        "distance_shoulder_lift_joint": 0.14054921461020475,
        "distance_shoulder_pan_joint": 0.13409255845747983,
        "distance_wrist_1_joint": 0.6343335748317727,
        "distance_wrist_2_joint": 1.4412095505781675,
        "distance_wrist_3_joint": 0.07410405669809528,
        "smoothness": 1.5789838488298199e-15,
        "time": 5.001412361,
        "traj_len": 1.7600567830729315,
        "weighted_distance": 2.306848741995705
    },
    "planner": "LazyPRMstar",
    "start": {
        "state": {
            "elbow_joint": -1.8275523626775212,
            "shoulder_lift_joint": -2.126789852344167,
            "shoulder_pan_joint": -0.03513704404078235,
            "wrist_1_joint": -2.347782403156801,
            "wrist_2_joint": -1.6058999987535132,
            "wrist_3_joint": -3.0880379163319196
        }
    },
    "waypoints": [
        {
            "positions": [
                -0.03513704404078235,
                -2.126789852344167,
                -1.8275523626775212,
                -2.347782403156801,
                -1.6058999987535132,
                -3.0880379163319196
            ]
        },
        {
            "positions": [
                -0.05189861384796733,
                -2.1443585041704423,
                -1.7433634971193568,
                -2.4270741000107723,
                -1.4257488049312423,
                -3.0787749092446575
            ]
        },
        {
            "positions": [
                -0.06866018365515231,
                -2.161927155996718,
                -1.6591746315611922,
                -2.506365796864744,
                -1.2455976111089713,
                -3.0695119021573958
            ]
        },
        {
            "positions": [
                -0.0854217534623373,
                -2.1794958078229936,
                -1.5749857660030278,
                -2.5856574937187156,
                -1.0654464172867004,
                -3.060248895070134
            ]
        },
        {
            "positions": [
                -0.10218332326952226,
                -2.197064459649269,
                -1.4907969004448631,
                -2.6649491905726874,
                -0.8852952234644295,
                -3.050985887982872
            ]
        },
        {
            "positions": [
                -0.11894489307670725,
                -2.214633111475545,
                -1.4066080348866987,
                -2.744240887426659,
                -0.7051440296421585,
                -3.04172288089561
            ]
        },
        {
            "positions": [
                -0.13570646288389224,
                -2.2322017633018203,
                -1.3224191693285343,
                -2.8235325842806303,
                -0.5249928358198876,
                -3.032459873808348
            ]
        },
        {
            "positions": [
                -0.1524680326910772,
                -2.249770415128096,
                -1.23823030377037,
                -2.9028242811346017,
                -0.3448416419976166,
                -3.0231968667210865
            ]
        },
        {
            "positions": [
                -0.1692296024982622,
                -2.2673390669543716,
                -1.1540414382122053,
                -2.9821159779885735,
                -0.16469044817534578,
                -3.0139338596338243
            ]
        }
    ]
}