{
    "goal": {
        "global_pose": {
            "orientation": {
                "w": -0.00223480608172531,
                "x": 0.0024358444001904467,
                "y": 0.7094548369677653,
                "z": -0.704743149386269
            },
            "position": {
                "x": 0.6205249238014221,
                "y": -0.6371506643295288,
                "z": 0.19426114857196808
            }
        },
        "name": "move_to_magneteinheit_B"
    },
    "id": "LazyPRM_move_to_magneteinheit_B_57",
    "joint_names": [
        "shoulder_pan_joint",
        "shoulder_lift_joint",
        "elbow_joint",
        "wrist_1_joint",
        "wrist_2_joint",
        "wrist_3_joint"
    ],
    "metrics": {
        "cart_traj_len": 3.9942202664972424,
        "distance_elbow_joint": 4.697902122833543,
        "distance_shoulder_lift_joint": 1.0664931763781995,
        "distance_shoulder_pan_joint": 3.094223217391097,
        "distance_wrist_1_joint": 1.802317296827696,
        "distance_wrist_2_joint": 1.895433770401388,
        "distance_wrist_3_joint": 0.5164335526553905,
        "smoothness": 0.8741266546258156,
        "time": 3.563497251,
        "traj_len": 3.615633158450579,
        "weighted_distance": 4.219410066469859
    },
    "planner": "LazyPRM",
    "start": {
        "state": {
            "elbow_joint": 2.6216224122426386,
            "shoulder_lift_joint": -1.4174107377796124,
            "shoulder_pan_joint": 0.7066234856936794,
            "wrist_1_joint": 1.9546482284002225,
            "wrist_2_joint": -0.7096286983471962,
            "wrist_3_joint": 0.005740856962016249
        }
    },
    "waypoints": [
        {
            "positions": [
                0.7066234856936794,
                -1.4174107377796124,
                2.6216224122426386,
                1.9546482284002225,
                -0.7096286983471962,
                0.005740856962016249
            ]
        },
        {
            "positions": [
                0.6446818730689428,
                -1.4249217690515263,
                2.6504006381933496,
                2.061339172246318,
                -0.7381820532656768,
                -0.05966164952558306
            ]
        },
        {
            "positions": [
                0.582740260444206,
                -1.4324328003234403,
                2.6791788641440606,
                2.168030116092413,
                -0.7667354081841573,
                -0.12506415601318235
            ]
        },
        {
            "positions": [
                0.5207986478194694,
                -1.4399438315953543,
                2.707957090094771,
                2.2747210599385084,
                -0.795288763102638,
                -0.19046666250078165
            ]
        },
        {
            "positions": [
                0.4588570351947327,
                -1.4474548628672683,
                2.736735316045482,
                2.381412003784604,
                -0.8238421180211185,
                -0.25586916898838097
            ]
        },
        {
            "positions": [
                0.5150053235341745,
                -1.4649930221333956,
                2.528367626041939,
                2.3473214194859864,
                -0.7687015160511879,
                -0.24638412644974284
            ]
        },
        {
            "positions": [
                0.5711536118736162,
                -1.4825311813995228,
                2.319999936038396,
                2.3132308351873685,
                -0.7135609140812571,
                -0.2368990839111047
            ]
        },
        {
            "positions": [
                0.627301900213058,
                -1.50006934066565,
                2.1116322460348522,
                2.2791402508887506,
                -0.6584203121113263,
                -0.22741404137246654
            ]
        },
        {
            "positions": [
                0.6834501885524997,
                -1.5176074999317775,
                1.903264556031309,
                2.245049666590133,
                -0.6032797101413957,
                -0.2179289988338284
            ]
        },
        {
            "positions": [
                0.7395984768919415,
                -1.5351456591979047,
                1.694896866027766,
                2.2109590822915157,
                -0.548139108171465,
                -0.20844395629519027
            ]
        },
        {
            "positions": [
                0.7957467652313832,
                -1.552683818464032,
                1.4865291760242227,
                2.176868497992898,
                -0.4929985062015343,
                -0.1989589137565521
            ]
        },
        {
            "positions": [
                0.851895053570825,
                -1.5702219777301591,
                1.2781614860206796,
                2.14277791369428,
                -0.43785790423160365,
                -0.18947387121791398
            ]
        },
        {
            "positions": [
                0.9080433419102667,
                -1.5877601369962864,
                1.0697937960171362,
                2.1086873293956625,
                -0.3827173022616729,
                -0.17998882867927585
            ]
        },
        {
            "positions": [
                0.9641916302497084,
                -1.6052982962624136,
                0.861426106013593,
                2.074596745097045,
                -0.32757670029174224,
                -0.17050378614063771
            ]
        },
        {
            "positions": [
                1.0203399185891502,
                -1.622836455528541,
                0.6530584160100497,
                2.040506160798427,
                -0.2724360983218115,
                -0.16101874360199958
            ]
        },
        {
            "positions": [
                1.076488206928592,
                -1.6403746147946683,
                0.4446907260065065,
                2.0064155764998093,
                -0.21729549635188083,
                -0.15153370106336145
            ]
        },
        {
            "positions": [
                1.1326364952680337,
                -1.6579127740607955,
                0.23632303600296334,
                1.9723249922011918,
                -0.16215489438195008,
                -0.1420486585247233
            ]
        },
        {
            "positions": [
                1.1887847836074754,
                -1.6754509333269227,
                0.027955345999420234,
                1.9382344079025742,
                -0.1070142924120194,
                -0.13256361598608515
            ]
        },
        {
            "positions": [
                1.3084035247499965,
                -1.717187536208676,
                -0.09070485469003753,
                1.9062592313667939,
                -0.05237588771995639,
                -0.1241812987547127
            ]
        },
        {
            "positions": [
                1.4280222658925177,
                -1.7589241390904289,
                -0.2093650553794953,
                1.8742840548310138,
                0.0022625169721066235,
                -0.11579898152334024
            ]
        },
        {
            "positions": [
                1.5476410070350388,
                -1.800660741972182,
                -0.3280252560689531,
                1.8423088782952335,
                0.05690092166416963,
                -0.10741666429196778
            ]
        },
        {
            "positions": [
                1.66725974817756,
                -1.8423973448539352,
                -0.4466854567584108,
                1.8103337017594532,
                0.11153932635623265,
                -0.09903434706059533
            ]
        },
        {
            "positions": [
                1.786878489320081,
                -1.8841339477356882,
                -0.5653456574478686,
                1.778358525223673,
                0.1661777310482956,
                -0.09065202982922288
            ]
        },
        {
            "positions": [
                1.9064972304626024,
                -1.9258705506174414,
                -0.6840058581373265,
                1.7463833486878928,
                0.22081613574035866,
                -0.0822697125978504
            ]
        },
        {
            "positions": [
                2.0261159716051234,
                -1.9676071534991946,
                -0.8026660588267842,
                1.7144081721521125,
                0.2754545404324217,
                -0.07388739536647795
            ]
        },
        {
            "positions": [
                2.145734712747645,
                -2.0093437563809475,
                -0.9213262595162419,
                1.6824329956163324,
                0.3300929451244847,
                -0.0655050781351055
            ]
        },
        {
            "positions": [
                2.2653534538901656,
                -2.0510803592627007,
                -1.0399864602056996,
                1.6504578190805521,
                0.38473134981654766,
                -0.05712276090373304
            ]
        },
        {
            "positions": [
                2.384972195032687,
                -2.092816962144454,
                -1.1586466608951573,
                1.6184826425447718,
                0.4393697545086106,
                -0.04874044367236059
            ]
        },
        {
            "positions": [
                2.504590936175208,
                -2.134553565026207,
                -1.2773068615846153,
                1.5865074660089917,
                0.49400815920067365,
                -0.04035812644098814
            ]
        },
        {
            "positions": [
                2.6242096773177295,
                -2.1762901679079603,
                -1.3959670622740732,
                1.5545322894732114,
                0.5486465638927367,
                -0.031975809209615666
            ]
        },
        {
            "positions": [
                2.7438284184602506,
                -2.218026770789713,
                -1.514627262963531,
                1.5225571129374311,
                0.6032849685847997,
                -0.023593491978243217
            ]
        },
        {
            "positions": [
                2.8634471596027717,
                -2.259763373671466,
                -1.6332874636529886,
                1.490581936401651,
                0.6579233732768627,
                -0.015211174746870754
            ]
        },
        {
            "positions": [
                2.983065900745293,
                -2.3014999765532194,
                -1.7519476643424463,
                1.4586067598658707,
                0.7125617779689257,
                -0.0068288575154983044
            ]
        },
        {
            "positions": [
                2.902503925409895,
                -2.3471009609543674,
                -1.728421104681754,
                1.3454196904847253,
                0.6513576642845703,
                -0.005383053707470629
            ]
        },
        {
            "positions": [
                2.821941950074498,
                -2.3927019453555154,
                -1.7048945450210615,
                1.23223262110358,
                0.5901535506002149,
                -0.003937249899442953
            ]
        },
        {
            "positions": [
                2.7413799747391003,
                -2.438302929756664,
                -1.6813679853603691,
                1.1190455517224347,
                0.5289494369158596,
                -0.002491446091415276
            ]
        },
        {
            "positions": [
                2.6608179994037027,
                -2.483903914157812,
                -1.6578414256996767,
                1.0058584823412893,
                0.46774532323150414,
                -0.0010456422833876001
            ]
        }
    ]
}