{
    "goal": {
        "global_pose": {
            "orientation": {
                "w": 0.005598929693374612,
                "x": 0.007748599140229565,
                "y": 0.7110244013736278,
                "z": -0.7031023480610252
            },
            "position": {
                "x": 0.1141497679147869,
                "y": -0.7141253447532654,
                "z": 0.3711530566215515
            }
        },
        "name": "move_to_auspresseinheit_B"
    },
    "id": "LazyPRM_move_to_auspresseinheit_B_10",
    "joint_names": [
        "shoulder_pan_joint",
        "shoulder_lift_joint",
        "elbow_joint",
        "wrist_1_joint",
        "wrist_2_joint",
        "wrist_3_joint"
    ],
    "metrics": {
        "cart_traj_len": 0.5652250294260582,
        "distance_elbow_joint": 0.05868621520544326,
        "distance_shoulder_lift_joint": 0.295342249880868,
        "distance_shoulder_pan_joint": 0.5779411230666056,
        "distance_wrist_1_joint": 0.3142116589808541,
        "distance_wrist_2_joint": 0.9963347773979727,
        "distance_wrist_3_joint": 0.0019883080928204677,
        "smoothness": 5.075305255429287e-16,
        "time": 0.011753147,
        "traj_len": 1.4981669909007356,
        "weighted_distance": 1.886538466395274
    },
    "planner": "LazyPRM",
    "start": {
        "state": {
            "elbow_joint": 2.0193083361928714,
            "shoulder_lift_joint": -1.1220246554650708,
            "shoulder_pan_joint": -1.0952077554168747,
            "wrist_1_joint": -0.8559753972642168,
            "wrist_2_joint": 0.4759566250798843,
            "wrist_3_joint": -3.1240929996934557
        }
    },
    "waypoints": [
        {
            "positions": [
                -1.0952077554168747,
                -1.1220246554650708,
                2.0193083361928714,
                -0.8559753972642168,
                0.4759566250798843,
                -3.1240929996934557
            ]
        },
        {
            "positions": [
                -1.1915312759279755,
                -1.171248363778549,
                2.0095273003252974,
                -0.8036067874340744,
                0.6420124213128797,
                -3.1244243843755926
            ]
        },
        {
            "positions": [
                -1.2878547964390765,
                -1.2204720720920268,
                1.9997462644577237,
                -0.7512381776039321,
                0.8080682175458751,
                -3.124755769057729
            ]
        },
        {
            "positions": [
                -1.3841783169501776,
                -1.2696957804055047,
                1.9899652285901497,
                -0.6988695677737897,
                0.9741240137788707,
                -3.125087153739866
            ]
        },
        {
            "positions": [
                -1.4805018374612784,
                -1.3189194887189828,
                1.9801841927225758,
                -0.6465009579436474,
                1.140179810011866,
                -3.125418538422003
            ]
        },
        {
            "positions": [
                -1.5768253579723792,
                -1.368143197032461,
                1.970403156855002,
                -0.594132348113505,
                1.3062356062448617,
                -3.1257499231041392
            ]
        },
        {
            "positions": [
                -1.6731488784834803,
                -1.4173669053459388,
                1.9606221209874282,
                -0.5417637382833627,
                1.472291402477857,
                -3.126081307786276
            ]
        }
    ]
}