{
    "goal": {
        "global_pose": {
            "orientation": {
                "w": 0.5084816217422485,
                "x": -0.49083608388900757,
                "y": 0.5182115435600281,
                "z": -0.4816462993621826
            },
            "position": {
                "x": 0.5540239810943604,
                "y": 0.030875300988554955,
                "z": 0.16403168439865112
            }
        },
        "name": "move_to_storage_A"
    },
    "id": "LazyPRM_move_to_storage_A_6",
    "joint_names": [
        "shoulder_pan_joint",
        "shoulder_lift_joint",
        "elbow_joint",
        "wrist_1_joint",
        "wrist_2_joint",
        "wrist_3_joint"
    ],
    "metrics": {
        "cart_traj_len": 0.35292212236616954,
        "distance_elbow_joint": 0.4506162244056544,
        "distance_shoulder_lift_joint": 0.23556411698370017,
        "distance_shoulder_pan_joint": 0.4612366187037519,
        "distance_wrist_1_joint": 0.24265126425410355,
        "distance_wrist_2_joint": 1.1003991680990952,
        "distance_wrist_3_joint": 0.09286842684429475,
        "smoothness": 8.881784197001252e-16,
        "time": 0.021909269,
        "traj_len": 1.6072759001772532,
        "weighted_distance": 2.027837050981264
    },
    "planner": "LazyPRM",
    "start": {
        "state": {
            "elbow_joint": 1.971548259319323,
            "shoulder_lift_joint": -1.1394851275133948,
            "shoulder_pan_joint": 0.1228115487234821,
            "wrist_1_joint": -0.7804723859257726,
            "wrist_2_joint": 0.12958671773740124,
            "wrist_3_joint": -3.192489227718131
        }
    },
    "waypoints": [
        {
            "positions": [
                0.1228115487234821,
                -1.1394851275133948,
                1.971548259319323,
                -0.7804723859257726,
                0.12958671773740124,
                -3.192489227718131
            ]
        },
        {
            "positions": [
                0.0569206031943747,
                -1.173137144225352,
                2.035922005662988,
                -0.8151368522477874,
                0.2867865988944148,
                -3.1792223095975176
            ]
        },
        {
            "positions": [
                -0.008970342334732706,
                -1.2067891609373091,
                2.100295752006653,
                -0.8498013185698022,
                0.4439864800514284,
                -3.165955391476904
            ]
        },
        {
            "positions": [
                -0.07486128786384011,
                -1.2404411776492663,
                2.164669498350318,
                -0.8844657848918169,
                0.601186361208442,
                -3.1526884733562905
            ]
        },
        {
            "positions": [
                -0.1407522333929475,
                -1.2740931943612235,
                2.2290432446939827,
                -0.9191302512138317,
                0.7583862423654556,
                -3.139421555235677
            ]
        },
        {
            "positions": [
                -0.20664317892205497,
                -1.3077452110731806,
                2.2934169910376476,
                -0.9537947175358465,
                0.9155861235224693,
                -3.1261546371150635
            ]
        },
        {
            "positions": [
                -0.2725341244511623,
                -1.3413972277851378,
                2.3577907373813125,
                -0.9884591838578614,
                1.0727860046794828,
                -3.11288771899445
            ]
        },
        {
            "positions": [
                -0.3384250699802698,
                -1.375049244497095,
                2.4221644837249774,
                -1.0231236501798762,
                1.2299858858364965,
                -3.0996208008738364
            ]
        }
    ]
}{
    "goal": {
        "global_pose": {
            "orientation": {
                "w": 0.5084816217422485,
                "x": -0.49083608388900757,
                "y": 0.5182115435600281,
                "z": -0.4816462993621826
            },
            "position": {
                "x": 0.5540239810943604,
                "y": 0.030875300988554955,
                "z": 0.16403168439865112
            }
        },
        "name": "move_to_storage_A"
    },
    "id": "LazyPRM_move_to_storage_A_6",
    "joint_names": [
        "shoulder_pan_joint",
        "shoulder_lift_joint",
        "elbow_joint",
        "wrist_1_joint",
        "wrist_2_joint",
        "wrist_3_joint"
    ],
    "metrics": {
        "cart_traj_len": 0.35288794260218725,
        "distance_elbow_joint": 0.44956013775433457,
        "distance_shoulder_lift_joint": 0.23505315345238054,
        "distance_shoulder_pan_joint": 0.4586309656845574,
        "distance_wrist_1_joint": 0.2380437185594766,
        "distance_wrist_2_joint": 1.111114899832799,
        "distance_wrist_3_joint": 0.09866097082788317,
        "smoothness": 1.3322676295501878e-15,
        "time": 0.021947221,
        "traj_len": 1.609678180914257,
        "weighted_distance": 2.0340954761661196
    },
    "planner": "LazyPRM",
    "start": {
        "state": {
            "elbow_joint": 1.97154746011099,
            "shoulder_lift_joint": -1.13948474672311,
            "shoulder_pan_joint": 0.12281154466712228,
            "wrist_1_joint": -0.7804688027058302,
            "wrist_2_joint": 0.12958655903071145,
            "wrist_3_joint": 3.0906928834467795
        }
    },
    "waypoints": [
        {
            "positions": [
                0.12281154466712228,
                -1.13948474672311,
                1.97154746011099,
                -0.7804688027058302,
                0.12958655903071145,
                3.0906928834467795
            ]
        },
        {
            "positions": [
                0.05729283528361409,
                -1.1730637686448786,
                2.0357703369330378,
                -0.8144750482143268,
                0.2883172590068256,
                3.1047873078507626
            ]
        },
        {
            "positions": [
                -0.008225874099894101,
                -1.2066427905666472,
                2.0999932137550856,
                -0.8484812937228234,
                0.4470479589829397,
                3.118881732254746
            ]
        },
        {
            "positions": [
                -0.0737445834834023,
                -1.240221812488416,
                2.1642160905771335,
                -0.8824875392313202,
                0.6057786589590539,
                3.1329761566587293
            ]
        },
        {
            "positions": [
                -0.13926329286691047,
                -1.2738008344101845,
                2.228438967399181,
                -0.9164937847398168,
                0.764509358935168,
                3.147070581062713
            ]
        },
        {
            "positions": [
                -0.2047820022504187,
                -1.3073798563319532,
                2.2926618442212288,
                -0.9505000302483135,
                0.9232400589112822,
                3.161165005466696
            ]
        },
        {
            "positions": [
                -0.2703007116339269,
                -1.3409588782537218,
                2.3568847210432766,
                -0.9845062757568102,
                1.0819707588873964,
                3.1752594298706796
            ]
        },
        {
            "positions": [
                -0.3358194210174351,
                -1.3745379001754905,
                2.4211075978653245,
                -1.0185125212653068,
                1.2407014588635106,
                3.1893538542746627
            ]
        }
    ]
}{
    "goal": {
        "global_pose": {
            "orientation": {
                "w": 0.5084816217422485,
                "x": -0.49083608388900757,
                "y": 0.5182115435600281,
                "z": -0.4816462993621826
            },
            "position": {
                "x": 0.5540239810943604,
                "y": 0.030875300988554955,
                "z": 0.16403168439865112
            }
        },
        "name": "move_to_storage_A"
    },
    "id": "LazyPRM_move_to_storage_A_6",
    "joint_names": [
        "shoulder_pan_joint",
        "shoulder_lift_joint",
        "elbow_joint",
        "wrist_1_joint",
        "wrist_2_joint",
        "wrist_3_joint"
    ],
    "metrics": {
        "cart_traj_len": 0.35379680784267575,
        "distance_elbow_joint": 0.45253502307852456,
        "distance_shoulder_lift_joint": 0.2332947903107423,
        "distance_shoulder_pan_joint": 0.4593867227588861,
        "distance_wrist_1_joint": 0.25580088869489437,
        "distance_wrist_2_joint": 1.1138641674245473,
        "distance_wrist_3_joint": 0.10043524050288699,
        "smoothness": 6.661338165333112e-16,
        "time": 0.011711202,
        "traj_len": 1.6171941234033969,
        "weighted_distance": 2.0459355732514397
    },
    "planner": "LazyPRM",
    "start": {
        "state": {
            "elbow_joint": 1.9715472970024885,
            "shoulder_lift_joint": -1.1394870060712896,
            "shoulder_pan_joint": 0.12281152778156021,
            "wrist_1_joint": -0.780463741449964,
            "wrist_2_joint": 0.12958659822042276,
            "wrist_3_joint": 3.090690232415272
        }
    },
    "waypoints": [
        {
            "positions": [
                0.12281152778156021,
                -1.1394870060712896,
                1.9715472970024885,
                -0.780463741449964,
                0.12958659822042276,
                3.090690232415272
            ]
        },
        {
            "positions": [
                0.05718485310171935,
                -1.1728148332585384,
                2.0361951574422776,
                -0.8170067255492346,
                0.2887100507096438,
                3.1050381239156843
            ]
        },
        {
            "positions": [
                -0.008441821578121511,
                -1.2061426604457874,
                2.100843017882067,
                -0.8535497096485052,
                0.44783350319886484,
                3.119386015416097
            ]
        },
        {
            "positions": [
                -0.07406849625796236,
                -1.2394704876330362,
                2.1654908783218563,
                -0.8900926937477759,
                0.6069569556880858,
                3.1337339069165093
            ]
        },
        {
            "positions": [
                -0.13969517093780323,
                -1.2727983148202853,
                2.2301387387616454,
                -0.9266356778470465,
                0.7660804081773068,
                3.1480817984169214
            ]
        },
        {
            "positions": [
                -0.20532184561764413,
                -1.306126142007534,
                2.2947865992014345,
                -0.9631786619463172,
                0.9252038606665279,
                3.162429689917334
            ]
        },
        {
            "positions": [
                -0.27094852029748495,
                -1.3394539691947829,
                2.359434459641224,
                -0.9997216460455878,
                1.084327313155749,
                3.1767775814177464
            ]
        },
        {
            "positions": [
                -0.33657519497732585,
                -1.372781796382032,
                2.424082320081013,
                -1.0362646301448584,
                1.24345076564497,
                3.191125472918159
            ]
        }
    ]
}