{
    "goal": {
        "global_pose": {
            "orientation": {
                "w": 0.7047431493862688,
                "x": -0.7094548369677653,
                "y": 0.0024358444001904,
                "z": -0.0022348060817251984
            },
            "position": {
                "x": -0.39052492380142206,
                "y": 0.3671506643295288,
                "z": 0.19426114857196808
            }
        },
        "name": "move_to_magneteinheit_D"
    },
    "id": "LazyPRMstar_move_to_magneteinheit_D_138",
    "joint_names": [
        "shoulder_pan_joint",
        "shoulder_lift_joint",
        "elbow_joint",
        "wrist_1_joint",
        "wrist_2_joint",
        "wrist_3_joint"
    ],
    "metrics": {
        "cart_traj_len": 5.207439444707577,
        "distance_elbow_joint": 4.0480275157556775,
        "distance_shoulder_lift_joint": 1.107749603666633,
        "distance_shoulder_pan_joint": 8.113291339895923,
        "distance_wrist_1_joint": 2.8105804942274184,
        "distance_wrist_2_joint": 2.75234045053331,
        "distance_wrist_3_joint": 6.384730292983994,
        "smoothness": 0.29127959827059696,
        "time": 5.068001085,
        "traj_len": 5.021625204758211,
        "weighted_distance": 6.599174283786696
    },
    "planner": "LazyPRMstar",
    "start": {
        "state": {
            "elbow_joint": 0.749534889911806,
            "shoulder_lift_joint": -0.6476975780787326,
            "shoulder_pan_joint": -2.711696901376241,
            "wrist_1_joint": -0.07506478083263063,
            "wrist_2_joint": 0.43296659715538205,
            "wrist_3_joint": -3.14703540197715
        }
    },
    "waypoints": [
        {
            "positions": [
                -2.711696901376241,
                -0.6476975780787326,
                0.749534889911806,
                -0.07506478083263063,
                0.43296659715538205,
                -3.14703540197715
            ]
        },
        {
            "positions": [
                -2.7390133041546183,
                -0.6534073464185188,
                0.6830245326939204,
                -0.02340003172690472,
                0.35000629014616674,
                -3.020987138901727
            ]
        },
        {
            "positions": [
                -2.7663297069329955,
                -0.6591171147583049,
                0.6165141754760348,
                0.02826471737882119,
                0.26704598313695144,
                -2.8949388758263033
            ]
        },
        {
            "positions": [
                -2.7936461097113727,
                -0.6648268830980911,
                0.5500038182581493,
                0.0799294664845471,
                0.18408567612773613,
                -2.76889061275088
            ]
        },
        {
            "positions": [
                -2.764147222419448,
                -0.6914046858809658,
                0.49358693831873596,
                0.11770851383467862,
                0.12290813736179425,
                -2.610996361485947
            ]
        },
        {
            "positions": [
                -2.734648335127523,
                -0.7179824886638405,
                0.43717005837932266,
                0.1554875611848101,
                0.061730598595852365,
                -2.4531021102210135
            ]
        },
        {
            "positions": [
                -2.7051494478355984,
                -0.7445602914467152,
                0.3807531784399094,
                0.19326660853494163,
                0.0005530598299104961,
                -2.29520785895608
            ]
        },
        {
            "positions": [
                -2.675650560543674,
                -0.7711380942295899,
                0.3243362985004961,
                0.23104565588507314,
                -0.06062447893603139,
                -2.137313607691147
            ]
        },
        {
            "positions": [
                -2.535089755635136,
                -0.7786763734078356,
                0.23932763778731397,
                0.2267279464492925,
                -0.09281167337236501,
                -2.0166875127635584
            ]
        },
        {
            "positions": [
                -2.394528950726598,
                -0.7862146525860813,
                0.15431897707413186,
                0.22241023701351187,
                -0.12499886780869864,
                -1.8960614178359698
            ]
        },
        {
            "positions": [
                -2.2539681458180607,
                -0.7937529317643269,
                0.06931031636094975,
                0.21809252757773123,
                -0.15718606224503226,
                -1.7754353229083812
            ]
        },
        {
            "positions": [
                -2.113407340909523,
                -0.8012912109425727,
                -0.015698344352232385,
                0.2137748181419506,
                -0.1893732566813659,
                -1.6548092279807927
            ]
        },
        {
            "positions": [
                -1.972846536000985,
                -0.8088294901208184,
                -0.10070700506541447,
                0.20945710870616993,
                -0.2215604511176995,
                -1.534183133053204
            ]
        },
        {
            "positions": [
                -1.8322857310924474,
                -0.8163677692990641,
                -0.1857156657785966,
                0.2051393992703893,
                -0.2537476455540331,
                -1.4135570381256155
            ]
        },
        {
            "positions": [
                -1.6917249261839098,
                -0.8239060484773097,
                -0.27072432649177874,
                0.20082168983460866,
                -0.2859348399903668,
                -1.292930943198027
            ]
        },
        {
            "positions": [
                -1.551164121275372,
                -0.8314443276555554,
                -0.3557329872049609,
                0.19650398039882802,
                -0.3181220344267004,
                -1.1723048482704383
            ]
        },
        {
            "positions": [
                -1.4106033163668343,
                -0.8389826068338011,
                -0.4407416479181429,
                0.19218627096304738,
                -0.350309228863034,
                -1.0516787533428495
            ]
        },
        {
            "positions": [
                -1.2700425114582965,
                -0.8465208860120468,
                -0.5257503086313251,
                0.18786856152726675,
                -0.38249642329936767,
                -0.931052658415261
            ]
        },
        {
            "positions": [
                -1.1294817065497589,
                -0.8540591651902925,
                -0.6107589693445072,
                0.1835508520914861,
                -0.4146836177357013,
                -0.8104265634876724
            ]
        },
        {
            "positions": [
                -0.988920901641221,
                -0.8615974443685382,
                -0.6957676300576894,
                0.17923314265570545,
                -0.4468708121720349,
                -0.6898004685600838
            ]
        },
        {
            "positions": [
                -0.8483600967326834,
                -0.8691357235467839,
                -0.7807762907708715,
                0.1749154332199248,
                -0.47905800660836856,
                -0.5691743736324952
            ]
        },
        {
            "positions": [
                -0.7077992918241456,
                -0.8766740027250296,
                -0.8657849514840537,
                0.17059772378414417,
                -0.5112452010447022,
                -0.44854827870490666
            ]
        },
        {
            "positions": [
                -0.567238486915608,
                -0.8842122819032753,
                -0.9507936121972358,
                0.16628001434836354,
                -0.5434323954810357,
                -0.3279221837773181
            ]
        },
        {
            "positions": [
                -0.4266776820070701,
                -0.891750561081521,
                -1.035802272910418,
                0.1619623049125829,
                -0.5756195899173694,
                -0.2072960888497295
            ]
        },
        {
            "positions": [
                -0.2861168770985323,
                -0.8992888402597666,
                -1.1208109336236,
                0.15764459547680226,
                -0.6078067843537031,
                -0.0866699939221407
            ]
        },
        {
            "positions": [
                -0.1455560721899949,
                -0.9068271194380124,
                -1.205819594336782,
                0.15332688604102163,
                -0.6399939787900366,
                0.03395610100544788
            ]
        },
        {
            "positions": [
                -0.00499526728145705,
                -0.9143653986162581,
                -1.2908282550499641,
                0.149009176605241,
                -0.6721811732263703,
                0.15458219593303602
            ]
        },
        {
            "positions": [
                0.1355655376270808,
                -0.9219036777945038,
                -1.3758369157631463,
                0.14469146716946035,
                -0.7043683676627039,
                0.27520829086062504
            ]
        },
        {
            "positions": [
                0.2761263425356182,
                -0.9294419569727495,
                -1.4608455764763282,
                0.14037375773367972,
                -0.7365555620990375,
                0.39583438578821317
            ]
        },
        {
            "positions": [
                0.416687147444156,
                -0.9369802361509951,
                -1.5458542371895105,
                0.13605604829789908,
                -0.7687427565353712,
                0.5164604807158022
            ]
        },
        {
            "positions": [
                0.5572479523526939,
                -0.9445185153292408,
                -1.6308628979026925,
                0.13173833886211844,
                -0.8009299509717047,
                0.6370865756433903
            ]
        },
        {
            "positions": [
                0.6978087572612317,
                -0.9520567945074865,
                -1.7158715586158748,
                0.12742062942633778,
                -0.8331171454080384,
                0.7577126705709794
            ]
        },
        {
            "positions": [
                0.8383695621697691,
                -0.9595950736857322,
                -1.800880219329057,
                0.12310291999055716,
                -0.8653043398443719,
                0.8783387654985675
            ]
        },
        {
            "positions": [
                0.9789303670783069,
                -0.9671333528639778,
                -1.885888880042239,
                0.1187852105547765,
                -0.8974915342807057,
                0.9989648604261565
            ]
        },
        {
            "positions": [
                1.1194911719868448,
                -0.9746716320422235,
                -1.9708975407554208,
                0.11446750111899587,
                -0.9296787287170393,
                1.119590955353745
            ]
        },
        {
            "positions": [
                1.2600519768953826,
                -0.9822099112204693,
                -2.0559062014686034,
                0.11014979168321522,
                -0.9618659231533729,
                1.2402170502813337
            ]
        },
        {
            "positions": [
                1.40061278180392,
                -0.989748190398715,
                -2.140914862181785,
                0.1058320822474346,
                -0.9940531175897065,
                1.3608431452089222
            ]
        },
        {
            "positions": [
                1.5411735867124579,
                -0.9972864695769607,
                -2.2259235228949676,
                0.10151437281165393,
                -1.0262403120260402,
                1.4814692401365108
            ]
        },
        {
            "positions": [
                1.6817343916209957,
                -1.0048247487552064,
                -2.3109321836081493,
                0.09719666337587332,
                -1.0584275064623736,
                1.6020953350640994
            ]
        },
        {
            "positions": [
                1.8222951965295335,
                -1.0123630279334521,
                -2.395940844321332,
                0.09287895394009266,
                -1.0906147008987073,
                1.722721429991688
            ]
        },
        {
            "positions": [
                1.9628560014380714,
                -1.0199013071116978,
                -2.4809495050345136,
                0.08856124450431202,
                -1.122801895335041,
                1.8433475249192766
            ]
        },
        {
            "positions": [
                2.103416806346609,
                -1.0274395862899435,
                -2.565958165747696,
                0.08424353506853138,
                -1.1549890897713746,
                1.9639736198468656
            ]
        },
        {
            "positions": [
                2.243977611255146,
                -1.0349778654681892,
                -2.650966826460878,
                0.07992582563275075,
                -1.187176284207708,
                2.0845997147744537
            ]
        },
        {
            "positions": [
                2.384538416163684,
                -1.0425161446464348,
                -2.73597548717406,
                0.07560811619697011,
                -1.2193634786440417,
                2.2052258097020427
            ]
        },
        {
            "positions": [
                2.525099221072222,
                -1.0500544238246805,
                -2.820984147887242,
                0.07129040676118947,
                -1.2515506730803754,
                2.3258519046296304
            ]
        },
        {
            "positions": [
                2.395927944844736,
                -1.0836445551542369,
                -2.7982456489369265,
                -0.040362679352421535,
                -1.2007019502090635,
                2.3692729992190213
            ]
        },
        {
            "positions": [
                2.266756668617251,
                -1.1172346864837934,
                -2.775507149986611,
                -0.15201576546603254,
                -1.1498532273377513,
                2.4126940938084123
            ]
        },
        {
            "positions": [
                2.137585392389765,
                -1.1508248178133498,
                -2.752768651036295,
                -0.26366885157964354,
                -1.0990045044664394,
                2.456115188397803
            ]
        },
        {
            "positions": [
                2.00841411616228,
                -1.1844149491429063,
                -2.7300301520859795,
                -0.37532193769325456,
                -1.0481557815951272,
                2.4995362829871945
            ]
        },
        {
            "positions": [
                1.8792428399347942,
                -1.2180050804724627,
                -2.707291653135664,
                -0.4869750238068655,
                -0.9973070587238153,
                2.5429573775765855
            ]
        },
        {
            "positions": [
                1.750071563707309,
                -1.251595211802019,
                -2.684553154185348,
                -0.5986281099204765,
                -0.9464583358525034,
                2.5863784721659764
            ]
        },
        {
            "positions": [
                1.6209002874798233,
                -1.2851853431315756,
                -2.661814655235032,
                -0.7102811960340876,
                -0.8956096129811913,
                2.6297995667553673
            ]
        },
        {
            "positions": [
                1.4917290112523378,
                -1.318775474461132,
                -2.6390761562847165,
                -0.8219342821476986,
                -0.8447608901098793,
                2.673220661344758
            ]
        },
        {
            "positions": [
                1.3625577350248523,
                -1.3523656057906883,
                -2.616337657334401,
                -0.9335873682613096,
                -0.7939121672385674,
                2.716641755934149
            ]
        },
        {
            "positions": [
                1.2333864587973669,
                -1.385955737120245,
                -2.593599158384085,
                -1.0452404543749205,
                -0.7430634443672554,
                2.76006285052354
            ]
        },
        {
            "positions": [
                1.1042151825698812,
                -1.4195458684498012,
                -2.5708606594337695,
                -1.1568935404885319,
                -0.6922147214959432,
                2.8034839451129314
            ]
        },
        {
            "positions": [
                0.9750439063423959,
                -1.4531359997793576,
                -2.548122160483454,
                -1.2685466266021426,
                -0.6413659986246313,
                2.8469050397023223
            ]
        },
        {
            "positions": [
                0.8458726301149102,
                -1.4867261311089142,
                -2.525383661533138,
                -1.3801997127157537,
                -0.5905172757533192,
                2.8903261342917133
            ]
        },
        {
            "positions": [
                0.7167013538874247,
                -1.5203162624384705,
                -2.5026451625828225,
                -1.4918527988293646,
                -0.5396685528820073,
                2.933747228881104
            ]
        },
        {
            "positions": [
                0.5875300776599393,
                -1.553906393768027,
                -2.479906663632507,
                -1.6035058849429757,
                -0.4888198300106952,
                2.977168323470495
            ]
        },
        {
            "positions": [
                0.4583588014324538,
                -1.5874965250975834,
                -2.457168164682191,
                -1.7151589710565867,
                -0.43797110713938325,
                3.020589418059886
            ]
        },
        {
            "positions": [
                0.3291875252049681,
                -1.6210866564271398,
                -2.434429665731875,
                -1.8268120571701978,
                -0.3871223842680712,
                3.0640105126492774
            ]
        },
        {
            "positions": [
                0.20001624897748282,
                -1.6546767877566961,
                -2.4116911667815595,
                -1.9384651432838087,
                -0.3362736613967593,
                3.1074316072386683
            ]
        },
        {
            "positions": [
                0.07084497274999713,
                -1.688266919086253,
                -2.388952667831244,
                -2.05011822939742,
                -0.28542493852544715,
                3.150852701828059
            ]
        },
        {
            "positions": [
                -0.05832630347748813,
                -1.7218570504158093,
                -2.366214168880928,
                -2.1617713155110305,
                -0.23457621565413533,
                3.19427379641745
            ]
        },
        {
            "positions": [
                -0.18749757970497377,
                -1.7554471817453656,
                -2.3434756699306125,
                -2.273424401624642,
                -0.18372749278282316,
                3.237694891006841
            ]
        }
    ]
}