{
    "goal": {
        "global_pose": {
            "orientation": {
                "w": 0.7047431493862688,
                "x": -0.7094548369677653,
                "y": 0.0024358444001904,
                "z": -0.0022348060817251984
            },
            "position": {
                "x": -0.39052492380142206,
                "y": 0.3671506643295288,
                "z": 0.19426114857196808
            }
        },
        "name": "move_to_magneteinheit_D"
    },
    "id": "LazyPRMstar_move_to_magneteinheit_D_51",
    "joint_names": [
        "shoulder_pan_joint",
        "shoulder_lift_joint",
        "elbow_joint",
        "wrist_1_joint",
        "wrist_2_joint",
        "wrist_3_joint"
    ],
    "metrics": {
        "cart_traj_len": 3.5275700507333694,
        "distance_elbow_joint": 3.121808489530966,
        "distance_shoulder_lift_joint": 1.7964952387858757,
        "distance_shoulder_pan_joint": 2.5868907779300017,
        "distance_wrist_1_joint": 1.9291784347182446,
        "distance_wrist_2_joint": 1.2095821438540613,
        "distance_wrist_3_joint": 3.1315311667277674,
        "smoothness": 0.18543039002586875,
        "time": 5.043038128,
        "traj_len": 3.71153421802183,
        "weighted_distance": 4.814281791043682
    },
    "planner": "LazyPRMstar",
    "start": {
        "state": {
            "elbow_joint": 0.749534889911806,
            "shoulder_lift_joint": -0.6476975780787326,
            "shoulder_pan_joint": -2.711696901376241,
            "wrist_1_joint": -0.07506478083263063,
            "wrist_2_joint": 0.43296659715538205,
            "wrist_3_joint": -3.14703540197715
        }
    },
    "waypoints": [
        {
            "positions": [
                -2.711696901376241,
                -0.6476975780787326,
                0.749534889911806,
                -0.07506478083263063,
                0.43296659715538205,
                -3.14703540197715
            ]
        },
        {
            "positions": [
                -2.7217018853827057,
                -0.6210290555143035,
                0.5684551214196756,
                -0.05830583421857806,
                0.3712836251961927,
                -3.1489656465456077
            ]
        },
        {
            "positions": [
                -2.7317068693891704,
                -0.5943605329498745,
                0.38737535292754516,
                -0.04154688760452549,
                0.30960065323700325,
                -3.1508958911140654
            ]
        },
        {
            "positions": [
                -2.741711853395635,
                -0.5676920103854454,
                0.20629558443541474,
                -0.024787940990472913,
                0.24791768127781388,
                -3.152826135682523
            ]
        },
        {
            "positions": [
                -2.6490180704353214,
                -0.6203637947390785,
                0.08472015494948726,
                0.04548191509278641,
                0.21737295932352715,
                -3.1277543071056564
            ]
        },
        {
            "positions": [
                -2.5563242874750074,
                -0.6730355790927117,
                -0.03685527453644022,
                0.11575177117604574,
                0.18682823736924045,
                -3.1026824785287896
            ]
        },
        {
            "positions": [
                -2.463630504514694,
                -0.7257073634463449,
                -0.1584307040223677,
                0.18602162725930504,
                0.15628351541495372,
                -3.077610649951923
            ]
        },
        {
            "positions": [
                -2.37093672155438,
                -0.7783791477999781,
                -0.2800061335082952,
                0.25629148334256435,
                0.12573879346066702,
                -3.052538821375056
            ]
        },
        {
            "positions": [
                -2.278242938594066,
                -0.8310509321536113,
                -0.40158156299422265,
                0.32656133942582366,
                0.09519407150638026,
                -3.02746699279819
            ]
        },
        {
            "positions": [
                -2.1855491556337525,
                -0.8837227165072444,
                -0.5231569924801501,
                0.39683119550908297,
                0.06464934955209356,
                -3.002395164221323
            ]
        },
        {
            "positions": [
                -2.0928553726734385,
                -0.9363945008608776,
                -0.6447324219660776,
                0.46710105159234233,
                0.03410462759780683,
                -2.9773233356444564
            ]
        },
        {
            "positions": [
                -2.000161589713125,
                -0.9890662852145108,
                -0.7663078514520051,
                0.5373709076756017,
                0.003559905643520128,
                -2.9522515070675897
            ]
        },
        {
            "positions": [
                -1.907467806752811,
                -1.041738069568144,
                -0.8878832809379326,
                0.607640763758861,
                -0.0269848163107666,
                -2.927179678490723
            ]
        },
        {
            "positions": [
                -1.8147740237924972,
                -1.0944098539217773,
                -1.0094587104238602,
                0.6779106198421203,
                -0.05752953826505336,
                -2.902107849913856
            ]
        },
        {
            "positions": [
                -1.7220802408321834,
                -1.1470816382754103,
                -1.1310341399097874,
                0.7481804759253797,
                -0.08807426021934006,
                -2.8770360213369894
            ]
        },
        {
            "positions": [
                -1.6293864578718698,
                -1.1997534226290436,
                -1.252609569395715,
                0.8184503320086389,
                -0.11861898217362676,
                -2.8519641927601227
            ]
        },
        {
            "positions": [
                -1.536692674911556,
                -1.252425206982677,
                -1.3741849988816424,
                0.8887201880918982,
                -0.14916370412791347,
                -2.826892364183256
            ]
        },
        {
            "positions": [
                -1.443998891951242,
                -1.30509699133631,
                -1.49576042836757,
                0.9589900441751577,
                -0.17970842608220022,
                -2.8018205356063897
            ]
        },
        {
            "positions": [
                -1.3513051089909283,
                -1.357768775689943,
                -1.6173358578534973,
                1.0292599002584168,
                -0.21025314803648693,
                -2.776748707029523
            ]
        },
        {
            "positions": [
                -1.2586113260306147,
                -1.4104405600435763,
                -1.738911287339425,
                1.0995297563416762,
                -0.24079786999077363,
                -2.751676878452656
            ]
        },
        {
            "positions": [
                -1.1659175430703008,
                -1.4631123443972096,
                -1.8604867168253523,
                1.1697996124249355,
                -0.2713425919450604,
                -2.7266050498757894
            ]
        },
        {
            "positions": [
                -1.073223760109987,
                -1.5157841287508427,
                -1.9820621463112797,
                1.2400694685081948,
                -0.3018873138993471,
                -2.7015332212989227
            ]
        },
        {
            "positions": [
                -1.006670720798007,
                -1.561479134071217,
                -2.0471177056237218,
                1.2838580624510214,
                -0.2965925639412509,
                -2.6229684203575108
            ]
        },
        {
            "positions": [
                -0.940117681486027,
                -1.6071741393915917,
                -2.1121732649361635,
                1.3276466563938483,
                -0.2912978139831547,
                -2.544403619416099
            ]
        },
        {
            "positions": [
                -0.8735646421740472,
                -1.652869144711966,
                -2.1772288242486058,
                1.371435250336675,
                -0.28600306402505843,
                -2.465838818474687
            ]
        },
        {
            "positions": [
                -0.8070116028620672,
                -1.6985641500323405,
                -2.2422843835610475,
                1.4152238442795015,
                -0.28070831406696223,
                -2.387274017533275
            ]
        },
        {
            "positions": [
                -0.7359849415985551,
                -1.7526966826946073,
                -2.2581098585679977,
                1.450034853584791,
                -0.23547865926617642,
                -2.2364061325644795
            ]
        },
        {
            "positions": [
                -0.6649582803350429,
                -1.8068292153568741,
                -2.273935333574948,
                1.4848458628900805,
                -0.19024900446539061,
                -2.085538247595684
            ]
        },
        {
            "positions": [
                -0.5939316190715308,
                -1.860961748019141,
                -2.289760808581898,
                1.5196568721953698,
                -0.1450193496646048,
                -1.9346703626268884
            ]
        },
        {
            "positions": [
                -0.5229049578080187,
                -1.9150942806814077,
                -2.3055862835888483,
                1.5544678815006594,
                -0.099789694863819,
                -1.7838024776580927
            ]
        },
        {
            "positions": [
                -0.4518782965445065,
                -1.9692268133436746,
                -2.321411758595798,
                1.5892788908059488,
                -0.054560040063033194,
                -1.6329345926892973
            ]
        },
        {
            "positions": [
                -0.3808516352809944,
                -2.0233593460059414,
                -2.3372372336027483,
                1.624089900111238,
                -0.009330385262247387,
                -1.4820667077205019
            ]
        },
        {
            "positions": [
                -0.30982497401748227,
                -2.077491878668208,
                -2.3530627086096985,
                1.6589009094165277,
                0.03589926953853845,
                -1.3311988227517062
            ]
        },
        {
            "positions": [
                -0.23879831275397015,
                -2.131624411330475,
                -2.3688881836166487,
                1.693711918721817,
                0.08112892433932421,
                -1.1803309377829108
            ]
        },
        {
            "positions": [
                -0.22800585570018156,
                -2.162135865359987,
                -2.369565266817151,
                1.6616315716890575,
                0.09947132325145641,
                -0.9496818907583543
            ]
        },
        {
            "positions": [
                -0.21721339864639297,
                -2.1926473193894984,
                -2.3702423500176533,
                1.6295512246562982,
                0.11781372216358862,
                -0.7190328437337978
            ]
        },
        {
            "positions": [
                -0.2064209415926044,
                -2.2231587734190104,
                -2.370919433218156,
                1.5974708776235387,
                0.13615612107572084,
                -0.4883837967092415
            ]
        },
        {
            "positions": [
                -0.19562848453881582,
                -2.253670227448522,
                -2.371596516418658,
                1.5653905305907794,
                0.15449851998785302,
                -0.2577347496846849
            ]
        },
        {
            "positions": [
                -0.18483602748502723,
                -2.284181681478034,
                -2.3722735996191604,
                1.5333101835580198,
                0.17284091889998524,
                -0.02708570266012851
            ]
        }
    ]
}