{
    "goal": {
        "global_pose": {
            "orientation": {
                "w": -0.4816463035849501,
                "x": 0.5182115481033762,
                "y": 0.4908360881923453,
                "z": -0.5084816262002911
            },
            "position": {
                "x": -0.8240239810943604,
                "y": 0.19912469901144506,
                "z": 0.16403168439865112
            }
        },
        "name": "move_to_storage_D"
    },
    "id": "LazyPRMstar_move_to_storage_D_100",
    "joint_names": [
        "shoulder_pan_joint",
        "shoulder_lift_joint",
        "elbow_joint",
        "wrist_1_joint",
        "wrist_2_joint",
        "wrist_3_joint"
    ],
    "metrics": {
        "cart_traj_len": 0.6769003882101844,
        "distance_elbow_joint": 0.5587212355889961,
        "distance_shoulder_lift_joint": 0.31367699141762895,
        "distance_shoulder_pan_joint": 0.2741907927721067,
        "distance_wrist_1_joint": 3.8349145658071464,
        "distance_wrist_2_joint": 1.787398440701904,
        "distance_wrist_3_joint": 3.115287194524783,
        "smoothness": 0.04154346720232876,
        "time": 5.040386453,
        "traj_len": 3.143913042819818,
        "weighted_distance": 4.6623037885117675
    },
    "planner": "LazyPRMstar",
    "start": {
        "state": {
            "elbow_joint": -2.384821988534728,
            "shoulder_lift_joint": -2.2788054721415256,
            "shoulder_pan_joint": -0.1854694642142757,
            "wrist_1_joint": 1.4845938289331202,
            "wrist_2_joint": 0.17898776772866878,
            "wrist_3_joint": 0.037105688729662994
        }
    },
    "waypoints": [
        {
            "positions": [
                -0.1854694642142757,
                -2.2788054721415256,
                -2.384821988534728,
                1.4845938289331202,
                0.17898776772866878,
                0.037105688729662994
            ]
        },
        {
            "positions": [
                -0.15550406271405182,
                -2.225851293959324,
                -2.3647932501176543,
                1.4758690961157008,
                0.11313361543671752,
                -0.02407485095011363
            ]
        },
        {
            "positions": [
                -0.12553866121382792,
                -2.1728971157771224,
                -2.344764511700581,
                1.4671443632982815,
                0.04727946314476625,
                -0.08525539062989025
            ]
        },
        {
            "positions": [
                -0.1189292112910539,
                -2.167378387884265,
                -2.322565674526487,
                1.3036970901953917,
                -0.02397421076510016,
                -0.21170038886519232
            ]
        },
        {
            "positions": [
                -0.11231976136827988,
                -2.161859659991408,
                -2.3003668373523936,
                1.140249817092502,
                -0.09522788467496657,
                -0.3381453871004944
            ]
        },
        {
            "positions": [
                -0.10571031144550586,
                -2.1563409320985505,
                -2.2781680001782996,
                0.9768025439896123,
                -0.166481558584833,
                -0.46459038533579655
            ]
        },
        {
            "positions": [
                -0.09910086152273184,
                -2.150822204205693,
                -2.2559691630042056,
                0.8133552708867227,
                -0.23773523249469938,
                -0.5910353835710986
            ]
        },
        {
            "positions": [
                -0.09249141159995782,
                -2.145303476312836,
                -2.233770325830112,
                0.6499079977838329,
                -0.3089889064045658,
                -0.7174803818064007
            ]
        },
        {
            "positions": [
                -0.08588196167718379,
                -2.1397847484199786,
                -2.211571488656018,
                0.48646072468094315,
                -0.38024258031443225,
                -0.8439253800417029
            ]
        },
        {
            "positions": [
                -0.07927251175440977,
                -2.134266020527121,
                -2.189372651481924,
                0.3230134515780534,
                -0.45149625422429873,
                -0.970370378277005
            ]
        },
        {
            "positions": [
                -0.07266306183163575,
                -2.1287472926342637,
                -2.1671738143078305,
                0.15956617847516386,
                -0.522749928134165,
                -1.096815376512307
            ]
        },
        {
            "positions": [
                -0.06605361190886172,
                -2.1232285647414066,
                -2.1449749771337365,
                -0.0038810946277261227,
                -0.5940036020440315,
                -1.2232603747476092
            ]
        },
        {
            "positions": [
                -0.05944416198608771,
                -2.117709836848549,
                -2.122776139959643,
                -0.16732836773061566,
                -0.6652572759538978,
                -1.3497053729829112
            ]
        },
        {
            "positions": [
                -0.05283471206331368,
                -2.1121911089556917,
                -2.100577302785549,
                -0.3307756408335054,
                -0.7365109498637643,
                -1.4761503712182134
            ]
        },
        {
            "positions": [
                -0.046225262140539666,
                -2.1066723810628347,
                -2.078378465611455,
                -0.49422291393639517,
                -0.8077646237736307,
                -1.6025953694535156
            ]
        },
        {
            "positions": [
                -0.03961581221776565,
                -2.1011536531699773,
                -2.0561796284373615,
                -0.6576701870392849,
                -0.879018297683497,
                -1.7290403676888175
            ]
        },
        {
            "positions": [
                -0.03300636229499161,
                -2.09563492527712,
                -2.0339807912632675,
                -0.8211174601421747,
                -0.9502719715933636,
                -1.8554853659241197
            ]
        },
        {
            "positions": [
                -0.0263969123722176,
                -2.090116197384263,
                -2.0117819540891735,
                -0.9845647332450644,
                -1.02152564550323,
                -1.981930364159422
            ]
        },
        {
            "positions": [
                -0.01978746244944357,
                -2.0845974694914053,
                -1.9895831169150797,
                -1.1480120063479538,
                -1.0927793194130964,
                -2.1083753623947237
            ]
        },
        {
            "positions": [
                -0.013178012526669558,
                -2.079078741598548,
                -1.967384279740986,
                -1.3114592794508435,
                -1.1640329933229627,
                -2.234820360630026
            ]
        },
        {
            "positions": [
                -0.006568562603895531,
                -2.0735600137056904,
                -1.945185442566892,
                -1.4749065525537337,
                -1.2352866672328293,
                -2.361265358865328
            ]
        },
        {
            "positions": [
                4.088731887849639e-05,
                -2.0680412858128334,
                -1.9229866053927982,
                -1.638353825656623,
                -1.3065403411426957,
                -2.4877103571006303
            ]
        },
        {
            "positions": [
                0.00665033724165251,
                -2.062522557919976,
                -1.9007877682187044,
                -1.8018010987595128,
                -1.377794015052562,
                -2.614155355335932
            ]
        },
        {
            "positions": [
                0.013259787164426523,
                -2.0570038300271185,
                -1.8785889310446107,
                -1.9652483718624025,
                -1.4490476889624284,
                -2.740600353571234
            ]
        },
        {
            "positions": [
                0.019869237087200564,
                -2.0514851021342615,
                -1.8563900938705167,
                -2.1286956449652923,
                -1.520301362872295,
                -2.8670453518065364
            ]
        },
        {
            "positions": [
                0.026478687009974584,
                -2.045966374241404,
                -1.834191256696423,
                -2.292142918068182,
                -1.5915550367821614,
                -2.9934903500418386
            ]
        },
        {
            "positions": [
                -0.03576395453788182,
                -2.1268042677589114,
                -1.8261007529457318,
                -2.350320736874026,
                -1.6084106729732353,
                -3.07818150579512
            ]
        }
    ]
}