{
    "goal": {
        "global_pose": {
            "orientation": {
                "w": 0.005598929693374612,
                "x": 0.007748599140229565,
                "y": 0.7110244013736278,
                "z": -0.7031023480610252
            },
            "position": {
                "x": -0.8858502320852131,
                "y": -0.7141253447532654,
                "z": 0.3711530566215515
            }
        },
        "name": "move_to_auspresseinheit_C"
    },
    "id": "LazyPRM_move_to_auspresseinheit_C_27",
    "joint_names": [
        "shoulder_pan_joint",
        "shoulder_lift_joint",
        "elbow_joint",
        "wrist_1_joint",
        "wrist_2_joint",
        "wrist_3_joint"
    ],
    "metrics": {
        "cart_traj_len": 0.49402237462009535,
        "distance_elbow_joint": 1.0040671492590039,
        "distance_shoulder_lift_joint": 0.32680951951608883,
        "distance_shoulder_pan_joint": 0.25653913881761836,
        "distance_wrist_1_joint": 0.6797875631396988,
        "distance_wrist_2_joint": 1.3179224094803663,
        "distance_wrist_3_joint": 0.06443764666434548,
        "smoothness": 1.6148698667872622e-16,
        "time": 0.012564236,
        "traj_len": 1.9103830576293126,
        "weighted_distance": 2.403361956265822
    },
    "planner": "LazyPRM",
    "start": {
        "state": {
            "elbow_joint": 1.7527959577737207,
            "shoulder_lift_joint": -0.9740617694225068,
            "shoulder_pan_joint": -2.967991417825858,
            "wrist_1_joint": -0.759517768980727,
            "wrist_2_joint": 1.7443932448377408,
            "wrist_3_joint": -3.0840537646736568
        }
    },
    "waypoints": [
        {
            "positions": [
                -2.967991417825858,
                -0.9740617694225068,
                1.7527959577737207,
                -0.759517768980727,
                1.7443932448377408,
                -3.0840537646736568
            ]
        },
        {
            "positions": [
                -2.942337503944096,
                -0.9413808174708979,
                1.6523892428478202,
                -0.6915390126667571,
                1.6126010038897043,
                -3.0904975293400914
            ]
        },
        {
            "positions": [
                -2.9166835900623345,
                -0.908699865519289,
                1.55198252792192,
                -0.6235602563527872,
                1.4808087629416675,
                -3.096941294006526
            ]
        },
        {
            "positions": [
                -2.8910296761805725,
                -0.8760189135676801,
                1.4515758129960195,
                -0.5555815000388173,
                1.349016521993631,
                -3.1033850586729606
            ]
        },
        {
            "positions": [
                -2.8653757622988105,
                -0.8433379616160712,
                1.3511690980701192,
                -0.48760274372484746,
                1.2172242810455942,
                -3.109828823339395
            ]
        },
        {
            "positions": [
                -2.8397218484170486,
                -0.8106570096644623,
                1.2507623831442187,
                -0.4196239874108776,
                1.0854320400975577,
                -3.1162725880058293
            ]
        },
        {
            "positions": [
                -2.814067934535287,
                -0.7779760577128535,
                1.1503556682183183,
                -0.3516452310969077,
                0.953639799149521,
                -3.122716352672264
            ]
        },
        {
            "positions": [
                -2.788414020653525,
                -0.7452951057612446,
                1.049948953292418,
                -0.2836664747829379,
                0.8218475582014845,
                -3.1291601173386985
            ]
        },
        {
            "positions": [
                -2.762760106771763,
                -0.7126141538096358,
                0.9495422383665175,
                -0.21568771846896795,
                0.6900553172534478,
                -3.135603882005133
            ]
        },
        {
            "positions": [
                -2.7371061928900016,
                -0.6799332018580269,
                0.8491355234406172,
                -0.14770896215499807,
                0.558263076305411,
                -3.1420476466715677
            ]
        },
        {
            "positions": [
                -2.7114522790082396,
                -0.6472522499064179,
                0.7487288085147169,
                -0.07973020584102813,
                0.4264708353573744,
                -3.1484914113380023
            ]
        }
    ]
}