{
    "goal": {
        "global_pose": {
            "orientation": {
                "w": -0.4816463035849501,
                "x": 0.5182115481033762,
                "y": 0.4908360881923453,
                "z": -0.5084816262002911
            },
            "position": {
                "x": -0.8240239810943604,
                "y": -0.300875300988555,
                "z": 0.16403168439865112
            }
        },
        "name": "move_to_storage_C"
    },
    "id": "LazyPRMstar_move_to_storage_C_57",
    "joint_names": [
        "shoulder_pan_joint",
        "shoulder_lift_joint",
        "elbow_joint",
        "wrist_1_joint",
        "wrist_2_joint",
        "wrist_3_joint"
    ],
    "metrics": {
        "cart_traj_len": 0.5764012007647884,
        "distance_elbow_joint": 0.25776353848322575,
        "distance_shoulder_lift_joint": 0.18992213446453854,
        "distance_shoulder_pan_joint": 0.4940198820351118,
        "distance_wrist_1_joint": 0.07441007415332912,
        "distance_wrist_2_joint": 1.0684384965748115,
        "distance_wrist_3_joint": 0.06991751290846127,
        "smoothness": 0.0,
        "time": 5.0003493379999995,
        "traj_len": 1.4678118539579512,
        "weighted_distance": 1.8539566432806731
    },
    "planner": "LazyPRMstar",
    "start": {
        "state": {
            "elbow_joint": 2.010868314990456,
            "shoulder_lift_joint": -1.1634956873337592,
            "shoulder_pan_joint": -2.4736205022346125,
            "wrist_1_joint": -0.8367026794202681,
            "wrist_2_joint": 0.6746043897044499,
            "wrist_3_joint": -3.1496632123970403
        }
    },
    "waypoints": [
        {
            "positions": [
                -2.4736205022346125,
                -1.1634956873337592,
                2.010868314990456,
                -0.8367026794202681,
                0.6746043897044499,
                -3.1496632123970403
            ]
        },
        {
            "positions": [
                -2.5559571492404647,
                -1.1318419982563361,
                1.9679077252432515,
                -0.8243010003947132,
                0.8526774724669185,
                -3.1380102935789633
            ]
        },
        {
            "positions": [
                -2.6382937962463164,
                -1.100188309178913,
                1.9249471354960472,
                -0.8118993213691584,
                1.0307505552293872,
                -3.1263573747608864
            ]
        },
        {
            "positions": [
                -2.720630443252168,
                -1.0685346201014898,
                1.881986545748843,
                -0.7994976423436035,
                1.2088236379918555,
                -3.1147044559428094
            ]
        },
        {
            "positions": [
                -2.8029670902580204,
                -1.0368809310240668,
                1.8390259560016387,
                -0.7870959633180487,
                1.3868967207543244,
                -3.103051537124733
            ]
        },
        {
            "positions": [
                -2.8853037372638726,
                -1.0052272419466437,
                1.7960653662544344,
                -0.7746942842924939,
                1.5649698035167927,
                -3.091398618306656
            ]
        },
        {
            "positions": [
                -2.9676403842697243,
                -0.9735735528692206,
                1.75310477650723,
                -0.762292605266939,
                1.7430428862792613,
                -3.079745699488579
            ]
        }
    ]
}