{
    "goal": {
        "global_pose": {
            "orientation": {
                "w": 0.5084816262002911,
                "x": -0.4908360881923452,
                "y": 0.5182115481033761,
                "z": -0.48164630358495003
            },
            "position": {
                "x": 0.5540239810943604,
                "y": -0.46912469901144505,
                "z": 0.16403168439865112
            }
        },
        "name": "move_to_storage_B"
    },
    "id": "LazyPRM_move_to_storage_B_114",
    "joint_names": [
        "shoulder_pan_joint",
        "shoulder_lift_joint",
        "elbow_joint",
        "wrist_1_joint",
        "wrist_2_joint",
        "wrist_3_joint"
    ],
    "metrics": {
        "cart_traj_len": 1.5631998504733189,
        "distance_elbow_joint": 0.6277592121794431,
        "distance_shoulder_lift_joint": 1.8542621937800743,
        "distance_shoulder_pan_joint": 0.42818853230406895,
        "distance_wrist_1_joint": 2.9789664976536887,
        "distance_wrist_2_joint": 2.7022446821068655,
        "distance_wrist_3_joint": 3.1476258399360106,
        "smoothness": 0.1819737567312512,
        "time": 3.532606812,
        "traj_len": 3.4262292623174164,
        "weighted_distance": 4.869857268708471
    },
    "planner": "LazyPRM",
    "start": {
        "state": {
            "elbow_joint": 1.664937868594044,
            "shoulder_lift_joint": -0.661644460510453,
            "shoulder_pan_joint": -0.9139846352900073,
            "wrist_1_joint": 2.146753192139373,
            "wrist_2_joint": -2.2341966793290973,
            "wrist_3_joint": 0.005466555786416001
        }
    },
    "waypoints": [
        {
            "positions": [
                -0.9139846352900073,
                -0.661644460510453,
                1.664937868594044,
                2.146753192139373,
                -2.2341966793290973,
                0.005466555786416001
            ]
        },
        {
            "positions": [
                -0.9319548624086138,
                -0.72963528814121,
                1.6567107578795568,
                2.0305084536855906,
                -2.130028008565911,
                -0.05674037074594171
            ]
        },
        {
            "positions": [
                -0.9499250895272204,
                -0.7976261157719671,
                1.6484836471650697,
                1.9142637152318083,
                -2.025859337802724,
                -0.11894729727829942
            ]
        },
        {
            "positions": [
                -0.967895316645827,
                -0.8656169434027241,
                1.6402565364505823,
                1.7980189767780257,
                -1.9216906670395377,
                -0.18115422381065713
            ]
        },
        {
            "positions": [
                -0.9858655437644335,
                -0.9336077710334811,
                1.6320294257360952,
                1.681774238324243,
                -1.8175219962763511,
                -0.24336115034301484
            ]
        },
        {
            "positions": [
                -1.00383577088304,
                -1.0015985986642382,
                1.623802315021608,
                1.5655294998704608,
                -1.7133533255131645,
                -0.3055680768753725
            ]
        },
        {
            "positions": [
                -1.0218059980016467,
                -1.0695894262949954,
                1.615575204307121,
                1.4492847614166782,
                -1.609184654749978,
                -0.3677750034077302
            ]
        },
        {
            "positions": [
                -1.0397762251202531,
                -1.1375802539257522,
                1.6073480935926336,
                1.3330400229628956,
                -1.5050159839867914,
                -0.42998192994008794
            ]
        },
        {
            "positions": [
                -1.0577464522388598,
                -1.2055710815565095,
                1.5991209828781465,
                1.216795284509113,
                -1.400847313223605,
                -0.49218885647244565
            ]
        },
        {
            "positions": [
                -1.0757166793574664,
                -1.2735619091872663,
                1.5908938721636594,
                1.1005505460553306,
                -1.2966786424604182,
                -0.5543957830048034
            ]
        },
        {
            "positions": [
                -1.0936869064760728,
                -1.3415527368180236,
                1.5826667614491723,
                0.9843058076015481,
                -1.1925099716972318,
                -0.6166027095371611
            ]
        },
        {
            "positions": [
                -1.1116571335946794,
                -1.4095435644487806,
                1.574439650734685,
                0.8680610691477655,
                -1.0883413009340452,
                -0.6788096360695188
            ]
        },
        {
            "positions": [
                -1.129627360713286,
                -1.4775343920795376,
                1.5662125400201978,
                0.7518163306939829,
                -0.9841726301708587,
                -0.7410165626018765
            ]
        },
        {
            "positions": [
                -1.1475975878318925,
                -1.5455252197102944,
                1.5579854293057107,
                0.6355715922402005,
                -0.8800039594076723,
                -0.8032234891342342
            ]
        },
        {
            "positions": [
                -1.165567814950499,
                -1.6135160473410517,
                1.5497583185912236,
                0.519326853786418,
                -0.7758352886444857,
                -0.865430415666592
            ]
        },
        {
            "positions": [
                -1.1835380420691055,
                -1.6815068749718087,
                1.5415312078767363,
                0.4030821153326356,
                -0.6716666178812991,
                -0.9276373421989497
            ]
        },
        {
            "positions": [
                -1.2015082691877121,
                -1.7494977026025658,
                1.5333040971622491,
                0.286837376878853,
                -0.5674979471181125,
                -0.9898442687313074
            ]
        },
        {
            "positions": [
                -1.2194784963063188,
                -1.8174885302333228,
                1.525076986447762,
                0.1705926384250704,
                -0.46332927635492593,
                -1.052051195263665
            ]
        },
        {
            "positions": [
                -1.210714591214336,
                -1.767601521372094,
                1.5599268671644164,
                0.09896364242939994,
                -0.39680232784544783,
                -1.2013446301840887
            ]
        },
        {
            "positions": [
                -1.2019506861223535,
                -1.717714512510865,
                1.5947767478810708,
                0.027334646433729487,
                -0.33027537933596973,
                -1.3506380651045122
            ]
        },
        {
            "positions": [
                -1.1931867810303707,
                -1.6678275036496362,
                1.6296266285977252,
                -0.04429434956194098,
                -0.2637484308264917,
                -1.4999315000249358
            ]
        },
        {
            "positions": [
                -1.1844228759383881,
                -1.6179404947884073,
                1.6644765093143794,
                -0.11592334555761141,
                -0.19722148231701359,
                -1.6492249349453592
            ]
        },
        {
            "positions": [
                -1.1756589708464054,
                -1.5680534859271784,
                1.6993263900310338,
                -0.18755234155328188,
                -0.13069453380753548,
                -1.798518369865783
            ]
        },
        {
            "positions": [
                -1.1668950657544228,
                -1.5181664770659495,
                1.7341762707476882,
                -0.25918133754895234,
                -0.06416758529805744,
                -1.9478118047862063
            ]
        },
        {
            "positions": [
                -1.15813116066244,
                -1.4682794682047207,
                1.7690261514643426,
                -0.3308103335446228,
                0.002359363211420662,
                -2.0971052397066297
            ]
        },
        {
            "positions": [
                -1.1493672555704573,
                -1.4183924593434916,
                1.803876032180997,
                -0.4024393295402932,
                0.06888631172089876,
                -2.2463986746270534
            ]
        },
        {
            "positions": [
                -1.1406033504784747,
                -1.3685054504822627,
                1.8387259128976514,
                -0.47406832553596373,
                0.13541326023037692,
                -2.3956921095474772
            ]
        },
        {
            "positions": [
                -1.131839445386492,
                -1.3186184416210338,
                1.8735757936143056,
                -0.5456973215316341,
                0.20194020873985497,
                -2.5449855444679006
            ]
        },
        {
            "positions": [
                -1.1230755402945094,
                -1.2687314327598052,
                1.9084256743309602,
                -0.6173263175273047,
                0.268467157249333,
                -2.694278979388324
            ]
        },
        {
            "positions": [
                -1.1143116352025266,
                -1.218844423898576,
                1.9432755550476144,
                -0.6889553135229751,
                0.33499410575881106,
                -2.8435724143087473
            ]
        },
        {
            "positions": [
                -1.105547730110544,
                -1.1689574150373472,
                1.9781254357642688,
                -0.7605843095186455,
                0.4015210542682892,
                -2.992865849229171
            ]
        },
        {
            "positions": [
                -1.0967838250185613,
                -1.1190704061761183,
                2.012975316480923,
                -0.8322133055143159,
                0.46804800277776726,
                -3.1421592841495944
            ]
        }
    ]
}