{
    "goal": {
        "global_pose": {
            "orientation": {
                "w": 0.7047431493862688,
                "x": -0.7094548369677653,
                "y": 0.0024358444001904,
                "z": -0.0022348060817251984
            },
            "position": {
                "x": -0.39052492380142206,
                "y": 0.3671506643295288,
                "z": 0.19426114857196808
            }
        },
        "name": "move_to_magneteinheit_D"
    },
    "id": "LazyPRMstar_move_to_magneteinheit_D_50",
    "joint_names": [
        "shoulder_pan_joint",
        "shoulder_lift_joint",
        "elbow_joint",
        "wrist_1_joint",
        "wrist_2_joint",
        "wrist_3_joint"
    ],
    "metrics": {
        "cart_traj_len": 3.5406500871994777,
        "distance_elbow_joint": 3.4630743699730497,
        "distance_shoulder_lift_joint": 1.6306982355654844,
        "distance_shoulder_pan_joint": 2.7820987357542917,
        "distance_wrist_1_joint": 1.5451843008529023,
        "distance_wrist_2_joint": 1.033193225626671,
        "distance_wrist_3_joint": 3.199583897601001,
        "smoothness": 0.1868242172359405,
        "time": 5.0485007,
        "traj_len": 3.69510930357593,
        "weighted_distance": 4.757244799992426
    },
    "planner": "LazyPRMstar",
    "start": {
        "state": {
            "elbow_joint": 0.749534889911806,
            "shoulder_lift_joint": -0.6476975780787326,
            "shoulder_pan_joint": -2.711696901376241,
            "wrist_1_joint": -0.07506478083263063,
            "wrist_2_joint": 0.43296659715538205,
            "wrist_3_joint": -3.14703540197715
        }
    },
    "waypoints": [
        {
            "positions": [
                -2.711696901376241,
                -0.6476975780787326,
                0.749534889911806,
                -0.07506478083263063,
                0.43296659715538205,
                -3.14703540197715
            ]
        },
        {
            "positions": [
                -2.7525528583741252,
                -0.7302608340654481,
                0.6745700305057573,
                0.016181794700660737,
                0.4312983651344374,
                -3.061938874991442
            ]
        },
        {
            "positions": [
                -2.7934088153720094,
                -0.8128240900521634,
                0.5996051710997086,
                0.1074283702339521,
                0.4296301331134928,
                -2.9768423480057344
            ]
        },
        {
            "positions": [
                -2.8342647723698935,
                -0.8953873460388788,
                0.5246403116936599,
                0.19867494576724348,
                0.42796190109254817,
                -2.8917458210200264
            ]
        },
        {
            "positions": [
                -2.7468984745950533,
                -0.9080980505922228,
                0.4047365965665335,
                0.24126666810173036,
                0.4435471142332265,
                -2.781194356245778
            ]
        },
        {
            "positions": [
                -2.659532176820213,
                -0.9208087551455668,
                0.28483288143940705,
                0.28385839043621724,
                0.45913232737390486,
                -2.670642891471529
            ]
        },
        {
            "positions": [
                -2.572165879045373,
                -0.9335194596989109,
                0.16492916631228066,
                0.3264501127707041,
                0.4747175405145832,
                -2.5600914266972805
            ]
        },
        {
            "positions": [
                -2.484799581270533,
                -0.9462301642522549,
                0.04502545118515422,
                0.36904183510519095,
                0.49030275365526155,
                -2.449539961923032
            ]
        },
        {
            "positions": [
                -2.397433283495692,
                -0.9589408688055989,
                -0.07487826394197228,
                0.4116335574396779,
                0.50588796679594,
                -2.338988497148783
            ]
        },
        {
            "positions": [
                -2.310066985720852,
                -0.9716515733589429,
                -0.19478197906909855,
                0.4542252797741647,
                0.5214731799366182,
                -2.2284370323745346
            ]
        },
        {
            "positions": [
                -2.222700687946012,
                -0.9843622779122869,
                -0.31468569419622516,
                0.49681700210865165,
                0.5370583930772966,
                -2.117885567600286
            ]
        },
        {
            "positions": [
                -2.1353343901711717,
                -0.997072982465631,
                -0.43458940932335144,
                0.5394087244431385,
                0.5526436062179749,
                -2.0073341028260376
            ]
        },
        {
            "positions": [
                -2.0479680923963315,
                -1.009783687018975,
                -0.5544931244504779,
                0.5820004467776254,
                0.5682288193586533,
                -1.896782638051789
            ]
        },
        {
            "positions": [
                -1.9606017946214913,
                -1.022494391572319,
                -0.6743968395776044,
                0.6245921691121122,
                0.5838140324993317,
                -1.7862311732775402
            ]
        },
        {
            "positions": [
                -1.8732354968466511,
                -1.0352050961256631,
                -0.7943005547047307,
                0.6671838914465991,
                0.59939924564001,
                -1.6756797085032917
            ]
        },
        {
            "positions": [
                -1.7858691990718107,
                -1.047915800679007,
                -0.914204269831857,
                0.709775613781086,
                0.6149844587806884,
                -1.5651282437290432
            ]
        },
        {
            "positions": [
                -1.6985029012969706,
                -1.0606265052323511,
                -1.0341079849589838,
                0.7523673361155729,
                0.6305696719213667,
                -1.4545767789547943
            ]
        },
        {
            "positions": [
                -1.6111366035221302,
                -1.073337209785695,
                -1.15401170008611,
                0.7949590584500599,
                0.6461548850620451,
                -1.3440253141805456
            ]
        },
        {
            "positions": [
                -1.5237703057472902,
                -1.0860479143390391,
                -1.2739154152132364,
                0.8375507807845466,
                0.6617400982027234,
                -1.2334738494062973
            ]
        },
        {
            "positions": [
                -1.4364040079724498,
                -1.0987586188923832,
                -1.3938191303403626,
                0.8801425031190335,
                0.6773253113434018,
                -1.1229223846320486
            ]
        },
        {
            "positions": [
                -1.3490377101976094,
                -1.1114693234457271,
                -1.5137228454674894,
                0.9227342254535205,
                0.6929105244840801,
                -1.0123709198578
            ]
        },
        {
            "positions": [
                -1.2616714124227695,
                -1.1241800279990712,
                -1.6336265605946156,
                0.9653259477880072,
                0.7084957376247585,
                -0.9018194550835514
            ]
        },
        {
            "positions": [
                -1.174305114647929,
                -1.1368907325524151,
                -1.753530275721742,
                1.0079176701224941,
                0.7240809507654369,
                -0.791267990309303
            ]
        },
        {
            "positions": [
                -1.086938816873089,
                -1.1496014371057592,
                -1.8734339908488686,
                1.050509392456981,
                0.7396661639061153,
                -0.680716525535054
            ]
        },
        {
            "positions": [
                -0.9995725190982487,
                -1.1623121416591031,
                -1.993337705975995,
                1.0931011147914678,
                0.7552513770467935,
                -0.5701650607608055
            ]
        },
        {
            "positions": [
                -0.9122062213234086,
                -1.1750228462124472,
                -2.113241421103121,
                1.1356928371259547,
                0.7708365901874719,
                -0.45961359598655704
            ]
        },
        {
            "positions": [
                -0.8248399235485682,
                -1.1877335507657913,
                -2.233145136230248,
                1.1782845594604416,
                0.7864218033281503,
                -0.3490621312123081
            ]
        },
        {
            "positions": [
                -0.737473625773728,
                -1.2004442553191352,
                -2.3530488513573737,
                1.2208762817949284,
                0.8020070164688287,
                -0.23851066643806007
            ]
        },
        {
            "positions": [
                -0.6501073279988877,
                -1.2131549598724793,
                -2.4729525664845005,
                1.2634680041294153,
                0.817592229609507,
                -0.12795920166381108
            ]
        },
        {
            "positions": [
                -0.5327254987140407,
                -1.3133425958657636,
                -2.4923935442131544,
                1.295226760335873,
                0.7564166003742839,
                -0.10650644743149457
            ]
        },
        {
            "positions": [
                -0.4153436694291938,
                -1.413530231859048,
                -2.511834521941809,
                1.3269855165423303,
                0.695240971139061,
                -0.08505369319917803
            ]
        },
        {
            "positions": [
                -0.2979618401443469,
                -1.5137178678523322,
                -2.531275499670463,
                1.358744272748788,
                0.634065341903838,
                -0.0636009389668615
            ]
        },
        {
            "positions": [
                -0.1805800108594999,
                -1.6139055038456165,
                -2.550716477399117,
                1.3905030289552456,
                0.572889712668615,
                -0.042148184734544986
            ]
        },
        {
            "positions": [
                -0.18204153667206124,
                -1.7800280812952667,
                -2.5100107267335856,
                1.410407151721502,
                0.47442579164211834,
                -0.018474014644946163
            ]
        },
        {
            "positions": [
                -0.18350306248462261,
                -1.9461506587449167,
                -2.4693049760680537,
                1.4303112744877584,
                0.3759618706156217,
                0.00520015544465266
            ]
        },
        {
            "positions": [
                -0.18496458829718396,
                -2.112273236194567,
                -2.4285992254025217,
                1.450215397254015,
                0.27749794958912505,
                0.028874325534251483
            ]
        },
        {
            "positions": [
                -0.1864261141097453,
                -2.278395813644217,
                -2.38789347473699,
                1.4701195200202715,
                0.17903402856262843,
                0.052548495623850305
            ]
        }
    ]
}