{
    "goal": {
        "global_pose": {
            "orientation": {
                "w": 0.005598929693374612,
                "x": 0.007748599140229565,
                "y": 0.7110244013736278,
                "z": -0.7031023480610252
            },
            "position": {
                "x": -0.8858502320852131,
                "y": -0.7141253447532654,
                "z": 0.3711530566215515
            }
        },
        "name": "move_to_auspresseinheit_C"
    },
    "id": "LazyPRM_move_to_auspresseinheit_C_90",
    "joint_names": [
        "shoulder_pan_joint",
        "shoulder_lift_joint",
        "elbow_joint",
        "wrist_1_joint",
        "wrist_2_joint",
        "wrist_3_joint"
    ],
    "metrics": {
        "cart_traj_len": 0.4938394877898371,
        "distance_elbow_joint": 0.9999723173493235,
        "distance_shoulder_lift_joint": 0.32461707974797405,
        "distance_shoulder_pan_joint": 0.2568695895330153,
        "distance_wrist_1_joint": 0.6752668717435393,
        "distance_wrist_2_joint": 1.3134654041451848,
        "distance_wrist_3_joint": 0.06568128155798991,
        "smoothness": 9.689219149575435e-16,
        "time": 0.01275771,
        "traj_len": 1.9067964086595681,
        "weighted_distance": 2.3991597243788774
    },
    "planner": "LazyPRM",
    "start": {
        "state": {
            "elbow_joint": 1.7527959577737207,
            "shoulder_lift_joint": -0.9740617694225068,
            "shoulder_pan_joint": -2.967991417825858,
            "wrist_1_joint": -0.759517768980727,
            "wrist_2_joint": 1.7443932448377408,
            "wrist_3_joint": -3.0840537646736568
        }
    },
    "waypoints": [
        {
            "positions": [
                -2.967991417825858,
                -0.9740617694225068,
                1.7527959577737207,
                -0.759517768980727,
                1.7443932448377408,
                -3.0840537646736568
            ]
        },
        {
            "positions": [
                -2.9423044588725564,
                -0.9416000614477094,
                1.6527987260387884,
                -0.691991081806373,
                1.6130467044232224,
                -3.0906218928294558
            ]
        },
        {
            "positions": [
                -2.916617499919255,
                -0.9091383534729119,
                1.552801494303856,
                -0.6244643946320191,
                1.481700164008704,
                -3.0971900209852548
            ]
        },
        {
            "positions": [
                -2.8909305409659534,
                -0.8766766454981145,
                1.4528042625689237,
                -0.5569377074576652,
                1.3503536235941853,
                -3.1037581491410537
            ]
        },
        {
            "positions": [
                -2.865243582012652,
                -0.8442149375233171,
                1.3528070308339912,
                -0.48941102028331124,
                1.2190070831796669,
                -3.1103262772968527
            ]
        },
        {
            "positions": [
                -2.8395566230593503,
                -0.8117532295485197,
                1.252809799099059,
                -0.42188433310895734,
                1.0876605427651485,
                -3.1168944054526517
            ]
        },
        {
            "positions": [
                -2.8138696641060488,
                -0.7792915215737224,
                1.1528125673641267,
                -0.35435764593460345,
                0.95631400235063,
                -3.1234625336084507
            ]
        },
        {
            "positions": [
                -2.7881827051527472,
                -0.746829813598925,
                1.0528153356291943,
                -0.2868309587602495,
                0.8249674619361116,
                -3.1300306617642497
            ]
        },
        {
            "positions": [
                -2.7624957461994457,
                -0.7143681056241276,
                0.9528181038942618,
                -0.2193042715858955,
                0.6936209215215929,
                -3.1365987899200487
            ]
        },
        {
            "positions": [
                -2.736808787246144,
                -0.6819063976493301,
                0.8528208721593296,
                -0.15177758441154166,
                0.5622743811070745,
                -3.1431669180758477
            ]
        },
        {
            "positions": [
                -2.7111218282928427,
                -0.6494446896745327,
                0.7528236404243972,
                -0.0842508972371877,
                0.43092784069255596,
                -3.1497350462316467
            ]
        }
    ]
}