{
    "goal": {
        "global_pose": {
            "orientation": {
                "w": 0.5084816262002911,
                "x": -0.4908360881923452,
                "y": 0.5182115481033761,
                "z": -0.48164630358495003
            },
            "position": {
                "x": 0.5540239810943604,
                "y": -0.46912469901144505,
                "z": 0.16403168439865112
            }
        },
        "name": "move_to_storage_B"
    },
    "id": "LazyPRM_move_to_storage_B_73",
    "joint_names": [
        "shoulder_pan_joint",
        "shoulder_lift_joint",
        "elbow_joint",
        "wrist_1_joint",
        "wrist_2_joint",
        "wrist_3_joint"
    ],
    "metrics": {
        "cart_traj_len": 2.6355425966641204,
        "distance_elbow_joint": 2.5434583539354985,
        "distance_shoulder_lift_joint": 0.89449462596635,
        "distance_shoulder_pan_joint": 1.9135392846905828,
        "distance_wrist_1_joint": 2.992549695317228,
        "distance_wrist_2_joint": 2.7083275793199677,
        "distance_wrist_3_joint": 3.1329350836750645,
        "smoothness": 0.25720472346991924,
        "time": 0.112870439,
        "traj_len": 3.7663383574640092,
        "weighted_distance": 5.113907709852811
    },
    "planner": "LazyPRM",
    "start": {
        "state": {
            "elbow_joint": 1.664937868594044,
            "shoulder_lift_joint": -0.661644460510453,
            "shoulder_pan_joint": -0.9139846352900073,
            "wrist_1_joint": 2.146753192139373,
            "wrist_2_joint": -2.2341966793290973,
            "wrist_3_joint": 0.005466555786416001
        }
    },
    "waypoints": [
        {
            "positions": [
                -0.9139846352900073,
                -0.661644460510453,
                1.664937868594044,
                2.146753192139373,
                -2.2341966793290973,
                0.005466555786416001
            ]
        },
        {
            "positions": [
                -0.885876019568314,
                -0.6815309241575169,
                1.6629023598774793,
                2.145849160048248,
                -2.208549357235988,
                -0.02165568933775519
            ]
        },
        {
            "positions": [
                -0.816034719171313,
                -0.736221449703848,
                1.5717191596069668,
                2.0495834477840296,
                -2.152841610627163,
                -0.03884952877286017
            ]
        },
        {
            "positions": [
                -0.746193418774312,
                -0.7909119752501789,
                1.4805359593364542,
                1.9533177355198106,
                -2.097133864018338,
                -0.05604336820796516
            ]
        },
        {
            "positions": [
                -0.6763521183773111,
                -0.8456025007965098,
                1.3893527590659418,
                1.857052023255592,
                -2.041426117409513,
                -0.07323720764307015
            ]
        },
        {
            "positions": [
                -0.6065108179803101,
                -0.9002930263428408,
                1.2981695587954294,
                1.7607863109913733,
                -1.985718370800688,
                -0.09043104707817513
            ]
        },
        {
            "positions": [
                -0.5366695175833092,
                -0.9549835518891718,
                1.2069863585249168,
                1.6645205987271545,
                -1.930010624191863,
                -0.10762488651328013
            ]
        },
        {
            "positions": [
                -0.46682821718630824,
                -1.0096740774355029,
                1.1158031582544043,
                1.568254886462936,
                -1.8743028775830382,
                -0.12481872594838511
            ]
        },
        {
            "positions": [
                -0.39698691678930725,
                -1.0643646029818337,
                1.0246199579838917,
                1.471989174198717,
                -1.8185951309742132,
                -0.1420125653834901
            ]
        },
        {
            "positions": [
                -0.3271456163923063,
                -1.1190551285281647,
                0.9334367577133794,
                1.3757234619344985,
                -1.7628873843653883,
                -0.15920640481859508
            ]
        },
        {
            "positions": [
                -0.25730431599530534,
                -1.1737456540744957,
                0.8422535574428669,
                1.2794577496702797,
                -1.7071796377565631,
                -0.17640024425370007
            ]
        },
        {
            "positions": [
                -0.18746301559830436,
                -1.2284361796208265,
                0.7510703571723544,
                1.183192037406061,
                -1.6514718911477382,
                -0.19359408368880507
            ]
        },
        {
            "positions": [
                -0.11762171520130349,
                -1.2831267051671575,
                0.6598871569018421,
                1.0869263251418424,
                -1.5957641445389132,
                -0.21078792312391004
            ]
        },
        {
            "positions": [
                -0.047780414804302486,
                -1.3378172307134886,
                0.5687039566313294,
                0.9906606128776236,
                -1.5400563979300883,
                -0.22798176255901503
            ]
        },
        {
            "positions": [
                -0.09141937581283907,
                -1.3287204867233504,
                0.6290049750468621,
                0.914141566375312,
                -1.4561319271833817,
                -0.34879371111441637
            ]
        },
        {
            "positions": [
                -0.13505833682137566,
                -1.3196237427332123,
                0.6893059934623949,
                0.8376225198730003,
                -1.372207456436675,
                -0.46960565966981777
            ]
        },
        {
            "positions": [
                -0.17869729782991225,
                -1.3105269987430743,
                0.7496070118779276,
                0.7611034733706885,
                -1.2882829856899685,
                -0.5904176082252192
            ]
        },
        {
            "positions": [
                -0.22233625883844885,
                -1.3014302547529362,
                0.8099080302934603,
                0.684584426868377,
                -1.2043585149432618,
                -0.7112295567806205
            ]
        },
        {
            "positions": [
                -0.26597521984698547,
                -1.292333510762798,
                0.870209048708993,
                0.6080653803660652,
                -1.1204340441965552,
                -0.832041505336022
            ]
        },
        {
            "positions": [
                -0.30961418085552206,
                -1.28323676677266,
                0.9305100671245257,
                0.5315463338637535,
                -1.0365095734498486,
                -0.9528534538914233
            ]
        },
        {
            "positions": [
                -0.35325314186405865,
                -1.274140022782522,
                0.9908110855400584,
                0.4550272873614418,
                -0.952585102703142,
                -1.0736654024468248
            ]
        },
        {
            "positions": [
                -0.39689210287259524,
                -1.2650432787923838,
                1.051112103955591,
                0.37850824085913015,
                -0.8686606319564354,
                -1.194477351002226
            ]
        },
        {
            "positions": [
                -0.44053106388113183,
                -1.2559465348022456,
                1.1114131223711237,
                0.3019891943568185,
                -0.7847361612097288,
                -1.3152892995576273
            ]
        },
        {
            "positions": [
                -0.4841700248896684,
                -1.2468497908121075,
                1.1717141407866565,
                0.2254701478545067,
                -0.7008116904630222,
                -1.4361012481130289
            ]
        },
        {
            "positions": [
                -0.527808985898205,
                -1.2377530468219695,
                1.2320151592021893,
                0.14895110135219503,
                -0.6168872197163155,
                -1.5569131966684302
            ]
        },
        {
            "positions": [
                -0.5714479469067416,
                -1.2286563028318314,
                1.2923161776177219,
                0.07243205484988335,
                -0.5329627489696089,
                -1.6777251452238315
            ]
        },
        {
            "positions": [
                -0.6150869079152782,
                -1.2195595588416932,
                1.3526171960332545,
                -0.004086991652428318,
                -0.4490382782229023,
                -1.7985370937792329
            ]
        },
        {
            "positions": [
                -0.6587258689238148,
                -1.2104628148515553,
                1.4129182144487873,
                -0.08060603815473999,
                -0.3651138074761957,
                -1.9193490423346344
            ]
        },
        {
            "positions": [
                -0.7023648299323514,
                -1.2013660708614171,
                1.47321923286432,
                -0.15712508465705177,
                -0.2811893367294891,
                -2.040160990890036
            ]
        },
        {
            "positions": [
                -0.746003790940888,
                -1.192269326871279,
                1.5335202512798527,
                -0.23364413115936333,
                -0.19726486598278248,
                -2.160972939445437
            ]
        },
        {
            "positions": [
                -0.7896427519494246,
                -1.1831725828811408,
                1.5938212696953855,
                -0.3101631776616751,
                -0.11334039523607586,
                -2.2817848880008382
            ]
        },
        {
            "positions": [
                -0.8332817129579612,
                -1.1740758388910026,
                1.654122288110918,
                -0.3866822241639867,
                -0.02941592448936925,
                -2.4025968365562393
            ]
        },
        {
            "positions": [
                -0.8769206739664978,
                -1.1649790949008647,
                1.7144233065264507,
                -0.46320127066629846,
                0.054508546257337365,
                -2.5234087851116414
            ]
        },
        {
            "positions": [
                -0.9205596349750343,
                -1.1558823509107266,
                1.7747243249419835,
                -0.5397203171686102,
                0.13843301700404398,
                -2.6442207336670425
            ]
        },
        {
            "positions": [
                -0.9641985959835709,
                -1.1467856069205884,
                1.835025343357516,
                -0.6162393636709218,
                0.2223574877507506,
                -2.7650326822224436
            ]
        },
        {
            "positions": [
                -1.0078375569921074,
                -1.1376888629304505,
                1.895326361773049,
                -0.6927584101732336,
                0.3062819584974572,
                -2.8858446307778456
            ]
        },
        {
            "positions": [
                -1.051476518000644,
                -1.1285921189403123,
                1.9556273801885817,
                -0.7692774566755454,
                0.3902064292441638,
                -3.0066565793332467
            ]
        },
        {
            "positions": [
                -1.0951154790091806,
                -1.1194953749501741,
                2.0159283986041143,
                -0.845796503177857,
                0.4741308999908706,
                -3.1274685278886483
            ]
        }
    ]
}