{
    "goal": {
        "global_pose": {
            "orientation": {
                "w": 0.5084816217422485,
                "x": -0.49083608388900757,
                "y": 0.5182115435600281,
                "z": -0.4816462993621826
            },
            "position": {
                "x": 0.5540239810943604,
                "y": 0.030875300988554955,
                "z": 0.16403168439865112
            }
        },
        "name": "move_to_storage_A"
    },
    "id": "LazyPRMstar_move_to_storage_A_15",
    "joint_names": [
        "shoulder_pan_joint",
        "shoulder_lift_joint",
        "elbow_joint",
        "wrist_1_joint",
        "wrist_2_joint",
        "wrist_3_joint"
    ],
    "metrics": {
        "cart_traj_len": 0.3534717358987044,
        "distance_elbow_joint": 0.45267260794061737,
        "distance_shoulder_lift_joint": 0.23341790778948002,
        "distance_shoulder_pan_joint": 0.46336514080243524,
        "distance_wrist_1_joint": 0.26041968609006083,
        "distance_wrist_2_joint": 1.0938887911754438,
        "distance_wrist_3_joint": 0.09629333868488299,
        "smoothness": 1.2212453191034883e-15,
        "time": 5.000137875999999,
        "traj_len": 1.6124693710216391,
        "weighted_distance": 2.0364067931329908
    },
    "planner": "LazyPRMstar",
    "start": {
        "state": {
            "elbow_joint": 1.971548259319323,
            "shoulder_lift_joint": -1.1394851275133948,
            "shoulder_pan_joint": 0.1228115487234821,
            "wrist_1_joint": -0.7804723859257726,
            "wrist_2_joint": 0.12958671773740124,
            "wrist_3_joint": -3.192489227718131
        }
    },
    "waypoints": [
        {
            "positions": [
                0.1228115487234821,
                -1.1394851275133948,
                1.971548259319323,
                -0.7804723859257726,
                0.12958671773740124,
                -3.192489227718131
            ]
        },
        {
            "positions": [
                0.0566165286088485,
                -1.172830542911892,
                2.036215774739411,
                -0.8176751982243528,
                0.2858565450481789,
                -3.1787330364774338
            ]
        },
        {
            "positions": [
                -0.009578491505785103,
                -1.206175958310389,
                2.1008832901594996,
                -0.8548780105229329,
                0.4421263723589566,
                -3.164976845236736
            ]
        },
        {
            "positions": [
                -0.0757735116204187,
                -1.2395213737088862,
                2.1655508055795876,
                -0.8920808228215129,
                0.5983961996697342,
                -3.1512206539960386
            ]
        },
        {
            "positions": [
                -0.1419685317350523,
                -1.2728667891073835,
                2.2302183209996755,
                -0.929283635120093,
                0.754666026980512,
                -3.1374644627553407
            ]
        },
        {
            "positions": [
                -0.20816355184968593,
                -1.3062122045058806,
                2.294885836419764,
                -0.9664864474186732,
                0.9109358542912898,
                -3.1237082715146434
            ]
        },
        {
            "positions": [
                -0.2743585719643195,
                -1.3395576199043777,
                2.3595533518398524,
                -1.0036892597172533,
                1.0672056816020672,
                -3.1099520802739455
            ]
        },
        {
            "positions": [
                -0.34055359207895314,
                -1.3729030353028748,
                2.4242208672599403,
                -1.0408920720158334,
                1.223475508912845,
                -3.096195889033248
            ]
        }
    ]
}{
    "goal": {
        "global_pose": {
            "orientation": {
                "w": 0.5084816217422485,
                "x": -0.49083608388900757,
                "y": 0.5182115435600281,
                "z": -0.4816462993621826
            },
            "position": {
                "x": 0.5540239810943604,
                "y": 0.030875300988554955,
                "z": 0.16403168439865112
            }
        },
        "name": "move_to_storage_A"
    },
    "id": "LazyPRMstar_move_to_storage_A_15",
    "joint_names": [
        "shoulder_pan_joint",
        "shoulder_lift_joint",
        "elbow_joint",
        "wrist_1_joint",
        "wrist_2_joint",
        "wrist_3_joint"
    ],
    "metrics": {
        "cart_traj_len": 0.3531237141427007,
        "distance_elbow_joint": 0.4488498319769567,
        "distance_shoulder_lift_joint": 0.23533504970255525,
        "distance_shoulder_pan_joint": 0.4592474979003716,
        "distance_wrist_1_joint": 0.24130102294860722,
        "distance_wrist_2_joint": 1.1096358694838853,
        "distance_wrist_3_joint": 0.10375444899625963,
        "smoothness": 2.2204460668324854e-16,
        "time": 5.000134655,
        "traj_len": 1.6118696352399706,
        "weighted_distance": 2.0387666642933047
    },
    "planner": "LazyPRMstar",
    "start": {
        "state": {
            "elbow_joint": 1.97154746011099,
            "shoulder_lift_joint": -1.13948474672311,
            "shoulder_pan_joint": 0.12281154466712228,
            "wrist_1_joint": -0.7804688027058302,
            "wrist_2_joint": 0.12958655903071145,
            "wrist_3_joint": 3.0906928834467795
        }
    },
    "waypoints": [
        {
            "positions": [
                0.12281154466712228,
                -1.13948474672311,
                1.97154746011099,
                -0.7804688027058302,
                0.12958655903071145,
                3.0906928834467795
            ]
        },
        {
            "positions": [
                0.05720475925278348,
                -1.1731040395377608,
                2.0356688646791268,
                -0.814940377412774,
                0.28810596895698076,
                3.105514947589102
            ]
        },
        {
            "positions": [
                -0.008402026161555318,
                -1.2067233323524114,
                2.099790269247263,
                -0.849411952119718,
                0.44662537888325005,
                3.1203370117314253
            ]
        },
        {
            "positions": [
                -0.0740088115758941,
                -1.2403426251670622,
                2.1639116738154,
                -0.8838835268266618,
                0.6051447888095194,
                3.135159075873748
            ]
        },
        {
            "positions": [
                -0.1396155969902329,
                -1.273961917981713,
                2.2280330783835365,
                -0.9183551015336058,
                0.7636641987357887,
                3.1499811400160707
            ]
        },
        {
            "positions": [
                -0.20522238240457175,
                -1.3075812107963638,
                2.2921544829516733,
                -0.9528266762405496,
                0.9221836086620581,
                3.1648032041583933
            ]
        },
        {
            "positions": [
                -0.2708291678189105,
                -1.3412005036110144,
                2.3562758875198098,
                -0.9872982509474935,
                1.0807030185883273,
                3.1796252683007165
            ]
        },
        {
            "positions": [
                -0.3364359532332493,
                -1.3748197964256652,
                2.4203972920879466,
                -1.0217698256544374,
                1.2392224285145967,
                3.194447332443039
            ]
        }
    ]
}{
    "goal": {
        "global_pose": {
            "orientation": {
                "w": 0.5084816217422485,
                "x": -0.49083608388900757,
                "y": 0.5182115435600281,
                "z": -0.4816462993621826
            },
            "position": {
                "x": 0.5540239810943604,
                "y": 0.030875300988554955,
                "z": 0.16403168439865112
            }
        },
        "name": "move_to_storage_A"
    },
    "id": "LazyPRMstar_move_to_storage_A_15",
    "joint_names": [
        "shoulder_pan_joint",
        "shoulder_lift_joint",
        "elbow_joint",
        "wrist_1_joint",
        "wrist_2_joint",
        "wrist_3_joint"
    ],
    "metrics": {
        "cart_traj_len": 0.3533942317428041,
        "distance_elbow_joint": 0.4548123700745861,
        "distance_shoulder_lift_joint": 0.23371406448361176,
        "distance_shoulder_pan_joint": 0.45967446780760574,
        "distance_wrist_1_joint": 0.2619836351667737,
        "distance_wrist_2_joint": 1.1103103176483842,
        "distance_wrist_3_joint": 0.10401920376556317,
        "smoothness": 1.1102230298998083e-15,
        "time": 5.001343633,
        "traj_len": 1.620035202996072,
        "weighted_distance": 2.0505722175268075
    },
    "planner": "LazyPRMstar",
    "start": {
        "state": {
            "elbow_joint": 1.9715472970024885,
            "shoulder_lift_joint": -1.1394870060712896,
            "shoulder_pan_joint": 0.12281152778156021,
            "wrist_1_joint": -0.780463741449964,
            "wrist_2_joint": 0.12958659822042276,
            "wrist_3_joint": 3.090690232415272
        }
    },
    "waypoints": [
        {
            "positions": [
                0.12281152778156021,
                -1.1394870060712896,
                1.9715472970024885,
                -0.780463741449964,
                0.12958659822042276,
                3.090690232415272
            ]
        },
        {
            "positions": [
                0.057143746666187975,
                -1.1728747295689483,
                2.0365204927274294,
                -0.8178899750452174,
                0.2882023578844776,
                3.105550118667495
            ]
        },
        {
            "positions": [
                -0.008524034449184259,
                -1.2062624530666073,
                2.1014936884523703,
                -0.8553162086404708,
                0.4468181175485325,
                3.1204100049197185
            ]
        },
        {
            "positions": [
                -0.07419181556455651,
                -1.239650176564266,
                2.166466884177311,
                -0.8927424422357242,
                0.6054338772125873,
                3.1352698911719417
            ]
        },
        {
            "positions": [
                -0.13985959667992873,
                -1.273037900061925,
                2.231440079902252,
                -0.9301686758309775,
                0.7640496368766422,
                3.1501297774241652
            ]
        },
        {
            "positions": [
                -0.20552737779530098,
                -1.3064256235595837,
                2.296413275627193,
                -0.9675949094262309,
                0.9226653965406971,
                3.1649896636763883
            ]
        },
        {
            "positions": [
                -0.27119515891067325,
                -1.3398133470572424,
                2.3613864713521338,
                -1.0050211430214844,
                1.081281156204752,
                3.179849549928612
            ]
        },
        {
            "positions": [
                -0.3368629400260455,
                -1.3732010705549014,
                2.4263596670770746,
                -1.0424473766167377,
                1.239896915868807,
                3.194709436180835
            ]
        }
    ]
}