{
    "goal": {
        "global_pose": {
            "orientation": {
                "w": 0.005598929693374612,
                "x": 0.007748599140229565,
                "y": 0.7110244013736278,
                "z": -0.7031023480610252
            },
            "position": {
                "x": 0.1141497679147869,
                "y": -0.7141253447532654,
                "z": 0.3711530566215515
            }
        },
        "name": "move_to_auspresseinheit_B"
    },
    "id": "LazyPRMstar_move_to_auspresseinheit_B_2",
    "joint_names": [
        "shoulder_pan_joint",
        "shoulder_lift_joint",
        "elbow_joint",
        "wrist_1_joint",
        "wrist_2_joint",
        "wrist_3_joint"
    ],
    "metrics": {
        "cart_traj_len": 0.565208362118952,
        "distance_elbow_joint": 0.060164669416162164,
        "distance_shoulder_lift_joint": 0.2956845578531446,
        "distance_shoulder_pan_joint": 0.578790180910856,
        "distance_wrist_1_joint": 0.31682369046083936,
        "distance_wrist_2_joint": 0.987209693922215,
        "distance_wrist_3_joint": 0.0068370017943331085,
        "smoothness": 5.075305255429287e-16,
        "time": 5.000107749,
        "traj_len": 1.498502517301039,
        "weighted_distance": 1.8876485854971181
    },
    "planner": "LazyPRMstar",
    "start": {
        "state": {
            "elbow_joint": 2.0193083361928714,
            "shoulder_lift_joint": -1.1220246554650708,
            "shoulder_pan_joint": -1.0952077554168747,
            "wrist_1_joint": -0.8559753972642168,
            "wrist_2_joint": 0.4759566250798843,
            "wrist_3_joint": -3.1240929996934557
        }
    },
    "waypoints": [
        {
            "positions": [
                -1.0952077554168747,
                -1.1220246554650708,
                2.0193083361928714,
                -0.8559753972642168,
                0.4759566250798843,
                -3.1240929996934557
            ]
        },
        {
            "positions": [
                -1.191672785568684,
                -1.1713054151072615,
                2.0092808912901776,
                -0.8031714488540769,
                0.6404915740669201,
                -3.125232499992511
            ]
        },
        {
            "positions": [
                -1.2881378157204932,
                -1.2205861747494524,
                1.999253446387484,
                -0.750367500443937,
                0.805026523053956,
                -3.1263720002915667
            ]
        },
        {
            "positions": [
                -1.3846028458723025,
                -1.269866934391643,
                1.9892260014847905,
                -0.697563552033797,
                0.9695614720409917,
                -3.1275115005906224
            ]
        },
        {
            "positions": [
                -1.4810678760241118,
                -1.3191476940338338,
                1.9791985565820966,
                -0.6447596036236573,
                1.1340964210280275,
                -3.1286510008896777
            ]
        },
        {
            "positions": [
                -1.5775329061759213,
                -1.3684284536760247,
                1.9691711116794028,
                -0.5919556552135172,
                1.2986313700150636,
                -3.129790501188733
            ]
        },
        {
            "positions": [
                -1.6739979363277306,
                -1.4177092133182154,
                1.9591436667767093,
                -0.5391517068033774,
                1.4631663190020994,
                -3.1309300014877888
            ]
        }
    ]
}