{
    "goal": {
        "global_pose": {
            "orientation": {
                "w": -0.00223480608172531,
                "x": 0.0024358444001904467,
                "y": 0.7094548369677653,
                "z": -0.704743149386269
            },
            "position": {
                "x": -0.37947507619857795,
                "y": -0.6371506643295288,
                "z": 0.19426114857196808
            }
        },
        "name": "move_to_magneteinheit_C"
    },
    "id": "LazyPRM_move_to_magneteinheit_C_46",
    "joint_names": [
        "shoulder_pan_joint",
        "shoulder_lift_joint",
        "elbow_joint",
        "wrist_1_joint",
        "wrist_2_joint",
        "wrist_3_joint"
    ],
    "metrics": {
        "cart_traj_len": 5.898677370129324,
        "distance_elbow_joint": 0.6591525413644868,
        "distance_shoulder_lift_joint": 2.8475337117384303,
        "distance_shoulder_pan_joint": 10.234780106831256,
        "distance_wrist_1_joint": 1.677434081167676,
        "distance_wrist_2_joint": 7.957003682184933,
        "distance_wrist_3_joint": 3.9056761165202767,
        "smoothness": 0.49917924238282196,
        "time": 0.151346139,
        "traj_len": 5.223177216963547,
        "weighted_distance": 6.687852438279437
    },
    "planner": "LazyPRM",
    "start": {
        "state": {
            "elbow_joint": 1.9565354010623817,
            "shoulder_lift_joint": -1.4165861575791021,
            "shoulder_pan_joint": -1.6717766225146293,
            "wrist_1_joint": -0.5286633292919765,
            "wrist_2_joint": 1.472756589071564,
            "wrist_3_joint": -3.1238370188695823
        }
    },
    "waypoints": [
        {
            "positions": [
                -1.6717766225146293,
                -1.4165861575791021,
                1.9565354010623817,
                -0.5286633292919765,
                1.472756589071564,
                -3.1238370188695823
            ]
        },
        {
            "positions": [
                -1.5370193419297558,
                -1.453645240080657,
                1.947915378461585,
                -0.5571394275224899,
                1.3477863348645838,
                -3.068469644835376
            ]
        },
        {
            "positions": [
                -1.4022620613448824,
                -1.4907043225822119,
                1.9392953558607884,
                -0.5856155257530034,
                1.2228160806576036,
                -3.01310227080117
            ]
        },
        {
            "positions": [
                -1.2675047807600088,
                -1.5277634050837667,
                1.9306753332599917,
                -0.6140916239835167,
                1.0978458264506235,
                -2.957734896766963
            ]
        },
        {
            "positions": [
                -1.1327475001751353,
                -1.5648224875853218,
                1.922055310659195,
                -0.6425677222140301,
                0.9728755722436432,
                -2.902367522732757
            ]
        },
        {
            "positions": [
                -0.9979902195902619,
                -1.6018815700868767,
                1.9134352880583985,
                -0.6710438204445436,
                0.847905318036663,
                -2.847000148698551
            ]
        },
        {
            "positions": [
                -0.8632329390053884,
                -1.6389406525884316,
                1.9048152654576016,
                -0.699519918675057,
                0.7229350638296829,
                -2.791632774664344
            ]
        },
        {
            "positions": [
                -0.7284756584205149,
                -1.6759997350899865,
                1.896195242856805,
                -0.7279960169055704,
                0.5979648096227026,
                -2.736265400630138
            ]
        },
        {
            "positions": [
                -0.5937183778356414,
                -1.7130588175915413,
                1.8875752202560083,
                -0.7564721151360838,
                0.47299455541572244,
                -2.6808980265959317
            ]
        },
        {
            "positions": [
                -0.45896109725076806,
                -1.7501179000930964,
                1.8789551976552117,
                -0.7849482133665973,
                0.3480243012087423,
                -2.6255306525617255
            ]
        },
        {
            "positions": [
                -0.3242038166658945,
                -1.787176982594651,
                1.870335175054415,
                -0.8134243115971107,
                0.22305404700176212,
                -2.5701632785275192
            ]
        },
        {
            "positions": [
                -0.18944653608102113,
                -1.8242360650962062,
                1.8617151524536184,
                -0.8419004098276242,
                0.09808379279478197,
                -2.5147959044933126
            ]
        },
        {
            "positions": [
                -0.05468925549614756,
                -1.861295147597761,
                1.8530951298528218,
                -0.8703765080581376,
                -0.026886461412198193,
                -2.4594285304591064
            ]
        },
        {
            "positions": [
                0.08006802508872601,
                -1.898354230099316,
                1.8444751072520251,
                -0.8988526062886509,
                -0.15185671561917857,
                -2.4040611564249
            ]
        },
        {
            "positions": [
                0.2148253056735996,
                -1.935413312600871,
                1.8358550846512285,
                -0.9273287045191644,
                -0.27682696982615873,
                -2.3486937823906935
            ]
        },
        {
            "positions": [
                0.34958258625847294,
                -1.9724723951024257,
                1.8272350620504318,
                -0.9558048027496777,
                -0.40179722403313867,
                -2.2933264083564873
            ]
        },
        {
            "positions": [
                0.4843398668433465,
                -2.0095314776039808,
                1.8186150394496352,
                -0.9842809009801912,
                -0.526767478240119,
                -2.237959034322281
            ]
        },
        {
            "positions": [
                0.6190971474282201,
                -2.0465905601055354,
                1.8099950168488386,
                -1.0127569992107046,
                -0.6517377324470992,
                -2.182591660288075
            ]
        },
        {
            "positions": [
                0.7538544280130932,
                -2.0836496426070905,
                1.8013749942480417,
                -1.0412330974412178,
                -0.7767079866540794,
                -2.1272242862538686
            ]
        },
        {
            "positions": [
                0.8886117085979668,
                -2.1207087251086456,
                1.792754971647245,
                -1.0697091956717313,
                -0.9016782408610595,
                -2.071856912219662
            ]
        },
        {
            "positions": [
                1.0233689891828404,
                -2.1577678076102003,
                1.7841349490464484,
                -1.0981852939022447,
                -1.0266484950680397,
                -2.0164895381854557
            ]
        },
        {
            "positions": [
                1.158126269767714,
                -2.1948268901117554,
                1.7755149264456518,
                -1.1266613921327582,
                -1.1516187492750198,
                -1.9611221641512493
            ]
        },
        {
            "positions": [
                1.292883550352587,
                -2.23188597261331,
                1.7668949038448551,
                -1.1551374903632716,
                -1.276589003482,
                -1.905754790117043
            ]
        },
        {
            "positions": [
                1.4276408309374606,
                -2.268945055114865,
                1.7582748812440585,
                -1.183613588593785,
                -1.4015592576889802,
                -1.8503874160828366
            ]
        },
        {
            "positions": [
                1.5623981115223342,
                -2.30600413761642,
                1.7496548586432619,
                -1.2120896868242985,
                -1.5265295118959603,
                -1.7950200420486304
            ]
        },
        {
            "positions": [
                1.6971553921072078,
                -2.343063220117975,
                1.7410348360424652,
                -1.240565785054812,
                -1.651499766102941,
                -1.739652668014424
            ]
        },
        {
            "positions": [
                1.8319126726920814,
                -2.38012230261953,
                1.7324148134416686,
                -1.2690418832853254,
                -1.776470020309921,
                -1.6842852939802175
            ]
        },
        {
            "positions": [
                1.966669953276955,
                -2.4171813851210846,
                1.723794790840872,
                -1.2975179815158389,
                -1.9014402745169012,
                -1.6289179199460113
            ]
        },
        {
            "positions": [
                2.1014272338618287,
                -2.4542404676226397,
                1.7151747682400753,
                -1.3259940797463523,
                -2.0264105287238814,
                -1.5735505459118049
            ]
        },
        {
            "positions": [
                2.236184514446702,
                -2.491299550124195,
                1.7065547456392784,
                -1.3544701779768658,
                -2.1513807829308615,
                -1.5181831718775987
            ]
        },
        {
            "positions": [
                2.370941795031575,
                -2.5283586326257494,
                1.697934723038482,
                -1.3829462762073792,
                -2.2763510371378413,
                -1.4628157978433924
            ]
        },
        {
            "positions": [
                2.505699075616448,
                -2.565417715127304,
                1.6893147004376852,
                -1.4114223744378926,
                -2.4013212913448214,
                -1.407448423809186
            ]
        },
        {
            "positions": [
                2.640456356201322,
                -2.602476797628859,
                1.6806946778368885,
                -1.4398984726684059,
                -2.526291545551802,
                -1.3520810497749798
            ]
        },
        {
            "positions": [
                2.7752136367861953,
                -2.6395358801304143,
                1.6720746552360919,
                -1.4683745708989193,
                -2.651261799758782,
                -1.2967136757407733
            ]
        },
        {
            "positions": [
                2.9099709173710693,
                -2.6765949626319694,
                1.6634546326352952,
                -1.4968506691294328,
                -2.7762320539657623,
                -1.2413463017065671
            ]
        },
        {
            "positions": [
                3.0447281979559424,
                -2.713654045133524,
                1.6548346100344986,
                -1.5253267673599462,
                -2.9012023081727425,
                -1.1859789276723607
            ]
        },
        {
            "positions": [
                2.8870631897742087,
                -2.6693550215854094,
                1.665047517186973,
                -1.5058761775570975,
                -2.7988296000315818,
                -1.242202299824448
            ]
        },
        {
            "positions": [
                2.729398181592475,
                -2.625055998037295,
                1.6752604243394473,
                -1.4864255877542487,
                -2.6964568918904206,
                -1.2984256719765352
            ]
        },
        {
            "positions": [
                2.571733173410742,
                -2.5807569744891805,
                1.6854733314919217,
                -1.4669749979514,
                -2.59408418374926,
                -1.3546490441286225
            ]
        },
        {
            "positions": [
                2.414068165229008,
                -2.536457950941066,
                1.6956862386443963,
                -1.4475244081485512,
                -2.491711475608099,
                -1.4108724162807098
            ]
        },
        {
            "positions": [
                2.2564031570472745,
                -2.4921589273929516,
                1.7058991457968706,
                -1.4280738183457025,
                -2.3893387674669384,
                -1.4670957884327973
            ]
        },
        {
            "positions": [
                2.098738148865541,
                -2.447859903844837,
                1.716112052949345,
                -1.4086232285428537,
                -2.2869660593257772,
                -1.5233191605848846
            ]
        },
        {
            "positions": [
                1.9410731406838073,
                -2.4035608802967223,
                1.7263249601018194,
                -1.389172638740005,
                -2.1845933511846165,
                -1.5795425327369719
            ]
        },
        {
            "positions": [
                1.7834081325020739,
                -2.3592618567486077,
                1.7365378672542937,
                -1.3697220489371562,
                -2.0822206430434553,
                -1.6357659048890592
            ]
        },
        {
            "positions": [
                1.6257431243203404,
                -2.3149628332004935,
                1.746750774406768,
                -1.3502714591343075,
                -1.9798479349022948,
                -1.6919892770411464
            ]
        },
        {
            "positions": [
                1.468078116138607,
                -2.270663809652379,
                1.7569636815592424,
                -1.3308208693314587,
                -1.8774752267611339,
                -1.748212649193234
            ]
        },
        {
            "positions": [
                1.3104131079568733,
                -2.226364786104264,
                1.767176588711717,
                -1.31137027952861,
                -1.775102518619973,
                -1.804436021345321
            ]
        },
        {
            "positions": [
                1.1527480997751396,
                -2.1820657625561495,
                1.7773894958641914,
                -1.2919196897257612,
                -1.672729810478812,
                -1.8606593934974085
            ]
        },
        {
            "positions": [
                0.9950830915934059,
                -2.1377667390080353,
                1.7876024030166657,
                -1.2724690999229122,
                -1.5703571023376512,
                -1.9168827656494958
            ]
        },
        {
            "positions": [
                0.8374180834116722,
                -2.0934677154599206,
                1.79781531016914,
                -1.2530185101200635,
                -1.4679843941964903,
                -1.973106137801583
            ]
        },
        {
            "positions": [
                0.679753075229939,
                -2.049168691911806,
                1.8080282173216145,
                -1.233567920317215,
                -1.3656116860553296,
                -2.02932950995367
            ]
        },
        {
            "positions": [
                0.5220880670482053,
                -2.0048696683636917,
                1.8182411244740888,
                -1.214117330514366,
                -1.2632389779141686,
                -2.0855528821057576
            ]
        },
        {
            "positions": [
                0.36442305886647164,
                -1.960570644815577,
                1.8284540316265632,
                -1.1946667407115172,
                -1.1608662697730077,
                -2.141776254257845
            ]
        },
        {
            "positions": [
                0.2067580506847384,
                -1.9162716212674626,
                1.8386669387790375,
                -1.1752161509086687,
                -1.0584935616318472,
                -2.197999626409932
            ]
        },
        {
            "positions": [
                0.049093042503004725,
                -1.8719725977193482,
                1.8488798459315121,
                -1.1557655611058197,
                -0.9561208534906862,
                -2.2542229985620192
            ]
        },
        {
            "positions": [
                -0.10857196567872851,
                -1.8276735741712336,
                1.8590927530839865,
                -1.136314971302971,
                -0.8537481453495253,
                -2.310446370714107
            ]
        },
        {
            "positions": [
                -0.2662369738604622,
                -1.7833745506231191,
                1.8693056602364608,
                -1.1168643815001222,
                -0.7513754372083645,
                -2.3666697428661942
            ]
        },
        {
            "positions": [
                -0.42390198204219587,
                -1.7390755270750047,
                1.8795185673889352,
                -1.0974137916972735,
                -0.6490027290672034,
                -2.4228931150182813
            ]
        },
        {
            "positions": [
                -0.5815669902239295,
                -1.69477650352689,
                1.8897314745414096,
                -1.0779632018944247,
                -0.5466300209260426,
                -2.479116487170369
            ]
        },
        {
            "positions": [
                -0.7392319984056632,
                -1.6504774799787754,
                1.8999443816938841,
                -1.058512612091576,
                -0.44425731278488145,
                -2.5353398593224563
            ]
        },
        {
            "positions": [
                -0.8968970065873969,
                -1.606178456430661,
                1.9101572888463583,
                -1.0390620222887272,
                -0.3418846046437207,
                -2.5915632314745434
            ]
        },
        {
            "positions": [
                -1.0545620147691306,
                -1.5618794328825463,
                1.9203701959988329,
                -1.0196114324858785,
                -0.23951189650256,
                -2.647786603626631
            ]
        },
        {
            "positions": [
                -1.2122270229508638,
                -1.5175804093344318,
                1.9305831031513072,
                -1.0001608426830297,
                -0.13713918836139882,
                -2.7040099757787184
            ]
        },
        {
            "positions": [
                -1.369892031132598,
                -1.4732813857863172,
                1.9407960103037816,
                -0.980710252880181,
                -0.034766480220238094,
                -2.7602333479308054
            ]
        },
        {
            "positions": [
                -1.5275570393143312,
                -1.4289823622382027,
                1.951008917456256,
                -0.9612596630773322,
                0.06760622792092308,
                -2.816456720082893
            ]
        },
        {
            "positions": [
                -1.6852220474960644,
                -1.3846833386900883,
                1.9612218246087303,
                -0.9418090732744836,
                0.16997893606208336,
                -2.87268009223498
            ]
        },
        {
            "positions": [
                -1.8428870556777976,
                -1.3403843151419739,
                1.9714347317612047,
                -0.9223584834716347,
                0.2723516442032441,
                -2.9289034643870675
            ]
        },
        {
            "positions": [
                -2.0005520638595318,
                -1.2960852915938592,
                1.981647638913679,
                -0.902907893668786,
                0.37472435234440526,
                -2.9851268365391546
            ]
        },
        {
            "positions": [
                -2.158217072041265,
                -1.2517862680457448,
                1.9918605460661536,
                -0.8834573038659372,
                0.477097060485566,
                -3.041350208691242
            ]
        },
        {
            "positions": [
                -2.315882080222999,
                -1.2074872444976301,
                2.0020734532186277,
                -0.8640067140630885,
                0.5794697686267272,
                -3.0975735808433296
            ]
        },
        {
            "positions": [
                -2.473547088404733,
                -1.1631882209495157,
                2.0122863603711023,
                -0.8445561242602397,
                0.6818424767678879,
                -3.1537969529954166
            ]
        }
    ]
}