{
    "goal": {
        "global_pose": {
            "orientation": {
                "w": -0.4816463035849501,
                "x": 0.5182115481033762,
                "y": 0.4908360881923453,
                "z": -0.5084816262002911
            },
            "position": {
                "x": -0.8240239810943604,
                "y": -0.300875300988555,
                "z": 0.16403168439865112
            }
        },
        "name": "move_to_storage_C"
    },
    "id": "LazyPRMstar_move_to_storage_C_13",
    "joint_names": [
        "shoulder_pan_joint",
        "shoulder_lift_joint",
        "elbow_joint",
        "wrist_1_joint",
        "wrist_2_joint",
        "wrist_3_joint"
    ],
    "metrics": {
        "cart_traj_len": 0.5762739477933484,
        "distance_elbow_joint": 0.2569194615603043,
        "distance_shoulder_lift_joint": 0.1879819533011754,
        "distance_shoulder_pan_joint": 0.49600516409597084,
        "distance_wrist_1_joint": 0.08016716307844174,
        "distance_wrist_2_joint": 1.0587272540519885,
        "distance_wrist_3_joint": 0.07328476402665984,
        "smoothness": 0.0,
        "time": 5.000181828,
        "traj_len": 1.4673396880458665,
        "weighted_distance": 1.8543326846330164
    },
    "planner": "LazyPRMstar",
    "start": {
        "state": {
            "elbow_joint": 2.010868314990456,
            "shoulder_lift_joint": -1.1634956873337592,
            "shoulder_pan_joint": -2.4736205022346125,
            "wrist_1_joint": -0.8367026794202681,
            "wrist_2_joint": 0.6746043897044499,
            "wrist_3_joint": -3.1496632123970403
        }
    },
    "waypoints": [
        {
            "positions": [
                -2.4736205022346125,
                -1.1634956873337592,
                2.010868314990456,
                -0.8367026794202681,
                0.6746043897044499,
                -3.1496632123970403
            ]
        },
        {
            "positions": [
                -2.556288029583941,
                -1.1321653617835632,
                1.9680484047304052,
                -0.8233414855738611,
                0.851058932046448,
                -3.137449085059264
            ]
        },
        {
            "positions": [
                -2.6389555569332694,
                -1.1008350362333674,
                1.9252284944703544,
                -0.8099802917274542,
                1.0275134743884462,
                -3.125234957721487
            ]
        },
        {
            "positions": [
                -2.721623084282598,
                -1.0695047106831714,
                1.8824085842103035,
                -0.7966190978810472,
                1.2039680167304443,
                -3.1130208303837104
            ]
        },
        {
            "positions": [
                -2.8042906116319264,
                -1.0381743851329757,
                1.839588673950253,
                -0.7832579040346402,
                1.3804225590724424,
                -3.100806703045934
            ]
        },
        {
            "positions": [
                -2.886958138981255,
                -1.0068440595827797,
                1.7967687636902023,
                -0.7698967101882334,
                1.5568771014144405,
                -3.088592575708157
            ]
        },
        {
            "positions": [
                -2.9696256663305833,
                -0.9755137340325838,
                1.7539488534301515,
                -0.7565355163418264,
                1.7333316437564383,
                -3.0763784483703804
            ]
        }
    ]
}