{
    "goal": {
        "global_pose": {
            "orientation": {
                "w": -0.00223480608172531,
                "x": 0.0024358444001904467,
                "y": 0.7094548369677653,
                "z": -0.704743149386269
            },
            "position": {
                "x": -0.37947507619857795,
                "y": -0.6371506643295288,
                "z": 0.19426114857196808
            }
        },
        "name": "move_to_magneteinheit_C"
    },
    "id": "LazyPRMstar_move_to_magneteinheit_C_118",
    "joint_names": [
        "shoulder_pan_joint",
        "shoulder_lift_joint",
        "elbow_joint",
        "wrist_1_joint",
        "wrist_2_joint",
        "wrist_3_joint"
    ],
    "metrics": {
        "cart_traj_len": 3.2227661203364364,
        "distance_elbow_joint": 1.182943745544903,
        "distance_shoulder_lift_joint": 3.103758927072086,
        "distance_shoulder_pan_joint": 4.444318703427314,
        "distance_wrist_1_joint": 2.0460473316321415,
        "distance_wrist_2_joint": 1.4997206056433627,
        "distance_wrist_3_joint": 0.21697497591232784,
        "smoothness": 0.9344930635585511,
        "time": 5.017276714,
        "traj_len": 3.53465193325059,
        "weighted_distance": 4.058753771582146
    },
    "planner": "LazyPRMstar",
    "start": {
        "state": {
            "elbow_joint": 1.9565354010623817,
            "shoulder_lift_joint": -1.4165861575791021,
            "shoulder_pan_joint": -1.6717766225146293,
            "wrist_1_joint": -0.5286633292919765,
            "wrist_2_joint": 1.472756589071564,
            "wrist_3_joint": -3.1238370188695823
        }
    },
    "waypoints": [
        {
            "positions": [
                -1.6717766225146293,
                -1.4165861575791021,
                1.9565354010623817,
                -0.5286633292919765,
                1.472756589071564,
                -3.1238370188695823
            ]
        },
        {
            "positions": [
                -1.5578980936930324,
                -1.5056401784471258,
                1.995115193369021,
                -0.47386059928598806,
                1.401265258943987,
                -3.1184549976641076
            ]
        },
        {
            "positions": [
                -1.4440195648714356,
                -1.5946941993151496,
                2.03369498567566,
                -0.41905786927999966,
                1.3297739288164099,
                -3.1130729764586325
            ]
        },
        {
            "positions": [
                -1.3301410360498385,
                -1.6837482201831735,
                2.072274777982299,
                -0.3642551392740113,
                1.2582825986888329,
                -3.1076909552531577
            ]
        },
        {
            "positions": [
                -1.2162625072282416,
                -1.7728022410511972,
                2.1108545702889385,
                -0.3094524092680229,
                1.1867912685612558,
                -3.1023089340476826
            ]
        },
        {
            "positions": [
                -1.1023839784066447,
                -1.861856261919221,
                2.149434362595578,
                -0.2546496792620345,
                1.1152999384336786,
                -3.096926912842208
            ]
        },
        {
            "positions": [
                -0.9885054495850478,
                -1.9509102827872447,
                2.188014154902217,
                -0.19984694925604618,
                1.0438086083061016,
                -3.091544891636733
            ]
        },
        {
            "positions": [
                -0.8746269207634508,
                -2.0399643036552684,
                2.226593947208856,
                -0.14504421925005778,
                0.9723172781785245,
                -3.086162870431258
            ]
        },
        {
            "positions": [
                -0.760748391941854,
                -2.129018324523292,
                2.2651737395154954,
                -0.09024148924406938,
                0.9008259480509475,
                -3.0807808492257833
            ]
        },
        {
            "positions": [
                -0.646869863120257,
                -2.218072345391316,
                2.3037535318221347,
                -0.035438759238080986,
                0.8293346179233705,
                -3.0753988280203086
            ]
        },
        {
            "positions": [
                -0.5329913342986601,
                -2.3071263662593395,
                2.3423333241287736,
                0.019363970767907412,
                0.7578432877957935,
                -3.0700168068148335
            ]
        },
        {
            "positions": [
                -0.4191128054770632,
                -2.3961803871273633,
                2.380913116435413,
                0.07416670077389576,
                0.6863519576682163,
                -3.0646347856093588
            ]
        },
        {
            "positions": [
                -0.3052342766554663,
                -2.485234407995387,
                2.4194929087420523,
                0.1289694307798841,
                0.6148606275406393,
                -3.059252764403884
            ]
        },
        {
            "positions": [
                -0.19135574783386944,
                -2.5742884288634107,
                2.4580727010486916,
                0.18377216078587255,
                0.5433692974130623,
                -3.053870743198409
            ]
        },
        {
            "positions": [
                -0.07747721901227234,
                -2.663342449731435,
                2.496652493355331,
                0.2385748907918609,
                0.47187796728548514,
                -3.048488721992934
            ]
        },
        {
            "positions": [
                0.036401309809324545,
                -2.7523964705994586,
                2.53523228566197,
                0.29337762079784935,
                0.4003866371579081,
                -3.043106700787459
            ]
        },
        {
            "positions": [
                0.15027983863092143,
                -2.8414504914674823,
                2.573812077968609,
                0.3481803508038377,
                0.3288953070303311,
                -3.0377246795819843
            ]
        },
        {
            "positions": [
                -0.003970881503299856,
                -2.742691985986088,
                2.540537544519275,
                0.2794036654193478,
                0.3498282084186917,
                -3.0454224817363804
            ]
        },
        {
            "positions": [
                -0.15822160163752114,
                -2.6439334805046935,
                2.5072630110699414,
                0.21062698003485794,
                0.3707611098070524,
                -3.053120283890776
            ]
        },
        {
            "positions": [
                -0.31247232177174245,
                -2.5451749750232993,
                2.4739884776206074,
                0.14185029465036803,
                0.391694011195413,
                -3.060818086045172
            ]
        },
        {
            "positions": [
                -0.4667230419059637,
                -2.4464164695419046,
                2.4407139441712737,
                0.07307360926587819,
                0.4126269125837737,
                -3.0685158881995678
            ]
        },
        {
            "positions": [
                -0.6209737620401851,
                -2.3476579640605104,
                2.4074394107219397,
                0.004296923881388248,
                0.43355981397213433,
                -3.076213690353964
            ]
        },
        {
            "positions": [
                -0.7752244821744063,
                -2.2488994585791158,
                2.374164877272606,
                -0.06447976150310164,
                0.45449271536049496,
                -3.0839114925083595
            ]
        },
        {
            "positions": [
                -0.9294752023086275,
                -2.1501409530977216,
                2.340890343823272,
                -0.13325644688759147,
                0.47542561674885564,
                -3.0916092946627556
            ]
        },
        {
            "positions": [
                -1.0837259224428488,
                -2.0513824476163274,
                2.3076158103739384,
                -0.2020331322720813,
                0.4963585181372163,
                -3.099307096817151
            ]
        },
        {
            "positions": [
                -1.2379766425770702,
                -1.9526239421349327,
                2.2743412769246043,
                -0.2708098176565713,
                0.5172914195255769,
                -3.1070048989715473
            ]
        },
        {
            "positions": [
                -1.3922273627112915,
                -1.8538654366535383,
                2.2410667434752707,
                -0.3395865030410612,
                0.5382243209139376,
                -3.114702701125943
            ]
        },
        {
            "positions": [
                -1.546478082845513,
                -1.755106931172144,
                2.2077922100259366,
                -0.4083631884255511,
                0.5591572223022983,
                -3.122400503280339
            ]
        },
        {
            "positions": [
                -1.700728802979734,
                -1.6563484256907495,
                2.174517676576603,
                -0.47713987381004097,
                0.5800901236906588,
                -3.1300983054347347
            ]
        },
        {
            "positions": [
                -1.854979523113955,
                -1.5575899202093553,
                2.141243143127269,
                -0.5459165591945307,
                0.6010230250790195,
                -3.1377961075891307
            ]
        },
        {
            "positions": [
                -2.0092302432481763,
                -1.4588314147279609,
                2.1079686096779353,
                -0.6146932445790206,
                0.6219559264673802,
                -3.1454939097435264
            ]
        },
        {
            "positions": [
                -2.1634809633823977,
                -1.3600729092465664,
                2.0746940762286012,
                -0.6834699299635105,
                0.6428888278557408,
                -3.1531917118979225
            ]
        },
        {
            "positions": [
                -2.317731683516619,
                -1.261314403765172,
                2.041419542779267,
                -0.7522466153480003,
                0.6638217292441015,
                -3.160889514052318
            ]
        },
        {
            "positions": [
                -2.4719824036508404,
                -1.1625558982837776,
                2.0081450093299336,
                -0.8210233007324902,
                0.6847546306324621,
                -3.168587316206714
            ]
        }
    ]
}