{
    "goal": {
        "global_pose": {
            "orientation": {
                "w": 0.7047431468963623,
                "x": -0.7094548344612122,
                "y": 0.0024358443915843964,
                "z": -0.0022348060738295317
            },
            "position": {
                "x": 0.6094750761985779,
                "y": 0.3671506643295288,
                "z": 0.19426114857196808
            }
        },
        "name": "move_to_magneteinheit_A"
    },
    "id": "LazyPRMstar_move_to_magneteinheit_A_81",
    "joint_names": [
        "shoulder_pan_joint",
        "shoulder_lift_joint",
        "elbow_joint",
        "wrist_1_joint",
        "wrist_2_joint",
        "wrist_3_joint"
    ],
    "metrics": {
        "cart_traj_len": 3.349775061706194,
        "distance_elbow_joint": 3.92261977485851,
        "distance_shoulder_lift_joint": 0.4624470406572332,
        "distance_shoulder_pan_joint": 3.269077570403742,
        "distance_wrist_1_joint": 3.510171145699389,
        "distance_wrist_2_joint": 1.4502368826984953,
        "distance_wrist_3_joint": 0.5001066038915966,
        "smoothness": 0.06358309240457365,
        "time": 5.0341997009999995,
        "traj_len": 3.6214167142444356,
        "weighted_distance": 4.367525644388369
    },
    "planner": "LazyPRMstar",
    "start": {
        "state": {
            "elbow_joint": -1.9196185241190666,
            "shoulder_lift_joint": -1.2443396400964142,
            "shoulder_pan_joint": 2.6996025414629847,
            "wrist_1_joint": -1.5485510000780065,
            "wrist_2_joint": -1.5709468930060704,
            "wrist_3_joint": 0.4420197071253992
        }
    },
    "waypoints": [
        {
            "positions": [
                2.6996025414629847,
                -1.2443396400964142,
                -1.9196185241190666,
                -1.5485510000780065,
                -1.5709468930060704,
                0.4420197071253992
            ]
        },
        {
            "positions": [
                2.5603867619768446,
                -1.243677357338792,
                -1.7968837269946045,
                -1.4898280011998717,
                -1.5323001274059254,
                0.4213353141129507
            ]
        },
        {
            "positions": [
                2.421170982490705,
                -1.2430150745811697,
                -1.6741489298701426,
                -1.431105002321737,
                -1.4936533618057801,
                0.40065092110050227
            ]
        },
        {
            "positions": [
                2.2819552030045647,
                -1.2423527918235475,
                -1.5514141327456805,
                -1.3723820034436023,
                -1.455006596205635,
                0.37996652808805387
            ]
        },
        {
            "positions": [
                2.1427394235184245,
                -1.2416905090659252,
                -1.4286793356212186,
                -1.3136590045654675,
                -1.41635983060549,
                0.3592821350756054
            ]
        },
        {
            "positions": [
                2.0035236440322843,
                -1.241028226308303,
                -1.3059445384967565,
                -1.2549360056873329,
                -1.377713065005345,
                0.33859774206315696
            ]
        },
        {
            "positions": [
                1.8643078645461444,
                -1.2403659435506809,
                -1.1832097413722944,
                -1.196213006809198,
                -1.3390662994051998,
                0.3179133490507085
            ]
        },
        {
            "positions": [
                1.7250920850600044,
                -1.2397036607930585,
                -1.0604749442478325,
                -1.1374900079310635,
                -1.3004195338050548,
                0.29722895603826005
            ]
        },
        {
            "positions": [
                1.5858763055738643,
                -1.2390413780354363,
                -0.9377401471233704,
                -1.0787670090529287,
                -1.2617727682049096,
                0.27654456302581165
            ]
        },
        {
            "positions": [
                1.4466605260877243,
                -1.2383790952778142,
                -0.8150053499989083,
                -1.0200440101747938,
                -1.2231260026047646,
                0.25586017001336314
            ]
        },
        {
            "positions": [
                1.3074447466015842,
                -1.2377168125201918,
                -0.6922705528744464,
                -0.9613210112966591,
                -1.1844792370046195,
                0.23517577700091472
            ]
        },
        {
            "positions": [
                1.168228967115444,
                -1.2370545297625697,
                -0.569535755749984,
                -0.9025980124185243,
                -1.1458324714044745,
                0.21449138398846626
            ]
        },
        {
            "positions": [
                1.029013187629304,
                -1.2363922470049473,
                -0.44680095862552216,
                -0.8438750135403896,
                -1.1071857058043295,
                0.19380699097601783
            ]
        },
        {
            "positions": [
                0.8897974081431639,
                -1.2357299642473252,
                -0.32406616150106005,
                -0.7851520146622548,
                -1.0685389402041843,
                0.17312259796356938
            ]
        },
        {
            "positions": [
                0.7505816286570239,
                -1.235067681489703,
                -0.20133136437659815,
                -0.7264290157841202,
                -1.0298921746040393,
                0.15243820495112093
            ]
        },
        {
            "positions": [
                0.6113658491708835,
                -1.2344053987320807,
                -0.07859656725213604,
                -0.6677060169059854,
                -0.9912454090038941,
                0.13175381193867247
            ]
        },
        {
            "positions": [
                0.4721500696847438,
                -1.2337431159744585,
                0.04413822987232585,
                -0.6089830180278507,
                -0.952598643403749,
                0.11106941892622407
            ]
        },
        {
            "positions": [
                0.33293429019860366,
                -1.2330808332168364,
                0.1668730269967882,
                -0.5502600191497159,
                -0.9139518778036039,
                0.09038502591377556
            ]
        },
        {
            "positions": [
                0.19371851071246393,
                -1.232418550459214,
                0.2896078241212501,
                -0.4915370202715812,
                -0.8753051122034589,
                0.06970063290132716
            ]
        },
        {
            "positions": [
                0.05450273122632332,
                -1.2317562677015919,
                0.41234262124571197,
                -0.4328140213934464,
                -0.8366583466033137,
                0.04901623988887871
            ]
        },
        {
            "positions": [
                -0.0847130482598164,
                -1.2310939849439695,
                0.5350774183701739,
                -0.3740910225153118,
                -0.7980115810031687,
                0.028331846876430256
            ]
        },
        {
            "positions": [
                -0.22392882774595668,
                -1.2304317021863473,
                0.6578122154946363,
                -0.31536802363717703,
                -0.7593648154030236,
                0.007647453863981808
            ]
        },
        {
            "positions": [
                -0.20122061358343657,
                -1.196202369278295,
                0.7646257521216809,
                -0.140178741392547,
                -0.7095977246608756,
                0.0025075106698930526
            ]
        },
        {
            "positions": [
                -0.17851239942091646,
                -1.1619730363702427,
                0.8714392887487254,
                0.03501054085208305,
                -0.6598306339187276,
                -0.002632432524195703
            ]
        },
        {
            "positions": [
                -0.15580418525839634,
                -1.1277437034621904,
                0.9782528253757701,
                0.2101998230967131,
                -0.6100635431765796,
                -0.0077723757182844595
            ]
        },
        {
            "positions": [
                -0.13309597109587623,
                -1.093514370554138,
                1.0850663620028147,
                0.38538910534134313,
                -0.5602964524344317,
                -0.012912318912373214
            ]
        },
        {
            "positions": [
                -0.11038775693335612,
                -1.0592850376460856,
                1.1918798986298593,
                0.5605783875859731,
                -0.5105293616922837,
                -0.01805226210646197
            ]
        },
        {
            "positions": [
                -0.087679542770836,
                -1.0250557047380333,
                1.298693435256904,
                0.7357676698306033,
                -0.4607622709501357,
                -0.023192205300550727
            ]
        },
        {
            "positions": [
                -0.06497132860831589,
                -0.990826371829981,
                1.4055069718839484,
                0.9109569520752334,
                -0.4109951802079877,
                -0.028332148494639484
            ]
        },
        {
            "positions": [
                -0.04226311444579578,
                -0.9565970389219287,
                1.512320508510993,
                1.0861462343198633,
                -0.3612280894658398,
                -0.03347209168872824
            ]
        },
        {
            "positions": [
                -0.019554900283275667,
                -0.9223677060138763,
                1.6191340451380376,
                1.2613355165644933,
                -0.3114609987236918,
                -0.038612034882816997
            ]
        },
        {
            "positions": [
                0.003153313879244446,
                -0.8881383731058239,
                1.7259475817650825,
                1.4365247988091234,
                -0.2616939079815438,
                -0.04375197807690575
            ]
        },
        {
            "positions": [
                0.02586152804176456,
                -0.8539090401977716,
                1.8327611183921269,
                1.6117140810537534,
                -0.21192681723939588,
                -0.0488919212709945
            ]
        },
        {
            "positions": [
                0.048569742204284644,
                -0.8196797072897193,
                1.9395746550191713,
                1.7869033632983835,
                -0.16215972649724783,
                -0.05403186446508326
            ]
        },
        {
            "positions": [
                0.12161737344884173,
                -0.781892599439181,
                2.0030012507394432,
                1.961620145621384,
                -0.1207100103075754,
                -0.04997683216396944
            ]
        }
    ]
}