{
    "goal": {
        "global_pose": {
            "orientation": {
                "w": 0.7047431493862688,
                "x": -0.7094548369677653,
                "y": 0.0024358444001904,
                "z": -0.0022348060817251984
            },
            "position": {
                "x": -0.39052492380142206,
                "y": 0.3671506643295288,
                "z": 0.19426114857196808
            }
        },
        "name": "move_to_magneteinheit_D"
    },
    "id": "LazyPRM_move_to_magneteinheit_D_61",
    "joint_names": [
        "shoulder_pan_joint",
        "shoulder_lift_joint",
        "elbow_joint",
        "wrist_1_joint",
        "wrist_2_joint",
        "wrist_3_joint"
    ],
    "metrics": {
        "cart_traj_len": 4.3726566389295956,
        "distance_elbow_joint": 3.629997174314379,
        "distance_shoulder_lift_joint": 1.6486743725657533,
        "distance_shoulder_pan_joint": 2.8508434837569094,
        "distance_wrist_1_joint": 1.6628139745044068,
        "distance_wrist_2_joint": 0.3812854492368628,
        "distance_wrist_3_joint": 3.419345275886211,
        "smoothness": 0.499194401597996,
        "time": 0.44171392,
        "traj_len": 3.6868631287673965,
        "weighted_distance": 4.740859595661762
    },
    "planner": "LazyPRM",
    "start": {
        "state": {
            "elbow_joint": 0.749534889911806,
            "shoulder_lift_joint": -0.6476975780787326,
            "shoulder_pan_joint": -2.711696901376241,
            "wrist_1_joint": -0.07506478083263063,
            "wrist_2_joint": 0.43296659715538205,
            "wrist_3_joint": -3.14703540197715
        }
    },
    "waypoints": [
        {
            "positions": [
                -2.711696901376241,
                -0.6476975780787326,
                0.749534889911806,
                -0.07506478083263063,
                0.43296659715538205,
                -3.14703540197715
            ]
        },
        {
            "positions": [
                -2.7126563513173885,
                -0.7267902169429341,
                0.8763774718954961,
                -0.04002675364097875,
                0.45809367890737895,
                -3.08319629924108
            ]
        },
        {
            "positions": [
                -2.7136158012585363,
                -0.8058828558071356,
                1.0032200538791862,
                -0.004988726449326866,
                0.4832207606593758,
                -3.01935719650501
            ]
        },
        {
            "positions": [
                -2.624873924097016,
                -0.858182053069618,
                0.9114783929046757,
                0.045412712680254194,
                0.48379310505349965,
                -2.908882693487455
            ]
        },
        {
            "positions": [
                -2.5361320469354958,
                -0.9104812503321005,
                0.8197367319301652,
                0.09581415180983525,
                0.48436544944762344,
                -2.7984081904699005
            ]
        },
        {
            "positions": [
                -2.4473901697739753,
                -0.9627804475945829,
                0.7279950709556546,
                0.14621559093941633,
                0.4849377938417473,
                -2.687933687452346
            ]
        },
        {
            "positions": [
                -2.3586482926124552,
                -1.0150796448570654,
                0.6362534099811441,
                0.1966170300689974,
                0.4855101382358711,
                -2.577459184434791
            ]
        },
        {
            "positions": [
                -2.2699064154509347,
                -1.0673788421195478,
                0.5445117490066336,
                0.24701846919857845,
                0.4860824826299949,
                -2.4669846814172365
            ]
        },
        {
            "positions": [
                -2.1811645382894147,
                -1.1196780393820303,
                0.45277008803212304,
                0.2974199083281595,
                0.4866548270241187,
                -2.3565101783996822
            ]
        },
        {
            "positions": [
                -2.092422661127894,
                -1.1719772366445127,
                0.3610284270576125,
                0.34782134745774057,
                0.48722717141824257,
                -2.2460356753821276
            ]
        },
        {
            "positions": [
                -2.0036807839663737,
                -1.2242764339069951,
                0.269286766083102,
                0.39822278658732163,
                0.48779951581236636,
                -2.135561172364573
            ]
        },
        {
            "positions": [
                -1.9149389068048535,
                -1.2765756311694778,
                0.17754510510859134,
                0.44862422571690275,
                0.4883718602064902,
                -2.025086669347018
            ]
        },
        {
            "positions": [
                -1.8261970296433332,
                -1.3288748284319603,
                0.08580344413408092,
                0.49902566484648375,
                0.488944204600614,
                -1.9146121663294635
            ]
        },
        {
            "positions": [
                -1.7374551524818127,
                -1.3811740256944427,
                -0.005938216840429611,
                0.5494271039760648,
                0.48951654899473784,
                -1.8041376633119088
            ]
        },
        {
            "positions": [
                -1.6487132753202927,
                -1.4334732229569251,
                -0.09767987781494014,
                0.5998285431056458,
                0.49008889338886164,
                -1.6936631602943544
            ]
        },
        {
            "positions": [
                -1.5599713981587722,
                -1.4857724202194076,
                -0.18942153878945067,
                0.6502299822352269,
                0.4906612377829855,
                -1.5831886572767997
            ]
        },
        {
            "positions": [
                -1.471229520997252,
                -1.53807161748189,
                -0.2811631997639612,
                0.7006314213648079,
                0.49123358217710933,
                -1.472714154259245
            ]
        },
        {
            "positions": [
                -1.3824876438357316,
                -1.5903708147443725,
                -0.37290486073847173,
                0.751032860494389,
                0.4918059265712331,
                -1.3622396512416903
            ]
        },
        {
            "positions": [
                -1.2937457666742114,
                -1.642670012006855,
                -0.46464652171298226,
                0.8014342996239701,
                0.49237827096535697,
                -1.2517651482241359
            ]
        },
        {
            "positions": [
                -1.205003889512691,
                -1.6949692092693374,
                -0.5563881826874926,
                0.851835738753551,
                0.49295061535948076,
                -1.1412906452065812
            ]
        },
        {
            "positions": [
                -1.1162620123511706,
                -1.7472684065318198,
                -0.6481298436620035,
                0.9022371778831323,
                0.4935229597536046,
                -1.0308161421890263
            ]
        },
        {
            "positions": [
                -1.0275201351896504,
                -1.7995676037943023,
                -0.7398715046365139,
                0.9526386170127132,
                0.4940953041477284,
                -0.9203416391714718
            ]
        },
        {
            "positions": [
                -0.9387782580281301,
                -1.8518668010567847,
                -0.8316131656110244,
                1.0030400561422943,
                0.49466764854185225,
                -0.8098671361539171
            ]
        },
        {
            "positions": [
                -0.8500363808666096,
                -1.9041659983192671,
                -0.9233548265855349,
                1.0534414952718754,
                0.49523999293597604,
                -0.6993926331363625
            ]
        },
        {
            "positions": [
                -0.7612945037050893,
                -1.9564651955817496,
                -1.0150964875600454,
                1.1038429344014564,
                0.4958123373300999,
                -0.5889181301188078
            ]
        },
        {
            "positions": [
                -0.6725526265435691,
                -2.008764392844232,
                -1.106838148534556,
                1.1542443735310375,
                0.4963846817242237,
                -0.47844362710125354
            ]
        },
        {
            "positions": [
                -0.583810749382049,
                -2.0610635901067145,
                -1.1985798095090665,
                1.2046458126606185,
                0.4969570261183475,
                -0.36796912408369886
            ]
        },
        {
            "positions": [
                -0.49506887222052853,
                -2.113362787369197,
                -1.290321470483577,
                1.2550472517901996,
                0.4975293705124713,
                -0.25749462106614374
            ]
        },
        {
            "positions": [
                -0.40632699505900804,
                -2.1656619846316794,
                -1.3820631314580876,
                1.3054486909197807,
                0.49810171490659516,
                -0.1470201180485895
            ]
        },
        {
            "positions": [
                -0.317585117897488,
                -2.217961181894162,
                -1.473804792432598,
                1.3558501300493617,
                0.49867405930071895,
                -0.03654561503103482
            ]
        },
        {
            "positions": [
                -0.22884324073596737,
                -2.2702603791566442,
                -1.5655464534071086,
                1.4062515691789428,
                0.4992464036948428,
                0.07392888798651999
            ]
        },
        {
            "positions": [
                -0.16117529806328054,
                -2.276684946424124,
                -1.7286664603591624,
                1.4565128294650016,
                0.43399595279336073,
                0.0925470291948263
            ]
        },
        {
            "positions": [
                -0.09350735539059371,
                -2.283109513691604,
                -1.8917864673112161,
                1.5067740897510604,
                0.3687455018918786,
                0.1111651704031326
            ]
        },
        {
            "positions": [
                -0.02583941271790685,
                -2.2895340809590836,
                -2.05490647426327,
                1.5570353500371192,
                0.30349505099039653,
                0.1297833116114389
            ]
        },
        {
            "positions": [
                -0.10641351038489938,
                -2.2861151461163827,
                -2.213999215365541,
                1.5416784282197908,
                0.24386790599391864,
                0.05852003046262777
            ]
        },
        {
            "positions": [
                -0.1869876080518919,
                -2.2826962112736813,
                -2.373091956467812,
                1.5263215064024624,
                0.18424076099744074,
                -0.012743250686183386
            ]
        }
    ]
}