{
    "goal": {
        "global_pose": {
            "orientation": {
                "w": -0.4816463035849501,
                "x": 0.5182115481033762,
                "y": 0.4908360881923453,
                "z": -0.5084816262002911
            },
            "position": {
                "x": -0.8240239810943604,
                "y": -0.300875300988555,
                "z": 0.16403168439865112
            }
        },
        "name": "move_to_storage_C"
    },
    "id": "LazyPRMstar_move_to_storage_C_7",
    "joint_names": [
        "shoulder_pan_joint",
        "shoulder_lift_joint",
        "elbow_joint",
        "wrist_1_joint",
        "wrist_2_joint",
        "wrist_3_joint"
    ],
    "metrics": {
        "cart_traj_len": 0.5768521266861882,
        "distance_elbow_joint": 0.2597608769169031,
        "distance_shoulder_lift_joint": 0.19069280258317856,
        "distance_shoulder_pan_joint": 0.49309037655531274,
        "distance_wrist_1_joint": 0.07608941222417209,
        "distance_wrist_2_joint": 1.0751964406041807,
        "distance_wrist_3_joint": 0.07256386176661334,
        "smoothness": 7.612957943425664e-16,
        "time": 5.000850362,
        "traj_len": 1.4722071086129018,
        "weighted_distance": 1.8611306636053095
    },
    "planner": "LazyPRMstar",
    "start": {
        "state": {
            "elbow_joint": 2.010868314990456,
            "shoulder_lift_joint": -1.1634956873337592,
            "shoulder_pan_joint": -2.4736205022346125,
            "wrist_1_joint": -0.8367026794202681,
            "wrist_2_joint": 0.6746043897044499,
            "wrist_3_joint": -3.1496632123970403
        }
    },
    "waypoints": [
        {
            "positions": [
                -2.4736205022346125,
                -1.1634956873337592,
                2.010868314990456,
                -0.8367026794202681,
                0.6746043897044499,
                -3.1496632123970403
            ]
        },
        {
            "positions": [
                -2.555802231660498,
                -1.1317135535698961,
                1.9675748355043052,
                -0.8240211107162394,
                0.8538037964718134,
                -3.137569235435938
            ]
        },
        {
            "positions": [
                -2.6379839610863836,
                -1.099931419806033,
                1.9242813560181549,
                -0.8113395420122107,
                1.033003203239177,
                -3.125475258474836
            ]
        },
        {
            "positions": [
                -2.720165690512269,
                -1.06814928604217,
                1.8809878765320043,
                -0.798657973308182,
                1.2122026100065404,
                -3.1133812815137336
            ]
        },
        {
            "positions": [
                -2.802347419938154,
                -1.036367152278307,
                1.8376943970458537,
                -0.7859764046041534,
                1.3914020167739038,
                -3.1012873045526312
            ]
        },
        {
            "positions": [
                -2.88452914936404,
                -1.0045850185144438,
                1.7944009175597033,
                -0.7732948359001247,
                1.5706014235412673,
                -3.0891933275915293
            ]
        },
        {
            "positions": [
                -2.9667108787899252,
                -0.9728028847505806,
                1.7511074380735527,
                -0.760613267196096,
                1.7498008303086305,
                -3.077099350630427
            ]
        }
    ]
}