{
    "goal": {
        "global_pose": {
            "orientation": {
                "w": 0.5084816217422485,
                "x": -0.49083608388900757,
                "y": 0.5182115435600281,
                "z": -0.4816462993621826
            },
            "position": {
                "x": 0.5540239810943604,
                "y": 0.030875300988554955,
                "z": 0.16403168439865112
            }
        },
        "name": "move_to_storage_A"
    },
    "id": "LazyPRMstar_move_to_storage_A_134",
    "joint_names": [
        "shoulder_pan_joint",
        "shoulder_lift_joint",
        "elbow_joint",
        "wrist_1_joint",
        "wrist_2_joint",
        "wrist_3_joint"
    ],
    "metrics": {
        "cart_traj_len": 0.35222301289181,
        "distance_elbow_joint": 0.45252409774446245,
        "distance_shoulder_lift_joint": 0.23201678308086837,
        "distance_shoulder_pan_joint": 0.4611723506949464,
        "distance_wrist_1_joint": 0.25933402700464614,
        "distance_wrist_2_joint": 1.0935186402288626,
        "distance_wrist_3_joint": 0.09825258649254787,
        "smoothness": 4.440892133664971e-16,
        "time": 5.001751658,
        "traj_len": 1.6114647018307082,
        "weighted_distance": 2.036216178470483
    },
    "planner": "LazyPRMstar",
    "start": {
        "state": {
            "elbow_joint": 1.971548259319323,
            "shoulder_lift_joint": -1.1394851275133948,
            "shoulder_pan_joint": 0.1228115487234821,
            "wrist_1_joint": -0.7804723859257726,
            "wrist_2_joint": 0.12958671773740124,
            "wrist_3_joint": -3.192489227718131
        }
    },
    "waypoints": [
        {
            "positions": [
                0.1228115487234821,
                -1.1394851275133948,
                1.971548259319323,
                -0.7804723859257726,
                0.12958671773740124,
                -3.192489227718131
            ]
        },
        {
            "positions": [
                0.05692978433848976,
                -1.1726303822392332,
                2.0361945589971033,
                -0.8175201040692935,
                0.28580366634152443,
                -3.1784531439334813
            ]
        },
        {
            "positions": [
                -0.008951980046502578,
                -1.2057756369650714,
                2.100840858674884,
                -0.8545678222128144,
                0.4420206149456477,
                -3.164417060148832
            ]
        },
        {
            "positions": [
                -0.0748337444314949,
                -1.2389208916909098,
                2.165487158352664,
                -0.8916155403563353,
                0.5982375635497709,
                -3.150380976364182
            ]
        },
        {
            "positions": [
                -0.14071550881648726,
                -1.2720661464167482,
                2.230133458030444,
                -0.9286632584998561,
                0.7544545121538941,
                -3.1363448925795323
            ]
        },
        {
            "positions": [
                -0.20659727320147964,
                -1.3052114011425866,
                2.2947797577082247,
                -0.965710976643377,
                0.9106714607580174,
                -3.1223088087948825
            ]
        },
        {
            "positions": [
                -0.2724790375864719,
                -1.3383566558684248,
                2.3594260573860053,
                -1.0027586947868978,
                1.0668884093621405,
                -3.108272725010233
            ]
        },
        {
            "positions": [
                -0.3383608019714643,
                -1.3715019105942632,
                2.4240723570637854,
                -1.0398064129304188,
                1.2231053579662639,
                -3.0942366412255833
            ]
        }
    ]
}{
    "goal": {
        "global_pose": {
            "orientation": {
                "w": 0.5084816217422485,
                "x": -0.49083608388900757,
                "y": 0.5182115435600281,
                "z": -0.4816462993621826
            },
            "position": {
                "x": 0.5540239810943604,
                "y": 0.030875300988554955,
                "z": 0.16403168439865112
            }
        },
        "name": "move_to_storage_A"
    },
    "id": "LazyPRMstar_move_to_storage_A_134",
    "joint_names": [
        "shoulder_pan_joint",
        "shoulder_lift_joint",
        "elbow_joint",
        "wrist_1_joint",
        "wrist_2_joint",
        "wrist_3_joint"
    ],
    "metrics": {
        "cart_traj_len": 0.3529215383457471,
        "distance_elbow_joint": 0.4489496156364612,
        "distance_shoulder_lift_joint": 0.23304255658801698,
        "distance_shoulder_pan_joint": 0.46029267902856963,
        "distance_wrist_1_joint": 0.24594224803098408,
        "distance_wrist_2_joint": 1.1024090580529566,
        "distance_wrist_3_joint": 0.09296409233822711,
        "smoothness": 6.661338200497456e-16,
        "time": 5.00020975,
        "traj_len": 1.6073581584933756,
        "weighted_distance": 2.029255957348804
    },
    "planner": "LazyPRMstar",
    "start": {
        "state": {
            "elbow_joint": 1.97154746011099,
            "shoulder_lift_joint": -1.13948474672311,
            "shoulder_pan_joint": 0.12281154466712228,
            "wrist_1_joint": -0.7804688027058302,
            "wrist_2_joint": 0.12958655903071145,
            "wrist_3_joint": 3.0906928834467795
        }
    },
    "waypoints": [
        {
            "positions": [
                0.12281154466712228,
                -1.13948474672311,
                1.97154746011099,
                -0.7804688027058302,
                0.12958655903071145,
                3.0906928834467795
            ]
        },
        {
            "positions": [
                0.05705544766304091,
                -1.1727765405213981,
                2.035683119487627,
                -0.8156034095673993,
                0.287073567323991,
                3.1039734680665263
            ]
        },
        {
            "positions": [
                -0.008700649341040465,
                -1.2060683343196863,
                2.0998187788642646,
                -0.8507380164289685,
                0.44456057561727047,
                3.117254052686273
            ]
        },
        {
            "positions": [
                -0.07445674634512182,
                -1.2393601281179745,
                2.1639544382409017,
                -0.8858726232905376,
                0.60204758391055,
                3.13053463730602
            ]
        },
        {
            "positions": [
                -0.1402128433492032,
                -1.2726519219162624,
                2.2280900976175393,
                -0.9210072301521068,
                0.7595345922038296,
                3.1438152219257662
            ]
        },
        {
            "positions": [
                -0.2059689403532846,
                -1.3059437157145506,
                2.2922257569941764,
                -0.9561418370136759,
                0.9170216004971091,
                3.157095806545513
            ]
        },
        {
            "positions": [
                -0.2717250373573659,
                -1.3392355095128388,
                2.356361416370814,
                -0.991276443875245,
                1.0745086087903886,
                3.17037639116526
            ]
        },
        {
            "positions": [
                -0.33748113436144733,
                -1.372527303311127,
                2.420497075747451,
                -1.0264110507368143,
                1.2319956170836681,
                3.1836569757850066
            ]
        }
    ]
}{
    "goal": {
        "global_pose": {
            "orientation": {
                "w": 0.5084816217422485,
                "x": -0.49083608388900757,
                "y": 0.5182115435600281,
                "z": -0.4816462993621826
            },
            "position": {
                "x": 0.5540239810943604,
                "y": 0.030875300988554955,
                "z": 0.16403168439865112
            }
        },
        "name": "move_to_storage_A"
    },
    "id": "LazyPRMstar_move_to_storage_A_134",
    "joint_names": [
        "shoulder_pan_joint",
        "shoulder_lift_joint",
        "elbow_joint",
        "wrist_1_joint",
        "wrist_2_joint",
        "wrist_3_joint"
    ],
    "metrics": {
        "cart_traj_len": 0.3523377209120004,
        "distance_elbow_joint": 0.4531043673043982,
        "distance_shoulder_lift_joint": 0.23472455404541037,
        "distance_shoulder_pan_joint": 0.459246429619837,
        "distance_wrist_1_joint": 0.25726179236666447,
        "distance_wrist_2_joint": 1.104151002531267,
        "distance_wrist_3_joint": 0.10842836850985105,
        "smoothness": 4.440892098500626e-16,
        "time": 5.001297455,
        "traj_len": 1.6176886333214522,
        "weighted_distance": 2.048215332013473
    },
    "planner": "LazyPRMstar",
    "start": {
        "state": {
            "elbow_joint": 1.9715472970024885,
            "shoulder_lift_joint": -1.1394870060712896,
            "shoulder_pan_joint": 0.12281152778156021,
            "wrist_1_joint": -0.780463741449964,
            "wrist_2_joint": 0.12958659822042276,
            "wrist_3_joint": 3.090690232415272
        }
    },
    "waypoints": [
        {
            "positions": [
                0.12281152778156021,
                -1.1394870060712896,
                1.9715472970024885,
                -0.780463741449964,
                0.12958659822042276,
                3.090690232415272
            ]
        },
        {
            "positions": [
                0.057204894978726356,
                -1.173019085220634,
                2.0362764923316883,
                -0.8172154260737732,
                0.28732245572488946,
                3.1061799993452506
            ]
        },
        {
            "positions": [
                -0.008401737824107497,
                -1.2065511643699782,
                2.101005687660888,
                -0.8539671106975824,
                0.4450583132293562,
                3.1216697662752293
            ]
        },
        {
            "positions": [
                -0.07400837062694135,
                -1.2400832435193225,
                2.1657348829900878,
                -0.8907187953213916,
                0.6027941707338229,
                3.137159533205208
            ]
        },
        {
            "positions": [
                -0.1396150034297752,
                -1.2736153226686668,
                2.2304640783192875,
                -0.9274704799452008,
                0.7605300282382896,
                3.1526493001351867
            ]
        },
        {
            "positions": [
                -0.20522163623260906,
                -1.3071474018180114,
                2.2951932736484872,
                -0.9642221645690101,
                0.9182658857427564,
                3.1681390670651655
            ]
        },
        {
            "positions": [
                -0.2708282690354429,
                -1.3406794809673557,
                2.359922468977687,
                -1.0009738491928193,
                1.076001743247223,
                3.183628833995144
            ]
        },
        {
            "positions": [
                -0.3364349018382768,
                -1.3742115601167,
                2.4246516643068867,
                -1.0377255338166285,
                1.2337376007516898,
                3.199118600925123
            ]
        }
    ]
}