{
    "goal": {
        "global_pose": {
            "orientation": {
                "w": 0.5084816217422485,
                "x": -0.49083608388900757,
                "y": 0.5182115435600281,
                "z": -0.4816462993621826
            },
            "position": {
                "x": 0.5540239810943604,
                "y": 0.030875300988554955,
                "z": 0.16403168439865112
            }
        },
        "name": "move_to_storage_A"
    },
    "id": "LazyPRM_move_to_storage_A_144",
    "joint_names": [
        "shoulder_pan_joint",
        "shoulder_lift_joint",
        "elbow_joint",
        "wrist_1_joint",
        "wrist_2_joint",
        "wrist_3_joint"
    ],
    "metrics": {
        "cart_traj_len": 0.352596783391208,
        "distance_elbow_joint": 0.4484733624738515,
        "distance_shoulder_lift_joint": 0.23467563813788828,
        "distance_shoulder_pan_joint": 0.461707383683285,
        "distance_wrist_1_joint": 0.2373567208133508,
        "distance_wrist_2_joint": 1.0950184839009596,
        "distance_wrist_3_joint": 0.09019669010438403,
        "smoothness": 2.2204460668324854e-16,
        "time": 0.011736494,
        "traj_len": 1.602319655722203,
        "weighted_distance": 2.0199497181951824
    },
    "planner": "LazyPRM",
    "start": {
        "state": {
            "elbow_joint": 1.971548259319323,
            "shoulder_lift_joint": -1.1394851275133948,
            "shoulder_pan_joint": 0.1228115487234821,
            "wrist_1_joint": -0.7804723859257726,
            "wrist_2_joint": 0.12958671773740124,
            "wrist_3_joint": -3.192489227718131
        }
    },
    "waypoints": [
        {
            "positions": [
                0.1228115487234821,
                -1.1394851275133948,
                1.971548259319323,
                -0.7804723859257726,
                0.12958671773740124,
                -3.192489227718131
            ]
        },
        {
            "positions": [
                0.05685335105444139,
                -1.1730102186759503,
                2.035615882529873,
                -0.8143804888991084,
                0.2860179297232526,
                -3.179603986274648
            ]
        },
        {
            "positions": [
                -0.009104846614599316,
                -1.2065353098385057,
                2.0996835057404235,
                -0.8482885918724443,
                0.442449141709104,
                -3.1667187448311642
            ]
        },
        {
            "positions": [
                -0.07506304428364002,
                -1.2400604010010612,
                2.1637511289509734,
                -0.8821966948457801,
                0.5988803536949553,
                -3.153833503387681
            ]
        },
        {
            "positions": [
                -0.14102124195268073,
                -1.2735854921636167,
                2.227818752161524,
                -0.9161047978191159,
                0.7553115656808067,
                -3.1409482619441973
            ]
        },
        {
            "positions": [
                -0.2069794396217215,
                -1.3071105833261722,
                2.291886375372074,
                -0.9500129007924518,
                0.9117427776666581,
                -3.128063020500714
            ]
        },
        {
            "positions": [
                -0.27293763729076215,
                -1.3406356744887276,
                2.355953998582624,
                -0.9839210037657875,
                1.0681739896525093,
                -3.1151777790572304
            ]
        },
        {
            "positions": [
                -0.3388958349598029,
                -1.374160765651283,
                2.4200216217931745,
                -1.0178291067391234,
                1.2246052016383608,
                -3.102292537613747
            ]
        }
    ]
}{
    "goal": {
        "global_pose": {
            "orientation": {
                "w": 0.5084816217422485,
                "x": -0.49083608388900757,
                "y": 0.5182115435600281,
                "z": -0.4816462993621826
            },
            "position": {
                "x": 0.5540239810943604,
                "y": 0.030875300988554955,
                "z": 0.16403168439865112
            }
        },
        "name": "move_to_storage_A"
    },
    "id": "LazyPRM_move_to_storage_A_144",
    "joint_names": [
        "shoulder_pan_joint",
        "shoulder_lift_joint",
        "elbow_joint",
        "wrist_1_joint",
        "wrist_2_joint",
        "wrist_3_joint"
    ],
    "metrics": {
        "cart_traj_len": 0.35346785301470457,
        "distance_elbow_joint": 0.45240124867746667,
        "distance_shoulder_lift_joint": 0.23553397222689432,
        "distance_shoulder_pan_joint": 0.4620722998080938,
        "distance_wrist_1_joint": 0.25366072326487155,
        "distance_wrist_2_joint": 1.100715916141025,
        "distance_wrist_3_joint": 0.09811138917365714,
        "smoothness": 2.2204460668324854e-16,
        "time": 0.011950496000000001,
        "traj_len": 1.6132252010466512,
        "weighted_distance": 2.0379143669558886
    },
    "planner": "LazyPRM",
    "start": {
        "state": {
            "elbow_joint": 1.97154746011099,
            "shoulder_lift_joint": -1.13948474672311,
            "shoulder_pan_joint": 0.12281154466712228,
            "wrist_1_joint": -0.7804688027058302,
            "wrist_2_joint": 0.12958655903071145,
            "wrist_3_joint": 3.0906928834467795
        }
    },
    "waypoints": [
        {
            "positions": [
                0.12281154466712228,
                -1.13948474672311,
                1.97154746011099,
                -0.7804688027058302,
                0.12958655903071145,
                3.0906928834467795
            ]
        },
        {
            "positions": [
                0.056801216123108886,
                -1.1731324570412378,
                2.0361762099220564,
                -0.8167060488865261,
                0.28683168990800073,
                3.1047087961858733
            ]
        },
        {
            "positions": [
                -0.009209112420904511,
                -1.2067801673593654,
                2.1008049597331233,
                -0.852943295067222,
                0.44407682078529,
                3.1187247089249674
            ]
        },
        {
            "positions": [
                -0.07521944096491791,
                -1.2404278776774933,
                2.16543370954419,
                -0.889180541247918,
                0.6013219516625793,
                3.132740621664061
            ]
        },
        {
            "positions": [
                -0.1412297695089313,
                -1.274075587995621,
                2.2300624593552567,
                -0.9254177874286139,
                0.7585670825398686,
                3.146756534403155
            ]
        },
        {
            "positions": [
                -0.2072400980529447,
                -1.3077232983137488,
                2.294691209166323,
                -0.9616550336093099,
                0.9158122134171579,
                3.1607724471422487
            ]
        },
        {
            "positions": [
                -0.2732504265969581,
                -1.3413710086318764,
                2.35931995897739,
                -0.9978922797900058,
                1.073057344294447,
                3.174788359881343
            ]
        },
        {
            "positions": [
                -0.3392607551409715,
                -1.3750187189500043,
                2.4239487087884566,
                -1.0341295259707017,
                1.2303024751717364,
                3.1888042726204366
            ]
        }
    ]
}{
    "goal": {
        "global_pose": {
            "orientation": {
                "w": 0.5084816217422485,
                "x": -0.49083608388900757,
                "y": 0.5182115435600281,
                "z": -0.4816462993621826
            },
            "position": {
                "x": 0.5540239810943604,
                "y": 0.030875300988554955,
                "z": 0.16403168439865112
            }
        },
        "name": "move_to_storage_A"
    },
    "id": "LazyPRM_move_to_storage_A_144",
    "joint_names": [
        "shoulder_pan_joint",
        "shoulder_lift_joint",
        "elbow_joint",
        "wrist_1_joint",
        "wrist_2_joint",
        "wrist_3_joint"
    ],
    "metrics": {
        "cart_traj_len": 0.35326168831136956,
        "distance_elbow_joint": 0.4513963433338861,
        "distance_shoulder_lift_joint": 0.23448057829803926,
        "distance_shoulder_pan_joint": 0.46086968528981015,
        "distance_wrist_1_joint": 0.25040212680540797,
        "distance_wrist_2_joint": 1.1038046899445983,
        "distance_wrist_3_joint": 0.10171891420582746,
        "smoothness": 4.440892098500626e-16,
        "time": 0.011790599,
        "traj_len": 1.6132799936395323,
        "weighted_distance": 2.0396855108175944
    },
    "planner": "LazyPRM",
    "start": {
        "state": {
            "elbow_joint": 1.9715472970024885,
            "shoulder_lift_joint": -1.1394870060712896,
            "shoulder_pan_joint": 0.12281152778156021,
            "wrist_1_joint": -0.780463741449964,
            "wrist_2_joint": 0.12958659822042276,
            "wrist_3_joint": 3.090690232415272
        }
    },
    "waypoints": [
        {
            "positions": [
                0.12281152778156021,
                -1.1394870060712896,
                1.9715472970024885,
                -0.780463741449964,
                0.12958659822042276,
                3.090690232415272
            ]
        },
        {
            "positions": [
                0.05697300131158735,
                -1.1729842315424381,
                2.0360324889073294,
                -0.8162354738507366,
                0.28727298249822253,
                3.105221505873247
            ]
        },
        {
            "positions": [
                -0.008865525158385512,
                -1.2064814570135864,
                2.10051768081217,
                -0.8520072062515092,
                0.4449593667760223,
                3.1197527793312227
            ]
        },
        {
            "positions": [
                -0.07470405162835839,
                -1.239978682484735,
                2.165002872717011,
                -0.8877789386522816,
                0.602645751053822,
                3.134284052789198
            ]
        },
        {
            "positions": [
                -0.14054257809833123,
                -1.2734759079558835,
                2.229488064621852,
                -0.9235506710530542,
                0.7603321353316218,
                3.148815326247173
            ]
        },
        {
            "positions": [
                -0.20638110456830414,
                -1.306973133427032,
                2.293973256526693,
                -0.9593224034538268,
                0.9180185196094216,
                3.1633465997051484
            ]
        },
        {
            "positions": [
                -0.27221963103827695,
                -1.3404703588981803,
                2.358458448431534,
                -0.9950941358545994,
                1.0757049038872213,
                3.177877873163124
            ]
        },
        {
            "positions": [
                -0.3380581575082499,
                -1.3739675843693289,
                2.4229436403363747,
                -1.030865868255372,
                1.233391288165021,
                3.1924091466210993
            ]
        }
    ]
}