{
    "goal": {
        "global_pose": {
            "orientation": {
                "w": 0.005598929693374612,
                "x": 0.007748599140229565,
                "y": 0.7110244013736278,
                "z": -0.7031023480610252
            },
            "position": {
                "x": -0.8858502320852131,
                "y": -0.7141253447532654,
                "z": 0.3711530566215515
            }
        },
        "name": "move_to_auspresseinheit_C"
    },
    "id": "LazyPRMstar_move_to_auspresseinheit_C_104",
    "joint_names": [
        "shoulder_pan_joint",
        "shoulder_lift_joint",
        "elbow_joint",
        "wrist_1_joint",
        "wrist_2_joint",
        "wrist_3_joint"
    ],
    "metrics": {
        "cart_traj_len": 0.49207438277111626,
        "distance_elbow_joint": 0.987125704291246,
        "distance_shoulder_lift_joint": 0.3181243733425524,
        "distance_shoulder_pan_joint": 0.25647017431833063,
        "distance_wrist_1_joint": 0.6605559125168498,
        "distance_wrist_2_joint": 1.3036222145997478,
        "distance_wrist_3_joint": 0.05656172069744203,
        "smoothness": 1.6148698667872622e-16,
        "time": 5.000483842,
        "traj_len": 1.8927387827606241,
        "weighted_distance": 2.379025360999258
    },
    "planner": "LazyPRMstar",
    "start": {
        "state": {
            "elbow_joint": 1.7527959577737207,
            "shoulder_lift_joint": -0.9740617694225068,
            "shoulder_pan_joint": -2.967991417825858,
            "wrist_1_joint": -0.759517768980727,
            "wrist_2_joint": 1.7443932448377408,
            "wrist_3_joint": -3.0840537646736568
        }
    },
    "waypoints": [
        {
            "positions": [
                -2.967991417825858,
                -0.9740617694225068,
                1.7527959577737207,
                -0.759517768980727,
                1.7443932448377408,
                -3.0840537646736568
            ]
        },
        {
            "positions": [
                -2.942344400394025,
                -0.9422493320882516,
                1.6540833873445961,
                -0.693462177729042,
                1.6140310233777662,
                -3.089709936743401
            ]
        },
        {
            "positions": [
                -2.916697382962192,
                -0.9104368947539963,
                1.5553708169154714,
                -0.627406586477357,
                1.4836688019177913,
                -3.095366108813145
            ]
        },
        {
            "positions": [
                -2.8910503655303588,
                -0.878624457419741,
                1.456658246486347,
                -0.5613509952256721,
                1.3533065804578164,
                -3.1010222808828893
            ]
        },
        {
            "positions": [
                -2.8654033480985257,
                -0.8468120200854858,
                1.3579456760572222,
                -0.4952954039739871,
                1.2229443589978417,
                -3.1066784529526337
            ]
        },
        {
            "positions": [
                -2.8397563306666926,
                -0.8149995827512306,
                1.2592331056280976,
                -0.4292398127223021,
                1.092582137537867,
                -3.1123346250223776
            ]
        },
        {
            "positions": [
                -2.8141093132348596,
                -0.7831871454169753,
                1.1605205351989731,
                -0.36318422147061713,
                0.9622199160778921,
                -3.117990797092122
            ]
        },
        {
            "positions": [
                -2.7884622958030265,
                -0.7513747080827201,
                1.0618079647698484,
                -0.2971286302189322,
                0.8318576946179175,
                -3.1236469691618662
            ]
        },
        {
            "positions": [
                -2.7628152783711935,
                -0.7195622707484648,
                0.9630953943407238,
                -0.23107303896724718,
                0.7014954731579426,
                -3.1293031412316106
            ]
        },
        {
            "positions": [
                -2.7371682609393604,
                -0.6877498334142096,
                0.8643828239115993,
                -0.16501744771556215,
                0.5711332516979677,
                -3.1349593133013545
            ]
        },
        {
            "positions": [
                -2.7115212435075273,
                -0.6559373960799544,
                0.7656702534824746,
                -0.0989618564638772,
                0.440771030237993,
                -3.140615485371099
            ]
        }
    ]
}