{
    "goal": {
        "global_pose": {
            "orientation": {
                "w": -0.4816463035849501,
                "x": 0.5182115481033762,
                "y": 0.4908360881923453,
                "z": -0.5084816262002911
            },
            "position": {
                "x": -0.8240239810943604,
                "y": 0.19912469901144506,
                "z": 0.16403168439865112
            }
        },
        "name": "move_to_storage_D"
    },
    "id": "LazyPRM_move_to_storage_D_67",
    "joint_names": [
        "shoulder_pan_joint",
        "shoulder_lift_joint",
        "elbow_joint",
        "wrist_1_joint",
        "wrist_2_joint",
        "wrist_3_joint"
    ],
    "metrics": {
        "cart_traj_len": 3.6443806928569975,
        "distance_elbow_joint": 4.258242041441495,
        "distance_shoulder_lift_joint": 1.263493674246785,
        "distance_shoulder_pan_joint": 2.8675626091617152,
        "distance_wrist_1_joint": 2.275428955299149,
        "distance_wrist_2_joint": 0.8884702262872696,
        "distance_wrist_3_joint": 3.499380150019669,
        "smoothness": 0.2870846193464704,
        "time": 0.236180466,
        "traj_len": 3.8797651548071936,
        "weighted_distance": 5.021477585141832
    },
    "planner": "LazyPRM",
    "start": {
        "state": {
            "elbow_joint": -2.384821988534728,
            "shoulder_lift_joint": -2.2788054721415256,
            "shoulder_pan_joint": -0.1854694642142757,
            "wrist_1_joint": 1.4845938289331202,
            "wrist_2_joint": 0.17898776772866878,
            "wrist_3_joint": 0.037105688729662994
        }
    },
    "waypoints": [
        {
            "positions": [
                -0.1854694642142757,
                -2.2788054721415256,
                -2.384821988534728,
                1.4845938289331202,
                0.17898776772866878,
                0.037105688729662994
            ]
        },
        {
            "positions": [
                -0.13609912605265026,
                -2.203841338202436,
                -2.4080163592394475,
                1.4858401453163461,
                0.19034711840335658,
                -0.012822546058186418
            ]
        },
        {
            "positions": [
                -0.048871106882656584,
                -2.188339001759664,
                -2.288970189990245,
                1.43298035304528,
                0.20363602219326604,
                0.09088498284794459
            ]
        },
        {
            "positions": [
                0.03835691228733709,
                -2.172836665316892,
                -2.1699240207410426,
                1.380120560774214,
                0.2169249259831755,
                0.1945925117540756
            ]
        },
        {
            "positions": [
                0.12558493145733077,
                -2.15733432887412,
                -2.0508778514918404,
                1.3272607685031481,
                0.23021382977308497,
                0.29830004066020666
            ]
        },
        {
            "positions": [
                0.21281295062732444,
                -2.141831992431348,
                -1.9318316822426378,
                1.274400976232082,
                0.24350273356299443,
                0.40200756956633765
            ]
        },
        {
            "positions": [
                0.3000409697973181,
                -2.126329655988576,
                -1.8127855129934354,
                1.221541183961016,
                0.2567916373529039,
                0.5057150984724686
            ]
        },
        {
            "positions": [
                0.38726898896731177,
                -2.110827319545804,
                -1.693739343744233,
                1.1686813916899501,
                0.2700805411428133,
                0.6094226273785996
            ]
        },
        {
            "positions": [
                0.47449700813730544,
                -2.0953249831030325,
                -1.5746931744950305,
                1.115821599418884,
                0.2833694449327228,
                0.7131301562847306
            ]
        },
        {
            "positions": [
                0.5617250273072991,
                -2.0798226466602605,
                -1.4556470052458281,
                1.062961807147818,
                0.2966583487226323,
                0.8168376851908616
            ]
        },
        {
            "positions": [
                0.6489530464772928,
                -2.0643203102174885,
                -1.3366008359966257,
                1.0101020148767519,
                0.30994725251254174,
                0.9205452140969926
            ]
        },
        {
            "positions": [
                0.7361810656472865,
                -2.0488179737747165,
                -1.2175546667474233,
                0.9572422226056859,
                0.32323615630245117,
                1.0242527430031239
            ]
        },
        {
            "positions": [
                0.8234090848172801,
                -2.0333156373319445,
                -1.0985084974982209,
                0.90438243033462,
                0.33652506009236066,
                1.1279602719092547
            ]
        },
        {
            "positions": [
                0.9106371039872738,
                -2.0178133008891725,
                -0.9794623282490185,
                0.8515226380635539,
                0.34981396388227015,
                1.2316678008153858
            ]
        },
        {
            "positions": [
                0.9978651231572675,
                -2.0023109644464006,
                -0.860416158999816,
                0.7986628457924878,
                0.3631028676721796,
                1.3353753297215167
            ]
        },
        {
            "positions": [
                1.0850931423272612,
                -1.9868086280036286,
                -0.7413699897506136,
                0.7458030535214218,
                0.376391771462089,
                1.4390828586276478
            ]
        },
        {
            "positions": [
                1.1723211614972548,
                -1.9713062915608566,
                -0.6223238205014112,
                0.6929432612503559,
                0.3896806752519985,
                1.5427903875337787
            ]
        },
        {
            "positions": [
                1.2595491806672485,
                -1.9558039551180846,
                -0.5032776512522088,
                0.6400834689792898,
                0.402969579041908,
                1.6464979164399098
            ]
        },
        {
            "positions": [
                1.3467771998372422,
                -1.9403016186753128,
                -0.3842314820030066,
                0.5872236767082237,
                0.41625848283181743,
                1.750205445346041
            ]
        },
        {
            "positions": [
                1.4340052190072359,
                -1.9247992822325408,
                -0.26518531275380397,
                0.5343638844371578,
                0.42954738662172687,
                1.8539129742521718
            ]
        },
        {
            "positions": [
                1.5212332381772296,
                -1.9092969457897688,
                -0.14613914350460133,
                0.4815040921660918,
                0.4428362904116364,
                1.957620503158303
            ]
        },
        {
            "positions": [
                1.6084612573472232,
                -1.8937946093469968,
                -0.027092974255399138,
                0.4286442998950257,
                0.45612519420154585,
                2.061328032064434
            ]
        },
        {
            "positions": [
                1.695689276517217,
                -1.8782922729042248,
                0.09195319499380306,
                0.37578450762395965,
                0.4694140979914553,
                2.1650355609705647
            ]
        },
        {
            "positions": [
                1.7829172956872106,
                -1.862789936461453,
                0.2109993642430057,
                0.3229247153528938,
                0.4827030017813647,
                2.2687430898766956
            ]
        },
        {
            "positions": [
                1.8701453148572043,
                -1.847287600018681,
                0.33004553349220833,
                0.2700649230818277,
                0.49599190557127426,
                2.3724506187828265
            ]
        },
        {
            "positions": [
                1.957373334027198,
                -1.831785263575909,
                0.4490917027414105,
                0.21720513081076165,
                0.5092808093611837,
                2.476158147688958
            ]
        },
        {
            "positions": [
                2.0446013531971916,
                -1.816282927133137,
                0.5681378719906127,
                0.16434533853969557,
                0.5225697131510931,
                2.5798656765950887
            ]
        },
        {
            "positions": [
                2.1318293723671853,
                -1.8007805906903651,
                0.6871840412398154,
                0.1114855462686295,
                0.5358586169410026,
                2.6835732055012196
            ]
        },
        {
            "positions": [
                2.219057391537179,
                -1.7852782542475931,
                0.806230210489018,
                0.058625753997563645,
                0.5491475207309121,
                2.787280734407351
            ]
        },
        {
            "positions": [
                2.3062854107071726,
                -1.7697759178048211,
                0.9252763797382202,
                0.0057659617264975704,
                0.5624364245208215,
                2.890988263313482
            ]
        },
        {
            "positions": [
                2.3935134298771663,
                -1.7542735813620491,
                1.0443225489874224,
                -0.047093830544568505,
                0.575725328310731,
                2.9946957922196127
            ]
        },
        {
            "positions": [
                2.48074144904716,
                -1.7387712449192774,
                1.163368718236625,
                -0.09995362281563436,
                0.5890142321006404,
                3.0984033211257436
            ]
        },
        {
            "positions": [
                2.5679694682171537,
                -1.7232689084765054,
                1.2824148874858277,
                -0.15281341508670043,
                0.60230313589055,
                3.202110850031875
            ]
        },
        {
            "positions": [
                2.6551974873871473,
                -1.7077665720337334,
                1.4014610567350296,
                -0.2056732073577665,
                0.6155920396804594,
                3.305818378938006
            ]
        },
        {
            "positions": [
                2.6507148777937655,
                -1.592357443010568,
                1.4723894325287457,
                -0.30278475506473496,
                0.6909030320697058,
                3.284016547232068
            ]
        },
        {
            "positions": [
                2.646232268200383,
                -1.4769483139874025,
                1.5433178083224617,
                -0.3998963027717034,
                0.7662140244589524,
                3.26221471552613
            ]
        },
        {
            "positions": [
                2.6417496586070013,
                -1.3615391849642369,
                1.614246184116178,
                -0.49700785047867185,
                0.8415250168481989,
                3.240412883820192
            ]
        },
        {
            "positions": [
                2.6372670490136194,
                -1.2461300559410715,
                1.685174559909894,
                -0.5941193981856403,
                0.9168360092374453,
                3.2186110521142544
            ]
        },
        {
            "positions": [
                2.632784439420237,
                -1.1307209269179062,
                1.75610293570361,
                -0.6912309458926087,
                0.9921470016266918,
                3.1968092204083165
            ]
        },
        {
            "positions": [
                2.6283018298268552,
                -1.0153117978947406,
                1.827031311497326,
                -0.7883424935995772,
                1.0674579940159383,
                3.1750073887023786
            ]
        }
    ]
}