{
    "goal": {
        "global_pose": {
            "orientation": {
                "w": 0.7031023480610252,
                "x": -0.7110244013736278,
                "y": 0.0077485991402295624,
                "z": 0.005598929693374583
            },
            "position": {
                "x": -0.8841497679147869,
                "y": 0.44412534475326537,
                "z": 0.3711530566215515
            }
        },
        "name": "move_to_auspresseinheit_D"
    },
    "id": "LazyPRMstar_move_to_auspresseinheit_D_59",
    "joint_names": [
        "shoulder_pan_joint",
        "shoulder_lift_joint",
        "elbow_joint",
        "wrist_1_joint",
        "wrist_2_joint",
        "wrist_3_joint"
    ],
    "metrics": {
        "cart_traj_len": 0.34478541383051525,
        "distance_elbow_joint": 0.6659974107492392,
        "distance_shoulder_lift_joint": 0.1357157220991403,
        "distance_shoulder_pan_joint": 0.13368182816383054,
        "distance_wrist_1_joint": 0.6270323622510694,
        "distance_wrist_2_joint": 1.4342054990352484,
        "distance_wrist_3_joint": 0.07893456194520354,
        "smoothness": 1.9737298371844314e-16,
        "time": 5.000140723,
        "traj_len": 1.7537295641699524,
        "weighted_distance": 2.3010159428870667
    },
    "planner": "LazyPRMstar",
    "start": {
        "state": {
            "elbow_joint": -1.8275523626775212,
            "shoulder_lift_joint": -2.126789852344167,
            "shoulder_pan_joint": -0.03513704404078235,
            "wrist_1_joint": -2.347782403156801,
            "wrist_2_joint": -1.6058999987535132,
            "wrist_3_joint": -3.0880379163319196
        }
    },
    "waypoints": [
        {
            "positions": [
                -0.03513704404078235,
                -2.126789852344167,
                -1.8275523626775212,
                -2.347782403156801,
                -1.6058999987535132,
                -3.0880379163319196
            ]
        },
        {
            "positions": [
                -0.05184727256126116,
                -2.143754317606559,
                -1.7443026863338662,
                -2.4261614484381844,
                -1.426624311374107,
                -3.078171096088769
            ]
        },
        {
            "positions": [
                -0.06855750108173998,
                -2.160718782868952,
                -1.6610530099902114,
                -2.5045404937195683,
                -1.2473486239947011,
                -3.0683042758456187
            ]
        },
        {
            "positions": [
                -0.08526772960221879,
                -2.1776832481313444,
                -1.5778033336465564,
                -2.582919539000952,
                -1.068072936615295,
                -3.0584374556024683
            ]
        },
        {
            "positions": [
                -0.10197795812269761,
                -2.1946477133937368,
                -1.4945536573029017,
                -2.661298584282336,
                -0.888797249235889,
                -3.048570635359318
            ]
        },
        {
            "positions": [
                -0.11868818664317643,
                -2.2116121786561296,
                -1.4113039809592467,
                -2.7396776295637193,
                -0.709521561856483,
                -3.0387038151161674
            ]
        },
        {
            "positions": [
                -0.13539841516365525,
                -2.228576643918522,
                -1.3280543046155917,
                -2.818056674845103,
                -0.5302458744770768,
                -3.028836994873017
            ]
        },
        {
            "positions": [
                -0.15210864368413407,
                -2.2455411091809148,
                -1.244804628271937,
                -2.8964357201264868,
                -0.3509701870976709,
                -3.0189701746298665
            ]
        },
        {
            "positions": [
                -0.1688188722046129,
                -2.262505574443307,
                -1.161554951928282,
                -2.9748147654078703,
                -0.1716944997182647,
                -3.009103354386716
            ]
        }
    ]
}