{
    "goal": {
        "global_pose": {
            "orientation": {
                "w": 0.5084816217422485,
                "x": -0.49083608388900757,
                "y": 0.5182115435600281,
                "z": -0.4816462993621826
            },
            "position": {
                "x": 0.5540239810943604,
                "y": 0.030875300988554955,
                "z": 0.16403168439865112
            }
        },
        "name": "move_to_storage_A"
    },
    "id": "LazyPRM_move_to_storage_A_64",
    "joint_names": [
        "shoulder_pan_joint",
        "shoulder_lift_joint",
        "elbow_joint",
        "wrist_1_joint",
        "wrist_2_joint",
        "wrist_3_joint"
    ],
    "metrics": {
        "cart_traj_len": 0.353141917341609,
        "distance_elbow_joint": 0.4523407486618354,
        "distance_shoulder_lift_joint": 0.23215947179392993,
        "distance_shoulder_pan_joint": 0.45825266835037204,
        "distance_wrist_1_joint": 0.2581069482005357,
        "distance_wrist_2_joint": 1.1131204468218705,
        "distance_wrist_3_joint": 0.09118902808502849,
        "smoothness": 2.2204460668324854e-16,
        "time": 0.021952316,
        "traj_len": 1.614053689290902,
        "weighted_distance": 2.039307422412333
    },
    "planner": "LazyPRM",
    "start": {
        "state": {
            "elbow_joint": 1.971548259319323,
            "shoulder_lift_joint": -1.1394851275133948,
            "shoulder_pan_joint": 0.1228115487234821,
            "wrist_1_joint": -0.7804723859257726,
            "wrist_2_joint": 0.12958671773740124,
            "wrist_3_joint": -3.192489227718131
        }
    },
    "waypoints": [
        {
            "positions": [
                0.1228115487234821,
                -1.1394851275133948,
                1.971548259319323,
                -0.7804723859257726,
                0.12958671773740124,
                -3.192489227718131
            ]
        },
        {
            "positions": [
                0.0573468818162861,
                -1.172650766341099,
                2.036168366271014,
                -0.8173448070972777,
                0.2886039244262399,
                -3.1794622237059844
            ]
        },
        {
            "positions": [
                -0.008117785090909907,
                -1.2058164051688034,
                2.1007884732227047,
                -0.8542172282687828,
                0.4476211311150785,
                -3.1664352196938372
            ]
        },
        {
            "positions": [
                -0.0735824519981059,
                -1.2389820439965076,
                2.1654085801743954,
                -0.8910896494402879,
                0.6066383378039172,
                -3.1534082156816905
            ]
        },
        {
            "positions": [
                -0.13904711890530191,
                -1.272147682824212,
                2.230028687126086,
                -0.927962070611793,
                0.7656555444927559,
                -3.1403812116695433
            ]
        },
        {
            "positions": [
                -0.20451178581249796,
                -1.3053133216519162,
                2.294648794077777,
                -0.964834491783298,
                0.9246727511815945,
                -3.1273542076573966
            ]
        },
        {
            "positions": [
                -0.2699764527196939,
                -1.3384789604796206,
                2.3592689010294676,
                -1.0017069129548033,
                1.083689957870433,
                -3.1143272036452494
            ]
        },
        {
            "positions": [
                -0.33544111962688994,
                -1.3716445993073247,
                2.4238890079811584,
                -1.0385793341263083,
                1.2427071645592718,
                -3.1013001996331027
            ]
        }
    ]
}{
    "goal": {
        "global_pose": {
            "orientation": {
                "w": 0.5084816217422485,
                "x": -0.49083608388900757,
                "y": 0.5182115435600281,
                "z": -0.4816462993621826
            },
            "position": {
                "x": 0.5540239810943604,
                "y": 0.030875300988554955,
                "z": 0.16403168439865112
            }
        },
        "name": "move_to_storage_A"
    },
    "id": "LazyPRM_move_to_storage_A_64",
    "joint_names": [
        "shoulder_pan_joint",
        "shoulder_lift_joint",
        "elbow_joint",
        "wrist_1_joint",
        "wrist_2_joint",
        "wrist_3_joint"
    ],
    "metrics": {
        "cart_traj_len": 0.3535342412313742,
        "distance_elbow_joint": 0.45507683048837677,
        "distance_shoulder_lift_joint": 0.2332542448275483,
        "distance_shoulder_pan_joint": 0.4646071100562488,
        "distance_wrist_1_joint": 0.2627376210484307,
        "distance_wrist_2_joint": 1.089976544711012,
        "distance_wrist_3_joint": 0.0931955870972132,
        "smoothness": 4.440892098500626e-16,
        "time": 0.021919635,
        "traj_len": 1.6120942708876642,
        "weighted_distance": 2.034195978312488
    },
    "planner": "LazyPRM",
    "start": {
        "state": {
            "elbow_joint": 1.97154746011099,
            "shoulder_lift_joint": -1.13948474672311,
            "shoulder_pan_joint": 0.12281154466712228,
            "wrist_1_joint": -0.7804688027058302,
            "wrist_2_joint": 0.12958655903071145,
            "wrist_3_joint": 3.0906928834467795
        }
    },
    "waypoints": [
        {
            "positions": [
                0.12281154466712228,
                -1.13948474672311,
                1.97154746011099,
                -0.7804688027058302,
                0.12958655903071145,
                3.0906928834467795
            ]
        },
        {
            "positions": [
                0.056439100373372464,
                -1.172806781698474,
                2.036558435895044,
                -0.8180027485698917,
                0.28529749398942744,
                3.1040065387463813
            ]
        },
        {
            "positions": [
                -0.009933343920377355,
                -1.206128816673838,
                2.1015694116790975,
                -0.8555366944339532,
                0.4410084289481434,
                3.117320194045983
            ]
        },
        {
            "positions": [
                -0.07630578821412719,
                -1.239450851649202,
                2.1665803874631515,
                -0.8930706402980148,
                0.5967193639068594,
                3.130633849345585
            ]
        },
        {
            "positions": [
                -0.14267823250787698,
                -1.272772886624566,
                2.231591363247205,
                -0.9306045861620763,
                0.7524302988655754,
                3.1439475046451872
            ]
        },
        {
            "positions": [
                -0.2090506768016268,
                -1.3060949215999302,
                2.296602339031259,
                -0.9681385320261378,
                0.9081412338242915,
                3.157261159944789
            ]
        },
        {
            "positions": [
                -0.27542312109537664,
                -1.3394169565752942,
                2.3616133148153127,
                -1.0056724778901993,
                1.0638521687830074,
                3.170574815244391
            ]
        },
        {
            "positions": [
                -0.3417955653891265,
                -1.3727389915506583,
                2.4266242905993667,
                -1.0432064237542609,
                1.2195631037417234,
                3.1838884705439927
            ]
        }
    ]
}{
    "goal": {
        "global_pose": {
            "orientation": {
                "w": 0.5084816217422485,
                "x": -0.49083608388900757,
                "y": 0.5182115435600281,
                "z": -0.4816462993621826
            },
            "position": {
                "x": 0.5540239810943604,
                "y": 0.030875300988554955,
                "z": 0.16403168439865112
            }
        },
        "name": "move_to_storage_A"
    },
    "id": "LazyPRM_move_to_storage_A_64",
    "joint_names": [
        "shoulder_pan_joint",
        "shoulder_lift_joint",
        "elbow_joint",
        "wrist_1_joint",
        "wrist_2_joint",
        "wrist_3_joint"
    ],
    "metrics": {
        "cart_traj_len": 0.3528781300732704,
        "distance_elbow_joint": 0.45051752844964676,
        "distance_shoulder_lift_joint": 0.233672766980749,
        "distance_shoulder_pan_joint": 0.4621178447868589,
        "distance_wrist_1_joint": 0.24120626118679156,
        "distance_wrist_2_joint": 1.0957003857124437,
        "distance_wrist_3_joint": 0.09022163485585777,
        "smoothness": 0.0,
        "time": 0.011975652,
        "traj_len": 1.6041933867125706,
        "weighted_distance": 2.022569241974993
    },
    "planner": "LazyPRM",
    "start": {
        "state": {
            "elbow_joint": 1.9715472970024885,
            "shoulder_lift_joint": -1.1394870060712896,
            "shoulder_pan_joint": 0.12281152778156021,
            "wrist_1_joint": -0.780463741449964,
            "wrist_2_joint": 0.12958659822042276,
            "wrist_3_joint": 3.090690232415272
        }
    },
    "waypoints": [
        {
            "positions": [
                0.12281152778156021,
                -1.1394870060712896,
                1.9715472970024885,
                -0.780463741449964,
                0.12958659822042276,
                3.090690232415272
            ]
        },
        {
            "positions": [
                0.05679469281200894,
                -1.1728688299256824,
                2.035906943923867,
                -0.8149217787623628,
                0.28611522475077183,
                3.10357903739468
            ]
        },
        {
            "positions": [
                -0.009222142157542329,
                -1.206250653780075,
                2.1002665908452447,
                -0.8493798160747615,
                0.44264385128112094,
                3.1164678423740884
            ]
        },
        {
            "positions": [
                -0.0752389771270936,
                -1.2396324776344678,
                2.164626237766623,
                -0.8838378533871604,
                0.59917247781147,
                3.1293566473534966
            ]
        },
        {
            "positions": [
                -0.14125581209664487,
                -1.2730143014888604,
                2.228985884688001,
                -0.9182958906995592,
                0.755701104341819,
                3.142245452332905
            ]
        },
        {
            "positions": [
                -0.20727264706619616,
                -1.3063961253432532,
                2.293345531609379,
                -0.9527539280119579,
                0.9122297308721682,
                3.155134257312313
            ]
        },
        {
            "positions": [
                -0.27328948203574743,
                -1.3397779491976458,
                2.357705178530757,
                -0.9872119653243567,
                1.0687583574025172,
                3.1680230622917214
            ]
        },
        {
            "positions": [
                -0.3393063170052987,
                -1.3731597730520386,
                2.4220648254521353,
                -1.0216700026367556,
                1.2252869839328664,
                3.1809118672711296
            ]
        }
    ]
}