{
    "goal": {
        "global_pose": {
            "orientation": {
                "w": 0.005598929693374612,
                "x": 0.007748599140229565,
                "y": 0.7110244013736278,
                "z": -0.7031023480610252
            },
            "position": {
                "x": 0.1141497679147869,
                "y": -0.7141253447532654,
                "z": 0.3711530566215515
            }
        },
        "name": "move_to_auspresseinheit_B"
    },
    "id": "LazyPRMstar_move_to_auspresseinheit_B_80",
    "joint_names": [
        "shoulder_pan_joint",
        "shoulder_lift_joint",
        "elbow_joint",
        "wrist_1_joint",
        "wrist_2_joint",
        "wrist_3_joint"
    ],
    "metrics": {
        "cart_traj_len": 0.5649945945730268,
        "distance_elbow_joint": 0.06552640619158856,
        "distance_shoulder_lift_joint": 0.2928628578875925,
        "distance_shoulder_pan_joint": 0.5765847246436793,
        "distance_wrist_1_joint": 0.3379906266197721,
        "distance_wrist_2_joint": 1.0005231066986588,
        "distance_wrist_3_joint": 0.007749325203068036,
        "smoothness": 3.806478935924272e-16,
        "time": 5.00019063,
        "traj_len": 1.5103764587824982,
        "weighted_distance": 1.90663300898965
    },
    "planner": "LazyPRMstar",
    "start": {
        "state": {
            "elbow_joint": 2.0193083361928714,
            "shoulder_lift_joint": -1.1220246554650708,
            "shoulder_pan_joint": -1.0952077554168747,
            "wrist_1_joint": -0.8559753972642168,
            "wrist_2_joint": 0.4759566250798843,
            "wrist_3_joint": -3.1240929996934557
        }
    },
    "waypoints": [
        {
            "positions": [
                -1.0952077554168747,
                -1.1220246554650708,
                2.0193083361928714,
                -0.8559753972642168,
                0.4759566250798843,
                -3.1240929996934557
            ]
        },
        {
            "positions": [
                -1.1913052095241545,
                -1.1708351317796695,
                2.0083872684942734,
                -0.7996436261609214,
                0.6427104761963274,
                -3.125384553893967
            ]
        },
        {
            "positions": [
                -1.2874026636314344,
                -1.2196456080942684,
                1.9974662007956752,
                -0.7433118550576261,
                0.8094643273127706,
                -3.1266761080944785
            ]
        },
        {
            "positions": [
                -1.3835001177387143,
                -1.268456084408867,
                1.9865451330970771,
                -0.6869800839543307,
                0.9762181784292137,
                -3.1279676622949895
            ]
        },
        {
            "positions": [
                -1.4795975718459942,
                -1.3172665607234657,
                1.9756240653984791,
                -0.6306483128510354,
                1.142972029545657,
                -3.129259216495501
            ]
        },
        {
            "positions": [
                -1.575695025953274,
                -1.3660770370380646,
                1.9647029976998809,
                -0.57431654174774,
                1.3097258806621,
                -3.1305507706960123
            ]
        },
        {
            "positions": [
                -1.671792480060554,
                -1.4148875133526633,
                1.9537819300012829,
                -0.5179847706444447,
                1.4764797317785432,
                -3.1318423248965237
            ]
        }
    ]
}