{
    "goal": {
        "global_pose": {
            "orientation": {
                "w": -0.4816463035849501,
                "x": 0.5182115481033762,
                "y": 0.4908360881923453,
                "z": -0.5084816262002911
            },
            "position": {
                "x": -0.8240239810943604,
                "y": 0.19912469901144506,
                "z": 0.16403168439865112
            }
        },
        "name": "move_to_storage_D"
    },
    "id": "LazyPRMstar_move_to_storage_D_73",
    "joint_names": [
        "shoulder_pan_joint",
        "shoulder_lift_joint",
        "elbow_joint",
        "wrist_1_joint",
        "wrist_2_joint",
        "wrist_3_joint"
    ],
    "metrics": {
        "cart_traj_len": 3.619593982595197,
        "distance_elbow_joint": 4.215240083809524,
        "distance_shoulder_lift_joint": 1.2630536678950748,
        "distance_shoulder_pan_joint": 2.814738769579187,
        "distance_wrist_1_joint": 2.2859968792310585,
        "distance_wrist_2_joint": 0.8874691681592429,
        "distance_wrist_3_joint": 3.146675543095567,
        "smoothness": 0.016224602636684474,
        "time": 5.088549636,
        "traj_len": 3.8227181575117006,
        "weighted_distance": 4.907136766521908
    },
    "planner": "LazyPRMstar",
    "start": {
        "state": {
            "elbow_joint": -2.384821988534728,
            "shoulder_lift_joint": -2.2788054721415256,
            "shoulder_pan_joint": -0.1854694642142757,
            "wrist_1_joint": 1.4845938289331202,
            "wrist_2_joint": 0.17898776772866878,
            "wrist_3_joint": 0.037105688729662994
        }
    },
    "waypoints": [
        {
            "positions": [
                -0.1854694642142757,
                -2.2788054721415256,
                -2.384821988534728,
                1.4845938289331202,
                0.17898776772866878,
                0.037105688729662994
            ]
        },
        {
            "positions": [
                -0.15953428839957295,
                -2.2621086491058033,
                -2.372757468257321,
                1.486924197099188,
                0.18255625387491992,
                0.04641276324037089
            ]
        },
        {
            "positions": [
                -0.06482905719857664,
                -2.212871282651663,
                -2.2743966975084566,
                1.4424297147035825,
                0.20239040869501568,
                0.1355818919994608
            ]
        },
        {
            "positions": [
                0.02987617400241968,
                -2.163633916197523,
                -2.176035926759592,
                1.397935232307977,
                0.22222456351511147,
                0.22475102075855072
            ]
        },
        {
            "positions": [
                0.12458140520341598,
                -2.114396549743383,
                -2.0776751560107276,
                1.3534407499123715,
                0.24205871833520723,
                0.31392014951764063
            ]
        },
        {
            "positions": [
                0.21928663640441232,
                -2.065159183289243,
                -1.9793143852618633,
                1.308946267516766,
                0.261892873155303,
                0.4030892782767306
            ]
        },
        {
            "positions": [
                0.31399186760540865,
                -2.0159218168351027,
                -1.8809536145129988,
                1.2644517851211605,
                0.2817270279753988,
                0.4922584070358205
            ]
        },
        {
            "positions": [
                0.4086970988064049,
                -1.9666844503809626,
                -1.7825928437641343,
                1.219957302725555,
                0.30156118279549454,
                0.5814275357949104
            ]
        },
        {
            "positions": [
                0.5034023300074013,
                -1.9174470839268223,
                -1.68423207301527,
                1.1754628203299493,
                0.32139533761559036,
                0.6705966645540004
            ]
        },
        {
            "positions": [
                0.5981075612083976,
                -1.8682097174726822,
                -1.5858713022664057,
                1.130968337934344,
                0.3412294924356861,
                0.7597657933130902
            ]
        },
        {
            "positions": [
                0.6928127924093939,
                -1.818972351018542,
                -1.4875105315175412,
                1.0864738555387385,
                0.3610636472557819,
                0.8489349220721801
            ]
        },
        {
            "positions": [
                0.7875180236103902,
                -1.769734984564402,
                -1.3891497607686767,
                1.0419793731431328,
                0.38089780207587765,
                0.9381040508312701
            ]
        },
        {
            "positions": [
                0.8822232548113866,
                -1.7204976181102618,
                -1.2907889900198124,
                0.9974848907475274,
                0.4007319568959734,
                1.02727317959036
            ]
        },
        {
            "positions": [
                0.9769284860123828,
                -1.6712602516561217,
                -1.1924282192709479,
                0.952990408351922,
                0.42056611171606917,
                1.1164423083494497
            ]
        },
        {
            "positions": [
                1.0716337172133792,
                -1.6220228852019816,
                -1.0940674485220836,
                0.9084959259563165,
                0.44040026653616493,
                1.2056114371085398
            ]
        },
        {
            "positions": [
                1.1663389484143756,
                -1.5727855187478412,
                -0.9957066777732191,
                0.8640014435607108,
                0.46023442135626075,
                1.2947805658676297
            ]
        },
        {
            "positions": [
                1.2610441796153717,
                -1.5235481522937013,
                -0.8973459070243548,
                0.8195069611651055,
                0.48006857617635645,
                1.3839496946267196
            ]
        },
        {
            "positions": [
                1.3557494108163681,
                -1.474310785839561,
                -0.7989851362754903,
                0.7750124787695,
                0.49990273099645227,
                1.4731188233858095
            ]
        },
        {
            "positions": [
                1.4504546420173645,
                -1.4250734193854209,
                -0.7006243655266258,
                0.7305179963738944,
                0.5197368858165481,
                1.5622879521448996
            ]
        },
        {
            "positions": [
                1.5451598732183607,
                -1.3758360529312808,
                -0.6022635947777615,
                0.686023513978289,
                0.5395710406366439,
                1.6514570809039892
            ]
        },
        {
            "positions": [
                1.639865104419357,
                -1.3265986864771406,
                -0.503902824028897,
                0.6415290315826834,
                0.5594051954567396,
                1.7406262096630791
            ]
        },
        {
            "positions": [
                1.7345703356203535,
                -1.2773613200230005,
                -0.40554205328003246,
                0.5970345491870779,
                0.5792393502768354,
                1.8297953384221692
            ]
        },
        {
            "positions": [
                1.8292755668213496,
                -1.2281239535688604,
                -0.30718128253116816,
                0.5525400667914725,
                0.5990735050969311,
                1.918964467181259
            ]
        },
        {
            "positions": [
                1.9239807980223462,
                -1.1788865871147203,
                -0.20882051178230387,
                0.5080455843958669,
                0.6189076599170269,
                2.008133595940349
            ]
        },
        {
            "positions": [
                2.0186860292233426,
                -1.1296492206605802,
                -0.11045974103343914,
                0.4635511020002614,
                0.6387418147371227,
                2.097302724699439
            ]
        },
        {
            "positions": [
                2.1133912604243386,
                -1.08041185420644,
                -0.01209897028457485,
                0.4190566196046559,
                0.6585759695572184,
                2.186471853458529
            ]
        },
        {
            "positions": [
                2.208096491625335,
                -1.0311744877523,
                0.08626180046428956,
                0.37456213720905046,
                0.6784101243773142,
                2.275640982217619
            ]
        },
        {
            "positions": [
                2.243194226103633,
                -1.0298892641268125,
                0.23160815836516502,
                0.2769534329444794,
                0.7107473586698639,
                2.3513193363515863
            ]
        },
        {
            "positions": [
                2.278291960581931,
                -1.028604040501325,
                0.3769545162660405,
                0.17934472867990828,
                0.7430845929624138,
                2.426997690485554
            ]
        },
        {
            "positions": [
                2.313389695060229,
                -1.0273188168758376,
                0.5223008741669161,
                0.08173602441533717,
                0.7754218272549636,
                2.5026760446195215
            ]
        },
        {
            "positions": [
                2.348487429538527,
                -1.0260335932503502,
                0.6676472320677914,
                -0.015872679849233906,
                0.8077590615475133,
                2.5783543987534894
            ]
        },
        {
            "positions": [
                2.383585164016825,
                -1.0247483696248627,
                0.812993589968667,
                -0.11348138411380504,
                0.8400962958400632,
                2.6540327528874568
            ]
        },
        {
            "positions": [
                2.418682898495123,
                -1.0234631459993753,
                0.9583399478695425,
                -0.21109008837837612,
                0.8724335301326129,
                2.7297111070214246
            ]
        },
        {
            "positions": [
                2.4537806329734213,
                -1.022177922373888,
                1.103686305770418,
                -0.30869879264294725,
                0.9047707644251628,
                2.805389461155392
            ]
        },
        {
            "positions": [
                2.4888783674517194,
                -1.0208926987484006,
                1.2490326636712934,
                -0.4063074969075183,
                0.9371079987177124,
                2.8810678152893594
            ]
        },
        {
            "positions": [
                2.5239761019300175,
                -1.0196074751229132,
                1.394379021572169,
                -0.5039162011720895,
                0.9694452330102623,
                2.9567461694233272
            ]
        },
        {
            "positions": [
                2.559073836408315,
                -1.0183222514974257,
                1.5397253794730446,
                -0.6015249054366605,
                1.0017824673028122,
                3.0324245235572946
            ]
        },
        {
            "positions": [
                2.5941715708866133,
                -1.0170370278719383,
                1.68507173737392,
                -0.6991336097012315,
                1.0341197015953618,
                3.1081028776912625
            ]
        },
        {
            "positions": [
                2.6292693053649114,
                -1.0157518042464508,
                1.8304180952747955,
                -0.7967423139658028,
                1.0664569358879117,
                3.18378123182523
            ]
        }
    ]
}