{
    "goal": {
        "global_pose": {
            "orientation": {
                "w": 0.005598929693374612,
                "x": 0.007748599140229565,
                "y": 0.7110244013736278,
                "z": -0.7031023480610252
            },
            "position": {
                "x": 0.1141497679147869,
                "y": -0.7141253447532654,
                "z": 0.3711530566215515
            }
        },
        "name": "move_to_auspresseinheit_B"
    },
    "id": "LazyPRM_move_to_auspresseinheit_B_75",
    "joint_names": [
        "shoulder_pan_joint",
        "shoulder_lift_joint",
        "elbow_joint",
        "wrist_1_joint",
        "wrist_2_joint",
        "wrist_3_joint"
    ],
    "metrics": {
        "cart_traj_len": 0.5645416173001194,
        "distance_elbow_joint": 0.05998532390031297,
        "distance_shoulder_lift_joint": 0.2948839703711723,
        "distance_shoulder_pan_joint": 0.5789294660816102,
        "distance_wrist_1_joint": 0.319630521574499,
        "distance_wrist_2_joint": 0.9853002085911189,
        "distance_wrist_3_joint": 0.0028736336010366514,
        "smoothness": 2.5376526478085547e-16,
        "time": 0.011685125999999999,
        "traj_len": 1.4971984250992751,
        "weighted_distance": 1.8847496177178127
    },
    "planner": "LazyPRM",
    "start": {
        "state": {
            "elbow_joint": 2.0193083361928714,
            "shoulder_lift_joint": -1.1220246554650708,
            "shoulder_pan_joint": -1.0952077554168747,
            "wrist_1_joint": -0.8559753972642168,
            "wrist_2_joint": 0.4759566250798843,
            "wrist_3_joint": -3.1240929996934557
        }
    },
    "waypoints": [
        {
            "positions": [
                -1.0952077554168747,
                -1.1220246554650708,
                2.0193083361928714,
                -0.8559753972642168,
                0.4759566250798843,
                -3.1240929996934557
            ]
        },
        {
            "positions": [
                -1.1916959997638097,
                -1.171171983860266,
                2.009310782209486,
                -0.8027036436684669,
                0.6401733265117374,
                -3.124571938626962
            ]
        },
        {
            "positions": [
                -1.2881842441107447,
                -1.2203193122554616,
                1.9993132282261004,
                -0.7494318900727172,
                0.8043900279435905,
                -3.1250508775604677
            ]
        },
        {
            "positions": [
                -1.3846724884576798,
                -1.269466640650657,
                1.989315674242715,
                -0.6961601364769673,
                0.9686067293754437,
                -3.125529816493974
            ]
        },
        {
            "positions": [
                -1.4811607328046148,
                -1.3186139690458523,
                1.9793181202593295,
                -0.6428883828812175,
                1.1328234308072969,
                -3.1260087554274802
            ]
        },
        {
            "positions": [
                -1.5776489771515498,
                -1.3677612974410478,
                1.9693205662759439,
                -0.5896166292854677,
                1.29704013223915,
                -3.126487694360986
            ]
        },
        {
            "positions": [
                -1.6741372214984849,
                -1.416908625836243,
                1.9593230122925585,
                -0.5363448756897178,
                1.4612568336710032,
                -3.1269666332944923
            ]
        }
    ]
}