{
    "goal": {
        "global_pose": {
            "orientation": {
                "w": -0.4816463035849501,
                "x": 0.5182115481033762,
                "y": 0.4908360881923453,
                "z": -0.5084816262002911
            },
            "position": {
                "x": -0.8240239810943604,
                "y": -0.300875300988555,
                "z": 0.16403168439865112
            }
        },
        "name": "move_to_storage_C"
    },
    "id": "LazyPRM_move_to_storage_C_130",
    "joint_names": [
        "shoulder_pan_joint",
        "shoulder_lift_joint",
        "elbow_joint",
        "wrist_1_joint",
        "wrist_2_joint",
        "wrist_3_joint"
    ],
    "metrics": {
        "cart_traj_len": 0.576657425411714,
        "distance_elbow_joint": 0.25609618189713346,
        "distance_shoulder_lift_joint": 0.18838968293116898,
        "distance_shoulder_pan_joint": 0.4933905607089435,
        "distance_wrist_1_joint": 0.07044100726554725,
        "distance_wrist_2_joint": 1.0804113568584603,
        "distance_wrist_3_joint": 0.05847324898341766,
        "smoothness": 0.0,
        "time": 0.011645395999999999,
        "traj_len": 1.4653334223461467,
        "weighted_distance": 1.8479721049668238
    },
    "planner": "LazyPRM",
    "start": {
        "state": {
            "elbow_joint": 2.010868314990456,
            "shoulder_lift_joint": -1.1634956873337592,
            "shoulder_pan_joint": -2.4736205022346125,
            "wrist_1_joint": -0.8367026794202681,
            "wrist_2_joint": 0.6746043897044499,
            "wrist_3_joint": -3.1496632123970403
        }
    },
    "waypoints": [
        {
            "positions": [
                -2.4736205022346125,
                -1.1634956873337592,
                2.010868314990456,
                -0.8367026794202681,
                0.6746043897044499,
                -3.1496632123970403
            ]
        },
        {
            "positions": [
                -2.5558522623527695,
                -1.132097406845231,
                1.9681856180076003,
                -0.8249625115426769,
                0.85467294918086,
                -3.139917670899804
            ]
        },
        {
            "positions": [
                -2.638084022470927,
                -1.100699126356703,
                1.9255029210247447,
                -0.8132223436650857,
                1.03474150865727,
                -3.1301721294025677
            ]
        },
        {
            "positions": [
                -2.7203157825890845,
                -1.0693008458681748,
                1.8828202240418892,
                -0.8014821757874945,
                1.21481006813368,
                -3.1204265879053317
            ]
        },
        {
            "positions": [
                -2.8025475427072415,
                -1.0379025653796465,
                1.8401375270590334,
                -0.7897420079099032,
                1.39487862761009,
                -3.110681046408095
            ]
        },
        {
            "positions": [
                -2.8847793028253985,
                -1.0065042848911183,
                1.797454830076178,
                -0.7780018400323121,
                1.5749471870865004,
                -3.1009355049108587
            ]
        },
        {
            "positions": [
                -2.967011062943556,
                -0.9751060044025902,
                1.7547721330933224,
                -0.7662616721547209,
                1.7550157465629102,
                -3.0911899634136226
            ]
        }
    ]
}