{
    "goal": {
        "global_pose": {
            "orientation": {
                "w": -0.00223480608172531,
                "x": 0.0024358444001904467,
                "y": 0.7094548369677653,
                "z": -0.704743149386269
            },
            "position": {
                "x": -0.37947507619857795,
                "y": -0.6371506643295288,
                "z": 0.19426114857196808
            }
        },
        "name": "move_to_magneteinheit_C"
    },
    "id": "LazyPRM_move_to_magneteinheit_C_119",
    "joint_names": [
        "shoulder_pan_joint",
        "shoulder_lift_joint",
        "elbow_joint",
        "wrist_1_joint",
        "wrist_2_joint",
        "wrist_3_joint"
    ],
    "metrics": {
        "cart_traj_len": 1.385835225793551,
        "distance_elbow_joint": 0.4122638284482134,
        "distance_shoulder_lift_joint": 1.332971033483137,
        "distance_shoulder_pan_joint": 1.3017694404558144,
        "distance_wrist_1_joint": 1.723947569956607,
        "distance_wrist_2_joint": 1.8242822521224742,
        "distance_wrist_3_joint": 2.376151041365471,
        "smoothness": 0.9321157557040318,
        "time": 0.12130386900000001,
        "traj_len": 2.995227064152519,
        "weighted_distance": 4.155949599145993
    },
    "planner": "LazyPRM",
    "start": {
        "state": {
            "elbow_joint": 1.9565354010623817,
            "shoulder_lift_joint": -1.4165861575791021,
            "shoulder_pan_joint": -1.6717766225146293,
            "wrist_1_joint": -0.5286633292919765,
            "wrist_2_joint": 1.472756589071564,
            "wrist_3_joint": -3.1238370188695823
        }
    },
    "waypoints": [
        {
            "positions": [
                -1.6717766225146293,
                -1.4165861575791021,
                1.9565354010623817,
                -0.5286633292919765,
                1.472756589071564,
                -3.1238370188695823
            ]
        },
        {
            "positions": [
                -1.5148067642523486,
                -1.4873944785529019,
                2.0256879802933176,
                -0.5112544914865504,
                1.484864334147396,
                -3.089544666802559
            ]
        },
        {
            "positions": [
                -1.5614385504718116,
                -1.545830980150952,
                2.0261837842557977,
                -0.5858495206531078,
                1.379924485745966,
                -2.9877782799425026
            ]
        },
        {
            "positions": [
                -1.6080703366912745,
                -1.6042674817490024,
                2.0266795882182773,
                -0.6604445498196652,
                1.274984637344536,
                -2.8860118930824465
            ]
        },
        {
            "positions": [
                -1.6547021229107375,
                -1.6627039833470527,
                2.0271753921807574,
                -0.7350395789862225,
                1.170044788943106,
                -2.7842455062223905
            ]
        },
        {
            "positions": [
                -1.7013339091302004,
                -1.7211404849451029,
                2.0276711961432374,
                -0.8096346081527799,
                1.065104940541676,
                -2.682479119362334
            ]
        },
        {
            "positions": [
                -1.7479656953496634,
                -1.779576986543153,
                2.028167000105717,
                -0.8842296373193372,
                0.960165092140246,
                -2.5807127325022776
            ]
        },
        {
            "positions": [
                -1.7945974815691264,
                -1.8380134881412034,
                2.028662804068197,
                -0.9588246664858946,
                0.8552252437388161,
                -2.4789463456422216
            ]
        },
        {
            "positions": [
                -1.8412292677885893,
                -1.8964499897392537,
                2.0291586080306767,
                -1.033419695652452,
                0.7502853953373861,
                -2.3771799587821656
            ]
        },
        {
            "positions": [
                -1.8878610540080523,
                -1.9548864913373039,
                2.0296544119931568,
                -1.1080147248190093,
                0.6453455469359561,
                -2.275413571922109
            ]
        },
        {
            "positions": [
                -1.9983802110862765,
                -1.9553068941039793,
                2.0269585461968735,
                -1.1934815945123145,
                0.5499822362293227,
                -2.2088783750142893
            ]
        },
        {
            "positions": [
                -2.1088993681645007,
                -1.9557272968706547,
                2.0242626804005903,
                -1.27894846420562,
                0.45461892552268945,
                -2.1423431781064695
            ]
        },
        {
            "positions": [
                -2.2194185252427245,
                -1.95614769963733,
                2.021566814604307,
                -1.364415333898925,
                0.35925561481605617,
                -2.075807981198649
            ]
        },
        {
            "positions": [
                -2.3299376823209488,
                -1.9565681024040054,
                2.018870948808024,
                -1.4498822035922303,
                0.26389230410942277,
                -2.0092727842908293
            ]
        },
        {
            "positions": [
                -2.440456839399173,
                -1.9569885051706808,
                2.0161750830117406,
                -1.5353490732855355,
                0.16852899340278948,
                -1.9427375873830095
            ]
        },
        {
            "positions": [
                -2.4616235745109263,
                -1.8566568989554535,
                2.0431867573725278,
                -1.5031059628647212,
                0.20028091408022147,
                -2.0720375563247955
            ]
        },
        {
            "positions": [
                -2.4827903096226795,
                -1.7563252927402262,
                2.070198431733315,
                -1.470862852443907,
                0.2320328347576535,
                -2.201337525266582
            ]
        },
        {
            "positions": [
                -2.503957044734433,
                -1.655993686524999,
                2.097210106094102,
                -1.4386197420230926,
                0.2637847554350855,
                -2.330637494208368
            ]
        },
        {
            "positions": [
                -2.5251237798461856,
                -1.5556620803097716,
                2.1242217804548886,
                -1.4063766316022783,
                0.2955366761125175,
                -2.459937463150154
            ]
        },
        {
            "positions": [
                -2.546290514957939,
                -1.4553304740945443,
                2.1512334548156757,
                -1.374133521181464,
                0.32728859678994954,
                -2.5892374320919402
            ]
        },
        {
            "positions": [
                -2.567457250069692,
                -1.354998867879317,
                2.178245129176463,
                -1.3418904107606497,
                0.3590405174673815,
                -2.718537401033726
            ]
        },
        {
            "positions": [
                -2.547202587601895,
                -1.3131345837207251,
                2.1423068274338726,
                -1.2344240441993868,
                0.42620615117237703,
                -2.810669321553135
            ]
        },
        {
            "positions": [
                -2.526947925134098,
                -1.2712702995621332,
                2.1063685256912823,
                -1.1269576776381238,
                0.4933717848773726,
                -2.9028012420725435
            ]
        },
        {
            "positions": [
                -2.5097346679872325,
                -1.2356534728011297,
                2.0757955793959093,
                -1.0356067594031957,
                0.5503705764865237,
                -2.981130560468998
            ]
        },
        {
            "positions": [
                -2.4925214108403675,
                -1.200036646040126,
                2.045222633100536,
                -0.9442558411682678,
                0.6073693680956748,
                -3.0594598788654532
            ]
        },
        {
            "positions": [
                -2.475308153693502,
                -1.1644198192791224,
                2.014649686805163,
                -0.8529049229333396,
                0.6643681597048259,
                -3.137789197261908
            ]
        }
    ]
}