{
    "goal": {
        "global_pose": {
            "orientation": {
                "w": 0.5084816262002911,
                "x": -0.4908360881923452,
                "y": 0.5182115481033761,
                "z": -0.48164630358495003
            },
            "position": {
                "x": 0.5540239810943604,
                "y": -0.46912469901144505,
                "z": 0.16403168439865112
            }
        },
        "name": "move_to_storage_B"
    },
    "id": "LazyPRM_move_to_storage_B_100",
    "joint_names": [
        "shoulder_pan_joint",
        "shoulder_lift_joint",
        "elbow_joint",
        "wrist_1_joint",
        "wrist_2_joint",
        "wrist_3_joint"
    ],
    "metrics": {
        "cart_traj_len": 2.22614092340644,
        "distance_elbow_joint": 1.0787388760601417,
        "distance_shoulder_lift_joint": 1.985986264554526,
        "distance_shoulder_pan_joint": 0.7996004110262654,
        "distance_wrist_1_joint": 2.9839181336902083,
        "distance_wrist_2_joint": 2.7057616072062727,
        "distance_wrist_3_joint": 3.138979174262496,
        "smoothness": 0.2912053400871312,
        "time": 0.126412933,
        "traj_len": 3.5627214972265113,
        "weighted_distance": 4.965946290106386
    },
    "planner": "LazyPRM",
    "start": {
        "state": {
            "elbow_joint": 1.664937868594044,
            "shoulder_lift_joint": -0.661644460510453,
            "shoulder_pan_joint": -0.9139846352900073,
            "wrist_1_joint": 2.146753192139373,
            "wrist_2_joint": -2.2341966793290973,
            "wrist_3_joint": 0.005466555786416001
        }
    },
    "waypoints": [
        {
            "positions": [
                -0.9139846352900073,
                -0.661644460510453,
                1.664937868594044,
                2.146753192139373,
                -2.2341966793290973,
                0.005466555786416001
            ]
        },
        {
            "positions": [
                -0.8957180808956349,
                -0.7475532691608002,
                1.6940785905726465,
                2.1002332166696926,
                -2.162709038909929,
                0.06519969648435829
            ]
        },
        {
            "positions": [
                -0.8774515265012626,
                -0.8334620778111476,
                1.723219312551249,
                2.053713241200012,
                -2.0912213984907613,
                0.12493283718230057
            ]
        },
        {
            "positions": [
                -0.8604343426508039,
                -0.8990940274054445,
                1.70040115195277,
                1.974817414827933,
                -1.9829024688559898,
                0.22423372376946782
            ]
        },
        {
            "positions": [
                -0.8434171588003451,
                -0.9647259769997416,
                1.677582991354291,
                1.895921588455854,
                -1.8745835392212185,
                0.32353461035663506
            ]
        },
        {
            "positions": [
                -0.8263999749498863,
                -1.0303579265940386,
                1.6547648307558118,
                1.8170257620837749,
                -1.7662646095864472,
                0.42283549694380235
            ]
        },
        {
            "positions": [
                -0.8093827910994276,
                -1.0959898761883355,
                1.6319466701573329,
                1.738129935711696,
                -1.6579456799516756,
                0.5221363835309696
            ]
        },
        {
            "positions": [
                -0.7923656072489689,
                -1.1616218257826325,
                1.609128509558854,
                1.6592341093396168,
                -1.5496267503169041,
                0.6214372701181368
            ]
        },
        {
            "positions": [
                -0.7753484233985101,
                -1.2272537753769295,
                1.586310348960375,
                1.5803382829675376,
                -1.4413078206821328,
                0.7207381567053041
            ]
        },
        {
            "positions": [
                -0.7583312395480513,
                -1.2928857249712267,
                1.563492188361896,
                1.5014424565954587,
                -1.3329888910473615,
                0.8200390432924712
            ]
        },
        {
            "positions": [
                -0.7413140556975926,
                -1.3585176745655234,
                1.540674027763417,
                1.4225466302233796,
                -1.22466996141259,
                0.9193399298796385
            ]
        },
        {
            "positions": [
                -0.7242968718471339,
                -1.4241496241598206,
                1.5178558671649378,
                1.3436508038513004,
                -1.1163510317778185,
                1.018640816466806
            ]
        },
        {
            "positions": [
                -0.7072796879966751,
                -1.4897815737541173,
                1.4950377065664588,
                1.2647549774792215,
                -1.0080321021430472,
                1.1179417030539731
            ]
        },
        {
            "positions": [
                -0.6902625041462163,
                -1.5554135233484145,
                1.4722195459679799,
                1.1858591511071424,
                -0.8997131725082759,
                1.2172425896411403
            ]
        },
        {
            "positions": [
                -0.6732453202957576,
                -1.6210454729427115,
                1.449401385369501,
                1.1069633247350632,
                -0.7913942428735043,
                1.3165434762283077
            ]
        },
        {
            "positions": [
                -0.6562281364452989,
                -1.6866774225370085,
                1.4265832247710217,
                1.0280674983629843,
                -0.6830753132387328,
                1.4158443628154749
            ]
        },
        {
            "positions": [
                -0.6392109525948401,
                -1.7523093721313057,
                1.4037650641725428,
                0.9491716719909051,
                -0.5747563836039615,
                1.515145249402642
            ]
        },
        {
            "positions": [
                -0.6221937687443813,
                -1.8179413217256024,
                1.3809469035740638,
                0.8702758456188262,
                -0.46643745396919023,
                1.6144461359898095
            ]
        },
        {
            "positions": [
                -0.6051765848939226,
                -1.8835732713198996,
                1.3581287429755848,
                0.791380019246747,
                -0.35811852433441865,
                1.7137470225769766
            ]
        },
        {
            "positions": [
                -0.6378960756026013,
                -1.8326361077368942,
                1.4018198671440696,
                0.6828103551935748,
                -0.302806294186979,
                1.809126936408439
            ]
        },
        {
            "positions": [
                -0.67061556631128,
                -1.781698944153889,
                1.4455109913125546,
                0.5742406911404027,
                -0.24749406403953939,
                1.9045068502399014
            ]
        },
        {
            "positions": [
                -0.7033350570199587,
                -1.7307617805708837,
                1.4892021154810393,
                0.4656710270872305,
                -0.1921818338920997,
                1.9998867640713638
            ]
        },
        {
            "positions": [
                -0.7360545477286374,
                -1.6798246169878783,
                1.5328932396495243,
                0.35710136303405843,
                -0.1368696037446601,
                2.095266677902826
            ]
        },
        {
            "positions": [
                -0.7687740384373161,
                -1.6288874534048732,
                1.576584363818009,
                0.24853169898088634,
                -0.08155737359722043,
                2.1906465917342883
            ]
        },
        {
            "positions": [
                -0.8014935291459948,
                -1.5779502898218678,
                1.6202754879864938,
                0.13996203492771409,
                -0.02624514344978074,
                2.2860265055657507
            ]
        },
        {
            "positions": [
                -0.8342130198546736,
                -1.5270131262388624,
                1.6639666121549788,
                0.03139237087454205,
                0.029067086697658895,
                2.381406419397213
            ]
        },
        {
            "positions": [
                -0.8669325105633523,
                -1.4760759626558573,
                1.7076577363234635,
                -0.07717729317863009,
                0.08437931684509847,
                2.4767863332286755
            ]
        },
        {
            "positions": [
                -0.899652001272031,
                -1.425138799072852,
                1.7513488604919485,
                -0.18574695723180212,
                0.1396915469925381,
                2.572166247060138
            ]
        },
        {
            "positions": [
                -0.9323714919807097,
                -1.3742016354898468,
                1.7950399846604332,
                -0.29431662128497427,
                0.1950037771399778,
                2.6675461608916002
            ]
        },
        {
            "positions": [
                -0.9650909826893884,
                -1.3232644719068414,
                1.838731108828918,
                -0.4028862853381464,
                0.2503160072874174,
                2.7629260747230626
            ]
        },
        {
            "positions": [
                -0.9978104733980672,
                -1.272327308323836,
                1.882422232997403,
                -0.5114559493913188,
                0.3056282374348572,
                2.858305988554525
            ]
        },
        {
            "positions": [
                -1.0305299641067458,
                -1.2213901447408306,
                1.926113357165888,
                -0.6200256134444907,
                0.36094046758229675,
                2.9536859023859874
            ]
        },
        {
            "positions": [
                -1.0632494548154245,
                -1.1704529811578253,
                1.9698044813343727,
                -0.7285952774976628,
                0.41625269772973644,
                3.0490658162174498
            ]
        },
        {
            "positions": [
                -1.0959689455241033,
                -1.11951581757482,
                2.0134956055028574,
                -0.837164941550835,
                0.471564927877176,
                3.144445730048912
            ]
        }
    ]
}