{
    "goal": {
        "global_pose": {
            "orientation": {
                "w": 0.7047431493862688,
                "x": -0.7094548369677653,
                "y": 0.0024358444001904,
                "z": -0.0022348060817251984
            },
            "position": {
                "x": -0.39052492380142206,
                "y": 0.3671506643295288,
                "z": 0.19426114857196808
            }
        },
        "name": "move_to_magneteinheit_D"
    },
    "id": "LazyPRM_move_to_magneteinheit_D_145",
    "joint_names": [
        "shoulder_pan_joint",
        "shoulder_lift_joint",
        "elbow_joint",
        "wrist_1_joint",
        "wrist_2_joint",
        "wrist_3_joint"
    ],
    "metrics": {
        "cart_traj_len": 4.141856149737287,
        "distance_elbow_joint": 3.535928396697038,
        "distance_shoulder_lift_joint": 1.62652847400519,
        "distance_shoulder_pan_joint": 3.0343996432089853,
        "distance_wrist_1_joint": 1.9281480201405305,
        "distance_wrist_2_joint": 1.2917619637861273,
        "distance_wrist_3_joint": 3.5165433041865963,
        "smoothness": 0.3814985990946199,
        "time": 0.180308187,
        "traj_len": 3.8643640876636445,
        "weighted_distance": 5.018596058094764
    },
    "planner": "LazyPRM",
    "start": {
        "state": {
            "elbow_joint": 0.749534889911806,
            "shoulder_lift_joint": -0.6476975780787326,
            "shoulder_pan_joint": -2.711696901376241,
            "wrist_1_joint": -0.07506478083263063,
            "wrist_2_joint": 0.43296659715538205,
            "wrist_3_joint": -3.14703540197715
        }
    },
    "waypoints": [
        {
            "positions": [
                -2.711696901376241,
                -0.6476975780787326,
                0.749534889911806,
                -0.07506478083263063,
                0.43296659715538205,
                -3.14703540197715
            ]
        },
        {
            "positions": [
                -2.7429917233228567,
                -0.7722071925161073,
                0.7980750185469501,
                -0.12577406742275543,
                0.4494166587409143,
                -3.1154511829033433
            ]
        },
        {
            "positions": [
                -2.7742865452694723,
                -0.8967168069534819,
                0.8466151471820942,
                -0.17648335401288023,
                0.4658667203264466,
                -3.083866963829537
            ]
        },
        {
            "positions": [
                -2.805581367216088,
                -1.0212264213908564,
                0.8951552758172382,
                -0.22719264060300504,
                0.48231678191197885,
                -3.052282744755731
            ]
        },
        {
            "positions": [
                -2.8368761891627035,
                -1.1457360358282311,
                0.9436954044523823,
                -0.27790192719312984,
                0.4987668434975111,
                -3.020698525681924
            ]
        },
        {
            "positions": [
                -2.7446849663420902,
                -1.1683915814806027,
                0.843662787129275,
                -0.23327004314946503,
                0.5150899703310706,
                -2.9048625549466256
            ]
        },
        {
            "positions": [
                -2.6524937435214775,
                -1.1910471271329743,
                0.7436301698061677,
                -0.18863815910580023,
                0.5314130971646303,
                -2.789026584211327
            ]
        },
        {
            "positions": [
                -2.5603025207008647,
                -1.213702672785346,
                0.6435975524830604,
                -0.14400627506213545,
                0.5477362239981898,
                -2.6731906134760286
            ]
        },
        {
            "positions": [
                -2.4681112978802515,
                -1.2363582184377175,
                0.543564935159953,
                -0.09937439101847065,
                0.5640593508317493,
                -2.55735464274073
            ]
        },
        {
            "positions": [
                -2.3759200750596383,
                -1.2590137640900891,
                0.44353231783684566,
                -0.054742506974805843,
                0.5803824776653089,
                -2.4415186720054316
            ]
        },
        {
            "positions": [
                -2.2837288522390256,
                -1.2816693097424607,
                0.34349970051373835,
                -0.010110622931141067,
                0.5967056044988684,
                -2.325682701270133
            ]
        },
        {
            "positions": [
                -2.191537629418413,
                -1.3043248553948326,
                0.24346708319063104,
                0.03452126111252374,
                0.613028731332428,
                -2.2098467305348346
            ]
        },
        {
            "positions": [
                -2.0993464065977996,
                -1.3269804010472042,
                0.14343446586752373,
                0.07915314515618854,
                0.6293518581659876,
                -2.094010759799536
            ]
        },
        {
            "positions": [
                -2.0071551837771864,
                -1.3496359466995758,
                0.04340184854441631,
                0.12378502919985335,
                0.6456749849995471,
                -1.9781747890642376
            ]
        },
        {
            "positions": [
                -1.9149639609565736,
                -1.3722914923519474,
                -0.056630768778691,
                0.16841691324351815,
                0.6619981118331066,
                -1.862338818328939
            ]
        },
        {
            "positions": [
                -1.8227727381359606,
                -1.394947038004319,
                -0.1566633861017982,
                0.2130487972871829,
                0.6783212386666662,
                -1.7465028475936406
            ]
        },
        {
            "positions": [
                -1.7305815153153477,
                -1.4176025836566906,
                -0.2566960034249056,
                0.2576806813308477,
                0.6946443655002258,
                -1.630666876858342
            ]
        },
        {
            "positions": [
                -1.6383902924947347,
                -1.4402581293090622,
                -0.35672862074801304,
                0.3023125653745125,
                0.7109674923337853,
                -1.5148309061230436
            ]
        },
        {
            "positions": [
                -1.5461990696741217,
                -1.4629136749614338,
                -0.45676123807112023,
                0.3469444494181773,
                0.7272906191673449,
                -1.398994935387745
            ]
        },
        {
            "positions": [
                -1.4540078468535087,
                -1.4855692206138054,
                -0.5567938553942274,
                0.3915763334618421,
                0.7436137460009045,
                -1.2831589646524466
            ]
        },
        {
            "positions": [
                -1.3618166240328957,
                -1.508224766266177,
                -0.6568264727173349,
                0.4362082175055069,
                0.759936872834464,
                -1.167322993917148
            ]
        },
        {
            "positions": [
                -1.269625401212283,
                -1.5308803119185486,
                -0.756859090040442,
                0.4808401015491716,
                0.7762599996680235,
                -1.0514870231818498
            ]
        },
        {
            "positions": [
                -1.1774341783916695,
                -1.5535358575709202,
                -0.8568917073635497,
                0.5254719855928365,
                0.7925831265015831,
                -0.9356510524465511
            ]
        },
        {
            "positions": [
                -1.0852429555710568,
                -1.5761914032232918,
                -0.9569243246866569,
                0.5701038696365013,
                0.8089062533351427,
                -0.8198150817112526
            ]
        },
        {
            "positions": [
                -0.9930517327504438,
                -1.5988469488756634,
                -1.0569569420097644,
                0.6147357536801661,
                0.8252293801687023,
                -0.7039791109759541
            ]
        },
        {
            "positions": [
                -0.9008605099298308,
                -1.621502494528035,
                -1.1569895593328714,
                0.6593676377238309,
                0.8415525070022618,
                -0.5881431402406556
            ]
        },
        {
            "positions": [
                -0.8086692871092178,
                -1.6441580401804066,
                -1.2570221766559788,
                0.7039995217674957,
                0.8578756338358213,
                -0.4723071695053571
            ]
        },
        {
            "positions": [
                -0.716478064288605,
                -1.6668135858327782,
                -1.3570547939790862,
                0.7486314058111605,
                0.8741987606693808,
                -0.3564711987700586
            ]
        },
        {
            "positions": [
                -0.6242868414679918,
                -1.6894691314851498,
                -1.4570874113021937,
                0.7932632898548253,
                0.8905218875029404,
                -0.24063522803476012
            ]
        },
        {
            "positions": [
                -0.5320956186473786,
                -1.7121246771375216,
                -1.557120028625301,
                0.8378951738984901,
                0.9068450143365,
                -0.12479925729946162
            ]
        },
        {
            "positions": [
                -0.4399043958267659,
                -1.7347802227898932,
                -1.6571526459484085,
                0.8825270579421549,
                0.9231681411700596,
                -0.00896328656416312
            ]
        },
        {
            "positions": [
                -0.3477131730061527,
                -1.7574357684422648,
                -1.7571852632715155,
                0.9271589419858197,
                0.9394912680036192,
                0.10687268417113538
            ]
        },
        {
            "positions": [
                -0.2555219501855397,
                -1.7800913140946364,
                -1.8572178805946227,
                0.9717908260294844,
                0.9558143948371787,
                0.2227086549064337
            ]
        },
        {
            "positions": [
                -0.20839870591404056,
                -1.8016201502390718,
                -1.9595627985004036,
                1.056287380384264,
                0.8581323146534876,
                0.20995295075035694
            ]
        },
        {
            "positions": [
                -0.16127546164254142,
                -1.8231489863835075,
                -2.0619077164061843,
                1.1407839347390436,
                0.7604502344697964,
                0.19719724659428017
            ]
        },
        {
            "positions": [
                -0.11415221737104228,
                -1.844677822527943,
                -2.1642526343119655,
                1.2252804890938234,
                0.6627681542861052,
                0.18444154243820338
            ]
        },
        {
            "positions": [
                -0.06702897309954313,
                -1.8662066586723784,
                -2.266597552217746,
                1.309777043448603,
                0.5650860741024142,
                0.1716858382821266
            ]
        },
        {
            "positions": [
                -0.062052178818285224,
                -1.956536432902989,
                -2.324496335745298,
                1.3699990840073242,
                0.4358908244077755,
                0.13348735714997165
            ]
        },
        {
            "positions": [
                -0.05707538453702732,
                -2.0468662071335997,
                -2.3823951192728505,
                1.4302211245660457,
                0.3066955747131368,
                0.09528887601781669
            ]
        },
        {
            "positions": [
                -0.1356121328816272,
                -2.1958449761844205,
                -2.3965584631949524,
                1.4473766148440381,
                0.21913227998133383,
                0.0792015918610025
            ]
        },
        {
            "positions": [
                -0.186494935333874,
                -2.2742260520839226,
                -2.3950444486858258,
                1.4473442831011747,
                0.1869002287328481,
                0.07590940760342163
            ]
        }
    ]
}