{
    "goal": {
        "global_pose": {
            "orientation": {
                "w": 0.7047431493862688,
                "x": -0.7094548369677653,
                "y": 0.0024358444001904,
                "z": -0.0022348060817251984
            },
            "position": {
                "x": -0.39052492380142206,
                "y": 0.3671506643295288,
                "z": 0.19426114857196808
            }
        },
        "name": "move_to_magneteinheit_D"
    },
    "id": "LazyPRM_move_to_magneteinheit_D_113",
    "joint_names": [
        "shoulder_pan_joint",
        "shoulder_lift_joint",
        "elbow_joint",
        "wrist_1_joint",
        "wrist_2_joint",
        "wrist_3_joint"
    ],
    "metrics": {
        "cart_traj_len": 4.402004353752128,
        "distance_elbow_joint": 3.8149431162799243,
        "distance_shoulder_lift_joint": 1.257766510443752,
        "distance_shoulder_pan_joint": 2.8546978867697823,
        "distance_wrist_1_joint": 3.103924526610443,
        "distance_wrist_2_joint": 3.5489362576628247,
        "distance_wrist_3_joint": 6.630970086356066,
        "smoothness": 1.026388144279875,
        "time": 4.883101233,
        "traj_len": 4.6055660221217964,
        "weighted_distance": 6.4129587041480445
    },
    "planner": "LazyPRM",
    "start": {
        "state": {
            "elbow_joint": 0.749534889911806,
            "shoulder_lift_joint": -0.6476975780787326,
            "shoulder_pan_joint": -2.711696901376241,
            "wrist_1_joint": -0.07506478083263063,
            "wrist_2_joint": 0.43296659715538205,
            "wrist_3_joint": -3.14703540197715
        }
    },
    "waypoints": [
        {
            "positions": [
                -2.711696901376241,
                -0.6476975780787326,
                0.749534889911806,
                -0.07506478083263063,
                0.43296659715538205,
                -3.14703540197715
            ]
        },
        {
            "positions": [
                -2.7247333236295344,
                -0.647040322370656,
                0.7676648404207793,
                -0.19355079381699808,
                0.22016546989430336,
                -3.1494101304354123
            ]
        },
        {
            "positions": [
                -2.737769745882827,
                -0.6463830666625794,
                0.7857947909297527,
                -0.3120368068013656,
                0.007364342633224663,
                -3.151784858893674
            ]
        },
        {
            "positions": [
                -2.7508061681361204,
                -0.6457258109545028,
                0.803924741438726,
                -0.43052281978573304,
                -0.20543678462785403,
                -3.1541595873519364
            ]
        },
        {
            "positions": [
                -2.7166751127446878,
                -0.6456183838410947,
                0.6899168966575537,
                -0.39496891570119685,
                -0.3990203803637421,
                -3.1607023650620225
            ]
        },
        {
            "positions": [
                -2.682544057353255,
                -0.6455109567276867,
                0.5759090518763813,
                -0.3594150116166607,
                -0.5926039760996301,
                -3.167245142772109
            ]
        },
        {
            "positions": [
                -2.6484130019618224,
                -0.6454035296142786,
                0.46190120709520893,
                -0.3238611075321245,
                -0.7861875718355182,
                -3.1737879204821953
            ]
        },
        {
            "positions": [
                -2.6142819465703893,
                -0.6452961025008705,
                0.34789336231403656,
                -0.2883072034475883,
                -0.9797711675714063,
                -3.180330698192282
            ]
        },
        {
            "positions": [
                -2.5801508911789566,
                -0.6451886753874625,
                0.23388551753286413,
                -0.25275329936305213,
                -1.1733547633072943,
                -3.186873475902368
            ]
        },
        {
            "positions": [
                -2.546019835787524,
                -0.6450812482740544,
                0.11987767275169181,
                -0.21719939527851595,
                -1.3669383590431823,
                -3.1934162536124546
            ]
        },
        {
            "positions": [
                -2.511888780396091,
                -0.6449738211606464,
                0.005869827970519381,
                -0.18164549119397977,
                -1.5605219547790703,
                -3.199959031322541
            ]
        },
        {
            "positions": [
                -2.4046353435037777,
                -0.6984719956656117,
                0.05154160947583495,
                -0.2125196477454097,
                -1.590473663385752,
                -3.1452012285122133
            ]
        },
        {
            "positions": [
                -2.297381906611464,
                -0.7519701701705771,
                0.09721339098115052,
                -0.24339380429683966,
                -1.6204253719924335,
                -3.0904434257018853
            ]
        },
        {
            "positions": [
                -2.1901284697191503,
                -0.8054683446755424,
                0.1428851724864661,
                -0.2742679608482696,
                -1.6503770805991151,
                -3.035685622891558
            ]
        },
        {
            "positions": [
                -2.1132834050246663,
                -0.8236834835409638,
                0.08849966537458293,
                -0.33841623904111223,
                -1.6302750468909004,
                -2.8820446366164862
            ]
        },
        {
            "positions": [
                -2.0364383403301827,
                -0.8418986224063851,
                0.034114158262699756,
                -0.4025645172339548,
                -1.6101730131826855,
                -2.7284036503414146
            ]
        },
        {
            "positions": [
                -1.9595932756356989,
                -0.8601137612718066,
                -0.020271348849183413,
                -0.46671279542679744,
                -1.5900709794744707,
                -2.5747626640663435
            ]
        },
        {
            "positions": [
                -1.882748210941215,
                -0.878328900137228,
                -0.07465685596106658,
                -0.5308610736196401,
                -1.5699689457662558,
                -2.421121677791272
            ]
        },
        {
            "positions": [
                -1.8059031462467312,
                -0.8965440390026493,
                -0.12904236307294975,
                -0.5950093518124827,
                -1.549866912058041,
                -2.2674806915162002
            ]
        },
        {
            "positions": [
                -1.7290580815522474,
                -0.9147591778680708,
                -0.18342787018483292,
                -0.6591576300053253,
                -1.5297648783498263,
                -2.113839705241129
            ]
        },
        {
            "positions": [
                -1.6522130168577636,
                -0.9329743167334922,
                -0.2378133772967161,
                -0.723305908198168,
                -1.5096628446416114,
                -1.9601987189660572
            ]
        },
        {
            "positions": [
                -1.5753679521632797,
                -0.9511894555989135,
                -0.29219888440859926,
                -0.7874541863910105,
                -1.4895608109333967,
                -1.8065577326909859
            ]
        },
        {
            "positions": [
                -1.498522887468796,
                -0.9694045944643349,
                -0.3465843915204824,
                -0.8516024645838531,
                -1.4694587772251817,
                -1.6529167464159142
            ]
        },
        {
            "positions": [
                -1.421677822774312,
                -0.9876197333297563,
                -0.4009698986323656,
                -0.9157507427766958,
                -1.449356743516967,
                -1.4992757601408429
            ]
        },
        {
            "positions": [
                -1.3448327580798283,
                -1.0058348721951778,
                -0.45535540574424876,
                -0.9798990209695384,
                -1.429254709808752,
                -1.3456347738657715
            ]
        },
        {
            "positions": [
                -1.2679876933853444,
                -1.024050011060599,
                -0.5097409128561319,
                -1.044047299162381,
                -1.4091526761005373,
                -1.1919937875906998
            ]
        },
        {
            "positions": [
                -1.1911426286908608,
                -1.0422651499260205,
                -0.5641264199680152,
                -1.1081955773552237,
                -1.3890506423923226,
                -1.0383528013156285
            ]
        },
        {
            "positions": [
                -1.1142975639963768,
                -1.060480288791442,
                -0.6185119270798982,
                -1.1723438555480663,
                -1.3689486086841076,
                -0.8847118150405566
            ]
        },
        {
            "positions": [
                -1.037452499301893,
                -1.0786954276568634,
                -0.6728974341917815,
                -1.236492133740909,
                -1.3488465749758929,
                -0.7310708287654855
            ]
        },
        {
            "positions": [
                -0.9606074346074092,
                -1.0969105665222847,
                -0.7272829413036646,
                -1.3006404119337516,
                -1.3287445412676782,
                -0.5774298424904138
            ]
        },
        {
            "positions": [
                -0.8837623699129253,
                -1.1151257053877062,
                -0.7816684484155478,
                -1.3647886901265944,
                -1.3086425075594632,
                -0.42378885621534224
            ]
        },
        {
            "positions": [
                -0.8069173052184415,
                -1.1333408442531274,
                -0.8360539555274309,
                -1.4289369683194368,
                -1.2885404738512483,
                -0.2701478699402706
            ]
        },
        {
            "positions": [
                -0.7300722405239577,
                -1.151555983118549,
                -0.890439462639314,
                -1.4930852465122795,
                -1.2684384401430335,
                -0.11650688366519946
            ]
        },
        {
            "positions": [
                -0.6532271758294739,
                -1.1697711219839704,
                -0.9448249697511972,
                -1.557233524705122,
                -1.2483364064348188,
                0.037134102609872155
            ]
        },
        {
            "positions": [
                -0.57638211113499,
                -1.1879862608493916,
                -0.9992104768630803,
                -1.6213818028979647,
                -1.2282343727266039,
                0.19077508888494377
            ]
        },
        {
            "positions": [
                -0.4995370464405062,
                -1.206201399714813,
                -1.0535959839749636,
                -1.6855300810908074,
                -1.2081323390183891,
                0.34441607516001493
            ]
        },
        {
            "positions": [
                -0.4226919817460224,
                -1.2244165385802344,
                -1.1079814910868468,
                -1.74967835928365,
                -1.1880303053101742,
                0.498057061435087
            ]
        },
        {
            "positions": [
                -0.34584691705153864,
                -1.2426316774456558,
                -1.16236699819873,
                -1.8138266374764926,
                -1.1679282716019594,
                0.6516980477101582
            ]
        },
        {
            "positions": [
                -0.32813835069614594,
                -1.27312286732327,
                -1.2755308722352012,
                -1.8519806921688806,
                -1.1344075608579565,
                0.7957787452484824
            ]
        },
        {
            "positions": [
                -0.3104297843407532,
                -1.3036140572008839,
                -1.3886947462716728,
                -1.8901347468612684,
                -1.1008868501139537,
                0.9398594427868066
            ]
        },
        {
            "positions": [
                -0.2927212179853605,
                -1.3341052470784978,
                -1.501858620308144,
                -1.9282888015536563,
                -1.067366139369951,
                1.0839401403251308
            ]
        },
        {
            "positions": [
                -0.27501265162996774,
                -1.3645964369561119,
                -1.6150224943446154,
                -1.9664428562460443,
                -1.033845428625948,
                1.228020837863455
            ]
        },
        {
            "positions": [
                -0.25730408527457505,
                -1.395087626833726,
                -1.728186368381087,
                -2.004596910938432,
                -1.000324717881945,
                1.3721015354017794
            ]
        },
        {
            "positions": [
                -0.2395955189191823,
                -1.42557881671134,
                -1.8413502424175583,
                -2.04275096563082,
                -0.9668040071379422,
                1.5161822329401036
            ]
        },
        {
            "positions": [
                -0.2218869525637896,
                -1.4560700065889538,
                -1.9545141164540296,
                -2.080905020323208,
                -0.9332832963939394,
                1.6602629304784278
            ]
        },
        {
            "positions": [
                -0.20417838620839687,
                -1.486561196466568,
                -2.067677990490501,
                -2.119059075015596,
                -0.8997625856499365,
                1.804343628016752
            ]
        },
        {
            "positions": [
                -0.18646981985300415,
                -1.517052386344182,
                -2.1808418645269727,
                -2.1572131297079835,
                -0.8662418749059336,
                1.9484243255550764
            ]
        },
        {
            "positions": [
                -0.16876125349761142,
                -1.547543576221796,
                -2.294005738563444,
                -2.1953671844003715,
                -0.8327211641619308,
                2.0925050230934006
            ]
        },
        {
            "positions": [
                -0.1510526871422187,
                -1.5780347660994098,
                -2.4071696125999154,
                -2.2335212390927595,
                -0.7992004534179279,
                2.236585720631725
            ]
        },
        {
            "positions": [
                -0.13334412078682598,
                -1.608525955977024,
                -2.5203334866363867,
                -2.2716752937851474,
                -0.765679742673925,
                2.380666418170049
            ]
        },
        {
            "positions": [
                -0.11515998197488347,
                -1.6505549210062236,
                -2.494902639320795,
                -2.225220741724805,
                -0.6887507600385112,
                2.5305623305117138
            ]
        },
        {
            "positions": [
                -0.09697584316294099,
                -1.6925838860354232,
                -2.469471792005203,
                -2.1787661896644623,
                -0.6118217774030974,
                2.6804582428533785
            ]
        },
        {
            "positions": [
                -0.0787917043509985,
                -1.7346128510646228,
                -2.4440409446896116,
                -2.1323116376041202,
                -0.5348927947676837,
                2.8303541551950433
            ]
        },
        {
            "positions": [
                -0.060607565539055996,
                -1.7766418160938224,
                -2.41861009737402,
                -2.0858570855437777,
                -0.4579638121322699,
                2.980250067536708
            ]
        },
        {
            "positions": [
                -0.11351972417802056,
                -1.7372278521984095,
                -2.420156687702064,
                -2.1639329224438324,
                -0.43384767293447923,
                2.9206402912505363
            ]
        },
        {
            "positions": [
                -0.16643188281698512,
                -1.6978138883029965,
                -2.421703278030108,
                -2.2420087593438875,
                -0.40973153373668864,
                2.861030514964364
            ]
        },
        {
            "positions": [
                -0.17621473288443953,
                -1.7200873037038285,
                -2.3929793891663356,
                -2.2082140221274176,
                -0.297258017213738,
                3.0003394177539047
            ]
        },
        {
            "positions": [
                -0.18599758295189395,
                -1.7423607191046604,
                -2.364255500302563,
                -2.1744192849109476,
                -0.1847845006907874,
                3.1396483205434453
            ]
        }
    ]
}