{
    "goal": {
        "global_pose": {
            "orientation": {
                "w": 0.7031023502349854,
                "x": -0.7110244035720825,
                "y": 0.007748599164187908,
                "z": 0.005598929710686207
            },
            "position": {
                "x": 0.11585023208521307,
                "y": 0.44412534475326537,
                "z": 0.3711530566215515
            }
        },
        "name": "move_to_auspresseinheit_A"
    },
    "id": "LazyPRM_move_to_auspresseinheit_A_147",
    "joint_names": [
        "shoulder_pan_joint",
        "shoulder_lift_joint",
        "elbow_joint",
        "wrist_1_joint",
        "wrist_2_joint",
        "wrist_3_joint"
    ],
    "metrics": {
        "cart_traj_len": 0.6693036653539501,
        "distance_elbow_joint": 0.32729996289965113,
        "distance_shoulder_lift_joint": 0.8961924959537726,
        "distance_shoulder_pan_joint": 1.0426532616215223,
        "distance_wrist_1_joint": 0.5620939721941851,
        "distance_wrist_2_joint": 0.5522291514805735,
        "distance_wrist_3_joint": 0.3974792865359351,
        "smoothness": 0.7761504989181717,
        "time": 0.043005077,
        "traj_len": 1.94369445404509,
        "weighted_distance": 2.384791359308455
    },
    "planner": "LazyPRM",
    "start": {
        "state": {
            "elbow_joint": 2.4225746658250005,
            "shoulder_lift_joint": -1.3736534386056498,
            "shoulder_pan_joint": -0.3378633547517467,
            "wrist_1_joint": -1.0288598680537169,
            "wrist_2_joint": 1.233022673432363,
            "wrist_3_joint": -3.0940220416140027
        }
    },
    "waypoints": [
        {
            "positions": [
                -0.3378633547517467,
                -1.3736534386056498,
                2.4225746658250005,
                -1.0288598680537169,
                1.233022673432363,
                -3.0940220416140027
            ]
        },
        {
            "positions": [
                -0.2422766210580567,
                -1.475841370068295,
                2.443743006882485,
                -1.0039294724164123,
                1.155494250590581,
                -3.06802404076506
            ]
        },
        {
            "positions": [
                -0.14668988736436664,
                -1.5780293015309406,
                2.464911347939969,
                -0.9789990767791079,
                1.077965827748799,
                -3.042026039916118
            ]
        },
        {
            "positions": [
                -0.05110315367067658,
                -1.6802172329935858,
                2.4860796889974535,
                -0.9540686811418034,
                1.0004374049070168,
                -3.016028039067175
            ]
        },
        {
            "positions": [
                0.04448358002301345,
                -1.782405164456231,
                2.5072480300549373,
                -0.929138285504499,
                0.9229089820652346,
                -2.9900300382182325
            ]
        },
        {
            "positions": [
                0.14007031371670353,
                -1.8845930959188766,
                2.5284163711124217,
                -0.9042078898671944,
                0.8453805592234525,
                -2.96403203736929
            ]
        },
        {
            "positions": [
                0.23565704741039356,
                -1.9867810273815216,
                2.549584712169906,
                -0.8792774942298899,
                0.7678521363816704,
                -2.9380340365203477
            ]
        },
        {
            "positions": [
                0.33124378110408365,
                -2.088968958844167,
                2.5707530532273903,
                -0.8543470985925854,
                0.6903237135398883,
                -2.912036035671405
            ]
        },
        {
            "positions": [
                0.42463031254550665,
                -2.043749714915353,
                2.525972659353075,
                -0.757451797909322,
                0.692706261436913,
                -2.9659093558197394
            ]
        },
        {
            "positions": [
                0.5180168439869297,
                -1.9985304709865395,
                2.48119226547876,
                -0.6605564972260586,
                0.6950888093339377,
                -3.0197826759680737
            ]
        },
        {
            "positions": [
                0.6114033754283528,
                -1.9533112270577258,
                2.4364118716044443,
                -0.5636611965427952,
                0.6974713572309623,
                -3.073655996116408
            ]
        },
        {
            "positions": [
                0.7047899068697757,
                -1.9080919831289118,
                2.391631477730129,
                -0.4667658958595318,
                0.6998539051279871,
                -3.1275293162647424
            ]
        }
    ]
}