{
    "goal": {
        "global_pose": {
            "orientation": {
                "w": -0.4816463035849501,
                "x": 0.5182115481033762,
                "y": 0.4908360881923453,
                "z": -0.5084816262002911
            },
            "position": {
                "x": -0.8240239810943604,
                "y": -0.300875300988555,
                "z": 0.16403168439865112
            }
        },
        "name": "move_to_storage_C"
    },
    "id": "LazyPRM_move_to_storage_C_91",
    "joint_names": [
        "shoulder_pan_joint",
        "shoulder_lift_joint",
        "elbow_joint",
        "wrist_1_joint",
        "wrist_2_joint",
        "wrist_3_joint"
    ],
    "metrics": {
        "cart_traj_len": 0.5768957706722729,
        "distance_elbow_joint": 0.2593943598230184,
        "distance_shoulder_lift_joint": 0.18945043732790656,
        "distance_shoulder_pan_joint": 0.4937954756477496,
        "distance_wrist_1_joint": 0.08240864347467713,
        "distance_wrist_2_joint": 1.0770114177676642,
        "distance_wrist_3_joint": 0.06290032043566596,
        "smoothness": 2.5376526478085547e-16,
        "time": 0.011716855,
        "traj_len": 1.4713805267423794,
        "weighted_distance": 1.8574663810121452
    },
    "planner": "LazyPRM",
    "start": {
        "state": {
            "elbow_joint": 2.010868314990456,
            "shoulder_lift_joint": -1.1634956873337592,
            "shoulder_pan_joint": -2.4736205022346125,
            "wrist_1_joint": -0.8367026794202681,
            "wrist_2_joint": 0.6746043897044499,
            "wrist_3_joint": -3.1496632123970403
        }
    },
    "waypoints": [
        {
            "positions": [
                -2.4736205022346125,
                -1.1634956873337592,
                2.010868314990456,
                -0.8367026794202681,
                0.6746043897044499,
                -3.1496632123970403
            ]
        },
        {
            "positions": [
                -2.555919748175904,
                -1.1319206144457747,
                1.9676359216866195,
                -0.822967905507822,
                0.8541062926657272,
                -3.1391798256577625
            ]
        },
        {
            "positions": [
                -2.638218994117196,
                -1.1003455415577903,
                1.924403528382783,
                -0.8092331315953757,
                1.0336081956270047,
                -3.128696438918485
            ]
        },
        {
            "positions": [
                -2.720518240058487,
                -1.0687704686698059,
                1.8811711350789466,
                -0.7954983576829295,
                1.213110098588282,
                -3.1182130521792075
            ]
        },
        {
            "positions": [
                -2.8028174859997788,
                -1.0371953957818214,
                1.8379387417751103,
                -0.7817635837704834,
                1.3926120015495593,
                -3.10772966543993
            ]
        },
        {
            "positions": [
                -2.8851167319410704,
                -1.005620322893837,
                1.7947063484712737,
                -0.7680288098580371,
                1.5721139045108368,
                -3.097246278700652
            ]
        },
        {
            "positions": [
                -2.967415977882362,
                -0.9740452500058526,
                1.7514739551674374,
                -0.754294035945591,
                1.7516158074721142,
                -3.0867628919613743
            ]
        }
    ]
}