{
    "goal": {
        "global_pose": {
            "orientation": {
                "w": 0.7031023480610252,
                "x": -0.7110244013736278,
                "y": 0.0077485991402295624,
                "z": 0.005598929693374583
            },
            "position": {
                "x": -0.8841497679147869,
                "y": 0.44412534475326537,
                "z": 0.3711530566215515
            }
        },
        "name": "move_to_auspresseinheit_D"
    },
    "id": "LazyPRMstar_move_to_auspresseinheit_D_54",
    "joint_names": [
        "shoulder_pan_joint",
        "shoulder_lift_joint",
        "elbow_joint",
        "wrist_1_joint",
        "wrist_2_joint",
        "wrist_3_joint"
    ],
    "metrics": {
        "cart_traj_len": 0.3436853029336704,
        "distance_elbow_joint": 0.6635657473615055,
        "distance_shoulder_lift_joint": 0.13555542183421299,
        "distance_shoulder_pan_joint": 0.13355759573670423,
        "distance_wrist_1_joint": 0.6252630398952173,
        "distance_wrist_2_joint": 1.4295739667153773,
        "distance_wrist_3_joint": 0.08335194244132271,
        "smoothness": 3.947459674368863e-16,
        "time": 5.000211843,
        "traj_len": 1.7523891445635984,
        "weighted_distance": 2.300523550298405
    },
    "planner": "LazyPRMstar",
    "start": {
        "state": {
            "elbow_joint": -1.8275523626775212,
            "shoulder_lift_joint": -2.126789852344167,
            "shoulder_pan_joint": -0.03513704404078235,
            "wrist_1_joint": -2.347782403156801,
            "wrist_2_joint": -1.6058999987535132,
            "wrist_3_joint": -3.0880379163319196
        }
    },
    "waypoints": [
        {
            "positions": [
                -0.03513704404078235,
                -2.126789852344167,
                -1.8275523626775212,
                -2.347782403156801,
                -1.6058999987535132,
                -3.0880379163319196
            ]
        },
        {
            "positions": [
                -0.05183174350787038,
                -2.1437342800734434,
                -1.744606644257333,
                -2.425940283143703,
                -1.427203252914091,
                -3.0776189235267544
            ]
        },
        {
            "positions": [
                -0.06852644297495841,
                -2.1606787078027203,
                -1.6616609258371449,
                -2.504098163130605,
                -1.2485065070746688,
                -3.067199930721589
            ]
        },
        {
            "positions": [
                -0.08522114244204643,
                -2.177623135531997,
                -1.5787152074169566,
                -2.5822560431175074,
                -1.0698097612352466,
                -3.0567809379164235
            ]
        },
        {
            "positions": [
                -0.10191584190913447,
                -2.1945675632612733,
                -1.4957694889967685,
                -2.6604139231044095,
                -0.8911130153958245,
                -3.0463619451112582
            ]
        },
        {
            "positions": [
                -0.11861054137622248,
                -2.21151199099055,
                -1.4128237705765803,
                -2.7385718030913115,
                -0.7124162695564024,
                -3.035942952306093
            ]
        },
        {
            "positions": [
                -0.13530524084331053,
                -2.2284564187198264,
                -1.329878052156392,
                -2.816729683078214,
                -0.5337195237169803,
                -3.0255239595009273
            ]
        },
        {
            "positions": [
                -0.15199994031039854,
                -2.2454008464491033,
                -1.2469323337362037,
                -2.894887563065116,
                -0.3550227778775581,
                -3.015104966695762
            ]
        },
        {
            "positions": [
                -0.16869463977748658,
                -2.26234527417838,
                -1.1639866153160157,
                -2.973045443052018,
                -0.17632603203813593,
                -3.004685973890597
            ]
        }
    ]
}