{
    "goal": {
        "global_pose": {
            "orientation": {
                "w": 0.5084816262002911,
                "x": -0.4908360881923452,
                "y": 0.5182115481033761,
                "z": -0.48164630358495003
            },
            "position": {
                "x": 0.5540239810943604,
                "y": -0.46912469901144505,
                "z": 0.16403168439865112
            }
        },
        "name": "move_to_storage_B"
    },
    "id": "LazyPRMstar_move_to_storage_B_45",
    "joint_names": [
        "shoulder_pan_joint",
        "shoulder_lift_joint",
        "elbow_joint",
        "wrist_1_joint",
        "wrist_2_joint",
        "wrist_3_joint"
    ],
    "metrics": {
        "cart_traj_len": 0.648753368428269,
        "distance_elbow_joint": 0.35004809724054553,
        "distance_shoulder_lift_joint": 0.4588127607175192,
        "distance_shoulder_pan_joint": 0.18279396619283006,
        "distance_wrist_1_joint": 2.9878135133066626,
        "distance_wrist_2_joint": 2.699959902158662,
        "distance_wrist_3_joint": 3.1466899111761917,
        "smoothness": 9.868649093137002e-17,
        "time": 5.05972373,
        "traj_len": 3.134663961382848,
        "weighted_distance": 4.66982562721673
    },
    "planner": "LazyPRMstar",
    "start": {
        "state": {
            "elbow_joint": 1.664937868594044,
            "shoulder_lift_joint": -0.661644460510453,
            "shoulder_pan_joint": -0.9139846352900073,
            "wrist_1_joint": 2.146753192139373,
            "wrist_2_joint": -2.2341966793290973,
            "wrist_3_joint": 0.005466555786416001
        }
    },
    "waypoints": [
        {
            "positions": [
                -0.9139846352900073,
                -0.661644460510453,
                1.664937868594044,
                2.146753192139373,
                -2.2341966793290973,
                0.005466555786416001
            ]
        },
        {
            "positions": [
                -0.9433532170915051,
                -0.7018171148979037,
                1.719553553930396,
                2.1098850231342325,
                -2.1303360498621817,
                -0.06064228760468278
            ]
        },
        {
            "positions": [
                -0.9727217988930029,
                -0.7419897692853542,
                1.774169239266748,
                2.073016854129092,
                -2.0264754203952666,
                -0.12675113099578156
            ]
        },
        {
            "positions": [
                -1.0020903806945007,
                -0.7821624236728049,
                1.8287849246031003,
                2.036148685123951,
                -1.922614790928351,
                -0.19285997438688035
            ]
        },
        {
            "positions": [
                -1.0062072598592111,
                -0.7968708931317252,
                1.8368806220479477,
                1.9110526413721582,
                -1.8187722685910503,
                -0.32104968660439753
            ]
        },
        {
            "positions": [
                -1.0103241390239213,
                -0.8115793625906454,
                1.844976319492795,
                1.785956597620365,
                -1.7149297462537496,
                -0.4492393988219147
            ]
        },
        {
            "positions": [
                -1.0144410181886316,
                -0.8262878320495658,
                1.8530720169376422,
                1.660860553868572,
                -1.6110872239164489,
                -0.577429111039432
            ]
        },
        {
            "positions": [
                -1.0185578973533418,
                -0.8409963015084861,
                1.8611677143824896,
                1.535764510116779,
                -1.5072447015791484,
                -0.7056188232569491
            ]
        },
        {
            "positions": [
                -1.0226747765180522,
                -0.8557047709674065,
                1.869263411827337,
                1.410668466364986,
                -1.4034021792418476,
                -0.8338085354744662
            ]
        },
        {
            "positions": [
                -1.0267916556827625,
                -0.8704132404263267,
                1.8773591092721844,
                1.2855724226131928,
                -1.299559656904547,
                -0.9619982476919835
            ]
        },
        {
            "positions": [
                -1.0309085348474727,
                -0.8851217098852471,
                1.8854548067170318,
                1.1604763788613996,
                -1.1957171345672462,
                -1.0901879599095008
            ]
        },
        {
            "positions": [
                -1.035025414012183,
                -0.8998301793441674,
                1.8935505041618792,
                1.0353803351096067,
                -1.0918746122299456,
                -1.2183776721270179
            ]
        },
        {
            "positions": [
                -1.0391422931768934,
                -0.9145386488030878,
                1.9016462016067264,
                0.9102842913578135,
                -0.9880320898926448,
                -1.3465673843445352
            ]
        },
        {
            "positions": [
                -1.0432591723416036,
                -0.929247118262008,
                1.9097418990515738,
                0.7851882476060206,
                -0.8841895675553442,
                -1.4747570965620522
            ]
        },
        {
            "positions": [
                -1.047376051506314,
                -0.9439555877209284,
                1.9178375964964212,
                0.6600922038542274,
                -0.7803470452180434,
                -1.6029468087795695
            ]
        },
        {
            "positions": [
                -1.0514929306710241,
                -0.9586640571798487,
                1.9259332939412686,
                0.5349961601024344,
                -0.6765045228807427,
                -1.7311365209970868
            ]
        },
        {
            "positions": [
                -1.0556098098357345,
                -0.9733725266387689,
                1.934028991386116,
                0.4099001163506415,
                -0.5726620005434422,
                -1.8593262332146039
            ]
        },
        {
            "positions": [
                -1.0597266890004449,
                -0.9880809960976893,
                1.9421246888309633,
                0.2848040725988481,
                -0.4688194782061412,
                -1.9875159454321212
            ]
        },
        {
            "positions": [
                -1.063843568165155,
                -1.0027894655566096,
                1.9502203862758105,
                0.15970802884705515,
                -0.3649769558688407,
                -2.1157056576496385
            ]
        },
        {
            "positions": [
                -1.0679604473298654,
                -1.01749793501553,
                1.958316083720658,
                0.0346119850952622,
                -0.26113443353154,
                -2.2438953698671553
            ]
        },
        {
            "positions": [
                -1.0720773264945755,
                -1.0322064044744503,
                1.9664117811655053,
                -0.09048405865653075,
                -0.15729191119423924,
                -2.3720850820846726
            ]
        },
        {
            "positions": [
                -1.076194205659286,
                -1.0469148739333707,
                1.9745074786103527,
                -0.21558010240832415,
                -0.05344938885693851,
                -2.50027479430219
            ]
        },
        {
            "positions": [
                -1.0803110848239963,
                -1.061623343392291,
                1.9826031760552,
                -0.3406761461601171,
                0.05039313348036223,
                -2.628464506519707
            ]
        },
        {
            "positions": [
                -1.0844279639887064,
                -1.0763318128512112,
                1.9906988735000475,
                -0.46577218991191005,
                0.15423565581766274,
                -2.756654218737224
            ]
        },
        {
            "positions": [
                -1.0885448431534168,
                -1.0910402823101315,
                1.9987945709448947,
                -0.590868233663703,
                0.2580781781549635,
                -2.8848439309547413
            ]
        },
        {
            "positions": [
                -1.092661722318127,
                -1.1057487517690519,
                2.0068902683897423,
                -0.7159642774154964,
                0.3619207004922642,
                -3.0130336431722586
            ]
        },
        {
            "positions": [
                -1.0967786014828373,
                -1.1204572212279722,
                2.0149859658345894,
                -0.8410603211672892,
                0.46576322282956484,
                -3.141223355389776
            ]
        }
    ]
}