{
    "goal": {
        "global_pose": {
            "orientation": {
                "w": 0.7047431468963623,
                "x": -0.7094548344612122,
                "y": 0.0024358443915843964,
                "z": -0.0022348060738295317
            },
            "position": {
                "x": 0.6094750761985779,
                "y": 0.3671506643295288,
                "z": 0.19426114857196808
            }
        },
        "name": "move_to_magneteinheit_A"
    },
    "id": "LazyPRM_move_to_magneteinheit_A_82",
    "joint_names": [
        "shoulder_pan_joint",
        "shoulder_lift_joint",
        "elbow_joint",
        "wrist_1_joint",
        "wrist_2_joint",
        "wrist_3_joint"
    ],
    "metrics": {
        "cart_traj_len": 3.6995126353791186,
        "distance_elbow_joint": 3.9101015711871696,
        "distance_shoulder_lift_joint": 0.7499018246586675,
        "distance_shoulder_pan_joint": 2.577913648494589,
        "distance_wrist_1_joint": 3.450284887863721,
        "distance_wrist_2_joint": 3.2518086550990164,
        "distance_wrist_3_joint": 0.9718765308351665,
        "smoothness": 0.11890014261027967,
        "time": 0.09292805800000001,
        "traj_len": 3.8615912676173187,
        "weighted_distance": 4.8536309833743445
    },
    "planner": "LazyPRM",
    "start": {
        "state": {
            "elbow_joint": -1.9196185241190666,
            "shoulder_lift_joint": -1.2443396400964142,
            "shoulder_pan_joint": 2.6996025414629847,
            "wrist_1_joint": -1.5485510000780065,
            "wrist_2_joint": -1.5709468930060704,
            "wrist_3_joint": 0.4420197071253992
        }
    },
    "waypoints": [
        {
            "positions": [
                2.6996025414629847,
                -1.2443396400964142,
                -1.9196185241190666,
                -1.5485510000780065,
                -1.5709468930060704,
                0.4420197071253992
            ]
        },
        {
            "positions": [
                2.603598016100393,
                -1.2155491559313127,
                -1.8326240304772965,
                -1.5203796576014483,
                -1.451947004249949,
                0.4096494722426867
            ]
        },
        {
            "positions": [
                2.5075934907378006,
                -1.1867586717662115,
                -1.7456295368355261,
                -1.4922083151248902,
                -1.3329471154938277,
                0.37727923735997426
            ]
        },
        {
            "positions": [
                2.4115889653752087,
                -1.15796818760111,
                -1.658635043193756,
                -1.4640369726483322,
                -1.2139472267377063,
                0.34490900247726175
            ]
        },
        {
            "positions": [
                2.315584440012617,
                -1.1291777034360087,
                -1.5716405495519856,
                -1.435865630171774,
                -1.0949473379815848,
                0.31253876759454935
            ]
        },
        {
            "positions": [
                2.2195799146500246,
                -1.1003872192709072,
                -1.4846460559102153,
                -1.4076942876952159,
                -0.9759474492254635,
                0.28016853271183684
            ]
        },
        {
            "positions": [
                2.1235753892874327,
                -1.071596735105806,
                -1.3976515622684451,
                -1.3795229452186577,
                -0.8569475604693421,
                0.24779829782912435
            ]
        },
        {
            "positions": [
                2.027570863924841,
                -1.0428062509407046,
                -1.310657068626675,
                -1.3513516027420995,
                -0.7379476717132207,
                0.21542806294641192
            ]
        },
        {
            "positions": [
                1.9315663385622486,
                -1.0140157667756031,
                -1.2236625749849046,
                -1.3231802602655414,
                -0.6189477829570994,
                0.18305782806369947
            ]
        },
        {
            "positions": [
                1.8355618131996567,
                -0.9852252826105017,
                -1.1366680813431342,
                -1.2950089177889832,
                -0.49994789420097807,
                0.15068759318098696
            ]
        },
        {
            "positions": [
                1.7395572878370646,
                -0.9564347984454004,
                -1.049673587701364,
                -1.2668375753124252,
                -0.38094800544485663,
                0.1183173582982745
            ]
        },
        {
            "positions": [
                1.6435527624744726,
                -0.927644314280299,
                -0.9626790940595938,
                -1.238666232835867,
                -0.2619481166887352,
                0.08594712341556204
            ]
        },
        {
            "positions": [
                1.5475482371118805,
                -0.8988538301151976,
                -0.8756846004178236,
                -1.210494890359309,
                -0.14294822793261375,
                0.05357688853284953
            ]
        },
        {
            "positions": [
                1.4515437117492886,
                -0.8700633459500963,
                -0.7886901067760534,
                -1.182323547882751,
                -0.023948339176492528,
                0.02120665365013713
            ]
        },
        {
            "positions": [
                1.3555391863866966,
                -0.8412728617849949,
                -0.7016956131342833,
                -1.1541522054061928,
                0.09505154957962891,
                -0.011163581232575326
            ]
        },
        {
            "positions": [
                1.2595346610241047,
                -0.8124823776198935,
                -0.6147011194925129,
                -1.1259808629296346,
                0.21405143833575013,
                -0.04353381611528778
            ]
        },
        {
            "positions": [
                1.1635301356615126,
                -0.7836918934547921,
                -0.5277066258507428,
                -1.0978095204530764,
                0.3330513270918716,
                -0.07590405099800024
            ]
        },
        {
            "positions": [
                1.0675256102989206,
                -0.7549014092896907,
                -0.44071213220897243,
                -1.0696381779765183,
                0.4520512158479932,
                -0.10827428588071279
            ]
        },
        {
            "positions": [
                0.9919833540340198,
                -0.7398806481603046,
                -0.3499582343335079,
                -0.9306047196001331,
                0.49222055943094095,
                -0.12692956593079727
            ]
        },
        {
            "positions": [
                0.9164410977691191,
                -0.7248598870309185,
                -0.25920433645804347,
                -0.791571261223748,
                0.5323899030138887,
                -0.14558484598088176
            ]
        },
        {
            "positions": [
                0.8408988415042185,
                -0.7098391259015324,
                -0.16845043858257902,
                -0.652537802847363,
                0.5725592465968364,
                -0.16424012603096624
            ]
        },
        {
            "positions": [
                0.7653565852393177,
                -0.6948183647721464,
                -0.07769654070711451,
                -0.5135043444709778,
                0.6127285901797842,
                -0.1828954060810507
            ]
        },
        {
            "positions": [
                0.689814328974417,
                -0.6797976036427603,
                0.013057357168349992,
                -0.37447088609459267,
                0.6528979337627319,
                -0.2015506861311352
            ]
        },
        {
            "positions": [
                0.6142720727095163,
                -0.6647768425133742,
                0.10381125504381439,
                -0.23543742771820764,
                0.6930672773456796,
                -0.22020596618121968
            ]
        },
        {
            "positions": [
                0.5387298164446156,
                -0.6497560813839881,
                0.1945651529192789,
                -0.09640396934182249,
                0.7332366209286274,
                -0.23886124623130417
            ]
        },
        {
            "positions": [
                0.4631875601797149,
                -0.634735320254602,
                0.28531905079474346,
                0.042629489034562575,
                0.7734059645115752,
                -0.25751652628138866
            ]
        },
        {
            "positions": [
                0.4315004097617425,
                -0.6415039044718852,
                0.396794989285595,
                0.18559042864440975,
                0.7215432689699793,
                -0.2516384466167002
            ]
        },
        {
            "positions": [
                0.39981325934377004,
                -0.6482724886891683,
                0.5082709277764466,
                0.32855136825425696,
                0.6696805734283836,
                -0.24576036695201178
            ]
        },
        {
            "positions": [
                0.3681261089257976,
                -0.6550410729064515,
                0.6197468662672981,
                0.47151230786410414,
                0.6178178778867878,
                -0.23988228728732336
            ]
        },
        {
            "positions": [
                0.34302393647782103,
                -0.6658912849648914,
                0.74626433152354,
                0.6125587368197835,
                0.5509774749376604,
                -0.22298398950569726
            ]
        },
        {
            "positions": [
                0.3179217640298445,
                -0.6767414970233312,
                0.872781796779782,
                0.7536051657754628,
                0.48413707198853295,
                -0.20608569172407115
            ]
        },
        {
            "positions": [
                0.29281959158186793,
                -0.687591709081771,
                0.9992992620360237,
                0.894651594731142,
                0.41729666903940554,
                -0.18918739394244502
            ]
        },
        {
            "positions": [
                0.26771741913389135,
                -0.6984419211402108,
                1.1258167272922657,
                1.0356980236868214,
                0.3504562660902781,
                -0.17228909616081892
            ]
        },
        {
            "positions": [
                0.24261524668591478,
                -0.7092921331986506,
                1.2523341925485076,
                1.1767444526425006,
                0.2836158631411506,
                -0.15539079837919278
            ]
        },
        {
            "positions": [
                0.21751307423793823,
                -0.7201423452570904,
                1.3788516578047494,
                1.3177908815981798,
                0.21677546019202326,
                -0.13849250059756668
            ]
        },
        {
            "positions": [
                0.19241090178996165,
                -0.7309925573155303,
                1.5053691230609914,
                1.4588373105538592,
                0.14993505724289577,
                -0.12159420281594058
            ]
        },
        {
            "positions": [
                0.1747303995845705,
                -0.742002624254512,
                1.6266476040627693,
                1.5695614548618233,
                0.07893883466472257,
                -0.087489709325208
            ]
        },
        {
            "positions": [
                0.15704989737917938,
                -0.7530126911934938,
                1.747926085064547,
                1.6802855991697876,
                0.007942612086549367,
                -0.053385215834475405
            ]
        },
        {
            "positions": [
                0.13936939517378827,
                -0.7640227581324756,
                1.869204566066325,
                1.7910097434777517,
                -0.06305361049162383,
                -0.019280722343742812
            ]
        },
        {
            "positions": [
                0.12168889296839712,
                -0.7750328250714573,
                1.990483047068103,
                1.9017338877857157,
                -0.13404983306979706,
                0.014823771146989767
            ]
        }
    ]
}