{
    "goal": {
        "global_pose": {
            "orientation": {
                "w": 0.005598929693374612,
                "x": 0.007748599140229565,
                "y": 0.7110244013736278,
                "z": -0.7031023480610252
            },
            "position": {
                "x": 0.1141497679147869,
                "y": -0.7141253447532654,
                "z": 0.3711530566215515
            }
        },
        "name": "move_to_auspresseinheit_B"
    },
    "id": "LazyPRM_move_to_auspresseinheit_B_21",
    "joint_names": [
        "shoulder_pan_joint",
        "shoulder_lift_joint",
        "elbow_joint",
        "wrist_1_joint",
        "wrist_2_joint",
        "wrist_3_joint"
    ],
    "metrics": {
        "cart_traj_len": 0.565324427290572,
        "distance_elbow_joint": 0.06567697722295018,
        "distance_shoulder_lift_joint": 0.29374091773642586,
        "distance_shoulder_pan_joint": 0.5769855483049673,
        "distance_wrist_1_joint": 0.3354529768151119,
        "distance_wrist_2_joint": 0.9966872267685214,
        "distance_wrist_3_joint": 0.0008099357168029897,
        "smoothness": 3.806478935924272e-16,
        "time": 0.011793015,
        "traj_len": 1.5064373808973208,
        "weighted_distance": 1.8981869395773483
    },
    "planner": "LazyPRM",
    "start": {
        "state": {
            "elbow_joint": 2.0193083361928714,
            "shoulder_lift_joint": -1.1220246554650708,
            "shoulder_pan_joint": -1.0952077554168747,
            "wrist_1_joint": -0.8559753972642168,
            "wrist_2_joint": 0.4759566250798843,
            "wrist_3_joint": -3.1240929996934557
        }
    },
    "waypoints": [
        {
            "positions": [
                -1.0952077554168747,
                -1.1220246554650708,
                2.0193083361928714,
                -0.8559753972642168,
                0.4759566250798843,
                -3.1240929996934557
            ]
        },
        {
            "positions": [
                -1.1913720134677026,
                -1.1709814750878085,
                2.0083621733223795,
                -0.8000665677950315,
                0.6420711628746378,
                -3.1239580104073217
            ]
        },
        {
            "positions": [
                -1.2875362715185303,
                -1.2199382947105462,
                1.997416010451888,
                -0.7441577383258462,
                0.8081857006693913,
                -3.123823021121188
            ]
        },
        {
            "positions": [
                -1.3837005295693583,
                -1.2688951143332838,
                1.9864698475813962,
                -0.6882489088566608,
                0.974300238464145,
                -3.123688031835054
            ]
        },
        {
            "positions": [
                -1.479864787620186,
                -1.3178519339560213,
                1.9755236847109046,
                -0.6323400793874756,
                1.1404147762588985,
                -3.12355304254892
            ]
        },
        {
            "positions": [
                -1.5760290456710142,
                -1.366808753578759,
                1.964577521840413,
                -0.5764312499182902,
                1.3065293140536522,
                -3.1234180532627867
            ]
        },
        {
            "positions": [
                -1.672193303721842,
                -1.4157655732014967,
                1.9536313589699212,
                -0.5205224204491049,
                1.4726438518484057,
                -3.1232830639766527
            ]
        }
    ]
}