{
    "goal": {
        "global_pose": {
            "orientation": {
                "w": -0.4816463035849501,
                "x": 0.5182115481033762,
                "y": 0.4908360881923453,
                "z": -0.5084816262002911
            },
            "position": {
                "x": -0.8240239810943604,
                "y": -0.300875300988555,
                "z": 0.16403168439865112
            }
        },
        "name": "move_to_storage_C"
    },
    "id": "LazyPRMstar_move_to_storage_C_12",
    "joint_names": [
        "shoulder_pan_joint",
        "shoulder_lift_joint",
        "elbow_joint",
        "wrist_1_joint",
        "wrist_2_joint",
        "wrist_3_joint"
    ],
    "metrics": {
        "cart_traj_len": 0.576414846781453,
        "distance_elbow_joint": 0.25945086037958665,
        "distance_shoulder_lift_joint": 0.18913516888829118,
        "distance_shoulder_pan_joint": 0.4933536699791552,
        "distance_wrist_1_joint": 0.08040617250768534,
        "distance_wrist_2_joint": 1.073674167305513,
        "distance_wrist_3_joint": 0.0712556663856998,
        "smoothness": 0.0,
        "time": 5.000662038,
        "traj_len": 1.4721670100385795,
        "weighted_distance": 1.8611467911023378
    },
    "planner": "LazyPRMstar",
    "start": {
        "state": {
            "elbow_joint": 2.010868314990456,
            "shoulder_lift_joint": -1.1634956873337592,
            "shoulder_pan_joint": -2.4736205022346125,
            "wrist_1_joint": -0.8367026794202681,
            "wrist_2_joint": 0.6746043897044499,
            "wrist_3_joint": -3.1496632123970403
        }
    },
    "waypoints": [
        {
            "positions": [
                -2.4736205022346125,
                -1.1634956873337592,
                2.010868314990456,
                -0.8367026794202681,
                0.6746043897044499,
                -3.1496632123970403
            ]
        },
        {
            "positions": [
                -2.555846113897805,
                -1.1319731591857107,
                1.9676265049271913,
                -0.8233016506689872,
                0.8535500842553687,
                -3.137787267999424
            ]
        },
        {
            "positions": [
                -2.6380717255609976,
                -1.100450631037662,
                1.924384694863927,
                -0.8099006219177063,
                1.0324957788062876,
                -3.125911323601807
            ]
        },
        {
            "positions": [
                -2.7202973372241903,
                -1.0689281028896136,
                1.8811428848006626,
                -0.7964995931664254,
                1.2114414733572065,
                -3.11403537920419
            ]
        },
        {
            "positions": [
                -2.8025229488873826,
                -1.0374055747415651,
                1.837901074737398,
                -0.7830985644151446,
                1.3903871679081252,
                -3.1021594348065737
            ]
        },
        {
            "positions": [
                -2.884748560550575,
                -1.0058830465935165,
                1.7946592646741335,
                -0.7696975356638637,
                1.5693328624590441,
                -3.0902834904089573
            ]
        },
        {
            "positions": [
                -2.9669741722137677,
                -0.974360518445468,
                1.7514174546108692,
                -0.7562965069125828,
                1.7482785570099628,
                -3.0784075460113405
            ]
        }
    ]
}