{
    "goal": {
        "global_pose": {
            "orientation": {
                "w": 0.7031023502349854,
                "x": -0.7110244035720825,
                "y": 0.007748599164187908,
                "z": 0.005598929710686207
            },
            "position": {
                "x": 0.11585023208521307,
                "y": 0.44412534475326537,
                "z": 0.3711530566215515
            }
        },
        "name": "move_to_auspresseinheit_A"
    },
    "id": "LazyPRMstar_move_to_auspresseinheit_A_65",
    "joint_names": [
        "shoulder_pan_joint",
        "shoulder_lift_joint",
        "elbow_joint",
        "wrist_1_joint",
        "wrist_2_joint",
        "wrist_3_joint"
    ],
    "metrics": {
        "cart_traj_len": 0.7267545263374688,
        "distance_elbow_joint": 0.5347351016415662,
        "distance_shoulder_lift_joint": 0.5327104633409394,
        "distance_shoulder_pan_joint": 1.047945327478533,
        "distance_wrist_1_joint": 1.0239420503283094,
        "distance_wrist_2_joint": 0.7452137100374754,
        "distance_wrist_3_joint": 0.11887461778673147,
        "smoothness": 1.4142176234084542,
        "time": 5.011243415,
        "traj_len": 2.0008551348394903,
        "weighted_distance": 2.45159667697458
    },
    "planner": "LazyPRMstar",
    "start": {
        "state": {
            "elbow_joint": 2.4225746658250005,
            "shoulder_lift_joint": -1.3736534386056498,
            "shoulder_pan_joint": -0.3378633547517467,
            "wrist_1_joint": -1.0288598680537169,
            "wrist_2_joint": 1.233022673432363,
            "wrist_3_joint": -3.0940220416140027
        }
    },
    "waypoints": [
        {
            "positions": [
                -0.3378633547517467,
                -1.3736534386056498,
                2.4225746658250005,
                -1.0288598680537169,
                1.233022673432363,
                -3.0940220416140027
            ]
        },
        {
            "positions": [
                -0.3372134979654705,
                -1.409150352223798,
                2.547900877171357,
                -1.1402986764076863,
                1.2900804890865372,
                -3.138354327177177
            ]
        },
        {
            "positions": [
                -0.33656364117919424,
                -1.4446472658419465,
                2.673227088517714,
                -1.2517374847616558,
                1.3471383047407115,
                -3.1826866127403513
            ]
        },
        {
            "positions": [
                -0.2156320483456193,
                -1.4986618187558947,
                2.642780533020713,
                -1.1613008514902488,
                1.2753079929112892,
                -3.180036063515632
            ]
        },
        {
            "positions": [
                -0.09470045551204437,
                -1.552676371669843,
                2.612333977523712,
                -1.0708642182188417,
                1.2034776810818668,
                -3.1773855142909135
            ]
        },
        {
            "positions": [
                0.026231137321530595,
                -1.6066909245837913,
                2.5818874220267114,
                -0.9804275849474348,
                1.1316473692524445,
                -3.1747349650661945
            ]
        },
        {
            "positions": [
                0.1471627301551055,
                -1.6607054774977394,
                2.5514408665297106,
                -0.8899909516760278,
                1.0598170574230221,
                -3.1720844158414754
            ]
        },
        {
            "positions": [
                0.2680943229886805,
                -1.7147200304116879,
                2.5209943110327098,
                -0.7995543184046208,
                0.9879867455935998,
                -3.1694338666167567
            ]
        },
        {
            "positions": [
                0.3890259158222555,
                -1.768734583325636,
                2.490547755535709,
                -0.7091176851332137,
                0.9161564337641774,
                -3.1667833173920377
            ]
        },
        {
            "positions": [
                0.49604460145709905,
                -1.8146110228659538,
                2.456746640213426,
                -0.622969473802571,
                0.8494510311799798,
                -3.1620144002880144
            ]
        },
        {
            "positions": [
                0.6030632870919427,
                -1.8604874624062715,
                2.422945524891144,
                -0.5368212624719282,
                0.7827456285957822,
                -3.1572454831839916
            ]
        },
        {
            "positions": [
                0.7100819727267863,
                -1.9063639019465892,
                2.389144409568861,
                -0.4506730511412854,
                0.7160402260115846,
                -3.1524765660799683
            ]
        }
    ]
}