{
    "goal": {
        "global_pose": {
            "orientation": {
                "w": 0.7047431468963623,
                "x": -0.7094548344612122,
                "y": 0.0024358443915843964,
                "z": -0.0022348060738295317
            },
            "position": {
                "x": 0.6094750761985779,
                "y": 0.3671506643295288,
                "z": 0.19426114857196808
            }
        },
        "name": "move_to_magneteinheit_A"
    },
    "id": "LazyPRM_move_to_magneteinheit_A_122",
    "joint_names": [
        "shoulder_pan_joint",
        "shoulder_lift_joint",
        "elbow_joint",
        "wrist_1_joint",
        "wrist_2_joint",
        "wrist_3_joint"
    ],
    "metrics": {
        "cart_traj_len": 3.0045751288126237,
        "distance_elbow_joint": 3.931386162399705,
        "distance_shoulder_lift_joint": 0.6373428984353733,
        "distance_shoulder_pan_joint": 2.7983098164463285,
        "distance_wrist_1_joint": 3.541854123341756,
        "distance_wrist_2_joint": 2.1090203351484846,
        "distance_wrist_3_joint": 1.040814072290428,
        "smoothness": 0.14024291416598156,
        "time": 0.106363102,
        "traj_len": 3.749496954000907,
        "weighted_distance": 4.668107754875971
    },
    "planner": "LazyPRM",
    "start": {
        "state": {
            "elbow_joint": -1.9196185241190666,
            "shoulder_lift_joint": -1.2443396400964142,
            "shoulder_pan_joint": 2.6996025414629847,
            "wrist_1_joint": -1.5485510000780065,
            "wrist_2_joint": -1.5709468930060704,
            "wrist_3_joint": 0.4420197071253992
        }
    },
    "waypoints": [
        {
            "positions": [
                2.6996025414629847,
                -1.2443396400964142,
                -1.9196185241190666,
                -1.5485510000780065,
                -1.5709468930060704,
                0.4420197071253992
            ]
        },
        {
            "positions": [
                2.611992216598627,
                -1.247314293825242,
                -1.806743709882582,
                -1.44399256081053,
                -1.5116111897019737,
                0.4158564158023591
            ]
        },
        {
            "positions": [
                2.524381891734269,
                -1.2502889475540697,
                -1.6938688956460972,
                -1.3394341215430534,
                -1.4522754863978768,
                0.389693124479319
            ]
        },
        {
            "positions": [
                2.4367715668699113,
                -1.2532636012828973,
                -1.5809940814096126,
                -1.2348756822755769,
                -1.3929397830937802,
                0.3635298331562789
            ]
        },
        {
            "positions": [
                2.349161242005553,
                -1.256238255011725,
                -1.4681192671731278,
                -1.1303172430081005,
                -1.3336040797896833,
                0.33736654183323883
            ]
        },
        {
            "positions": [
                2.261550917141195,
                -1.2592129087405528,
                -1.3552444529366432,
                -1.025758803740624,
                -1.2742683764855867,
                0.3112032505101987
            ]
        },
        {
            "positions": [
                2.1739405922768373,
                -1.2621875624693806,
                -1.2423696387001586,
                -0.9212003644731473,
                -1.2149326731814898,
                0.28503995918715863
            ]
        },
        {
            "positions": [
                2.0863302674124795,
                -1.2651622161982083,
                -1.1294948244636738,
                -0.8166419252056709,
                -1.1555969698773931,
                0.25887666786411856
            ]
        },
        {
            "positions": [
                1.9987199425481217,
                -1.268136869927036,
                -1.0166200102271892,
                -0.7120834859381944,
                -1.0962612665732963,
                0.23271337654107846
            ]
        },
        {
            "positions": [
                1.9111096176837636,
                -1.2711115236558637,
                -0.9037451959907046,
                -0.6075250466707179,
                -1.0369255632691996,
                0.20655008521803836
            ]
        },
        {
            "positions": [
                1.8234992928194058,
                -1.2740861773846914,
                -0.7908703817542198,
                -0.5029666074032415,
                -0.9775898599651028,
                0.1803867938949983
            ]
        },
        {
            "positions": [
                1.7358889679550478,
                -1.2770608311135192,
                -0.6779955675177352,
                -0.39840816813576496,
                -0.9182541566610061,
                0.15422350257195822
            ]
        },
        {
            "positions": [
                1.64827864309069,
                -1.280035484842347,
                -0.5651207532812503,
                -0.2938497288682882,
                -0.8589184533569092,
                0.1280602112489181
            ]
        },
        {
            "positions": [
                1.560668318226332,
                -1.2830101385711745,
                -0.45224593904476573,
                -0.18929128960081187,
                -0.7995827500528125,
                0.10189691992587796
            ]
        },
        {
            "positions": [
                1.473057993361974,
                -1.2859847923000023,
                -0.3393711248082809,
                -0.08473285033333533,
                -0.7402470467487158,
                0.07573362860283789
            ]
        },
        {
            "positions": [
                1.3854476684976162,
                -1.28895944602883,
                -0.2264963105717963,
                0.019825588934141214,
                -0.680911343444619,
                0.049570337279797816
            ]
        },
        {
            "positions": [
                1.2978373436332584,
                -1.2919340997576578,
                -0.11362149633531171,
                0.12438402820161776,
                -0.6215756401405222,
                0.023407045956757744
            ]
        },
        {
            "positions": [
                1.2102270187689006,
                -1.2949087534864856,
                -0.0007466820988268896,
                0.2289424674690943,
                -0.5622399368364255,
                -0.0027562453662823283
            ]
        },
        {
            "positions": [
                1.1226166939045426,
                -1.2978834072153131,
                0.11212813213765749,
                0.3335009067365706,
                -0.5029042335323288,
                -0.028919536689322456
            ]
        },
        {
            "positions": [
                1.0350063690401847,
                -1.300858060944141,
                0.22500294637414253,
                0.43805934600404717,
                -0.44356853022823195,
                -0.05508282801236253
            ]
        },
        {
            "positions": [
                0.9473960441758269,
                -1.3038327146729687,
                0.33787776061062713,
                0.5426177852715235,
                -0.3842328269241353,
                -0.0812461193354026
            ]
        },
        {
            "positions": [
                0.8597857193114691,
                -1.3068073684017965,
                0.45075257484711173,
                0.647176224539,
                -0.32489712362003864,
                -0.10740941065844267
            ]
        },
        {
            "positions": [
                0.772175394447111,
                -1.3097820221306242,
                0.5636273890835963,
                0.7517346638064766,
                -0.26556142031594177,
                -0.13357270198148274
            ]
        },
        {
            "positions": [
                0.684565069582753,
                -1.3127566758594518,
                0.6765022033200814,
                0.8562931030739536,
                -0.2062257170118449,
                -0.15973599330452293
            ]
        },
        {
            "positions": [
                0.5969547447183952,
                -1.3157313295882795,
                0.789377017556566,
                0.9608515423414301,
                -0.146890013707748,
                -0.185899284627563
            ]
        },
        {
            "positions": [
                0.5093444198540373,
                -1.3187059833171073,
                0.9022518317930506,
                1.0654099816089067,
                -0.08755431040365136,
                -0.21206257595060307
            ]
        },
        {
            "positions": [
                0.42173409498967906,
                -1.321680637045935,
                1.0151266460295352,
                1.1699684208763828,
                -0.028218607099554704,
                -0.23822586727364325
            ]
        },
        {
            "positions": [
                0.33412377012532124,
                -1.3246552907747629,
                1.1280014602660202,
                1.2745268601438593,
                0.031117096204542172,
                -0.2643891585966833
            ]
        },
        {
            "positions": [
                0.24651344526096342,
                -1.3276299445035904,
                1.2408762745025048,
                1.3790852994113358,
                0.09045279950863883,
                -0.2905524499197234
            ]
        },
        {
            "positions": [
                0.1589031203966056,
                -1.3306045982324182,
                1.3537510887389894,
                1.4836437386788124,
                0.1497885028127357,
                -0.31671574124276347
            ]
        },
        {
            "positions": [
                0.07129279553224759,
                -1.333579251961246,
                1.4666259029754742,
                1.5882021779462892,
                0.20912420611683238,
                -0.34287903256580354
            ]
        },
        {
            "positions": [
                0.011606935276595905,
                -1.2891802699156045,
                1.5563288291916977,
                1.6956085094197526,
                0.18657572505393227,
                -0.30422676625408573
            ]
        },
        {
            "positions": [
                0.02090894975581246,
                -1.1996379577058187,
                1.646075955521587,
                1.756725736122445,
                0.12988014473977416,
                -0.26193442465667616
            ]
        },
        {
            "positions": [
                0.030210964235029017,
                -1.110095645496033,
                1.7358230818514764,
                1.8178429628251374,
                0.07318456442561602,
                -0.21964208305926655
            ]
        },
        {
            "positions": [
                0.03951297871424558,
                -1.020553333286247,
                1.8255702081813656,
                1.8789601895278298,
                0.016488984111457897,
                -0.17734974146185695
            ]
        },
        {
            "positions": [
                0.0669823676550093,
                -0.9421942106543996,
                1.8876360182144567,
                1.9170745007731367,
                -0.028949020561944337,
                -0.14722106096343066
            ]
        },
        {
            "positions": [
                0.09445175659577301,
                -0.863835088022552,
                1.9497018282475478,
                1.9551888120184433,
                -0.07438702523534657,
                -0.11709238046500435
            ]
        },
        {
            "positions": [
                0.12192114553653674,
                -0.7854759653907044,
                2.011767638280639,
                1.9933031232637501,
                -0.11982502990874881,
                -0.08696369996657805
            ]
        }
    ]
}