{
    "goal": {
        "global_pose": {
            "orientation": {
                "w": -0.4816463035849501,
                "x": 0.5182115481033762,
                "y": 0.4908360881923453,
                "z": -0.5084816262002911
            },
            "position": {
                "x": -0.8240239810943604,
                "y": -0.300875300988555,
                "z": 0.16403168439865112
            }
        },
        "name": "move_to_storage_C"
    },
    "id": "LazyPRMstar_move_to_storage_C_63",
    "joint_names": [
        "shoulder_pan_joint",
        "shoulder_lift_joint",
        "elbow_joint",
        "wrist_1_joint",
        "wrist_2_joint",
        "wrist_3_joint"
    ],
    "metrics": {
        "cart_traj_len": 0.5776092951389169,
        "distance_elbow_joint": 0.2602307196268281,
        "distance_shoulder_lift_joint": 0.19029982349073948,
        "distance_shoulder_pan_joint": 0.4938810011436088,
        "distance_wrist_1_joint": 0.07832382589248021,
        "distance_wrist_2_joint": 1.0770173976752728,
        "distance_wrist_3_joint": 0.057988534570226236,
        "smoothness": 0.0,
        "time": 5.001710597000001,
        "traj_len": 1.4689252201521885,
        "weighted_distance": 1.8517720148839494
    },
    "planner": "LazyPRMstar",
    "start": {
        "state": {
            "elbow_joint": 2.010868314990456,
            "shoulder_lift_joint": -1.1634956873337592,
            "shoulder_pan_joint": -2.4736205022346125,
            "wrist_1_joint": -0.8367026794202681,
            "wrist_2_joint": 0.6746043897044499,
            "wrist_3_joint": -3.1496632123970403
        }
    },
    "waypoints": [
        {
            "positions": [
                -2.4736205022346125,
                -1.1634956873337592,
                2.010868314990456,
                -0.8367026794202681,
                0.6746043897044499,
                -3.1496632123970403
            ]
        },
        {
            "positions": [
                -2.555934002425214,
                -1.1317790500853027,
                1.9674965283859844,
                -0.823648708438188,
                0.8541072893169954,
                -3.139998456635336
            ]
        },
        {
            "positions": [
                -2.6382475026158154,
                -1.100062412836846,
                1.924124741781513,
                -0.810594737456108,
                1.0336101889295408,
                -3.1303337008736314
            ]
        },
        {
            "positions": [
                -2.720561002806417,
                -1.0683457755883894,
                1.8807529551770417,
                -0.7975407664740279,
                1.2131130885420864,
                -3.120668945111927
            ]
        },
        {
            "positions": [
                -2.8028745029970183,
                -1.0366291383399329,
                1.8373811685725705,
                -0.784486795491948,
                1.3926159881546316,
                -3.111004189350223
            ]
        },
        {
            "positions": [
                -2.88518800318762,
                -1.0049125010914763,
                1.7940093819680991,
                -0.7714328245098679,
                1.5721188877671772,
                -3.1013394335885183
            ]
        },
        {
            "positions": [
                -2.9675015033782213,
                -0.9731958638430197,
                1.7506375953636277,
                -0.7583788535277879,
                1.7516217873797228,
                -3.091674677826814
            ]
        }
    ]
}