{
    "goal": {
        "global_pose": {
            "orientation": {
                "w": -0.4816463035849501,
                "x": 0.5182115481033762,
                "y": 0.4908360881923453,
                "z": -0.5084816262002911
            },
            "position": {
                "x": -0.8240239810943604,
                "y": -0.300875300988555,
                "z": 0.16403168439865112
            }
        },
        "name": "move_to_storage_C"
    },
    "id": "LazyPRM_move_to_storage_C_69",
    "joint_names": [
        "shoulder_pan_joint",
        "shoulder_lift_joint",
        "elbow_joint",
        "wrist_1_joint",
        "wrist_2_joint",
        "wrist_3_joint"
    ],
    "metrics": {
        "cart_traj_len": 0.5763166946803439,
        "distance_elbow_joint": 0.2574813160506575,
        "distance_shoulder_lift_joint": 0.18891353756334328,
        "distance_shoulder_pan_joint": 0.49525109389946653,
        "distance_wrist_1_joint": 0.08235250673031602,
        "distance_wrist_2_joint": 1.0652074941845568,
        "distance_wrist_3_joint": 0.06509021676174864,
        "smoothness": 0.0,
        "time": 0.011818699,
        "traj_len": 1.467752078925487,
        "weighted_distance": 1.8525756663705963
    },
    "planner": "LazyPRM",
    "start": {
        "state": {
            "elbow_joint": 2.010868314990456,
            "shoulder_lift_joint": -1.1634956873337592,
            "shoulder_pan_joint": -2.4736205022346125,
            "wrist_1_joint": -0.8367026794202681,
            "wrist_2_joint": 0.6746043897044499,
            "wrist_3_joint": -3.1496632123970403
        }
    },
    "waypoints": [
        {
            "positions": [
                -2.4736205022346125,
                -1.1634956873337592,
                2.010868314990456,
                -0.8367026794202681,
                0.6746043897044499,
                -3.1496632123970403
            ]
        },
        {
            "positions": [
                -2.556162351217857,
                -1.1320100977398686,
                1.9679547623153462,
                -0.8229772616318821,
                0.8521389720685427,
                -3.138814842936749
            ]
        },
        {
            "positions": [
                -2.638704200201101,
                -1.100524508145978,
                1.9250412096402367,
                -0.8092518438434961,
                1.0296735544326356,
                -3.1279664734764574
            ]
        },
        {
            "positions": [
                -2.7212460491843458,
                -1.0690389185520877,
                1.882127656965127,
                -0.79552642605511,
                1.2072081367967282,
                -3.117118104016166
            ]
        },
        {
            "positions": [
                -2.8037878981675903,
                -1.037553328958197,
                1.8392141042900174,
                -0.781801008266724,
                1.3847427191608213,
                -3.1062697345558745
            ]
        },
        {
            "positions": [
                -2.8863297471508345,
                -1.0060677393643065,
                1.796300551614908,
                -0.7680755904783381,
                1.5622773015249138,
                -3.095421365095583
            ]
        },
        {
            "positions": [
                -2.968871596134079,
                -0.9745821497704159,
                1.7533869989397983,
                -0.7543501726899521,
                1.7398118838890069,
                -3.0845729956352916
            ]
        }
    ]
}