{
    "goal": {
        "global_pose": {
            "orientation": {
                "w": 0.7047431468963623,
                "x": -0.7094548344612122,
                "y": 0.0024358443915843964,
                "z": -0.0022348060738295317
            },
            "position": {
                "x": 0.6094750761985779,
                "y": 0.3671506643295288,
                "z": 0.19426114857196808
            }
        },
        "name": "move_to_magneteinheit_A"
    },
    "id": "LazyPRM_move_to_magneteinheit_A_23",
    "joint_names": [
        "shoulder_pan_joint",
        "shoulder_lift_joint",
        "elbow_joint",
        "wrist_1_joint",
        "wrist_2_joint",
        "wrist_3_joint"
    ],
    "metrics": {
        "cart_traj_len": 2.9341225996798603,
        "distance_elbow_joint": 3.909629377588748,
        "distance_shoulder_lift_joint": 0.46860414545599127,
        "distance_shoulder_pan_joint": 2.8079550716997863,
        "distance_wrist_1_joint": 3.463689508525672,
        "distance_wrist_2_joint": 1.4532660037162626,
        "distance_wrist_3_joint": 2.8576805354307986,
        "smoothness": 0.15910030137736378,
        "time": 0.18145229400000001,
        "traj_len": 3.8679225228043617,
        "weighted_distance": 5.058966418698664
    },
    "planner": "LazyPRM",
    "start": {
        "state": {
            "elbow_joint": -1.9196185241190666,
            "shoulder_lift_joint": -1.2443396400964142,
            "shoulder_pan_joint": 2.6996025414629847,
            "wrist_1_joint": -1.5485510000780065,
            "wrist_2_joint": -1.5709468930060704,
            "wrist_3_joint": 0.4420197071253992
        }
    },
    "waypoints": [
        {
            "positions": [
                2.6996025414629847,
                -1.2443396400964142,
                -1.9196185241190666,
                -1.5485510000780065,
                -1.5709468930060704,
                0.4420197071253992
            ]
        },
        {
            "positions": [
                2.5779933338909142,
                -1.2343290573833365,
                -1.8449410186290407,
                -1.462276100652696,
                -1.5455632488890616,
                0.5060415827779428
            ]
        },
        {
            "positions": [
                2.456384126318844,
                -1.224318474670259,
                -1.7702635131390145,
                -1.3760012012273857,
                -1.520179604772053,
                0.5700634584304864
            ]
        },
        {
            "positions": [
                2.334774918746774,
                -1.2143078919571813,
                -1.6955860076489886,
                -1.2897263018020753,
                -1.4947959606550443,
                0.63408533408303
            ]
        },
        {
            "positions": [
                2.2131657111747036,
                -1.2042973092441038,
                -1.6209085021589624,
                -1.2034514023767648,
                -1.4694123165380355,
                0.6981072097355736
            ]
        },
        {
            "positions": [
                2.091556503602633,
                -1.1942867265310262,
                -1.5462309966689365,
                -1.1171765029514544,
                -1.4440286724210267,
                0.7621290853881173
            ]
        },
        {
            "positions": [
                1.969947296030563,
                -1.1842761438179485,
                -1.4715534911789105,
                -1.030901603526144,
                -1.4186450283040182,
                0.8261509610406609
            ]
        },
        {
            "positions": [
                1.8483380884584928,
                -1.174265561104871,
                -1.3968759856888844,
                -0.9446267041008336,
                -1.3932613841870094,
                0.8901728366932045
            ]
        },
        {
            "positions": [
                1.7267288808864225,
                -1.1642549783917933,
                -1.3221984801988584,
                -0.8583518046755232,
                -1.3678777400700006,
                0.9541947123457482
            ]
        },
        {
            "positions": [
                1.6051196733143522,
                -1.1542443956787156,
                -1.2475209747088325,
                -0.7720769052502127,
                -1.3424940959529919,
                1.0182165879982916
            ]
        },
        {
            "positions": [
                1.483510465742282,
                -1.1442338129656382,
                -1.1728434692188063,
                -0.6858020058249022,
                -1.3171104518359833,
                1.0822384636508353
            ]
        },
        {
            "positions": [
                1.3619012581702115,
                -1.1342232302525606,
                -1.0981659637287802,
                -0.5995271063995917,
                -1.2917268077189745,
                1.146260339303379
            ]
        },
        {
            "positions": [
                1.2402920505981414,
                -1.124212647539483,
                -1.0234884582387542,
                -0.5132522069742815,
                -1.2663431636019657,
                1.2102822149559227
            ]
        },
        {
            "positions": [
                1.118682843026071,
                -1.1142020648264053,
                -0.9488109527487282,
                -0.4269773075489709,
                -1.240959519484957,
                1.2743040906084664
            ]
        },
        {
            "positions": [
                0.9970736354540009,
                -1.1041914821133276,
                -0.8741334472587021,
                -0.3407024081236607,
                -1.2155758753679484,
                1.3383259662610099
            ]
        },
        {
            "positions": [
                0.8754644278819304,
                -1.09418089940025,
                -0.7994559417686762,
                -0.25442750869835007,
                -1.1901922312509396,
                1.4023478419135535
            ]
        },
        {
            "positions": [
                0.7538552203098603,
                -1.0841703166871726,
                -0.7247784362786502,
                -0.16815260927303988,
                -1.1648085871339309,
                1.466369717566097
            ]
        },
        {
            "positions": [
                0.6322460127377898,
                -1.074159733974095,
                -0.6501009307886241,
                -0.08187770984772924,
                -1.1394249430169223,
                1.5303915932186407
            ]
        },
        {
            "positions": [
                0.5106368051657197,
                -1.0641491512610173,
                -0.5754234252985981,
                0.004397189577581173,
                -1.1140412988999135,
                1.5944134688711844
            ]
        },
        {
            "positions": [
                0.38902759759364935,
                -1.0541385685479396,
                -0.500745919808572,
                0.0906720890028917,
                -1.0886576547829048,
                1.658435344523728
            ]
        },
        {
            "positions": [
                0.3651234394718512,
                -1.0441762010035724,
                -0.37917799357243426,
                0.1820599142142872,
                -1.0343496854431986,
                1.586449723828879
            ]
        },
        {
            "positions": [
                0.3412192813500531,
                -1.0342138334592053,
                -0.25761006733629654,
                0.2734477394256827,
                -0.9800417161034924,
                1.5144641031340298
            ]
        },
        {
            "positions": [
                0.31731512322825495,
                -1.0242514659148383,
                -0.1360421411001589,
                0.36483556463707817,
                -0.9257337467637863,
                1.4424784824391808
            ]
        },
        {
            "positions": [
                0.2934109651064568,
                -1.014289098370471,
                -0.014474214864021173,
                0.45622338984847366,
                -0.8714257774240802,
                1.3704928617443317
            ]
        },
        {
            "positions": [
                0.2695068069846587,
                -1.004326730826104,
                0.10709371137211654,
                0.5476112150598691,
                -0.8171178080843741,
                1.2985072410494825
            ]
        },
        {
            "positions": [
                0.24560264886286057,
                -0.9943643632817367,
                0.2286616376082542,
                0.6389990402712646,
                -0.7628098387446679,
                1.2265216203546334
            ]
        },
        {
            "positions": [
                0.22169849074106243,
                -0.9844019957373696,
                0.35022956384439197,
                0.7303868654826601,
                -0.7085018694049618,
                1.1545359996597844
            ]
        },
        {
            "positions": [
                0.1977943326192643,
                -0.9744396281930024,
                0.4717974900805296,
                0.8217746906940556,
                -0.6541939000652557,
                1.0825503789649353
            ]
        },
        {
            "positions": [
                0.17389017449746616,
                -0.9644772606486353,
                0.5933654163166673,
                0.9131625159054512,
                -0.5998859307255495,
                1.010564758270086
            ]
        },
        {
            "positions": [
                0.14998601637566802,
                -0.9545148931042682,
                0.714933342552805,
                1.0045503411168466,
                -0.5455779613858434,
                0.938579137575237
            ]
        },
        {
            "positions": [
                0.12608185825386992,
                -0.944552525559901,
                0.8365012687889428,
                1.0959381663282421,
                -0.4912699920461372,
                0.8665935168803879
            ]
        },
        {
            "positions": [
                0.10217770013207178,
                -0.9345901580155338,
                0.9580691950250804,
                1.1873259915396375,
                -0.43696202270643103,
                0.7946078961855387
            ]
        },
        {
            "positions": [
                0.07827354201027364,
                -0.9246277904711667,
                1.0796371212612181,
                1.2787138167510332,
                -0.38265405336672487,
                0.7226222754906897
            ]
        },
        {
            "positions": [
                0.05436938388847551,
                -0.9146654229267995,
                1.201205047497356,
                1.3701016419624286,
                -0.3283460840270188,
                0.6506366547958407
            ]
        },
        {
            "positions": [
                0.030465225766677373,
                -0.9047030553824325,
                1.3227729737334935,
                1.4614894671738239,
                -0.27403811468731265,
                0.5786510341009914
            ]
        },
        {
            "positions": [
                0.006561067644879225,
                -0.8947406878380653,
                1.4443408999696312,
                1.5528772923852197,
                -0.2197301453476065,
                0.5066654134061424
            ]
        },
        {
            "positions": [
                0.016320777949193926,
                -0.8756137843419662,
                1.5538255604261115,
                1.625595184529065,
                -0.1949879618519078,
                0.4192489555845659
            ]
        },
        {
            "positions": [
                0.02608048825350863,
                -0.8564868808458671,
                1.6633102208825918,
                1.6983130766729102,
                -0.1702457783562091,
                0.33183249776298945
            ]
        },
        {
            "positions": [
                0.03584019855782333,
                -0.837359977349768,
                1.772794881339072,
                1.7710309688167554,
                -0.14550359486051043,
                0.24441603994141303
            ]
        },
        {
            "positions": [
                0.045599908862138036,
                -0.818233073853669,
                1.8822795417955522,
                1.8437488609606008,
                -0.12076141136481174,
                0.15699958211983656
            ]
        },
        {
            "positions": [
                0.08353728719434794,
                -0.7969842842470459,
                1.9361451976326165,
                1.8794436847041334,
                -0.12230167240231367,
                0.08708501430554734
            ]
        },
        {
            "positions": [
                0.12147466552655785,
                -0.7757354946404229,
                1.9900108534696808,
                1.915138508447666,
                -0.1238419334398156,
                0.017170446491258116
            ]
        }
    ]
}