{
    "goal": {
        "global_pose": {
            "orientation": {
                "w": 0.005598929693374612,
                "x": 0.007748599140229565,
                "y": 0.7110244013736278,
                "z": -0.7031023480610252
            },
            "position": {
                "x": 0.1141497679147869,
                "y": -0.7141253447532654,
                "z": 0.3711530566215515
            }
        },
        "name": "move_to_auspresseinheit_B"
    },
    "id": "LazyPRMstar_move_to_auspresseinheit_B_54",
    "joint_names": [
        "shoulder_pan_joint",
        "shoulder_lift_joint",
        "elbow_joint",
        "wrist_1_joint",
        "wrist_2_joint",
        "wrist_3_joint"
    ],
    "metrics": {
        "cart_traj_len": 0.5641942017352937,
        "distance_elbow_joint": 0.061333705685991946,
        "distance_shoulder_lift_joint": 0.2946464870300096,
        "distance_shoulder_pan_joint": 0.5740529493901385,
        "distance_wrist_1_joint": 0.3200502626260552,
        "distance_wrist_2_joint": 1.0059428286636178,
        "distance_wrist_3_joint": 0.00868036778324388,
        "smoothness": 0.0,
        "time": 5.000337507999999,
        "traj_len": 1.5048942159431198,
        "weighted_distance": 1.8994895177481812
    },
    "planner": "LazyPRMstar",
    "start": {
        "state": {
            "elbow_joint": 2.0193083361928714,
            "shoulder_lift_joint": -1.1220246554650708,
            "shoulder_pan_joint": -1.0952077554168747,
            "wrist_1_joint": -0.8559753972642168,
            "wrist_2_joint": 0.4759566250798843,
            "wrist_3_joint": -3.1240929996934557
        }
    },
    "waypoints": [
        {
            "positions": [
                -1.0952077554168747,
                -1.1220246554650708,
                2.0193083361928714,
                -0.8559753972642168,
                0.4759566250798843,
                -3.1240929996934557
            ]
        },
        {
            "positions": [
                -1.1908832469818977,
                -1.1711324033034058,
                2.009086051911873,
                -0.8026336868265409,
                0.6436137631904872,
                -3.12553972765733
            ]
        },
        {
            "positions": [
                -1.2865587385469208,
                -1.2202401511417407,
                1.998863767630874,
                -0.749291976388865,
                0.8112709013010901,
                -3.1269864556212035
            ]
        },
        {
            "positions": [
                -1.382234230111944,
                -1.2693478989800755,
                1.9886414833498756,
                -0.6959502659511891,
                0.9789280394116933,
                -3.1284331835850776
            ]
        },
        {
            "positions": [
                -1.477909721676967,
                -1.3184556468184105,
                1.9784191990688769,
                -0.6426085555135134,
                1.1465851775222962,
                -3.1298799115489517
            ]
        },
        {
            "positions": [
                -1.57358521324199,
                -1.3675633946567456,
                1.9681969147878782,
                -0.5892668450758374,
                1.3142423156328993,
                -3.1313266395128254
            ]
        },
        {
            "positions": [
                -1.6692607048070132,
                -1.4166711424950804,
                1.9579746305068795,
                -0.5359251346381616,
                1.4818994537435022,
                -3.1327733674766995
            ]
        }
    ]
}