{
    "goal": {
        "global_pose": {
            "orientation": {
                "w": 0.5084816217422485,
                "x": -0.49083608388900757,
                "y": 0.5182115435600281,
                "z": -0.4816462993621826
            },
            "position": {
                "x": 0.5540239810943604,
                "y": 0.030875300988554955,
                "z": 0.16403168439865112
            }
        },
        "name": "move_to_storage_A"
    },
    "id": "LazyPRMstar_move_to_storage_A_145",
    "joint_names": [
        "shoulder_pan_joint",
        "shoulder_lift_joint",
        "elbow_joint",
        "wrist_1_joint",
        "wrist_2_joint",
        "wrist_3_joint"
    ],
    "metrics": {
        "cart_traj_len": 0.3539826798340686,
        "distance_elbow_joint": 0.45066181880426925,
        "distance_shoulder_lift_joint": 0.23378413165221001,
        "distance_shoulder_pan_joint": 0.46124501899707804,
        "distance_wrist_1_joint": 0.2462817224822892,
        "distance_wrist_2_joint": 1.107390319264948,
        "distance_wrist_3_joint": 0.10411916163013668,
        "smoothness": 4.440892133664971e-16,
        "time": 5.000541118,
        "traj_len": 1.6135309643235642,
        "weighted_distance": 2.0409293319070216
    },
    "planner": "LazyPRMstar",
    "start": {
        "state": {
            "elbow_joint": 1.971548259319323,
            "shoulder_lift_joint": -1.1394851275133948,
            "shoulder_pan_joint": 0.1228115487234821,
            "wrist_1_joint": -0.7804723859257726,
            "wrist_2_joint": 0.12958671773740124,
            "wrist_3_joint": -3.192489227718131
        }
    },
    "waypoints": [
        {
            "positions": [
                0.1228115487234821,
                -1.1394851275133948,
                1.971548259319323,
                -0.7804723859257726,
                0.12958671773740124,
                -3.192489227718131
            ]
        },
        {
            "positions": [
                0.05691940315247096,
                -1.1728828606065678,
                2.0359285191485044,
                -0.8156554891375282,
                0.2877853347752509,
                -3.1776150617709686
            ]
        },
        {
            "positions": [
                -0.00897274241854018,
                -1.2062805936997405,
                2.1003087789776855,
                -0.8508385923492838,
                0.4459839518131006,
                -3.1627408958238066
            ]
        },
        {
            "positions": [
                -0.07486488798955132,
                -1.2396783267929135,
                2.164689038806867,
                -0.8860216955610394,
                0.6041825688509503,
                -3.147866729876644
            ]
        },
        {
            "positions": [
                -0.14075703356056246,
                -1.2730760598860862,
                2.2290692986360483,
                -0.921204798772795,
                0.7623811858888,
                -3.1329925639294816
            ]
        },
        {
            "positions": [
                -0.20664917913157366,
                -1.3064737929792591,
                2.2934495584652295,
                -0.9563879019845506,
                0.9205798029266498,
                -3.118118397982319
            ]
        },
        {
            "positions": [
                -0.27254132470258474,
                -1.3398715260724319,
                2.357829818294411,
                -0.9915710051963063,
                1.0787784199644994,
                -3.103244232035157
            ]
        },
        {
            "positions": [
                -0.33843347027359594,
                -1.3732692591656048,
                2.4222100781235922,
                -1.0267541084080618,
                1.2369770370023492,
                -3.0883700660879945
            ]
        }
    ]
}{
    "goal": {
        "global_pose": {
            "orientation": {
                "w": 0.5084816217422485,
                "x": -0.49083608388900757,
                "y": 0.5182115435600281,
                "z": -0.4816462993621826
            },
            "position": {
                "x": 0.5540239810943604,
                "y": 0.030875300988554955,
                "z": 0.16403168439865112
            }
        },
        "name": "move_to_storage_A"
    },
    "id": "LazyPRMstar_move_to_storage_A_145",
    "joint_names": [
        "shoulder_pan_joint",
        "shoulder_lift_joint",
        "elbow_joint",
        "wrist_1_joint",
        "wrist_2_joint",
        "wrist_3_joint"
    ],
    "metrics": {
        "cart_traj_len": 0.3533471504681756,
        "distance_elbow_joint": 0.45292761470414655,
        "distance_shoulder_lift_joint": 0.2326013356739105,
        "distance_shoulder_pan_joint": 0.45849004666007953,
        "distance_wrist_1_joint": 0.2611288423733036,
        "distance_wrist_2_joint": 1.1137951179230545,
        "distance_wrist_3_joint": 0.09362325486637957,
        "smoothness": 9.992007236661072e-16,
        "time": 5.000529745,
        "traj_len": 1.6163434697491974,
        "weighted_distance": 2.0432172381393987
    },
    "planner": "LazyPRMstar",
    "start": {
        "state": {
            "elbow_joint": 1.97154746011099,
            "shoulder_lift_joint": -1.13948474672311,
            "shoulder_pan_joint": 0.12281154466712228,
            "wrist_1_joint": -0.7804688027058302,
            "wrist_2_joint": 0.12958655903071145,
            "wrist_3_joint": 3.0906928834467795
        }
    },
    "waypoints": [
        {
            "positions": [
                0.12281154466712228,
                -1.13948474672311,
                1.97154746011099,
                -0.7804688027058302,
                0.12958655903071145,
                3.0906928834467795
            ]
        },
        {
            "positions": [
                0.05731296657282521,
                -1.17271350896224,
                2.0362514050687253,
                -0.8177729230448736,
                0.28870014730543353,
                3.1040676341419764
            ]
        },
        {
            "positions": [
                -0.008185611521471861,
                -1.20594227120137,
                2.10095535002646,
                -0.8550770433839169,
                0.4478137355801556,
                3.1174423848371737
            ]
        },
        {
            "positions": [
                -0.07368418961576893,
                -1.2391710334405002,
                2.1656592949841955,
                -0.8923811637229603,
                0.6069273238548777,
                3.1308171355323706
            ]
        },
        {
            "positions": [
                -0.139182767710066,
                -1.2723997956796302,
                2.230363239941931,
                -0.9296852840620037,
                0.7660409121295998,
                3.144191886227568
            ]
        },
        {
            "positions": [
                -0.2046813458043631,
                -1.3056285579187603,
                2.295067184899666,
                -0.966989404401047,
                0.9251545004043219,
                3.157566636922765
            ]
        },
        {
            "positions": [
                -0.27017992389866013,
                -1.3388573201578904,
                2.359771129857401,
                -1.0042935247400904,
                1.084268088679044,
                3.170941387617962
            ]
        },
        {
            "positions": [
                -0.33567850199295723,
                -1.3720860823970205,
                2.4244750748151365,
                -1.0415976450791338,
                1.243381676953766,
                3.184316138313159
            ]
        }
    ]
}{
    "goal": {
        "global_pose": {
            "orientation": {
                "w": 0.5084816217422485,
                "x": -0.49083608388900757,
                "y": 0.5182115435600281,
                "z": -0.4816462993621826
            },
            "position": {
                "x": 0.5540239810943604,
                "y": 0.030875300988554955,
                "z": 0.16403168439865112
            }
        },
        "name": "move_to_storage_A"
    },
    "id": "LazyPRMstar_move_to_storage_A_145",
    "joint_names": [
        "shoulder_pan_joint",
        "shoulder_lift_joint",
        "elbow_joint",
        "wrist_1_joint",
        "wrist_2_joint",
        "wrist_3_joint"
    ],
    "metrics": {
        "cart_traj_len": 0.3524203205339878,
        "distance_elbow_joint": 0.452009634150619,
        "distance_shoulder_lift_joint": 0.23170632791858625,
        "distance_shoulder_pan_joint": 0.46010019775932687,
        "distance_wrist_1_joint": 0.2588167397487058,
        "distance_wrist_2_joint": 1.0993236295503652,
        "distance_wrist_3_joint": 0.10383089752522467,
        "smoothness": 5.551115138160447e-16,
        "time": 5.000856719000001,
        "traj_len": 1.6142451569240739,
        "weighted_distance": 2.0424469616130425
    },
    "planner": "LazyPRMstar",
    "start": {
        "state": {
            "elbow_joint": 1.9715472970024885,
            "shoulder_lift_joint": -1.1394870060712896,
            "shoulder_pan_joint": 0.12281152778156021,
            "wrist_1_joint": -0.780463741449964,
            "wrist_2_joint": 0.12958659822042276,
            "wrist_3_joint": 3.090690232415272
        }
    },
    "waypoints": [
        {
            "positions": [
                0.12281152778156021,
                -1.1394870060712896,
                1.9715472970024885,
                -0.780463741449964,
                0.12958659822042276,
                3.090690232415272
            ]
        },
        {
            "positions": [
                0.05708292810165637,
                -1.172587910059659,
                2.0361201018811483,
                -0.8174375614140649,
                0.28663283101333203,
                3.1055232177760184
            ]
        },
        {
            "positions": [
                -0.008645671578247471,
                -1.2056888140480286,
                2.100692906759808,
                -0.8544113813781656,
                0.44367906380624134,
                3.1203562031367644
            ]
        },
        {
            "positions": [
                -0.0743742712581513,
                -1.238789718036398,
                2.165265711638468,
                -0.8913852013422665,
                0.6007252965991506,
                3.135189188497511
            ]
        },
        {
            "positions": [
                -0.14010287093805515,
                -1.2718906220247674,
                2.2298385165171277,
                -0.9283590213063673,
                0.7577715293920599,
                3.1500221738582574
            ]
        },
        {
            "positions": [
                -0.205831470617959,
                -1.3049915260131368,
                2.294411321395788,
                -0.9653328412704681,
                0.9148177621849694,
                3.164855159219004
            ]
        },
        {
            "positions": [
                -0.2715600702978628,
                -1.3380924300015065,
                2.3589841262744478,
                -1.002306661234569,
                1.0718639949778785,
                3.17968814457975
            ]
        },
        {
            "positions": [
                -0.33728866997776663,
                -1.3711933339898759,
                2.4235569311531076,
                -1.0392804811986698,
                1.228910227770788,
                3.1945211299404965
            ]
        }
    ]
}