{
    "goal": {
        "global_pose": {
            "orientation": {
                "w": -0.4816463035849501,
                "x": 0.5182115481033762,
                "y": 0.4908360881923453,
                "z": -0.5084816262002911
            },
            "position": {
                "x": -0.8240239810943604,
                "y": 0.19912469901144506,
                "z": 0.16403168439865112
            }
        },
        "name": "move_to_storage_D"
    },
    "id": "LazyPRM_move_to_storage_D_34",
    "joint_names": [
        "shoulder_pan_joint",
        "shoulder_lift_joint",
        "elbow_joint",
        "wrist_1_joint",
        "wrist_2_joint",
        "wrist_3_joint"
    ],
    "metrics": {
        "cart_traj_len": 3.841634164858532,
        "distance_elbow_joint": 4.2084732115881796,
        "distance_shoulder_lift_joint": 1.2654413687394452,
        "distance_shoulder_pan_joint": 2.8117322977108272,
        "distance_wrist_1_joint": 2.2646894519747787,
        "distance_wrist_2_joint": 1.3402202388002968,
        "distance_wrist_3_joint": 3.138715120072032,
        "smoothness": 0.03624755015430276,
        "time": 0.142987858,
        "traj_len": 3.876760463181283,
        "weighted_distance": 4.991153335633427
    },
    "planner": "LazyPRM",
    "start": {
        "state": {
            "elbow_joint": -2.384821988534728,
            "shoulder_lift_joint": -2.2788054721415256,
            "shoulder_pan_joint": -0.1854694642142757,
            "wrist_1_joint": 1.4845938289331202,
            "wrist_2_joint": 0.17898776772866878,
            "wrist_3_joint": 0.037105688729662994
        }
    },
    "waypoints": [
        {
            "positions": [
                -0.1854694642142757,
                -2.2788054721415256,
                -2.384821988534728,
                1.4845938289331202,
                0.17898776772866878,
                0.037105688729662994
            ]
        },
        {
            "positions": [
                -0.10383710437514553,
                -2.2739676159595588,
                -2.2975276840242387,
                1.3803089281334269,
                0.2528752448765613,
                0.07685513122587503
            ]
        },
        {
            "positions": [
                -0.02220474453601534,
                -2.2691297597775923,
                -2.21023337951375,
                1.2760240273337338,
                0.3267627220244539,
                0.11660457372208707
            ]
        },
        {
            "positions": [
                0.057587527462456725,
                -2.2334341855144575,
                -2.093062764556965,
                1.2018462215667352,
                0.31805043941738725,
                0.18935970468390678
            ]
        },
        {
            "positions": [
                0.1373797994609288,
                -2.197738611251322,
                -1.9758921496001802,
                1.1276684157997368,
                0.3093381568103207,
                0.2621148356457265
            ]
        },
        {
            "positions": [
                0.21717207145940085,
                -2.1620430369881873,
                -1.8587215346433956,
                1.0534906100327381,
                0.30062587420325404,
                0.3348699666075462
            ]
        },
        {
            "positions": [
                0.2969643434578729,
                -2.126347462725052,
                -1.7415509196866108,
                0.9793128042657396,
                0.29191359159618746,
                0.40762509756936594
            ]
        },
        {
            "positions": [
                0.376756615456345,
                -2.090651888461917,
                -1.6243803047298262,
                0.9051349984987411,
                0.2832013089891208,
                0.48038022853118567
            ]
        },
        {
            "positions": [
                0.45654888745481703,
                -2.0549563141987823,
                -1.5072096897730414,
                0.8309571927317425,
                0.27448902638205425,
                0.5531353594930054
            ]
        },
        {
            "positions": [
                0.5363411594532892,
                -2.019260739935647,
                -1.3900390748162565,
                0.756779386964744,
                0.2657767437749876,
                0.6258904904548251
            ]
        },
        {
            "positions": [
                0.6161334314517612,
                -1.9835651656725122,
                -1.2728684598594717,
                0.6826015811977455,
                0.25706446116792103,
                0.6986456214166449
            ]
        },
        {
            "positions": [
                0.6959257034502333,
                -1.947869591409377,
                -1.155697844902687,
                0.608423775430747,
                0.2483521785608544,
                0.7714007523784645
            ]
        },
        {
            "positions": [
                0.7757179754487054,
                -1.912174017146242,
                -1.0385272299459023,
                0.5342459696637485,
                0.23963989595378782,
                0.8441558833402842
            ]
        },
        {
            "positions": [
                0.8555102474471774,
                -1.876478442883107,
                -0.9213566149891175,
                0.46006816389675,
                0.23092761334672118,
                0.916911014302104
            ]
        },
        {
            "positions": [
                0.9353025194456495,
                -1.8407828686199719,
                -0.8041860000323326,
                0.38589035812975137,
                0.2222153307396546,
                0.9896661452639237
            ]
        },
        {
            "positions": [
                1.0150947914441215,
                -1.805087294356837,
                -0.6870153850755478,
                0.31171255236275286,
                0.21350304813258797,
                1.0624212762257434
            ]
        },
        {
            "positions": [
                1.0948870634425936,
                -1.769391720093702,
                -0.5698447701187632,
                0.23753474659575424,
                0.20479076552552136,
                1.1351764071875632
            ]
        },
        {
            "positions": [
                1.1746793354410656,
                -1.7336961458305669,
                -0.4526741551619782,
                0.16335694082875563,
                0.19607848291845476,
                1.207931538149383
            ]
        },
        {
            "positions": [
                1.2544716074395377,
                -1.6980005715674318,
                -0.3355035402051936,
                0.08917913506175723,
                0.18736620031138815,
                1.2806866691112027
            ]
        },
        {
            "positions": [
                1.3342638794380097,
                -1.6623049973042967,
                -0.21833292524840853,
                0.015001329294758614,
                0.17865391770432154,
                1.3534418000730224
            ]
        },
        {
            "positions": [
                1.4140561514364818,
                -1.6266094230411619,
                -0.10116231029162392,
                -0.05917647647223978,
                0.16994163509725493,
                1.426196931034842
            ]
        },
        {
            "positions": [
                1.493848423434954,
                -1.5909138487780266,
                0.0160083046651609,
                -0.1333542822392384,
                0.1612293524901883,
                1.4989520619966619
            ]
        },
        {
            "positions": [
                1.5736406954334259,
                -1.5552182745148917,
                0.13317891962194528,
                -0.2075320880062368,
                0.15251706988312172,
                1.5717071929584814
            ]
        },
        {
            "positions": [
                1.6534329674318982,
                -1.5195227002517566,
                0.25034953457873055,
                -0.2817098937732354,
                0.14380478727605508,
                1.6444623239203013
            ]
        },
        {
            "positions": [
                1.73322523943037,
                -1.4838271259886215,
                0.36752014953551493,
                -0.3558876995402338,
                0.1350925046689885,
                1.7172174548821209
            ]
        },
        {
            "positions": [
                1.8130175114288423,
                -1.4481315517254865,
                0.4846907644923002,
                -0.43006550530723264,
                0.12638022206192187,
                1.7899725858439406
            ]
        },
        {
            "positions": [
                1.892809783427314,
                -1.4124359774623514,
                0.6018613794490846,
                -0.504243311074231,
                0.11766793945485529,
                1.8627277168057603
            ]
        },
        {
            "positions": [
                1.9726020554257864,
                -1.3767404031992165,
                0.7190319944058694,
                -0.5784211168412297,
                0.10895565684778866,
                1.93548284776758
            ]
        },
        {
            "positions": [
                2.0523943274242584,
                -1.3410448289360815,
                0.8362026093626542,
                -0.652598922608228,
                0.10024337424072208,
                2.0082379787293996
            ]
        },
        {
            "positions": [
                2.1321865994227305,
                -1.3053492546729464,
                0.9533732243194392,
                -0.7267767283752267,
                0.09153109163365544,
                2.0809931096912195
            ]
        },
        {
            "positions": [
                2.1815942228301126,
                -1.2761507395458598,
                1.0404010241928403,
                -0.7321086178418699,
                0.1872524570450268,
                2.190475879602267
            ]
        },
        {
            "positions": [
                2.2310018462374948,
                -1.2469522244187732,
                1.1274288240662416,
                -0.737440507308513,
                0.2829738224563981,
                2.2999586495133144
            ]
        },
        {
            "positions": [
                2.280409469644877,
                -1.2177537092916866,
                1.2144566239396428,
                -0.742772396775156,
                0.37869518786776946,
                2.409441419424362
            ]
        },
        {
            "positions": [
                2.329817093052259,
                -1.1885551941646,
                1.3014844238130439,
                -0.7481042862417993,
                0.4744165532791408,
                2.5189241893354097
            ]
        },
        {
            "positions": [
                2.3792247164596407,
                -1.1593566790375134,
                1.3885122236864451,
                -0.7534361757084425,
                0.5701379186905121,
                2.6284069592464574
            ]
        },
        {
            "positions": [
                2.428632339867023,
                -1.1301581639104268,
                1.4755400235598461,
                -0.7587680651750855,
                0.6658592841018834,
                2.7378897291575046
            ]
        },
        {
            "positions": [
                2.478039963274405,
                -1.1009596487833402,
                1.5625678234332474,
                -0.7640999546417286,
                0.7615806495132548,
                2.8473724990685523
            ]
        },
        {
            "positions": [
                2.527447586681787,
                -1.0717611336562536,
                1.6495956233066487,
                -0.7694318441083718,
                0.8573020149246262,
                2.9568552689796
            ]
        },
        {
            "positions": [
                2.5768552100891693,
                -1.042562618529167,
                1.73662342318005,
                -0.774763733575015,
                0.9530233803359975,
                3.066338038890647
            ]
        },
        {
            "positions": [
                2.6262628334965514,
                -1.0133641034020804,
                1.823651223053451,
                -0.7800956230416581,
                1.0487447457473689,
                3.175820808801695
            ]
        }
    ]
}