{
    "goal": {
        "global_pose": {
            "orientation": {
                "w": 0.7031023502349854,
                "x": -0.7110244035720825,
                "y": 0.007748599164187908,
                "z": 0.005598929710686207
            },
            "position": {
                "x": 0.11585023208521307,
                "y": 0.44412534475326537,
                "z": 0.3711530566215515
            }
        },
        "name": "move_to_auspresseinheit_A"
    },
    "id": "LazyPRM_move_to_auspresseinheit_A_104",
    "joint_names": [
        "shoulder_pan_joint",
        "shoulder_lift_joint",
        "elbow_joint",
        "wrist_1_joint",
        "wrist_2_joint",
        "wrist_3_joint"
    ],
    "metrics": {
        "cart_traj_len": 0.6879351723023615,
        "distance_elbow_joint": 0.03410739427899534,
        "distance_shoulder_lift_joint": 0.5308652251550487,
        "distance_shoulder_pan_joint": 1.0418448079146296,
        "distance_wrist_1_joint": 0.5764435342665385,
        "distance_wrist_2_joint": 0.5339848016207996,
        "distance_wrist_3_joint": 0.0602213149295614,
        "smoothness": 4.93432458514678e-16,
        "time": 0.057270528,
        "traj_len": 1.666573454176435,
        "weighted_distance": 2.0020834258122298
    },
    "planner": "LazyPRM",
    "start": {
        "state": {
            "elbow_joint": 2.4225746658250005,
            "shoulder_lift_joint": -1.3736534386056498,
            "shoulder_pan_joint": -0.3378633547517467,
            "wrist_1_joint": -1.0288598680537169,
            "wrist_2_joint": 1.233022673432363,
            "wrist_3_joint": -3.0940220416140027
        }
    },
    "waypoints": [
        {
            "positions": [
                -0.3378633547517467,
                -1.3736534386056498,
                2.4225746658250005,
                -1.0288598680537169,
                1.233022673432363,
                -3.0940220416140027
            ]
        },
        {
            "positions": [
                -0.20763275376241802,
                -1.440011591750031,
                2.4183112415401262,
                -0.9568044262703995,
                1.166274573229763,
                -3.1015497059801977
            ]
        },
        {
            "positions": [
                -0.07740215277308932,
                -1.506369744894412,
                2.4140478172552515,
                -0.8847489844870823,
                1.0995264730271632,
                -3.109077370346393
            ]
        },
        {
            "positions": [
                0.05282844821623939,
                -1.572727898038793,
                2.4097843929703773,
                -0.8126935427037649,
                1.0327783728245632,
                -3.116605034712588
            ]
        },
        {
            "positions": [
                0.1830590492055681,
                -1.6390860511831742,
                2.4055209686855026,
                -0.7406381009204477,
                0.9660302726219632,
                -3.1241326990787837
            ]
        },
        {
            "positions": [
                0.3132896501948968,
                -1.7054442043275553,
                2.4012575444006283,
                -0.6685826591371303,
                0.8992821724193633,
                -3.1316603634449787
            ]
        },
        {
            "positions": [
                0.4435202511842255,
                -1.7718023574719364,
                2.396994120115754,
                -0.596527217353813,
                0.8325340722167633,
                -3.1391880278111737
            ]
        },
        {
            "positions": [
                0.5737508521735541,
                -1.8381605106163175,
                2.3927306958308794,
                -0.5244717755704957,
                0.7657859720141633,
                -3.146715692177369
            ]
        },
        {
            "positions": [
                0.7039814531628829,
                -1.9045186637606986,
                2.388467271546005,
                -0.4524163337871784,
                0.6990378718115634,
                -3.154243356543564
            ]
        }
    ]
}