{
    "goal": {
        "global_pose": {
            "orientation": {
                "w": 0.5084816262002911,
                "x": -0.4908360881923452,
                "y": 0.5182115481033761,
                "z": -0.48164630358495003
            },
            "position": {
                "x": 0.5540239810943604,
                "y": -0.46912469901144505,
                "z": 0.16403168439865112
            }
        },
        "name": "move_to_storage_B"
    },
    "id": "LazyPRM_move_to_storage_B_62",
    "joint_names": [
        "shoulder_pan_joint",
        "shoulder_lift_joint",
        "elbow_joint",
        "wrist_1_joint",
        "wrist_2_joint",
        "wrist_3_joint"
    ],
    "metrics": {
        "cart_traj_len": 1.66767238873002,
        "distance_elbow_joint": 1.1884219331919224,
        "distance_shoulder_lift_joint": 0.5461570856845102,
        "distance_shoulder_pan_joint": 1.0956550815089194,
        "distance_wrist_1_joint": 3.5788984466132843,
        "distance_wrist_2_joint": 2.7005809386275472,
        "distance_wrist_3_joint": 3.9763478746446053,
        "smoothness": 0.5988551624013548,
        "time": 0.313643023,
        "traj_len": 3.6174661519177747,
        "weighted_distance": 5.226685038798572
    },
    "planner": "LazyPRM",
    "start": {
        "state": {
            "elbow_joint": 1.664937868594044,
            "shoulder_lift_joint": -0.661644460510453,
            "shoulder_pan_joint": -0.9139846352900073,
            "wrist_1_joint": 2.146753192139373,
            "wrist_2_joint": -2.2341966793290973,
            "wrist_3_joint": 0.005466555786416001
        }
    },
    "waypoints": [
        {
            "positions": [
                -0.9139846352900073,
                -0.661644460510453,
                1.664937868594044,
                2.146753192139373,
                -2.2341966793290973,
                0.005466555786416001
            ]
        },
        {
            "positions": [
                -0.8932840712452788,
                -0.6873435306969937,
                1.6652999855208424,
                2.1264108281738556,
                -2.1772615067017798,
                0.025902265896235257
            ]
        },
        {
            "positions": [
                -0.8309511532543484,
                -0.7554601219213085,
                1.605363041932063,
                2.16857341154009,
                -2.1265231206883777,
                -0.03313868721123757
            ]
        },
        {
            "positions": [
                -0.7686182352634182,
                -0.8235767131456233,
                1.5454260983432835,
                2.210735994906324,
                -2.0757847346749756,
                -0.0921796403187104
            ]
        },
        {
            "positions": [
                -0.7062853172724879,
                -0.8916933043699381,
                1.4854891547545042,
                2.2528985782725583,
                -2.0250463486615735,
                -0.15122059342618321
            ]
        },
        {
            "positions": [
                -0.6439523992815577,
                -0.9598098955942529,
                1.4255522111657248,
                2.2950611616387926,
                -1.9743079626481712,
                -0.21026154653365606
            ]
        },
        {
            "positions": [
                -0.5816194812906273,
                -1.0279264868185678,
                1.3656152675769455,
                2.337223745005027,
                -1.923569576634769,
                -0.26930249964112896
            ]
        },
        {
            "positions": [
                -0.5192865632996971,
                -1.0960430780428825,
                1.305678323988166,
                2.379386328371261,
                -1.8728311906213668,
                -0.3283434527486017
            ]
        },
        {
            "positions": [
                -0.4569536453087668,
                -1.1641596692671974,
                1.2457413803993866,
                2.4215489117374953,
                -1.8220928046079647,
                -0.3873844058560746
            ]
        },
        {
            "positions": [
                -0.4806063894394216,
                -1.1625433034550579,
                1.2742043882195224,
                2.300681578438083,
                -1.737334394833653,
                -0.25617605427153844
            ]
        },
        {
            "positions": [
                -0.5042591335700763,
                -1.1609269376429185,
                1.3026673960396584,
                2.179814245138671,
                -1.6525759850593413,
                -0.1249677026870023
            ]
        },
        {
            "positions": [
                -0.5279118777007311,
                -1.159310571830779,
                1.3311304038597942,
                2.058946911839259,
                -1.5678175752850296,
                0.00624064889753384
            ]
        },
        {
            "positions": [
                -0.5515646218313859,
                -1.1576942060186395,
                1.35959341167993,
                1.938079578539847,
                -1.4830591655107181,
                0.13744900048206998
            ]
        },
        {
            "positions": [
                -0.5752173659620408,
                -1.1560778402065,
                1.388056419500066,
                1.817212245240435,
                -1.3983007557364064,
                0.2686573520666061
            ]
        },
        {
            "positions": [
                -0.5988701100926954,
                -1.1544614743943606,
                1.4165194273202018,
                1.6963449119410228,
                -1.3135423459620947,
                0.39986570365114227
            ]
        },
        {
            "positions": [
                -0.6225228542233503,
                -1.1528451085822211,
                1.4449824351403375,
                1.5754775786416106,
                -1.228783936187783,
                0.5310740552356785
            ]
        },
        {
            "positions": [
                -0.6461755983540051,
                -1.1512287427700816,
                1.4734454429604735,
                1.4546102453421987,
                -1.1440255264134715,
                0.6622824068202146
            ]
        },
        {
            "positions": [
                -0.6698283424846598,
                -1.149612376957942,
                1.5019084507806093,
                1.3337429120427866,
                -1.0592671166391598,
                0.7934907584047507
            ]
        },
        {
            "positions": [
                -0.6934810866153146,
                -1.1479960111458027,
                1.5303714586007453,
                1.2128755787433745,
                -0.974508706864848,
                0.9246991099892868
            ]
        },
        {
            "positions": [
                -0.7171338307459694,
                -1.1463796453336632,
                1.558834466420881,
                1.0920082454439624,
                -0.8897502970905364,
                1.055907461573823
            ]
        },
        {
            "positions": [
                -0.7407865748766241,
                -1.1447632795215237,
                1.5872974742410169,
                0.9711409121445502,
                -0.8049918873162247,
                1.1871158131583592
            ]
        },
        {
            "positions": [
                -0.7644393190072789,
                -1.1431469137093841,
                1.6157604820611529,
                0.8502735788451381,
                -0.720233477541913,
                1.3183241647428954
            ]
        },
        {
            "positions": [
                -0.7880920631379338,
                -1.1415305478972448,
                1.6442234898812886,
                0.729406245545726,
                -0.6354750677676013,
                1.4495325163274315
            ]
        },
        {
            "positions": [
                -0.8117448072685886,
                -1.1399141820851053,
                1.6726864977014246,
                0.6085389122463138,
                -0.5507166579932896,
                1.580740867911968
            ]
        },
        {
            "positions": [
                -0.8353975513992433,
                -1.1382978162729658,
                1.7011495055215604,
                0.48767157894690194,
                -0.46595824821897813,
                1.7119492194965038
            ]
        },
        {
            "positions": [
                -0.8590502955298981,
                -1.1366814504608262,
                1.7296125133416962,
                0.3668042456474896,
                -0.3811998384446662,
                1.8431575710810404
            ]
        },
        {
            "positions": [
                -0.8827030396605529,
                -1.135065084648687,
                1.7580755211618322,
                0.2459369123480779,
                -0.2964414286703547,
                1.974365922665576
            ]
        },
        {
            "positions": [
                -0.9063557837912076,
                -1.1334487188365474,
                1.786538528981968,
                0.12506957904866534,
                -0.21168301889604302,
                2.1055742742501127
            ]
        },
        {
            "positions": [
                -0.9300085279218624,
                -1.1318323530244079,
                1.8150015368021037,
                0.0042022457492536525,
                -0.1269246091217313,
                2.2367826258346484
            ]
        },
        {
            "positions": [
                -0.9536612720525173,
                -1.1302159872122683,
                1.8434645446222397,
                -0.11666508755015892,
                -0.04216619934741961,
                2.367990977419185
            ]
        },
        {
            "positions": [
                -0.9773140161831719,
                -1.128599621400129,
                1.8719275524423755,
                -0.2375324208495706,
                0.042592210426891874,
                2.4991993290037207
            ]
        },
        {
            "positions": [
                -1.0009667603138268,
                -1.1269832555879895,
                1.9003905602625113,
                -0.35839975414898273,
                0.1273506202012038,
                2.6304076805882572
            ]
        },
        {
            "positions": [
                -1.0246195044444815,
                -1.12536688977585,
                1.9288535680826473,
                -0.47926708744839486,
                0.21210902997551528,
                2.761616032172793
            ]
        },
        {
            "positions": [
                -1.0482722485751363,
                -1.1237505239637104,
                1.9573165759027833,
                -0.600134420747807,
                0.296867439749827,
                2.8928243837573295
            ]
        },
        {
            "positions": [
                -1.071924992705791,
                -1.1221341581515711,
                1.9857795837229189,
                -0.7210017540472191,
                0.3816258495241387,
                3.0240327353418657
            ]
        },
        {
            "positions": [
                -1.0955777368364459,
                -1.1205177923394316,
                2.014242591543055,
                -0.8418690873466314,
                0.46638425929845023,
                3.155241086926402
            ]
        }
    ]
}