{
    "goal": {
        "global_pose": {
            "orientation": {
                "w": 0.5084816262002911,
                "x": -0.4908360881923452,
                "y": 0.5182115481033761,
                "z": -0.48164630358495003
            },
            "position": {
                "x": 0.5540239810943604,
                "y": -0.46912469901144505,
                "z": 0.16403168439865112
            }
        },
        "name": "move_to_storage_B"
    },
    "id": "LazyPRMstar_move_to_storage_B_121",
    "joint_names": [
        "shoulder_pan_joint",
        "shoulder_lift_joint",
        "elbow_joint",
        "wrist_1_joint",
        "wrist_2_joint",
        "wrist_3_joint"
    ],
    "metrics": {
        "cart_traj_len": 0.6562434026943124,
        "distance_elbow_joint": 0.35303880758608663,
        "distance_shoulder_lift_joint": 0.4597854612279886,
        "distance_shoulder_pan_joint": 0.26141494393396025,
        "distance_wrist_1_joint": 3.053521718765645,
        "distance_wrist_2_joint": 2.7076290057923513,
        "distance_wrist_3_joint": 3.134847605655141,
        "smoothness": 0.09491185146025423,
        "time": 5.056223104,
        "traj_len": 3.1575682958506492,
        "weighted_distance": 4.690531257632705
    },
    "planner": "LazyPRMstar",
    "start": {
        "state": {
            "elbow_joint": 1.664937868594044,
            "shoulder_lift_joint": -0.661644460510453,
            "shoulder_pan_joint": -0.9139846352900073,
            "wrist_1_joint": 2.146753192139373,
            "wrist_2_joint": -2.2341966793290973,
            "wrist_3_joint": 0.005466555786416001
        }
    },
    "waypoints": [
        {
            "positions": [
                -0.9139846352900073,
                -0.661644460510453,
                1.664937868594044,
                2.146753192139373,
                -2.2341966793290973,
                0.005466555786416001
            ]
        },
        {
            "positions": [
                -0.8942993147593159,
                -0.705759592327168,
                1.7129472376910182,
                2.161848752071995,
                -2.1365017555596912,
                -0.02363437426759745
            ]
        },
        {
            "positions": [
                -0.8746139942286246,
                -0.7498747241438829,
                1.7609566067879927,
                2.176944312004616,
                -2.038806831790285,
                -0.0527353043216109
            ]
        },
        {
            "positions": [
                -0.8838658401816487,
                -0.7653561907103228,
                1.7716657763459984,
                2.0509722037170994,
                -1.9341302001963878,
                -0.18092887705274063
            ]
        },
        {
            "positions": [
                -0.8931176861346728,
                -0.7808376572767628,
                1.7823749459040041,
                1.9250000954295827,
                -1.8294535686024902,
                -0.3091224497838704
            ]
        },
        {
            "positions": [
                -0.9023695320876968,
                -0.7963191238432027,
                1.7930841154620099,
                1.7990279871420658,
                -1.7247769370085928,
                -0.4373160225150001
            ]
        },
        {
            "positions": [
                -0.9116213780407209,
                -0.8118005904096427,
                1.8037932850200158,
                1.673055878854549,
                -1.6201003054146954,
                -0.5655095952461299
            ]
        },
        {
            "positions": [
                -0.9208732239937449,
                -0.8272820569760826,
                1.8145024545780215,
                1.5470837705670322,
                -1.5154236738207978,
                -0.6937031679772596
            ]
        },
        {
            "positions": [
                -0.930125069946769,
                -0.8427635235425226,
                1.8252116241360272,
                1.4211116622795155,
                -1.4107470422269004,
                -0.8218967407083894
            ]
        },
        {
            "positions": [
                -0.9393769158997931,
                -0.8582449901089625,
                1.835920793694033,
                1.2951395539919988,
                -1.3060704106330028,
                -0.9500903134395192
            ]
        },
        {
            "positions": [
                -0.9486287618528172,
                -0.8737264566754025,
                1.8466299632520387,
                1.169167445704482,
                -1.2013937790391056,
                -1.078283886170649
            ]
        },
        {
            "positions": [
                -0.9578806078058413,
                -0.8892079232418424,
                1.8573391328100444,
                1.0431953374169654,
                -1.096717147445208,
                -1.2064774589017786
            ]
        },
        {
            "positions": [
                -0.9671324537588653,
                -0.9046893898082824,
                1.86804830236805,
                0.9172232291294484,
                -0.9920405158513104,
                -1.3346710316329085
            ]
        },
        {
            "positions": [
                -0.9763842997118893,
                -0.9201708563747223,
                1.8787574719260558,
                0.7912511208419319,
                -0.8873638842574132,
                -1.462864604364038
            ]
        },
        {
            "positions": [
                -0.9856361456649134,
                -0.9356523229411622,
                1.8894666414840615,
                0.665279012554415,
                -0.7826872526635156,
                -1.591058177095168
            ]
        },
        {
            "positions": [
                -0.9948879916179375,
                -0.9511337895076022,
                1.9001758110420675,
                0.5393069042668983,
                -0.6780106210696182,
                -1.7192517498262976
            ]
        },
        {
            "positions": [
                -1.0041398375709616,
                -0.9666152560740422,
                1.9108849806000732,
                0.4133347959793814,
                -0.5733339894757206,
                -1.8474453225574277
            ]
        },
        {
            "positions": [
                -1.0133916835239856,
                -0.9820967226404821,
                1.9215941501580789,
                0.2873626876918647,
                -0.46865735788182317,
                -1.9756388952885573
            ]
        },
        {
            "positions": [
                -1.0226435294770098,
                -0.997578189206922,
                1.9323033197160846,
                0.16139057940434798,
                -0.36398072628792577,
                -2.1038324680196867
            ]
        },
        {
            "positions": [
                -1.0318953754300337,
                -1.013059655773362,
                1.9430124892740903,
                0.035418471116831274,
                -0.25930409469402815,
                -2.232026040750817
            ]
        },
        {
            "positions": [
                -1.0411472213830577,
                -1.028541122339802,
                1.953721658832096,
                -0.09055363717068543,
                -0.15462746310013076,
                -2.360219613481946
            ]
        },
        {
            "positions": [
                -1.050399067336082,
                -1.0440225889062418,
                1.9644308283901017,
                -0.21652574545820213,
                -0.04995083150623336,
                -2.4884131862130756
            ]
        },
        {
            "positions": [
                -1.0596509132891059,
                -1.0595040554726818,
                1.9751399979481077,
                -0.3424978537457193,
                0.05472580008766448,
                -2.6166067589442057
            ]
        },
        {
            "positions": [
                -1.06890275924213,
                -1.0749855220391218,
                1.9858491675061134,
                -0.468469962033236,
                0.15940243168156165,
                -2.7448003316753353
            ]
        },
        {
            "positions": [
                -1.078154605195154,
                -1.0904669886055616,
                1.9965583370641191,
                -0.5944420703207522,
                0.2640790632754588,
                -2.872993904406465
            ]
        },
        {
            "positions": [
                -1.0874064511481782,
                -1.1059484551720016,
                2.007267506622125,
                -0.7204141786082694,
                0.3687556948693569,
                -3.001187477137595
            ]
        },
        {
            "positions": [
                -1.0966582971012022,
                -1.1214299217384416,
                2.0179766761801305,
                -0.8463862868957861,
                0.4734323264632539,
                -3.1293810498687247
            ]
        }
    ]
}