{
    "goal": {
        "global_pose": {
            "orientation": {
                "w": -0.4816463035849501,
                "x": 0.5182115481033762,
                "y": 0.4908360881923453,
                "z": -0.5084816262002911
            },
            "position": {
                "x": -0.8240239810943604,
                "y": -0.300875300988555,
                "z": 0.16403168439865112
            }
        },
        "name": "move_to_storage_C"
    },
    "id": "LazyPRMstar_move_to_storage_C_55",
    "joint_names": [
        "shoulder_pan_joint",
        "shoulder_lift_joint",
        "elbow_joint",
        "wrist_1_joint",
        "wrist_2_joint",
        "wrist_3_joint"
    ],
    "metrics": {
        "cart_traj_len": 0.575855786386824,
        "distance_elbow_joint": 0.25410446116158236,
        "distance_shoulder_lift_joint": 0.18919376120151854,
        "distance_shoulder_pan_joint": 0.4943006138199313,
        "distance_wrist_1_joint": 0.06439163783464852,
        "distance_wrist_2_joint": 1.0653714558191925,
        "distance_wrist_3_joint": 0.060976295360991806,
        "smoothness": 0.0,
        "time": 5.0004795369999995,
        "traj_len": 1.4588825261815515,
        "weighted_distance": 1.8384922924977656
    },
    "planner": "LazyPRMstar",
    "start": {
        "state": {
            "elbow_joint": 2.010868314990456,
            "shoulder_lift_joint": -1.1634956873337592,
            "shoulder_pan_joint": -2.4736205022346125,
            "wrist_1_joint": -0.8367026794202681,
            "wrist_2_joint": 0.6746043897044499,
            "wrist_3_joint": -3.1496632123970403
        }
    },
    "waypoints": [
        {
            "positions": [
                -2.4736205022346125,
                -1.1634956873337592,
                2.010868314990456,
                -0.8367026794202681,
                0.6746043897044499,
                -3.1496632123970403
            ]
        },
        {
            "positions": [
                -2.556003937871268,
                -1.1319633938001727,
                1.9685175714635255,
                -0.82597073978116,
                0.8521662990076486,
                -3.139500496503542
            ]
        },
        {
            "positions": [
                -2.638387373507923,
                -1.1004311002665863,
                1.926166827936595,
                -0.815238800142052,
                1.0297282083108474,
                -3.129337780610043
            ]
        },
        {
            "positions": [
                -2.720770809144578,
                -1.0688988067329999,
                1.8838160844096645,
                -0.8045068605029438,
                1.207290117614046,
                -3.1191750647165444
            ]
        },
        {
            "positions": [
                -2.803154244781233,
                -1.0373665131994134,
                1.8414653408827342,
                -0.7937749208638357,
                1.3848520269172448,
                -3.109012348823046
            ]
        },
        {
            "positions": [
                -2.8855376804178885,
                -1.005834219665827,
                1.7991145973558038,
                -0.7830429812247277,
                1.5624139362204437,
                -3.098849632929547
            ]
        },
        {
            "positions": [
                -2.967921116054544,
                -0.9743019261322406,
                1.7567638538288735,
                -0.7723110415856196,
                1.7399758455236425,
                -3.0886869170360485
            ]
        }
    ]
}