{
    "goal": {
        "global_pose": {
            "orientation": {
                "w": 0.7031023502349854,
                "x": -0.7110244035720825,
                "y": 0.007748599164187908,
                "z": 0.005598929710686207
            },
            "position": {
                "x": 0.11585023208521307,
                "y": 0.44412534475326537,
                "z": 0.3711530566215515
            }
        },
        "name": "move_to_auspresseinheit_A"
    },
    "id": "LazyPRM_move_to_auspresseinheit_A_66",
    "joint_names": [
        "shoulder_pan_joint",
        "shoulder_lift_joint",
        "elbow_joint",
        "wrist_1_joint",
        "wrist_2_joint",
        "wrist_3_joint"
    ],
    "metrics": {
        "cart_traj_len": 0.9321502865501444,
        "distance_elbow_joint": 0.9604604403347254,
        "distance_shoulder_lift_joint": 0.6515057234121064,
        "distance_shoulder_pan_joint": 1.0450513783876207,
        "distance_wrist_1_joint": 2.220459631179332,
        "distance_wrist_2_joint": 1.0435093575725516,
        "distance_wrist_3_joint": 2.1128386629391125,
        "smoothness": 0.6071257868073944,
        "time": 0.099032657,
        "traj_len": 2.834400323494451,
        "weighted_distance": 3.9399836939326995
    },
    "planner": "LazyPRM",
    "start": {
        "state": {
            "elbow_joint": 2.4225746658250005,
            "shoulder_lift_joint": -1.3736534386056498,
            "shoulder_pan_joint": -0.3378633547517467,
            "wrist_1_joint": -1.0288598680537169,
            "wrist_2_joint": 1.233022673432363,
            "wrist_3_joint": -3.0940220416140027
        }
    },
    "waypoints": [
        {
            "positions": [
                -0.3378633547517467,
                -1.3736534386056498,
                2.4225746658250005,
                -1.0288598680537169,
                1.233022673432363,
                -3.0940220416140027
            ]
        },
        {
            "positions": [
                -0.30757902511426843,
                -1.3873320083877312,
                2.3676325739691357,
                -0.8744189527406796,
                1.1958311745533319,
                -3.02730966882282
            ]
        },
        {
            "positions": [
                -0.2772946954767901,
                -1.4010105781698126,
                2.3126904821132714,
                -0.7199780374276423,
                1.1586396756743007,
                -2.9605972960316373
            ]
        },
        {
            "positions": [
                -0.2470103658393118,
                -1.4146891479518937,
                2.2577483902574067,
                -0.565537122114605,
                1.1214481767952693,
                -2.893884923240455
            ]
        },
        {
            "positions": [
                -0.21672603620183345,
                -1.428367717733975,
                2.202806298401542,
                -0.4110962068015678,
                1.0842566779162381,
                -2.8271725504492724
            ]
        },
        {
            "positions": [
                -0.18644170656435513,
                -1.4420462875160565,
                2.1478642065456777,
                -0.2566552914885305,
                1.047065179037207,
                -2.7604601776580897
            ]
        },
        {
            "positions": [
                -0.15615737692687684,
                -1.4557248572981378,
                2.092922114689813,
                -0.10221437617549323,
                1.0098736801581758,
                -2.693747804866907
            ]
        },
        {
            "positions": [
                -0.12587304728939852,
                -1.469403427080219,
                2.037980022833948,
                0.05222653913754405,
                0.9726821812791445,
                -2.6270354320757248
            ]
        },
        {
            "positions": [
                -0.0955887176519202,
                -1.4830819968623004,
                1.983037930978084,
                0.20666745445058132,
                0.9354906824001132,
                -2.560323059284542
            ]
        },
        {
            "positions": [
                -0.06530438801444191,
                -1.4967605666443817,
                1.9280958391222192,
                0.36110836976361854,
                0.8982991835210821,
                -2.4936106864933594
            ]
        },
        {
            "positions": [
                0.03240065352185534,
                -1.5725247953120105,
                1.9766805288909488,
                0.35927734454183125,
                0.8233887911530775,
                -2.4206930194989007
            ]
        },
        {
            "positions": [
                0.1301056950581526,
                -1.648289023979639,
                2.0252652186596785,
                0.3574463193200439,
                0.7484783987850728,
                -2.347775352504442
            ]
        },
        {
            "positions": [
                0.22781073659444986,
                -1.7240532526472678,
                2.073849908428408,
                0.35561529409825654,
                0.6735680064170683,
                -2.2748576855099834
            ]
        },
        {
            "positions": [
                0.32551577813074706,
                -1.7998174813148964,
                2.1224345981971373,
                0.35378426887646924,
                0.5986576140490636,
                -2.2019400185155247
            ]
        },
        {
            "positions": [
                0.4232208196670444,
                -1.8755817099825252,
                2.171019287965867,
                0.35195324365468195,
                0.523747221681059,
                -2.129022351521066
            ]
        },
        {
            "positions": [
                0.5209258612033416,
                -1.951345938650154,
                2.2196039777345966,
                0.3501222184328946,
                0.4488368293130544,
                -2.0561046845266073
            ]
        },
        {
            "positions": [
                0.5665567707522449,
                -1.9675118497083381,
                2.253492520981328,
                0.2555587640249073,
                0.4604557322965701,
                -2.155670142725034
            ]
        },
        {
            "positions": [
                0.5899953128995163,
                -1.957903964323435,
                2.276923342943467,
                0.13473513275435983,
                0.5017398340415247,
                -2.3182294506672494
            ]
        },
        {
            "positions": [
                0.6134338550467878,
                -1.9482960789385322,
                2.3003541649056065,
                0.013911501483812344,
                0.5430239357864792,
                -2.480788758609464
            ]
        },
        {
            "positions": [
                0.6368723971940593,
                -1.938688193553629,
                2.3237849868677456,
                -0.10691212978673514,
                0.5843080375314338,
                -2.6433480665516793
            ]
        },
        {
            "positions": [
                0.6603109393413309,
                -1.929080308168726,
                2.3472158088298847,
                -0.2277357610572826,
                0.6255921392763883,
                -2.805907374493894
            ]
        },
        {
            "positions": [
                0.6837494814886024,
                -1.9194724227838231,
                2.370646630792024,
                -0.3485593923278302,
                0.6668762410213429,
                -2.9684666824361097
            ]
        },
        {
            "positions": [
                0.7071880236358739,
                -1.90986453739892,
                2.3940774527541633,
                -0.4693830235983776,
                0.7081603427662975,
                -3.1310259903783244
            ]
        }
    ]
}