{
    "goal": {
        "global_pose": {
            "orientation": {
                "w": 0.7047431493862688,
                "x": -0.7094548369677653,
                "y": 0.0024358444001904,
                "z": -0.0022348060817251984
            },
            "position": {
                "x": -0.39052492380142206,
                "y": 0.3671506643295288,
                "z": 0.19426114857196808
            }
        },
        "name": "move_to_magneteinheit_D"
    },
    "id": "LazyPRMstar_move_to_magneteinheit_D_121",
    "joint_names": [
        "shoulder_pan_joint",
        "shoulder_lift_joint",
        "elbow_joint",
        "wrist_1_joint",
        "wrist_2_joint",
        "wrist_3_joint"
    ],
    "metrics": {
        "cart_traj_len": 4.521415724716148,
        "distance_elbow_joint": 3.43982542117977,
        "distance_shoulder_lift_joint": 2.6847964467594454,
        "distance_shoulder_pan_joint": 3.668909917155743,
        "distance_wrist_1_joint": 2.6840628648051643,
        "distance_wrist_2_joint": 1.4273538140767021,
        "distance_wrist_3_joint": 3.2061574511703403,
        "smoothness": 0.5203629309753977,
        "time": 5.035004658999999,
        "traj_len": 4.136557253942845,
        "weighted_distance": 5.2568847710758995
    },
    "planner": "LazyPRMstar",
    "start": {
        "state": {
            "elbow_joint": 0.749534889911806,
            "shoulder_lift_joint": -0.6476975780787326,
            "shoulder_pan_joint": -2.711696901376241,
            "wrist_1_joint": -0.07506478083263063,
            "wrist_2_joint": 0.43296659715538205,
            "wrist_3_joint": -3.14703540197715
        }
    },
    "waypoints": [
        {
            "positions": [
                -2.711696901376241,
                -0.6476975780787326,
                0.749534889911806,
                -0.07506478083263063,
                0.43296659715538205,
                -3.14703540197715
            ]
        },
        {
            "positions": [
                -2.727815783637785,
                -0.7673355095193687,
                0.7231988187331844,
                -0.0838877665908105,
                0.4346599503515238,
                -3.091951182876568
            ]
        },
        {
            "positions": [
                -2.743934665899329,
                -0.8869734409600047,
                0.6968627475545627,
                -0.09271075234899037,
                0.4363533035476656,
                -3.036866963775986
            ]
        },
        {
            "positions": [
                -2.621114027682605,
                -0.9535094126308815,
                0.6551179904666913,
                -0.06042686928022325,
                0.41818856061299847,
                -2.932456029001527
            ]
        },
        {
            "positions": [
                -2.4982933894658816,
                -1.0200453843017583,
                0.6133732333788198,
                -0.028142986211456125,
                0.4000238176783314,
                -2.8280450942270683
            ]
        },
        {
            "positions": [
                -2.375472751249158,
                -1.086581355972635,
                0.5716284762909484,
                0.004140896857311005,
                0.3818590747436643,
                -2.723634159452609
            ]
        },
        {
            "positions": [
                -2.2526521130324344,
                -1.1531173276435116,
                0.529883719203077,
                0.03642477992607812,
                0.3636943318089972,
                -2.61922322467815
            ]
        },
        {
            "positions": [
                -2.1298314748157106,
                -1.2196532993143885,
                0.48813896211520547,
                0.06870866299484524,
                0.34552958887433005,
                -2.5148122899036913
            ]
        },
        {
            "positions": [
                -2.0070108365989867,
                -1.2861892709852651,
                0.446394205027334,
                0.10099254606361238,
                0.327364845939663,
                -2.4104013551292325
            ]
        },
        {
            "positions": [
                -1.8841901983822633,
                -1.3527252426561418,
                0.40464944793946256,
                0.1332764291323795,
                0.3092001030049959,
                -2.3059904203547736
            ]
        },
        {
            "positions": [
                -1.7613695601655395,
                -1.4192612143270185,
                0.36290469085159116,
                0.16556031220114661,
                0.29103536007032876,
                -2.2015794855803144
            ]
        },
        {
            "positions": [
                -1.6385489219488159,
                -1.4857971859978951,
                0.3211599337637197,
                0.19784419526991373,
                0.27287061713566163,
                -2.0971685508058555
            ]
        },
        {
            "positions": [
                -1.5157282837320922,
                -1.552333157668772,
                0.27941517667584825,
                0.23012807833868085,
                0.25470587420099455,
                -1.9927576160313967
            ]
        },
        {
            "positions": [
                -1.3929076455153684,
                -1.6188691293396489,
                0.23767041958797674,
                0.26241196140744805,
                0.23654113126632742,
                -1.8883466812569376
            ]
        },
        {
            "positions": [
                -1.2700870072986448,
                -1.6854051010105255,
                0.19592566250010535,
                0.2946958444762151,
                0.21837638833166034,
                -1.7839357464824788
            ]
        },
        {
            "positions": [
                -1.147266369081921,
                -1.7519410726814022,
                0.15418090541223384,
                0.3269797275449823,
                0.2002116453969932,
                -1.6795248117080197
            ]
        },
        {
            "positions": [
                -1.0244457308651975,
                -1.8184770443522789,
                0.11243614832436244,
                0.35926361061374934,
                0.18204690246232613,
                -1.5751138769335609
            ]
        },
        {
            "positions": [
                -0.9016250926484737,
                -1.8850130160231557,
                0.07069139123649104,
                0.3915474936825165,
                0.163882159527659,
                -1.470702942159102
            ]
        },
        {
            "positions": [
                -0.7788044544317501,
                -1.9515489876940324,
                0.028946634148619643,
                0.4238313767512836,
                0.14571741659299192,
                -1.3662920073846432
            ]
        },
        {
            "positions": [
                -0.6559838162150262,
                -2.0180849593649093,
                -0.012798122939251866,
                0.45611525982005074,
                0.1275526736583248,
                -1.2618810726101841
            ]
        },
        {
            "positions": [
                -0.5331631779983028,
                -2.0846209310357855,
                -0.054542880027123264,
                0.4883991428888178,
                0.10938793072365771,
                -1.1574701378357253
            ]
        },
        {
            "positions": [
                -0.410342539781579,
                -2.1511569027066626,
                -0.09628763711499477,
                0.520683025957585,
                0.09122318778899056,
                -1.0530592030612662
            ]
        },
        {
            "positions": [
                -0.3625671940685208,
                -2.1181447710962797,
                -0.24915515485355638,
                0.61416677446411,
                0.06027261862467022,
                -1.0218325197225078
            ]
        },
        {
            "positions": [
                -0.3147918483554626,
                -2.085132639485897,
                -0.402022672592118,
                0.7076505229706351,
                0.029322049460349872,
                -0.9906058363837493
            ]
        },
        {
            "positions": [
                -0.26701650264240445,
                -2.0521205078755145,
                -0.5548901903306795,
                0.8011342714771601,
                -0.001628519703970474,
                -0.9593791530449909
            ]
        },
        {
            "positions": [
                -0.21924115692934626,
                -2.0191083762651316,
                -0.7077577080692412,
                0.8946180199836852,
                -0.03257908886829082,
                -0.9281524697062324
            ]
        },
        {
            "positions": [
                -0.17146581121628807,
                -1.9860962446547488,
                -0.8606252258078029,
                0.9881017684902103,
                -0.06352965803261117,
                -0.896925786367474
            ]
        },
        {
            "positions": [
                -0.12369046550322993,
                -1.9530841130443661,
                -1.0134927435463643,
                1.0815855169967352,
                -0.09448022719693151,
                -0.8656991030287156
            ]
        },
        {
            "positions": [
                -0.07591511979017174,
                -1.9200719814339835,
                -1.166360261284926,
                1.1750692655032604,
                -0.12543079636125187,
                -0.8344724196899571
            ]
        },
        {
            "positions": [
                -0.028139774077113544,
                -1.8870598498236006,
                -1.3192277790234876,
                1.2685530140097854,
                -0.1563813655255722,
                -0.8032457363511987
            ]
        },
        {
            "positions": [
                0.01963557163594465,
                -1.8540477182132178,
                -1.4720952967620493,
                1.3620367625163103,
                -0.18733193468989257,
                -0.7720190530124402
            ]
        },
        {
            "positions": [
                0.06741091734900284,
                -1.8210355866028352,
                -1.624962814500611,
                1.4555205110228355,
                -0.21828250385421288,
                -0.7407923696736818
            ]
        },
        {
            "positions": [
                0.11518626306206103,
                -1.7880234549924525,
                -1.7778303322391724,
                1.5490042595293605,
                -0.2492330730185332,
                -0.7095656863349233
            ]
        },
        {
            "positions": [
                0.16296160877511912,
                -1.7550113233820697,
                -1.930697849977734,
                1.6424880080358855,
                -0.2801836421828536,
                -0.6783390029961648
            ]
        },
        {
            "positions": [
                0.2107369544881773,
                -1.7219991917716868,
                -2.0835653677162957,
                1.7359717565424106,
                -0.31113421134717395,
                -0.6471123196574063
            ]
        },
        {
            "positions": [
                0.2585123002012355,
                -1.6889870601613042,
                -2.236432885454857,
                1.8294555050489356,
                -0.34208478051149427,
                -0.6158856363186479
            ]
        },
        {
            "positions": [
                0.3062876459142937,
                -1.6559749285509215,
                -2.389300403193419,
                1.9229392535554608,
                -0.3730353496758146,
                -0.5846589529798895
            ]
        },
        {
            "positions": [
                0.3540629916273519,
                -1.6229627969405387,
                -2.5421679209319805,
                2.0164230020619858,
                -0.40398591884013496,
                -0.553432269641131
            ]
        },
        {
            "positions": [
                0.2867286797391051,
                -1.7046056739862125,
                -2.523652594639983,
                1.9467626097022575,
                -0.3310324331780578,
                -0.47686297978684056
            ]
        },
        {
            "positions": [
                0.21939436785085836,
                -1.7862485510318866,
                -2.5051372683479847,
                1.8771022173425291,
                -0.25807894751598065,
                -0.40029368993255005
            ]
        },
        {
            "positions": [
                0.1520600559626116,
                -1.8678914280775607,
                -2.4866219420559865,
                1.8074418249828006,
                -0.1851254618539035,
                -0.32372440007825953
            ]
        },
        {
            "positions": [
                0.08472574407436484,
                -1.9495343051232346,
                -2.468106615763989,
                1.7377814326230723,
                -0.11217197619182634,
                -0.24715511022396908
            ]
        },
        {
            "positions": [
                0.01739143218611805,
                -2.0311771821689084,
                -2.449591289471991,
                1.668121040263344,
                -0.039218490529749184,
                -0.17058582036967862
            ]
        },
        {
            "positions": [
                -0.049942879702128684,
                -2.1128200592145827,
                -2.431075963179993,
                1.5984606479036154,
                0.03373499513232797,
                -0.09401653051538811
            ]
        },
        {
            "positions": [
                -0.11727719159037542,
                -2.1944629362602566,
                -2.412560636887995,
                1.528800255543887,
                0.10668848079440513,
                -0.017447240661097596
            ]
        },
        {
            "positions": [
                -0.18461150347862224,
                -2.2761058133059304,
                -2.394045310595997,
                1.4591398631841588,
                0.17964196645648234,
                0.05912204919319283
            ]
        }
    ]
}