{
    "goal": {
        "global_pose": {
            "orientation": {
                "w": 0.005598929693374612,
                "x": 0.007748599140229565,
                "y": 0.7110244013736278,
                "z": -0.7031023480610252
            },
            "position": {
                "x": 0.1141497679147869,
                "y": -0.7141253447532654,
                "z": 0.3711530566215515
            }
        },
        "name": "move_to_auspresseinheit_B"
    },
    "id": "LazyPRM_move_to_auspresseinheit_B_39",
    "joint_names": [
        "shoulder_pan_joint",
        "shoulder_lift_joint",
        "elbow_joint",
        "wrist_1_joint",
        "wrist_2_joint",
        "wrist_3_joint"
    ],
    "metrics": {
        "cart_traj_len": 0.5651074801831125,
        "distance_elbow_joint": 0.06095415332123233,
        "distance_shoulder_lift_joint": 0.2952669443488998,
        "distance_shoulder_pan_joint": 0.5759450093951382,
        "distance_wrist_1_joint": 0.3238135283345306,
        "distance_wrist_2_joint": 1.0067817833111188,
        "distance_wrist_3_joint": 0.00740440039917134,
        "smoothness": 0.0,
        "time": 0.011835835000000001,
        "traj_len": 1.5067069453314705,
        "weighted_distance": 1.9014652065063098
    },
    "planner": "LazyPRM",
    "start": {
        "state": {
            "elbow_joint": 2.0193083361928714,
            "shoulder_lift_joint": -1.1220246554650708,
            "shoulder_pan_joint": -1.0952077554168747,
            "wrist_1_joint": -0.8559753972642168,
            "wrist_2_joint": 0.4759566250798843,
            "wrist_3_joint": -3.1240929996934557
        }
    },
    "waypoints": [
        {
            "positions": [
                -1.0952077554168747,
                -1.1220246554650708,
                2.0193083361928714,
                -0.8559753972642168,
                0.4759566250798843,
                -3.1240929996934557
            ]
        },
        {
            "positions": [
                -1.1911985903160645,
                -1.171235812856554,
                2.0091493106393328,
                -0.8020064758751284,
                0.6437535889650707,
                -3.1228589329602605
            ]
        },
        {
            "positions": [
                -1.287189425215254,
                -1.2204469702480374,
                1.998990285085794,
                -0.7480375544860399,
                0.8115505528502571,
                -3.1216248662270654
            ]
        },
        {
            "positions": [
                -1.3831802601144436,
                -1.2696581276395207,
                1.9888312595322553,
                -0.6940686330969514,
                0.9793475167354437,
                -3.1203907994938698
            ]
        },
        {
            "positions": [
                -1.4791710950136334,
                -1.318869285031004,
                1.9786722339787166,
                -0.6400997117078631,
                1.1471444806206301,
                -3.1191567327606746
            ]
        },
        {
            "positions": [
                -1.5751619299128232,
                -1.3680804424224873,
                1.9685132084251777,
                -0.5861307903187747,
                1.3149414445058167,
                -3.1179226660274795
            ]
        },
        {
            "positions": [
                -1.6711527648120128,
                -1.4172915998139706,
                1.958354182871639,
                -0.5321618689296862,
                1.4827384083910031,
                -3.1166885992942843
            ]
        }
    ]
}