{
    "goal": {
        "global_pose": {
            "orientation": {
                "w": 0.7047431468963623,
                "x": -0.7094548344612122,
                "y": 0.0024358443915843964,
                "z": -0.0022348060738295317
            },
            "position": {
                "x": 0.6094750761985779,
                "y": 0.3671506643295288,
                "z": 0.19426114857196808
            }
        },
        "name": "move_to_magneteinheit_A"
    },
    "id": "LazyPRM_move_to_magneteinheit_A_92",
    "joint_names": [
        "shoulder_pan_joint",
        "shoulder_lift_joint",
        "elbow_joint",
        "wrist_1_joint",
        "wrist_2_joint",
        "wrist_3_joint"
    ],
    "metrics": {
        "cart_traj_len": 3.029071858142455,
        "distance_elbow_joint": 3.877886648163412,
        "distance_shoulder_lift_joint": 0.7734437201089681,
        "distance_shoulder_pan_joint": 2.9352084578631246,
        "distance_wrist_1_joint": 2.686818794633629,
        "distance_wrist_2_joint": 1.6946630886651415,
        "distance_wrist_3_joint": 3.6711268645655246,
        "smoothness": 0.1824373591276629,
        "time": 0.13011730700000002,
        "traj_len": 3.954636212599056,
        "weighted_distance": 5.230954328459542
    },
    "planner": "LazyPRM",
    "start": {
        "state": {
            "elbow_joint": -1.9196185241190666,
            "shoulder_lift_joint": -1.2443396400964142,
            "shoulder_pan_joint": 2.6996025414629847,
            "wrist_1_joint": -1.5485510000780065,
            "wrist_2_joint": -1.5709468930060704,
            "wrist_3_joint": 0.4420197071253992
        }
    },
    "waypoints": [
        {
            "positions": [
                2.6996025414629847,
                -1.2443396400964142,
                -1.9196185241190666,
                -1.5485510000780065,
                -1.5709468930060704,
                0.4420197071253992
            ]
        },
        {
            "positions": [
                2.6160839731307006,
                -1.2543589746686439,
                -1.8144360032930609,
                -1.495436748268206,
                -1.5301758709159319,
                0.34741520950825094
            ]
        },
        {
            "positions": [
                2.532565404798417,
                -1.2643783092408734,
                -1.709253482467055,
                -1.4423224964584056,
                -1.4894048488257934,
                0.2528107118911027
            ]
        },
        {
            "positions": [
                2.449046836466133,
                -1.274397643813103,
                -1.6040709616410493,
                -1.3892082446486052,
                -1.448633826735655,
                0.15820621427395448
            ]
        },
        {
            "positions": [
                2.3655282681338488,
                -1.2844169783853325,
                -1.4988884408150436,
                -1.3360939928388047,
                -1.4078628046455166,
                0.06360171665680625
            ]
        },
        {
            "positions": [
                2.282009699801565,
                -1.2944363129575622,
                -1.3937059199890376,
                -1.2829797410290043,
                -1.367091782555378,
                -0.03100278096034198
            ]
        },
        {
            "positions": [
                2.198491131469281,
                -1.3044556475297917,
                -1.288523399163032,
                -1.2298654892192038,
                -1.3263207604652396,
                -0.1256072785774902
            ]
        },
        {
            "positions": [
                2.1149725631369973,
                -1.3144749821020214,
                -1.183340878337026,
                -1.1767512374094034,
                -1.2855497383751011,
                -0.2202117761946385
            ]
        },
        {
            "positions": [
                2.0314539948047132,
                -1.324494316674251,
                -1.0781583575110203,
                -1.123636985599603,
                -1.2447787162849628,
                -0.3148162738117867
            ]
        },
        {
            "positions": [
                1.9479354264724293,
                -1.3345136512464806,
                -0.9729758366850146,
                -1.0705227337898024,
                -1.2040076941948243,
                -0.40942077142893485
            ]
        },
        {
            "positions": [
                1.8644168581401452,
                -1.3445329858187103,
                -0.8677933158590088,
                -1.017408481980002,
                -1.1632366721046858,
                -0.5040252690460831
            ]
        },
        {
            "positions": [
                1.7808982898078614,
                -1.3545523203909398,
                -0.762610795033003,
                -0.9642942301702015,
                -1.1224656500145476,
                -0.5986297666632313
            ]
        },
        {
            "positions": [
                1.6973797214755775,
                -1.3645716549631695,
                -0.6574282742069972,
                -0.9111799783604011,
                -1.081694627924409,
                -0.6932342642803796
            ]
        },
        {
            "positions": [
                1.6138611531432936,
                -1.374590989535399,
                -0.5522457533809915,
                -0.8580657265506006,
                -1.0409236058342706,
                -0.7878387618975279
            ]
        },
        {
            "positions": [
                1.5303425848110095,
                -1.3846103241076286,
                -0.4470632325549857,
                -0.8049514747408002,
                -1.000152583744132,
                -0.8824432595146762
            ]
        },
        {
            "positions": [
                1.4468240164787256,
                -1.3946296586798583,
                -0.34188071172897994,
                -0.7518372229309997,
                -0.9593815616539937,
                -0.9770477571318242
            ]
        },
        {
            "positions": [
                1.3633054481464415,
                -1.4046489932520878,
                -0.23669819090297395,
                -0.6987229711211993,
                -0.9186105395638552,
                -1.0716522547489724
            ]
        },
        {
            "positions": [
                1.2797868798141578,
                -1.4146683278243175,
                -0.1315156700769684,
                -0.6456087193113988,
                -0.8778395174737167,
                -1.1662567523661207
            ]
        },
        {
            "positions": [
                1.196268311481874,
                -1.424687662396547,
                -0.02633314925096264,
                -0.5924944675015985,
                -0.8370684953835783,
                -1.260861249983269
            ]
        },
        {
            "positions": [
                1.1127497431495896,
                -1.4347069969687767,
                0.07884937157504335,
                -0.539380215691798,
                -0.7962974732934398,
                -1.3554657476004173
            ]
        },
        {
            "positions": [
                1.0292311748173057,
                -1.4447263315410064,
                0.1840318924010491,
                -0.4862659638819975,
                -0.7555264512033013,
                -1.4500702452175656
            ]
        },
        {
            "positions": [
                0.9457126064850219,
                -1.4547456661132359,
                0.28921441322705466,
                -0.43315171207219705,
                -0.7147554291131629,
                -1.5446747428347138
            ]
        },
        {
            "positions": [
                0.862194038152738,
                -1.4647650006854656,
                0.39439693405306064,
                -0.3800374602623966,
                -0.6739844070230245,
                -1.6392792404518617
            ]
        },
        {
            "positions": [
                0.7786754698204539,
                -1.474784335257695,
                0.49957945487906663,
                -0.32692320845259615,
                -0.6332133849328859,
                -1.7338837380690104
            ]
        },
        {
            "positions": [
                0.6951569014881702,
                -1.4848036698299247,
                0.6047619757050722,
                -0.2738089566427957,
                -0.5924423628427475,
                -1.8284882356861583
            ]
        },
        {
            "positions": [
                0.6116383331558861,
                -1.4948230044021544,
                0.7099444965310782,
                -0.22069470483299525,
                -0.551671340752609,
                -1.9230927333033065
            ]
        },
        {
            "positions": [
                0.5281197648236025,
                -1.504842338974384,
                0.8151270173570837,
                -0.1675804530231948,
                -0.5109003186624708,
                -2.017697230920455
            ]
        },
        {
            "positions": [
                0.44460119649131835,
                -1.5148616735466134,
                0.9203095381830897,
                -0.11446620121339435,
                -0.47012929657233204,
                -2.112301728537603
            ]
        },
        {
            "positions": [
                0.36108262815903425,
                -1.524881008118843,
                1.0254920590090952,
                -0.0613519494035939,
                -0.42935827448219377,
                -2.2069062261547514
            ]
        },
        {
            "positions": [
                0.2775640598267506,
                -1.5349003426910728,
                1.1306745798351012,
                -0.008237697593793447,
                -0.38858725239205527,
                -2.3015107237718992
            ]
        },
        {
            "positions": [
                0.19404549149446648,
                -1.5449196772633023,
                1.2358571006611068,
                0.044876554216007,
                -0.347816230301917,
                -2.3961152213890475
            ]
        },
        {
            "positions": [
                0.11052692316218238,
                -1.554939011835532,
                1.3410396214871128,
                0.09799080602580745,
                -0.3070452082117783,
                -2.4907197190061963
            ]
        },
        {
            "positions": [
                0.027008354829898273,
                -1.5649583464077614,
                1.4462221423131187,
                0.1511050578356079,
                -0.26627418612164,
                -2.585324216623344
            ]
        },
        {
            "positions": [
                -0.05651021350238526,
                -1.5749776809799911,
                1.5514046631391245,
                0.20421930964540833,
                -0.22550316403150156,
                -2.6799287142404924
            ]
        },
        {
            "positions": [
                -0.034123250640165886,
                -1.5196269710768173,
                1.6022625957522771,
                0.08746324903163159,
                -0.18185074407017993,
                -2.7485760196404465
            ]
        },
        {
            "positions": [
                -0.01173628777794651,
                -1.4642762611736433,
                1.65312052836543,
                -0.02929281158214514,
                -0.1381983241088583,
                -2.8172233250404006
            ]
        },
        {
            "positions": [
                0.010650675084272865,
                -1.4089255512704695,
                1.7039784609785826,
                -0.14604887219592186,
                -0.09454590414753666,
                -2.8858706304403547
            ]
        },
        {
            "positions": [
                0.03303763794649224,
                -1.3535748413672954,
                1.7548363935917353,
                -0.26280493280969863,
                -0.05089348418621503,
                -2.954517935840309
            ]
        },
        {
            "positions": [
                0.055424600808711616,
                -1.2982241314641216,
                1.8056943262048881,
                -0.37956099342347527,
                -0.007241064224893401,
                -3.023165241240263
            ]
        },
        {
            "positions": [
                0.07781156367093099,
                -1.2428734215609478,
                1.8565522588180408,
                -0.496317054037252,
                0.03641135573642823,
                -3.091812546640217
            ]
        },
        {
            "positions": [
                0.10019852653315038,
                -1.187522711657774,
                1.9074101914311936,
                -0.6130731146510288,
                0.08006377569774986,
                -3.160459852040171
            ]
        },
        {
            "positions": [
                0.12258548939536976,
                -1.1321720017546,
                1.9582681240443462,
                -0.7298291752648055,
                0.12371619565907152,
                -3.2291071574401253
            ]
        }
    ]
}