{
    "goal": {
        "global_pose": {
            "orientation": {
                "w": 0.7047431468963623,
                "x": -0.7094548344612122,
                "y": 0.0024358443915843964,
                "z": -0.0022348060738295317
            },
            "position": {
                "x": 0.6094750761985779,
                "y": 0.3671506643295288,
                "z": 0.19426114857196808
            }
        },
        "name": "move_to_magneteinheit_A"
    },
    "id": "LazyPRM_move_to_magneteinheit_A_35",
    "joint_names": [
        "shoulder_pan_joint",
        "shoulder_lift_joint",
        "elbow_joint",
        "wrist_1_joint",
        "wrist_2_joint",
        "wrist_3_joint"
    ],
    "metrics": {
        "cart_traj_len": 4.377944082620562,
        "distance_elbow_joint": 3.8819274420077354,
        "distance_shoulder_lift_joint": 0.42539359143966293,
        "distance_shoulder_pan_joint": 5.084207588693085,
        "distance_wrist_1_joint": 1.7246880891243066,
        "distance_wrist_2_joint": 1.7452557880756168,
        "distance_wrist_3_joint": 2.6100578026198904,
        "smoothness": 0.22423705837445002,
        "time": 0.08899928,
        "traj_len": 3.9333866199447396,
        "weighted_distance": 4.915444006842109
    },
    "planner": "LazyPRM",
    "start": {
        "state": {
            "elbow_joint": -1.9196185241190666,
            "shoulder_lift_joint": -1.2443396400964142,
            "shoulder_pan_joint": 2.6996025414629847,
            "wrist_1_joint": -1.5485510000780065,
            "wrist_2_joint": -1.5709468930060704,
            "wrist_3_joint": 0.4420197071253992
        }
    },
    "waypoints": [
        {
            "positions": [
                2.6996025414629847,
                -1.2443396400964142,
                -1.9196185241190666,
                -1.5485510000780065,
                -1.5709468930060704,
                0.4420197071253992
            ]
        },
        {
            "positions": [
                2.540005241614373,
                -1.2509026587878824,
                -1.800885648469524,
                -1.5676250980751958,
                -1.4990561258469612,
                0.4612475368067715
            ]
        },
        {
            "positions": [
                2.3804079417657613,
                -1.2574656774793507,
                -1.6821527728199814,
                -1.5866991960723849,
                -1.427165358687852,
                0.4804753664881439
            ]
        },
        {
            "positions": [
                2.2208106419171494,
                -1.264028696170819,
                -1.5634198971704387,
                -1.6057732940695741,
                -1.3552745915287427,
                0.4997031961695162
            ]
        },
        {
            "positions": [
                2.0612133420685375,
                -1.2705917148622872,
                -1.4446870215208962,
                -1.6248473920667634,
                -1.2833838243696336,
                0.5189310258508886
            ]
        },
        {
            "positions": [
                1.901616042219926,
                -1.2771547335537554,
                -1.3259541458713535,
                -1.6439214900639527,
                -1.2114930572105245,
                0.538158855532261
            ]
        },
        {
            "positions": [
                1.742018742371314,
                -1.2837177522452237,
                -1.2072212702218108,
                -1.6629955880611418,
                -1.1396022900514153,
                0.5573866852136332
            ]
        },
        {
            "positions": [
                1.5824214425227023,
                -1.2902807709366917,
                -1.088488394572268,
                -1.682069686058331,
                -1.067711522892306,
                0.5766145148950056
            ]
        },
        {
            "positions": [
                1.4228241426740906,
                -1.29684378962816,
                -0.9697555189227256,
                -1.7011437840555204,
                -0.995820755733197,
                0.5958423445763779
            ]
        },
        {
            "positions": [
                1.263226842825479,
                -1.3034068083196282,
                -0.8510226432731829,
                -1.7202178820527094,
                -0.9239299885740877,
                0.6150701742577502
            ]
        },
        {
            "positions": [
                1.103629542976867,
                -1.3099698270110964,
                -0.7322897676236402,
                -1.7392919800498987,
                -0.8520392214149786,
                0.6342980039391226
            ]
        },
        {
            "positions": [
                0.9440322431282555,
                -1.3165328457025647,
                -0.6135568919740977,
                -1.758366078047088,
                -0.7801484542558694,
                0.653525833620495
            ]
        },
        {
            "positions": [
                0.7844349432796436,
                -1.323095864394033,
                -0.49482401632455497,
                -1.7774401760442773,
                -0.7082576870967602,
                0.6727536633018674
            ]
        },
        {
            "positions": [
                0.6248376434310319,
                -1.3296588830855012,
                -0.3760911406750125,
                -1.7965142740414664,
                -0.636366919937651,
                0.6919814929832396
            ]
        },
        {
            "positions": [
                0.46524034358241995,
                -1.3362219017769694,
                -0.25735826502546955,
                -1.8155883720386556,
                -0.5644761527785418,
                0.711209322664612
            ]
        },
        {
            "positions": [
                0.30564304373380846,
                -1.3427849204684377,
                -0.13862538937592706,
                -1.8346624700358447,
                -0.49258538561943266,
                0.7304371523459843
            ]
        },
        {
            "positions": [
                0.14604574388519653,
                -1.349347939159906,
                -0.019892513726384564,
                -1.853736568033034,
                -0.4206946184603235,
                0.7496649820273567
            ]
        },
        {
            "positions": [
                -0.013551555963415396,
                -1.3559109578513742,
                0.09884036192315815,
                -1.8728106660302233,
                -0.34880385130121416,
                0.768892811708729
            ]
        },
        {
            "positions": [
                -0.17314885581202688,
                -1.3624739765428422,
                0.21757323757270086,
                -1.8918847640274126,
                -0.276913084142105,
                0.7881206413901014
            ]
        },
        {
            "positions": [
                -0.3327461556606388,
                -1.3690369952343104,
                0.3363061132222436,
                -1.9109588620246019,
                -0.2050223169829959,
                0.8073484710714738
            ]
        },
        {
            "positions": [
                -0.49234345550925074,
                -1.3756000139257787,
                0.4550389888717863,
                -1.930032960021791,
                -0.13313154982388675,
                0.8265763007528462
            ]
        },
        {
            "positions": [
                -0.6519407553578622,
                -1.382163032617247,
                0.5737718645213286,
                -1.9491070580189802,
                -0.061240782664777615,
                0.8458041304342184
            ]
        },
        {
            "positions": [
                -0.8115380552064737,
                -1.3887260513087152,
                0.6925047401708713,
                -1.9681811560161693,
                0.010649984494331521,
                0.8650319601155907
            ]
        },
        {
            "positions": [
                -0.9711353550550861,
                -1.3952890700001834,
                0.811237615820414,
                -1.9872552540133586,
                0.08254075165344088,
                0.8842597897969631
            ]
        },
        {
            "positions": [
                -1.1307326549036976,
                -1.4018520886916517,
                0.9299704914699566,
                -2.006329352010548,
                0.15443151881255002,
                0.9034876194783354
            ]
        },
        {
            "positions": [
                -1.0523656303832971,
                -1.385109517263875,
                0.9944916431211261,
                -1.9271474934360624,
                0.15318918279648777,
                1.0377744876200201
            ]
        },
        {
            "positions": [
                -0.9739986058628968,
                -1.3683669458360985,
                1.0590127947722956,
                -1.8479656348615772,
                0.1519468467804255,
                1.1720613557617048
            ]
        },
        {
            "positions": [
                -0.8956315813424964,
                -1.3516243744083218,
                1.123533946423465,
                -1.768783776287092,
                0.15070451076436325,
                1.3063482239033894
            ]
        },
        {
            "positions": [
                -0.817264556822096,
                -1.3348818029805454,
                1.1880550980746345,
                -1.6896019177126065,
                0.14946217474830098,
                1.4406350920450741
            ]
        },
        {
            "positions": [
                -0.7388975323016955,
                -1.3181392315527687,
                1.2525762497258042,
                -1.610420059138121,
                0.14821983873223873,
                1.5749219601867588
            ]
        },
        {
            "positions": [
                -0.6605305077812952,
                -1.3013966601249922,
                1.3170974013769736,
                -1.5312382005636358,
                0.1469775027161765,
                1.7092088283284432
            ]
        },
        {
            "positions": [
                -0.5821634832608948,
                -1.2846540886972155,
                1.381618553028143,
                -1.4520563419891506,
                0.14573516670011422,
                1.843495696470128
            ]
        },
        {
            "positions": [
                -0.5037964587404944,
                -1.267911517269439,
                1.4461397046793127,
                -1.3728744834146651,
                0.14449283068405197,
                1.9777825646118126
            ]
        },
        {
            "positions": [
                -0.42542943422009394,
                -1.2511689458416624,
                1.5106608563304822,
                -1.2936926248401797,
                0.14325049466798973,
                2.112069432753497
            ]
        },
        {
            "positions": [
                -0.3470624096996936,
                -1.2344263744138857,
                1.5751820079816516,
                -1.2145107662656944,
                0.14200815865192745,
                2.246356300895182
            ]
        },
        {
            "positions": [
                -0.26869538517929326,
                -1.2176838029861092,
                1.639703159632821,
                -1.1353289076912092,
                0.1407658226358652,
                2.3806431690368663
            ]
        },
        {
            "positions": [
                -0.1903283606588928,
                -1.2009412315583325,
                1.7042243112839905,
                -1.0561470491167237,
                0.13952348661980296,
                2.514930037178551
            ]
        },
        {
            "positions": [
                -0.11196133613849235,
                -1.184198660130556,
                1.76874546293516,
                -0.9769651905422383,
                0.1382811506037407,
                2.6492169053202357
            ]
        },
        {
            "positions": [
                -0.03359431161809212,
                -1.1674560887027794,
                1.8332666145863297,
                -0.8977833319677531,
                0.13703881458767844,
                2.7835037734619203
            ]
        },
        {
            "positions": [
                0.04477271290230833,
                -1.150713517275003,
                1.8977877662374993,
                -0.8186014733932678,
                0.13579647857161617,
                2.917790641603605
            ]
        },
        {
            "positions": [
                0.12313973742270877,
                -1.1339709458472262,
                1.9623089178886686,
                -0.7394196148187825,
                0.13455414255555392,
                3.0520775097452897
            ]
        }
    ]
}