{
    "goal": {
        "global_pose": {
            "orientation": {
                "w": 0.005598929693374612,
                "x": 0.007748599140229565,
                "y": 0.7110244013736278,
                "z": -0.7031023480610252
            },
            "position": {
                "x": -0.8858502320852131,
                "y": -0.7141253447532654,
                "z": 0.3711530566215515
            }
        },
        "name": "move_to_auspresseinheit_C"
    },
    "id": "LazyPRM_move_to_auspresseinheit_C_39",
    "joint_names": [
        "shoulder_pan_joint",
        "shoulder_lift_joint",
        "elbow_joint",
        "wrist_1_joint",
        "wrist_2_joint",
        "wrist_3_joint"
    ],
    "metrics": {
        "cart_traj_len": 0.4931404309136877,
        "distance_elbow_joint": 1.0064162817939624,
        "distance_shoulder_lift_joint": 0.32822591447873495,
        "distance_shoulder_pan_joint": 0.2559681930269382,
        "distance_wrist_1_joint": 0.691360722589849,
        "distance_wrist_2_joint": 1.316219886553625,
        "distance_wrist_3_joint": 0.0693674911235358,
        "smoothness": 1.6148698667872622e-16,
        "time": 0.012593548,
        "traj_len": 1.9150870710144343,
        "weighted_distance": 2.4111976445238144
    },
    "planner": "LazyPRM",
    "start": {
        "state": {
            "elbow_joint": 1.7527959577737207,
            "shoulder_lift_joint": -0.9740617694225068,
            "shoulder_pan_joint": -2.967991417825858,
            "wrist_1_joint": -0.759517768980727,
            "wrist_2_joint": 1.7443932448377408,
            "wrist_3_joint": -3.0840537646736568
        }
    },
    "waypoints": [
        {
            "positions": [
                -2.967991417825858,
                -0.9740617694225068,
                1.7527959577737207,
                -0.759517768980727,
                1.7443932448377408,
                -3.0840537646736568
            ]
        },
        {
            "positions": [
                -2.942394598523164,
                -0.9412391779746333,
                1.6521543295943244,
                -0.6903816967217421,
                1.6127712561823784,
                -3.0909905137860103
            ]
        },
        {
            "positions": [
                -2.9167977792204702,
                -0.9084165865267598,
                1.5515127014149281,
                -0.6212456244627571,
                1.481149267527016,
                -3.097927262898364
            ]
        },
        {
            "positions": [
                -2.8912009599177764,
                -0.8755939950788862,
                1.4508710732355319,
                -0.5521095522037722,
                1.3495272788716535,
                -3.1048640120107174
            ]
        },
        {
            "positions": [
                -2.8656041406150825,
                -0.8427714036310128,
                1.3502294450561356,
                -0.48297347994478734,
                1.2179052902162908,
                -3.111800761123071
            ]
        },
        {
            "positions": [
                -2.840007321312389,
                -0.8099488121831393,
                1.2495878168767396,
                -0.41383740768580246,
                1.0862833015609283,
                -3.118737510235425
            ]
        },
        {
            "positions": [
                -2.8144105020096952,
                -0.7771262207352658,
                1.148946188697343,
                -0.3447013354268176,
                0.9546613129055659,
                -3.1256742593477784
            ]
        },
        {
            "positions": [
                -2.7888136827070014,
                -0.7443036292873924,
                1.048304560517947,
                -0.2755652631678327,
                0.8230393242502034,
                -3.132611008460132
            ]
        },
        {
            "positions": [
                -2.7632168634043075,
                -0.7114810378395189,
                0.9476629323385507,
                -0.2064291909088477,
                0.6914173355948408,
                -3.1395477575724855
            ]
        },
        {
            "positions": [
                -2.7376200441016136,
                -0.6786584463916453,
                0.8470213041591546,
                -0.13729311864986282,
                0.5597953469394783,
                -3.146484506684839
            ]
        },
        {
            "positions": [
                -2.7120232247989198,
                -0.6458358549437718,
                0.7463796759797583,
                -0.06815704639087797,
                0.4281733582841159,
                -3.1534212557971926
            ]
        }
    ]
}