{
    "goal": {
        "global_pose": {
            "orientation": {
                "w": 0.005598929693374612,
                "x": 0.007748599140229565,
                "y": 0.7110244013736278,
                "z": -0.7031023480610252
            },
            "position": {
                "x": 0.1141497679147869,
                "y": -0.7141253447532654,
                "z": 0.3711530566215515
            }
        },
        "name": "move_to_auspresseinheit_B"
    },
    "id": "LazyPRM_move_to_auspresseinheit_B_49",
    "joint_names": [
        "shoulder_pan_joint",
        "shoulder_lift_joint",
        "elbow_joint",
        "wrist_1_joint",
        "wrist_2_joint",
        "wrist_3_joint"
    ],
    "metrics": {
        "cart_traj_len": 0.5644266708939724,
        "distance_elbow_joint": 0.06192218399907157,
        "distance_shoulder_lift_joint": 0.29455363333378726,
        "distance_shoulder_pan_joint": 0.577212296037604,
        "distance_wrist_1_joint": 0.32550435720705484,
        "distance_wrist_2_joint": 0.9924108020791922,
        "distance_wrist_3_joint": 0.005051228323205592,
        "smoothness": 0.0,
        "time": 0.021832066,
        "traj_len": 1.5022165293258876,
        "weighted_distance": 1.8933230355416302
    },
    "planner": "LazyPRM",
    "start": {
        "state": {
            "elbow_joint": 2.0193083361928714,
            "shoulder_lift_joint": -1.1220246554650708,
            "shoulder_pan_joint": -1.0952077554168747,
            "wrist_1_joint": -0.8559753972642168,
            "wrist_2_joint": 0.4759566250798843,
            "wrist_3_joint": -3.1240929996934557
        }
    },
    "waypoints": [
        {
            "positions": [
                -1.0952077554168747,
                -1.1220246554650708,
                2.0193083361928714,
                -0.8559753972642168,
                0.4759566250798843,
                -3.1240929996934557
            ]
        },
        {
            "positions": [
                -1.1914098047564754,
                -1.1711169276873687,
                2.008987972193026,
                -0.801724671063041,
                0.6413584254264163,
                -3.1249348710806566
            ]
        },
        {
            "positions": [
                -1.287611854096076,
                -1.2202091999096665,
                1.998667608193181,
                -0.7474739448618651,
                0.8067602257729483,
                -3.1257767424678575
            ]
        },
        {
            "positions": [
                -1.3838139034356767,
                -1.2693014721319644,
                1.9883472441933356,
                -0.6932232186606894,
                0.9721620261194803,
                -3.1266186138550585
            ]
        },
        {
            "positions": [
                -1.4800159527752772,
                -1.3183937443542624,
                1.9780268801934904,
                -0.6389724924595136,
                1.1375638264660124,
                -3.1274604852422594
            ]
        },
        {
            "positions": [
                -1.576218002114878,
                -1.36748601657656,
                1.9677065161936451,
                -0.5847217662583377,
                1.3029656268125445,
                -3.1283023566294603
            ]
        },
        {
            "positions": [
                -1.6724200514544787,
                -1.416578288798858,
                1.9573861521937999,
                -0.530471040057162,
                1.4683674271590765,
                -3.1291442280166613
            ]
        }
    ]
}