{
    "goal": {
        "global_pose": {
            "orientation": {
                "w": -0.00223480608172531,
                "x": 0.0024358444001904467,
                "y": 0.7094548369677653,
                "z": -0.704743149386269
            },
            "position": {
                "x": -0.37947507619857795,
                "y": -0.6371506643295288,
                "z": 0.19426114857196808
            }
        },
        "name": "move_to_magneteinheit_C"
    },
    "id": "LazyPRM_move_to_magneteinheit_C_146",
    "joint_names": [
        "shoulder_pan_joint",
        "shoulder_lift_joint",
        "elbow_joint",
        "wrist_1_joint",
        "wrist_2_joint",
        "wrist_3_joint"
    ],
    "metrics": {
        "cart_traj_len": 1.073172844131171,
        "distance_elbow_joint": 0.6205352934142954,
        "distance_shoulder_lift_joint": 0.2846299267282173,
        "distance_shoulder_pan_joint": 1.021443969383194,
        "distance_wrist_1_joint": 0.9727878579856873,
        "distance_wrist_2_joint": 1.5433185692582052,
        "distance_wrist_3_joint": 1.635861939110086,
        "smoothness": 1.198851158326785,
        "time": 0.08618295200000001,
        "traj_len": 2.465477145681883,
        "weighted_distance": 3.4447652839262863
    },
    "planner": "LazyPRM",
    "start": {
        "state": {
            "elbow_joint": 1.9565354010623817,
            "shoulder_lift_joint": -1.4165861575791021,
            "shoulder_pan_joint": -1.6717766225146293,
            "wrist_1_joint": -0.5286633292919765,
            "wrist_2_joint": 1.472756589071564,
            "wrist_3_joint": -3.1238370188695823
        }
    },
    "waypoints": [
        {
            "positions": [
                -1.6717766225146293,
                -1.4165861575791021,
                1.9565354010623817,
                -0.5286633292919765,
                1.472756589071564,
                -3.1238370188695823
            ]
        },
        {
            "positions": [
                -1.6345737441536572,
                -1.4214853616539727,
                1.9713445549052246,
                -0.5056920199375803,
                1.4351761633792388,
                -3.0940109870513646
            ]
        },
        {
            "positions": [
                -1.6388114870319088,
                -1.423066574541878,
                2.0174122427165577,
                -0.4611753670253289,
                1.2734172923140252,
                -2.9831063662479345
            ]
        },
        {
            "positions": [
                -1.6430492299101604,
                -1.4246477874297832,
                2.0634799305278904,
                -0.41665871411307753,
                1.1116584212488119,
                -2.872201745444505
            ]
        },
        {
            "positions": [
                -1.647286972788412,
                -1.4262290003176885,
                2.1095476183392234,
                -0.37214206120082616,
                0.9498995501835983,
                -2.7612971246410747
            ]
        },
        {
            "positions": [
                -1.6515247156666635,
                -1.4278102132055939,
                2.155615306150556,
                -0.3276254082885748,
                0.7881406791183848,
                -2.6503925038376446
            ]
        },
        {
            "positions": [
                -1.655762458544915,
                -1.4293914260934992,
                2.201682993961889,
                -0.2831087553763234,
                0.6263818080531712,
                -2.539487883034215
            ]
        },
        {
            "positions": [
                -1.6600002014231667,
                -1.4309726389814044,
                2.247750681773222,
                -0.23859210246407203,
                0.46462293698795776,
                -2.428583262230785
            ]
        },
        {
            "positions": [
                -1.6642379443014184,
                -1.4325538518693097,
                2.293818369584555,
                -0.19407544955182068,
                0.30286406592274406,
                -2.3176786414273547
            ]
        },
        {
            "positions": [
                -1.790279312864674,
                -1.3997650771960695,
                2.2628347603846066,
                -0.2708929025983609,
                0.330191401417192,
                -2.401445871357042
            ]
        },
        {
            "positions": [
                -1.9163206814279294,
                -1.366976302522829,
                2.231851151184658,
                -0.34771035564490116,
                0.35751873691164,
                -2.4852131012867296
            ]
        },
        {
            "positions": [
                -2.042362049991185,
                -1.3341875278495887,
                2.2008675419847097,
                -0.4245278086914414,
                0.3848460724060879,
                -2.568980331216417
            ]
        },
        {
            "positions": [
                -2.1684034185544405,
                -1.3013987531763485,
                2.169883932784761,
                -0.5013452617379817,
                0.4121734079005359,
                -2.6527475611461044
            ]
        },
        {
            "positions": [
                -2.2944447871176963,
                -1.268609978503108,
                2.1389003235848127,
                -0.5781627147845219,
                0.43950074339498385,
                -2.7365147910757917
            ]
        },
        {
            "positions": [
                -2.4204861556809516,
                -1.2358212038298677,
                2.107916714384864,
                -0.6549801678310622,
                0.4668280788894318,
                -2.820282021005479
            ]
        },
        {
            "positions": [
                -2.5465275242442074,
                -1.2030324291566274,
                2.076933105184916,
                -0.7317976208776024,
                0.4941554143838798,
                -2.9040492509351665
            ]
        },
        {
            "positions": [
                -2.5103838687783715,
                -1.1834620242939637,
                2.0437495749386745,
                -0.7820365243374773,
                0.5852227632080049,
                -3.0257157270151898
            ]
        },
        {
            "positions": [
                -2.4742402133125356,
                -1.1638916194313,
                2.0105660446924327,
                -0.8322754277973522,
                0.67629011203213,
                -3.147382203095213
            ]
        }
    ]
}