{
    "goal": {
        "global_pose": {
            "orientation": {
                "w": -0.00223480608172531,
                "x": 0.0024358444001904467,
                "y": 0.7094548369677653,
                "z": -0.704743149386269
            },
            "position": {
                "x": -0.37947507619857795,
                "y": -0.6371506643295288,
                "z": 0.19426114857196808
            }
        },
        "name": "move_to_magneteinheit_C"
    },
    "id": "LazyPRMstar_move_to_magneteinheit_C_71",
    "joint_names": [
        "shoulder_pan_joint",
        "shoulder_lift_joint",
        "elbow_joint",
        "wrist_1_joint",
        "wrist_2_joint",
        "wrist_3_joint"
    ],
    "metrics": {
        "cart_traj_len": 0.7887730728322091,
        "distance_elbow_joint": 0.7672674554908365,
        "distance_shoulder_lift_joint": 0.9256153055491267,
        "distance_shoulder_pan_joint": 1.185845441006377,
        "distance_wrist_1_joint": 0.9536563466889637,
        "distance_wrist_2_joint": 1.7152630290119815,
        "distance_wrist_3_joint": 0.887334477195632,
        "smoothness": 1.2818648454611812,
        "time": 5.013496736,
        "traj_len": 2.5367266417457985,
        "weighted_distance": 3.2982677855254763
    },
    "planner": "LazyPRMstar",
    "start": {
        "state": {
            "elbow_joint": 1.9565354010623817,
            "shoulder_lift_joint": -1.4165861575791021,
            "shoulder_pan_joint": -1.6717766225146293,
            "wrist_1_joint": -0.5286633292919765,
            "wrist_2_joint": 1.472756589071564,
            "wrist_3_joint": -3.1238370188695823
        }
    },
    "waypoints": [
        {
            "positions": [
                -1.6717766225146293,
                -1.4165861575791021,
                1.9565354010623817,
                -0.5286633292919765,
                1.472756589071564,
                -3.1238370188695823
            ]
        },
        {
            "positions": [
                -1.7711568056280707,
                -1.4501288576793725,
                1.997579717074909,
                -0.49683449924085726,
                1.346632192353752,
                -3.080478324969522
            ]
        },
        {
            "positions": [
                -1.870536988741512,
                -1.4836715577796427,
                2.0386240330874363,
                -0.46500566918973807,
                1.22050779563594,
                -3.0371196310694613
            ]
        },
        {
            "positions": [
                -1.9699171718549533,
                -1.517214257879913,
                2.079668349099964,
                -0.43317683913861893,
                1.0943833989181282,
                -2.9937609371694007
            ]
        },
        {
            "positions": [
                -2.069297354968395,
                -1.5507569579801834,
                2.1207126651124915,
                -0.4013480090874997,
                0.9682590022003162,
                -2.95040224326934
            ]
        },
        {
            "positions": [
                -2.168677538081836,
                -1.5842996580804538,
                2.161756981125019,
                -0.36951917903638054,
                0.8421346054825043,
                -2.9070435493692797
            ]
        },
        {
            "positions": [
                -2.2680577211952775,
                -1.617842358180724,
                2.202801297137546,
                -0.3376903489852614,
                0.7160102087646923,
                -2.8636848554692187
            ]
        },
        {
            "positions": [
                -2.367437904308719,
                -1.6513850582809944,
                2.2438456131500737,
                -0.30586151893414215,
                0.5898858120468805,
                -2.820326161569158
            ]
        },
        {
            "positions": [
                -2.46681808742216,
                -1.6849277583812647,
                2.2848899291626013,
                -0.27403268888302296,
                0.46376141532906856,
                -2.7769674676690976
            ]
        },
        {
            "positions": [
                -2.5661982705356015,
                -1.718470458481535,
                2.3259342451751284,
                -0.24220385883190382,
                0.3376370186112565,
                -2.733608773769037
            ]
        },
        {
            "positions": [
                -2.6655784536490428,
                -1.7520131585818053,
                2.366978561187656,
                -0.21037502878078465,
                0.21151262189344455,
                -2.6902500798689766
            ]
        },
        {
            "positions": [
                -2.6381436522387625,
                -1.667700543646602,
                2.3160036618497184,
                -0.30114189252046636,
                0.2763724878697106,
                -2.7550711567539805
            ]
        },
        {
            "positions": [
                -2.6107088508284817,
                -1.5833879287113986,
                2.265028762511781,
                -0.3919087562601481,
                0.3412323538459766,
                -2.819892233638984
            ]
        },
        {
            "positions": [
                -2.5832740494182014,
                -1.4990753137761952,
                2.2140538631738433,
                -0.4826756199998298,
                0.40609221982224264,
                -2.884713310523988
            ]
        },
        {
            "positions": [
                -2.5558392480079206,
                -1.4147626988409918,
                2.1630789638359063,
                -0.5734424837395115,
                0.47095208579850867,
                -2.9495343874089914
            ]
        },
        {
            "positions": [
                -2.5284044465976403,
                -1.3304500839057884,
                2.1121040644979687,
                -0.6642093474791932,
                0.5358119517747747,
                -3.0143554642939954
            ]
        },
        {
            "positions": [
                -2.5009696451873595,
                -1.246137468970585,
                2.061129165160031,
                -0.7549762112188748,
                0.6006718177510407,
                -3.079176541178999
            ]
        },
        {
            "positions": [
                -2.473534843777079,
                -1.1618248540353817,
                2.0101542658220937,
                -0.8457430749585566,
                0.6655316837273068,
                -3.143997618064003
            ]
        }
    ]
}