{
    "goal": {
        "global_pose": {
            "orientation": {
                "w": 0.7047431493862688,
                "x": -0.7094548369677653,
                "y": 0.0024358444001904,
                "z": -0.0022348060817251984
            },
            "position": {
                "x": -0.39052492380142206,
                "y": 0.3671506643295288,
                "z": 0.19426114857196808
            }
        },
        "name": "move_to_magneteinheit_D"
    },
    "id": "LazyPRMstar_move_to_magneteinheit_D_127",
    "joint_names": [
        "shoulder_pan_joint",
        "shoulder_lift_joint",
        "elbow_joint",
        "wrist_1_joint",
        "wrist_2_joint",
        "wrist_3_joint"
    ],
    "metrics": {
        "cart_traj_len": 4.0433233106672155,
        "distance_elbow_joint": 3.429139511032234,
        "distance_shoulder_lift_joint": 1.5443332289765441,
        "distance_shoulder_pan_joint": 3.3816818404234854,
        "distance_wrist_1_joint": 2.15445680522186,
        "distance_wrist_2_joint": 1.7910315376755486,
        "distance_wrist_3_joint": 6.305521838146479,
        "smoothness": 0.2019680200805099,
        "time": 5.040456077,
        "traj_len": 4.313486381278623,
        "weighted_distance": 5.929814228174989
    },
    "planner": "LazyPRMstar",
    "start": {
        "state": {
            "elbow_joint": 0.749534889911806,
            "shoulder_lift_joint": -0.6476975780787326,
            "shoulder_pan_joint": -2.711696901376241,
            "wrist_1_joint": -0.07506478083263063,
            "wrist_2_joint": 0.43296659715538205,
            "wrist_3_joint": -3.14703540197715
        }
    },
    "waypoints": [
        {
            "positions": [
                -2.711696901376241,
                -0.6476975780787326,
                0.749534889911806,
                -0.07506478083263063,
                0.43296659715538205,
                -3.14703540197715
            ]
        },
        {
            "positions": [
                -2.7137897391946972,
                -0.7419740082261068,
                0.7893827842028491,
                -0.1310427421388266,
                0.47727995774444176,
                -2.998528408848222
            ]
        },
        {
            "positions": [
                -2.7158825770131534,
                -0.8362504383734811,
                0.8292306784938924,
                -0.18702070344502258,
                0.5215933183335015,
                -2.8500214157192936
            ]
        },
        {
            "positions": [
                -2.7179754148316095,
                -0.9305268685208554,
                0.8690785727849357,
                -0.24299866475121856,
                0.5659066789225613,
                -2.701514422590366
            ]
        },
        {
            "positions": [
                -2.7200682526500657,
                -1.0248032986682296,
                0.9089264670759789,
                -0.29897662605741454,
                0.610220039511621,
                -2.5530074294614375
            ]
        },
        {
            "positions": [
                -2.6356924473890233,
                -1.0184144382185265,
                0.8300157405226302,
                -0.35349696483675586,
                0.621955056168315,
                -2.396283173546268
            ]
        },
        {
            "positions": [
                -2.5513166421279805,
                -1.0120255777688234,
                0.7511050139692813,
                -0.40801730361609717,
                0.6336900728250091,
                -2.2395589176310984
            ]
        },
        {
            "positions": [
                -2.466940836866938,
                -1.0056367173191203,
                0.6721942874159326,
                -0.4625376423954385,
                0.6454250894817032,
                -2.082834661715929
            ]
        },
        {
            "positions": [
                -2.3825650316058957,
                -0.9992478568694171,
                0.5932835608625837,
                -0.5170579811747797,
                0.6571601061383973,
                -1.9261104058007592
            ]
        },
        {
            "positions": [
                -2.2981892263448533,
                -0.992858996419714,
                0.5143728343092351,
                -0.5715783199541211,
                0.6688951227950913,
                -1.7693861498855898
            ]
        },
        {
            "positions": [
                -2.2138134210838105,
                -0.9864701359700108,
                0.4354621077558862,
                -0.6260986587334625,
                0.6806301394517854,
                -1.61266189397042
            ]
        },
        {
            "positions": [
                -2.129437615822768,
                -0.9800812755203077,
                0.3565513812025374,
                -0.6806189975128037,
                0.6923651561084795,
                -1.4559376380552507
            ]
        },
        {
            "positions": [
                -2.0450618105617258,
                -0.9736924150706046,
                0.27764065464918863,
                -0.735139336292145,
                0.7041001727651736,
                -1.299213382140081
            ]
        },
        {
            "positions": [
                -1.9606860053006832,
                -0.9673035546209015,
                0.1987299280958399,
                -0.7896596750714864,
                0.7158351894218676,
                -1.1424891262249117
            ]
        },
        {
            "positions": [
                -1.8763102000396406,
                -0.9609146941711982,
                0.11981920154249115,
                -0.8441800138508277,
                0.7275702060785617,
                -0.9857648703097421
            ]
        },
        {
            "positions": [
                -1.7919343947785982,
                -0.9545258337214951,
                0.040908474989142296,
                -0.8987003526301689,
                0.7393052227352558,
                -0.8290406143945723
            ]
        },
        {
            "positions": [
                -1.7075585895175556,
                -0.948136973271792,
                -0.03800225156420656,
                -0.9532206914095103,
                0.7510402393919499,
                -0.6723163584794027
            ]
        },
        {
            "positions": [
                -1.623182784256513,
                -0.9417481128220888,
                -0.1169129781175553,
                -1.0077410301888516,
                0.7627752560486439,
                -0.5155921025642334
            ]
        },
        {
            "positions": [
                -1.5388069789954706,
                -0.9353592523723857,
                -0.19582370467090415,
                -1.062261368968193,
                0.774510272705338,
                -0.3588678466490638
            ]
        },
        {
            "positions": [
                -1.4544311737344282,
                -0.9289703919226826,
                -0.2747344312242528,
                -1.1167817077475342,
                0.786245289362032,
                -0.2021435907338942
            ]
        },
        {
            "positions": [
                -1.3700553684733856,
                -0.9225815314729795,
                -0.35364515777760164,
                -1.1713020465268755,
                0.797980306018726,
                -0.04541933481872462
            ]
        },
        {
            "positions": [
                -1.285679563212343,
                -0.9161926710232763,
                -0.4325558843309505,
                -1.225822385306217,
                0.8097153226754201,
                0.11130492109644496
            ]
        },
        {
            "positions": [
                -1.2013037579513006,
                -0.9098038105735732,
                -0.5114666108842991,
                -1.280342724085558,
                0.8214503393321142,
                0.2680291770116141
            ]
        },
        {
            "positions": [
                -1.1169279526902582,
                -0.9034149501238701,
                -0.590377337437648,
                -1.3348630628648994,
                0.8331853559888083,
                0.4247534329267837
            ]
        },
        {
            "positions": [
                -1.0325521474292156,
                -0.8970260896741669,
                -0.6692880639909966,
                -1.3893834016442408,
                0.8449203726455023,
                0.5814776888419533
            ]
        },
        {
            "positions": [
                -0.948176342168173,
                -0.8906372292244638,
                -0.7481987905443455,
                -1.443903740423582,
                0.8566553893021964,
                0.7382019447571233
            ]
        },
        {
            "positions": [
                -0.8638005369071307,
                -0.8842483687747607,
                -0.8271095170976943,
                -1.4984240792029233,
                0.8683904059588905,
                0.8949262006722929
            ]
        },
        {
            "positions": [
                -0.779424731646088,
                -0.8778595083250575,
                -0.9060202436510432,
                -1.5529444179822647,
                0.8801254226155846,
                1.0516504565874625
            ]
        },
        {
            "positions": [
                -0.6950489263850455,
                -0.8714706478753543,
                -0.984930970204392,
                -1.607464756761606,
                0.8918604392722786,
                1.208374712502632
            ]
        },
        {
            "positions": [
                -0.6106731211240031,
                -0.8650817874256512,
                -1.0638416967577407,
                -1.6619850955409474,
                0.9035954559289727,
                1.3650989684178017
            ]
        },
        {
            "positions": [
                -0.5262973158629602,
                -0.858692926975948,
                -1.1427524233110895,
                -1.7165054343202888,
                0.9153304725856668,
                1.5218232243329708
            ]
        },
        {
            "positions": [
                -0.44192151060191787,
                -0.8523040665262449,
                -1.2216631498644381,
                -1.77102577309963,
                0.9270654892423609,
                1.6785474802481404
            ]
        },
        {
            "positions": [
                -0.3575457053408755,
                -0.8459152060765418,
                -1.3005738764177872,
                -1.8255461118789713,
                0.938800505899055,
                1.83527173616331
            ]
        },
        {
            "positions": [
                -0.27316990007983266,
                -0.8395263456268387,
                -1.3794846029711358,
                -1.8800664506583127,
                0.950535522555749,
                1.9919959920784804
            ]
        },
        {
            "positions": [
                -0.18879409481879073,
                -0.8331374851771356,
                -1.4583953295244845,
                -1.9345867894376538,
                0.9622705392124431,
                2.148720247993649
            ]
        },
        {
            "positions": [
                -0.1044182895577479,
                -0.8267486247274324,
                -1.537306056077833,
                -1.9891071282169952,
                0.9740055558691372,
                2.3054445039088187
            ]
        },
        {
            "positions": [
                -0.02004248429670552,
                -0.8203597642777293,
                -1.6162167826311822,
                -2.0436274669963366,
                0.9857405725258312,
                2.4621687598239883
            ]
        },
        {
            "positions": [
                0.06433332096433686,
                -0.8139709038280261,
                -1.6951275091845308,
                -2.0981478057756777,
                0.9974755891825253,
                2.618893015739158
            ]
        },
        {
            "positions": [
                0.14870912622537968,
                -0.807582043378323,
                -1.7740382357378799,
                -2.1526681445550193,
                1.0092106058392194,
                2.7756172716543275
            ]
        },
        {
            "positions": [
                0.23308493148642206,
                -0.8011931829286199,
                -1.8529489622912285,
                -2.2071884833343605,
                1.0209456224959135,
                2.9323415275694966
            ]
        },
        {
            "positions": [
                0.18640078648495842,
                -0.9060395598894462,
                -1.909379240569101,
                -2.204707027476568,
                0.8872731211253561,
                2.957468739636145
            ]
        },
        {
            "positions": [
                0.13971664148349477,
                -1.0108859368502725,
                -1.9658095188469737,
                -2.202225571618776,
                0.7536006197547986,
                2.9825959517027933
            ]
        },
        {
            "positions": [
                0.09303249648203113,
                -1.1157323138110988,
                -2.0222397971248465,
                -2.199744115760984,
                0.6199281183842411,
                3.007723163769442
            ]
        },
        {
            "positions": [
                0.046348351480567485,
                -1.2205786907719254,
                -2.078670075402719,
                -2.1972626599031915,
                0.4862556170136837,
                3.03285037583609
            ]
        },
        {
            "positions": [
                -0.0003357935208961882,
                -1.3254250677327517,
                -2.1351003536805915,
                -2.1947812040453996,
                0.35258311564312617,
                3.0579775879027387
            ]
        },
        {
            "positions": [
                -0.047019938522359805,
                -1.430271444693578,
                -2.191530631958464,
                -2.192299748187607,
                0.21891061427256875,
                3.083104799969387
            ]
        },
        {
            "positions": [
                -0.09370408352382348,
                -1.5351178216544046,
                -2.247960910236337,
                -2.189818292329815,
                0.08523811290201133,
                3.1082320120360354
            ]
        },
        {
            "positions": [
                -0.1403882285252871,
                -1.639964198615231,
                -2.3043911885142094,
                -2.187336836472023,
                -0.048434388468546086,
                3.1333592241026835
            ]
        },
        {
            "positions": [
                -0.1870723735267508,
                -1.7448105755760572,
                -2.360821466792082,
                -2.1848553806142306,
                -0.18210688983910356,
                3.158486436169332
            ]
        }
    ]
}