{
    "goal": {
        "global_pose": {
            "orientation": {
                "w": -0.00223480608172531,
                "x": 0.0024358444001904467,
                "y": 0.7094548369677653,
                "z": -0.704743149386269
            },
            "position": {
                "x": -0.37947507619857795,
                "y": -0.6371506643295288,
                "z": 0.19426114857196808
            }
        },
        "name": "move_to_magneteinheit_C"
    },
    "id": "LazyPRM_move_to_magneteinheit_C_4",
    "joint_names": [
        "shoulder_pan_joint",
        "shoulder_lift_joint",
        "elbow_joint",
        "wrist_1_joint",
        "wrist_2_joint",
        "wrist_3_joint"
    ],
    "metrics": {
        "cart_traj_len": 1.4302108083619745,
        "distance_elbow_joint": 1.2006007672472085,
        "distance_shoulder_lift_joint": 2.946312512450852,
        "distance_shoulder_pan_joint": 1.662573789484045,
        "distance_wrist_1_joint": 2.493662222721426,
        "distance_wrist_2_joint": 3.7484677711542114,
        "distance_wrist_3_joint": 5.022395206968358,
        "smoothness": 0.7262878283404469,
        "time": 0.170744489,
        "traj_len": 4.132071184046337,
        "weighted_distance": 5.775892370693767
    },
    "planner": "LazyPRM",
    "start": {
        "state": {
            "elbow_joint": 1.9565354010623817,
            "shoulder_lift_joint": -1.4165861575791021,
            "shoulder_pan_joint": -1.6717766225146293,
            "wrist_1_joint": -0.5286633292919765,
            "wrist_2_joint": 1.472756589071564,
            "wrist_3_joint": -3.1238370188695823
        }
    },
    "waypoints": [
        {
            "positions": [
                -1.6717766225146293,
                -1.4165861575791021,
                1.9565354010623817,
                -0.5286633292919765,
                1.472756589071564,
                -3.1238370188695823
            ]
        },
        {
            "positions": [
                -1.7253506823839115,
                -1.4751013211657114,
                1.9837259813432142,
                -0.4808833253411675,
                1.3737088204897743,
                -3.015246608115256
            ]
        },
        {
            "positions": [
                -1.778924742253194,
                -1.5336164847523206,
                2.0109165616240468,
                -0.4331033213903585,
                1.2746610519079846,
                -2.9066561973609293
            ]
        },
        {
            "positions": [
                -1.8324988021224762,
                -1.5921316483389298,
                2.0381071419048795,
                -0.3853233174395495,
                1.175613283326195,
                -2.7980657866066023
            ]
        },
        {
            "positions": [
                -1.8860728619917586,
                -1.650646811925539,
                2.0652977221857123,
                -0.33754331348874056,
                1.0765655147444053,
                -2.689475375852276
            ]
        },
        {
            "positions": [
                -1.9396469218610408,
                -1.7091619755121483,
                2.0924883024665446,
                -0.2897633095379316,
                0.9775177461626157,
                -2.5808849650979493
            ]
        },
        {
            "positions": [
                -1.9932209817303232,
                -1.7676771390987578,
                2.1196788827473774,
                -0.2419833055871226,
                0.8784699775808261,
                -2.4722945543436223
            ]
        },
        {
            "positions": [
                -2.0467950415996055,
                -1.826192302685367,
                2.14686946302821,
                -0.1942033016363136,
                0.7794222089990364,
                -2.363704143589296
            ]
        },
        {
            "positions": [
                -2.1003691014688877,
                -1.8847074662719763,
                2.1740600433090425,
                -0.14642329768550466,
                0.6803744404172468,
                -2.2551137328349693
            ]
        },
        {
            "positions": [
                -2.1539431613381703,
                -1.9432226298585855,
                2.201250623589875,
                -0.09864329373469566,
                0.581326671835457,
                -2.1465233220806423
            ]
        },
        {
            "positions": [
                -2.2075172212074525,
                -2.0017377934451948,
                2.228441203870708,
                -0.05086328978388671,
                0.4822789032536675,
                -2.0379329113263163
            ]
        },
        {
            "positions": [
                -2.2610912810767347,
                -2.0602529570318042,
                2.2556317841515403,
                -0.003083285833077709,
                0.38323113467187775,
                -1.9293425005719893
            ]
        },
        {
            "positions": [
                -2.314665340946017,
                -2.1187681206184132,
                2.282822364432373,
                0.04469671811773124,
                0.2841833660900883,
                -1.8207520898176628
            ]
        },
        {
            "positions": [
                -2.368239400815299,
                -2.1772832842050223,
                2.3100129447132054,
                0.09247672206854018,
                0.18513559750829867,
                -1.7121616790633363
            ]
        },
        {
            "positions": [
                -2.421813460684582,
                -2.2357984477916317,
                2.337203524994038,
                0.14025672601934924,
                0.08608782892650879,
                -1.6035712683090093
            ]
        },
        {
            "positions": [
                -2.475387520553864,
                -2.294313611378241,
                2.364394105274871,
                0.1880367299701582,
                -0.012959939655280639,
                -1.4949808575546828
            ]
        },
        {
            "positions": [
                -2.5289615804231462,
                -2.35282877496485,
                2.3915846855557032,
                0.23581673392096714,
                -0.11200770823707029,
                -1.3863904468003563
            ]
        },
        {
            "positions": [
                -2.582535640292429,
                -2.4113439385514592,
                2.418775265836536,
                0.2835967378717761,
                -0.21105547681885994,
                -1.2778000360460298
            ]
        },
        {
            "positions": [
                -2.636109700161711,
                -2.469859102138069,
                2.445965846117369,
                0.33137674182258514,
                -0.3101032454006498,
                -1.1692096252917028
            ]
        },
        {
            "positions": [
                -2.6896837600309933,
                -2.528374265724678,
                2.4731564263982015,
                0.3791567457733941,
                -0.40915101398243925,
                -1.0606192145373763
            ]
        },
        {
            "positions": [
                -2.7432578199002755,
                -2.586889429311287,
                2.500347006679034,
                0.42693674972420304,
                -0.5081987825642289,
                -0.9520288037830498
            ]
        },
        {
            "positions": [
                -2.7968318797695577,
                -2.6454045928978966,
                2.527537586959866,
                0.47471675367501187,
                -0.6072465511460186,
                -0.8434383930287233
            ]
        },
        {
            "positions": [
                -2.8504059396388404,
                -2.703919756484506,
                2.5547281672406994,
                0.522496757625821,
                -0.7062943197278084,
                -0.7348479822743963
            ]
        },
        {
            "positions": [
                -2.9039799995081226,
                -2.762434920071115,
                2.5819187475215317,
                0.57027676157663,
                -0.8053420883095979,
                -0.6262575715200698
            ]
        },
        {
            "positions": [
                -2.883486170341906,
                -2.6862223605492654,
                2.5545274417697192,
                0.5038614219645909,
                -0.7353245124156433,
                -0.7464868934066815
            ]
        },
        {
            "positions": [
                -2.8629923411756892,
                -2.610009801027416,
                2.527136136017907,
                0.437446082352552,
                -0.6653069365216888,
                -0.8667162152932932
            ]
        },
        {
            "positions": [
                -2.842498512009472,
                -2.5337972415055665,
                2.4997448302660947,
                0.371030742740513,
                -0.5952893606277342,
                -0.986945537179905
            ]
        },
        {
            "positions": [
                -2.8220046828432555,
                -2.4575846819837173,
                2.4723535245142827,
                0.304615403128474,
                -0.5252717847337797,
                -1.1071748590665167
            ]
        },
        {
            "positions": [
                -2.801510853677039,
                -2.3813721224618676,
                2.44496221876247,
                0.23820006351643502,
                -0.4552542088398251,
                -1.2274041809531284
            ]
        },
        {
            "positions": [
                -2.781017024510822,
                -2.3051595629400183,
                2.4175709130106577,
                0.17178472390439603,
                -0.38523663294587057,
                -1.3476335028397401
            ]
        },
        {
            "positions": [
                -2.7605231953446054,
                -2.2289470034181686,
                2.3901796072588457,
                0.10536938429235704,
                -0.315219057051916,
                -1.4678628247263519
            ]
        },
        {
            "positions": [
                -2.7400293661783888,
                -2.1527344438963194,
                2.3627883015070332,
                0.038954044680318045,
                -0.24520148115796148,
                -1.5880921466129636
            ]
        },
        {
            "positions": [
                -2.7195355370121717,
                -2.0765218843744697,
                2.3353969957552208,
                -0.027461294931720892,
                -0.17518390526400696,
                -1.7083214684995753
            ]
        },
        {
            "positions": [
                -2.699041707845955,
                -2.00030932485262,
                2.3080056900034087,
                -0.09387663454375994,
                -0.10516632937005232,
                -1.828550790386187
            ]
        },
        {
            "positions": [
                -2.6785478786797383,
                -1.9240967653307706,
                2.2806143842515962,
                -0.160291974155799,
                -0.035148753476097805,
                -1.9487801122727988
            ]
        },
        {
            "positions": [
                -2.6580540495135216,
                -1.847884205808921,
                2.253223078499784,
                -0.22670731376783793,
                0.034868822417856715,
                -2.0690094341594105
            ]
        },
        {
            "positions": [
                -2.6375602203473045,
                -1.7716716462870716,
                2.2258317727479717,
                -0.293122653379877,
                0.10488639831181135,
                -2.1892387560460222
            ]
        },
        {
            "positions": [
                -2.617066391181088,
                -1.6954590867652222,
                2.1984404669961592,
                -0.3595379929919159,
                0.17490397420576587,
                -2.309468077932634
            ]
        },
        {
            "positions": [
                -2.596572562014871,
                -1.6192465272433727,
                2.171049161244347,
                -0.42595333260395496,
                0.2449215500997204,
                -2.4296973998192457
            ]
        },
        {
            "positions": [
                -2.5760787328486545,
                -1.5430339677215232,
                2.1436578554925347,
                -0.4923686722159939,
                0.3149391259936749,
                -2.5499267217058574
            ]
        },
        {
            "positions": [
                -2.555584903682438,
                -1.4668214081996735,
                2.1162665497407227,
                -0.558784011828033,
                0.3849567018876294,
                -2.670156043592469
            ]
        },
        {
            "positions": [
                -2.535091074516221,
                -1.3906088486778243,
                2.0888752439889102,
                -0.6251993514400718,
                0.45497427778158395,
                -2.790385365479081
            ]
        },
        {
            "positions": [
                -2.514597245350004,
                -1.3143962891559746,
                2.0614839382370977,
                -0.691614691052111,
                0.5249918536755387,
                -2.9106146873656926
            ]
        },
        {
            "positions": [
                -2.4941034161837874,
                -1.2381837296341254,
                2.0340926324852857,
                -0.7580300306641499,
                0.5950094295694932,
                -3.0308440092523043
            ]
        },
        {
            "positions": [
                -2.4736095870175707,
                -1.1619711701122757,
                2.0067013267334732,
                -0.8244453702761889,
                0.6650270054634478,
                -3.151073331138916
            ]
        }
    ]
}