{
    "goal": {
        "global_pose": {
            "orientation": {
                "w": 0.5084816217422485,
                "x": -0.49083608388900757,
                "y": 0.5182115435600281,
                "z": -0.4816462993621826
            },
            "position": {
                "x": 0.5540239810943604,
                "y": 0.030875300988554955,
                "z": 0.16403168439865112
            }
        },
        "name": "move_to_storage_A"
    },
    "id": "LazyPRMstar_move_to_storage_A_92",
    "joint_names": [
        "shoulder_pan_joint",
        "shoulder_lift_joint",
        "elbow_joint",
        "wrist_1_joint",
        "wrist_2_joint",
        "wrist_3_joint"
    ],
    "metrics": {
        "cart_traj_len": 0.3532770353987472,
        "distance_elbow_joint": 0.4532857708579645,
        "distance_shoulder_lift_joint": 0.23626108284677483,
        "distance_shoulder_pan_joint": 0.4639993565403387,
        "distance_wrist_1_joint": 0.2526772768862623,
        "distance_wrist_2_joint": 1.0917618769222606,
        "distance_wrist_3_joint": 0.09772145789764553,
        "smoothness": 4.440892098500626e-16,
        "time": 5.000082716,
        "traj_len": 1.6111197416552399,
        "weighted_distance": 2.0336147352817497
    },
    "planner": "LazyPRMstar",
    "start": {
        "state": {
            "elbow_joint": 1.971548259319323,
            "shoulder_lift_joint": -1.1394851275133948,
            "shoulder_pan_joint": 0.1228115487234821,
            "wrist_1_joint": -0.7804723859257726,
            "wrist_2_joint": 0.12958671773740124,
            "wrist_3_joint": -3.192489227718131
        }
    },
    "waypoints": [
        {
            "positions": [
                0.1228115487234821,
                -1.1394851275133948,
                1.971548259319323,
                -0.7804723859257726,
                0.12958671773740124,
                -3.192489227718131
            ]
        },
        {
            "positions": [
                0.05652592636057657,
                -1.1732367107772197,
                2.0363033694418893,
                -0.8165691397666672,
                0.285552700154867,
                -3.178529019447039
            ]
        },
        {
            "positions": [
                -0.009759696002328955,
                -1.2069882940410448,
                2.101058479564456,
                -0.8526658936075618,
                0.44151868257233284,
                -3.164568811175947
            ]
        },
        {
            "positions": [
                -0.07604531836523448,
                -1.2407398773048697,
                2.165813589687022,
                -0.8887626474484565,
                0.5974846649897986,
                -3.1506086029048546
            ]
        },
        {
            "positions": [
                -0.14233094072814,
                -1.2744914605686948,
                2.2305686998095884,
                -0.9248594012893511,
                0.7534506474072644,
                -3.136648394633762
            ]
        },
        {
            "positions": [
                -0.20861656309104554,
                -1.3082430438325197,
                2.295323809932155,
                -0.9609561551302457,
                0.9094166298247303,
                -3.12268818636267
            ]
        },
        {
            "positions": [
                -0.27490218545395106,
                -1.3419946270963448,
                2.360078920054721,
                -0.9970529089711403,
                1.0653826122421959,
                -3.108727978091578
            ]
        },
        {
            "positions": [
                -0.3411878078168566,
                -1.3757462103601696,
                2.4248340301772875,
                -1.033149662812035,
                1.2213485946596618,
                -3.0947677698204856
            ]
        }
    ]
}{
    "goal": {
        "global_pose": {
            "orientation": {
                "w": 0.5084816217422485,
                "x": -0.49083608388900757,
                "y": 0.5182115435600281,
                "z": -0.4816462993621826
            },
            "position": {
                "x": 0.5540239810943604,
                "y": 0.030875300988554955,
                "z": 0.16403168439865112
            }
        },
        "name": "move_to_storage_A"
    },
    "id": "LazyPRMstar_move_to_storage_A_92",
    "joint_names": [
        "shoulder_pan_joint",
        "shoulder_lift_joint",
        "elbow_joint",
        "wrist_1_joint",
        "wrist_2_joint",
        "wrist_3_joint"
    ],
    "metrics": {
        "cart_traj_len": 0.352947587399984,
        "distance_elbow_joint": 0.44887493259294375,
        "distance_shoulder_lift_joint": 0.23283647852156064,
        "distance_shoulder_pan_joint": 0.46004780418152647,
        "distance_wrist_1_joint": 0.24125493818191157,
        "distance_wrist_2_joint": 1.1040226568929858,
        "distance_wrist_3_joint": 0.08902205100747551,
        "smoothness": 8.881784267329941e-16,
        "time": 5.001433925000001,
        "traj_len": 1.6050105486813486,
        "weighted_distance": 2.0246927071702143
    },
    "planner": "LazyPRMstar",
    "start": {
        "state": {
            "elbow_joint": 1.97154746011099,
            "shoulder_lift_joint": -1.13948474672311,
            "shoulder_pan_joint": 0.12281154466712228,
            "wrist_1_joint": -0.7804688027058302,
            "wrist_2_joint": 0.12958655903071145,
            "wrist_3_joint": 3.0906928834467795
        }
    },
    "waypoints": [
        {
            "positions": [
                0.12281154466712228,
                -1.13948474672311,
                1.97154746011099,
                -0.7804688027058302,
                0.12958655903071145,
                3.0906928834467795
            ]
        },
        {
            "positions": [
                0.057090429784047075,
                -1.1727471007976187,
                2.0356724504814103,
                -0.8149337938746747,
                0.2873040814439951,
                3.1034103193049902
            ]
        },
        {
            "positions": [
                -0.008630685099028132,
                -1.2060094548721272,
                2.099797440851831,
                -0.8493987850435192,
                0.44502160385727885,
                3.116127755163201
            ]
        },
        {
            "positions": [
                -0.07435179998210333,
                -1.239271808946636,
                2.1639224312222516,
                -0.8838637762123637,
                0.6027391262705625,
                3.1288451910214117
            ]
        },
        {
            "positions": [
                -0.14007291486517853,
                -1.2725341630211446,
                2.228047421592672,
                -0.9183287673812082,
                0.7604566486838462,
                3.141562626879623
            ]
        },
        {
            "positions": [
                -0.20579402974825378,
                -1.3057965170956534,
                2.292172411963093,
                -0.9527937585500528,
                0.91817417109713,
                3.1542800627378336
            ]
        },
        {
            "positions": [
                -0.2715151446313289,
                -1.3390588711701619,
                2.3562974023335133,
                -0.9872587497188973,
                1.0758916935104135,
                3.1669974985960443
            ]
        },
        {
            "positions": [
                -0.33723625951440417,
                -1.3723212252446706,
                2.4204223927039337,
                -1.0217237408877418,
                1.2336092159236973,
                3.179714934454255
            ]
        }
    ]
}{
    "goal": {
        "global_pose": {
            "orientation": {
                "w": 0.5084816217422485,
                "x": -0.49083608388900757,
                "y": 0.5182115435600281,
                "z": -0.4816462993621826
            },
            "position": {
                "x": 0.5540239810943604,
                "y": 0.030875300988554955,
                "z": 0.16403168439865112
            }
        },
        "name": "move_to_storage_A"
    },
    "id": "LazyPRMstar_move_to_storage_A_92",
    "joint_names": [
        "shoulder_pan_joint",
        "shoulder_lift_joint",
        "elbow_joint",
        "wrist_1_joint",
        "wrist_2_joint",
        "wrist_3_joint"
    ],
    "metrics": {
        "cart_traj_len": 0.3528900354125703,
        "distance_elbow_joint": 0.45260572164533475,
        "distance_shoulder_lift_joint": 0.23416822953203975,
        "distance_shoulder_pan_joint": 0.45736778803973016,
        "distance_wrist_1_joint": 0.2545553366054796,
        "distance_wrist_2_joint": 1.116211932899246,
        "distance_wrist_3_joint": 0.09365781775996362,
        "smoothness": 4.440892098500626e-16,
        "time": 5.000457787,
        "traj_len": 1.6151058251649624,
        "weighted_distance": 2.0412373040649747
    },
    "planner": "LazyPRMstar",
    "start": {
        "state": {
            "elbow_joint": 1.9715472970024885,
            "shoulder_lift_joint": -1.1394870060712896,
            "shoulder_pan_joint": 0.12281152778156021,
            "wrist_1_joint": -0.780463741449964,
            "wrist_2_joint": 0.12958659822042276,
            "wrist_3_joint": 3.090690232415272
        }
    },
    "waypoints": [
        {
            "positions": [
                0.12281152778156021,
                -1.1394870060712896,
                1.9715472970024885,
                -0.780463741449964,
                0.12958659822042276,
                3.090690232415272
            ]
        },
        {
            "positions": [
                0.05747327234731306,
                -1.1729396102901524,
                2.0362052572375364,
                -0.8168287895364611,
                0.2890454457774579,
                3.1040699206666953
            ]
        },
        {
            "positions": [
                -0.007864983086934091,
                -1.2063922145090153,
                2.1008632174725843,
                -0.8531938376229582,
                0.44850429333449304,
                3.1174496089181187
            ]
        },
        {
            "positions": [
                -0.07320323852118124,
                -1.239844818727878,
                2.165521177707632,
                -0.8895588857094552,
                0.6079631408915281,
                3.130829297169542
            ]
        },
        {
            "positions": [
                -0.1385414939554284,
                -1.2732974229467409,
                2.2301791379426796,
                -0.9259239337959523,
                0.7674219884485632,
                3.144208985420965
            ]
        },
        {
            "positions": [
                -0.2038797493896756,
                -1.3067500271656036,
                2.2948370981777275,
                -0.9622889818824494,
                0.9268808360055985,
                3.1575886736723886
            ]
        },
        {
            "positions": [
                -0.26921800482392266,
                -1.3402026313844666,
                2.3594950584127754,
                -0.9986540299689465,
                1.0863396835626336,
                3.170968361923812
            ]
        },
        {
            "positions": [
                -0.3345562602581699,
                -1.3736552356033294,
                2.4241530186478233,
                -1.0350190780554436,
                1.2457985311196687,
                3.1843480501752355
            ]
        }
    ]
}