{
    "goal": {
        "global_pose": {
            "orientation": {
                "w": 0.7031023480610252,
                "x": -0.7110244013736278,
                "y": 0.0077485991402295624,
                "z": 0.005598929693374583
            },
            "position": {
                "x": -0.8841497679147869,
                "y": 0.44412534475326537,
                "z": 0.3711530566215515
            }
        },
        "name": "move_to_auspresseinheit_D"
    },
    "id": "LazyPRMstar_move_to_auspresseinheit_D_81",
    "joint_names": [
        "shoulder_pan_joint",
        "shoulder_lift_joint",
        "elbow_joint",
        "wrist_1_joint",
        "wrist_2_joint",
        "wrist_3_joint"
    ],
    "metrics": {
        "cart_traj_len": 0.34408730541830373,
        "distance_elbow_joint": 0.657921371718871,
        "distance_shoulder_lift_joint": 0.1317703385337956,
        "distance_shoulder_pan_joint": 0.13346334761804882,
        "distance_wrist_1_joint": 0.5945103791346575,
        "distance_wrist_2_joint": 1.4393244138630141,
        "distance_wrist_3_joint": 0.052564967830943665,
        "smoothness": 1.9737298371844314e-16,
        "time": 5.001064383,
        "traj_len": 1.7348068534275884,
        "weighted_distance": 2.2690349374478327
    },
    "planner": "LazyPRMstar",
    "start": {
        "state": {
            "elbow_joint": -1.8275523626775212,
            "shoulder_lift_joint": -2.126789852344167,
            "shoulder_pan_joint": -0.03513704404078235,
            "wrist_1_joint": -2.347782403156801,
            "wrist_2_joint": -1.6058999987535132,
            "wrist_3_joint": -3.0880379163319196
        }
    },
    "waypoints": [
        {
            "positions": [
                -0.03513704404078235,
                -2.126789852344167,
                -1.8275523626775212,
                -2.347782403156801,
                -1.6058999987535132,
                -3.0880379163319196
            ]
        },
        {
            "positions": [
                -0.051819962493038454,
                -2.143261144660891,
                -1.7453121912126623,
                -2.422096200548633,
                -1.4259844470206364,
                -3.0814672953530517
            ]
        },
        {
            "positions": [
                -0.06850288094529455,
                -2.159732436977616,
                -1.6630720197478035,
                -2.4964099979404653,
                -1.2460688952877597,
                -3.074896674374184
            ]
        },
        {
            "positions": [
                -0.08518579939755067,
                -2.17620372929434,
                -1.5808318482829447,
                -2.5707237953322974,
                -1.066153343554883,
                -3.0683260533953156
            ]
        },
        {
            "positions": [
                -0.10186871784980675,
                -2.1926750216110644,
                -1.4985916768180858,
                -2.6450375927241296,
                -0.8862377918220061,
                -3.0617554324164478
            ]
        },
        {
            "positions": [
                -0.11855163630206286,
                -2.209146313927789,
                -1.416351505353227,
                -2.719351390115962,
                -0.7063222400891294,
                -3.05518481143758
            ]
        },
        {
            "positions": [
                -0.13523455475431898,
                -2.2256176062445134,
                -1.334111333888368,
                -2.793665187507794,
                -0.5264066883562526,
                -3.0486141904587116
            ]
        },
        {
            "positions": [
                -0.15191747320657506,
                -2.242088898561238,
                -1.251871162423509,
                -2.867978984899626,
                -0.34649113662337583,
                -3.042043569479844
            ]
        },
        {
            "positions": [
                -0.16860039165883117,
                -2.2585601908779624,
                -1.1696309909586502,
                -2.9422927822914584,
                -0.16657558489049898,
                -3.035472948500976
            ]
        }
    ]
}