{
    "goal": {
        "global_pose": {
            "orientation": {
                "w": -0.00223480608172531,
                "x": 0.0024358444001904467,
                "y": 0.7094548369677653,
                "z": -0.704743149386269
            },
            "position": {
                "x": 0.6205249238014221,
                "y": -0.6371506643295288,
                "z": 0.19426114857196808
            }
        },
        "name": "move_to_magneteinheit_B"
    },
    "id": "LazyPRMstar_move_to_magneteinheit_B_142",
    "joint_names": [
        "shoulder_pan_joint",
        "shoulder_lift_joint",
        "elbow_joint",
        "wrist_1_joint",
        "wrist_2_joint",
        "wrist_3_joint"
    ],
    "metrics": {
        "cart_traj_len": 4.14499894322275,
        "distance_elbow_joint": 5.227889153965842,
        "distance_shoulder_lift_joint": 1.6987822792870912,
        "distance_shoulder_pan_joint": 4.081707846527118,
        "distance_wrist_1_joint": 0.9551001771746976,
        "distance_wrist_2_joint": 1.6385354034127586,
        "distance_wrist_3_joint": 1.3282151315061235,
        "smoothness": 0.6366654870993145,
        "time": 5.052728418,
        "traj_len": 3.8639655785052778,
        "weighted_distance": 4.492248416491827
    },
    "planner": "LazyPRMstar",
    "start": {
        "state": {
            "elbow_joint": 2.6216224122426386,
            "shoulder_lift_joint": -1.4174107377796124,
            "shoulder_pan_joint": 0.7066234856936794,
            "wrist_1_joint": 1.9546482284002225,
            "wrist_2_joint": -0.7096286983471962,
            "wrist_3_joint": 0.005740856962016249
        }
    },
    "waypoints": [
        {
            "positions": [
                0.7066234856936794,
                -1.4174107377796124,
                2.6216224122426386,
                1.9546482284002225,
                -0.7096286983471962,
                0.005740856962016249
            ]
        },
        {
            "positions": [
                0.5364912781670489,
                -1.4411673371006872,
                2.6094607472841416,
                1.9327077457058541,
                -0.636329592908227,
                -0.02515402444695527
            ]
        },
        {
            "positions": [
                0.3663590706404184,
                -1.464923936421762,
                2.597299082325645,
                1.9107672630114856,
                -0.5630304874692578,
                -0.056048905855926784
            ]
        },
        {
            "positions": [
                0.1962268631137879,
                -1.4886805357428368,
                2.585137417367148,
                1.8888267803171173,
                -0.48973138203028843,
                -0.0869437872648983
            ]
        },
        {
            "positions": [
                0.0260946555871574,
                -1.5124371350639116,
                2.572975752408651,
                1.866886297622749,
                -0.4164322765913192,
                -0.11783866867386981
            ]
        },
        {
            "positions": [
                -0.1440375519394731,
                -1.5361937343849865,
                2.5608140874501544,
                1.8449458149283804,
                -0.34313317115234987,
                -0.14873355008284134
            ]
        },
        {
            "positions": [
                -0.3141697594661036,
                -1.5599503337060614,
                2.5486524224916574,
                1.823005332234012,
                -0.26983406571338064,
                -0.17962843149181285
            ]
        },
        {
            "positions": [
                -0.27176626631795336,
                -1.5145021839202755,
                2.3866039093443074,
                1.8069891920250956,
                -0.2215761646030173,
                -0.1239120162809816
            ]
        },
        {
            "positions": [
                -0.22936277316980314,
                -1.4690540341344893,
                2.224555396196958,
                1.7909730518161788,
                -0.17331826349265395,
                -0.06819560107015035
            ]
        },
        {
            "positions": [
                -0.18695928002165288,
                -1.4236058843487034,
                2.062506883049608,
                1.7749569116072623,
                -0.12506036238229057,
                -0.012479185859319092
            ]
        },
        {
            "positions": [
                -0.14455578687350265,
                -1.3781577345629172,
                1.9004583699022584,
                1.7589407713983458,
                -0.07680246127192722,
                0.04323722935151214
            ]
        },
        {
            "positions": [
                -0.1021522937253524,
                -1.3327095847771313,
                1.7384098567549087,
                1.7429246311894293,
                -0.028544560161563842,
                0.0989536445623434
            ]
        },
        {
            "positions": [
                -0.059748800577202166,
                -1.2872614349913452,
                1.5763613436075588,
                1.7269084909805126,
                0.019713340948799507,
                0.15467005977317466
            ]
        },
        {
            "positions": [
                -0.017345307429051965,
                -1.2418132852055592,
                1.414312830460209,
                1.710892350771596,
                0.06797124205916287,
                0.21038647498400592
            ]
        },
        {
            "positions": [
                0.10633113353128222,
                -1.278293026556295,
                1.252928987134095,
                1.6800641524943833,
                0.09697153970625261,
                0.2228205169012243
            ]
        },
        {
            "positions": [
                0.2300075744916164,
                -1.314772767907031,
                1.0915451438079808,
                1.6492359542171704,
                0.12597183735334236,
                0.2352545588184427
            ]
        },
        {
            "positions": [
                0.3536840154519506,
                -1.3512525092577667,
                0.9301613004818667,
                1.6184077559399577,
                0.1549721350004321,
                0.2476886007356611
            ]
        },
        {
            "positions": [
                0.47736045641228475,
                -1.3877322506085028,
                0.7687774571557526,
                1.587579557662745,
                0.18397243264752183,
                0.2601226426528795
            ]
        },
        {
            "positions": [
                0.601036897372619,
                -1.4242119919592386,
                0.6073936138296385,
                1.556751359385532,
                0.21297273029461156,
                0.27255668457009785
            ]
        },
        {
            "positions": [
                0.7247133383329531,
                -1.4606917333099745,
                0.4460097705035245,
                1.5259231611083193,
                0.24197302794170134,
                0.28499072648731627
            ]
        },
        {
            "positions": [
                0.8483897792932873,
                -1.4971714746607103,
                0.2846259271774103,
                1.4950949628311065,
                0.27097332558879106,
                0.29742476840453463
            ]
        },
        {
            "positions": [
                0.9720662202536215,
                -1.5336512160114464,
                0.1232420838512962,
                1.4642667645538936,
                0.29997362323588084,
                0.30985881032175305
            ]
        },
        {
            "positions": [
                1.0957426612139558,
                -1.5701309573621822,
                -0.038141759474817905,
                1.4334385662766809,
                0.3289739208829706,
                0.3222928522389714
            ]
        },
        {
            "positions": [
                1.21941910217429,
                -1.606610698712918,
                -0.199525602800932,
                1.4026103679994681,
                0.3579742185300603,
                0.33472689415618984
            ]
        },
        {
            "positions": [
                1.343095543134624,
                -1.643090440063654,
                -0.3609094461270461,
                1.3717821697222554,
                0.38697451617715006,
                0.3471609360734082
            ]
        },
        {
            "positions": [
                1.4667719840949582,
                -1.6795701814143897,
                -0.52229328945316,
                1.3409539714450425,
                0.4159748138242398,
                0.35959497799062656
            ]
        },
        {
            "positions": [
                1.5904484250552926,
                -1.7160499227651256,
                -0.6836771327792743,
                1.3101257731678297,
                0.44497511147132957,
                0.372029019907845
            ]
        },
        {
            "positions": [
                1.7141248660156265,
                -1.7525296641158614,
                -0.8450609761053884,
                1.279297574890617,
                0.4739754091184193,
                0.3844630618250634
            ]
        },
        {
            "positions": [
                1.8378013069759607,
                -1.7890094054665973,
                -1.0064448194315025,
                1.248469376613404,
                0.502975706765509,
                0.3968971037422817
            ]
        },
        {
            "positions": [
                1.961477747936295,
                -1.8254891468173333,
                -1.1678286627576167,
                1.2176411783361913,
                0.5319760044125987,
                0.40933114565950013
            ]
        },
        {
            "positions": [
                2.0851541888966287,
                -1.8619688881680692,
                -1.3292125060837308,
                1.1868129800589786,
                0.5609763020596885,
                0.42176518757671855
            ]
        },
        {
            "positions": [
                2.2088306298569633,
                -1.8984486295188052,
                -1.4905963494098449,
                1.1559847817817657,
                0.5899765997067783,
                0.43419922949393697
            ]
        },
        {
            "positions": [
                2.3325070708172975,
                -1.934928370869541,
                -1.651980192735959,
                1.125156583504553,
                0.618976897353868,
                0.4466332714111553
            ]
        },
        {
            "positions": [
                2.4561835117776316,
                -1.971408112220277,
                -1.813364036062073,
                1.0943283852273402,
                0.6479771950009576,
                0.4590673133283737
            ]
        },
        {
            "positions": [
                2.5798599527379658,
                -2.0078878535710127,
                -1.9747478793881872,
                1.0635001869501273,
                0.6769774926480475,
                0.4715013552455921
            ]
        },
        {
            "positions": [
                2.7035363936983,
                -2.0443675949217486,
                -2.136131722714301,
                1.0326719886729145,
                0.7059777902951372,
                0.4839353971628105
            ]
        },
        {
            "positions": [
                2.6948947040577136,
                -2.1314778599505386,
                -2.0421047189125203,
                1.0260472011834365,
                0.6613920073410522,
                0.3880789942832764
            ]
        },
        {
            "positions": [
                2.6862530144171273,
                -2.2185881249793287,
                -1.94807771511074,
                1.0194224136939587,
                0.6168062243869672,
                0.29222259140374235
            ]
        },
        {
            "positions": [
                2.6776113247765405,
                -2.305698390008119,
                -1.8540507113089593,
                1.0127976262044807,
                0.5722204414328822,
                0.19636618852420834
            ]
        },
        {
            "positions": [
                2.668969635135954,
                -2.392808655036909,
                -1.7600237075071787,
                1.0061728387150028,
                0.5276346584787972,
                0.10050978564467422
            ]
        },
        {
            "positions": [
                2.660327945495368,
                -2.4799189200656993,
                -1.6659967037053982,
                0.9995480512255248,
                0.48304887552471226,
                0.004653382765140192
            ]
        }
    ]
}