{
    "goal": {
        "global_pose": {
            "orientation": {
                "w": -0.4816463035849501,
                "x": 0.5182115481033762,
                "y": 0.4908360881923453,
                "z": -0.5084816262002911
            },
            "position": {
                "x": -0.8240239810943604,
                "y": 0.19912469901144506,
                "z": 0.16403168439865112
            }
        },
        "name": "move_to_storage_D"
    },
    "id": "LazyPRM_move_to_storage_D_48",
    "joint_names": [
        "shoulder_pan_joint",
        "shoulder_lift_joint",
        "elbow_joint",
        "wrist_1_joint",
        "wrist_2_joint",
        "wrist_3_joint"
    ],
    "metrics": {
        "cart_traj_len": 0.5807050510050417,
        "distance_elbow_joint": 0.5913985523461875,
        "distance_shoulder_lift_joint": 0.1528322114182621,
        "distance_shoulder_pan_joint": 0.19231646220332926,
        "distance_wrist_1_joint": 4.179211287753001,
        "distance_wrist_2_joint": 1.7875158806218627,
        "distance_wrist_3_joint": 3.1682621386149217,
        "smoothness": 0.46695949855900704,
        "time": 0.136139075,
        "traj_len": 3.173568422605311,
        "weighted_distance": 4.730199570690678
    },
    "planner": "LazyPRM",
    "start": {
        "state": {
            "elbow_joint": -2.384821988534728,
            "shoulder_lift_joint": -2.2788054721415256,
            "shoulder_pan_joint": -0.1854694642142757,
            "wrist_1_joint": 1.4845938289331202,
            "wrist_2_joint": 0.17898776772866878,
            "wrist_3_joint": 0.037105688729662994
        }
    },
    "waypoints": [
        {
            "positions": [
                -0.1854694642142757,
                -2.2788054721415256,
                -2.384821988534728,
                1.4845938289331202,
                0.17898776772866878,
                0.037105688729662994
            ]
        },
        {
            "positions": [
                -0.09943723655638123,
                -2.2289712310319176,
                -2.3944149420439116,
                1.5741572384424742,
                0.1815752293831684,
                0.04798614579056989
            ]
        },
        {
            "positions": [
                -0.013405008898486753,
                -2.179136989922309,
                -2.4040078955530952,
                1.6637206479518285,
                0.18416269103766802,
                0.05886660285147678
            ]
        },
        {
            "positions": [
                -0.014215089173988362,
                -2.1770104407543474,
                -2.3811193897399825,
                1.5037172692024567,
                0.11286905274515348,
                -0.06699344612824752
            ]
        },
        {
            "positions": [
                -0.015025169449489971,
                -2.1748838915863855,
                -2.3582308839268697,
                1.343713890453085,
                0.04157541445263893,
                -0.19285349510797184
            ]
        },
        {
            "positions": [
                -0.01583524972499158,
                -2.1727573424184237,
                -2.335342378113757,
                1.1837105117037132,
                -0.0297182238398756,
                -0.31871354408769614
            ]
        },
        {
            "positions": [
                -0.01664533000049319,
                -2.170630793250462,
                -2.312453872300644,
                1.0237071329543417,
                -0.10101186213239016,
                -0.44457359306742045
            ]
        },
        {
            "positions": [
                -0.0174554102759948,
                -2.1685042440825,
                -2.289565366487531,
                0.8637037542049698,
                -0.17230550042490472,
                -0.5704336420471448
            ]
        },
        {
            "positions": [
                -0.01826549055149641,
                -2.166377694914538,
                -2.2666768606744183,
                0.7037003754555982,
                -0.24359913871741923,
                -0.696293691026869
            ]
        },
        {
            "positions": [
                -0.01907557082699802,
                -2.1642511457465763,
                -2.2437883548613056,
                0.5436969967062262,
                -0.31489277700993384,
                -0.8221537400065935
            ]
        },
        {
            "positions": [
                -0.019885651102499628,
                -2.1621245965786144,
                -2.220899849048193,
                0.38369361795685464,
                -0.38618641530244835,
                -0.9480137889863176
            ]
        },
        {
            "positions": [
                -0.020695731378001236,
                -2.1599980474106526,
                -2.19801134323508,
                0.22369023920748288,
                -0.4574800535949629,
                -1.073873837966042
            ]
        },
        {
            "positions": [
                -0.02150581165350285,
                -2.1578714982426908,
                -2.1751228374219673,
                0.06368686045811112,
                -0.5287736918874775,
                -1.1997338869457663
            ]
        },
        {
            "positions": [
                -0.022315891929004454,
                -2.155744949074729,
                -2.152234331608854,
                -0.09631651829126064,
                -0.600067330179992,
                -1.3255939359254907
            ]
        },
        {
            "positions": [
                -0.023125972204506066,
                -2.153618399906767,
                -2.1293458257957414,
                -0.2563198970406322,
                -0.6713609684725065,
                -1.4514539849052148
            ]
        },
        {
            "positions": [
                -0.023936052480007672,
                -2.1514918507388057,
                -2.1064573199826286,
                -0.41632327579000417,
                -0.7426546067650212,
                -1.5773140338849394
            ]
        },
        {
            "positions": [
                -0.024746132755509284,
                -2.149365301570844,
                -2.083568814169516,
                -0.5763266545393761,
                -0.8139482450575357,
                -1.7031740828646638
            ]
        },
        {
            "positions": [
                -0.02555621303101089,
                -2.147238752402882,
                -2.060680308356403,
                -0.7363300332887472,
                -0.88524188335005,
                -1.829034131844388
            ]
        },
        {
            "positions": [
                -0.026366293306512502,
                -2.14511220323492,
                -2.0377918025432904,
                -0.8963334120381192,
                -0.9565355216425647,
                -1.954894180824112
            ]
        },
        {
            "positions": [
                -0.027176373582014114,
                -2.1429856540669583,
                -2.0149032967301777,
                -1.0563367907874912,
                -1.0278291599350795,
                -2.0807542298038366
            ]
        },
        {
            "positions": [
                -0.02798645385751572,
                -2.1408591048989964,
                -1.9920147909170647,
                -1.2163401695368627,
                -1.0991227982275937,
                -2.2066142787835608
            ]
        },
        {
            "positions": [
                -0.028796534133017332,
                -2.1387325557310346,
                -1.969126285103952,
                -1.3763435482862343,
                -1.1704164365201084,
                -2.3324743277632853
            ]
        },
        {
            "positions": [
                -0.02960661440851894,
                -2.1366060065630728,
                -1.946237779290839,
                -1.5363469270356063,
                -1.241710074812623,
                -2.4583343767430095
            ]
        },
        {
            "positions": [
                -0.030416694684020546,
                -2.134479457395111,
                -1.9233492734777262,
                -1.6963503057849778,
                -1.3130037131051373,
                -2.5841944257227336
            ]
        },
        {
            "positions": [
                -0.03122677495952216,
                -2.132352908227149,
                -1.9004607676646135,
                -1.8563536845343498,
                -1.384297351397652,
                -2.710054474702458
            ]
        },
        {
            "positions": [
                -0.03203685523502377,
                -2.1302263590591872,
                -1.8775722618515007,
                -2.0163570632837216,
                -1.4555909896901666,
                -2.8359145236821823
            ]
        },
        {
            "positions": [
                -0.03284693551052538,
                -2.1280998098912254,
                -1.854683756038388,
                -2.1763604420330926,
                -1.5268846279826809,
                -2.9617745726619065
            ]
        },
        {
            "positions": [
                -0.033657015786026985,
                -2.1259732607232635,
                -1.831795250225275,
                -2.3363638207824646,
                -1.5981782662751958,
                -3.087634621641631
            ]
        }
    ]
}