{
    "goal": {
        "global_pose": {
            "orientation": {
                "w": -0.00223480608172531,
                "x": 0.0024358444001904467,
                "y": 0.7094548369677653,
                "z": -0.704743149386269
            },
            "position": {
                "x": -0.37947507619857795,
                "y": -0.6371506643295288,
                "z": 0.19426114857196808
            }
        },
        "name": "move_to_magneteinheit_C"
    },
    "id": "LazyPRMstar_move_to_magneteinheit_C_115",
    "joint_names": [
        "shoulder_pan_joint",
        "shoulder_lift_joint",
        "elbow_joint",
        "wrist_1_joint",
        "wrist_2_joint",
        "wrist_3_joint"
    ],
    "metrics": {
        "cart_traj_len": 0.7175271196712377,
        "distance_elbow_joint": 0.929511797788293,
        "distance_shoulder_lift_joint": 0.618686479709881,
        "distance_shoulder_pan_joint": 1.0231691623250494,
        "distance_wrist_1_joint": 0.2958721655483548,
        "distance_wrist_2_joint": 0.9497708663020936,
        "distance_wrist_3_joint": 0.08748689439410695,
        "smoothness": 1.1679583606257509,
        "time": 5.015509153,
        "traj_len": 1.9759801026497656,
        "weighted_distance": 2.3076208931942097
    },
    "planner": "LazyPRMstar",
    "start": {
        "state": {
            "elbow_joint": 1.9565354010623817,
            "shoulder_lift_joint": -1.4165861575791021,
            "shoulder_pan_joint": -1.6717766225146293,
            "wrist_1_joint": -0.5286633292919765,
            "wrist_2_joint": 1.472756589071564,
            "wrist_3_joint": -3.1238370188695823
        }
    },
    "waypoints": [
        {
            "positions": [
                -1.6717766225146293,
                -1.4165861575791021,
                1.9565354010623817,
                -0.5286633292919765,
                1.472756589071564,
                -3.1238370188695823
            ]
        },
        {
            "positions": [
                -1.7794922430500364,
                -1.446893392567174,
                2.0380849594066697,
                -0.5603787379644789,
                1.3411298542432986,
                -3.133587711048481
            ]
        },
        {
            "positions": [
                -1.8872078635854435,
                -1.4772006275552463,
                2.1196345177509577,
                -0.5920941466369812,
                1.2095031194150334,
                -3.1433384032273795
            ]
        },
        {
            "positions": [
                -1.9949234841208505,
                -1.5075078625433185,
                2.2011840760952457,
                -0.6238095553094837,
                1.077876384586768,
                -3.153089095406278
            ]
        },
        {
            "positions": [
                -2.1026391046562574,
                -1.5378150975313905,
                2.2827336344395337,
                -0.655524963981986,
                0.9462496497585028,
                -3.162839787585177
            ]
        },
        {
            "positions": [
                -2.2103547251916646,
                -1.5681223325194624,
                2.3642831927838217,
                -0.6872403726544885,
                0.8146229149302374,
                -3.1725904797640756
            ]
        },
        {
            "positions": [
                -2.3180703457270715,
                -1.5984295675075346,
                2.4458327511281097,
                -0.7189557813269909,
                0.6829961801019722,
                -3.182341171942974
            ]
        },
        {
            "positions": [
                -2.451304153274138,
                -1.5417990535210737,
                2.401462584246871,
                -0.7511031406969491,
                0.6387399722210643,
                -3.177826741290356
            ]
        },
        {
            "positions": [
                -2.584537960821205,
                -1.4851685395346128,
                2.3570924173656325,
                -0.7832505000669072,
                0.5944837643401565,
                -3.173312310637737
            ]
        },
        {
            "positions": [
                -2.547735352815047,
                -1.3773078589317707,
                2.2399343793789366,
                -0.7970121649913819,
                0.6183164448637185,
                -3.166661017299244
            ]
        },
        {
            "positions": [
                -2.510932744808889,
                -1.2694471783289283,
                2.1227763413922407,
                -0.8107738299158566,
                0.6421491253872806,
                -3.160009723960752
            ]
        },
        {
            "positions": [
                -2.474130136802731,
                -1.1615864977260861,
                2.005618303405545,
                -0.8245354948403313,
                0.6659818059108427,
                -3.153358430622259
            ]
        }
    ]
}