{
    "goal": {
        "global_pose": {
            "orientation": {
                "w": 0.7031023480610252,
                "x": -0.7110244013736278,
                "y": 0.0077485991402295624,
                "z": 0.005598929693374583
            },
            "position": {
                "x": -0.8841497679147869,
                "y": 0.44412534475326537,
                "z": 0.3711530566215515
            }
        },
        "name": "move_to_auspresseinheit_D"
    },
    "id": "LazyPRMstar_move_to_auspresseinheit_D_65",
    "joint_names": [
        "shoulder_pan_joint",
        "shoulder_lift_joint",
        "elbow_joint",
        "wrist_1_joint",
        "wrist_2_joint",
        "wrist_3_joint"
    ],
    "metrics": {
        "cart_traj_len": 0.3430409716736482,
        "distance_elbow_joint": 0.6383317007425802,
        "distance_shoulder_lift_joint": 0.12144553880985898,
        "distance_shoulder_pan_joint": 0.13391810976812596,
        "distance_wrist_1_joint": 0.5317797191535463,
        "distance_wrist_2_joint": 1.4415043932726925,
        "distance_wrist_3_joint": 0.008072394030788743,
        "smoothness": 3.9474596431116675e-16,
        "time": 5.000952552999999,
        "traj_len": 1.695597787146938,
        "weighted_distance": 2.2055567905328144
    },
    "planner": "LazyPRMstar",
    "start": {
        "state": {
            "elbow_joint": -1.8275523626775212,
            "shoulder_lift_joint": -2.126789852344167,
            "shoulder_pan_joint": -0.03513704404078235,
            "wrist_1_joint": -2.347782403156801,
            "wrist_2_joint": -1.6058999987535132,
            "wrist_3_joint": -3.0880379163319196
        }
    },
    "waypoints": [
        {
            "positions": [
                -0.03513704404078235,
                -2.126789852344167,
                -1.8275523626775212,
                -2.347782403156801,
                -1.6058999987535132,
                -3.0880379163319196
            ]
        },
        {
            "positions": [
                -0.051876807761798094,
                -2.141970544695399,
                -1.7477609000846988,
                -2.4142548680509943,
                -1.4257119495944266,
                -3.087028867078071
            ]
        },
        {
            "positions": [
                -0.06861657148281383,
                -2.1571512370466315,
                -1.667969437491876,
                -2.4807273329451873,
                -1.24552390043534,
                -3.0860198178242224
            ]
        },
        {
            "positions": [
                -0.08535633520382958,
                -2.172331929397864,
                -1.5881779748990537,
                -2.5471997978393808,
                -1.0653358512762536,
                -3.085010768570374
            ]
        },
        {
            "positions": [
                -0.10209609892484534,
                -2.1875126217490966,
                -1.508386512306231,
                -2.613672262733574,
                -0.8851478021171669,
                -3.0840017193165252
            ]
        },
        {
            "positions": [
                -0.11883586264586107,
                -2.202693314100329,
                -1.4285950497134086,
                -2.6801447276277672,
                -0.7049597529580803,
                -3.0829926700626764
            ]
        },
        {
            "positions": [
                -0.1355756263668768,
                -2.217874006451561,
                -1.3488035871205861,
                -2.7466171925219607,
                -0.5247717037989938,
                -3.081983620808828
            ]
        },
        {
            "positions": [
                -0.15231539008789258,
                -2.2330546988027935,
                -1.2690121245277637,
                -2.8130896574161537,
                -0.34458365463990726,
                -3.0809745715549797
            ]
        },
        {
            "positions": [
                -0.16905515380890832,
                -2.248235391154026,
                -1.189220661934941,
                -2.879562122310347,
                -0.16439560548082066,
                -3.079965522301131
            ]
        }
    ]
}