{
    "goal": {
        "global_pose": {
            "orientation": {
                "w": 0.7031023480610252,
                "x": -0.7110244013736278,
                "y": 0.0077485991402295624,
                "z": 0.005598929693374583
            },
            "position": {
                "x": -0.8841497679147869,
                "y": 0.44412534475326537,
                "z": 0.3711530566215515
            }
        },
        "name": "move_to_auspresseinheit_D"
    },
    "id": "LazyPRM_move_to_auspresseinheit_D_57",
    "joint_names": [
        "shoulder_pan_joint",
        "shoulder_lift_joint",
        "elbow_joint",
        "wrist_1_joint",
        "wrist_2_joint",
        "wrist_3_joint"
    ],
    "metrics": {
        "cart_traj_len": 0.3443054545797567,
        "distance_elbow_joint": 0.64641701590219,
        "distance_shoulder_lift_joint": 0.12484230155475373,
        "distance_shoulder_pan_joint": 0.1345769675510705,
        "distance_wrist_1_joint": 0.560805972081138,
        "distance_wrist_2_joint": 1.429208013775716,
        "distance_wrist_3_joint": 0.015325049572331384,
        "smoothness": 0.0,
        "time": 0.012814085000000001,
        "traj_len": 1.7062166686670246,
        "weighted_distance": 2.2207745057611583
    },
    "planner": "LazyPRM",
    "start": {
        "state": {
            "elbow_joint": -1.8275523626775212,
            "shoulder_lift_joint": -2.126789852344167,
            "shoulder_pan_joint": -0.03513704404078235,
            "wrist_1_joint": -2.347782403156801,
            "wrist_2_joint": -1.6058999987535132,
            "wrist_3_joint": -3.0880379163319196
        }
    },
    "waypoints": [
        {
            "positions": [
                -0.03513704404078235,
                -2.126789852344167,
                -1.8275523626775212,
                -2.347782403156801,
                -1.6058999987535132,
                -3.0880379163319196
            ]
        },
        {
            "positions": [
                -0.051959164984666156,
                -2.142395140038511,
                -1.7467502356897475,
                -2.417883149666943,
                -1.4272489970315487,
                -3.086122285135378
            ]
        },
        {
            "positions": [
                -0.06878128592854997,
                -2.1580004277328553,
                -1.6659481087019736,
                -2.4879838961770853,
                -1.2485979953095843,
                -3.084206653938837
            ]
        },
        {
            "positions": [
                -0.08560340687243378,
                -2.1736057154271995,
                -1.5851459817142,
                -2.5580846426872275,
                -1.0699469935876196,
                -3.0822910227422953
            ]
        },
        {
            "positions": [
                -0.10242552781631759,
                -2.1892110031215437,
                -1.504343854726426,
                -2.6281853891973697,
                -0.8912959918656552,
                -3.080375391545754
            ]
        },
        {
            "positions": [
                -0.11924764876020141,
                -2.204816290815888,
                -1.4235417277386524,
                -2.6982861357075123,
                -0.7126449901436908,
                -3.0784597603492125
            ]
        },
        {
            "positions": [
                -0.13606976970408521,
                -2.220421578510232,
                -1.3427396007508787,
                -2.7683868822176545,
                -0.5339939884217262,
                -3.076544129152671
            ]
        },
        {
            "positions": [
                -0.15289189064796901,
                -2.2360268662045764,
                -1.2619374737631048,
                -2.8384876287277967,
                -0.3553429866997617,
                -3.07462849795613
            ]
        },
        {
            "positions": [
                -0.16971401159185284,
                -2.2516321538989206,
                -1.1811353467753312,
                -2.908588375237939,
                -0.17669198497779717,
                -3.072712866759588
            ]
        }
    ]
}