{
    "goal": {
        "global_pose": {
            "orientation": {
                "w": 0.7047431493862688,
                "x": -0.7094548369677653,
                "y": 0.0024358444001904,
                "z": -0.0022348060817251984
            },
            "position": {
                "x": -0.39052492380142206,
                "y": 0.3671506643295288,
                "z": 0.19426114857196808
            }
        },
        "name": "move_to_magneteinheit_D"
    },
    "id": "LazyPRMstar_move_to_magneteinheit_D_7",
    "joint_names": [
        "shoulder_pan_joint",
        "shoulder_lift_joint",
        "elbow_joint",
        "wrist_1_joint",
        "wrist_2_joint",
        "wrist_3_joint"
    ],
    "metrics": {
        "cart_traj_len": 3.7940006822415535,
        "distance_elbow_joint": 3.28211767050757,
        "distance_shoulder_lift_joint": 1.6281147437108834,
        "distance_shoulder_pan_joint": 3.0917345840301196,
        "distance_wrist_1_joint": 1.522880504455275,
        "distance_wrist_2_joint": 1.0235426494553828,
        "distance_wrist_3_joint": 3.2222967241774914,
        "smoothness": 0.3923115669938173,
        "time": 5.048264905,
        "traj_len": 3.7108876130026798,
        "weighted_distance": 4.770922707255102
    },
    "planner": "LazyPRMstar",
    "start": {
        "state": {
            "elbow_joint": 0.749534889911806,
            "shoulder_lift_joint": -0.6476975780787326,
            "shoulder_pan_joint": -2.711696901376241,
            "wrist_1_joint": -0.07506478083263063,
            "wrist_2_joint": 0.43296659715538205,
            "wrist_3_joint": -3.14703540197715
        }
    },
    "waypoints": [
        {
            "positions": [
                -2.711696901376241,
                -0.6476975780787326,
                0.749534889911806,
                -0.07506478083263063,
                0.43296659715538205,
                -3.14703540197715
            ]
        },
        {
            "positions": [
                -2.7722977780323355,
                -0.732391219719293,
                0.6766878400759673,
                -0.0064740351046991,
                0.45998835676139854,
                -3.146390886982209
            ]
        },
        {
            "positions": [
                -2.83289865468843,
                -0.8170848613598534,
                0.6038407902401287,
                0.06211671062323243,
                0.48701011636741504,
                -3.145746371987268
            ]
        },
        {
            "positions": [
                -2.758338654716032,
                -0.849723547017041,
                0.48114989045898693,
                0.10816919383580655,
                0.4675601126596545,
                -3.0568083199635225
            ]
        },
        {
            "positions": [
                -2.683778654743634,
                -0.8823622326742286,
                0.3584589906778451,
                0.15422167704838066,
                0.44811010895189396,
                -2.967870267939777
            ]
        },
        {
            "positions": [
                -2.609218654771236,
                -0.9150009183314163,
                0.2357680908967033,
                0.20027416026095476,
                0.42866010524413345,
                -2.8789322159160315
            ]
        },
        {
            "positions": [
                -2.5346586547988386,
                -0.9476396039886039,
                0.11307719111556147,
                0.2463266434735289,
                0.40921010153637294,
                -2.789994163892286
            ]
        },
        {
            "positions": [
                -2.4600986548264405,
                -0.9802782896457914,
                -0.009613708665580423,
                0.292379126686103,
                0.3897600978286124,
                -2.7010561118685406
            ]
        },
        {
            "positions": [
                -2.3855386548540425,
                -1.012916975302979,
                -0.1323046084467221,
                0.3384316098986771,
                0.37031009412085186,
                -2.612118059844795
            ]
        },
        {
            "positions": [
                -2.310978654881645,
                -1.0455556609601668,
                -0.254995508227864,
                0.38448409311125126,
                0.3508600904130913,
                -2.5231800078210496
            ]
        },
        {
            "positions": [
                -2.236418654909247,
                -1.0781943466173542,
                -0.37768640800900577,
                0.43053657632382536,
                0.3314100867053308,
                -2.434241955797304
            ]
        },
        {
            "positions": [
                -2.1618586549368493,
                -1.1108330322745419,
                -0.5003773077901476,
                0.47658905953639946,
                0.3119600829975703,
                -2.3453039037735586
            ]
        },
        {
            "positions": [
                -2.087298654964451,
                -1.1434717179317295,
                -0.6230682075712896,
                0.5226415427489736,
                0.29251007928980977,
                -2.2563658517498126
            ]
        },
        {
            "positions": [
                -2.012738654992053,
                -1.1761104035889172,
                -0.7457591073524311,
                0.5686940259615477,
                0.27306007558204926,
                -2.1674277997260676
            ]
        },
        {
            "positions": [
                -1.9381786550196556,
                -1.2087490892461048,
                -0.8684500071335729,
                0.6147465091741218,
                0.25361007187428874,
                -2.0784897477023216
            ]
        },
        {
            "positions": [
                -1.8636186550472575,
                -1.2413877749032924,
                -0.9911409069147149,
                0.6607989923866959,
                0.23416006816652818,
                -1.9895516956785764
            ]
        },
        {
            "positions": [
                -1.7890586550748597,
                -1.27402646056048,
                -1.1138318066958566,
                0.7068514755992701,
                0.2147100644587676,
                -1.9006136436548307
            ]
        },
        {
            "positions": [
                -1.714498655102462,
                -1.3066651462176677,
                -1.2365227064769981,
                0.7529039588118441,
                0.1952600607510071,
                -1.8116755916310854
            ]
        },
        {
            "positions": [
                -1.639938655130064,
                -1.3393038318748554,
                -1.3592136062581401,
                0.7989564420244183,
                0.1758100570432466,
                -1.7227375396073399
            ]
        },
        {
            "positions": [
                -1.565378655157666,
                -1.371942517532043,
                -1.4819045060392821,
                0.8450089252369924,
                0.15636005333548603,
                -1.6337994875835942
            ]
        },
        {
            "positions": [
                -1.4908186551852685,
                -1.4045812031892306,
                -1.6045954058204237,
                0.8910614084495665,
                0.13691004962772552,
                -1.544861435559849
            ]
        },
        {
            "positions": [
                -1.4162586552128704,
                -1.437219888846418,
                -1.7272863056015657,
                0.9371138916621405,
                0.117460045919965,
                -1.4559233835361032
            ]
        },
        {
            "positions": [
                -1.3416986552404726,
                -1.469858574503606,
                -1.8499772053827077,
                0.9831663748747147,
                0.09801004221220444,
                -1.3669853315123577
            ]
        },
        {
            "positions": [
                -1.2671386552680748,
                -1.5024972601607933,
                -1.9726681051638493,
                1.0292188580872887,
                0.07856003850444399,
                -1.2780472794886124
            ]
        },
        {
            "positions": [
                -1.192578655295677,
                -1.5351359458179812,
                -2.095359004944991,
                1.075271341299863,
                0.05911003479668342,
                -1.1891092274648667
            ]
        },
        {
            "positions": [
                -1.118018655323279,
                -1.5677746314751686,
                -2.218049904726133,
                1.1213238245124373,
                0.039660031088922854,
                -1.1001711754411212
            ]
        },
        {
            "positions": [
                -1.0434586553508811,
                -1.6004133171323562,
                -2.3407408045072744,
                1.1673763077250112,
                0.0202100273811624,
                -1.0112331234173757
            ]
        },
        {
            "positions": [
                -0.9688986553784833,
                -1.6330520027895439,
                -2.4634317042884164,
                1.2134287909375852,
                0.0007600236734018467,
                -0.9222950713936304
            ]
        },
        {
            "positions": [
                -0.8340232167009706,
                -1.6965158222045449,
                -2.4621431148108566,
                1.2267301302037434,
                -0.021030013432322203,
                -0.8087098500473091
            ]
        },
        {
            "positions": [
                -0.6991477780234578,
                -1.759979641619546,
                -2.4608545253332967,
                1.240031469469902,
                -0.04282005053804625,
                -0.6951246287009877
            ]
        },
        {
            "positions": [
                -0.5642723393459451,
                -1.8234434610345467,
                -2.459565935855737,
                1.2533328087360602,
                -0.0646100876437703,
                -0.5815394073546664
            ]
        },
        {
            "positions": [
                -0.4293969006684324,
                -1.8869072804495477,
                -2.458277346378177,
                1.2666341480022185,
                -0.08640012474949435,
                -0.467954186008345
            ]
        },
        {
            "positions": [
                -0.29452146199091966,
                -1.9503710998645487,
                -2.4569887569006172,
                1.2799354872683768,
                -0.1081901618552184,
                -0.3543689646620236
            ]
        },
        {
            "positions": [
                -0.15964602331340694,
                -2.0138349192795495,
                -2.4557001674230574,
                1.2932368265345353,
                -0.12998019896094243,
                -0.2407837433157023
            ]
        },
        {
            "positions": [
                -0.02477058463589419,
                -2.0772987386945507,
                -2.4544115779454976,
                1.3065381658006936,
                -0.15177023606666648,
                -0.1271985219693809
            ]
        },
        {
            "positions": [
                -0.07890550485769268,
                -2.1434699330595723,
                -2.434367927957355,
                1.353630685074677,
                -0.04153064346357696,
                -0.05971190724613985
            ]
        },
        {
            "positions": [
                -0.13304042507949118,
                -2.2096411274245944,
                -2.414324277969212,
                1.4007232043486608,
                0.06870894913951256,
                0.007774707477101184
            ]
        },
        {
            "positions": [
                -0.18717534530128968,
                -2.275812321789616,
                -2.394280627981069,
                1.4478157236226443,
                0.17894854174260208,
                0.07526132220034223
            ]
        }
    ]
}