{
    "goal": {
        "global_pose": {
            "orientation": {
                "w": 0.7031023480610252,
                "x": -0.7110244013736278,
                "y": 0.0077485991402295624,
                "z": 0.005598929693374583
            },
            "position": {
                "x": -0.8841497679147869,
                "y": 0.44412534475326537,
                "z": 0.3711530566215515
            }
        },
        "name": "move_to_auspresseinheit_D"
    },
    "id": "LazyPRMstar_move_to_auspresseinheit_D_101",
    "joint_names": [
        "shoulder_pan_joint",
        "shoulder_lift_joint",
        "elbow_joint",
        "wrist_1_joint",
        "wrist_2_joint",
        "wrist_3_joint"
    ],
    "metrics": {
        "cart_traj_len": 0.34361177026755374,
        "distance_elbow_joint": 0.6560723261351069,
        "distance_shoulder_lift_joint": 0.13139741922944337,
        "distance_shoulder_pan_joint": 0.13354809106567886,
        "distance_wrist_1_joint": 0.5898832866262453,
        "distance_wrist_2_joint": 1.4374105684363205,
        "distance_wrist_3_joint": 0.044645354920903824,
        "smoothness": 1.9737298371844314e-16,
        "time": 5.000259366,
        "traj_len": 1.730016487324239,
        "weighted_distance": 2.260429519210469
    },
    "planner": "LazyPRMstar",
    "start": {
        "state": {
            "elbow_joint": -1.8275523626775212,
            "shoulder_lift_joint": -2.126789852344167,
            "shoulder_pan_joint": -0.03513704404078235,
            "wrist_1_joint": -2.347782403156801,
            "wrist_2_joint": -1.6058999987535132,
            "wrist_3_joint": -3.0880379163319196
        }
    },
    "waypoints": [
        {
            "positions": [
                -0.03513704404078235,
                -2.126789852344167,
                -1.8275523626775212,
                -2.347782403156801,
                -1.6058999987535132,
                -3.0880379163319196
            ]
        },
        {
            "positions": [
                -0.0518305554239922,
                -2.1432145297478473,
                -1.7455433219106329,
                -2.4215178139850817,
                -1.4262236776989732,
                -3.082457246966807
            ]
        },
        {
            "positions": [
                -0.06852406680720206,
                -2.159639207151528,
                -1.6635342811437446,
                -2.495253224813362,
                -1.2465473566444332,
                -3.0768765776016935
            ]
        },
        {
            "positions": [
                -0.08521757819041192,
                -2.1760638845552083,
                -1.581525240376856,
                -2.568988635641643,
                -1.066871035589893,
                -3.0712959082365807
            ]
        },
        {
            "positions": [
                -0.10191108957362177,
                -2.1924885619588883,
                -1.4995161996099677,
                -2.6427240464699233,
                -0.8871947145353529,
                -3.0657152388714675
            ]
        },
        {
            "positions": [
                -0.11860460095683165,
                -2.208913239362569,
                -1.4175071588430794,
                -2.716459457298204,
                -0.7075183934808129,
                -3.0601345695063547
            ]
        },
        {
            "positions": [
                -0.1352981123400415,
                -2.2253379167662493,
                -1.335498118076191,
                -2.790194868126485,
                -0.5278420724262727,
                -3.054553900141242
            ]
        },
        {
            "positions": [
                -0.15199162372325134,
                -2.2417625941699297,
                -1.2534890773093026,
                -2.863930278954766,
                -0.34816575137173267,
                -3.0489732307761286
            ]
        },
        {
            "positions": [
                -0.16868513510646121,
                -2.25818727157361,
                -1.1714800365424143,
                -2.937665689783046,
                -0.16848943031719263,
                -3.0433925614110158
            ]
        }
    ]
}