{
    "goal": {
        "global_pose": {
            "orientation": {
                "w": 0.7047431468963623,
                "x": -0.7094548344612122,
                "y": 0.0024358443915843964,
                "z": -0.0022348060738295317
            },
            "position": {
                "x": 0.6094750761985779,
                "y": 0.3671506643295288,
                "z": 0.19426114857196808
            }
        },
        "name": "move_to_magneteinheit_A"
    },
    "id": "LazyPRM_move_to_magneteinheit_A_140",
    "joint_names": [
        "shoulder_pan_joint",
        "shoulder_lift_joint",
        "elbow_joint",
        "wrist_1_joint",
        "wrist_2_joint",
        "wrist_3_joint"
    ],
    "metrics": {
        "cart_traj_len": 3.0303365571821197,
        "distance_elbow_joint": 3.9203060763097137,
        "distance_shoulder_lift_joint": 0.6763864727537923,
        "distance_shoulder_pan_joint": 2.8916434842135286,
        "distance_wrist_1_joint": 3.4858450577801303,
        "distance_wrist_2_joint": 2.631964153807756,
        "distance_wrist_3_joint": 0.6384950747100584,
        "smoothness": 0.23995970590809534,
        "time": 0.12412336700000001,
        "traj_len": 3.7742072438559835,
        "weighted_distance": 4.651821114422069
    },
    "planner": "LazyPRM",
    "start": {
        "state": {
            "elbow_joint": -1.9196185241190666,
            "shoulder_lift_joint": -1.2443396400964142,
            "shoulder_pan_joint": 2.6996025414629847,
            "wrist_1_joint": -1.5485510000780065,
            "wrist_2_joint": -1.5709468930060704,
            "wrist_3_joint": 0.4420197071253992
        }
    },
    "waypoints": [
        {
            "positions": [
                2.6996025414629847,
                -1.2443396400964142,
                -1.9196185241190666,
                -1.5485510000780065,
                -1.5709468930060704,
                0.4420197071253992
            ]
        },
        {
            "positions": [
                2.6147917558425404,
                -1.2476529479409728,
                -1.8104348654679308,
                -1.4427162442925332,
                -1.5074447925899135,
                0.42482294958793726
            ]
        },
        {
            "positions": [
                2.529980970222096,
                -1.2509662557855312,
                -1.701251206816795,
                -1.3368814885070597,
                -1.4439426921737566,
                0.40762619205047534
            ]
        },
        {
            "positions": [
                2.4451701846016523,
                -1.2542795636300899,
                -1.5920675481656592,
                -1.2310467327215864,
                -1.3804405917575997,
                0.3904294345130135
            ]
        },
        {
            "positions": [
                2.360359398981208,
                -1.2575928714746485,
                -1.4828838895145235,
                -1.125211976936113,
                -1.316938491341443,
                0.37323267697555157
            ]
        },
        {
            "positions": [
                2.2755486133607636,
                -1.260906179319207,
                -1.3737002308633877,
                -1.0193772211506398,
                -1.2534363909252861,
                0.35603591943808965
            ]
        },
        {
            "positions": [
                2.1907378277403193,
                -1.2642194871637655,
                -1.2645165722122518,
                -0.9135424653651664,
                -1.1899342905091292,
                0.33883916190062774
            ]
        },
        {
            "positions": [
                2.105927042119875,
                -1.2675327950083242,
                -1.1553329135611161,
                -0.807707709579693,
                -1.1264321900929724,
                0.3216424043631658
            ]
        },
        {
            "positions": [
                2.021116256499431,
                -1.2708461028528826,
                -1.0461492549099805,
                -0.7018729537942197,
                -1.0629300896768155,
                0.30444564682570396
            ]
        },
        {
            "positions": [
                1.9363054708789869,
                -1.2741594106974412,
                -0.9369655962588446,
                -0.5960381980087464,
                -0.9994279892606586,
                0.287248889288242
            ]
        },
        {
            "positions": [
                1.8514946852585425,
                -1.2774727185419998,
                -0.8277819376077087,
                -0.49020344222327306,
                -0.9359258888445017,
                0.27005213175078013
            ]
        },
        {
            "positions": [
                1.7666838996380985,
                -1.2807860263865583,
                -0.718598278956573,
                -0.38436868643779953,
                -0.8724237884283449,
                0.2528553742133182
            ]
        },
        {
            "positions": [
                1.6818731140176542,
                -1.2840993342311169,
                -0.6094146203054371,
                -0.27853393065232623,
                -0.808921688012188,
                0.2356586166758563
            ]
        },
        {
            "positions": [
                1.59706232839721,
                -1.2874126420756755,
                -0.5002309616543015,
                -0.17269917486685293,
                -0.7454195875960311,
                0.21846185913839442
            ]
        },
        {
            "positions": [
                1.5122515427767658,
                -1.290725949920234,
                -0.3910473030031656,
                -0.06686441908137941,
                -0.6819174871798743,
                0.2012651016009325
            ]
        },
        {
            "positions": [
                1.4274407571563217,
                -1.2940392577647926,
                -0.28186364435202993,
                0.03897033670409389,
                -0.6184153867637174,
                0.1840683440634706
            ]
        },
        {
            "positions": [
                1.3426299715358774,
                -1.297352565609351,
                -0.17267998570089405,
                0.1448050924895672,
                -0.5549132863475605,
                0.1668715865260087
            ]
        },
        {
            "positions": [
                1.257819185915433,
                -1.3006658734539096,
                -0.06349632704975816,
                0.2506398482750405,
                -0.49141118593140365,
                0.14967482898854678
            ]
        },
        {
            "positions": [
                1.173008400294989,
                -1.3039791812984682,
                0.0456873316013775,
                0.3564746040605138,
                -0.42790908551524676,
                0.13247807145108487
            ]
        },
        {
            "positions": [
                1.0881976146745447,
                -1.3072924891430269,
                0.15487099025251316,
                0.4623093598459873,
                -0.36440698509908986,
                0.11528131391362301
            ]
        },
        {
            "positions": [
                1.0033868290541006,
                -1.3106057969875853,
                0.26405464890364927,
                0.5681441156314604,
                -0.30090488468293297,
                0.09808455637616109
            ]
        },
        {
            "positions": [
                0.9185760434336563,
                -1.313919104832144,
                0.37323830755478493,
                0.6739788714169339,
                -0.2374027842667763,
                0.08088779883869918
            ]
        },
        {
            "positions": [
                0.8337652578132122,
                -1.3172324126767023,
                0.4824219662059206,
                0.7798136272024074,
                -0.1739006838506194,
                0.06369104130123726
            ]
        },
        {
            "positions": [
                0.7489544721927679,
                -1.320545720521261,
                0.5916056248570563,
                0.8856483829878805,
                -0.11039858343446252,
                0.046494283763775346
            ]
        },
        {
            "positions": [
                0.6641436865723236,
                -1.3238590283658196,
                0.7007892835081924,
                0.991483138773354,
                -0.046896483018305624,
                0.02929752622631343
            ]
        },
        {
            "positions": [
                0.5793329009518793,
                -1.327172336210378,
                0.809972942159328,
                1.0973178945588276,
                0.01660561739785127,
                0.01210076868885157
            ]
        },
        {
            "positions": [
                0.4945221153314354,
                -1.3304856440549366,
                0.9191566008104637,
                1.2031526503443006,
                0.08010771781400816,
                -0.005095988848610344
            ]
        },
        {
            "positions": [
                0.4097113297109911,
                -1.3337989518994953,
                1.0283402594615998,
                1.3089874061297742,
                0.14360981823016505,
                -0.02229274638607226
            ]
        },
        {
            "positions": [
                0.3249005440905468,
                -1.3371122597440537,
                1.1375239181127355,
                1.4148221619152477,
                0.20711191864632172,
                -0.039489503923534175
            ]
        },
        {
            "positions": [
                0.2400897584701025,
                -1.3404255675886123,
                1.2467075767638711,
                1.5206569177007208,
                0.2706140190624786,
                -0.05668626146099609
            ]
        },
        {
            "positions": [
                0.15527897284965864,
                -1.343738875433171,
                1.3558912354150068,
                1.6264916734861943,
                0.3341161194786355,
                -0.07388301899845795
            ]
        },
        {
            "positions": [
                0.07046818722921433,
                -1.3470521832777294,
                1.4650748940661429,
                1.7323264292716674,
                0.3976182198947924,
                -0.09107977653591992
            ]
        },
        {
            "positions": [
                -0.014342598391230012,
                -1.350365491122288,
                1.5742585527172785,
                1.8381611850571407,
                0.4611203203109493,
                -0.10827653407338181
            ]
        },
        {
            "positions": [
                -0.03423854571578287,
                -1.2667244533422428,
                1.6528623882865778,
                1.8868772494198536,
                0.36485526500362647,
                -0.07032696228015099
            ]
        },
        {
            "positions": [
                -0.002678066308830586,
                -1.1693805365526682,
                1.7224274210673918,
                1.8969606110763078,
                0.26412888796694384,
                -0.06027710993654161
            ]
        },
        {
            "positions": [
                0.0288824130981217,
                -1.0720366197630935,
                1.7919924538482055,
                1.907043972732762,
                0.1634025109302612,
                -0.05022725759293223
            ]
        },
        {
            "positions": [
                0.06044289250507398,
                -0.9746927029735188,
                1.8615574866290194,
                1.917127334389216,
                0.06267613389357857,
                -0.040177405249322846
            ]
        },
        {
            "positions": [
                0.09200337191202627,
                -0.8773487861839442,
                1.9311225194098331,
                1.92721069604567,
                -0.03805024314310407,
                -0.030127552905713464
            ]
        },
        {
            "positions": [
                0.12356385131897855,
                -0.7800048693943695,
                2.000687552190647,
                1.9372940577021243,
                -0.13877662017978665,
                -0.020077700562104082
            ]
        }
    ]
}