{
    "goal": {
        "global_pose": {
            "orientation": {
                "w": 0.7047431468963623,
                "x": -0.7094548344612122,
                "y": 0.0024358443915843964,
                "z": -0.0022348060738295317
            },
            "position": {
                "x": 0.6094750761985779,
                "y": 0.3671506643295288,
                "z": 0.19426114857196808
            }
        },
        "name": "move_to_magneteinheit_A"
    },
    "id": "LazyPRM_move_to_magneteinheit_A_113",
    "joint_names": [
        "shoulder_pan_joint",
        "shoulder_lift_joint",
        "elbow_joint",
        "wrist_1_joint",
        "wrist_2_joint",
        "wrist_3_joint"
    ],
    "metrics": {
        "cart_traj_len": 3.0922868296028536,
        "distance_elbow_joint": 3.9121883568683615,
        "distance_shoulder_lift_joint": 0.8099968539237588,
        "distance_shoulder_pan_joint": 2.847936918623427,
        "distance_wrist_1_joint": 3.4679523017457656,
        "distance_wrist_2_joint": 1.4491842466538716,
        "distance_wrist_3_joint": 1.3037279858142614,
        "smoothness": 0.10973162438066048,
        "time": 0.129276227,
        "traj_len": 3.713621771751863,
        "weighted_distance": 4.616879810397668
    },
    "planner": "LazyPRM",
    "start": {
        "state": {
            "elbow_joint": -1.9196185241190666,
            "shoulder_lift_joint": -1.2443396400964142,
            "shoulder_pan_joint": 2.6996025414629847,
            "wrist_1_joint": -1.5485510000780065,
            "wrist_2_joint": -1.5709468930060704,
            "wrist_3_joint": 0.4420197071253992
        }
    },
    "waypoints": [
        {
            "positions": [
                2.6996025414629847,
                -1.2443396400964142,
                -1.9196185241190666,
                -1.5485510000780065,
                -1.5709468930060704,
                0.4420197071253992
            ]
        },
        {
            "positions": [
                2.5865743872058395,
                -1.2514786705037229,
                -1.7982572362685352,
                -1.4824939083193822,
                -1.524932033880097,
                0.40598937975149446
            ]
        },
        {
            "positions": [
                2.4735462329486944,
                -1.2586177009110315,
                -1.6768959484180037,
                -1.4164368165607577,
                -1.4789171747541234,
                0.3699590523775897
            ]
        },
        {
            "positions": [
                2.360518078691549,
                -1.2657567313183402,
                -1.555534660567472,
                -1.3503797248021334,
                -1.43290231562815,
                0.333928725003685
            ]
        },
        {
            "positions": [
                2.247489924434404,
                -1.2728957617256489,
                -1.4341733727169408,
                -1.2843226330435091,
                -1.3868874565021765,
                0.2978983976297802
            ]
        },
        {
            "positions": [
                2.134461770177259,
                -1.2800347921329576,
                -1.312812084866409,
                -1.2182655412848846,
                -1.340872597376203,
                0.2618680702558755
            ]
        },
        {
            "positions": [
                2.0214336159201136,
                -1.2871738225402662,
                -1.1914507970158776,
                -1.1522084495262601,
                -1.2948577382502295,
                0.22583774288197075
            ]
        },
        {
            "positions": [
                1.9084054616629682,
                -1.294312852947575,
                -1.0700895091653462,
                -1.0861513577676358,
                -1.2488428791242558,
                0.189807415508066
            ]
        },
        {
            "positions": [
                1.7953773074058232,
                -1.3014518833548836,
                -0.9487282213148147,
                -1.0200942660090115,
                -1.2028280199982826,
                0.1537770881341613
            ]
        },
        {
            "positions": [
                1.6823491531486778,
                -1.3085909137621923,
                -0.8273669334642832,
                -0.954037174250387,
                -1.156813160872309,
                0.11774676076025653
            ]
        },
        {
            "positions": [
                1.5693209988915326,
                -1.315729944169501,
                -0.7060056456137516,
                -0.8879800824917626,
                -1.1107983017463354,
                0.08171643338635182
            ]
        },
        {
            "positions": [
                1.4562928446343875,
                -1.3228689745768096,
                -0.5846443577632201,
                -0.8219229907331383,
                -1.064783442620362,
                0.0456861060124471
            ]
        },
        {
            "positions": [
                1.3432646903772423,
                -1.3300080049841183,
                -0.46328306991268864,
                -0.755865898974514,
                -1.0187685834943885,
                0.009655778638542334
            ]
        },
        {
            "positions": [
                1.230236536120097,
                -1.3371470353914268,
                -0.3419217820621572,
                -0.6898088072158897,
                -0.9727537243684151,
                -0.02637454873536238
            ]
        },
        {
            "positions": [
                1.1172083818629517,
                -1.3442860657987354,
                -0.2205604942116255,
                -0.6237517154572652,
                -0.9267388652424415,
                -0.06240487610926715
            ]
        },
        {
            "positions": [
                1.0041802276058067,
                -1.3514250962060441,
                -0.09919920636109403,
                -0.5576946236986409,
                -0.8807240061164682,
                -0.09843520348317192
            ]
        },
        {
            "positions": [
                0.8911520733486615,
                -1.3585641266133528,
                0.022162081489437213,
                -0.4916375319400166,
                -0.8347091469904947,
                -0.13446553085707658
            ]
        },
        {
            "positions": [
                0.7781239190915161,
                -1.3657031570206615,
                0.1435233693399689,
                -0.4255804401813921,
                -0.7886942878645211,
                -0.17049585823098135
            ]
        },
        {
            "positions": [
                0.6650957648343709,
                -1.3728421874279702,
                0.26488465719050014,
                -0.35952334842276756,
                -0.7426794287385476,
                -0.20652618560488611
            ]
        },
        {
            "positions": [
                0.5520676105772258,
                -1.3799812178352788,
                0.3862459450410318,
                -0.2934662566641433,
                -0.6966645696125743,
                -0.24255651297879077
            ]
        },
        {
            "positions": [
                0.43903945632008057,
                -1.3871202482425875,
                0.5076072328915635,
                -0.22740916490551877,
                -0.6506497104866007,
                -0.27858684035269554
            ]
        },
        {
            "positions": [
                0.3260113020629354,
                -1.3942592786498962,
                0.6289685207420947,
                -0.16135207314689448,
                -0.6046348513606272,
                -0.3146171677266003
            ]
        },
        {
            "positions": [
                0.2129831478057902,
                -1.4013983090572049,
                0.7503298085926264,
                -0.0952949813882702,
                -0.5586199922346538,
                -0.35064749510050497
            ]
        },
        {
            "positions": [
                0.09995499354864501,
                -1.4085373394645135,
                0.8716910964431581,
                -0.029237889629645686,
                -0.5126051331086803,
                -0.38667782247440985
            ]
        },
        {
            "positions": [
                -0.013073160708500203,
                -1.4156763698718222,
                0.9930523842936896,
                0.03681920212897849,
                -0.4665902739827068,
                -0.4227081498483145
            ]
        },
        {
            "positions": [
                -0.00876689364875281,
                -1.3630888489579387,
                1.0817456153789375,
                0.19757220275181972,
                -0.4352476558448619,
                -0.3853251076015459
            ]
        },
        {
            "positions": [
                -0.004460626589005418,
                -1.3105013280440554,
                1.1704388464641855,
                0.35832520337466095,
                -0.4039050377070171,
                -0.34794206535477734
            ]
        },
        {
            "positions": [
                -0.0001543595292580243,
                -1.2579138071301719,
                1.2591320775494332,
                0.5190782039975022,
                -0.37256241956917224,
                -0.31055902310800876
            ]
        },
        {
            "positions": [
                0.0041519075304893675,
                -1.2053262862162883,
                1.3478253086346812,
                0.6798312046203434,
                -0.34121980143132735,
                -0.2731759808612402
            ]
        },
        {
            "positions": [
                0.008458174590236765,
                -1.1527387653024048,
                1.4365185397199292,
                0.8405842052431847,
                -0.30987718329348246,
                -0.2357929386144716
            ]
        },
        {
            "positions": [
                0.012764441649984155,
                -1.1001512443885215,
                1.5252117708051771,
                1.001337205866026,
                -0.2785345651556376,
                -0.198409896367703
            ]
        },
        {
            "positions": [
                0.017070708709731548,
                -1.047563723474638,
                1.613905001890425,
                1.162090206488867,
                -0.24719194701779273,
                -0.16102685412093443
            ]
        },
        {
            "positions": [
                0.02137697576947894,
                -0.9949762025607545,
                1.702598232975673,
                1.3228432071117084,
                -0.2158493288799479,
                -0.12364381187416584
            ]
        },
        {
            "positions": [
                0.025683242829226335,
                -0.9423886816468711,
                1.791291464060921,
                1.4835962077345495,
                -0.184506710742103,
                -0.08626076962739723
            ]
        },
        {
            "positions": [
                0.05785151380063184,
                -0.8872645363390712,
                1.8583842536237123,
                1.628864572378953,
                -0.163592022612135,
                -0.05207652008752027
            ]
        },
        {
            "positions": [
                0.09001978477203734,
                -0.8321403910312714,
                1.9254770431865036,
                1.7741329370233563,
                -0.14267733448216705,
                -0.017892270547643307
            ]
        },
        {
            "positions": [
                0.12218805574344285,
                -0.7770162457234715,
                1.9925698327492949,
                1.9194013016677598,
                -0.12176264635219905,
                0.016291978992233662
            ]
        }
    ]
}