{
    "goal": {
        "global_pose": {
            "orientation": {
                "w": 0.005598929693374612,
                "x": 0.007748599140229565,
                "y": 0.7110244013736278,
                "z": -0.7031023480610252
            },
            "position": {
                "x": 0.1141497679147869,
                "y": -0.7141253447532654,
                "z": 0.3711530566215515
            }
        },
        "name": "move_to_auspresseinheit_B"
    },
    "id": "LazyPRM_move_to_auspresseinheit_B_70",
    "joint_names": [
        "shoulder_pan_joint",
        "shoulder_lift_joint",
        "elbow_joint",
        "wrist_1_joint",
        "wrist_2_joint",
        "wrist_3_joint"
    ],
    "metrics": {
        "cart_traj_len": 0.564934493637175,
        "distance_elbow_joint": 0.06537381760631433,
        "distance_shoulder_lift_joint": 0.29366011884929333,
        "distance_shoulder_pan_joint": 0.5761275602941829,
        "distance_wrist_1_joint": 0.3391095072748149,
        "distance_wrist_2_joint": 1.003087110904604,
        "distance_wrist_3_joint": 0.0003051730891940885,
        "smoothness": 2.5376526478085547e-16,
        "time": 0.011714898999999999,
        "traj_len": 1.5091929260430568,
        "weighted_distance": 1.90275333461177
    },
    "planner": "LazyPRM",
    "start": {
        "state": {
            "elbow_joint": 2.0193083361928714,
            "shoulder_lift_joint": -1.1220246554650708,
            "shoulder_pan_joint": -1.0952077554168747,
            "wrist_1_joint": -0.8559753972642168,
            "wrist_2_joint": 0.4759566250798843,
            "wrist_3_joint": -3.1240929996934557
        }
    },
    "waypoints": [
        {
            "positions": [
                -1.0952077554168747,
                -1.1220246554650708,
                2.0193083361928714,
                -0.8559753972642168,
                0.4759566250798843,
                -3.1240929996934557
            ]
        },
        {
            "positions": [
                -1.191229015465905,
                -1.1709680086066196,
                2.0084126999251524,
                -0.7994571460517477,
                0.6431378102306516,
                -3.124143861874988
            ]
        },
        {
            "positions": [
                -1.2872502755149355,
                -1.2199113617481685,
                1.9975170636574333,
                -0.7429388948392784,
                0.8103189953814189,
                -3.12419472405652
            ]
        },
        {
            "positions": [
                -1.3832715355639662,
                -1.2688547148897173,
                1.9866214273897143,
                -0.6864206436268093,
                0.9775001805321863,
                -3.124245586238053
            ]
        },
        {
            "positions": [
                -1.4792927956129964,
                -1.3177980680312664,
                1.9757257911219952,
                -0.6299023924143402,
                1.1446813656829535,
                -3.124296448419585
            ]
        },
        {
            "positions": [
                -1.575314055662027,
                -1.3667414211728153,
                1.9648301548542761,
                -0.573384141201871,
                1.311862550833721,
                -3.1243473106011175
            ]
        },
        {
            "positions": [
                -1.6713353157110575,
                -1.4156847743143641,
                1.953934518586557,
                -0.5168658899894019,
                1.4790437359844884,
                -3.1243981727826498
            ]
        }
    ]
}