{
    "goal": {
        "global_pose": {
            "orientation": {
                "w": -0.00223480608172531,
                "x": 0.0024358444001904467,
                "y": 0.7094548369677653,
                "z": -0.704743149386269
            },
            "position": {
                "x": 0.6205249238014221,
                "y": -0.6371506643295288,
                "z": 0.19426114857196808
            }
        },
        "name": "move_to_magneteinheit_B"
    },
    "id": "LazyPRMstar_move_to_magneteinheit_B_35",
    "joint_names": [
        "shoulder_pan_joint",
        "shoulder_lift_joint",
        "elbow_joint",
        "wrist_1_joint",
        "wrist_2_joint",
        "wrist_3_joint"
    ],
    "metrics": {
        "cart_traj_len": 1.9282126369678902,
        "distance_elbow_joint": 1.070550478138338,
        "distance_shoulder_lift_joint": 2.7403280836664097,
        "distance_shoulder_pan_joint": 1.6225331059760815,
        "distance_wrist_1_joint": 0.19808825224473736,
        "distance_wrist_2_joint": 1.513871383967557,
        "distance_wrist_3_joint": 0.0711810880252339,
        "smoothness": 0.6307224963172777,
        "time": 5.013989573,
        "traj_len": 2.6863641584897526,
        "weighted_distance": 3.0117892031616553
    },
    "planner": "LazyPRMstar",
    "start": {
        "state": {
            "elbow_joint": 2.6216224122426386,
            "shoulder_lift_joint": -1.4174107377796124,
            "shoulder_pan_joint": 0.7066234856936794,
            "wrist_1_joint": 1.9546482284002225,
            "wrist_2_joint": -0.7096286983471962,
            "wrist_3_joint": 0.005740856962016249
        }
    },
    "waypoints": [
        {
            "positions": [
                0.7066234856936794,
                -1.4174107377796124,
                2.6216224122426386,
                1.9546482284002225,
                -0.7096286983471962,
                0.005740856962016249
            ]
        },
        {
            "positions": [
                0.6852249042333826,
                -1.6161613865696676,
                2.6335371523055207,
                1.9563091316167267,
                -0.8404364636367846,
                -0.0015355232319615953
            ]
        },
        {
            "positions": [
                0.6638263227730858,
                -1.8149120353597228,
                2.6454518923684027,
                1.957970034833231,
                -0.971244228926373,
                -0.00881190342593944
            ]
        },
        {
            "positions": [
                0.642427741312789,
                -2.013662684149778,
                2.657366632431285,
                1.959630938049735,
                -1.1020519942159615,
                -0.01608828361991728
            ]
        },
        {
            "positions": [
                0.6210291598524922,
                -2.212413332939833,
                2.669281372494167,
                1.9612918412662392,
                -1.23285975950555,
                -0.023364663813895126
            ]
        },
        {
            "positions": [
                0.5996305783921955,
                -2.411163981729888,
                2.681196112557049,
                1.9629527444827435,
                -1.3636675247951382,
                -0.030641044007872972
            ]
        },
        {
            "positions": [
                0.49137770705829564,
                -2.286408636035879,
                2.6089834855696257,
                1.9765087256371876,
                -1.4250841360465394,
                -0.028155387789634067
            ]
        },
        {
            "positions": [
                0.3831248357243958,
                -2.161653290341869,
                2.536770858582202,
                1.9900647067916315,
                -1.4865007472979404,
                -0.02566973157139516
            ]
        },
        {
            "positions": [
                0.274871964390496,
                -2.0368979446478597,
                2.4645582315947787,
                2.0036206879460754,
                -1.5479173585493413,
                -0.023184075353156253
            ]
        },
        {
            "positions": [
                0.16661909305659617,
                -1.91214259895385,
                2.3923456046073555,
                2.0171766691005195,
                -1.6093339698007425,
                -0.020698419134917347
            ]
        },
        {
            "positions": [
                0.05836622172269634,
                -1.7873872532598405,
                2.3201329776199318,
                2.0307326502549636,
                -1.6707505810521437,
                -0.018212762916678442
            ]
        },
        {
            "positions": [
                -0.04988664961120348,
                -1.6626319075658311,
                2.2479203506325085,
                2.0442886314094078,
                -1.7321671923035447,
                -0.015727106698439533
            ]
        },
        {
            "positions": [
                -0.1581395209451033,
                -1.5378765618718213,
                2.1757077236450852,
                2.0578446125638514,
                -1.7935838035549456,
                -0.013241450480200628
            ]
        },
        {
            "positions": [
                -0.26639239227900313,
                -1.413121216177812,
                2.103495096657662,
                2.0714005937182955,
                -1.8550004148063468,
                -0.010755794261961722
            ]
        },
        {
            "positions": [
                -0.37464526361290307,
                -1.2883658704838024,
                2.0312824696702383,
                2.0849565748727397,
                -1.916417026057748,
                -0.008270138043722813
            ]
        },
        {
            "positions": [
                -0.4828981349468028,
                -1.1636105247897928,
                1.959069842682815,
                2.098512556027184,
                -1.977833637309149,
                -0.005784481825483908
            ]
        },
        {
            "positions": [
                -0.5911510062807025,
                -1.0388551790957832,
                1.8868572156953916,
                2.112068537181628,
                -2.03925024856055,
                -0.0032988256072450026
            ]
        },
        {
            "positions": [
                -0.6994038776146024,
                -0.9140998334017738,
                1.814644588707968,
                2.1256245183360716,
                -2.100666859811951,
                -0.0008131693890060972
            ]
        },
        {
            "positions": [
                -0.8076567489485024,
                -0.7893444877077642,
                1.7424319617205448,
                2.1391804994905157,
                -2.1620834710633523,
                0.0016724868292328152
            ]
        },
        {
            "positions": [
                -0.9159096202824021,
                -0.6645891420137546,
                1.6702193347331213,
                2.15273648064496,
                -2.2235000823147533,
                0.004158143047471718
            ]
        }
    ]
}