{
    "goal": {
        "global_pose": {
            "orientation": {
                "w": 0.005598929693374612,
                "x": 0.007748599140229565,
                "y": 0.7110244013736278,
                "z": -0.7031023480610252
            },
            "position": {
                "x": -0.8858502320852131,
                "y": -0.7141253447532654,
                "z": 0.3711530566215515
            }
        },
        "name": "move_to_auspresseinheit_C"
    },
    "id": "LazyPRMstar_move_to_auspresseinheit_C_114",
    "joint_names": [
        "shoulder_pan_joint",
        "shoulder_lift_joint",
        "elbow_joint",
        "wrist_1_joint",
        "wrist_2_joint",
        "wrist_3_joint"
    ],
    "metrics": {
        "cart_traj_len": 0.4936402871062486,
        "distance_elbow_joint": 0.998990232219009,
        "distance_shoulder_lift_joint": 0.3243745641348321,
        "distance_shoulder_pan_joint": 0.25692011324381037,
        "distance_wrist_1_joint": 0.6742421404862242,
        "distance_wrist_2_joint": 1.3103460887143104,
        "distance_wrist_3_joint": 0.0538268835768676,
        "smoothness": 4.844609574787718e-16,
        "time": 5.001164716,
        "traj_len": 1.9022881018329094,
        "weighted_distance": 2.3897577322250316
    },
    "planner": "LazyPRMstar",
    "start": {
        "state": {
            "elbow_joint": 1.7527959577737207,
            "shoulder_lift_joint": -0.9740617694225068,
            "shoulder_pan_joint": -2.967991417825858,
            "wrist_1_joint": -0.759517768980727,
            "wrist_2_joint": 1.7443932448377408,
            "wrist_3_joint": -3.0840537646736568
        }
    },
    "waypoints": [
        {
            "positions": [
                -2.967991417825858,
                -0.9740617694225068,
                1.7527959577737207,
                -0.759517768980727,
                1.7443932448377408,
                -3.0840537646736568
            ]
        },
        {
            "positions": [
                -2.942299406501477,
                -0.9416243130090236,
                1.6528969345518199,
                -0.6920935549321046,
                1.6133586359663097,
                -3.0894364530313436
            ]
        },
        {
            "positions": [
                -2.916607395177096,
                -0.9091868565955403,
                1.5529979113299188,
                -0.6246693408834821,
                1.4823240270948788,
                -3.0948191413890305
            ]
        },
        {
            "positions": [
                -2.8909153838527146,
                -0.8767494001820572,
                1.453098888108018,
                -0.5572451268348597,
                1.3512894182234478,
                -3.100201829746717
            ]
        },
        {
            "positions": [
                -2.865223372528334,
                -0.8443119437685739,
                1.353199864886117,
                -0.4898209127862373,
                1.2202548093520167,
                -3.1055845181044037
            ]
        },
        {
            "positions": [
                -2.839531361203953,
                -0.8118744873550907,
                1.2533008416642162,
                -0.4223966987376149,
                1.0892202004805855,
                -3.1109672064620906
            ]
        },
        {
            "positions": [
                -2.8138393498795717,
                -0.7794370309416075,
                1.1534018184423154,
                -0.35497248468899245,
                0.9581855916091546,
                -3.1163498948197774
            ]
        },
        {
            "positions": [
                -2.7881473385551905,
                -0.7469995745281243,
                1.0535027952204143,
                -0.2875482706403701,
                0.8271509827377237,
                -3.1217325831774643
            ]
        },
        {
            "positions": [
                -2.7624553272308097,
                -0.7145621181146411,
                0.9536037719985134,
                -0.2201240565917476,
                0.6961163738662925,
                -3.1271152715351507
            ]
        },
        {
            "positions": [
                -2.736763315906429,
                -0.6821246617011578,
                0.8537047487766126,
                -0.15269984254312519,
                0.5650817649948614,
                -3.1324979598928375
            ]
        },
        {
            "positions": [
                -2.7110713045820476,
                -0.6496872052876747,
                0.7538057255547117,
                -0.08527562849450271,
                0.4340471561234304,
                -3.1378806482505244
            ]
        }
    ]
}