{
    "goal": {
        "global_pose": {
            "orientation": {
                "w": -0.4816463035849501,
                "x": 0.5182115481033762,
                "y": 0.4908360881923453,
                "z": -0.5084816262002911
            },
            "position": {
                "x": -0.8240239810943604,
                "y": 0.19912469901144506,
                "z": 0.16403168439865112
            }
        },
        "name": "move_to_storage_D"
    },
    "id": "LazyPRM_move_to_storage_D_137",
    "joint_names": [
        "shoulder_pan_joint",
        "shoulder_lift_joint",
        "elbow_joint",
        "wrist_1_joint",
        "wrist_2_joint",
        "wrist_3_joint"
    ],
    "metrics": {
        "cart_traj_len": 4.055631793341348,
        "distance_elbow_joint": 4.214303009971841,
        "distance_shoulder_lift_joint": 1.2640529819910638,
        "distance_shoulder_pan_joint": 2.814108460185627,
        "distance_wrist_1_joint": 4.64497114566277,
        "distance_wrist_2_joint": 1.5855638427989673,
        "distance_wrist_3_joint": 3.1445407184962355,
        "smoothness": 0.31424182579936566,
        "time": 0.118366113,
        "traj_len": 4.203277311706485,
        "weighted_distance": 5.494283991983005
    },
    "planner": "LazyPRM",
    "start": {
        "state": {
            "elbow_joint": -2.384821988534728,
            "shoulder_lift_joint": -2.2788054721415256,
            "shoulder_pan_joint": -0.1854694642142757,
            "wrist_1_joint": 1.4845938289331202,
            "wrist_2_joint": 0.17898776772866878,
            "wrist_3_joint": 0.037105688729662994
        }
    },
    "waypoints": [
        {
            "positions": [
                -0.1854694642142757,
                -2.2788054721415256,
                -2.384821988534728,
                1.4845938289331202,
                0.17898776772866878,
                0.037105688729662994
            ]
        },
        {
            "positions": [
                -0.05622958702345007,
                -2.1989403325087835,
                -2.3602225845462956,
                1.4637304991234896,
                0.14083381693545813,
                0.04435080527128205
            ]
        },
        {
            "positions": [
                0.07301029016737556,
                -2.119075192876041,
                -2.3356231805578633,
                1.442867169313859,
                0.10267986614224746,
                0.05159592181290111
            ]
        },
        {
            "positions": [
                0.14186118834379707,
                -2.0874047526448485,
                -2.235650015941533,
                1.3421899063872995,
                0.13895134113160656,
                0.10348625885173862
            ]
        },
        {
            "positions": [
                0.21071208652021858,
                -2.0557343124136556,
                -2.1356768513252025,
                1.24151264346074,
                0.17522281612096563,
                0.15537659589057612
            ]
        },
        {
            "positions": [
                0.2795629846966401,
                -2.024063872182463,
                -2.0357036867088723,
                1.1408353805341802,
                0.21149429111032475,
                0.20726693292941362
            ]
        },
        {
            "positions": [
                0.34841388287306163,
                -1.9923934319512706,
                -1.9357305220925418,
                1.0401581176076207,
                0.24776576609968382,
                0.2591572699682511
            ]
        },
        {
            "positions": [
                0.41726478104948317,
                -1.960722991720078,
                -1.8357573574762114,
                0.9394808546810611,
                0.28403724108904294,
                0.31104760700708867
            ]
        },
        {
            "positions": [
                0.4861156792259047,
                -1.9290525514888854,
                -1.7357841928598812,
                0.8388035917545016,
                0.32030871607840206,
                0.36293794404592616
            ]
        },
        {
            "positions": [
                0.5549665774023261,
                -1.8973821112576927,
                -1.6358110282435507,
                0.738126328827942,
                0.35658019106776107,
                0.41482828108476366
            ]
        },
        {
            "positions": [
                0.6238174755787477,
                -1.8657116710265003,
                -1.5358378636272203,
                0.6374490659013824,
                0.3928516660571202,
                0.46671861812360116
            ]
        },
        {
            "positions": [
                0.6926683737551692,
                -1.8340412307953076,
                -1.43586469901089,
                0.5367718029748229,
                0.4291231410464793,
                0.5186089551624387
            ]
        },
        {
            "positions": [
                0.7615192719315907,
                -1.802370790564115,
                -1.3358915343945597,
                0.4360945400482632,
                0.4653946160358384,
                0.5704992922012762
            ]
        },
        {
            "positions": [
                0.8303701701080123,
                -1.7707003503329224,
                -1.2359183697782292,
                0.33541727712170366,
                0.5016660910251975,
                0.6223896292401137
            ]
        },
        {
            "positions": [
                0.8992210682844338,
                -1.73902991010173,
                -1.1359452051618988,
                0.23474001419514412,
                0.5379375660145567,
                0.6742799662789511
            ]
        },
        {
            "positions": [
                0.9680719664608551,
                -1.7073594698705372,
                -1.0359720405455686,
                0.13406275126858458,
                0.5742090410039157,
                0.7261703033177885
            ]
        },
        {
            "positions": [
                1.0369228646372766,
                -1.6756890296393447,
                -0.9359988759292381,
                0.03338548834202504,
                0.6104805159932747,
                0.7780606403566261
            ]
        },
        {
            "positions": [
                1.105773762813698,
                -1.644018589408152,
                -0.8360257113129079,
                -0.0672917745845345,
                0.6467519909826338,
                0.8299509773954636
            ]
        },
        {
            "positions": [
                1.1746246609901196,
                -1.6123481491769596,
                -0.7360525466965775,
                -0.16796903751109427,
                0.6830234659719929,
                0.8818413144343011
            ]
        },
        {
            "positions": [
                1.2434755591665412,
                -1.5806777089457669,
                -0.6360793820802471,
                -0.2686463004376538,
                0.719294940961352,
                0.9337316514731386
            ]
        },
        {
            "positions": [
                1.3123264573429627,
                -1.5490072687145742,
                -0.5361062174639166,
                -0.36932356336421335,
                0.7555664159507112,
                0.9856219885119761
            ]
        },
        {
            "positions": [
                1.3811773555193843,
                -1.5173368284833817,
                -0.4361330528475862,
                -0.4700008262907731,
                0.7918378909400703,
                1.0375123255508136
            ]
        },
        {
            "positions": [
                1.4500282536958058,
                -1.4856663882521892,
                -0.336159888231256,
                -0.5706780892173327,
                0.8281093659294294,
                1.0894026625896513
            ]
        },
        {
            "positions": [
                1.5188791518722273,
                -1.4539959480209965,
                -0.23618672361492532,
                -0.6713553521438924,
                0.8643808409187884,
                1.1412929996284888
            ]
        },
        {
            "positions": [
                1.5877300500486489,
                -1.4223255077898038,
                -0.1362135589985951,
                -0.7720326150704517,
                0.9006523159081475,
                1.1931833366673263
            ]
        },
        {
            "positions": [
                1.6565809482250704,
                -1.3906550675586113,
                -0.036240394382264896,
                -0.8727098779970115,
                0.9369237908975067,
                1.2450736737061638
            ]
        },
        {
            "positions": [
                1.725431846401492,
                -1.3589846273274186,
                0.06373277023406576,
                -0.9733871409235708,
                0.9731952658868658,
                1.2969640107450013
            ]
        },
        {
            "positions": [
                1.7942827445779135,
                -1.327314187096226,
                0.16370593485039597,
                -1.0740644038501306,
                1.009466740876225,
                1.3488543477838388
            ]
        },
        {
            "positions": [
                1.8631336427543346,
                -1.2956437468650335,
                0.2636790994667262,
                -1.17474166677669,
                1.045738215865584,
                1.4007446848226761
            ]
        },
        {
            "positions": [
                1.9319845409307561,
                -1.263973306633841,
                0.3636522640830564,
                -1.2754189297032497,
                1.082009690854943,
                1.4526350218615136
            ]
        },
        {
            "positions": [
                2.0008354391071776,
                -1.2323028664026485,
                0.46362542869938705,
                -1.376096192629809,
                1.118281165844302,
                1.5045253589003513
            ]
        },
        {
            "positions": [
                2.069686337283599,
                -1.2006324261714558,
                0.5635985933157173,
                -1.4767734555563687,
                1.154552640833661,
                1.5564156959391888
            ]
        },
        {
            "positions": [
                2.1385372354600207,
                -1.1689619859402631,
                0.6635717579320475,
                -1.577450718482928,
                1.1908241158230202,
                1.6083060329780263
            ]
        },
        {
            "positions": [
                2.2073881336364423,
                -1.1372915457090707,
                0.7635449225483781,
                -1.6781279814094878,
                1.2270955908123793,
                1.6601963700168638
            ]
        },
        {
            "positions": [
                2.276239031812864,
                -1.105621105477878,
                0.8635180871647083,
                -1.7788052443360476,
                1.2633670658017384,
                1.7120867070557013
            ]
        },
        {
            "positions": [
                2.3450899299892853,
                -1.0739506652466855,
                0.963491251781039,
                -1.879482507262607,
                1.2996385407910975,
                1.7639770440945388
            ]
        },
        {
            "positions": [
                2.413940828165707,
                -1.0422802250154928,
                1.0634644163973694,
                -1.980159770189167,
                1.3359100157804566,
                1.8158673811333763
            ]
        },
        {
            "positions": [
                2.435410644946271,
                -1.0395274515289896,
                1.140066076901344,
                -1.8621380155351186,
                1.308307436623023,
                1.9524452837426285
            ]
        },
        {
            "positions": [
                2.456880461726836,
                -1.0367746780424867,
                1.2166677374053185,
                -1.7441162608810705,
                1.2807048574655893,
                2.0890231863518807
            ]
        },
        {
            "positions": [
                2.4783502785074,
                -1.0340219045559835,
                1.2932693979092929,
                -1.6260945062270222,
                1.2531022783081556,
                2.225601088961133
            ]
        },
        {
            "positions": [
                2.499820095287965,
                -1.0312691310694804,
                1.3698710584132674,
                -1.508072751572974,
                1.2254996991507219,
                2.362178991570385
            ]
        },
        {
            "positions": [
                2.521289912068529,
                -1.0285163575829772,
                1.446472718917242,
                -1.3900509969189256,
                1.1978971199932882,
                2.498756894179637
            ]
        },
        {
            "positions": [
                2.5427597288490933,
                -1.0257635840964743,
                1.5230743794212165,
                -1.2720292422648776,
                1.1702945408358545,
                2.6353347967888894
            ]
        },
        {
            "positions": [
                2.564229545629658,
                -1.0230108106099711,
                1.5996760399251908,
                -1.1540074876108295,
                1.1426919616784208,
                2.7719126993981416
            ]
        },
        {
            "positions": [
                2.5856993624102222,
                -1.020258037123468,
                1.6762777004291656,
                -1.035985732956781,
                1.115089382520987,
                2.908490602007394
            ]
        },
        {
            "positions": [
                2.607169179190787,
                -1.017505263636965,
                1.75287936093314,
                -0.9179639783027329,
                1.0874868033635534,
                3.0450685046166464
            ]
        },
        {
            "positions": [
                2.628638995971351,
                -1.0147524901504619,
                1.8294810214371144,
                -0.7999422236486846,
                1.0598842242061197,
                3.1816464072258985
            ]
        }
    ]
}