{
    "goal": {
        "global_pose": {
            "orientation": {
                "w": 0.5084816217422485,
                "x": -0.49083608388900757,
                "y": 0.5182115435600281,
                "z": -0.4816462993621826
            },
            "position": {
                "x": 0.5540239810943604,
                "y": 0.030875300988554955,
                "z": 0.16403168439865112
            }
        },
        "name": "move_to_storage_A"
    },
    "id": "LazyPRMstar_move_to_storage_A_120",
    "joint_names": [
        "shoulder_pan_joint",
        "shoulder_lift_joint",
        "elbow_joint",
        "wrist_1_joint",
        "wrist_2_joint",
        "wrist_3_joint"
    ],
    "metrics": {
        "cart_traj_len": 0.3534704549713562,
        "distance_elbow_joint": 0.44901716346261566,
        "distance_shoulder_lift_joint": 0.23334514553186803,
        "distance_shoulder_pan_joint": 0.46087780582612753,
        "distance_wrist_1_joint": 0.24427880357477683,
        "distance_wrist_2_joint": 1.1043138239990022,
        "distance_wrist_3_joint": 0.09400066689235143,
        "smoothness": 7.771561204992932e-16,
        "time": 5.000678411,
        "traj_len": 1.6080526761542178,
        "weighted_distance": 2.0303761648141023
    },
    "planner": "LazyPRMstar",
    "start": {
        "state": {
            "elbow_joint": 1.971548259319323,
            "shoulder_lift_joint": -1.1394851275133948,
            "shoulder_pan_joint": 0.1228115487234821,
            "wrist_1_joint": -0.7804723859257726,
            "wrist_2_joint": 0.12958671773740124,
            "wrist_3_joint": -3.192489227718131
        }
    },
    "waypoints": [
        {
            "positions": [
                0.1228115487234821,
                -1.1394851275133948,
                1.971548259319323,
                -0.7804723859257726,
                0.12958671773740124,
                -3.192489227718131
            ]
        },
        {
            "positions": [
                0.05697186217689246,
                -1.1728201483036618,
                2.035693568385411,
                -0.8153693578650264,
                0.2873458354515444,
                -3.1790605610192237
            ]
        },
        {
            "positions": [
                -0.008867824369697186,
                -1.2061551690939285,
                2.099838877451499,
                -0.8502663298042803,
                0.44510495316568754,
                -3.1656318943203163
            ]
        },
        {
            "positions": [
                -0.07470751091628683,
                -1.2394901898841955,
                2.163984186517587,
                -0.8851633017435341,
                0.6028640708798307,
                -3.152203227621409
            ]
        },
        {
            "positions": [
                -0.14054719746287647,
                -1.2728252106744622,
                2.2281294955836746,
                -0.920060273682788,
                0.7606231885939739,
                -3.138774560922502
            ]
        },
        {
            "positions": [
                -0.20638688400946614,
                -1.3061602314647291,
                2.2922748046497627,
                -0.9549572456220418,
                0.9183823063081171,
                -3.1253458942235945
            ]
        },
        {
            "positions": [
                -0.27222657055605576,
                -1.3394952522549959,
                2.356420113715851,
                -0.9898542175612957,
                1.0761414240222602,
                -3.111917227524687
            ]
        },
        {
            "positions": [
                -0.33806625710264543,
                -1.3728302730452628,
                2.4205654227819386,
                -1.0247511895005494,
                1.2339005417364035,
                -3.0984885608257797
            ]
        }
    ]
}{
    "goal": {
        "global_pose": {
            "orientation": {
                "w": 0.5084816217422485,
                "x": -0.49083608388900757,
                "y": 0.5182115435600281,
                "z": -0.4816462993621826
            },
            "position": {
                "x": 0.5540239810943604,
                "y": 0.030875300988554955,
                "z": 0.16403168439865112
            }
        },
        "name": "move_to_storage_A"
    },
    "id": "LazyPRMstar_move_to_storage_A_120",
    "joint_names": [
        "shoulder_pan_joint",
        "shoulder_lift_joint",
        "elbow_joint",
        "wrist_1_joint",
        "wrist_2_joint",
        "wrist_3_joint"
    ],
    "metrics": {
        "cart_traj_len": 0.35268601829637525,
        "distance_elbow_joint": 0.4534779814689136,
        "distance_shoulder_lift_joint": 0.23372923070447515,
        "distance_shoulder_pan_joint": 0.45673027834515273,
        "distance_wrist_1_joint": 0.25935241132390385,
        "distance_wrist_2_joint": 1.1172516590341641,
        "distance_wrist_3_joint": 0.09335655658762931,
        "smoothness": 4.440892133664971e-16,
        "time": 5.00029462,
        "traj_len": 1.6167554290814177,
        "weighted_distance": 2.043823696163044
    },
    "planner": "LazyPRMstar",
    "start": {
        "state": {
            "elbow_joint": 1.97154746011099,
            "shoulder_lift_joint": -1.13948474672311,
            "shoulder_pan_joint": 0.12281154466712228,
            "wrist_1_joint": -0.7804688027058302,
            "wrist_2_joint": 0.12958655903071145,
            "wrist_3_joint": 3.0906928834467795
        }
    },
    "waypoints": [
        {
            "positions": [
                0.12281154466712228,
                -1.13948474672311,
                1.97154746011099,
                -0.7804688027058302,
                0.12958655903071145,
                3.0906928834467795
            ]
        },
        {
            "positions": [
                0.05756436204638618,
                -1.1728746368237493,
                2.0363300288922632,
                -0.8175191471806736,
                0.2891939388927349,
                3.104029534387869
            ]
        },
        {
            "positions": [
                -0.007682820574349922,
                -1.2062645269243886,
                2.1011125976735365,
                -0.854569491655517,
                0.44880131875475837,
                3.1173661853289594
            ]
        },
        {
            "positions": [
                -0.07293000319508601,
                -1.2396544170250279,
                2.16589516645481,
                -0.8916198361303604,
                0.6084086986167818,
                3.130702836270049
            ]
        },
        {
            "positions": [
                -0.1381771858158221,
                -1.2730443071256672,
                2.2306777352360836,
                -0.9286701806052038,
                0.7680160784788053,
                3.1440394872111392
            ]
        },
        {
            "positions": [
                -0.20342436843655826,
                -1.3064341972263065,
                2.295460304017357,
                -0.9657205250800472,
                0.9276234583408287,
                3.157376138152229
            ]
        },
        {
            "positions": [
                -0.2686715510572943,
                -1.3398240873269458,
                2.36024287279863,
                -1.0027708695548907,
                1.0872308382028522,
                3.170712789093319
            ]
        },
        {
            "positions": [
                -0.33391873367803043,
                -1.373213977427585,
                2.4250254415799035,
                -1.039821214029734,
                1.2468382180648756,
                3.184049440034409
            ]
        }
    ]
}{
    "goal": {
        "global_pose": {
            "orientation": {
                "w": 0.5084816217422485,
                "x": -0.49083608388900757,
                "y": 0.5182115435600281,
                "z": -0.4816462993621826
            },
            "position": {
                "x": 0.5540239810943604,
                "y": 0.030875300988554955,
                "z": 0.16403168439865112
            }
        },
        "name": "move_to_storage_A"
    },
    "id": "LazyPRMstar_move_to_storage_A_120",
    "joint_names": [
        "shoulder_pan_joint",
        "shoulder_lift_joint",
        "elbow_joint",
        "wrist_1_joint",
        "wrist_2_joint",
        "wrist_3_joint"
    ],
    "metrics": {
        "cart_traj_len": 0.35373155175209203,
        "distance_elbow_joint": 0.4501000180254531,
        "distance_shoulder_lift_joint": 0.23482156565763512,
        "distance_shoulder_pan_joint": 0.46396921245702105,
        "distance_wrist_1_joint": 0.2436722340133699,
        "distance_wrist_2_joint": 1.094053944352723,
        "distance_wrist_3_joint": 0.09238285540594982,
        "smoothness": 8.881784197001252e-16,
        "time": 5.000508775,
        "traj_len": 1.6059264708921615,
        "weighted_distance": 2.025213993406658
    },
    "planner": "LazyPRMstar",
    "start": {
        "state": {
            "elbow_joint": 1.9715472970024885,
            "shoulder_lift_joint": -1.1394870060712896,
            "shoulder_pan_joint": 0.12281152778156021,
            "wrist_1_joint": -0.780463741449964,
            "wrist_2_joint": 0.12958659822042276,
            "wrist_3_joint": 3.090690232415272
        }
    },
    "waypoints": [
        {
            "positions": [
                0.12281152778156021,
                -1.1394870060712896,
                1.9715472970024885,
                -0.780463741449964,
                0.12958659822042276,
                3.090690232415272
            ]
        },
        {
            "positions": [
                0.0565302117162715,
                -1.1730329440223803,
                2.0358472995775534,
                -0.8152740605947312,
                0.28588001884224035,
                3.10388778318755
            ]
        },
        {
            "positions": [
                -0.009751104349017214,
                -1.206578881973471,
                2.100147302152618,
                -0.8500843797394982,
                0.44217343946405796,
                3.117085333959829
            ]
        },
        {
            "positions": [
                -0.07603242041430594,
                -1.2401248199245618,
                2.1644473047276827,
                -0.8848946988842654,
                0.5984668600858755,
                3.1302828847321074
            ]
        },
        {
            "positions": [
                -0.14231373647959464,
                -1.2736707578756525,
                2.2287473073027475,
                -0.9197050180290325,
                0.7547602807076931,
                3.143480435504386
            ]
        },
        {
            "positions": [
                -0.2085950525448834,
                -1.3072166958267433,
                2.2930473098778124,
                -0.9545153371737997,
                0.9110537013295107,
                3.1566779862766645
            ]
        },
        {
            "positions": [
                -0.27487636861017206,
                -1.340762633777834,
                2.3573473124528768,
                -0.9893256563185667,
                1.0673471219513282,
                3.1698755370489433
            ]
        },
        {
            "positions": [
                -0.3411576846754608,
                -1.3743085717289247,
                2.4216473150279416,
                -1.024135975463334,
                1.2236405425731458,
                3.1830730878212217
            ]
        }
    ]
}