{
    "goal": {
        "global_pose": {
            "orientation": {
                "w": 0.005598929693374612,
                "x": 0.007748599140229565,
                "y": 0.7110244013736278,
                "z": -0.7031023480610252
            },
            "position": {
                "x": 0.1141497679147869,
                "y": -0.7141253447532654,
                "z": 0.3711530566215515
            }
        },
        "name": "move_to_auspresseinheit_B"
    },
    "id": "LazyPRMstar_move_to_auspresseinheit_B_8",
    "joint_names": [
        "shoulder_pan_joint",
        "shoulder_lift_joint",
        "elbow_joint",
        "wrist_1_joint",
        "wrist_2_joint",
        "wrist_3_joint"
    ],
    "metrics": {
        "cart_traj_len": 0.5648215959614928,
        "distance_elbow_joint": 0.06261053499161817,
        "distance_shoulder_lift_joint": 0.2942046089190973,
        "distance_shoulder_pan_joint": 0.578164705650728,
        "distance_wrist_1_joint": 0.32781701980081224,
        "distance_wrist_2_joint": 0.99015031875452,
        "distance_wrist_3_joint": 0.005585217262525699,
        "smoothness": 2.5376526478085547e-16,
        "time": 5.00052848,
        "traj_len": 1.5028414438586997,
        "weighted_distance": 1.8941146159775244
    },
    "planner": "LazyPRMstar",
    "start": {
        "state": {
            "elbow_joint": 2.0193083361928714,
            "shoulder_lift_joint": -1.1220246554650708,
            "shoulder_pan_joint": -1.0952077554168747,
            "wrist_1_joint": -0.8559753972642168,
            "wrist_2_joint": 0.4759566250798843,
            "wrist_3_joint": -3.1240929996934557
        }
    },
    "waypoints": [
        {
            "positions": [
                -1.0952077554168747,
                -1.1220246554650708,
                2.0193083361928714,
                -0.8559753972642168,
                0.4759566250798843,
                -3.1240929996934557
            ]
        },
        {
            "positions": [
                -1.191568539691996,
                -1.1710587569515871,
                2.008873247027602,
                -0.8013392272974147,
                0.6409816782056377,
                -3.12502386923721
            ]
        },
        {
            "positions": [
                -1.2879293239671172,
                -1.2200928584381032,
                1.998438157862332,
                -0.7467030573306127,
                0.806006731331391,
                -3.125954738780964
            ]
        },
        {
            "positions": [
                -1.3842901082422387,
                -1.2691269599246193,
                1.9880030686970622,
                -0.6920668873638107,
                0.9710317844571443,
                -3.1268856083247183
            ]
        },
        {
            "positions": [
                -1.4806508925173598,
                -1.3181610614111356,
                1.9775679795317926,
                -0.6374307173970086,
                1.1360568375828977,
                -3.127816477868473
            ]
        },
        {
            "positions": [
                -1.5770116767924813,
                -1.367195162897652,
                1.967132890366523,
                -0.5827945474302065,
                1.301081890708651,
                -3.128747347412227
            ]
        },
        {
            "positions": [
                -1.6733724610676026,
                -1.416229264384168,
                1.9566978012012533,
                -0.5281583774634045,
                1.4661069438344043,
                -3.1296782169559814
            ]
        }
    ]
}