{
    "goal": {
        "global_pose": {
            "orientation": {
                "w": 0.7031023480610252,
                "x": -0.7110244013736278,
                "y": 0.0077485991402295624,
                "z": 0.005598929693374583
            },
            "position": {
                "x": -0.8841497679147869,
                "y": 0.44412534475326537,
                "z": 0.3711530566215515
            }
        },
        "name": "move_to_auspresseinheit_D"
    },
    "id": "LazyPRMstar_move_to_auspresseinheit_D_41",
    "joint_names": [
        "shoulder_pan_joint",
        "shoulder_lift_joint",
        "elbow_joint",
        "wrist_1_joint",
        "wrist_2_joint",
        "wrist_3_joint"
    ],
    "metrics": {
        "cart_traj_len": 0.3443874960550273,
        "distance_elbow_joint": 0.6490729772758452,
        "distance_shoulder_lift_joint": 0.12682652971098207,
        "distance_shoulder_pan_joint": 0.13479455515561783,
        "distance_wrist_1_joint": 0.5663232515599446,
        "distance_wrist_2_joint": 1.4341813296711499,
        "distance_wrist_3_joint": 0.021757262060522642,
        "smoothness": 3.947459674368863e-16,
        "time": 5.0002498730000005,
        "traj_len": 1.7125874884028733,
        "weighted_distance": 2.2309134924479257
    },
    "planner": "LazyPRMstar",
    "start": {
        "state": {
            "elbow_joint": -1.8275523626775212,
            "shoulder_lift_joint": -2.126789852344167,
            "shoulder_pan_joint": -0.03513704404078235,
            "wrist_1_joint": -2.347782403156801,
            "wrist_2_joint": -1.6058999987535132,
            "wrist_3_joint": -3.0880379163319196
        }
    },
    "waypoints": [
        {
            "positions": [
                -0.03513704404078235,
                -2.126789852344167,
                -1.8275523626775212,
                -2.347782403156801,
                -1.6058999987535132,
                -3.0880379163319196
            ]
        },
        {
            "positions": [
                -0.05198636343523458,
                -2.1426431685580396,
                -1.7464182405180406,
                -2.4185728096017938,
                -1.4266273325446195,
                -3.0853182585743544
            ]
        },
        {
            "positions": [
                -0.0688356828296868,
                -2.1584964847719124,
                -1.6652841183585598,
                -2.489363216046787,
                -1.2473546663357258,
                -3.082598600816789
            ]
        },
        {
            "positions": [
                -0.08568500222413904,
                -2.174349800985785,
                -1.5841499961990793,
                -2.56015362249178,
                -1.0680820001268319,
                -3.0798789430592235
            ]
        },
        {
            "positions": [
                -0.10253432161859127,
                -2.190203117199658,
                -1.5030158740395985,
                -2.6309440289367734,
                -0.8888093339179383,
                -3.0771592853016583
            ]
        },
        {
            "positions": [
                -0.1193836410130435,
                -2.2060564334135306,
                -1.421881751880118,
                -2.7017344353817663,
                -0.7095366677090446,
                -3.074439627544093
            ]
        },
        {
            "positions": [
                -0.13623296040749572,
                -2.2219097496274034,
                -1.3407476297206373,
                -2.772524841826759,
                -0.5302640015001507,
                -3.0717199697865274
            ]
        },
        {
            "positions": [
                -0.15308227980194797,
                -2.237763065841276,
                -1.2596135075611565,
                -2.8433152482717525,
                -0.35099133529125703,
                -3.069000312028962
            ]
        },
        {
            "positions": [
                -0.1699315991964002,
                -2.253616382055149,
                -1.178479385401676,
                -2.9141056547167454,
                -0.17171866908236338,
                -3.066280654271397
            ]
        }
    ]
}