{
    "goal": {
        "global_pose": {
            "orientation": {
                "w": 0.7047431468963623,
                "x": -0.7094548344612122,
                "y": 0.0024358443915843964,
                "z": -0.0022348060738295317
            },
            "position": {
                "x": 0.6094750761985779,
                "y": 0.3671506643295288,
                "z": 0.19426114857196808
            }
        },
        "name": "move_to_magneteinheit_A"
    },
    "id": "LazyPRMstar_move_to_magneteinheit_A_14",
    "joint_names": [
        "shoulder_pan_joint",
        "shoulder_lift_joint",
        "elbow_joint",
        "wrist_1_joint",
        "wrist_2_joint",
        "wrist_3_joint"
    ],
    "metrics": {
        "cart_traj_len": 3.1219371338196624,
        "distance_elbow_joint": 3.9317882203087677,
        "distance_shoulder_lift_joint": 0.4601143724293355,
        "distance_shoulder_pan_joint": 2.776196828929708,
        "distance_wrist_1_joint": 3.5321552276286843,
        "distance_wrist_2_joint": 1.4303541495319583,
        "distance_wrist_3_joint": 0.5154248571590243,
        "smoothness": 0.07499644861430863,
        "time": 5.034605759,
        "traj_len": 3.5561262148561994,
        "weighted_distance": 4.317336302335755
    },
    "planner": "LazyPRMstar",
    "start": {
        "state": {
            "elbow_joint": -1.9196185241190666,
            "shoulder_lift_joint": -1.2443396400964142,
            "shoulder_pan_joint": 2.6996025414629847,
            "wrist_1_joint": -1.5485510000780065,
            "wrist_2_joint": -1.5709468930060704,
            "wrist_3_joint": 0.4420197071253992
        }
    },
    "waypoints": [
        {
            "positions": [
                2.6996025414629847,
                -1.2443396400964142,
                -1.9196185241190666,
                -1.5485510000780065,
                -1.5709468930060704,
                0.4420197071253992
            ]
        },
        {
            "positions": [
                2.598322705616742,
                -1.2296075383839151,
                -1.8312803679997072,
                -1.4265460601914444,
                -1.519957195466003,
                0.42595664165376357
            ]
        },
        {
            "positions": [
                2.497042869770499,
                -1.214875436671416,
                -1.7429422118803477,
                -1.3045411203048825,
                -1.4689674979259357,
                0.40989357618212796
            ]
        },
        {
            "positions": [
                2.3957630339242564,
                -1.200143334958917,
                -1.6546040557609882,
                -1.1825361804183203,
                -1.4179778003858683,
                0.3938305107104923
            ]
        },
        {
            "positions": [
                2.294483198078014,
                -1.185411233246418,
                -1.566265899641629,
                -1.0605312405317582,
                -1.3669881028458009,
                0.3777674452388567
            ]
        },
        {
            "positions": [
                2.1932033622317713,
                -1.1706791315339187,
                -1.4779277435222695,
                -0.9385263006451962,
                -1.3159984053057334,
                0.3617043797672211
            ]
        },
        {
            "positions": [
                2.0919235263855285,
                -1.1559470298214196,
                -1.38958958740291,
                -0.8165213607586341,
                -1.265008707765666,
                0.3456413142955854
            ]
        },
        {
            "positions": [
                1.9906436905392857,
                -1.1412149281089206,
                -1.3012514312835506,
                -0.694516420872072,
                -1.2140190102255988,
                0.3295782488239498
            ]
        },
        {
            "positions": [
                1.889363854693043,
                -1.1264828263964215,
                -1.2129132751641913,
                -0.57251148098551,
                -1.1630293126855313,
                0.3135151833523142
            ]
        },
        {
            "positions": [
                1.7880840188468001,
                -1.1117507246839224,
                -1.1245751190448319,
                -0.45050654109894794,
                -1.112039615145464,
                0.2974521178806786
            ]
        },
        {
            "positions": [
                1.6868041830005576,
                -1.0970186229714234,
                -1.0362369629254724,
                -0.3285016012123858,
                -1.0610499176053967,
                0.281389052409043
            ]
        },
        {
            "positions": [
                1.5855243471543148,
                -1.0822865212589243,
                -0.9478988068061129,
                -0.20649666132582367,
                -1.0100602200653293,
                0.26532598693740733
            ]
        },
        {
            "positions": [
                1.484244511308072,
                -1.067554419546425,
                -0.8595606506867535,
                -0.08449172143926176,
                -0.9590705225252618,
                0.24926292146577173
            ]
        },
        {
            "positions": [
                1.3829646754618294,
                -1.052822317833926,
                -0.7712224945673942,
                0.037513218447300156,
                -0.9080808249851945,
                0.23319985599413612
            ]
        },
        {
            "positions": [
                1.2816848396155864,
                -1.038090216121427,
                -0.6828843384480345,
                0.15951815833386251,
                -0.857091127445127,
                0.21713679052250046
            ]
        },
        {
            "positions": [
                1.1804050037693439,
                -1.0233581144089279,
                -0.5945461823286753,
                0.28152309822042465,
                -0.8061014299050597,
                0.20107372505086485
            ]
        },
        {
            "positions": [
                1.079125167923101,
                -1.0086260126964288,
                -0.5062080262093158,
                0.40352803810698656,
                -0.7551117323649924,
                0.18501065957922924
            ]
        },
        {
            "positions": [
                0.9778453320768585,
                -0.9938939109839298,
                -0.41786987008995635,
                0.5255329779935487,
                -0.704122034824925,
                0.16894759410759363
            ]
        },
        {
            "positions": [
                0.8765654962306155,
                -0.9791618092714306,
                -0.3295317139705969,
                0.6475379178801106,
                -0.6531323372848575,
                0.15288452863595797
            ]
        },
        {
            "positions": [
                0.775285660384373,
                -0.9644297075589315,
                -0.24119355785123742,
                0.769542857766673,
                -0.6021426397447902,
                0.13682146316432237
            ]
        },
        {
            "positions": [
                0.6740058245381304,
                -0.9496976058464325,
                -0.15285540173187817,
                0.8915477976532349,
                -0.5511529422047228,
                0.12075839769268676
            ]
        },
        {
            "positions": [
                0.5727259886918876,
                -0.9349655041339333,
                -0.0645172456125187,
                1.0135527375397968,
                -0.5001632446646556,
                0.10469533222105115
            ]
        },
        {
            "positions": [
                0.47144615284564484,
                -0.9202334024214343,
                0.023820910506840764,
                1.1355576774263592,
                -0.4491735471245881,
                0.08863226674941549
            ]
        },
        {
            "positions": [
                0.37016631699940206,
                -0.9055013007089352,
                0.11215906662620007,
                1.2575626173129213,
                -0.3981838495845207,
                0.0725692012777799
            ]
        },
        {
            "positions": [
                0.32064844273673615,
                -0.8929731754924152,
                0.3019486827250605,
                1.3355076897555587,
                -0.36925187123857867,
                0.05710396575141935
            ]
        },
        {
            "positions": [
                0.27113056847407024,
                -0.8804450502758951,
                0.49173829882392095,
                1.4134527621981958,
                -0.34031989289263664,
                0.0416387302250588
            ]
        },
        {
            "positions": [
                0.2216126942114043,
                -0.8679169250593751,
                0.6815279149227813,
                1.4913978346408332,
                -0.3113879145466946,
                0.02617349469869825
            ]
        },
        {
            "positions": [
                0.1720948199487384,
                -0.855388799842855,
                0.8713175310216419,
                1.5693429070834706,
                -0.2824559362007526,
                0.010708259172337697
            ]
        },
        {
            "positions": [
                0.12257694568607247,
                -0.842860674626335,
                1.0611071471205022,
                1.6472879795261077,
                -0.25352395785481063,
                -0.004756976354022863
            ]
        },
        {
            "positions": [
                0.07305907142340656,
                -0.8303325494098149,
                1.2508967632193626,
                1.725233051968745,
                -0.22459197950886858,
                -0.020222211880383395
            ]
        },
        {
            "positions": [
                0.02354119716074063,
                -0.8178044241932949,
                1.4406863793182232,
                1.8031781244113825,
                -0.19566000116292656,
                -0.035687447406743955
            ]
        },
        {
            "positions": [
                0.04925920969611608,
                -0.808256170904989,
                1.6035955815962406,
                1.8549360546631197,
                -0.1796755987075809,
                -0.046507430647023104
            ]
        },
        {
            "positions": [
                0.07497722223149153,
                -0.798707917616683,
                1.7665047838742578,
                1.906693984914857,
                -0.16369119625223527,
                -0.05732741388730226
            ]
        },
        {
            "positions": [
                0.10069523476686698,
                -0.7891596643283771,
                1.9294139861522752,
                1.9584519151665942,
                -0.1477067937968896,
                -0.06814739712758142
            ]
        },
        {
            "positions": [
                0.12367668178820403,
                -0.7842252676670787,
                2.012169696189701,
                1.9836042275506773,
                -0.14059274347411266,
                -0.07340515003362516
            ]
        }
    ]
}