{
    "goal": {
        "global_pose": {
            "orientation": {
                "w": 0.7031023502349854,
                "x": -0.7110244035720825,
                "y": 0.007748599164187908,
                "z": 0.005598929710686207
            },
            "position": {
                "x": 0.11585023208521307,
                "y": 0.44412534475326537,
                "z": 0.3711530566215515
            }
        },
        "name": "move_to_auspresseinheit_A"
    },
    "id": "LazyPRMstar_move_to_auspresseinheit_A_23",
    "joint_names": [
        "shoulder_pan_joint",
        "shoulder_lift_joint",
        "elbow_joint",
        "wrist_1_joint",
        "wrist_2_joint",
        "wrist_3_joint"
    ],
    "metrics": {
        "cart_traj_len": 0.6813727566434381,
        "distance_elbow_joint": 0.04923078248540813,
        "distance_shoulder_lift_joint": 0.5328999729361776,
        "distance_shoulder_pan_joint": 1.043820506318973,
        "distance_wrist_1_joint": 0.5732349883955272,
        "distance_wrist_2_joint": 2.2746030684225254,
        "distance_wrist_3_joint": 0.5798821791298243,
        "smoothness": 1.1818585628739642,
        "time": 5.007655510999999,
        "traj_len": 2.248037254515244,
        "weighted_distance": 3.010194995804447
    },
    "planner": "LazyPRMstar",
    "start": {
        "state": {
            "elbow_joint": 2.4225746658250005,
            "shoulder_lift_joint": -1.3736534386056498,
            "shoulder_pan_joint": -0.3378633547517467,
            "wrist_1_joint": -1.0288598680537169,
            "wrist_2_joint": 1.233022673432363,
            "wrist_3_joint": -3.0940220416140027
        }
    },
    "waypoints": [
        {
            "positions": [
                -0.3378633547517467,
                -1.3736534386056498,
                2.4225746658250005,
                -1.0288598680537169,
                1.233022673432363,
                -3.0940220416140027
            ]
        },
        {
            "positions": [
                -0.27664920007180716,
                -1.4289296069326758,
                2.4175453284091692,
                -0.988354426780117,
                1.0582519218228759,
                -3.060454281589632
            ]
        },
        {
            "positions": [
                -0.2154350453918676,
                -1.4842057752597018,
                2.412515990993338,
                -0.947848985506517,
                0.8834811702133887,
                -3.026886521565262
            ]
        },
        {
            "positions": [
                -0.15422089071192807,
                -1.5394819435867277,
                2.407486653577507,
                -0.907343544232917,
                0.7087104186039015,
                -2.993318761540891
            ]
        },
        {
            "positions": [
                -0.0930067360319885,
                -1.5947581119137535,
                2.4024573161616756,
                -0.8668381029593171,
                0.5339396669944143,
                -2.959751001516521
            ]
        },
        {
            "positions": [
                -0.03179258135204893,
                -1.6500342802407797,
                2.397427978745844,
                -0.8263326616857172,
                0.3591689153849271,
                -2.9261832414921503
            ]
        },
        {
            "positions": [
                0.029421573327890582,
                -1.7053104485678054,
                2.3923986413300127,
                -0.7858272204121172,
                0.18439816377543994,
                -2.8926154814677796
            ]
        },
        {
            "positions": [
                0.09063572800783015,
                -1.7605866168948314,
                2.3873693039141815,
                -0.7453217791385172,
                0.009627412165952753,
                -2.8590477214434094
            ]
        },
        {
            "positions": [
                0.15184988268776975,
                -1.8158627852218574,
                2.3823399664983502,
                -0.7048163378649173,
                -0.16514333944353443,
                -2.8254799614190387
            ]
        },
        {
            "positions": [
                0.24420109416767916,
                -1.8309778896085191,
                2.3838393136914764,
                -0.663284428163796,
                -0.019070496852429897,
                -2.877369977908182
            ]
        },
        {
            "positions": [
                0.33655230564758853,
                -1.8460929939951807,
                2.385338660884603,
                -0.6217525184626748,
                0.12700234573867464,
                -2.9292599943973254
            ]
        },
        {
            "positions": [
                0.42890351712749797,
                -1.8612080983818424,
                2.386838008077729,
                -0.5802206087615535,
                0.27307518832977923,
                -2.981150010886469
            ]
        },
        {
            "positions": [
                0.5212547286074074,
                -1.8763232027685042,
                2.3883373552708553,
                -0.5386886990604323,
                0.4191480309208837,
                -3.033040027375612
            ]
        },
        {
            "positions": [
                0.6136059400873168,
                -1.8914383071551657,
                2.389836702463982,
                -0.49715678935931096,
                0.5652208735119884,
                -3.0849300438647553
            ]
        },
        {
            "positions": [
                0.7059571515672263,
                -1.9065534115418274,
                2.391336049657108,
                -0.4556248796581897,
                0.7112937161030929,
                -3.136820060353899
            ]
        }
    ]
}