{
    "goal": {
        "global_pose": {
            "orientation": {
                "w": 0.7047431493862688,
                "x": -0.7094548369677653,
                "y": 0.0024358444001904,
                "z": -0.0022348060817251984
            },
            "position": {
                "x": -0.39052492380142206,
                "y": 0.3671506643295288,
                "z": 0.19426114857196808
            }
        },
        "name": "move_to_magneteinheit_D"
    },
    "id": "LazyPRM_move_to_magneteinheit_D_43",
    "joint_names": [
        "shoulder_pan_joint",
        "shoulder_lift_joint",
        "elbow_joint",
        "wrist_1_joint",
        "wrist_2_joint",
        "wrist_3_joint"
    ],
    "metrics": {
        "cart_traj_len": 3.8972978914584675,
        "distance_elbow_joint": 3.1258517940563055,
        "distance_shoulder_lift_joint": 1.6329152787530374,
        "distance_shoulder_pan_joint": 3.5344007741526027,
        "distance_wrist_1_joint": 1.9609524357232608,
        "distance_wrist_2_joint": 1.291546494157428,
        "distance_wrist_3_joint": 3.1682542753860012,
        "smoothness": 0.28254577063104624,
        "time": 0.264148253,
        "traj_len": 3.835872919196963,
        "weighted_distance": 4.929800049989992
    },
    "planner": "LazyPRM",
    "start": {
        "state": {
            "elbow_joint": 0.749534889911806,
            "shoulder_lift_joint": -0.6476975780787326,
            "shoulder_pan_joint": -2.711696901376241,
            "wrist_1_joint": -0.07506478083263063,
            "wrist_2_joint": 0.43296659715538205,
            "wrist_3_joint": -3.14703540197715
        }
    },
    "waypoints": [
        {
            "positions": [
                -2.711696901376241,
                -0.6476975780787326,
                0.749534889911806,
                -0.07506478083263063,
                0.43296659715538205,
                -3.14703540197715
            ]
        },
        {
            "positions": [
                -2.72329261973489,
                -0.6839466711353555,
                0.7239207934645533,
                0.04444108614898673,
                0.4544494884337856,
                -3.0915992793322262
            ]
        },
        {
            "positions": [
                -2.7348883380935387,
                -0.7201957641919782,
                0.6983066970173006,
                0.1639469531306041,
                0.4759323797121891,
                -3.036163156687303
            ]
        },
        {
            "positions": [
                -2.746337631378712,
                -0.7588982829046325,
                0.5941906147077562,
                0.23246099599893005,
                0.5446575798118156,
                -2.950126356205179
            ]
        },
        {
            "positions": [
                -2.7577869246638853,
                -0.7976008016172867,
                0.49007453239821197,
                0.30097503886725596,
                0.6133827799114422,
                -2.864089555723056
            ]
        },
        {
            "positions": [
                -2.7692362179490586,
                -0.836303320329941,
                0.3859584500886676,
                0.3694890817355819,
                0.6821079800110688,
                -2.778052755240932
            ]
        },
        {
            "positions": [
                -2.7806855112342315,
                -0.8750058390425954,
                0.28184236777912325,
                0.4380031246039079,
                0.7508331801106953,
                -2.692015954758809
            ]
        },
        {
            "positions": [
                -2.7921348045194048,
                -0.9137083577552497,
                0.1777262854695788,
                0.5065171674722339,
                0.819558380210322,
                -2.6059791542766853
            ]
        },
        {
            "positions": [
                -2.803584097804578,
                -0.952410876467904,
                0.07361020316003453,
                0.5750312103405598,
                0.8882835803099485,
                -2.519942353794562
            ]
        },
        {
            "positions": [
                -2.8150333910897514,
                -0.9911133951805583,
                -0.030505879149509918,
                0.6435452532088858,
                0.9570087804095752,
                -2.4339055533124383
            ]
        },
        {
            "positions": [
                -2.6938468646302023,
                -1.0213939993205454,
                -0.12083481189788987,
                0.6859454230751474,
                0.9568961666491643,
                -2.3361145456162853
            ]
        },
        {
            "positions": [
                -2.572660338170653,
                -1.0516746034605324,
                -0.21116374464626983,
                0.728345592941409,
                0.9567835528887536,
                -2.238323537920132
            ]
        },
        {
            "positions": [
                -2.4514738117111046,
                -1.0819552076005197,
                -0.3014926773946498,
                0.7707457628076706,
                0.9566709391283428,
                -2.140532530223979
            ]
        },
        {
            "positions": [
                -2.3302872852515555,
                -1.112235811740507,
                -0.39182161014302974,
                0.8131459326739321,
                0.9565583253679321,
                -2.042741522527826
            ]
        },
        {
            "positions": [
                -2.2091007587920064,
                -1.142516415880494,
                -0.48215054289140974,
                0.8555461025401938,
                0.9564457116075212,
                -1.9449505148316726
            ]
        },
        {
            "positions": [
                -2.0879142323324573,
                -1.172797020020481,
                -0.5724794756397897,
                0.8979462724064553,
                0.9563330978471105,
                -1.8471595071355194
            ]
        },
        {
            "positions": [
                -1.9667277058729082,
                -1.2030776241604682,
                -0.6628084083881696,
                0.940346442272717,
                0.9562204840866997,
                -1.7493684994393661
            ]
        },
        {
            "positions": [
                -1.8455411794133592,
                -1.2333582283004554,
                -0.7531373411365496,
                0.9827466121389785,
                0.956107870326289,
                -1.651577491743213
            ]
        },
        {
            "positions": [
                -1.7243546529538103,
                -1.2636388324404424,
                -0.8434662738849295,
                1.02514678200524,
                0.9559952565658781,
                -1.5537864840470599
            ]
        },
        {
            "positions": [
                -1.6031681264942612,
                -1.2939194365804294,
                -0.9337952066333095,
                1.0675469518715017,
                0.9558826428054673,
                -1.4559954763509069
            ]
        },
        {
            "positions": [
                -1.4819816000347121,
                -1.3242000407204166,
                -1.0241241393816893,
                1.1099471217377632,
                0.9557700290450566,
                -1.3582044686547536
            ]
        },
        {
            "positions": [
                -1.3607950735751633,
                -1.3544806448604039,
                -1.1144530721300694,
                1.1523472916040247,
                0.9556574152846458,
                -1.2604134609586006
            ]
        },
        {
            "positions": [
                -1.2396085471156142,
                -1.3847612490003909,
                -1.2047820048784492,
                1.1947474614702864,
                0.955544801524235,
                -1.1626224532624472
            ]
        },
        {
            "positions": [
                -1.118422020656065,
                -1.4150418531403781,
                -1.2951109376268293,
                1.2371476313365481,
                0.9554321877638242,
                -1.064831445566294
            ]
        },
        {
            "positions": [
                -0.9972354941965162,
                -1.4453224572803651,
                -1.385439870375209,
                1.2795478012028096,
                0.9553195740034135,
                -0.9670404378701412
            ]
        },
        {
            "positions": [
                -0.8760489677369672,
                -1.4756030614203524,
                -1.4757688031235892,
                1.3219479710690711,
                0.9552069602430027,
                -0.8692494301739879
            ]
        },
        {
            "positions": [
                -0.7548624412774179,
                -1.5058836655603394,
                -1.5660977358719692,
                1.3643481409353329,
                0.9550943464825918,
                -0.7714584224778347
            ]
        },
        {
            "positions": [
                -0.6336759148178692,
                -1.5361642697003264,
                -1.656426668620349,
                1.4067483108015946,
                0.9549817327221811,
                -0.6736674147816817
            ]
        },
        {
            "positions": [
                -0.5124893883583201,
                -1.5664448738403136,
                -1.746755601368729,
                1.449148480667856,
                0.9548691189617703,
                -0.5758764070855285
            ]
        },
        {
            "positions": [
                -0.39130286189877106,
                -1.5967254779803008,
                -1.8370845341171091,
                1.4915486505341176,
                0.9547565052013596,
                -0.4780853993893752
            ]
        },
        {
            "positions": [
                -0.2701163354392224,
                -1.6270060821202879,
                -1.9274134668654888,
                1.5339488204003793,
                0.9546438914409487,
                -0.380294391693222
            ]
        },
        {
            "positions": [
                -0.1489298089796729,
                -1.6572866862602749,
                -2.017742399613869,
                1.5763489902666408,
                0.954531277680538,
                -0.282503383997069
            ]
        },
        {
            "positions": [
                -0.027743282520123813,
                -1.687567290400262,
                -2.108071332362249,
                1.6187491601329025,
                0.9544186639201272,
                -0.18471237630091553
            ]
        },
        {
            "positions": [
                0.09344324393942482,
                -1.7178478945402493,
                -2.198400265110629,
                1.661149329999164,
                0.9543060501597165,
                -0.08692136860476296
            ]
        },
        {
            "positions": [
                0.2146297703989738,
                -1.7481284986802363,
                -2.2887291978590087,
                1.7035494998654257,
                0.9541934363993057,
                0.010869639091390514
            ]
        },
        {
            "positions": [
                0.13434954580890063,
                -1.854625370310543,
                -2.306246739116107,
                1.6670818688603848,
                0.8012556430207126,
                0.008799792227898043
            ]
        },
        {
            "positions": [
                0.05406932121882746,
                -1.9611222419408498,
                -2.323764280373205,
                1.6306142378553439,
                0.6483178496421196,
                0.006729945364405572
            ]
        },
        {
            "positions": [
                -0.02621090337124571,
                -2.0676191135711566,
                -2.341281821630303,
                1.5941466068503032,
                0.4953800562635265,
                0.0046600985009131015
            ]
        },
        {
            "positions": [
                -0.10649112796131888,
                -2.174115985201463,
                -2.358799362887401,
                1.5576789758452623,
                0.3424422628849334,
                0.00259025163742063
            ]
        },
        {
            "positions": [
                -0.18677135255139204,
                -2.28061285683177,
                -2.376316904144499,
                1.5212113448402214,
                0.1895044695063403,
                0.0005204047739281593
            ]
        }
    ]
}