{
    "goal": {
        "global_pose": {
            "orientation": {
                "w": 0.7047431493862688,
                "x": -0.7094548369677653,
                "y": 0.0024358444001904,
                "z": -0.0022348060817251984
            },
            "position": {
                "x": -0.39052492380142206,
                "y": 0.3671506643295288,
                "z": 0.19426114857196808
            }
        },
        "name": "move_to_magneteinheit_D"
    },
    "id": "LazyPRMstar_move_to_magneteinheit_D_20",
    "joint_names": [
        "shoulder_pan_joint",
        "shoulder_lift_joint",
        "elbow_joint",
        "wrist_1_joint",
        "wrist_2_joint",
        "wrist_3_joint"
    ],
    "metrics": {
        "cart_traj_len": 4.152894801333558,
        "distance_elbow_joint": 3.571422730256227,
        "distance_shoulder_lift_joint": 1.6335635539220779,
        "distance_shoulder_pan_joint": 3.320378615186326,
        "distance_wrist_1_joint": 1.6582357056778119,
        "distance_wrist_2_joint": 1.2375536657901043,
        "distance_wrist_3_joint": 3.133735502415897,
        "smoothness": 0.29271750571071764,
        "time": 5.052654569,
        "traj_len": 3.815087125250017,
        "weighted_distance": 4.870128350418308
    },
    "planner": "LazyPRMstar",
    "start": {
        "state": {
            "elbow_joint": 0.749534889911806,
            "shoulder_lift_joint": -0.6476975780787326,
            "shoulder_pan_joint": -2.711696901376241,
            "wrist_1_joint": -0.07506478083263063,
            "wrist_2_joint": 0.43296659715538205,
            "wrist_3_joint": -3.14703540197715
        }
    },
    "waypoints": [
        {
            "positions": [
                -2.711696901376241,
                -0.6476975780787326,
                0.749534889911806,
                -0.07506478083263063,
                0.43296659715538205,
                -3.14703540197715
            ]
        },
        {
            "positions": [
                -2.7345205243631194,
                -0.7372058787079145,
                0.82460984396921,
                -0.08407242189935529,
                0.4903703447239844,
                -3.04862597961747
            ]
        },
        {
            "positions": [
                -2.757344147349998,
                -0.8267141793370965,
                0.899684798026614,
                -0.09308006296607996,
                0.5477740922925868,
                -2.95021655725779
            ]
        },
        {
            "positions": [
                -2.7801677703368766,
                -0.9162224799662785,
                0.9747597520840181,
                -0.10208770403280464,
                0.6051778398611891,
                -2.85180713489811
            ]
        },
        {
            "positions": [
                -2.7024173882463924,
                -0.9798617454072756,
                0.9407485038358959,
                -0.06797889346312974,
                0.6402314216765355,
                -2.7272643574833366
            ]
        },
        {
            "positions": [
                -2.6246670061559088,
                -1.0435010108482725,
                0.9067372555877736,
                -0.03387008289345485,
                0.6752850034918819,
                -2.6027215800685632
            ]
        },
        {
            "positions": [
                -2.5469166240654246,
                -1.1071402762892697,
                0.8727260073396514,
                0.00023872767622004631,
                0.7103385853072283,
                -2.4781788026537894
            ]
        },
        {
            "positions": [
                -2.469166241974941,
                -1.1707795417302669,
                0.8387147590915291,
                0.03434753824589494,
                0.7453921671225747,
                -2.353636025239016
            ]
        },
        {
            "positions": [
                -2.391415859884457,
                -1.2344188071712638,
                0.804703510843407,
                0.06845634881556985,
                0.7804457489379211,
                -2.2290932478242427
            ]
        },
        {
            "positions": [
                -2.313665477793973,
                -1.2980580726122608,
                0.7706922625952848,
                0.10256515938524473,
                0.8154993307532674,
                -2.1045504704094693
            ]
        },
        {
            "positions": [
                -2.235915095703489,
                -1.361697338053258,
                0.7366810143471625,
                0.13667396995491965,
                0.8505529125686139,
                -1.9800076929946957
            ]
        },
        {
            "positions": [
                -2.1581647136130053,
                -1.4253366034942552,
                0.7026697660990402,
                0.1707827805245945,
                0.8856064943839603,
                -1.855464915579922
            ]
        },
        {
            "positions": [
                -2.080414331522521,
                -1.4889758689352521,
                0.668658517850918,
                0.2048915910942694,
                0.9206600761993067,
                -1.7309221381651487
            ]
        },
        {
            "positions": [
                -1.9692601401185312,
                -1.4951350970812833,
                0.5536828704079141,
                0.24884183140856148,
                0.8902252089836892,
                -1.6586862357028238
            ]
        },
        {
            "positions": [
                -1.8581059487145415,
                -1.5012943252273145,
                0.43870722296491016,
                0.29279207172285354,
                0.8597903417680716,
                -1.5864503332404987
            ]
        },
        {
            "positions": [
                -1.7469517573105517,
                -1.5074535533733455,
                0.3237315755219063,
                0.33674231203714555,
                0.8293554745524541,
                -1.5142144307781735
            ]
        },
        {
            "positions": [
                -1.6357975659065618,
                -1.5136127815193767,
                0.20875592807890236,
                0.3806925523514376,
                0.7989206073368366,
                -1.4419785283158486
            ]
        },
        {
            "positions": [
                -1.5246433745025718,
                -1.519772009665408,
                0.0937802806358985,
                0.4246427926657297,
                0.7684857401212191,
                -1.3697426258535237
            ]
        },
        {
            "positions": [
                -1.413489183098582,
                -1.5259312378114391,
                -0.02119536680710543,
                0.46859303298002175,
                0.7380508729056015,
                -1.2975067233911985
            ]
        },
        {
            "positions": [
                -1.3023349916945923,
                -1.5320904659574703,
                -0.13617101425010925,
                0.5125432732943138,
                0.707616005689984,
                -1.2252708209288734
            ]
        },
        {
            "positions": [
                -1.1911808002906024,
                -1.5382496941035013,
                -0.2511466616931133,
                0.5564935136086059,
                0.6771811384743665,
                -1.1530349184665485
            ]
        },
        {
            "positions": [
                -1.0800266088866124,
                -1.5444089222495325,
                -0.3661223091361171,
                0.600443753922898,
                0.6467462712587488,
                -1.0807990160042236
            ]
        },
        {
            "positions": [
                -0.9688724174826226,
                -1.5505681503955637,
                -0.481097956579121,
                0.6443939942371899,
                0.6163114040431313,
                -1.0085631135418984
            ]
        },
        {
            "positions": [
                -0.8577182260786327,
                -1.556727378541595,
                -0.596073604022125,
                0.6883442345514821,
                0.5858765368275138,
                -0.9363272110795733
            ]
        },
        {
            "positions": [
                -0.7465640346746429,
                -1.5628866066876261,
                -0.7110492514651289,
                0.732294474865774,
                0.5554416696118962,
                -0.8640913086172484
            ]
        },
        {
            "positions": [
                -0.635409843270653,
                -1.5690458348336571,
                -0.8260248989081328,
                0.7762447151800662,
                0.5250068023962787,
                -0.7918554061549233
            ]
        },
        {
            "positions": [
                -0.5242556518666632,
                -1.5752050629796883,
                -0.9410005463511365,
                0.8201949554943582,
                0.4945719351806612,
                -0.7196195036925983
            ]
        },
        {
            "positions": [
                -0.4131014604626735,
                -1.5813642911257195,
                -1.0559761937941405,
                0.8641451958086503,
                0.46413706796504367,
                -0.6473836012302732
            ]
        },
        {
            "positions": [
                -0.3019472690586835,
                -1.5875235192717507,
                -1.1709518412371445,
                0.9080954361229423,
                0.4337022007494261,
                -0.5751476987679482
            ]
        },
        {
            "positions": [
                -0.19079307765469378,
                -1.593682747417782,
                -1.2859274886801484,
                0.9520456764372343,
                0.4032673335338086,
                -0.5029117963056233
            ]
        },
        {
            "positions": [
                -0.07963888625070359,
                -1.599841975563813,
                -1.4009031361231523,
                0.9959959167515264,
                0.372832466318191,
                -0.4306758938432982
            ]
        },
        {
            "positions": [
                0.03151530515328593,
                -1.6060012037098441,
                -1.5158787835661562,
                1.0399461570658184,
                0.3423975991025736,
                -0.35843999138097327
            ]
        },
        {
            "positions": [
                0.142669496557276,
                -1.6121604318558753,
                -1.6308544310091602,
                1.0838963973801106,
                0.311962731886956,
                -0.286204088918648
            ]
        },
        {
            "positions": [
                0.10791369614912683,
                -1.7256441515240617,
                -1.6974803460263443,
                1.17079555163116,
                0.28643554763480256,
                -0.24769134856798697
            ]
        },
        {
            "positions": [
                0.07315789574097765,
                -1.8391278711922479,
                -1.7641062610435285,
                1.2576947058822094,
                0.2609083633826491,
                -0.20917860821732592
            ]
        },
        {
            "positions": [
                0.0384020953328285,
                -1.9526115908604342,
                -1.8307321760607127,
                1.3445938601332588,
                0.23538117913049567,
                -0.1706658678666649
            ]
        },
        {
            "positions": [
                0.0036462949246792997,
                -2.0660953105286204,
                -1.8973580910778969,
                1.4314930143843083,
                0.20985399487834222,
                -0.13215312751600383
            ]
        },
        {
            "positions": [
                -0.031109505483469857,
                -2.1795790301968068,
                -1.963984006095081,
                1.5183921686353576,
                0.18432681062618878,
                -0.09364038716534281
            ]
        },
        {
            "positions": [
                -0.10875524412886593,
                -2.2304200810988086,
                -2.167711061047539,
                1.5237586235400955,
                0.17756335003965773,
                -0.05347014336329831
            ]
        },
        {
            "positions": [
                -0.186400982774262,
                -2.2812611320008105,
                -2.3714381159999975,
                1.5291250784448334,
                0.1707998894531267,
                -0.013299899561253808
            ]
        }
    ]
}