{
    "goal": {
        "global_pose": {
            "orientation": {
                "w": -0.4816463035849501,
                "x": 0.5182115481033762,
                "y": 0.4908360881923453,
                "z": -0.5084816262002911
            },
            "position": {
                "x": -0.8240239810943604,
                "y": -0.300875300988555,
                "z": 0.16403168439865112
            }
        },
        "name": "move_to_storage_C"
    },
    "id": "LazyPRM_move_to_storage_C_43",
    "joint_names": [
        "shoulder_pan_joint",
        "shoulder_lift_joint",
        "elbow_joint",
        "wrist_1_joint",
        "wrist_2_joint",
        "wrist_3_joint"
    ],
    "metrics": {
        "cart_traj_len": 0.5763483629913717,
        "distance_elbow_joint": 0.2558818000721861,
        "distance_shoulder_lift_joint": 0.18859112403097722,
        "distance_shoulder_pan_joint": 0.49404782176929096,
        "distance_wrist_1_joint": 0.07048748623271062,
        "distance_wrist_2_joint": 1.0719082527232127,
        "distance_wrist_3_joint": 0.06373558701545656,
        "smoothness": 0.0,
        "time": 0.011752225,
        "traj_len": 1.4644630660565783,
        "weighted_distance": 1.8478417098958098
    },
    "planner": "LazyPRM",
    "start": {
        "state": {
            "elbow_joint": 2.010868314990456,
            "shoulder_lift_joint": -1.1634956873337592,
            "shoulder_pan_joint": -2.4736205022346125,
            "wrist_1_joint": -0.8367026794202681,
            "wrist_2_joint": 0.6746043897044499,
            "wrist_3_joint": -3.1496632123970403
        }
    },
    "waypoints": [
        {
            "positions": [
                -2.4736205022346125,
                -1.1634956873337592,
                2.010868314990456,
                -0.8367026794202681,
                0.6746043897044499,
                -3.1496632123970403
            ]
        },
        {
            "positions": [
                -2.5559618058628275,
                -1.1320638333285964,
                1.968221348311758,
                -0.8249547650481497,
                0.8532557651583187,
                -3.139040614561131
            ]
        },
        {
            "positions": [
                -2.638303109491043,
                -1.1006319793234334,
                1.9255743816330604,
                -0.8132068506760313,
                1.0319071406121876,
                -3.1284180167252216
            ]
        },
        {
            "positions": [
                -2.720644413119258,
                -1.0692001253182706,
                1.8829274149543629,
                -0.8014589363039129,
                1.2105585160660564,
                -3.1177954188893118
            ]
        },
        {
            "positions": [
                -2.802985716747473,
                -1.0377682713131078,
                1.8402804482756652,
                -0.7897110219317943,
                1.3892098915199251,
                -3.1071728210534024
            ]
        },
        {
            "positions": [
                -2.8853270203756884,
                -1.0063364173079448,
                1.7976334815969675,
                -0.7779631075596759,
                1.567861266973794,
                -3.096550223217493
            ]
        },
        {
            "positions": [
                -2.9676683240039035,
                -0.974904563302782,
                1.7549865149182697,
                -0.7662151931875575,
                1.7465126424276625,
                -3.0859276253815837
            ]
        }
    ]
}