{
    "goal": {
        "global_pose": {
            "orientation": {
                "w": 0.7047431468963623,
                "x": -0.7094548344612122,
                "y": 0.0024358443915843964,
                "z": -0.0022348060738295317
            },
            "position": {
                "x": 0.6094750761985779,
                "y": 0.3671506643295288,
                "z": 0.19426114857196808
            }
        },
        "name": "move_to_magneteinheit_A"
    },
    "id": "LazyPRM_move_to_magneteinheit_A_1",
    "joint_names": [
        "shoulder_pan_joint",
        "shoulder_lift_joint",
        "elbow_joint",
        "wrist_1_joint",
        "wrist_2_joint",
        "wrist_3_joint"
    ],
    "metrics": {
        "cart_traj_len": 2.8565454048007224,
        "distance_elbow_joint": 4.031012078162423,
        "distance_shoulder_lift_joint": 0.7658197287652981,
        "distance_shoulder_pan_joint": 2.6872397578797322,
        "distance_wrist_1_joint": 3.47005924750167,
        "distance_wrist_2_joint": 1.4426170047473328,
        "distance_wrist_3_joint": 0.43963644943749197,
        "smoothness": 0.09669674321587361,
        "time": 0.128545118,
        "traj_len": 3.5827900114985733,
        "weighted_distance": 4.316055307525372
    },
    "planner": "LazyPRM",
    "start": {
        "state": {
            "elbow_joint": -1.9196185241190666,
            "shoulder_lift_joint": -1.2443396400964142,
            "shoulder_pan_joint": 2.6996025414629847,
            "wrist_1_joint": -1.5485510000780065,
            "wrist_2_joint": -1.5709468930060704,
            "wrist_3_joint": 0.4420197071253992
        }
    },
    "waypoints": [
        {
            "positions": [
                2.6996025414629847,
                -1.2443396400964142,
                -1.9196185241190666,
                -1.5485510000780065,
                -1.5709468930060704,
                0.4420197071253992
            ]
        },
        {
            "positions": [
                2.6090916871761882,
                -1.2496813263047768,
                -1.7823174105106756,
                -1.4400285824264951,
                -1.5324168733871957,
                0.43546908526086875
            ]
        },
        {
            "positions": [
                2.5185808328893917,
                -1.2550230125131394,
                -1.6450162969022843,
                -1.331506164774984,
                -1.4938868537683212,
                0.42891846339633827
            ]
        },
        {
            "positions": [
                2.428069978602595,
                -1.260364698721502,
                -1.507715183293893,
                -1.2229837471234726,
                -1.4553568341494465,
                0.42236784153180784
            ]
        },
        {
            "positions": [
                2.3375591243157987,
                -1.2657063849298646,
                -1.370414069685502,
                -1.1144613294719614,
                -1.416826814530572,
                0.4158172196672774
            ]
        },
        {
            "positions": [
                2.247048270029002,
                -1.2710480711382273,
                -1.2331129560771108,
                -1.00593891182045,
                -1.3782967949116973,
                0.409266597802747
            ]
        },
        {
            "positions": [
                2.1565374157422057,
                -1.2763897573465899,
                -1.0958118424687198,
                -0.8974164941689388,
                -1.3397667752928226,
                0.4027159759382165
            ]
        },
        {
            "positions": [
                2.066026561455409,
                -1.2817314435549525,
                -0.9585107288603285,
                -0.7888940765174275,
                -1.3012367556739481,
                0.3961653540736861
            ]
        },
        {
            "positions": [
                1.9755157071686125,
                -1.2870731297633153,
                -0.8212096152519375,
                -0.6803716588659162,
                -1.2627067360550734,
                0.38961473220915566
            ]
        },
        {
            "positions": [
                1.8850048528818157,
                -1.292414815971678,
                -0.683908501643546,
                -0.5718492412144048,
                -1.2241767164361987,
                0.3830641103446252
            ]
        },
        {
            "positions": [
                1.7944939985950192,
                -1.2977565021800406,
                -0.546607388035155,
                -0.46332682356289356,
                -1.1856466968173243,
                0.37651348848009475
            ]
        },
        {
            "positions": [
                1.7039831443082227,
                -1.3030981883884032,
                -0.4093062744267639,
                -0.3548044059113824,
                -1.1471166771984496,
                0.3699628666155643
            ]
        },
        {
            "positions": [
                1.6134722900214264,
                -1.3084398745967658,
                -0.2720051608183729,
                -0.24628198825987102,
                -1.108586657579575,
                0.3634122447510339
            ]
        },
        {
            "positions": [
                1.5229614357346297,
                -1.3137815608051284,
                -0.13470404720998141,
                -0.13775957060835964,
                -1.0700566379607004,
                0.3568616228865034
            ]
        },
        {
            "positions": [
                1.4324505814478332,
                -1.319123247013491,
                0.00259706639840962,
                -0.029237152956848478,
                -1.0315266183418257,
                0.350311001021973
            ]
        },
        {
            "positions": [
                1.3419397271610367,
                -1.3244649332218537,
                0.13989818000680065,
                0.07928526469466268,
                -0.9929965987229512,
                0.34376037915744256
            ]
        },
        {
            "positions": [
                1.2514288728742402,
                -1.3298066194302163,
                0.2771992936151917,
                0.18780768234617407,
                -0.9544665791040766,
                0.33720975729291214
            ]
        },
        {
            "positions": [
                1.1609180185874437,
                -1.335148305638579,
                0.4145004072235827,
                0.2963300999976852,
                -0.915936559485202,
                0.33065913542838166
            ]
        },
        {
            "positions": [
                1.070407164300647,
                -1.3404899918469415,
                0.5518015208319746,
                0.40485251764919683,
                -0.8774065398663273,
                0.32410851356385123
            ]
        },
        {
            "positions": [
                0.9798963100138505,
                -1.3458316780553041,
                0.6891026344403657,
                0.513374935300708,
                -0.8388765202474527,
                0.3175578916993208
            ]
        },
        {
            "positions": [
                0.889385455727054,
                -1.3511733642636667,
                0.8264037480487567,
                0.6218973529522194,
                -0.8003465006285782,
                0.3110072698347903
            ]
        },
        {
            "positions": [
                0.7988746014402575,
                -1.3565150504720296,
                0.9637048616571477,
                0.7304197706037308,
                -0.7618164810097035,
                0.3044566479702599
            ]
        },
        {
            "positions": [
                0.708363747153461,
                -1.3618567366803922,
                1.1010059752655388,
                0.8389421882552417,
                -0.7232864613908289,
                0.29790602610572947
            ]
        },
        {
            "positions": [
                0.6178528928666647,
                -1.3671984228887548,
                1.2383070888739298,
                0.9474646059067531,
                -0.6847564417719543,
                0.291355404241199
            ]
        },
        {
            "positions": [
                0.5273420385798682,
                -1.3725401090971174,
                1.3756082024823209,
                1.0559870235582645,
                -0.6462264221530797,
                0.2848047823766686
            ]
        },
        {
            "positions": [
                0.4368311842930712,
                -1.37788179530548,
                1.5129093160907128,
                1.1645094412097758,
                -0.607696402534205,
                0.27825416051213814
            ]
        },
        {
            "positions": [
                0.3463203300062747,
                -1.3832234815138427,
                1.6502104296991038,
                1.2730318588612872,
                -0.5691663829153304,
                0.27170353864760766
            ]
        },
        {
            "positions": [
                0.2558094757194782,
                -1.3885651677222053,
                1.7875115433074948,
                1.3815542765127982,
                -0.5306363632964559,
                0.26515291678307723
            ]
        },
        {
            "positions": [
                0.16529862143268148,
                -1.393906853930568,
                1.924812656915886,
                1.4900766941643098,
                -0.4921063436775812,
                0.2586022949185468
            ]
        },
        {
            "positions": [
                0.11658823490251059,
                -1.350448980857064,
                1.988290960703249,
                1.5914791103702473,
                -0.47531845443357357,
                0.22981442743517558
            ]
        },
        {
            "positions": [
                0.0678778483723397,
                -1.3069911077835605,
                2.0517692644906123,
                1.692881526576185,
                -0.4585305651895659,
                0.20102655995180435
            ]
        },
        {
            "positions": [
                0.08175661456961181,
                -1.1746569155875264,
                2.0368631921024267,
                1.7500382067880547,
                -0.3759803959568589,
                0.15136573438583006
            ]
        },
        {
            "positions": [
                0.09563538076688391,
                -1.042322723391492,
                2.0219571197142407,
                1.8071948869999241,
                -0.29343022672415187,
                0.10170490881985578
            ]
        },
        {
            "positions": [
                0.109514146964156,
                -0.9099885311954578,
                2.007051047326055,
                1.8643515672117936,
                -0.21088005749144484,
                0.05204408325388149
            ]
        },
        {
            "positions": [
                0.1233929131614281,
                -0.7776543389994235,
                1.9921449749378697,
                1.9215082474236633,
                -0.12832988825873784,
                0.0023832576879071936
            ]
        }
    ]
}