{
    "goal": {
        "global_pose": {
            "orientation": {
                "w": -0.00223480608172531,
                "x": 0.0024358444001904467,
                "y": 0.7094548369677653,
                "z": -0.704743149386269
            },
            "position": {
                "x": 0.6205249238014221,
                "y": -0.6371506643295288,
                "z": 0.19426114857196808
            }
        },
        "name": "move_to_magneteinheit_B"
    },
    "id": "LazyPRM_move_to_magneteinheit_B_58",
    "joint_names": [
        "shoulder_pan_joint",
        "shoulder_lift_joint",
        "elbow_joint",
        "wrist_1_joint",
        "wrist_2_joint",
        "wrist_3_joint"
    ],
    "metrics": {
        "cart_traj_len": 1.6422954070927451,
        "distance_elbow_joint": 1.18002269575406,
        "distance_shoulder_lift_joint": 1.0683298691769858,
        "distance_shoulder_pan_joint": 1.6202017091785086,
        "distance_wrist_1_joint": 0.5675173859089315,
        "distance_wrist_2_joint": 1.5228034089913527,
        "distance_wrist_3_joint": 1.5726936277079542,
        "smoothness": 0.5576814270835496,
        "time": 2.128211594,
        "traj_len": 2.744370364349133,
        "weighted_distance": 3.5731326237678314
    },
    "planner": "LazyPRM",
    "start": {
        "state": {
            "elbow_joint": 2.6216224122426386,
            "shoulder_lift_joint": -1.4174107377796124,
            "shoulder_pan_joint": 0.7066234856936794,
            "wrist_1_joint": 1.9546482284002225,
            "wrist_2_joint": -0.7096286983471962,
            "wrist_3_joint": 0.005740856962016249
        }
    },
    "waypoints": [
        {
            "positions": [
                0.7066234856936794,
                -1.4174107377796124,
                2.6216224122426386,
                1.9546482284002225,
                -0.7096286983471962,
                0.005740856962016249
            ]
        },
        {
            "positions": [
                0.6109984087633484,
                -1.4075762257272333,
                2.6496512980235205,
                1.973547337805671,
                -0.743167855956602,
                0.14263253547864382
            ]
        },
        {
            "positions": [
                0.5153733318330175,
                -1.3977417136748542,
                2.6776801838044024,
                1.9924464472111196,
                -0.7767070135660077,
                0.2795242139952714
            ]
        },
        {
            "positions": [
                0.4197482549026865,
                -1.3879072016224752,
                2.7057090695852843,
                2.0113455566165683,
                -0.8102461711754135,
                0.416415892511899
            ]
        },
        {
            "positions": [
                0.32412317797235557,
                -1.378072689570096,
                2.7337379553661663,
                2.030244666022017,
                -0.8437853287848193,
                0.5533075710285265
            ]
        },
        {
            "positions": [
                0.2896388050211254,
                -1.4094721086127868,
                2.6362439962830857,
                2.091753841207398,
                -0.9318904178466327,
                0.6007911700952399
            ]
        },
        {
            "positions": [
                0.2551544320698952,
                -1.4408715276554773,
                2.5387500372000056,
                2.153263016392779,
                -1.0199955069084463,
                0.6482747691619534
            ]
        },
        {
            "positions": [
                0.220670059118665,
                -1.472270946698168,
                2.441256078116925,
                2.2147721915781604,
                -1.1081005959702597,
                0.6957583682286668
            ]
        },
        {
            "positions": [
                0.18618568616743483,
                -1.5036703657408585,
                2.343762119033845,
                2.2762813667635413,
                -1.1962056850320733,
                0.7432419672953803
            ]
        },
        {
            "positions": [
                0.15170131321620464,
                -1.5350697847835493,
                2.2462681599507643,
                2.3377905419489227,
                -1.2843107740938868,
                0.7907255663620937
            ]
        },
        {
            "positions": [
                0.06292801849111848,
                -1.4624035576373813,
                2.1978983801828367,
                2.32242595258557,
                -1.3633208851976086,
                0.725083156503104
            ]
        },
        {
            "positions": [
                -0.02584527623396768,
                -1.3897373304912133,
                2.1495286004149095,
                2.3070613632222177,
                -1.4423309963013304,
                0.6594407466441142
            ]
        },
        {
            "positions": [
                -0.11461857095905384,
                -1.3170711033450453,
                2.101158820646982,
                2.291696773858865,
                -1.5213411074050525,
                0.5937983367851245
            ]
        },
        {
            "positions": [
                -0.20339186568414,
                -1.2444048761988773,
                2.052789040879054,
                2.2763321844955122,
                -1.600351218508774,
                0.5281559269261349
            ]
        },
        {
            "positions": [
                -0.29216516040922613,
                -1.171738649052709,
                2.0044192611111264,
                2.2609675951321595,
                -1.679361329612496,
                0.4625135170671451
            ]
        },
        {
            "positions": [
                -0.38093845513431235,
                -1.099072421906541,
                1.9560494813431992,
                2.245603005768807,
                -1.7583714407162179,
                0.3968711072081554
            ]
        },
        {
            "positions": [
                -0.46971174985939856,
                -1.0264061947603729,
                1.9076797015752716,
                2.2302384164054545,
                -1.8373815518199397,
                0.33122869734916566
            ]
        },
        {
            "positions": [
                -0.5584850445844847,
                -0.9537399676142051,
                1.8593099218073441,
                2.214873827042102,
                -1.9163916629236615,
                0.265586287490176
            ]
        },
        {
            "positions": [
                -0.6472583393095708,
                -0.881073740468037,
                1.8109401420394164,
                2.199509237678749,
                -1.9954017740273833,
                0.19994387763118626
            ]
        },
        {
            "positions": [
                -0.736031634034657,
                -0.8084075133218689,
                1.762570362271489,
                2.184144648315397,
                -2.0744118851311053,
                0.13430146777219654
            ]
        },
        {
            "positions": [
                -0.8248049287597431,
                -0.735741286175701,
                1.7142005825035613,
                2.168780058952044,
                -2.153421996234827,
                0.06865905791320681
            ]
        },
        {
            "positions": [
                -0.9135782234848293,
                -0.6630750590295329,
                1.6658308027356339,
                2.1534154695886913,
                -2.232432107338549,
                0.003016648054217056
            ]
        }
    ]
}