{
    "goal": {
        "global_pose": {
            "orientation": {
                "w": 0.7047431468963623,
                "x": -0.7094548344612122,
                "y": 0.0024358443915843964,
                "z": -0.0022348060738295317
            },
            "position": {
                "x": 0.6094750761985779,
                "y": 0.3671506643295288,
                "z": 0.19426114857196808
            }
        },
        "name": "move_to_magneteinheit_A"
    },
    "id": "LazyPRM_move_to_magneteinheit_A_138",
    "joint_names": [
        "shoulder_pan_joint",
        "shoulder_lift_joint",
        "elbow_joint",
        "wrist_1_joint",
        "wrist_2_joint",
        "wrist_3_joint"
    ],
    "metrics": {
        "cart_traj_len": 3.3636819294006663,
        "distance_elbow_joint": 4.112017502302291,
        "distance_shoulder_lift_joint": 0.5445821803385874,
        "distance_shoulder_pan_joint": 3.1164764452817924,
        "distance_wrist_1_joint": 3.463566737562133,
        "distance_wrist_2_joint": 1.44948614371028,
        "distance_wrist_3_joint": 1.933395208789726,
        "smoothness": 0.21951676512990245,
        "time": 0.072350794,
        "traj_len": 3.8235486420320086,
        "weighted_distance": 4.837289273636286
    },
    "planner": "LazyPRM",
    "start": {
        "state": {
            "elbow_joint": -1.9196185241190666,
            "shoulder_lift_joint": -1.2443396400964142,
            "shoulder_pan_joint": 2.6996025414629847,
            "wrist_1_joint": -1.5485510000780065,
            "wrist_2_joint": -1.5709468930060704,
            "wrist_3_joint": 0.4420197071253992
        }
    },
    "waypoints": [
        {
            "positions": [
                2.6996025414629847,
                -1.2443396400964142,
                -1.9196185241190666,
                -1.5485510000780065,
                -1.5709468930060704,
                0.4420197071253992
            ]
        },
        {
            "positions": [
                2.573226950300207,
                -1.2245754053729994,
                -1.8159675836240625,
                -1.477736733871646,
                -1.5438287492943072,
                0.48170213922339894
            ]
        },
        {
            "positions": [
                2.4468513591374292,
                -1.2048111706495848,
                -1.7123166431290584,
                -1.4069224676652858,
                -1.516710605582544,
                0.5213845713213987
            ]
        },
        {
            "positions": [
                2.320475767974651,
                -1.18504693592617,
                -1.6086657026340543,
                -1.3361082014589254,
                -1.4895924618707808,
                0.5610670034193985
            ]
        },
        {
            "positions": [
                2.1941001768118733,
                -1.1652827012027553,
                -1.5050147621390502,
                -1.265293935252565,
                -1.4624743181590176,
                0.6007494355173982
            ]
        },
        {
            "positions": [
                2.0677245856490956,
                -1.1455184664793405,
                -1.401363821644046,
                -1.1944796690462047,
                -1.4353561744472545,
                0.6404318676153979
            ]
        },
        {
            "positions": [
                1.9413489944863178,
                -1.1257542317559257,
                -1.297712881149042,
                -1.1236654028398443,
                -1.4082380307354911,
                0.6801142997133978
            ]
        },
        {
            "positions": [
                1.81497340332354,
                -1.105989997032511,
                -1.1940619406540378,
                -1.0528511366334838,
                -1.381119887023728,
                0.7197967318113976
            ]
        },
        {
            "positions": [
                1.688597812160762,
                -1.0862257623090963,
                -1.0904110001590337,
                -0.9820368704271235,
                -1.3540017433119647,
                0.7594791639093973
            ]
        },
        {
            "positions": [
                1.5622222209979841,
                -1.0664615275856815,
                -0.9867600596640296,
                -0.9112226042207632,
                -1.3268835996002015,
                0.799161596007397
            ]
        },
        {
            "positions": [
                1.4358466298352064,
                -1.0466972928622669,
                -0.8831091191690255,
                -0.8404083380144028,
                -1.2997654558884384,
                0.8388440281053968
            ]
        },
        {
            "positions": [
                1.3094710386724284,
                -1.026933058138852,
                -0.7794581786740211,
                -0.7695940718080424,
                -1.2726473121766753,
                0.8785264602033966
            ]
        },
        {
            "positions": [
                1.1830954475096507,
                -1.0071688234154372,
                -0.6758072381790172,
                -0.6987798056016821,
                -1.245529168464912,
                0.9182088923013964
            ]
        },
        {
            "positions": [
                1.0567198563468727,
                -0.9874045886920226,
                -0.5721562976840129,
                -0.6279655393953216,
                -1.2184110247531488,
                0.9578913243993962
            ]
        },
        {
            "positions": [
                0.9303442651840952,
                -0.9676403539686078,
                -0.468505357189009,
                -0.5571512731889613,
                -1.1912928810413856,
                0.9975737564973959
            ]
        },
        {
            "positions": [
                0.8039686740213172,
                -0.9478761192451931,
                -0.36485441669400465,
                -0.48633700698260096,
                -1.1641747373296223,
                1.0372561885953957
            ]
        },
        {
            "positions": [
                0.6775930828585395,
                -0.9281118845217784,
                -0.26120347619900075,
                -0.4155227407762405,
                -1.1370565936178592,
                1.0769386206933955
            ]
        },
        {
            "positions": [
                0.5512174916957613,
                -0.9083476497983636,
                -0.1575525357039964,
                -0.3447084745698801,
                -1.109938449906096,
                1.1166210527913951
            ]
        },
        {
            "positions": [
                0.42484190053298354,
                -0.888583415074949,
                -0.053901595208992514,
                -0.27389420836351985,
                -1.082820306194333,
                1.156303484889395
            ]
        },
        {
            "positions": [
                0.2984663093702056,
                -0.8688191803515342,
                0.0497493452860118,
                -0.20307994215715935,
                -1.0557021624825695,
                1.1959859169873948
            ]
        },
        {
            "positions": [
                0.260587412096812,
                -0.8658069842722207,
                0.18836312338842673,
                -0.12176298672551793,
                -1.0058303360814609,
                1.1519923318679381
            ]
        },
        {
            "positions": [
                0.2227085148234184,
                -0.8627947881929072,
                0.3269769014908417,
                -0.0404460312938765,
                -0.9559585096803525,
                1.1079987467484818
            ]
        },
        {
            "positions": [
                0.18482961755002486,
                -0.8597825921135938,
                0.4655906795932566,
                0.040870924137764914,
                -0.9060866832792439,
                1.0640051616290251
            ]
        },
        {
            "positions": [
                0.14695072027663128,
                -0.8567703960342803,
                0.6042044576956715,
                0.12218787956940635,
                -0.8562148568781354,
                1.0200115765095685
            ]
        },
        {
            "positions": [
                0.1090718230032377,
                -0.8537581999549668,
                0.7428182357980866,
                0.20350483500104782,
                -0.8063430304770267,
                0.976017991390112
            ]
        },
        {
            "positions": [
                0.07119292572984412,
                -0.8507460038756534,
                0.8814320139005014,
                0.2848217904326892,
                -0.7564712040759183,
                0.9320244062706555
            ]
        },
        {
            "positions": [
                0.03331402845645054,
                -0.8477338077963399,
                1.0200457920029165,
                0.3661387458643307,
                -0.7065993776748096,
                0.8880308211511989
            ]
        },
        {
            "positions": [
                0.015249064887906276,
                -0.8515250871365205,
                1.1270653757737719,
                0.49023491416372617,
                -0.672570160983265,
                0.8062813134611517
            ]
        },
        {
            "positions": [
                -0.0028158986806379876,
                -0.8553163664767012,
                1.2340849595446273,
                0.6143310824631216,
                -0.6385409442917205,
                0.7245318057711044
            ]
        },
        {
            "positions": [
                -0.020880862249182244,
                -0.8591076458168819,
                1.3411045433154827,
                0.7384272507625171,
                -0.604511727600176,
                0.6427822980810571
            ]
        },
        {
            "positions": [
                -0.038945825817726515,
                -0.8628989251570626,
                1.448124127086338,
                0.8625234190619127,
                -0.5704825109086314,
                0.56103279039101
            ]
        },
        {
            "positions": [
                -0.05701078938627077,
                -0.8666902044972432,
                1.5551437108571933,
                0.9866195873613081,
                -0.5364532942170869,
                0.4792832827009627
            ]
        },
        {
            "positions": [
                -0.07507575295481503,
                -0.8704814838374239,
                1.6621632946280487,
                1.1107157556607035,
                -0.5024240775255423,
                0.39753377501091547
            ]
        },
        {
            "positions": [
                -0.09314071652335928,
                -0.8742727631776045,
                1.769182878398904,
                1.234811923960099,
                -0.4683948608339978,
                0.3157842673208683
            ]
        },
        {
            "positions": [
                -0.11120568009190357,
                -0.8780640425177852,
                1.8762024621697595,
                1.3589080922594945,
                -0.4343656441424532,
                0.234034759630821
            ]
        },
        {
            "positions": [
                -0.12927064366044783,
                -0.8818553218579659,
                1.983222045940615,
                1.4830042605588898,
                -0.40033642745090864,
                0.1522852519407737
            ]
        },
        {
            "positions": [
                -0.14733560722899208,
                -0.8856466011981465,
                2.0902416297114703,
                1.6071004288582855,
                -0.3663072107593641,
                0.07053574425072653
            ]
        },
        {
            "positions": [
                -0.05748950836572009,
                -0.8489587496525777,
                2.056189180220885,
                1.709738865066899,
                -0.2846917236048396,
                0.052542802187039
            ]
        },
        {
            "positions": [
                0.03235659049755191,
                -0.8122708981070089,
                2.0221367307303,
                1.8123773012755122,
                -0.20307623645031503,
                0.03454986012335147
            ]
        },
        {
            "positions": [
                0.12220268936082389,
                -0.7755830465614401,
                1.988084281239715,
                1.9150157374841257,
                -0.12146074929579045,
                0.016556918059663937
            ]
        }
    ]
}