{
    "goal": {
        "global_pose": {
            "orientation": {
                "w": 0.5084816262002911,
                "x": -0.4908360881923452,
                "y": 0.5182115481033761,
                "z": -0.48164630358495003
            },
            "position": {
                "x": 0.5540239810943604,
                "y": -0.46912469901144505,
                "z": 0.16403168439865112
            }
        },
        "name": "move_to_storage_B"
    },
    "id": "LazyPRMstar_move_to_storage_B_139",
    "joint_names": [
        "shoulder_pan_joint",
        "shoulder_lift_joint",
        "elbow_joint",
        "wrist_1_joint",
        "wrist_2_joint",
        "wrist_3_joint"
    ],
    "metrics": {
        "cart_traj_len": 0.6250135083236574,
        "distance_elbow_joint": 0.3576345978539375,
        "distance_shoulder_lift_joint": 0.5318356595724436,
        "distance_shoulder_pan_joint": 0.27439220195745306,
        "distance_wrist_1_joint": 3.0236283650318994,
        "distance_wrist_2_joint": 2.699615853369854,
        "distance_wrist_3_joint": 3.1730787054925673,
        "smoothness": 0.05787195886550696,
        "time": 5.030958759,
        "traj_len": 3.1717795294247915,
        "weighted_distance": 4.704209499232048
    },
    "planner": "LazyPRMstar",
    "start": {
        "state": {
            "elbow_joint": 1.664937868594044,
            "shoulder_lift_joint": -0.661644460510453,
            "shoulder_pan_joint": -0.9139846352900073,
            "wrist_1_joint": 2.146753192139373,
            "wrist_2_joint": -2.2341966793290973,
            "wrist_3_joint": 0.005466555786416001
        }
    },
    "waypoints": [
        {
            "positions": [
                -0.9139846352900073,
                -0.661644460510453,
                1.664937868594044,
                2.146753192139373,
                -2.2341966793290973,
                0.005466555786416001
            ]
        },
        {
            "positions": [
                -0.9400725248987845,
                -0.7004120529491857,
                1.7147018677262897,
                2.073907944893101,
                -2.0982577008633974,
                0.015202154927782926
            ]
        },
        {
            "positions": [
                -0.9661604145075617,
                -0.7391796453879186,
                1.7644658668585356,
                2.0010626976468284,
                -1.9623187223976974,
                0.02493775406914985
            ]
        },
        {
            "positions": [
                -0.9922483041163389,
                -0.7779472378266514,
                1.8142298659907812,
                1.9282174504005565,
                -1.8263797439319973,
                0.034673353210516775
            ]
        },
        {
            "positions": [
                -1.018336193725116,
                -0.8167148302653842,
                1.863993865123027,
                1.855372203154284,
                -1.6904407654662974,
                0.0444089523518837
            ]
        },
        {
            "positions": [
                -1.0245322966729093,
                -0.8337938349760587,
                1.8699643510293127,
                1.7359608479711146,
                -1.5858847004216619,
                0.1778315844485188
            ]
        },
        {
            "positions": [
                -1.0307283996207026,
                -0.8508728396867334,
                1.8759348369355984,
                1.616549492787945,
                -1.4813286353770263,
                0.3112542165451539
            ]
        },
        {
            "positions": [
                -1.036924502568496,
                -0.8679518443974081,
                1.881905322841884,
                1.4971381376047754,
                -1.376772570332391,
                0.44467684864178897
            ]
        },
        {
            "positions": [
                -1.0431206055162894,
                -0.8850308491080827,
                1.8878758087481697,
                1.377726782421606,
                -1.2722165052877554,
                0.5780994807384241
            ]
        },
        {
            "positions": [
                -1.0493167084640826,
                -0.9021098538187573,
                1.8938462946544554,
                1.2583154272384363,
                -1.1676604402431199,
                0.7115221128350592
            ]
        },
        {
            "positions": [
                -1.055512811411876,
                -0.919188858529432,
                1.8998167805607409,
                1.1389040720552668,
                -1.0631043751984843,
                0.8449447449316942
            ]
        },
        {
            "positions": [
                -1.0617089143596692,
                -0.9362678632401066,
                1.9057872664670266,
                1.0194927168720973,
                -0.9585483101538489,
                0.9783673770283293
            ]
        },
        {
            "positions": [
                -1.0679050173074627,
                -0.9533468679507813,
                1.9117577523733122,
                0.9000813616889277,
                -0.8539922451092133,
                1.1117900091249646
            ]
        },
        {
            "positions": [
                -1.074101120255256,
                -0.9704258726614559,
                1.917728238279598,
                0.7806700065057581,
                -0.7494361800645778,
                1.2452126412215998
            ]
        },
        {
            "positions": [
                -1.0802972232030492,
                -0.9875048773721306,
                1.9236987241858836,
                0.6612586513225887,
                -0.6448801150199424,
                1.3786352733182348
            ]
        },
        {
            "positions": [
                -1.0864933261508425,
                -1.0045838820828052,
                1.9296692100921693,
                0.541847296139419,
                -0.5403240499753068,
                1.51205790541487
            ]
        },
        {
            "positions": [
                -1.0926894290986358,
                -1.0216628867934798,
                1.935639695998455,
                0.4224359409562497,
                -0.4357679849306715,
                1.645480537511505
            ]
        },
        {
            "positions": [
                -1.0988855320464292,
                -1.0387418915041544,
                1.9416101819047407,
                0.30302458577308,
                -0.3312119198860357,
                1.77890316960814
            ]
        },
        {
            "positions": [
                -1.1050816349942225,
                -1.055820896214829,
                1.9475806678110263,
                0.18361323058991053,
                -0.22665585484140038,
                1.912325801704775
            ]
        },
        {
            "positions": [
                -1.1112777379420158,
                -1.0728999009255038,
                1.9535511537173118,
                0.06420187540674105,
                -0.12209978979676483,
                2.04574843380141
            ]
        },
        {
            "positions": [
                -1.117473840889809,
                -1.0899789056361784,
                1.9595216396235975,
                -0.05520947977642865,
                -0.017543724752129286,
                2.1791710658980454
            ]
        },
        {
            "positions": [
                -1.1236699438376023,
                -1.107057910346853,
                1.9654921255298832,
                -0.1746208349595979,
                0.08701234029250604,
                2.3125936979946804
            ]
        },
        {
            "positions": [
                -1.1298660467853958,
                -1.1241369150575276,
                1.9714626114361689,
                -0.2940321901427678,
                0.1915684053371418,
                2.446016330091316
            ]
        },
        {
            "positions": [
                -1.136062149733189,
                -1.1412159197682024,
                1.9774330973424545,
                -0.4134435453259373,
                0.29612447038177714,
                2.5794389621879503
            ]
        },
        {
            "positions": [
                -1.1422582526809824,
                -1.158294924478877,
                1.9834035832487402,
                -0.5328549005091068,
                0.40068053542641247,
                2.7128615942845857
            ]
        },
        {
            "positions": [
                -1.126885391158823,
                -1.1465665259442037,
                1.9964598776484872,
                -0.6475283246369135,
                0.422260081631194,
                2.868089483282718
            ]
        },
        {
            "positions": [
                -1.1115125296366637,
                -1.1348381274095305,
                2.0095161720482344,
                -0.76220174876472,
                0.4438396278359755,
                3.0233173722808506
            ]
        },
        {
            "positions": [
                -1.0961396681145044,
                -1.1231097288748573,
                2.0225724664479814,
                -0.8768751728925267,
                0.46541917404075706,
                3.178545261278983
            ]
        }
    ]
}