{
    "goal": {
        "global_pose": {
            "orientation": {
                "w": -0.4816463035849501,
                "x": 0.5182115481033762,
                "y": 0.4908360881923453,
                "z": -0.5084816262002911
            },
            "position": {
                "x": -0.8240239810943604,
                "y": 0.19912469901144506,
                "z": 0.16403168439865112
            }
        },
        "name": "move_to_storage_D"
    },
    "id": "LazyPRMstar_move_to_storage_D_78",
    "joint_names": [
        "shoulder_pan_joint",
        "shoulder_lift_joint",
        "elbow_joint",
        "wrist_1_joint",
        "wrist_2_joint",
        "wrist_3_joint"
    ],
    "metrics": {
        "cart_traj_len": 3.9666292726482637,
        "distance_elbow_joint": 4.210548179531806,
        "distance_shoulder_lift_joint": 1.3295293591879622,
        "distance_shoulder_pan_joint": 2.8142619552008328,
        "distance_wrist_1_joint": 2.2677859790888966,
        "distance_wrist_2_joint": 0.8770385702455507,
        "distance_wrist_3_joint": 3.143330342993739,
        "smoothness": 0.036470107257992095,
        "time": 5.0700204179999995,
        "traj_len": 3.8265512392033623,
        "weighted_distance": 4.906524189441106
    },
    "planner": "LazyPRMstar",
    "start": {
        "state": {
            "elbow_joint": -2.384821988534728,
            "shoulder_lift_joint": -2.2788054721415256,
            "shoulder_pan_joint": -0.1854694642142757,
            "wrist_1_joint": 1.4845938289331202,
            "wrist_2_joint": 0.17898776772866878,
            "wrist_3_joint": 0.037105688729662994
        }
    },
    "waypoints": [
        {
            "positions": [
                -0.1854694642142757,
                -2.2788054721415256,
                -2.384821988534728,
                1.4845938289331202,
                0.17898776772866878,
                0.037105688729662994
            ]
        },
        {
            "positions": [
                -0.1596045283341784,
                -2.2768179582934196,
                -2.3709848878200646,
                1.4844069821875365,
                0.19252270947346162,
                0.015100914316935759
            ]
        },
        {
            "positions": [
                -0.07994119897429768,
                -2.2398301641166083,
                -2.2647974084046387,
                1.4222024052775888,
                0.21622520692576486,
                -0.07186328638513695
            ]
        },
        {
            "positions": [
                -0.0002778696144169479,
                -2.202842369939797,
                -2.1586099289892133,
                1.3599978283676413,
                0.2399277043780681,
                -0.15882748708720967
            ]
        },
        {
            "positions": [
                0.0793854597454638,
                -2.1658545757629852,
                -2.0524224495737875,
                1.2977932514576935,
                0.26363020183037134,
                -0.24579168778928243
            ]
        },
        {
            "positions": [
                0.1590487891053445,
                -2.128866781586174,
                -1.9462349701583619,
                1.2355886745477458,
                0.2873326992826746,
                -0.33275588849135507
            ]
        },
        {
            "positions": [
                0.2387121184652252,
                -2.0918789874093626,
                -1.8400474907429363,
                1.1733840976377983,
                0.3110351967349778,
                -0.4197200891934278
            ]
        },
        {
            "positions": [
                0.31837544782510596,
                -2.0548911932325513,
                -1.7338600113275104,
                1.1111795207278505,
                0.33473769418728105,
                -0.5066842898955006
            ]
        },
        {
            "positions": [
                0.3980387771849867,
                -2.0179033990557396,
                -1.6276725319120846,
                1.0489749438179028,
                0.35844019163958435,
                -0.5936484905975733
            ]
        },
        {
            "positions": [
                0.47770210654486744,
                -1.9809156048789283,
                -1.5214850524966592,
                0.9867703669079553,
                0.3821426890918876,
                -0.680612691299646
            ]
        },
        {
            "positions": [
                0.5573654359047481,
                -1.943927810702117,
                -1.4152975730812334,
                0.9245657899980076,
                0.4058451865441908,
                -0.7675768920017186
            ]
        },
        {
            "positions": [
                0.6370287652646288,
                -1.9069400165253054,
                -1.3091100936658078,
                0.8623612130880599,
                0.42954768399649407,
                -0.8545410927037914
            ]
        },
        {
            "positions": [
                0.7166920946245097,
                -1.8699522223484941,
                -1.2029226142503822,
                0.8001566361781123,
                0.4532501814487973,
                -0.9415052934058642
            ]
        },
        {
            "positions": [
                0.7963554239843904,
                -1.8329644281716826,
                -1.0967351348349563,
                0.7379520592681645,
                0.47695267890110055,
                -1.0284694941079369
            ]
        },
        {
            "positions": [
                0.876018753344271,
                -1.7959766339948713,
                -0.9905476554195307,
                0.6757474823582169,
                0.5006551763534038,
                -1.1154336948100094
            ]
        },
        {
            "positions": [
                0.9556820827041518,
                -1.7589888398180598,
                -0.8843601760041049,
                0.6135429054482692,
                0.5243576738057071,
                -1.2023978955120822
            ]
        },
        {
            "positions": [
                1.0353454120640324,
                -1.7220010456412485,
                -0.7781726965886795,
                0.5513383285383217,
                0.5480601712580102,
                -1.2893620962141548
            ]
        },
        {
            "positions": [
                1.1150087414239132,
                -1.685013251464437,
                -0.6719852171732537,
                0.4891337516283739,
                0.5717626687103136,
                -1.3763262969162275
            ]
        },
        {
            "positions": [
                1.194672070783794,
                -1.6480254572876256,
                -0.565797737757828,
                0.4269291747184263,
                0.5954651661626168,
                -1.4632904976183003
            ]
        },
        {
            "positions": [
                1.2743354001436744,
                -1.6110376631108143,
                -0.45961025834240243,
                0.36472459780847877,
                0.6191676636149199,
                -1.5502546983203729
            ]
        },
        {
            "positions": [
                1.3539987295035552,
                -1.5740498689340028,
                -0.3534227789269768,
                0.30252002089853103,
                0.6428701610672233,
                -1.6372188990224457
            ]
        },
        {
            "positions": [
                1.433662058863436,
                -1.5370620747571913,
                -0.247235299511551,
                0.2403154439885833,
                0.6665726585195265,
                -1.7241830997245184
            ]
        },
        {
            "positions": [
                1.5133253882233169,
                -1.50007428058038,
                -0.14104782009612515,
                0.17811086707863555,
                0.6902751559718298,
                -1.8111473004265912
            ]
        },
        {
            "positions": [
                1.5929887175831976,
                -1.4630864864035686,
                -0.034860340680699764,
                0.11590629016868803,
                0.713977653424133,
                -1.898111501128664
            ]
        },
        {
            "positions": [
                1.6726520469430783,
                -1.4260986922267571,
                0.07132713873472607,
                0.05370171325874029,
                0.7376801508764362,
                -1.9850757018307368
            ]
        },
        {
            "positions": [
                1.752315376302959,
                -1.3891108980499456,
                0.1775146181501519,
                -0.008502863651207448,
                0.7613826483287395,
                -2.0720399025328096
            ]
        },
        {
            "positions": [
                1.8319787056628398,
                -1.3521231038731343,
                0.28370209756557774,
                -0.07070744056115519,
                0.7850851457810428,
                -2.1590041032348823
            ]
        },
        {
            "positions": [
                1.9116420350227203,
                -1.3151353096963228,
                0.3898895769810031,
                -0.1329120174711027,
                0.8087876432333461,
                -2.2459683039369547
            ]
        },
        {
            "positions": [
                1.991305364382601,
                -1.2781475155195112,
                0.49607705639642896,
                -0.19511659438105045,
                0.8324901406856493,
                -2.3329325046390275
            ]
        },
        {
            "positions": [
                2.070968693742482,
                -1.2411597213427,
                0.6022645358118548,
                -0.2573211712909982,
                0.8561926381379525,
                -2.4198967053411002
            ]
        },
        {
            "positions": [
                2.150632023102363,
                -1.2041719271658886,
                0.7084520152272806,
                -0.3195257482009459,
                0.8798951355902558,
                -2.506860906043173
            ]
        },
        {
            "positions": [
                2.2302953524622433,
                -1.1671841329890773,
                0.8146394946427056,
                -0.3817303251108932,
                0.9035976330425589,
                -2.5938251067452454
            ]
        },
        {
            "positions": [
                2.309958681822124,
                -1.1301963388122658,
                0.9208269740581314,
                -0.44393490202084096,
                0.9273001304948622,
                -2.680789307447318
            ]
        },
        {
            "positions": [
                2.389622011182005,
                -1.0932085446354545,
                1.0270144534735572,
                -0.5061394789307887,
                0.9510026279471655,
                -2.767753508149391
            ]
        },
        {
            "positions": [
                2.4692853405418855,
                -1.056220750458643,
                1.133201932888983,
                -0.5683440558407362,
                0.9747051253994687,
                -2.8547177088514637
            ]
        },
        {
            "positions": [
                2.5489486699017663,
                -1.0192329562818316,
                1.2393894123044085,
                -0.630548632750684,
                0.998407622851772,
                -2.9416819095535365
            ]
        },
        {
            "positions": [
                2.628611999261647,
                -0.9822451621050201,
                1.3455768917198343,
                -0.6927532096606317,
                1.0221101203040752,
                -3.0286461102556093
            ]
        },
        {
            "positions": [
                2.628521753399192,
                -0.9987296866807485,
                1.5856515413584562,
                -0.737972679908204,
                1.0390682291391473,
                -3.0674353822598426
            ]
        },
        {
            "positions": [
                2.6284315075367375,
                -1.0152142112564768,
                1.825726190997078,
                -0.7831921501557765,
                1.0560263379742194,
                -3.106224654264076
            ]
        }
    ]
}