{
    "goal": {
        "global_pose": {
            "orientation": {
                "w": 0.7031023502349854,
                "x": -0.7110244035720825,
                "y": 0.007748599164187908,
                "z": 0.005598929710686207
            },
            "position": {
                "x": 0.11585023208521307,
                "y": 0.44412534475326537,
                "z": 0.3711530566215515
            }
        },
        "name": "move_to_auspresseinheit_A"
    },
    "id": "LazyPRMstar_move_to_auspresseinheit_A_59",
    "joint_names": [
        "shoulder_pan_joint",
        "shoulder_lift_joint",
        "elbow_joint",
        "wrist_1_joint",
        "wrist_2_joint",
        "wrist_3_joint"
    ],
    "metrics": {
        "cart_traj_len": 0.6861330834916651,
        "distance_elbow_joint": 0.03091615406692405,
        "distance_shoulder_lift_joint": 0.5339137025290805,
        "distance_shoulder_pan_joint": 1.0443430939510816,
        "distance_wrist_1_joint": 0.5699499202331928,
        "distance_wrist_2_joint": 0.5263972696304623,
        "distance_wrist_3_joint": 0.08673022409849551,
        "smoothness": 0.10153382753037221,
        "time": 5.005611861,
        "traj_len": 1.6710028020650465,
        "weighted_distance": 2.015454788024252
    },
    "planner": "LazyPRMstar",
    "start": {
        "state": {
            "elbow_joint": 2.4225746658250005,
            "shoulder_lift_joint": -1.3736534386056498,
            "shoulder_pan_joint": -0.3378633547517467,
            "wrist_1_joint": -1.0288598680537169,
            "wrist_2_joint": 1.233022673432363,
            "wrist_3_joint": -3.0940220416140027
        }
    },
    "waypoints": [
        {
            "positions": [
                -0.3378633547517467,
                -1.3736534386056498,
                2.4225746658250005,
                -1.0288598680537169,
                1.233022673432363,
                -3.0940220416140027
            ]
        },
        {
            "positions": [
                -0.20523234532474882,
                -1.4471551302257681,
                2.420486249319506,
                -0.9619247520323242,
                1.1584811361007228,
                -3.1029869163795314
            ]
        },
        {
            "positions": [
                -0.07260133589775092,
                -1.5206568218458862,
                2.418397832814011,
                -0.8949896360109316,
                1.0839395987690825,
                -3.11195179114506
            ]
        },
        {
            "positions": [
                0.060029673529246985,
                -1.5941585134660046,
                2.4163094163085166,
                -0.828054519989539,
                1.0093980614374423,
                -3.1209166659105887
            ]
        },
        {
            "positions": [
                0.1926606829562449,
                -1.667660205086123,
                2.414220999803022,
                -0.7611194039681464,
                0.9348565241058019,
                -3.129881540676117
            ]
        },
        {
            "positions": [
                0.3252916923832429,
                -1.7411618967062412,
                2.4121325832975273,
                -0.6941842879467537,
                0.8603149867741615,
                -3.1388464154416456
            ]
        },
        {
            "positions": [
                0.4579227018102407,
                -1.8146635883263593,
                2.4100441667920327,
                -0.6272491719253611,
                0.7857734494425213,
                -3.147811290207174
            ]
        },
        {
            "positions": [
                0.5905537112372388,
                -1.8881652799464776,
                2.407955750286538,
                -0.5603140559039684,
                0.711231912110881,
                -3.156776164972703
            ]
        },
        {
            "positions": [
                0.7064797391993348,
                -1.9075671411347304,
                2.3916585117580764,
                -0.458909947820524,
                0.7066254038019008,
                -3.1328000642329075
            ]
        }
    ]
}