{
    "goal": {
        "global_pose": {
            "orientation": {
                "w": 0.7031023502349854,
                "x": -0.7110244035720825,
                "y": 0.007748599164187908,
                "z": 0.005598929710686207
            },
            "position": {
                "x": 0.11585023208521307,
                "y": 0.44412534475326537,
                "z": 0.3711530566215515
            }
        },
        "name": "move_to_auspresseinheit_A"
    },
    "id": "LazyPRM_move_to_auspresseinheit_A_121",
    "joint_names": [
        "shoulder_pan_joint",
        "shoulder_lift_joint",
        "elbow_joint",
        "wrist_1_joint",
        "wrist_2_joint",
        "wrist_3_joint"
    ],
    "metrics": {
        "cart_traj_len": 0.9959530536554665,
        "distance_elbow_joint": 0.7751775761602402,
        "distance_shoulder_lift_joint": 0.5370670979320666,
        "distance_shoulder_pan_joint": 1.1513529028293363,
        "distance_wrist_1_joint": 0.5549579679192234,
        "distance_wrist_2_joint": 1.236386848529389,
        "distance_wrist_3_joint": 0.14482792516618348,
        "smoothness": 0.9133722791098075,
        "time": 0.079297377,
        "traj_len": 2.0975629474550788,
        "weighted_distance": 2.545735843585783
    },
    "planner": "LazyPRM",
    "start": {
        "state": {
            "elbow_joint": 2.4225746658250005,
            "shoulder_lift_joint": -1.3736534386056498,
            "shoulder_pan_joint": -0.3378633547517467,
            "wrist_1_joint": -1.0288598680537169,
            "wrist_2_joint": 1.233022673432363,
            "wrist_3_joint": -3.0940220416140027
        }
    },
    "waypoints": [
        {
            "positions": [
                -0.3378633547517467,
                -1.3736534386056498,
                2.4225746658250005,
                -1.0288598680537169,
                1.233022673432363,
                -3.0940220416140027
            ]
        },
        {
            "positions": [
                -0.3488987377299396,
                -1.388899263311389,
                2.3424052960096007,
                -0.972160075940793,
                1.05660649650053,
                -3.082283054738273
            ]
        },
        {
            "positions": [
                -0.3599341207081326,
                -1.4041450880171282,
                2.262235926194201,
                -0.9154602838278691,
                0.880190319568697,
                -3.070544067862543
            ]
        },
        {
            "positions": [
                -0.3709695036863255,
                -1.4193909127228674,
                2.182066556378801,
                -0.8587604917149454,
                0.703774142636864,
                -3.058805080986813
            ]
        },
        {
            "positions": [
                -0.38200488666451843,
                -1.4346367374286066,
                2.1018971865634013,
                -0.8020606996020215,
                0.5273579657050309,
                -3.047066094111083
            ]
        },
        {
            "positions": [
                -0.3930402696427113,
                -1.4498825621343459,
                2.0217278167480015,
                -0.7453609074890977,
                0.3509417887731979,
                -3.035327107235353
            ]
        },
        {
            "positions": [
                -0.23644369993722966,
                -1.5157165584776846,
                2.07520363490275,
                -0.7065810492955827,
                0.40155692646894414,
                -3.047631820205001
            ]
        },
        {
            "positions": [
                -0.079847130231748,
                -1.5815505548210231,
                2.128679453057499,
                -0.6678011911020679,
                0.4521720641646904,
                -3.0599365331746484
            ]
        },
        {
            "positions": [
                0.07674943947373364,
                -1.6473845511643619,
                2.1821552712122476,
                -0.629021332908553,
                0.5027872018604367,
                -3.072241246144296
            ]
        },
        {
            "positions": [
                0.23334600917921533,
                -1.7132185475077004,
                2.2356310893669966,
                -0.5902414747150382,
                0.5534023395561829,
                -3.084545959113944
            ]
        },
        {
            "positions": [
                0.3899425788846971,
                -1.7790525438510392,
                2.289106907521745,
                -0.5514616165215233,
                0.6040174772519291,
                -3.0968506720835918
            ]
        },
        {
            "positions": [
                0.5465391485901786,
                -1.8448865401943777,
                2.342582725676494,
                -0.5126817583280084,
                0.6546326149476753,
                -3.1091553850532394
            ]
        },
        {
            "positions": [
                0.7031357182956605,
                -1.9107205365377165,
                2.3960585438312427,
                -0.4739019001344935,
                0.7052477526434217,
                -3.121460098022887
            ]
        }
    ]
}