{
    "goal": {
        "global_pose": {
            "orientation": {
                "w": 0.7031023502349854,
                "x": -0.7110244035720825,
                "y": 0.007748599164187908,
                "z": 0.005598929710686207
            },
            "position": {
                "x": 0.11585023208521307,
                "y": 0.44412534475326537,
                "z": 0.3711530566215515
            }
        },
        "name": "move_to_auspresseinheit_A"
    },
    "id": "LazyPRMstar_move_to_auspresseinheit_A_109",
    "joint_names": [
        "shoulder_pan_joint",
        "shoulder_lift_joint",
        "elbow_joint",
        "wrist_1_joint",
        "wrist_2_joint",
        "wrist_3_joint"
    ],
    "metrics": {
        "cart_traj_len": 0.6661677162296668,
        "distance_elbow_joint": 0.179512826728498,
        "distance_shoulder_lift_joint": 0.8189507371688711,
        "distance_shoulder_pan_joint": 1.0431151253434878,
        "distance_wrist_1_joint": 1.0534800097678003,
        "distance_wrist_2_joint": 0.7763430495683177,
        "distance_wrist_3_joint": 0.3483584642311337,
        "smoothness": 1.0768252073569484,
        "time": 5.0074299149999995,
        "traj_len": 2.0542054942989783,
        "weighted_distance": 2.597364087032562
    },
    "planner": "LazyPRMstar",
    "start": {
        "state": {
            "elbow_joint": 2.4225746658250005,
            "shoulder_lift_joint": -1.3736534386056498,
            "shoulder_pan_joint": -0.3378633547517467,
            "wrist_1_joint": -1.0288598680537169,
            "wrist_2_joint": 1.233022673432363,
            "wrist_3_joint": -3.0940220416140027
        }
    },
    "waypoints": [
        {
            "positions": [
                -0.3378633547517467,
                -1.3736534386056498,
                2.4225746658250005,
                -1.0288598680537169,
                1.233022673432363,
                -3.0940220416140027
            ]
        },
        {
            "positions": [
                -0.3108742744001609,
                -1.470389082318713,
                2.4333669204715997,
                -0.9132357716590627,
                1.1399635408000002,
                -3.1216158726067857
            ]
        },
        {
            "positions": [
                -0.28388519404857504,
                -1.567124726031776,
                2.444159175118199,
                -0.7976116752644085,
                1.046904408167637,
                -3.1492097035995688
            ]
        },
        {
            "positions": [
                -0.2568961136969892,
                -1.6638603697448389,
                2.4549514297647983,
                -0.6819875788697543,
                0.9538452755352742,
                -3.1768035345923518
            ]
        },
        {
            "positions": [
                -0.22990703334540338,
                -1.760596013457902,
                2.4657436844113976,
                -0.5663634824751,
                0.8607861429029113,
                -3.2043973655851343
            ]
        },
        {
            "positions": [
                -0.20291795299381754,
                -1.857331657170965,
                2.476535939057997,
                -0.45073938608044584,
                0.7677270102705483,
                -3.2319911965779173
            ]
        },
        {
            "positions": [
                -0.1759288726422317,
                -1.9540673008840281,
                2.487328193704596,
                -0.33511528968579163,
                0.6746678776381855,
                -3.2595850275707003
            ]
        },
        {
            "positions": [
                -0.14893979229064586,
                -2.0508029445970912,
                2.4981204483511954,
                -0.21949119329113742,
                0.5816087450058225,
                -3.2871788585634834
            ]
        },
        {
            "positions": [
                0.021898520285831558,
                -2.0224426983616053,
                2.477327039510735,
                -0.2683134602921816,
                0.6065945692341779,
                -3.2561385291071527
            ]
        },
        {
            "positions": [
                0.19273683286230897,
                -1.9940824521261193,
                2.456533630670274,
                -0.3171357272932258,
                0.6315803934625334,
                -3.225098199650822
            ]
        },
        {
            "positions": [
                0.3635751454387864,
                -1.9657222058906334,
                2.4357402218298136,
                -0.36595799429427,
                0.6565662176908887,
                -3.1940578701944915
            ]
        },
        {
            "positions": [
                0.5344134580152637,
                -1.9373619596551475,
                2.4149468129893528,
                -0.4147802612953142,
                0.6815520419192442,
                -3.163017540738161
            ]
        },
        {
            "positions": [
                0.7052517705917412,
                -1.9090017134196615,
                2.3941534041488923,
                -0.4636025282963584,
                0.7065378661475996,
                -3.1319772112818303
            ]
        }
    ]
}