{
    "goal": {
        "global_pose": {
            "orientation": {
                "w": 0.7031023502349854,
                "x": -0.7110244035720825,
                "y": 0.007748599164187908,
                "z": 0.005598929710686207
            },
            "position": {
                "x": 0.11585023208521307,
                "y": 0.44412534475326537,
                "z": 0.3711530566215515
            }
        },
        "name": "move_to_auspresseinheit_A"
    },
    "id": "LazyPRMstar_move_to_auspresseinheit_A_104",
    "joint_names": [
        "shoulder_pan_joint",
        "shoulder_lift_joint",
        "elbow_joint",
        "wrist_1_joint",
        "wrist_2_joint",
        "wrist_3_joint"
    ],
    "metrics": {
        "cart_traj_len": 0.6597678304739084,
        "distance_elbow_joint": 0.4226544946356432,
        "distance_shoulder_lift_joint": 0.9784072521536926,
        "distance_shoulder_pan_joint": 1.045903275088861,
        "distance_wrist_1_joint": 0.5436112888743692,
        "distance_wrist_2_joint": 0.5199360978996441,
        "distance_wrist_3_joint": 1.1063779445166224,
        "smoothness": 0.9635172379711794,
        "time": 5.008218005,
        "traj_len": 2.1486950349383767,
        "weighted_distance": 2.809482804534687
    },
    "planner": "LazyPRMstar",
    "start": {
        "state": {
            "elbow_joint": 2.4225746658250005,
            "shoulder_lift_joint": -1.3736534386056498,
            "shoulder_pan_joint": -0.3378633547517467,
            "wrist_1_joint": -1.0288598680537169,
            "wrist_2_joint": 1.233022673432363,
            "wrist_3_joint": -3.0940220416140027
        }
    },
    "waypoints": [
        {
            "positions": [
                -0.3378633547517467,
                -1.3736534386056498,
                2.4225746658250005,
                -1.0288598680537169,
                1.233022673432363,
                -3.0940220416140027
            ]
        },
        {
            "positions": [
                -0.2841217309683133,
                -1.4683131573127974,
                2.4474694527380416,
                -0.9609700246974466,
                1.1693907678154098,
                -3.026440670613862
            ]
        },
        {
            "positions": [
                -0.23038010718487978,
                -1.5629728760199453,
                2.4723642396510828,
                -0.8930801813411764,
                1.1057588621984569,
                -2.958859299613721
            ]
        },
        {
            "positions": [
                -0.1766384834014463,
                -1.657632594727093,
                2.497259026564124,
                -0.8251903379849062,
                1.0421269565815037,
                -2.89127792861358
            ]
        },
        {
            "positions": [
                -0.12289685961801283,
                -1.7522923134342405,
                2.522153813477165,
                -0.7573004946286359,
                0.9784950509645505,
                -2.823696557613439
            ]
        },
        {
            "positions": [
                -0.06915523583457933,
                -1.8469520321413884,
                2.547048600390206,
                -0.6894106512723657,
                0.9148631453475973,
                -2.756115186613298
            ]
        },
        {
            "positions": [
                -0.015413612051145886,
                -1.941611750848536,
                2.5719433873032473,
                -0.6215208079160955,
                0.8512312397306442,
                -2.688533815613157
            ]
        },
        {
            "positions": [
                0.03832801173228756,
                -2.036271469555684,
                2.5968381742162885,
                -0.5536309645598253,
                0.7875993341136911,
                -2.620952444613016
            ]
        },
        {
            "positions": [
                0.09206963551572109,
                -2.1309311882628315,
                2.6217329611293296,
                -0.48574112120355506,
                0.7239674284967379,
                -2.553371073612875
            ]
        },
        {
            "positions": [
                0.2152636924799997,
                -2.0867052877635293,
                2.5770337212630667,
                -0.4856426127987136,
                0.7217912579039341,
                -2.666516468915974
            ]
        },
        {
            "positions": [
                0.3384577494442783,
                -2.042479387264227,
                2.532334481396804,
                -0.48554410439387213,
                0.7196150873111303,
                -2.779661864219073
            ]
        },
        {
            "positions": [
                0.46165180640855685,
                -1.9982534867649249,
                2.4876352415305414,
                -0.4854455959890307,
                0.7174389167183265,
                -2.892807259522172
            ]
        },
        {
            "positions": [
                0.5848458633728355,
                -1.9540275862656227,
                2.4429360016642785,
                -0.4853470875841892,
                0.7152627461255228,
                -3.005952654825271
            ]
        },
        {
            "positions": [
                0.7080399203371142,
                -1.9098016857663205,
                2.3982367617980156,
                -0.48524857917934777,
                0.7130865755327189,
                -3.11909805012837
            ]
        }
    ]
}