{
    "goal": {
        "global_pose": {
            "orientation": {
                "w": 0.005598929693374612,
                "x": 0.007748599140229565,
                "y": 0.7110244013736278,
                "z": -0.7031023480610252
            },
            "position": {
                "x": -0.8858502320852131,
                "y": -0.7141253447532654,
                "z": 0.3711530566215515
            }
        },
        "name": "move_to_auspresseinheit_C"
    },
    "id": "LazyPRM_move_to_auspresseinheit_C_116",
    "joint_names": [
        "shoulder_pan_joint",
        "shoulder_lift_joint",
        "elbow_joint",
        "wrist_1_joint",
        "wrist_2_joint",
        "wrist_3_joint"
    ],
    "metrics": {
        "cart_traj_len": 0.49428480428989735,
        "distance_elbow_joint": 1.0113334552277409,
        "distance_shoulder_lift_joint": 0.32955920097313407,
        "distance_shoulder_pan_joint": 0.2563383900430236,
        "distance_wrist_1_joint": 0.6994034259680337,
        "distance_wrist_2_joint": 1.3140143497387125,
        "distance_wrist_3_joint": 0.08111001306692778,
        "smoothness": 3.2297397080004555e-16,
        "time": 0.012522869,
        "traj_len": 1.921395023158323,
        "weighted_distance": 2.422270966852836
    },
    "planner": "LazyPRM",
    "start": {
        "state": {
            "elbow_joint": 1.7527959577737207,
            "shoulder_lift_joint": -0.9740617694225068,
            "shoulder_pan_joint": -2.967991417825858,
            "wrist_1_joint": -0.759517768980727,
            "wrist_2_joint": 1.7443932448377408,
            "wrist_3_joint": -3.0840537646736568
        }
    },
    "waypoints": [
        {
            "positions": [
                -2.967991417825858,
                -0.9740617694225068,
                1.7527959577737207,
                -0.759517768980727,
                1.7443932448377408,
                -3.0840537646736568
            ]
        },
        {
            "positions": [
                -2.9423575788215555,
                -0.9411058493251934,
                1.6516626122509466,
                -0.6895774263839236,
                1.6129918098638696,
                -3.0921647659803497
            ]
        },
        {
            "positions": [
                -2.9167237398172534,
                -0.90814992922788,
                1.5505292667281725,
                -0.6196370837871202,
                1.4815903748899983,
                -3.1002757672870422
            ]
        },
        {
            "positions": [
                -2.891089900812951,
                -0.8751940091305666,
                1.4493959212053984,
                -0.5496967411903169,
                1.350188939916127,
                -3.108386768593735
            ]
        },
        {
            "positions": [
                -2.8654560618086484,
                -0.8422380890332531,
                1.3482625756826243,
                -0.4797563985935135,
                1.2187875049422559,
                -3.1164977699004277
            ]
        },
        {
            "positions": [
                -2.8398222228043464,
                -0.8092821689359397,
                1.2471292301598502,
                -0.4098160559967101,
                1.0873860699683846,
                -3.1246087712071207
            ]
        },
        {
            "positions": [
                -2.814188383800044,
                -0.7763262488386263,
                1.1459958846370761,
                -0.33987571339990674,
                0.9559846349945134,
                -3.1327197725138136
            ]
        },
        {
            "positions": [
                -2.7885545447957414,
                -0.7433703287413129,
                1.044862539114302,
                -0.2699353708031034,
                0.8245832000206422,
                -3.140830773820506
            ]
        },
        {
            "positions": [
                -2.762920705791439,
                -0.7104144086439995,
                0.943729193591528,
                -0.1999950282063,
                0.6931817650467709,
                -3.148941775127199
            ]
        },
        {
            "positions": [
                -2.737286866787137,
                -0.6774584885466861,
                0.8425958480687539,
                -0.13005468560949662,
                0.5617803300728996,
                -3.1570527764338916
            ]
        },
        {
            "positions": [
                -2.7116530277828343,
                -0.6445025684493727,
                0.7414625025459797,
                -0.060114343012693264,
                0.43037889509902827,
                -3.1651637777405845
            ]
        }
    ]
}