{
    "goal": {
        "global_pose": {
            "orientation": {
                "w": 0.5084816217422485,
                "x": -0.49083608388900757,
                "y": 0.5182115435600281,
                "z": -0.4816462993621826
            },
            "position": {
                "x": 0.5540239810943604,
                "y": 0.030875300988554955,
                "z": 0.16403168439865112
            }
        },
        "name": "move_to_storage_A"
    },
    "id": "LazyPRM_move_to_storage_A_51",
    "joint_names": [
        "shoulder_pan_joint",
        "shoulder_lift_joint",
        "elbow_joint",
        "wrist_1_joint",
        "wrist_2_joint",
        "wrist_3_joint"
    ],
    "metrics": {
        "cart_traj_len": 0.35306707195902365,
        "distance_elbow_joint": 0.4532846354702975,
        "distance_shoulder_lift_joint": 0.23432385030652036,
        "distance_shoulder_pan_joint": 0.4632350149661038,
        "distance_wrist_1_joint": 0.2548060305897818,
        "distance_wrist_2_joint": 1.0926103242836862,
        "distance_wrist_3_joint": 0.09684690547172536,
        "smoothness": 4.440892133664971e-16,
        "time": 0.021870657999999998,
        "traj_len": 1.6109335061038723,
        "weighted_distance": 2.033769142971993
    },
    "planner": "LazyPRM",
    "start": {
        "state": {
            "elbow_joint": 1.971548259319323,
            "shoulder_lift_joint": -1.1394851275133948,
            "shoulder_pan_joint": 0.1228115487234821,
            "wrist_1_joint": -0.7804723859257726,
            "wrist_2_joint": 0.12958671773740124,
            "wrist_3_joint": -3.192489227718131
        }
    },
    "waypoints": [
        {
            "positions": [
                0.1228115487234821,
                -1.1394851275133948,
                1.971548259319323,
                -0.7804723859257726,
                0.12958671773740124,
                -3.192489227718131
            ]
        },
        {
            "positions": [
                0.0566351180140387,
                -1.1729599632714691,
                2.0363032072436513,
                -0.8168732474385986,
                0.285673906920785,
                -3.1786539555078845
            ]
        },
        {
            "positions": [
                -0.009541312695404702,
                -1.2064347990295434,
                2.1010581551679794,
                -0.8532741089514245,
                0.4417610961041687,
                -3.1648186832976384
            ]
        },
        {
            "positions": [
                -0.0757177434048481,
                -1.2399096347876177,
                2.1658131030923076,
                -0.8896749704642505,
                0.5978482852875524,
                -3.1509834110873918
            ]
        },
        {
            "positions": [
                -0.1418941741142915,
                -1.2733844705456923,
                2.2305680510166357,
                -0.9260758319770765,
                0.7539354744709362,
                -3.137148138877145
            ]
        },
        {
            "positions": [
                -0.2080706048237349,
                -1.3068593063037666,
                2.2953229989409643,
                -0.9624766934899025,
                0.91002266365432,
                -3.1233128666668986
            ]
        },
        {
            "positions": [
                -0.2742470355331783,
                -1.3403341420618409,
                2.3600779468652924,
                -0.9988775550027285,
                1.0661098528377035,
                -3.1094775944566524
            ]
        },
        {
            "positions": [
                -0.3404234662426217,
                -1.3738089778199152,
                2.4248328947896205,
                -1.0352784165155544,
                1.2221970420210875,
                -3.095642322246406
            ]
        }
    ]
}{
    "goal": {
        "global_pose": {
            "orientation": {
                "w": 0.5084816217422485,
                "x": -0.49083608388900757,
                "y": 0.5182115435600281,
                "z": -0.4816462993621826
            },
            "position": {
                "x": 0.5540239810943604,
                "y": 0.030875300988554955,
                "z": 0.16403168439865112
            }
        },
        "name": "move_to_storage_A"
    },
    "id": "LazyPRM_move_to_storage_A_51",
    "joint_names": [
        "shoulder_pan_joint",
        "shoulder_lift_joint",
        "elbow_joint",
        "wrist_1_joint",
        "wrist_2_joint",
        "wrist_3_joint"
    ],
    "metrics": {
        "cart_traj_len": 0.35333394322231426,
        "distance_elbow_joint": 0.45400850451308683,
        "distance_shoulder_lift_joint": 0.23346850035445788,
        "distance_shoulder_pan_joint": 0.4625494209434934,
        "distance_wrist_1_joint": 0.2604331139174314,
        "distance_wrist_2_joint": 1.097108821886807,
        "distance_wrist_3_joint": 0.1035874336732392,
        "smoothness": 1.776356832919533e-15,
        "time": 0.022275193,
        "traj_len": 1.615907112209274,
        "weighted_distance": 2.043495191684882
    },
    "planner": "LazyPRM",
    "start": {
        "state": {
            "elbow_joint": 1.97154746011099,
            "shoulder_lift_joint": -1.13948474672311,
            "shoulder_pan_joint": 0.12281154466712228,
            "wrist_1_joint": -0.7804688027058302,
            "wrist_2_joint": 0.12958655903071145,
            "wrist_3_joint": 3.0906928834467795
        }
    },
    "waypoints": [
        {
            "positions": [
                0.12281154466712228,
                -1.13948474672311,
                1.97154746011099,
                -0.7804688027058302,
                0.12958655903071145,
                3.0906928834467795
            ]
        },
        {
            "positions": [
                0.05673305596090894,
                -1.1728373896308897,
                2.0364058178985736,
                -0.8176735332654632,
                0.28631639072882675,
                3.105491088257242
            ]
        },
        {
            "positions": [
                -0.009345432745304402,
                -1.2061900325386694,
                2.1012641756861576,
                -0.8548782638250962,
                0.443046222426942,
                3.120289293067705
            ]
        },
        {
            "positions": [
                -0.07542392145151773,
                -1.2395426754464491,
                2.1661225334737413,
                -0.8920829943847294,
                0.5997760541250573,
                3.1350874978781675
            ]
        },
        {
            "positions": [
                -0.14150241015773107,
                -1.2728953183542286,
                2.2309808912613254,
                -0.9292877249443624,
                0.7565058858231726,
                3.1498857026886307
            ]
        },
        {
            "positions": [
                -0.20758089886394443,
                -1.3062479612620084,
                2.295839249048909,
                -0.9664924555039955,
                0.913235717521288,
                3.1646839074990933
            ]
        },
        {
            "positions": [
                -0.27365938757015773,
                -1.339600604169788,
                2.360697606836493,
                -1.0036971860636286,
                1.0699655492194031,
                3.179482112309556
            ]
        },
        {
            "positions": [
                -0.3397378762763711,
                -1.3729532470775678,
                2.4255559646240767,
                -1.0409019166232616,
                1.2266953809175185,
                3.1942803171200187
            ]
        }
    ]
}{
    "goal": {
        "global_pose": {
            "orientation": {
                "w": 0.5084816217422485,
                "x": -0.49083608388900757,
                "y": 0.5182115435600281,
                "z": -0.4816462993621826
            },
            "position": {
                "x": 0.5540239810943604,
                "y": 0.030875300988554955,
                "z": 0.16403168439865112
            }
        },
        "name": "move_to_storage_A"
    },
    "id": "LazyPRM_move_to_storage_A_51",
    "joint_names": [
        "shoulder_pan_joint",
        "shoulder_lift_joint",
        "elbow_joint",
        "wrist_1_joint",
        "wrist_2_joint",
        "wrist_3_joint"
    ],
    "metrics": {
        "cart_traj_len": 0.35214313579401274,
        "distance_elbow_joint": 0.4482382283882491,
        "distance_shoulder_lift_joint": 0.23460962493298698,
        "distance_shoulder_pan_joint": 0.45779588319958486,
        "distance_wrist_1_joint": 0.2352661472656259,
        "distance_wrist_2_joint": 1.1085699691632194,
        "distance_wrist_3_joint": 0.08548253267842743,
        "smoothness": 4.440892098500626e-16,
        "time": 0.021950101,
        "traj_len": 1.6031102225449418,
        "weighted_distance": 2.021079802336809
    },
    "planner": "LazyPRM",
    "start": {
        "state": {
            "elbow_joint": 1.9715472970024885,
            "shoulder_lift_joint": -1.1394870060712896,
            "shoulder_pan_joint": 0.12281152778156021,
            "wrist_1_joint": -0.780463741449964,
            "wrist_2_joint": 0.12958659822042276,
            "wrist_3_joint": 3.090690232415272
        }
    },
    "waypoints": [
        {
            "positions": [
                0.12281152778156021,
                -1.1394870060712896,
                1.9715472970024885,
                -0.780463741449964,
                0.12958659822042276,
                3.090690232415272
            ]
        },
        {
            "positions": [
                0.05741211589590524,
                -1.173002666776002,
                2.035581329629381,
                -0.8140731910593392,
                0.2879537366723112,
                3.1029020227979043
            ]
        },
        {
            "positions": [
                -0.007987295989749732,
                -1.2065183274807145,
                2.099615362256274,
                -0.8476826406687142,
                0.4463208751241997,
                3.1151138131805367
            ]
        },
        {
            "positions": [
                -0.07338670787540472,
                -1.240033988185427,
                2.1636493948831665,
                -0.8812920902780894,
                0.6046880135760881,
                3.127325603563169
            ]
        },
        {
            "positions": [
                -0.13878611976105967,
                -1.2735496488901392,
                2.227683427510059,
                -0.9149015398874645,
                0.7630551520279766,
                3.139537393945802
            ]
        },
        {
            "positions": [
                -0.20418553164671469,
                -1.3070653095948517,
                2.2917174601369523,
                -0.9485109894968397,
                0.9214222904798651,
                3.1517491843284344
            ]
        },
        {
            "positions": [
                -0.2695849435323696,
                -1.3405809702995641,
                2.355751492763845,
                -0.9821204391062147,
                1.0797894289317536,
                3.163960974711067
            ]
        },
        {
            "positions": [
                -0.3349843554180246,
                -1.3740966310042766,
                2.4197855253907377,
                -1.01572988871559,
                1.238156567383642,
                3.1761727650936993
            ]
        }
    ]
}