{
    "goal": {
        "global_pose": {
            "orientation": {
                "w": 0.5084816262002911,
                "x": -0.4908360881923452,
                "y": 0.5182115481033761,
                "z": -0.48164630358495003
            },
            "position": {
                "x": 0.5540239810943604,
                "y": -0.46912469901144505,
                "z": 0.16403168439865112
            }
        },
        "name": "move_to_storage_B"
    },
    "id": "LazyPRMstar_move_to_storage_B_25",
    "joint_names": [
        "shoulder_pan_joint",
        "shoulder_lift_joint",
        "elbow_joint",
        "wrist_1_joint",
        "wrist_2_joint",
        "wrist_3_joint"
    ],
    "metrics": {
        "cart_traj_len": 0.6319479574641012,
        "distance_elbow_joint": 0.359828647124806,
        "distance_shoulder_lift_joint": 0.46351904264093147,
        "distance_shoulder_pan_joint": 0.17971858289879605,
        "distance_wrist_1_joint": 3.0187088982535992,
        "distance_wrist_2_joint": 2.720379845411596,
        "distance_wrist_3_joint": 3.7447929795842056,
        "smoothness": 0.2234595408535503,
        "time": 5.038041157,
        "traj_len": 3.238355754995726,
        "weighted_distance": 4.869868858475302
    },
    "planner": "LazyPRMstar",
    "start": {
        "state": {
            "elbow_joint": 1.664937868594044,
            "shoulder_lift_joint": -0.661644460510453,
            "shoulder_pan_joint": -0.9139846352900073,
            "wrist_1_joint": 2.146753192139373,
            "wrist_2_joint": -2.2341966793290973,
            "wrist_3_joint": 0.005466555786416001
        }
    },
    "waypoints": [
        {
            "positions": [
                -0.9139846352900073,
                -0.661644460510453,
                1.664937868594044,
                2.146753192139373,
                -2.2341966793290973,
                0.005466555786416001
            ]
        },
        {
            "positions": [
                -0.9427367832092958,
                -0.6882626052072904,
                1.7152378943513775,
                2.083245637137879,
                -2.1116234109101333,
                -0.06593804786907907
            ]
        },
        {
            "positions": [
                -0.9714889311285844,
                -0.714880749904128,
                1.7655379201087111,
                2.019738082136385,
                -1.989050142491169,
                -0.13734265152457414
            ]
        },
        {
            "positions": [
                -1.0002410790478728,
                -0.7414988946009655,
                1.815837945866045,
                1.9562305271348905,
                -1.8664768740722049,
                -0.20874725518006923
            ]
        },
        {
            "positions": [
                -1.0289932269671613,
                -0.768117039297803,
                1.8661379716233786,
                1.8927229721333965,
                -1.7439036056532409,
                -0.28015185883556426
            ]
        },
        {
            "positions": [
                -1.031806704846363,
                -0.7836407985957847,
                1.8730348648449209,
                1.7725195513400216,
                -1.6469433112299479,
                -0.12975296470677186
            ]
        },
        {
            "positions": [
                -1.034620182725565,
                -0.7991645578937665,
                1.879931758066463,
                1.6523161305466467,
                -1.5499830168066548,
                0.020645929422020537
            ]
        },
        {
            "positions": [
                -1.0374336606047667,
                -0.8146883171917484,
                1.8868286512880053,
                1.5321127097532719,
                -1.4530227223833618,
                0.17104482355081296
            ]
        },
        {
            "positions": [
                -1.0402471384839687,
                -0.8302120764897302,
                1.8937255445095476,
                1.411909288959897,
                -1.3560624279600688,
                0.32144371767960533
            ]
        },
        {
            "positions": [
                -1.0430606163631704,
                -0.8457358357877119,
                1.9006224377310896,
                1.291705868166522,
                -1.2591021335367758,
                0.4718426118083978
            ]
        },
        {
            "positions": [
                -1.0458740942423723,
                -0.8612595950856938,
                1.907519330952632,
                1.1715024473731472,
                -1.1621418391134828,
                0.6222415059371902
            ]
        },
        {
            "positions": [
                -1.048687572121574,
                -0.8767833543836756,
                1.9144162241741742,
                1.0512990265797721,
                -1.0651815446901896,
                0.7726404000659828
            ]
        },
        {
            "positions": [
                -1.051501050000776,
                -0.8923071136816574,
                1.9213131173957165,
                0.9310956057863974,
                -0.9682212502668966,
                0.9230392941947749
            ]
        },
        {
            "positions": [
                -1.0543145278799777,
                -0.9078308729796392,
                1.9282100106172586,
                0.8108921849930224,
                -0.8712609558436035,
                1.0734381883235675
            ]
        },
        {
            "positions": [
                -1.0571280057591796,
                -0.9233546322776209,
                1.935106903838801,
                0.6906887641996475,
                -0.7743006614203106,
                1.22383708245236
            ]
        },
        {
            "positions": [
                -1.0599414836383814,
                -0.9388783915756028,
                1.9420037970603432,
                0.5704853434062727,
                -0.6773403669970175,
                1.3742359765811523
            ]
        },
        {
            "positions": [
                -1.0627549615175833,
                -0.9544021508735846,
                1.9489006902818853,
                0.4502819226128978,
                -0.5803800725737245,
                1.5246348707099446
            ]
        },
        {
            "positions": [
                -1.065568439396785,
                -0.9699259101715664,
                1.9557975835034276,
                0.3300785018195229,
                -0.48341977815043147,
                1.675033764838737
            ]
        },
        {
            "positions": [
                -1.068381917275987,
                -0.9854496694695483,
                1.9626944767249699,
                0.20987508102614783,
                -0.38645948372713823,
                1.8254326589675298
            ]
        },
        {
            "positions": [
                -1.0711953951551887,
                -1.00097342876753,
                1.969591369946512,
                0.08967166023277318,
                -0.28949918930384544,
                1.9758315530963217
            ]
        },
        {
            "positions": [
                -1.0740088730343906,
                -1.0164971880655118,
                1.9764882631680543,
                -0.030531760560601695,
                -0.19253889488055242,
                2.1262304472251143
            ]
        },
        {
            "positions": [
                -1.0768223509135924,
                -1.0320209473634936,
                1.9833851563895966,
                -0.15073518135397634,
                -0.09557860045725941,
                2.2766293413539067
            ]
        },
        {
            "positions": [
                -1.0796358287927943,
                -1.0475447066614754,
                1.9902820496111389,
                -0.27093860214735166,
                0.0013816939660338257,
                2.427028235482699
            ]
        },
        {
            "positions": [
                -1.082449306671996,
                -1.0630684659594571,
                1.997178942832681,
                -0.39114202294072653,
                0.09834198838932684,
                2.5774271296114915
            ]
        },
        {
            "positions": [
                -1.085262784551198,
                -1.078592225257439,
                2.004075836054223,
                -0.5113454437341014,
                0.19530228281261963,
                2.727826023740284
            ]
        },
        {
            "positions": [
                -1.0880762624303997,
                -1.094115984555421,
                2.0109727292757653,
                -0.6315488645274763,
                0.29226257723591287,
                2.878224917869076
            ]
        },
        {
            "positions": [
                -1.0908897403096016,
                -1.1096397438534027,
                2.0178696224973076,
                -0.7517522853208511,
                0.3892228716592059,
                3.0286238119978686
            ]
        },
        {
            "positions": [
                -1.0937032181888033,
                -1.1251635031513845,
                2.02476651571885,
                -0.8719557061142261,
                0.48618316608249906,
                3.1790227061266614
            ]
        }
    ]
}