{
    "goal": {
        "global_pose": {
            "orientation": {
                "w": 0.7031023480610252,
                "x": -0.7110244013736278,
                "y": 0.0077485991402295624,
                "z": 0.005598929693374583
            },
            "position": {
                "x": -0.8841497679147869,
                "y": 0.44412534475326537,
                "z": 0.3711530566215515
            }
        },
        "name": "move_to_auspresseinheit_D"
    },
    "id": "LazyPRM_move_to_auspresseinheit_D_15",
    "joint_names": [
        "shoulder_pan_joint",
        "shoulder_lift_joint",
        "elbow_joint",
        "wrist_1_joint",
        "wrist_2_joint",
        "wrist_3_joint"
    ],
    "metrics": {
        "cart_traj_len": 0.34436245049760994,
        "distance_elbow_joint": 0.6591388175251423,
        "distance_shoulder_lift_joint": 0.13272527775801546,
        "distance_shoulder_pan_joint": 0.1342510618994485,
        "distance_wrist_1_joint": 0.6021849338200789,
        "distance_wrist_2_joint": 1.438984922222773,
        "distance_wrist_3_joint": 0.04920397615738903,
        "smoothness": 0.0,
        "time": 0.012456271000000001,
        "traj_len": 1.7368042461322022,
        "weighted_distance": 2.270697425404908
    },
    "planner": "LazyPRM",
    "start": {
        "state": {
            "elbow_joint": -1.8275523626775212,
            "shoulder_lift_joint": -2.126789852344167,
            "shoulder_pan_joint": -0.03513704404078235,
            "wrist_1_joint": -2.347782403156801,
            "wrist_2_joint": -1.6058999987535132,
            "wrist_3_joint": -3.0880379163319196
        }
    },
    "waypoints": [
        {
            "positions": [
                -0.03513704404078235,
                -2.126789852344167,
                -1.8275523626775212,
                -2.347782403156801,
                -1.6058999987535132,
                -3.0880379163319196
            ]
        },
        {
            "positions": [
                -0.051918426778213414,
                -2.143380512063919,
                -1.7451600104868783,
                -2.423055519884311,
                -1.4260268834756666,
                -3.081887419312246
            ]
        },
        {
            "positions": [
                -0.06869980951564447,
                -2.1599711717836705,
                -1.6627676582962356,
                -2.4983286366118205,
                -1.2461537681978199,
                -3.075736922292572
            ]
        },
        {
            "positions": [
                -0.08548119225307554,
                -2.1765618315034225,
                -1.580375306105593,
                -2.5736017533393305,
                -1.0662806529199733,
                -3.069586425272899
            ]
        },
        {
            "positions": [
                -0.10226257499050659,
                -2.1931524912231746,
                -1.49798295391495,
                -2.64887487006684,
                -0.8864075376421267,
                -3.063435928253225
            ]
        },
        {
            "positions": [
                -0.11904395772793766,
                -2.2097431509429266,
                -1.4155906017243072,
                -2.72414798679435,
                -0.70653442236428,
                -3.0572854312335513
            ]
        },
        {
            "positions": [
                -0.13582534046536873,
                -2.2263338106626787,
                -1.3331982495336645,
                -2.79942110352186,
                -0.5266613070864334,
                -3.051134934213878
            ]
        },
        {
            "positions": [
                -0.15260672320279978,
                -2.2429244703824303,
                -1.2508058973430218,
                -2.8746942202493697,
                -0.34678819180858667,
                -3.0449844371942043
            ]
        },
        {
            "positions": [
                -0.16938810594023085,
                -2.2595151301021823,
                -1.168413545152379,
                -2.9499673369768797,
                -0.16691507653074003,
                -3.0388339401745306
            ]
        }
    ]
}