{
    "goal": {
        "global_pose": {
            "orientation": {
                "w": 0.005598929693374612,
                "x": 0.007748599140229565,
                "y": 0.7110244013736278,
                "z": -0.7031023480610252
            },
            "position": {
                "x": -0.8858502320852131,
                "y": -0.7141253447532654,
                "z": 0.3711530566215515
            }
        },
        "name": "move_to_auspresseinheit_C"
    },
    "id": "LazyPRMstar_move_to_auspresseinheit_C_31",
    "joint_names": [
        "shoulder_pan_joint",
        "shoulder_lift_joint",
        "elbow_joint",
        "wrist_1_joint",
        "wrist_2_joint",
        "wrist_3_joint"
    ],
    "metrics": {
        "cart_traj_len": 0.49336376941536997,
        "distance_elbow_joint": 1.0049562125660931,
        "distance_shoulder_lift_joint": 0.32674664313403745,
        "distance_shoulder_pan_joint": 0.25656553458349984,
        "distance_wrist_1_joint": 0.6942454670167498,
        "distance_wrist_2_joint": 1.3027454545949881,
        "distance_wrist_3_joint": 0.06668997459014037,
        "smoothness": 9.689219124001365e-16,
        "time": 5.000336717000001,
        "traj_len": 1.9110074009499567,
        "weighted_distance": 2.4046455367221022
    },
    "planner": "LazyPRMstar",
    "start": {
        "state": {
            "elbow_joint": 1.7527959577737207,
            "shoulder_lift_joint": -0.9740617694225068,
            "shoulder_pan_joint": -2.967991417825858,
            "wrist_1_joint": -0.759517768980727,
            "wrist_2_joint": 1.7443932448377408,
            "wrist_3_joint": -3.0840537646736568
        }
    },
    "waypoints": [
        {
            "positions": [
                -2.967991417825858,
                -0.9740617694225068,
                1.7527959577737207,
                -0.759517768980727,
                1.7443932448377408,
                -3.0840537646736568
            ]
        },
        {
            "positions": [
                -2.942334864367508,
                -0.9413871051091031,
                1.6523003365171114,
                -0.690093222279052,
                1.614118699378242,
                -3.0907227621326707
            ]
        },
        {
            "positions": [
                -2.916678310909158,
                -0.9087124407956992,
                1.5518047152605021,
                -0.620668675577377,
                1.4838441539187432,
                -3.0973917595916847
            ]
        },
        {
            "positions": [
                -2.891021757450808,
                -0.8760377764822955,
                1.4513090940038929,
                -0.5512441288757021,
                1.3535696084592443,
                -3.104060757050699
            ]
        },
        {
            "positions": [
                -2.865365203992458,
                -0.8433631121688918,
                1.3508134727472834,
                -0.48181958217402704,
                1.2232950629997457,
                -3.110729754509713
            ]
        },
        {
            "positions": [
                -2.8397086505341083,
                -0.8106884478554881,
                1.250317851490674,
                -0.41239503547235207,
                1.0930205175402468,
                -3.117398751968727
            ]
        },
        {
            "positions": [
                -2.814052097075758,
                -0.7780137835420843,
                1.1498222302340648,
                -0.3429704887706771,
                0.962745972080748,
                -3.124067749427741
            ]
        },
        {
            "positions": [
                -2.788395543617408,
                -0.7453391192286806,
                1.0493266089774556,
                -0.2735459420690021,
                0.8324714266212492,
                -3.130736746886755
            ]
        },
        {
            "positions": [
                -2.762738990159058,
                -0.7126644549152767,
                0.9488309877208461,
                -0.2041213953673271,
                0.7021968811617503,
                -3.1374057443457692
            ]
        },
        {
            "positions": [
                -2.737082436700708,
                -0.679989790601873,
                0.8483353664642368,
                -0.13469684866565212,
                0.5719223357022514,
                -3.144074741804783
            ]
        },
        {
            "positions": [
                -2.711425883242358,
                -0.6473151262884693,
                0.7478397452076276,
                -0.0652723019639772,
                0.4416477902427526,
                -3.150743739263797
            ]
        }
    ]
}