{
    "goal": {
        "global_pose": {
            "orientation": {
                "w": 0.5084816217422485,
                "x": -0.49083608388900757,
                "y": 0.5182115435600281,
                "z": -0.4816462993621826
            },
            "position": {
                "x": 0.5540239810943604,
                "y": 0.030875300988554955,
                "z": 0.16403168439865112
            }
        },
        "name": "move_to_storage_A"
    },
    "id": "LazyPRMstar_move_to_storage_A_102",
    "joint_names": [
        "shoulder_pan_joint",
        "shoulder_lift_joint",
        "elbow_joint",
        "wrist_1_joint",
        "wrist_2_joint",
        "wrist_3_joint"
    ],
    "metrics": {
        "cart_traj_len": 0.3529531779410243,
        "distance_elbow_joint": 0.45267703027693273,
        "distance_shoulder_lift_joint": 0.23149236932684136,
        "distance_shoulder_pan_joint": 0.4580744342776642,
        "distance_wrist_1_joint": 0.2626659932247736,
        "distance_wrist_2_joint": 1.111968960627385,
        "distance_wrist_3_joint": 0.10960163257187538,
        "smoothness": 6.661338165333112e-16,
        "time": 5.0009141790000005,
        "traj_len": 1.6206419778302277,
        "weighted_distance": 2.0543414125459725
    },
    "planner": "LazyPRMstar",
    "start": {
        "state": {
            "elbow_joint": 1.971548259319323,
            "shoulder_lift_joint": -1.1394851275133948,
            "shoulder_pan_joint": 0.1228115487234821,
            "wrist_1_joint": -0.7804723859257726,
            "wrist_2_joint": 0.12958671773740124,
            "wrist_3_joint": -3.192489227718131
        }
    },
    "waypoints": [
        {
            "positions": [
                0.1228115487234821,
                -1.1394851275133948,
                1.971548259319323,
                -0.7804723859257726,
                0.12958671773740124,
                -3.192489227718131
            ]
        },
        {
            "positions": [
                0.05737234382667293,
                -1.172555465988658,
                2.036216406501742,
                -0.8179960992435974,
                0.2884394263984562,
                -3.1768318516364347
            ]
        },
        {
            "positions": [
                -0.008066861070136239,
                -1.205625804463921,
                2.100884553684161,
                -0.8555198125614222,
                0.44729213505951126,
                -3.161174475554738
            ]
        },
        {
            "positions": [
                -0.0735060659669454,
                -1.238696142939184,
                2.16555270086658,
                -0.893043525879247,
                0.6061448437205662,
                -3.1455170994730417
            ]
        },
        {
            "positions": [
                -0.13894527086375458,
                -1.271766481414447,
                2.2302208480489987,
                -0.9305672391970718,
                0.7649975523816213,
                -3.129859723391345
            ]
        },
        {
            "positions": [
                -0.2043844757605638,
                -1.30483681988971,
                2.294888995231418,
                -0.9680909525148966,
                0.9238502610426763,
                -3.1142023473096487
            ]
        },
        {
            "positions": [
                -0.2698236806573729,
                -1.337907158364973,
                2.359557142413837,
                -1.0056146658327214,
                1.0827029697037311,
                -3.0985449712279522
            ]
        },
        {
            "positions": [
                -0.3352628855541821,
                -1.3709774968402362,
                2.4242252895962557,
                -1.0431383791505462,
                1.2415556783647863,
                -3.0828875951462558
            ]
        }
    ]
}{
    "goal": {
        "global_pose": {
            "orientation": {
                "w": 0.5084816217422485,
                "x": -0.49083608388900757,
                "y": 0.5182115435600281,
                "z": -0.4816462993621826
            },
            "position": {
                "x": 0.5540239810943604,
                "y": 0.030875300988554955,
                "z": 0.16403168439865112
            }
        },
        "name": "move_to_storage_A"
    },
    "id": "LazyPRMstar_move_to_storage_A_102",
    "joint_names": [
        "shoulder_pan_joint",
        "shoulder_lift_joint",
        "elbow_joint",
        "wrist_1_joint",
        "wrist_2_joint",
        "wrist_3_joint"
    ],
    "metrics": {
        "cart_traj_len": 0.3532519925571593,
        "distance_elbow_joint": 0.4509590935810439,
        "distance_shoulder_lift_joint": 0.23482429092150348,
        "distance_shoulder_pan_joint": 0.460844312955431,
        "distance_wrist_1_joint": 0.24451384235102336,
        "distance_wrist_2_joint": 1.1043152970079597,
        "distance_wrist_3_joint": 0.09075483527115802,
        "smoothness": 8.881784232165597e-16,
        "time": 5.000260164,
        "traj_len": 1.6081702870306116,
        "weighted_distance": 2.028928407309982
    },
    "planner": "LazyPRMstar",
    "start": {
        "state": {
            "elbow_joint": 1.97154746011099,
            "shoulder_lift_joint": -1.13948474672311,
            "shoulder_pan_joint": 0.12281154466712228,
            "wrist_1_joint": -0.7804688027058302,
            "wrist_2_joint": 0.12958655903071145,
            "wrist_3_joint": 3.0906928834467795
        }
    },
    "waypoints": [
        {
            "positions": [
                0.12281154466712228,
                -1.13948474672311,
                1.97154746011099,
                -0.7804688027058302,
                0.12958655903071145,
                3.0906928834467795
            ]
        },
        {
            "positions": [
                0.05697664281634643,
                -1.1730310739976104,
                2.035970187765425,
                -0.8153993516131193,
                0.28734588717470566,
                3.1036578599140876
            ]
        },
        {
            "positions": [
                -0.008858259034429425,
                -1.2065774012721109,
                2.1003929154198597,
                -0.8503299005204082,
                0.44510521531869995,
                3.116622836381396
            ]
        },
        {
            "positions": [
                -0.07469316088520526,
                -1.2401237285466113,
                2.1648156430742946,
                -0.8852604494276973,
                0.6028645434626941,
                3.1295878128487042
            ]
        },
        {
            "positions": [
                -0.14052806273598112,
                -1.2736700558211118,
                2.229238370728729,
                -0.9201909983349864,
                0.7606238716066884,
                3.142552789316013
            ]
        },
        {
            "positions": [
                -0.20636296458675701,
                -1.3072163830956125,
                2.293661098383164,
                -0.9551215472422754,
                0.9183831997506827,
                3.155517765783321
            ]
        },
        {
            "positions": [
                -0.2721978664375328,
                -1.340762710370113,
                2.358083826037599,
                -0.9900520961495645,
                1.0761425278946768,
                3.1684827422506294
            ]
        },
        {
            "positions": [
                -0.3380327682883087,
                -1.3743090376446134,
                2.422506553692034,
                -1.0249826450568535,
                1.2339018560386712,
                3.1814477187179375
            ]
        }
    ]
}{
    "goal": {
        "global_pose": {
            "orientation": {
                "w": 0.5084816217422485,
                "x": -0.49083608388900757,
                "y": 0.5182115435600281,
                "z": -0.4816462993621826
            },
            "position": {
                "x": 0.5540239810943604,
                "y": 0.030875300988554955,
                "z": 0.16403168439865112
            }
        },
        "name": "move_to_storage_A"
    },
    "id": "LazyPRMstar_move_to_storage_A_102",
    "joint_names": [
        "shoulder_pan_joint",
        "shoulder_lift_joint",
        "elbow_joint",
        "wrist_1_joint",
        "wrist_2_joint",
        "wrist_3_joint"
    ],
    "metrics": {
        "cart_traj_len": 0.352551154311539,
        "distance_elbow_joint": 0.45068229340349,
        "distance_shoulder_lift_joint": 0.23267400478899325,
        "distance_shoulder_pan_joint": 0.4587206759059606,
        "distance_wrist_1_joint": 0.25010859560071363,
        "distance_wrist_2_joint": 1.1067791451611018,
        "distance_wrist_3_joint": 0.09422629440918495,
        "smoothness": 0.0,
        "time": 5.000442285,
        "traj_len": 1.6103387871095463,
        "weighted_distance": 2.0343380591360987
    },
    "planner": "LazyPRMstar",
    "start": {
        "state": {
            "elbow_joint": 1.9715472970024885,
            "shoulder_lift_joint": -1.1394870060712896,
            "shoulder_pan_joint": 0.12281152778156021,
            "wrist_1_joint": -0.780463741449964,
            "wrist_2_joint": 0.12958659822042276,
            "wrist_3_joint": 3.090690232415272
        }
    },
    "waypoints": [
        {
            "positions": [
                0.12281152778156021,
                -1.1394870060712896,
                1.9715472970024885,
                -0.780463741449964,
                0.12958659822042276,
                3.090690232415272
            ]
        },
        {
            "positions": [
                0.05728000265213727,
                -1.1727261496125743,
                2.0359304817744155,
                -0.8161935408214945,
                0.28769790467200873,
                3.104151131616584
            ]
        },
        {
            "positions": [
                -0.008251522477285667,
                -1.2059652931538591,
                2.100313666546343,
                -0.8519233401930251,
                0.44580921112359473,
                3.117612030817896
            ]
        },
        {
            "positions": [
                -0.07378304760670859,
                -1.2392044366951438,
                2.16469685131827,
                -0.8876531395645555,
                0.6039205175751806,
                3.1310729300192084
            ]
        },
        {
            "positions": [
                -0.13931457273613154,
                -1.2724435802364287,
                2.2290800360901972,
                -0.923382938936086,
                0.7620318240267666,
                3.1445338292205203
            ]
        },
        {
            "positions": [
                -0.2048460978655545,
                -1.3056827237777133,
                2.293463220862124,
                -0.9591127383076166,
                0.9201431304783526,
                3.1579947284218326
            ]
        },
        {
            "positions": [
                -0.27037762299497736,
                -1.338921867318998,
                2.357846405634051,
                -0.9948425376791471,
                1.0782544369299385,
                3.1714556276231445
            ]
        },
        {
            "positions": [
                -0.33590914812440037,
                -1.3721610108602829,
                2.4222295904059785,
                -1.0305723370506776,
                1.2363657433815245,
                3.184916526824457
            ]
        }
    ]
}