{
    "goal": {
        "global_pose": {
            "orientation": {
                "w": 0.005598929693374612,
                "x": 0.007748599140229565,
                "y": 0.7110244013736278,
                "z": -0.7031023480610252
            },
            "position": {
                "x": -0.8858502320852131,
                "y": -0.7141253447532654,
                "z": 0.3711530566215515
            }
        },
        "name": "move_to_auspresseinheit_C"
    },
    "id": "LazyPRMstar_move_to_auspresseinheit_C_43",
    "joint_names": [
        "shoulder_pan_joint",
        "shoulder_lift_joint",
        "elbow_joint",
        "wrist_1_joint",
        "wrist_2_joint",
        "wrist_3_joint"
    ],
    "metrics": {
        "cart_traj_len": 0.4934882069407319,
        "distance_elbow_joint": 1.0043276200711797,
        "distance_shoulder_lift_joint": 0.3270175717622983,
        "distance_shoulder_pan_joint": 0.25643139281365723,
        "distance_wrist_1_joint": 0.6859088387665203,
        "distance_wrist_2_joint": 1.3061047785741071,
        "distance_wrist_3_joint": 0.0667932215942062,
        "smoothness": 3.2297397080004555e-16,
        "time": 5.0013312029999994,
        "traj_len": 1.9096029491970232,
        "weighted_distance": 2.4025368850677418
    },
    "planner": "LazyPRMstar",
    "start": {
        "state": {
            "elbow_joint": 1.7527959577737207,
            "shoulder_lift_joint": -0.9740617694225068,
            "shoulder_pan_joint": -2.967991417825858,
            "wrist_1_joint": -0.759517768980727,
            "wrist_2_joint": 1.7443932448377408,
            "wrist_3_joint": -3.0840537646736568
        }
    },
    "waypoints": [
        {
            "positions": [
                -2.967991417825858,
                -0.9740617694225068,
                1.7527959577737207,
                -0.759517768980727,
                1.7443932448377408,
                -3.0840537646736568
            ]
        },
        {
            "positions": [
                -2.9423482785444923,
                -0.941360012246277,
                1.6523631957666027,
                -0.690926885104075,
                1.6137827669803302,
                -3.0907330868330773
            ]
        },
        {
            "positions": [
                -2.9167051392631267,
                -0.9086582550700472,
                1.5519304337594848,
                -0.6223360012274229,
                1.4831722891229193,
                -3.097412408992498
            ]
        },
        {
            "positions": [
                -2.8910619999817606,
                -0.8759564978938172,
                1.4514976717523669,
                -0.5537451173507709,
                1.3525618112655087,
                -3.1040917311519185
            ]
        },
        {
            "positions": [
                -2.865418860700395,
                -0.8432547407175874,
                1.3510649097452487,
                -0.48515423347411885,
                1.2219513334080978,
                -3.110771053311339
            ]
        },
        {
            "positions": [
                -2.8397757214190293,
                -0.8105529835413576,
                1.2506321477381308,
                -0.4165633495974668,
                1.0913408555506874,
                -3.11745037547076
            ]
        },
        {
            "positions": [
                -2.8141325821376637,
                -0.7778512263651278,
                1.1501993857310129,
                -0.3479724657208148,
                0.9607303776932766,
                -3.1241296976301807
            ]
        },
        {
            "positions": [
                -2.788489442856298,
                -0.745149469188898,
                1.049766623723895,
                -0.2793815818441628,
                0.8301198998358659,
                -3.1308090197896012
            ]
        },
        {
            "positions": [
                -2.762846303574932,
                -0.7124477120126682,
                0.9493338617167768,
                -0.2107906979675107,
                0.699509421978455,
                -3.137488341949022
            ]
        },
        {
            "positions": [
                -2.7372031642935664,
                -0.6797459548364383,
                0.8489010997096589,
                -0.1421998140908587,
                0.5688989441210444,
                -3.1441676641084424
            ]
        },
        {
            "positions": [
                -2.7115600250122007,
                -0.6470441976602085,
                0.7484683377025408,
                -0.07360893021420666,
                0.43828846626363377,
                -3.150846986267863
            ]
        }
    ]
}