{
    "goal": {
        "global_pose": {
            "orientation": {
                "w": -0.4816463035849501,
                "x": 0.5182115481033762,
                "y": 0.4908360881923453,
                "z": -0.5084816262002911
            },
            "position": {
                "x": -0.8240239810943604,
                "y": -0.300875300988555,
                "z": 0.16403168439865112
            }
        },
        "name": "move_to_storage_C"
    },
    "id": "LazyPRM_move_to_storage_C_150",
    "joint_names": [
        "shoulder_pan_joint",
        "shoulder_lift_joint",
        "elbow_joint",
        "wrist_1_joint",
        "wrist_2_joint",
        "wrist_3_joint"
    ],
    "metrics": {
        "cart_traj_len": 0.5768811843936941,
        "distance_elbow_joint": 0.2617122539955965,
        "distance_shoulder_lift_joint": 0.18961153214307092,
        "distance_shoulder_pan_joint": 0.49364980112989754,
        "distance_wrist_1_joint": 0.08998953023715572,
        "distance_wrist_2_joint": 1.0759573228878034,
        "distance_wrist_3_joint": 0.0582520371024251,
        "smoothness": 0.0,
        "time": 0.011908829000000001,
        "traj_len": 1.4728110800424978,
        "weighted_distance": 1.8578545165932014
    },
    "planner": "LazyPRM",
    "start": {
        "state": {
            "elbow_joint": 2.010868314990456,
            "shoulder_lift_joint": -1.1634956873337592,
            "shoulder_pan_joint": -2.4736205022346125,
            "wrist_1_joint": -0.8367026794202681,
            "wrist_2_joint": 0.6746043897044499,
            "wrist_3_joint": -3.1496632123970403
        }
    },
    "waypoints": [
        {
            "positions": [
                -2.4736205022346125,
                -1.1634956873337592,
                2.010868314990456,
                -0.8367026794202681,
                0.6746043897044499,
                -3.1496632123970403
            ]
        },
        {
            "positions": [
                -2.555895469089595,
                -1.131893765309914,
                1.9672496059911897,
                -0.8217044243807421,
                0.8539306101857504,
                -3.139954539546636
            ]
        },
        {
            "positions": [
                -2.6381704359445783,
                -1.1002918432860689,
                1.9236308969919236,
                -0.8067061693412162,
                1.033256830667051,
                -3.130245866696232
            ]
        },
        {
            "positions": [
                -2.7204454027995615,
                -1.0686899212622238,
                1.8800121879926577,
                -0.7917079143016903,
                1.2125830511483517,
                -3.120537193845828
            ]
        },
        {
            "positions": [
                -2.802720369654544,
                -1.0370879992383786,
                1.8363934789933916,
                -0.7767096592621643,
                1.3919092716296522,
                -3.1108285209954234
            ]
        },
        {
            "positions": [
                -2.884995336509527,
                -1.0054860772145333,
                1.7927747699941254,
                -0.7617114042226383,
                1.5712354921109528,
                -3.1011198481450193
            ]
        },
        {
            "positions": [
                -2.96727030336451,
                -0.9738841551906883,
                1.7491560609948593,
                -0.7467131491831124,
                1.7505617125922532,
                -3.091411175294615
            ]
        }
    ]
}