{
    "goal": {
        "global_pose": {
            "orientation": {
                "w": -0.00223480608172531,
                "x": 0.0024358444001904467,
                "y": 0.7094548369677653,
                "z": -0.704743149386269
            },
            "position": {
                "x": 0.6205249238014221,
                "y": -0.6371506643295288,
                "z": 0.19426114857196808
            }
        },
        "name": "move_to_magneteinheit_B"
    },
    "id": "LazyPRM_move_to_magneteinheit_B_118",
    "joint_names": [
        "shoulder_pan_joint",
        "shoulder_lift_joint",
        "elbow_joint",
        "wrist_1_joint",
        "wrist_2_joint",
        "wrist_3_joint"
    ],
    "metrics": {
        "cart_traj_len": 3.535391087945056,
        "distance_elbow_joint": 5.149745892740768,
        "distance_shoulder_lift_joint": 0.768861758176373,
        "distance_shoulder_pan_joint": 2.660923259439223,
        "distance_wrist_1_joint": 4.605235726460055,
        "distance_wrist_2_joint": 0.6162175367665201,
        "distance_wrist_3_joint": 3.192160546705822,
        "smoothness": 0.362352151453588,
        "time": 1.463291873,
        "traj_len": 4.122274217017684,
        "weighted_distance": 5.3477957213161185
    },
    "planner": "LazyPRM",
    "start": {
        "state": {
            "elbow_joint": 2.6216224122426386,
            "shoulder_lift_joint": -1.4174107377796124,
            "shoulder_pan_joint": 0.7066234856936794,
            "wrist_1_joint": 1.9546482284002225,
            "wrist_2_joint": -0.7096286983471962,
            "wrist_3_joint": 0.005740856962016249
        }
    },
    "waypoints": [
        {
            "positions": [
                0.7066234856936794,
                -1.4174107377796124,
                2.6216224122426386,
                1.9546482284002225,
                -0.7096286983471962,
                0.005740856962016249
            ]
        },
        {
            "positions": [
                0.5942378013885291,
                -1.4911578691183807,
                2.6487601102738636,
                2.00637244708051,
                -0.6960943641039392,
                0.05804984366427177
            ]
        },
        {
            "positions": [
                0.4818521170833789,
                -1.564905000457149,
                2.6758978083050886,
                2.0580966657607975,
                -0.6825600298606822,
                0.1103588303665273
            ]
        },
        {
            "positions": [
                0.48069985044002667,
                -1.641274981897966,
                2.6495738450643733,
                2.035708087350103,
                -0.6295048169458242,
                0.18837777585371113
            ]
        },
        {
            "positions": [
                0.47954758379667445,
                -1.717644963338783,
                2.6232498818236576,
                2.013319508939408,
                -0.5764496040309661,
                0.266396721340895
            ]
        },
        {
            "positions": [
                0.539595935242068,
                -1.7218196970026485,
                2.4901395315384844,
                1.8982186488066835,
                -0.5788922022728301,
                0.3467098261942695
            ]
        },
        {
            "positions": [
                0.5996442866874615,
                -1.725994430666514,
                2.3570291812533117,
                1.783117788673959,
                -0.5813348005146942,
                0.42702293104764405
            ]
        },
        {
            "positions": [
                0.6596926381328551,
                -1.7301691643303796,
                2.2239188309681386,
                1.6680169285412345,
                -0.5837773987565582,
                0.5073360359010186
            ]
        },
        {
            "positions": [
                0.7197409895782486,
                -1.7343438979942452,
                2.0908084806829654,
                1.5529160684085102,
                -0.5862199969984223,
                0.5876491407543931
            ]
        },
        {
            "positions": [
                0.7797893410236422,
                -1.7385186316581107,
                1.9576981303977927,
                1.4378152082757856,
                -0.5886625952402863,
                0.6679622456077676
            ]
        },
        {
            "positions": [
                0.8398376924690357,
                -1.7426933653219763,
                1.8245877801126196,
                1.322714348143061,
                -0.5911051934821504,
                0.7482753504611422
            ]
        },
        {
            "positions": [
                0.8998860439144294,
                -1.7468680989858418,
                1.6914774298274464,
                1.2076134880103364,
                -0.5935477917240144,
                0.8285884553145167
            ]
        },
        {
            "positions": [
                0.9599343953598228,
                -1.7510428326497074,
                1.5583670795422735,
                1.0925126278776123,
                -0.5959903899658785,
                0.9089015601678913
            ]
        },
        {
            "positions": [
                1.0199827468052163,
                -1.755217566313573,
                1.4252567292571006,
                0.9774117677448877,
                -0.5984329882077425,
                0.9892146650212658
            ]
        },
        {
            "positions": [
                1.0800310982506098,
                -1.7593922999774387,
                1.2921463789719276,
                0.8623109076121631,
                -0.6008755864496066,
                1.0695277698746404
            ]
        },
        {
            "positions": [
                1.1400794496960034,
                -1.7635670336413043,
                1.1590360286867545,
                0.7472100474794388,
                -0.6033181846914706,
                1.1498408747280149
            ]
        },
        {
            "positions": [
                1.200127801141397,
                -1.7677417673051699,
                1.0259256784015813,
                0.6321091873467142,
                -0.6057607829333347,
                1.2301539795813894
            ]
        },
        {
            "positions": [
                1.2601761525867905,
                -1.7719165009690354,
                0.8928153281164084,
                0.5170083272139896,
                -0.6082033811751987,
                1.3104670844347641
            ]
        },
        {
            "positions": [
                1.3202245040321843,
                -1.776091234632901,
                0.7597049778312353,
                0.401907467081265,
                -0.6106459794170627,
                1.3907801892881384
            ]
        },
        {
            "positions": [
                1.3802728554775776,
                -1.7802659682967665,
                0.6265946275460625,
                0.28680660694854065,
                -0.6130885776589268,
                1.4710932941415131
            ]
        },
        {
            "positions": [
                1.4403212069229712,
                -1.784440701960632,
                0.4934842772608894,
                0.1717057468158163,
                -0.6155311759007908,
                1.5514063989948874
            ]
        },
        {
            "positions": [
                1.5003695583683647,
                -1.7886154356244977,
                0.36037392697571624,
                0.056604886683091715,
                -0.6179737741426549,
                1.6317195038482621
            ]
        },
        {
            "positions": [
                1.5604179098137583,
                -1.7927901692883632,
                0.22726357669054353,
                -0.05849597344963264,
                -0.6204163723845189,
                1.7120326087016364
            ]
        },
        {
            "positions": [
                1.6204662612591518,
                -1.7969649029522288,
                0.09415322640537038,
                -0.17359683358235722,
                -0.622858970626383,
                1.7923457135550112
            ]
        },
        {
            "positions": [
                1.6805146127045454,
                -1.8011396366160943,
                -0.038957123879802324,
                -0.2886976937150818,
                -0.625301568868247,
                1.8726588184083854
            ]
        },
        {
            "positions": [
                1.740562964149939,
                -1.80531437027996,
                -0.17206747416497548,
                -0.4037985538478064,
                -0.627744167110111,
                1.9529719232617602
            ]
        },
        {
            "positions": [
                1.8006113155953325,
                -1.8094891039438254,
                -0.3051778244501486,
                -0.5188994139805305,
                -0.630186765351975,
                2.033285028115135
            ]
        },
        {
            "positions": [
                1.860659667040726,
                -1.813663837607691,
                -0.4382881747353218,
                -0.6340002741132551,
                -0.6326293635938391,
                2.113598132968509
            ]
        },
        {
            "positions": [
                1.9207080184861196,
                -1.8178385712715566,
                -0.5713985250204949,
                -0.7491011342459797,
                -0.6350719618357031,
                2.193911237821884
            ]
        },
        {
            "positions": [
                1.9807563699315132,
                -1.8220133049354221,
                -0.7045088753056676,
                -0.8642019943787043,
                -0.6375145600775671,
                2.274224342675258
            ]
        },
        {
            "positions": [
                2.0408047213769067,
                -1.826188038599288,
                -0.8376192255908408,
                -0.9793028545114288,
                -0.6399571583194312,
                2.354537447528633
            ]
        },
        {
            "positions": [
                2.1008530728223005,
                -1.8303627722631535,
                -0.9707295758760139,
                -1.0944037146441534,
                -0.6423997565612952,
                2.4348505523820076
            ]
        },
        {
            "positions": [
                2.160901424267694,
                -1.834537505927019,
                -1.103839926161187,
                -1.209504574776878,
                -0.6448423548031593,
                2.515163657235382
            ]
        },
        {
            "positions": [
                2.2209497757130876,
                -1.8387122395908846,
                -1.2369502764463598,
                -1.3246054349096026,
                -0.6472849530450233,
                2.5954767620887567
            ]
        },
        {
            "positions": [
                2.280998127158481,
                -1.8428869732547501,
                -1.3700606267315325,
                -1.4397062950423267,
                -0.6497275512868874,
                2.675789866942131
            ]
        },
        {
            "positions": [
                2.3410464786038743,
                -1.8470617069186157,
                -1.5031709770167052,
                -1.5548071551750509,
                -0.6521701495287514,
                2.7561029717955052
            ]
        },
        {
            "positions": [
                2.401094830049268,
                -1.8512364405824813,
                -1.6362813273018788,
                -1.6699080153077754,
                -0.6546127477706155,
                2.83641607664888
            ]
        },
        {
            "positions": [
                2.4611431814946614,
                -1.8554111742463468,
                -1.7693916775870515,
                -1.7850088754405,
                -0.6570553460124795,
                2.9167291815022547
            ]
        },
        {
            "positions": [
                2.5211915329400547,
                -1.8595859079102124,
                -1.902502027872225,
                -1.9001097355732246,
                -0.6594979442543436,
                2.997042286355629
            ]
        },
        {
            "positions": [
                2.5812398843854485,
                -1.863760641574078,
                -2.035612378157398,
                -2.0152105957059496,
                -0.6619405424962076,
                3.0773553912090037
            ]
        },
        {
            "positions": [
                2.6498894121009724,
                -1.8859278852026067,
                -2.0237936096219316,
                -2.156958229020487,
                -0.5642926417137725,
                3.068435781854334
            ]
        },
        {
            "positions": [
                2.7185389398164967,
                -1.9080951288311352,
                -2.011974841086465,
                -2.2987058623350243,
                -0.4666447409313373,
                3.0595161724996647
            ]
        },
        {
            "positions": [
                2.7871884675320207,
                -1.930262372459664,
                -2.0001560725509986,
                -2.4404534956495616,
                -0.3689968401489021,
                3.050596563144995
            ]
        },
        {
            "positions": [
                2.74511964292973,
                -2.015599080291771,
                -1.8839880710145214,
                -2.4415325382126016,
                -0.4038647740281498,
                3.0818589579432705
            ]
        },
        {
            "positions": [
                2.7030508183274393,
                -2.1009357881238784,
                -1.7678200694780444,
                -2.442611580775642,
                -0.4387327079073975,
                3.1131213527415458
            ]
        },
        {
            "positions": [
                2.660981993725149,
                -2.1862724959559854,
                -1.6516520679415672,
                -2.443690623338682,
                -0.47360064178664524,
                3.144383747539821
            ]
        }
    ]
}