{
    "goal": {
        "global_pose": {
            "orientation": {
                "w": -0.00223480608172531,
                "x": 0.0024358444001904467,
                "y": 0.7094548369677653,
                "z": -0.704743149386269
            },
            "position": {
                "x": 0.6205249238014221,
                "y": -0.6371506643295288,
                "z": 0.19426114857196808
            }
        },
        "name": "move_to_magneteinheit_B"
    },
    "id": "LazyPRMstar_move_to_magneteinheit_B_91",
    "joint_names": [
        "shoulder_pan_joint",
        "shoulder_lift_joint",
        "elbow_joint",
        "wrist_1_joint",
        "wrist_2_joint",
        "wrist_3_joint"
    ],
    "metrics": {
        "cart_traj_len": 4.172200742758867,
        "distance_elbow_joint": 4.2713513225058435,
        "distance_shoulder_lift_joint": 1.3687308078477374,
        "distance_shoulder_pan_joint": 4.353606782807352,
        "distance_wrist_1_joint": 6.363434420724179,
        "distance_wrist_2_joint": 1.127747174324766,
        "distance_wrist_3_joint": 3.498373934360118,
        "smoothness": 0.635773524039201,
        "time": 5.130345633,
        "traj_len": 4.580747148945247,
        "weighted_distance": 5.955768120598649
    },
    "planner": "LazyPRMstar",
    "start": {
        "state": {
            "elbow_joint": 2.6216224122426386,
            "shoulder_lift_joint": -1.4174107377796124,
            "shoulder_pan_joint": 0.7066234856936794,
            "wrist_1_joint": 1.9546482284002225,
            "wrist_2_joint": -0.7096286983471962,
            "wrist_3_joint": 0.005740856962016249
        }
    },
    "waypoints": [
        {
            "positions": [
                0.7066234856936794,
                -1.4174107377796124,
                2.6216224122426386,
                1.9546482284002225,
                -0.7096286983471962,
                0.005740856962016249
            ]
        },
        {
            "positions": [
                0.5342056189483618,
                -1.4197575232267565,
                2.5914887135159277,
                1.9948081399763604,
                -0.6733742106158813,
                0.08574712681345915
            ]
        },
        {
            "positions": [
                0.36178775220304427,
                -1.422104308673901,
                2.5613550147892172,
                2.0349680515524984,
                -0.6371197228845664,
                0.16575339666490208
            ]
        },
        {
            "positions": [
                0.1893698854577267,
                -1.424451094121045,
                2.5312213160625063,
                2.075127963128636,
                -0.6008652351532515,
                0.245759666516345
            ]
        },
        {
            "positions": [
                0.09115309619695267,
                -1.4414357132888593,
                2.4767890564005155,
                2.0956040652201455,
                -0.575780090370536,
                0.350137114759955
            ]
        },
        {
            "positions": [
                -0.007063693063821382,
                -1.4584203324566736,
                2.4223567967385247,
                2.116080167311655,
                -0.5506949455878205,
                0.454514563003565
            ]
        },
        {
            "positions": [
                0.07388988544251543,
                -1.4812971544216627,
                2.355761952758467,
                2.004859075429838,
                -0.5558600695570433,
                0.5515103699568373
            ]
        },
        {
            "positions": [
                0.15484346394885223,
                -1.5041739763866515,
                2.28916710877841,
                1.8936379835480215,
                -0.561025193526266,
                0.6485061769101097
            ]
        },
        {
            "positions": [
                0.235797042455189,
                -1.5270507983516406,
                2.2225722647983526,
                1.7824168916662047,
                -0.5661903174954889,
                0.7455019838633821
            ]
        },
        {
            "positions": [
                0.31675062096152584,
                -1.5499276203166297,
                2.155977420818295,
                1.671195799784388,
                -0.5713554414647116,
                0.8424977908166544
            ]
        },
        {
            "positions": [
                0.3977041994678626,
                -1.5728044422816185,
                2.0893825768382372,
                1.5599747079025712,
                -0.5765205654339344,
                0.9394935977699267
            ]
        },
        {
            "positions": [
                0.4786577779741994,
                -1.5956812642466076,
                2.02278773285818,
                1.4487536160207544,
                -0.5816856894031571,
                1.036489404723199
            ]
        },
        {
            "positions": [
                0.5596113564805362,
                -1.6185580862115967,
                1.9561928888781226,
                1.3375325241389378,
                -0.5868508133723799,
                1.1334852116764713
            ]
        },
        {
            "positions": [
                0.6405649349868731,
                -1.6414349081765855,
                1.8895980448980652,
                1.226311432257121,
                -0.5920159373416027,
                1.2304810186297437
            ]
        },
        {
            "positions": [
                0.7215185134932098,
                -1.6643117301415746,
                1.8230032009180077,
                1.115090340375304,
                -0.5971810613108255,
                1.327476825583016
            ]
        },
        {
            "positions": [
                0.8024720919995466,
                -1.6871885521065635,
                1.7564083569379503,
                1.0038692484934875,
                -0.6023461852800482,
                1.4244726325362884
            ]
        },
        {
            "positions": [
                0.8834256705058835,
                -1.7100653740715526,
                1.6898135129578926,
                0.8926481566116706,
                -0.607511309249271,
                1.5214684394895608
            ]
        },
        {
            "positions": [
                0.9643792490122202,
                -1.7329421960365416,
                1.6232186689778354,
                0.781427064729854,
                -0.6126764332184937,
                1.618464246442833
            ]
        },
        {
            "positions": [
                1.045332827518557,
                -1.7558190180015307,
                1.556623824997778,
                0.6702059728480372,
                -0.6178415571877166,
                1.7154600533961053
            ]
        },
        {
            "positions": [
                1.1262864060248936,
                -1.7786958399665196,
                1.4900289810177205,
                0.5589848809662206,
                -0.6230066811569394,
                1.8124558603493777
            ]
        },
        {
            "positions": [
                1.2072399845312305,
                -1.8015726619315087,
                1.423434137037663,
                0.44776378908440373,
                -0.6281718051261621,
                1.90945166730265
            ]
        },
        {
            "positions": [
                1.2881935630375674,
                -1.8244494838964975,
                1.3568392930576056,
                0.3365426972025869,
                -0.6333369290953849,
                2.0064474742559226
            ]
        },
        {
            "positions": [
                1.369147141543904,
                -1.8473263058614866,
                1.2902444490775482,
                0.22532160532077028,
                -0.6385020530646076,
                2.1034432812091945
            ]
        },
        {
            "positions": [
                1.450100720050241,
                -1.8702031278264757,
                1.2236496050974908,
                0.11410051343895322,
                -0.6436671770338305,
                2.200439088162467
            ]
        },
        {
            "positions": [
                1.5310542985565776,
                -1.8930799497914645,
                1.1570547611174333,
                0.00287942155713683,
                -0.6488323010030532,
                2.2974348951157393
            ]
        },
        {
            "positions": [
                1.6120078770629145,
                -1.9159567717564536,
                1.090459917137376,
                -0.10834167032468003,
                -0.653997424972276,
                2.3944307020690117
            ]
        },
        {
            "positions": [
                1.6787451153684556,
                -1.9029158458838165,
                0.9751040704321526,
                -0.24595848400530745,
                -0.6313379285561003,
                2.434878702571262
            ]
        },
        {
            "positions": [
                1.7454823536739965,
                -1.8898749200111793,
                0.8597482237269294,
                -0.3835752976859349,
                -0.6086784321399246,
                2.475326703073512
            ]
        },
        {
            "positions": [
                1.8122195919795376,
                -1.8768339941385421,
                0.744392377021706,
                -0.5211921113665623,
                -0.5860189357237489,
                2.515774703575763
            ]
        },
        {
            "positions": [
                1.8789568302850788,
                -1.863793068265905,
                0.6290365303164828,
                -0.6588089250471897,
                -0.5633594393075732,
                2.556222704078013
            ]
        },
        {
            "positions": [
                1.9456940685906199,
                -1.8507521423932678,
                0.5136806836112595,
                -0.7964257387278172,
                -0.5406999428913974,
                2.5966707045802635
            ]
        },
        {
            "positions": [
                2.012431306896161,
                -1.8377112165206306,
                0.39832483690603615,
                -0.9340425524084446,
                -0.5180404464752217,
                2.637118705082514
            ]
        },
        {
            "positions": [
                2.0791685452017017,
                -1.8246702906479935,
                0.2829689902008128,
                -1.071659366089072,
                -0.49538095005904603,
                2.6775667055847645
            ]
        },
        {
            "positions": [
                2.145905783507243,
                -1.8116293647753563,
                0.16761314349558964,
                -1.2092761797696994,
                -0.4727214536428703,
                2.718014706087015
            ]
        },
        {
            "positions": [
                2.212643021812784,
                -1.7985884389027191,
                0.05225729679036628,
                -1.346892993450327,
                -0.4500619572266946,
                2.758462706589265
            ]
        },
        {
            "positions": [
                2.279380260118325,
                -1.785547513030082,
                -0.06309854991485686,
                -1.4845098071309544,
                -0.4274024608105189,
                2.7989107070915153
            ]
        },
        {
            "positions": [
                2.346117498423866,
                -1.7725065871574448,
                -0.17845439662008022,
                -1.6221266208115819,
                -0.4047429643943432,
                2.8393587075937656
            ]
        },
        {
            "positions": [
                2.412854736729407,
                -1.7594656612848074,
                -0.2938102433253036,
                -1.7597434344922092,
                -0.3820834679781675,
                2.8798067080960164
            ]
        },
        {
            "positions": [
                2.479591975034948,
                -1.7464247354121705,
                -0.40916609003052673,
                -1.8973602481728364,
                -0.3594239715619918,
                2.9202547085982666
            ]
        },
        {
            "positions": [
                2.5463292133404893,
                -1.733383809539533,
                -0.5245219367357503,
                -2.034977061853464,
                -0.3367644751458161,
                2.960702709100517
            ]
        },
        {
            "positions": [
                2.6130664516460307,
                -1.720342883666896,
                -0.6398777834409735,
                -2.1725938755340914,
                -0.3141049787296404,
                3.001150709602767
            ]
        },
        {
            "positions": [
                2.679803689951571,
                -1.7073019577942588,
                -0.7552336301461966,
                -2.3102106892147187,
                -0.2914454823134647,
                3.041598710105018
            ]
        },
        {
            "positions": [
                2.7465409282571125,
                -1.6942610319216216,
                -0.87058947685142,
                -2.4478275028953465,
                -0.26878598589728897,
                3.082046710607268
            ]
        },
        {
            "positions": [
                2.813278166562654,
                -1.6812201060489844,
                -0.9859453235566433,
                -2.585444316575974,
                -0.24612648948111326,
                3.1224947111095185
            ]
        },
        {
            "positions": [
                2.8800154048681943,
                -1.6681791801763473,
                -1.1013011702618667,
                -2.7230611302566015,
                -0.22346699306493756,
                3.1629427116117688
            ]
        },
        {
            "positions": [
                2.9467526431737356,
                -1.65513825430371,
                -1.2166570169670896,
                -2.8606779439372287,
                -0.20080749664876185,
                3.203390712114019
            ]
        },
        {
            "positions": [
                3.0134898814792765,
                -1.642097328431073,
                -1.332012863672313,
                -2.998294757617856,
                -0.17814800023258615,
                3.2438387126162693
            ]
        },
        {
            "positions": [
                3.080227119784818,
                -1.6290564025584358,
                -1.4473687103775363,
                -3.1359115712984837,
                -0.15548850381641044,
                3.28428671311852
            ]
        },
        {
            "positions": [
                3.146964358090359,
                -1.6160154766857986,
                -1.56272455708276,
                -3.273528384979111,
                -0.13282900740023473,
                3.3247347136207703
            ]
        },
        {
            "positions": [
                3.077551279105263,
                -1.6974788308001187,
                -1.5751537503942517,
                -3.157472109333114,
                -0.1820207966300767,
                3.299108988234861
            ]
        },
        {
            "positions": [
                3.008138200120167,
                -1.778942184914439,
                -1.5875829437057434,
                -3.041415833687117,
                -0.2312125858599187,
                3.273483262848952
            ]
        },
        {
            "positions": [
                2.938725121135071,
                -1.860405539028759,
                -1.600012137017235,
                -2.92535955804112,
                -0.2804043750897607,
                3.2478575374630427
            ]
        },
        {
            "positions": [
                2.8693120421499754,
                -1.9418688931430792,
                -1.6124413303287268,
                -2.8093032823951223,
                -0.32959616431960265,
                3.222231812077134
            ]
        },
        {
            "positions": [
                2.799898963164879,
                -2.0233322472573994,
                -1.6248705236402186,
                -2.693247006749125,
                -0.3787879535494446,
                3.1966060866912245
            ]
        },
        {
            "positions": [
                2.7304858841797834,
                -2.1047956013717197,
                -1.6372997169517103,
                -2.577190731103128,
                -0.4279797427792866,
                3.1709803613053156
            ]
        },
        {
            "positions": [
                2.6610728051946877,
                -2.1862589554860397,
                -1.649728910263202,
                -2.461134455457131,
                -0.4771715320091286,
                3.1453546359194062
            ]
        }
    ]
}