{
    "goal": {
        "global_pose": {
            "orientation": {
                "w": 0.7047431468963623,
                "x": -0.7094548344612122,
                "y": 0.0024358443915843964,
                "z": -0.0022348060738295317
            },
            "position": {
                "x": 0.6094750761985779,
                "y": 0.3671506643295288,
                "z": 0.19426114857196808
            }
        },
        "name": "move_to_magneteinheit_A"
    },
    "id": "LazyPRM_move_to_magneteinheit_A_97",
    "joint_names": [
        "shoulder_pan_joint",
        "shoulder_lift_joint",
        "elbow_joint",
        "wrist_1_joint",
        "wrist_2_joint",
        "wrist_3_joint"
    ],
    "metrics": {
        "cart_traj_len": 3.0837251172553692,
        "distance_elbow_joint": 3.9122357811301516,
        "distance_shoulder_lift_joint": 0.4680778154742399,
        "distance_shoulder_pan_joint": 3.019883938957298,
        "distance_wrist_1_joint": 3.510758483678784,
        "distance_wrist_2_joint": 1.491579845701412,
        "distance_wrist_3_joint": 0.8785621564444316,
        "smoothness": 0.33145868326063893,
        "time": 0.167263259,
        "traj_len": 3.6443240829248866,
        "weighted_distance": 4.476668478193956
    },
    "planner": "LazyPRM",
    "start": {
        "state": {
            "elbow_joint": -1.9196185241190666,
            "shoulder_lift_joint": -1.2443396400964142,
            "shoulder_pan_joint": 2.6996025414629847,
            "wrist_1_joint": -1.5485510000780065,
            "wrist_2_joint": -1.5709468930060704,
            "wrist_3_joint": 0.4420197071253992
        }
    },
    "waypoints": [
        {
            "positions": [
                2.6996025414629847,
                -1.2443396400964142,
                -1.9196185241190666,
                -1.5485510000780065,
                -1.5709468930060704,
                0.4420197071253992
            ]
        },
        {
            "positions": [
                2.602182912438976,
                -1.2396599775379338,
                -1.7930458272838588,
                -1.427261237669949,
                -1.5363216486007765,
                0.4353566048661237
            ]
        },
        {
            "positions": [
                2.5047632834149676,
                -1.2349803149794536,
                -1.6664731304486509,
                -1.3059714752618912,
                -1.5016964041954826,
                0.4286935026068482
            ]
        },
        {
            "positions": [
                2.4073436543909588,
                -1.2303006524209732,
                -1.5399004336134428,
                -1.1846817128538336,
                -1.4670711597901887,
                0.4220304003475727
            ]
        },
        {
            "positions": [
                2.30992402536695,
                -1.225620989862493,
                -1.4133277367782349,
                -1.0633919504457758,
                -1.4324459153848947,
                0.41536729808829725
            ]
        },
        {
            "positions": [
                2.212504396342941,
                -1.2209413273040126,
                -1.286755039943027,
                -0.9421021880377183,
                -1.3978206709796006,
                0.40870419582902173
            ]
        },
        {
            "positions": [
                2.115084767318933,
                -1.2162616647455324,
                -1.1601823431078189,
                -0.8208124256296606,
                -1.3631954265743067,
                0.40204109356974627
            ]
        },
        {
            "positions": [
                2.017665138294924,
                -1.211582002187052,
                -1.033609646272611,
                -0.699522663221603,
                -1.3285701821690128,
                0.3953779913104708
            ]
        },
        {
            "positions": [
                1.9202455092709152,
                -1.2069023396285719,
                -0.9070369494374031,
                -0.5782329008135453,
                -1.2939449377637189,
                0.38871488905119533
            ]
        },
        {
            "positions": [
                1.8228258802469066,
                -1.2022226770700914,
                -0.780464252602195,
                -0.4569431384054876,
                -1.259319693358425,
                0.3820517867919198
            ]
        },
        {
            "positions": [
                1.725406251222898,
                -1.197543014511611,
                -0.6538915557669871,
                -0.33565337599743006,
                -1.224694448953131,
                0.37538868453264435
            ]
        },
        {
            "positions": [
                1.6279866221988892,
                -1.1928633519531309,
                -0.5273188589317792,
                -0.21436361358937228,
                -1.1900692045478372,
                0.3687255822733689
            ]
        },
        {
            "positions": [
                1.5305669931748807,
                -1.1881836893946505,
                -0.4007461620965711,
                -0.09307385118131473,
                -1.1554439601425432,
                0.36206248001409336
            ]
        },
        {
            "positions": [
                1.4331473641508718,
                -1.1835040268361703,
                -0.2741734652613632,
                0.02821591122674283,
                -1.1208187157372493,
                0.3553993777548179
            ]
        },
        {
            "positions": [
                1.3357277351268633,
                -1.1788243642776899,
                -0.14760076842615533,
                0.1495056736348006,
                -1.0861934713319554,
                0.3487362754955424
            ]
        },
        {
            "positions": [
                1.2383081061028542,
                -1.1741447017192097,
                -0.021028071590947217,
                0.2707954360428584,
                -1.0515682269266613,
                0.34207317323626696
            ]
        },
        {
            "positions": [
                1.1408884770788459,
                -1.1694650391607293,
                0.10554462524426045,
                0.39208519845091594,
                -1.0169429825213676,
                0.33541007097699144
            ]
        },
        {
            "positions": [
                1.043468848054837,
                -1.1647853766022491,
                0.23211732207946856,
                0.5133749608589737,
                -0.9823177381160735,
                0.32874696871771597
            ]
        },
        {
            "positions": [
                0.9460492190308285,
                -1.1601057140437687,
                0.35869001891467667,
                0.6346647232670313,
                -0.9476924937107796,
                0.3220838664584405
            ]
        },
        {
            "positions": [
                0.8486295900068197,
                -1.1554260514852883,
                0.4852627157498848,
                0.7559544856750888,
                -0.9130672493054857,
                0.315420764199165
            ]
        },
        {
            "positions": [
                0.7512099609828111,
                -1.1507463889268081,
                0.6118354125850924,
                0.8772442480831464,
                -0.8784420049001918,
                0.3087576619398895
            ]
        },
        {
            "positions": [
                0.6537903319588021,
                -1.1460667263683277,
                0.7384081094203006,
                0.9985340104912044,
                -0.8438167604948977,
                0.30209455968061405
            ]
        },
        {
            "positions": [
                0.5563707029347937,
                -1.1413870638098476,
                0.8649808062555082,
                1.119823772899262,
                -0.8091915160896038,
                0.2954314574213386
            ]
        },
        {
            "positions": [
                0.45895107391078493,
                -1.1367074012513672,
                0.9915535030907163,
                1.2411135353073195,
                -0.7745662716843099,
                0.28876835516206306
            ]
        },
        {
            "positions": [
                0.3615314448867766,
                -1.132027738692887,
                1.1181261999259244,
                1.362403297715377,
                -0.739941027279016,
                0.2821052529027876
            ]
        },
        {
            "positions": [
                0.26411181586276733,
                -1.1273480761344066,
                1.2446988967611325,
                1.483693060123435,
                -0.705315782873722,
                0.2754421506435121
            ]
        },
        {
            "positions": [
                0.16669218683875897,
                -1.1226684135759264,
                1.3712715935963402,
                1.6049828225314922,
                -0.6706905384684282,
                0.2687790483842366
            ]
        },
        {
            "positions": [
                0.06927255781475034,
                -1.117988751017446,
                1.4978442904315485,
                1.7262725849395504,
                -0.6360652940631342,
                0.26211594612496114
            ]
        },
        {
            "positions": [
                0.027362535457444485,
                -1.1168561316276038,
                1.567570906725058,
                1.71937515898346,
                -0.5044566691885313,
                0.14347842602705174
            ]
        },
        {
            "positions": [
                -0.014547486899861364,
                -1.1157235122377618,
                1.6372975230185678,
                1.7124777330273697,
                -0.3728480443139283,
                0.024840905929142343
            ]
        },
        {
            "positions": [
                -0.05645750925716722,
                -1.1145908928479198,
                1.7070241393120775,
                1.7055803070712792,
                -0.24123941943932536,
                -0.09379661416876706
            ]
        },
        {
            "positions": [
                -0.09836753161447306,
                -1.1134582734580776,
                1.776750755605587,
                1.6986828811151888,
                -0.10963079456472247,
                -0.21243413426667646
            ]
        },
        {
            "positions": [
                -0.04288906514451295,
                -1.0291591612491018,
                1.8307173809569615,
                1.7507691798244054,
                -0.11719673137973849,
                -0.15640705550358747
            ]
        },
        {
            "positions": [
                0.01258940132544717,
                -0.944860049040126,
                1.884684006308336,
                1.802855478533622,
                -0.12476266819475451,
                -0.1003799767404985
            ]
        },
        {
            "positions": [
                0.06806786779540727,
                -0.8605609368311501,
                1.9386506316597107,
                1.8549417772428385,
                -0.13232860500977053,
                -0.044352897977409544
            ]
        },
        {
            "positions": [
                0.12354633426536739,
                -0.7762618246221743,
                1.9926172570110852,
                1.907028075952055,
                -0.13989454182478656,
                0.011674180785679458
            ]
        }
    ]
}