{
    "goal": {
        "global_pose": {
            "orientation": {
                "w": 0.7031023502349854,
                "x": -0.7110244035720825,
                "y": 0.007748599164187908,
                "z": 0.005598929710686207
            },
            "position": {
                "x": 0.11585023208521307,
                "y": 0.44412534475326537,
                "z": 0.3711530566215515
            }
        },
        "name": "move_to_auspresseinheit_A"
    },
    "id": "LazyPRMstar_move_to_auspresseinheit_A_91",
    "joint_names": [
        "shoulder_pan_joint",
        "shoulder_lift_joint",
        "elbow_joint",
        "wrist_1_joint",
        "wrist_2_joint",
        "wrist_3_joint"
    ],
    "metrics": {
        "cart_traj_len": 0.6783631681448602,
        "distance_elbow_joint": 0.34089677933077844,
        "distance_shoulder_lift_joint": 0.5360149529290861,
        "distance_shoulder_pan_joint": 1.2835079344122606,
        "distance_wrist_1_joint": 0.5490990686409466,
        "distance_wrist_2_joint": 1.192538221930897,
        "distance_wrist_3_joint": 0.16983340330140306,
        "smoothness": 0.9571846047959313,
        "time": 5.007086444,
        "traj_len": 2.0178925542618398,
        "weighted_distance": 2.480563334752818
    },
    "planner": "LazyPRMstar",
    "start": {
        "state": {
            "elbow_joint": 2.4225746658250005,
            "shoulder_lift_joint": -1.3736534386056498,
            "shoulder_pan_joint": -0.3378633547517467,
            "wrist_1_joint": -1.0288598680537169,
            "wrist_2_joint": 1.233022673432363,
            "wrist_3_joint": -3.0940220416140027
        }
    },
    "waypoints": [
        {
            "positions": [
                -0.3378633547517467,
                -1.3736534386056498,
                2.4225746658250005,
                -1.0288598680537169,
                1.233022673432363,
                -3.0940220416140027
            ]
        },
        {
            "positions": [
                -0.36189816013137016,
                -1.4633534070609633,
                2.453940849910192,
                -1.0053952676511508,
                1.0611635241234632,
                -3.0798371920918446
            ]
        },
        {
            "positions": [
                -0.38593296551099365,
                -1.5530533755162768,
                2.4853070339953836,
                -0.9819306672485846,
                0.8893043748145633,
                -3.0656523425696864
            ]
        },
        {
            "positions": [
                -0.4099677708906171,
                -1.6427533439715902,
                2.516673218080575,
                -0.9584660668460185,
                0.7174452255056635,
                -3.0514674930475287
            ]
        },
        {
            "positions": [
                -0.4340025762702405,
                -1.7324533124269037,
                2.5480394021657666,
                -0.9350014664434524,
                0.5455860761967636,
                -3.0372826435253706
            ]
        },
        {
            "positions": [
                -0.45803738164986396,
                -1.8221532808822172,
                2.579405586250958,
                -0.9115368660408862,
                0.37372692688786374,
                -3.0230977940032124
            ]
        },
        {
            "positions": [
                -0.2641483970641735,
                -1.836739132657637,
                2.5487279431001544,
                -0.8395741882695336,
                0.42926733945226336,
                -3.039582653284981
            ]
        },
        {
            "positions": [
                -0.07025941247848294,
                -1.8513249844330568,
                2.518050299949351,
                -0.7676115104981809,
                0.48480775201666293,
                -3.05606751256675
            ]
        },
        {
            "positions": [
                0.1236295721072076,
                -1.8659108362084766,
                2.4873726567985477,
                -0.6956488327268282,
                0.5403481645810625,
                -3.072552371848519
            ]
        },
        {
            "positions": [
                0.3175185566928981,
                -1.8804966879838962,
                2.456695013647744,
                -0.6236861549554756,
                0.5958885771454621,
                -3.0890372311302876
            ]
        },
        {
            "positions": [
                0.5114075412785887,
                -1.895082539759316,
                2.4260173704969406,
                -0.5517234771841228,
                0.6514289897098617,
                -3.105522090412056
            ]
        },
        {
            "positions": [
                0.7052965258642793,
                -1.9096683915347359,
                2.395339727346137,
                -0.4797607994127703,
                0.7069694022742613,
                -3.122006949693825
            ]
        }
    ]
}