{
    "goal": {
        "global_pose": {
            "orientation": {
                "w": 0.7047431468963623,
                "x": -0.7094548344612122,
                "y": 0.0024358443915843964,
                "z": -0.0022348060738295317
            },
            "position": {
                "x": 0.6094750761985779,
                "y": 0.3671506643295288,
                "z": 0.19426114857196808
            }
        },
        "name": "move_to_magneteinheit_A"
    },
    "id": "LazyPRMstar_move_to_magneteinheit_A_37",
    "joint_names": [
        "shoulder_pan_joint",
        "shoulder_lift_joint",
        "elbow_joint",
        "wrist_1_joint",
        "wrist_2_joint",
        "wrist_3_joint"
    ],
    "metrics": {
        "cart_traj_len": 3.4403556676547313,
        "distance_elbow_joint": 4.168044758204989,
        "distance_shoulder_lift_joint": 0.46283353430869056,
        "distance_shoulder_pan_joint": 3.0629150479703715,
        "distance_wrist_1_joint": 3.8218219949290484,
        "distance_wrist_2_joint": 1.7339845324832153,
        "distance_wrist_3_joint": 0.49008889857235993,
        "smoothness": 0.4032931387298169,
        "time": 5.04596271,
        "traj_len": 3.7067086163426275,
        "weighted_distance": 4.502851662116536
    },
    "planner": "LazyPRMstar",
    "start": {
        "state": {
            "elbow_joint": -1.9196185241190666,
            "shoulder_lift_joint": -1.2443396400964142,
            "shoulder_pan_joint": 2.6996025414629847,
            "wrist_1_joint": -1.5485510000780065,
            "wrist_2_joint": -1.5709468930060704,
            "wrist_3_joint": 0.4420197071253992
        }
    },
    "waypoints": [
        {
            "positions": [
                2.6996025414629847,
                -1.2443396400964142,
                -1.9196185241190666,
                -1.5485510000780065,
                -1.5709468930060704,
                0.4420197071253992
            ]
        },
        {
            "positions": [
                2.577444591434926,
                -1.2275793901590142,
                -1.828405886554688,
                -1.4502612012338196,
                -1.5249693179910062,
                0.4360349153460006
            ]
        },
        {
            "positions": [
                2.4552866414068673,
                -1.2108191402216142,
                -1.7371932489903092,
                -1.3519714023896328,
                -1.4789917429759423,
                0.43005012356660194
            ]
        },
        {
            "positions": [
                2.3331286913788087,
                -1.1940588902842142,
                -1.6459806114259306,
                -1.2536816035454459,
                -1.433014167960878,
                0.42406533178720335
            ]
        },
        {
            "positions": [
                2.2109707413507502,
                -1.1772986403468142,
                -1.5547679738615519,
                -1.1553918047012588,
                -1.387036592945814,
                0.41808054000780476
            ]
        },
        {
            "positions": [
                2.0888127913226917,
                -1.160538390409414,
                -1.4635553362971732,
                -1.0571020058570721,
                -1.3410590179307498,
                0.41209574822840617
            ]
        },
        {
            "positions": [
                1.9666548412946327,
                -1.143778140472014,
                -1.3723426987327945,
                -0.9588122070128852,
                -1.2950814429156856,
                0.4061109564490075
            ]
        },
        {
            "positions": [
                1.8444968912665742,
                -1.127017890534614,
                -1.2811300611684155,
                -0.8605224081686982,
                -1.2491038679006217,
                0.40012616466960893
            ]
        },
        {
            "positions": [
                1.7223389412385157,
                -1.110257640597214,
                -1.189917423604037,
                -0.7622326093245113,
                -1.2031262928855575,
                0.39414137289021034
            ]
        },
        {
            "positions": [
                1.6001809912104568,
                -1.093497390659814,
                -1.0987047860396582,
                -0.6639428104803243,
                -1.1571487178704933,
                0.38815658111081175
            ]
        },
        {
            "positions": [
                1.4780230411823982,
                -1.076737140722414,
                -1.0074921484752795,
                -0.5656530116361376,
                -1.1111711428554294,
                0.3821717893314131
            ]
        },
        {
            "positions": [
                1.3558650911543395,
                -1.059976890785014,
                -0.9162795109109008,
                -0.4673632127919505,
                -1.0651935678403652,
                0.3761869975520145
            ]
        },
        {
            "positions": [
                1.233707141126281,
                -1.043216640847614,
                -0.8250668733465221,
                -0.36907341394776383,
                -1.019215992825301,
                0.3702022057726159
            ]
        },
        {
            "positions": [
                1.1115491910982225,
                -1.026456390910214,
                -0.7338542357821434,
                -0.27078361510357696,
                -0.973238417810237,
                0.36421741399321733
            ]
        },
        {
            "positions": [
                0.9893912410701635,
                -1.0096961409728138,
                -0.6426415982177645,
                -0.17249381625938986,
                -0.9272608427951728,
                0.3582326222138187
            ]
        },
        {
            "positions": [
                0.867233291042105,
                -0.9929358910354138,
                -0.551428960653386,
                -0.074204017415203,
                -0.8812832677801088,
                0.3522478304344201
            ]
        },
        {
            "positions": [
                0.7450753410140465,
                -0.9761756410980138,
                -0.4602163230890073,
                0.024085781428983877,
                -0.8353056927650447,
                0.3462630386550215
            ]
        },
        {
            "positions": [
                0.6229173909859878,
                -0.9594153911606138,
                -0.3690036855246286,
                0.12237558027317075,
                -0.7893281177499806,
                0.3402782468756229
            ]
        },
        {
            "positions": [
                0.5007594409579288,
                -0.9426551412232138,
                -0.27779104796024967,
                0.22066537911735784,
                -0.7433505427349164,
                0.33429345509622427
            ]
        },
        {
            "positions": [
                0.3786014909298703,
                -0.9258948912858138,
                -0.18657841039587097,
                0.3189551779615447,
                -0.6973729677198524,
                0.3283086633168257
            ]
        },
        {
            "positions": [
                0.25644354090181176,
                -0.9091346413484138,
                -0.09536577283149228,
                0.41724497680573136,
                -0.6513953927047883,
                0.3223238715374271
            ]
        },
        {
            "positions": [
                0.13428559087375325,
                -0.8923743914110138,
                -0.0041531352671138055,
                0.5155347756499185,
                -0.6054178176897241,
                0.31633907975802844
            ]
        },
        {
            "positions": [
                0.012127640845694287,
                -0.8756141414736137,
                0.08705950229726511,
                0.6138245744941055,
                -0.5594402426746601,
                0.31035428797862985
            ]
        },
        {
            "positions": [
                -0.11003030918236441,
                -0.8588538915362137,
                0.17827213986164386,
                0.7121143733382922,
                -0.5134626676595959,
                0.30436949619923126
            ]
        },
        {
            "positions": [
                -0.11095029724075513,
                -0.8549561537580853,
                0.35547141961846074,
                0.8399910443953306,
                -0.46566615398755146,
                0.2844131987063536
            ]
        },
        {
            "positions": [
                -0.11187028529914585,
                -0.851058415979957,
                0.5326706993752776,
                0.9678677154523689,
                -0.417869640315507,
                0.26445690121347604
            ]
        },
        {
            "positions": [
                -0.11279027335753657,
                -0.8471606782018286,
                0.7098699791320944,
                1.0957443865094074,
                -0.3700731266434626,
                0.2445006037205984
            ]
        },
        {
            "positions": [
                -0.11371026141592729,
                -0.8432629404237003,
                0.8870692588889113,
                1.2236210575664457,
                -0.32227661297141813,
                0.22454430622772079
            ]
        },
        {
            "positions": [
                -0.114630249474318,
                -0.8393652026455719,
                1.064268538645728,
                1.351497728623484,
                -0.27448009929937367,
                0.20458800873484317
            ]
        },
        {
            "positions": [
                -0.11555023753270874,
                -0.8354674648674436,
                1.2414678184025447,
                1.4793743996805224,
                -0.22668358562732926,
                0.18463171124196553
            ]
        },
        {
            "positions": [
                -0.11647022559109946,
                -0.8315697270893152,
                1.4186670981593617,
                1.607251070737561,
                -0.1788870719552848,
                0.16467541374908792
            ]
        },
        {
            "positions": [
                -0.11739021364949018,
                -0.8276719893111869,
                1.5958663779161786,
                1.7351277417945992,
                -0.13109055828324034,
                0.1447191162562103
            ]
        },
        {
            "positions": [
                -0.1183102017078809,
                -0.8237742515330585,
                1.7730656576729953,
                1.8630044128516376,
                -0.08329404461119588,
                0.12476281876333267
            ]
        },
        {
            "positions": [
                -0.11923018976627162,
                -0.8198765137549302,
                1.950264937429812,
                1.990881083908676,
                -0.03549753093915148,
                0.10480652127045509
            ]
        },
        {
            "positions": [
                -0.12015017782466234,
                -0.8159787759768018,
                2.127464217186629,
                2.1187577549657144,
                0.012298982732892927,
                0.08485022377757745
            ]
        },
        {
            "positions": [
                -0.03909606826375428,
                -0.8044878859137757,
                2.087143544886864,
                2.067253341670605,
                -0.0379472361818579,
                0.04054375203606472
            ]
        },
        {
            "positions": [
                0.041958041297153775,
                -0.7929969958507497,
                2.046822872587099,
                2.015748928375496,
                -0.08819345509660872,
                -0.0037627197054480033
            ]
        },
        {
            "positions": [
                0.12301215085806187,
                -0.7815061057877236,
                2.006502200287334,
                1.9642445150803864,
                -0.13843967401135956,
                -0.04806919144696073
            ]
        }
    ]
}