{
    "goal": {
        "global_pose": {
            "orientation": {
                "w": -0.00223480608172531,
                "x": 0.0024358444001904467,
                "y": 0.7094548369677653,
                "z": -0.704743149386269
            },
            "position": {
                "x": 0.6205249238014221,
                "y": -0.6371506643295288,
                "z": 0.19426114857196808
            }
        },
        "name": "move_to_magneteinheit_B"
    },
    "id": "LazyPRM_move_to_magneteinheit_B_13",
    "joint_names": [
        "shoulder_pan_joint",
        "shoulder_lift_joint",
        "elbow_joint",
        "wrist_1_joint",
        "wrist_2_joint",
        "wrist_3_joint"
    ],
    "metrics": {
        "cart_traj_len": 3.4357141151878032,
        "distance_elbow_joint": 4.664453925181402,
        "distance_shoulder_lift_joint": 1.0654488703824514,
        "distance_shoulder_pan_joint": 2.6241556217040602,
        "distance_wrist_1_joint": 0.9626802171733928,
        "distance_wrist_2_joint": 1.614415484257426,
        "distance_wrist_3_joint": 1.1553860903131068,
        "smoothness": 0.7041944482622791,
        "time": 0.295453947,
        "traj_len": 3.476570178928054,
        "weighted_distance": 4.120000981925718
    },
    "planner": "LazyPRM",
    "start": {
        "state": {
            "elbow_joint": 2.6216224122426386,
            "shoulder_lift_joint": -1.4174107377796124,
            "shoulder_pan_joint": 0.7066234856936794,
            "wrist_1_joint": 1.9546482284002225,
            "wrist_2_joint": -0.7096286983471962,
            "wrist_3_joint": 0.005740856962016249
        }
    },
    "waypoints": [
        {
            "positions": [
                0.7066234856936794,
                -1.4174107377796124,
                2.6216224122426386,
                1.9546482284002225,
                -0.7096286983471962,
                0.005740856962016249
            ]
        },
        {
            "positions": [
                0.5749556396277956,
                -1.4932586657492415,
                2.6321701642236097,
                1.9628692378609343,
                -0.8541550471937142,
                -0.01036021112696211
            ]
        },
        {
            "positions": [
                0.5800131833035985,
                -1.521101647918273,
                2.518813030714657,
                1.9000267016249022,
                -0.8589622024732316,
                -0.12437492845636111
            ]
        },
        {
            "positions": [
                0.5850707269794014,
                -1.5489446300873047,
                2.405455897205704,
                1.8371841653888699,
                -0.8637693577527492,
                -0.2383896457857601
            ]
        },
        {
            "positions": [
                0.5901282706552042,
                -1.5767876122563362,
                2.2920987636967505,
                1.7743416291528378,
                -0.8685765130322667,
                -0.35240436311515905
            ]
        },
        {
            "positions": [
                0.5951858143310071,
                -1.6046305944253678,
                2.1787416301877975,
                1.7114990929168055,
                -0.8733836683117843,
                -0.4664190804445581
            ]
        },
        {
            "positions": [
                0.6002433580068101,
                -1.6324735765943994,
                2.0653844966788446,
                1.6486565566807734,
                -0.8781908235913017,
                -0.580433797773957
            ]
        },
        {
            "positions": [
                0.6960818373908643,
                -1.6553615739207124,
                1.893382070245612,
                1.6289841301282901,
                -0.8177040608410363,
                -0.5684391282776659
            ]
        },
        {
            "positions": [
                0.7919203167749185,
                -1.6782495712470253,
                1.7213796438123794,
                1.6093117035758069,
                -0.757217298090771,
                -0.5564444587813747
            ]
        },
        {
            "positions": [
                0.8877587961589726,
                -1.7011375685733383,
                1.549377217379147,
                1.5896392770233236,
                -0.6967305353405056,
                -0.5444497892850836
            ]
        },
        {
            "positions": [
                0.9835972755430269,
                -1.7240255658996513,
                1.3773747909459142,
                1.5699668504708404,
                -0.6362437725902401,
                -0.5324551197887925
            ]
        },
        {
            "positions": [
                1.079435754927081,
                -1.7469135632259642,
                1.2053723645126817,
                1.5502944239183571,
                -0.5757570098399747,
                -0.5204604502925013
            ]
        },
        {
            "positions": [
                1.1752742343111353,
                -1.769801560552277,
                1.0333699380794492,
                1.530621997365874,
                -0.5152702470897094,
                -0.5084657807962102
            ]
        },
        {
            "positions": [
                1.2711127136951894,
                -1.79268955787859,
                0.8613675116462165,
                1.5109495708133904,
                -0.45478348433944393,
                -0.49647111129991905
            ]
        },
        {
            "positions": [
                1.3669511930792435,
                -1.815577555204903,
                0.6893650852129838,
                1.4912771442609072,
                -0.3942967215891785,
                -0.48447644180362787
            ]
        },
        {
            "positions": [
                1.4627896724632978,
                -1.838465552531216,
                0.5173626587797511,
                1.471604717708424,
                -0.33380995883891307,
                -0.47248177230733673
            ]
        },
        {
            "positions": [
                1.5586281518473522,
                -1.8613535498575289,
                0.3453602323465188,
                1.4519322911559407,
                -0.27332319608864775,
                -0.4604871028110456
            ]
        },
        {
            "positions": [
                1.6544666312314062,
                -1.8842415471838418,
                0.1733578059132861,
                1.4322598646034574,
                -0.2128364333383823,
                -0.44849243331475447
            ]
        },
        {
            "positions": [
                1.7503051106154603,
                -1.9071295445101548,
                0.00135537948005382,
                1.4125874380509742,
                -0.152349670588117,
                -0.43649776381846334
            ]
        },
        {
            "positions": [
                1.8461435899995147,
                -1.9300175418364678,
                -0.17064704695317934,
                1.392915011498491,
                -0.09186290783785145,
                -0.42450309432217215
            ]
        },
        {
            "positions": [
                1.9419820693835688,
                -1.9529055391627808,
                -0.3426494733864116,
                1.3732425849460077,
                -0.03137614508758613,
                -0.41250842482588107
            ]
        },
        {
            "positions": [
                2.037820548767623,
                -1.9757935364890935,
                -0.5146518998196439,
                1.3535701583935245,
                0.029110617662679195,
                -0.40051375532958994
            ]
        },
        {
            "positions": [
                2.133659028151677,
                -1.9986815338154065,
                -0.686654326252877,
                1.333897731841041,
                0.08959738041294474,
                -0.38851908583329875
            ]
        },
        {
            "positions": [
                2.2294975075357315,
                -2.0215695311417194,
                -0.8586567526861093,
                1.314225305288558,
                0.15008414316321017,
                -0.3765244163370076
            ]
        },
        {
            "positions": [
                2.325335986919786,
                -2.0444575284680324,
                -1.0306591791193425,
                1.2945528787360745,
                0.2105709059134756,
                -0.3645297468407165
            ]
        },
        {
            "positions": [
                2.4211744663038397,
                -2.0673455257943454,
                -1.2026616055525747,
                1.2748804521835913,
                0.2710576686637408,
                -0.35253507734442535
            ]
        },
        {
            "positions": [
                2.517012945687894,
                -2.0902335231206584,
                -1.374664031985807,
                1.255208025631108,
                0.33154443141400625,
                -0.3405404078481342
            ]
        },
        {
            "positions": [
                2.6128514250719483,
                -2.1131215204469713,
                -1.5466664584190402,
                1.2355355990786248,
                0.3920311941642717,
                -0.3285457383518431
            ]
        },
        {
            "positions": [
                2.7086899044560027,
                -2.1360095177732843,
                -1.7186688848522722,
                1.2158631725261415,
                0.4525179569145371,
                -0.31655106885555195
            ]
        },
        {
            "positions": [
                2.7605269263826377,
                -2.218163211778818,
                -1.6588727093936877,
                1.1861337346367866,
                0.4380827932291392,
                -0.23647076961934493
            ]
        },
        {
            "positions": [
                2.8123639483092733,
                -2.300316905784352,
                -1.599076533935103,
                1.1564042967474315,
                0.4236476295437413,
                -0.15639047038313791
            ]
        },
        {
            "positions": [
                2.8642009702359084,
                -2.382470599789886,
                -1.5392803584765185,
                1.1266748588580766,
                0.40921246585834337,
                -0.0763101711469309
            ]
        },
        {
            "positions": [
                2.7625797477208764,
                -2.4326651039759746,
                -1.6011196573509157,
                1.067542444503165,
                0.44513200958398746,
                -0.043766266671877184
            ]
        },
        {
            "positions": [
                2.6609585252058445,
                -2.4828596081620637,
                -1.6629589562253126,
                1.0084100301482533,
                0.4810515533096315,
                -0.011222362196823479
            ]
        }
    ]
}