{
    "goal": {
        "global_pose": {
            "orientation": {
                "w": 0.5084816217422485,
                "x": -0.49083608388900757,
                "y": 0.5182115435600281,
                "z": -0.4816462993621826
            },
            "position": {
                "x": 0.5540239810943604,
                "y": 0.030875300988554955,
                "z": 0.16403168439865112
            }
        },
        "name": "move_to_storage_A"
    },
    "id": "LazyPRMstar_move_to_storage_A_117",
    "joint_names": [
        "shoulder_pan_joint",
        "shoulder_lift_joint",
        "elbow_joint",
        "wrist_1_joint",
        "wrist_2_joint",
        "wrist_3_joint"
    ],
    "metrics": {
        "cart_traj_len": 0.35257970377290765,
        "distance_elbow_joint": 0.4517990641912182,
        "distance_shoulder_lift_joint": 0.23414561784784516,
        "distance_shoulder_pan_joint": 0.45974895779976666,
        "distance_wrist_1_joint": 0.2555763892793089,
        "distance_wrist_2_joint": 1.1030943686314867,
        "distance_wrist_3_joint": 0.10093476943427238,
        "smoothness": 4.440892133664971e-16,
        "time": 5.000174879,
        "traj_len": 1.6140939152304299,
        "weighted_distance": 2.0410388198080014
    },
    "planner": "LazyPRMstar",
    "start": {
        "state": {
            "elbow_joint": 1.971548259319323,
            "shoulder_lift_joint": -1.1394851275133948,
            "shoulder_pan_joint": 0.1228115487234821,
            "wrist_1_joint": -0.7804723859257726,
            "wrist_2_joint": 0.12958671773740124,
            "wrist_3_joint": -3.192489227718131
        }
    },
    "waypoints": [
        {
            "positions": [
                0.1228115487234821,
                -1.1394851275133948,
                1.971548259319323,
                -0.7804723859257726,
                0.12958671773740124,
                -3.192489227718131
            ]
        },
        {
            "positions": [
                0.0571331261806583,
                -1.1729345014916583,
                2.036090982775211,
                -0.8169832986799596,
                0.28717162754189934,
                -3.1780699749418067
            ]
        },
        {
            "positions": [
                -0.0085452963621655,
                -1.206383875469922,
                2.1006337062310996,
                -0.8534942114341466,
                0.4447565373463974,
                -3.1636507221654817
            ]
        },
        {
            "positions": [
                -0.0742237189049893,
                -1.2398332494481856,
                2.165176429686988,
                -0.8900051241883336,
                0.6023414471508955,
                -3.149231469389157
            ]
        },
        {
            "positions": [
                -0.1399021414478131,
                -1.2732826234264492,
                2.2297191531428764,
                -0.9265160369425206,
                0.7599263569553937,
                -3.1348122166128327
            ]
        },
        {
            "positions": [
                -0.20558056399063696,
                -1.3067319974047127,
                2.294261876598765,
                -0.9630269496967075,
                0.9175112667598918,
                -3.120392963836508
            ]
        },
        {
            "positions": [
                -0.2712589865334607,
                -1.3401813713829764,
                2.3588046000546528,
                -0.9995378624508946,
                1.0750961765643898,
                -3.1059737110601833
            ]
        },
        {
            "positions": [
                -0.33693740907628456,
                -1.37363074536124,
                2.423347323510541,
                -1.0360487752050815,
                1.232681086368888,
                -3.0915544582838588
            ]
        }
    ]
}{
    "goal": {
        "global_pose": {
            "orientation": {
                "w": 0.5084816217422485,
                "x": -0.49083608388900757,
                "y": 0.5182115435600281,
                "z": -0.4816462993621826
            },
            "position": {
                "x": 0.5540239810943604,
                "y": 0.030875300988554955,
                "z": 0.16403168439865112
            }
        },
        "name": "move_to_storage_A"
    },
    "id": "LazyPRMstar_move_to_storage_A_117",
    "joint_names": [
        "shoulder_pan_joint",
        "shoulder_lift_joint",
        "elbow_joint",
        "wrist_1_joint",
        "wrist_2_joint",
        "wrist_3_joint"
    ],
    "metrics": {
        "cart_traj_len": 0.353911058100138,
        "distance_elbow_joint": 0.4488323668030709,
        "distance_shoulder_lift_joint": 0.2337349151153727,
        "distance_shoulder_pan_joint": 0.46229700234685367,
        "distance_wrist_1_joint": 0.24012192591253734,
        "distance_wrist_2_joint": 1.101950646001089,
        "distance_wrist_3_joint": 0.10429952229665052,
        "smoothness": 8.881784197001252e-16,
        "time": 5.001248848,
        "traj_len": 1.6097317722141085,
        "weighted_distance": 2.0351678051164486
    },
    "planner": "LazyPRMstar",
    "start": {
        "state": {
            "elbow_joint": 1.97154746011099,
            "shoulder_lift_joint": -1.13948474672311,
            "shoulder_pan_joint": 0.12281154466712228,
            "wrist_1_joint": -0.7804688027058302,
            "wrist_2_joint": 0.12958655903071145,
            "wrist_3_joint": 3.0906928834467795
        }
    },
    "waypoints": [
        {
            "positions": [
                0.12281154466712228,
                -1.13948474672311,
                1.97154746011099,
                -0.7804688027058302,
                0.12958655903071145,
                3.0906928834467795
            ]
        },
        {
            "positions": [
                0.05676911576042891,
                -1.1728754488824489,
                2.035666369654286,
                -0.8147719349790498,
                0.2870080798880099,
                3.105592815203444
            ]
        },
        {
            "positions": [
                -0.009273313146264464,
                -1.2062661510417878,
                2.0997852791975817,
                -0.8490750672522694,
                0.44442960074530835,
                3.120492746960108
            ]
        },
        {
            "positions": [
                -0.07531574205295784,
                -1.2396568532011267,
                2.1639041887408776,
                -0.883378199525489,
                0.6018511216026068,
                3.1353926787167725
            ]
        },
        {
            "positions": [
                -0.1413581709596512,
                -1.2730475553604657,
                2.228023098284173,
                -0.9176813317987087,
                0.7592726424599052,
                3.150292610473437
            ]
        },
        {
            "positions": [
                -0.20740059986634463,
                -1.3064382575198048,
                2.292142007827469,
                -0.9519844640719283,
                0.9166941633172037,
                3.1651925422301015
            ]
        },
        {
            "positions": [
                -0.27344302877303794,
                -1.3398289596791437,
                2.356260917370765,
                -0.9862875963451478,
                1.074115684174502,
                3.1800924739867655
            ]
        },
        {
            "positions": [
                -0.3394854576797314,
                -1.3732196618384827,
                2.420379826914061,
                -1.0205907286183675,
                1.2315372050318005,
                3.19499240574343
            ]
        }
    ]
}{
    "goal": {
        "global_pose": {
            "orientation": {
                "w": 0.5084816217422485,
                "x": -0.49083608388900757,
                "y": 0.5182115435600281,
                "z": -0.4816462993621826
            },
            "position": {
                "x": 0.5540239810943604,
                "y": 0.030875300988554955,
                "z": 0.16403168439865112
            }
        },
        "name": "move_to_storage_A"
    },
    "id": "LazyPRMstar_move_to_storage_A_117",
    "joint_names": [
        "shoulder_pan_joint",
        "shoulder_lift_joint",
        "elbow_joint",
        "wrist_1_joint",
        "wrist_2_joint",
        "wrist_3_joint"
    ],
    "metrics": {
        "cart_traj_len": 0.35287451530852293,
        "distance_elbow_joint": 0.452578402274352,
        "distance_shoulder_lift_joint": 0.23518283105723747,
        "distance_shoulder_pan_joint": 0.4603568139090986,
        "distance_wrist_1_joint": 0.2535955861972843,
        "distance_wrist_2_joint": 1.1036423853116726,
        "distance_wrist_3_joint": 0.09612095226406492,
        "smoothness": 0.0,
        "time": 5.000341073,
        "traj_len": 1.6129094739053738,
        "weighted_distance": 2.0373897140828987
    },
    "planner": "LazyPRMstar",
    "start": {
        "state": {
            "elbow_joint": 1.9715472970024885,
            "shoulder_lift_joint": -1.1394870060712896,
            "shoulder_pan_joint": 0.12281152778156021,
            "wrist_1_joint": -0.780463741449964,
            "wrist_2_joint": 0.12958659822042276,
            "wrist_3_joint": 3.090690232415272
        }
    },
    "waypoints": [
        {
            "positions": [
                0.12281152778156021,
                -1.1394870060712896,
                1.9715472970024885,
                -0.780463741449964,
                0.12958659822042276,
                3.090690232415272
            ]
        },
        {
            "positions": [
                0.05704626865168899,
                -1.1730845533651806,
                2.0362013544702533,
                -0.8166916823352903,
                0.28724979612209023,
                3.104421797024424
            ]
        },
        {
            "positions": [
                -0.008718990478182226,
                -1.2066821006590718,
                2.1008554119380176,
                -0.8529196232206167,
                0.4449129940237577,
                3.118153361633576
            ]
        },
        {
            "positions": [
                -0.07448424960805344,
                -1.2402796479529627,
                2.1655094694057824,
                -0.889147564105943,
                0.6025761919254252,
                3.131884926242728
            ]
        },
        {
            "positions": [
                -0.14024950873792466,
                -1.273877195246854,
                2.2301635268735467,
                -0.9253755049912693,
                0.7602393898270927,
                3.1456164908518804
            ]
        },
        {
            "positions": [
                -0.2060147678677959,
                -1.307474742540745,
                2.2948175843413114,
                -0.9616034458765956,
                0.9179025877287603,
                3.1593480554610327
            ]
        },
        {
            "positions": [
                -0.2717800269976671,
                -1.3410722898346359,
                2.3594716418090758,
                -0.997831386761922,
                1.0755657856304277,
                3.1730796200701845
            ]
        },
        {
            "positions": [
                -0.33754528612753837,
                -1.374669837128527,
                2.4241256992768405,
                -1.0340593276472483,
                1.2332289835320953,
                3.1868111846793368
            ]
        }
    ]
}