{
    "goal": {
        "global_pose": {
            "orientation": {
                "w": 0.005598929693374612,
                "x": 0.007748599140229565,
                "y": 0.7110244013736278,
                "z": -0.7031023480610252
            },
            "position": {
                "x": 0.1141497679147869,
                "y": -0.7141253447532654,
                "z": 0.3711530566215515
            }
        },
        "name": "move_to_auspresseinheit_B"
    },
    "id": "LazyPRMstar_move_to_auspresseinheit_B_60",
    "joint_names": [
        "shoulder_pan_joint",
        "shoulder_lift_joint",
        "elbow_joint",
        "wrist_1_joint",
        "wrist_2_joint",
        "wrist_3_joint"
    ],
    "metrics": {
        "cart_traj_len": 0.5652575785192848,
        "distance_elbow_joint": 0.06594943501071682,
        "distance_shoulder_lift_joint": 0.2935425570739276,
        "distance_shoulder_pan_joint": 0.5770709284229947,
        "distance_wrist_1_joint": 0.33745149027297894,
        "distance_wrist_2_joint": 0.9966841023409041,
        "distance_wrist_3_joint": 0.004206252271610644,
        "smoothness": 5.075305295617109e-16,
        "time": 5.000487432,
        "traj_len": 1.5082787426046729,
        "weighted_distance": 1.9019602683942263
    },
    "planner": "LazyPRMstar",
    "start": {
        "state": {
            "elbow_joint": 2.0193083361928714,
            "shoulder_lift_joint": -1.1220246554650708,
            "shoulder_pan_joint": -1.0952077554168747,
            "wrist_1_joint": -0.8559753972642168,
            "wrist_2_joint": 0.4759566250798843,
            "wrist_3_joint": -3.1240929996934557
        }
    },
    "waypoints": [
        {
            "positions": [
                -1.0952077554168747,
                -1.1220246554650708,
                2.0193083361928714,
                -0.8559753972642168,
                0.4759566250798843,
                -3.1240929996934557
            ]
        },
        {
            "positions": [
                -1.1913862434873739,
                -1.170948414977392,
                2.0083167636910852,
                -0.7997334822187203,
                0.6420706421367016,
                -3.124794041738724
            ]
        },
        {
            "positions": [
                -1.2875647315578729,
                -1.2198721744897134,
                1.997325191189299,
                -0.7434915671732238,
                0.8081846591935189,
                -3.1254950837839925
            ]
        },
        {
            "positions": [
                -1.3837432196283719,
                -1.2687959340020347,
                1.986333618687513,
                -0.6872496521277274,
                0.9742986762503363,
                -3.126196125829261
            ]
        },
        {
            "positions": [
                -1.479921707698871,
                -1.3177196935143558,
                1.975342046185727,
                -0.6310077370822309,
                1.1404126933071537,
                -3.1268971678745294
            ]
        },
        {
            "positions": [
                -1.5761001957693703,
                -1.3666434530266771,
                1.9643504736839408,
                -0.5747658220367343,
                1.306526710363971,
                -3.127598209919798
            ]
        },
        {
            "positions": [
                -1.6722786838398693,
                -1.4155672125389984,
                1.9533589011821546,
                -0.5185239069912378,
                1.4726407274207884,
                -3.1282992519650663
            ]
        }
    ]
}