{
    "goal": {
        "global_pose": {
            "orientation": {
                "w": 0.7047431468963623,
                "x": -0.7094548344612122,
                "y": 0.0024358443915843964,
                "z": -0.0022348060738295317
            },
            "position": {
                "x": 0.6094750761985779,
                "y": 0.3671506643295288,
                "z": 0.19426114857196808
            }
        },
        "name": "move_to_magneteinheit_A"
    },
    "id": "LazyPRMstar_move_to_magneteinheit_A_90",
    "joint_names": [
        "shoulder_pan_joint",
        "shoulder_lift_joint",
        "elbow_joint",
        "wrist_1_joint",
        "wrist_2_joint",
        "wrist_3_joint"
    ],
    "metrics": {
        "cart_traj_len": 3.4495422219368717,
        "distance_elbow_joint": 3.8842273232931985,
        "distance_shoulder_lift_joint": 0.13657586083442785,
        "distance_shoulder_pan_joint": 2.6870769659351867,
        "distance_wrist_1_joint": 0.7989259706378125,
        "distance_wrist_2_joint": 1.7003247060330802,
        "distance_wrist_3_joint": 3.6632253209067356,
        "smoothness": 0.03453702301791652,
        "time": 5.034986538,
        "traj_len": 3.587527860190139,
        "weighted_distance": 4.764037937099662
    },
    "planner": "LazyPRMstar",
    "start": {
        "state": {
            "elbow_joint": -1.9196185241190666,
            "shoulder_lift_joint": -1.2443396400964142,
            "shoulder_pan_joint": 2.6996025414629847,
            "wrist_1_joint": -1.5485510000780065,
            "wrist_2_joint": -1.5709468930060704,
            "wrist_3_joint": 0.4420197071253992
        }
    },
    "waypoints": [
        {
            "positions": [
                2.6996025414629847,
                -1.2443396400964142,
                -1.9196185241190666,
                -1.5485510000780065,
                -1.5709468930060704,
                0.4420197071253992
            ]
        },
        {
            "positions": [
                2.5997759847461164,
                -1.2415013391903114,
                -1.8157787442802544,
                -1.5306709784300923,
                -1.5378764421280635,
                0.31594731637226475
            ]
        },
        {
            "positions": [
                2.4999494280292476,
                -1.2386630382842085,
                -1.7119389644414422,
                -1.5127909567821782,
                -1.5048059912500569,
                0.18987492561913033
            ]
        },
        {
            "positions": [
                2.4001228713123792,
                -1.2358247373781055,
                -1.6080991846026298,
                -1.494910935134264,
                -1.47173554037205,
                0.06380253486599591
            ]
        },
        {
            "positions": [
                2.300296314595511,
                -1.2329864364720027,
                -1.5042594047638176,
                -1.4770309134863497,
                -1.4386650894940431,
                -0.062269855887138514
            ]
        },
        {
            "positions": [
                2.200469757878642,
                -1.2301481355658999,
                -1.4004196249250054,
                -1.4591508918384357,
                -1.4055946386160363,
                -0.18834224664027288
            ]
        },
        {
            "positions": [
                2.1006432011617737,
                -1.227309834659797,
                -1.296579845086193,
                -1.4412708701905215,
                -1.3725241877380296,
                -0.31441463739340736
            ]
        },
        {
            "positions": [
                2.0008166444449054,
                -1.2244715337536942,
                -1.192740065247381,
                -1.4233908485426072,
                -1.3394537368600228,
                -0.4404870281465416
            ]
        },
        {
            "positions": [
                1.9009900877280366,
                -1.2216332328475912,
                -1.0889002854085685,
                -1.405510826894693,
                -1.306383285982016,
                -0.5665594188996762
            ]
        },
        {
            "positions": [
                1.8011635310111682,
                -1.2187949319414884,
                -0.9850605055697563,
                -1.387630805246779,
                -1.2733128351040093,
                -0.6926318096528105
            ]
        },
        {
            "positions": [
                1.7013369742942996,
                -1.2159566310353855,
                -0.8812207257309439,
                -1.3697507835988647,
                -1.2402423842260024,
                -0.8187042004059449
            ]
        },
        {
            "positions": [
                1.601510417577431,
                -1.2131183301292827,
                -0.7773809458921319,
                -1.3518707619509505,
                -1.2071719333479956,
                -0.9447765911590794
            ]
        },
        {
            "positions": [
                1.5016838608605625,
                -1.21028002922318,
                -0.6735411660533195,
                -1.3339907403030364,
                -1.1741014824699887,
                -1.070848981912214
            ]
        },
        {
            "positions": [
                1.4018573041436941,
                -1.207441728317077,
                -0.5697013862145073,
                -1.3161107186551222,
                -1.1410310315919818,
                -1.196921372665348
            ]
        },
        {
            "positions": [
                1.3020307474268258,
                -1.204603427410974,
                -0.46586160637569507,
                -1.298230697007208,
                -1.1079605807139752,
                -1.3229937634184825
            ]
        },
        {
            "positions": [
                1.2022041907099572,
                -1.2017651265048712,
                -0.36202182653688286,
                -1.280350675359294,
                -1.0748901298359683,
                -1.449066154171617
            ]
        },
        {
            "positions": [
                1.1023776339930886,
                -1.1989268255987684,
                -0.25818204669807043,
                -1.2624706537113797,
                -1.0418196789579615,
                -1.5751385449247515
            ]
        },
        {
            "positions": [
                1.00255107727622,
                -1.1960885246926656,
                -0.15434226685925823,
                -1.2445906320634654,
                -1.0087492280799548,
                -1.7012109356778855
            ]
        },
        {
            "positions": [
                0.9027245205593517,
                -1.1932502237865628,
                -0.05050248702044602,
                -1.2267106104155512,
                -0.975678777201948,
                -1.82728332643102
            ]
        },
        {
            "positions": [
                0.8028979638424831,
                -1.1904119228804597,
                0.05333729281836619,
                -1.2088305887676372,
                -0.9426083263239412,
                -1.9533557171841545
            ]
        },
        {
            "positions": [
                0.7030714071256146,
                -1.187573621974357,
                0.15717707265717884,
                -1.190950567119723,
                -0.9095378754459342,
                -2.079428107937289
            ]
        },
        {
            "positions": [
                0.6032448504087462,
                -1.184735321068254,
                0.2610168524959908,
                -1.1730705454718087,
                -0.8764674245679275,
                -2.2055004986904234
            ]
        },
        {
            "positions": [
                0.5034182936918774,
                -1.1818970201621513,
                0.3648566323348028,
                -1.1551905238238946,
                -0.8433969736899207,
                -2.331572889443558
            ]
        },
        {
            "positions": [
                0.40359173697500905,
                -1.1790587192560484,
                0.46869641217361524,
                -1.1373105021759804,
                -0.810326522811914,
                -2.457645280196692
            ]
        },
        {
            "positions": [
                0.30376518025814025,
                -1.1762204183499454,
                0.5725361920124277,
                -1.1194304805280662,
                -0.7772560719339071,
                -2.583717670949827
            ]
        },
        {
            "positions": [
                0.2039386235412719,
                -1.1733821174438426,
                0.6763759718512401,
                -1.1015504588801521,
                -0.7441856210559002,
                -2.709790061702961
            ]
        },
        {
            "positions": [
                0.1041120668244036,
                -1.1705438165377398,
                0.7802157516900521,
                -1.0836704372322379,
                -0.7111151701778935,
                -2.8358624524560954
            ]
        },
        {
            "positions": [
                0.09804108733872184,
                -1.1624622359780594,
                0.9427493944409484,
                -1.0446185577117086,
                -0.6152420500685032,
                -2.8958411633184618
            ]
        },
        {
            "positions": [
                0.09197010785304008,
                -1.154380655418379,
                1.1052830371918447,
                -1.0055666781911792,
                -0.519368929959113,
                -2.955819874180828
            ]
        },
        {
            "positions": [
                0.08589912836735832,
                -1.1462990748586988,
                1.267816679942741,
                -0.9665147986706499,
                -0.4234958098497227,
                -3.0157985850431945
            ]
        },
        {
            "positions": [
                0.07982814888167655,
                -1.1382174942990184,
                1.4303503226936372,
                -0.9274629191501207,
                -0.32762268974033243,
                -3.0757772959055605
            ]
        },
        {
            "positions": [
                0.07375716939599479,
                -1.130135913739338,
                1.5928839654445337,
                -0.8884110396295912,
                -0.23174956963094212,
                -3.135756006767927
            ]
        },
        {
            "positions": [
                0.06768618991031303,
                -1.1220543331796577,
                1.7554176081954298,
                -0.849359160109062,
                -0.1358764495215518,
                -3.1957347176302933
            ]
        },
        {
            "positions": [
                0.09526649710157084,
                -1.1291996101384933,
                1.8600132036847805,
                -0.799492094774628,
                -0.003249318247271038,
                -3.2084701657058146
            ]
        },
        {
            "positions": [
                0.12284680429282867,
                -1.1363448870973292,
                1.9646087991741312,
                -0.749625029440194,
                0.12937781302700974,
                -3.2212056137813363
            ]
        }
    ]
}