{
    "goal": {
        "global_pose": {
            "orientation": {
                "w": 0.7031023502349854,
                "x": -0.7110244035720825,
                "y": 0.007748599164187908,
                "z": 0.005598929710686207
            },
            "position": {
                "x": 0.11585023208521307,
                "y": 0.44412534475326537,
                "z": 0.3711530566215515
            }
        },
        "name": "move_to_auspresseinheit_A"
    },
    "id": "LazyPRM_move_to_auspresseinheit_A_82",
    "joint_names": [
        "shoulder_pan_joint",
        "shoulder_lift_joint",
        "elbow_joint",
        "wrist_1_joint",
        "wrist_2_joint",
        "wrist_3_joint"
    ],
    "metrics": {
        "cart_traj_len": 6.673059959311229,
        "distance_elbow_joint": 10.056857630945624,
        "distance_shoulder_lift_joint": 0.8698975836423055,
        "distance_shoulder_pan_joint": 3.127798471063793,
        "distance_wrist_1_joint": 4.615485764105376,
        "distance_wrist_2_joint": 4.4077798974341205,
        "distance_wrist_3_joint": 11.096990448425093,
        "smoothness": 0.3681622510177676,
        "time": 0.245314118,
        "traj_len": 5.845922493124275,
        "weighted_distance": 8.086535497603784
    },
    "planner": "LazyPRM",
    "start": {
        "state": {
            "elbow_joint": 2.4225746658250005,
            "shoulder_lift_joint": -1.3736534386056498,
            "shoulder_pan_joint": -0.3378633547517467,
            "wrist_1_joint": -1.0288598680537169,
            "wrist_2_joint": 1.233022673432363,
            "wrist_3_joint": -3.0940220416140027
        }
    },
    "waypoints": [
        {
            "positions": [
                -0.3378633547517467,
                -1.3736534386056498,
                2.4225746658250005,
                -1.0288598680537169,
                1.233022673432363,
                -3.0940220416140027
            ]
        },
        {
            "positions": [
                -0.2932955871293878,
                -1.377116332490035,
                2.282452130316087,
                -1.0024644875402093,
                1.28709605698036,
                -2.9684817419414986
            ]
        },
        {
            "positions": [
                -0.2487278195070289,
                -1.3805792263744205,
                2.1423295948071734,
                -0.9760691070267018,
                1.341169440528357,
                -2.8429414422689945
            ]
        },
        {
            "positions": [
                -0.20416005188467,
                -1.3840421202588058,
                2.0022070592982595,
                -0.9496737265131941,
                1.395242824076354,
                -2.7174011425964903
            ]
        },
        {
            "positions": [
                -0.1595922842623111,
                -1.387505014143191,
                1.862084523789346,
                -0.9232783459996866,
                1.4493162076243509,
                -2.591860842923986
            ]
        },
        {
            "positions": [
                -0.11502451663995217,
                -1.3909679080275763,
                1.7219619882804325,
                -0.896882965486179,
                1.5033895911723478,
                -2.4663205432514825
            ]
        },
        {
            "positions": [
                -0.0704567490175933,
                -1.3944308019119618,
                1.581839452771519,
                -0.8704875849726714,
                1.5574629747203448,
                -2.3407802435789784
            ]
        },
        {
            "positions": [
                -0.025888981395234323,
                -1.397893695796347,
                1.4417169172626052,
                -0.8440922044591639,
                1.6115363582683417,
                -2.2152399439064743
            ]
        },
        {
            "positions": [
                0.018678786227124544,
                -1.4013565896807323,
                1.3015943817536917,
                -0.8176968239456563,
                1.6656097418163387,
                -2.08969964423397
            ]
        },
        {
            "positions": [
                0.06324655384948347,
                -1.4048194835651175,
                1.161471846244778,
                -0.7913014434321488,
                1.7196831253643357,
                -1.964159344561466
            ]
        },
        {
            "positions": [
                0.10781432147184239,
                -1.408282377449503,
                1.0213493107358642,
                -0.7649060629186412,
                1.7737565089123326,
                -1.8386190448889619
            ]
        },
        {
            "positions": [
                0.1523820890942013,
                -1.4117452713338883,
                0.8812267752269507,
                -0.7385106824051335,
                1.8278298924603296,
                -1.7130787452164578
            ]
        },
        {
            "positions": [
                0.19694985671656012,
                -1.4152081652182735,
                0.7411042397180372,
                -0.7121153018916261,
                1.8819032760083263,
                -1.5875384455439538
            ]
        },
        {
            "positions": [
                0.24151762433891905,
                -1.418671059102659,
                0.6009817042091234,
                -0.6857199213781184,
                1.9359766595563235,
                -1.4619981458714497
            ]
        },
        {
            "positions": [
                0.2860853919612781,
                -1.4221339529870443,
                0.46085916870020993,
                -0.6593245408646109,
                1.9900500431043202,
                -1.3364578461989456
            ]
        },
        {
            "positions": [
                0.330653159583637,
                -1.4255968468714295,
                0.32073663319129597,
                -0.6329291603511034,
                2.0441234266523174,
                -1.2109175465264415
            ]
        },
        {
            "positions": [
                0.3752209272059958,
                -1.4290597407558148,
                0.1806140976823829,
                -0.6065337798375958,
                2.098196810200314,
                -1.0853772468539375
            ]
        },
        {
            "positions": [
                0.41978869482835474,
                -1.4325226346402002,
                0.04049156217346894,
                -0.5801383993240883,
                2.1522701937483113,
                -0.9598369471814334
            ]
        },
        {
            "positions": [
                0.46435646245071366,
                -1.4359855285245855,
                -0.09963097333544457,
                -0.5537430188105806,
                2.206343577296308,
                -0.8342966475089293
            ]
        },
        {
            "positions": [
                0.5089242300730725,
                -1.4394484224089708,
                -0.2397535088443581,
                -0.5273476382970731,
                2.260416960844305,
                -0.7087563478364252
            ]
        },
        {
            "positions": [
                0.5534919976954316,
                -1.4429113162933562,
                -0.37987604435327205,
                -0.5009522577835654,
                2.3144903443923024,
                -0.583216048163921
            ]
        },
        {
            "positions": [
                0.5980597653177904,
                -1.4463742101777415,
                -0.5199985798621856,
                -0.4745568772700579,
                2.368563727940299,
                -0.4576757484914169
            ]
        },
        {
            "positions": [
                0.6426275329401494,
                -1.4498371040621267,
                -0.6601211153710991,
                -0.44816149675655026,
                2.422637111488296,
                -0.33213544881891277
            ]
        },
        {
            "positions": [
                0.6871953005625082,
                -1.453299997946512,
                -0.8002436508800126,
                -0.42176611624304283,
                2.4767104950362926,
                -0.20659514914640909
            ]
        },
        {
            "positions": [
                0.731763068184867,
                -1.4567628918308975,
                -0.9403661863889261,
                -0.3953707357295353,
                2.5307838785842898,
                -0.08105484947390496
            ]
        },
        {
            "positions": [
                0.7763308358072261,
                -1.4602257857152827,
                -1.0804887218978396,
                -0.36897535521602765,
                2.584857262132287,
                0.044485450198599175
            ]
        },
        {
            "positions": [
                0.8208986034295849,
                -1.463688679599668,
                -1.2206112574067536,
                -0.3425799747025201,
                2.6389306456802837,
                0.1700257498711033
            ]
        },
        {
            "positions": [
                0.8654663710519439,
                -1.4671515734840535,
                -1.360733792915667,
                -0.31618459418901246,
                2.6930040292282804,
                0.29556604954360743
            ]
        },
        {
            "positions": [
                0.9100341386743029,
                -1.4706144673684387,
                -1.5008563284245806,
                -0.2897892136755049,
                2.7470774127762776,
                0.42110634921611156
            ]
        },
        {
            "positions": [
                0.9546019062966618,
                -1.474077361252824,
                -1.6409788639334941,
                -0.2633938331619974,
                2.8011507963242748,
                0.5466466488886157
            ]
        },
        {
            "positions": [
                0.9991696739190208,
                -1.4775402551372092,
                -1.7811013994424085,
                -0.23699845264848973,
                2.8552241798722715,
                0.6721869485611198
            ]
        },
        {
            "positions": [
                1.0437374415413796,
                -1.4810031490215947,
                -1.921223934951322,
                -0.2106030721349822,
                2.9092975634202687,
                0.797727248233624
            ]
        },
        {
            "positions": [
                1.0883052091637384,
                -1.48446604290598,
                -2.0613464704602347,
                -0.18420769162147477,
                2.9633709469682654,
                0.9232675479061276
            ]
        },
        {
            "positions": [
                1.1328729767860972,
                -1.4879289367903652,
                -2.201469005969148,
                -0.15781231110796712,
                3.0174443305162626,
                1.0488078475786313
            ]
        },
        {
            "positions": [
                1.1774407444084563,
                -1.4913918306747505,
                -2.3415915414780626,
                -0.13141693059445958,
                3.0715177140642593,
                1.174348147251136
            ]
        },
        {
            "positions": [
                1.222008512030815,
                -1.494854724559136,
                -2.481714076986976,
                -0.10502155008095193,
                3.125591097612256,
                1.2998884469236396
            ]
        },
        {
            "positions": [
                1.266576279653174,
                -1.4983176184435212,
                -2.6218366124958896,
                -0.07862616956744439,
                3.1796644811602532,
                1.4254287465961437
            ]
        },
        {
            "positions": [
                1.228058502382818,
                -1.4921065067754,
                -2.452628834408361,
                -0.01770571684339412,
                3.1096961797408196,
                1.4627297509781785
            ]
        },
        {
            "positions": [
                1.1895407251124621,
                -1.4858953951072786,
                -2.2834210563208317,
                0.04321473588065615,
                3.039727878321386,
                1.500030755360213
            ]
        },
        {
            "positions": [
                1.1510229478421061,
                -1.4796842834391575,
                -2.114213278233303,
                0.10413518860470641,
                2.9697595769019527,
                1.5373317597422478
            ]
        },
        {
            "positions": [
                1.1125051705717501,
                -1.473473171771036,
                -1.9450055001457738,
                0.1650556413287567,
                2.899791275482519,
                1.5746327641242825
            ]
        },
        {
            "positions": [
                1.0739873933013941,
                -1.467262060102915,
                -1.775797722058245,
                0.225976094052807,
                2.8298229740630854,
                1.6119337685063173
            ]
        },
        {
            "positions": [
                1.0354696160310382,
                -1.4610509484347936,
                -1.606589943970716,
                0.2868965467768572,
                2.7598546726436517,
                1.6492347728883519
            ]
        },
        {
            "positions": [
                0.9969518387606822,
                -1.4548398367666724,
                -1.4373821658831871,
                0.3478169995009075,
                2.6898863712242185,
                1.6865357772703866
            ]
        },
        {
            "positions": [
                0.9584340614903262,
                -1.448628725098551,
                -1.2681743877956582,
                0.4087374522249578,
                2.619918069804785,
                1.7238367816524214
            ]
        },
        {
            "positions": [
                0.9199162842199703,
                -1.4424176134304298,
                -1.0989666097081292,
                0.46965790494900805,
                2.549949768385351,
                1.761137786034456
            ]
        },
        {
            "positions": [
                0.8813985069496143,
                -1.4362065017623087,
                -0.9297588316206005,
                0.5305783576730584,
                2.4799814669659175,
                1.7984387904164907
            ]
        },
        {
            "positions": [
                0.8428807296792583,
                -1.4299953900941873,
                -0.7605510535330715,
                0.5914988103971086,
                2.4100131655464843,
                1.8357397947985254
            ]
        },
        {
            "positions": [
                0.8043629524089023,
                -1.4237842784260661,
                -0.5913432754455425,
                0.6524192631211588,
                2.3400448641270506,
                1.8730407991805602
            ]
        },
        {
            "positions": [
                0.7658451751385463,
                -1.4175731667579448,
                -0.42213549735801337,
                0.7133397158452092,
                2.270076562707617,
                1.910341803562595
            ]
        },
        {
            "positions": [
                0.7273273978681903,
                -1.4113620550898236,
                -0.25292771927048463,
                0.7742601685692594,
                2.2001082612881833,
                1.9476428079446295
            ]
        },
        {
            "positions": [
                0.6888096205978343,
                -1.4051509434217022,
                -0.08371994118295545,
                0.8351806212933098,
                2.1301399598687496,
                1.9849438123266643
            ]
        },
        {
            "positions": [
                0.6502918433274784,
                -1.398939831753581,
                0.08548783690457329,
                0.8961010740173599,
                2.060171658449316,
                2.022244816708699
            ]
        },
        {
            "positions": [
                0.6117740660571224,
                -1.3927287200854597,
                0.25469561499210247,
                0.9570215267414104,
                1.9902033570298825,
                2.0595458210907336
            ]
        },
        {
            "positions": [
                0.5732562887867665,
                -1.3865176084173385,
                0.4239033930796312,
                1.0179419794654605,
                1.920235055610449,
                2.0968468254727686
            ]
        },
        {
            "positions": [
                0.5347385115164104,
                -1.3803064967492173,
                0.5931111711671604,
                1.0788624321895108,
                1.8502667541910154,
                2.134147829854803
            ]
        },
        {
            "positions": [
                0.4962207342460545,
                -1.374095385081096,
                0.7623189492546887,
                1.1397828849135612,
                1.780298452771582,
                2.1714488342368377
            ]
        },
        {
            "positions": [
                0.4577029569756984,
                -1.3678842734129748,
                0.9315267273422179,
                1.2007033376376115,
                1.7103301513521483,
                2.2087498386188726
            ]
        },
        {
            "positions": [
                0.4191851797053425,
                -1.3616731617448534,
                1.1007345054297466,
                1.2616237903616616,
                1.6403618499327148,
                2.246050843000907
            ]
        },
        {
            "positions": [
                0.38066740243498653,
                -1.3554620500767323,
                1.2699422835172758,
                1.322544243085712,
                1.5703935485132812,
                2.283351847382942
            ]
        },
        {
            "positions": [
                0.34214962516463054,
                -1.3492509384086109,
                1.4391500616048045,
                1.383464695809762,
                1.5004252470938477,
                2.3206528517649767
            ]
        },
        {
            "positions": [
                0.30363184789427455,
                -1.3430398267404897,
                1.6083578396923341,
                1.4443851485338126,
                1.430456945674414,
                2.3579538561470113
            ]
        },
        {
            "positions": [
                0.26511407062391856,
                -1.3368287150723686,
                1.7775656177798629,
                1.5053056012578627,
                1.3604886442549806,
                2.395254860529046
            ]
        },
        {
            "positions": [
                0.22659629335356257,
                -1.3306176034042472,
                1.9467733958673916,
                1.566226053981913,
                1.290520342835547,
                2.432555864911081
            ]
        },
        {
            "positions": [
                0.24593144736793288,
                -1.3537189389548536,
                1.9645268496378496,
                1.4854100602991231,
                1.2676405847802859,
                2.20973936323508
            ]
        },
        {
            "positions": [
                0.2652666013823032,
                -1.37682027450546,
                1.9822803034083074,
                1.4045940666163332,
                1.2447608267250247,
                1.986922861559079
            ]
        },
        {
            "positions": [
                0.2846017553966735,
                -1.3999216100560663,
                2.000033757178765,
                1.3237780729335433,
                1.2218810686697636,
                1.7641063598830784
            ]
        },
        {
            "positions": [
                0.3039369094110438,
                -1.4230229456066728,
                2.017787210949223,
                1.2429620792507534,
                1.1990013106145025,
                1.5412898582070773
            ]
        },
        {
            "positions": [
                0.32327206342541404,
                -1.4461242811572792,
                2.035540664719681,
                1.1621460855679635,
                1.1761215525592412,
                1.3184733565310764
            ]
        },
        {
            "positions": [
                0.34260721743978434,
                -1.4692256167078857,
                2.053294118490139,
                1.0813300918851736,
                1.1532417945039801,
                1.0956568548550758
            ]
        },
        {
            "positions": [
                0.36194237145415464,
                -1.492326952258492,
                2.0710475722605968,
                1.0005140982023835,
                1.130362036448719,
                0.8728403531790747
            ]
        },
        {
            "positions": [
                0.38127752546852495,
                -1.5154282878090983,
                2.0888010260310548,
                0.9196981045195937,
                1.107482278393458,
                0.6500238515030741
            ]
        },
        {
            "positions": [
                0.40061267948289525,
                -1.5385296233597048,
                2.106554479801513,
                0.8388821108368039,
                1.0846025203381968,
                0.4272073498270732
            ]
        },
        {
            "positions": [
                0.41994783349726555,
                -1.5616309589103112,
                2.124307933571971,
                0.7580661171540138,
                1.0617227622829357,
                0.2043908481510721
            ]
        },
        {
            "positions": [
                0.43928298751163586,
                -1.5847322944609177,
                2.1420613873424283,
                0.6772501234712239,
                1.0388430042276746,
                -0.01842565352492853
            ]
        },
        {
            "positions": [
                0.4586181415260061,
                -1.6078336300115241,
                2.1598148411128864,
                0.596434129788434,
                1.0159632461724135,
                -0.24124215520092918
            ]
        },
        {
            "positions": [
                0.47795329554037647,
                -1.6309349655621306,
                2.1775682948833444,
                0.515618136105644,
                0.9930834881171524,
                -0.46405865687693026
            ]
        },
        {
            "positions": [
                0.49728844955474677,
                -1.6540363011127368,
                2.1953217486538024,
                0.4348021424228541,
                0.9702037300618912,
                -0.6868751585529314
            ]
        },
        {
            "positions": [
                0.516623603569117,
                -1.6771376366633433,
                2.21307520242426,
                0.3539861487400644,
                0.9473239720066301,
                -0.9096916602289316
            ]
        },
        {
            "positions": [
                0.5359587575834873,
                -1.7002389722139497,
                2.230828656194718,
                0.27317015505727427,
                0.9244442139513689,
                -1.1325081619049326
            ]
        },
        {
            "positions": [
                0.5552939115978577,
                -1.7233403077645562,
                2.248582109965176,
                0.19235416137448436,
                0.9015644558961078,
                -1.3553246635809337
            ]
        },
        {
            "positions": [
                0.5746290656122279,
                -1.7464416433151624,
                2.266335563735634,
                0.11153816769169467,
                0.8786846978408467,
                -1.5781411652569344
            ]
        },
        {
            "positions": [
                0.5939642196265982,
                -1.7695429788657688,
                2.2840890175060915,
                0.030722174008904535,
                0.8558049397855856,
                -1.8009576669329355
            ]
        },
        {
            "positions": [
                0.6132993736409685,
                -1.7926443144163753,
                2.3018424712765495,
                -0.050093819673885376,
                0.8329251817303245,
                -2.0237741686089366
            ]
        },
        {
            "positions": [
                0.6326345276553388,
                -1.8157456499669817,
                2.3195959250470075,
                -0.1309098133566753,
                0.8100454236750634,
                -2.2465906702849368
            ]
        },
        {
            "positions": [
                0.6519696816697091,
                -1.8388469855175882,
                2.3373493788174655,
                -0.2117258070394652,
                0.7871656656198023,
                -2.469407171960938
            ]
        },
        {
            "positions": [
                0.6713048356840794,
                -1.8619483210681946,
                2.3551028325879235,
                -0.2925418007222551,
                0.7642859075645411,
                -2.692223673636939
            ]
        },
        {
            "positions": [
                0.6906399896984496,
                -1.8850496566188009,
                2.372856286358381,
                -0.373357794405045,
                0.74140614950928,
                -2.915040175312939
            ]
        },
        {
            "positions": [
                0.70997514371282,
                -1.9081509921694073,
                2.390609740128839,
                -0.4541737880878349,
                0.7185263914540189,
                -3.13785667698894
            ]
        }
    ]
}