{
    "goal": {
        "global_pose": {
            "orientation": {
                "w": 0.7031023480610252,
                "x": -0.7110244013736278,
                "y": 0.0077485991402295624,
                "z": 0.005598929693374583
            },
            "position": {
                "x": -0.8841497679147869,
                "y": 0.44412534475326537,
                "z": 0.3711530566215515
            }
        },
        "name": "move_to_auspresseinheit_D"
    },
    "id": "LazyPRMstar_move_to_auspresseinheit_D_31",
    "joint_names": [
        "shoulder_pan_joint",
        "shoulder_lift_joint",
        "elbow_joint",
        "wrist_1_joint",
        "wrist_2_joint",
        "wrist_3_joint"
    ],
    "metrics": {
        "cart_traj_len": 0.3442610757497102,
        "distance_elbow_joint": 0.6641995003678827,
        "distance_shoulder_lift_joint": 0.13561604545201522,
        "distance_shoulder_pan_joint": 0.13307786364159088,
        "distance_wrist_1_joint": 0.607327110142954,
        "distance_wrist_2_joint": 1.4464991705004677,
        "distance_wrist_3_joint": 0.06384353602246362,
        "smoothness": 8.881784183823303e-16,
        "time": 5.000900688,
        "traj_len": 1.7465861633848396,
        "weighted_distance": 2.2873732924067562
    },
    "planner": "LazyPRMstar",
    "start": {
        "state": {
            "elbow_joint": -1.8275523626775212,
            "shoulder_lift_joint": -2.126789852344167,
            "shoulder_pan_joint": -0.03513704404078235,
            "wrist_1_joint": -2.347782403156801,
            "wrist_2_joint": -1.6058999987535132,
            "wrist_3_joint": -3.0880379163319196
        }
    },
    "waypoints": [
        {
            "positions": [
                -0.03513704404078235,
                -2.126789852344167,
                -1.8275523626775212,
                -2.347782403156801,
                -1.6058999987535132,
                -3.0880379163319196
            ]
        },
        {
            "positions": [
                -0.051771776995981206,
                -2.1437418580256686,
                -1.744527425131536,
                -2.42369829192467,
                -1.4250876024409547,
                -3.0800574743291116
            ]
        },
        {
            "positions": [
                -0.06840650995118007,
                -2.160693863707171,
                -1.6615024875855506,
                -2.4996141806925394,
                -1.2442752061283961,
                -3.0720770323263036
            ]
        },
        {
            "positions": [
                -0.08504124290637893,
                -2.1776458693886727,
                -1.5784775500395651,
                -2.5755300694604086,
                -1.0634628098158379,
                -3.0640965903234956
            ]
        },
        {
            "positions": [
                -0.10167597586157778,
                -2.1945978750701745,
                -1.4954526124935799,
                -2.651445958228278,
                -0.8826504135032793,
                -3.0561161483206876
            ]
        },
        {
            "positions": [
                -0.11831070881677666,
                -2.2115498807516762,
                -1.4124276749475946,
                -2.727361846996147,
                -0.7018380171907208,
                -3.04813570631788
            ]
        },
        {
            "positions": [
                -0.1349454417719755,
                -2.228501886433178,
                -1.329402737401609,
                -2.8032777357640164,
                -0.5210256208781625,
                -3.040155264315072
            ]
        },
        {
            "positions": [
                -0.15158017472717436,
                -2.2454538921146803,
                -1.2463777998556238,
                -2.8791936245318857,
                -0.340213224565604,
                -3.032174822312264
            ]
        },
        {
            "positions": [
                -0.16821490768237324,
                -2.262405897796182,
                -1.1633528623096385,
                -2.955109513299755,
                -0.15940082825304536,
                -3.024194380309456
            ]
        }
    ]
}