{
    "goal": {
        "global_pose": {
            "orientation": {
                "w": 0.7047431468963623,
                "x": -0.7094548344612122,
                "y": 0.0024358443915843964,
                "z": -0.0022348060738295317
            },
            "position": {
                "x": 0.6094750761985779,
                "y": 0.3671506643295288,
                "z": 0.19426114857196808
            }
        },
        "name": "move_to_magneteinheit_A"
    },
    "id": "LazyPRMstar_move_to_magneteinheit_A_10",
    "joint_names": [
        "shoulder_pan_joint",
        "shoulder_lift_joint",
        "elbow_joint",
        "wrist_1_joint",
        "wrist_2_joint",
        "wrist_3_joint"
    ],
    "metrics": {
        "cart_traj_len": 3.478182668426496,
        "distance_elbow_joint": 3.881044882291088,
        "distance_shoulder_lift_joint": 0.3425226010832845,
        "distance_shoulder_pan_joint": 2.743043694232618,
        "distance_wrist_1_joint": 2.756577392554533,
        "distance_wrist_2_joint": 1.6940512563429495,
        "distance_wrist_3_joint": 3.6764636307735996,
        "smoothness": 0.102974425427214,
        "time": 5.0156721630000005,
        "traj_len": 3.88506157702527,
        "weighted_distance": 5.186256778035847
    },
    "planner": "LazyPRMstar",
    "start": {
        "state": {
            "elbow_joint": -1.9196185241190666,
            "shoulder_lift_joint": -1.2443396400964142,
            "shoulder_pan_joint": 2.6996025414629847,
            "wrist_1_joint": -1.5485510000780065,
            "wrist_2_joint": -1.5709468930060704,
            "wrist_3_joint": 0.4420197071253992
        }
    },
    "waypoints": [
        {
            "positions": [
                2.6996025414629847,
                -1.2443396400964142,
                -1.9196185241190666,
                -1.5485510000780065,
                -1.5709468930060704,
                0.4420197071253992
            ]
        },
        {
            "positions": [
                2.5972955775301125,
                -1.248802559081257,
                -1.8002053147533452,
                -1.585951498091664,
                -1.5679814244128047,
                0.314227886304175
            ]
        },
        {
            "positions": [
                2.4949886135972403,
                -1.2532654780661,
                -1.6807921053876238,
                -1.6233519961053215,
                -1.5650159558195391,
                0.18643606548295072
            ]
        },
        {
            "positions": [
                2.3926816496643686,
                -1.2577283970509427,
                -1.5613788960219024,
                -1.6607524941189789,
                -1.5620504872262735,
                0.05864424466172646
            ]
        },
        {
            "positions": [
                2.2903746857314964,
                -1.2621913160357856,
                -1.4419656866561807,
                -1.6981529921326364,
                -1.5590850186330079,
                -0.06914757615949774
            ]
        },
        {
            "positions": [
                2.188067721798624,
                -1.2666542350206285,
                -1.3225524772904593,
                -1.735553490146294,
                -1.5561195500397422,
                -0.19693939698072194
            ]
        },
        {
            "positions": [
                2.085760757865752,
                -1.2711171540054713,
                -1.203139267924738,
                -1.7729539881599514,
                -1.5531540814464766,
                -0.32473121780194625
            ]
        },
        {
            "positions": [
                1.9834537939328802,
                -1.2755800729903142,
                -1.0837260585590165,
                -1.8103544861736087,
                -1.550188612853211,
                -0.45252303862317034
            ]
        },
        {
            "positions": [
                1.881146830000008,
                -1.280042991975157,
                -0.964312849193295,
                -1.8477549841872665,
                -1.5472231442599453,
                -0.5803148594443946
            ]
        },
        {
            "positions": [
                1.7788398660671358,
                -1.2845059109599999,
                -0.8448996398275737,
                -1.8851554822009238,
                -1.5442576756666797,
                -0.7081066802656187
            ]
        },
        {
            "positions": [
                1.6765329021342636,
                -1.2889688299448427,
                -0.725486430461852,
                -1.9225559802145813,
                -1.541292207073414,
                -0.835898501086843
            ]
        },
        {
            "positions": [
                1.5742259382013917,
                -1.2934317489296856,
                -0.6060732210961306,
                -1.9599564782282388,
                -1.5383267384801484,
                -0.9636903219080674
            ]
        },
        {
            "positions": [
                1.4719189742685195,
                -1.2978946679145285,
                -0.4866600117304092,
                -1.9973569762418963,
                -1.5353612698868828,
                -1.0914821427292916
            ]
        },
        {
            "positions": [
                1.3696120103356475,
                -1.3023575868993713,
                -0.36724680236468776,
                -2.034757474255554,
                -1.532395801293617,
                -1.2192739635505156
            ]
        },
        {
            "positions": [
                1.2673050464027755,
                -1.3068205058842142,
                -0.24783359299896635,
                -2.072157972269211,
                -1.5294303327003513,
                -1.3470657843717397
            ]
        },
        {
            "positions": [
                1.1649980824699036,
                -1.311283424869057,
                -0.12842038363324493,
                -2.1095584702828685,
                -1.5264648641070857,
                -1.4748576051929638
            ]
        },
        {
            "positions": [
                1.0626911185370311,
                -1.3157463438538999,
                -0.009007174267523288,
                -2.146958968296526,
                -1.52349939551382,
                -1.6026494260141884
            ]
        },
        {
            "positions": [
                0.9603841546041592,
                -1.3202092628387427,
                0.11040603509819791,
                -2.184359466310184,
                -1.5205339269205544,
                -1.7304412468354124
            ]
        },
        {
            "positions": [
                0.8580771906712872,
                -1.3246721818235856,
                0.22981924446391933,
                -2.2217599643238413,
                -1.5175684583272888,
                -1.8582330676566365
            ]
        },
        {
            "positions": [
                0.755770226738415,
                -1.3291351008084284,
                0.34923245382964074,
                -2.2591604623374986,
                -1.5146029897340232,
                -1.986024888477861
            ]
        },
        {
            "positions": [
                0.6534632628055426,
                -1.3335980197932713,
                0.4686456631953626,
                -2.2965609603511563,
                -1.5116375211407576,
                -2.113816709299085
            ]
        },
        {
            "positions": [
                0.5511562988726708,
                -1.3380609387781142,
                0.588058872561084,
                -2.3339614583648136,
                -1.508672052547492,
                -2.2416085301203097
            ]
        },
        {
            "positions": [
                0.4488493349397986,
                -1.342523857762957,
                0.7074720819268054,
                -2.371361956378471,
                -1.5057065839542263,
                -2.369400350941534
            ]
        },
        {
            "positions": [
                0.34654237100692686,
                -1.3469867767477999,
                0.8268852912925269,
                -2.4087624543921287,
                -1.5027411153609607,
                -2.497192171762758
            ]
        },
        {
            "positions": [
                0.24423540707405422,
                -1.3514496957326427,
                0.9462985006582483,
                -2.446162952405786,
                -1.499775646767695,
                -2.6249839925839824
            ]
        },
        {
            "positions": [
                0.14192844314118247,
                -1.3559126147174856,
                1.0657117100239697,
                -2.4835634504194437,
                -1.4968101781744294,
                -2.7527758134052065
            ]
        },
        {
            "positions": [
                0.03962147920831038,
                -1.3603755337023284,
                1.1851249193896911,
                -2.520963948433101,
                -1.4938447095811638,
                -2.8805676342264306
            ]
        },
        {
            "positions": [
                0.046010912437382936,
                -1.3429534792809923,
                1.2448404146806398,
                -2.383720529648529,
                -1.3694640116643912,
                -2.9077888872588744
            ]
        },
        {
            "positions": [
                0.052400345666455496,
                -1.3255314248596561,
                1.3045559099715882,
                -2.2464771108639567,
                -1.2450833137476187,
                -2.9350101402913182
            ]
        },
        {
            "positions": [
                0.058789778895528055,
                -1.30810937043832,
                1.3642714052625369,
                -2.109233692079384,
                -1.1207026158308462,
                -2.962231393323762
            ]
        },
        {
            "positions": [
                0.06517921212460061,
                -1.2906873160169838,
                1.4239869005534853,
                -1.971990273294812,
                -0.9963219179140737,
                -2.989452646356206
            ]
        },
        {
            "positions": [
                0.07156864535367316,
                -1.2732652615956477,
                1.483702395844434,
                -1.8347468545102399,
                -0.8719412199973011,
                -3.0166738993886497
            ]
        },
        {
            "positions": [
                0.07795807858274573,
                -1.2558432071743115,
                1.5434178911353826,
                -1.6975034357256675,
                -0.7475605220805286,
                -3.0438951524210935
            ]
        },
        {
            "positions": [
                0.08434751181181828,
                -1.2384211527529754,
                1.603133386426331,
                -1.5602600169410954,
                -0.6231798241637561,
                -3.0711164054535374
            ]
        },
        {
            "positions": [
                0.09073694504089085,
                -1.220999098331639,
                1.6628488817172797,
                -1.423016598156523,
                -0.4987991262469835,
                -3.098337658485981
            ]
        },
        {
            "positions": [
                0.0971263782699634,
                -1.2035770439103028,
                1.7225643770082284,
                -1.285773179371951,
                -0.374418428330211,
                -3.125558911518425
            ]
        },
        {
            "positions": [
                0.10351581149903596,
                -1.1861549894889667,
                1.7822798722991768,
                -1.1485297605873785,
                -0.25003773041343846,
                -3.152780164550869
            ]
        },
        {
            "positions": [
                0.1099052447281085,
                -1.1687329350676305,
                1.8419953675901253,
                -1.0112863418028064,
                -0.12565703249666593,
                -3.1800014175833127
            ]
        },
        {
            "positions": [
                0.11629467795718107,
                -1.1513108806462944,
                1.9017108628810742,
                -0.874042923018234,
                -0.0012763345798934012,
                -3.2072226706157565
            ]
        },
        {
            "positions": [
                0.12268411118625362,
                -1.1338888262249582,
                1.9614263581720226,
                -0.7367995042336618,
                0.12310436333687909,
                -3.2344439236482003
            ]
        }
    ]
}