{
    "goal": {
        "global_pose": {
            "orientation": {
                "w": 0.7047431468963623,
                "x": -0.7094548344612122,
                "y": 0.0024358443915843964,
                "z": -0.0022348060738295317
            },
            "position": {
                "x": 0.6094750761985779,
                "y": 0.3671506643295288,
                "z": 0.19426114857196808
            }
        },
        "name": "move_to_magneteinheit_A"
    },
    "id": "LazyPRMstar_move_to_magneteinheit_A_31",
    "joint_names": [
        "shoulder_pan_joint",
        "shoulder_lift_joint",
        "elbow_joint",
        "wrist_1_joint",
        "wrist_2_joint",
        "wrist_3_joint"
    ],
    "metrics": {
        "cart_traj_len": 3.2227292150689544,
        "distance_elbow_joint": 3.9186239874153213,
        "distance_shoulder_lift_joint": 0.5699371854639423,
        "distance_shoulder_pan_joint": 2.7629360274247894,
        "distance_wrist_1_joint": 4.051458611325716,
        "distance_wrist_2_joint": 2.5315120988380597,
        "distance_wrist_3_joint": 1.0625712347653293,
        "smoothness": 0.49370842554937794,
        "time": 5.031704805,
        "traj_len": 3.8596682688066797,
        "weighted_distance": 4.858513386307337
    },
    "planner": "LazyPRMstar",
    "start": {
        "state": {
            "elbow_joint": -1.9196185241190666,
            "shoulder_lift_joint": -1.2443396400964142,
            "shoulder_pan_joint": 2.6996025414629847,
            "wrist_1_joint": -1.5485510000780065,
            "wrist_2_joint": -1.5709468930060704,
            "wrist_3_joint": 0.4420197071253992
        }
    },
    "waypoints": [
        {
            "positions": [
                2.6996025414629847,
                -1.2443396400964142,
                -1.9196185241190666,
                -1.5485510000780065,
                -1.5709468930060704,
                0.4420197071253992
            ]
        },
        {
            "positions": [
                2.5946382589769943,
                -1.2339643432128389,
                -1.818176434908053,
                -1.4448380013923992,
                -1.517566081351447,
                0.42172588466849553
            ]
        },
        {
            "positions": [
                2.4896739764910043,
                -1.2235890463292636,
                -1.7167343456970392,
                -1.3411250027067916,
                -1.4641852696968238,
                0.40143206221159194
            ]
        },
        {
            "positions": [
                2.384709694005014,
                -1.2132137494456885,
                -1.6152922564860255,
                -1.2374120040211842,
                -1.4108044580422003,
                0.3811382397546883
            ]
        },
        {
            "positions": [
                2.279745411519024,
                -1.2028384525621132,
                -1.5138501672750118,
                -1.1336990053355769,
                -1.357423646387577,
                0.3608444172977847
            ]
        },
        {
            "positions": [
                2.1747811290330334,
                -1.192463155678538,
                -1.4124080780639978,
                -1.0299860066499693,
                -1.3040428347329538,
                0.34055059484088107
            ]
        },
        {
            "positions": [
                2.0698168465470435,
                -1.1820878587949626,
                -1.310965988852984,
                -0.926273007964362,
                -1.2506620230783305,
                0.32025677238397743
            ]
        },
        {
            "positions": [
                1.964852564061053,
                -1.1717125619113873,
                -1.2095238996419702,
                -0.8225600092787545,
                -1.1972812114237072,
                0.29996294992707384
            ]
        },
        {
            "positions": [
                1.859888281575063,
                -1.1613372650278122,
                -1.1080818104309567,
                -0.7188470105931472,
                -1.143900399769084,
                0.2796691274701702
            ]
        },
        {
            "positions": [
                1.7549239990890726,
                -1.150961968144237,
                -1.0066397212199427,
                -0.6151340119075397,
                -1.0905195881144605,
                0.25937530501326655
            ]
        },
        {
            "positions": [
                1.6499597166030824,
                -1.1405866712606616,
                -0.905197632008929,
                -0.5114210132219321,
                -1.0371387764598372,
                0.23908148255636294
            ]
        },
        {
            "positions": [
                1.5449954341170922,
                -1.1302113743770863,
                -0.8037555427979153,
                -0.407708014536325,
                -0.9837579648052139,
                0.21878766009945935
            ]
        },
        {
            "positions": [
                1.440031151631102,
                -1.119836077493511,
                -0.7023134535869016,
                -0.3039950158507174,
                -0.9303771531505906,
                0.1984938376425557
            ]
        },
        {
            "positions": [
                1.3350668691451117,
                -1.109460780609936,
                -0.6008713643758878,
                -0.20028201716511007,
                -0.8769963414959673,
                0.1782000151856521
            ]
        },
        {
            "positions": [
                1.2301025866591213,
                -1.0990854837263606,
                -0.4994292751648739,
                -0.0965690184795025,
                -0.8236155298413439,
                0.15790619272874845
            ]
        },
        {
            "positions": [
                1.1251383041731313,
                -1.0887101868427853,
                -0.3979871859538604,
                0.00714398020610485,
                -0.7702347181867206,
                0.13761237027184486
            ]
        },
        {
            "positions": [
                1.020174021687141,
                -1.07833488995921,
                -0.2965450967428467,
                0.1108569788917122,
                -0.7168539065320974,
                0.11731854781494122
            ]
        },
        {
            "positions": [
                0.9152097392011507,
                -1.067959593075635,
                -0.19510300753183274,
                0.21456997757731977,
                -0.6634730948774739,
                0.09702472535803758
            ]
        },
        {
            "positions": [
                0.8102454567151605,
                -1.0575842961920596,
                -0.09366091832081902,
                0.3182829762629271,
                -0.6100922832228506,
                0.07673090290113399
            ]
        },
        {
            "positions": [
                0.7052811742291705,
                -1.0472089993084843,
                0.0077811708901947,
                0.42199597494853447,
                -0.5567114715682273,
                0.05643708044423035
            ]
        },
        {
            "positions": [
                0.60031689174318,
                -1.036833702424909,
                0.10922326010120864,
                0.5257089736341423,
                -0.503330659913604,
                0.036143257987326705
            ]
        },
        {
            "positions": [
                0.49535260925719005,
                -1.0264584055413337,
                0.21066534931222236,
                0.6294219723197492,
                -0.44994984825898077,
                0.015849435530423117
            ]
        },
        {
            "positions": [
                0.3903883267711996,
                -1.0160831086577586,
                0.3121074385232361,
                0.7331349710053565,
                -0.3965690366043575,
                -0.00444438692648047
            ]
        },
        {
            "positions": [
                0.2854240442852092,
                -1.0057078117741833,
                0.4135495277342498,
                0.8368479696909643,
                -0.343188224949734,
                -0.02473820938338417
            ]
        },
        {
            "positions": [
                0.18045976179921933,
                -0.995332514890608,
                0.5149916169452635,
                0.9405609683765717,
                -0.2898074132951107,
                -0.045032031840287735
            ]
        },
        {
            "positions": [
                0.16540520534171654,
                -0.9684736722129688,
                0.6171624027907046,
                1.0684978195654482,
                -0.21939494202216459,
                -0.014845032923989327
            ]
        },
        {
            "positions": [
                0.15035064888421376,
                -0.9416148295353294,
                0.7193331886361457,
                1.1964346707543247,
                -0.14898247074921847,
                0.015341965992309081
            ]
        },
        {
            "positions": [
                0.13529609242671098,
                -0.9147559868576901,
                0.8215039744815867,
                1.3243715219432013,
                -0.07856999947627238,
                0.04552896490860748
            ]
        },
        {
            "positions": [
                0.1202415359692082,
                -0.8878971441800508,
                0.9236747603270279,
                1.452308373132078,
                -0.008157528203326214,
                0.07571596382490589
            ]
        },
        {
            "positions": [
                0.10518697951170543,
                -0.8610383015024115,
                1.025845546172469,
                1.5802452243209544,
                0.06225494306961987,
                0.10590296274120431
            ]
        },
        {
            "positions": [
                0.09013242305420265,
                -0.8341794588247722,
                1.12801633201791,
                1.7081820755098311,
                0.13266741434256596,
                0.1360899616575027
            ]
        },
        {
            "positions": [
                0.07507786659669988,
                -0.8073206161471329,
                1.230187117863351,
                1.8361189266987075,
                0.2030798856155121,
                0.16627696057380112
            ]
        },
        {
            "positions": [
                0.06002331013919708,
                -0.7804617734694936,
                1.3323579037087923,
                1.9640557778875842,
                0.2734923568884583,
                0.19646395949009954
            ]
        },
        {
            "positions": [
                0.04496875368169431,
                -0.7536029307918543,
                1.4345286895542333,
                2.0919926290764606,
                0.34390482816140433,
                0.22665095840639796
            ]
        },
        {
            "positions": [
                0.02991419722419153,
                -0.726744088114215,
                1.5366994753996743,
                2.2199294802653373,
                0.41431729943435047,
                0.2568379573226963
            ]
        },
        {
            "positions": [
                0.04856373386139064,
                -0.7372124148105637,
                1.62916067297899,
                2.163333854068863,
                0.3050677181548227,
                0.20210805599536463
            ]
        },
        {
            "positions": [
                0.06721327049858974,
                -0.7476807415069122,
                1.721621870558306,
                2.106738227872389,
                0.19581813687529495,
                0.14737815466803295
            ]
        },
        {
            "positions": [
                0.08586280713578887,
                -0.7581490682032609,
                1.8140830681376217,
                2.0501426016759146,
                0.0865685555957672,
                0.09264825334070126
            ]
        },
        {
            "positions": [
                0.10451234377298797,
                -0.7686173948996095,
                1.9065442657169376,
                1.9935469754794402,
                -0.02268102568376057,
                0.03791835201336957
            ]
        },
        {
            "positions": [
                0.12316188041018708,
                -0.7790857215959581,
                1.9990054632962533,
                1.936951349282966,
                -0.13193060696328826,
                -0.0168115493139621
            ]
        }
    ]
}