{
    "goal": {
        "global_pose": {
            "orientation": {
                "w": -0.00223480608172531,
                "x": 0.0024358444001904467,
                "y": 0.7094548369677653,
                "z": -0.704743149386269
            },
            "position": {
                "x": 0.6205249238014221,
                "y": -0.6371506643295288,
                "z": 0.19426114857196808
            }
        },
        "name": "move_to_magneteinheit_B"
    },
    "id": "LazyPRM_move_to_magneteinheit_B_110",
    "joint_names": [
        "shoulder_pan_joint",
        "shoulder_lift_joint",
        "elbow_joint",
        "wrist_1_joint",
        "wrist_2_joint",
        "wrist_3_joint"
    ],
    "metrics": {
        "cart_traj_len": 3.614251681037463,
        "distance_elbow_joint": 5.0208447916326655,
        "distance_shoulder_lift_joint": 0.7684242761944975,
        "distance_shoulder_pan_joint": 3.0830188829979615,
        "distance_wrist_1_joint": 4.439718412372393,
        "distance_wrist_2_joint": 1.3644429197665318,
        "distance_wrist_3_joint": 3.1448649339957875,
        "smoothness": 0.22293110768796742,
        "time": 0.3347829,
        "traj_len": 4.221529843191901,
        "weighted_distance": 5.469479446628384
    },
    "planner": "LazyPRM",
    "start": {
        "state": {
            "elbow_joint": 2.6216224122426386,
            "shoulder_lift_joint": -1.4174107377796124,
            "shoulder_pan_joint": 0.7066234856936794,
            "wrist_1_joint": 1.9546482284002225,
            "wrist_2_joint": -0.7096286983471962,
            "wrist_3_joint": 0.005740856962016249
        }
    },
    "waypoints": [
        {
            "positions": [
                0.7066234856936794,
                -1.4174107377796124,
                2.6216224122426386,
                1.9546482284002225,
                -0.7096286983471962,
                0.005740856962016249
            ]
        },
        {
            "positions": [
                0.42432308047216,
                -1.423654068742421,
                2.597402644017356,
                1.9607541188600703,
                -0.7000427537197691,
                0.039308290148854924
            ]
        },
        {
            "positions": [
                0.14202267525064058,
                -1.4298973997052298,
                2.5731828757920736,
                1.9668600093199182,
                -0.6904568090923421,
                0.0728757233356936
            ]
        },
        {
            "positions": [
                0.20388332664041559,
                -1.4418956578450506,
                2.448920835980469,
                1.8722184504982842,
                -0.7058382542487476,
                0.15501621772854413
            ]
        },
        {
            "positions": [
                0.2657439780301906,
                -1.4538939159848716,
                2.324658796168865,
                1.7775768916766503,
                -0.7212196994051531,
                0.23715671212139466
            ]
        },
        {
            "positions": [
                0.3276046294199656,
                -1.4658921741246924,
                2.2003967563572604,
                1.6829353328550163,
                -0.7366011445615586,
                0.3192972065142452
            ]
        },
        {
            "positions": [
                0.38946528080974063,
                -1.4778904322645132,
                2.0761347165456563,
                1.5882937740333825,
                -0.7519825897179641,
                0.40143770090709574
            ]
        },
        {
            "positions": [
                0.45132593219951567,
                -1.4898886904043342,
                1.9518726767340517,
                1.4936522152117484,
                -0.7673640348743695,
                0.4835781952999463
            ]
        },
        {
            "positions": [
                0.5131865835892907,
                -1.501886948544155,
                1.8276106369224474,
                1.3990106563901143,
                -0.7827454800307749,
                0.5657186896927968
            ]
        },
        {
            "positions": [
                0.5750472349790657,
                -1.5138852066839759,
                1.703348597110843,
                1.3043690975684803,
                -0.7981269251871804,
                0.6478591840856474
            ]
        },
        {
            "positions": [
                0.6369078863688408,
                -1.5258834648237969,
                1.5790865572992385,
                1.2097275387468465,
                -0.8135083703435859,
                0.7299996784784979
            ]
        },
        {
            "positions": [
                0.6987685377586158,
                -1.5378817229636177,
                1.4548245174876344,
                1.1150859799252124,
                -0.8288898154999914,
                0.8121401728713484
            ]
        },
        {
            "positions": [
                0.7606291891483908,
                -1.5498799811034387,
                1.3305624776760299,
                1.0204444211035786,
                -0.8442712606563969,
                0.894280667264199
            ]
        },
        {
            "positions": [
                0.8224898405381659,
                -1.5618782392432595,
                1.2063004378644255,
                0.9258028622819445,
                -0.8596527058128024,
                0.9764211616570495
            ]
        },
        {
            "positions": [
                0.8843504919279408,
                -1.5738764973830803,
                1.0820383980528212,
                0.8311613034603105,
                -0.8750341509692079,
                1.0585616560499
            ]
        },
        {
            "positions": [
                0.9462111433177158,
                -1.5858747555229014,
                0.9577763582412169,
                0.7365197446386766,
                -0.8904155961256134,
                1.1407021504427506
            ]
        },
        {
            "positions": [
                1.0080717947074909,
                -1.5978730136627222,
                0.8335143184296125,
                0.6418781858170426,
                -0.9057970412820189,
                1.2228426448356011
            ]
        },
        {
            "positions": [
                1.069932446097266,
                -1.609871271802543,
                0.7092522786180082,
                0.5472366269954085,
                -0.9211784864384243,
                1.3049831392284517
            ]
        },
        {
            "positions": [
                1.131793097487041,
                -1.621869529942364,
                0.5849902388064037,
                0.4525950681737747,
                -0.9365599315948299,
                1.3871236336213022
            ]
        },
        {
            "positions": [
                1.193653748876816,
                -1.6338677880821848,
                0.46072819899479933,
                0.35795350935214065,
                -0.9519413767512352,
                1.4692641280141527
            ]
        },
        {
            "positions": [
                1.255514400266591,
                -1.6458660462220056,
                0.3364661591831952,
                0.2633119505305066,
                -0.9673228219076407,
                1.5514046224070033
            ]
        },
        {
            "positions": [
                1.3173750516563658,
                -1.6578643043618266,
                0.21220411937159067,
                0.168670391708873,
                -0.9827042670640462,
                1.6335451167998538
            ]
        },
        {
            "positions": [
                1.379235703046141,
                -1.6698625625016474,
                0.08794207955998612,
                0.07402883288723872,
                -0.9980857122204517,
                1.7156856111927044
            ]
        },
        {
            "positions": [
                1.4410963544359159,
                -1.6818608206414682,
                -0.03631996025161799,
                -0.020612725934395115,
                -1.0134671573768572,
                1.797826105585555
            ]
        },
        {
            "positions": [
                1.5029570058256911,
                -1.6938590787812893,
                -0.16058200006322254,
                -0.11525428475602917,
                -1.0288486025332628,
                1.8799665999784054
            ]
        },
        {
            "positions": [
                1.564817657215466,
                -1.70585733692111,
                -0.28484403987482665,
                -0.20989584357766278,
                -1.0442300476896682,
                1.962107094371256
            ]
        },
        {
            "positions": [
                1.626678308605241,
                -1.7178555950609309,
                -0.4091060796864312,
                -0.3045374023992973,
                -1.0596114928460736,
                2.0442475887641067
            ]
        },
        {
            "positions": [
                1.688538959995016,
                -1.729853853200752,
                -0.5333681194980353,
                -0.3991789612209309,
                -1.0749929380024792,
                2.1263880831569573
            ]
        },
        {
            "positions": [
                1.750399611384791,
                -1.7418521113405727,
                -0.6576301593096399,
                -0.49382052004256494,
                -1.0903743831588846,
                2.208528577549808
            ]
        },
        {
            "positions": [
                1.812260262774566,
                -1.7538503694803937,
                -0.781892199121244,
                -0.588462078864199,
                -1.10575582831529,
                2.2906690719426583
            ]
        },
        {
            "positions": [
                1.8741209141643411,
                -1.7658486276202146,
                -0.9061542389328485,
                -0.683103637685833,
                -1.1211372734716956,
                2.372809566335509
            ]
        },
        {
            "positions": [
                1.9359815655541162,
                -1.7778468857600354,
                -1.0304162787444526,
                -0.7777451965074667,
                -1.1365187186281012,
                2.4549500607283594
            ]
        },
        {
            "positions": [
                1.9978422169438912,
                -1.7898451438998564,
                -1.1546783185560572,
                -0.8723867553291011,
                -1.1519001637845065,
                2.53709055512121
            ]
        },
        {
            "positions": [
                2.059702868333666,
                -1.8018434020396772,
                -1.2789403583676617,
                -0.9670283141507348,
                -1.167281608940912,
                2.6192310495140605
            ]
        },
        {
            "positions": [
                2.1215635197234413,
                -1.813841660179498,
                -1.4032023981792663,
                -1.0616698729723688,
                -1.1826630540973175,
                2.701371543906911
            ]
        },
        {
            "positions": [
                2.183424171113216,
                -1.825839918319319,
                -1.5274644379908704,
                -1.1563114317940029,
                -1.198044499253723,
                2.7835120382997616
            ]
        },
        {
            "positions": [
                2.2452848225029913,
                -1.8378381764591398,
                -1.651726477802475,
                -1.250952990615637,
                -1.2134259444101285,
                2.865652532692612
            ]
        },
        {
            "positions": [
                2.307145473892766,
                -1.8498364345989606,
                -1.7759885176140786,
                -1.3455945494372705,
                -1.228807389566534,
                2.9477930270854626
            ]
        },
        {
            "positions": [
                2.3690061252825414,
                -1.8618346927387817,
                -1.9002505574256832,
                -1.440236108258905,
                -1.2441888347229395,
                3.029933521478313
            ]
        },
        {
            "positions": [
                2.430866776672316,
                -1.8738329508786025,
                -2.024512597237288,
                -1.5348776670805389,
                -1.259570279879345,
                3.1120740158711637
            ]
        },
        {
            "positions": [
                2.4641055030261136,
                -1.9133529625375638,
                -1.9992717584004436,
                -1.6584300306734063,
                -1.1798497127855223,
                3.121545929956883
            ]
        },
        {
            "positions": [
                2.4973442293799106,
                -1.952872974196525,
                -1.974030919563599,
                -1.781982394266274,
                -1.1001291456917,
                3.131017844042602
            ]
        },
        {
            "positions": [
                2.530582955733708,
                -1.9923929858554863,
                -1.9487900807267544,
                -1.9055347578591415,
                -1.0204085785978774,
                3.1404897581283215
            ]
        },
        {
            "positions": [
                2.5638216820875055,
                -2.0319129975144476,
                -1.9235492418899098,
                -2.029087121452009,
                -0.9406880115040548,
                3.1499616722140407
            ]
        },
        {
            "positions": [
                2.5879764485170194,
                -2.070393501629363,
                -1.85511263518857,
                -2.136976996622202,
                -0.8263691886667087,
                3.1498006425281
            ]
        },
        {
            "positions": [
                2.6121312149465337,
                -2.108874005744279,
                -1.7866760284872303,
                -2.2448668717923947,
                -0.7120503658293627,
                3.149639612842159
            ]
        },
        {
            "positions": [
                2.636285981376048,
                -2.1473545098591944,
                -1.7182394217858905,
                -2.352756746962587,
                -0.5977315429920166,
                3.149478583156218
            ]
        },
        {
            "positions": [
                2.660440747805562,
                -2.18583501397411,
                -1.6498028150845507,
                -2.46064662213278,
                -0.4834127201546705,
                3.1493175534702775
            ]
        }
    ]
}