{
    "goal": {
        "global_pose": {
            "orientation": {
                "w": -0.4816463035849501,
                "x": 0.5182115481033762,
                "y": 0.4908360881923453,
                "z": -0.5084816262002911
            },
            "position": {
                "x": -0.8240239810943604,
                "y": -0.300875300988555,
                "z": 0.16403168439865112
            }
        },
        "name": "move_to_storage_C"
    },
    "id": "LazyPRM_move_to_storage_C_70",
    "joint_names": [
        "shoulder_pan_joint",
        "shoulder_lift_joint",
        "elbow_joint",
        "wrist_1_joint",
        "wrist_2_joint",
        "wrist_3_joint"
    ],
    "metrics": {
        "cart_traj_len": 0.576992578692327,
        "distance_elbow_joint": 0.25991862174528935,
        "distance_shoulder_lift_joint": 0.19076748941437627,
        "distance_shoulder_pan_joint": 0.4944568118374919,
        "distance_wrist_1_joint": 0.08036328935250125,
        "distance_wrist_2_joint": 1.0678400644867923,
        "distance_wrist_3_joint": 0.07227794530267051,
        "smoothness": 2.5376526478085547e-16,
        "time": 0.011718193,
        "traj_len": 1.4716060009863787,
        "weighted_distance": 1.859672946134281
    },
    "planner": "LazyPRM",
    "start": {
        "state": {
            "elbow_joint": 2.010868314990456,
            "shoulder_lift_joint": -1.1634956873337592,
            "shoulder_pan_joint": -2.4736205022346125,
            "wrist_1_joint": -0.8367026794202681,
            "wrist_2_joint": 0.6746043897044499,
            "wrist_3_joint": -3.1496632123970403
        }
    },
    "waypoints": [
        {
            "positions": [
                -2.4736205022346125,
                -1.1634956873337592,
                2.010868314990456,
                -0.8367026794202681,
                0.6746043897044499,
                -3.1496632123970403
            ]
        },
        {
            "positions": [
                -2.5560299708741945,
                -1.1317011057646964,
                1.9675485446995742,
                -0.8233087978615179,
                0.852577733785582,
                -3.1376168881799287
            ]
        },
        {
            "positions": [
                -2.6384394395137765,
                -1.0999065241956338,
                1.9242287744086928,
                -0.8099149163027677,
                1.030551077866714,
                -3.1255705639628166
            ]
        },
        {
            "positions": [
                -2.7208489081533584,
                -1.068111942626571,
                1.8809090041178111,
                -0.7965210347440175,
                1.2085244219478462,
                -3.113524239745705
            ]
        },
        {
            "positions": [
                -2.8032583767929404,
                -1.0363173610575083,
                1.8375892338269295,
                -0.7831271531852673,
                1.386497766028978,
                -3.1014779155285934
            ]
        },
        {
            "positions": [
                -2.8856678454325224,
                -1.0045227794884457,
                1.794269463536048,
                -0.7697332716265171,
                1.56447111011011,
                -3.0894315913114814
            ]
        },
        {
            "positions": [
                -2.9680773140721044,
                -0.9727281979193829,
                1.7509496932451665,
                -0.7563393900677668,
                1.7424444541912423,
                -3.0773852670943698
            ]
        }
    ]
}