{
    "goal": {
        "global_pose": {
            "orientation": {
                "w": -0.00223480608172531,
                "x": 0.0024358444001904467,
                "y": 0.7094548369677653,
                "z": -0.704743149386269
            },
            "position": {
                "x": -0.37947507619857795,
                "y": -0.6371506643295288,
                "z": 0.19426114857196808
            }
        },
        "name": "move_to_magneteinheit_C"
    },
    "id": "LazyPRMstar_move_to_magneteinheit_C_24",
    "joint_names": [
        "shoulder_pan_joint",
        "shoulder_lift_joint",
        "elbow_joint",
        "wrist_1_joint",
        "wrist_2_joint",
        "wrist_3_joint"
    ],
    "metrics": {
        "cart_traj_len": 0.6682726071828337,
        "distance_elbow_joint": 0.7997516513140774,
        "distance_shoulder_lift_joint": 0.6069053514717626,
        "distance_shoulder_pan_joint": 0.8020899238958699,
        "distance_wrist_1_joint": 0.34781642904802856,
        "distance_wrist_2_joint": 1.009866748317854,
        "distance_wrist_3_joint": 0.18713403664595152,
        "smoothness": 1.1072920832802262,
        "time": 5.0131451380000005,
        "traj_len": 1.9374117117157994,
        "weighted_distance": 2.3421177150927597
    },
    "planner": "LazyPRMstar",
    "start": {
        "state": {
            "elbow_joint": 1.9565354010623817,
            "shoulder_lift_joint": -1.4165861575791021,
            "shoulder_pan_joint": -1.6717766225146293,
            "wrist_1_joint": -0.5286633292919765,
            "wrist_2_joint": 1.472756589071564,
            "wrist_3_joint": -3.1238370188695823
        }
    },
    "waypoints": [
        {
            "positions": [
                -1.6717766225146293,
                -1.4165861575791021,
                1.9565354010623817,
                -0.5286633292919765,
                1.472756589071564,
                -3.1238370188695823
            ]
        },
        {
            "positions": [
                -1.7982900460516595,
                -1.4606958475493934,
                2.0630604417521385,
                -0.5239166721054231,
                1.498172375627428,
                -3.1038793771099096
            ]
        },
        {
            "positions": [
                -1.92480346958869,
                -1.5048055375196845,
                2.169585482441895,
                -0.5191700149188697,
                1.5235881621832923,
                -3.0839217353502364
            ]
        },
        {
            "positions": [
                -2.05131689312572,
                -1.5489152274899758,
                2.276110523131652,
                -0.5144233577323163,
                1.5490039487391565,
                -3.063964093590563
            ]
        },
        {
            "positions": [
                -2.1778303166627504,
                -1.593024917460267,
                2.3826355638214087,
                -0.509676700545763,
                1.5744197352950207,
                -3.0440064518308905
            ]
        },
        {
            "positions": [
                -2.2296839571466727,
                -1.528623563330512,
                2.340094608112456,
                -0.5851427743170453,
                1.444739198301301,
                -3.0652957194103716
            ]
        },
        {
            "positions": [
                -2.2815375976305945,
                -1.464222209200757,
                2.297553652403503,
                -0.6606088480883276,
                1.3150586613075812,
                -3.0865849869898527
            ]
        },
        {
            "positions": [
                -2.3333912381145163,
                -1.399820855071002,
                2.25501269669455,
                -0.7360749218596099,
                1.1853781243138617,
                -3.107874254569334
            ]
        },
        {
            "positions": [
                -2.3852448785984386,
                -1.335419500941247,
                2.212471740985597,
                -0.8115409956308922,
                1.055697587320142,
                -3.129163522148815
            ]
        },
        {
            "positions": [
                -2.414785434535792,
                -1.2777991092507213,
                2.1446425190791842,
                -0.8205294973697875,
                0.925870435946969,
                -3.13654565524526
            ]
        },
        {
            "positions": [
                -2.444325990473146,
                -1.2201787175601952,
                2.0768132971727713,
                -0.8295179991086827,
                0.7960432845737961,
                -3.143927788341705
            ]
        },
        {
            "positions": [
                -2.473866546410499,
                -1.1625583258696695,
                2.0089840752663584,
                -0.838506500847578,
                0.6662161332006232,
                -3.15130992143815
            ]
        }
    ]
}