{
    "goal": {
        "global_pose": {
            "orientation": {
                "w": 0.7031023502349854,
                "x": -0.7110244035720825,
                "y": 0.007748599164187908,
                "z": 0.005598929710686207
            },
            "position": {
                "x": 0.11585023208521307,
                "y": 0.44412534475326537,
                "z": 0.3711530566215515
            }
        },
        "name": "move_to_auspresseinheit_A"
    },
    "id": "LazyPRMstar_move_to_auspresseinheit_A_70",
    "joint_names": [
        "shoulder_pan_joint",
        "shoulder_lift_joint",
        "elbow_joint",
        "wrist_1_joint",
        "wrist_2_joint",
        "wrist_3_joint"
    ],
    "metrics": {
        "cart_traj_len": 0.6631112191279254,
        "distance_elbow_joint": 0.0458493853488271,
        "distance_shoulder_lift_joint": 0.5385631964353865,
        "distance_shoulder_pan_joint": 1.0460932511163947,
        "distance_wrist_1_joint": 0.7277568887499144,
        "distance_wrist_2_joint": 0.5534934524368894,
        "distance_wrist_3_joint": 0.06815202391096653,
        "smoothness": 0.3093478977754014,
        "time": 5.011133448,
        "traj_len": 1.7262410602225806,
        "weighted_distance": 2.097012777025242
    },
    "planner": "LazyPRMstar",
    "start": {
        "state": {
            "elbow_joint": 2.4225746658250005,
            "shoulder_lift_joint": -1.3736534386056498,
            "shoulder_pan_joint": -0.3378633547517467,
            "wrist_1_joint": -1.0288598680537169,
            "wrist_2_joint": 1.233022673432363,
            "wrist_3_joint": -3.0940220416140027
        }
    },
    "waypoints": [
        {
            "positions": [
                -0.3378633547517467,
                -1.3736534386056498,
                2.4225746658250005,
                -1.0288598680537169,
                1.233022673432363,
                -3.0940220416140027
            ]
        },
        {
            "positions": [
                -0.2801472868984682,
                -1.4734023219132355,
                2.4257238918708226,
                -0.815221931373847,
                1.23994485415407,
                -3.089319092653574
            ]
        },
        {
            "positions": [
                -0.2224312190451897,
                -1.5731512052208214,
                2.4288731179166443,
                -0.6015839946939772,
                1.246867034875777,
                -3.0846161436931445
            ]
        },
        {
            "positions": [
                -0.16471515119191116,
                -1.672900088528407,
                2.4320223439624664,
                -0.3879460580141072,
                1.2537892155974841,
                -3.0799131947327156
            ]
        },
        {
            "positions": [
                0.009873858319400686,
                -1.720763397830933,
                2.424742002520194,
                -0.40531467375616814,
                1.1472438335431305,
                -3.0907218301386514
            ]
        },
        {
            "positions": [
                0.18446286783071253,
                -1.7686267071334587,
                2.417461661077922,
                -0.4226832894982291,
                1.0406984514887767,
                -3.1015304655445872
            ]
        },
        {
            "positions": [
                0.3590518773420244,
                -1.8164900164359847,
                2.4101813196356496,
                -0.4400519052402901,
                0.9341530694344231,
                -3.1123391009505235
            ]
        },
        {
            "positions": [
                0.5336408868533362,
                -1.8643533257385105,
                2.4029009781933777,
                -0.45742052098235103,
                0.8276076873800695,
                -3.1231477363564593
            ]
        },
        {
            "positions": [
                0.7082298963646481,
                -1.9122166350410363,
                2.3956206367511053,
                -0.474789136724412,
                0.7210623053257158,
                -3.133956371762395
            ]
        }
    ]
}