{
    "goal": {
        "global_pose": {
            "orientation": {
                "w": -0.4816463035849501,
                "x": 0.5182115481033762,
                "y": 0.4908360881923453,
                "z": -0.5084816262002911
            },
            "position": {
                "x": -0.8240239810943604,
                "y": 0.19912469901144506,
                "z": 0.16403168439865112
            }
        },
        "name": "move_to_storage_D"
    },
    "id": "LazyPRMstar_move_to_storage_D_107",
    "joint_names": [
        "shoulder_pan_joint",
        "shoulder_lift_joint",
        "elbow_joint",
        "wrist_1_joint",
        "wrist_2_joint",
        "wrist_3_joint"
    ],
    "metrics": {
        "cart_traj_len": 3.702791563593235,
        "distance_elbow_joint": 4.214360395150011,
        "distance_shoulder_lift_joint": 1.2639033248530152,
        "distance_shoulder_pan_joint": 2.814442959191964,
        "distance_wrist_1_joint": 2.2951184998756546,
        "distance_wrist_2_joint": 0.8838686596724116,
        "distance_wrist_3_joint": 3.1309827530470447,
        "smoothness": 0.056853127424707627,
        "time": 5.066918201,
        "traj_len": 3.8213448669009322,
        "weighted_distance": 4.903430356131537
    },
    "planner": "LazyPRMstar",
    "start": {
        "state": {
            "elbow_joint": -2.384821988534728,
            "shoulder_lift_joint": -2.2788054721415256,
            "shoulder_pan_joint": -0.1854694642142757,
            "wrist_1_joint": 1.4845938289331202,
            "wrist_2_joint": 0.17898776772866878,
            "wrist_3_joint": 0.037105688729662994
        }
    },
    "waypoints": [
        {
            "positions": [
                -0.1854694642142757,
                -2.2788054721415256,
                -2.384821988534728,
                1.4845938289331202,
                0.17898776772866878,
                0.037105688729662994
            ]
        },
        {
            "positions": [
                -0.1706563104091895,
                -2.2737412624202333,
                -2.3398839676592518,
                1.491089183751425,
                0.1833391177200448,
                0.03960965876437708
            ]
        },
        {
            "positions": [
                -0.08648232429678562,
                -2.239363613489452,
                -2.2201766112265777,
                1.4325158940268186,
                0.1994539242898615,
                -0.03790492878218485
            ]
        },
        {
            "positions": [
                -0.002308338184381753,
                -2.204985964558671,
                -2.1004692547939032,
                1.3739426043022118,
                0.2155687308596782,
                -0.11541951632874678
            ]
        },
        {
            "positions": [
                0.08186564792802209,
                -2.1706083156278897,
                -1.9807618983612292,
                1.3153693145776053,
                0.2316835374294949,
                -0.1929341038753087
            ]
        },
        {
            "positions": [
                0.166039634040426,
                -2.1362306666971085,
                -1.8610545419285551,
                1.2567960248529988,
                0.2477983439993116,
                -0.27044869142187067
            ]
        },
        {
            "positions": [
                0.2502136201528299,
                -2.1018530177663273,
                -1.7413471854958806,
                1.198222735128392,
                0.2639131505691283,
                -0.3479632789684326
            ]
        },
        {
            "positions": [
                0.33438760626523367,
                -2.067475368835546,
                -1.6216398290632066,
                1.1396494454037855,
                0.280027957138945,
                -0.42547786651499453
            ]
        },
        {
            "positions": [
                0.4185615923776377,
                -2.033097719904765,
                -1.5019324726305325,
                1.0810761556791788,
                0.2961427637087617,
                -0.5029924540615565
            ]
        },
        {
            "positions": [
                0.5027355784900415,
                -1.9987200709739836,
                -1.3822251161978583,
                1.0225028659545723,
                0.31225757027857837,
                -0.5805070416081184
            ]
        },
        {
            "positions": [
                0.5869095646024454,
                -1.9643424220432022,
                -1.262517759765184,
                0.9639295762299657,
                0.3283723768483951,
                -0.6580216291546803
            ]
        },
        {
            "positions": [
                0.6710835507148493,
                -1.929964773112421,
                -1.1428104033325097,
                0.905356286505359,
                0.34448718341821183,
                -0.7355362167012423
            ]
        },
        {
            "positions": [
                0.755257536827253,
                -1.8955871241816398,
                -1.0231030468998357,
                0.8467829967807525,
                0.3606019899880285,
                -0.8130508042478042
            ]
        },
        {
            "positions": [
                0.8394315229396568,
                -1.8612094752508586,
                -0.9033956904671616,
                0.7882097070561459,
                0.3767167965578452,
                -0.8905653917943661
            ]
        },
        {
            "positions": [
                0.9236055090520608,
                -1.8268318263200773,
                -0.7836883340344873,
                0.7296364173315393,
                0.3928316031276619,
                -0.968079979340928
            ]
        },
        {
            "positions": [
                1.0077794951644647,
                -1.7924541773892961,
                -0.6639809776018131,
                0.6710631276069327,
                0.40894640969747864,
                -1.04559456688749
            ]
        },
        {
            "positions": [
                1.0919534812768688,
                -1.758076528458515,
                -0.5442736211691388,
                0.612489837882326,
                0.4250612162672953,
                -1.123109154434052
            ]
        },
        {
            "positions": [
                1.1761274673892723,
                -1.7236988795277337,
                -0.42456626473646475,
                0.5539165481577195,
                0.441176022837112,
                -1.2006237419806138
            ]
        },
        {
            "positions": [
                1.2603014535016763,
                -1.6893212305969525,
                -0.3048589083037907,
                0.495343258433113,
                0.45729082940692867,
                -1.2781383295271755
            ]
        },
        {
            "positions": [
                1.3444754396140803,
                -1.654943581666171,
                -0.1851515518711162,
                0.43676996870850626,
                0.4734056359767454,
                -1.3556529170737377
            ]
        },
        {
            "positions": [
                1.428649425726484,
                -1.62056593273539,
                -0.06544419543844215,
                0.37819667898389975,
                0.4895204425465621,
                -1.4331675046202996
            ]
        },
        {
            "positions": [
                1.512823411838888,
                -1.5861882838046086,
                0.05426316099423234,
                0.319623389259293,
                0.5056352491163788,
                -1.5106820921668616
            ]
        },
        {
            "positions": [
                1.596997397951292,
                -1.5518106348738274,
                0.1739705174269064,
                0.2610500995346865,
                0.5217500556861955,
                -1.5881966797134235
            ]
        },
        {
            "positions": [
                1.6811713840636955,
                -1.5174329859430462,
                0.29367787385958044,
                0.20247680981007998,
                0.5378648622560123,
                -1.6657112672599854
            ]
        },
        {
            "positions": [
                1.7653453701760995,
                -1.483055337012265,
                0.4133852302922545,
                0.14390352008547325,
                0.5539796688258289,
                -1.7432258548065473
            ]
        },
        {
            "positions": [
                1.849519356288503,
                -1.4486776880814838,
                0.5330925867249285,
                0.08533023036086673,
                0.5700944753956456,
                -1.8207404423531093
            ]
        },
        {
            "positions": [
                1.933693342400907,
                -1.4143000391507026,
                0.6527999431576026,
                0.026756940636260218,
                0.5862092819654623,
                -1.898255029899671
            ]
        },
        {
            "positions": [
                2.017867328513311,
                -1.3799223902199214,
                0.7725072995902771,
                -0.03181634908834652,
                0.602324088535279,
                -1.9757696174462331
            ]
        },
        {
            "positions": [
                2.1020413146257146,
                -1.3455447412891401,
                0.8922146560229511,
                -0.09038963881295303,
                0.6184388951050956,
                -2.053284204992795
            ]
        },
        {
            "positions": [
                2.186215300738119,
                -1.311167092358359,
                1.0119220124556256,
                -0.14896292853755977,
                0.6345537016749124,
                -2.130798792539357
            ]
        },
        {
            "positions": [
                2.2703892868505227,
                -1.2767894434275777,
                1.1316293688882997,
                -0.2075362182621662,
                0.6506685082447291,
                -2.2083133800859187
            ]
        },
        {
            "positions": [
                2.31023197664243,
                -1.2476908549676813,
                1.2091748175246313,
                -0.273091523044806,
                0.6964671659287681,
                -2.3061529072150337
            ]
        },
        {
            "positions": [
                2.3500746664343373,
                -1.218592266507785,
                1.286720266160963,
                -0.3386468278274458,
                0.7422658236128071,
                -2.4039924343441488
            ]
        },
        {
            "positions": [
                2.3899173562262446,
                -1.1894936780478886,
                1.3642657147972945,
                -0.40420213261008564,
                0.7880644812968461,
                -2.5018319614732634
            ]
        },
        {
            "positions": [
                2.429760046018152,
                -1.1603950895879922,
                1.4418111634336261,
                -0.46975743739272546,
                0.8338631389808852,
                -2.5996714886023784
            ]
        },
        {
            "positions": [
                2.469602735810059,
                -1.131296501128096,
                1.5193566120699575,
                -0.5353127421753653,
                0.8796617966649243,
                -2.6975110157314934
            ]
        },
        {
            "positions": [
                2.5094454256019665,
                -1.1021979126681996,
                1.5969020607062892,
                -0.6008680469580051,
                0.9254604543489633,
                -2.795350542860608
            ]
        },
        {
            "positions": [
                2.549288115393874,
                -1.0730993242083031,
                1.6744475093426208,
                -0.6664233517406449,
                0.9712591120330023,
                -2.893190069989723
            ]
        },
        {
            "positions": [
                2.589130805185781,
                -1.044000735748407,
                1.7519929579789524,
                -0.7319786565232848,
                1.0170577697170413,
                -2.991029597118838
            ]
        },
        {
            "positions": [
                2.6289734949776884,
                -1.0149021472885105,
                1.829538406615284,
                -0.7975339613059246,
                1.0628564274010803,
                -3.088869124247953
            ]
        }
    ]
}