{
    "goal": {
        "global_pose": {
            "orientation": {
                "w": 0.5084816262002911,
                "x": -0.4908360881923452,
                "y": 0.5182115481033761,
                "z": -0.48164630358495003
            },
            "position": {
                "x": 0.5540239810943604,
                "y": -0.46912469901144505,
                "z": 0.16403168439865112
            }
        },
        "name": "move_to_storage_B"
    },
    "id": "LazyPRM_move_to_storage_B_44",
    "joint_names": [
        "shoulder_pan_joint",
        "shoulder_lift_joint",
        "elbow_joint",
        "wrist_1_joint",
        "wrist_2_joint",
        "wrist_3_joint"
    ],
    "metrics": {
        "cart_traj_len": 0.8878096652444536,
        "distance_elbow_joint": 0.6031693216110785,
        "distance_shoulder_lift_joint": 0.4589594647170865,
        "distance_shoulder_pan_joint": 0.7031927576110194,
        "distance_wrist_1_joint": 3.057483913921506,
        "distance_wrist_2_joint": 2.7092719542073214,
        "distance_wrist_3_joint": 3.527950873715504,
        "smoothness": 0.45789769280155057,
        "time": 0.166141344,
        "traj_len": 3.3256620823203784,
        "weighted_distance": 4.886991497981489
    },
    "planner": "LazyPRM",
    "start": {
        "state": {
            "elbow_joint": 1.664937868594044,
            "shoulder_lift_joint": -0.661644460510453,
            "shoulder_pan_joint": -0.9139846352900073,
            "wrist_1_joint": 2.146753192139373,
            "wrist_2_joint": -2.2341966793290973,
            "wrist_3_joint": 0.005466555786416001
        }
    },
    "waypoints": [
        {
            "positions": [
                -0.9139846352900073,
                -0.661644460510453,
                1.664937868594044,
                2.146753192139373,
                -2.2341966793290973,
                0.005466555786416001
            ]
        },
        {
            "positions": [
                -0.7835966181999916,
                -0.7216356839705403,
                1.6012433219569862,
                2.1658333971032064,
                -2.2172112825915287,
                0.10254355984822139
            ]
        },
        {
            "positions": [
                -0.653208601109976,
                -0.7816269074306277,
                1.5375487753199284,
                2.184913602067039,
                -2.2002258858539596,
                0.19962056391002678
            ]
        },
        {
            "positions": [
                -0.6702246289342448,
                -0.7946644850382012,
                1.55584801487135,
                2.068785774990353,
                -2.0973296873642604,
                0.0713976075411078
            ]
        },
        {
            "positions": [
                -0.6872406567585135,
                -0.8077020626457747,
                1.5741472544227717,
                1.952657947913667,
                -1.994433488874561,
                -0.05682534882781118
            ]
        },
        {
            "positions": [
                -0.7042566845827823,
                -0.8207396402533482,
                1.5924464939741934,
                1.8365301208369806,
                -1.8915372903848615,
                -0.18504830519673018
            ]
        },
        {
            "positions": [
                -0.7212727124070512,
                -0.8337772178609218,
                1.610745733525615,
                1.7204022937602945,
                -1.788641091895162,
                -0.3132712615656491
            ]
        },
        {
            "positions": [
                -0.7382887402313199,
                -0.8468147954684954,
                1.6290449730770367,
                1.6042744666836084,
                -1.6857448934054626,
                -0.4414942179345681
            ]
        },
        {
            "positions": [
                -0.7553047680555887,
                -0.8598523730760689,
                1.6473442126284583,
                1.4881466396069223,
                -1.5828486949157634,
                -0.5697171743034871
            ]
        },
        {
            "positions": [
                -0.7723207958798575,
                -0.8728899506836424,
                1.66564345217988,
                1.3720188125302362,
                -1.4799524964260642,
                -0.6979401306724059
            ]
        },
        {
            "positions": [
                -0.7893368237041263,
                -0.8859275282912159,
                1.6839426917313016,
                1.2558909854535498,
                -1.3770562979363645,
                -0.826163087041325
            ]
        },
        {
            "positions": [
                -0.806352851528395,
                -0.8989651058987894,
                1.7022419312827233,
                1.139763158376864,
                -1.2741600994466653,
                -0.9543860434102438
            ]
        },
        {
            "positions": [
                -0.8233688793526638,
                -0.912002683506363,
                1.720541170834145,
                1.0236353313001776,
                -1.1712639009569659,
                -1.082608999779163
            ]
        },
        {
            "positions": [
                -0.8403849071769325,
                -0.9250402611139366,
                1.7388404103855666,
                0.9075075042234915,
                -1.0683677024672664,
                -1.2108319561480818
            ]
        },
        {
            "positions": [
                -0.8574009350012013,
                -0.9380778387215101,
                1.7571396499369882,
                0.7913796771468053,
                -0.965471503977567,
                -1.339054912517001
            ]
        },
        {
            "positions": [
                -0.8744169628254701,
                -0.9511154163290836,
                1.7754388894884099,
                0.6752518500701192,
                -0.8625753054878678,
                -1.4672778688859198
            ]
        },
        {
            "positions": [
                -0.8914329906497389,
                -0.9641529939366571,
                1.7937381290398315,
                0.5591240229934331,
                -0.7596791069981685,
                -1.5955008252548386
            ]
        },
        {
            "positions": [
                -0.9084490184740076,
                -0.9771905715442306,
                1.8120373685912532,
                0.442996195916747,
                -0.6567829085084691,
                -1.7237237816237576
            ]
        },
        {
            "positions": [
                -0.9254650462982764,
                -0.9902281491518041,
                1.8303366081426748,
                0.32686836884006065,
                -0.5538867100187697,
                -1.8519467379926768
            ]
        },
        {
            "positions": [
                -0.9424810741225452,
                -1.0032657267593776,
                1.8486358476940965,
                0.21074054176337453,
                -0.4509905115290702,
                -1.9801696943615956
            ]
        },
        {
            "positions": [
                -0.9594971019468139,
                -1.0163033043669512,
                1.8669350872455182,
                0.09461271468668864,
                -0.348094313039371,
                -2.1083926507305146
            ]
        },
        {
            "positions": [
                -0.9765131297710827,
                -1.0293408819745247,
                1.8852343267969398,
                -0.021515112389997704,
                -0.24519811454967155,
                -2.236615607099434
            ]
        },
        {
            "positions": [
                -0.9935291575953515,
                -1.0423784595820984,
                1.9035335663483615,
                -0.13764293946668404,
                -0.1423019160599721,
                -2.364838563468353
            ]
        },
        {
            "positions": [
                -1.0105451854196204,
                -1.055416037189672,
                1.9218328058997831,
                -0.25377076654336994,
                -0.03940571757027289,
                -2.493061519837272
            ]
        },
        {
            "positions": [
                -1.0275612132438892,
                -1.0684536147972454,
                1.9401320454512048,
                -0.3698985936200563,
                0.06349048091942677,
                -2.6212844762061907
            ]
        },
        {
            "positions": [
                -1.0445772410681577,
                -1.081491192404819,
                1.9584312850026264,
                -0.4860264206967422,
                0.166386679409126,
                -2.7495074325751094
            ]
        },
        {
            "positions": [
                -1.0615932688924268,
                -1.0945287700123925,
                1.976730524554048,
                -0.6021542477734285,
                0.26928287789882566,
                -2.877730388944029
            ]
        },
        {
            "positions": [
                -1.0786092967166954,
                -1.107566347619966,
                1.9950297641054697,
                -0.7182820748501149,
                0.3721790763885249,
                -3.005953345312948
            ]
        },
        {
            "positions": [
                -1.0956253245409642,
                -1.1206039252275395,
                2.0133290036568914,
                -0.8344099019268008,
                0.47507527487822404,
                -3.1341763016818667
            ]
        }
    ]
}