{
    "goal": {
        "global_pose": {
            "orientation": {
                "w": 0.7031023502349854,
                "x": -0.7110244035720825,
                "y": 0.007748599164187908,
                "z": 0.005598929710686207
            },
            "position": {
                "x": 0.11585023208521307,
                "y": 0.44412534475326537,
                "z": 0.3711530566215515
            }
        },
        "name": "move_to_auspresseinheit_A"
    },
    "id": "LazyPRMstar_move_to_auspresseinheit_A_21",
    "joint_names": [
        "shoulder_pan_joint",
        "shoulder_lift_joint",
        "elbow_joint",
        "wrist_1_joint",
        "wrist_2_joint",
        "wrist_3_joint"
    ],
    "metrics": {
        "cart_traj_len": 3.942926860158182,
        "distance_elbow_joint": 4.262216424119828,
        "distance_shoulder_lift_joint": 1.0363614319474166,
        "distance_shoulder_pan_joint": 2.0177828237001387,
        "distance_wrist_1_joint": 4.826111069602518,
        "distance_wrist_2_joint": 3.1430050907537543,
        "distance_wrist_3_joint": 9.760497551608262,
        "smoothness": 0.6107770851572956,
        "time": 5.100563645,
        "traj_len": 5.004595327469736,
        "weighted_distance": 7.248178092134927
    },
    "planner": "LazyPRMstar",
    "start": {
        "state": {
            "elbow_joint": 2.4225746658250005,
            "shoulder_lift_joint": -1.3736534386056498,
            "shoulder_pan_joint": -0.3378633547517467,
            "wrist_1_joint": -1.0288598680537169,
            "wrist_2_joint": 1.233022673432363,
            "wrist_3_joint": -3.0940220416140027
        }
    },
    "waypoints": [
        {
            "positions": [
                -0.3378633547517467,
                -1.3736534386056498,
                2.4225746658250005,
                -1.0288598680537169,
                1.233022673432363,
                -3.0940220416140027
            ]
        },
        {
            "positions": [
                -0.22850017797700606,
                -1.4084819440314742,
                2.269428266588102,
                -1.0655428913840284,
                1.1968106625812251,
                -3.1196055421167377
            ]
        },
        {
            "positions": [
                -0.11913700120226542,
                -1.4433104494572986,
                2.116281867351203,
                -1.10222591471434,
                1.1605986517300875,
                -3.145189042619472
            ]
        },
        {
            "positions": [
                -0.00977382442752478,
                -1.478138954883123,
                1.963135468114304,
                -1.1389089380446515,
                1.1243866408789496,
                -3.170772543122207
            ]
        },
        {
            "positions": [
                0.09958935234721589,
                -1.5129674603089474,
                1.8099890688774054,
                -1.175591961374963,
                1.0881746300278117,
                -3.1963560436249416
            ]
        },
        {
            "positions": [
                0.20895252912195655,
                -1.5477959657347717,
                1.6568426696405065,
                -1.2122749847052745,
                1.051962619176674,
                -3.2219395441276766
            ]
        },
        {
            "positions": [
                0.31831570589669717,
                -1.5826244711605961,
                1.5036962704036079,
                -1.2489580080355862,
                1.015750608325536,
                -3.247523044630411
            ]
        },
        {
            "positions": [
                0.4276788826714379,
                -1.6174529765864205,
                1.350549871166709,
                -1.2856410313658977,
                0.9795385974743983,
                -3.273106545133146
            ]
        },
        {
            "positions": [
                0.5370420594461784,
                -1.652281482012245,
                1.1974034719298103,
                -1.3223240546962092,
                0.9433265866232605,
                -3.298690045635881
            ]
        },
        {
            "positions": [
                0.6464052362209194,
                -1.6871099874380693,
                1.0442570726929112,
                -1.3590070780265209,
                0.9071145757721226,
                -3.3242735461386155
            ]
        },
        {
            "positions": [
                0.7557684129956599,
                -1.7219384928638937,
                0.8911106734560126,
                -1.3956901013568324,
                0.8709025649209848,
                -3.3498570466413504
            ]
        },
        {
            "positions": [
                0.8651315897704006,
                -1.756766998289718,
                0.7379642742191139,
                -1.4323731246871438,
                0.834690554069847,
                -3.375440547144085
            ]
        },
        {
            "positions": [
                0.9744947665451411,
                -1.7915955037155424,
                0.5848178749822153,
                -1.4690561480174553,
                0.7984785432187093,
                -3.40102404764682
            ]
        },
        {
            "positions": [
                1.083857943319882,
                -1.8264240091413668,
                0.43167147574531617,
                -1.505739171347767,
                0.7622665323675714,
                -3.426607548149555
            ]
        },
        {
            "positions": [
                1.1932211200946226,
                -1.8612525145671912,
                0.2785250765084175,
                -1.5424221946780785,
                0.7260545215164336,
                -3.4521910486522893
            ]
        },
        {
            "positions": [
                1.188216953008707,
                -1.8719278113959956,
                0.3323064834764759,
                -1.4464880611422317,
                0.6787827202817086,
                -3.2784370485521213
            ]
        },
        {
            "positions": [
                1.1832127859227914,
                -1.8826031082248,
                0.38608789044453434,
                -1.3505539276063847,
                0.6315109190469838,
                -3.104683048451953
            ]
        },
        {
            "positions": [
                1.1782086188368759,
                -1.8932784050536045,
                0.43986929741259273,
                -1.254619794070538,
                0.5842391178122588,
                -2.9309290483517856
            ]
        },
        {
            "positions": [
                1.1732044517509603,
                -1.9039537018824089,
                0.4936507043806512,
                -1.1586856605346911,
                0.5369673165775339,
                -2.7571750482516175
            ]
        },
        {
            "positions": [
                1.1682002846650448,
                -1.9146289987112133,
                0.5474321113487095,
                -1.0627515269988441,
                0.489695515342809,
                -2.5834210481514495
            ]
        },
        {
            "positions": [
                1.1631961175791292,
                -1.9253042955400177,
                0.601213518316768,
                -0.9668173934629974,
                0.44242371410808407,
                -2.4096670480512814
            ]
        },
        {
            "positions": [
                1.1581919504932137,
                -1.9359795923688221,
                0.6549949252848264,
                -0.8708832599271505,
                0.39515191287335916,
                -2.2359130479511133
            ]
        },
        {
            "positions": [
                1.153187783407298,
                -1.9466548891976265,
                0.7087763322528848,
                -0.7749491263913038,
                0.34788011163863425,
                -2.0621590478509457
            ]
        },
        {
            "positions": [
                1.1481836163213825,
                -1.957330186026431,
                0.7625577392209433,
                -0.6790149928554567,
                0.3006083104039093,
                -1.8884050477507772
            ]
        },
        {
            "positions": [
                1.143179449235467,
                -1.9680054828552354,
                0.8163391461890016,
                -0.58308085931961,
                0.2533365091691844,
                -1.7146510476506094
            ]
        },
        {
            "positions": [
                1.1381752821495514,
                -1.9786807796840398,
                0.87012055315706,
                -0.48714672578376317,
                0.20606470793445952,
                -1.5408970475504413
            ]
        },
        {
            "positions": [
                1.1331711150636359,
                -1.989356076512844,
                0.9239019601251184,
                -0.3912125922479164,
                0.15879290669973456,
                -1.3671430474502735
            ]
        },
        {
            "positions": [
                1.1281669479777203,
                -2.0000313733416486,
                0.9776833670931769,
                -0.29527845871206937,
                0.1115211054650096,
                -1.1933890473501054
            ]
        },
        {
            "positions": [
                1.1231627808918048,
                -2.010706670170453,
                1.0314647740612353,
                -0.19934432517622258,
                0.06424930423028474,
                -1.0196350472499374
            ]
        },
        {
            "positions": [
                1.1181586138058892,
                -2.0213819669992574,
                1.0852461810292935,
                -0.10341019164037579,
                0.01697750299555989,
                -0.8458810471497693
            ]
        },
        {
            "positions": [
                1.1131544467199737,
                -2.0320572638280616,
                1.1390275879973522,
                -0.007476058104529004,
                -0.030294298239165074,
                -0.6721270470496017
            ]
        },
        {
            "positions": [
                1.108150279634058,
                -2.0427325606568663,
                1.1928089949654104,
                0.08845807543131778,
                -0.07756609947388993,
                -0.49837304694943363
            ]
        },
        {
            "positions": [
                1.1031461125481425,
                -2.0534078574856705,
                1.246590401933469,
                0.18439220896716502,
                -0.124837900708615,
                -0.3246190468492651
            ]
        },
        {
            "positions": [
                1.098141945462227,
                -2.064083154314475,
                1.3003718089015275,
                0.2803263425030118,
                -0.17210970194333985,
                -0.15086504674909706
            ]
        },
        {
            "positions": [
                1.0931377783763114,
                -2.0747584511432793,
                1.3541532158695857,
                0.3762604760388586,
                -0.21938150317806482,
                0.02288895335107055
            ]
        },
        {
            "positions": [
                1.0881336112903959,
                -2.085433747972084,
                1.4079346228376441,
                0.47219460957470516,
                -0.26665330441278967,
                0.1966429534512386
            ]
        },
        {
            "positions": [
                1.0831294442044803,
                -2.096109044800888,
                1.4617160298057026,
                0.5681287431105522,
                -0.3139251056475145,
                0.37039695355140667
            ]
        },
        {
            "positions": [
                1.0781252771185648,
                -2.1067843416296927,
                1.5154974367737608,
                0.6640628766463992,
                -0.3611969068822394,
                0.5441509536515743
            ]
        },
        {
            "positions": [
                1.0731211100326492,
                -2.117459638458497,
                1.5692788437418193,
                0.7599970101822457,
                -0.40846870811696445,
                0.7179049537517423
            ]
        },
        {
            "positions": [
                1.0681169429467336,
                -2.1281349352873016,
                1.623060250709878,
                0.8559311437180928,
                -0.4557405093516893,
                0.8916589538519109
            ]
        },
        {
            "positions": [
                1.063112775860818,
                -2.1388102321161058,
                1.6768416576779364,
                0.9518652772539398,
                -0.5030123105864144,
                1.0654129539520785
            ]
        },
        {
            "positions": [
                1.0581086087749025,
                -2.1494855289449104,
                1.7306230646459946,
                1.0477994107897863,
                -0.5502841118211392,
                1.239166954052247
            ]
        },
        {
            "positions": [
                1.053104441688987,
                -2.1601608257737146,
                1.784404471614053,
                1.1437335443256331,
                -0.5975559130558641,
                1.412920954152415
            ]
        },
        {
            "positions": [
                1.0373507293958901,
                -2.1488038237382896,
                1.8122357188730356,
                1.0698065895995221,
                -0.5379001628619766,
                1.20668383861763
            ]
        },
        {
            "positions": [
                1.021597017102793,
                -2.1374468217028646,
                1.8400669661320181,
                0.9958796348734109,
                -0.4782444126680891,
                1.0004467230828449
            ]
        },
        {
            "positions": [
                1.0058433048096962,
                -2.126089819667439,
                1.8678982133910005,
                0.9219526801472999,
                -0.4185886624742016,
                0.79420960754806
            ]
        },
        {
            "positions": [
                0.9900895925165991,
                -2.114732817632014,
                1.895729460649983,
                0.8480257254211887,
                -0.3589329122803141,
                0.5879724920132748
            ]
        },
        {
            "positions": [
                0.9743358802235023,
                -2.103375815596589,
                1.9235607079089656,
                0.7740987706950777,
                -0.29927716208642663,
                0.3817353764784899
            ]
        },
        {
            "positions": [
                0.9585821679304053,
                -2.092018813561164,
                1.9513919551679482,
                0.7001718159689666,
                -0.23962141189253916,
                0.17549826094370502
            ]
        },
        {
            "positions": [
                0.9428284556373083,
                -2.080661811525739,
                1.9792232024269307,
                0.6262448612428555,
                -0.1799656616986517,
                -0.030738854591080278
            ]
        },
        {
            "positions": [
                0.9270747433442114,
                -2.069304809490314,
                2.007054449685913,
                0.5523179065167444,
                -0.12030991150476417,
                -0.23697597012586535
            ]
        },
        {
            "positions": [
                0.9113210310511144,
                -2.0579478074548887,
                2.0348856969448956,
                0.4783909517906332,
                -0.06065416131087664,
                -0.44321308566065043
            ]
        },
        {
            "positions": [
                0.8955673187580174,
                -2.0465908054194637,
                2.062716944203878,
                0.4044639970645222,
                -0.000998411116989173,
                -0.6494502011954353
            ]
        },
        {
            "positions": [
                0.8798136064649205,
                -2.0352338033840387,
                2.0905481914628607,
                0.3305370423384111,
                0.058657339076898296,
                -0.8556873167302204
            ]
        },
        {
            "positions": [
                0.8640598941718235,
                -2.0238768013486137,
                2.1183794387218433,
                0.2566100876123001,
                0.11831308927078577,
                -1.061924432265005
            ]
        },
        {
            "positions": [
                0.8483061818787265,
                -2.0125197993131887,
                2.146210685980826,
                0.18268313288618887,
                0.17796883946467335,
                -1.2681615477997905
            ]
        },
        {
            "positions": [
                0.8325524695856296,
                -2.0011627972777633,
                2.1740419332398084,
                0.10875617816007788,
                0.2376245896585607,
                -1.4743986633345756
            ]
        },
        {
            "positions": [
                0.8167987572925326,
                -1.9898057952423385,
                2.201873180498791,
                0.03482922343396688,
                0.29728033985244817,
                -1.6806357788693602
            ]
        },
        {
            "positions": [
                0.8010450449994357,
                -1.9784487932069132,
                2.2297044277577736,
                -0.03909773129214433,
                0.35693609004633575,
                -1.8868728944041457
            ]
        },
        {
            "positions": [
                0.7852913327063387,
                -1.9670917911714882,
                2.2575356750167557,
                -0.11302468601825555,
                0.4165918402402231,
                -2.0931100099389304
            ]
        },
        {
            "positions": [
                0.7695376204132418,
                -1.955734789136063,
                2.2853669222757382,
                -0.18695164074436676,
                0.4762475904341108,
                -2.299347125473716
            ]
        },
        {
            "positions": [
                0.7537839081201447,
                -1.944377787100638,
                2.313198169534721,
                -0.26087859547047776,
                0.5359033406279983,
                -2.5055842410085005
            ]
        },
        {
            "positions": [
                0.7380301958270479,
                -1.933020785065213,
                2.3410294167937034,
                -0.33480555019658875,
                0.5955590908218857,
                -2.7118213565432856
            ]
        },
        {
            "positions": [
                0.7222764835339509,
                -1.9216637830297878,
                2.368860664052686,
                -0.40873250492269997,
                0.6552148410157732,
                -2.9180584720780707
            ]
        },
        {
            "positions": [
                0.7065227712408539,
                -1.9103067809943628,
                2.3966919113116685,
                -0.4826594596488109,
                0.7148705912096607,
                -3.1242955876128558
            ]
        }
    ]
}