{
    "goal": {
        "global_pose": {
            "orientation": {
                "w": 0.7047431468963623,
                "x": -0.7094548344612122,
                "y": 0.0024358443915843964,
                "z": -0.0022348060738295317
            },
            "position": {
                "x": 0.6094750761985779,
                "y": 0.3671506643295288,
                "z": 0.19426114857196808
            }
        },
        "name": "move_to_magneteinheit_A"
    },
    "id": "LazyPRM_move_to_magneteinheit_A_110",
    "joint_names": [
        "shoulder_pan_joint",
        "shoulder_lift_joint",
        "elbow_joint",
        "wrist_1_joint",
        "wrist_2_joint",
        "wrist_3_joint"
    ],
    "metrics": {
        "cart_traj_len": 3.0592706583540115,
        "distance_elbow_joint": 3.9130049712577,
        "distance_shoulder_lift_joint": 0.6979265793179725,
        "distance_shoulder_pan_joint": 3.1737249563460708,
        "distance_wrist_1_joint": 3.468885263033938,
        "distance_wrist_2_joint": 1.4380875065519527,
        "distance_wrist_3_joint": 0.4299257982163111,
        "smoothness": 0.10298556986098381,
        "time": 2.0131906219999998,
        "traj_len": 3.622368710488201,
        "weighted_distance": 4.346076327072784
    },
    "planner": "LazyPRM",
    "start": {
        "state": {
            "elbow_joint": -1.9196185241190666,
            "shoulder_lift_joint": -1.2443396400964142,
            "shoulder_pan_joint": 2.6996025414629847,
            "wrist_1_joint": -1.5485510000780065,
            "wrist_2_joint": -1.5709468930060704,
            "wrist_3_joint": 0.4420197071253992
        }
    },
    "waypoints": [
        {
            "positions": [
                2.6996025414629847,
                -1.2443396400964142,
                -1.9196185241190666,
                -1.5485510000780065,
                -1.5709468930060704,
                0.4420197071253992
            ]
        },
        {
            "positions": [
                2.5889999245458983,
                -1.2487808942950749,
                -1.7789342991479251,
                -1.4545056149795206,
                -1.5323052565974713,
                0.43734383286436895
            ]
        },
        {
            "positions": [
                2.4783973076288115,
                -1.2532221484937356,
                -1.6382500741767836,
                -1.3604602298810344,
                -1.4936636201888722,
                0.4326679586033388
            ]
        },
        {
            "positions": [
                2.367794690711725,
                -1.2576634026923963,
                -1.497565849205642,
                -1.2664148447825485,
                -1.4550219837802731,
                0.42799208434230857
            ]
        },
        {
            "positions": [
                2.2571920737946387,
                -1.262104656891057,
                -1.3568816242345003,
                -1.1723694596840626,
                -1.416380347371674,
                0.4233162100812784
            ]
        },
        {
            "positions": [
                2.1465894568775523,
                -1.2665459110897177,
                -1.2161973992633588,
                -1.0783240745855764,
                -1.377738710963075,
                0.4186403358202482
            ]
        },
        {
            "positions": [
                2.0359868399604655,
                -1.2709871652883784,
                -1.0755131742922173,
                -0.9842786894870905,
                -1.3390970745544757,
                0.413964461559218
            ]
        },
        {
            "positions": [
                1.925384223043379,
                -1.2754284194870393,
                -0.9348289493210757,
                -0.8902333043886046,
                -1.3004554381458768,
                0.4092885872981878
            ]
        },
        {
            "positions": [
                1.8147816061262925,
                -1.2798696736857,
                -0.794144724349934,
                -0.7961879192901186,
                -1.2618138017372775,
                0.4046127130371576
            ]
        },
        {
            "positions": [
                1.7041789892092059,
                -1.2843109278843607,
                -0.6534604993787927,
                -0.7021425341916326,
                -1.2231721653286785,
                0.3999368387761274
            ]
        },
        {
            "positions": [
                1.5935763722921195,
                -1.2887521820830214,
                -0.512776274407651,
                -0.6080971490931465,
                -1.1845305289200794,
                0.39526096451509724
            ]
        },
        {
            "positions": [
                1.4829737553750328,
                -1.2931934362816822,
                -0.3720920494365094,
                -0.5140517639946607,
                -1.1458888925114803,
                0.390585090254067
            ]
        },
        {
            "positions": [
                1.3723711384579462,
                -1.2976346904803429,
                -0.2314078244653679,
                -0.42000637889617454,
                -1.1072472561028812,
                0.38590921599303685
            ]
        },
        {
            "positions": [
                1.2617685215408598,
                -1.3020759446790036,
                -0.09072359949422637,
                -0.3259609937976886,
                -1.0686056196942821,
                0.3812333417320066
            ]
        },
        {
            "positions": [
                1.1511659046237734,
                -1.3065171988776643,
                0.049960625476915155,
                -0.2319156086992027,
                -1.029963983285683,
                0.3765574674709764
            ]
        },
        {
            "positions": [
                1.0405632877066868,
                -1.310958453076325,
                0.19064485044805668,
                -0.13787022360071677,
                -0.991322346877084,
                0.37188159320994624
            ]
        },
        {
            "positions": [
                0.9299606707896002,
                -1.3153997072749857,
                0.33132907541919865,
                -0.04382483850223062,
                -0.9526807104684848,
                0.367205718948916
            ]
        },
        {
            "positions": [
                0.8193580538725136,
                -1.3198409614736464,
                0.47201330039033973,
                0.0502205465962553,
                -0.9140390740598857,
                0.36252984468788585
            ]
        },
        {
            "positions": [
                0.7087554369554272,
                -1.324282215672307,
                0.6126975253614813,
                0.14426593169474122,
                -0.8753974376512866,
                0.3578539704268556
            ]
        },
        {
            "positions": [
                0.5981528200383406,
                -1.3287234698709678,
                0.7533817503326228,
                0.23831131679322715,
                -0.8367558012426876,
                0.35317809616582546
            ]
        },
        {
            "positions": [
                0.4875502031212542,
                -1.3331647240696287,
                0.8940659753037647,
                0.3323567018917135,
                -0.7981141648340885,
                0.34850222190479524
            ]
        },
        {
            "positions": [
                0.37694758620416735,
                -1.3376059782682894,
                1.0347502002749063,
                0.42640208699019944,
                -0.7594725284254894,
                0.3438263476437651
            ]
        },
        {
            "positions": [
                0.26634496928708096,
                -1.3420472324669501,
                1.1754344252460478,
                0.5204474720886851,
                -0.7208308920168903,
                0.33915047338273485
            ]
        },
        {
            "positions": [
                0.15574235236999456,
                -1.3464884866656108,
                1.3161186502171889,
                0.6144928571871711,
                -0.6821892556082912,
                0.3344745991217047
            ]
        },
        {
            "positions": [
                0.045139735452907725,
                -1.3509297408642715,
                1.4568028751883308,
                0.7085382422856574,
                -0.6435476191996921,
                0.32979872486067446
            ]
        },
        {
            "positions": [
                -0.06546288146417867,
                -1.3553709950629322,
                1.5974871001594724,
                0.8025836273841433,
                -0.604905982791093,
                0.3251228505996443
            ]
        },
        {
            "positions": [
                -0.17606549838126484,
                -1.359812249261593,
                1.738171325130614,
                0.8966290124826295,
                -0.5662643463824939,
                0.3204469763386141
            ]
        },
        {
            "positions": [
                -0.13880838381853716,
                -1.2870055029924936,
                1.7700732153816163,
                1.0245921687917923,
                -0.5120887263914469,
                0.28190284290992335
            ]
        },
        {
            "positions": [
                -0.10155126925580948,
                -1.2141987567233945,
                1.8019751056326188,
                1.1525553251009548,
                -0.4579131064003997,
                0.2433587094812326
            ]
        },
        {
            "positions": [
                -0.0642941546930818,
                -1.1413920104542954,
                1.8338769958836214,
                1.2805184814101176,
                -0.40373748640935264,
                0.20481457605254183
            ]
        },
        {
            "positions": [
                -0.02703704013035413,
                -1.068585264185196,
                1.8657788861346238,
                1.4084816377192801,
                -0.34956186641830556,
                0.1662704426238511
            ]
        },
        {
            "positions": [
                0.01022007443237355,
                -0.9957785179160968,
                1.8976807763856263,
                1.536444794028443,
                -0.29538624642725847,
                0.12772630919516037
            ]
        },
        {
            "positions": [
                0.04747718899510123,
                -0.9229717716469976,
                1.929582666636629,
                1.6644079503376057,
                -0.24121062643621138,
                0.08918217576646961
            ]
        },
        {
            "positions": [
                0.0847343035578289,
                -0.8501650253778984,
                1.9614845568876313,
                1.7923711066467685,
                -0.1870350064451643,
                0.050638042337778855
            ]
        },
        {
            "positions": [
                0.12199141812055657,
                -0.7773582791087992,
                1.9933864471386338,
                1.920334262955931,
                -0.13285938645411724,
                0.012093908909088104
            ]
        }
    ]
}