{
    "goal": {
        "global_pose": {
            "orientation": {
                "w": 0.7031023502349854,
                "x": -0.7110244035720825,
                "y": 0.007748599164187908,
                "z": 0.005598929710686207
            },
            "position": {
                "x": 0.11585023208521307,
                "y": 0.44412534475326537,
                "z": 0.3711530566215515
            }
        },
        "name": "move_to_auspresseinheit_A"
    },
    "id": "LazyPRM_move_to_auspresseinheit_A_41",
    "joint_names": [
        "shoulder_pan_joint",
        "shoulder_lift_joint",
        "elbow_joint",
        "wrist_1_joint",
        "wrist_2_joint",
        "wrist_3_joint"
    ],
    "metrics": {
        "cart_traj_len": 0.6666066934711252,
        "distance_elbow_joint": 0.0286971135718721,
        "distance_shoulder_lift_joint": 0.5325528434273945,
        "distance_shoulder_pan_joint": 1.042782631171983,
        "distance_wrist_1_joint": 1.997906142745379,
        "distance_wrist_2_joint": 0.9990013817999533,
        "distance_wrist_3_joint": 2.7646649295043586,
        "smoothness": 1.1105542530704082,
        "time": 1.478058252,
        "traj_len": 2.7139648196358297,
        "weighted_distance": 3.98645737789519
    },
    "planner": "LazyPRM",
    "start": {
        "state": {
            "elbow_joint": 2.4225746658250005,
            "shoulder_lift_joint": -1.3736534386056498,
            "shoulder_pan_joint": -0.3378633547517467,
            "wrist_1_joint": -1.0288598680537169,
            "wrist_2_joint": 1.233022673432363,
            "wrist_3_joint": -3.0940220416140027
        }
    },
    "waypoints": [
        {
            "positions": [
                -0.3378633547517467,
                -1.3736534386056498,
                2.4225746658250005,
                -1.0288598680537169,
                1.233022673432363,
                -3.0940220416140027
            ]
        },
        {
            "positions": [
                -0.281520456060543,
                -1.4094962217344311,
                2.4205703809154784,
                -0.9009695862809459,
                1.2562862462600957,
                -2.957730906187049
            ]
        },
        {
            "positions": [
                -0.2251775573693393,
                -1.4453390048632122,
                2.4185660960059567,
                -0.773079304508175,
                1.2795498190878283,
                -2.821439770760095
            ]
        },
        {
            "positions": [
                -0.16883465867813563,
                -1.4811817879919933,
                2.4165618110964346,
                -0.645189022735404,
                1.302813391915561,
                -2.6851486353331415
            ]
        },
        {
            "positions": [
                -0.1124917599869319,
                -1.5170245711207746,
                2.414557526186913,
                -0.517298740962633,
                1.3260769647432935,
                -2.5488574999061875
            ]
        },
        {
            "positions": [
                -0.056148861295728214,
                -1.552867354249556,
                2.412553241277391,
                -0.389408459189862,
                1.3493405375710261,
                -2.412566364479234
            ]
        },
        {
            "positions": [
                0.00019403739547546595,
                -1.588710137378337,
                2.410548956367869,
                -0.26151817741709105,
                1.372604110398759,
                -2.2762752290522803
            ]
        },
        {
            "positions": [
                0.056536936086679146,
                -1.624552920507118,
                2.408544671458347,
                -0.1336278956443201,
                1.3958676832264916,
                -2.1399840936253267
            ]
        },
        {
            "positions": [
                0.11287983477788294,
                -1.6603957036358994,
                2.406540386548825,
                -0.00573761387154903,
                1.4191312560542242,
                -2.0036929581983727
            ]
        },
        {
            "positions": [
                0.16922273346908662,
                -1.6962384867646807,
                2.4045361016393034,
                0.12215266790122192,
                1.4423948288819568,
                -1.867401822771419
            ]
        },
        {
            "positions": [
                0.22556563216029035,
                -1.7320812698934618,
                2.4025318167297813,
                0.2500429496739929,
                1.4656584017096894,
                -1.7311106873444653
            ]
        },
        {
            "positions": [
                0.27882714818917326,
                -1.7514284934645266,
                2.401570231787931,
                0.1701536913386963,
                1.3805066624293976,
                -1.8868610845927787
            ]
        },
        {
            "positions": [
                0.33208866421805616,
                -1.7707757170355913,
                2.4006086468460808,
                0.0902644330033997,
                1.2953549231491057,
                -2.0426114818410923
            ]
        },
        {
            "positions": [
                0.385350180246939,
                -1.7901229406066559,
                2.3996470619042305,
                0.010375174668103115,
                1.2102031838688139,
                -2.1983618790894055
            ]
        },
        {
            "positions": [
                0.43861169627582197,
                -1.8094701641777207,
                2.39868547696238,
                -0.06951408366719347,
                1.125051444588522,
                -2.354112276337719
            ]
        },
        {
            "positions": [
                0.4918732123047049,
                -1.8288173877487854,
                2.3977238920205295,
                -0.14940334200249006,
                1.03989970530823,
                -2.5098626735860328
            ]
        },
        {
            "positions": [
                0.5451347283335877,
                -1.8481646113198502,
                2.396762307078679,
                -0.22929260033778665,
                0.9547479660279381,
                -2.665613070834346
            ]
        },
        {
            "positions": [
                0.5983962443624706,
                -1.867511834890915,
                2.395800722136829,
                -0.30918185867308323,
                0.8695962267476463,
                -2.8213634680826596
            ]
        },
        {
            "positions": [
                0.6516577603913536,
                -1.8868590584619795,
                2.3948391371949787,
                -0.3890711170083798,
                0.7844444874673544,
                -2.9771138653309728
            ]
        },
        {
            "positions": [
                0.7049192764202364,
                -1.9062062820330443,
                2.3938775522531284,
                -0.46896037534367646,
                0.6992927481870624,
                -3.1328642625792864
            ]
        }
    ]
}