{
    "goal": {
        "global_pose": {
            "orientation": {
                "w": 0.7047431493862688,
                "x": -0.7094548369677653,
                "y": 0.0024358444001904,
                "z": -0.0022348060817251984
            },
            "position": {
                "x": -0.39052492380142206,
                "y": 0.3671506643295288,
                "z": 0.19426114857196808
            }
        },
        "name": "move_to_magneteinheit_D"
    },
    "id": "LazyPRM_move_to_magneteinheit_D_12",
    "joint_names": [
        "shoulder_pan_joint",
        "shoulder_lift_joint",
        "elbow_joint",
        "wrist_1_joint",
        "wrist_2_joint",
        "wrist_3_joint"
    ],
    "metrics": {
        "cart_traj_len": 4.733372683720541,
        "distance_elbow_joint": 4.871975583729567,
        "distance_shoulder_lift_joint": 2.264925073292794,
        "distance_shoulder_pan_joint": 3.526457918578938,
        "distance_wrist_1_joint": 2.9179681460324236,
        "distance_wrist_2_joint": 3.929660796418047,
        "distance_wrist_3_joint": 3.142104683627959,
        "smoothness": 0.7597150180678461,
        "time": 0.280008593,
        "traj_len": 4.544567328325076,
        "weighted_distance": 5.812480581592175
    },
    "planner": "LazyPRM",
    "start": {
        "state": {
            "elbow_joint": 0.749534889911806,
            "shoulder_lift_joint": -0.6476975780787326,
            "shoulder_pan_joint": -2.711696901376241,
            "wrist_1_joint": -0.07506478083263063,
            "wrist_2_joint": 0.43296659715538205,
            "wrist_3_joint": -3.14703540197715
        }
    },
    "waypoints": [
        {
            "positions": [
                -2.711696901376241,
                -0.6476975780787326,
                0.749534889911806,
                -0.07506478083263063,
                0.43296659715538205,
                -3.14703540197715
            ]
        },
        {
            "positions": [
                -2.7923314132114,
                -0.6350864777448961,
                0.7009158820061365,
                -0.15880408396457635,
                0.3557386265536049,
                -3.081446705838443
            ]
        },
        {
            "positions": [
                -2.8729659250465587,
                -0.6224753774110597,
                0.6522968741004671,
                -0.2425433870965221,
                0.27851065595182767,
                -3.015858009699736
            ]
        },
        {
            "positions": [
                -2.9536004368817173,
                -0.6098642770772233,
                0.6036778661947976,
                -0.32628269022846784,
                0.20128268535005048,
                -2.9502693135610287
            ]
        },
        {
            "positions": [
                -3.0342349487168763,
                -0.5972531767433868,
                0.5550588582891282,
                -0.41002199336041356,
                0.12405471474827327,
                -2.8846806174223216
            ]
        },
        {
            "positions": [
                -2.9822567352870286,
                -0.6736339438006053,
                0.6174726614119407,
                -0.3926625157224694,
                0.2230275230529547,
                -2.809904040345056
            ]
        },
        {
            "positions": [
                -2.930278521857181,
                -0.7500147108578237,
                0.6798864645347531,
                -0.37530303808452525,
                0.3220003313576361,
                -2.7351274632677907
            ]
        },
        {
            "positions": [
                -2.8783003084273333,
                -0.8263954779150421,
                0.7423002676575656,
                -0.35794356044658104,
                0.4209731396623176,
                -2.660350886190525
            ]
        },
        {
            "positions": [
                -2.826322094997485,
                -0.9027762449722605,
                0.8047140707803782,
                -0.3405840828086369,
                0.519945947966999,
                -2.5855743091132597
            ]
        },
        {
            "positions": [
                -2.7743438815676376,
                -0.9791570120294789,
                0.8671278739031907,
                -0.32322460517069274,
                0.6189187562716805,
                -2.510797732035994
            ]
        },
        {
            "positions": [
                -2.72236566813779,
                -1.0555377790866973,
                0.9295416770260032,
                -0.3058651275327485,
                0.7178915645763618,
                -2.4360211549587287
            ]
        },
        {
            "positions": [
                -2.6703874547079423,
                -1.1319185461439156,
                0.9919554801488157,
                -0.2885056498948044,
                0.8168643728810433,
                -2.3612445778814637
            ]
        },
        {
            "positions": [
                -2.6184092412780946,
                -1.2082993132011342,
                1.0543692832716283,
                -0.2711461722568602,
                0.9158371811857247,
                -2.286468000804198
            ]
        },
        {
            "positions": [
                -2.566431027848247,
                -1.2846800802583527,
                1.1167830863944408,
                -0.253786694618916,
                1.0148099894904064,
                -2.2116914237269327
            ]
        },
        {
            "positions": [
                -2.514452814418399,
                -1.361060847315571,
                1.1791968895172533,
                -0.23642721698097185,
                1.1137827977950876,
                -2.1369148466496672
            ]
        },
        {
            "positions": [
                -2.4624746009885516,
                -1.4374416143727893,
                1.2416106926400658,
                -0.2190677393430277,
                1.212755606099769,
                -2.0621382695724018
            ]
        },
        {
            "positions": [
                -2.4104963875587035,
                -1.5138223814300078,
                1.3040244957628782,
                -0.20170826170508355,
                1.3117284144044505,
                -1.9873616924951363
            ]
        },
        {
            "positions": [
                -2.358518174128856,
                -1.5902031484872263,
                1.3664382988856907,
                -0.18434878406713934,
                1.410701222709132,
                -1.9125851154178708
            ]
        },
        {
            "positions": [
                -2.3065399606990082,
                -1.6665839155444446,
                1.4288521020085032,
                -0.16698930642919518,
                1.5096740310138135,
                -1.8378085383406053
            ]
        },
        {
            "positions": [
                -2.216598338714171,
                -1.6852993666766796,
                1.3139094143061654,
                -0.09003165120496266,
                1.4383014828903549,
                -1.8286269248568263
            ]
        },
        {
            "positions": [
                -2.1266567167293333,
                -1.7040148178089145,
                1.1989667266038275,
                -0.013073995980730141,
                1.366928934766896,
                -1.819445311373047
            ]
        },
        {
            "positions": [
                -2.036715094744496,
                -1.7227302689411494,
                1.0840240389014895,
                0.06388365924350237,
                1.2955563866434374,
                -1.810263697889268
            ]
        },
        {
            "positions": [
                -1.9467734727596582,
                -1.7414457200733846,
                0.9690813511991516,
                0.1408413144677349,
                1.2241838385199788,
                -1.8010820844054891
            ]
        },
        {
            "positions": [
                -1.8568318507748207,
                -1.7601611712056195,
                0.8541386634968138,
                0.21779896969196744,
                1.15281129039652,
                -1.7919004709217101
            ]
        },
        {
            "positions": [
                -1.7668902287899833,
                -1.7788766223378545,
                0.7391959757944759,
                0.2947566249161999,
                1.0814387422730614,
                -1.782718857437931
            ]
        },
        {
            "positions": [
                -1.6769486068051456,
                -1.7975920734700894,
                0.624253288092138,
                0.3717142801404325,
                1.0100661941496027,
                -1.773537243954152
            ]
        },
        {
            "positions": [
                -1.587006984820308,
                -1.8163075246023244,
                0.5093106003898001,
                0.448671935364665,
                0.938693646026144,
                -1.764355630470373
            ]
        },
        {
            "positions": [
                -1.4970653628354706,
                -1.8350229757345593,
                0.3943679126874624,
                0.5256295905888975,
                0.8673210979026853,
                -1.7551740169865937
            ]
        },
        {
            "positions": [
                -1.4071237408506332,
                -1.8537384268667942,
                0.27942522498512434,
                0.6025872458131301,
                0.7959485497792266,
                -1.7459924035028147
            ]
        },
        {
            "positions": [
                -1.3171821188657957,
                -1.8724538779990292,
                0.1644825372827865,
                0.6795449010373625,
                0.724576001655768,
                -1.7368107900190357
            ]
        },
        {
            "positions": [
                -1.2272404968809583,
                -1.8911693291312641,
                0.04953984958044866,
                0.756502556261595,
                0.6532034535323094,
                -1.7276291765352567
            ]
        },
        {
            "positions": [
                -1.1372988748961208,
                -1.9098847802634993,
                -0.06540283812188918,
                0.8334602114858276,
                0.5818309054088505,
                -1.7184475630514775
            ]
        },
        {
            "positions": [
                -1.0473572529112831,
                -1.9286002313957342,
                -0.18034552582422725,
                0.9104178667100602,
                0.5104583572853918,
                -1.7092659495676985
            ]
        },
        {
            "positions": [
                -0.9574156309264459,
                -1.9473156825279692,
                -0.29528821352656487,
                0.9873755219342926,
                0.4390858091619332,
                -1.7000843360839195
            ]
        },
        {
            "positions": [
                -0.8674740089416082,
                -1.966031133660204,
                -0.41023090122890293,
                1.0643331771585252,
                0.36771326103847457,
                -1.6909027226001405
            ]
        },
        {
            "positions": [
                -0.7775323869567707,
                -1.984746584792439,
                -0.5251735889312408,
                1.1412908323827577,
                0.29634071291501574,
                -1.6817211091163613
            ]
        },
        {
            "positions": [
                -0.6875907649719333,
                -2.0034620359246738,
                -0.6401162766335784,
                1.2182484876069901,
                0.22496816479155712,
                -1.6725394956325823
            ]
        },
        {
            "positions": [
                -0.5976491429870958,
                -2.022177487056909,
                -0.7550589643359167,
                1.2952061428312227,
                0.1535956166680985,
                -1.6633578821488033
            ]
        },
        {
            "positions": [
                -0.5077075210022581,
                -2.040892938189144,
                -0.8700016520382545,
                1.3721637980554553,
                0.08222306854463968,
                -1.654176268665024
            ]
        },
        {
            "positions": [
                -0.4177658990174209,
                -2.059608389321379,
                -0.9849443397405919,
                1.4491214532796877,
                0.010850520421181287,
                -1.644994655181245
            ]
        },
        {
            "positions": [
                -0.3278242770325832,
                -2.078323840453614,
                -1.0998870274429302,
                1.5260791085039203,
                -0.06052202770227755,
                -1.635813041697466
            ]
        },
        {
            "positions": [
                -0.23788265504774575,
                -2.097039291585849,
                -1.214829715145268,
                1.6030367637281528,
                -0.13189457582573638,
                -1.626631428213687
            ]
        },
        {
            "positions": [
                -0.1479410330629083,
                -2.115754742718084,
                -1.329772402847606,
                1.6799944189523852,
                -0.20326712394919477,
                -1.617449814729908
            ]
        },
        {
            "positions": [
                -0.05799941107807091,
                -2.1344701938503188,
                -1.4447150905499435,
                1.7569520741766178,
                -0.27463967207265355,
                -1.608268201246129
            ]
        },
        {
            "positions": [
                -0.04952437529847301,
                -2.09032563119453,
                -1.5598631872943274,
                1.772244056717934,
                -0.2423679953506993,
                -1.483345876053869
            ]
        },
        {
            "positions": [
                -0.041049339518875114,
                -2.046181068538741,
                -1.675011284038711,
                1.7875360392592503,
                -0.21009631862874503,
                -1.3584235508616092
            ]
        },
        {
            "positions": [
                -0.03257430373927721,
                -2.002036505882953,
                -1.7901593807830949,
                1.8028280218005666,
                -0.17782464190679076,
                -1.2335012256693492
            ]
        },
        {
            "positions": [
                -0.02409926795967931,
                -1.9578919432271638,
                -1.9053074775274785,
                1.8181200043418828,
                -0.1455529651848365,
                -1.1085789004770894
            ]
        },
        {
            "positions": [
                -0.015624232180081403,
                -1.9137473805713752,
                -2.0204555742718626,
                1.833411986883199,
                -0.11328128846288221,
                -0.9836565752848293
            ]
        },
        {
            "positions": [
                -0.007149196400483504,
                -1.8696028179155864,
                -2.1356036710162463,
                1.8487039694245153,
                -0.08100961174092797,
                -0.8587342500925694
            ]
        },
        {
            "positions": [
                -0.03662154955413548,
                -1.938335531068217,
                -2.1754787602433736,
                1.7946564743045632,
                -0.03814530601972739,
                -0.7164336614686729
            ]
        },
        {
            "positions": [
                -0.06609390270778745,
                -2.007068244220848,
                -2.215353849470501,
                1.7406089791846109,
                0.004718999701473187,
                -0.5741330728447764
            ]
        },
        {
            "positions": [
                -0.09556625586143942,
                -2.0758009573734784,
                -2.2552289386976287,
                1.6865614840646588,
                0.04758330542267378,
                -0.43183248422088
            ]
        },
        {
            "positions": [
                -0.1250386090150914,
                -2.144533670526109,
                -2.295104027924756,
                1.6325139889447067,
                0.09044761114387434,
                -0.28953189559698356
            ]
        },
        {
            "positions": [
                -0.15451096216874338,
                -2.21326638367874,
                -2.3349791171518834,
                1.5784664938247543,
                0.13331191686507496,
                -0.14723130697308706
            ]
        },
        {
            "positions": [
                -0.18398331532239534,
                -2.2819990968313704,
                -2.374854206379011,
                1.5244189987048022,
                0.17617622258627552,
                -0.004930718349190566
            ]
        }
    ]
}