{
    "goal": {
        "global_pose": {
            "orientation": {
                "w": 0.7031023480610252,
                "x": -0.7110244013736278,
                "y": 0.0077485991402295624,
                "z": 0.005598929693374583
            },
            "position": {
                "x": -0.8841497679147869,
                "y": 0.44412534475326537,
                "z": 0.3711530566215515
            }
        },
        "name": "move_to_auspresseinheit_D"
    },
    "id": "LazyPRMstar_move_to_auspresseinheit_D_67",
    "joint_names": [
        "shoulder_pan_joint",
        "shoulder_lift_joint",
        "elbow_joint",
        "wrist_1_joint",
        "wrist_2_joint",
        "wrist_3_joint"
    ],
    "metrics": {
        "cart_traj_len": 0.34334224602006436,
        "distance_elbow_joint": 0.6352094078157469,
        "distance_shoulder_lift_joint": 0.11929698998465099,
        "distance_shoulder_pan_joint": 0.1342398794728079,
        "distance_wrist_1_joint": 0.521361883344333,
        "distance_wrist_2_joint": 1.4425202592641297,
        "distance_wrist_3_joint": 0.012490723919342361,
        "smoothness": 0.0,
        "time": 5.000460955,
        "traj_len": 1.6926662824671055,
        "weighted_distance": 2.2031756022269673
    },
    "planner": "LazyPRMstar",
    "start": {
        "state": {
            "elbow_joint": -1.8275523626775212,
            "shoulder_lift_joint": -2.126789852344167,
            "shoulder_pan_joint": -0.03513704404078235,
            "wrist_1_joint": -2.347782403156801,
            "wrist_2_joint": -1.6058999987535132,
            "wrist_3_joint": -3.0880379163319196
        }
    },
    "waypoints": [
        {
            "positions": [
                -0.03513704404078235,
                -2.126789852344167,
                -1.8275523626775212,
                -2.347782403156801,
                -1.6058999987535132,
                -3.0880379163319196
            ]
        },
        {
            "positions": [
                -0.05191702897488334,
                -2.141701976092248,
                -1.7481511867005528,
                -2.4129526385748425,
                -1.425584966345497,
                -3.0895992568218373
            ]
        },
        {
            "positions": [
                -0.06869701390898433,
                -2.1566140998403296,
                -1.6687500107235844,
                -2.4781228739928842,
                -1.2452699339374806,
                -3.091160597311755
            ]
        },
        {
            "positions": [
                -0.08547699884308532,
                -2.171526223588411,
                -1.589348834746616,
                -2.543293109410926,
                -1.0649549015294646,
                -3.092721937801673
            ]
        },
        {
            "positions": [
                -0.10225698377718631,
                -2.1864383473364923,
                -1.5099476587696476,
                -2.6084633448289676,
                -0.8846398691214483,
                -3.0942832782915906
            ]
        },
        {
            "positions": [
                -0.1190369687112873,
                -2.2013504710845737,
                -1.4305464827926793,
                -2.673633580247009,
                -0.704324836713432,
                -3.0958446187815087
            ]
        },
        {
            "positions": [
                -0.1358169536453883,
                -2.216262594832655,
                -1.351145306815711,
                -2.7388038156650505,
                -0.524009804305416,
                -3.0974059592714265
            ]
        },
        {
            "positions": [
                -0.15259693857948928,
                -2.2311747185807365,
                -1.2717441308387427,
                -2.803974051083092,
                -0.3436947718973997,
                -3.098967299761344
            ]
        },
        {
            "positions": [
                -0.16937692351359027,
                -2.246086842328818,
                -1.1923429548617743,
                -2.869144286501134,
                -0.16337973948938345,
                -3.100528640251262
            ]
        }
    ]
}