{
    "goal": {
        "global_pose": {
            "orientation": {
                "w": 0.005598929693374612,
                "x": 0.007748599140229565,
                "y": 0.7110244013736278,
                "z": -0.7031023480610252
            },
            "position": {
                "x": -0.8858502320852131,
                "y": -0.7141253447532654,
                "z": 0.3711530566215515
            }
        },
        "name": "move_to_auspresseinheit_C"
    },
    "id": "LazyPRM_move_to_auspresseinheit_C_56",
    "joint_names": [
        "shoulder_pan_joint",
        "shoulder_lift_joint",
        "elbow_joint",
        "wrist_1_joint",
        "wrist_2_joint",
        "wrist_3_joint"
    ],
    "metrics": {
        "cart_traj_len": 0.49322845926670505,
        "distance_elbow_joint": 0.9972390884322647,
        "distance_shoulder_lift_joint": 0.3225016697380999,
        "distance_shoulder_pan_joint": 0.2565212017128644,
        "distance_wrist_1_joint": 0.6769371229793121,
        "distance_wrist_2_joint": 1.3057597459603085,
        "distance_wrist_3_joint": 0.06379961925366207,
        "smoothness": 8.074349268950106e-16,
        "time": 0.012527418,
        "traj_len": 1.903354525062662,
        "weighted_distance": 2.3943797851475974
    },
    "planner": "LazyPRM",
    "start": {
        "state": {
            "elbow_joint": 1.7527959577737207,
            "shoulder_lift_joint": -0.9740617694225068,
            "shoulder_pan_joint": -2.967991417825858,
            "wrist_1_joint": -0.759517768980727,
            "wrist_2_joint": 1.7443932448377408,
            "wrist_3_joint": -3.0840537646736568
        }
    },
    "waypoints": [
        {
            "positions": [
                -2.967991417825858,
                -0.9740617694225068,
                1.7527959577737207,
                -0.759517768980727,
                1.7443932448377408,
                -3.0840537646736568
            ]
        },
        {
            "positions": [
                -2.9423392976545717,
                -0.9418116024486968,
                1.6530720489304942,
                -0.6918240566827958,
                1.61381727024171,
                -3.090433726599023
            ]
        },
        {
            "positions": [
                -2.916687177483285,
                -0.9095614354748868,
                1.5533481400872677,
                -0.6241303443848646,
                1.483241295645679,
                -3.096813688524389
            ]
        },
        {
            "positions": [
                -2.8910350573119987,
                -0.8773112685010768,
                1.4536242312440413,
                -0.5564366320869334,
                1.3526653210496482,
                -3.1031936504497555
            ]
        },
        {
            "positions": [
                -2.865382937140712,
                -0.8450611015272668,
                1.3539003224008148,
                -0.48874291978900214,
                1.2220893464536173,
                -3.1095736123751214
            ]
        },
        {
            "positions": [
                -2.8397308169694258,
                -0.8128109345534569,
                1.2541764135575884,
                -0.42104920749107094,
                1.0915133718575865,
                -3.115953574300488
            ]
        },
        {
            "positions": [
                -2.8140786967981395,
                -0.7805607675796469,
                1.154452504714362,
                -0.35335549519313975,
                0.9609373972615557,
                -3.122333536225854
            ]
        },
        {
            "positions": [
                -2.788426576626853,
                -0.7483106006058369,
                1.0547285958711354,
                -0.28566178289520855,
                0.8303614226655249,
                -3.12871349815122
            ]
        },
        {
            "positions": [
                -2.7627744564555665,
                -0.7160604336320269,
                0.9550046870279089,
                -0.2179680705972773,
                0.699785448069494,
                -3.1350934600765865
            ]
        },
        {
            "positions": [
                -2.73712233628428,
                -0.6838102666582169,
                0.8552807781846824,
                -0.1502743582993461,
                0.5692094734734632,
                -3.1414734220019525
            ]
        },
        {
            "positions": [
                -2.7114702161129935,
                -0.6515600996844069,
                0.7555568693414559,
                -0.08258064600141495,
                0.4386334988774323,
                -3.147853383927319
            ]
        }
    ]
}