{
    "goal": {
        "global_pose": {
            "orientation": {
                "w": 0.7047431468963623,
                "x": -0.7094548344612122,
                "y": 0.0024358443915843964,
                "z": -0.0022348060738295317
            },
            "position": {
                "x": 0.6094750761985779,
                "y": 0.3671506643295288,
                "z": 0.19426114857196808
            }
        },
        "name": "move_to_magneteinheit_A"
    },
    "id": "LazyPRM_move_to_magneteinheit_A_8",
    "joint_names": [
        "shoulder_pan_joint",
        "shoulder_lift_joint",
        "elbow_joint",
        "wrist_1_joint",
        "wrist_2_joint",
        "wrist_3_joint"
    ],
    "metrics": {
        "cart_traj_len": 3.6810592302957565,
        "distance_elbow_joint": 5.069311727691052,
        "distance_shoulder_lift_joint": 1.4907613819987067,
        "distance_shoulder_pan_joint": 4.0583405288694605,
        "distance_wrist_1_joint": 0.6888538262393936,
        "distance_wrist_2_joint": 3.9792671720423276,
        "distance_wrist_3_joint": 2.7095703843946297,
        "smoothness": 0.4119462772301987,
        "time": 0.111047763,
        "traj_len": 4.242181634635128,
        "weighted_distance": 5.29937418836475
    },
    "planner": "LazyPRM",
    "start": {
        "state": {
            "elbow_joint": -1.9196185241190666,
            "shoulder_lift_joint": -1.2443396400964142,
            "shoulder_pan_joint": 2.6996025414629847,
            "wrist_1_joint": -1.5485510000780065,
            "wrist_2_joint": -1.5709468930060704,
            "wrist_3_joint": 0.4420197071253992
        }
    },
    "waypoints": [
        {
            "positions": [
                2.6996025414629847,
                -1.2443396400964142,
                -1.9196185241190666,
                -1.5485510000780065,
                -1.5709468930060704,
                0.4420197071253992
            ]
        },
        {
            "positions": [
                2.6048288356180227,
                -1.264256443455992,
                -1.7913636311238423,
                -1.5449594118912289,
                -1.4897059934471901,
                0.5005354050124936
            ]
        },
        {
            "positions": [
                2.510055129773061,
                -1.2841732468155698,
                -1.663108738128618,
                -1.5413678237044512,
                -1.4084650938883099,
                0.5590511028995881
            ]
        },
        {
            "positions": [
                2.415281423928099,
                -1.3040900501751478,
                -1.5348538451333935,
                -1.5377762355176736,
                -1.3272241943294298,
                0.6175668007866826
            ]
        },
        {
            "positions": [
                2.320507718083137,
                -1.3240068535347256,
                -1.4065989521381692,
                -1.534184647330896,
                -1.2459832947705496,
                0.676082498673777
            ]
        },
        {
            "positions": [
                2.225734012238175,
                -1.3439236568943034,
                -1.278344059142945,
                -1.5305930591441184,
                -1.1647423952116693,
                0.7345981965608716
            ]
        },
        {
            "positions": [
                2.130960306393213,
                -1.3638404602538812,
                -1.1500891661477204,
                -1.5270014709573407,
                -1.083501495652789,
                0.7931138944479661
            ]
        },
        {
            "positions": [
                2.036186600548251,
                -1.3837572636134592,
                -1.0218342731524959,
                -1.523409882770563,
                -1.002260596093909,
                0.8516295923350605
            ]
        },
        {
            "positions": [
                1.9414128947032894,
                -1.403674066973037,
                -0.8935793801572718,
                -1.5198182945837855,
                -0.9210196965350287,
                0.910145290222155
            ]
        },
        {
            "positions": [
                1.8466391888583273,
                -1.4235908703326148,
                -0.7653244871620475,
                -1.5162267063970079,
                -0.8397787969761485,
                0.9686609881092494
            ]
        },
        {
            "positions": [
                1.7518654830133655,
                -1.4435076736921926,
                -0.637069594166823,
                -1.5126351182102302,
                -0.7585378974172683,
                1.027176685996344
            ]
        },
        {
            "positions": [
                1.6570917771684035,
                -1.4634244770517704,
                -0.5088147011715987,
                -1.5090435300234526,
                -0.6772969978583882,
                1.0856923838834383
            ]
        },
        {
            "positions": [
                1.5623180713234415,
                -1.4833412804113484,
                -0.38055980817637414,
                -1.505451941836675,
                -0.5960560982995079,
                1.144208081770533
            ]
        },
        {
            "positions": [
                1.4675443654784797,
                -1.5032580837709262,
                -0.25230491518114984,
                -1.5018603536498973,
                -0.5148151987406275,
                1.2027237796576273
            ]
        },
        {
            "positions": [
                1.3727706596335176,
                -1.523174887130504,
                -0.12405002218592531,
                -1.4982687654631197,
                -0.4335742991817475,
                1.2612394775447218
            ]
        },
        {
            "positions": [
                1.2779969537885558,
                -1.5430916904900818,
                0.004204870809298766,
                -1.494677177276342,
                -0.35233339962286725,
                1.3197551754318164
            ]
        },
        {
            "positions": [
                1.183223247943594,
                -1.5630084938496598,
                0.13245976380452307,
                -1.4910855890895645,
                -0.271092500063987,
                1.3782708733189106
            ]
        },
        {
            "positions": [
                1.088449542098632,
                -1.5829252972092376,
                0.2607146567997476,
                -1.4874940009027868,
                -0.18985160050510674,
                1.4367865712060053
            ]
        },
        {
            "positions": [
                0.9936758362536702,
                -1.6028421005688154,
                0.38896954979497167,
                -1.483902412716009,
                -0.10861070094622671,
                1.4953022690930995
            ]
        },
        {
            "positions": [
                0.8989021304087081,
                -1.6227589039283932,
                0.5172244427901962,
                -1.4803108245292314,
                -0.02736980138734646,
                1.5538179669801941
            ]
        },
        {
            "positions": [
                0.8041284245637463,
                -1.642675707287971,
                0.6454793357854207,
                -1.4767192363424537,
                0.05387109817153379,
                1.6123336648672888
            ]
        },
        {
            "positions": [
                0.7093547187187843,
                -1.662592510647549,
                0.7737342287806452,
                -1.473127648155676,
                0.13511199773041405,
                1.670849362754383
            ]
        },
        {
            "positions": [
                0.6145810128738223,
                -1.6825093140071268,
                0.9019891217758693,
                -1.4695360599688985,
                0.21635289728929408,
                1.7293650606414777
            ]
        },
        {
            "positions": [
                0.5198073070288602,
                -1.7024261173667046,
                1.0302440147710938,
                -1.4659444717821208,
                0.29759379684817433,
                1.7878807585285723
            ]
        },
        {
            "positions": [
                0.4250336011838982,
                -1.7223429207262826,
                1.1584989077663184,
                -1.4623528835953432,
                0.3788346964070546,
                1.8463964564156665
            ]
        },
        {
            "positions": [
                0.3302598953389366,
                -1.7422597240858604,
                1.2867538007615429,
                -1.4587612954085656,
                0.46007559596593484,
                1.9049121543027612
            ]
        },
        {
            "positions": [
                0.2354861894939746,
                -1.7621765274454382,
                1.415008693756767,
                -1.455169707221788,
                0.5413164955248153,
                1.9634278521898554
            ]
        },
        {
            "positions": [
                0.14071248364901257,
                -1.782093330805016,
                1.5432635867519915,
                -1.4515781190350103,
                0.6225573950836953,
                2.02194355007695
            ]
        },
        {
            "positions": [
                0.045938777804050535,
                -1.8020101341645938,
                1.671518479747216,
                -1.4479865308482327,
                0.7037982946425754,
                2.0804592479640447
            ]
        },
        {
            "positions": [
                -0.048834928040911496,
                -1.8219269375241718,
                1.7997733727424405,
                -1.444394942661455,
                0.7850391942014558,
                2.138974945851139
            ]
        },
        {
            "positions": [
                -0.14360863388587308,
                -1.8418437408837494,
                1.9280282657376642,
                -1.4408033544746774,
                0.8662800937603359,
                2.1974906437382336
            ]
        },
        {
            "positions": [
                -0.2383823397308351,
                -1.8617605442433274,
                2.0562831587328887,
                -1.4372117662878998,
                0.9475209933192159,
                2.2560063416253278
            ]
        },
        {
            "positions": [
                -0.3331560455757967,
                -1.8816773476029052,
                2.1845380517281128,
                -1.4336201781011222,
                1.0287618928780964,
                2.3145220395124224
            ]
        },
        {
            "positions": [
                -0.42792975142075873,
                -1.9015941509624832,
                2.3127929447233373,
                -1.4300285899143446,
                1.1100027924369764,
                2.3730377373995166
            ]
        },
        {
            "positions": [
                -0.5227034572657208,
                -1.921510954322061,
                2.441047837718562,
                -1.426437001727567,
                1.191243691995857,
                2.4315534352866113
            ]
        },
        {
            "positions": [
                -0.6174771631106828,
                -1.9414277576816388,
                2.569302730713786,
                -1.4228454135407893,
                1.2724845915547367,
                2.490069133173706
            ]
        },
        {
            "positions": [
                -0.5557054277527003,
                -1.8752883189805152,
                2.5209368579756024,
                -1.375916393565608,
                1.1778316175979435,
                2.545195879702566
            ]
        },
        {
            "positions": [
                -0.49393369239471774,
                -1.8091488802793918,
                2.472570985237419,
                -1.3289873735904265,
                1.0831786436411501,
                2.6003226262314265
            ]
        },
        {
            "positions": [
                -0.4321619570367352,
                -1.7430094415782682,
                2.424205112499236,
                -1.2820583536152452,
                0.988525669684357,
                2.6554493727602866
            ]
        },
        {
            "positions": [
                -0.3703902216787527,
                -1.6768700028771448,
                2.3758392397610524,
                -1.2351293336400637,
                0.8938726957275637,
                2.710576119289147
            ]
        },
        {
            "positions": [
                -0.30861848632077016,
                -1.6107305641760212,
                2.327473367022869,
                -1.1882003136648824,
                0.7992197217707704,
                2.765702865818007
            ]
        },
        {
            "positions": [
                -0.24684675096278763,
                -1.5445911254748976,
                2.279107494284686,
                -1.1412712936897011,
                0.7045667478139771,
                2.8208296123468672
            ]
        },
        {
            "positions": [
                -0.1850750156048051,
                -1.4784516867737743,
                2.2307416215465024,
                -1.0943422737145196,
                0.6099137738571838,
                2.8759563588757278
            ]
        },
        {
            "positions": [
                -0.12330328024682258,
                -1.4123122480726509,
                2.182375748808319,
                -1.0474132537393384,
                0.5152607999003906,
                2.931083105404588
            ]
        },
        {
            "positions": [
                -0.06153154488884005,
                -1.3461728093715273,
                2.1340098760701354,
                -1.000484233764157,
                0.42060782594359725,
                2.9862098519334483
            ]
        },
        {
            "positions": [
                0.0002401904691424761,
                -1.2800333706704037,
                2.085644003331952,
                -0.9535552137889756,
                0.32595485198680396,
                3.0413365984623084
            ]
        },
        {
            "positions": [
                0.062011925827125,
                -1.21389393196928,
                2.037278130593769,
                -0.9066261938137943,
                0.2313018780300109,
                3.096463344991169
            ]
        },
        {
            "positions": [
                0.1237836611851075,
                -1.1477544932681567,
                1.9889122578555853,
                -0.8596971738386129,
                0.1366489040732175,
                3.151590091520029
            ]
        }
    ]
}