{
    "goal": {
        "global_pose": {
            "orientation": {
                "w": 0.7047431468963623,
                "x": -0.7094548344612122,
                "y": 0.0024358443915843964,
                "z": -0.0022348060738295317
            },
            "position": {
                "x": 0.6094750761985779,
                "y": 0.3671506643295288,
                "z": 0.19426114857196808
            }
        },
        "name": "move_to_magneteinheit_A"
    },
    "id": "LazyPRMstar_move_to_magneteinheit_A_1",
    "joint_names": [
        "shoulder_pan_joint",
        "shoulder_lift_joint",
        "elbow_joint",
        "wrist_1_joint",
        "wrist_2_joint",
        "wrist_3_joint"
    ],
    "metrics": {
        "cart_traj_len": 3.157604109893244,
        "distance_elbow_joint": 3.9179914506007014,
        "distance_shoulder_lift_joint": 0.46582822898125686,
        "distance_shoulder_pan_joint": 2.6398074393215243,
        "distance_wrist_1_joint": 3.496197679508932,
        "distance_wrist_2_joint": 1.4439585957569514,
        "distance_wrist_3_joint": 0.45509218362600984,
        "smoothness": 0.04215229863100017,
        "time": 5.0484135420000005,
        "traj_len": 3.524042505106227,
        "weighted_distance": 4.274250369399677
    },
    "planner": "LazyPRMstar",
    "start": {
        "state": {
            "elbow_joint": -1.9196185241190666,
            "shoulder_lift_joint": -1.2443396400964142,
            "shoulder_pan_joint": 2.6996025414629847,
            "wrist_1_joint": -1.5485510000780065,
            "wrist_2_joint": -1.5709468930060704,
            "wrist_3_joint": 0.4420197071253992
        }
    },
    "waypoints": [
        {
            "positions": [
                2.6996025414629847,
                -1.2443396400964142,
                -1.9196185241190666,
                -1.5485510000780065,
                -1.5709468930060704,
                0.4420197071253992
            ]
        },
        {
            "positions": [
                2.60343020849722,
                -1.2335394886809496,
                -1.81146409709062,
                -1.4331471881373594,
                -1.5346477106168985,
                0.4262847364036666
            ]
        },
        {
            "positions": [
                2.5072578755314554,
                -1.2227393372654851,
                -1.7033096700621733,
                -1.3177433761967123,
                -1.4983485282277265,
                0.41054976568193396
            ]
        },
        {
            "positions": [
                2.4110855425656905,
                -1.2119391858500208,
                -1.5951552430337268,
                -1.2023395642560653,
                -1.4620493458385546,
                0.3948147949602014
            ]
        },
        {
            "positions": [
                2.3149132095999256,
                -1.2011390344345563,
                -1.4870008160052801,
                -1.0869357523154182,
                -1.4257501634493828,
                0.37907982423846875
            ]
        },
        {
            "positions": [
                2.218740876634161,
                -1.1903388830190917,
                -1.3788463889768334,
                -0.9715319403747711,
                -1.3894509810602107,
                0.3633448535167362
            ]
        },
        {
            "positions": [
                2.1225685436683963,
                -1.1795387316036272,
                -1.270691961948387,
                -0.856128128434124,
                -1.3531517986710389,
                0.3476098827950036
            ]
        },
        {
            "positions": [
                2.0263962107026314,
                -1.168738580188163,
                -1.1625375349199403,
                -0.7407243164934769,
                -1.3168526162818668,
                0.33187491207327097
            ]
        },
        {
            "positions": [
                1.9302238777368668,
                -1.1579384287726984,
                -1.0543831078914936,
                -0.6253205045528298,
                -1.280553433892695,
                0.3161399413515384
            ]
        },
        {
            "positions": [
                1.834051544771102,
                -1.1471382773572338,
                -0.9462286808630469,
                -0.5099166926121828,
                -1.244254251503523,
                0.30040497062980576
            ]
        },
        {
            "positions": [
                1.7378792118053372,
                -1.1363381259417693,
                -0.8380742538346002,
                -0.39451288067153567,
                -1.207955069114351,
                0.2846699999080732
            ]
        },
        {
            "positions": [
                1.6417068788395726,
                -1.125537974526305,
                -0.7299198268061537,
                -0.2791090687308886,
                -1.1716558867251792,
                0.2689350291863406
            ]
        },
        {
            "positions": [
                1.5455345458738077,
                -1.1147378231108405,
                -0.6217653997777071,
                -0.1637052567902415,
                -1.135356704336007,
                0.253200058464608
            ]
        },
        {
            "positions": [
                1.449362212908043,
                -1.103937671695376,
                -0.5136109727492604,
                -0.04830144484959442,
                -1.0990575219468353,
                0.2374650877428754
            ]
        },
        {
            "positions": [
                1.3531898799422784,
                -1.0931375202799114,
                -0.4054565457208137,
                0.06710236709105266,
                -1.0627583395576634,
                0.2217301170211428
            ]
        },
        {
            "positions": [
                1.2570175469765135,
                -1.0823373688644469,
                -0.297302118692367,
                0.18250617903169997,
                -1.0264591571684913,
                0.20599514629941015
            ]
        },
        {
            "positions": [
                1.1608452140107488,
                -1.0715372174489826,
                -0.18914769166392054,
                0.2979099909723468,
                -0.9901599747793195,
                0.1902601755776776
            ]
        },
        {
            "positions": [
                1.064672881044984,
                -1.060737066033518,
                -0.08099326463547385,
                0.41331380291299413,
                -0.9538607923901475,
                0.17452520485594497
            ]
        },
        {
            "positions": [
                0.9685005480792193,
                -1.0499369146180535,
                0.027161162392972837,
                0.528717614853641,
                -0.9175616100009756,
                0.1587902341342124
            ]
        },
        {
            "positions": [
                0.8723282151134544,
                -1.039136763202589,
                0.13531558942141952,
                0.6441214267942883,
                -0.8812624276118036,
                0.14305526341247976
            ]
        },
        {
            "positions": [
                0.7761558821476897,
                -1.0283366117871244,
                0.2434700164498662,
                0.7595252387349352,
                -0.8449632452226318,
                0.12732029269074718
            ]
        },
        {
            "positions": [
                0.6799835491819248,
                -1.0175364603716601,
                0.3516244434783129,
                0.8749290506755825,
                -0.8086640628334598,
                0.11158532196901455
            ]
        },
        {
            "positions": [
                0.5838112162161604,
                -1.0067363089561956,
                0.45977887050675914,
                0.9903328626162293,
                -0.7723648804442879,
                0.09585035124728197
            ]
        },
        {
            "positions": [
                0.4876388832503955,
                -0.9959361575407311,
                0.5679332975352058,
                1.1057366745568766,
                -0.7360656980551159,
                0.0801153805255494
            ]
        },
        {
            "positions": [
                0.3914665502846306,
                -0.9851360061252666,
                0.6760877245636525,
                1.2211404864975235,
                -0.6997665156659441,
                0.06438040980381682
            ]
        },
        {
            "positions": [
                0.29529421731886574,
                -0.9743358547098021,
                0.7842421515920992,
                1.3365442984381708,
                -0.6634673332767721,
                0.048645439082084185
            ]
        },
        {
            "positions": [
                0.1991218843531013,
                -0.9635357032943377,
                0.8923965786205459,
                1.4519481103788177,
                -0.6271681508876001,
                0.03291046836035161
            ]
        },
        {
            "positions": [
                0.10294955138733629,
                -0.9527355518788732,
                1.0005510056489926,
                1.5673519223194647,
                -0.5908689684984282,
                0.017175497638618958
            ]
        },
        {
            "positions": [
                0.10095757519951852,
                -0.9247155314397661,
                1.1645175152883611,
                1.6301607689608122,
                -0.5163928672371791,
                0.01233299183623757
            ]
        },
        {
            "positions": [
                0.09896559901170075,
                -0.8966955110006591,
                1.3284840249277297,
                1.6929696156021594,
                -0.44191676597593005,
                0.007490486033856183
            ]
        },
        {
            "positions": [
                0.09697362282388297,
                -0.8686754905615521,
                1.4924505345670984,
                1.7557784622435069,
                -0.36744066471468095,
                0.0026479802314747936
            ]
        },
        {
            "positions": [
                0.0949816466360652,
                -0.8406554701224451,
                1.6564170442064667,
                1.818587308884854,
                -0.2929645634534319,
                -0.002194525570906592
            ]
        },
        {
            "positions": [
                0.09298967044824744,
                -0.8126354496833381,
                1.8203835538458355,
                1.8813961555262018,
                -0.21848846219218282,
                -0.007037031373287983
            ]
        },
        {
            "positions": [
                0.09099769426042967,
                -0.7846154292442311,
                1.984350063485204,
                1.944205002167549,
                -0.14401236093093378,
                -0.01187953717566937
            ]
        },
        {
            "positions": [
                0.12220028637939816,
                -0.7785114111151573,
                1.9983729264816352,
                1.940763324904173,
                -0.12698829724911934,
                -0.01307247650061075
            ]
        }
    ]
}