{
    "goal": {
        "global_pose": {
            "orientation": {
                "w": -0.00223480608172531,
                "x": 0.0024358444001904467,
                "y": 0.7094548369677653,
                "z": -0.704743149386269
            },
            "position": {
                "x": -0.37947507619857795,
                "y": -0.6371506643295288,
                "z": 0.19426114857196808
            }
        },
        "name": "move_to_magneteinheit_C"
    },
    "id": "LazyPRM_move_to_magneteinheit_C_49",
    "joint_names": [
        "shoulder_pan_joint",
        "shoulder_lift_joint",
        "elbow_joint",
        "wrist_1_joint",
        "wrist_2_joint",
        "wrist_3_joint"
    ],
    "metrics": {
        "cart_traj_len": 0.7698519000300663,
        "distance_elbow_joint": 0.8028878104101818,
        "distance_shoulder_lift_joint": 0.9836643493983122,
        "distance_shoulder_pan_joint": 0.9287715120822428,
        "distance_wrist_1_joint": 1.349237893527441,
        "distance_wrist_2_joint": 0.7881206593956542,
        "distance_wrist_3_joint": 1.8815214490140595,
        "smoothness": 1.0604920104267377,
        "time": 0.070246289,
        "traj_len": 2.5950344263280773,
        "weighted_distance": 3.5545189723476094
    },
    "planner": "LazyPRM",
    "start": {
        "state": {
            "elbow_joint": 1.9565354010623817,
            "shoulder_lift_joint": -1.4165861575791021,
            "shoulder_pan_joint": -1.6717766225146293,
            "wrist_1_joint": -0.5286633292919765,
            "wrist_2_joint": 1.472756589071564,
            "wrist_3_joint": -3.1238370188695823
        }
    },
    "waypoints": [
        {
            "positions": [
                -1.6717766225146293,
                -1.4165861575791021,
                1.9565354010623817,
                -0.5286633292919765,
                1.472756589071564,
                -3.1238370188695823
            ]
        },
        {
            "positions": [
                -1.6561822873705414,
                -1.4426778566590108,
                1.9940991782388584,
                -0.6049527297279694,
                1.4390297734456956,
                -2.9963594742097457
            ]
        },
        {
            "positions": [
                -1.6405879522264535,
                -1.4687695557389198,
                2.031662955415335,
                -0.6812421301639624,
                1.4053029578198273,
                -2.868881929549909
            ]
        },
        {
            "positions": [
                -1.6249936170823656,
                -1.4948612548188285,
                2.0692267325918117,
                -0.7575315305999554,
                1.371576142193959,
                -2.7414043848900724
            ]
        },
        {
            "positions": [
                -1.6994964051541745,
                -1.5307571949922025,
                2.1089702952308955,
                -0.8333516238740595,
                1.300589898353823,
                -2.6730455948118985
            ]
        },
        {
            "positions": [
                -1.7739991932259838,
                -1.5666531351655766,
                2.14871385786998,
                -0.9091717171481636,
                1.229603654513687,
                -2.604686804733724
            ]
        },
        {
            "positions": [
                -1.848501981297793,
                -1.6025490753389504,
                2.1884574205090637,
                -0.9849918104222677,
                1.1586174106735512,
                -2.5363280146555502
            ]
        },
        {
            "positions": [
                -1.923004769369602,
                -1.6384450155123245,
                2.228200983148148,
                -1.0608119036963717,
                1.087631166833415,
                -2.4679692245773763
            ]
        },
        {
            "positions": [
                -1.997507557441411,
                -1.6743409556856985,
                2.267944545787232,
                -1.136631996970476,
                1.0166449229932792,
                -2.399610434499202
            ]
        },
        {
            "positions": [
                -2.0720103455132204,
                -1.7102368958590723,
                2.3076881084263157,
                -1.21245209024458,
                0.9456586791531434,
                -2.331251644421028
            ]
        },
        {
            "positions": [
                -2.1465131335850294,
                -1.7461328360324464,
                2.3474316710654,
                -1.2882721835186839,
                0.8746724353130074,
                -2.2628928543428537
            ]
        },
        {
            "positions": [
                -2.2210159216568384,
                -1.7820287762058205,
                2.387175233704484,
                -1.364092276792788,
                0.8036861914728715,
                -2.19453406426468
            ]
        },
        {
            "positions": [
                -2.2746058756711385,
                -1.7131487513874255,
                2.343427638097864,
                -1.3012942900390303,
                0.7811866687551648,
                -2.324775140220647
            ]
        },
        {
            "positions": [
                -2.3281958296854386,
                -1.6442687265690306,
                2.2996800424912442,
                -1.2384963032852725,
                0.7586871460374582,
                -2.455016216176614
            ]
        },
        {
            "positions": [
                -2.381785783699739,
                -1.5753887017506356,
                2.255932446884624,
                -1.1756983165315145,
                0.7361876233197515,
                -2.5852572921325807
            ]
        },
        {
            "positions": [
                -2.4353757377140393,
                -1.5065086769322407,
                2.2121848512780042,
                -1.1129003297777567,
                0.7136881006020449,
                -2.715498368088548
            ]
        },
        {
            "positions": [
                -2.4889656917283394,
                -1.4376286521138457,
                2.1684372556713845,
                -1.0501023430239989,
                0.6911885778843383,
                -2.845739444044515
            ]
        },
        {
            "positions": [
                -2.4895897680908368,
                -1.3556904131823924,
                2.121950094778169,
                -0.9889493721758473,
                0.687196045713718,
                -2.941248282916156
            ]
        },
        {
            "positions": [
                -2.4808935902700826,
                -1.2597487293083094,
                2.0684386753572865,
                -0.9196163514710031,
                0.6859159876948138,
                -3.0440004207949967
            ]
        },
        {
            "positions": [
                -2.472197412449329,
                -1.1638070454342266,
                2.014927255936404,
                -0.8502833307661588,
                0.6846359296759097,
                -3.1467525586738367
            ]
        }
    ]
}