{
    "goal": {
        "global_pose": {
            "orientation": {
                "w": 0.7047431468963623,
                "x": -0.7094548344612122,
                "y": 0.0024358443915843964,
                "z": -0.0022348060738295317
            },
            "position": {
                "x": 0.6094750761985779,
                "y": 0.3671506643295288,
                "z": 0.19426114857196808
            }
        },
        "name": "move_to_magneteinheit_A"
    },
    "id": "LazyPRMstar_move_to_magneteinheit_A_85",
    "joint_names": [
        "shoulder_pan_joint",
        "shoulder_lift_joint",
        "elbow_joint",
        "wrist_1_joint",
        "wrist_2_joint",
        "wrist_3_joint"
    ],
    "metrics": {
        "cart_traj_len": 3.121282640966359,
        "distance_elbow_joint": 3.938385119643944,
        "distance_shoulder_lift_joint": 0.4570481235245315,
        "distance_shoulder_pan_joint": 2.7984514373347458,
        "distance_wrist_1_joint": 3.5457801946256473,
        "distance_wrist_2_joint": 1.6176470920793036,
        "distance_wrist_3_joint": 0.6424574738114253,
        "smoothness": 0.055569725095880644,
        "time": 5.03518043,
        "traj_len": 3.6055193025443084,
        "weighted_distance": 4.410001323735334
    },
    "planner": "LazyPRMstar",
    "start": {
        "state": {
            "elbow_joint": -1.9196185241190666,
            "shoulder_lift_joint": -1.2443396400964142,
            "shoulder_pan_joint": 2.6996025414629847,
            "wrist_1_joint": -1.5485510000780065,
            "wrist_2_joint": -1.5709468930060704,
            "wrist_3_joint": 0.4420197071253992
        }
    },
    "waypoints": [
        {
            "positions": [
                2.6996025414629847,
                -1.2443396400964142,
                -1.9196185241190666,
                -1.5485510000780065,
                -1.5709468930060704,
                0.4420197071253992
            ]
        },
        {
            "positions": [
                2.5454227575061643,
                -1.224075865515812,
                -1.8118038826322962,
                -1.4865487617371616,
                -1.576737354577942,
                0.40524760131696086
            ]
        },
        {
            "positions": [
                2.391242973549344,
                -1.20381209093521,
                -1.7039892411455257,
                -1.4245465233963166,
                -1.5825278161498135,
                0.36847549550852254
            ]
        },
        {
            "positions": [
                2.237063189592523,
                -1.1835483163546077,
                -1.5961745996587553,
                -1.3625442850554716,
                -1.588318277721685,
                0.3317033897000843
            ]
        },
        {
            "positions": [
                2.0828834056357026,
                -1.1632845417740056,
                -1.4883599581719849,
                -1.3005420467146267,
                -1.594108739293557,
                0.2949312838916459
            ]
        },
        {
            "positions": [
                1.9287036216788822,
                -1.1430207671934034,
                -1.3805453166852144,
                -1.2385398083737817,
                -1.5998992008654285,
                0.25815917808320765
            ]
        },
        {
            "positions": [
                1.7745238377220618,
                -1.1227569926128012,
                -1.272730675198444,
                -1.1765375700329366,
                -1.6056896624373,
                0.22138707227476934
            ]
        },
        {
            "positions": [
                1.6203440537652412,
                -1.1024932180321991,
                -1.1649160337116735,
                -1.1145353316920916,
                -1.6114801240091716,
                0.18461496646633102
            ]
        },
        {
            "positions": [
                1.4661642698084207,
                -1.0822294434515969,
                -1.057101392224903,
                -1.0525330933512467,
                -1.6172705855810432,
                0.1478428606578927
            ]
        },
        {
            "positions": [
                1.3119844858516003,
                -1.0619656688709946,
                -0.9492867507381326,
                -0.9905308550104018,
                -1.6230610471529148,
                0.11107075484945439
            ]
        },
        {
            "positions": [
                1.1578047018947797,
                -1.0417018942903926,
                -0.8414721092513622,
                -0.9285286166695569,
                -1.6288515087247863,
                0.07429864904101607
            ]
        },
        {
            "positions": [
                1.0036249179379593,
                -1.0214381197097904,
                -0.7336574677645917,
                -0.8665263783287119,
                -1.634641970296658,
                0.03752654323257776
            ]
        },
        {
            "positions": [
                0.8494451339811389,
                -1.0011743451291881,
                -0.6258428262778213,
                -0.8045241399878669,
                -1.6404324318685295,
                0.000754437424139498
            ]
        },
        {
            "positions": [
                0.6952653500243184,
                -0.9809105705485861,
                -0.5180281847910508,
                -0.7425219016470219,
                -1.6462228934404013,
                -0.03601766838429882
            ]
        },
        {
            "positions": [
                0.5410855660674976,
                -0.9606467959679839,
                -0.4102135433042804,
                -0.680519663306177,
                -1.6520133550122729,
                -0.07278977419273713
            ]
        },
        {
            "positions": [
                0.38690578211067717,
                -0.9403830213873817,
                -0.30239890181750995,
                -0.618517424965332,
                -1.6578038165841444,
                -0.1095618800011755
            ]
        },
        {
            "positions": [
                0.2327259981538569,
                -0.9201192468067796,
                -0.1945842603307394,
                -0.5565151866244871,
                -1.663594278156016,
                -0.14633398580961374
            ]
        },
        {
            "positions": [
                0.2157130926231854,
                -0.9112260315939457,
                -0.062461933591594965,
                -0.4084354243579683,
                -1.5781598079799473,
                -0.1458592543259543
            ]
        },
        {
            "positions": [
                0.19870018709251386,
                -0.9023328163811117,
                0.06966039314754946,
                -0.26035566209144956,
                -1.4927253378038783,
                -0.1453845228422949
            ]
        },
        {
            "positions": [
                0.18168728156184238,
                -0.8934396011682779,
                0.20178271988669388,
                -0.1122758998249308,
                -1.4072908676278095,
                -0.14490979135863546
            ]
        },
        {
            "positions": [
                0.16467437603117085,
                -0.884546385955444,
                0.3339050466258383,
                0.03580386244158795,
                -1.3218563974517408,
                -0.14443505987497607
            ]
        },
        {
            "positions": [
                0.14766147050049935,
                -0.8756531707426101,
                0.4660273733649827,
                0.1838836247081067,
                -1.2364219272756718,
                -0.14396032839131664
            ]
        },
        {
            "positions": [
                0.13064856496982785,
                -0.8667599555297761,
                0.5981497001041272,
                0.33196338697462546,
                -1.1509874570996028,
                -0.14348559690765722
            ]
        },
        {
            "positions": [
                0.11363565943915635,
                -0.8578667403169423,
                0.7302720268432714,
                0.4800431492411441,
                -1.0655529869235343,
                -0.1430108654239978
            ]
        },
        {
            "positions": [
                0.09662275390848482,
                -0.8489735251041084,
                0.862394353582416,
                0.628122911507663,
                -0.9801185167474653,
                -0.14253613394033837
            ]
        },
        {
            "positions": [
                0.07960984837781335,
                -0.8400803098912745,
                0.9945166803215603,
                0.7762026737741816,
                -0.8946840465713964,
                -0.14206140245667895
            ]
        },
        {
            "positions": [
                0.06259694284714182,
                -0.8311870946784405,
                1.1266390070607049,
                0.9242824360407005,
                -0.8092495763953276,
                -0.14158667097301955
            ]
        },
        {
            "positions": [
                0.045584037316470316,
                -0.8222938794656067,
                1.2587613337998493,
                1.0723621983072191,
                -0.7238151062192588,
                -0.14111193948936013
            ]
        },
        {
            "positions": [
                0.028571131785798815,
                -0.8134006642527728,
                1.3908836605389938,
                1.220441960573738,
                -0.6383806360431898,
                -0.1406372080057007
            ]
        },
        {
            "positions": [
                0.011558226255127316,
                -0.8045074490399389,
                1.5230059872781379,
                1.3685217228402566,
                -0.5529461658671212,
                -0.14016247652204128
            ]
        },
        {
            "positions": [
                0.032649612073249554,
                -0.800316281714567,
                1.6340086323416292,
                1.5077697556533822,
                -0.4621245012771299,
                -0.13039149904236136
            ]
        },
        {
            "positions": [
                0.05374099789137178,
                -0.7961251143891951,
                1.7450112774051205,
                1.6470177884665076,
                -0.37130283668713854,
                -0.12062052156268141
            ]
        },
        {
            "positions": [
                0.07483238370949402,
                -0.7919339470638231,
                1.8560139224686116,
                1.7862658212796332,
                -0.2804811720971472,
                -0.11084954408300149
            ]
        },
        {
            "positions": [
                0.09592376952761625,
                -0.7877427797384513,
                1.967016567532103,
                1.9255138540927588,
                -0.18965950750715588,
                -0.10107856660332155
            ]
        },
        {
            "positions": [
                0.12196534838201496,
                -0.7872915165718827,
                2.0187665955248772,
                1.9972291945476397,
                -0.1385945712266582,
                -0.09223020493320107
            ]
        }
    ]
}