{
    "goal": {
        "global_pose": {
            "orientation": {
                "w": -0.00223480608172531,
                "x": 0.0024358444001904467,
                "y": 0.7094548369677653,
                "z": -0.704743149386269
            },
            "position": {
                "x": -0.37947507619857795,
                "y": -0.6371506643295288,
                "z": 0.19426114857196808
            }
        },
        "name": "move_to_magneteinheit_C"
    },
    "id": "LazyPRMstar_move_to_magneteinheit_C_23",
    "joint_names": [
        "shoulder_pan_joint",
        "shoulder_lift_joint",
        "elbow_joint",
        "wrist_1_joint",
        "wrist_2_joint",
        "wrist_3_joint"
    ],
    "metrics": {
        "cart_traj_len": 0.8482090400190692,
        "distance_elbow_joint": 0.48795162950148097,
        "distance_shoulder_lift_joint": 0.7681655417195048,
        "distance_shoulder_pan_joint": 1.1031429227435587,
        "distance_wrist_1_joint": 0.3122804008353982,
        "distance_wrist_2_joint": 0.8647881624365329,
        "distance_wrist_3_joint": 0.59897593328026,
        "smoothness": 1.4307579603386176,
        "time": 5.011127865,
        "traj_len": 2.033544833662817,
        "weighted_distance": 2.5515338563987715
    },
    "planner": "LazyPRMstar",
    "start": {
        "state": {
            "elbow_joint": 1.9565354010623817,
            "shoulder_lift_joint": -1.4165861575791021,
            "shoulder_pan_joint": -1.6717766225146293,
            "wrist_1_joint": -0.5286633292919765,
            "wrist_2_joint": 1.472756589071564,
            "wrist_3_joint": -3.1238370188695823
        }
    },
    "waypoints": [
        {
            "positions": [
                -1.6717766225146293,
                -1.4165861575791021,
                1.9565354010623817,
                -0.5286633292919765,
                1.472756589071564,
                -3.1238370188695823
            ]
        },
        {
            "positions": [
                -1.7762421738731917,
                -1.4775393594273143,
                1.998333176687823,
                -0.518269493686072,
                1.5102602174269704,
                -3.07388963658904
            ]
        },
        {
            "positions": [
                -1.9457345012118095,
                -1.5169086031101513,
                2.0438831225516614,
                -0.532101305503367,
                1.482019284820389,
                -3.0270528981966076
            ]
        },
        {
            "positions": [
                -2.115226828550427,
                -1.5562778467929883,
                2.0894330684155,
                -0.545933117320662,
                1.4537783522138077,
                -2.980216159804175
            ]
        },
        {
            "positions": [
                -2.284719155889045,
                -1.5956470904758255,
                2.1349830142793387,
                -0.559764929137957,
                1.4255374196072264,
                -2.9333794214117423
            ]
        },
        {
            "positions": [
                -2.454211483227663,
                -1.6350163341586625,
                2.1805329601431773,
                -0.5735967409552519,
                1.397296487000645,
                -2.88654268301931
            ]
        },
        {
            "positions": [
                -2.6237038105662807,
                -1.6743855778414996,
                2.226082906007016,
                -0.5874285527725469,
                1.3690555543940637,
                -2.8397059446268775
            ]
        },
        {
            "positions": [
                -2.5985011881176296,
                -1.5893245575986483,
                2.1896822185808746,
                -0.6262164704630501,
                1.2547089092193604,
                -2.8921800877998036
            ]
        },
        {
            "positions": [
                -2.573298565668978,
                -1.504263537355797,
                2.1532815311547338,
                -0.6650043881535532,
                1.1403622640446571,
                -2.9446542309727293
            ]
        },
        {
            "positions": [
                -2.5480959432203267,
                -1.4192025171129459,
                2.116880843728593,
                -0.7037923058440563,
                1.0260156188699538,
                -2.997128374145655
            ]
        },
        {
            "positions": [
                -2.5228933207716757,
                -1.3341414968700946,
                2.0804801563024515,
                -0.7425802235345594,
                0.9116689736952506,
                -3.049602517318581
            ]
        },
        {
            "positions": [
                -2.4976906983230247,
                -1.2490804766272434,
                2.04407946887631,
                -0.7813681412250626,
                0.7973223285205472,
                -3.102076660491507
            ]
        },
        {
            "positions": [
                -2.4724880758743732,
                -1.1640194563843922,
                2.0076787814501693,
                -0.8201560589155658,
                0.6829756833458439,
                -3.1545508036644327
            ]
        }
    ]
}