{
    "goal": {
        "global_pose": {
            "orientation": {
                "w": 0.5084816217422485,
                "x": -0.49083608388900757,
                "y": 0.5182115435600281,
                "z": -0.4816462993621826
            },
            "position": {
                "x": 0.5540239810943604,
                "y": 0.030875300988554955,
                "z": 0.16403168439865112
            }
        },
        "name": "move_to_storage_A"
    },
    "id": "LazyPRM_move_to_storage_A_112",
    "joint_names": [
        "shoulder_pan_joint",
        "shoulder_lift_joint",
        "elbow_joint",
        "wrist_1_joint",
        "wrist_2_joint",
        "wrist_3_joint"
    ],
    "metrics": {
        "cart_traj_len": 0.35316693265725274,
        "distance_elbow_joint": 0.4492845691420786,
        "distance_shoulder_lift_joint": 0.2352067067925303,
        "distance_shoulder_pan_joint": 0.4586661169970613,
        "distance_wrist_1_joint": 0.23576523735424304,
        "distance_wrist_2_joint": 1.1131899858635417,
        "distance_wrist_3_joint": 0.09846789735789185,
        "smoothness": 1.5543122362334363e-15,
        "time": 0.021990885,
        "traj_len": 1.6095280406092176,
        "weighted_distance": 2.0338317362655434
    },
    "planner": "LazyPRM",
    "start": {
        "state": {
            "elbow_joint": 1.971548259319323,
            "shoulder_lift_joint": -1.1394851275133948,
            "shoulder_pan_joint": 0.1228115487234821,
            "wrist_1_joint": -0.7804723859257726,
            "wrist_2_joint": 0.12958671773740124,
            "wrist_3_joint": -3.192489227718131
        }
    },
    "waypoints": [
        {
            "positions": [
                0.1228115487234821,
                -1.1394851275133948,
                1.971548259319323,
                -0.7804723859257726,
                0.12958671773740124,
                -3.192489227718131
            ]
        },
        {
            "positions": [
                0.057287817723901915,
                -1.1730860856266134,
                2.035731769196763,
                -0.814153134119236,
                0.28861385857505006,
                -3.178422385238432
            ]
        },
        {
            "positions": [
                -0.00823591327567827,
                -1.206687043739832,
                2.0999152790742026,
                -0.8478338823126992,
                0.44764099941269886,
                -3.1643555427587335
            ]
        },
        {
            "positions": [
                -0.07375964427525844,
                -1.2402880018530507,
                2.1640987889516423,
                -0.8815146305061625,
                0.6066681402503477,
                -3.1502887002790345
            ]
        },
        {
            "positions": [
                -0.13928337527483864,
                -1.2738889599662693,
                2.228282298829082,
                -0.9151953786996258,
                0.7656952810879964,
                -3.136221857799336
            ]
        },
        {
            "positions": [
                -0.20480710627441884,
                -1.307489918079488,
                2.292465808706522,
                -0.9488761268930891,
                0.9247224219256454,
                -3.122155015319637
            ]
        },
        {
            "positions": [
                -0.270330837273999,
                -1.3410908761927065,
                2.356649318583962,
                -0.9825568750865523,
                1.083749562763294,
                -3.1080881728399383
            ]
        },
        {
            "positions": [
                -0.3358545682735792,
                -1.3746918343059251,
                2.4208328284614016,
                -1.0162376232800157,
                1.242776703600943,
                -3.0940213303602393
            ]
        }
    ]
}{
    "goal": {
        "global_pose": {
            "orientation": {
                "w": 0.5084816217422485,
                "x": -0.49083608388900757,
                "y": 0.5182115435600281,
                "z": -0.4816462993621826
            },
            "position": {
                "x": 0.5540239810943604,
                "y": 0.030875300988554955,
                "z": 0.16403168439865112
            }
        },
        "name": "move_to_storage_A"
    },
    "id": "LazyPRM_move_to_storage_A_112",
    "joint_names": [
        "shoulder_pan_joint",
        "shoulder_lift_joint",
        "elbow_joint",
        "wrist_1_joint",
        "wrist_2_joint",
        "wrist_3_joint"
    ],
    "metrics": {
        "cart_traj_len": 0.35318644948685773,
        "distance_elbow_joint": 0.44869018836215124,
        "distance_shoulder_lift_joint": 0.2328693717181194,
        "distance_shoulder_pan_joint": 0.4626648755086124,
        "distance_wrist_1_joint": 0.24160662143960887,
        "distance_wrist_2_joint": 1.094378136375824,
        "distance_wrist_3_joint": 0.10387613154141162,
        "smoothness": 1.5543122362334363e-15,
        "time": 0.022121246,
        "traj_len": 1.607509043503559,
        "weighted_distance": 2.0317042958668923
    },
    "planner": "LazyPRM",
    "start": {
        "state": {
            "elbow_joint": 1.97154746011099,
            "shoulder_lift_joint": -1.13948474672311,
            "shoulder_pan_joint": 0.12281154466712228,
            "wrist_1_joint": -0.7804688027058302,
            "wrist_2_joint": 0.12958655903071145,
            "wrist_3_joint": 3.0906928834467795
        }
    },
    "waypoints": [
        {
            "positions": [
                0.12281154466712228,
                -1.13948474672311,
                1.97154746011099,
                -0.7804688027058302,
                0.12958655903071145,
                3.0906928834467795
            ]
        },
        {
            "positions": [
                0.05671656245160622,
                -1.1727517998256984,
                2.03564605844844,
                -0.8149840343400601,
                0.2859262927986863,
                3.1055323308098384
            ]
        },
        {
            "positions": [
                -0.009378419763909837,
                -1.206018852928287,
                2.0997446567858904,
                -0.8494992659742898,
                0.44226602656666114,
                3.1203717781728972
            ]
        },
        {
            "positions": [
                -0.07547340197942588,
                -1.2392859060308754,
                2.1638432551233406,
                -0.8840144976085197,
                0.598605760334636,
                3.135211225535956
            ]
        },
        {
            "positions": [
                -0.14156838419494194,
                -1.272552959133464,
                2.2279418534607904,
                -0.9185297292427496,
                0.7549454941026109,
                3.1500506728990145
            ]
        },
        {
            "positions": [
                -0.20766336641045802,
                -1.3058200122360524,
                2.2920404517982407,
                -0.9530449608769793,
                0.9112852278705859,
                3.1648901202620734
            ]
        },
        {
            "positions": [
                -0.27375834862597404,
                -1.3390870653386409,
                2.356139050135691,
                -0.9875601925112092,
                1.0676249616385605,
                3.1797295676251323
            ]
        },
        {
            "positions": [
                -0.3398533308414901,
                -1.3723541184412293,
                2.420237648473141,
                -1.022075424145439,
                1.2239646954065355,
                3.194569014988191
            ]
        }
    ]
}{
    "goal": {
        "global_pose": {
            "orientation": {
                "w": 0.5084816217422485,
                "x": -0.49083608388900757,
                "y": 0.5182115435600281,
                "z": -0.4816462993621826
            },
            "position": {
                "x": 0.5540239810943604,
                "y": 0.030875300988554955,
                "z": 0.16403168439865112
            }
        },
        "name": "move_to_storage_A"
    },
    "id": "LazyPRM_move_to_storage_A_112",
    "joint_names": [
        "shoulder_pan_joint",
        "shoulder_lift_joint",
        "elbow_joint",
        "wrist_1_joint",
        "wrist_2_joint",
        "wrist_3_joint"
    ],
    "metrics": {
        "cart_traj_len": 0.3540482145907113,
        "distance_elbow_joint": 0.4517646058626328,
        "distance_shoulder_lift_joint": 0.2337328419617506,
        "distance_shoulder_pan_joint": 0.4620877686680301,
        "distance_wrist_1_joint": 0.25052381218342124,
        "distance_wrist_2_joint": 1.1043839747400077,
        "distance_wrist_3_joint": 0.09759786527777425,
        "smoothness": 8.881784197001252e-16,
        "time": 0.011907291,
        "traj_len": 1.6124797265992576,
        "weighted_distance": 2.037202588397284
    },
    "planner": "LazyPRM",
    "start": {
        "state": {
            "elbow_joint": 1.9715472970024885,
            "shoulder_lift_joint": -1.1394870060712896,
            "shoulder_pan_joint": 0.12281152778156021,
            "wrist_1_joint": -0.780463741449964,
            "wrist_2_joint": 0.12958659822042276,
            "wrist_3_joint": 3.090690232415272
        }
    },
    "waypoints": [
        {
            "positions": [
                0.12281152778156021,
                -1.1394870060712896,
                1.9715472970024885,
                -0.780463741449964,
                0.12958659822042276,
                3.090690232415272
            ]
        },
        {
            "positions": [
                0.05679898940041307,
                -1.1728774120658254,
                2.0360850978400076,
                -0.816252857476167,
                0.2873557374689953,
                3.1046327845978112
            ]
        },
        {
            "positions": [
                -0.009213548980734065,
                -1.2062678180603612,
                2.1006228986775266,
                -0.8520419735023701,
                0.44512487671756784,
                3.11857533678035
            ]
        },
        {
            "positions": [
                -0.07522608736188122,
                -1.239658224054897,
                2.1651606995150456,
                -0.887831089528573,
                0.6028940159661403,
                3.1325178889628895
            ]
        },
        {
            "positions": [
                -0.14123862574302834,
                -1.2730486300494328,
                2.2296985003525642,
                -0.9236202055547761,
                0.7606631552147128,
                3.1464604411454284
            ]
        },
        {
            "positions": [
                -0.20725116412417552,
                -1.3064390360439686,
                2.2942363011900833,
                -0.9594093215809791,
                0.9184322944632854,
                3.160402993327968
            ]
        },
        {
            "positions": [
                -0.2732637025053226,
                -1.3398294420385044,
                2.3587741020276023,
                -0.9951984376071822,
                1.076201433711858,
                3.1743455455105067
            ]
        },
        {
            "positions": [
                -0.33927624088646985,
                -1.3732198480330402,
                2.4233119028651213,
                -1.0309875536333852,
                1.2339705729604304,
                3.188288097693046
            ]
        }
    ]
}