{
    "goal": {
        "global_pose": {
            "orientation": {
                "w": 0.005598929693374612,
                "x": 0.007748599140229565,
                "y": 0.7110244013736278,
                "z": -0.7031023480610252
            },
            "position": {
                "x": 0.1141497679147869,
                "y": -0.7141253447532654,
                "z": 0.3711530566215515
            }
        },
        "name": "move_to_auspresseinheit_B"
    },
    "id": "LazyPRMstar_move_to_auspresseinheit_B_74",
    "joint_names": [
        "shoulder_pan_joint",
        "shoulder_lift_joint",
        "elbow_joint",
        "wrist_1_joint",
        "wrist_2_joint",
        "wrist_3_joint"
    ],
    "metrics": {
        "cart_traj_len": 0.5648696679282886,
        "distance_elbow_joint": 0.0643295864266622,
        "distance_shoulder_lift_joint": 0.2932898548531211,
        "distance_shoulder_pan_joint": 0.5753422129645627,
        "distance_wrist_1_joint": 0.3341398108351471,
        "distance_wrist_2_joint": 1.00727570876794,
        "distance_wrist_3_joint": 0.0020600833961061937,
        "smoothness": 5.075305295617109e-16,
        "time": 5.001441789,
        "traj_len": 1.5087866838103852,
        "weighted_distance": 1.9031481664964605
    },
    "planner": "LazyPRMstar",
    "start": {
        "state": {
            "elbow_joint": 2.0193083361928714,
            "shoulder_lift_joint": -1.1220246554650708,
            "shoulder_pan_joint": -1.0952077554168747,
            "wrist_1_joint": -0.8559753972642168,
            "wrist_2_joint": 0.4759566250798843,
            "wrist_3_joint": -3.1240929996934557
        }
    },
    "waypoints": [
        {
            "positions": [
                -1.0952077554168747,
                -1.1220246554650708,
                2.0193083361928714,
                -0.8559753972642168,
                0.4759566250798843,
                -3.1240929996934557
            ]
        },
        {
            "positions": [
                -1.1910981242443017,
                -1.1709062979405909,
                2.0085867384550946,
                -0.8002854287916923,
                0.643835909874541,
                -3.12443634692614
            ]
        },
        {
            "positions": [
                -1.2869884930717288,
                -1.2197879404161112,
                1.9978651407173174,
                -0.7445954603191678,
                0.8117151946691976,
                -3.1247796941588244
            ]
        },
        {
            "positions": [
                -1.3828788618991559,
                -1.2686695828916315,
                1.9871435429795403,
                -0.6889054918466433,
                0.9795944794638543,
                -3.1251230413915088
            ]
        },
        {
            "positions": [
                -1.478769230726583,
                -1.3175512253671515,
                1.9764219452417633,
                -0.6332155233741188,
                1.1474737642585109,
                -3.125466388624193
            ]
        },
        {
            "positions": [
                -1.5746595995540102,
                -1.3664328678426716,
                1.9657003475039863,
                -0.5775255549015942,
                1.3153530490531677,
                -3.1258097358568775
            ]
        },
        {
            "positions": [
                -1.6705499683814373,
                -1.4153145103181919,
                1.9549787497662092,
                -0.5218355864290697,
                1.4832323338478244,
                -3.126153083089562
            ]
        }
    ]
}