{
    "goal": {
        "global_pose": {
            "orientation": {
                "w": -0.4816463035849501,
                "x": 0.5182115481033762,
                "y": 0.4908360881923453,
                "z": -0.5084816262002911
            },
            "position": {
                "x": -0.8240239810943604,
                "y": -0.300875300988555,
                "z": 0.16403168439865112
            }
        },
        "name": "move_to_storage_C"
    },
    "id": "LazyPRM_move_to_storage_C_71",
    "joint_names": [
        "shoulder_pan_joint",
        "shoulder_lift_joint",
        "elbow_joint",
        "wrist_1_joint",
        "wrist_2_joint",
        "wrist_3_joint"
    ],
    "metrics": {
        "cart_traj_len": 0.576925764482248,
        "distance_elbow_joint": 0.25664370006822335,
        "distance_shoulder_lift_joint": 0.18982844578232572,
        "distance_shoulder_pan_joint": 0.49495412825794416,
        "distance_wrist_1_joint": 0.07232474803154665,
        "distance_wrist_2_joint": 1.068521592389693,
        "distance_wrist_3_joint": 0.06893817539403058,
        "smoothness": 2.5376526478085547e-16,
        "time": 0.011788895,
        "traj_len": 1.4667006476864197,
        "weighted_distance": 1.8520079592520826
    },
    "planner": "LazyPRM",
    "start": {
        "state": {
            "elbow_joint": 2.010868314990456,
            "shoulder_lift_joint": -1.1634956873337592,
            "shoulder_pan_joint": -2.4736205022346125,
            "wrist_1_joint": -0.8367026794202681,
            "wrist_2_joint": 0.6746043897044499,
            "wrist_3_joint": -3.1496632123970403
        }
    },
    "waypoints": [
        {
            "positions": [
                -2.4736205022346125,
                -1.1634956873337592,
                2.010868314990456,
                -0.8367026794202681,
                0.6746043897044499,
                -3.1496632123970403
            ]
        },
        {
            "positions": [
                -2.55611285694427,
                -1.1318576130367048,
                1.9680943649790852,
                -0.8246485547483436,
                0.8526913217693988,
                -3.138173516498035
            ]
        },
        {
            "positions": [
                -2.6386052116539274,
                -1.1002195387396507,
                1.9253204149677148,
                -0.8125944300764192,
                1.0307782538343475,
                -3.12668382059903
            ]
        },
        {
            "positions": [
                -2.721097566363585,
                -1.0685814644425964,
                1.8825464649563441,
                -0.8005403054044948,
                1.2088651858992963,
                -3.115194124700025
            ]
        },
        {
            "positions": [
                -2.803589921073242,
                -1.036943390145542,
                1.8397725149449735,
                -0.7884861807325704,
                1.386952117964245,
                -3.10370442880102
            ]
        },
        {
            "positions": [
                -2.886082275782899,
                -1.0053053158484877,
                1.796998564933603,
                -0.7764320560606459,
                1.5650390500291942,
                -3.092214732902015
            ]
        },
        {
            "positions": [
                -2.9685746304925567,
                -0.9736672415514335,
                1.7542246149222325,
                -0.7643779313887215,
                1.7431259820941427,
                -3.0807250370030097
            ]
        }
    ]
}