{
    "goal": {
        "global_pose": {
            "orientation": {
                "w": 0.005598929693374612,
                "x": 0.007748599140229565,
                "y": 0.7110244013736278,
                "z": -0.7031023480610252
            },
            "position": {
                "x": 0.1141497679147869,
                "y": -0.7141253447532654,
                "z": 0.3711530566215515
            }
        },
        "name": "move_to_auspresseinheit_B"
    },
    "id": "LazyPRMstar_move_to_auspresseinheit_B_72",
    "joint_names": [
        "shoulder_pan_joint",
        "shoulder_lift_joint",
        "elbow_joint",
        "wrist_1_joint",
        "wrist_2_joint",
        "wrist_3_joint"
    ],
    "metrics": {
        "cart_traj_len": 0.564172704120734,
        "distance_elbow_joint": 0.06318657457128185,
        "distance_shoulder_lift_joint": 0.29482979611323357,
        "distance_shoulder_pan_joint": 0.5772022116832456,
        "distance_wrist_1_joint": 0.3349114645126412,
        "distance_wrist_2_joint": 0.9934999806534,
        "distance_wrist_3_joint": 0.007606211765565085,
        "smoothness": 2.5376526478085547e-16,
        "time": 5.00013513,
        "traj_len": 1.5070621219111597,
        "weighted_distance": 1.901278545609911
    },
    "planner": "LazyPRMstar",
    "start": {
        "state": {
            "elbow_joint": 2.0193083361928714,
            "shoulder_lift_joint": -1.1220246554650708,
            "shoulder_pan_joint": -1.0952077554168747,
            "wrist_1_joint": -0.8559753972642168,
            "wrist_2_joint": 0.4759566250798843,
            "wrist_3_joint": -3.1240929996934557
        }
    },
    "waypoints": [
        {
            "positions": [
                -1.0952077554168747,
                -1.1220246554650708,
                2.0193083361928714,
                -0.8559753972642168,
                0.4759566250798843,
                -3.1240929996934557
            ]
        },
        {
            "positions": [
                -1.1914081240307488,
                -1.1711629548172764,
                2.008777240430991,
                -0.8001568198454433,
                0.6415399551887843,
                -3.122825297732528
            ]
        },
        {
            "positions": [
                -1.2876084926446232,
                -1.220301254169482,
                1.9982461446691109,
                -0.7443382424266697,
                0.8071232852976842,
                -3.1215575957716006
            ]
        },
        {
            "positions": [
                -1.3838088612584976,
                -1.2694395535216876,
                1.9877150489072304,
                -0.6885196650078962,
                0.9727066154065842,
                -3.120289893810673
            ]
        },
        {
            "positions": [
                -1.4800092298723717,
                -1.3185778528738932,
                1.9771839531453501,
                -0.6327010875891227,
                1.1382899455154842,
                -3.1190221918497456
            ]
        },
        {
            "positions": [
                -1.5762095984862459,
                -1.3677161522260988,
                1.9666528573834698,
                -0.5768825101703491,
                1.3038732756243843,
                -3.117754489888818
            ]
        },
        {
            "positions": [
                -1.6724099671001202,
                -1.4168544515783044,
                1.9561217616215896,
                -0.5210639327515756,
                1.4694566057332843,
                -3.1164867879278906
            ]
        }
    ]
}