{
    "goal": {
        "global_pose": {
            "orientation": {
                "w": 0.5084816217422485,
                "x": -0.49083608388900757,
                "y": 0.5182115435600281,
                "z": -0.4816462993621826
            },
            "position": {
                "x": 0.5540239810943604,
                "y": 0.030875300988554955,
                "z": 0.16403168439865112
            }
        },
        "name": "move_to_storage_A"
    },
    "id": "LazyPRMstar_move_to_storage_A_57",
    "joint_names": [
        "shoulder_pan_joint",
        "shoulder_lift_joint",
        "elbow_joint",
        "wrist_1_joint",
        "wrist_2_joint",
        "wrist_3_joint"
    ],
    "metrics": {
        "cart_traj_len": 0.3531704513048426,
        "distance_elbow_joint": 0.44962208570968065,
        "distance_shoulder_lift_joint": 0.23366367468147753,
        "distance_shoulder_pan_joint": 0.4603811049972872,
        "distance_wrist_1_joint": 0.24029805050688158,
        "distance_wrist_2_joint": 1.1050265228899552,
        "distance_wrist_3_joint": 0.09685835558199818,
        "smoothness": 2.2204460668324854e-16,
        "time": 5.00024777,
        "traj_len": 1.6080577708426027,
        "weighted_distance": 2.030982786467703
    },
    "planner": "LazyPRMstar",
    "start": {
        "state": {
            "elbow_joint": 1.971548259319323,
            "shoulder_lift_joint": -1.1394851275133948,
            "shoulder_pan_joint": 0.1228115487234821,
            "wrist_1_joint": -0.7804723859257726,
            "wrist_2_joint": 0.12958671773740124,
            "wrist_3_joint": -3.192489227718131
        }
    },
    "waypoints": [
        {
            "positions": [
                0.1228115487234821,
                -1.1394851275133948,
                1.971548259319323,
                -0.7804723859257726,
                0.12958671773740124,
                -3.192489227718131
            ]
        },
        {
            "positions": [
                0.05704281943815537,
                -1.1728656524678915,
                2.0357799858492776,
                -0.8148006788553271,
                0.2874476495788234,
                -3.1786523197778456
            ]
        },
        {
            "positions": [
                -0.008725909847171365,
                -1.2062461774223885,
                2.100011712379232,
                -0.8491289717848817,
                0.44530858142024554,
                -3.1648154118375604
            ]
        },
        {
            "positions": [
                -0.0744946391324981,
                -1.2396267023768852,
                2.1642434389091862,
                -0.8834572647144361,
                0.6031695132616677,
                -3.150978503897275
            ]
        },
        {
            "positions": [
                -0.14026336841782483,
                -1.273007227331382,
                2.2284751654391406,
                -0.9177855576439906,
                0.7610304451030899,
                -3.1371415959569893
            ]
        },
        {
            "positions": [
                -0.20603209770315162,
                -1.306387752285879,
                2.292706891969095,
                -0.9521138505735451,
                0.9188913769445122,
                -3.1233046880167037
            ]
        },
        {
            "positions": [
                -0.2718008269884783,
                -1.3397682772403756,
                2.3569386184990493,
                -0.9864421435030997,
                1.076752308785934,
                -3.1094677800764186
            ]
        },
        {
            "positions": [
                -0.3375695562738051,
                -1.3731488021948723,
                2.4211703450290036,
                -1.0207704364326542,
                1.2346132406273564,
                -3.095630872136133
            ]
        }
    ]
}{
    "goal": {
        "global_pose": {
            "orientation": {
                "w": 0.5084816217422485,
                "x": -0.49083608388900757,
                "y": 0.5182115435600281,
                "z": -0.4816462993621826
            },
            "position": {
                "x": 0.5540239810943604,
                "y": 0.030875300988554955,
                "z": 0.16403168439865112
            }
        },
        "name": "move_to_storage_A"
    },
    "id": "LazyPRMstar_move_to_storage_A_57",
    "joint_names": [
        "shoulder_pan_joint",
        "shoulder_lift_joint",
        "elbow_joint",
        "wrist_1_joint",
        "wrist_2_joint",
        "wrist_3_joint"
    ],
    "metrics": {
        "cart_traj_len": 0.3531533447473501,
        "distance_elbow_joint": 0.45091103997395887,
        "distance_shoulder_lift_joint": 0.23433721702827537,
        "distance_shoulder_pan_joint": 0.46318828610851137,
        "distance_wrist_1_joint": 0.24720810796822068,
        "distance_wrist_2_joint": 1.092980689199162,
        "distance_wrist_3_joint": 0.09646717967658303,
        "smoothness": 8.881784267329941e-16,
        "time": 5.000462257,
        "traj_len": 1.6078222911611568,
        "weighted_distance": 2.0293387288659477
    },
    "planner": "LazyPRMstar",
    "start": {
        "state": {
            "elbow_joint": 1.97154746011099,
            "shoulder_lift_joint": -1.13948474672311,
            "shoulder_pan_joint": 0.12281154466712228,
            "wrist_1_joint": -0.7804688027058302,
            "wrist_2_joint": 0.12958655903071145,
            "wrist_3_joint": 3.0906928834467795
        }
    },
    "waypoints": [
        {
            "positions": [
                0.12281154466712228,
                -1.13948474672311,
                1.97154746011099,
                -0.7804688027058302,
                0.12958655903071145,
                3.0906928834467795
            ]
        },
        {
            "positions": [
                0.056641789508763515,
                -1.1729614920128635,
                2.0359633229644127,
                -0.8157842467012902,
                0.2857266574877346,
                3.104473909114863
            ]
        },
        {
            "positions": [
                -0.009527965649595252,
                -1.2064382373026172,
                2.100379185817835,
                -0.8510996906967504,
                0.44186675594475777,
                3.118254934782946
            ]
        },
        {
            "positions": [
                -0.07569772080795402,
                -1.2399149825923708,
                2.164795048671258,
                -0.8864151346922104,
                0.5980068544017809,
                3.1320359604510295
            ]
        },
        {
            "positions": [
                -0.14186747596631277,
                -1.2733917278821245,
                2.2292109115246808,
                -0.9217305786876706,
                0.7541469528588041,
                3.1458169861191125
            ]
        },
        {
            "positions": [
                -0.20803723112467154,
                -1.306868473171878,
                2.2936267743781036,
                -0.9570460226831307,
                0.9102870513158272,
                3.159598011787196
            ]
        },
        {
            "positions": [
                -0.2742069862830303,
                -1.3403452184616316,
                2.358042637231526,
                -0.9923614666785907,
                1.0664271497728504,
                3.173379037455279
            ]
        },
        {
            "positions": [
                -0.3403767414413891,
                -1.3738219637513853,
                2.422458500084949,
                -1.0276769106740509,
                1.2225672482298735,
                3.1871600631233625
            ]
        }
    ]
}{
    "goal": {
        "global_pose": {
            "orientation": {
                "w": 0.5084816217422485,
                "x": -0.49083608388900757,
                "y": 0.5182115435600281,
                "z": -0.4816462993621826
            },
            "position": {
                "x": 0.5540239810943604,
                "y": 0.030875300988554955,
                "z": 0.16403168439865112
            }
        },
        "name": "move_to_storage_A"
    },
    "id": "LazyPRMstar_move_to_storage_A_57",
    "joint_names": [
        "shoulder_pan_joint",
        "shoulder_lift_joint",
        "elbow_joint",
        "wrist_1_joint",
        "wrist_2_joint",
        "wrist_3_joint"
    ],
    "metrics": {
        "cart_traj_len": 0.35268048759403114,
        "distance_elbow_joint": 0.4523692494537359,
        "distance_shoulder_lift_joint": 0.23539453766438623,
        "distance_shoulder_pan_joint": 0.4573195323159315,
        "distance_wrist_1_joint": 0.2548158925799695,
        "distance_wrist_2_joint": 1.115119594542576,
        "distance_wrist_3_joint": 0.09471094956700021,
        "smoothness": 0.0,
        "time": 5.001040713999999,
        "traj_len": 1.6154658015951928,
        "weighted_distance": 2.0418342592826053
    },
    "planner": "LazyPRMstar",
    "start": {
        "state": {
            "elbow_joint": 1.9715472970024885,
            "shoulder_lift_joint": -1.1394870060712896,
            "shoulder_pan_joint": 0.12281152778156021,
            "wrist_1_joint": -0.780463741449964,
            "wrist_2_joint": 0.12958659822042276,
            "wrist_3_joint": 3.090690232415272
        }
    },
    "waypoints": [
        {
            "positions": [
                0.12281152778156021,
                -1.1394870060712896,
                1.9715472970024885,
                -0.780463741449964,
                0.12958659822042276,
                3.090690232415272
            ]
        },
        {
            "positions": [
                0.05748016602214143,
                -1.173114797166202,
                2.0361714754958795,
                -0.816866011818531,
                0.2888893974407908,
                3.1042203680677005
            ]
        },
        {
            "positions": [
                -0.007851195737277356,
                -1.2067425882611142,
                2.10079565398927,
                -0.8532682821870982,
                0.4481921966611587,
                3.117750503720129
            ]
        },
        {
            "positions": [
                -0.07318255749669614,
                -1.2403703793560266,
                2.165419832482661,
                -0.8896705525556652,
                0.6074949958815268,
                3.131280639372558
            ]
        },
        {
            "positions": [
                -0.13851391925611492,
                -1.2739981704509389,
                2.230044010976052,
                -0.9260728229242323,
                0.7667977951018947,
                3.144810775024986
            ]
        },
        {
            "positions": [
                -0.2038452810155337,
                -1.3076259615458512,
                2.294668189469443,
                -0.9624750932927993,
                0.9261005943222628,
                3.1583409106774147
            ]
        },
        {
            "positions": [
                -0.26917664277495246,
                -1.3412537526407635,
                2.3592923679628335,
                -0.9988773636613664,
                1.0854033935426308,
                3.1718710463298434
            ]
        },
        {
            "positions": [
                -0.33450800453437124,
                -1.3748815437356758,
                2.4239165464562245,
                -1.0352796340299335,
                1.2447061927629988,
                3.185401181982272
            ]
        }
    ]
}