{
    "goal": {
        "global_pose": {
            "orientation": {
                "w": 0.005598929693374612,
                "x": 0.007748599140229565,
                "y": 0.7110244013736278,
                "z": -0.7031023480610252
            },
            "position": {
                "x": -0.8858502320852131,
                "y": -0.7141253447532654,
                "z": 0.3711530566215515
            }
        },
        "name": "move_to_auspresseinheit_C"
    },
    "id": "LazyPRMstar_move_to_auspresseinheit_C_77",
    "joint_names": [
        "shoulder_pan_joint",
        "shoulder_lift_joint",
        "elbow_joint",
        "wrist_1_joint",
        "wrist_2_joint",
        "wrist_3_joint"
    ],
    "metrics": {
        "cart_traj_len": 0.49354236234057236,
        "distance_elbow_joint": 1.0058803555285647,
        "distance_shoulder_lift_joint": 0.32808147147108546,
        "distance_shoulder_pan_joint": 0.2563258008557452,
        "distance_wrist_1_joint": 0.6871603979719872,
        "distance_wrist_2_joint": 1.3169417979878382,
        "distance_wrist_3_joint": 0.06424529148242009,
        "smoothness": 3.2297397080004555e-16,
        "time": 5.000301670000001,
        "traj_len": 1.912755895376522,
        "weighted_distance": 2.4064970172893014
    },
    "planner": "LazyPRMstar",
    "start": {
        "state": {
            "elbow_joint": 1.7527959577737207,
            "shoulder_lift_joint": -0.9740617694225068,
            "shoulder_pan_joint": -2.967991417825858,
            "wrist_1_joint": -0.759517768980727,
            "wrist_2_joint": 1.7443932448377408,
            "wrist_3_joint": -3.0840537646736568
        }
    },
    "waypoints": [
        {
            "positions": [
                -2.967991417825858,
                -0.9740617694225068,
                1.7527959577737207,
                -0.759517768980727,
                1.7443932448377408,
                -3.0840537646736568
            ]
        },
        {
            "positions": [
                -2.9423588377402834,
                -0.9412536222753982,
                1.652207922220864,
                -0.6908017291835282,
                1.612699065038957,
                -3.090478293821899
            ]
        },
        {
            "positions": [
                -2.916726257654709,
                -0.9084454751282897,
                1.5516198866680078,
                -0.6220856893863296,
                1.4810048852401732,
                -3.096902822970141
            ]
        },
        {
            "positions": [
                -2.8910936775691343,
                -0.8756373279811811,
                1.4510318511151512,
                -0.5533696495891308,
                1.3493107054413893,
                -3.1033273521183826
            ]
        },
        {
            "positions": [
                -2.8654610974835597,
                -0.8428291808340725,
                1.3504438155622949,
                -0.48465360979193206,
                1.2176165256426055,
                -3.1097518812666247
            ]
        },
        {
            "positions": [
                -2.8398285173979856,
                -0.810021033686964,
                1.2498557800094383,
                -0.41593756999473336,
                1.0859223458438216,
                -3.116176410414867
            ]
        },
        {
            "positions": [
                -2.814195937312411,
                -0.7772128865398555,
                1.1492677444565818,
                -0.34722153019753466,
                0.9542281660450379,
                -3.122600939563109
            ]
        },
        {
            "positions": [
                -2.7885633572268365,
                -0.744404739392747,
                1.0486797089037254,
                -0.27850549040033595,
                0.8225339862462542,
                -3.129025468711351
            ]
        },
        {
            "positions": [
                -2.762930777141262,
                -0.7115965922456384,
                0.9480916733508689,
                -0.20978945060313714,
                0.6908398064474703,
                -3.1354499978595927
            ]
        },
        {
            "positions": [
                -2.7372981970556873,
                -0.6787884450985299,
                0.8475036377980124,
                -0.1410734108059385,
                0.5591456266486865,
                -3.1418745270078348
            ]
        },
        {
            "positions": [
                -2.7116656169701128,
                -0.6459802979514213,
                0.7469156022451561,
                -0.07235737100873978,
                0.4274514468499027,
                -3.148299056156077
            ]
        }
    ]
}