{
    "goal": {
        "global_pose": {
            "orientation": {
                "w": 0.5084816217422485,
                "x": -0.49083608388900757,
                "y": 0.5182115435600281,
                "z": -0.4816462993621826
            },
            "position": {
                "x": 0.5540239810943604,
                "y": 0.030875300988554955,
                "z": 0.16403168439865112
            }
        },
        "name": "move_to_storage_A"
    },
    "id": "LazyPRMstar_move_to_storage_A_3",
    "joint_names": [
        "shoulder_pan_joint",
        "shoulder_lift_joint",
        "elbow_joint",
        "wrist_1_joint",
        "wrist_2_joint",
        "wrist_3_joint"
    ],
    "metrics": {
        "cart_traj_len": 0.3532472271206205,
        "distance_elbow_joint": 0.4502379206481304,
        "distance_shoulder_lift_joint": 0.23351171618592526,
        "distance_shoulder_pan_joint": 0.45848768939013834,
        "distance_wrist_1_joint": 0.2484240981182776,
        "distance_wrist_2_joint": 1.1132337588655605,
        "distance_wrist_3_joint": 0.09037579835723708,
        "smoothness": 2.2204460668324854e-16,
        "time": 5.000064514,
        "traj_len": 1.6106740767657712,
        "weighted_distance": 2.0338830928211142
    },
    "planner": "LazyPRMstar",
    "start": {
        "state": {
            "elbow_joint": 1.971548259319323,
            "shoulder_lift_joint": -1.1394851275133948,
            "shoulder_pan_joint": 0.1228115487234821,
            "wrist_1_joint": -0.7804723859257726,
            "wrist_2_joint": 0.12958671773740124,
            "wrist_3_joint": -3.192489227718131
        }
    },
    "waypoints": [
        {
            "positions": [
                0.1228115487234821,
                -1.1394851275133948,
                1.971548259319323,
                -0.7804723859257726,
                0.12958671773740124,
                -3.192489227718131
            ]
        },
        {
            "positions": [
                0.057313307382033774,
                -1.172843944111384,
                2.035867962269056,
                -0.8159615427998123,
                0.28862011186105274,
                -3.179578399381383
            ]
        },
        {
            "positions": [
                -0.008184933959414553,
                -1.2062027607093735,
                2.100187665218789,
                -0.8514506996738519,
                0.4476535059847042,
                -3.166667571044635
            ]
        },
        {
            "positions": [
                -0.07368317530086288,
                -1.2395615773073627,
                2.164507368168522,
                -0.8869398565478915,
                0.6066869001083557,
                -3.1537567427078868
            ]
        },
        {
            "positions": [
                -0.1391814166423112,
                -1.2729203939053522,
                2.2288270711182547,
                -0.9224290134219313,
                0.7657202942320073,
                -3.1408459143711385
            ]
        },
        {
            "positions": [
                -0.2046796579837596,
                -1.3062792105033414,
                2.2931467740679876,
                -0.9579181702959709,
                0.9247536883556589,
                -3.12793508603439
            ]
        },
        {
            "positions": [
                -0.27017789932520786,
                -1.3396380271013308,
                2.3574664770177205,
                -0.9934073271700106,
                1.08378708247931,
                -3.1150242576976424
            ]
        },
        {
            "positions": [
                -0.33567614066665624,
                -1.37299684369932,
                2.4217861799674534,
                -1.0288964840440502,
                1.2428204766029618,
                -3.102113429360894
            ]
        }
    ]
}{
    "goal": {
        "global_pose": {
            "orientation": {
                "w": 0.5084816217422485,
                "x": -0.49083608388900757,
                "y": 0.5182115435600281,
                "z": -0.4816462993621826
            },
            "position": {
                "x": 0.5540239810943604,
                "y": 0.030875300988554955,
                "z": 0.16403168439865112
            }
        },
        "name": "move_to_storage_A"
    },
    "id": "LazyPRMstar_move_to_storage_A_3",
    "joint_names": [
        "shoulder_pan_joint",
        "shoulder_lift_joint",
        "elbow_joint",
        "wrist_1_joint",
        "wrist_2_joint",
        "wrist_3_joint"
    ],
    "metrics": {
        "cart_traj_len": 0.3529907763559556,
        "distance_elbow_joint": 0.44910920201677973,
        "distance_shoulder_lift_joint": 0.23300214702227318,
        "distance_shoulder_pan_joint": 0.4604448906068058,
        "distance_wrist_1_joint": 0.2441672743470793,
        "distance_wrist_2_joint": 1.102521041352937,
        "distance_wrist_3_joint": 0.09871400797887864,
        "smoothness": 1.3322676295501878e-15,
        "time": 5.0009238410000005,
        "traj_len": 1.6087133254016246,
        "weighted_distance": 2.0327505737257896
    },
    "planner": "LazyPRMstar",
    "start": {
        "state": {
            "elbow_joint": 1.97154746011099,
            "shoulder_lift_joint": -1.13948474672311,
            "shoulder_pan_joint": 0.12281154466712228,
            "wrist_1_joint": -0.7804688027058302,
            "wrist_2_joint": 0.12958655903071145,
            "wrist_3_joint": 3.0906928834467795
        }
    },
    "waypoints": [
        {
            "positions": [
                0.12281154466712228,
                -1.13948474672311,
                1.97154746011099,
                -0.7804688027058302,
                0.12958655903071145,
                3.0906928834467795
            ]
        },
        {
            "positions": [
                0.05703370315186432,
                -1.1727707677262917,
                2.0357059175419585,
                -0.8153498418982701,
                0.28708956493827387,
                3.104794884586619
            ]
        },
        {
            "positions": [
                -0.008744138363393647,
                -1.2060567887294737,
                2.099864374972927,
                -0.85023088109071,
                0.44459257084583625,
                3.118896885726459
            ]
        },
        {
            "positions": [
                -0.07452197987865163,
                -1.2393428097326555,
                2.1640228324038957,
                -0.8851119202831499,
                0.6020955767533986,
                3.132998886866299
            ]
        },
        {
            "positions": [
                -0.14029982139390956,
                -1.2726288307358375,
                2.228181289834864,
                -0.9199929594755898,
                0.7595985826609611,
                3.147100888006139
            ]
        },
        {
            "positions": [
                -0.20607766290916757,
                -1.3059148517390193,
                2.2923397472658325,
                -0.9548739986680297,
                0.9171015885685236,
                3.1612028891459785
            ]
        },
        {
            "positions": [
                -0.2718555044244255,
                -1.3392008727422011,
                2.356498204696801,
                -0.9897550378604696,
                1.0746045944760858,
                3.1753048902858185
            ]
        },
        {
            "positions": [
                -0.3376333459396835,
                -1.3724868937453831,
                2.4206566621277696,
                -1.0246360770529095,
                1.2321076003836484,
                3.189406891425658
            ]
        }
    ]
}{
    "goal": {
        "global_pose": {
            "orientation": {
                "w": 0.5084816217422485,
                "x": -0.49083608388900757,
                "y": 0.5182115435600281,
                "z": -0.4816462993621826
            },
            "position": {
                "x": 0.5540239810943604,
                "y": 0.030875300988554955,
                "z": 0.16403168439865112
            }
        },
        "name": "move_to_storage_A"
    },
    "id": "LazyPRMstar_move_to_storage_A_3",
    "joint_names": [
        "shoulder_pan_joint",
        "shoulder_lift_joint",
        "elbow_joint",
        "wrist_1_joint",
        "wrist_2_joint",
        "wrist_3_joint"
    ],
    "metrics": {
        "cart_traj_len": 0.35279375696793025,
        "distance_elbow_joint": 0.44945336549815407,
        "distance_shoulder_lift_joint": 0.23230439252729318,
        "distance_shoulder_pan_joint": 0.45771420835625115,
        "distance_wrist_1_joint": 0.24373807388835433,
        "distance_wrist_2_joint": 1.1128038838127752,
        "distance_wrist_3_joint": 0.08754779164995208,
        "smoothness": 0.0,
        "time": 5.0005263499999995,
        "traj_len": 1.6073461717168396,
        "weighted_distance": 2.0285953900997145
    },
    "planner": "LazyPRMstar",
    "start": {
        "state": {
            "elbow_joint": 1.9715472970024885,
            "shoulder_lift_joint": -1.1394870060712896,
            "shoulder_pan_joint": 0.12281152778156021,
            "wrist_1_joint": -0.780463741449964,
            "wrist_2_joint": 0.12958659822042276,
            "wrist_3_joint": 3.090690232415272
        }
    },
    "waypoints": [
        {
            "positions": [
                0.12281152778156021,
                -1.1394870060712896,
                1.9715472970024885,
                -0.780463741449964,
                0.12958659822042276,
                3.090690232415272
            ]
        },
        {
            "positions": [
                0.0574237837306672,
                -1.1726733478609028,
                2.035754920645082,
                -0.8152834662911574,
                0.2885585816222478,
                3.1031970597938363
            ]
        },
        {
            "positions": [
                -0.00796396032022581,
                -1.2058596896505163,
                2.0999625442876755,
                -0.8501031911323509,
                0.44753056502407285,
                3.115703887172401
            ]
        },
        {
            "positions": [
                -0.07335170437111882,
                -1.2390460314401295,
                2.1641701679302687,
                -0.8849229159735444,
                0.6065025484258978,
                3.1282107145509657
            ]
        },
        {
            "positions": [
                -0.13873944842201183,
                -1.272232373229743,
                2.2283777915728624,
                -0.9197426408147379,
                0.7654745318277228,
                3.14071754192953
            ]
        },
        {
            "positions": [
                -0.20412719247290487,
                -1.3054187150193561,
                2.2925854152154557,
                -0.9545623656559314,
                0.9244465152295479,
                3.1532243693080946
            ]
        },
        {
            "positions": [
                -0.2695149365237979,
                -1.3386050568089694,
                2.356793038858049,
                -0.9893820904971249,
                1.0834184986313729,
                3.1657311966866595
            ]
        },
        {
            "positions": [
                -0.3349026805746909,
                -1.3717913985985828,
                2.4210006625006426,
                -1.0242018153383183,
                1.242390482033198,
                3.178238024065224
            ]
        }
    ]
}