{
    "goal": {
        "global_pose": {
            "orientation": {
                "w": -0.00223480608172531,
                "x": 0.0024358444001904467,
                "y": 0.7094548369677653,
                "z": -0.704743149386269
            },
            "position": {
                "x": 0.6205249238014221,
                "y": -0.6371506643295288,
                "z": 0.19426114857196808
            }
        },
        "name": "move_to_magneteinheit_B"
    },
    "id": "LazyPRMstar_move_to_magneteinheit_B_29",
    "joint_names": [
        "shoulder_pan_joint",
        "shoulder_lift_joint",
        "elbow_joint",
        "wrist_1_joint",
        "wrist_2_joint",
        "wrist_3_joint"
    ],
    "metrics": {
        "cart_traj_len": 2.2297962820918924,
        "distance_elbow_joint": 1.0347039448590178,
        "distance_shoulder_lift_joint": 3.5734197204805853,
        "distance_shoulder_pan_joint": 2.4434947637329705,
        "distance_wrist_1_joint": 2.217139847607228,
        "distance_wrist_2_joint": 1.5308407620124858,
        "distance_wrist_3_joint": 0.8792050761230761,
        "smoothness": 0.9535841582111472,
        "time": 5.020889683,
        "traj_len": 3.4174265339309584,
        "weighted_distance": 4.145502970289761
    },
    "planner": "LazyPRMstar",
    "start": {
        "state": {
            "elbow_joint": 2.6216224122426386,
            "shoulder_lift_joint": -1.4174107377796124,
            "shoulder_pan_joint": 0.7066234856936794,
            "wrist_1_joint": 1.9546482284002225,
            "wrist_2_joint": -0.7096286983471962,
            "wrist_3_joint": 0.005740856962016249
        }
    },
    "waypoints": [
        {
            "positions": [
                0.7066234856936794,
                -1.4174107377796124,
                2.6216224122426386,
                1.9546482284002225,
                -0.7096286983471962,
                0.005740856962016249
            ]
        },
        {
            "positions": [
                0.6006336558276675,
                -1.4272339084959749,
                2.6129532596816034,
                1.9693221699065395,
                -0.7506197601493837,
                0.047758291672663454
            ]
        },
        {
            "positions": [
                0.4946438259616555,
                -1.4370570792123374,
                2.6042841071205687,
                1.9839961114128566,
                -0.7916108219515712,
                0.08977572638331066
            ]
        },
        {
            "positions": [
                0.5289453642203258,
                -1.5528658316856672,
                2.6075520251766493,
                2.0822709517641655,
                -0.8918489315109477,
                0.05364210389871417
            ]
        },
        {
            "positions": [
                0.563246902478996,
                -1.6686745841589972,
                2.61081994323273,
                2.1805457921154745,
                -0.9920870410703241,
                0.017508481414117677
            ]
        },
        {
            "positions": [
                0.5975484407376662,
                -1.7844833366323272,
                2.6140878612888105,
                2.2788206324667835,
                -1.0923251506297005,
                -0.01862514107047883
            ]
        },
        {
            "positions": [
                0.6318499789963364,
                -1.900292089105657,
                2.617355779344891,
                2.3770954728180924,
                -1.192563260189077,
                -0.05475876355507531
            ]
        },
        {
            "positions": [
                0.6661515172550067,
                -2.0161008415789867,
                2.620623697400972,
                2.4753703131694014,
                -1.2928013697484535,
                -0.09089238603967184
            ]
        },
        {
            "positions": [
                0.7004530555136769,
                -2.131909594052317,
                2.623891615457052,
                2.5736451535207103,
                -1.39303947930783,
                -0.12702600852426832
            ]
        },
        {
            "positions": [
                0.7347545937723472,
                -2.2477183465256467,
                2.6271595335131326,
                2.6719199938720193,
                -1.4932775888672065,
                -0.16315963100886482
            ]
        },
        {
            "positions": [
                0.7690561320310174,
                -2.3635270989989765,
                2.630427451569213,
                2.7701948342233282,
                -1.5935156984265828,
                -0.19929325349346128
            ]
        },
        {
            "positions": [
                0.8033576702896876,
                -2.4793358514723063,
                2.633695369625294,
                2.868469674574637,
                -1.6937538079859595,
                -0.23542687597805778
            ]
        },
        {
            "positions": [
                0.8376592085483578,
                -2.595144603945636,
                2.6369632876813744,
                2.966744514925946,
                -1.793991917545336,
                -0.27156049846265434
            ]
        },
        {
            "positions": [
                0.8719607468070281,
                -2.7109533564189663,
                2.640231205737455,
                3.065019355277255,
                -1.8942300271047123,
                -0.3076941209472508
            ]
        },
        {
            "positions": [
                0.9062622850656983,
                -2.826762108892296,
                2.6434991237935357,
                3.163294195628564,
                -1.9944681366640888,
                -0.3438277434318473
            ]
        },
        {
            "positions": [
                0.7992095412482333,
                -2.6994639706941843,
                2.5859608518485957,
                3.103971026194512,
                -2.0089388027638297,
                -0.3225591118502812
            ]
        },
        {
            "positions": [
                0.6921567974307683,
                -2.572165832496072,
                2.5284225799036557,
                3.04464785676046,
                -2.02340946886357,
                -0.30129048026871513
            ]
        },
        {
            "positions": [
                0.5851040536133034,
                -2.4448676942979604,
                2.4708843079587157,
                2.9853246873264077,
                -2.037880134963311,
                -0.280021848687149
            ]
        },
        {
            "positions": [
                0.47805130979583843,
                -2.3175695560998486,
                2.4133460360137753,
                2.9260015178923555,
                -2.052350801063052,
                -0.2587532171055829
            ]
        },
        {
            "positions": [
                0.37099856597837344,
                -2.190271417901737,
                2.3558077640688353,
                2.8666783484583034,
                -2.066821467162793,
                -0.23748458552401683
            ]
        },
        {
            "positions": [
                0.26394582216090845,
                -2.062973279703625,
                2.2982694921238953,
                2.8073551790242512,
                -2.0812921332625334,
                -0.21621595394245072
            ]
        },
        {
            "positions": [
                0.15689307834344357,
                -1.9356751415055131,
                2.2407312201789553,
                2.748032009590199,
                -2.0957627993622743,
                -0.19494732236088463
            ]
        },
        {
            "positions": [
                0.04984033452597858,
                -1.8083770033074011,
                2.1831929482340153,
                2.688708840156147,
                -2.110233465462015,
                -0.17367869077931855
            ]
        },
        {
            "positions": [
                -0.0572124092914863,
                -1.6810788651092894,
                2.1256546762890753,
                2.629385670722095,
                -2.1247041315617556,
                -0.15241005919775244
            ]
        },
        {
            "positions": [
                -0.1642651531089514,
                -1.5537807269111774,
                2.068116404344135,
                2.5700625012880427,
                -2.1391747976614965,
                -0.13114142761618636
            ]
        },
        {
            "positions": [
                -0.2713178969264163,
                -1.4264825887130657,
                2.010578132399195,
                2.5107393318539906,
                -2.1536454637612374,
                -0.10987279603462025
            ]
        },
        {
            "positions": [
                -0.3783706407438814,
                -1.2991844505149537,
                1.953039860454255,
                2.4514161624199384,
                -2.1681161298609783,
                -0.08860416445305414
            ]
        },
        {
            "positions": [
                -0.48542338456134604,
                -1.171886312316842,
                1.895501588509315,
                2.3920929929858863,
                -2.182586795960719,
                -0.06733553287148808
            ]
        },
        {
            "positions": [
                -0.5924761283788111,
                -1.0445881741187302,
                1.837963316564375,
                2.332769823551834,
                -2.1970574620604597,
                -0.04606690128992197
            ]
        },
        {
            "positions": [
                -0.699528872196276,
                -0.9172900359206182,
                1.780425044619435,
                2.273446654117782,
                -2.2115281281602006,
                -0.024798269708355913
            ]
        },
        {
            "positions": [
                -0.8065816160137411,
                -0.7899918977225062,
                1.722886772674495,
                2.21412348468373,
                -2.225998794259941,
                -0.0035296381267898025
            ]
        },
        {
            "positions": [
                -0.9136343598312059,
                -0.6626937595243945,
                1.6653485007295548,
                2.1548003152496777,
                -2.240469460359682,
                0.01773899345477633
            ]
        }
    ]
}