{
    "goal": {
        "global_pose": {
            "orientation": {
                "w": -0.00223480608172531,
                "x": 0.0024358444001904467,
                "y": 0.7094548369677653,
                "z": -0.704743149386269
            },
            "position": {
                "x": -0.37947507619857795,
                "y": -0.6371506643295288,
                "z": 0.19426114857196808
            }
        },
        "name": "move_to_magneteinheit_C"
    },
    "id": "LazyPRM_move_to_magneteinheit_C_138",
    "joint_names": [
        "shoulder_pan_joint",
        "shoulder_lift_joint",
        "elbow_joint",
        "wrist_1_joint",
        "wrist_2_joint",
        "wrist_3_joint"
    ],
    "metrics": {
        "cart_traj_len": 3.1956539984675887,
        "distance_elbow_joint": 2.7394064438054873,
        "distance_shoulder_lift_joint": 1.3180466990058384,
        "distance_shoulder_pan_joint": 1.165066796489654,
        "distance_wrist_1_joint": 1.1633519046077123,
        "distance_wrist_2_joint": 1.820052789692888,
        "distance_wrist_3_joint": 1.8637296488060975,
        "smoothness": 1.0960607205075776,
        "time": 0.106533002,
        "traj_len": 3.173271857627026,
        "weighted_distance": 4.096403089824104
    },
    "planner": "LazyPRM",
    "start": {
        "state": {
            "elbow_joint": 1.9565354010623817,
            "shoulder_lift_joint": -1.4165861575791021,
            "shoulder_pan_joint": -1.6717766225146293,
            "wrist_1_joint": -0.5286633292919765,
            "wrist_2_joint": 1.472756589071564,
            "wrist_3_joint": -3.1238370188695823
        }
    },
    "waypoints": [
        {
            "positions": [
                -1.6717766225146293,
                -1.4165861575791021,
                1.9565354010623817,
                -0.5286633292919765,
                1.472756589071564,
                -3.1238370188695823
            ]
        },
        {
            "positions": [
                -1.6924100855805573,
                -1.4813635229450388,
                2.0146857636324405,
                -0.43930654403441177,
                1.5058079888017608,
                -3.0465449899122783
            ]
        },
        {
            "positions": [
                -1.713043548646485,
                -1.5461408883109755,
                2.072836126202499,
                -0.3499497587768471,
                1.5388593885319575,
                -2.9692529609549743
            ]
        },
        {
            "positions": [
                -1.733677011712413,
                -1.6109182536769122,
                2.1309864887725576,
                -0.2605929735192824,
                1.5719107882621541,
                -2.8919609319976702
            ]
        },
        {
            "positions": [
                -1.754310474778341,
                -1.675695619042849,
                2.1891368513426164,
                -0.17123618826171771,
                1.604962187992351,
                -2.814668903040366
            ]
        },
        {
            "positions": [
                -1.7932454780145715,
                -1.7098073385863597,
                2.0214140434754317,
                -0.2347542980037723,
                1.553789380039812,
                -2.811205764391385
            ]
        },
        {
            "positions": [
                -1.832180481250802,
                -1.7439190581298702,
                1.853691235608247,
                -0.29827240774582686,
                1.502616572087273,
                -2.8077426257424034
            ]
        },
        {
            "positions": [
                -1.8711154844870324,
                -1.778030777673381,
                1.685968427741062,
                -0.3617905174878814,
                1.451443764134734,
                -2.804279487093422
            ]
        },
        {
            "positions": [
                -1.910050487723263,
                -1.8121424972168918,
                1.5182456198738774,
                -0.42530862722993595,
                1.400270956182195,
                -2.8008163484444406
            ]
        },
        {
            "positions": [
                -1.9489854909594935,
                -1.8462542167604024,
                1.3505228120066928,
                -0.4888267369719905,
                1.349098148229656,
                -2.7973532097954594
            ]
        },
        {
            "positions": [
                -1.9879204941957238,
                -1.8803659363039131,
                1.182800004139508,
                -0.552344846714045,
                1.297925340277117,
                -2.793890071146478
            ]
        },
        {
            "positions": [
                -2.0268554974319546,
                -1.9144776558474237,
                1.015077196272323,
                -0.6158629564560996,
                1.246752532324578,
                -2.790426932497496
            ]
        },
        {
            "positions": [
                -2.065790500668185,
                -1.9485893753909345,
                0.8473543884051383,
                -0.6793810661981542,
                1.195579724372039,
                -2.786963793848515
            ]
        },
        {
            "positions": [
                -2.1312543248100795,
                -1.8817756617838228,
                0.9141935757393861,
                -0.7047541911149375,
                1.0954821795011371,
                -2.7218046481370872
            ]
        },
        {
            "positions": [
                -2.1967181489519736,
                -1.8149619481767112,
                0.981032763073634,
                -0.7301273160317208,
                0.9953846346302354,
                -2.6566455024256594
            ]
        },
        {
            "positions": [
                -2.262181973093868,
                -1.7481482345695993,
                1.0478719504078817,
                -0.7555004409485041,
                0.8952870897593337,
                -2.5914863567142317
            ]
        },
        {
            "positions": [
                -2.3276457972357627,
                -1.6813345209624877,
                1.1147111377421295,
                -0.7808735658652873,
                0.7951895448884319,
                -2.526327211002804
            ]
        },
        {
            "positions": [
                -2.393109621377657,
                -1.614520807355376,
                1.1815503250763775,
                -0.8062466907820707,
                0.69509200001753,
                -2.4611680652913765
            ]
        },
        {
            "positions": [
                -2.4585734455195514,
                -1.5477070937482644,
                1.248389512410625,
                -0.8316198156988539,
                0.5949944551466283,
                -2.3960089195799488
            ]
        },
        {
            "positions": [
                -2.524037269661446,
                -1.4808933801411528,
                1.315228699744873,
                -0.8569929406156372,
                0.49489691027572646,
                -2.330849773868521
            ]
        },
        {
            "positions": [
                -2.58950109380334,
                -1.414079666534041,
                1.3820678870791205,
                -0.8823660655324205,
                0.39479936540482474,
                -2.265690628157093
            ]
        },
        {
            "positions": [
                -2.6549649179452346,
                -1.3472659529269293,
                1.4489070744133685,
                -0.9077391904492038,
                0.29470182053392296,
                -2.2005314824456654
            ]
        },
        {
            "positions": [
                -2.6532450271524413,
                -1.2888294635069875,
                1.6085100240676378,
                -0.9089731353049959,
                0.30807530151981505,
                -2.3098766565470368
            ]
        },
        {
            "positions": [
                -2.651525136359648,
                -1.2303929740870458,
                1.768112973721907,
                -0.910207080160788,
                0.3214487825057072,
                -2.419221830648408
            ]
        },
        {
            "positions": [
                -2.6498052455668546,
                -1.171956484667104,
                1.9277159233761763,
                -0.9114410250165801,
                0.33482226349159927,
                -2.5285670047497795
            ]
        },
        {
            "positions": [
                -2.6056255383966875,
                -1.16960383704956,
                1.9488811722803603,
                -0.8950110433109323,
                0.41918885858059834,
                -2.6816641522692963
            ]
        },
        {
            "positions": [
                -2.5614458312265205,
                -1.1672511894320161,
                1.970046421184544,
                -0.8785810616052845,
                0.5035554536695974,
                -2.8347612997888127
            ]
        },
        {
            "positions": [
                -2.517266124056353,
                -1.1648985418144724,
                1.9912116700887281,
                -0.8621510798996367,
                0.5879220487585965,
                -2.987858447308329
            ]
        },
        {
            "positions": [
                -2.473086416886186,
                -1.1625458941969284,
                2.012376918992912,
                -0.8457210981939889,
                0.6722886438475956,
                -3.140955594827846
            ]
        }
    ]
}