{
    "goal": {
        "global_pose": {
            "orientation": {
                "w": -0.4816463035849501,
                "x": 0.5182115481033762,
                "y": 0.4908360881923453,
                "z": -0.5084816262002911
            },
            "position": {
                "x": -0.8240239810943604,
                "y": -0.300875300988555,
                "z": 0.16403168439865112
            }
        },
        "name": "move_to_storage_C"
    },
    "id": "LazyPRMstar_move_to_storage_C_20",
    "joint_names": [
        "shoulder_pan_joint",
        "shoulder_lift_joint",
        "elbow_joint",
        "wrist_1_joint",
        "wrist_2_joint",
        "wrist_3_joint"
    ],
    "metrics": {
        "cart_traj_len": 0.5767168580375914,
        "distance_elbow_joint": 0.2613616162366439,
        "distance_shoulder_lift_joint": 0.18996601756502907,
        "distance_shoulder_pan_joint": 0.49396669858806463,
        "distance_wrist_1_joint": 0.08886096593995285,
        "distance_wrist_2_joint": 1.0714952704101837,
        "distance_wrist_3_joint": 0.07702703908997455,
        "smoothness": 2.5376526478085547e-16,
        "time": 5.000262878,
        "traj_len": 1.47738878018951,
        "weighted_distance": 1.870050245945262
    },
    "planner": "LazyPRMstar",
    "start": {
        "state": {
            "elbow_joint": 2.010868314990456,
            "shoulder_lift_joint": -1.1634956873337592,
            "shoulder_pan_joint": -2.4736205022346125,
            "wrist_1_joint": -0.8367026794202681,
            "wrist_2_joint": 0.6746043897044499,
            "wrist_3_joint": -3.1496632123970403
        }
    },
    "waypoints": [
        {
            "positions": [
                -2.4736205022346125,
                -1.1634956873337592,
                2.010868314990456,
                -0.8367026794202681,
                0.6746043897044499,
                -3.1496632123970403
            ]
        },
        {
            "positions": [
                -2.555948285332623,
                -1.1318346844062543,
                1.967308045617682,
                -0.821892518430276,
                0.8531869347728138,
                -3.136825372548711
            ]
        },
        {
            "positions": [
                -2.638276068430634,
                -1.1001736814787495,
                1.9237477762449078,
                -0.8070823574402838,
                1.0317694798411778,
                -3.123987532700382
            ]
        },
        {
            "positions": [
                -2.7206038515286446,
                -1.0685126785512447,
                1.8801875068721339,
                -0.7922721964502917,
                1.2103520249095419,
                -3.1111496928520532
            ]
        },
        {
            "positions": [
                -2.8029316346266557,
                -1.0368516756237398,
                1.83662723749936,
                -0.7774620354602996,
                1.3889345699779057,
                -3.098311853003724
            ]
        },
        {
            "positions": [
                -2.8852594177246664,
                -1.005190672696235,
                1.7930669681265858,
                -0.7626518744703074,
                1.5675171150462697,
                -3.0854740131553946
            ]
        },
        {
            "positions": [
                -2.967587200822677,
                -0.9735296697687301,
                1.749506698753812,
                -0.7478417134803153,
                1.7460996601146337,
                -3.0726361733070657
            ]
        }
    ]
}