{
    "goal": {
        "global_pose": {
            "orientation": {
                "w": -0.00223480608172531,
                "x": 0.0024358444001904467,
                "y": 0.7094548369677653,
                "z": -0.704743149386269
            },
            "position": {
                "x": 0.6205249238014221,
                "y": -0.6371506643295288,
                "z": 0.19426114857196808
            }
        },
        "name": "move_to_magneteinheit_B"
    },
    "id": "LazyPRMstar_move_to_magneteinheit_B_33",
    "joint_names": [
        "shoulder_pan_joint",
        "shoulder_lift_joint",
        "elbow_joint",
        "wrist_1_joint",
        "wrist_2_joint",
        "wrist_3_joint"
    ],
    "metrics": {
        "cart_traj_len": 1.4718245580919695,
        "distance_elbow_joint": 1.0767633816669215,
        "distance_shoulder_lift_joint": 0.7571152282311803,
        "distance_shoulder_pan_joint": 1.6213288704592377,
        "distance_wrist_1_joint": 0.1852145571556556,
        "distance_wrist_2_joint": 2.037342452921427,
        "distance_wrist_3_joint": 1.0145177406242523,
        "smoothness": 0.6114867623871404,
        "time": 5.016965947,
        "traj_len": 2.586944574407939,
        "weighted_distance": 3.308152765877697
    },
    "planner": "LazyPRMstar",
    "start": {
        "state": {
            "elbow_joint": 2.6216224122426386,
            "shoulder_lift_joint": -1.4174107377796124,
            "shoulder_pan_joint": 0.7066234856936794,
            "wrist_1_joint": 1.9546482284002225,
            "wrist_2_joint": -0.7096286983471962,
            "wrist_3_joint": 0.005740856962016249
        }
    },
    "waypoints": [
        {
            "positions": [
                0.7066234856936794,
                -1.4174107377796124,
                2.6216224122426386,
                1.9546482284002225,
                -0.7096286983471962,
                0.005740856962016249
            ]
        },
        {
            "positions": [
                0.6367426846223113,
                -1.4139298345463112,
                2.6363505644788328,
                1.9744367224240524,
                -0.6442529267410095,
                -0.12252692264912109
            ]
        },
        {
            "positions": [
                0.5668618835509431,
                -1.41044893131301,
                2.651078716715027,
                1.9942252164478822,
                -0.5788771551348229,
                -0.2507947022602584
            ]
        },
        {
            "positions": [
                0.49698108247957506,
                -1.406968028079709,
                2.665806868951221,
                2.014013710471712,
                -0.5135013835286363,
                -0.37906248187139574
            ]
        },
        {
            "positions": [
                0.427100281408207,
                -1.4034871248464078,
                2.6805350211874153,
                2.033802204495542,
                -0.4481256119224496,
                -0.5073302614825331
            ]
        },
        {
            "positions": [
                0.33125701953865233,
                -1.350402009467981,
                2.6078313945644047,
                2.041377960285566,
                -0.5749712809579267,
                -0.47151264561255435
            ]
        },
        {
            "positions": [
                0.23541375766909767,
                -1.297316894089554,
                2.5351277679413946,
                2.04895371607559,
                -0.7018169499934039,
                -0.4356950297425755
            ]
        },
        {
            "positions": [
                0.139570495799543,
                -1.2442317787111272,
                2.462424141318384,
                2.056529471865614,
                -0.828662619028881,
                -0.39987741387259673
            ]
        },
        {
            "positions": [
                0.04372723392998834,
                -1.1911466633327006,
                2.389720514695374,
                2.064105227655638,
                -0.9555082880643582,
                -0.3640597980026179
            ]
        },
        {
            "positions": [
                -0.05211602793956638,
                -1.1380615479542735,
                2.3170168880723634,
                2.071680983445662,
                -1.0823539570998353,
                -0.3282421821326391
            ]
        },
        {
            "positions": [
                -0.147959289809121,
                -1.0849764325758469,
                2.2443132614493533,
                2.079256739235686,
                -1.2091996261353124,
                -0.29242456626266033
            ]
        },
        {
            "positions": [
                -0.2438025516786757,
                -1.03189131719742,
                2.1716096348263427,
                2.08683249502571,
                -1.3360452951707895,
                -0.2566069503926815
            ]
        },
        {
            "positions": [
                -0.3396458135482303,
                -0.9788062018189931,
                2.0989060082033326,
                2.094408250815734,
                -1.4628909642062666,
                -0.22078933452270272
            ]
        },
        {
            "positions": [
                -0.43548907541778514,
                -0.9257210864405663,
                2.026202381580322,
                2.101984006605758,
                -1.5897366332417442,
                -0.18497171865272388
            ]
        },
        {
            "positions": [
                -0.5313323372873398,
                -0.8726359710621394,
                1.9534987549573117,
                2.109559762395782,
                -1.7165823022772213,
                -0.1491541027827451
            ]
        },
        {
            "positions": [
                -0.6271755991568944,
                -0.8195508556837126,
                1.8807951283343014,
                2.117135518185806,
                -1.843427971312698,
                -0.11333648691276627
            ]
        },
        {
            "positions": [
                -0.723018861026449,
                -0.7664657403052858,
                1.8080915017112913,
                2.12471127397583,
                -1.970273640348175,
                -0.07751887104278748
            ]
        },
        {
            "positions": [
                -0.8188621228960038,
                -0.7133806249268589,
                1.7353878750882807,
                2.132287029765854,
                -2.0971193093836527,
                -0.04170125517280865
            ]
        },
        {
            "positions": [
                -0.9147053847655583,
                -0.6602955095484321,
                1.6626842484652704,
                2.139862785555878,
                -2.2239649784191298,
                -0.005883639302829846
            ]
        }
    ]
}