{
    "goal": {
        "global_pose": {
            "orientation": {
                "w": 0.7031023480610252,
                "x": -0.7110244013736278,
                "y": 0.0077485991402295624,
                "z": 0.005598929693374583
            },
            "position": {
                "x": -0.8841497679147869,
                "y": 0.44412534475326537,
                "z": 0.3711530566215515
            }
        },
        "name": "move_to_auspresseinheit_D"
    },
    "id": "LazyPRM_move_to_auspresseinheit_D_75",
    "joint_names": [
        "shoulder_pan_joint",
        "shoulder_lift_joint",
        "elbow_joint",
        "wrist_1_joint",
        "wrist_2_joint",
        "wrist_3_joint"
    ],
    "metrics": {
        "cart_traj_len": 0.34307656694160465,
        "distance_elbow_joint": 0.6403538790709424,
        "distance_shoulder_lift_joint": 0.12199232489994705,
        "distance_shoulder_pan_joint": 0.13346348317094475,
        "distance_wrist_1_joint": 0.5411822105580395,
        "distance_wrist_2_joint": 1.4309407705574895,
        "distance_wrist_3_joint": 0.0028068607213005414,
        "smoothness": 0.0,
        "time": 0.012688920999999999,
        "traj_len": 1.694325685627962,
        "weighted_distance": 2.2019255735689147
    },
    "planner": "LazyPRM",
    "start": {
        "state": {
            "elbow_joint": -1.8275523626775212,
            "shoulder_lift_joint": -2.126789852344167,
            "shoulder_pan_joint": -0.03513704404078235,
            "wrist_1_joint": -2.347782403156801,
            "wrist_2_joint": -1.6058999987535132,
            "wrist_3_joint": -3.0880379163319196
        }
    },
    "waypoints": [
        {
            "positions": [
                -0.03513704404078235,
                -2.126789852344167,
                -1.8275523626775212,
                -2.347782403156801,
                -1.6058999987535132,
                -3.0880379163319196
            ]
        },
        {
            "positions": [
                -0.05181997943715044,
                -2.14203889295666,
                -1.7475081277936533,
                -2.415430179476556,
                -1.427032402433827,
                -3.087687058741757
            ]
        },
        {
            "positions": [
                -0.06850291483351853,
                -2.1572879335691537,
                -1.6674638929097856,
                -2.4830779557963107,
                -1.2481648061141408,
                -3.0873362011515946
            ]
        },
        {
            "positions": [
                -0.08518585022988663,
                -2.172536974181647,
                -1.587419658025918,
                -2.5507257321160655,
                -1.0692972097944546,
                -3.086985343561432
            ]
        },
        {
            "positions": [
                -0.10186878562625473,
                -2.18778601479414,
                -1.50737542314205,
                -2.6183735084358206,
                -0.8904296134747685,
                -3.0866344859712695
            ]
        },
        {
            "positions": [
                -0.11855172102262282,
                -2.203035055406634,
                -1.427331188258182,
                -2.6860212847555758,
                -0.7115620171550823,
                -3.0862836283811066
            ]
        },
        {
            "positions": [
                -0.1352346564189909,
                -2.218284096019127,
                -1.3472869533743144,
                -2.7536690610753305,
                -0.5326944208353961,
                -3.085932770790944
            ]
        },
        {
            "positions": [
                -0.15191759181535902,
                -2.2335331366316207,
                -1.2672427184904467,
                -2.821316837395085,
                -0.3538268245157099,
                -3.0855819132007816
            ]
        },
        {
            "positions": [
                -0.1686005272117271,
                -2.248782177244114,
                -1.1871984836065788,
                -2.8889646137148404,
                -0.17495922819602377,
                -3.085231055610619
            ]
        }
    ]
}