{
    "goal": {
        "global_pose": {
            "orientation": {
                "w": 0.7047431468963623,
                "x": -0.7094548344612122,
                "y": 0.0024358443915843964,
                "z": -0.0022348060738295317
            },
            "position": {
                "x": 0.6094750761985779,
                "y": 0.3671506643295288,
                "z": 0.19426114857196808
            }
        },
        "name": "move_to_magneteinheit_A"
    },
    "id": "LazyPRMstar_move_to_magneteinheit_A_117",
    "joint_names": [
        "shoulder_pan_joint",
        "shoulder_lift_joint",
        "elbow_joint",
        "wrist_1_joint",
        "wrist_2_joint",
        "wrist_3_joint"
    ],
    "metrics": {
        "cart_traj_len": 3.4593812326805904,
        "distance_elbow_joint": 3.8887996654902808,
        "distance_shoulder_lift_joint": 0.10590628074280906,
        "distance_shoulder_pan_joint": 2.633024076098787,
        "distance_wrist_1_joint": 0.7885271229931871,
        "distance_wrist_2_joint": 1.7257234617168475,
        "distance_wrist_3_joint": 3.6620058908753936,
        "smoothness": 0.06917495287128658,
        "time": 5.031145156,
        "traj_len": 3.5782658506485094,
        "weighted_distance": 4.758387212530955
    },
    "planner": "LazyPRMstar",
    "start": {
        "state": {
            "elbow_joint": -1.9196185241190666,
            "shoulder_lift_joint": -1.2443396400964142,
            "shoulder_pan_joint": 2.6996025414629847,
            "wrist_1_joint": -1.5485510000780065,
            "wrist_2_joint": -1.5709468930060704,
            "wrist_3_joint": 0.4420197071253992
        }
    },
    "waypoints": [
        {
            "positions": [
                2.6996025414629847,
                -1.2443396400964142,
                -1.9196185241190666,
                -1.5485510000780065,
                -1.5709468930060704,
                0.4420197071253992
            ]
        },
        {
            "positions": [
                2.5889417746980308,
                -1.2410860074680663,
                -1.8517838904491444,
                -1.5414467819177733,
                -1.505650280180773,
                0.3148726715769642
            ]
        },
        {
            "positions": [
                2.4782810079330764,
                -1.2378323748397186,
                -1.7839492567792221,
                -1.53434256375754,
                -1.4403536673554755,
                0.18772563602852915
            ]
        },
        {
            "positions": [
                2.3676202411681224,
                -1.2345787422113708,
                -1.7161146231093,
                -1.5272383455973069,
                -1.3750570545301781,
                0.06057860048009417
            ]
        },
        {
            "positions": [
                2.256959474403168,
                -1.231325109583023,
                -1.6482799894393778,
                -1.5201341274370734,
                -1.3097604417048807,
                -0.06656843506834087
            ]
        },
        {
            "positions": [
                2.146298707638214,
                -1.2280714769546752,
                -1.5804453557694558,
                -1.5130299092768402,
                -1.2444638288795833,
                -0.19371547061677585
            ]
        },
        {
            "positions": [
                2.0356379408732597,
                -1.2248178443263276,
                -1.5126107220995335,
                -1.505925691116607,
                -1.1791672160542859,
                -0.32086250616521084
            ]
        },
        {
            "positions": [
                1.9249771741083057,
                -1.2215642116979797,
                -1.4447760884296112,
                -1.4988214729563738,
                -1.1138706032289885,
                -0.4480095417136458
            ]
        },
        {
            "positions": [
                1.8143164073433513,
                -1.218310579069632,
                -1.376941454759689,
                -1.4917172547961406,
                -1.048573990403691,
                -0.5751565772620809
            ]
        },
        {
            "positions": [
                1.7036556405783974,
                -1.2150569464412841,
                -1.3091068210897667,
                -1.4846130366359074,
                -0.9832773775783936,
                -0.7023036128105159
            ]
        },
        {
            "positions": [
                1.5929948738134432,
                -1.2118033138129365,
                -1.2412721874198447,
                -1.4775088184756742,
                -0.9179807647530962,
                -0.8294506483589509
            ]
        },
        {
            "positions": [
                1.482334107048489,
                -1.2085496811845886,
                -1.1734375537499224,
                -1.4704046003154407,
                -0.8526841519277988,
                -0.9565976839073859
            ]
        },
        {
            "positions": [
                1.371673340283535,
                -1.2052960485562407,
                -1.1056029200800004,
                -1.4633003821552075,
                -0.7873875391025015,
                -1.083744719455821
            ]
        },
        {
            "positions": [
                1.2610125735185806,
                -1.202042415927893,
                -1.0377682864100781,
                -1.4561961639949743,
                -0.722090926277204,
                -1.2108917550042562
            ]
        },
        {
            "positions": [
                1.1503518067536265,
                -1.1987887832995452,
                -0.9699336527401559,
                -1.449091945834741,
                -0.6567943134519065,
                -1.338038790552691
            ]
        },
        {
            "positions": [
                1.0396910399886725,
                -1.1955351506711975,
                -0.9020990190702336,
                -1.441987727674508,
                -0.5914977006266092,
                -1.4651858261011257
            ]
        },
        {
            "positions": [
                0.9290302732237181,
                -1.1922815180428497,
                -0.8342643854003113,
                -1.4348835095142747,
                -0.5262010878013117,
                -1.592332861649561
            ]
        },
        {
            "positions": [
                0.8183695064587642,
                -1.189027885414502,
                -0.7664297517303893,
                -1.4277792913540415,
                -0.4609044749760143,
                -1.7194798971979957
            ]
        },
        {
            "positions": [
                0.7077087396938098,
                -1.1857742527861541,
                -0.698595118060467,
                -1.420675073193808,
                -0.39560786215071686,
                -1.8466269327464309
            ]
        },
        {
            "positions": [
                0.5970479729288556,
                -1.1825206201578065,
                -0.6307604843905448,
                -1.4135708550335748,
                -0.33031124932541944,
                -1.9737739682948656
            ]
        },
        {
            "positions": [
                0.48638720616390163,
                -1.1792669875294586,
                -0.5629258507206227,
                -1.4064666368733416,
                -0.265014636500122,
                -2.100921003843301
            ]
        },
        {
            "positions": [
                0.37572643939894723,
                -1.176013354901111,
                -0.49509121705070025,
                -1.3993624187131084,
                -0.1997180236748246,
                -2.228068039391736
            ]
        },
        {
            "positions": [
                0.2650656726339933,
                -1.172759722272763,
                -0.4272565833807782,
                -1.3922582005528752,
                -0.1344214108495273,
                -2.355215074940171
            ]
        },
        {
            "positions": [
                0.24953158999580483,
                -1.1697173208607032,
                -0.22921139362844736,
                -1.3392827123181699,
                -0.10919691205562577,
                -2.4289498589317793
            ]
        },
        {
            "positions": [
                0.23399750735761637,
                -1.1666749194486434,
                -0.031166203876116516,
                -1.2863072240834645,
                -0.08397241326172425,
                -2.5026846429233878
            ]
        },
        {
            "positions": [
                0.21846342471942795,
                -1.1636325180365836,
                0.1668789858762143,
                -1.2333317358487594,
                -0.05874791446782272,
                -2.576419426914996
            ]
        },
        {
            "positions": [
                0.2029293420812395,
                -1.1605901166245238,
                0.3649241756285452,
                -1.180356247614054,
                -0.033523415673921184,
                -2.6501542109066043
            ]
        },
        {
            "positions": [
                0.18739525944305108,
                -1.157547715212464,
                0.5629693653808759,
                -1.1273807593793488,
                -0.008298916880019658,
                -2.723888994898213
            ]
        },
        {
            "positions": [
                0.17186117680486263,
                -1.1545053138004044,
                0.7610145551332068,
                -1.0744052711446435,
                0.016925581913881854,
                -2.7976237788898213
            ]
        },
        {
            "positions": [
                0.15632709416667417,
                -1.1514629123883446,
                0.9590597448855376,
                -1.0214297829099381,
                0.042150080707783394,
                -2.8713585628814298
            ]
        },
        {
            "positions": [
                0.14079301152848572,
                -1.1484205109762848,
                1.1571049346378686,
                -0.9684542946752329,
                0.06737457950168493,
                -2.945093346873038
            ]
        },
        {
            "positions": [
                0.12525892889029727,
                -1.145378109564225,
                1.3551501243901996,
                -0.9154788064405276,
                0.09259907829558647,
                -3.0188281308646463
            ]
        },
        {
            "positions": [
                0.10972484625210885,
                -1.1423357081521652,
                1.55319531414253,
                -0.8625033182058224,
                0.11782357708948799,
                -3.092562914856255
            ]
        },
        {
            "positions": [
                0.0941907636139204,
                -1.1392933067401054,
                1.751240503894861,
                -0.809527829971117,
                0.14304807588338952,
                -3.1662976988478633
            ]
        },
        {
            "positions": [
                0.12180306186364293,
                -1.1384333593536051,
                1.9691811413712146,
                -0.7600238770848194,
                0.13131958305600092,
                -3.2199861837499943
            ]
        }
    ]
}