{
    "goal": {
        "global_pose": {
            "orientation": {
                "w": 0.5084816262002911,
                "x": -0.4908360881923452,
                "y": 0.5182115481033761,
                "z": -0.48164630358495003
            },
            "position": {
                "x": 0.5540239810943604,
                "y": -0.46912469901144505,
                "z": 0.16403168439865112
            }
        },
        "name": "move_to_storage_B"
    },
    "id": "LazyPRM_move_to_storage_B_130",
    "joint_names": [
        "shoulder_pan_joint",
        "shoulder_lift_joint",
        "elbow_joint",
        "wrist_1_joint",
        "wrist_2_joint",
        "wrist_3_joint"
    ],
    "metrics": {
        "cart_traj_len": 3.765513828043043,
        "distance_elbow_joint": 2.8244732660160827,
        "distance_shoulder_lift_joint": 0.914296145724135,
        "distance_shoulder_pan_joint": 3.5987004236132987,
        "distance_wrist_1_joint": 2.9794059832253534,
        "distance_wrist_2_joint": 2.7052779404081786,
        "distance_wrist_3_joint": 3.142099647183571,
        "smoothness": 0.32810457644465096,
        "time": 0.14158770399999998,
        "traj_len": 4.020479250807125,
        "weighted_distance": 5.304067931707823
    },
    "planner": "LazyPRM",
    "start": {
        "state": {
            "elbow_joint": 1.664937868594044,
            "shoulder_lift_joint": -0.661644460510453,
            "shoulder_pan_joint": -0.9139846352900073,
            "wrist_1_joint": 2.146753192139373,
            "wrist_2_joint": -2.2341966793290973,
            "wrist_3_joint": 0.005466555786416001
        }
    },
    "waypoints": [
        {
            "positions": [
                -0.9139846352900073,
                -0.661644460510453,
                1.664937868594044,
                2.146753192139373,
                -2.2341966793290973,
                0.005466555786416001
            ]
        },
        {
            "positions": [
                -0.8285885706495689,
                -0.6959629889790124,
                1.6030537959340383,
                2.0857991871537362,
                -2.1688768405093013,
                -0.07791115024619888
            ]
        },
        {
            "positions": [
                -0.7431925060091307,
                -0.7302815174475719,
                1.5411697232740327,
                2.0248451821680993,
                -2.1035570016895053,
                -0.16128885627881376
            ]
        },
        {
            "positions": [
                -0.6577964413686923,
                -0.7646000459161314,
                1.479285650614027,
                1.9638911771824625,
                -2.0382371628697094,
                -0.2446665623114286
            ]
        },
        {
            "positions": [
                -0.572400376728254,
                -0.7989185743846908,
                1.4174015779540214,
                1.9029371721968256,
                -1.9729173240499132,
                -0.3280442683440435
            ]
        },
        {
            "positions": [
                -0.4870043120878157,
                -0.8332371028532503,
                1.3555175052940158,
                1.8419831672111886,
                -1.907597485230117,
                -0.41142197437665834
            ]
        },
        {
            "positions": [
                -0.40160824744737744,
                -0.8675556313218097,
                1.2936334326340102,
                1.7810291622255516,
                -1.842277646410321,
                -0.4947996804092732
            ]
        },
        {
            "positions": [
                -0.3162121828069391,
                -0.9018741597903691,
                1.2317493599740046,
                1.7200751572399149,
                -1.776957807590525,
                -0.5781773864418881
            ]
        },
        {
            "positions": [
                -0.23081611816650072,
                -0.9361926882589287,
                1.169865287313999,
                1.659121152254278,
                -1.711637968770729,
                -0.6615550924745031
            ]
        },
        {
            "positions": [
                -0.14542005352606235,
                -0.9705112167274881,
                1.1079812146539934,
                1.598167147268641,
                -1.6463181299509329,
                -0.7449327985071179
            ]
        },
        {
            "positions": [
                -0.0600239888856241,
                -1.0048297451960475,
                1.0460971419939877,
                1.537213142283004,
                -1.5809982911311369,
                -0.8283105045397328
            ]
        },
        {
            "positions": [
                0.02537207575481426,
                -1.039148273664607,
                0.9842130693339822,
                1.476259137297367,
                -1.5156784523113407,
                -0.9116882105723477
            ]
        },
        {
            "positions": [
                0.1107681403952524,
                -1.0734668021331664,
                0.9223289966739766,
                1.41530513231173,
                -1.4503586134915447,
                -0.9950659166049625
            ]
        },
        {
            "positions": [
                0.19616420503569099,
                -1.1077853306017258,
                0.860444924013971,
                1.354351127326093,
                -1.3850387746717487,
                -1.0784436226375773
            ]
        },
        {
            "positions": [
                0.2815602696761291,
                -1.1421038590702852,
                0.7985608513539655,
                1.2933971223404563,
                -1.3197189358519528,
                -1.1618213286701922
            ]
        },
        {
            "positions": [
                0.3669563343165675,
                -1.1764223875388446,
                0.7366767786939599,
                1.2324431173548194,
                -1.2543990970321568,
                -1.245199034702807
            ]
        },
        {
            "positions": [
                0.45235239895700585,
                -1.210740916007404,
                0.6747927060339541,
                1.1714891123691824,
                -1.1890792582123606,
                -1.328576740735422
            ]
        },
        {
            "positions": [
                0.537748463597444,
                -1.2450594444759635,
                0.6129086333739486,
                1.1105351073835457,
                -1.1237594193925646,
                -1.411954446768037
            ]
        },
        {
            "positions": [
                0.6231445282378826,
                -1.2793779729445232,
                0.551024560713943,
                1.0495811023979085,
                -1.0584395805727684,
                -1.4953321528006518
            ]
        },
        {
            "positions": [
                0.7085405928783207,
                -1.3136965014130826,
                0.4891404880539374,
                0.9886270974122717,
                -0.9931197417529727,
                -1.5787098588332666
            ]
        },
        {
            "positions": [
                0.793936657518759,
                -1.348015029881642,
                0.4272564153939317,
                0.9276730924266348,
                -0.9277999029331766,
                -1.6620875648658815
            ]
        },
        {
            "positions": [
                0.7079921515730984,
                -1.3376547764110536,
                0.49938331597647584,
                0.8476582795396977,
                -0.8642143954780739,
                -1.729112361526394
            ]
        },
        {
            "positions": [
                0.6220476456274378,
                -1.3272945229404651,
                0.57151021655902,
                0.7676434666527607,
                -0.8006288880229713,
                -1.7961371581869063
            ]
        },
        {
            "positions": [
                0.5361031396817773,
                -1.3169342694698767,
                0.643637117141564,
                0.6876286537658237,
                -0.7370433805678687,
                -1.8631619548474188
            ]
        },
        {
            "positions": [
                0.45015863373611664,
                -1.3065740159992882,
                0.7157640177241082,
                0.6076138408788867,
                -0.673457873112766,
                -1.9301867515079312
            ]
        },
        {
            "positions": [
                0.3642141277904561,
                -1.2962137625286998,
                0.7878909183066523,
                0.5275990279919496,
                -0.6098723656576633,
                -1.9972115481684436
            ]
        },
        {
            "positions": [
                0.27826962184479553,
                -1.2858535090581114,
                0.8600178188891964,
                0.4475842151050127,
                -0.5462868582025606,
                -2.0642363448289562
            ]
        },
        {
            "positions": [
                0.19232511589913492,
                -1.275493255587523,
                0.9321447194717405,
                0.36756940221807555,
                -0.482701350747458,
                -2.1312611414894684
            ]
        },
        {
            "positions": [
                0.10638060995347431,
                -1.2651330021169345,
                1.0042716200542847,
                0.28755458933113853,
                -0.4191158432923553,
                -2.198285938149981
            ]
        },
        {
            "positions": [
                0.020436104007813705,
                -1.254772748646346,
                1.0763985206368287,
                0.20753977644420152,
                -0.3555303358372527,
                -2.2653107348104933
            ]
        },
        {
            "positions": [
                -0.0655084019378468,
                -1.2444124951757576,
                1.148525421219373,
                0.1275249635572645,
                -0.2919448283821501,
                -2.332335531471006
            ]
        },
        {
            "positions": [
                -0.1514529078835074,
                -1.234052241705169,
                1.220652321801917,
                0.04751015067032749,
                -0.22835932092704736,
                -2.399360328131518
            ]
        },
        {
            "positions": [
                -0.2373974138291679,
                -1.2236919882345805,
                1.292779222384461,
                -0.032504662216609415,
                -0.16477381347194475,
                -2.4663851247920308
            ]
        },
        {
            "positions": [
                -0.3233419197748286,
                -1.213331734763992,
                1.3649061229670052,
                -0.11251947510354654,
                -0.10118830601684203,
                -2.5334099214525434
            ]
        },
        {
            "positions": [
                -0.4092864257204891,
                -1.2029714812934036,
                1.4370330235495494,
                -0.19253428799048367,
                -0.037602798561739426,
                -2.6004347181130556
            ]
        },
        {
            "positions": [
                -0.4952309316661496,
                -1.1926112278228151,
                1.5091599241320934,
                -0.27254910087742057,
                0.025982708893363182,
                -2.667459514773568
            ]
        },
        {
            "positions": [
                -0.5811754376118103,
                -1.1822509743522267,
                1.5812868247146377,
                -0.3525639137643577,
                0.08956821634846601,
                -2.7344843114340804
            ]
        },
        {
            "positions": [
                -0.6671199435574708,
                -1.1718907208816383,
                1.6534137252971817,
                -0.4325787266512946,
                0.15315372380356862,
                -2.801509108094593
            ]
        },
        {
            "positions": [
                -0.7530644495031316,
                -1.1615304674110498,
                1.725540625879726,
                -0.5125935395382317,
                0.21673923125867123,
                -2.8685339047551053
            ]
        },
        {
            "positions": [
                -0.8390089554487921,
                -1.1511702139404614,
                1.7976675264622701,
                -0.5926083524251686,
                0.28032473871377384,
                -2.9355587014156175
            ]
        },
        {
            "positions": [
                -0.9249534613944526,
                -1.140809960469873,
                1.8697944270448141,
                -0.6726231653121058,
                0.34391024616887644,
                -3.00258349807613
            ]
        },
        {
            "positions": [
                -1.0108979673401133,
                -1.1304497069992845,
                1.9419213276273584,
                -0.7526379781990429,
                0.4074957536239793,
                -3.0696082947366428
            ]
        },
        {
            "positions": [
                -1.0968424732857738,
                -1.120089453528696,
                2.0140482282099024,
                -0.8326527910859797,
                0.47108126107908194,
                -3.136633091397155
            ]
        }
    ]
}