{
    "goal": {
        "global_pose": {
            "orientation": {
                "w": -0.4816463035849501,
                "x": 0.5182115481033762,
                "y": 0.4908360881923453,
                "z": -0.5084816262002911
            },
            "position": {
                "x": -0.8240239810943604,
                "y": 0.19912469901144506,
                "z": 0.16403168439865112
            }
        },
        "name": "move_to_storage_D"
    },
    "id": "LazyPRMstar_move_to_storage_D_31",
    "joint_names": [
        "shoulder_pan_joint",
        "shoulder_lift_joint",
        "elbow_joint",
        "wrist_1_joint",
        "wrist_2_joint",
        "wrist_3_joint"
    ],
    "metrics": {
        "cart_traj_len": 4.942472652891218,
        "distance_elbow_joint": 4.280668351402572,
        "distance_shoulder_lift_joint": 1.2648280932110874,
        "distance_shoulder_pan_joint": 2.812412055476825,
        "distance_wrist_1_joint": 2.27644530073726,
        "distance_wrist_2_joint": 0.8698020980480273,
        "distance_wrist_3_joint": 3.124669329513212,
        "smoothness": 0.005084188334409615,
        "time": 5.084941226000001,
        "traj_len": 3.824764728501478,
        "weighted_distance": 4.90147031881258
    },
    "planner": "LazyPRMstar",
    "start": {
        "state": {
            "elbow_joint": -2.384821988534728,
            "shoulder_lift_joint": -2.2788054721415256,
            "shoulder_pan_joint": -0.1854694642142757,
            "wrist_1_joint": 1.4845938289331202,
            "wrist_2_joint": 0.17898776772866878,
            "wrist_3_joint": 0.037105688729662994
        }
    },
    "waypoints": [
        {
            "positions": [
                -0.1854694642142757,
                -2.2788054721415256,
                -2.384821988534728,
                1.4845938289331202,
                0.17898776772866878,
                0.037105688729662994
            ]
        },
        {
            "positions": [
                -0.05417175456678805,
                -2.2560828178440486,
                -2.3869915809595694,
                1.4414396801641045,
                0.21728213116423628,
                -0.11904504202040947
            ]
        },
        {
            "positions": [
                0.07712595508069961,
                -2.233360163546572,
                -2.389161173384411,
                1.3982855313950886,
                0.2555764945998038,
                -0.2751957727704819
            ]
        },
        {
            "positions": [
                0.20842366472818727,
                -2.210637509249095,
                -2.3913307658092524,
                1.355131382626073,
                0.29387085803537133,
                -0.43134650352055437
            ]
        },
        {
            "positions": [
                0.33972137437567496,
                -2.187914854951618,
                -2.3935003582340943,
                1.311977233857057,
                0.33216522147093885,
                -0.5874972342706268
            ]
        },
        {
            "positions": [
                0.4710190840231626,
                -2.165192200654141,
                -2.395669950658936,
                1.2688230850880413,
                0.3704595849065063,
                -0.7436479650206993
            ]
        },
        {
            "positions": [
                0.6023167936706503,
                -2.142469546356664,
                -2.3978395430837773,
                1.2256689363190256,
                0.40875394834207385,
                -0.8997986957707718
            ]
        },
        {
            "positions": [
                0.7336145033181379,
                -2.1197468920591875,
                -2.400009135508619,
                1.1825147875500097,
                0.44704831177764137,
                -1.0559494265208442
            ]
        },
        {
            "positions": [
                0.8649122129656256,
                -2.0970242377617105,
                -2.4021787279334603,
                1.139360638780994,
                0.48534267521320884,
                -1.2121001572709167
            ]
        },
        {
            "positions": [
                0.9962099226131133,
                -2.0743015834642335,
                -2.404348320358302,
                1.0962064900119781,
                0.5236370386487764,
                -1.3682508880209892
            ]
        },
        {
            "positions": [
                1.1275076322606008,
                -2.051578929166757,
                -2.4065179127831433,
                1.0530523412429624,
                0.5619314020843439,
                -1.5244016187710616
            ]
        },
        {
            "positions": [
                1.2588053419080885,
                -2.02885627486928,
                -2.408687505207985,
                1.0098981924739467,
                0.6002257655199114,
                -1.680552349521134
            ]
        },
        {
            "positions": [
                1.3901030515555761,
                -2.006133620571803,
                -2.4108570976328263,
                0.9667440437049308,
                0.6385201289554789,
                -1.8367030802712065
            ]
        },
        {
            "positions": [
                1.5214007612030638,
                -1.983410966274326,
                -2.4130266900576682,
                0.923589894935915,
                0.6768144923910464,
                -1.9928538110212788
            ]
        },
        {
            "positions": [
                1.6526984708505514,
                -1.9606883119768492,
                -2.4151962824825097,
                0.8804357461668993,
                0.7151088558266139,
                -2.1490045417713515
            ]
        },
        {
            "positions": [
                1.783996180498039,
                -1.9379656576793725,
                -2.417365874907351,
                0.8372815973978835,
                0.7534032192621815,
                -2.305155272521424
            ]
        },
        {
            "positions": [
                1.915293890145527,
                -1.9152430033818955,
                -2.4195354673321927,
                0.7941274486288677,
                0.7916975826977489,
                -2.4613060032714964
            ]
        },
        {
            "positions": [
                2.022406205327812,
                -1.8830493014684495,
                -2.392547436517058,
                0.7446349809392531,
                0.8392717322918208,
                -2.513755634182084
            ]
        },
        {
            "positions": [
                2.129518520510097,
                -1.8508555995550036,
                -2.365559405701923,
                0.6951425132496383,
                0.8868458818858928,
                -2.566205265092672
            ]
        },
        {
            "positions": [
                2.236630835692382,
                -1.8186618976415576,
                -2.3385713748867882,
                0.6456500455600236,
                0.9344200314799647,
                -2.6186548960032594
            ]
        },
        {
            "positions": [
                2.2571735596697593,
                -1.7763100808672883,
                -2.119361333825751,
                0.5699920709619097,
                0.9404394964429506,
                -2.643334303623275
            ]
        },
        {
            "positions": [
                2.2777162836471363,
                -1.7339582640930187,
                -1.9001512927647142,
                0.49433409636379594,
                0.9464589614059364,
                -2.66801371124329
            ]
        },
        {
            "positions": [
                2.2982590076245137,
                -1.6916064473187493,
                -1.680941251703677,
                0.41867612176568214,
                0.9524784263689222,
                -2.692693118863305
            ]
        },
        {
            "positions": [
                2.3188017316018907,
                -1.64925463054448,
                -1.46173121064264,
                0.3430181471675683,
                0.9584978913319081,
                -2.71737252648332
            ]
        },
        {
            "positions": [
                2.339344455579268,
                -1.6069028137702104,
                -1.242521169581603,
                0.26736017256945444,
                0.964517356294894,
                -2.7420519341033356
            ]
        },
        {
            "positions": [
                2.359887179556645,
                -1.564550996995941,
                -1.0233111285205658,
                0.19170219797134064,
                0.9705368212578799,
                -2.766731341723351
            ]
        },
        {
            "positions": [
                2.3804299035340226,
                -1.5221991802216714,
                -0.8041010874595289,
                0.11604422337322684,
                0.9765562862208657,
                -2.791410749343366
            ]
        },
        {
            "positions": [
                2.4009726275114,
                -1.479847363447402,
                -0.5848910463984918,
                0.04038624877511299,
                0.9825757511838515,
                -2.8160901569633814
            ]
        },
        {
            "positions": [
                2.421515351488777,
                -1.4374955466731327,
                -0.3656810053374546,
                -0.035271725823000866,
                0.9885952161468374,
                -2.840769564583397
            ]
        },
        {
            "positions": [
                2.4420580754661545,
                -1.3951437298988631,
                -0.1464709642764177,
                -0.11092970042111472,
                0.9946146811098233,
                -2.8654489722034118
            ]
        },
        {
            "positions": [
                2.4626007994435315,
                -1.3527919131245938,
                0.07273907678461944,
                -0.18658767501922857,
                1.0006341460728092,
                -2.890128379823427
            ]
        },
        {
            "positions": [
                2.483143523420909,
                -1.3104400963503244,
                0.2919491178456566,
                -0.2622456496173423,
                1.006653611035795,
                -2.9148077874434426
            ]
        },
        {
            "positions": [
                2.503686247398286,
                -1.2680882795760549,
                0.5111591589066937,
                -0.33790362421545617,
                1.012673075998781,
                -2.9394871950634576
            ]
        },
        {
            "positions": [
                2.5242289713756634,
                -1.2257364628017855,
                0.7303691999677304,
                -0.4135615988135699,
                1.0186925409617666,
                -2.964166602683473
            ]
        },
        {
            "positions": [
                2.544771695353041,
                -1.1833846460275161,
                0.949579241028768,
                -0.48921957341168376,
                1.0247120059247525,
                -2.9888460103034884
            ]
        },
        {
            "positions": [
                2.565314419330418,
                -1.1410328292532466,
                1.1687892820898047,
                -0.5648775480097976,
                1.0307314708877384,
                -3.0135254179235034
            ]
        },
        {
            "positions": [
                2.5858571433077953,
                -1.098681012478977,
                1.3879993231508418,
                -0.6405355226079115,
                1.0367509358507243,
                -3.038204825543519
            ]
        },
        {
            "positions": [
                2.6063998672851723,
                -1.0563291957047078,
                1.607209364211879,
                -0.7161934972060253,
                1.0427704008137102,
                -3.0628842331635338
            ]
        },
        {
            "positions": [
                2.6269425912625497,
                -1.0139773789304383,
                1.826419405272916,
                -0.7918514718041393,
                1.048789865776696,
                -3.087563640783549
            ]
        }
    ]
}