{
    "goal": {
        "global_pose": {
            "orientation": {
                "w": 0.7031023502349854,
                "x": -0.7110244035720825,
                "y": 0.007748599164187908,
                "z": 0.005598929710686207
            },
            "position": {
                "x": 0.11585023208521307,
                "y": 0.44412534475326537,
                "z": 0.3711530566215515
            }
        },
        "name": "move_to_auspresseinheit_A"
    },
    "id": "LazyPRM_move_to_auspresseinheit_A_65",
    "joint_names": [
        "shoulder_pan_joint",
        "shoulder_lift_joint",
        "elbow_joint",
        "wrist_1_joint",
        "wrist_2_joint",
        "wrist_3_joint"
    ],
    "metrics": {
        "cart_traj_len": 0.7362739164434242,
        "distance_elbow_joint": 0.04233420778334018,
        "distance_shoulder_lift_joint": 0.53420841113258,
        "distance_shoulder_pan_joint": 1.4003395501768676,
        "distance_wrist_1_joint": 0.7401512452242445,
        "distance_wrist_2_joint": 1.07250935542692,
        "distance_wrist_3_joint": 0.49549907564384377,
        "smoothness": 0.9539589414063975,
        "time": 0.052305075,
        "traj_len": 2.07003426188742,
        "weighted_distance": 2.66246137949955
    },
    "planner": "LazyPRM",
    "start": {
        "state": {
            "elbow_joint": 2.4225746658250005,
            "shoulder_lift_joint": -1.3736534386056498,
            "shoulder_pan_joint": -0.3378633547517467,
            "wrist_1_joint": -1.0288598680537169,
            "wrist_2_joint": 1.233022673432363,
            "wrist_3_joint": -3.0940220416140027
        }
    },
    "waypoints": [
        {
            "positions": [
                -0.3378633547517467,
                -1.3736534386056498,
                2.4225746658250005,
                -1.0288598680537169,
                1.233022673432363,
                -3.0940220416140027
            ]
        },
        {
            "positions": [
                -0.3674478059472453,
                -1.4408564122548608,
                2.4165821249353305,
                -0.9204740724536585,
                1.0995121128838945,
                -3.0560584886855477
            ]
        },
        {
            "positions": [
                -0.39703225714274387,
                -1.5080593859040718,
                2.4105895840456606,
                -0.8120882768536002,
                0.9660015523354261,
                -3.0180949357570923
            ]
        },
        {
            "positions": [
                -0.4266167083382425,
                -1.575262359553283,
                2.4045970431559907,
                -0.7037024812535417,
                0.8324909917869575,
                -2.9801313828286373
            ]
        },
        {
            "positions": [
                -0.4562011595337411,
                -1.642465333202494,
                2.3986045022663207,
                -0.5953166856534834,
                0.6989804312384891,
                -2.9421678299001823
            ]
        },
        {
            "positions": [
                -0.48578561072923965,
                -1.7096683068517051,
                2.3926119613766508,
                -0.48693089005342494,
                0.5654698706900204,
                -2.904204276971727
            ]
        },
        {
            "positions": [
                -0.5153700619247382,
                -1.7768712805009161,
                2.386619420486981,
                -0.3785450944533666,
                0.431959310141552,
                -2.866240724043272
            ]
        },
        {
            "positions": [
                -0.3115645880907589,
                -1.7987030420404684,
                2.387682580894534,
                -0.39351783972401566,
                0.4772003088309035,
                -2.910860350388791
            ]
        },
        {
            "positions": [
                -0.10775911425677953,
                -1.8205348035800206,
                2.388745741302088,
                -0.4084905849946647,
                0.522441307520255,
                -2.9554799767343094
            ]
        },
        {
            "positions": [
                0.09604635957719987,
                -1.842366565119573,
                2.389808901709641,
                -0.4234633302653137,
                0.5676823062096065,
                -3.0000996030798284
            ]
        },
        {
            "positions": [
                0.29985183341117916,
                -1.8641983266591253,
                2.3908720621171944,
                -0.43843607553596275,
                0.612923304898958,
                -3.0447192294253473
            ]
        },
        {
            "positions": [
                0.5036573072451586,
                -1.8860300881986776,
                2.391935222524748,
                -0.4534088208066118,
                0.6581643035883095,
                -3.089338855770866
            ]
        },
        {
            "positions": [
                0.707462781079138,
                -1.9078618497382298,
                2.3929983829323014,
                -0.46838156607726084,
                0.703405302277661,
                -3.133958482116385
            ]
        }
    ]
}