{
    "goal": {
        "global_pose": {
            "orientation": {
                "w": 0.7047431493862688,
                "x": -0.7094548369677653,
                "y": 0.0024358444001904,
                "z": -0.0022348060817251984
            },
            "position": {
                "x": -0.39052492380142206,
                "y": 0.3671506643295288,
                "z": 0.19426114857196808
            }
        },
        "name": "move_to_magneteinheit_D"
    },
    "id": "LazyPRM_move_to_magneteinheit_D_111",
    "joint_names": [
        "shoulder_pan_joint",
        "shoulder_lift_joint",
        "elbow_joint",
        "wrist_1_joint",
        "wrist_2_joint",
        "wrist_3_joint"
    ],
    "metrics": {
        "cart_traj_len": 4.03246658206367,
        "distance_elbow_joint": 5.030603174217571,
        "distance_shoulder_lift_joint": 1.6312129913359683,
        "distance_shoulder_pan_joint": 2.954999618124435,
        "distance_wrist_1_joint": 2.1510571071828117,
        "distance_wrist_2_joint": 1.1850603809368205,
        "distance_wrist_3_joint": 3.325898180589993,
        "smoothness": 0.4420072796820835,
        "time": 0.339631053,
        "traj_len": 4.034703390881119,
        "weighted_distance": 5.125109296560144
    },
    "planner": "LazyPRM",
    "start": {
        "state": {
            "elbow_joint": 0.749534889911806,
            "shoulder_lift_joint": -0.6476975780787326,
            "shoulder_pan_joint": -2.711696901376241,
            "wrist_1_joint": -0.07506478083263063,
            "wrist_2_joint": 0.43296659715538205,
            "wrist_3_joint": -3.14703540197715
        }
    },
    "waypoints": [
        {
            "positions": [
                -2.711696901376241,
                -0.6476975780787326,
                0.749534889911806,
                -0.07506478083263063,
                0.43296659715538205,
                -3.14703540197715
            ]
        },
        {
            "positions": [
                -2.7224206373933137,
                -0.718967002564478,
                0.8769891835708015,
                -0.05041554377248586,
                0.38169110298128395,
                -3.080411211043918
            ]
        },
        {
            "positions": [
                -2.7331443734103864,
                -0.7902364270502233,
                1.004443477229797,
                -0.025766306712341085,
                0.3304156088071859,
                -3.0137870201106867
            ]
        },
        {
            "positions": [
                -2.7142998578332898,
                -0.8523558186586905,
                1.103626743944965,
                0.04535029624571762,
                0.27784775370729947,
                -2.925391181231957
            ]
        },
        {
            "positions": [
                -2.6954553422561935,
                -0.9144752102671575,
                1.2028100106601327,
                0.11646689920377631,
                0.22527989860741301,
                -2.8369953423532275
            ]
        },
        {
            "positions": [
                -2.676610826679097,
                -0.9765946018756246,
                1.3019932773753007,
                0.187583502161835,
                0.17271204350752659,
                -2.7485995034744977
            ]
        },
        {
            "positions": [
                -2.6577663111020002,
                -1.0387139934840917,
                1.4011765440904687,
                0.2587001051198937,
                0.12014418840764013,
                -2.660203664595768
            ]
        },
        {
            "positions": [
                -2.6389217955249036,
                -1.100833385092559,
                1.5003598108056364,
                0.32981670807795244,
                0.06757633330775364,
                -2.571807825717038
            ]
        },
        {
            "positions": [
                -2.6200772799478074,
                -1.162952776701026,
                1.5995430775208044,
                0.4009333110360111,
                0.01500847820786727,
                -2.4834119868383087
            ]
        },
        {
            "positions": [
                -2.6012327643707107,
                -1.225072168309493,
                1.6987263442359724,
                0.4720499139940698,
                -0.03755937689201922,
                -2.395016147959579
            ]
        },
        {
            "positions": [
                -2.5043718265560524,
                -1.2430390544321315,
                1.591468479648887,
                0.5290245672842014,
                -0.017258914267533253,
                -2.302806479061082
            ]
        },
        {
            "positions": [
                -2.407510888741394,
                -1.26100594055477,
                1.4842106150618015,
                0.585999220574333,
                0.0030415483569527155,
                -2.210596810162585
            ]
        },
        {
            "positions": [
                -2.3106499509267353,
                -1.2789728266774085,
                1.376952750474716,
                0.6429738738644646,
                0.023342010981438677,
                -2.118387141264088
            ]
        },
        {
            "positions": [
                -2.213789013112077,
                -1.296939712800047,
                1.2696948858876307,
                0.6999485271545962,
                0.04364247360592465,
                -2.0261774723655908
            ]
        },
        {
            "positions": [
                -2.1169280752974187,
                -1.3149065989226856,
                1.1624370213005455,
                0.7569231804447277,
                0.06394293623041061,
                -1.9339678034670937
            ]
        },
        {
            "positions": [
                -2.0200671374827603,
                -1.332873485045324,
                1.0551791567134599,
                0.8138978337348594,
                0.08424339885489657,
                -1.8417581345685967
            ]
        },
        {
            "positions": [
                -1.923206199668102,
                -1.3508403711679626,
                0.9479212921263744,
                0.870872487024991,
                0.10454386147938258,
                -1.7495484656700997
            ]
        },
        {
            "positions": [
                -1.8263452618534437,
                -1.3688072572906012,
                0.8406634275392891,
                0.9278471403151225,
                0.12484432410386853,
                -1.657338796771603
            ]
        },
        {
            "positions": [
                -1.729484324038785,
                -1.3867741434132397,
                0.7334055629522036,
                0.9848217936052541,
                0.1451447867283545,
                -1.5651291278731057
            ]
        },
        {
            "positions": [
                -1.6326233862241266,
                -1.4047410295358782,
                0.6261476983651184,
                1.0417964468953858,
                0.16544524935284047,
                -1.4729194589746089
            ]
        },
        {
            "positions": [
                -1.5357624484094683,
                -1.4227079156585165,
                0.5188898337780328,
                1.0987711001855174,
                0.18574571197732645,
                -1.3807097900761118
            ]
        },
        {
            "positions": [
                -1.43890151059481,
                -1.4406748017811553,
                0.4116319691909476,
                1.155745753475649,
                0.20604617460181238,
                -1.2885001211776148
            ]
        },
        {
            "positions": [
                -1.3420405727801517,
                -1.4586416879037936,
                0.30437410460386216,
                1.2127204067657804,
                0.22634663722629833,
                -1.196290452279118
            ]
        },
        {
            "positions": [
                -1.245179634965493,
                -1.4766085740264323,
                0.19711624001677652,
                1.2696950600559123,
                0.24664709985078437,
                -1.1040807833806208
            ]
        },
        {
            "positions": [
                -1.1483186971508348,
                -1.4945754601490706,
                0.08985837542969133,
                1.3266697133460437,
                0.2669475624752703,
                -1.0118711144821237
            ]
        },
        {
            "positions": [
                -1.0514577593361765,
                -1.5125423462717091,
                -0.017399489157394088,
                1.383644366636175,
                0.2872480250997563,
                -0.919661445583627
            ]
        },
        {
            "positions": [
                -0.9545968215215181,
                -1.5305092323943477,
                -0.1246573537444795,
                1.4406190199263067,
                0.3075484877242422,
                -0.8274517766851299
            ]
        },
        {
            "positions": [
                -0.8577358837068594,
                -1.5484761185169862,
                -0.23191521833156514,
                1.4975936732164383,
                0.32784895034872824,
                -0.7352421077866327
            ]
        },
        {
            "positions": [
                -0.7608749458922011,
                -1.5664430046396247,
                -0.33917308291865034,
                1.55456832650657,
                0.34814941297321417,
                -0.6430324388881359
            ]
        },
        {
            "positions": [
                -0.6640140080775427,
                -1.5844098907622632,
                -0.44643094750573553,
                1.6115429797967016,
                0.36844987559770015,
                -0.5508227699896389
            ]
        },
        {
            "positions": [
                -0.5671530702628846,
                -1.6023767768849018,
                -0.5536888120928212,
                1.6685176330868332,
                0.3887503382221861,
                -0.45861310109114184
            ]
        },
        {
            "positions": [
                -0.4702921324482259,
                -1.6203436630075403,
                -0.6609466766799068,
                1.7254922863769648,
                0.4090508008466721,
                -0.3664034321926448
            ]
        },
        {
            "positions": [
                -0.3734311946335674,
                -1.6383105491301788,
                -0.768204541266992,
                1.7824669396670965,
                0.42935126347115804,
                -0.2741937632941477
            ]
        },
        {
            "positions": [
                -0.32591847148406294,
                -1.703559111782973,
                -0.9481060643999752,
                1.7621679762456646,
                0.42825655329783696,
                -0.22646208875637025
            ]
        },
        {
            "positions": [
                -0.27840574833455856,
                -1.768807674435767,
                -1.1280075875329585,
                1.741869012824233,
                0.4271618431245159,
                -0.17873041421859281
            ]
        },
        {
            "positions": [
                -0.2308930251850541,
                -1.8340562370885614,
                -1.3079091106659417,
                1.7215700494028012,
                0.42606713295119486,
                -0.13099873968081535
            ]
        },
        {
            "positions": [
                -0.1833803020355497,
                -1.8993047997413555,
                -1.487810633798925,
                1.7012710859813693,
                0.4249724227778738,
                -0.08326706514303792
            ]
        },
        {
            "positions": [
                -0.13586757888604528,
                -1.9645533623941496,
                -1.6677121569319082,
                1.6809721225599374,
                0.4238777126045527,
                -0.03553539060526048
            ]
        },
        {
            "positions": [
                -0.08835485573654084,
                -2.029801925046944,
                -1.8476136800648915,
                1.6606731591385058,
                0.4227830024312317,
                0.012196283932516983
            ]
        },
        {
            "positions": [
                -0.04084213258703645,
                -2.095050487699738,
                -2.0275152031978747,
                1.640374195717074,
                0.4216882922579106,
                0.05992795847029442
            ]
        },
        {
            "positions": [
                0.006670590562467972,
                -2.160299050352532,
                -2.207416726330858,
                1.6200752322956422,
                0.4205935820845895,
                0.10765963300807187
            ]
        },
        {
            "positions": [
                -0.06681118606891406,
                -2.213319158070413,
                -2.292467957305399,
                1.5647597197516594,
                0.325721837877121,
                0.08308206235780385
            ]
        },
        {
            "positions": [
                -0.1402929627002961,
                -2.2663392657882944,
                -2.3775191882799405,
                1.5094442072076766,
                0.23085009366965248,
                0.058504491707535855
            ]
        },
        {
            "positions": [
                -0.18706659155496727,
                -2.278910569414701,
                -2.382685375657433,
                1.4889415529840118,
                0.1817274969449156,
                0.036456487403301034
            ]
        }
    ]
}