{
    "goal": {
        "global_pose": {
            "orientation": {
                "w": 0.7031023502349854,
                "x": -0.7110244035720825,
                "y": 0.007748599164187908,
                "z": 0.005598929710686207
            },
            "position": {
                "x": 0.11585023208521307,
                "y": 0.44412534475326537,
                "z": 0.3711530566215515
            }
        },
        "name": "move_to_auspresseinheit_A"
    },
    "id": "LazyPRM_move_to_auspresseinheit_A_101",
    "joint_names": [
        "shoulder_pan_joint",
        "shoulder_lift_joint",
        "elbow_joint",
        "wrist_1_joint",
        "wrist_2_joint",
        "wrist_3_joint"
    ],
    "metrics": {
        "cart_traj_len": 0.9329198381762271,
        "distance_elbow_joint": 0.32890396636215025,
        "distance_shoulder_lift_joint": 0.7611531655322501,
        "distance_shoulder_pan_joint": 1.2310435615528332,
        "distance_wrist_1_joint": 1.2937809189824965,
        "distance_wrist_2_joint": 0.9788045855949501,
        "distance_wrist_3_joint": 0.04439487411186693,
        "smoothness": 3.3115818910664907,
        "time": 0.117596486,
        "traj_len": 2.153620456843904,
        "weighted_distance": 2.6456485641403185
    },
    "planner": "LazyPRM",
    "start": {
        "state": {
            "elbow_joint": 2.4225746658250005,
            "shoulder_lift_joint": -1.3736534386056498,
            "shoulder_pan_joint": -0.3378633547517467,
            "wrist_1_joint": -1.0288598680537169,
            "wrist_2_joint": 1.233022673432363,
            "wrist_3_joint": -3.0940220416140027
        }
    },
    "waypoints": [
        {
            "positions": [
                -0.3378633547517467,
                -1.3736534386056498,
                2.4225746658250005,
                -1.0288598680537169,
                1.233022673432363,
                -3.0940220416140027
            ]
        },
        {
            "positions": [
                -0.43191251258290786,
                -1.41512966159286,
                2.4365485764113335,
                -1.2258550376089103,
                1.2249559386678794,
                -3.0999187188325643
            ]
        },
        {
            "positions": [
                -0.31934707993820943,
                -1.482554639293607,
                2.416844501518491,
                -1.1235072004255997,
                1.1418957875694296,
                -3.104057947041837
            ]
        },
        {
            "positions": [
                -0.20678164729351103,
                -1.5499796169943543,
                2.3971404266256484,
                -1.0211593632422893,
                1.0588356364709797,
                -3.10819717525111
            ]
        },
        {
            "positions": [
                -0.09421621464881264,
                -1.6174045946951014,
                2.3774363517328063,
                -0.9188115260589788,
                0.9757754853725297,
                -3.112336403460383
            ]
        },
        {
            "positions": [
                0.01834921799588579,
                -1.6848295723958486,
                2.357732276839964,
                -0.8164636888756682,
                0.8927153342740798,
                -3.116475631669656
            ]
        },
        {
            "positions": [
                0.13091465064058427,
                -1.752254550096596,
                2.3380282019471212,
                -0.7141158516923576,
                0.8096551831756298,
                -3.1206148598789287
            ]
        },
        {
            "positions": [
                0.2434800832852826,
                -1.819679527797343,
                2.3183241270542787,
                -0.6117680145090472,
                0.7265950320771799,
                -3.124754088088202
            ]
        },
        {
            "positions": [
                0.356045515929981,
                -1.8871045054980904,
                2.2986200521614366,
                -0.5094201773257365,
                0.64353488097873,
                -3.1288933162974746
            ]
        },
        {
            "positions": [
                0.46861094857467944,
                -1.9545294831988376,
                2.278915977268594,
                -0.4070723401424261,
                0.5604747298802801,
                -3.1330325445067477
            ]
        },
        {
            "positions": [
                0.5811763812193778,
                -2.0219544608995847,
                2.2592119023757515,
                -0.30472450295911546,
                0.47741457878183013,
                -3.1371717727160204
            ]
        },
        {
            "positions": [
                0.643129136179071,
                -1.9655283892804272,
                2.328008593245869,
                -0.3925521103478695,
                0.5890128242540387,
                -3.136549201211096
            ]
        },
        {
            "positions": [
                0.7050818911387643,
                -1.9091023176612696,
                2.396805284115987,
                -0.4803797177366236,
                0.7006110697262473,
                -3.135926629706171
            ]
        }
    ]
}