{
    "goal": {
        "global_pose": {
            "orientation": {
                "w": 0.7031023480610252,
                "x": -0.7110244013736278,
                "y": 0.0077485991402295624,
                "z": 0.005598929693374583
            },
            "position": {
                "x": -0.8841497679147869,
                "y": 0.44412534475326537,
                "z": 0.3711530566215515
            }
        },
        "name": "move_to_auspresseinheit_D"
    },
    "id": "LazyPRM_move_to_auspresseinheit_D_49",
    "joint_names": [
        "shoulder_pan_joint",
        "shoulder_lift_joint",
        "elbow_joint",
        "wrist_1_joint",
        "wrist_2_joint",
        "wrist_3_joint"
    ],
    "metrics": {
        "cart_traj_len": 0.34358432066864253,
        "distance_elbow_joint": 0.6600525767217162,
        "distance_shoulder_lift_joint": 0.1341070440295815,
        "distance_shoulder_pan_joint": 0.13366838219997523,
        "distance_wrist_1_joint": 0.6046900625300382,
        "distance_wrist_2_joint": 1.4394105963042274,
        "distance_wrist_3_joint": 0.06572651650708483,
        "smoothness": 0.0,
        "time": 0.012376827,
        "traj_len": 1.7428870239612846,
        "weighted_distance": 2.283245249670096
    },
    "planner": "LazyPRM",
    "start": {
        "state": {
            "elbow_joint": -1.8275523626775212,
            "shoulder_lift_joint": -2.126789852344167,
            "shoulder_pan_joint": -0.03513704404078235,
            "wrist_1_joint": -2.347782403156801,
            "wrist_2_joint": -1.6058999987535132,
            "wrist_3_joint": -3.0880379163319196
        }
    },
    "waypoints": [
        {
            "positions": [
                -0.03513704404078235,
                -2.126789852344167,
                -1.8275523626775212,
                -2.347782403156801,
                -1.6058999987535132,
                -3.0880379163319196
            ]
        },
        {
            "positions": [
                -0.05184559181577925,
                -2.1435532328478644,
                -1.7450457905873067,
                -2.423368660973056,
                -1.4259736742154847,
                -3.079822101768534
            ]
        },
        {
            "positions": [
                -0.06855413959077616,
                -2.1603166133515623,
                -1.6625392184970922,
                -2.4989549187893103,
                -1.2460473496774562,
                -3.0716062872051486
            ]
        },
        {
            "positions": [
                -0.08526268736577305,
                -2.17707999385526,
                -1.5800326464068777,
                -2.5745411766055653,
                -1.066121025139428,
                -3.0633904726417627
            ]
        },
        {
            "positions": [
                -0.10197123514076997,
                -2.1938433743589574,
                -1.4975260743166632,
                -2.6501274344218197,
                -0.8861947006013995,
                -3.055174658078377
            ]
        },
        {
            "positions": [
                -0.11867978291576686,
                -2.2106067548626553,
                -1.4150195022264485,
                -2.7257136922380747,
                -0.706268376063371,
                -3.0469588435149917
            ]
        },
        {
            "positions": [
                -0.13538833069076378,
                -2.227370135366353,
                -1.332512930136234,
                -2.8012999500543296,
                -0.5263420515253427,
                -3.0387430289516058
            ]
        },
        {
            "positions": [
                -0.15209687846576067,
                -2.244133515870051,
                -1.2500063580460195,
                -2.8768862078705846,
                -0.34641572698731427,
                -3.0305272143882203
            ]
        },
        {
            "positions": [
                -0.1688054262407576,
                -2.2608968963737484,
                -1.167499785955805,
                -2.952472465686839,
                -0.16648940244928573,
                -3.0223113998248348
            ]
        }
    ]
}