{
    "goal": {
        "global_pose": {
            "orientation": {
                "w": 0.7047431468963623,
                "x": -0.7094548344612122,
                "y": 0.0024358443915843964,
                "z": -0.0022348060738295317
            },
            "position": {
                "x": 0.6094750761985779,
                "y": 0.3671506643295288,
                "z": 0.19426114857196808
            }
        },
        "name": "move_to_magneteinheit_A"
    },
    "id": "LazyPRMstar_move_to_magneteinheit_A_74",
    "joint_names": [
        "shoulder_pan_joint",
        "shoulder_lift_joint",
        "elbow_joint",
        "wrist_1_joint",
        "wrist_2_joint",
        "wrist_3_joint"
    ],
    "metrics": {
        "cart_traj_len": 3.6784960590910916,
        "distance_elbow_joint": 3.897936978382308,
        "distance_shoulder_lift_joint": 0.6977487160271101,
        "distance_shoulder_pan_joint": 2.821932373673846,
        "distance_wrist_1_joint": 1.4281197673881265,
        "distance_wrist_2_joint": 2.10583506639125,
        "distance_wrist_3_joint": 3.596178336929245,
        "smoothness": 0.3204684556922907,
        "time": 5.03111071,
        "traj_len": 3.814151444134315,
        "weighted_distance": 5.027331573153869
    },
    "planner": "LazyPRMstar",
    "start": {
        "state": {
            "elbow_joint": -1.9196185241190666,
            "shoulder_lift_joint": -1.2443396400964142,
            "shoulder_pan_joint": 2.6996025414629847,
            "wrist_1_joint": -1.5485510000780065,
            "wrist_2_joint": -1.5709468930060704,
            "wrist_3_joint": 0.4420197071253992
        }
    },
    "waypoints": [
        {
            "positions": [
                2.6996025414629847,
                -1.2443396400964142,
                -1.9196185241190666,
                -1.5485510000780065,
                -1.5709468930060704,
                0.4420197071253992
            ]
        },
        {
            "positions": [
                2.5972412481208145,
                -1.2221551870944676,
                -1.818123995611927,
                -1.567860065807416,
                -1.5277747455100696,
                0.34894692685133755
            ]
        },
        {
            "positions": [
                2.4948799547786447,
                -1.1999707340925208,
                -1.7166294671047873,
                -1.5871691315368257,
                -1.484602598014069,
                0.2558741465772759
            ]
        },
        {
            "positions": [
                2.3925186614364744,
                -1.1777862810905741,
                -1.6151349385976477,
                -1.6064781972662352,
                -1.4414304505180684,
                0.16280136630321423
            ]
        },
        {
            "positions": [
                2.2901573680943046,
                -1.1556018280886275,
                -1.513640410090508,
                -1.625787262995645,
                -1.3982583030220677,
                0.0697285860291526
            ]
        },
        {
            "positions": [
                2.1877960747521343,
                -1.133417375086681,
                -1.4121458815833683,
                -1.6450963287250544,
                -1.355086155526067,
                -0.023344194244909133
            ]
        },
        {
            "positions": [
                2.0854347814099645,
                -1.1112329220847341,
                -1.3106513530762287,
                -1.664405394454464,
                -1.3119140080300662,
                -0.1164169745189707
            ]
        },
        {
            "positions": [
                1.9830734880677943,
                -1.0890484690827875,
                -1.2091568245690891,
                -1.6837144601838736,
                -1.2687418605340657,
                -0.20948975479303245
            ]
        },
        {
            "positions": [
                1.8807121947256245,
                -1.066864016080841,
                -1.1076622960619495,
                -1.703023525913283,
                -1.225569713038065,
                -0.30256253506709396
            ]
        },
        {
            "positions": [
                1.7783509013834542,
                -1.044679563078894,
                -1.0061677675548097,
                -1.7223325916426928,
                -1.1823975655420642,
                -0.3956353153411557
            ]
        },
        {
            "positions": [
                1.6759896080412842,
                -1.0224951100769475,
                -0.9046732390476699,
                -1.7416416573721023,
                -1.1392254180460635,
                -0.48870809561521744
            ]
        },
        {
            "positions": [
                1.573628314699114,
                -1.0003106570750009,
                -0.8031787105405304,
                -1.7609507231015118,
                -1.0960532705500627,
                -0.5817808758892792
            ]
        },
        {
            "positions": [
                1.471267021356944,
                -0.9781262040730543,
                -0.7016841820333908,
                -1.7802597888309215,
                -1.0528811230540622,
                -0.6748536561633406
            ]
        },
        {
            "positions": [
                1.368905728014774,
                -0.9559417510711076,
                -0.6001896535262512,
                -1.799568854560331,
                -1.0097089755580615,
                -0.7679264364374022
            ]
        },
        {
            "positions": [
                1.2665444346726038,
                -0.9337572980691609,
                -0.4986951250191114,
                -1.8188779202897405,
                -0.9665368280620608,
                -0.8609992167114641
            ]
        },
        {
            "positions": [
                1.1641831413304338,
                -0.9115728450672143,
                -0.3972005965119718,
                -1.8381869860191502,
                -0.92336468056606,
                -0.9540719969855257
            ]
        },
        {
            "positions": [
                1.061821847988264,
                -0.8893883920652677,
                -0.29570606800483223,
                -1.8574960517485597,
                -0.8801925330700594,
                -1.0471447772595872
            ]
        },
        {
            "positions": [
                0.9594605546460937,
                -0.8672039390633208,
                -0.19421153949769265,
                -1.8768051174779692,
                -0.8370203855740588,
                -1.1402175575336488
            ]
        },
        {
            "positions": [
                0.8570992613039238,
                -0.8450194860613742,
                -0.09271701099055282,
                -1.896114183207379,
                -0.793848238078058,
                -1.2332903378077107
            ]
        },
        {
            "positions": [
                0.8066852901504412,
                -0.8609622818602923,
                0.009406947920571021,
                -1.8440523861299365,
                -0.7275283195294958,
                -1.332557796916088
            ]
        },
        {
            "positions": [
                0.7562713189969587,
                -0.8769050776592106,
                0.11153090683169486,
                -1.7919905890524939,
                -0.6612084009809336,
                -1.4318252560244653
            ]
        },
        {
            "positions": [
                0.7058573478434761,
                -0.8928478734581287,
                0.2136548657428187,
                -1.7399287919750515,
                -0.5948884824323715,
                -1.5310927151328426
            ]
        },
        {
            "positions": [
                0.6554433766899936,
                -0.9087906692570469,
                0.3157788246539426,
                -1.6878669948976088,
                -0.5285685638838091,
                -1.63036017424122
            ]
        },
        {
            "positions": [
                0.6050294055365111,
                -0.924733465055965,
                0.4179027835650664,
                -1.6358051978201664,
                -0.462248645335247,
                -1.7296276333495972
            ]
        },
        {
            "positions": [
                0.5546154343830285,
                -0.9406762608548831,
                0.5200267424761902,
                -1.583743400742724,
                -0.3959287267866848,
                -1.8288950924579745
            ]
        },
        {
            "positions": [
                0.504201463229546,
                -0.9566190566538013,
                0.622150701387314,
                -1.5316816036652814,
                -0.3296088082381226,
                -1.9281625515663516
            ]
        },
        {
            "positions": [
                0.4537874920760634,
                -0.9725618524527194,
                0.7242746602984379,
                -1.479619806587839,
                -0.2632888896895603,
                -2.027430010674729
            ]
        },
        {
            "positions": [
                0.40337352092258083,
                -0.9885046482516376,
                0.8263986192095617,
                -1.4275580095103964,
                -0.1969689711409982,
                -2.1266974697831063
            ]
        },
        {
            "positions": [
                0.35295954976909827,
                -1.0044474440505557,
                0.9285225781206856,
                -1.375496212432954,
                -0.13064905259243598,
                -2.2259649288914836
            ]
        },
        {
            "positions": [
                0.3025455786156157,
                -1.020390239849474,
                1.0306465370318094,
                -1.3234344153555115,
                -0.06432913404387375,
                -2.3252323879998613
            ]
        },
        {
            "positions": [
                0.25213160746213314,
                -1.0363330356483922,
                1.1327704959429332,
                -1.271372618278069,
                0.001990784504688481,
                -2.4244998471082386
            ]
        },
        {
            "positions": [
                0.2017176363086507,
                -1.0522758314473102,
                1.234894454854057,
                -1.2193108212006265,
                0.0683107030532506,
                -2.5237673062166155
            ]
        },
        {
            "positions": [
                0.15130366515516813,
                -1.0682186272462284,
                1.3370184137651808,
                -1.1672490241231839,
                0.13463062160181283,
                -2.623034765324993
            ]
        },
        {
            "positions": [
                0.10088969400168557,
                -1.0841614230451464,
                1.4391423726763046,
                -1.1151872270457415,
                0.20095054015037506,
                -2.72230222443337
            ]
        },
        {
            "positions": [
                0.05047572284820301,
                -1.1001042188440646,
                1.5412663315874287,
                -1.063125429968299,
                0.2672704586989374,
                -2.8215696835417474
            ]
        },
        {
            "positions": [
                6.175169472050213e-05,
                -1.1160470146429828,
                1.6433902904985525,
                -1.0110636328908564,
                0.3335903772474995,
                -2.9208371426501247
            ]
        },
        {
            "positions": [
                0.04085894632991386,
                -1.12518069244647,
                1.755033011753449,
                -0.9458949549101127,
                0.26649111186827257,
                -2.998610971701365
            ]
        },
        {
            "positions": [
                0.08165614096510722,
                -1.1343143702499572,
                1.8666757330083454,
                -0.8807262769293689,
                0.19939184648904562,
                -3.076384800752605
            ]
        },
        {
            "positions": [
                0.12245333560030058,
                -1.1434480480534444,
                1.978318454263242,
                -0.815557598948625,
                0.13229258110981865,
                -3.1541586298038453
            ]
        }
    ]
}