{
    "goal": {
        "global_pose": {
            "orientation": {
                "w": 0.7031023480610252,
                "x": -0.7110244013736278,
                "y": 0.0077485991402295624,
                "z": 0.005598929693374583
            },
            "position": {
                "x": -0.8841497679147869,
                "y": 0.44412534475326537,
                "z": 0.3711530566215515
            }
        },
        "name": "move_to_auspresseinheit_D"
    },
    "id": "LazyPRM_move_to_auspresseinheit_D_87",
    "joint_names": [
        "shoulder_pan_joint",
        "shoulder_lift_joint",
        "elbow_joint",
        "wrist_1_joint",
        "wrist_2_joint",
        "wrist_3_joint"
    ],
    "metrics": {
        "cart_traj_len": 0.34317283969997825,
        "distance_elbow_joint": 0.6361490411966235,
        "distance_shoulder_lift_joint": 0.12033067769581773,
        "distance_shoulder_pan_joint": 0.13414508472005993,
        "distance_wrist_1_joint": 0.5200959249443575,
        "distance_wrist_2_joint": 1.4477725565560862,
        "distance_wrist_3_joint": 0.010204970963613835,
        "smoothness": 0.0,
        "time": 0.012338120000000001,
        "traj_len": 1.693723193463607,
        "weighted_distance": 2.203854958817442
    },
    "planner": "LazyPRM",
    "start": {
        "state": {
            "elbow_joint": -1.8275523626775212,
            "shoulder_lift_joint": -2.126789852344167,
            "shoulder_pan_joint": -0.03513704404078235,
            "wrist_1_joint": -2.347782403156801,
            "wrist_2_joint": -1.6058999987535132,
            "wrist_3_joint": -3.0880379163319196
        }
    },
    "waypoints": [
        {
            "positions": [
                -0.03513704404078235,
                -2.126789852344167,
                -1.8275523626775212,
                -2.347782403156801,
                -1.6058999987535132,
                -3.0880379163319196
            ]
        },
        {
            "positions": [
                -0.05190517963078984,
                -2.141831187056144,
                -1.7480337325279431,
                -2.4127943937748455,
                -1.4249284291840025,
                -3.0893135377023713
            ]
        },
        {
            "positions": [
                -0.06867331522079734,
                -2.156872521768121,
                -1.6685151023783653,
                -2.47780638439289,
                -1.2439568596144917,
                -3.090589159072823
            ]
        },
        {
            "positions": [
                -0.08544145081080481,
                -2.1719138564800984,
                -1.5889964722287875,
                -2.5428183750109348,
                -1.0629852900449808,
                -3.0918647804432746
            ]
        },
        {
            "positions": [
                -0.10220958640081232,
                -2.1869551911920757,
                -1.5094778420792094,
                -2.6078303656289794,
                -0.8820137204754701,
                -3.0931404018137263
            ]
        },
        {
            "positions": [
                -0.1189777219908198,
                -2.201996525904053,
                -1.4299592119296314,
                -2.6728423562470245,
                -0.7010421509059593,
                -3.0944160231841784
            ]
        },
        {
            "positions": [
                -0.1357458575808273,
                -2.2170378606160304,
                -1.3504405817800536,
                -2.737854346865069,
                -0.5200705813364486,
                -3.09569164455463
            ]
        },
        {
            "positions": [
                -0.15251399317083478,
                -2.2320791953280072,
                -1.2709219516304757,
                -2.8028663374831138,
                -0.3390990117669377,
                -3.0969672659250818
            ]
        },
        {
            "positions": [
                -0.16928212876084228,
                -2.2471205300399846,
                -1.1914033214808977,
                -2.8678783281011584,
                -0.15812744219742692,
                -3.0982428872955334
            ]
        }
    ]
}