{
    "goal": {
        "global_pose": {
            "orientation": {
                "w": 0.7031023502349854,
                "x": -0.7110244035720825,
                "y": 0.007748599164187908,
                "z": 0.005598929710686207
            },
            "position": {
                "x": 0.11585023208521307,
                "y": 0.44412534475326537,
                "z": 0.3711530566215515
            }
        },
        "name": "move_to_auspresseinheit_A"
    },
    "id": "LazyPRM_move_to_auspresseinheit_A_80",
    "joint_names": [
        "shoulder_pan_joint",
        "shoulder_lift_joint",
        "elbow_joint",
        "wrist_1_joint",
        "wrist_2_joint",
        "wrist_3_joint"
    ],
    "metrics": {
        "cart_traj_len": 1.3968946236618967,
        "distance_elbow_joint": 0.9695282775801006,
        "distance_shoulder_lift_joint": 1.0571822424753676,
        "distance_shoulder_pan_joint": 1.2994988210921035,
        "distance_wrist_1_joint": 0.866834830728989,
        "distance_wrist_2_joint": 0.8527068417607394,
        "distance_wrist_3_joint": 0.3772090146253775,
        "smoothness": 1.9602617356696856,
        "time": 0.071951608,
        "traj_len": 2.3287249790953584,
        "weighted_distance": 2.8101458556457817
    },
    "planner": "LazyPRM",
    "start": {
        "state": {
            "elbow_joint": 2.4225746658250005,
            "shoulder_lift_joint": -1.3736534386056498,
            "shoulder_pan_joint": -0.3378633547517467,
            "wrist_1_joint": -1.0288598680537169,
            "wrist_2_joint": 1.233022673432363,
            "wrist_3_joint": -3.0940220416140027
        }
    },
    "waypoints": [
        {
            "positions": [
                -0.3378633547517467,
                -1.3736534386056498,
                2.4225746658250005,
                -1.0288598680537169,
                1.233022673432363,
                -3.0940220416140027
            ]
        },
        {
            "positions": [
                -0.2224828745132609,
                -1.461968562119023,
                2.366976354938264,
                -0.9628369661279356,
                1.1814322021161818,
                -3.0753871317474575
            ]
        },
        {
            "positions": [
                -0.10710239427477508,
                -1.550283685632396,
                2.3113780440515277,
                -0.8968140642021543,
                1.1298417308000006,
                -3.0567522218809122
            ]
        },
        {
            "positions": [
                0.008278085963710768,
                -1.6385988091457693,
                2.255779733164791,
                -0.8307911622763728,
                1.0782512594838194,
                -3.0381173120143665
            ]
        },
        {
            "positions": [
                0.12365856620219656,
                -1.7269139326591425,
                2.2001814222780545,
                -0.7647682603505915,
                1.0266607881676382,
                -3.0194824021478213
            ]
        },
        {
            "positions": [
                0.23903904644068247,
                -1.8152290561725157,
                2.1445831113913183,
                -0.6987453584248102,
                0.975070316851457,
                -3.000847492281276
            ]
        },
        {
            "positions": [
                0.35441952667916826,
                -1.903544179685889,
                2.0889848005045817,
                -0.6327224564990289,
                0.9234798455352758,
                -2.9822125824147308
            ]
        },
        {
            "positions": [
                0.46980000691765406,
                -1.991859303199262,
                2.033386489617845,
                -0.5666995545732476,
                0.8718893742190945,
                -2.963577672548185
            ]
        },
        {
            "positions": [
                0.5851804871561399,
                -2.0801744267126354,
                1.977788178731109,
                -0.5006766526474662,
                0.8202989029029134,
                -2.94494276268164
            ]
        },
        {
            "positions": [
                0.7005609673946258,
                -2.1684895502260084,
                1.9221898678443723,
                -0.4346537507216849,
                0.7687084315867322,
                -2.9263078528150945
            ]
        },
        {
            "positions": [
                0.6581414952963508,
                -2.123249710603486,
                2.06204139471211,
                -0.39361709894301317,
                0.6937537409386585,
                -2.9464500302047956
            ]
        },
        {
            "positions": [
                0.6157220231980758,
                -2.078009870980964,
                2.2018929215798475,
                -0.35258044716434145,
                0.6187990502905849,
                -2.966592207594496
            ]
        },
        {
            "positions": [
                0.5733025510998008,
                -2.032770031358442,
                2.341744448447585,
                -0.3115437953856697,
                0.5438443596425112,
                -2.986734384984197
            ]
        },
        {
            "positions": [
                0.6402105924252538,
                -1.9694567253647206,
                2.366538897945715,
                -0.3863031744161406,
                0.625608623627955,
                -3.0612685318128805
            ]
        },
        {
            "positions": [
                0.7071186337507068,
                -1.9061434193709994,
                2.3913333474438447,
                -0.46106255344661157,
                0.7073728876133988,
                -3.135802678641564
            ]
        }
    ]
}