{
    "goal": {
        "global_pose": {
            "orientation": {
                "w": 0.7047431493862688,
                "x": -0.7094548369677653,
                "y": 0.0024358444001904,
                "z": -0.0022348060817251984
            },
            "position": {
                "x": -0.39052492380142206,
                "y": 0.3671506643295288,
                "z": 0.19426114857196808
            }
        },
        "name": "move_to_magneteinheit_D"
    },
    "id": "LazyPRMstar_move_to_magneteinheit_D_119",
    "joint_names": [
        "shoulder_pan_joint",
        "shoulder_lift_joint",
        "elbow_joint",
        "wrist_1_joint",
        "wrist_2_joint",
        "wrist_3_joint"
    ],
    "metrics": {
        "cart_traj_len": 3.8753876746000278,
        "distance_elbow_joint": 3.1144727958320457,
        "distance_shoulder_lift_joint": 1.1627887332172704,
        "distance_shoulder_pan_joint": 2.525649263978283,
        "distance_wrist_1_joint": 2.4018904081836707,
        "distance_wrist_2_joint": 1.5935396607621142,
        "distance_wrist_3_joint": 6.292680043423739,
        "smoothness": 0.10888767995623189,
        "time": 5.046877323,
        "traj_len": 4.134128796420972,
        "weighted_distance": 5.802741684858148
    },
    "planner": "LazyPRMstar",
    "start": {
        "state": {
            "elbow_joint": 0.749534889911806,
            "shoulder_lift_joint": -0.6476975780787326,
            "shoulder_pan_joint": -2.711696901376241,
            "wrist_1_joint": -0.07506478083263063,
            "wrist_2_joint": 0.43296659715538205,
            "wrist_3_joint": -3.14703540197715
        }
    },
    "waypoints": [
        {
            "positions": [
                -2.711696901376241,
                -0.6476975780787326,
                0.749534889911806,
                -0.07506478083263063,
                0.43296659715538205,
                -3.14703540197715
            ]
        },
        {
            "positions": [
                -2.7079226076850893,
                -0.700875025814386,
                0.5819278657762896,
                -0.11414373236170816,
                0.41752648692900673,
                -3.134468615204856
            ]
        },
        {
            "positions": [
                -2.704148313993937,
                -0.7540524735500395,
                0.4143208416407733,
                -0.1532226838907857,
                0.4020863767026314,
                -3.121901828432562
            ]
        },
        {
            "positions": [
                -2.7003740203027853,
                -0.8072299212856928,
                0.246713817505257,
                -0.19230163541986323,
                0.3866462664762561,
                -3.109335041660268
            ]
        },
        {
            "positions": [
                -2.6356540865750486,
                -0.8218348770617352,
                0.17881119188002922,
                -0.2515053520151419,
                0.4003154058925562,
                -2.9424323218047874
            ]
        },
        {
            "positions": [
                -2.5709341528473115,
                -0.8364398328377775,
                0.11090856625480144,
                -0.3107090686104206,
                0.41398454530885626,
                -2.7755296019493065
            ]
        },
        {
            "positions": [
                -2.506214219119575,
                -0.8510447886138197,
                0.04300594062957369,
                -0.36991278520569926,
                0.42765368472515636,
                -2.608626882093826
            ]
        },
        {
            "positions": [
                -2.441494285391838,
                -0.8656497443898621,
                -0.024896684995654117,
                -0.42911650180097793,
                0.44132282414145646,
                -2.4417241622383457
            ]
        },
        {
            "positions": [
                -2.3767743516641016,
                -0.8802547001659045,
                -0.09279931062088187,
                -0.48832021839625667,
                0.45499196355775656,
                -2.2748214423828648
            ]
        },
        {
            "positions": [
                -2.3120544179363645,
                -0.8948596559419467,
                -0.16070193624610962,
                -0.5475239349915353,
                0.4686611029740566,
                -2.1079187225273843
            ]
        },
        {
            "positions": [
                -2.247334484208628,
                -0.909464611717989,
                -0.22860456187133743,
                -0.6067276515868141,
                0.4823302423903567,
                -1.9410160026719037
            ]
        },
        {
            "positions": [
                -2.182614550480891,
                -0.9240695674940314,
                -0.29650718749656524,
                -0.6659313681820926,
                0.4959993818066568,
                -1.7741132828164232
            ]
        },
        {
            "positions": [
                -2.117894616753154,
                -0.9386745232700737,
                -0.364409813121793,
                -0.7251350847773714,
                0.5096685212229569,
                -1.6072105629609426
            ]
        },
        {
            "positions": [
                -2.0531746830254174,
                -0.953279479046116,
                -0.43231243874702074,
                -0.7843388013726501,
                0.523337660639257,
                -1.440307843105462
            ]
        },
        {
            "positions": [
                -1.9884547492976805,
                -0.9678844348221582,
                -0.5002150643722486,
                -0.8435425179679289,
                0.537006800055557,
                -1.2734051232499812
            ]
        },
        {
            "positions": [
                -1.9237348155699439,
                -0.9824893905982006,
                -0.5681176899974762,
                -0.9027462345632075,
                0.5506759394718571,
                -1.1065024033945008
            ]
        },
        {
            "positions": [
                -1.859014881842207,
                -0.997094346374243,
                -0.6360203156227041,
                -0.9619499511584861,
                0.5643450788881572,
                -0.9395996835390203
            ]
        },
        {
            "positions": [
                -1.7942949481144703,
                -1.0116993021502854,
                -0.7039229412479319,
                -1.021153667753765,
                0.5780142183044573,
                -0.7726969636835395
            ]
        },
        {
            "positions": [
                -1.7295750143867332,
                -1.0263042579263275,
                -0.7718255668731597,
                -1.0803573843490435,
                0.5916833577207574,
                -0.605794243828059
            ]
        },
        {
            "positions": [
                -1.6648550806589966,
                -1.0409092137023699,
                -0.8397281924983875,
                -1.1395611009443223,
                0.6053524971370575,
                -0.4388915239725786
            ]
        },
        {
            "positions": [
                -1.60013514693126,
                -1.0555141694784123,
                -0.9076308181236152,
                -1.1987648175396008,
                0.6190216365533576,
                -0.27198880411709814
            ]
        },
        {
            "positions": [
                -1.535415213203523,
                -1.0701191252544544,
                -0.975533443748843,
                -1.2579685341348796,
                0.6326907759696576,
                -0.10508608426161725
            ]
        },
        {
            "positions": [
                -1.4706952794757862,
                -1.0847240810304968,
                -1.0434360693740707,
                -1.3171722507301584,
                0.6463599153859578,
                0.061816635593863634
            ]
        },
        {
            "positions": [
                -1.4059753457480495,
                -1.0993290368065392,
                -1.1113386949992985,
                -1.376375967325437,
                0.6600290548022578,
                0.22871935544934408
            ]
        },
        {
            "positions": [
                -1.3412554120203126,
                -1.1139339925825815,
                -1.1792413206245265,
                -1.4355796839207158,
                0.6736981942185579,
                0.39562207530482496
            ]
        },
        {
            "positions": [
                -1.2765354782925757,
                -1.128538948358624,
                -1.2471439462497542,
                -1.4947834005159946,
                0.687367333634858,
                0.5625247951603054
            ]
        },
        {
            "positions": [
                -1.211815544564839,
                -1.143143904134666,
                -1.3150465718749818,
                -1.553987117111273,
                0.701036473051158,
                0.7294275150157854
            ]
        },
        {
            "positions": [
                -1.1470956108371024,
                -1.1577488599107084,
                -1.3829491975002095,
                -1.6131908337065517,
                0.7147056124674582,
                0.8963302348712663
            ]
        },
        {
            "positions": [
                -1.0823756771093656,
                -1.1723538156867508,
                -1.4508518231254375,
                -1.6723945503018305,
                0.7283747518837582,
                1.0632329547267467
            ]
        },
        {
            "positions": [
                -1.0176557433816287,
                -1.186958771462793,
                -1.5187544487506652,
                -1.731598266897109,
                0.7420438913000584,
                1.2301356745822272
            ]
        },
        {
            "positions": [
                -0.952935809653892,
                -1.2015637272388353,
                -1.586657074375893,
                -1.7908019834923878,
                0.7557130307163584,
                1.3970383944377076
            ]
        },
        {
            "positions": [
                -0.8882158759261551,
                -1.2161686830148777,
                -1.6545597000011207,
                -1.8500057000876666,
                0.7693821701326585,
                1.563941114293189
            ]
        },
        {
            "positions": [
                -0.8234959421984183,
                -1.23077363879092,
                -1.7224623256263485,
                -1.9092094166829452,
                0.7830513095489586,
                1.7308438341486694
            ]
        },
        {
            "positions": [
                -0.7587760084706814,
                -1.2453785945669624,
                -1.7903649512515765,
                -1.968413133278224,
                0.7967204489652587,
                1.8977465540041498
            ]
        },
        {
            "positions": [
                -0.6940560747429445,
                -1.2599835503430046,
                -1.8582675768768042,
                -2.0276168498735028,
                0.8103895883815588,
                2.064649273859631
            ]
        },
        {
            "positions": [
                -0.6293361410152079,
                -1.274588506119047,
                -1.926170202502032,
                -2.086820566468781,
                0.8240587277978588,
                2.2315519937151107
            ]
        },
        {
            "positions": [
                -0.5646162072874712,
                -1.2891934618950893,
                -1.9940728281272597,
                -2.14602428306406,
                0.837727867214159,
                2.398454713570591
            ]
        },
        {
            "positions": [
                -0.49989627355973454,
                -1.3037984176711315,
                -2.0619754537524875,
                -2.2052279996593382,
                0.851397006630459,
                2.5653574334260716
            ]
        },
        {
            "positions": [
                -0.43517633983199744,
                -1.3184033734471738,
                -2.1298780793777152,
                -2.2644317162546175,
                0.8650661460467591,
                2.732260153281553
            ]
        },
        {
            "positions": [
                -0.3704564061042609,
                -1.3330083292232162,
                -2.197780705002943,
                -2.323635432849896,
                0.8787352854630592,
                2.8991628731370334
            ]
        },
        {
            "positions": [
                -0.338288987196019,
                -1.4219418874584846,
                -2.2309635541275044,
                -2.314353715415554,
                0.7293611008051373,
                2.922369165329115
            ]
        },
        {
            "positions": [
                -0.3061215682877772,
                -1.510875445693753,
                -2.2641464032520657,
                -2.305071997981212,
                0.5799869161472154,
                2.945575457521197
            ]
        },
        {
            "positions": [
                -0.27395414937953533,
                -1.5998090039290216,
                -2.2973292523766267,
                -2.2957902805468704,
                0.4306127314892936,
                2.968781749713279
            ]
        },
        {
            "positions": [
                -0.24178673047129348,
                -1.68874256216429,
                -2.330512101501188,
                -2.2865085631125286,
                0.2812385468313716,
                2.991988041905361
            ]
        },
        {
            "positions": [
                -0.20961931156305164,
                -1.7776761203995584,
                -2.3636949506257494,
                -2.277226845678187,
                0.13186436217344977,
                3.0151943340974428
            ]
        },
        {
            "positions": [
                -0.19783347448050476,
                -1.761271024951336,
                -2.3630734729785043,
                -2.223771261180839,
                -0.022265331729838245,
                3.0804194877720157
            ]
        },
        {
            "positions": [
                -0.18604763739795785,
                -1.7448659295031137,
                -2.3624519953312593,
                -2.1703156766834906,
                -0.17639502563312626,
                3.145644641446588
            ]
        }
    ]
}