{
    "goal": {
        "global_pose": {
            "orientation": {
                "w": 0.7031023502349854,
                "x": -0.7110244035720825,
                "y": 0.007748599164187908,
                "z": 0.005598929710686207
            },
            "position": {
                "x": 0.11585023208521307,
                "y": 0.44412534475326537,
                "z": 0.3711530566215515
            }
        },
        "name": "move_to_auspresseinheit_A"
    },
    "id": "LazyPRM_move_to_auspresseinheit_A_85",
    "joint_names": [
        "shoulder_pan_joint",
        "shoulder_lift_joint",
        "elbow_joint",
        "wrist_1_joint",
        "wrist_2_joint",
        "wrist_3_joint"
    ],
    "metrics": {
        "cart_traj_len": 0.9180622425106926,
        "distance_elbow_joint": 0.29934608146280395,
        "distance_shoulder_lift_joint": 0.6106319722759597,
        "distance_shoulder_pan_joint": 1.3577044561842901,
        "distance_wrist_1_joint": 1.3721284392627222,
        "distance_wrist_2_joint": 0.6543220042662904,
        "distance_wrist_3_joint": 0.14125146746172756,
        "smoothness": 1.8397751451091788,
        "time": 0.173941324,
        "traj_len": 2.1060352373390607,
        "weighted_distance": 2.5969862917170476
    },
    "planner": "LazyPRM",
    "start": {
        "state": {
            "elbow_joint": 2.4225746658250005,
            "shoulder_lift_joint": -1.3736534386056498,
            "shoulder_pan_joint": -0.3378633547517467,
            "wrist_1_joint": -1.0288598680537169,
            "wrist_2_joint": 1.233022673432363,
            "wrist_3_joint": -3.0940220416140027
        }
    },
    "waypoints": [
        {
            "positions": [
                -0.3378633547517467,
                -1.3736534386056498,
                2.4225746658250005,
                -1.0288598680537169,
                1.233022673432363,
                -3.0940220416140027
            ]
        },
        {
            "positions": [
                -0.20439795565789073,
                -1.4372646321079754,
                2.404279407856287,
                -0.9209438636941178,
                1.167567701172848,
                -3.0884499681976982
            ]
        },
        {
            "positions": [
                -0.07093255656403474,
                -1.500875825610301,
                2.385984149887573,
                -0.8130278593345188,
                1.1021127289133328,
                -3.082877894781394
            ]
        },
        {
            "positions": [
                0.06253284252982128,
                -1.5644870191126266,
                2.3676888919188595,
                -0.7051118549749197,
                1.0366577566538178,
                -3.0773058213650897
            ]
        },
        {
            "positions": [
                0.19599824162367724,
                -1.628098212614952,
                2.3493936339501458,
                -0.5971958506153207,
                0.9712027843943027,
                -3.071733747948785
            ]
        },
        {
            "positions": [
                0.32946364071753337,
                -1.6917094061172775,
                2.3310983759814325,
                -0.4892798462557215,
                0.9057478121347875,
                -3.066161674532481
            ]
        },
        {
            "positions": [
                0.4629290398113893,
                -1.755320599619603,
                2.312803118012719,
                -0.3813638418961225,
                0.8402928398752725,
                -3.0605896011161766
            ]
        },
        {
            "positions": [
                0.5963944389052453,
                -1.8189317931219287,
                2.294507860044005,
                -0.27344783753652346,
                0.7748378676157575,
                -3.055017527699872
            ]
        },
        {
            "positions": [
                0.7298598379991013,
                -1.8825429866242542,
                2.2762126020752915,
                -0.16553183317692444,
                0.7093828953562423,
                -3.049445454283568
            ]
        },
        {
            "positions": [
                0.8633252370929574,
                -1.9461541801265798,
                2.257917344106578,
                -0.0576158288173253,
                0.6439279230967272,
                -3.0438733808672636
            ]
        },
        {
            "positions": [
                0.8111532823130954,
                -1.9334437698749032,
                2.302813597354705,
                -0.1912439621594355,
                0.665670341073612,
                -3.074240983105593
            ]
        },
        {
            "positions": [
                0.7589813275332333,
                -1.9207333596232268,
                2.347709850602832,
                -0.3248720955015457,
                0.6874127590504969,
                -3.1046085853439225
            ]
        },
        {
            "positions": [
                0.7068093727533713,
                -1.9080229493715501,
                2.392606103850959,
                -0.45850022884365593,
                0.7091551770273817,
                -3.134976187582252
            ]
        }
    ]
}