{
    "goal": {
        "global_pose": {
            "orientation": {
                "w": 0.7047431493862688,
                "x": -0.7094548369677653,
                "y": 0.0024358444001904,
                "z": -0.0022348060817251984
            },
            "position": {
                "x": -0.39052492380142206,
                "y": 0.3671506643295288,
                "z": 0.19426114857196808
            }
        },
        "name": "move_to_magneteinheit_D"
    },
    "id": "LazyPRMstar_move_to_magneteinheit_D_114",
    "joint_names": [
        "shoulder_pan_joint",
        "shoulder_lift_joint",
        "elbow_joint",
        "wrist_1_joint",
        "wrist_2_joint",
        "wrist_3_joint"
    ],
    "metrics": {
        "cart_traj_len": 4.726186621686024,
        "distance_elbow_joint": 3.1476640070859014,
        "distance_shoulder_lift_joint": 1.819359088911521,
        "distance_shoulder_pan_joint": 2.799377817655853,
        "distance_wrist_1_joint": 1.5467028105280451,
        "distance_wrist_2_joint": 0.27679938258127057,
        "distance_wrist_3_joint": 3.2490835421877957,
        "smoothness": 0.11950198446000133,
        "time": 5.038208745,
        "traj_len": 3.583153171293461,
        "weighted_distance": 4.600071295799152
    },
    "planner": "LazyPRMstar",
    "start": {
        "state": {
            "elbow_joint": 0.749534889911806,
            "shoulder_lift_joint": -0.6476975780787326,
            "shoulder_pan_joint": -2.711696901376241,
            "wrist_1_joint": -0.07506478083263063,
            "wrist_2_joint": 0.43296659715538205,
            "wrist_3_joint": -3.14703540197715
        }
    },
    "waypoints": [
        {
            "positions": [
                -2.711696901376241,
                -0.6476975780787326,
                0.749534889911806,
                -0.07506478083263063,
                0.43296659715538205,
                -3.14703540197715
            ]
        },
        {
            "positions": [
                -2.7252133682703876,
                -0.7697107605432574,
                0.7046014390707787,
                -0.09480520832029699,
                0.4183744887040776,
                -3.0262388939809837
            ]
        },
        {
            "positions": [
                -2.612670918785508,
                -0.8590216541246154,
                0.6670096194359955,
                -0.06322596385252786,
                0.40966688671362583,
                -2.9134025421297913
            ]
        },
        {
            "positions": [
                -2.5001284693006287,
                -0.9483325477059734,
                0.6294177998012123,
                -0.03164671938475874,
                0.400959284723174,
                -2.8005661902785985
            ]
        },
        {
            "positions": [
                -2.3875860198157492,
                -1.0376434412873314,
                0.5918259801664291,
                -6.747491698960717e-05,
                0.3922516827327222,
                -2.6877298384274058
            ]
        },
        {
            "positions": [
                -2.27504357033087,
                -1.1269543348686895,
                0.5542341605316459,
                0.0315117695507795,
                0.3835440807422704,
                -2.5748934865762134
            ]
        },
        {
            "positions": [
                -2.1625011208459903,
                -1.2162652284500475,
                0.5166423408968627,
                0.06309101401854864,
                0.3748364787518186,
                -2.462057134725021
            ]
        },
        {
            "positions": [
                -2.049958671361111,
                -1.3055761220314055,
                0.4790505212620794,
                0.09467025848631777,
                0.3661288767613668,
                -2.3492207828738283
            ]
        },
        {
            "positions": [
                -1.9374162218762314,
                -1.3948870156127633,
                0.4414587016272962,
                0.12624950295408688,
                0.357421274770915,
                -2.236384431022636
            ]
        },
        {
            "positions": [
                -1.8248737723913517,
                -1.4841979091941213,
                0.403866881992513,
                0.15782874742185599,
                0.34871367278046317,
                -2.123548079171443
            ]
        },
        {
            "positions": [
                -1.7123313229064723,
                -1.5735088027754793,
                0.36627506235772983,
                0.18940799188962515,
                0.3400060707900114,
                -2.010711727320251
            ]
        },
        {
            "positions": [
                -1.5997888734215928,
                -1.6628196963568374,
                0.32868324272294663,
                0.22098723635739426,
                0.3312984687995596,
                -1.897875375469058
            ]
        },
        {
            "positions": [
                -1.4872464239367131,
                -1.7521305899381954,
                0.2910914230881634,
                0.2525664808251634,
                0.32259086680910776,
                -1.7850390236178655
            ]
        },
        {
            "positions": [
                -1.3747039744518337,
                -1.8414414835195536,
                0.2534996034533802,
                0.2841457252929325,
                0.31388326481865597,
                -1.672202671766673
            ]
        },
        {
            "positions": [
                -1.2621615249669544,
                -1.9307523771009114,
                0.21590778381859704,
                0.3157249697607016,
                0.3051756628282042,
                -1.5593663199154806
            ]
        },
        {
            "positions": [
                -1.149619075482075,
                -2.0200632706822694,
                0.1783159641838138,
                0.34730421422847074,
                0.29646806083775235,
                -1.446529968064288
            ]
        },
        {
            "positions": [
                -1.0370766259971953,
                -2.1093741642636274,
                0.1407241445490306,
                0.37888345869623985,
                0.28776045884730056,
                -1.3336936162130955
            ]
        },
        {
            "positions": [
                -0.9245341765123158,
                -2.1986850578449855,
                0.1031323249142474,
                0.41046270316400896,
                0.2790528568568488,
                -1.220857264361903
            ]
        },
        {
            "positions": [
                -0.8119917270274364,
                -2.2879959514263435,
                0.06554050527946424,
                0.44204194763177806,
                0.27034525486639693,
                -1.1080209125107103
            ]
        },
        {
            "positions": [
                -0.7182167617064931,
                -2.2983432755861557,
                -0.03943947207307512,
                0.5192844156110284,
                0.2595552250460066,
                -1.0313233646507887
            ]
        },
        {
            "positions": [
                -0.6244417963855498,
                -2.308690599745968,
                -0.14441944942561447,
                0.5965268835902788,
                0.24876519522561627,
                -0.954625816790867
            ]
        },
        {
            "positions": [
                -0.5306668310646063,
                -2.31903792390578,
                -0.2493994267781538,
                0.6737693515695293,
                0.23797516540522595,
                -0.8779282689309452
            ]
        },
        {
            "positions": [
                -0.436891865743663,
                -2.3293852480655923,
                -0.3543794041306932,
                0.7510118195487797,
                0.2271851355848356,
                -0.8012307210710236
            ]
        },
        {
            "positions": [
                -0.3431169004227197,
                -2.339732572225404,
                -0.4593593814832326,
                0.8282542875280301,
                0.2163951057644453,
                -0.7245331732111019
            ]
        },
        {
            "positions": [
                -0.24934193510177627,
                -2.3500798963852163,
                -0.5643393588357719,
                0.9054967555072806,
                0.20560507594405497,
                -0.6478356253511801
            ]
        },
        {
            "positions": [
                -0.15556696978083295,
                -2.3604272205450285,
                -0.6693193361883113,
                0.982739223486531,
                0.19481504612366463,
                -0.5711380774912584
            ]
        },
        {
            "positions": [
                -0.06179200445988962,
                -2.3707745447048407,
                -0.7742993135408507,
                1.0599816914657814,
                0.1840250163032743,
                -0.4944405296313368
            ]
        },
        {
            "positions": [
                -0.06297007574487559,
                -2.361693909398559,
                -0.9693075080000791,
                1.1159211306310959,
                0.18041545179424268,
                -0.4166273787598081
            ]
        },
        {
            "positions": [
                -0.06414814702986157,
                -2.352613274092277,
                -1.1643157024593076,
                1.1718605697964102,
                0.17680588728521104,
                -0.3388142278882794
            ]
        },
        {
            "positions": [
                -0.06532621831484754,
                -2.3435326387859954,
                -1.3593238969185362,
                1.2278000089617245,
                0.1731963227761794,
                -0.2610010770167508
            ]
        },
        {
            "positions": [
                -0.06650428959983352,
                -2.334452003479714,
                -1.5543320913777645,
                1.283739448127039,
                0.16958675826714778,
                -0.1831879261452221
            ]
        },
        {
            "positions": [
                -0.06768236088481949,
                -2.3253713681734323,
                -1.7493402858369933,
                1.3396788872923535,
                0.16597719375811615,
                -0.10537477527369343
            ]
        },
        {
            "positions": [
                -0.06886043216980547,
                -2.3162907328671505,
                -1.9443484802962216,
                1.3956183264576678,
                0.16236762924908452,
                -0.027561624402164735
            ]
        },
        {
            "positions": [
                -0.12654621179045195,
                -2.295391577643289,
                -2.1712387987351587,
                1.4138877505888747,
                0.16546783658657108,
                0.03724325790424088
            ]
        },
        {
            "positions": [
                -0.18423199141109844,
                -2.274492422419428,
                -2.3981291171740957,
                1.4321571747200816,
                0.16856804392405764,
                0.10204814021064651
            ]
        }
    ]
}