{
    "goal": {
        "global_pose": {
            "orientation": {
                "w": 0.5084816217422485,
                "x": -0.49083608388900757,
                "y": 0.5182115435600281,
                "z": -0.4816462993621826
            },
            "position": {
                "x": 0.5540239810943604,
                "y": 0.030875300988554955,
                "z": 0.16403168439865112
            }
        },
        "name": "move_to_storage_A"
    },
    "id": "LazyPRMstar_move_to_storage_A_99",
    "joint_names": [
        "shoulder_pan_joint",
        "shoulder_lift_joint",
        "elbow_joint",
        "wrist_1_joint",
        "wrist_2_joint",
        "wrist_3_joint"
    ],
    "metrics": {
        "cart_traj_len": 0.3536099447273685,
        "distance_elbow_joint": 0.44958890163165255,
        "distance_shoulder_lift_joint": 0.23455626431617094,
        "distance_shoulder_pan_joint": 0.46258445548240573,
        "distance_wrist_1_joint": 0.24211843428225965,
        "distance_wrist_2_joint": 1.098923239607586,
        "distance_wrist_3_joint": 0.10033266026446519,
        "smoothness": 6.661338165333112e-16,
        "time": 5.000940517,
        "traj_len": 1.608758513756661,
        "weighted_distance": 2.0321936300469297
    },
    "planner": "LazyPRMstar",
    "start": {
        "state": {
            "elbow_joint": 1.971548259319323,
            "shoulder_lift_joint": -1.1394851275133948,
            "shoulder_pan_joint": 0.1228115487234821,
            "wrist_1_joint": -0.7804723859257726,
            "wrist_2_joint": 0.12958671773740124,
            "wrist_3_joint": -3.192489227718131
        }
    },
    "waypoints": [
        {
            "positions": [
                0.1228115487234821,
                -1.1394851275133948,
                1.971548259319323,
                -0.7804723859257726,
                0.12958671773740124,
                -3.192489227718131
            ]
        },
        {
            "positions": [
                0.056728055083138426,
                -1.1729931652728478,
                2.0357752452667017,
                -0.8150607336803811,
                0.2865757519670564,
                -3.178155990537493
            ]
        },
        {
            "positions": [
                -0.009355438557205248,
                -1.2065012030323008,
                2.1000022312140807,
                -0.8496490814349896,
                0.4435647861967116,
                -3.1638227533568553
            ]
        },
        {
            "positions": [
                -0.07543893219754891,
                -1.2400092407917538,
                2.1642292171614597,
                -0.8842374291895981,
                0.6005538204263667,
                -3.1494895161762173
            ]
        },
        {
            "positions": [
                -0.1415224258378926,
                -1.2735172785512068,
                2.2284562031088386,
                -0.9188257769442068,
                0.7575428546560219,
                -3.13515627899558
            ]
        },
        {
            "positions": [
                -0.2076059194782363,
                -1.3070253163106598,
                2.2926831890562176,
                -0.9534141246988153,
                0.914531888885677,
                -3.120823041814942
            ]
        },
        {
            "positions": [
                -0.2736894131185799,
                -1.3405333540701128,
                2.3569101750035966,
                -0.9880024724534238,
                1.0715209231153322,
                -3.106489804634304
            ]
        },
        {
            "positions": [
                -0.33977290675892363,
                -1.3740413918295658,
                2.4211371609509755,
                -1.0225908202080323,
                1.2285099573449874,
                -3.092156567453666
            ]
        }
    ]
}{
    "goal": {
        "global_pose": {
            "orientation": {
                "w": 0.5084816217422485,
                "x": -0.49083608388900757,
                "y": 0.5182115435600281,
                "z": -0.4816462993621826
            },
            "position": {
                "x": 0.5540239810943604,
                "y": 0.030875300988554955,
                "z": 0.16403168439865112
            }
        },
        "name": "move_to_storage_A"
    },
    "id": "LazyPRMstar_move_to_storage_A_99",
    "joint_names": [
        "shoulder_pan_joint",
        "shoulder_lift_joint",
        "elbow_joint",
        "wrist_1_joint",
        "wrist_2_joint",
        "wrist_3_joint"
    ],
    "metrics": {
        "cart_traj_len": 0.3538195002991998,
        "distance_elbow_joint": 0.4492246456728144,
        "distance_shoulder_lift_joint": 0.2335092316415881,
        "distance_shoulder_pan_joint": 0.46003149119061326,
        "distance_wrist_1_joint": 0.2419618514848949,
        "distance_wrist_2_joint": 1.1109846194319573,
        "distance_wrist_3_joint": 0.10408210861059786,
        "smoothness": 6.661338165333112e-16,
        "time": 5.000876572999999,
        "traj_len": 1.612387654390986,
        "weighted_distance": 2.0398295605688515
    },
    "planner": "LazyPRMstar",
    "start": {
        "state": {
            "elbow_joint": 1.97154746011099,
            "shoulder_lift_joint": -1.13948474672311,
            "shoulder_pan_joint": 0.12281154466712228,
            "wrist_1_joint": -0.7804688027058302,
            "wrist_2_joint": 0.12958655903071145,
            "wrist_3_joint": 3.0906928834467795
        }
    },
    "waypoints": [
        {
            "positions": [
                0.12281154466712228,
                -1.13948474672311,
                1.97154746011099,
                -0.7804688027058302,
                0.12958655903071145,
                3.0906928834467795
            ]
        },
        {
            "positions": [
                0.0570927602113204,
                -1.172843208386194,
                2.0357224094928204,
                -0.8150347814893866,
                0.28829864752099105,
                3.1055617561054363
            ]
        },
        {
            "positions": [
                -0.008626024244481487,
                -1.206201670049278,
                2.0998973588746512,
                -0.849600760272943,
                0.4470107360112706,
                3.120430628764093
            ]
        },
        {
            "positions": [
                -0.07434480870028339,
                -1.239560131712362,
                2.1640723082564817,
                -0.8841667390564995,
                0.6057228245015502,
                3.13529950142275
            ]
        },
        {
            "positions": [
                -0.14006359315608524,
                -1.2729185933754459,
                2.2282472576383126,
                -0.9187327178400558,
                0.7644349129918299,
                3.150168374081407
            ]
        },
        {
            "positions": [
                -0.20578237761188717,
                -1.30627705503853,
                2.292422207020143,
                -0.9532986966236123,
                0.9231470014821095,
                3.165037246740064
            ]
        },
        {
            "positions": [
                -0.27150116206768904,
                -1.339635516701614,
                2.356597156401974,
                -0.9878646754071687,
                1.081859089972389,
                3.1799061193987206
            ]
        },
        {
            "positions": [
                -0.33721994652349097,
                -1.372993978364698,
                2.4207721057838043,
                -1.022430654190725,
                1.2405711784626687,
                3.1947749920573774
            ]
        }
    ]
}{
    "goal": {
        "global_pose": {
            "orientation": {
                "w": 0.5084816217422485,
                "x": -0.49083608388900757,
                "y": 0.5182115435600281,
                "z": -0.4816462993621826
            },
            "position": {
                "x": 0.5540239810943604,
                "y": 0.030875300988554955,
                "z": 0.16403168439865112
            }
        },
        "name": "move_to_storage_A"
    },
    "id": "LazyPRMstar_move_to_storage_A_99",
    "joint_names": [
        "shoulder_pan_joint",
        "shoulder_lift_joint",
        "elbow_joint",
        "wrist_1_joint",
        "wrist_2_joint",
        "wrist_3_joint"
    ],
    "metrics": {
        "cart_traj_len": 0.35271460232155255,
        "distance_elbow_joint": 0.44812974551893614,
        "distance_shoulder_lift_joint": 0.23636040431532157,
        "distance_shoulder_pan_joint": 0.4619933760627322,
        "distance_wrist_1_joint": 0.2337763755580089,
        "distance_wrist_2_joint": 1.0954209325739994,
        "distance_wrist_3_joint": 0.09889489857835221,
        "smoothness": 8.881784197001252e-16,
        "time": 5.001516543999999,
        "traj_len": 1.6045484513118793,
        "weighted_distance": 2.025231551674046
    },
    "planner": "LazyPRMstar",
    "start": {
        "state": {
            "elbow_joint": 1.9715472970024885,
            "shoulder_lift_joint": -1.1394870060712896,
            "shoulder_pan_joint": 0.12281152778156021,
            "wrist_1_joint": -0.780463741449964,
            "wrist_2_joint": 0.12958659822042276,
            "wrist_3_joint": 3.090690232415272
        }
    },
    "waypoints": [
        {
            "positions": [
                0.12281152778156021,
                -1.1394870060712896,
                1.9715472970024885,
                -0.780463741449964,
                0.12958659822042276,
                3.090690232415272
            ]
        },
        {
            "positions": [
                0.05681247405831276,
                -1.1732527781163355,
                2.0355658320766223,
                -0.8138603665296795,
                0.28607530287385124,
                3.104818075069322
            ]
        },
        {
            "positions": [
                -0.009186579664934691,
                -1.2070185501613815,
                2.099584367150756,
                -0.847256991609395,
                0.44256400752727976,
                3.1189459177233725
            ]
        },
        {
            "positions": [
                -0.07518563338818213,
                -1.2407843222064274,
                2.16360290222489,
                -0.8806536166891107,
                0.5990527121807082,
                3.133073760377423
            ]
        },
        {
            "positions": [
                -0.1411846871114296,
                -1.2745500942514734,
                2.2276214372990233,
                -0.9140502417688262,
                0.7555414168341367,
                3.147201603031473
            ]
        },
        {
            "positions": [
                -0.20718374083467708,
                -1.3083158662965193,
                2.291639972373157,
                -0.9474468668485418,
                0.9120301214875652,
                3.1613294456855234
            ]
        },
        {
            "positions": [
                -0.2731827945579245,
                -1.3420816383415652,
                2.355658507447291,
                -0.9808434919282574,
                1.0685188261409937,
                3.1754572883395737
            ]
        },
        {
            "positions": [
                -0.339181848281172,
                -1.3758474103866112,
                2.4196770425214247,
                -1.014240117007973,
                1.2250075307944222,
                3.189585130993624
            ]
        }
    ]
}