{
    "goal": {
        "global_pose": {
            "orientation": {
                "w": 0.005598929693374612,
                "x": 0.007748599140229565,
                "y": 0.7110244013736278,
                "z": -0.7031023480610252
            },
            "position": {
                "x": 0.1141497679147869,
                "y": -0.7141253447532654,
                "z": 0.3711530566215515
            }
        },
        "name": "move_to_auspresseinheit_B"
    },
    "id": "LazyPRM_move_to_auspresseinheit_B_32",
    "joint_names": [
        "shoulder_pan_joint",
        "shoulder_lift_joint",
        "elbow_joint",
        "wrist_1_joint",
        "wrist_2_joint",
        "wrist_3_joint"
    ],
    "metrics": {
        "cart_traj_len": 0.5640460085600151,
        "distance_elbow_joint": 0.060785067347425725,
        "distance_shoulder_lift_joint": 0.29542668686904383,
        "distance_shoulder_pan_joint": 0.5742173374045638,
        "distance_wrist_1_joint": 0.3202021329784044,
        "distance_wrist_2_joint": 1.0048687272873302,
        "distance_wrist_3_joint": 0.008975868027062628,
        "smoothness": 0.0,
        "time": 0.011773404,
        "traj_len": 1.504817537083427,
        "weighted_distance": 1.8993415743972148
    },
    "planner": "LazyPRM",
    "start": {
        "state": {
            "elbow_joint": 2.0193083361928714,
            "shoulder_lift_joint": -1.1220246554650708,
            "shoulder_pan_joint": -1.0952077554168747,
            "wrist_1_joint": -0.8559753972642168,
            "wrist_2_joint": 0.4759566250798843,
            "wrist_3_joint": -3.1240929996934557
        }
    },
    "waypoints": [
        {
            "positions": [
                -1.0952077554168747,
                -1.1220246554650708,
                2.0193083361928714,
                -0.8559753972642168,
                0.4759566250798843,
                -3.1240929996934557
            ]
        },
        {
            "positions": [
                -1.1909106449843019,
                -1.1712624366099114,
                2.009177491634967,
                -0.8026083751011494,
                0.6434347462944393,
                -3.122597021688945
            ]
        },
        {
            "positions": [
                -1.2866135345517293,
                -1.2205002177547521,
                1.999046647077063,
                -0.749241352938082,
                0.8109128675089943,
                -3.1211010436844346
            ]
        },
        {
            "positions": [
                -1.3823164241191566,
                -1.2697379988995927,
                1.9889158025191587,
                -0.6958743307750146,
                0.9783909887235493,
                -3.1196050656799246
            ]
        },
        {
            "positions": [
                -1.4780193136865838,
                -1.3189757800444333,
                1.9787849579612542,
                -0.6425073086119473,
                1.1458691099381044,
                -3.118109087675414
            ]
        },
        {
            "positions": [
                -1.5737222032540112,
                -1.368213561189274,
                1.96865411340335,
                -0.5891402864488797,
                1.3133472311526595,
                -3.1166131096709035
            ]
        },
        {
            "positions": [
                -1.6694250928214385,
                -1.4174513423341146,
                1.9585232688454457,
                -0.5357732642858124,
                1.4808253523672146,
                -3.115117131666393
            ]
        }
    ]
}