{
    "goal": {
        "global_pose": {
            "orientation": {
                "w": 0.7047431493862688,
                "x": -0.7094548369677653,
                "y": 0.0024358444001904,
                "z": -0.0022348060817251984
            },
            "position": {
                "x": -0.39052492380142206,
                "y": 0.3671506643295288,
                "z": 0.19426114857196808
            }
        },
        "name": "move_to_magneteinheit_D"
    },
    "id": "LazyPRMstar_move_to_magneteinheit_D_83",
    "joint_names": [
        "shoulder_pan_joint",
        "shoulder_lift_joint",
        "elbow_joint",
        "wrist_1_joint",
        "wrist_2_joint",
        "wrist_3_joint"
    ],
    "metrics": {
        "cart_traj_len": 4.019394276854505,
        "distance_elbow_joint": 3.114874858196934,
        "distance_shoulder_lift_joint": 1.0959770645955083,
        "distance_shoulder_pan_joint": 3.066782558326697,
        "distance_wrist_1_joint": 2.0899239409330956,
        "distance_wrist_2_joint": 1.263133402005196,
        "distance_wrist_3_joint": 0.3603301457765862,
        "smoothness": 0.15270718698920735,
        "time": 5.036856274,
        "traj_len": 3.3152710250949347,
        "weighted_distance": 3.8813321945339174
    },
    "planner": "LazyPRMstar",
    "start": {
        "state": {
            "elbow_joint": 0.749534889911806,
            "shoulder_lift_joint": -0.6476975780787326,
            "shoulder_pan_joint": -2.711696901376241,
            "wrist_1_joint": -0.07506478083263063,
            "wrist_2_joint": 0.43296659715538205,
            "wrist_3_joint": -3.14703540197715
        }
    },
    "waypoints": [
        {
            "positions": [
                -2.711696901376241,
                -0.6476975780787326,
                0.749534889911806,
                -0.07506478083263063,
                0.43296659715538205,
                -3.14703540197715
            ]
        },
        {
            "positions": [
                -2.6808227413495396,
                -0.7079007354940569,
                0.5444308095636682,
                -0.10706234990041821,
                0.48732316641113516,
                -3.1339363233452238
            ]
        },
        {
            "positions": [
                -2.5393481828478652,
                -0.7284729250868611,
                0.3994202920325358,
                -0.16689226543193753,
                0.501376840127932,
                -3.1280504174112806
            ]
        },
        {
            "positions": [
                -2.3978736243461904,
                -0.7490451146796654,
                0.2544097745014034,
                -0.22672218096345687,
                0.5154305138447289,
                -3.1221645114773375
            ]
        },
        {
            "positions": [
                -2.2563990658445157,
                -0.7696173042724698,
                0.10939925697027103,
                -0.28655209649497615,
                0.5294841875615258,
                -3.1162786055433944
            ]
        },
        {
            "positions": [
                -2.1149245073428413,
                -0.790189493865274,
                -0.03561126056086139,
                -0.3463820120264955,
                0.5435378612783227,
                -3.1103926996094513
            ]
        },
        {
            "positions": [
                -1.9734499488411668,
                -0.8107616834580783,
                -0.18062177809199376,
                -0.40621192755801483,
                0.5575915349951196,
                -3.1045067936755077
            ]
        },
        {
            "positions": [
                -1.8319753903394922,
                -0.8313338730508826,
                -0.3256322956231261,
                -0.4660418430895341,
                0.5716452087119165,
                -3.0986208877415646
            ]
        },
        {
            "positions": [
                -1.6905008318378176,
                -0.851906062643687,
                -0.4706428131542585,
                -0.5258717586210535,
                0.5856988824287134,
                -3.0927349818076215
            ]
        },
        {
            "positions": [
                -1.549026273336143,
                -0.8724782522364911,
                -0.615653330685391,
                -0.5857016741525728,
                0.5997525561455103,
                -3.0868490758736784
            ]
        },
        {
            "positions": [
                -1.4075517148344685,
                -0.8930504418292955,
                -0.7606638482165232,
                -0.6455315896840921,
                0.6138062298623073,
                -3.0809631699397353
            ]
        },
        {
            "positions": [
                -1.266077156332794,
                -0.9136226314220998,
                -0.9056743657476557,
                -0.7053615052156114,
                0.6278599035791042,
                -3.075077264005792
            ]
        },
        {
            "positions": [
                -1.1246025978311192,
                -0.934194821014904,
                -1.0506848832787883,
                -0.7651914207471308,
                0.641913577295901,
                -3.069191358071849
            ]
        },
        {
            "positions": [
                -0.9831280393294448,
                -0.9547670106077084,
                -1.1956954008099205,
                -0.82502133627865,
                0.6559672510126979,
                -3.063305452137906
            ]
        },
        {
            "positions": [
                -0.84165348082777,
                -0.9753392002005127,
                -1.3407059183410528,
                -0.8848512518101694,
                0.6700209247294948,
                -3.057419546203963
            ]
        },
        {
            "positions": [
                -0.7001789223260957,
                -0.995911389793317,
                -1.485716435872185,
                -0.9446811673416887,
                0.6840745984462917,
                -3.0515336402700197
            ]
        },
        {
            "positions": [
                -0.5587043638244209,
                -1.0164835793861213,
                -1.6307269534033177,
                -1.0045110828732082,
                0.6981282721630886,
                -3.045647734336076
            ]
        },
        {
            "positions": [
                -0.41722980532274656,
                -1.0370557689789255,
                -1.77573747093445,
                -1.0643409984047274,
                0.7121819458798855,
                -3.039761828402133
            ]
        },
        {
            "positions": [
                -0.2757552468210718,
                -1.0576279585717299,
                -1.9207479884655823,
                -1.1241709139362468,
                0.7262356195966824,
                -3.03387592246819
            ]
        },
        {
            "positions": [
                -0.13428068831939743,
                -1.078200148164534,
                -2.0657585059967145,
                -1.184000829467766,
                0.7402892933134793,
                -3.027990016534247
            ]
        },
        {
            "positions": [
                0.007193870182277566,
                -1.0987723377573384,
                -2.210769023527847,
                -1.2438307449992854,
                0.7543429670302761,
                -3.0221041106003037
            ]
        },
        {
            "positions": [
                0.026515732354743825,
                -1.1478825241618635,
                -2.2395775300345475,
                -1.3710794565075655,
                0.6791049630352143,
                -3.0663153918422568
            ]
        },
        {
            "positions": [
                0.045837594527210083,
                -1.1969927105663887,
                -2.2683860365412474,
                -1.4983281680158456,
                0.6038669590401523,
                -3.11052667308421
            ]
        },
        {
            "positions": [
                0.06515945669967635,
                -1.2461028969709136,
                -2.2971945430479472,
                -1.6255768795241257,
                0.5286289550450904,
                -3.1547379543261624
            ]
        },
        {
            "positions": [
                0.08448131887214261,
                -1.2952130833754387,
                -2.3260030495546475,
                -1.7528255910324058,
                0.4533909510500285,
                -3.1989492355681155
            ]
        },
        {
            "positions": [
                0.030360451256480146,
                -1.384905395235199,
                -2.3338704333007434,
                -1.83525821717907,
                0.32522994782001774,
                -3.18723848968173
            ]
        },
        {
            "positions": [
                -0.023760416359182315,
                -1.4745977070949596,
                -2.3417378170468397,
                -1.917690843325734,
                0.19706894459000696,
                -3.175527743795344
            ]
        },
        {
            "positions": [
                -0.07788128397484476,
                -1.56429001895472,
                -2.3496052007929356,
                -2.000123469472398,
                0.06890794135999617,
                -3.1638169979089588
            ]
        },
        {
            "positions": [
                -0.13200215159050724,
                -1.6539823308144805,
                -2.357472584539032,
                -2.0825560956190623,
                -0.05925306187001461,
                -3.152106252022573
            ]
        },
        {
            "positions": [
                -0.18612301920616972,
                -1.7436746426742409,
                -2.3653399682851277,
                -2.1649887217657264,
                -0.18741406510002542,
                -3.1403955061361875
            ]
        }
    ]
}