{
    "goal": {
        "global_pose": {
            "orientation": {
                "w": 0.7047431468963623,
                "x": -0.7094548344612122,
                "y": 0.0024358443915843964,
                "z": -0.0022348060738295317
            },
            "position": {
                "x": 0.6094750761985779,
                "y": 0.3671506643295288,
                "z": 0.19426114857196808
            }
        },
        "name": "move_to_magneteinheit_A"
    },
    "id": "LazyPRM_move_to_magneteinheit_A_67",
    "joint_names": [
        "shoulder_pan_joint",
        "shoulder_lift_joint",
        "elbow_joint",
        "wrist_1_joint",
        "wrist_2_joint",
        "wrist_3_joint"
    ],
    "metrics": {
        "cart_traj_len": 3.098741134021529,
        "distance_elbow_joint": 3.874809273930385,
        "distance_shoulder_lift_joint": 0.6956209021148905,
        "distance_shoulder_pan_joint": 2.818359421329225,
        "distance_wrist_1_joint": 2.1426014759919276,
        "distance_wrist_2_joint": 1.706747964380741,
        "distance_wrist_3_joint": 2.5801162303412455,
        "smoothness": 0.17225288567099,
        "time": 0.136516901,
        "traj_len": 3.717291388644212,
        "weighted_distance": 4.777848592111681
    },
    "planner": "LazyPRM",
    "start": {
        "state": {
            "elbow_joint": -1.9196185241190666,
            "shoulder_lift_joint": -1.2443396400964142,
            "shoulder_pan_joint": 2.6996025414629847,
            "wrist_1_joint": -1.5485510000780065,
            "wrist_2_joint": -1.5709468930060704,
            "wrist_3_joint": 0.4420197071253992
        }
    },
    "waypoints": [
        {
            "positions": [
                2.6996025414629847,
                -1.2443396400964142,
                -1.9196185241190666,
                -1.5485510000780065,
                -1.5709468930060704,
                0.4420197071253992
            ]
        },
        {
            "positions": [
                2.600263200695471,
                -1.2550939661676719,
                -1.7876910113272166,
                -1.4932728041814605,
                -1.5152065061396611,
                0.4715977122960048
            ]
        },
        {
            "positions": [
                2.500923859927957,
                -1.2658482922389294,
                -1.6557634985353669,
                -1.4379946082849147,
                -1.4594661192732519,
                0.5011757174666105
            ]
        },
        {
            "positions": [
                2.4015845191604432,
                -1.276602618310187,
                -1.523835985743517,
                -1.3827164123883686,
                -1.4037257324068426,
                0.5307537226372161
            ]
        },
        {
            "positions": [
                2.30224517839293,
                -1.2873569443814448,
                -1.391908472951667,
                -1.3274382164918226,
                -1.3479853455404331,
                0.5603317278078217
            ]
        },
        {
            "positions": [
                2.202905837625416,
                -1.2981112704527022,
                -1.2599809601598173,
                -1.2721600205952766,
                -1.292244958674024,
                0.5899097329784273
            ]
        },
        {
            "positions": [
                2.103566496857902,
                -1.30886559652396,
                -1.1280534473679675,
                -1.2168818246987307,
                -1.2365045718076146,
                0.6194877381490329
            ]
        },
        {
            "positions": [
                2.0042271560903884,
                -1.3196199225952177,
                -0.9961259345761175,
                -1.1616036288021847,
                -1.1807641849412054,
                0.6490657433196386
            ]
        },
        {
            "positions": [
                1.9048878153228745,
                -1.3303742486664751,
                -0.8641984217842675,
                -1.106325432905639,
                -1.1250237980747961,
                0.6786437484902442
            ]
        },
        {
            "positions": [
                1.8055484745553607,
                -1.3411285747377328,
                -0.7322709089924178,
                -1.0510472370090929,
                -1.0692834112083869,
                0.7082217536608498
            ]
        },
        {
            "positions": [
                1.7062091337878469,
                -1.3518829008089905,
                -0.600343396200568,
                -0.9957690411125468,
                -1.0135430243419776,
                0.7377997588314555
            ]
        },
        {
            "positions": [
                1.6068697930203333,
                -1.362637226880248,
                -0.468415883408718,
                -0.9404908452160009,
                -0.9578026374755683,
                0.7673777640020611
            ]
        },
        {
            "positions": [
                1.5075304522528195,
                -1.3733915529515057,
                -0.3364883706168682,
                -0.8852126493194549,
                -0.902062250609159,
                0.7969557691726668
            ]
        },
        {
            "positions": [
                1.4081911114853056,
                -1.3841458790227634,
                -0.2045608578250182,
                -0.829934453422909,
                -0.8463218637427498,
                0.8265337743432724
            ]
        },
        {
            "positions": [
                1.3088517707177918,
                -1.394900205094021,
                -0.07263334503316843,
                -0.774656257526363,
                -0.7905814768763404,
                0.856111779513878
            ]
        },
        {
            "positions": [
                1.209512429950278,
                -1.4056545311652786,
                0.05929416775868179,
                -0.719378061629817,
                -0.734841090009931,
                0.8856897846844837
            ]
        },
        {
            "positions": [
                1.1101730891827644,
                -1.4164088572365363,
                0.19122168055053157,
                -0.6640998657332711,
                -0.6791007031435219,
                0.9152677898550893
            ]
        },
        {
            "positions": [
                1.0108337484152505,
                -1.4271631833077938,
                0.32314919334238157,
                -0.608821669836725,
                -0.6233603162771125,
                0.944845795025695
            ]
        },
        {
            "positions": [
                0.9114944076477367,
                -1.4379175093790515,
                0.4550767061342311,
                -0.5535434739401791,
                -0.5676199294107034,
                0.9744238001963005
            ]
        },
        {
            "positions": [
                0.8121550668802229,
                -1.4486718354503092,
                0.5870042189260811,
                -0.4982652780436332,
                -0.5118795425442939,
                1.0040018053669062
            ]
        },
        {
            "positions": [
                0.7128157261127093,
                -1.4594261615215667,
                0.7189317317179307,
                -0.44298708214708715,
                -0.45613915567788466,
                1.0335798105375118
            ]
        },
        {
            "positions": [
                0.6134763853451952,
                -1.4701804875928244,
                0.8508592445097811,
                -0.3877088862505411,
                -0.4003987688114754,
                1.0631578157081174
            ]
        },
        {
            "positions": [
                0.5141370445776818,
                -1.480934813664082,
                0.9827867573016307,
                -0.3324306903539953,
                -0.34465838194506615,
                1.092735820878723
            ]
        },
        {
            "positions": [
                0.414797703810168,
                -1.4916891397353396,
                1.1147142700934807,
                -0.27715249445744927,
                -0.2889179950786569,
                1.1223138260493286
            ]
        },
        {
            "positions": [
                0.3154583630426542,
                -1.5024434658065973,
                1.2466417828853302,
                -0.22187429856090324,
                -0.23317760821224764,
                1.1518918312199342
            ]
        },
        {
            "positions": [
                0.21611902227514035,
                -1.513197791877855,
                1.3785692956771807,
                -0.1665961026643572,
                -0.17743722134583817,
                1.18146983639054
            ]
        },
        {
            "positions": [
                0.11677968150762652,
                -1.5239521179491125,
                1.5104968084690302,
                -0.11131790676781139,
                -0.12169683447942914,
                1.2110478415611454
            ]
        },
        {
            "positions": [
                0.01744034074011265,
                -1.5347064440203702,
                1.6424243212608802,
                -0.05603971087126543,
                -0.06595644761301966,
                1.2406258467317512
            ]
        },
        {
            "positions": [
                0.010015470517413238,
                -1.517685356126357,
                1.6776564226613897,
                -0.09200062914948567,
                -0.05050122981547608,
                1.3422875231708744
            ]
        },
        {
            "positions": [
                0.0025906002947138247,
                -1.500664268232344,
                1.7128885240618992,
                -0.12796154742770594,
                -0.03504601201793249,
                1.4439491996099978
            ]
        },
        {
            "positions": [
                0.0124061329630578,
                -1.4565100492188576,
                1.7510777577063068,
                -0.2023501402850505,
                -0.01174549036210262,
                1.64516544443624
            ]
        },
        {
            "positions": [
                0.022221665631401776,
                -1.4123558302053716,
                1.7892669913507144,
                -0.27673873314239505,
                0.011555031293727251,
                1.8463816892624823
            ]
        },
        {
            "positions": [
                0.03203719829974576,
                -1.3682016111918855,
                1.827456224995122,
                -0.3511273259997396,
                0.034855552949557125,
                2.0475979340887247
            ]
        },
        {
            "positions": [
                0.041852730968089724,
                -1.3240473921783993,
                1.8656454586395297,
                -0.4255159188570842,
                0.05815607460538699,
                2.2488141789149667
            ]
        },
        {
            "positions": [
                0.05166826363643372,
                -1.279893173164913,
                1.9038346922839373,
                -0.49990451171442873,
                0.08145659626121687,
                2.450030423741209
            ]
        },
        {
            "positions": [
                0.06148379630477769,
                -1.235738954151427,
                1.942023925928345,
                -0.5742931045717733,
                0.10475711791704673,
                2.6512466685674516
            ]
        },
        {
            "positions": [
                0.092710938380223,
                -1.1825956499904313,
                1.948607337869831,
                -0.6402115011141128,
                0.12027909464585847,
                2.836691303017048
            ]
        },
        {
            "positions": [
                0.12393808045566831,
                -1.1294523458294357,
                1.955190749811317,
                -0.7061298976564524,
                0.1358010713746702,
                3.0221359374666448
            ]
        }
    ]
}