{
    "goal": {
        "global_pose": {
            "orientation": {
                "w": -0.4816463035849501,
                "x": 0.5182115481033762,
                "y": 0.4908360881923453,
                "z": -0.5084816262002911
            },
            "position": {
                "x": -0.8240239810943604,
                "y": -0.300875300988555,
                "z": 0.16403168439865112
            }
        },
        "name": "move_to_storage_C"
    },
    "id": "LazyPRMstar_move_to_storage_C_94",
    "joint_names": [
        "shoulder_pan_joint",
        "shoulder_lift_joint",
        "elbow_joint",
        "wrist_1_joint",
        "wrist_2_joint",
        "wrist_3_joint"
    ],
    "metrics": {
        "cart_traj_len": 0.5763975911589498,
        "distance_elbow_joint": 0.26088181734671667,
        "distance_shoulder_lift_joint": 0.18986208201328103,
        "distance_shoulder_pan_joint": 0.49209498599914525,
        "distance_wrist_1_joint": 0.08207022749482273,
        "distance_wrist_2_joint": 1.080329599531245,
        "distance_wrist_3_joint": 0.06534044235402492,
        "smoothness": 0.0,
        "time": 5.000687056,
        "traj_len": 1.4732885510785847,
        "weighted_distance": 1.8610910419625777
    },
    "planner": "LazyPRMstar",
    "start": {
        "state": {
            "elbow_joint": 2.010868314990456,
            "shoulder_lift_joint": -1.1634956873337592,
            "shoulder_pan_joint": -2.4736205022346125,
            "wrist_1_joint": -0.8367026794202681,
            "wrist_2_joint": 0.6746043897044499,
            "wrist_3_joint": -3.1496632123970403
        }
    },
    "waypoints": [
        {
            "positions": [
                -2.4736205022346125,
                -1.1634956873337592,
                2.010868314990456,
                -0.8367026794202681,
                0.6746043897044499,
                -3.1496632123970403
            ]
        },
        {
            "positions": [
                -2.55563633323447,
                -1.1318520069982123,
                1.9673880120993363,
                -0.823024308171131,
                0.8546593229596574,
                -3.1387731386713695
            ]
        },
        {
            "positions": [
                -2.6376521642343276,
                -1.1002083266626654,
                1.9239077092082169,
                -0.8093459369219939,
                1.034714256214865,
                -3.127883064945699
            ]
        },
        {
            "positions": [
                -2.719667995234185,
                -1.0685646463271188,
                1.8804274063170974,
                -0.7956675656728567,
                1.2147691894700725,
                -3.1169929912200276
            ]
        },
        {
            "positions": [
                -2.8016838262340427,
                -1.036920965991572,
                1.8369471034259781,
                -0.7819891944237196,
                1.39482412272528,
                -3.106102917494357
            ]
        },
        {
            "positions": [
                -2.8836996572339,
                -1.005277285656025,
                1.7934668005348586,
                -0.7683108231745825,
                1.5748790559804875,
                -3.095212843768686
            ]
        },
        {
            "positions": [
                -2.9657154882337577,
                -0.9736336053204782,
                1.7499864976437391,
                -0.7546324519254454,
                1.7549339892356948,
                -3.0843227700430154
            ]
        }
    ]
}