{
    "goal": {
        "global_pose": {
            "orientation": {
                "w": 0.5084816262002911,
                "x": -0.4908360881923452,
                "y": 0.5182115481033761,
                "z": -0.48164630358495003
            },
            "position": {
                "x": 0.5540239810943604,
                "y": -0.46912469901144505,
                "z": 0.16403168439865112
            }
        },
        "name": "move_to_storage_B"
    },
    "id": "LazyPRMstar_move_to_storage_B_150",
    "joint_names": [
        "shoulder_pan_joint",
        "shoulder_lift_joint",
        "elbow_joint",
        "wrist_1_joint",
        "wrist_2_joint",
        "wrist_3_joint"
    ],
    "metrics": {
        "cart_traj_len": 1.2226269640746903,
        "distance_elbow_joint": 1.0261115083525087,
        "distance_shoulder_lift_joint": 0.9940208755219833,
        "distance_shoulder_pan_joint": 0.3491348201176062,
        "distance_wrist_1_joint": 3.011549767933988,
        "distance_wrist_2_joint": 2.7156040905468757,
        "distance_wrist_3_joint": 3.122317333330246,
        "smoothness": 0.12933427279386492,
        "time": 5.025989423,
        "traj_len": 3.349438519484006,
        "weighted_distance": 4.815654360618561
    },
    "planner": "LazyPRMstar",
    "start": {
        "state": {
            "elbow_joint": 1.664937868594044,
            "shoulder_lift_joint": -0.661644460510453,
            "shoulder_pan_joint": -0.9139846352900073,
            "wrist_1_joint": 2.146753192139373,
            "wrist_2_joint": -2.2341966793290973,
            "wrist_3_joint": 0.005466555786416001
        }
    },
    "waypoints": [
        {
            "positions": [
                -0.9139846352900073,
                -0.661644460510453,
                1.664937868594044,
                2.146753192139373,
                -2.2341966793290973,
                0.005466555786416001
            ]
        },
        {
            "positions": [
                -0.9079880712728547,
                -0.7136614764555096,
                1.7143832496277502,
                2.0411447002059355,
                -2.129865462590346,
                -0.06642016334549708
            ]
        },
        {
            "positions": [
                -0.9019915072557023,
                -0.7656784924005662,
                1.7638286306614568,
                1.9355362082724974,
                -2.0255342458515946,
                -0.13830688247741016
            ]
        },
        {
            "positions": [
                -0.8959949432385499,
                -0.8176955083456228,
                1.8132740116951631,
                1.8299277163390597,
                -1.9212030291128432,
                -0.21019360160932324
            ]
        },
        {
            "positions": [
                -0.8899983792213974,
                -0.8697125242906794,
                1.8627193927288694,
                1.7243192244056218,
                -1.816871812374092,
                -0.2820803207412363
            ]
        },
        {
            "positions": [
                -0.8840018152042448,
                -0.9217295402357361,
                1.912164773762576,
                1.6187107324721839,
                -1.7125405956353406,
                -0.3539670398731494
            ]
        },
        {
            "positions": [
                -0.8780052511870924,
                -0.9737465561807925,
                1.9616101547962823,
                1.513102240538746,
                -1.6082093788965892,
                -0.42585375900506245
            ]
        },
        {
            "positions": [
                -0.87200868716994,
                -1.0257635721258493,
                2.0110555358299886,
                1.407493748605308,
                -1.5038781621578379,
                -0.4977404781369756
            ]
        },
        {
            "positions": [
                -0.8660121231527874,
                -1.077780588070906,
                2.060500916863695,
                1.3018852566718704,
                -1.3995469454190865,
                -0.5696271972688887
            ]
        },
        {
            "positions": [
                -0.8600155591356349,
                -1.1297976040159625,
                2.1099462978974013,
                1.1962767647384323,
                -1.295215728680335,
                -0.6415139164008019
            ]
        },
        {
            "positions": [
                -0.8540189951184824,
                -1.181814619961019,
                2.159391678931108,
                1.0906682728049943,
                -1.1908845119415838,
                -0.7134006355327149
            ]
        },
        {
            "positions": [
                -0.84802243110133,
                -1.2338316359060757,
                2.2088370599648144,
                0.9850597808715567,
                -1.0865532952028325,
                -0.785287354664628
            ]
        },
        {
            "positions": [
                -0.8420258670841775,
                -1.2858486518511323,
                2.2582824409985207,
                0.8794512889381187,
                -0.9822220784640812,
                -0.857174073796541
            ]
        },
        {
            "positions": [
                -0.8360293030670249,
                -1.3378656677961889,
                2.307727822032227,
                0.7738427970046808,
                -0.8778908617253298,
                -0.9290607929284542
            ]
        },
        {
            "positions": [
                -0.8300327390498725,
                -1.3898826837412455,
                2.3571732030659334,
                0.6682343050712428,
                -0.7735596449865785,
                -1.0009475120603673
            ]
        },
        {
            "positions": [
                -0.8477116006417039,
                -1.3721638402551661,
                2.334914791473892,
                0.5660322463468523,
                -0.6898951745729546,
                -1.1420077297592648
            ]
        },
        {
            "positions": [
                -0.8653904622335353,
                -1.3544449967690866,
                2.312656379881851,
                0.46383018762246175,
                -0.6062307041593308,
                -1.283067947458162
            ]
        },
        {
            "positions": [
                -0.8830693238253668,
                -1.3367261532830073,
                2.2903979682898097,
                0.3616281288980713,
                -0.5225662337457069,
                -1.4241281651570596
            ]
        },
        {
            "positions": [
                -0.9007481854171983,
                -1.319007309796928,
                2.268139556697768,
                0.25942607017368075,
                -0.43890176333208303,
                -1.5651883828559572
            ]
        },
        {
            "positions": [
                -0.9184270470090297,
                -1.3012884663108486,
                2.245881145105727,
                0.15722401144929032,
                -0.3552372929184592,
                -1.7062486005548547
            ]
        },
        {
            "positions": [
                -0.9361059086008611,
                -1.283569622824769,
                2.2236227335136856,
                0.055021952724899736,
                -0.2715728225048353,
                -1.8473088182537523
            ]
        },
        {
            "positions": [
                -0.9537847701926925,
                -1.2658507793386897,
                2.2013643219216443,
                -0.04718010599949074,
                -0.18790835209121137,
                -1.9883690359526496
            ]
        },
        {
            "positions": [
                -0.971463631784524,
                -1.2481319358526104,
                2.179105910329603,
                -0.14938216472388133,
                -0.10424388167758758,
                -2.129429253651547
            ]
        },
        {
            "positions": [
                -0.9891424933763554,
                -1.230413092366531,
                2.156847498737562,
                -0.2515842234482718,
                -0.020579411263963676,
                -2.2704894713504444
            ]
        },
        {
            "positions": [
                -1.0068213549681868,
                -1.2126942488804515,
                2.1345890871455206,
                -0.35378628217266217,
                0.06308505914966012,
                -2.411549689049342
            ]
        },
        {
            "positions": [
                -1.024500216560018,
                -1.1949754053943722,
                2.1123306755534794,
                -0.45598834089705276,
                0.14674952956328402,
                -2.5526099067482395
            ]
        },
        {
            "positions": [
                -1.0421790781518496,
                -1.1772565619082929,
                2.0900722639614377,
                -0.5581903996214433,
                0.23041399997690792,
                -2.693670124447137
            ]
        },
        {
            "positions": [
                -1.0598579397436811,
                -1.1595377184222135,
                2.0678138523693965,
                -0.6603924583458339,
                0.31407847039053194,
                -2.8347303421460346
            ]
        },
        {
            "positions": [
                -1.0775368013355124,
                -1.141818874936134,
                2.0455554407773553,
                -0.7625945170702243,
                0.39774294080415573,
                -2.975790559844932
            ]
        },
        {
            "positions": [
                -1.095215662927344,
                -1.1241000314500547,
                2.023297029185314,
                -0.8647965757946149,
                0.4814074112177795,
                -3.1168507775438297
            ]
        }
    ]
}