{
    "goal": {
        "global_pose": {
            "orientation": {
                "w": 0.005598929693374612,
                "x": 0.007748599140229565,
                "y": 0.7110244013736278,
                "z": -0.7031023480610252
            },
            "position": {
                "x": -0.8858502320852131,
                "y": -0.7141253447532654,
                "z": 0.3711530566215515
            }
        },
        "name": "move_to_auspresseinheit_C"
    },
    "id": "LazyPRM_move_to_auspresseinheit_C_3",
    "joint_names": [
        "shoulder_pan_joint",
        "shoulder_lift_joint",
        "elbow_joint",
        "wrist_1_joint",
        "wrist_2_joint",
        "wrist_3_joint"
    ],
    "metrics": {
        "cart_traj_len": 0.4934417185471356,
        "distance_elbow_joint": 0.9979003012628311,
        "distance_shoulder_lift_joint": 0.32380599935370025,
        "distance_shoulder_pan_joint": 0.2566069322326596,
        "distance_wrist_1_joint": 0.6710676999973714,
        "distance_wrist_2_joint": 1.3144116052898502,
        "distance_wrist_3_joint": 0.05139798728084344,
        "smoothness": 4.844609574787718e-16,
        "time": 0.012250645,
        "traj_len": 1.901365437104939,
        "weighted_distance": 2.388193000003594
    },
    "planner": "LazyPRM",
    "start": {
        "state": {
            "elbow_joint": 1.7527959577737207,
            "shoulder_lift_joint": -0.9740617694225068,
            "shoulder_pan_joint": -2.967991417825858,
            "wrist_1_joint": -0.759517768980727,
            "wrist_2_joint": 1.7443932448377408,
            "wrist_3_joint": -3.0840537646736568
        }
    },
    "waypoints": [
        {
            "positions": [
                -2.967991417825858,
                -0.9740617694225068,
                1.7527959577737207,
                -0.759517768980727,
                1.7443932448377408,
                -3.0840537646736568
            ]
        },
        {
            "positions": [
                -2.942330724602592,
                -0.9416811694871368,
                1.6530059276474376,
                -0.6924109989809899,
                1.612952084308756,
                -3.089193563401741
            ]
        },
        {
            "positions": [
                -2.916670031379326,
                -0.9093005695517667,
                1.5532158975211545,
                -0.6253042289812527,
                1.4815109237797708,
                -3.0943333621298255
            ]
        },
        {
            "positions": [
                -2.89100933815606,
                -0.8769199696163967,
                1.4534258673948712,
                -0.5581974589815155,
                1.3500697632507856,
                -3.09947316085791
            ]
        },
        {
            "positions": [
                -2.8653486449327943,
                -0.8445393696810266,
                1.3536358372685882,
                -0.49109068898177843,
                1.2186286027218007,
                -3.104612959585994
            ]
        },
        {
            "positions": [
                -2.839687951709528,
                -0.8121587697456567,
                1.253845807142305,
                -0.4239839189820413,
                1.0871874421928158,
                -3.1097527583140785
            ]
        },
        {
            "positions": [
                -2.814027258486262,
                -0.7797781698102866,
                1.154055777016022,
                -0.35687714898230416,
                0.9557462816638307,
                -3.114892557042163
            ]
        },
        {
            "positions": [
                -2.7883665652629963,
                -0.7473975698749167,
                1.054265746889739,
                -0.2897703789825671,
                0.8243051211348458,
                -3.120032355770247
            ]
        },
        {
            "positions": [
                -2.76270587203973,
                -0.7150169699395466,
                0.9544757167634557,
                -0.22266360898282989,
                0.6928639606058606,
                -3.1251721544983315
            ]
        },
        {
            "positions": [
                -2.7370451788164645,
                -0.6826363700041765,
                0.8546856866371726,
                -0.1555568389830927,
                0.5614228000768755,
                -3.130311953226416
            ]
        },
        {
            "positions": [
                -2.7113844855931983,
                -0.6502557700688065,
                0.7548956565108895,
                -0.08845006898335563,
                0.4299816395478906,
                -3.1354517519545
            ]
        }
    ]
}