{
    "goal": {
        "global_pose": {
            "orientation": {
                "w": 0.7031023502349854,
                "x": -0.7110244035720825,
                "y": 0.007748599164187908,
                "z": 0.005598929710686207
            },
            "position": {
                "x": 0.11585023208521307,
                "y": 0.44412534475326537,
                "z": 0.3711530566215515
            }
        },
        "name": "move_to_auspresseinheit_A"
    },
    "id": "LazyPRMstar_move_to_auspresseinheit_A_144",
    "joint_names": [
        "shoulder_pan_joint",
        "shoulder_lift_joint",
        "elbow_joint",
        "wrist_1_joint",
        "wrist_2_joint",
        "wrist_3_joint"
    ],
    "metrics": {
        "cart_traj_len": 0.6646289860525857,
        "distance_elbow_joint": 0.025083866130235055,
        "distance_shoulder_lift_joint": 0.5356586404297554,
        "distance_shoulder_pan_joint": 1.0421595628198885,
        "distance_wrist_1_joint": 0.9379069281162655,
        "distance_wrist_2_joint": 0.5778829483614986,
        "distance_wrist_3_joint": 0.04288578545336197,
        "smoothness": 0.6912469407647468,
        "time": 5.004598492,
        "traj_len": 1.7780825996873724,
        "weighted_distance": 2.1824617244514264
    },
    "planner": "LazyPRMstar",
    "start": {
        "state": {
            "elbow_joint": 2.4225746658250005,
            "shoulder_lift_joint": -1.3736534386056498,
            "shoulder_pan_joint": -0.3378633547517467,
            "wrist_1_joint": -1.0288598680537169,
            "wrist_2_joint": 1.233022673432363,
            "wrist_3_joint": -3.0940220416140027
        }
    },
    "waypoints": [
        {
            "positions": [
                -0.3378633547517467,
                -1.3736534386056498,
                2.4225746658250005,
                -1.0288598680537169,
                1.233022673432363,
                -3.0940220416140027
            ]
        },
        {
            "positions": [
                -0.2848964491230447,
                -1.449568371444329,
                2.418738768146045,
                -0.9050962260465096,
                1.1406684886197893,
                -3.0979984580923428
            ]
        },
        {
            "positions": [
                -0.2319295434943426,
                -1.5254833042830085,
                2.4149028704670887,
                -0.7813325840393025,
                1.0483143038072156,
                -3.101974874570683
            ]
        },
        {
            "positions": [
                -0.17896263786564054,
                -1.6013982371216877,
                2.411066972788133,
                -0.6575689420320953,
                0.9559601189946417,
                -3.1059512910490232
            ]
        },
        {
            "positions": [
                -0.1259957322369385,
                -1.677313169960367,
                2.4072310751091774,
                -0.5338053000248881,
                0.863605934182068,
                -3.1099277075273632
            ]
        },
        {
            "positions": [
                -0.0730288266082364,
                -1.7532281027990464,
                2.4033951774302214,
                -0.4100416580176808,
                0.7712517493694941,
                -3.1139041240057037
            ]
        },
        {
            "positions": [
                -0.020061920979534353,
                -1.8291430356377256,
                2.3995592797512657,
                -0.2862780160104736,
                0.6788975645569204,
                -3.1178805404840437
            ]
        },
        {
            "positions": [
                0.22139078870302437,
                -1.8558660501036188,
                2.398869786399099,
                -0.35138637470148104,
                0.6868168443856058,
                -3.124222969345151
            ]
        },
        {
            "positions": [
                0.4628434983855831,
                -1.882589064569512,
                2.398180293046932,
                -0.41649473339248844,
                0.694736124214291,
                -3.1305653982062576
            ]
        },
        {
            "positions": [
                0.7042962080681417,
                -1.9093120790354052,
                2.3974907996947654,
                -0.4816030920834959,
                0.7026554040429763,
                -3.1369078270673647
            ]
        }
    ]
}