{
    "goal": {
        "global_pose": {
            "orientation": {
                "w": -0.4816463035849501,
                "x": 0.5182115481033762,
                "y": 0.4908360881923453,
                "z": -0.5084816262002911
            },
            "position": {
                "x": -0.8240239810943604,
                "y": 0.19912469901144506,
                "z": 0.16403168439865112
            }
        },
        "name": "move_to_storage_D"
    },
    "id": "LazyPRMstar_move_to_storage_D_50",
    "joint_names": [
        "shoulder_pan_joint",
        "shoulder_lift_joint",
        "elbow_joint",
        "wrist_1_joint",
        "wrist_2_joint",
        "wrist_3_joint"
    ],
    "metrics": {
        "cart_traj_len": 3.578165457118388,
        "distance_elbow_joint": 4.208333698546605,
        "distance_shoulder_lift_joint": 1.2884094751890103,
        "distance_shoulder_pan_joint": 2.81311866944557,
        "distance_wrist_1_joint": 2.2612574523730395,
        "distance_wrist_2_joint": 0.876826570583549,
        "distance_wrist_3_joint": 3.1312451162430586,
        "smoothness": 0.0036774265346969028,
        "time": 5.045262596,
        "traj_len": 3.818270679559116,
        "weighted_distance": 4.896913848315441
    },
    "planner": "LazyPRMstar",
    "start": {
        "state": {
            "elbow_joint": -2.384821988534728,
            "shoulder_lift_joint": -2.2788054721415256,
            "shoulder_pan_joint": -0.1854694642142757,
            "wrist_1_joint": 1.4845938289331202,
            "wrist_2_joint": 0.17898776772866878,
            "wrist_3_joint": 0.037105688729662994
        }
    },
    "waypoints": [
        {
            "positions": [
                -0.1854694642142757,
                -2.2788054721415256,
                -2.384821988534728,
                1.4845938289331202,
                0.17898776772866878,
                0.037105688729662994
            ]
        },
        {
            "positions": [
                -0.0656275025486846,
                -2.18783402766432,
                -2.3489580374992465,
                1.4593748583889303,
                0.19384336980702166,
                -0.04989508663415809
            ]
        },
        {
            "positions": [
                0.054214459116906505,
                -2.0968625831871144,
                -2.3130940864637646,
                1.4341558878447405,
                0.2086989718853745,
                -0.13689586199797918
            ]
        },
        {
            "positions": [
                0.17405642078249764,
                -2.0058911387099085,
                -2.277230135428283,
                1.4089369173005506,
                0.22355457396372735,
                -0.2238966373618003
            ]
        },
        {
            "positions": [
                0.29389838244808875,
                -1.914919694232703,
                -2.2413661843928017,
                1.3837179467563607,
                0.23841017604208023,
                -0.3108974127256213
            ]
        },
        {
            "positions": [
                0.4137403441136799,
                -1.823948249755497,
                -2.2055022333573198,
                1.3584989762121709,
                0.2532657781204331,
                -0.39789818808944255
            ]
        },
        {
            "positions": [
                0.533582305779271,
                -1.7329768052782915,
                -2.1696382823218383,
                1.333280005667981,
                0.26812138019878595,
                -0.4848989634532636
            ]
        },
        {
            "positions": [
                0.6085106815087624,
                -1.703742795340228,
                -2.057145364669415,
                1.2707621972981296,
                0.29294703580961723,
                -0.5745251274078677
            ]
        },
        {
            "positions": [
                0.6834390572382538,
                -1.6745087854021643,
                -1.9446524470169915,
                1.208244388928278,
                0.31777269142044856,
                -0.6641512913624716
            ]
        },
        {
            "positions": [
                0.7583674329677452,
                -1.6452747754641008,
                -1.832159529364568,
                1.1457265805584265,
                0.34259834703127984,
                -0.7537774553170757
            ]
        },
        {
            "positions": [
                0.8332958086972366,
                -1.6160407655260371,
                -1.7196666117121446,
                1.083208772188575,
                0.36742400264211117,
                -0.8434036192716797
            ]
        },
        {
            "positions": [
                0.908224184426728,
                -1.5868067555879737,
                -1.6071736940597212,
                1.0206909638187236,
                0.39224965825294245,
                -0.9330297832262837
            ]
        },
        {
            "positions": [
                0.9831525601562194,
                -1.55757274564991,
                -1.4946807764072978,
                0.958173155448872,
                0.4170753138637737,
                -1.0226559471808878
            ]
        },
        {
            "positions": [
                1.0580809358857108,
                -1.5283387357118463,
                -1.3821878587548742,
                0.8956553470790205,
                0.44190096947460505,
                -1.112282111135492
            ]
        },
        {
            "positions": [
                1.133009311615202,
                -1.4991047257737828,
                -1.269694941102451,
                0.833137538709169,
                0.4667266250854364,
                -1.2019082750900958
            ]
        },
        {
            "positions": [
                1.2079376873446934,
                -1.4698707158357194,
                -1.1572020234500273,
                0.7706197303393175,
                0.49155228069626766,
                -1.2915344390446999
            ]
        },
        {
            "positions": [
                1.282866063074185,
                -1.4406367058976557,
                -1.044709105797604,
                0.708101921969466,
                0.5163779363070989,
                -1.381160602999304
            ]
        },
        {
            "positions": [
                1.3577944388036762,
                -1.4114026959595922,
                -0.9322161881451805,
                0.6455841135996145,
                0.5412035919179302,
                -1.4707867669539079
            ]
        },
        {
            "positions": [
                1.4327228145331676,
                -1.3821686860215285,
                -0.8197232704927571,
                0.5830663052297631,
                0.5660292475287616,
                -1.560412930908512
            ]
        },
        {
            "positions": [
                1.507651190262659,
                -1.352934676083465,
                -0.7072303528403336,
                0.5205484968599114,
                0.5908549031395929,
                -1.650039094863116
            ]
        },
        {
            "positions": [
                1.5825795659921507,
                -1.3237006661454014,
                -0.59473743518791,
                0.4580306884900599,
                0.6156805587504242,
                -1.7396652588177202
            ]
        },
        {
            "positions": [
                1.6575079417216418,
                -1.294466656207338,
                -0.4822445175354868,
                0.3955128801202086,
                0.6405062143612554,
                -1.829291422772324
            ]
        },
        {
            "positions": [
                1.7324363174511332,
                -1.2652326462692742,
                -0.3697515998830634,
                0.3329950717503569,
                0.6653318699720867,
                -1.9189175867269281
            ]
        },
        {
            "positions": [
                1.8073646931806249,
                -1.2359986363312108,
                -0.25725868223063975,
                0.2704772633805055,
                0.690157525582918,
                -2.008543750681532
            ]
        },
        {
            "positions": [
                1.882293068910116,
                -1.2067646263931473,
                -0.14476576457821633,
                0.20795945501065405,
                0.7149831811937493,
                -2.098169914636136
            ]
        },
        {
            "positions": [
                1.9572214446396075,
                -1.1775306164550836,
                -0.03227284692579291,
                0.1454416466408026,
                0.7398088368045806,
                -2.18779607859074
            ]
        },
        {
            "positions": [
                2.0321498203690993,
                -1.14829660651702,
                0.08022007072663051,
                0.08292383827095096,
                0.7646344924154119,
                -2.2774222425453443
            ]
        },
        {
            "positions": [
                2.1070781960985903,
                -1.1190625965789565,
                0.19271298837905393,
                0.02040602990109952,
                0.7894601480262432,
                -2.367048406499948
            ]
        },
        {
            "positions": [
                2.1820065718280817,
                -1.089828586640893,
                0.30520590603147735,
                -0.042111778468751915,
                0.8142858036370745,
                -2.456674570454552
            ]
        },
        {
            "positions": [
                2.256934947557573,
                -1.0605945767028293,
                0.41769882368390077,
                -0.10462958683860357,
                0.8391114592479059,
                -2.5463007344091566
            ]
        },
        {
            "positions": [
                2.3318633232870645,
                -1.0313605667647656,
                0.5301917413363242,
                -0.16714739520845479,
                0.8639371148587371,
                -2.6359268983637603
            ]
        },
        {
            "positions": [
                2.406791699016556,
                -1.0021265568267022,
                0.6426846589887475,
                -0.22966520357830636,
                0.8887627704695684,
                -2.7255530623183644
            ]
        },
        {
            "positions": [
                2.438342771332947,
                -1.0038023510944432,
                0.8113742377063374,
                -0.30780783498710823,
                0.9126272801613755,
                -2.778208257346226
            ]
        },
        {
            "positions": [
                2.4698938436493383,
                -1.0054781453621842,
                0.9800638164239274,
                -0.3859504663959101,
                0.9364917898531825,
                -2.8308634523740874
            ]
        },
        {
            "positions": [
                2.5014449159657293,
                -1.0071539396299252,
                1.1487533951415174,
                -0.4640930978047119,
                0.9603562995449896,
                -2.883518647401949
            ]
        },
        {
            "positions": [
                2.5329959882821207,
                -1.008829733897666,
                1.3174429738591074,
                -0.5422357292135138,
                0.9842208092367967,
                -2.936173842429811
            ]
        },
        {
            "positions": [
                2.5645470605985117,
                -1.010505528165407,
                1.4861325525766973,
                -0.6203783606223157,
                1.0080853189286036,
                -2.9888290374576725
            ]
        },
        {
            "positions": [
                2.596098132914903,
                -1.012181322433148,
                1.6548221312942872,
                -0.6985209920311175,
                1.0319498286204107,
                -3.041484232485534
            ]
        },
        {
            "positions": [
                2.627649205231294,
                -1.013857116700889,
                1.8235117100118772,
                -0.7766636234399193,
                1.0558143383122178,
                -3.0941394275133955
            ]
        }
    ]
}