{
    "goal": {
        "global_pose": {
            "orientation": {
                "w": 0.7031023480610252,
                "x": -0.7110244013736278,
                "y": 0.0077485991402295624,
                "z": 0.005598929693374583
            },
            "position": {
                "x": -0.8841497679147869,
                "y": 0.44412534475326537,
                "z": 0.3711530566215515
            }
        },
        "name": "move_to_auspresseinheit_D"
    },
    "id": "LazyPRM_move_to_auspresseinheit_D_143",
    "joint_names": [
        "shoulder_pan_joint",
        "shoulder_lift_joint",
        "elbow_joint",
        "wrist_1_joint",
        "wrist_2_joint",
        "wrist_3_joint"
    ],
    "metrics": {
        "cart_traj_len": 0.34372428233219837,
        "distance_elbow_joint": 0.6478930018383939,
        "distance_shoulder_lift_joint": 0.12683022711315717,
        "distance_shoulder_pan_joint": 0.13389440287740692,
        "distance_wrist_1_joint": 0.5535814608434921,
        "distance_wrist_2_joint": 1.4459977593139868,
        "distance_wrist_3_joint": 0.020581008660462974,
        "smoothness": 0.0,
        "time": 0.01242751,
        "traj_len": 1.7113672489114953,
        "weighted_distance": 2.2292418213655747
    },
    "planner": "LazyPRM",
    "start": {
        "state": {
            "elbow_joint": -1.8275523626775212,
            "shoulder_lift_joint": -2.126789852344167,
            "shoulder_pan_joint": -0.03513704404078235,
            "wrist_1_joint": -2.347782403156801,
            "wrist_2_joint": -1.6058999987535132,
            "wrist_3_joint": -3.0880379163319196
        }
    },
    "waypoints": [
        {
            "positions": [
                -0.03513704404078235,
                -2.126789852344167,
                -1.8275523626775212,
                -2.347782403156801,
                -1.6058999987535132,
                -3.0880379163319196
            ]
        },
        {
            "positions": [
                -0.05187384440045821,
                -2.1426436307333114,
                -1.746565737447722,
                -2.4169800857622374,
                -1.425150278839265,
                -3.0854652902493616
            ]
        },
        {
            "positions": [
                -0.06861064476013408,
                -2.158497409122456,
                -1.6655791122179227,
                -2.486177768367674,
                -1.2444005589250164,
                -3.082892664166804
            ]
        },
        {
            "positions": [
                -0.08534744511980993,
                -2.1743511875116006,
                -1.5845924869881234,
                -2.5553754509731106,
                -1.0636508390107682,
                -3.080320038084246
            ]
        },
        {
            "positions": [
                -0.1020842454794858,
                -2.1902049659007456,
                -1.5036058617583241,
                -2.624573133578547,
                -0.8829011190965198,
                -3.0777474120016883
            ]
        },
        {
            "positions": [
                -0.11882104583916167,
                -2.2060587442898902,
                -1.4226192365285248,
                -2.6937708161839833,
                -0.7021513991822714,
                -3.0751747859191303
            ]
        },
        {
            "positions": [
                -0.13555784619883754,
                -2.221912522679035,
                -1.3416326112987258,
                -2.76296849878942,
                -0.5214016792680232,
                -3.0726021598365723
            ]
        },
        {
            "positions": [
                -0.1522946465585134,
                -2.2377663010681794,
                -1.2606459860689265,
                -2.8321661813948564,
                -0.3406519593537747,
                -3.0700295337540147
            ]
        },
        {
            "positions": [
                -0.16903144691818928,
                -2.253620079457324,
                -1.1796593608391273,
                -2.901363864000293,
                -0.15990223943952636,
                -3.0674569076714566
            ]
        }
    ]
}