{
    "goal": {
        "global_pose": {
            "orientation": {
                "w": 0.7031023480610252,
                "x": -0.7110244013736278,
                "y": 0.0077485991402295624,
                "z": 0.005598929693374583
            },
            "position": {
                "x": -0.8841497679147869,
                "y": 0.44412534475326537,
                "z": 0.3711530566215515
            }
        },
        "name": "move_to_auspresseinheit_D"
    },
    "id": "LazyPRMstar_move_to_auspresseinheit_D_139",
    "joint_names": [
        "shoulder_pan_joint",
        "shoulder_lift_joint",
        "elbow_joint",
        "wrist_1_joint",
        "wrist_2_joint",
        "wrist_3_joint"
    ],
    "metrics": {
        "cart_traj_len": 0.3438244350743563,
        "distance_elbow_joint": 0.6534551934855497,
        "distance_shoulder_lift_joint": 0.12941618926383303,
        "distance_shoulder_pan_joint": 0.13403568972755137,
        "distance_wrist_1_joint": 0.5890210796089694,
        "distance_wrist_2_joint": 1.4332755733371563,
        "distance_wrist_3_joint": 0.052160720595334276,
        "smoothness": 0.0,
        "time": 5.000762428,
        "traj_len": 1.7295561413317564,
        "weighted_distance": 2.262295856017773
    },
    "planner": "LazyPRMstar",
    "start": {
        "state": {
            "elbow_joint": -1.8275523626775212,
            "shoulder_lift_joint": -2.126789852344167,
            "shoulder_pan_joint": -0.03513704404078235,
            "wrist_1_joint": -2.347782403156801,
            "wrist_2_joint": -1.6058999987535132,
            "wrist_3_joint": -3.0880379163319196
        }
    },
    "waypoints": [
        {
            "positions": [
                -0.03513704404078235,
                -2.126789852344167,
                -1.8275523626775212,
                -2.347782403156801,
                -1.6058999987535132,
                -3.0880379163319196
            ]
        },
        {
            "positions": [
                -0.05189150525672627,
                -2.142966876002146,
                -1.7458704634918274,
                -2.421410038107922,
                -1.4267405520863687,
                -3.0815178262575027
            ]
        },
        {
            "positions": [
                -0.06864596647267018,
                -2.1591438996601253,
                -1.6641885643061338,
                -2.495037673059043,
                -1.247581105419224,
                -3.074997736183086
            ]
        },
        {
            "positions": [
                -0.08540042768861411,
                -2.1753209233181043,
                -1.58250666512044,
                -2.5686653080101642,
                -1.0684216587520796,
                -3.0684776461086694
            ]
        },
        {
            "positions": [
                -0.10215488890455804,
                -2.1914979469760834,
                -1.5008247659347465,
                -2.6422929429612854,
                -0.889262212084935,
                -3.0619575560342525
            ]
        },
        {
            "positions": [
                -0.11890935012050197,
                -2.2076749706340624,
                -1.4191428667490527,
                -2.715920577912407,
                -0.7101027654177905,
                -3.0554374659598356
            ]
        },
        {
            "positions": [
                -0.13566381133644587,
                -2.2238519942920414,
                -1.3374609675633589,
                -2.789548212863528,
                -0.530943318750646,
                -3.048917375885419
            ]
        },
        {
            "positions": [
                -0.1524182725523898,
                -2.240029017950021,
                -1.2557790683776653,
                -2.863175847814649,
                -0.35178387208350137,
                -3.042397285811002
            ]
        },
        {
            "positions": [
                -0.16917273376833372,
                -2.256206041608,
                -1.1740971691919715,
                -2.9368034827657703,
                -0.1726244254163569,
                -3.0358771957365853
            ]
        }
    ]
}