{
    "goal": {
        "global_pose": {
            "orientation": {
                "w": -0.4816463035849501,
                "x": 0.5182115481033762,
                "y": 0.4908360881923453,
                "z": -0.5084816262002911
            },
            "position": {
                "x": -0.8240239810943604,
                "y": 0.19912469901144506,
                "z": 0.16403168439865112
            }
        },
        "name": "move_to_storage_D"
    },
    "id": "LazyPRM_move_to_storage_D_133",
    "joint_names": [
        "shoulder_pan_joint",
        "shoulder_lift_joint",
        "elbow_joint",
        "wrist_1_joint",
        "wrist_2_joint",
        "wrist_3_joint"
    ],
    "metrics": {
        "cart_traj_len": 0.6375017004329946,
        "distance_elbow_joint": 0.6802175373641877,
        "distance_shoulder_lift_joint": 0.41191048749281967,
        "distance_shoulder_pan_joint": 0.21417471381596848,
        "distance_wrist_1_joint": 3.9219474047466796,
        "distance_wrist_2_joint": 2.1861198013354155,
        "distance_wrist_3_joint": 3.1543158369741002,
        "smoothness": 0.5069838782107113,
        "time": 0.161873502,
        "traj_len": 3.2509515194369123,
        "weighted_distance": 4.794307526823813
    },
    "planner": "LazyPRM",
    "start": {
        "state": {
            "elbow_joint": -2.384821988534728,
            "shoulder_lift_joint": -2.2788054721415256,
            "shoulder_pan_joint": -0.1854694642142757,
            "wrist_1_joint": 1.4845938289331202,
            "wrist_2_joint": 0.17898776772866878,
            "wrist_3_joint": 0.037105688729662994
        }
    },
    "waypoints": [
        {
            "positions": [
                -0.1854694642142757,
                -2.2788054721415256,
                -2.384821988534728,
                1.4845938289331202,
                0.17898776772866878,
                0.037105688729662994
            ]
        },
        {
            "positions": [
                -0.15791366349361807,
                -2.2519418665502995,
                -2.416333108995917,
                1.4051509034744125,
                0.20996091459107435,
                0.06077127051195395
            ]
        },
        {
            "positions": [
                -0.13035786277296046,
                -2.225078260959074,
                -2.4478442294571066,
                1.3257079780157048,
                0.2409340614534799,
                0.0844368522942449
            ]
        },
        {
            "positions": [
                -0.06693377932004432,
                -2.1106684078978057,
                -2.433097007814002,
                1.3509334792761225,
                0.3101781585613573,
                0.11744559413428482
            ]
        },
        {
            "positions": [
                -0.003509695867128182,
                -1.9962585548365375,
                -2.4183497861708974,
                1.3761589805365402,
                0.37942225566923465,
                0.15045433597432473
            ]
        },
        {
            "positions": [
                -0.004851985261662381,
                -2.001648703594364,
                -2.3938622506227474,
                1.2214668742320223,
                0.2966853676111159,
                0.27716130221305135
            ]
        },
        {
            "positions": [
                -0.00619427465619658,
                -2.0070388523521903,
                -2.3693747150745974,
                1.0667747679275044,
                0.21394847955299717,
                0.4038682684517779
            ]
        },
        {
            "positions": [
                -0.00753656405073078,
                -2.0124290011100165,
                -2.3448871795264474,
                0.9120826616229866,
                0.13121159149487843,
                0.5305752346905046
            ]
        },
        {
            "positions": [
                -0.008878853445264978,
                -2.017819149867843,
                -2.3203996439782975,
                0.7573905553184688,
                0.04847470343675969,
                0.6572822009292312
            ]
        },
        {
            "positions": [
                -0.010221142839799179,
                -2.023209298625669,
                -2.2959121084301475,
                0.6026984490139508,
                -0.03426218462135905,
                0.7839891671679577
            ]
        },
        {
            "positions": [
                -0.011563432234333378,
                -2.0285994473834954,
                -2.2714245728819975,
                0.44800634270943296,
                -0.11699907267947779,
                0.9106961334066843
            ]
        },
        {
            "positions": [
                -0.012905721628867578,
                -2.0339895961413217,
                -2.2469370373338475,
                0.29331423640491505,
                -0.19973596073759653,
                1.037403099645411
            ]
        },
        {
            "positions": [
                -0.014248011023401775,
                -2.039379744899148,
                -2.2224495017856976,
                0.13862213010039737,
                -0.28247284879571527,
                1.1641100658841375
            ]
        },
        {
            "positions": [
                -0.015590300417935975,
                -2.0447698936569743,
                -2.1979619662375476,
                -0.01606997620412054,
                -0.365209736853834,
                1.290817032122864
            ]
        },
        {
            "positions": [
                -0.016932589812470176,
                -2.0501600424148005,
                -2.1734744306893976,
                -0.17076208250863867,
                -0.44794662491195275,
                1.4175239983615908
            ]
        },
        {
            "positions": [
                -0.018274879207004373,
                -2.055550191172627,
                -2.1489868951412476,
                -0.32545418881315635,
                -0.5306835129700715,
                1.5442309646003174
            ]
        },
        {
            "positions": [
                -0.019617168601538573,
                -2.060940339930453,
                -2.1244993595930977,
                -0.48014629511767426,
                -0.6134204010281903,
                1.670937930839044
            ]
        },
        {
            "positions": [
                -0.02095945799607277,
                -2.0663304886882794,
                -2.1000118240449472,
                -0.6348384014221922,
                -0.696157289086309,
                1.7976448970777705
            ]
        },
        {
            "positions": [
                -0.022301747390606974,
                -2.0717206374461057,
                -2.0755242884967973,
                -0.7895305077267101,
                -0.7788941771444278,
                1.9243518633164973
            ]
        },
        {
            "positions": [
                -0.02364403678514117,
                -2.077110786203932,
                -2.0510367529486473,
                -0.944222614031228,
                -0.8616310652025465,
                2.051058829555224
            ]
        },
        {
            "positions": [
                -0.024986326179675368,
                -2.0825009349617583,
                -2.0265492174004973,
                -1.0989147203357454,
                -0.9443679532606652,
                2.1777657957939502
            ]
        },
        {
            "positions": [
                -0.026328615574209572,
                -2.087891083719585,
                -2.0020616818523473,
                -1.2536068266402638,
                -1.027104841318784,
                2.304472762032677
            ]
        },
        {
            "positions": [
                -0.02767090496874377,
                -2.0932812324774113,
                -1.9775741463041974,
                -1.4082989329447813,
                -1.1098417293769027,
                2.4311797282714034
            ]
        },
        {
            "positions": [
                -0.029013194363277966,
                -2.0986713812352376,
                -1.9530866107560474,
                -1.5629910392492992,
                -1.1925786174350215,
                2.55788669451013
            ]
        },
        {
            "positions": [
                -0.03035548375781217,
                -2.104061529993064,
                -1.9285990752078974,
                -1.7176831455538175,
                -1.2753155054931402,
                2.684593660748857
            ]
        },
        {
            "positions": [
                -0.03169777315234637,
                -2.10945167875089,
                -1.9041115396597474,
                -1.872375251858335,
                -1.358052393551259,
                2.8113006269875833
            ]
        },
        {
            "positions": [
                -0.033040062546880564,
                -2.1148418275087164,
                -1.8796240041115975,
                -2.027067358162853,
                -1.4407892816093777,
                2.93800759322631
            ]
        },
        {
            "positions": [
                -0.03438235194141477,
                -2.1202319762665427,
                -1.8551364685634475,
                -2.181759464467371,
                -1.5235261696674964,
                3.064714559465037
            ]
        },
        {
            "positions": [
                -0.035724641335948965,
                -2.125622125024369,
                -1.8306489330152975,
                -2.3364515707718887,
                -1.6062630577256152,
                3.1914215257037633
            ]
        }
    ]
}