{
    "goal": {
        "global_pose": {
            "orientation": {
                "w": -0.00223480608172531,
                "x": 0.0024358444001904467,
                "y": 0.7094548369677653,
                "z": -0.704743149386269
            },
            "position": {
                "x": -0.37947507619857795,
                "y": -0.6371506643295288,
                "z": 0.19426114857196808
            }
        },
        "name": "move_to_magneteinheit_C"
    },
    "id": "LazyPRM_move_to_magneteinheit_C_127",
    "joint_names": [
        "shoulder_pan_joint",
        "shoulder_lift_joint",
        "elbow_joint",
        "wrist_1_joint",
        "wrist_2_joint",
        "wrist_3_joint"
    ],
    "metrics": {
        "cart_traj_len": 0.6597005220825536,
        "distance_elbow_joint": 0.08933169536863872,
        "distance_shoulder_lift_joint": 0.42610180230337624,
        "distance_shoulder_pan_joint": 0.8018864122280978,
        "distance_wrist_1_joint": 1.6049389184093865,
        "distance_wrist_2_joint": 0.7954658098132557,
        "distance_wrist_3_joint": 0.09482332388898884,
        "smoothness": 0.9558764782271372,
        "time": 3.247518356,
        "traj_len": 1.9525747007507148,
        "weighted_distance": 2.5303358152649156
    },
    "planner": "LazyPRM",
    "start": {
        "state": {
            "elbow_joint": 1.9565354010623817,
            "shoulder_lift_joint": -1.4165861575791021,
            "shoulder_pan_joint": -1.6717766225146293,
            "wrist_1_joint": -0.5286633292919765,
            "wrist_2_joint": 1.472756589071564,
            "wrist_3_joint": -3.1238370188695823
        }
    },
    "waypoints": [
        {
            "positions": [
                -1.6717766225146293,
                -1.4165861575791021,
                1.9565354010623817,
                -0.5286633292919765,
                1.472756589071564,
                -3.1238370188695823
            ]
        },
        {
            "positions": [
                -1.8054613753579638,
                -1.4325479394504794,
                1.9607538886130131,
                -0.3772286203582204,
                1.4575983573070956,
                -3.1386795039131146
            ]
        },
        {
            "positions": [
                -1.939146128201298,
                -1.448509721321857,
                1.9649723761636448,
                -0.22579391142446437,
                1.4424401255426271,
                -3.1535219889566464
            ]
        },
        {
            "positions": [
                -2.0728308810446325,
                -1.4644715031932343,
                1.9691908637142763,
                -0.07435920249070832,
                1.4272818937781588,
                -3.1683644740001786
            ]
        },
        {
            "positions": [
                -2.1664710101795164,
                -1.4775158691702028,
                1.9630834206896055,
                -0.004614298898164448,
                1.4035731143624692,
                -3.174528473521647
            ]
        },
        {
            "positions": [
                -2.2615907726317133,
                -1.4904742770917745,
                1.9564063607805444,
                0.0626082216581988,
                1.3773983662382205,
                -3.1802455942144556
            ]
        },
        {
            "positions": [
                -2.35671053508391,
                -1.5034326850133461,
                1.9497293008714836,
                0.12983074221456206,
                1.3512236181139716,
                -3.185962714907264
            ]
        },
        {
            "positions": [
                -2.3762026183603795,
                -1.446890139201824,
                1.9592650791838087,
                -0.027910065602579276,
                1.2389014783046943,
                -3.1805131102653794
            ]
        },
        {
            "positions": [
                -2.3956947016368493,
                -1.390347593390302,
                1.968800857496134,
                -0.1856508734197206,
                1.1265793384954172,
                -3.175063505623495
            ]
        },
        {
            "positions": [
                -2.4151867849133186,
                -1.33380504757878,
                1.9783366358084593,
                -0.34339168123686203,
                1.01425719868614,
                -3.16961390098161
            ]
        },
        {
            "positions": [
                -2.434678868189788,
                -1.277262501767258,
                1.9878724141207844,
                -0.5011324890540033,
                0.9019350588768628,
                -3.164164296339726
            ]
        },
        {
            "positions": [
                -2.4541709514662577,
                -1.220719955955736,
                1.9974081924331095,
                -0.6588732968711448,
                0.7896129190675855,
                -3.1587146916978415
            ]
        },
        {
            "positions": [
                -2.473663034742727,
                -1.164177410144214,
                2.006943970745435,
                -0.8166141046882861,
                0.6772907792583083,
                -3.153265087055957
            ]
        }
    ]
}