{
    "goal": {
        "global_pose": {
            "orientation": {
                "w": -0.4816463035849501,
                "x": 0.5182115481033762,
                "y": 0.4908360881923453,
                "z": -0.5084816262002911
            },
            "position": {
                "x": -0.8240239810943604,
                "y": 0.19912469901144506,
                "z": 0.16403168439865112
            }
        },
        "name": "move_to_storage_D"
    },
    "id": "LazyPRM_move_to_storage_D_119",
    "joint_names": [
        "shoulder_pan_joint",
        "shoulder_lift_joint",
        "elbow_joint",
        "wrist_1_joint",
        "wrist_2_joint",
        "wrist_3_joint"
    ],
    "metrics": {
        "cart_traj_len": 3.311927919087037,
        "distance_elbow_joint": 1.403880835561685,
        "distance_shoulder_lift_joint": 0.7439689597480652,
        "distance_shoulder_pan_joint": 3.610919756727991,
        "distance_wrist_1_joint": 3.8344466385308786,
        "distance_wrist_2_joint": 2.3149529212930195,
        "distance_wrist_3_joint": 4.389419526373473,
        "smoothness": 0.3134396119093391,
        "time": 0.388330869,
        "traj_len": 4.037027203058596,
        "weighted_distance": 5.588007449065003
    },
    "planner": "LazyPRM",
    "start": {
        "state": {
            "elbow_joint": -2.384821988534728,
            "shoulder_lift_joint": -2.2788054721415256,
            "shoulder_pan_joint": -0.1854694642142757,
            "wrist_1_joint": 1.4845938289331202,
            "wrist_2_joint": 0.17898776772866878,
            "wrist_3_joint": 0.037105688729662994
        }
    },
    "waypoints": [
        {
            "positions": [
                -0.1854694642142757,
                -2.2788054721415256,
                -2.384821988534728,
                1.4845938289331202,
                0.17898776772866878,
                0.037105688729662994
            ]
        },
        {
            "positions": [
                -0.06007242033441801,
                -2.2489204519328703,
                -2.3194847423468037,
                1.391763503397851,
                0.19669893414160852,
                0.0795213848174686
            ]
        },
        {
            "positions": [
                0.06532462354543969,
                -2.2190354317242154,
                -2.25414749615888,
                1.298933177862582,
                0.21441010055454826,
                0.12193708090527418
            ]
        },
        {
            "positions": [
                0.19072166742529748,
                -2.18915041151556,
                -2.1888102499709556,
                1.2061028523273125,
                0.23212126696748803,
                0.16435277699307976
            ]
        },
        {
            "positions": [
                0.3161187113051551,
                -2.1592653913069046,
                -2.1234730037830314,
                1.1132725267920434,
                0.24983243338042777,
                0.20676847308088536
            ]
        },
        {
            "positions": [
                0.44151575518501285,
                -2.1293803710982497,
                -2.058135757595107,
                1.0204422012567742,
                0.2675435997933675,
                0.24918416916869093
            ]
        },
        {
            "positions": [
                0.5669127990648707,
                -2.0994953508895944,
                -1.9927985114071831,
                0.9276118757215049,
                0.28525476620630724,
                0.2915998652564965
            ]
        },
        {
            "positions": [
                0.6923098429447283,
                -2.0696103306809395,
                -1.9274612652192589,
                0.8347815501862358,
                0.302965932619247,
                0.3340155613443021
            ]
        },
        {
            "positions": [
                0.8177068868245859,
                -2.039725310472284,
                -1.8621240190313348,
                0.7419512246509666,
                0.3206770990321867,
                0.3764312574321077
            ]
        },
        {
            "positions": [
                0.9431039307044436,
                -2.0098402902636288,
                -1.7967867728434106,
                0.6491208991156975,
                0.33838826544512646,
                0.4188469535199133
            ]
        },
        {
            "positions": [
                1.0685009745843013,
                -1.9799552700549738,
                -1.7314495266554866,
                0.5562905735804282,
                0.3560994318580662,
                0.4612626496077189
            ]
        },
        {
            "positions": [
                1.193898018464159,
                -1.9500702498463185,
                -1.6661122804675625,
                0.46346024804515906,
                0.37381059827100593,
                0.5036783456955245
            ]
        },
        {
            "positions": [
                1.319295062344017,
                -1.9201852296376634,
                -1.6007750342796383,
                0.3706299225098897,
                0.39152176468394573,
                0.5460940417833301
            ]
        },
        {
            "positions": [
                1.4446921062238745,
                -1.8903002094290082,
                -1.535437788091714,
                0.27779959697462053,
                0.4092329310968854,
                0.5885097378711357
            ]
        },
        {
            "positions": [
                1.5700891501037322,
                -1.8604151892203529,
                -1.4701005419037898,
                0.18496927143935138,
                0.4269440975098252,
                0.6309254339589413
            ]
        },
        {
            "positions": [
                1.69548619398359,
                -1.8305301690116977,
                -1.4047632957158658,
                0.09213894590408223,
                0.44465526392276494,
                0.6733411300467469
            ]
        },
        {
            "positions": [
                1.6314134495935853,
                -1.8414817859234842,
                -1.420460412113748,
                0.0016948068114214093,
                0.3687558037339159,
                0.5343343120816955
            ]
        },
        {
            "positions": [
                1.5673407052035806,
                -1.852433402835271,
                -1.4361575285116304,
                -0.08874933228123941,
                0.29285634354506695,
                0.39532749411664403
            ]
        },
        {
            "positions": [
                1.503267960813576,
                -1.8633850197470574,
                -1.4518546449095127,
                -0.17919347137390024,
                0.2169568833562179,
                0.2563206761515926
            ]
        },
        {
            "positions": [
                1.4391952164235715,
                -1.874336636658844,
                -1.4675517613073952,
                -0.26963761046656104,
                0.1410574231673689,
                0.11731385818654116
            ]
        },
        {
            "positions": [
                1.3751224720335669,
                -1.8852882535706306,
                -1.4832488777052775,
                -0.36008174955922184,
                0.06515796297851989,
                -0.021692959778510268
            ]
        },
        {
            "positions": [
                1.3110497276435622,
                -1.896239870482417,
                -1.4989459941031598,
                -0.4505258886518827,
                -0.010741497210329132,
                -0.1606997777435617
            ]
        },
        {
            "positions": [
                1.2469769832535575,
                -1.9071914873942037,
                -1.514643110501042,
                -0.5409700277445435,
                -0.08664095739917815,
                -0.29970659570861324
            ]
        },
        {
            "positions": [
                1.1829042388635531,
                -1.9181431043059902,
                -1.5303402268989243,
                -0.6314141668372043,
                -0.16254041758802712,
                -0.43871341367366457
            ]
        },
        {
            "positions": [
                1.1188314944735485,
                -1.929094721217777,
                -1.5460373432968066,
                -0.7218583059298651,
                -0.2384398777768762,
                -0.577720231638716
            ]
        },
        {
            "positions": [
                1.0547587500835438,
                -1.9400463381295634,
                -1.561734459694689,
                -0.8123024450225259,
                -0.31433933796572516,
                -0.7167270496037674
            ]
        },
        {
            "positions": [
                0.9906860056935392,
                -1.9509979550413499,
                -1.5774315760925715,
                -0.9027465841151868,
                -0.39023879815457413,
                -0.8557338675688189
            ]
        },
        {
            "positions": [
                0.9266132613035345,
                -1.9619495719531366,
                -1.5931286924904537,
                -0.9931907232078476,
                -0.4661382583434232,
                -0.9947406855338703
            ]
        },
        {
            "positions": [
                0.8625405169135298,
                -1.972901188864923,
                -1.608825808888336,
                -1.0836348623005083,
                -0.5420377185322722,
                -1.133747503498922
            ]
        },
        {
            "positions": [
                0.7984677725235253,
                -1.9838528057767097,
                -1.6245229252862183,
                -1.1740790013931692,
                -0.6179371787211212,
                -1.2727543214639734
            ]
        },
        {
            "positions": [
                0.7343950281335205,
                -1.9948044226884962,
                -1.6402200416841006,
                -1.2645231404858301,
                -0.6938366389099704,
                -1.411761139429025
            ]
        },
        {
            "positions": [
                0.6703222837435161,
                -2.005756039600283,
                -1.655917158081983,
                -1.3549672795784908,
                -0.7697360990988191,
                -1.550767957394076
            ]
        },
        {
            "positions": [
                0.6062495393535112,
                -2.0167076565120694,
                -1.6716142744798654,
                -1.4454114186711517,
                -0.8456355592876683,
                -1.689774775359128
            ]
        },
        {
            "positions": [
                0.5421767949635068,
                -2.027659273423856,
                -1.6873113908777477,
                -1.5358555577638124,
                -0.9215350194765173,
                -1.8287815933241789
            ]
        },
        {
            "positions": [
                0.47810405057350214,
                -2.0386108903356424,
                -1.70300850727563,
                -1.6262996968564734,
                -0.9974344796653662,
                -1.9677884112892308
            ]
        },
        {
            "positions": [
                0.4140313061834975,
                -2.0495625072474293,
                -1.7187056236735123,
                -1.716743835949134,
                -1.0733339398542152,
                -2.1067952292542818
            ]
        },
        {
            "positions": [
                0.34995856179349283,
                -2.0605141241592158,
                -1.7344027400713946,
                -1.8071879750417952,
                -1.1492334000430644,
                -2.2458020472193336
            ]
        },
        {
            "positions": [
                0.2858858174034884,
                -2.0714657410710022,
                -1.750099856469277,
                -1.8976321141344559,
                -1.2251328602319131,
                -2.3848088651843846
            ]
        },
        {
            "positions": [
                0.22181307301348352,
                -2.0824173579827887,
                -1.7657969728671592,
                -1.9880762532271168,
                -1.3010323204207623,
                -2.5238156831494365
            ]
        },
        {
            "positions": [
                0.1577403286234791,
                -2.093368974894575,
                -1.7814940892650415,
                -2.0785203923197777,
                -1.3769317806096113,
                -2.6628225011144875
            ]
        },
        {
            "positions": [
                0.09366758423347443,
                -2.104320591806362,
                -1.797191205662924,
                -2.1689645314124384,
                -1.4528312407984605,
                -2.8018293190795394
            ]
        },
        {
            "positions": [
                0.029594839843469778,
                -2.1152722087181486,
                -1.8128883220608063,
                -2.259408670505099,
                -1.5287307009873092,
                -2.940836137044591
            ]
        },
        {
            "positions": [
                -0.034477904546534925,
                -2.126223825629935,
                -1.8285854384586886,
                -2.3498528095977598,
                -1.6046301611761584,
                -3.0798429550096422
            ]
        }
    ]
}