{
    "goal": {
        "global_pose": {
            "orientation": {
                "w": 0.7031023480610252,
                "x": -0.7110244013736278,
                "y": 0.0077485991402295624,
                "z": 0.005598929693374583
            },
            "position": {
                "x": -0.8841497679147869,
                "y": 0.44412534475326537,
                "z": 0.3711530566215515
            }
        },
        "name": "move_to_auspresseinheit_D"
    },
    "id": "LazyPRMstar_move_to_auspresseinheit_D_100",
    "joint_names": [
        "shoulder_pan_joint",
        "shoulder_lift_joint",
        "elbow_joint",
        "wrist_1_joint",
        "wrist_2_joint",
        "wrist_3_joint"
    ],
    "metrics": {
        "cart_traj_len": 0.3449809304327497,
        "distance_elbow_joint": 0.6675308748265849,
        "distance_shoulder_lift_joint": 0.13713184647661958,
        "distance_shoulder_pan_joint": 0.1337814522400159,
        "distance_wrist_1_joint": 0.6217574473276302,
        "distance_wrist_2_joint": 1.4464339934991381,
        "distance_wrist_3_joint": 0.08131500584923579,
        "smoothness": 9.868649032415994e-16,
        "time": 5.000165773,
        "traj_len": 1.7572565607273243,
        "weighted_distance": 2.306246316581224
    },
    "planner": "LazyPRMstar",
    "start": {
        "state": {
            "elbow_joint": -1.8275523626775212,
            "shoulder_lift_joint": -2.126789852344167,
            "shoulder_pan_joint": -0.03513704404078235,
            "wrist_1_joint": -2.347782403156801,
            "wrist_2_joint": -1.6058999987535132,
            "wrist_3_joint": -3.0880379163319196
        }
    },
    "waypoints": [
        {
            "positions": [
                -0.03513704404078235,
                -2.126789852344167,
                -1.8275523626775212,
                -2.347782403156801,
                -1.6058999987535132,
                -3.0880379163319196
            ]
        },
        {
            "positions": [
                -0.05185972557078433,
                -2.1439313331537444,
                -1.744111003324198,
                -2.425502084072755,
                -1.425095749566121,
                -3.0778735406007653
            ]
        },
        {
            "positions": [
                -0.06858240710078632,
                -2.1610728139633215,
                -1.660669643970875,
                -2.5032217649887083,
                -1.2442915003787287,
                -3.0677091648696106
            ]
        },
        {
            "positions": [
                -0.08530508863078831,
                -2.178214294772899,
                -1.5772282846175518,
                -2.5809414459046622,
                -1.0634872511913365,
                -3.057544789138456
            ]
        },
        {
            "positions": [
                -0.10202777016079029,
                -2.1953557755824766,
                -1.4937869252642288,
                -2.6586611268206157,
                -0.8826830020039441,
                -3.0473804134073017
            ]
        },
        {
            "positions": [
                -0.11875045169079229,
                -2.212497256392054,
                -1.4103455659109057,
                -2.7363808077365697,
                -0.7018787528165519,
                -3.0372160376761475
            ]
        },
        {
            "positions": [
                -0.13547313322079427,
                -2.2296387372016317,
                -1.3269042065575825,
                -2.8141004886525236,
                -0.5210745036291595,
                -3.0270516619449928
            ]
        },
        {
            "positions": [
                -0.15219581475079624,
                -2.246780218011209,
                -1.2434628472042593,
                -2.8918201695684775,
                -0.3402702544417673,
                -3.016887286213838
            ]
        },
        {
            "positions": [
                -0.16891849628079825,
                -2.2639216988207864,
                -1.1600214878509363,
                -2.969539850484431,
                -0.1594660052543751,
                -3.006722910482684
            ]
        }
    ]
}