{
    "goal": {
        "global_pose": {
            "orientation": {
                "w": -0.00223480608172531,
                "x": 0.0024358444001904467,
                "y": 0.7094548369677653,
                "z": -0.704743149386269
            },
            "position": {
                "x": -0.37947507619857795,
                "y": -0.6371506643295288,
                "z": 0.19426114857196808
            }
        },
        "name": "move_to_magneteinheit_C"
    },
    "id": "LazyPRMstar_move_to_magneteinheit_C_58",
    "joint_names": [
        "shoulder_pan_joint",
        "shoulder_lift_joint",
        "elbow_joint",
        "wrist_1_joint",
        "wrist_2_joint",
        "wrist_3_joint"
    ],
    "metrics": {
        "cart_traj_len": 1.0026626525344358,
        "distance_elbow_joint": 0.08179238586119375,
        "distance_shoulder_lift_joint": 0.9873106576476369,
        "distance_shoulder_pan_joint": 0.8303778333670022,
        "distance_wrist_1_joint": 0.9873200682522666,
        "distance_wrist_2_joint": 0.8064346226119586,
        "distance_wrist_3_joint": 0.39956600925590324,
        "smoothness": 0.572902263771778,
        "time": 5.020380547,
        "traj_len": 2.0230673683780185,
        "weighted_distance": 2.585669794535256
    },
    "planner": "LazyPRMstar",
    "start": {
        "state": {
            "elbow_joint": 1.9565354010623817,
            "shoulder_lift_joint": -1.4165861575791021,
            "shoulder_pan_joint": -1.6717766225146293,
            "wrist_1_joint": -0.5286633292919765,
            "wrist_2_joint": 1.472756589071564,
            "wrist_3_joint": -3.1238370188695823
        }
    },
    "waypoints": [
        {
            "positions": [
                -1.6717766225146293,
                -1.4165861575791021,
                1.9565354010623817,
                -0.5286633292919765,
                1.472756589071564,
                -3.1238370188695823
            ]
        },
        {
            "positions": [
                -1.704572859441538,
                -1.5386090817909401,
                1.9512165046560757,
                -0.4123545186717815,
                1.4191250466837657,
                -3.0633228868056612
            ]
        },
        {
            "positions": [
                -1.7373690963684463,
                -1.660632006002778,
                1.9458976082497699,
                -0.2960457080515866,
                1.3654935042959677,
                -3.0028087547417406
            ]
        },
        {
            "positions": [
                -1.7701653332953549,
                -1.782654930214616,
                1.9405787118434639,
                -0.17973689743139165,
                1.3118619619081695,
                -2.9422946226778195
            ]
        },
        {
            "positions": [
                -1.910162717031072,
                -1.7671172835380542,
                1.9428954521454864,
                -0.21534844913517442,
                1.2030066422958525,
                -2.960989640522138
            ]
        },
        {
            "positions": [
                -2.050160100766789,
                -1.7515796368614924,
                1.945212192447509,
                -0.2509600008389572,
                1.0941513226835358,
                -2.979684658366457
            ]
        },
        {
            "positions": [
                -2.1901574845025062,
                -1.7360419901849309,
                1.9475289327495315,
                -0.28657155254274,
                0.9852960030712188,
                -2.9983796762107757
            ]
        },
        {
            "positions": [
                -2.3301548682382234,
                -1.7205043435083691,
                1.949845673051554,
                -0.3221831042465228,
                0.8764406834589019,
                -3.0170746940550948
            ]
        },
        {
            "positions": [
                -2.4701522519739405,
                -1.7049666968318073,
                1.9521624133535767,
                -0.3577946559503056,
                0.767585363846585,
                -3.0357697118994134
            ]
        },
        {
            "positions": [
                -2.4761518464883157,
                -1.5599104982446095,
                1.9661676071277767,
                -0.4828105865358854,
                0.7406314304243226,
                -3.0722517887913448
            ]
        },
        {
            "positions": [
                -2.4821514410026913,
                -1.4148542996574114,
                1.9801728009019766,
                -0.6078265171214652,
                0.71367749700206,
                -3.108733865683276
            ]
        },
        {
            "positions": [
                -2.4881510355170664,
                -1.2697981010702135,
                1.9941779946761766,
                -0.732842447707045,
                0.6867235635797975,
                -3.1452159425752075
            ]
        },
        {
            "positions": [
                -2.4741476151525013,
                -1.1614130452024929,
                2.00641440848574,
                -0.8181305338230734,
                0.6663219664596053,
                -3.16031823574196
            ]
        }
    ]
}