{
    "goal": {
        "global_pose": {
            "orientation": {
                "w": -0.4816463035849501,
                "x": 0.5182115481033762,
                "y": 0.4908360881923453,
                "z": -0.5084816262002911
            },
            "position": {
                "x": -0.8240239810943604,
                "y": 0.19912469901144506,
                "z": 0.16403168439865112
            }
        },
        "name": "move_to_storage_D"
    },
    "id": "LazyPRM_move_to_storage_D_45",
    "joint_names": [
        "shoulder_pan_joint",
        "shoulder_lift_joint",
        "elbow_joint",
        "wrist_1_joint",
        "wrist_2_joint",
        "wrist_3_joint"
    ],
    "metrics": {
        "cart_traj_len": 3.5059660160157016,
        "distance_elbow_joint": 4.207360943287991,
        "distance_shoulder_lift_joint": 1.2641574938725098,
        "distance_shoulder_pan_joint": 2.8131799598555975,
        "distance_wrist_1_joint": 2.2598899961247576,
        "distance_wrist_2_joint": 0.8717217500650128,
        "distance_wrist_3_joint": 3.1446936321682437,
        "smoothness": 7.743093916018887e-16,
        "time": 0.102759056,
        "traj_len": 3.8158883337139344,
        "weighted_distance": 4.897142308111984
    },
    "planner": "LazyPRM",
    "start": {
        "state": {
            "elbow_joint": -2.384821988534728,
            "shoulder_lift_joint": -2.2788054721415256,
            "shoulder_pan_joint": -0.1854694642142757,
            "wrist_1_joint": 1.4845938289331202,
            "wrist_2_joint": 0.17898776772866878,
            "wrist_3_joint": 0.037105688729662994
        }
    },
    "waypoints": [
        {
            "positions": [
                -0.1854694642142757,
                -2.2788054721415256,
                -2.384821988534728,
                1.4845938289331202,
                0.17898776772866878,
                0.037105688729662994
            ]
        },
        {
            "positions": [
                -0.08931032895816607,
                -2.2564341991271997,
                -2.244480503072071,
                1.4396664583922267,
                0.18675650860550075,
                -0.03367520909905529
            ]
        },
        {
            "positions": [
                0.0068488062979435715,
                -2.234062926112874,
                -2.104139017609414,
                1.3947390878513333,
                0.19452524948233268,
                -0.10445610692777357
            ]
        },
        {
            "positions": [
                0.10300794155405321,
                -2.211691653098548,
                -1.9637975321467567,
                1.3498117173104398,
                0.20229399035916465,
                -0.17523700475649187
            ]
        },
        {
            "positions": [
                0.19916707681016285,
                -2.1893203800842227,
                -1.8234560466840997,
                1.3048843467695463,
                0.2100627312359966,
                -0.24601790258521014
            ]
        },
        {
            "positions": [
                0.2953262120662725,
                -2.1669491070698967,
                -1.6831145612214424,
                1.2599569762286527,
                0.21783147211282855,
                -0.3167988004139285
            ]
        },
        {
            "positions": [
                0.39148534732238216,
                -2.1445778340555712,
                -1.5427730757587854,
                1.2150296056877592,
                0.22560021298966051,
                -0.3875796982426467
            ]
        },
        {
            "positions": [
                0.4876444825784918,
                -2.1222065610412453,
                -1.4024315902961284,
                1.1701022351468657,
                0.23336895386649248,
                -0.45836059607136503
            ]
        },
        {
            "positions": [
                0.5838036178346014,
                -2.0998352880269198,
                -1.2620901048334714,
                1.1251748646059723,
                0.24113769474332442,
                -0.5291414939000832
            ]
        },
        {
            "positions": [
                0.6799627530907111,
                -2.077464015012594,
                -1.1217486193708142,
                1.0802474940650788,
                0.2489064356201564,
                -0.5999223917288016
            ]
        },
        {
            "positions": [
                0.7761218883468207,
                -2.0550927419982683,
                -0.9814071339081569,
                1.0353201235241853,
                0.25667517649698834,
                -0.6707032895575199
            ]
        },
        {
            "positions": [
                0.8722810236029302,
                -2.0327214689839423,
                -0.8410656484455001,
                0.9903927529832919,
                0.2644439173738203,
                -0.7414841873862381
            ]
        },
        {
            "positions": [
                0.96844015885904,
                -2.010350195969617,
                -0.7007241629828429,
                0.9454653824423983,
                0.2722126582506523,
                -0.8122650852149564
            ]
        },
        {
            "positions": [
                1.0645992941151494,
                -1.9879789229552909,
                -0.5603826775201859,
                0.9005380119015048,
                0.2799813991274842,
                -0.8830459830436747
            ]
        },
        {
            "positions": [
                1.1607584293712592,
                -1.9656076499409652,
                -0.42004119205752866,
                0.8556106413606113,
                0.2877501400043162,
                -0.9538268808723931
            ]
        },
        {
            "positions": [
                1.256917564627369,
                -1.9432363769266394,
                -0.27969970659487187,
                0.8106832708197178,
                0.29551888088114814,
                -1.0246077787011112
            ]
        },
        {
            "positions": [
                1.3530766998834785,
                -1.920865103912314,
                -0.13935822113221485,
                0.7657559002788243,
                0.3032876217579801,
                -1.0953886765298295
            ]
        },
        {
            "positions": [
                1.4492358351395882,
                -1.898493830897988,
                0.0009832643304426014,
                0.7208285297379308,
                0.31105636263481207,
                -1.1661695743585478
            ]
        },
        {
            "positions": [
                1.5453949703956977,
                -1.8761225578836622,
                0.1413247497930996,
                0.6759011591970374,
                0.318825103511644,
                -1.2369504721872662
            ]
        },
        {
            "positions": [
                1.6415541056518073,
                -1.8537512848693365,
                0.2816662352557566,
                0.630973788656144,
                0.32659384438847594,
                -1.3077313700159845
            ]
        },
        {
            "positions": [
                1.737713240907917,
                -1.8313800118550108,
                0.4220077207184141,
                0.5860464181152504,
                0.33436258526530793,
                -1.3785122678447028
            ]
        },
        {
            "positions": [
                1.8338723761640265,
                -1.809008738840685,
                0.5623492061810711,
                0.5411190475743569,
                0.34213132614213987,
                -1.4492931656734211
            ]
        },
        {
            "positions": [
                1.930031511420136,
                -1.7866374658263593,
                0.7026906916437277,
                0.49619167703346345,
                0.3499000670189718,
                -1.5200740635021392
            ]
        },
        {
            "positions": [
                2.026190646676246,
                -1.7642661928120336,
                0.8430321771063851,
                0.4512643064925699,
                0.3576688078958038,
                -1.5908549613308576
            ]
        },
        {
            "positions": [
                2.1223497819323556,
                -1.7418949197977078,
                0.9833736625690422,
                0.4063369359516764,
                0.36543754877263573,
                -1.661635859159576
            ]
        },
        {
            "positions": [
                2.1584469757687104,
                -1.6899487096885155,
                1.043314040582201,
                0.3219345714414398,
                0.41438554655985327,
                -1.7649181508937906
            ]
        },
        {
            "positions": [
                2.194544169605065,
                -1.6380024995793232,
                1.1032544185953597,
                0.2375322069312031,
                0.46333354434707086,
                -1.8682004426280052
            ]
        },
        {
            "positions": [
                2.23064136344142,
                -1.586056289470131,
                1.1631947966085183,
                0.15312984242096644,
                0.5122815421342883,
                -1.9714827343622199
            ]
        },
        {
            "positions": [
                2.2667385572777743,
                -1.5341100793609388,
                1.2231351746216772,
                0.0687274779107298,
                0.5612295399215059,
                -2.0747650260964345
            ]
        },
        {
            "positions": [
                2.302835751114129,
                -1.4821638692517465,
                1.2830755526348359,
                -0.015674886599506888,
                0.6101775377087235,
                -2.178047317830649
            ]
        },
        {
            "positions": [
                2.338932944950484,
                -1.4302176591425542,
                1.3430159306479945,
                -0.10007725110974353,
                0.6591255354959411,
                -2.281329609564864
            ]
        },
        {
            "positions": [
                2.3750301387868387,
                -1.3782714490333619,
                1.4029563086611532,
                -0.18447961561998016,
                0.7080735332831587,
                -2.3846119012990785
            ]
        },
        {
            "positions": [
                2.4111273326231935,
                -1.3263252389241695,
                1.4628966866743118,
                -0.2688819801302168,
                0.7570215310703762,
                -2.4878941930332927
            ]
        },
        {
            "positions": [
                2.4472245264595482,
                -1.2743790288149772,
                1.5228370646874707,
                -0.35328434464045355,
                0.8059695288575938,
                -2.591176484767508
            ]
        },
        {
            "positions": [
                2.483321720295903,
                -1.222432818705785,
                1.5827774427006294,
                -0.4376867091506902,
                0.8549175266448112,
                -2.6944587765017225
            ]
        },
        {
            "positions": [
                2.5194189141322574,
                -1.1704866085965926,
                1.642717820713788,
                -0.5220890736609267,
                0.9038655244320288,
                -2.7977410682359367
            ]
        },
        {
            "positions": [
                2.555516107968612,
                -1.1185403984874005,
                1.702658198726947,
                -0.6064914381711635,
                0.9528135222192464,
                -2.9010233599701514
            ]
        },
        {
            "positions": [
                2.591613301804967,
                -1.0665941883782082,
                1.7625985767401056,
                -0.6908938026814002,
                1.001761520006464,
                -3.004305651704366
            ]
        },
        {
            "positions": [
                2.6277104956413218,
                -1.0146479782690159,
                1.8225389547532642,
                -0.7752961671916367,
                1.0507095177936816,
                -3.1075879434385807
            ]
        }
    ]
}