{
    "goal": {
        "global_pose": {
            "orientation": {
                "w": -0.4816463035849501,
                "x": 0.5182115481033762,
                "y": 0.4908360881923453,
                "z": -0.5084816262002911
            },
            "position": {
                "x": -0.8240239810943604,
                "y": 0.19912469901144506,
                "z": 0.16403168439865112
            }
        },
        "name": "move_to_storage_D"
    },
    "id": "LazyPRMstar_move_to_storage_D_65",
    "joint_names": [
        "shoulder_pan_joint",
        "shoulder_lift_joint",
        "elbow_joint",
        "wrist_1_joint",
        "wrist_2_joint",
        "wrist_3_joint"
    ],
    "metrics": {
        "cart_traj_len": 4.334413135871005,
        "distance_elbow_joint": 4.207284593951282,
        "distance_shoulder_lift_joint": 1.2651423015197736,
        "distance_shoulder_pan_joint": 2.814352399218004,
        "distance_wrist_1_joint": 2.262104162425558,
        "distance_wrist_2_joint": 1.0906063169410438,
        "distance_wrist_3_joint": 3.141691330619773,
        "smoothness": 0.045030873318071665,
        "time": 5.033895729,
        "traj_len": 3.844630164876127,
        "weighted_distance": 4.9413838390962495
    },
    "planner": "LazyPRMstar",
    "start": {
        "state": {
            "elbow_joint": -2.384821988534728,
            "shoulder_lift_joint": -2.2788054721415256,
            "shoulder_pan_joint": -0.1854694642142757,
            "wrist_1_joint": 1.4845938289331202,
            "wrist_2_joint": 0.17898776772866878,
            "wrist_3_joint": 0.037105688729662994
        }
    },
    "waypoints": [
        {
            "positions": [
                -0.1854694642142757,
                -2.2788054721415256,
                -2.384821988534728,
                1.4845938289331202,
                0.17898776772866878,
                0.037105688729662994
            ]
        },
        {
            "positions": [
                -0.05721764918510591,
                -2.218916712163955,
                -2.3233269616240397,
                1.4505098986014981,
                0.20537515356060443,
                0.1180459416705806
            ]
        },
        {
            "positions": [
                0.07103416584406388,
                -2.159027952186385,
                -2.261831934713351,
                1.416425968269876,
                0.23176253939254007,
                0.19898619461149822
            ]
        },
        {
            "positions": [
                0.19928598087323365,
                -2.0991391922088143,
                -2.2003369078026624,
                1.3823420379382543,
                0.2581499252244757,
                0.2799264475524158
            ]
        },
        {
            "positions": [
                0.3275377959024035,
                -2.0392504322312437,
                -2.1388418808919742,
                1.3482581076066322,
                0.28453731105641134,
                0.36086670049333347
            ]
        },
        {
            "positions": [
                0.45578961093157333,
                -1.9793616722536735,
                -2.077346853981286,
                1.3141741772750102,
                0.310924696888347,
                0.441806953434251
            ]
        },
        {
            "positions": [
                0.584041425960743,
                -1.919472912276103,
                -2.0158518270705974,
                1.2800902469433884,
                0.3373120827202826,
                0.5227472063751687
            ]
        },
        {
            "positions": [
                0.7122932409899129,
                -1.8595841522985326,
                -1.954356800159909,
                1.2460063166117663,
                0.36369946855221824,
                0.6036874593160864
            ]
        },
        {
            "positions": [
                0.8405450560190826,
                -1.7996953923209622,
                -1.8928617732492206,
                1.2119223862801443,
                0.3900868543841539,
                0.6846277122570039
            ]
        },
        {
            "positions": [
                0.9320096710937161,
                -1.7917680645129834,
                -1.8352351907158242,
                1.0934907017184032,
                0.3795702453045586,
                0.7641993274370844
            ]
        },
        {
            "positions": [
                1.0234742861683497,
                -1.7838407367050049,
                -1.7776086081824278,
                0.9750590171566621,
                0.3690536362249633,
                0.8437709426171649
            ]
        },
        {
            "positions": [
                1.1149389012429831,
                -1.775913408897026,
                -1.7199820256490315,
                0.8566273325949211,
                0.35853702714536795,
                0.9233425577972454
            ]
        },
        {
            "positions": [
                1.2064035163176166,
                -1.7679860810890475,
                -1.662355443115635,
                0.7381956480331799,
                0.34802041806577266,
                1.0029141729773259
            ]
        },
        {
            "positions": [
                1.2978681313922502,
                -1.7600587532810688,
                -1.604728860582239,
                0.6197639634714389,
                0.3375038089861773,
                1.0824857881574066
            ]
        },
        {
            "positions": [
                1.3893327464668834,
                -1.75213142547309,
                -1.5471022780488426,
                0.5013322789096979,
                0.326987199906582,
                1.1620574033374869
            ]
        },
        {
            "positions": [
                1.480797361541517,
                -1.7442040976651114,
                -1.4894756955154462,
                0.38290059434795687,
                0.3164705908269867,
                1.2416290185175676
            ]
        },
        {
            "positions": [
                1.5722619766161507,
                -1.7362767698571326,
                -1.4318491129820499,
                0.2644689097862156,
                0.30595398174739136,
                1.321200633697648
            ]
        },
        {
            "positions": [
                1.6637265916907842,
                -1.728349442049154,
                -1.3742225304486535,
                0.1460372252244746,
                0.295437372667796,
                1.4007722488777286
            ]
        },
        {
            "positions": [
                1.7551912067654176,
                -1.7204221142411753,
                -1.3165959479152571,
                0.02760554066273352,
                0.28492076358820073,
                1.480343864057809
            ]
        },
        {
            "positions": [
                1.7967955747767657,
                -1.6867669264497742,
                -1.1671169691851708,
                -0.010733310487512714,
                0.32179415118294386,
                1.5612225857383628
            ]
        },
        {
            "positions": [
                1.838399942788114,
                -1.6531117386583731,
                -1.0176379904550847,
                -0.049072161637758946,
                0.358667538777687,
                1.6421013074189164
            ]
        },
        {
            "positions": [
                1.880004310799462,
                -1.619456550866972,
                -0.8681590117249984,
                -0.08741101278800519,
                0.3955409263724301,
                1.7229800290994701
            ]
        },
        {
            "positions": [
                1.9216086788108102,
                -1.585801363075571,
                -0.7186800329949122,
                -0.1257498639382514,
                0.4324143139671732,
                1.8038587507800237
            ]
        },
        {
            "positions": [
                1.9632130468221582,
                -1.5521461752841699,
                -0.569201054264826,
                -0.16408871508849765,
                0.46928770156191635,
                1.8847374724605774
            ]
        },
        {
            "positions": [
                2.0048174148335063,
                -1.5184909874927688,
                -0.4197220755347397,
                -0.2024275662387439,
                0.5061610891566595,
                1.965616194141131
            ]
        },
        {
            "positions": [
                2.0464217828448548,
                -1.4848357997013675,
                -0.27024309680465364,
                -0.24076641738899013,
                0.5430344767514026,
                2.0464949158216847
            ]
        },
        {
            "positions": [
                2.088026150856203,
                -1.4511806119099664,
                -0.12076411807456733,
                -0.27910526853923634,
                0.5799078643461457,
                2.1273736375022385
            ]
        },
        {
            "positions": [
                2.129630518867551,
                -1.4175254241185653,
                0.02871486065551898,
                -0.3174441196894826,
                0.6167812519408888,
                2.208252359182792
            ]
        },
        {
            "positions": [
                2.171234886878899,
                -1.3838702363271642,
                0.17819383938560507,
                -0.3557829708397288,
                0.653654639535632,
                2.2891310808633456
            ]
        },
        {
            "positions": [
                2.2128392548902474,
                -1.3502150485357631,
                0.3276728181156916,
                -0.3941218219899751,
                0.6905280271303751,
                2.3700098025438994
            ]
        },
        {
            "positions": [
                2.2544436229015954,
                -1.316559860744362,
                0.4771517968457777,
                -0.4324606731402213,
                0.7274014147251182,
                2.450888524224453
            ]
        },
        {
            "positions": [
                2.2960479909129434,
                -1.282904672952961,
                0.626630775575864,
                -0.47079952429046756,
                0.7642748023198613,
                2.531767245905007
            ]
        },
        {
            "positions": [
                2.3376523589242915,
                -1.2492494851615599,
                0.7761097543059499,
                -0.5091383754407137,
                0.8011481899146045,
                2.6126459675855607
            ]
        },
        {
            "positions": [
                2.3792567269356395,
                -1.2155942973701586,
                0.9255887330360364,
                -0.54747722659096,
                0.8380215775093476,
                2.6935246892661144
            ]
        },
        {
            "positions": [
                2.420861094946988,
                -1.1819391095787575,
                1.0750677117661225,
                -0.5858160777412063,
                0.8748949651040907,
                2.7744034109466678
            ]
        },
        {
            "positions": [
                2.462465462958336,
                -1.1482839217873564,
                1.224546690496209,
                -0.6241549288914525,
                0.9117683526988338,
                2.8552821326272215
            ]
        },
        {
            "positions": [
                2.504069830969684,
                -1.1146287339959553,
                1.374025669226295,
                -0.6624937800416988,
                0.948641740293577,
                2.936160854307775
            ]
        },
        {
            "positions": [
                2.5456741989810325,
                -1.0809735462045542,
                1.5235046479563812,
                -0.700832631191945,
                0.9855151278883201,
                3.0170395759883286
            ]
        },
        {
            "positions": [
                2.5872785669923806,
                -1.0473183584131531,
                1.6729836266864673,
                -0.7391714823421911,
                1.0223885154830632,
                3.0979182976688824
            ]
        },
        {
            "positions": [
                2.6288829350037286,
                -1.013663170621752,
                1.8224626054165536,
                -0.7775103334924375,
                1.0592619030778063,
                3.178797019349436
            ]
        }
    ]
}