{
    "goal": {
        "global_pose": {
            "orientation": {
                "w": -0.00223480608172531,
                "x": 0.0024358444001904467,
                "y": 0.7094548369677653,
                "z": -0.704743149386269
            },
            "position": {
                "x": -0.37947507619857795,
                "y": -0.6371506643295288,
                "z": 0.19426114857196808
            }
        },
        "name": "move_to_magneteinheit_C"
    },
    "id": "LazyPRMstar_move_to_magneteinheit_C_61",
    "joint_names": [
        "shoulder_pan_joint",
        "shoulder_lift_joint",
        "elbow_joint",
        "wrist_1_joint",
        "wrist_2_joint",
        "wrist_3_joint"
    ],
    "metrics": {
        "cart_traj_len": 1.7618959062080084,
        "distance_elbow_joint": 1.477495934339101,
        "distance_shoulder_lift_joint": 1.7341820480111974,
        "distance_shoulder_pan_joint": 2.045999818874225,
        "distance_wrist_1_joint": 3.7352767176895427,
        "distance_wrist_2_joint": 2.985827443898824,
        "distance_wrist_3_joint": 1.5166553543926535,
        "smoothness": 1.4101835666692315,
        "time": 5.109761743,
        "traj_len": 3.673613659219699,
        "weighted_distance": 4.821810053038092
    },
    "planner": "LazyPRMstar",
    "start": {
        "state": {
            "elbow_joint": 1.9565354010623817,
            "shoulder_lift_joint": -1.4165861575791021,
            "shoulder_pan_joint": -1.6717766225146293,
            "wrist_1_joint": -0.5286633292919765,
            "wrist_2_joint": 1.472756589071564,
            "wrist_3_joint": -3.1238370188695823
        }
    },
    "waypoints": [
        {
            "positions": [
                -1.6717766225146293,
                -1.4165861575791021,
                1.9565354010623817,
                -0.5286633292919765,
                1.472756589071564,
                -3.1238370188695823
            ]
        },
        {
            "positions": [
                -1.6041343545088025,
                -1.43570061772638,
                1.9711287296901308,
                -0.44383769824255237,
                1.3060198851678373,
                -3.1206872794110003
            ]
        },
        {
            "positions": [
                -1.5364920865029759,
                -1.4548150778736577,
                1.98572205831788,
                -0.35901206719312834,
                1.1392831812641104,
                -3.117537539952418
            ]
        },
        {
            "positions": [
                -1.4688498184971492,
                -1.4739295380209354,
                2.0003153869456294,
                -0.2741864361437043,
                0.9725464773603837,
                -3.1143878004938355
            ]
        },
        {
            "positions": [
                -1.4012075504913224,
                -1.4930439981682133,
                2.0149087155733785,
                -0.18936080509428022,
                0.8058097734566569,
                -3.1112380610352535
            ]
        },
        {
            "positions": [
                -1.4849688408893267,
                -1.5321281233409396,
                2.056659649197854,
                -0.30880611419360837,
                0.8700454112434035,
                -3.067747781438306
            ]
        },
        {
            "positions": [
                -1.568730131287331,
                -1.571212248513666,
                2.0984105828223294,
                -0.42825142329293653,
                0.9342810490301501,
                -3.024257501841358
            ]
        },
        {
            "positions": [
                -1.6524914216853352,
                -1.6102963736863924,
                2.1401615164468053,
                -0.5476967323922647,
                0.9985166868168966,
                -2.9807672222444106
            ]
        },
        {
            "positions": [
                -1.7362527120833395,
                -1.6493804988591187,
                2.1819124500712808,
                -0.6671420414915928,
                1.0627523246036432,
                -2.937276942647463
            ]
        },
        {
            "positions": [
                -1.8200140024813438,
                -1.688464624031845,
                2.2236633836957562,
                -0.786587350590921,
                1.1269879623903898,
                -2.8937866630505154
            ]
        },
        {
            "positions": [
                -1.903775292879348,
                -1.7275487492045714,
                2.2654143173202317,
                -0.9060326596902492,
                1.1912236001771364,
                -2.8502963834535677
            ]
        },
        {
            "positions": [
                -1.9875365832773522,
                -1.7666328743772977,
                2.307165250944707,
                -1.0254779687895774,
                1.255459237963883,
                -2.80680610385662
            ]
        },
        {
            "positions": [
                -2.0712978736753564,
                -1.805716999550024,
                2.3489161845691826,
                -1.1449232778889056,
                1.3196948757506295,
                -2.7633158242596725
            ]
        },
        {
            "positions": [
                -2.1550591640733607,
                -1.8448011247227503,
                2.3906671181936585,
                -1.2643685869882337,
                1.383930513537376,
                -2.719825544662725
            ]
        },
        {
            "positions": [
                -2.238820454471365,
                -1.8838852498954768,
                2.432418051818134,
                -1.383813896087562,
                1.4481661513241226,
                -2.6763352650657772
            ]
        },
        {
            "positions": [
                -2.3225817448693693,
                -1.922969375068203,
                2.4741689854426094,
                -1.50325920518689,
                1.5124017891108692,
                -2.6328449854688296
            ]
        },
        {
            "positions": [
                -2.4063430352673736,
                -1.9620535002409294,
                2.515919919067085,
                -1.6227045142862182,
                1.5766374268976158,
                -2.589354705871882
            ]
        },
        {
            "positions": [
                -2.490104325665378,
                -2.001137625413656,
                2.5576708526915604,
                -1.7421498233855464,
                1.6408730646843623,
                -2.5458644262749344
            ]
        },
        {
            "positions": [
                -2.573865616063382,
                -2.040221750586382,
                2.599421786316036,
                -1.8615951324848745,
                1.705108702471109,
                -2.5023741466779867
            ]
        },
        {
            "positions": [
                -2.6576269064613864,
                -2.0793058757591085,
                2.6411727199405117,
                -1.9810404415842027,
                1.7693443402578555,
                -2.458883867081039
            ]
        },
        {
            "positions": [
                -2.7413881968593907,
                -2.118390000931835,
                2.682923653564987,
                -2.100485750683531,
                1.833579978044602,
                -2.4153935874840915
            ]
        },
        {
            "positions": [
                -2.825149487257395,
                -2.157474126104561,
                2.7246745871894626,
                -2.219931059782859,
                1.8978156158313486,
                -2.371903307887144
            ]
        },
        {
            "positions": [
                -2.8000431436799063,
                -2.0865245489984368,
                2.674006248031461,
                -2.1224022070111968,
                1.8101817025521183,
                -2.426526282416445
            ]
        },
        {
            "positions": [
                -2.774936800102417,
                -2.015574971892313,
                2.62333790887346,
                -2.024873354239535,
                1.7225477892728878,
                -2.481149256945746
            ]
        },
        {
            "positions": [
                -2.7498304565249283,
                -1.9446253947861887,
                2.5726695697154582,
                -1.927344501467873,
                1.6349138759936572,
                -2.5357722314750473
            ]
        },
        {
            "positions": [
                -2.724724112947439,
                -1.8736758176800645,
                2.522001230557457,
                -1.829815648696211,
                1.547279962714427,
                -2.5903952060043482
            ]
        },
        {
            "positions": [
                -2.6996177693699503,
                -1.8027262405739402,
                2.4713328913994554,
                -1.7322867959245487,
                1.4596460494351966,
                -2.6450181805336492
            ]
        },
        {
            "positions": [
                -2.674511425792461,
                -1.7317766634678162,
                2.4206645522414543,
                -1.634757943152887,
                1.372012136155966,
                -2.69964115506295
            ]
        },
        {
            "positions": [
                -2.6494050822149724,
                -1.6608270863616919,
                2.3699962130834527,
                -1.5372290903812247,
                1.2843782228767355,
                -2.7542641295922516
            ]
        },
        {
            "positions": [
                -2.6242987386374836,
                -1.589877509255568,
                2.3193278739254515,
                -1.4397002376095627,
                1.1967443095975052,
                -2.8088871041215526
            ]
        },
        {
            "positions": [
                -2.5991923950599944,
                -1.5189279321494435,
                2.26865953476745,
                -1.3421713848379007,
                1.1091103963182747,
                -2.8635100786508536
            ]
        },
        {
            "positions": [
                -2.5740860514825057,
                -1.4479783550433194,
                2.2179911956094482,
                -1.2446425320662384,
                1.0214764830390444,
                -2.9181330531801546
            ]
        },
        {
            "positions": [
                -2.5489797079050165,
                -1.3770287779371952,
                2.167322856451447,
                -1.1471136792945766,
                0.933842569759814,
                -2.9727560277094556
            ]
        },
        {
            "positions": [
                -2.5238733643275277,
                -1.3060792008310713,
                2.1166545172934454,
                -1.0495848265229146,
                0.8462086564805835,
                -3.0273790022387566
            ]
        },
        {
            "positions": [
                -2.4987670207500385,
                -1.235129623724947,
                2.065986178135444,
                -0.9520559737512524,
                0.758574743201353,
                -3.082001976768058
            ]
        },
        {
            "positions": [
                -2.47366067717255,
                -1.1641800466188228,
                2.0153178389774427,
                -0.8545271209795905,
                0.6709408299221227,
                -3.136624951297359
            ]
        }
    ]
}