{
    "goal": {
        "global_pose": {
            "orientation": {
                "w": -0.00223480608172531,
                "x": 0.0024358444001904467,
                "y": 0.7094548369677653,
                "z": -0.704743149386269
            },
            "position": {
                "x": -0.37947507619857795,
                "y": -0.6371506643295288,
                "z": 0.19426114857196808
            }
        },
        "name": "move_to_magneteinheit_C"
    },
    "id": "LazyPRMstar_move_to_magneteinheit_C_44",
    "joint_names": [
        "shoulder_pan_joint",
        "shoulder_lift_joint",
        "elbow_joint",
        "wrist_1_joint",
        "wrist_2_joint",
        "wrist_3_joint"
    ],
    "metrics": {
        "cart_traj_len": 1.1585367324580185,
        "distance_elbow_joint": 0.4091832018955168,
        "distance_shoulder_lift_joint": 2.01354122224162,
        "distance_shoulder_pan_joint": 0.8014470305333246,
        "distance_wrist_1_joint": 1.2175495407728207,
        "distance_wrist_2_joint": 1.1410018243586517,
        "distance_wrist_3_joint": 0.1684748105863454,
        "smoothness": 1.3351234263833518,
        "time": 5.008916729999999,
        "traj_len": 2.398165471853074,
        "weighted_distance": 2.9063204600822052
    },
    "planner": "LazyPRMstar",
    "start": {
        "state": {
            "elbow_joint": 1.9565354010623817,
            "shoulder_lift_joint": -1.4165861575791021,
            "shoulder_pan_joint": -1.6717766225146293,
            "wrist_1_joint": -0.5286633292919765,
            "wrist_2_joint": 1.472756589071564,
            "wrist_3_joint": -3.1238370188695823
        }
    },
    "waypoints": [
        {
            "positions": [
                -1.6717766225146293,
                -1.4165861575791021,
                1.9565354010623817,
                -0.5286633292919765,
                1.472756589071564,
                -3.1238370188695823
            ]
        },
        {
            "positions": [
                -1.7298535280068408,
                -1.5633390363100317,
                1.99512743894412,
                -0.45187262349823865,
                1.5017779184433653,
                -3.1399202218448843
            ]
        },
        {
            "positions": [
                -1.7879304334990525,
                -1.710091915040961,
                2.0337194768258584,
                -0.37508191770450083,
                1.5307992478151664,
                -3.1560034248201863
            ]
        },
        {
            "positions": [
                -1.8460073389912641,
                -1.8568447937718906,
                2.0723115147075966,
                -0.298291211910763,
                1.5598205771869678,
                -3.172086627795488
            ]
        },
        {
            "positions": [
                -1.9040842444834756,
                -2.00359767250282,
                2.110903552589335,
                -0.2215005061170252,
                1.5888419065587691,
                -3.1881698307707897
            ]
        },
        {
            "positions": [
                -1.962161149975687,
                -2.1503505512337497,
                2.1494955904710737,
                -0.1447098003232874,
                1.6178632359305702,
                -3.2042530337460917
            ]
        },
        {
            "positions": [
                -2.0202380554678987,
                -2.2971034299646793,
                2.188087628352812,
                -0.06791909452954956,
                1.6468845653023716,
                -3.2203362367213937
            ]
        },
        {
            "positions": [
                -2.0865062122836338,
                -2.1866257547956,
                2.1737173415982585,
                -0.14573197744009841,
                1.5343962580845292,
                -3.2145978212663735
            ]
        },
        {
            "positions": [
                -2.1527743690993684,
                -2.076148079626521,
                2.1593470548437046,
                -0.22354486035064725,
                1.4219079508666868,
                -3.2088594058113538
            ]
        },
        {
            "positions": [
                -2.2190425259151034,
                -1.9656704044574416,
                2.144976768089151,
                -0.30135774326119613,
                1.3094196436488446,
                -3.203120990356334
            ]
        },
        {
            "positions": [
                -2.2853106827308385,
                -1.8551927292883625,
                2.1306064813345977,
                -0.3791706261717449,
                1.1969313364310021,
                -3.197382574901314
            ]
        },
        {
            "positions": [
                -2.351578839546573,
                -1.744715054119283,
                2.116236194580044,
                -0.4569835090822938,
                1.0844430292131597,
                -3.1916441594462936
            ]
        },
        {
            "positions": [
                -2.417846996362308,
                -1.634237378950204,
                2.1018659078254904,
                -0.5347963919928427,
                0.9719547219953173,
                -3.185905743991274
            ]
        },
        {
            "positions": [
                -2.4316911605337195,
                -1.5166979042398123,
                2.079013594306049,
                -0.6072783941296178,
                0.8989687207901199,
                -3.17651946899017
            ]
        },
        {
            "positions": [
                -2.445535324705131,
                -1.3991584295294204,
                2.0561612807866076,
                -0.679760396266393,
                0.8259827195849225,
                -3.167133193989067
            ]
        },
        {
            "positions": [
                -2.4593794888765426,
                -1.2816189548190287,
                2.0333089672671667,
                -0.752242398403168,
                0.752996718379725,
                -3.1577469189879634
            ]
        },
        {
            "positions": [
                -2.473223653047954,
                -1.164079480108637,
                2.0104566537477253,
                -0.8247244005399431,
                0.6800107171745277,
                -3.1483606439868597
            ]
        }
    ]
}