{
    "goal": {
        "global_pose": {
            "orientation": {
                "w": 0.7031023502349854,
                "x": -0.7110244035720825,
                "y": 0.007748599164187908,
                "z": 0.005598929710686207
            },
            "position": {
                "x": 0.11585023208521307,
                "y": 0.44412534475326537,
                "z": 0.3711530566215515
            }
        },
        "name": "move_to_auspresseinheit_A"
    },
    "id": "LazyPRM_move_to_auspresseinheit_A_84",
    "joint_names": [
        "shoulder_pan_joint",
        "shoulder_lift_joint",
        "elbow_joint",
        "wrist_1_joint",
        "wrist_2_joint",
        "wrist_3_joint"
    ],
    "metrics": {
        "cart_traj_len": 0.6590435621144307,
        "distance_elbow_joint": 0.3130116509450782,
        "distance_shoulder_lift_joint": 0.6644145898187599,
        "distance_shoulder_pan_joint": 1.0480724952431553,
        "distance_wrist_1_joint": 0.5500265223212799,
        "distance_wrist_2_joint": 0.5124402599334236,
        "distance_wrist_3_joint": 0.21779615432710742,
        "smoothness": 0.5014438252815618,
        "time": 0.148772487,
        "traj_len": 1.8181753690413927,
        "weighted_distance": 2.191762022551199
    },
    "planner": "LazyPRM",
    "start": {
        "state": {
            "elbow_joint": 2.4225746658250005,
            "shoulder_lift_joint": -1.3736534386056498,
            "shoulder_pan_joint": -0.3378633547517467,
            "wrist_1_joint": -1.0288598680537169,
            "wrist_2_joint": 1.233022673432363,
            "wrist_3_joint": -3.0940220416140027
        }
    },
    "waypoints": [
        {
            "positions": [
                -0.3378633547517467,
                -1.3736534386056498,
                2.4225746658250005,
                -1.0288598680537169,
                1.233022673432363,
                -3.0940220416140027
            ]
        },
        {
            "positions": [
                -0.21599920295815406,
                -1.4737381747638518,
                2.446541324837027,
                -0.9552811982963351,
                1.2209291481317248,
                -3.079467005588176
            ]
        },
        {
            "positions": [
                -0.09413505116456139,
                -1.573822910922054,
                2.4705079838490533,
                -0.8817025285389533,
                1.2088356228310866,
                -3.064911969562349
            ]
        },
        {
            "positions": [
                0.027729100629031278,
                -1.6739076470802563,
                2.49447464286108,
                -0.8081238587815714,
                1.1967420975304481,
                -3.0503569335365217
            ]
        },
        {
            "positions": [
                0.14959325242262395,
                -1.7739923832384583,
                2.518441301873106,
                -0.7345451890241896,
                1.18464857222981,
                -3.035801897510695
            ]
        },
        {
            "positions": [
                0.2714574042162166,
                -1.8740771193966603,
                2.5424079608851327,
                -0.6609665192668078,
                1.1725550469291717,
                -3.021246861484868
            ]
        },
        {
            "positions": [
                0.39332155600980934,
                -1.9741618555548626,
                2.566374619897159,
                -0.587387849509426,
                1.1604615216285334,
                -3.006691825459041
            ]
        },
        {
            "positions": [
                0.47254345213020915,
                -1.9581853123374757,
                2.5240716956789293,
                -0.5602492235651788,
                1.050491744596135,
                -3.0393083100020775
            ]
        },
        {
            "positions": [
                0.551765348250609,
                -1.9422087691200889,
                2.4817687714606995,
                -0.5331105976209315,
                0.9405219675637364,
                -3.0719247945451142
            ]
        },
        {
            "positions": [
                0.6309872443710087,
                -1.9262322259027023,
                2.4394658472424693,
                -0.5059719716766843,
                0.830552190531338,
                -3.1045412790881506
            ]
        },
        {
            "positions": [
                0.7102091404914086,
                -1.9102556826853154,
                2.3971629230242395,
                -0.478833345732437,
                0.7205824134989395,
                -3.137157763631187
            ]
        }
    ]
}