{
    "goal": {
        "global_pose": {
            "orientation": {
                "w": -0.4816463035849501,
                "x": 0.5182115481033762,
                "y": 0.4908360881923453,
                "z": -0.5084816262002911
            },
            "position": {
                "x": -0.8240239810943604,
                "y": -0.300875300988555,
                "z": 0.16403168439865112
            }
        },
        "name": "move_to_storage_C"
    },
    "id": "LazyPRMstar_move_to_storage_C_4",
    "joint_names": [
        "shoulder_pan_joint",
        "shoulder_lift_joint",
        "elbow_joint",
        "wrist_1_joint",
        "wrist_2_joint",
        "wrist_3_joint"
    ],
    "metrics": {
        "cart_traj_len": 0.5759110967225196,
        "distance_elbow_joint": 0.2593276854701587,
        "distance_shoulder_lift_joint": 0.18915469721124578,
        "distance_shoulder_pan_joint": 0.49281235318294714,
        "distance_wrist_1_joint": 0.081753184569901,
        "distance_wrist_2_joint": 1.0745018403754427,
        "distance_wrist_3_joint": 0.057438528427439905,
        "smoothness": 2.5376526478085547e-16,
        "time": 5.0013417140000005,
        "traj_len": 1.4679878368832404,
        "weighted_distance": 1.850978220033223
    },
    "planner": "LazyPRMstar",
    "start": {
        "state": {
            "elbow_joint": 2.010868314990456,
            "shoulder_lift_joint": -1.1634956873337592,
            "shoulder_pan_joint": -2.4736205022346125,
            "wrist_1_joint": -0.8367026794202681,
            "wrist_2_joint": 0.6746043897044499,
            "wrist_3_joint": -3.1496632123970403
        }
    },
    "waypoints": [
        {
            "positions": [
                -2.4736205022346125,
                -1.1634956873337592,
                2.010868314990456,
                -0.8367026794202681,
                0.6746043897044499,
                -3.1496632123970403
            ]
        },
        {
            "positions": [
                -2.5557558944317704,
                -1.1319699044652183,
                1.9676470340787626,
                -0.8230771486586179,
                0.8536880297670237,
                -3.1400901243258
            ]
        },
        {
            "positions": [
                -2.6378912866289284,
                -1.1004441215966771,
                1.9244257531670697,
                -0.8094516178969677,
                1.0327716698295974,
                -3.1305170362545605
            ]
        },
        {
            "positions": [
                -2.720026678826086,
                -1.0689183387281362,
                1.8812044722553765,
                -0.7958260871353176,
                1.2118553098921714,
                -3.1209439481833203
            ]
        },
        {
            "positions": [
                -2.8021620710232438,
                -1.0373925558595953,
                1.8379831913436833,
                -0.7822005563736675,
                1.3909389499547449,
                -3.11137086011208
            ]
        },
        {
            "positions": [
                -2.8842974632204017,
                -1.0058667729910544,
                1.7947619104319903,
                -0.7685750256120173,
                1.5700225900173188,
                -3.1017977720408405
            ]
        },
        {
            "positions": [
                -2.9664328554175596,
                -0.9743409901225134,
                1.751540629520297,
                -0.7549494948503671,
                1.7491062300798925,
                -3.0922246839696004
            ]
        }
    ]
}