{
    "goal": {
        "global_pose": {
            "orientation": {
                "w": 0.005598929693374612,
                "x": 0.007748599140229565,
                "y": 0.7110244013736278,
                "z": -0.7031023480610252
            },
            "position": {
                "x": -0.8858502320852131,
                "y": -0.7141253447532654,
                "z": 0.3711530566215515
            }
        },
        "name": "move_to_auspresseinheit_C"
    },
    "id": "LazyPRMstar_move_to_auspresseinheit_C_89",
    "joint_names": [
        "shoulder_pan_joint",
        "shoulder_lift_joint",
        "elbow_joint",
        "wrist_1_joint",
        "wrist_2_joint",
        "wrist_3_joint"
    ],
    "metrics": {
        "cart_traj_len": 0.49247497791445627,
        "distance_elbow_joint": 0.997237584483252,
        "distance_shoulder_lift_joint": 0.32338581790823573,
        "distance_shoulder_pan_joint": 0.2565385820038011,
        "distance_wrist_1_joint": 0.6821211628248125,
        "distance_wrist_2_joint": 1.3013936381795015,
        "distance_wrist_3_joint": 0.06696175420989547,
        "smoothness": 1.1304088990788627e-15,
        "time": 5.000250472,
        "traj_len": 1.9046360648715803,
        "weighted_distance": 2.3968889938905393
    },
    "planner": "LazyPRMstar",
    "start": {
        "state": {
            "elbow_joint": 1.7527959577737207,
            "shoulder_lift_joint": -0.9740617694225068,
            "shoulder_pan_joint": -2.967991417825858,
            "wrist_1_joint": -0.759517768980727,
            "wrist_2_joint": 1.7443932448377408,
            "wrist_3_joint": -3.0840537646736568
        }
    },
    "waypoints": [
        {
            "positions": [
                -2.967991417825858,
                -0.9740617694225068,
                1.7527959577737207,
                -0.759517768980727,
                1.7443932448377408,
                -3.0840537646736568
            ]
        },
        {
            "positions": [
                -2.9423375596254777,
                -0.9417231876316832,
                1.6530721993253954,
                -0.6913056526982457,
                1.6142538810197906,
                -3.0907499400946463
            ]
        },
        {
            "positions": [
                -2.916683701425098,
                -0.9093846058408597,
                1.5533484408770701,
                -0.6230935364157645,
                1.4841145172018404,
                -3.097446115515636
            ]
        },
        {
            "positions": [
                -2.8910298432247177,
                -0.8770460240500361,
                1.453624682428745,
                -0.5548814201332832,
                1.3539751533838904,
                -3.1041422909366254
            ]
        },
        {
            "positions": [
                -2.8653759850243374,
                -0.8447074422592125,
                1.3539009239804198,
                -0.486669303850802,
                1.2238357895659402,
                -3.110838466357615
            ]
        },
        {
            "positions": [
                -2.8397221268239576,
                -0.812368860468389,
                1.2541771655320946,
                -0.41845718756832073,
                1.0936964257479902,
                -3.1175346417786045
            ]
        },
        {
            "positions": [
                -2.8140682686235774,
                -0.7800302786775654,
                1.1544534070837695,
                -0.3502450712858395,
                0.96355706193004,
                -3.124230817199594
            ]
        },
        {
            "positions": [
                -2.788414410423197,
                -0.7476916968867418,
                1.0547296486354445,
                -0.2820329550033583,
                0.8334176981120899,
                -3.1309269926205836
            ]
        },
        {
            "positions": [
                -2.762760552222817,
                -0.7153531150959183,
                0.955005890187119,
                -0.21382083872087698,
                0.7032783342941396,
                -3.137623168041573
            ]
        },
        {
            "positions": [
                -2.737106694022437,
                -0.6830145333050945,
                0.8552821317387939,
                -0.14560872243839573,
                0.5731389704761896,
                -3.1443193434625627
            ]
        },
        {
            "positions": [
                -2.711452835822057,
                -0.650675951514271,
                0.7555583732904687,
                -0.07739660615591444,
                0.44299960665823934,
                -3.1510155188835522
            ]
        }
    ]
}