{
    "goal": {
        "global_pose": {
            "orientation": {
                "w": -0.4816463035849501,
                "x": 0.5182115481033762,
                "y": 0.4908360881923453,
                "z": -0.5084816262002911
            },
            "position": {
                "x": -0.8240239810943604,
                "y": -0.300875300988555,
                "z": 0.16403168439865112
            }
        },
        "name": "move_to_storage_C"
    },
    "id": "LazyPRM_move_to_storage_C_33",
    "joint_names": [
        "shoulder_pan_joint",
        "shoulder_lift_joint",
        "elbow_joint",
        "wrist_1_joint",
        "wrist_2_joint",
        "wrist_3_joint"
    ],
    "metrics": {
        "cart_traj_len": 0.5763310083380795,
        "distance_elbow_joint": 0.25518786529319226,
        "distance_shoulder_lift_joint": 0.18819902211479278,
        "distance_shoulder_pan_joint": 0.4929807013378191,
        "distance_wrist_1_joint": 0.06621461264595796,
        "distance_wrist_2_joint": 1.0802212095015222,
        "distance_wrist_3_joint": 0.07046078074965534,
        "smoothness": 2.5376526478085547e-16,
        "time": 0.011874167,
        "traj_len": 1.467400487816104,
        "weighted_distance": 1.854891256998569
    },
    "planner": "LazyPRM",
    "start": {
        "state": {
            "elbow_joint": 2.010868314990456,
            "shoulder_lift_joint": -1.1634956873337592,
            "shoulder_pan_joint": -2.4736205022346125,
            "wrist_1_joint": -0.8367026794202681,
            "wrist_2_joint": 0.6746043897044499,
            "wrist_3_joint": -3.1496632123970403
        }
    },
    "waypoints": [
        {
            "positions": [
                -2.4736205022346125,
                -1.1634956873337592,
                2.010868314990456,
                -0.8367026794202681,
                0.6746043897044499,
                -3.1496632123970403
            ]
        },
        {
            "positions": [
                -2.5557839524575825,
                -1.1321291836479603,
                1.968337004108257,
                -0.8256669106459418,
                0.8546412579547036,
                -3.1379197489387645
            ]
        },
        {
            "positions": [
                -2.637947402680552,
                -1.1007626799621617,
                1.9258056932260583,
                -0.8146311418716154,
                1.0346781262049574,
                -3.1261762854804886
            ]
        },
        {
            "positions": [
                -2.720110852903522,
                -1.0693961762763629,
                1.8832743823438598,
                -0.8035953730972891,
                1.214714994455211,
                -3.114432822022213
            ]
        },
        {
            "positions": [
                -2.802274303126492,
                -1.038029672590564,
                1.840743071461661,
                -0.7925596043229628,
                1.3947518627054647,
                -3.1026893585639366
            ]
        },
        {
            "positions": [
                -2.8844377533494616,
                -1.0066631689047651,
                1.7982117605794623,
                -0.7815238355486365,
                1.5747887309557185,
                -3.0909458951056608
            ]
        },
        {
            "positions": [
                -2.9666012035724316,
                -0.9752966652189664,
                1.7556804496972636,
                -0.7704880667743101,
                1.7548255992059723,
                -3.079202431647385
            ]
        }
    ]
}