{
    "goal": {
        "global_pose": {
            "orientation": {
                "w": 0.5084816262002911,
                "x": -0.4908360881923452,
                "y": 0.5182115481033761,
                "z": -0.48164630358495003
            },
            "position": {
                "x": 0.5540239810943604,
                "y": -0.46912469901144505,
                "z": 0.16403168439865112
            }
        },
        "name": "move_to_storage_B"
    },
    "id": "LazyPRMstar_move_to_storage_B_122",
    "joint_names": [
        "shoulder_pan_joint",
        "shoulder_lift_joint",
        "elbow_joint",
        "wrist_1_joint",
        "wrist_2_joint",
        "wrist_3_joint"
    ],
    "metrics": {
        "cart_traj_len": 0.785975790570236,
        "distance_elbow_joint": 0.35164778960856413,
        "distance_shoulder_lift_joint": 0.45960170094744024,
        "distance_shoulder_pan_joint": 0.44958537480721616,
        "distance_wrist_1_joint": 3.000763668547894,
        "distance_wrist_2_joint": 2.699051592394882,
        "distance_wrist_3_joint": 3.1535918384475274,
        "smoothness": 0.06654621305471654,
        "time": 5.0384316600000005,
        "traj_len": 3.180289603912437,
        "weighted_distance": 4.703322326036284
    },
    "planner": "LazyPRMstar",
    "start": {
        "state": {
            "elbow_joint": 1.664937868594044,
            "shoulder_lift_joint": -0.661644460510453,
            "shoulder_pan_joint": -0.9139846352900073,
            "wrist_1_joint": 2.146753192139373,
            "wrist_2_joint": -2.2341966793290973,
            "wrist_3_joint": 0.005466555786416001
        }
    },
    "waypoints": [
        {
            "positions": [
                -0.9139846352900073,
                -0.661644460510453,
                1.664937868594044,
                2.146753192139373,
                -2.2341966793290973,
                0.005466555786416001
            ]
        },
        {
            "positions": [
                -0.900694920409173,
                -0.676424886225993,
                1.6705587194651064,
                2.149979403462395,
                -2.1631089422904717,
                0.011394380238144604
            ]
        },
        {
            "positions": [
                -0.8707208270206117,
                -0.7084420611660515,
                1.6730869732822602,
                2.118123082365085,
                -1.978102124811665,
                0.07758121339720456
            ]
        },
        {
            "positions": [
                -0.8407467336320503,
                -0.74045923610611,
                1.675615227099414,
                2.0862667612677757,
                -1.7930953073328584,
                0.1437680465562645
            ]
        },
        {
            "positions": [
                -0.8107726402434889,
                -0.7724764110461684,
                1.6781434809165678,
                2.054410440170466,
                -1.608088489854052,
                0.20995487971532445
            ]
        },
        {
            "positions": [
                -0.7807985468549277,
                -0.8044935859862269,
                1.6806717347337217,
                2.022554119073156,
                -1.4230816723752453,
                0.2761417128743844
            ]
        },
        {
            "positions": [
                -0.7951803325991157,
                -0.8188914303258481,
                1.695940549436853,
                1.8920944748533546,
                -1.3372663730370167,
                0.4071833802089098
            ]
        },
        {
            "positions": [
                -0.8095621183433037,
                -0.8332892746654693,
                1.7112093641399841,
                1.7616348306335532,
                -1.2514510736987878,
                0.5382250475434353
            ]
        },
        {
            "positions": [
                -0.8239439040874917,
                -0.8476871190050905,
                1.7264781788431152,
                1.6311751864137518,
                -1.1656357743605592,
                0.6692667148779606
            ]
        },
        {
            "positions": [
                -0.8383256898316798,
                -0.8620849633447116,
                1.7417469935462464,
                1.5007155421939502,
                -1.0798204750223306,
                0.8003083822124861
            ]
        },
        {
            "positions": [
                -0.8527074755758678,
                -0.8764828076843328,
                1.7570158082493776,
                1.3702558979741486,
                -0.994005175684102,
                0.9313500495470115
            ]
        },
        {
            "positions": [
                -0.8670892613200558,
                -0.8908806520239541,
                1.7722846229525089,
                1.2397962537543472,
                -0.9081898763458733,
                1.0623917168815369
            ]
        },
        {
            "positions": [
                -0.8814710470642438,
                -0.9052784963635753,
                1.7875534376556401,
                1.1093366095345456,
                -0.8223745770076446,
                1.1934333842160623
            ]
        },
        {
            "positions": [
                -0.8958528328084319,
                -0.9196763407031965,
                1.8028222523587714,
                0.9788769653147442,
                -0.7365592776694159,
                1.3244750515505879
            ]
        },
        {
            "positions": [
                -0.9102346185526199,
                -0.9340741850428177,
                1.8180910670619024,
                0.8484173210949426,
                -0.6507439783311871,
                1.4555167188851132
            ]
        },
        {
            "positions": [
                -0.9246164042968079,
                -0.9484720293824389,
                1.8333598817650336,
                0.7179576768751412,
                -0.5649286789929586,
                1.5865583862196386
            ]
        },
        {
            "positions": [
                -0.9389981900409959,
                -0.96286987372206,
                1.8486286964681649,
                0.5874980326553396,
                -0.4791133796547299,
                1.717600053554164
            ]
        },
        {
            "positions": [
                -0.953379975785184,
                -0.9772677180616812,
                1.863897511171296,
                0.45703838843553823,
                -0.3932980803165014,
                1.8486417208886894
            ]
        },
        {
            "positions": [
                -0.967761761529372,
                -0.9916655624013024,
                1.8791663258744273,
                0.3265787442157366,
                -0.30748278097827253,
                1.979683388223215
            ]
        },
        {
            "positions": [
                -0.98214354727356,
                -1.0060634067409238,
                1.8944351405775586,
                0.19611909999593502,
                -0.2216674816400439,
                2.11072505555774
            ]
        },
        {
            "positions": [
                -0.996525333017748,
                -1.0204612510805449,
                1.9097039552806896,
                0.06565945577613364,
                -0.13585218230181528,
                2.2417667228922653
            ]
        },
        {
            "positions": [
                -1.010907118761936,
                -1.034859095420166,
                1.9249727699838208,
                -0.06480018844366775,
                -0.05003688296358644,
                2.3728083902267914
            ]
        },
        {
            "positions": [
                -1.025288904506124,
                -1.0492569397597873,
                1.940241584686952,
                -0.19525983266346936,
                0.035778416374642186,
                2.5038500575613165
            ]
        },
        {
            "positions": [
                -1.0396706902503121,
                -1.0636547840994084,
                1.9555103993900833,
                -0.32571947688327096,
                0.12159371571287103,
                2.634891724895842
            ]
        },
        {
            "positions": [
                -1.0540524759945002,
                -1.0780526284390297,
                1.9707792140932145,
                -0.45617912110307257,
                0.20740901505109943,
                2.7659333922303673
            ]
        },
        {
            "positions": [
                -1.0684342617386882,
                -1.0924504727786508,
                1.9860480287963456,
                -0.5866387653228737,
                0.29322431438932806,
                2.896975059564893
            ]
        },
        {
            "positions": [
                -1.082816047482876,
                -1.1068483171182721,
                2.001316843499477,
                -0.7170984095426753,
                0.3790396137275569,
                3.0280167268994185
            ]
        },
        {
            "positions": [
                -1.0971978332270642,
                -1.1212461614578932,
                2.016585658202608,
                -0.847558053762477,
                0.46485491306578547,
                3.1590583942339436
            ]
        }
    ]
}