{
    "goal": {
        "global_pose": {
            "orientation": {
                "w": -0.00223480608172531,
                "x": 0.0024358444001904467,
                "y": 0.7094548369677653,
                "z": -0.704743149386269
            },
            "position": {
                "x": 0.6205249238014221,
                "y": -0.6371506643295288,
                "z": 0.19426114857196808
            }
        },
        "name": "move_to_magneteinheit_B"
    },
    "id": "LazyPRMstar_move_to_magneteinheit_B_67",
    "joint_names": [
        "shoulder_pan_joint",
        "shoulder_lift_joint",
        "elbow_joint",
        "wrist_1_joint",
        "wrist_2_joint",
        "wrist_3_joint"
    ],
    "metrics": {
        "cart_traj_len": 1.3493799576255603,
        "distance_elbow_joint": 0.956557241567398,
        "distance_shoulder_lift_joint": 0.7553401345019746,
        "distance_shoulder_pan_joint": 1.6217635361530442,
        "distance_wrist_1_joint": 0.19311672952702086,
        "distance_wrist_2_joint": 1.5203629007120638,
        "distance_wrist_3_joint": 1.9741986460391558,
        "smoothness": 0.40630719232798074,
        "time": 5.018147608,
        "traj_len": 2.649780969910656,
        "weighted_distance": 3.56135032127114
    },
    "planner": "LazyPRMstar",
    "start": {
        "state": {
            "elbow_joint": 2.6216224122426386,
            "shoulder_lift_joint": -1.4174107377796124,
            "shoulder_pan_joint": 0.7066234856936794,
            "wrist_1_joint": 1.9546482284002225,
            "wrist_2_joint": -0.7096286983471962,
            "wrist_3_joint": 0.005740856962016249
        }
    },
    "waypoints": [
        {
            "positions": [
                0.7066234856936794,
                -1.4174107377796124,
                2.6216224122426386,
                1.9546482284002225,
                -0.7096286983471962,
                0.005740856962016249
            ]
        },
        {
            "positions": [
                0.591697515287383,
                -1.4116559322521867,
                2.6148220914915052,
                1.96077699523631,
                -0.8106128669619194,
                -0.11798131373219009
            ]
        },
        {
            "positions": [
                0.4767715448810866,
                -1.405901126724761,
                2.608021770740372,
                1.9669057620723978,
                -0.9115970355766425,
                -0.24170348442639641
            ]
        },
        {
            "positions": [
                0.36184557447479015,
                -1.400146321197335,
                2.6012214499892385,
                1.9730345289084856,
                -1.0125812041913658,
                -0.36542565512060277
            ]
        },
        {
            "positions": [
                0.24691960406849378,
                -1.3943915156699094,
                2.594421129238105,
                1.9791632957445733,
                -1.113565372806089,
                -0.4891478258148091
            ]
        },
        {
            "positions": [
                0.1319936336621974,
                -1.3886367101424837,
                2.587620808486972,
                1.985292062580661,
                -1.214549541420812,
                -0.6128699965090155
            ]
        },
        {
            "positions": [
                0.017067663255900922,
                -1.3828819046150578,
                2.5808204877358385,
                1.9914208294167488,
                -1.3155337100355353,
                -0.7365921672032218
            ]
        },
        {
            "positions": [
                -0.09785830715039545,
                -1.377127099087632,
                2.574020166984705,
                1.9975495962528365,
                -1.4165178786502586,
                -0.8603143378974282
            ]
        },
        {
            "positions": [
                -0.21278427755669177,
                -1.3713722935602064,
                2.567219846233572,
                2.003678363088924,
                -1.5175020472649816,
                -0.9840365085916345
            ]
        },
        {
            "positions": [
                -0.2766348023660257,
                -1.3068903217163366,
                2.485205784819178,
                2.0167771444378624,
                -1.582273824700825,
                -0.894543664911134
            ]
        },
        {
            "positions": [
                -0.3404853271753596,
                -1.2424083498724667,
                2.403191723404784,
                2.0298759257868,
                -1.6470456021366686,
                -0.8050508212306337
            ]
        },
        {
            "positions": [
                -0.4043358519846936,
                -1.1779263780285967,
                2.3211776619903906,
                2.0429747071357385,
                -1.711817379572512,
                -0.7155579775501333
            ]
        },
        {
            "positions": [
                -0.4681863767940275,
                -1.1134444061847268,
                2.239163600575997,
                2.0560734884846767,
                -1.7765891570083556,
                -0.6260651338696328
            ]
        },
        {
            "positions": [
                -0.5320369016033615,
                -1.048962434340857,
                2.157149539161603,
                2.0691722698336146,
                -1.841360934444199,
                -0.5365722901891323
            ]
        },
        {
            "positions": [
                -0.5958874264126953,
                -0.9844804624969872,
                2.0751354777472093,
                2.082271051182553,
                -1.9061327118800424,
                -0.44707944650863196
            ]
        },
        {
            "positions": [
                -0.6597379512220293,
                -0.9199984906531173,
                1.9931214163328157,
                2.0953698325314907,
                -1.970904489315886,
                -0.3575866028281315
            ]
        },
        {
            "positions": [
                -0.7235884760313633,
                -0.8555165188092474,
                1.9111073549184219,
                2.108468613880429,
                -2.0356762667517296,
                -0.268093759147631
            ]
        },
        {
            "positions": [
                -0.7874390008406973,
                -0.7910345469653774,
                1.829093293504028,
                2.121567395229367,
                -2.1004480441875732,
                -0.17860091546713053
            ]
        },
        {
            "positions": [
                -0.851289525650031,
                -0.7265525751215077,
                1.7470792320896344,
                2.134666176578305,
                -2.1652198216234164,
                -0.08910807178663016
            ]
        },
        {
            "positions": [
                -0.9151400504593651,
                -0.6620706032776378,
                1.6650651706752406,
                2.1477649579272433,
                -2.22999159905926,
                0.0003847718938703285
            ]
        }
    ]
}