{
    "goal": {
        "global_pose": {
            "orientation": {
                "w": -0.00223480608172531,
                "x": 0.0024358444001904467,
                "y": 0.7094548369677653,
                "z": -0.704743149386269
            },
            "position": {
                "x": -0.37947507619857795,
                "y": -0.6371506643295288,
                "z": 0.19426114857196808
            }
        },
        "name": "move_to_magneteinheit_C"
    },
    "id": "LazyPRMstar_move_to_magneteinheit_C_2",
    "joint_names": [
        "shoulder_pan_joint",
        "shoulder_lift_joint",
        "elbow_joint",
        "wrist_1_joint",
        "wrist_2_joint",
        "wrist_3_joint"
    ],
    "metrics": {
        "cart_traj_len": 1.2790076055478616,
        "distance_elbow_joint": 1.5201562270030031,
        "distance_shoulder_lift_joint": 2.15959396925948,
        "distance_shoulder_pan_joint": 1.9798759436128492,
        "distance_wrist_1_joint": 6.435709476958308,
        "distance_wrist_2_joint": 2.576939574221907,
        "distance_wrist_3_joint": 7.479089140986412,
        "smoothness": 0.5743037475254196,
        "time": 5.04166558,
        "traj_len": 4.706523593061226,
        "weighted_distance": 6.7913320979904235
    },
    "planner": "LazyPRMstar",
    "start": {
        "state": {
            "elbow_joint": 1.9565354010623817,
            "shoulder_lift_joint": -1.4165861575791021,
            "shoulder_pan_joint": -1.6717766225146293,
            "wrist_1_joint": -0.5286633292919765,
            "wrist_2_joint": 1.472756589071564,
            "wrist_3_joint": -3.1238370188695823
        }
    },
    "waypoints": [
        {
            "positions": [
                -1.6717766225146293,
                -1.4165861575791021,
                1.9565354010623817,
                -0.5286633292919765,
                1.472756589071564,
                -3.1238370188695823
            ]
        },
        {
            "positions": [
                -1.718155633953458,
                -1.448358424382064,
                1.9827052977248565,
                -0.42623514965479925,
                1.416364003349494,
                -2.999704335388395
            ]
        },
        {
            "positions": [
                -1.7645346453922868,
                -1.4801306911850258,
                2.0088751943873313,
                -0.32380697001762204,
                1.359971417627424,
                -2.875571651907208
            ]
        },
        {
            "positions": [
                -1.8109136568311155,
                -1.5119029579879877,
                2.035045091049806,
                -0.22137879038044483,
                1.3035788319053538,
                -2.751438968426021
            ]
        },
        {
            "positions": [
                -1.8572926682699442,
                -1.5436752247909495,
                2.061214987712281,
                -0.11895061074326768,
                1.247186246183284,
                -2.627306284944834
            ]
        },
        {
            "positions": [
                -1.903671679708773,
                -1.5754474915939114,
                2.0873848843747558,
                -0.01652243110609053,
                1.190793660461214,
                -2.5031736014636468
            ]
        },
        {
            "positions": [
                -1.9500506911476019,
                -1.6072197583968733,
                2.11355478103723,
                0.08590574853108679,
                1.134401074739144,
                -2.3790409179824596
            ]
        },
        {
            "positions": [
                -1.9964297025864306,
                -1.6389920251998351,
                2.139724677699705,
                0.188333928168264,
                1.078008489017074,
                -2.2549082345012725
            ]
        },
        {
            "positions": [
                -2.0428087140252593,
                -1.670764292002797,
                2.16589457436218,
                0.2907621078054411,
                1.021615903295004,
                -2.1307755510200854
            ]
        },
        {
            "positions": [
                -2.089187725464088,
                -1.7025365588057588,
                2.1920644710246546,
                0.3931902874426183,
                0.9652233175729341,
                -2.0066428675388983
            ]
        },
        {
            "positions": [
                -2.1355667369029168,
                -1.7343088256087207,
                2.2182343676871294,
                0.4956184670797954,
                0.9088307318508642,
                -1.8825101840577112
            ]
        },
        {
            "positions": [
                -2.1819457483417457,
                -1.7660810924116825,
                2.2444042643496043,
                0.5980466467169727,
                0.8524381461287941,
                -1.758377500576524
            ]
        },
        {
            "positions": [
                -2.228324759780574,
                -1.7978533592146446,
                2.270574161012079,
                0.70047482635415,
                0.796045560406724,
                -1.6342448170953368
            ]
        },
        {
            "positions": [
                -2.274703771219403,
                -1.8296256260176063,
                2.296744057674554,
                0.8029030059913271,
                0.7396529746846541,
                -1.5101121336141496
            ]
        },
        {
            "positions": [
                -2.3210827826582316,
                -1.8613978928205683,
                2.3229139543370287,
                0.9053311856285045,
                0.6832603889625841,
                -1.3859794501329625
            ]
        },
        {
            "positions": [
                -2.3674617940970606,
                -1.89317015962353,
                2.349083850999503,
                1.0077593652656816,
                0.6268678032405142,
                -1.2618467666517754
            ]
        },
        {
            "positions": [
                -2.413840805535889,
                -1.924942426426492,
                2.375253747661978,
                1.1101875449028586,
                0.5704752175184442,
                -1.1377140831705883
            ]
        },
        {
            "positions": [
                -2.460219816974718,
                -1.9567146932294537,
                2.4014236443244528,
                1.212615724540036,
                0.5140826317963743,
                -1.0135813996894014
            ]
        },
        {
            "positions": [
                -2.5065988284135465,
                -1.9884869600324158,
                2.4275935409869276,
                1.315043904177213,
                0.4576900460743043,
                -0.8894487162082143
            ]
        },
        {
            "positions": [
                -2.5529778398523755,
                -2.0202592268353774,
                2.4537634376494024,
                1.4174720838143902,
                0.40129746035223435,
                -0.7653160327270272
            ]
        },
        {
            "positions": [
                -2.599356851291204,
                -2.0520314936383395,
                2.4799333343118772,
                1.5199002634515673,
                0.3449048746301644,
                -0.6411833492458401
            ]
        },
        {
            "positions": [
                -2.645735862730033,
                -2.083803760441301,
                2.506103230974352,
                1.6223284430887446,
                0.28851228890809444,
                -0.517050665764653
            ]
        },
        {
            "positions": [
                -2.692114874168862,
                -2.115576027244263,
                2.532273127636827,
                1.724756622725922,
                0.23211970318602426,
                -0.39291798228346586
            ]
        },
        {
            "positions": [
                -2.7384938856076904,
                -2.147348294047225,
                2.5584430242993017,
                1.8271848023630992,
                0.1757271174639543,
                -0.2687852988022783
            ]
        },
        {
            "positions": [
                -2.7848728970465193,
                -2.179120560850187,
                2.5846129209617765,
                1.9296129820002765,
                0.11933453174188413,
                -0.1446526153210912
            ]
        },
        {
            "positions": [
                -2.8312519084853482,
                -2.210892827653149,
                2.6107828176242514,
                2.032041161637454,
                0.06294194601981418,
                -0.020519931839904082
            ]
        },
        {
            "positions": [
                -2.8776309199241767,
                -2.2426650944561106,
                2.6369527142867257,
                2.134469341274631,
                0.006549360297744222,
                0.10361275164128303
            ]
        },
        {
            "positions": [
                -2.9240099313630052,
                -2.2744373612590723,
                2.6631226109492006,
                2.236897520911808,
                -0.04984322542432573,
                0.22774543512247014
            ]
        },
        {
            "positions": [
                -2.970388942801834,
                -2.3062096280620343,
                2.6892925076116754,
                2.3393257005489856,
                -0.10623581114639569,
                0.35187811860365725
            ]
        },
        {
            "positions": [
                -3.016767954240663,
                -2.3379818948649964,
                2.71546240427415,
                2.4417538801861625,
                -0.16262839686846564,
                0.47601080208484436
            ]
        },
        {
            "positions": [
                -3.0631469656794916,
                -2.369754161667958,
                2.741632300936625,
                2.54418205982334,
                -0.2190209825905356,
                0.6001434855660315
            ]
        },
        {
            "positions": [
                -3.041350461959196,
                -2.3250717185134904,
                2.7144078814133374,
                2.419631538051377,
                -0.18623720471795013,
                0.46106538791600205
            ]
        },
        {
            "positions": [
                -3.0195539582389,
                -2.280389275359023,
                2.6871834618900503,
                2.295081016279415,
                -0.15345342684536467,
                0.32198729026597267
            ]
        },
        {
            "positions": [
                -2.997757454518604,
                -2.2357068322045555,
                2.6599590423667627,
                2.170530494507452,
                -0.12066964897277921,
                0.18290919261594324
            ]
        },
        {
            "positions": [
                -2.9759609507983082,
                -2.191024389050088,
                2.6327346228434756,
                2.0459799727354895,
                -0.08788587110019375,
                0.043831094965913864
            ]
        },
        {
            "positions": [
                -2.9541644470780124,
                -2.14634194589562,
                2.605510203320188,
                1.9214294509635268,
                -0.055102093227608284,
                -0.09524700268411557
            ]
        },
        {
            "positions": [
                -2.9323679433577166,
                -2.101659502741153,
                2.5782857837969004,
                1.7968789291915643,
                -0.022318315355022822,
                -0.234325100334145
            ]
        },
        {
            "positions": [
                -2.910571439637421,
                -2.056977059586685,
                2.5510613642736133,
                1.6723284074196019,
                0.010465462517562668,
                -0.3734031979841743
            ]
        },
        {
            "positions": [
                -2.8887749359171253,
                -2.0122946164322175,
                2.5238369447503257,
                1.5477778856476392,
                0.0432492403901481,
                -0.5124812956342037
            ]
        },
        {
            "positions": [
                -2.8669784321968295,
                -1.96761217327775,
                2.4966125252270386,
                1.4232273638756765,
                0.07603301826273356,
                -0.6515593932842332
            ]
        },
        {
            "positions": [
                -2.8451819284765336,
                -1.9229297301232824,
                2.469388105703751,
                1.298676842103714,
                0.10881679613531903,
                -0.7906374909342626
            ]
        },
        {
            "positions": [
                -2.8233854247562378,
                -1.878247286968815,
                2.4421636861804634,
                1.1741263203317513,
                0.1416005740079045,
                -0.929715588584292
            ]
        },
        {
            "positions": [
                -2.801588921035942,
                -1.8335648438143473,
                2.4149392666571763,
                1.0495757985597889,
                0.17438435188048995,
                -1.0687936862343215
            ]
        },
        {
            "positions": [
                -2.779792417315646,
                -1.7888824006598798,
                2.3877148471338887,
                0.9250252767878262,
                0.20716812975307547,
                -1.207871783884351
            ]
        },
        {
            "positions": [
                -2.7579959135953502,
                -1.7441999575054123,
                2.3604904276106016,
                0.8004747550158637,
                0.23995190762566093,
                -1.3469498815343801
            ]
        },
        {
            "positions": [
                -2.7361994098750544,
                -1.6995175143509447,
                2.333266008087314,
                0.6759242332439008,
                0.27273568549824645,
                -1.48602797918441
            ]
        },
        {
            "positions": [
                -2.7144029061547585,
                -1.654835071196477,
                2.306041588564027,
                0.5513737114719386,
                0.3055194633708318,
                -1.625106076834439
            ]
        },
        {
            "positions": [
                -2.6926064024344627,
                -1.6101526280420093,
                2.2788171690407393,
                0.4268231896999759,
                0.3383032412434174,
                -1.7641841744844688
            ]
        },
        {
            "positions": [
                -2.670809898714167,
                -1.565470184887542,
                2.2515927495174517,
                0.3022726679280132,
                0.3710870191160027,
                -1.9032622721344978
            ]
        },
        {
            "positions": [
                -2.649013394993871,
                -1.5207877417330744,
                2.2243683299941646,
                0.17772214615605053,
                0.4038707969885883,
                -2.0423403697845273
            ]
        },
        {
            "positions": [
                -2.6272168912735756,
                -1.4761052985786067,
                2.197143910470877,
                0.05317162438408829,
                0.43665457486117365,
                -2.1814184674345567
            ]
        },
        {
            "positions": [
                -2.6054203875532798,
                -1.4314228554241393,
                2.1699194909475894,
                -0.0713788973878744,
                0.4694383527337592,
                -2.320496565084586
            ]
        },
        {
            "positions": [
                -2.583623883832984,
                -1.3867404122696718,
                2.1426950714243023,
                -0.19592941915983708,
                0.5022221306063446,
                -2.4595746627346156
            ]
        },
        {
            "positions": [
                -2.561827380112688,
                -1.3420579691152041,
                2.1154706519010147,
                -0.32047994093179977,
                0.5350059084789301,
                -2.598652760384645
            ]
        },
        {
            "positions": [
                -2.5400308763923922,
                -1.2973755259607367,
                2.0882462323777276,
                -0.445030462703762,
                0.5677896863515155,
                -2.7377308580346744
            ]
        },
        {
            "positions": [
                -2.5182343726720964,
                -1.252693082806269,
                2.06102181285444,
                -0.5695809844757247,
                0.6005734642241011,
                -2.876808955684704
            ]
        },
        {
            "positions": [
                -2.4964378689518005,
                -1.2080106396518016,
                2.033797393331153,
                -0.6941315062476874,
                0.6333572420966865,
                -3.0158870533347333
            ]
        },
        {
            "positions": [
                -2.4746413652315047,
                -1.1633281964973339,
                2.0065729738078653,
                -0.81868202801965,
                0.666141019969272,
                -3.1549651509847627
            ]
        }
    ]
}