{
    "goal": {
        "global_pose": {
            "orientation": {
                "w": -0.4816463035849501,
                "x": 0.5182115481033762,
                "y": 0.4908360881923453,
                "z": -0.5084816262002911
            },
            "position": {
                "x": -0.8240239810943604,
                "y": 0.19912469901144506,
                "z": 0.16403168439865112
            }
        },
        "name": "move_to_storage_D"
    },
    "id": "LazyPRM_move_to_storage_D_40",
    "joint_names": [
        "shoulder_pan_joint",
        "shoulder_lift_joint",
        "elbow_joint",
        "wrist_1_joint",
        "wrist_2_joint",
        "wrist_3_joint"
    ],
    "metrics": {
        "cart_traj_len": 4.0325901086444595,
        "distance_elbow_joint": 4.229480571154079,
        "distance_shoulder_lift_joint": 1.265698995431099,
        "distance_shoulder_pan_joint": 2.814551846413981,
        "distance_wrist_1_joint": 2.2795134019482632,
        "distance_wrist_2_joint": 1.059115988582572,
        "distance_wrist_3_joint": 3.3716375936794334,
        "smoothness": 0.25556890666773424,
        "time": 0.151250237,
        "traj_len": 3.8755642682336493,
        "weighted_distance": 5.010179934403467
    },
    "planner": "LazyPRM",
    "start": {
        "state": {
            "elbow_joint": -2.384821988534728,
            "shoulder_lift_joint": -2.2788054721415256,
            "shoulder_pan_joint": -0.1854694642142757,
            "wrist_1_joint": 1.4845938289331202,
            "wrist_2_joint": 0.17898776772866878,
            "wrist_3_joint": 0.037105688729662994
        }
    },
    "waypoints": [
        {
            "positions": [
                -0.1854694642142757,
                -2.2788054721415256,
                -2.384821988534728,
                1.4845938289331202,
                0.17898776772866878,
                0.037105688729662994
            ]
        },
        {
            "positions": [
                -0.12754718022711595,
                -2.2401350340929476,
                -2.3940429651080932,
                1.4701782363086322,
                0.0910810349711153,
                -0.07569371969758767
            ]
        },
        {
            "positions": [
                -0.05027729991508524,
                -2.2048670847955725,
                -2.2954899709155323,
                1.3927960945917746,
                0.1241766314843866,
                -0.01218838403226341
            ]
        },
        {
            "positions": [
                0.026992580396945465,
                -2.1695991354981974,
                -2.1969369767229714,
                1.3154139528749167,
                0.1572722279976579,
                0.05131695163306085
            ]
        },
        {
            "positions": [
                0.10426246070897618,
                -2.1343311862008227,
                -2.0983839825304105,
                1.238031811158059,
                0.1903678245109292,
                0.11482228729838515
            ]
        },
        {
            "positions": [
                0.18153234102100688,
                -2.0990632369034476,
                -1.9998309883378496,
                1.1606496694412014,
                0.2234634210242005,
                0.17832762296370938
            ]
        },
        {
            "positions": [
                0.25880222133303765,
                -2.0637952876060726,
                -1.9012779941452886,
                1.0832675277243435,
                0.2565590175374718,
                0.24183295862903367
            ]
        },
        {
            "positions": [
                0.3360721016450683,
                -2.0285273383086975,
                -1.8027249999527277,
                1.005885386007486,
                0.2896546140507431,
                0.305338294294358
            ]
        },
        {
            "positions": [
                0.41334198195709904,
                -1.9932593890113226,
                -1.7041720057601668,
                0.9285032442906281,
                0.32275021056401443,
                0.36884362995968223
            ]
        },
        {
            "positions": [
                0.4906118622691297,
                -1.9579914397139475,
                -1.605619011567606,
                0.8511211025737705,
                0.3558458070772857,
                0.43234896562500646
            ]
        },
        {
            "positions": [
                0.5678817425811604,
                -1.9227234904165726,
                -1.507066017375045,
                0.7737389608569127,
                0.38894140359055696,
                0.4958543012903308
            ]
        },
        {
            "positions": [
                0.6451516228931912,
                -1.8874555411191976,
                -1.408513023182484,
                0.696356819140055,
                0.4220370001038283,
                0.559359636955655
            ]
        },
        {
            "positions": [
                0.7224215032052218,
                -1.8521875918218227,
                -1.3099600289899231,
                0.6189746774231975,
                0.45513259661709954,
                0.6228649726209793
            ]
        },
        {
            "positions": [
                0.7996913835172526,
                -1.8169196425244476,
                -1.2114070347973622,
                0.5415925357063397,
                0.48822819313037086,
                0.6863703082863036
            ]
        },
        {
            "positions": [
                0.8769612638292834,
                -1.7816516932270725,
                -1.1128540406048013,
                0.46421039398948194,
                0.5213237896436422,
                0.7498756439516279
            ]
        },
        {
            "positions": [
                0.954231144141314,
                -1.7463837439296976,
                -1.0143010464122404,
                0.3868282522726241,
                0.5544193861569136,
                0.8133809796169522
            ]
        },
        {
            "positions": [
                1.031501024453345,
                -1.7111157946323226,
                -0.9157480522196795,
                0.30944611055576643,
                0.5875149826701848,
                0.8768863152822765
            ]
        },
        {
            "positions": [
                1.1087709047653753,
                -1.6758478453349475,
                -0.8171950580271186,
                0.23206396883890879,
                0.6206105791834561,
                0.9403916509476006
            ]
        },
        {
            "positions": [
                1.186040785077406,
                -1.6405798960375728,
                -0.7186420638345579,
                0.15468182712205114,
                0.6537061756967273,
                1.0038969866129248
            ]
        },
        {
            "positions": [
                1.2633106653894368,
                -1.6053119467401977,
                -0.6200890696419967,
                0.07729968540519327,
                0.6868017722099986,
                1.0674023222782492
            ]
        },
        {
            "positions": [
                1.3405805457014675,
                -1.5700439974428226,
                -0.5215360754494358,
                -8.245631166436951e-05,
                0.7198973687232699,
                1.1309076579435733
            ]
        },
        {
            "positions": [
                1.4178504260134983,
                -1.5347760481454475,
                -0.42298308125687467,
                -0.07746459802852224,
                0.7529929652365412,
                1.1944129936088976
            ]
        },
        {
            "positions": [
                1.495120306325529,
                -1.4995080988480725,
                -0.324430087064314,
                -0.15484673974537988,
                0.7860885617498126,
                1.257918329274222
            ]
        },
        {
            "positions": [
                1.5723901866375596,
                -1.4642401495506978,
                -0.22587709287175306,
                -0.2322288814622373,
                0.8191841582630838,
                1.321423664939546
            ]
        },
        {
            "positions": [
                1.6496600669495904,
                -1.4289722002533227,
                -0.12732409867919214,
                -0.30961102317909517,
                0.8522797547763552,
                1.3849290006048705
            ]
        },
        {
            "positions": [
                1.726929947261621,
                -1.3937042509559476,
                -0.028771104486631227,
                -0.3869931648959528,
                0.8853753512896264,
                1.4484343362701948
            ]
        },
        {
            "positions": [
                1.8041998275736517,
                -1.3584363016585725,
                0.06978188970592969,
                -0.46437530661281046,
                0.9184709478028976,
                1.511939671935519
            ]
        },
        {
            "positions": [
                1.8814697078856828,
                -1.3231683523611975,
                0.1683348838984906,
                -0.5417574483296683,
                0.951566544316169,
                1.5754450076008433
            ]
        },
        {
            "positions": [
                1.9587395881977134,
                -1.2879004030638228,
                0.2668878780910515,
                -0.6191395900465262,
                0.9846621408294403,
                1.6389503432661674
            ]
        },
        {
            "positions": [
                2.0360094685097443,
                -1.2526324537664477,
                0.36544087228361244,
                -0.6965217317633841,
                1.0177577373427118,
                1.702455678931492
            ]
        },
        {
            "positions": [
                2.113279348821775,
                -1.2173645044690726,
                0.4639938664761736,
                -0.7739038734802413,
                1.050853333855983,
                1.765961014596816
            ]
        },
        {
            "positions": [
                2.1705907969748783,
                -1.1946691680514452,
                0.6153519512535566,
                -0.7762389512063413,
                1.052124106849333,
                1.9234258424810138
            ]
        },
        {
            "positions": [
                2.2279022451279817,
                -1.171973831633818,
                0.7667100360309396,
                -0.7785740289324414,
                1.053394879842683,
                2.0808906703652115
            ]
        },
        {
            "positions": [
                2.285213693281085,
                -1.1492784952161905,
                0.9180681208083226,
                -0.7809091066585415,
                1.0546656528360332,
                2.238355498249409
            ]
        },
        {
            "positions": [
                2.342525141434188,
                -1.1265831587985633,
                1.0694262055857058,
                -0.7832441843846416,
                1.0559364258293833,
                2.395820326133607
            ]
        },
        {
            "positions": [
                2.3998365895872915,
                -1.1038878223809359,
                1.2207842903630888,
                -0.7855792621107417,
                1.0572071988227334,
                2.5532851540178045
            ]
        },
        {
            "positions": [
                2.457148037740395,
                -1.0811924859633086,
                1.3721423751404718,
                -0.7879143398368418,
                1.0584779718160835,
                2.7107499819020022
            ]
        },
        {
            "positions": [
                2.5144594858934983,
                -1.0584971495456812,
                1.5235004599178548,
                -0.7902494175629419,
                1.0597487448094336,
                2.8682148097862
            ]
        },
        {
            "positions": [
                2.5717709340466017,
                -1.035801813128054,
                1.6748585446952378,
                -0.792584495289042,
                1.0610195178027837,
                3.0256796376703976
            ]
        },
        {
            "positions": [
                2.629082382199705,
                -1.0131064767104265,
                1.8262166294726208,
                -0.794919573015142,
                1.0622902907961338,
                3.1831444655545953
            ]
        }
    ]
}