{
    "goal": {
        "global_pose": {
            "orientation": {
                "w": 0.5084816217422485,
                "x": -0.49083608388900757,
                "y": 0.5182115435600281,
                "z": -0.4816462993621826
            },
            "position": {
                "x": 0.5540239810943604,
                "y": 0.030875300988554955,
                "z": 0.16403168439865112
            }
        },
        "name": "move_to_storage_A"
    },
    "id": "LazyPRMstar_move_to_storage_A_110",
    "joint_names": [
        "shoulder_pan_joint",
        "shoulder_lift_joint",
        "elbow_joint",
        "wrist_1_joint",
        "wrist_2_joint",
        "wrist_3_joint"
    ],
    "metrics": {
        "cart_traj_len": 0.3537366781092327,
        "distance_elbow_joint": 0.45115327326071575,
        "distance_shoulder_lift_joint": 0.23309313059957093,
        "distance_shoulder_pan_joint": 0.4631261611173972,
        "distance_wrist_1_joint": 0.2527355917761648,
        "distance_wrist_2_joint": 1.0967824852116324,
        "distance_wrist_3_joint": 0.10928365197881673,
        "smoothness": 0.0,
        "time": 5.001261125999999,
        "traj_len": 1.6143649816396222,
        "weighted_distance": 2.043100505332454
    },
    "planner": "LazyPRMstar",
    "start": {
        "state": {
            "elbow_joint": 1.971548259319323,
            "shoulder_lift_joint": -1.1394851275133948,
            "shoulder_pan_joint": 0.1228115487234821,
            "wrist_1_joint": -0.7804723859257726,
            "wrist_2_joint": 0.12958671773740124,
            "wrist_3_joint": -3.192489227718131
        }
    },
    "waypoints": [
        {
            "positions": [
                0.1228115487234821,
                -1.1394851275133948,
                1.971548259319323,
                -0.7804723859257726,
                0.12958671773740124,
                -3.192489227718131
            ]
        },
        {
            "positions": [
                0.05665066856385394,
                -1.1727841461704764,
                2.0359987269279967,
                -0.8165774704652248,
                0.2862699299104916,
                -3.1768772774354432
            ]
        },
        {
            "positions": [
                -0.009510211595774226,
                -1.2060831648275578,
                2.1004491945366706,
                -0.8526825550046768,
                0.44295314208358194,
                -3.161265327152755
            ]
        },
        {
            "positions": [
                -0.0756710917554024,
                -1.2393821834846395,
                2.164899662145344,
                -0.888787639544129,
                0.5996363542566723,
                -3.145653376870067
            ]
        },
        {
            "positions": [
                -0.14183197191503055,
                -1.272681202141721,
                2.2293501297540175,
                -0.924892724083581,
                0.7563195664297626,
                -3.1300414265873786
            ]
        },
        {
            "positions": [
                -0.20799285207465873,
                -1.3059802207988027,
                2.2938005973626914,
                -0.9609978086230332,
                0.913002778602853,
                -3.1144294763046907
            ]
        },
        {
            "positions": [
                -0.2741537322342869,
                -1.3392792394558841,
                2.3582510649713653,
                -0.9971028931624852,
                1.0696859907759433,
                -3.0988175260220023
            ]
        },
        {
            "positions": [
                -0.3403146123939151,
                -1.3725782581129657,
                2.4227015325800387,
                -1.0332079777019374,
                1.2263692029490336,
                -3.0832055757393144
            ]
        }
    ]
}{
    "goal": {
        "global_pose": {
            "orientation": {
                "w": 0.5084816217422485,
                "x": -0.49083608388900757,
                "y": 0.5182115435600281,
                "z": -0.4816462993621826
            },
            "position": {
                "x": 0.5540239810943604,
                "y": 0.030875300988554955,
                "z": 0.16403168439865112
            }
        },
        "name": "move_to_storage_A"
    },
    "id": "LazyPRMstar_move_to_storage_A_110",
    "joint_names": [
        "shoulder_pan_joint",
        "shoulder_lift_joint",
        "elbow_joint",
        "wrist_1_joint",
        "wrist_2_joint",
        "wrist_3_joint"
    ],
    "metrics": {
        "cart_traj_len": 0.35287637872626176,
        "distance_elbow_joint": 0.44800886885732316,
        "distance_shoulder_lift_joint": 0.23335318883470313,
        "distance_shoulder_pan_joint": 0.4602684585856919,
        "distance_wrist_1_joint": 0.23848483280798494,
        "distance_wrist_2_joint": 1.1025375031053997,
        "distance_wrist_3_joint": 0.0949602270509593,
        "smoothness": 4.440892133664971e-16,
        "time": 5.000729898,
        "traj_len": 1.605494652511201,
        "weighted_distance": 2.0269572933975115
    },
    "planner": "LazyPRMstar",
    "start": {
        "state": {
            "elbow_joint": 1.97154746011099,
            "shoulder_lift_joint": -1.13948474672311,
            "shoulder_pan_joint": 0.12281154466712228,
            "wrist_1_joint": -0.7804688027058302,
            "wrist_2_joint": 0.12958655903071145,
            "wrist_3_joint": 3.0906928834467795
        }
    },
    "waypoints": [
        {
            "positions": [
                0.12281154466712228,
                -1.13948474672311,
                1.97154746011099,
                -0.7804688027058302,
                0.12958655903071145,
                3.0906928834467795
            ]
        },
        {
            "positions": [
                0.05705890772630916,
                -1.172820916556639,
                2.0355487270906076,
                -0.8145380645355423,
                0.28709191661719713,
                3.1042586301683452
            ]
        },
        {
            "positions": [
                -0.008693729214503967,
                -1.206157086390168,
                2.099549994070225,
                -0.8486073263652545,
                0.4445972742036828,
                3.1178243768899105
            ]
        },
        {
            "positions": [
                -0.07444636615531709,
                -1.239493256223697,
                2.1635512610498426,
                -0.8826765881949665,
                0.6021026317901684,
                3.1313901236114763
            ]
        },
        {
            "positions": [
                -0.1401990030961302,
                -1.272829426057226,
                2.2275525280294604,
                -0.9167458500246787,
                0.7596079893766541,
                3.144955870333042
            ]
        },
        {
            "positions": [
                -0.20595164003694333,
                -1.306165595890755,
                2.291553795009078,
                -0.9508151118543908,
                0.9171133469631398,
                3.1585216170546078
            ]
        },
        {
            "positions": [
                -0.27170427697775645,
                -1.339501765724284,
                2.3555550619886954,
                -0.984884373684103,
                1.0746187045496254,
                3.172087363776173
            ]
        },
        {
            "positions": [
                -0.3374569139185696,
                -1.372837935557813,
                2.419556328968313,
                -1.0189536355138151,
                1.2321240621361111,
                3.185653110497739
            ]
        }
    ]
}{
    "goal": {
        "global_pose": {
            "orientation": {
                "w": 0.5084816217422485,
                "x": -0.49083608388900757,
                "y": 0.5182115435600281,
                "z": -0.4816462993621826
            },
            "position": {
                "x": 0.5540239810943604,
                "y": 0.030875300988554955,
                "z": 0.16403168439865112
            }
        },
        "name": "move_to_storage_A"
    },
    "id": "LazyPRMstar_move_to_storage_A_110",
    "joint_names": [
        "shoulder_pan_joint",
        "shoulder_lift_joint",
        "elbow_joint",
        "wrist_1_joint",
        "wrist_2_joint",
        "wrist_3_joint"
    ],
    "metrics": {
        "cart_traj_len": 0.35285808688074616,
        "distance_elbow_joint": 0.45263892241026316,
        "distance_shoulder_lift_joint": 0.2344835789079711,
        "distance_shoulder_pan_joint": 0.4579716260565,
        "distance_wrist_1_joint": 0.259579554183788,
        "distance_wrist_2_joint": 1.1130077445171194,
        "distance_wrist_3_joint": 0.10768892913156636,
        "smoothness": 0.0,
        "time": 5.000255579,
        "traj_len": 1.6202994646691729,
        "weighted_distance": 2.052641106518928
    },
    "planner": "LazyPRMstar",
    "start": {
        "state": {
            "elbow_joint": 1.9715472970024885,
            "shoulder_lift_joint": -1.1394870060712896,
            "shoulder_pan_joint": 0.12281152778156021,
            "wrist_1_joint": -0.780463741449964,
            "wrist_2_joint": 0.12958659822042276,
            "wrist_3_joint": 3.090690232415272
        }
    },
    "waypoints": [
        {
            "positions": [
                0.12281152778156021,
                -1.1394870060712896,
                1.9715472970024885,
                -0.780463741449964,
                0.12958659822042276,
                3.090690232415272
            ]
        },
        {
            "positions": [
                0.05738700977348879,
                -1.1729846602009997,
                2.0362100002039547,
                -0.8175465349047909,
                0.28858770458001126,
                3.106074365148353
            ]
        },
        {
            "positions": [
                -0.00803750823458263,
                -1.20648231433071,
                2.100872703405421,
                -0.8546293283596177,
                0.4475888109395997,
                3.1214584978814335
            ]
        },
        {
            "positions": [
                -0.07346202624265405,
                -1.23997996846042,
                2.165535406606887,
                -0.8917121218144446,
                0.6065899172991882,
                3.1368426306145145
            ]
        },
        {
            "positions": [
                -0.13888654425072547,
                -1.2734776225901303,
                2.230198109808353,
                -0.9287949152692714,
                0.7655910236587766,
                3.1522267633475956
            ]
        },
        {
            "positions": [
                -0.20431106225879694,
                -1.3069752767198404,
                2.2948608130098194,
                -0.9658777087240983,
                0.9245921300183652,
                3.1676108960806766
            ]
        },
        {
            "positions": [
                -0.2697355802668683,
                -1.3404729308495504,
                2.3595235162112855,
                -1.0029605021789252,
                1.0835932363779537,
                3.182995028813757
            ]
        },
        {
            "positions": [
                -0.33516009827493976,
                -1.3739705849792607,
                2.4241862194127517,
                -1.040043295633752,
                1.242594342737542,
                3.198379161546838
            ]
        }
    ]
}