{
    "goal": {
        "global_pose": {
            "orientation": {
                "w": 0.005598929693374612,
                "x": 0.007748599140229565,
                "y": 0.7110244013736278,
                "z": -0.7031023480610252
            },
            "position": {
                "x": 0.1141497679147869,
                "y": -0.7141253447532654,
                "z": 0.3711530566215515
            }
        },
        "name": "move_to_auspresseinheit_B"
    },
    "id": "LazyPRMstar_move_to_auspresseinheit_B_95",
    "joint_names": [
        "shoulder_pan_joint",
        "shoulder_lift_joint",
        "elbow_joint",
        "wrist_1_joint",
        "wrist_2_joint",
        "wrist_3_joint"
    ],
    "metrics": {
        "cart_traj_len": 0.5651677084048912,
        "distance_elbow_joint": 0.061969884457359736,
        "distance_shoulder_lift_joint": 0.29602095624443137,
        "distance_shoulder_pan_joint": 0.5763866932480524,
        "distance_wrist_1_joint": 0.3256528228200427,
        "distance_wrist_2_joint": 1.0011706551363064,
        "distance_wrist_3_joint": 0.002668931052207668,
        "smoothness": 7.612957903237841e-16,
        "time": 5.000264609,
        "traj_len": 1.504616211184234,
        "weighted_distance": 1.8963204589465266
    },
    "planner": "LazyPRMstar",
    "start": {
        "state": {
            "elbow_joint": 2.0193083361928714,
            "shoulder_lift_joint": -1.1220246554650708,
            "shoulder_pan_joint": -1.0952077554168747,
            "wrist_1_joint": -0.8559753972642168,
            "wrist_2_joint": 0.4759566250798843,
            "wrist_3_joint": -3.1240929996934557
        }
    },
    "waypoints": [
        {
            "positions": [
                -1.0952077554168747,
                -1.1220246554650708,
                2.0193083361928714,
                -0.8559753972642168,
                0.4759566250798843,
                -3.1240929996934557
            ]
        },
        {
            "positions": [
                -1.19127220429155,
                -1.1713614815058093,
                2.0089800221166447,
                -0.8016999267942096,
                0.6428184009359353,
                -3.1245378215354904
            ]
        },
        {
            "positions": [
                -1.2873366531662254,
                -1.2206983075465478,
                1.9986517080404183,
                -0.7474244563242025,
                0.8096801767919863,
                -3.1249826433775247
            ]
        },
        {
            "positions": [
                -1.3834011020409007,
                -1.2700351335872866,
                1.9883233939641916,
                -0.6931489858541955,
                0.9765419526480374,
                -3.1254274652195595
            ]
        },
        {
            "positions": [
                -1.479465550915576,
                -1.3193719596280251,
                1.9779950798879649,
                -0.6388735153841884,
                1.1434037285040886,
                -3.1258722870615943
            ]
        },
        {
            "positions": [
                -1.5755299997902517,
                -1.3687087856687636,
                1.9676667658117384,
                -0.5845980449141812,
                1.3102655043601397,
                -3.1263171089036286
            ]
        },
        {
            "positions": [
                -1.671594448664927,
                -1.4180456117095022,
                1.9573384517355117,
                -0.5303225744441741,
                1.4771272802161908,
                -3.1267619307456633
            ]
        }
    ]
}