{
    "goal": {
        "global_pose": {
            "orientation": {
                "w": -0.4816463035849501,
                "x": 0.5182115481033762,
                "y": 0.4908360881923453,
                "z": -0.5084816262002911
            },
            "position": {
                "x": -0.8240239810943604,
                "y": 0.19912469901144506,
                "z": 0.16403168439865112
            }
        },
        "name": "move_to_storage_D"
    },
    "id": "LazyPRMstar_move_to_storage_D_127",
    "joint_names": [
        "shoulder_pan_joint",
        "shoulder_lift_joint",
        "elbow_joint",
        "wrist_1_joint",
        "wrist_2_joint",
        "wrist_3_joint"
    ],
    "metrics": {
        "cart_traj_len": 0.9658967523861021,
        "distance_elbow_joint": 0.5575273232509927,
        "distance_shoulder_lift_joint": 0.15292718835857189,
        "distance_shoulder_pan_joint": 0.8001586621345503,
        "distance_wrist_1_joint": 3.8325367289578027,
        "distance_wrist_2_joint": 2.3213232378046738,
        "distance_wrist_3_joint": 3.150489180968574,
        "smoothness": 0.16773279465404228,
        "time": 5.015018157,
        "traj_len": 3.2886110018479173,
        "weighted_distance": 4.823878175304056
    },
    "planner": "LazyPRMstar",
    "start": {
        "state": {
            "elbow_joint": -2.384821988534728,
            "shoulder_lift_joint": -2.2788054721415256,
            "shoulder_pan_joint": -0.1854694642142757,
            "wrist_1_joint": 1.4845938289331202,
            "wrist_2_joint": 0.17898776772866878,
            "wrist_3_joint": 0.037105688729662994
        }
    },
    "waypoints": [
        {
            "positions": [
                -0.1854694642142757,
                -2.2788054721415256,
                -2.384821988534728,
                1.4845938289331202,
                0.17898776772866878,
                0.037105688729662994
            ]
        },
        {
            "positions": [
                -0.16170970120394862,
                -2.2732541559229302,
                -2.366402617875679,
                1.3431193200094416,
                0.076394898690196,
                0.12969355008741015
            ]
        },
        {
            "positions": [
                -0.1379499381936215,
                -2.2677028397043344,
                -2.34798324721663,
                1.2016448110857627,
                -0.026197970348276783,
                0.2222814114451573
            ]
        },
        {
            "positions": [
                -0.11419017518329443,
                -2.262151523485739,
                -2.329563876557581,
                1.060170302162084,
                -0.12879083938674954,
                0.31486927280290444
            ]
        },
        {
            "positions": [
                -0.09043041217296732,
                -2.2566002072671436,
                -2.311144505898532,
                0.9186957932384053,
                -0.23138370842522235,
                0.40745713416065166
            ]
        },
        {
            "positions": [
                -0.06667064916264023,
                -2.2510488910485478,
                -2.292725135239483,
                0.7772212843147266,
                -0.33397657746369513,
                0.5000449955183988
            ]
        },
        {
            "positions": [
                -0.042910886152313144,
                -2.2454975748299524,
                -2.274305764580434,
                0.6357467753910478,
                -0.4365694465021679,
                0.5926328568761459
            ]
        },
        {
            "positions": [
                -0.019151123141986054,
                -2.239946258611357,
                -2.255886393921385,
                0.4942722664673692,
                -0.5391623155406406,
                0.685220718233893
            ]
        },
        {
            "positions": [
                0.004608639868341063,
                -2.234394942392761,
                -2.237467023262336,
                0.35279775754369047,
                -0.6417551845791135,
                0.7778085795916403
            ]
        },
        {
            "positions": [
                0.028368402878668153,
                -2.2288436261741658,
                -2.219047652603287,
                0.21132324862001162,
                -0.7443480536175863,
                0.8703964409493874
            ]
        },
        {
            "positions": [
                0.05212816588899524,
                -2.2232923099555704,
                -2.2006282819442387,
                0.06984873969633298,
                -0.846940922656059,
                0.9629843023071345
            ]
        },
        {
            "positions": [
                0.07588792889932236,
                -2.2177409937369745,
                -2.1822089112851897,
                -0.07162576922734587,
                -0.949533791694532,
                1.0555721636648818
            ]
        },
        {
            "positions": [
                0.09964769190964942,
                -2.212189677518379,
                -2.1637895406261407,
                -0.2131002781510245,
                -1.0521266607330044,
                1.1481600250226287
            ]
        },
        {
            "positions": [
                0.12340745491997654,
                -2.2066383612997833,
                -2.1453701699670917,
                -0.35457478707470313,
                -1.1547195297714774,
                1.240747886380376
            ]
        },
        {
            "positions": [
                0.1471672179303036,
                -2.201087045081188,
                -2.1269507993080428,
                -0.49604929599838177,
                -1.25731239880995,
                1.333335747738123
            ]
        },
        {
            "positions": [
                0.17092698094063072,
                -2.1955357288625925,
                -2.108531428648994,
                -0.6375238049220608,
                -1.359905267848423,
                1.4259236090958702
            ]
        },
        {
            "positions": [
                0.19468674395095784,
                -2.1899844126439967,
                -2.090112057989945,
                -0.7789983138457393,
                -1.4624981368868957,
                1.5185114704536176
            ]
        },
        {
            "positions": [
                0.2184465069612849,
                -2.1844330964254013,
                -2.071692687330896,
                -0.9204728227694181,
                -1.5650910059253682,
                1.6110993318113644
            ]
        },
        {
            "positions": [
                0.24220626997161201,
                -2.178881780206806,
                -2.053273316671847,
                -1.061947331693097,
                -1.6676838749638412,
                1.7036871931691118
            ]
        },
        {
            "positions": [
                0.2659660329819391,
                -2.17333046398821,
                -2.034853946012798,
                -1.2034218406167754,
                -1.7702767440023137,
                1.7962750545268586
            ]
        },
        {
            "positions": [
                0.28972579599226617,
                -2.1677791477696147,
                -2.016434575353749,
                -1.3448963495404544,
                -1.872869613040787,
                1.888862915884606
            ]
        },
        {
            "positions": [
                0.24910537075126513,
                -2.162541539771282,
                -1.9927920865949973,
                -1.470277168350983,
                -1.8391863809113846,
                2.05120441011131
            ]
        },
        {
            "positions": [
                0.20848494551026409,
                -2.157303931772949,
                -1.9691495978362454,
                -1.5956579871615113,
                -1.8055031487819824,
                2.2135459043380137
            ]
        },
        {
            "positions": [
                0.16786452026926305,
                -2.152066323774617,
                -1.9455071090774938,
                -1.7210388059720398,
                -1.77181991665258,
                2.3758873985647178
            ]
        },
        {
            "positions": [
                0.127244095028262,
                -2.146828715776284,
                -1.921864620318742,
                -1.8464196247825684,
                -1.7381366845231778,
                2.5382288927914214
            ]
        },
        {
            "positions": [
                0.08662366978726097,
                -2.1415911077779515,
                -1.8982221315599903,
                -1.9718004435930967,
                -1.7044534523937755,
                2.7005703870181255
            ]
        },
        {
            "positions": [
                0.046003244546259925,
                -2.136353499779619,
                -1.8745796428012387,
                -2.097181262403625,
                -1.6707702202643733,
                2.8629118812448295
            ]
        },
        {
            "positions": [
                0.005382819305258912,
                -2.1311158917812865,
                -1.8509371540424868,
                -2.2225620812141536,
                -1.637086988134971,
                3.025253375471533
            ]
        },
        {
            "positions": [
                -0.035237605935742135,
                -2.1258782837829537,
                -1.8272946652837352,
                -2.347942900024682,
                -1.6034037560055687,
                3.1875948696982372
            ]
        }
    ]
}