{
    "goal": {
        "global_pose": {
            "orientation": {
                "w": 0.005598929693374612,
                "x": 0.007748599140229565,
                "y": 0.7110244013736278,
                "z": -0.7031023480610252
            },
            "position": {
                "x": -0.8858502320852131,
                "y": -0.7141253447532654,
                "z": 0.3711530566215515
            }
        },
        "name": "move_to_auspresseinheit_C"
    },
    "id": "LazyPRM_move_to_auspresseinheit_C_10",
    "joint_names": [
        "shoulder_pan_joint",
        "shoulder_lift_joint",
        "elbow_joint",
        "wrist_1_joint",
        "wrist_2_joint",
        "wrist_3_joint"
    ],
    "metrics": {
        "cart_traj_len": 0.49372476611673805,
        "distance_elbow_joint": 1.010074051765521,
        "distance_shoulder_lift_joint": 0.329203763473903,
        "distance_shoulder_pan_joint": 0.2563866185826207,
        "distance_wrist_1_joint": 0.7022282869520033,
        "distance_wrist_2_joint": 1.3059856577875335,
        "distance_wrist_3_joint": 0.07494319010478456,
        "smoothness": 1.6148698667872622e-16,
        "time": 0.012707399999999999,
        "traj_len": 1.9180254348330126,
        "weighted_distance": 2.415972246035842
    },
    "planner": "LazyPRM",
    "start": {
        "state": {
            "elbow_joint": 1.7527959577737207,
            "shoulder_lift_joint": -0.9740617694225068,
            "shoulder_pan_joint": -2.967991417825858,
            "wrist_1_joint": -0.759517768980727,
            "wrist_2_joint": 1.7443932448377408,
            "wrist_3_joint": -3.0840537646736568
        }
    },
    "waypoints": [
        {
            "positions": [
                -2.967991417825858,
                -0.9740617694225068,
                1.7527959577737207,
                -0.759517768980727,
                1.7443932448377408,
                -3.0840537646736568
            ]
        },
        {
            "positions": [
                -2.9423527559675957,
                -0.9411413930751165,
                1.6517885525971685,
                -0.6892949402855266,
                1.6137946790589874,
                -3.091548083684135
            ]
        },
        {
            "positions": [
                -2.916714094109334,
                -0.9082210167277261,
                1.5507811474206163,
                -0.6190721115903263,
                1.483196113280234,
                -3.0990424026946135
            ]
        },
        {
            "positions": [
                -2.8910754322510717,
                -0.8753006403803358,
                1.4497737422440644,
                -0.548849282895126,
                1.3525975475014809,
                -3.1065367217050923
            ]
        },
        {
            "positions": [
                -2.86543677039281,
                -0.8423802640329455,
                1.3487663370675123,
                -0.4786264541999256,
                1.2219989817227273,
                -3.1140310407155707
            ]
        },
        {
            "positions": [
                -2.8397981085345476,
                -0.8094598876855552,
                1.24775893189096,
                -0.4084036255047253,
                1.091400415943974,
                -3.121525359726049
            ]
        },
        {
            "positions": [
                -2.8141594466762854,
                -0.776539511338165,
                1.1467515267144082,
                -0.338180796809525,
                0.9608018501652208,
                -3.1290196787365274
            ]
        },
        {
            "positions": [
                -2.7885207848180236,
                -0.7436191349907747,
                1.0457441215378562,
                -0.26795796811432465,
                0.8302032843864674,
                -3.136513997747006
            ]
        },
        {
            "positions": [
                -2.7628821229597613,
                -0.7106987586433844,
                0.9447367163613039,
                -0.19773513941912424,
                0.6996047186077139,
                -3.1440083167574846
            ]
        },
        {
            "positions": [
                -2.7372434611014995,
                -0.6777783822959941,
                0.8437293111847518,
                -0.127512310723924,
                0.5690061528289607,
                -3.151502635767963
            ]
        },
        {
            "positions": [
                -2.7116047992432373,
                -0.6448580059486038,
                0.7427219060081998,
                -0.0572894820287236,
                0.4384075870502073,
                -3.1589969547784413
            ]
        }
    ]
}