{
    "goal": {
        "global_pose": {
            "orientation": {
                "w": 0.005598929693374612,
                "x": 0.007748599140229565,
                "y": 0.7110244013736278,
                "z": -0.7031023480610252
            },
            "position": {
                "x": -0.8858502320852131,
                "y": -0.7141253447532654,
                "z": 0.3711530566215515
            }
        },
        "name": "move_to_auspresseinheit_C"
    },
    "id": "LazyPRMstar_move_to_auspresseinheit_C_10",
    "joint_names": [
        "shoulder_pan_joint",
        "shoulder_lift_joint",
        "elbow_joint",
        "wrist_1_joint",
        "wrist_2_joint",
        "wrist_3_joint"
    ],
    "metrics": {
        "cart_traj_len": 2.0899790609947586,
        "distance_elbow_joint": 1.310006865113306,
        "distance_shoulder_lift_joint": 1.187808374658065,
        "distance_shoulder_pan_joint": 0.3923828486051777,
        "distance_wrist_1_joint": 1.0055236709047708,
        "distance_wrist_2_joint": 1.3028966568019826,
        "distance_wrist_3_joint": 0.4470830468698641,
        "smoothness": 0.7767129675869383,
        "time": 5.014951098,
        "traj_len": 2.3760684886915966,
        "weighted_distance": 2.974607181528285
    },
    "planner": "LazyPRMstar",
    "start": {
        "state": {
            "elbow_joint": 1.7527959577737207,
            "shoulder_lift_joint": -0.9740617694225068,
            "shoulder_pan_joint": -2.967991417825858,
            "wrist_1_joint": -0.759517768980727,
            "wrist_2_joint": 1.7443932448377408,
            "wrist_3_joint": -3.0840537646736568
        }
    },
    "waypoints": [
        {
            "positions": [
                -2.967991417825858,
                -0.9740617694225068,
                1.7527959577737207,
                -0.759517768980727,
                1.7443932448377408,
                -3.0840537646736568
            ]
        },
        {
            "positions": [
                -2.975543512722356,
                -1.022440528475979,
                1.6253533682926644,
                -0.667456717236115,
                1.6514827528687666,
                -3.061442920259369
            ]
        },
        {
            "positions": [
                -2.9830956076188544,
                -1.070819287529451,
                1.497910778811608,
                -0.5753956654915031,
                1.5585722608997923,
                -3.0388320758450815
            ]
        },
        {
            "positions": [
                -2.990647702515352,
                -1.1191980465829234,
                1.3704681893305517,
                -0.48333461374689113,
                1.465661768930818,
                -3.016221231430794
            ]
        },
        {
            "positions": [
                -2.9981997974118504,
                -1.1675768056363958,
                1.2430255998494952,
                -0.3912735620022792,
                1.3727512769618437,
                -2.9936103870165063
            ]
        },
        {
            "positions": [
                -3.0057518923083486,
                -1.2159555646898679,
                1.115583010368439,
                -0.2992125102576672,
                1.2798407849928695,
                -2.970999542602219
            ]
        },
        {
            "positions": [
                -3.013303987204847,
                -1.26433432374334,
                0.9881404208873826,
                -0.20715145851305528,
                1.1869302930238954,
                -2.9483886981879315
            ]
        },
        {
            "positions": [
                -3.0208560821013446,
                -1.3127130827968123,
                0.8606978314063263,
                -0.11509040676844329,
                1.094019801054921,
                -2.925777853773644
            ]
        },
        {
            "positions": [
                -3.028408176997843,
                -1.3610918418502846,
                0.73325524192527,
                -0.02302935502383141,
                1.0011093090859469,
                -2.9031670093593562
            ]
        },
        {
            "positions": [
                -3.035960271894341,
                -1.4094706009037568,
                0.6058126524442135,
                0.06903169672078052,
                0.9081988171169726,
                -2.8805561649450686
            ]
        },
        {
            "positions": [
                -2.981891272804892,
                -1.2840706770409542,
                0.6329832457415133,
                0.039535995853570004,
                0.8304151122701036,
                -2.9211537394686147
            ]
        },
        {
            "positions": [
                -2.9278222737154427,
                -1.1586707531781517,
                0.6601538390388132,
                0.010040294986359485,
                0.7526314074232345,
                -2.9617513139921607
            ]
        },
        {
            "positions": [
                -2.8737532746259937,
                -1.0332708293153494,
                0.687324432336113,
                -0.01945540588085104,
                0.6748477025763655,
                -3.002348888515707
            ]
        },
        {
            "positions": [
                -2.8196842755365448,
                -0.9078709054525469,
                0.7144950256334128,
                -0.04895110674806155,
                0.5970639977294965,
                -3.0429464630392524
            ]
        },
        {
            "positions": [
                -2.7656152764470954,
                -0.7824709815897444,
                0.7416656189307127,
                -0.07844680761527209,
                0.5192802928826273,
                -3.0835440375627985
            ]
        },
        {
            "positions": [
                -2.7115462773576464,
                -0.657071057726942,
                0.7688362122280126,
                -0.1079425084824826,
                0.4414965880357583,
                -3.1241416120863446
            ]
        }
    ]
}