{
    "goal": {
        "global_pose": {
            "orientation": {
                "w": 0.7031023480610252,
                "x": -0.7110244013736278,
                "y": 0.0077485991402295624,
                "z": 0.005598929693374583
            },
            "position": {
                "x": -0.8841497679147869,
                "y": 0.44412534475326537,
                "z": 0.3711530566215515
            }
        },
        "name": "move_to_auspresseinheit_D"
    },
    "id": "LazyPRM_move_to_auspresseinheit_D_60",
    "joint_names": [
        "shoulder_pan_joint",
        "shoulder_lift_joint",
        "elbow_joint",
        "wrist_1_joint",
        "wrist_2_joint",
        "wrist_3_joint"
    ],
    "metrics": {
        "cart_traj_len": 0.34581533318905083,
        "distance_elbow_joint": 0.6745621994475874,
        "distance_shoulder_lift_joint": 0.14091461617709955,
        "distance_shoulder_pan_joint": 0.13433077765133042,
        "distance_wrist_1_joint": 0.6424945914957063,
        "distance_wrist_2_joint": 1.4410608343035727,
        "distance_wrist_3_joint": 0.08820921190777087,
        "smoothness": 1.9737298371844314e-16,
        "time": 0.012393327,
        "traj_len": 1.7667971674708636,
        "weighted_distance": 2.3198159583462408
    },
    "planner": "LazyPRM",
    "start": {
        "state": {
            "elbow_joint": -1.8275523626775212,
            "shoulder_lift_joint": -2.126789852344167,
            "shoulder_pan_joint": -0.03513704404078235,
            "wrist_1_joint": -2.347782403156801,
            "wrist_2_joint": -1.6058999987535132,
            "wrist_3_joint": -3.0880379163319196
        }
    },
    "waypoints": [
        {
            "positions": [
                -0.03513704404078235,
                -2.126789852344167,
                -1.8275523626775212,
                -2.347782403156801,
                -1.6058999987535132,
                -3.0880379163319196
            ]
        },
        {
            "positions": [
                -0.051928391247198655,
                -2.1444041793663042,
                -1.7432320877465728,
                -2.428094227093764,
                -1.4257673944655667,
                -3.0770117648434483
            ]
        },
        {
            "positions": [
                -0.06871973845361495,
                -2.1620185063884416,
                -1.6589118128156244,
                -2.5084060510307276,
                -1.2456347901776201,
                -3.065985613354977
            ]
        },
        {
            "positions": [
                -0.08551108566003127,
                -2.179632833410579,
                -1.5745915378846758,
                -2.5887178749676907,
                -1.0655021858896734,
                -3.0549594618665057
            ]
        },
        {
            "positions": [
                -0.10230243286644755,
                -2.197247160432717,
                -1.4902712629537276,
                -2.6690296989046542,
                -0.8853695816017269,
                -3.0439333103780344
            ]
        },
        {
            "positions": [
                -0.11909378007286386,
                -2.2148614874548542,
                -1.405950988022779,
                -2.7493415228416174,
                -0.7052369773137803,
                -3.0329071588895626
            ]
        },
        {
            "positions": [
                -0.13588512727928018,
                -2.2324758144769916,
                -1.3216307130918306,
                -2.8296533467785805,
                -0.5251043730258336,
                -3.0218810074010913
            ]
        },
        {
            "positions": [
                -0.15267647448569646,
                -2.250090141499129,
                -1.2373104381608822,
                -2.9099651707155436,
                -0.34497176873788704,
                -3.01085485591262
            ]
        },
        {
            "positions": [
                -0.16946782169211277,
                -2.2677044685212664,
                -1.1529901632299338,
                -2.990276994652507,
                -0.16483916444994057,
                -2.9998287044241487
            ]
        }
    ]
}