{
    "goal": {
        "global_pose": {
            "orientation": {
                "w": 0.7047431468963623,
                "x": -0.7094548344612122,
                "y": 0.0024358443915843964,
                "z": -0.0022348060738295317
            },
            "position": {
                "x": 0.6094750761985779,
                "y": 0.3671506643295288,
                "z": 0.19426114857196808
            }
        },
        "name": "move_to_magneteinheit_A"
    },
    "id": "LazyPRM_move_to_magneteinheit_A_114",
    "joint_names": [
        "shoulder_pan_joint",
        "shoulder_lift_joint",
        "elbow_joint",
        "wrist_1_joint",
        "wrist_2_joint",
        "wrist_3_joint"
    ],
    "metrics": {
        "cart_traj_len": 3.007549426294816,
        "distance_elbow_joint": 3.920810531473424,
        "distance_shoulder_lift_joint": 0.46491132285974013,
        "distance_shoulder_pan_joint": 2.769648917852254,
        "distance_wrist_1_joint": 3.5276263414956013,
        "distance_wrist_2_joint": 1.6784138996318334,
        "distance_wrist_3_joint": 2.8238350803737355,
        "smoothness": 0.1260333409493322,
        "time": 0.124381471,
        "traj_len": 3.8968251299855106,
        "weighted_distance": 5.102838082436233
    },
    "planner": "LazyPRM",
    "start": {
        "state": {
            "elbow_joint": -1.9196185241190666,
            "shoulder_lift_joint": -1.2443396400964142,
            "shoulder_pan_joint": 2.6996025414629847,
            "wrist_1_joint": -1.5485510000780065,
            "wrist_2_joint": -1.5709468930060704,
            "wrist_3_joint": 0.4420197071253992
        }
    },
    "waypoints": [
        {
            "positions": [
                2.6996025414629847,
                -1.2443396400964142,
                -1.9196185241190666,
                -1.5485510000780065,
                -1.5709468930060704,
                0.4420197071253992
            ]
        },
        {
            "positions": [
                2.5948118440962,
                -1.2387205906981025,
                -1.8609199265768506,
                -1.464761517753725,
                -1.5163280273546864,
                0.3636295841767812
            ]
        },
        {
            "positions": [
                2.490021146729415,
                -1.2331015412997908,
                -1.8022213290346343,
                -1.3809720354294437,
                -1.4617091617033022,
                0.28523946122816324
            ]
        },
        {
            "positions": [
                2.3852304493626297,
                -1.2274824919014793,
                -1.7435227314924182,
                -1.2971825531051622,
                -1.4070902960519183,
                0.2068493382795453
            ]
        },
        {
            "positions": [
                2.280439751995845,
                -1.2218634425031676,
                -1.684824133950202,
                -1.2133930707808809,
                -1.3524714304005343,
                0.12845921533092736
            ]
        },
        {
            "positions": [
                2.1756490546290603,
                -1.2162443931048559,
                -1.6261255364079858,
                -1.1296035884565994,
                -1.2978525647491503,
                0.05006909238230939
            ]
        },
        {
            "positions": [
                2.070858357262275,
                -1.2106253437065442,
                -1.5674269388657698,
                -1.045814106132318,
                -1.2432336990977662,
                -0.02832103056630858
            ]
        },
        {
            "positions": [
                1.9660676598954903,
                -1.2050062943082327,
                -1.5087283413235535,
                -0.9620246238080365,
                -1.1886148334463822,
                -0.10671115351492655
            ]
        },
        {
            "positions": [
                1.8612769625287053,
                -1.199387244909921,
                -1.4500297437813374,
                -0.8782351414837551,
                -1.1339959677949982,
                -0.18510127646354446
            ]
        },
        {
            "positions": [
                1.7564862651619204,
                -1.1937681955116093,
                -1.3913311462391214,
                -0.7944456591594737,
                -1.079377102143614,
                -0.2634913994121625
            ]
        },
        {
            "positions": [
                1.6516955677951355,
                -1.1881491461132976,
                -1.332632548696905,
                -0.7106561768351923,
                -1.02475823649223,
                -0.3418815223607804
            ]
        },
        {
            "positions": [
                1.5469048704283503,
                -1.182530096714986,
                -1.2739339511546888,
                -0.6268666945109108,
                -0.970139370840846,
                -0.42027164530939853
            ]
        },
        {
            "positions": [
                1.4421141730615656,
                -1.1769110473166744,
                -1.215235353612473,
                -0.5430772121866294,
                -0.915520505189462,
                -0.49866176825801634
            ]
        },
        {
            "positions": [
                1.3373234756947805,
                -1.1712919979183627,
                -1.1565367560702566,
                -0.4592877298623479,
                -0.860901639538078,
                -0.5770518912066344
            ]
        },
        {
            "positions": [
                1.2325327783279958,
                -1.165672948520051,
                -1.0978381585280406,
                -0.3754982475380666,
                -0.806282773886694,
                -0.6554420141552523
            ]
        },
        {
            "positions": [
                1.1277420809612106,
                -1.1600538991217395,
                -1.0391395609858243,
                -0.2917087652137851,
                -0.7516639082353099,
                -0.7338321371038704
            ]
        },
        {
            "positions": [
                1.022951383594426,
                -1.1544348497234278,
                -0.9804409634436082,
                -0.2079192828895038,
                -0.697045042583926,
                -0.8122222600524881
            ]
        },
        {
            "positions": [
                0.9181606862276408,
                -1.148815800325116,
                -0.921742365901392,
                -0.12412980056522227,
                -0.6424261769325419,
                -0.8906123830011062
            ]
        },
        {
            "positions": [
                0.8133699888608561,
                -1.1431967509268044,
                -0.8630437683591758,
                -0.040340318240940976,
                -0.5878073112811579,
                -0.9690025059497241
            ]
        },
        {
            "positions": [
                0.708579291494071,
                -1.137577701528493,
                -0.8043451708169598,
                0.04344916408334054,
                -0.533188445629774,
                -1.0473926288983422
            ]
        },
        {
            "positions": [
                0.6037885941272862,
                -1.1319586521301812,
                -0.7456465732747437,
                0.12723864640762184,
                -0.47856957997839,
                -1.1257827518469599
            ]
        },
        {
            "positions": [
                0.4989978967605011,
                -1.1263396027318695,
                -0.6869479757325274,
                0.21102812873190346,
                -0.42395071432700593,
                -1.204172874795578
            ]
        },
        {
            "positions": [
                0.46521468871097227,
                -1.1151254733088598,
                -0.5416531513578313,
                0.3237866292178452,
                -0.3943282661073879,
                -1.1605975141834435
            ]
        },
        {
            "positions": [
                0.43143148066144343,
                -1.10391134388585,
                -0.39635832698313517,
                0.4365451297037869,
                -0.3647058178877699,
                -1.117022153571309
            ]
        },
        {
            "positions": [
                0.3976482726119146,
                -1.0926972144628404,
                -0.25106350260843907,
                0.5493036301897286,
                -0.3350833696681519,
                -1.0734467929591742
            ]
        },
        {
            "positions": [
                0.36386506456238576,
                -1.0814830850398307,
                -0.10576867823374292,
                0.6620621306756703,
                -0.3054609214485338,
                -1.0298714323470397
            ]
        },
        {
            "positions": [
                0.3300818565128569,
                -1.070268955616821,
                0.03952614614095329,
                0.774820631161612,
                -0.2758384732289158,
                -0.9862960717349052
            ]
        },
        {
            "positions": [
                0.2962986484633281,
                -1.0590548261938113,
                0.18482097051564927,
                0.8875791316475538,
                -0.2462160250092978,
                -0.9427207111227707
            ]
        },
        {
            "positions": [
                0.2625154404137992,
                -1.0478406967708014,
                0.3301157948903455,
                1.0003376321334954,
                -0.21659357678967975,
                -0.899145350510636
            ]
        },
        {
            "positions": [
                0.22873223236427037,
                -1.0366265673477917,
                0.4754106192650416,
                1.1130961326194373,
                -0.18697112857006173,
                -0.8555699898985014
            ]
        },
        {
            "positions": [
                0.19494902431474148,
                -1.025412437924782,
                0.6207054436397379,
                1.2258546331053788,
                -0.1573486803504437,
                -0.8119946292863669
            ]
        },
        {
            "positions": [
                0.16116581626521265,
                -1.0141983085017723,
                0.766000268014434,
                1.3386131335913207,
                -0.12772623213082568,
                -0.7684192686742324
            ]
        },
        {
            "positions": [
                0.12738260821568387,
                -1.0029841790787626,
                0.9112950923891299,
                1.4513716340772622,
                -0.09810378391120766,
                -0.7248439080620979
            ]
        },
        {
            "positions": [
                0.09359940016615503,
                -0.9917700496557529,
                1.056589916763826,
                1.5641301345632042,
                -0.06848133569158965,
                -0.6812685474499632
            ]
        },
        {
            "positions": [
                0.05981619211662614,
                -0.9805559202327432,
                1.2018847411385223,
                1.6768886350491456,
                -0.03885888747197158,
                -0.6376931868378286
            ]
        },
        {
            "positions": [
                0.026032984067097288,
                -0.9693417908097335,
                1.3471795655132186,
                1.7896471355350876,
                -0.009236439252353592,
                -0.5941178262256941
            ]
        },
        {
            "positions": [
                0.029471855903645497,
                -0.9417537399256733,
                1.4808617147576524,
                1.8471538811496395,
                -0.01612410873371846,
                -0.503756049470819
            ]
        },
        {
            "positions": [
                0.032910727740193706,
                -0.9141656890416131,
                1.6145438640020862,
                1.9046606267641917,
                -0.02301177821508333,
                -0.4133942727159438
            ]
        },
        {
            "positions": [
                0.036349599576741914,
                -0.886577638157553,
                1.74822601324652,
                1.9621673723787436,
                -0.0298994476964482,
                -0.32303249596106864
            ]
        },
        {
            "positions": [
                0.06493718122564915,
                -0.8508611978505933,
                1.8325480112824657,
                1.9565313826991266,
                -0.06191292684112171,
                -0.22419845608831912
            ]
        },
        {
            "positions": [
                0.09352476287455637,
                -0.8151447575436337,
                1.9168700093184114,
                1.9508953930195096,
                -0.09392640598579521,
                -0.1253644162155696
            ]
        },
        {
            "positions": [
                0.1221123445234636,
                -0.779428317236674,
                2.001192007354357,
                1.9452594033398927,
                -0.12593988513046872,
                -0.026530376342820048
            ]
        }
    ]
}