{
    "goal": {
        "global_pose": {
            "orientation": {
                "w": -0.4816463035849501,
                "x": 0.5182115481033762,
                "y": 0.4908360881923453,
                "z": -0.5084816262002911
            },
            "position": {
                "x": -0.8240239810943604,
                "y": 0.19912469901144506,
                "z": 0.16403168439865112
            }
        },
        "name": "move_to_storage_D"
    },
    "id": "LazyPRMstar_move_to_storage_D_110",
    "joint_names": [
        "shoulder_pan_joint",
        "shoulder_lift_joint",
        "elbow_joint",
        "wrist_1_joint",
        "wrist_2_joint",
        "wrist_3_joint"
    ],
    "metrics": {
        "cart_traj_len": 3.4626276327397014,
        "distance_elbow_joint": 4.234623925482177,
        "distance_shoulder_lift_joint": 1.3303312124465354,
        "distance_shoulder_pan_joint": 2.81420368471852,
        "distance_wrist_1_joint": 2.3992849814073796,
        "distance_wrist_2_joint": 0.8759128136443238,
        "distance_wrist_3_joint": 3.1424527506265596,
        "smoothness": 0.02681579607968665,
        "time": 5.036980604,
        "traj_len": 3.8466621073764062,
        "weighted_distance": 4.9352722989345095
    },
    "planner": "LazyPRMstar",
    "start": {
        "state": {
            "elbow_joint": -2.384821988534728,
            "shoulder_lift_joint": -2.2788054721415256,
            "shoulder_pan_joint": -0.1854694642142757,
            "wrist_1_joint": 1.4845938289331202,
            "wrist_2_joint": 0.17898776772866878,
            "wrist_3_joint": 0.037105688729662994
        }
    },
    "waypoints": [
        {
            "positions": [
                -0.1854694642142757,
                -2.2788054721415256,
                -2.384821988534728,
                1.4845938289331202,
                0.17898776772866878,
                0.037105688729662994
            ]
        },
        {
            "positions": [
                -0.07341548150014796,
                -2.2139971470889694,
                -2.38643411986106,
                1.4928494471500633,
                0.21345393967728607,
                -0.10697694622507051
            ]
        },
        {
            "positions": [
                0.0386385012139798,
                -2.1491888220364137,
                -2.3880462511873928,
                1.5011050653670064,
                0.24792011162590336,
                -0.251059581179804
            ]
        },
        {
            "positions": [
                0.15069248392810755,
                -2.0843804969838575,
                -2.389658382513725,
                1.5093606835839497,
                0.28238628357452067,
                -0.3951422161345375
            ]
        },
        {
            "positions": [
                0.26274646664223533,
                -2.0195721719313013,
                -2.391270513840057,
                1.5176163018008928,
                0.3168524555231379,
                -0.539224851089271
            ]
        },
        {
            "positions": [
                0.37480044935636314,
                -1.9547638468787454,
                -2.3928826451663894,
                1.525871920017836,
                0.35131862747175524,
                -0.6833074860440045
            ]
        },
        {
            "positions": [
                0.48685443207049084,
                -1.8899555218261894,
                -2.3944947764927216,
                1.5341275382347792,
                0.38578479942037247,
                -0.827390120998738
            ]
        },
        {
            "positions": [
                0.5989084147846185,
                -1.8251471967736332,
                -2.396106907819054,
                1.5423831564517223,
                0.4202509713689898,
                -0.9714727559534715
            ]
        },
        {
            "positions": [
                0.7109623974987463,
                -1.7603388717210773,
                -2.3977190391453864,
                1.5506387746686654,
                0.45471714331760704,
                -1.115555390908205
            ]
        },
        {
            "positions": [
                0.7951467600255258,
                -1.7193135197012734,
                -2.308984688419791,
                1.5044625384373516,
                0.4808291479704154,
                -1.213723859784521
            ]
        },
        {
            "positions": [
                0.8793311225523051,
                -1.6782881676814698,
                -2.220250337694196,
                1.4582863022060377,
                0.5069411526232238,
                -1.311892328660837
            ]
        },
        {
            "positions": [
                0.9635154850790845,
                -1.637262815661666,
                -2.1315159869686013,
                1.412110065974724,
                0.5330531572760321,
                -1.4100607975371529
            ]
        },
        {
            "positions": [
                1.0476998476058639,
                -1.5962374636418624,
                -2.042781636243006,
                1.3659338297434103,
                0.5591651619288405,
                -1.5082292664134689
            ]
        },
        {
            "positions": [
                1.1318842101326432,
                -1.5552121116220585,
                -1.954047285517411,
                1.3197575935120964,
                0.5852771665816489,
                -1.606397735289785
            ]
        },
        {
            "positions": [
                1.2160685726594225,
                -1.514186759602255,
                -1.8653129347918158,
                1.2735813572807826,
                0.6113891712344572,
                -1.704566204166101
            ]
        },
        {
            "positions": [
                1.3002529351862018,
                -1.473161407582451,
                -1.7765785840662207,
                1.2274051210494688,
                0.6375011758872655,
                -1.802734673042417
            ]
        },
        {
            "positions": [
                1.3844372977129813,
                -1.4321360555626474,
                -1.6878442333406256,
                1.181228884818155,
                0.6636131805400739,
                -1.9009031419187328
            ]
        },
        {
            "positions": [
                1.4686216602397606,
                -1.3911107035428436,
                -1.5991098826150303,
                1.135052648586841,
                0.6897251851928823,
                -1.999071610795049
            ]
        },
        {
            "positions": [
                1.5528060227665401,
                -1.35008535152304,
                -1.5103755318894354,
                1.0888764123555275,
                0.7158371898456907,
                -2.097240079671365
            ]
        },
        {
            "positions": [
                1.6369903852933194,
                -1.3090599995032361,
                -1.42164118116384,
                1.0427001761242134,
                0.741949194498499,
                -2.1954085485476806
            ]
        },
        {
            "positions": [
                1.7211747478200987,
                -1.2680346474834325,
                -1.3329068304382452,
                0.9965239398928998,
                0.7680611991513073,
                -2.293577017423997
            ]
        },
        {
            "positions": [
                1.805359110346878,
                -1.2270092954636287,
                -1.2441724797126499,
                0.9503477036615859,
                0.7941732038041158,
                -2.391745486300313
            ]
        },
        {
            "positions": [
                1.8895434728736573,
                -1.185983943443825,
                -1.155438128987055,
                0.9041714674302722,
                0.8202852084569241,
                -2.489913955176629
            ]
        },
        {
            "positions": [
                1.973727835400437,
                -1.1449585914240212,
                -1.0667037782614597,
                0.8579952311989584,
                0.8463972131097325,
                -2.5880824240529448
            ]
        },
        {
            "positions": [
                2.0579121979272164,
                -1.1039332394042174,
                -0.9779694275358648,
                0.8118189949676445,
                0.8725092177625409,
                -2.6862508929292606
            ]
        },
        {
            "positions": [
                2.1420965604539957,
                -1.0629078873844138,
                -0.8892350768102695,
                0.7656427587363307,
                0.8986212224153491,
                -2.784419361805577
            ]
        },
        {
            "positions": [
                2.226280922980775,
                -1.0218825353646102,
                -0.8005007260846744,
                0.719466522505017,
                0.9247332270681575,
                -2.882587830681893
            ]
        },
        {
            "positions": [
                2.3104652855075543,
                -0.9808571833448063,
                -0.7117663753590793,
                0.6732902862737031,
                0.9508452317209659,
                -2.980756299558209
            ]
        },
        {
            "positions": [
                2.3369876967572782,
                -0.9835557603156243,
                -0.500451857768645,
                0.5519659906672971,
                0.9595165108586348,
                -2.991138863086433
            ]
        },
        {
            "positions": [
                2.3635101080070027,
                -0.9862543372864424,
                -0.2891373401782106,
                0.4306416950608911,
                0.9681877899963037,
                -3.001521426614657
            ]
        },
        {
            "positions": [
                2.390032519256727,
                -0.9889529142572604,
                -0.07782282258777617,
                0.3093173994544851,
                0.9768590691339726,
                -3.011903990142881
            ]
        },
        {
            "positions": [
                2.416554930506451,
                -0.9916514912280784,
                0.13349169500265812,
                0.1879931038480791,
                0.9855303482716414,
                -3.0222865536711048
            ]
        },
        {
            "positions": [
                2.443077341756175,
                -0.9943500681988965,
                0.34480621259309263,
                0.0666688082416731,
                0.9942016274093104,
                -3.0326691171993287
            ]
        },
        {
            "positions": [
                2.4695997530058995,
                -0.9970486451697145,
                0.5561207301835269,
                -0.05465548736473291,
                1.0028729065469792,
                -3.0430516807275527
            ]
        },
        {
            "positions": [
                2.496122164255624,
                -0.9997472221405325,
                0.7674352477739614,
                -0.17597978297113892,
                1.011544185684648,
                -3.0534342442557767
            ]
        },
        {
            "positions": [
                2.522644575505348,
                -1.0024457991113505,
                0.9787497653643955,
                -0.29730407857754493,
                1.020215464822317,
                -3.0638168077840007
            ]
        },
        {
            "positions": [
                2.549166986755072,
                -1.0051443760821686,
                1.19006428295483,
                -0.41862837418395094,
                1.028886743959986,
                -3.0741993713122246
            ]
        },
        {
            "positions": [
                2.5756893980047963,
                -1.0078429530529867,
                1.4013788005452645,
                -0.5399526697903569,
                1.0375580230976549,
                -3.0845819348404486
            ]
        },
        {
            "positions": [
                2.602211809254521,
                -1.0105415300238045,
                1.6126933181356988,
                -0.661276965396763,
                1.0462293022353237,
                -3.0949644983686726
            ]
        },
        {
            "positions": [
                2.6287342205042448,
                -1.0132401069946226,
                1.8240078357261333,
                -0.7826012610031688,
                1.0549005813729926,
                -3.1053470618968966
            ]
        }
    ]
}