{
    "goal": {
        "global_pose": {
            "orientation": {
                "w": 0.7031023480610252,
                "x": -0.7110244013736278,
                "y": 0.0077485991402295624,
                "z": 0.005598929693374583
            },
            "position": {
                "x": -0.8841497679147869,
                "y": 0.44412534475326537,
                "z": 0.3711530566215515
            }
        },
        "name": "move_to_auspresseinheit_D"
    },
    "id": "LazyPRMstar_move_to_auspresseinheit_D_112",
    "joint_names": [
        "shoulder_pan_joint",
        "shoulder_lift_joint",
        "elbow_joint",
        "wrist_1_joint",
        "wrist_2_joint",
        "wrist_3_joint"
    ],
    "metrics": {
        "cart_traj_len": 0.34412300694056674,
        "distance_elbow_joint": 0.6505232142784572,
        "distance_shoulder_lift_joint": 0.1271325472842446,
        "distance_shoulder_pan_joint": 0.1337818525656764,
        "distance_wrist_1_joint": 0.5713857664058208,
        "distance_wrist_2_joint": 1.432219912951094,
        "distance_wrist_3_joint": 0.027524214324384566,
        "smoothness": 2.8619082354648473e-15,
        "time": 5.0004148420000005,
        "traj_len": 1.7153913570406252,
        "weighted_distance": 2.2363411224174548
    },
    "planner": "LazyPRMstar",
    "start": {
        "state": {
            "elbow_joint": -1.8275523626775212,
            "shoulder_lift_joint": -2.126789852344167,
            "shoulder_pan_joint": -0.03513704404078235,
            "wrist_1_joint": -2.347782403156801,
            "wrist_2_joint": -1.6058999987535132,
            "wrist_3_joint": -3.0880379163319196
        }
    },
    "waypoints": [
        {
            "positions": [
                -0.03513704404078235,
                -2.126789852344167,
                -1.8275523626775212,
                -2.347782403156801,
                -1.6058999987535132,
                -3.0880379163319196
            ]
        },
        {
            "positions": [
                -0.051859775611491896,
                -2.1426814207546974,
                -1.746236960892714,
                -2.4192056239575286,
                -1.4268725096346264,
                -3.0845973895413716
            ]
        },
        {
            "positions": [
                -0.06858250718220145,
                -2.158572989165228,
                -1.664921559107907,
                -2.4906288447582563,
                -1.2478450205157396,
                -3.0811568627508237
            ]
        },
        {
            "positions": [
                -0.08530523875291099,
                -2.1744645575757584,
                -1.5836061573230997,
                -2.5620520655589836,
                -1.0688175313968529,
                -3.0777163359602753
            ]
        },
        {
            "positions": [
                -0.10202797032362054,
                -2.1903561259862894,
                -1.5022907555382927,
                -2.6334752863597113,
                -0.8897900422779662,
                -3.0742758091697273
            ]
        },
        {
            "positions": [
                -0.1187507018943301,
                -2.20624769439682,
                -1.4209753537534855,
                -2.704898507160439,
                -0.7107625531590794,
                -3.0708352823791794
            ]
        },
        {
            "positions": [
                -0.13547343346503965,
                -2.2221392628073504,
                -1.3396599519686783,
                -2.7763217279611663,
                -0.5317350640401928,
                -3.067394755588631
            ]
        },
        {
            "positions": [
                -0.1521961650357492,
                -2.238030831217881,
                -1.258344550183871,
                -2.847744948761894,
                -0.352707574921306,
                -3.063954228798083
            ]
        },
        {
            "positions": [
                -0.16891889660645876,
                -2.2539223996284115,
                -1.177029148399064,
                -2.9191681695626217,
                -0.17368008580241914,
                -3.060513702007535
            ]
        }
    ]
}