{
    "goal": {
        "global_pose": {
            "orientation": {
                "w": 0.005598929693374612,
                "x": 0.007748599140229565,
                "y": 0.7110244013736278,
                "z": -0.7031023480610252
            },
            "position": {
                "x": 0.1141497679147869,
                "y": -0.7141253447532654,
                "z": 0.3711530566215515
            }
        },
        "name": "move_to_auspresseinheit_B"
    },
    "id": "LazyPRM_move_to_auspresseinheit_B_91",
    "joint_names": [
        "shoulder_pan_joint",
        "shoulder_lift_joint",
        "elbow_joint",
        "wrist_1_joint",
        "wrist_2_joint",
        "wrist_3_joint"
    ],
    "metrics": {
        "cart_traj_len": 0.565575441172828,
        "distance_elbow_joint": 0.06545497142828771,
        "distance_shoulder_lift_joint": 0.29374647885838745,
        "distance_shoulder_pan_joint": 0.5786345142628331,
        "distance_wrist_1_joint": 0.33780990814648393,
        "distance_wrist_2_joint": 0.9923271311379971,
        "distance_wrist_3_joint": 0.009594556683250044,
        "smoothness": 3.806478935924272e-16,
        "time": 0.011902063,
        "traj_len": 1.50916121091063,
        "weighted_distance": 1.9044405249753062
    },
    "planner": "LazyPRM",
    "start": {
        "state": {
            "elbow_joint": 2.0193083361928714,
            "shoulder_lift_joint": -1.1220246554650708,
            "shoulder_pan_joint": -1.0952077554168747,
            "wrist_1_joint": -0.8559753972642168,
            "wrist_2_joint": 0.4759566250798843,
            "wrist_3_joint": -3.1240929996934557
        }
    },
    "waypoints": [
        {
            "positions": [
                -1.0952077554168747,
                -1.1220246554650708,
                2.0193083361928714,
                -0.8559753972642168,
                0.4759566250798843,
                -3.1240929996934557
            ]
        },
        {
            "positions": [
                -1.1916468411273469,
                -1.1709824019414687,
                2.0083991742881566,
                -0.7996737459064694,
                0.6413444802695505,
                -3.1256920924739973
            ]
        },
        {
            "positions": [
                -1.288085926837819,
                -1.2199401484178667,
                1.9974900123834423,
                -0.7433720945487221,
                0.8067323354592166,
                -3.127291185254539
            ]
        },
        {
            "positions": [
                -1.3845250125482913,
                -1.2688978948942644,
                1.9865808504787275,
                -0.6870704431909749,
                0.9721201906488828,
                -3.1288902780350805
            ]
        },
        {
            "positions": [
                -1.4809640982587633,
                -1.3178556413706624,
                1.9756716885740129,
                -0.6307687918332275,
                1.137508045838549,
                -3.1304893708156225
            ]
        },
        {
            "positions": [
                -1.5774031839692355,
                -1.3668133878470603,
                1.9647625266692983,
                -0.5744671404754802,
                1.3028959010282153,
                -3.132088463596164
            ]
        },
        {
            "positions": [
                -1.6738422696797077,
                -1.4157711343234582,
                1.9538533647645837,
                -0.5181654891177329,
                1.4682837562178814,
                -3.1336875563767057
            ]
        }
    ]
}