{
    "goal": {
        "global_pose": {
            "orientation": {
                "w": -0.4816463035849501,
                "x": 0.5182115481033762,
                "y": 0.4908360881923453,
                "z": -0.5084816262002911
            },
            "position": {
                "x": -0.8240239810943604,
                "y": -0.300875300988555,
                "z": 0.16403168439865112
            }
        },
        "name": "move_to_storage_C"
    },
    "id": "LazyPRMstar_move_to_storage_C_103",
    "joint_names": [
        "shoulder_pan_joint",
        "shoulder_lift_joint",
        "elbow_joint",
        "wrist_1_joint",
        "wrist_2_joint",
        "wrist_3_joint"
    ],
    "metrics": {
        "cart_traj_len": 0.5770070305929487,
        "distance_elbow_joint": 0.26062804558999075,
        "distance_shoulder_lift_joint": 0.18883166151871345,
        "distance_shoulder_pan_joint": 0.49367580962756197,
        "distance_wrist_1_joint": 0.085622411354222,
        "distance_wrist_2_joint": 1.0777162227830628,
        "distance_wrist_3_joint": 0.05926937696242529,
        "smoothness": 2.5376526478085547e-16,
        "time": 5.000458444,
        "traj_len": 1.4716465363109363,
        "weighted_distance": 1.8567770237425147
    },
    "planner": "LazyPRMstar",
    "start": {
        "state": {
            "elbow_joint": 2.010868314990456,
            "shoulder_lift_joint": -1.1634956873337592,
            "shoulder_pan_joint": -2.4736205022346125,
            "wrist_1_joint": -0.8367026794202681,
            "wrist_2_joint": 0.6746043897044499,
            "wrist_3_joint": -3.1496632123970403
        }
    },
    "waypoints": [
        {
            "positions": [
                -2.4736205022346125,
                -1.1634956873337592,
                2.010868314990456,
                -0.8367026794202681,
                0.6746043897044499,
                -3.1496632123970403
            ]
        },
        {
            "positions": [
                -2.555899803839206,
                -1.1320237437473069,
                1.967430307392124,
                -0.8224322775278978,
                0.8542237601682937,
                -3.139784982903303
            ]
        },
        {
            "positions": [
                -2.6381791054438,
                -1.1005518001608547,
                1.9239922997937922,
                -0.8081618756355274,
                1.0338431306321376,
                -3.129906753409565
            ]
        },
        {
            "positions": [
                -2.7204584070483935,
                -1.0690798565744024,
                1.8805542921954603,
                -0.793891473743157,
                1.2134625010959814,
                -3.1200285239158276
            ]
        },
        {
            "positions": [
                -2.802737708652987,
                -1.0376079129879503,
                1.8371162845971287,
                -0.7796210718507868,
                1.3930818715598252,
                -3.1101502944220902
            ]
        },
        {
            "positions": [
                -2.885017010257581,
                -1.006135969401498,
                1.793678276998797,
                -0.7653506699584165,
                1.572701242023669,
                -3.1002720649283524
            ]
        },
        {
            "positions": [
                -2.9672963118621745,
                -0.9746640258150457,
                1.750240269400465,
                -0.7510802680660461,
                1.7523206124875126,
                -3.090393835434615
            ]
        }
    ]
}