{
    "goal": {
        "global_pose": {
            "orientation": {
                "w": -0.4816463035849501,
                "x": 0.5182115481033762,
                "y": 0.4908360881923453,
                "z": -0.5084816262002911
            },
            "position": {
                "x": -0.8240239810943604,
                "y": 0.19912469901144506,
                "z": 0.16403168439865112
            }
        },
        "name": "move_to_storage_D"
    },
    "id": "LazyPRM_move_to_storage_D_30",
    "joint_names": [
        "shoulder_pan_joint",
        "shoulder_lift_joint",
        "elbow_joint",
        "wrist_1_joint",
        "wrist_2_joint",
        "wrist_3_joint"
    ],
    "metrics": {
        "cart_traj_len": 0.6856927680447278,
        "distance_elbow_joint": 0.5560775826427882,
        "distance_shoulder_lift_joint": 0.21806014187971812,
        "distance_shoulder_pan_joint": 0.48105423191215896,
        "distance_wrist_1_joint": 3.924087848253095,
        "distance_wrist_2_joint": 2.0611486428272903,
        "distance_wrist_3_joint": 3.129567710962328,
        "smoothness": 0.25079405177028263,
        "time": 0.12592836000000002,
        "traj_len": 3.220247841157165,
        "weighted_distance": 4.755456662769876
    },
    "planner": "LazyPRM",
    "start": {
        "state": {
            "elbow_joint": -2.384821988534728,
            "shoulder_lift_joint": -2.2788054721415256,
            "shoulder_pan_joint": -0.1854694642142757,
            "wrist_1_joint": 1.4845938289331202,
            "wrist_2_joint": 0.17898776772866878,
            "wrist_3_joint": 0.037105688729662994
        }
    },
    "waypoints": [
        {
            "positions": [
                -0.1854694642142757,
                -2.2788054721415256,
                -2.384821988534728,
                1.4845938289331202,
                0.17898776772866878,
                0.037105688729662994
            ]
        },
        {
            "positions": [
                -0.08006375882254568,
                -2.289976206980237,
                -2.2242408627744874,
                1.5013357969468222,
                0.2266452140490554,
                0.0180994093230043
            ]
        },
        {
            "positions": [
                0.025341946569184343,
                -2.301146941818949,
                -2.063659737014247,
                1.518077764960524,
                0.27430266036944206,
                -0.000906870083654393
            ]
        },
        {
            "positions": [
                0.13074765196091442,
                -2.3123176766576607,
                -1.9030786112540063,
                1.534819732974226,
                0.3219601066898287,
                -0.01991314949031309
            ]
        },
        {
            "positions": [
                0.12387943880520738,
                -2.3046281792675116,
                -1.8999813526972535,
                1.3734088186320597,
                0.24203609402873996,
                -0.14793601918791105
            ]
        },
        {
            "positions": [
                0.11701122564950035,
                -2.296938681877362,
                -1.8968840941405007,
                1.2119979042898934,
                0.1621120813676512,
                -0.275958888885509
            ]
        },
        {
            "positions": [
                0.11014301249379332,
                -2.289249184487213,
                -1.893786835583748,
                1.0505869899477274,
                0.08218806870656245,
                -0.40398175858310703
            ]
        },
        {
            "positions": [
                0.10327479933808628,
                -2.2815596870970634,
                -1.8906895770269951,
                0.8891760756055611,
                0.0022640560454736947,
                -0.5320046282807049
            ]
        },
        {
            "positions": [
                0.09640658618237924,
                -2.2738701897069142,
                -1.8875923184702426,
                0.7277651612633947,
                -0.07765995661561509,
                -0.6600274979783031
            ]
        },
        {
            "positions": [
                0.08953837302667221,
                -2.266180692316765,
                -1.8844950599134898,
                0.5663542469212286,
                -0.15758396927670382,
                -0.788050367675901
            ]
        },
        {
            "positions": [
                0.08267015987096518,
                -2.2584911949266155,
                -1.881397801356737,
                0.40494333257906234,
                -0.2375079819377926,
                -0.916073237373499
            ]
        },
        {
            "positions": [
                0.07580194671525814,
                -2.2508016975364664,
                -1.8783005427999842,
                0.2435324182368963,
                -0.31743199459888133,
                -1.0440961070710968
            ]
        },
        {
            "positions": [
                0.0689337335595511,
                -2.2431122001463173,
                -1.8752032842432313,
                0.08212150389472983,
                -0.39735600725997006,
                -1.1721189767686948
            ]
        },
        {
            "positions": [
                0.06206552040384407,
                -2.2354227027561677,
                -1.8721060256864785,
                -0.07928941044743643,
                -0.4772800199210589,
                -1.300141846466293
            ]
        },
        {
            "positions": [
                0.05519730724813704,
                -2.2277332053660186,
                -1.8690087671297257,
                -0.24070032478960246,
                -0.5572040325821475,
                -1.4281647161638908
            ]
        },
        {
            "positions": [
                0.04832909409243,
                -2.2200437079758695,
                -1.8659115085729732,
                -0.4021112391317687,
                -0.6371280452432364,
                -1.5561875858614889
            ]
        },
        {
            "positions": [
                0.04146088093672297,
                -2.21235421058572,
                -1.8628142500162204,
                -0.5635221534739348,
                -0.7170520579043249,
                -1.6842104555590867
            ]
        },
        {
            "positions": [
                0.034592667781015926,
                -2.204664713195571,
                -1.8597169914594676,
                -0.7249330678161012,
                -0.7969760705654139,
                -1.812233325256685
            ]
        },
        {
            "positions": [
                0.027724454625308897,
                -2.196975215805421,
                -1.8566197329027148,
                -0.8863439821582673,
                -0.8769000832265026,
                -1.940256194954283
            ]
        },
        {
            "positions": [
                0.020856241469601855,
                -2.189285718415272,
                -1.853522474345962,
                -1.0477548965004333,
                -0.9568240958875913,
                -2.0682790646518807
            ]
        },
        {
            "positions": [
                0.013988028313894812,
                -2.181596221025123,
                -1.8504252157892092,
                -1.2091658108425998,
                -1.03674810854868,
                -2.196301934349479
            ]
        },
        {
            "positions": [
                0.007119815158187784,
                -2.1739067236349734,
                -1.8473279572324564,
                -1.3705767251847663,
                -1.1166721212097688,
                -2.3243248040470768
            ]
        },
        {
            "positions": [
                0.00025160200248075526,
                -2.1662172262448243,
                -1.8442306986757036,
                -1.5319876395269323,
                -1.1965961338708575,
                -2.4523476737446748
            ]
        },
        {
            "positions": [
                -0.006616611153226287,
                -2.1585277288546747,
                -1.8411334401189507,
                -1.6933985538690988,
                -1.2765201465319465,
                -2.5803705434422732
            ]
        },
        {
            "positions": [
                -0.01348482430893333,
                -2.1508382314645256,
                -1.8380361815621982,
                -1.8548094682112648,
                -1.3564441591930352,
                -2.708393413139871
            ]
        },
        {
            "positions": [
                -0.020353037464640344,
                -2.1431487340743764,
                -1.8349389230054454,
                -2.016220382553431,
                -1.4363681718541237,
                -2.836416282837469
            ]
        },
        {
            "positions": [
                -0.027221250620347387,
                -2.135459236684227,
                -1.8318416644486926,
                -2.1776312968955973,
                -1.5162921845152126,
                -2.964439152535067
            ]
        },
        {
            "positions": [
                -0.03408946377605442,
                -2.1277697392940778,
                -1.8287444058919398,
                -2.3390422112377633,
                -1.5962161971763014,
                -3.092462022232665
            ]
        }
    ]
}