{
    "goal": {
        "global_pose": {
            "orientation": {
                "w": 0.7047431468963623,
                "x": -0.7094548344612122,
                "y": 0.0024358443915843964,
                "z": -0.0022348060738295317
            },
            "position": {
                "x": 0.6094750761985779,
                "y": 0.3671506643295288,
                "z": 0.19426114857196808
            }
        },
        "name": "move_to_magneteinheit_A"
    },
    "id": "LazyPRMstar_move_to_magneteinheit_A_5",
    "joint_names": [
        "shoulder_pan_joint",
        "shoulder_lift_joint",
        "elbow_joint",
        "wrist_1_joint",
        "wrist_2_joint",
        "wrist_3_joint"
    ],
    "metrics": {
        "cart_traj_len": 3.0616963914482835,
        "distance_elbow_joint": 4.273295378466356,
        "distance_shoulder_lift_joint": 0.4641225764384226,
        "distance_shoulder_pan_joint": 2.69033870038666,
        "distance_wrist_1_joint": 3.504870702403603,
        "distance_wrist_2_joint": 1.4402938381379427,
        "distance_wrist_3_joint": 0.5424367933522823,
        "smoothness": 0.13807239979684735,
        "time": 5.0326742300000005,
        "traj_len": 3.5937943721344525,
        "weighted_distance": 4.352630941905295
    },
    "planner": "LazyPRMstar",
    "start": {
        "state": {
            "elbow_joint": -1.9196185241190666,
            "shoulder_lift_joint": -1.2443396400964142,
            "shoulder_pan_joint": 2.6996025414629847,
            "wrist_1_joint": -1.5485510000780065,
            "wrist_2_joint": -1.5709468930060704,
            "wrist_3_joint": 0.4420197071253992
        }
    },
    "waypoints": [
        {
            "positions": [
                2.6996025414629847,
                -1.2443396400964142,
                -1.9196185241190666,
                -1.5485510000780065,
                -1.5709468930060704,
                0.4420197071253992
            ]
        },
        {
            "positions": [
                2.5867385096319726,
                -1.2319407004413305,
                -1.7883396452745042,
                -1.4438372844764789,
                -1.551221272216212,
                0.44333818804139213
            ]
        },
        {
            "positions": [
                2.4738744778009605,
                -1.2195417607862469,
                -1.657060766429942,
                -1.3391235688749512,
                -1.5314956514263536,
                0.44465666895738504
            ]
        },
        {
            "positions": [
                2.3610104459699484,
                -1.2071428211311632,
                -1.5257818875853795,
                -1.2344098532734236,
                -1.5117700306364952,
                0.445975149873378
            ]
        },
        {
            "positions": [
                2.248146414138936,
                -1.1947438814760796,
                -1.3945030087408172,
                -1.129696137671896,
                -1.4920444098466368,
                0.44729363078937096
            ]
        },
        {
            "positions": [
                2.1352823823079237,
                -1.182344941820996,
                -1.2632241298962548,
                -1.0249824220703683,
                -1.4723187890567784,
                0.44861211170536386
            ]
        },
        {
            "positions": [
                2.0224183504769115,
                -1.169946002165912,
                -1.1319452510516923,
                -0.9202687064688406,
                -1.45259316826692,
                0.4499305926213568
            ]
        },
        {
            "positions": [
                1.9095543186458994,
                -1.1575470625108284,
                -1.00066637220713,
                -0.815554990867313,
                -1.4328675474770616,
                0.4512490735373498
            ]
        },
        {
            "positions": [
                1.7966902868148873,
                -1.1451481228557447,
                -0.8693874933625676,
                -0.7108412752657853,
                -1.4131419266872032,
                0.45256755445334274
            ]
        },
        {
            "positions": [
                1.683826254983875,
                -1.132749183200661,
                -0.7381086145180051,
                -0.6061275596642577,
                -1.3934163058973448,
                0.45388603536933564
            ]
        },
        {
            "positions": [
                1.5709622231528628,
                -1.1203502435455774,
                -0.6068297356734429,
                -0.50141384406273,
                -1.3736906851074866,
                0.4552045162853286
            ]
        },
        {
            "positions": [
                1.4580981913218505,
                -1.1079513038904938,
                -0.47555085682888043,
                -0.3967001284612024,
                -1.3539650643176282,
                0.45652299720132156
            ]
        },
        {
            "positions": [
                1.3452341594908386,
                -1.0955523642354101,
                -0.3442719779843182,
                -0.29198641285967475,
                -1.3342394435277698,
                0.45784147811731446
            ]
        },
        {
            "positions": [
                1.2323701276598262,
                -1.0831534245803265,
                -0.21299309913975573,
                -0.1872726972581471,
                -1.3145138227379114,
                0.4591599590333074
            ]
        },
        {
            "positions": [
                1.119506095828814,
                -1.0707544849252428,
                -0.08171422029519348,
                -0.08255898165661946,
                -1.294788201948053,
                0.4604784399493004
            ]
        },
        {
            "positions": [
                1.006642063997802,
                -1.058355545270159,
                0.04956465854936898,
                0.02215473394490819,
                -1.2750625811581946,
                0.46179692086529334
            ]
        },
        {
            "positions": [
                0.8937780321667896,
                -1.0459566056150753,
                0.18084353739393144,
                0.12686844954643584,
                -1.2553369603683362,
                0.46311540178128624
            ]
        },
        {
            "positions": [
                0.7809140003357775,
                -1.0335576659599917,
                0.31212241623849346,
                0.23158216514796348,
                -1.2356113395784778,
                0.4644338826972792
            ]
        },
        {
            "positions": [
                0.6680499685047652,
                -1.021158726304908,
                0.44340129508305637,
                0.3362958807494911,
                -1.2158857187886194,
                0.46575236361327216
            ]
        },
        {
            "positions": [
                0.555185936673753,
                -1.0087597866498244,
                0.5746801739276184,
                0.4410095963510188,
                -1.196160097998761,
                0.46707084452926506
            ]
        },
        {
            "positions": [
                0.442321904842741,
                -0.9963608469947407,
                0.7059590527721811,
                0.5457233119525464,
                -1.1764344772089026,
                0.468389325445258
            ]
        },
        {
            "positions": [
                0.3764471248491438,
                -0.9919227636406396,
                0.905217944772874,
                0.6141113949164865,
                -1.1447689796370888,
                0.476844391420256
            ]
        },
        {
            "positions": [
                0.3287951271157436,
                -0.984218724547961,
                1.0704687111215347,
                0.6897119544210274,
                -1.1024465423128844,
                0.4741304329530094
            ]
        },
        {
            "positions": [
                0.2811431293823434,
                -0.9765146854552824,
                1.2357194774701956,
                0.7653125139255683,
                -1.06012410498868,
                0.4714164744857628
            ]
        },
        {
            "positions": [
                0.2334911316489433,
                -0.9688106463626038,
                1.4009702438188563,
                0.8409130734301092,
                -1.0178016676644754,
                0.4687025160185162
            ]
        },
        {
            "positions": [
                0.18583913391554313,
                -0.9611066072699253,
                1.5662210101675171,
                0.9165136329346502,
                -0.9754792303402711,
                0.4659885575512696
            ]
        },
        {
            "positions": [
                0.16187670644914942,
                -0.94970989968907,
                1.675575821171136,
                0.9974582871791507,
                -0.920888683007429,
                0.44738066035341034
            ]
        },
        {
            "positions": [
                0.13791427898275568,
                -0.9383131921082148,
                1.784930632174755,
                1.0784029414236513,
                -0.8662981356745868,
                0.428772763155551
            ]
        },
        {
            "positions": [
                0.11395185151636196,
                -0.9269164845273596,
                1.8942854431783738,
                1.159347595668152,
                -0.8117075883417446,
                0.41016486595769175
            ]
        },
        {
            "positions": [
                0.08998942404996824,
                -0.9155197769465044,
                2.0036402541819927,
                1.2402922499126525,
                -0.7571170410089025,
                0.3915569687598325
            ]
        },
        {
            "positions": [
                0.08411311688782942,
                -0.8960777954524259,
                2.0472894073758665,
                1.3514331313758765,
                -0.6663697836002804,
                0.33765809437701855
            ]
        },
        {
            "positions": [
                0.07823680972569061,
                -0.8766358139583474,
                2.0909385605697404,
                1.4625740128391005,
                -0.5756225261916583,
                0.2837592199942046
            ]
        },
        {
            "positions": [
                0.07236050256355178,
                -0.857193832464269,
                2.134587713763614,
                1.5737148943023245,
                -0.4848752687830363,
                0.22986034561139065
            ]
        },
        {
            "positions": [
                0.06648419540141297,
                -0.8377518509701904,
                2.1782368669574876,
                1.6848557757655485,
                -0.39412801137441417,
                0.17596147122857672
            ]
        },
        {
            "positions": [
                0.08555764684310918,
                -0.8185735885327908,
                2.1197568711608867,
                1.775343751285564,
                -0.30630302587231867,
                0.10705174160666131
            ]
        },
        {
            "positions": [
                0.10463109828480541,
                -0.7993953260953912,
                2.0612768753642863,
                1.86583172680558,
                -0.21847804037022317,
                0.0381420119847459
            ]
        },
        {
            "positions": [
                0.12370454972650162,
                -0.7802170636579916,
                2.0027968795676854,
                1.9563197023255956,
                -0.1306530548681277,
                -0.030767717637169522
            ]
        }
    ]
}