{
    "goal": {
        "global_pose": {
            "orientation": {
                "w": 0.5084816262002911,
                "x": -0.4908360881923452,
                "y": 0.5182115481033761,
                "z": -0.48164630358495003
            },
            "position": {
                "x": 0.5540239810943604,
                "y": -0.46912469901144505,
                "z": 0.16403168439865112
            }
        },
        "name": "move_to_storage_B"
    },
    "id": "LazyPRMstar_move_to_storage_B_114",
    "joint_names": [
        "shoulder_pan_joint",
        "shoulder_lift_joint",
        "elbow_joint",
        "wrist_1_joint",
        "wrist_2_joint",
        "wrist_3_joint"
    ],
    "metrics": {
        "cart_traj_len": 1.4089418685862976,
        "distance_elbow_joint": 0.9162458832252445,
        "distance_shoulder_lift_joint": 0.4602261056637236,
        "distance_shoulder_pan_joint": 1.055177227501778,
        "distance_wrist_1_joint": 2.9908957775185256,
        "distance_wrist_2_joint": 2.7057779531894903,
        "distance_wrist_3_joint": 3.1461206238973864,
        "smoothness": 0.16381474766324483,
        "time": 5.0280803590000005,
        "traj_len": 3.3577438215260185,
        "weighted_distance": 4.823210398634808
    },
    "planner": "LazyPRMstar",
    "start": {
        "state": {
            "elbow_joint": 1.664937868594044,
            "shoulder_lift_joint": -0.661644460510453,
            "shoulder_pan_joint": -0.9139846352900073,
            "wrist_1_joint": 2.146753192139373,
            "wrist_2_joint": -2.2341966793290973,
            "wrist_3_joint": 0.005466555786416001
        }
    },
    "waypoints": [
        {
            "positions": [
                -0.9139846352900073,
                -0.661644460510453,
                1.664937868594044,
                2.146753192139373,
                -2.2341966793290973,
                0.005466555786416001
            ]
        },
        {
            "positions": [
                -0.8947768566636497,
                -0.6677242002207178,
                1.6541200157082843,
                2.145759592169189,
                -2.200836826283981,
                0.023527129668039853
            ]
        },
        {
            "positions": [
                -0.8530851402891811,
                -0.7114144757879113,
                1.6269885463255296,
                2.0560244582678497,
                -2.096673163929553,
                0.10570405416298087
            ]
        },
        {
            "positions": [
                -0.8113934239147125,
                -0.7551047513551049,
                1.599857076942775,
                1.9662893243665105,
                -1.9925095015751253,
                0.1878809786579219
            ]
        },
        {
            "positions": [
                -0.7697017075402439,
                -0.7987950269222984,
                1.5727256075600202,
                1.8765541904651712,
                -1.8883458392206973,
                0.27005790315286293
            ]
        },
        {
            "positions": [
                -0.7280099911657754,
                -0.842485302489492,
                1.5455941381772655,
                1.7868190565638318,
                -1.7841821768662696,
                0.3522348276478039
            ]
        },
        {
            "positions": [
                -0.6863182747913068,
                -0.8861755780566856,
                1.5184626687945109,
                1.6970839226624925,
                -1.6800185145118416,
                0.43441175214274497
            ]
        },
        {
            "positions": [
                -0.6446265584168382,
                -0.9298658536238791,
                1.491331199411756,
                1.6073487887611533,
                -1.5758548521574136,
                0.5165886766376859
            ]
        },
        {
            "positions": [
                -0.6029348420423697,
                -0.9735561291910726,
                1.4641997300290013,
                1.5176136548598138,
                -1.4716911898029859,
                0.5987656011326269
            ]
        },
        {
            "positions": [
                -0.561243125667901,
                -1.0172464047582663,
                1.4370682606462466,
                1.4278785209584743,
                -1.3675275274485579,
                0.680942525627568
            ]
        },
        {
            "positions": [
                -0.5195514092934325,
                -1.0609366803254598,
                1.409936791263492,
                1.3381433870571353,
                -1.2633638650941301,
                0.763119450122509
            ]
        },
        {
            "positions": [
                -0.4778596929189639,
                -1.1046269558926534,
                1.3828053218807372,
                1.2484082531557958,
                -1.1592002027397021,
                0.84529637461745
            ]
        },
        {
            "positions": [
                -0.510441392136371,
                -1.105534514328523,
                1.4161797080129446,
                1.1382739984960617,
                -1.0733695987081182,
                0.9666801011998896
            ]
        },
        {
            "positions": [
                -0.543023091353778,
                -1.1064420727643927,
                1.4495540941451517,
                1.0281397438363276,
                -0.9875389946765342,
                1.0880638277823294
            ]
        },
        {
            "positions": [
                -0.5756047905711851,
                -1.1073496312002622,
                1.482928480277359,
                0.9180054891765934,
                -0.9017083906449501,
                1.209447554364769
            ]
        },
        {
            "positions": [
                -0.6081864897885922,
                -1.108257189636132,
                1.5163028664095664,
                0.8078712345168593,
                -0.8158777866133662,
                1.3308312809472085
            ]
        },
        {
            "positions": [
                -0.6407681890059993,
                -1.1091647480720015,
                1.5496772525417735,
                0.697736979857125,
                -0.7300471825817821,
                1.452215007529648
            ]
        },
        {
            "positions": [
                -0.6733498882234064,
                -1.1100723065078713,
                1.5830516386739808,
                0.5876027251973909,
                -0.6442165785501981,
                1.5735987341120876
            ]
        },
        {
            "positions": [
                -0.7059315874408134,
                -1.1109798649437408,
                1.616426024806188,
                0.47746847053765673,
                -0.5583859745186142,
                1.6949824606945274
            ]
        },
        {
            "positions": [
                -0.7385132866582205,
                -1.1118874233796106,
                1.6498004109383952,
                0.3673342158779226,
                -0.4725553704870301,
                1.816366187276967
            ]
        },
        {
            "positions": [
                -0.7710949858756275,
                -1.11279498181548,
                1.6831747970706026,
                0.25719996121818844,
                -0.3867247664554462,
                1.9377499138594065
            ]
        },
        {
            "positions": [
                -0.8036766850930346,
                -1.1137025402513498,
                1.7165491832028097,
                0.1470657065584542,
                -0.30089416242386213,
                2.0591336404418463
            ]
        },
        {
            "positions": [
                -0.8362583843104417,
                -1.1146100986872194,
                1.749923569335017,
                0.03693145189872005,
                -0.2150635583922781,
                2.1805173670242857
            ]
        },
        {
            "positions": [
                -0.8688400835278487,
                -1.1155176571230891,
                1.7832979554672241,
                -0.0732028027610141,
                -0.12923295436069404,
                2.3019010936067255
            ]
        },
        {
            "positions": [
                -0.9014217827452559,
                -1.1164252155589587,
                1.8166723415994315,
                -0.18333705742074846,
                -0.043402350329110106,
                2.4232848201891652
            ]
        },
        {
            "positions": [
                -0.9340034819626629,
                -1.1173327739948284,
                1.8500467277316388,
                -0.2934713120804824,
                0.04242825370247383,
                2.5446685467716046
            ]
        },
        {
            "positions": [
                -0.9665851811800701,
                -1.118240332430698,
                1.8834211138638461,
                -0.40360556674021675,
                0.12825885773405798,
                2.6660522733540444
            ]
        },
        {
            "positions": [
                -0.999166880397477,
                -1.1191478908665677,
                1.9167954999960533,
                -0.5137398213999507,
                0.21408946176564192,
                2.787435999936484
            ]
        },
        {
            "positions": [
                -1.0317485796148842,
                -1.1200554493024373,
                1.9501698861282606,
                -0.623874076059685,
                0.29992006579722585,
                2.9088197265189235
            ]
        },
        {
            "positions": [
                -1.0643302788322913,
                -1.120963007738307,
                1.9835442722604677,
                -0.734008330719419,
                0.3857506698288098,
                3.030203453101363
            ]
        },
        {
            "positions": [
                -1.0969119780496983,
                -1.1218705661741766,
                2.016918658392675,
                -0.8441425853791532,
                0.4715812738603939,
                3.1515871796838026
            ]
        }
    ]
}