{
    "goal": {
        "global_pose": {
            "orientation": {
                "w": 0.7031023502349854,
                "x": -0.7110244035720825,
                "y": 0.007748599164187908,
                "z": 0.005598929710686207
            },
            "position": {
                "x": 0.11585023208521307,
                "y": 0.44412534475326537,
                "z": 0.3711530566215515
            }
        },
        "name": "move_to_auspresseinheit_A"
    },
    "id": "LazyPRM_move_to_auspresseinheit_A_26",
    "joint_names": [
        "shoulder_pan_joint",
        "shoulder_lift_joint",
        "elbow_joint",
        "wrist_1_joint",
        "wrist_2_joint",
        "wrist_3_joint"
    ],
    "metrics": {
        "cart_traj_len": 0.774466057260042,
        "distance_elbow_joint": 0.201341753190325,
        "distance_shoulder_lift_joint": 0.5615750381206646,
        "distance_shoulder_pan_joint": 1.298480781304837,
        "distance_wrist_1_joint": 0.6382600110689411,
        "distance_wrist_2_joint": 0.5345849456729278,
        "distance_wrist_3_joint": 0.0416390003638325,
        "smoothness": 1.2039119642961986,
        "time": 0.063336959,
        "traj_len": 1.8099396480881698,
        "weighted_distance": 2.128850508417879
    },
    "planner": "LazyPRM",
    "start": {
        "state": {
            "elbow_joint": 2.4225746658250005,
            "shoulder_lift_joint": -1.3736534386056498,
            "shoulder_pan_joint": -0.3378633547517467,
            "wrist_1_joint": -1.0288598680537169,
            "wrist_2_joint": 1.233022673432363,
            "wrist_3_joint": -3.0940220416140027
        }
    },
    "waypoints": [
        {
            "positions": [
                -0.3378633547517467,
                -1.3736534386056498,
                2.4225746658250005,
                -1.0288598680537169,
                1.233022673432363,
                -3.0940220416140027
            ]
        },
        {
            "positions": [
                -0.4019687809017791,
                -1.5226442071527555,
                2.4667500617659894,
                -1.0517616199030275,
                1.1877743616577852,
                -3.0896719060568225
            ]
        },
        {
            "positions": [
                -0.4660742070518116,
                -1.6716349756998614,
                2.5109254577069784,
                -1.0746633717523384,
                1.1425260498832075,
                -3.085321770499642
            ]
        },
        {
            "positions": [
                -0.3048929960640292,
                -1.707525075445605,
                2.4960433904339037,
                -0.992783563077343,
                1.0801662927153073,
                -3.089953960345339
            ]
        },
        {
            "positions": [
                -0.14371178507624682,
                -1.743415175191349,
                2.481161323160829,
                -0.9109037544023475,
                1.017806535547407,
                -3.0945861501910366
            ]
        },
        {
            "positions": [
                0.017469425911535552,
                -1.7793052749370926,
                2.466279255887754,
                -0.829023945727352,
                0.9554467783795069,
                -3.099218340036734
            ]
        },
        {
            "positions": [
                0.17865063689931793,
                -1.8151953746828362,
                2.45139718861468,
                -0.7471441370523566,
                0.8930870212116067,
                -3.1038505298824313
            ]
        },
        {
            "positions": [
                0.3398318478871003,
                -1.8510854744285798,
                2.436515121341605,
                -0.6652643283773612,
                0.8307272640437064,
                -3.1084827197281286
            ]
        },
        {
            "positions": [
                0.5010130588748827,
                -1.8869755741743237,
                2.4216330540685305,
                -0.5833845197023657,
                0.7683675068758062,
                -3.113114909573826
            ]
        },
        {
            "positions": [
                0.6621942698626649,
                -1.9228656739200674,
                2.4067509867954557,
                -0.5015047110273703,
                0.706007749707906,
                -3.1177470994195233
            ]
        },
        {
            "positions": [
                0.7041957219529602,
                -1.9105028711138203,
                2.3979344963986313,
                -0.4822068643820187,
                0.6984377277594352,
                -3.1182604997491135
            ]
        }
    ]
}