{
    "goal": {
        "global_pose": {
            "orientation": {
                "w": 0.005598929693374612,
                "x": 0.007748599140229565,
                "y": 0.7110244013736278,
                "z": -0.7031023480610252
            },
            "position": {
                "x": -0.8858502320852131,
                "y": -0.7141253447532654,
                "z": 0.3711530566215515
            }
        },
        "name": "move_to_auspresseinheit_C"
    },
    "id": "LazyPRMstar_move_to_auspresseinheit_C_133",
    "joint_names": [
        "shoulder_pan_joint",
        "shoulder_lift_joint",
        "elbow_joint",
        "wrist_1_joint",
        "wrist_2_joint",
        "wrist_3_joint"
    ],
    "metrics": {
        "cart_traj_len": 0.493732795915112,
        "distance_elbow_joint": 1.0122721971021091,
        "distance_shoulder_lift_joint": 0.33067643823280823,
        "distance_shoulder_pan_joint": 0.2565210834086291,
        "distance_wrist_1_joint": 0.7078157703366735,
        "distance_wrist_2_joint": 1.3119086087382057,
        "distance_wrist_3_joint": 0.08314890850402312,
        "smoothness": 3.2297397080004555e-16,
        "time": 5.000331783,
        "traj_len": 1.924147345273342,
        "weighted_distance": 2.426595393221823
    },
    "planner": "LazyPRMstar",
    "start": {
        "state": {
            "elbow_joint": 1.7527959577737207,
            "shoulder_lift_joint": -0.9740617694225068,
            "shoulder_pan_joint": -2.967991417825858,
            "wrist_1_joint": -0.759517768980727,
            "wrist_2_joint": 1.7443932448377408,
            "wrist_3_joint": -3.0840537646736568
        }
    },
    "waypoints": [
        {
            "positions": [
                -2.967991417825858,
                -0.9740617694225068,
                1.7527959577737207,
                -0.759517768980727,
                1.7443932448377408,
                -3.0840537646736568
            ]
        },
        {
            "positions": [
                -2.942339309484995,
                -0.9409941255992259,
                1.6515687380635098,
                -0.6887361919470596,
                1.6132023839639202,
                -3.092368655524059
            ]
        },
        {
            "positions": [
                -2.916687201144132,
                -0.9079264817759451,
                1.550341518353299,
                -0.6179546149133923,
                1.4820115230900996,
                -3.1006835463744613
            ]
        },
        {
            "positions": [
                -2.891035092803269,
                -0.8748588379526643,
                1.4491142986430878,
                -0.5471730378797249,
                1.350820662216279,
                -3.1089984372248636
            ]
        },
        {
            "positions": [
                -2.865382984462406,
                -0.8417911941293834,
                1.347887078932877,
                -0.47639146084605755,
                1.2196298013424585,
                -3.117313328075266
            ]
        },
        {
            "positions": [
                -2.8397308761215436,
                -0.8087235503061027,
                1.246659859222666,
                -0.4056098838123902,
                1.088438940468638,
                -3.1256282189256686
            ]
        },
        {
            "positions": [
                -2.8140787677806807,
                -0.7756559064828219,
                1.1454326395124552,
                -0.3348283067787229,
                0.9572480795948174,
                -3.133943109776071
            ]
        },
        {
            "positions": [
                -2.7884266594398177,
                -0.742588262659541,
                1.0442054198022444,
                -0.26404672974505555,
                0.8260572187209969,
                -3.142258000626473
            ]
        },
        {
            "positions": [
                -2.7627745510989548,
                -0.7095206188362602,
                0.9429782000920333,
                -0.1932651527113881,
                0.6948663578471763,
                -3.1505728914768754
            ]
        },
        {
            "positions": [
                -2.737122442758092,
                -0.6764529750129793,
                0.8417509803818224,
                -0.12248357567772084,
                0.5636754969733557,
                -3.1588877823272776
            ]
        },
        {
            "positions": [
                -2.711470334417229,
                -0.6433853311896985,
                0.7405237606716116,
                -0.05170199864405344,
                0.43248463609953514,
                -3.16720267317768
            ]
        }
    ]
}