{
    "goal": {
        "global_pose": {
            "orientation": {
                "w": 0.5084816217422485,
                "x": -0.49083608388900757,
                "y": 0.5182115435600281,
                "z": -0.4816462993621826
            },
            "position": {
                "x": 0.5540239810943604,
                "y": 0.030875300988554955,
                "z": 0.16403168439865112
            }
        },
        "name": "move_to_storage_A"
    },
    "id": "LazyPRM_move_to_storage_A_43",
    "joint_names": [
        "shoulder_pan_joint",
        "shoulder_lift_joint",
        "elbow_joint",
        "wrist_1_joint",
        "wrist_2_joint",
        "wrist_3_joint"
    ],
    "metrics": {
        "cart_traj_len": 0.35278629787709587,
        "distance_elbow_joint": 0.45202189804331705,
        "distance_shoulder_lift_joint": 0.2334815233177061,
        "distance_shoulder_pan_joint": 0.4629096552566366,
        "distance_wrist_1_joint": 0.25028830254173495,
        "distance_wrist_2_joint": 1.0913971097552322,
        "distance_wrist_3_joint": 0.09574724517148647,
        "smoothness": 6.661338165333112e-16,
        "time": 0.021806967,
        "traj_len": 1.6080565083622258,
        "weighted_distance": 2.0295382816606473
    },
    "planner": "LazyPRM",
    "start": {
        "state": {
            "elbow_joint": 1.971548259319323,
            "shoulder_lift_joint": -1.1394851275133948,
            "shoulder_pan_joint": 0.1228115487234821,
            "wrist_1_joint": -0.7804723859257726,
            "wrist_2_joint": 0.12958671773740124,
            "wrist_3_joint": -3.192489227718131
        }
    },
    "waypoints": [
        {
            "positions": [
                0.1228115487234821,
                -1.1394851275133948,
                1.971548259319323,
                -0.7804723859257726,
                0.12958671773740124,
                -3.192489227718131
            ]
        },
        {
            "positions": [
                0.056681597972534026,
                -1.1728396308444957,
                2.036122816182654,
                -0.816227857717449,
                0.28550059055957727,
                -3.17881104983649
            ]
        },
        {
            "positions": [
                -0.009448352778414049,
                -1.2061941341755966,
                2.100697373045985,
                -0.8519833295091255,
                0.4414144633817533,
                -3.1651328719548495
            ]
        },
        {
            "positions": [
                -0.07557830352936212,
                -1.2395486375066975,
                2.165271929909316,
                -0.8877388013008018,
                0.5973283362039293,
                -3.1514546940732084
            ]
        },
        {
            "positions": [
                -0.1417082542803102,
                -1.2729031408377982,
                2.229846486772647,
                -0.9234942730924783,
                0.7532422090261054,
                -3.1377765161915674
            ]
        },
        {
            "positions": [
                -0.20783820503125833,
                -1.3062576441688991,
                2.294421043635978,
                -0.9592497448841547,
                0.9091560818482814,
                -3.1240983383099263
            ]
        },
        {
            "positions": [
                -0.27396815578220635,
                -1.3396121475,
                2.358995600499309,
                -0.9950052166758312,
                1.0650699546704574,
                -3.1104201604282857
            ]
        },
        {
            "positions": [
                -0.3400981065331545,
                -1.372966650831101,
                2.42357015736264,
                -1.0307606884675076,
                1.2209838274926335,
                -3.0967419825466447
            ]
        }
    ]
}{
    "goal": {
        "global_pose": {
            "orientation": {
                "w": 0.5084816217422485,
                "x": -0.49083608388900757,
                "y": 0.5182115435600281,
                "z": -0.4816462993621826
            },
            "position": {
                "x": 0.5540239810943604,
                "y": 0.030875300988554955,
                "z": 0.16403168439865112
            }
        },
        "name": "move_to_storage_A"
    },
    "id": "LazyPRM_move_to_storage_A_43",
    "joint_names": [
        "shoulder_pan_joint",
        "shoulder_lift_joint",
        "elbow_joint",
        "wrist_1_joint",
        "wrist_2_joint",
        "wrist_3_joint"
    ],
    "metrics": {
        "cart_traj_len": 0.35359958709125655,
        "distance_elbow_joint": 0.4482116458833385,
        "distance_shoulder_lift_joint": 0.23351063438681474,
        "distance_shoulder_pan_joint": 0.4609635928013446,
        "distance_wrist_1_joint": 0.23942299827631564,
        "distance_wrist_2_joint": 1.105035820212942,
        "distance_wrist_3_joint": 0.09513361687083899,
        "smoothness": 6.661338146305771e-16,
        "time": 0.012010639,
        "traj_len": 1.6069468903581086,
        "weighted_distance": 2.0290402560478022
    },
    "planner": "LazyPRM",
    "start": {
        "state": {
            "elbow_joint": 1.97154746011099,
            "shoulder_lift_joint": -1.13948474672311,
            "shoulder_pan_joint": 0.12281154466712228,
            "wrist_1_joint": -0.7804688027058302,
            "wrist_2_joint": 0.12958655903071145,
            "wrist_3_joint": 3.0906928834467795
        }
    },
    "waypoints": [
        {
            "positions": [
                0.12281154466712228,
                -1.13948474672311,
                1.97154746011099,
                -0.7804688027058302,
                0.12958655903071145,
                3.0906928834467795
            ]
        },
        {
            "positions": [
                0.05695960283835877,
                -1.1728434087783692,
                2.035577695237181,
                -0.8146720881738753,
                0.28744881906113173,
                3.104283400142614
            ]
        },
        {
            "positions": [
                -0.008892338990404744,
                -1.2062020708336285,
                2.0996079303633723,
                -0.8488753736419203,
                0.445311079091552,
                3.1178739168384477
            ]
        },
        {
            "positions": [
                -0.07474428081916824,
                -1.2395607328888878,
                2.1636381654895636,
                -0.8830786591099654,
                0.6031733391219722,
                3.131464433534282
            ]
        },
        {
            "positions": [
                -0.14059622264793176,
                -1.2729193949441469,
                2.2276684006157548,
                -0.9172819445780105,
                0.7610355991523926,
                3.145054950230116
            ]
        },
        {
            "positions": [
                -0.20644816447669528,
                -1.3062780569994061,
                2.291698635741946,
                -0.9514852300460557,
                0.918897859182813,
                3.1586454669259503
            ]
        },
        {
            "positions": [
                -0.27230010630545876,
                -1.3396367190546654,
                2.355728870868137,
                -0.9856885155141007,
                1.076760119213233,
                3.172235983621784
            ]
        },
        {
            "positions": [
                -0.3381520481342223,
                -1.3729953811099247,
                2.4197591059943284,
                -1.0198918009821458,
                1.2346223792436535,
                3.1858265003176185
            ]
        }
    ]
}{
    "goal": {
        "global_pose": {
            "orientation": {
                "w": 0.5084816217422485,
                "x": -0.49083608388900757,
                "y": 0.5182115435600281,
                "z": -0.4816462993621826
            },
            "position": {
                "x": 0.5540239810943604,
                "y": 0.030875300988554955,
                "z": 0.16403168439865112
            }
        },
        "name": "move_to_storage_A"
    },
    "id": "LazyPRM_move_to_storage_A_43",
    "joint_names": [
        "shoulder_pan_joint",
        "shoulder_lift_joint",
        "elbow_joint",
        "wrist_1_joint",
        "wrist_2_joint",
        "wrist_3_joint"
    ],
    "metrics": {
        "cart_traj_len": 0.35333321384470273,
        "distance_elbow_joint": 0.453521407922044,
        "distance_shoulder_lift_joint": 0.23479077315870422,
        "distance_shoulder_pan_joint": 0.4598536800454223,
        "distance_wrist_1_joint": 0.25434817271494703,
        "distance_wrist_2_joint": 1.1095341601640376,
        "distance_wrist_3_joint": 0.10071701633439689,
        "smoothness": 1.1102230263833737e-15,
        "time": 0.011848873000000001,
        "traj_len": 1.6164050266995436,
        "weighted_distance": 2.0440356102297557
    },
    "planner": "LazyPRM",
    "start": {
        "state": {
            "elbow_joint": 1.9715472970024885,
            "shoulder_lift_joint": -1.1394870060712896,
            "shoulder_pan_joint": 0.12281152778156021,
            "wrist_1_joint": -0.780463741449964,
            "wrist_2_joint": 0.12958659822042276,
            "wrist_3_joint": 3.090690232415272
        }
    },
    "waypoints": [
        {
            "positions": [
                0.12281152778156021,
                -1.1394870060712896,
                1.9715472970024885,
                -0.780463741449964,
                0.12958659822042276,
                3.090690232415272
            ]
        },
        {
            "positions": [
                0.057118144917928465,
                -1.1730285450939617,
                2.0363360695627803,
                -0.8167991946949564,
                0.2880914782438567,
                3.1050783776059
            ]
        },
        {
            "positions": [
                -0.008575237945703279,
                -1.2065700841166336,
                2.1011248421230726,
                -0.8531346479399489,
                0.4465963582672906,
                3.119466522796528
            ]
        },
        {
            "positions": [
                -0.07426862080933502,
                -1.2401116231393057,
                2.1659136146833644,
                -0.8894701011849413,
                0.6051012382907246,
                3.133854667987156
            ]
        },
        {
            "positions": [
                -0.13996200367296677,
                -1.2736531621619778,
                2.2307023872436567,
                -0.9258055544299337,
                0.7636061183141585,
                3.1482428131777844
            ]
        },
        {
            "positions": [
                -0.20565538653659857,
                -1.3071947011846499,
                2.2954911598039485,
                -0.9621410076749262,
                0.9221109983375925,
                3.1626309583684127
            ]
        },
        {
            "positions": [
                -0.2713487694002302,
                -1.3407362402073217,
                2.3602799323642403,
                -0.9984764609199186,
                1.0806158783610265,
                3.1770191035590405
            ]
        },
        {
            "positions": [
                -0.3370421522638621,
                -1.3742777792299938,
                2.4250687049245325,
                -1.034811914164911,
                1.2391207583844603,
                3.1914072487496687
            ]
        }
    ]
}