{
    "goal": {
        "global_pose": {
            "orientation": {
                "w": -0.4816463035849501,
                "x": 0.5182115481033762,
                "y": 0.4908360881923453,
                "z": -0.5084816262002911
            },
            "position": {
                "x": -0.8240239810943604,
                "y": 0.19912469901144506,
                "z": 0.16403168439865112
            }
        },
        "name": "move_to_storage_D"
    },
    "id": "LazyPRM_move_to_storage_D_69",
    "joint_names": [
        "shoulder_pan_joint",
        "shoulder_lift_joint",
        "elbow_joint",
        "wrist_1_joint",
        "wrist_2_joint",
        "wrist_3_joint"
    ],
    "metrics": {
        "cart_traj_len": 1.8226356595426207,
        "distance_elbow_joint": 1.076179347119951,
        "distance_shoulder_lift_joint": 1.1531013338537655,
        "distance_shoulder_pan_joint": 1.3370493494641746,
        "distance_wrist_1_joint": 3.8383658182048546,
        "distance_wrist_2_joint": 1.7803366953386282,
        "distance_wrist_3_joint": 3.7274499065459894,
        "smoothness": 0.509883917713811,
        "time": 0.147323669,
        "traj_len": 3.593394279859554,
        "weighted_distance": 5.097654831112324
    },
    "planner": "LazyPRM",
    "start": {
        "state": {
            "elbow_joint": -2.384821988534728,
            "shoulder_lift_joint": -2.2788054721415256,
            "shoulder_pan_joint": -0.1854694642142757,
            "wrist_1_joint": 1.4845938289331202,
            "wrist_2_joint": 0.17898776772866878,
            "wrist_3_joint": 0.037105688729662994
        }
    },
    "waypoints": [
        {
            "positions": [
                -0.1854694642142757,
                -2.2788054721415256,
                -2.384821988534728,
                1.4845938289331202,
                0.17898776772866878,
                0.037105688729662994
            ]
        },
        {
            "positions": [
                -0.1297002049038669,
                -2.1860715807475417,
                -2.3501298223280274,
                1.4754250620040494,
                0.05315574032722256,
                0.011948223606881272
            ]
        },
        {
            "positions": [
                -0.07393094559345814,
                -2.093337689353558,
                -2.3154376561213263,
                1.466256295074979,
                -0.07267628707422366,
                -0.013209241515900451
            ]
        },
        {
            "positions": [
                -0.018161686283049344,
                -2.000603797959574,
                -2.280745489914626,
                1.4570875281459084,
                -0.19850831447566988,
                -0.03836670663868218
            ]
        },
        {
            "positions": [
                0.037607573027359426,
                -1.9078699065655902,
                -2.246053323707925,
                1.4479187612168376,
                -0.32434034187711613,
                -0.0635241717614639
            ]
        },
        {
            "positions": [
                -0.03213505401788605,
                -1.8600767867114252,
                -2.2556604020440685,
                1.3465815321994614,
                -0.372592639766244,
                -0.010244839565636682
            ]
        },
        {
            "positions": [
                -0.10187768106313153,
                -1.81228366685726,
                -2.2652674803802118,
                1.2452443031820855,
                -0.4208449376553719,
                0.043034492630190525
            ]
        },
        {
            "positions": [
                -0.17218577813600577,
                -1.7670544372844035,
                -2.2576826338370584,
                1.1235945446915259,
                -0.46186529071882876,
                0.06965721896656143
            ]
        },
        {
            "positions": [
                -0.22591414099704576,
                -1.739010737839022,
                -2.2124496692088824,
                0.984750240026332,
                -0.47657938665318367,
                0.03304824050735113
            ]
        },
        {
            "positions": [
                -0.27964250385808576,
                -1.7109670383936404,
                -2.1672167045807065,
                0.8459059353611382,
                -0.4912934825875386,
                -0.003560737951859169
            ]
        },
        {
            "positions": [
                -0.33337086671912575,
                -1.682923338948259,
                -2.1219837399525305,
                0.7070616306959443,
                -0.5060075785218935,
                -0.040169716411069464
            ]
        },
        {
            "positions": [
                -0.38709922958016574,
                -1.6548796395028773,
                -2.0767507753243546,
                0.5682173260307505,
                -0.5207216744562484,
                -0.07677869487027977
            ]
        },
        {
            "positions": [
                -0.44082759244120573,
                -1.6268359400574959,
                -2.0315178106961786,
                0.42937302136555666,
                -0.5354357703906033,
                -0.11338767332949007
            ]
        },
        {
            "positions": [
                -0.45515146150545305,
                -1.6283189906681719,
                -1.9758453576570398,
                0.2614620197209335,
                -0.5636191009522442,
                -0.03300199939185382
            ]
        },
        {
            "positions": [
                -0.46947533056970037,
                -1.629802041278848,
                -1.920172904617901,
                0.09355101807631033,
                -0.591802431513885,
                0.047383674545782434
            ]
        },
        {
            "positions": [
                -0.4837991996339477,
                -1.631285091889524,
                -1.8645004515787624,
                -0.07435998356831286,
                -0.6199857620755259,
                0.1277693484834187
            ]
        },
        {
            "positions": [
                -0.498123068698195,
                -1.6327681425002,
                -1.8088279985396236,
                -0.242270985212936,
                -0.6481690926371668,
                0.20815502242105494
            ]
        },
        {
            "positions": [
                -0.5124469377624423,
                -1.6342511931108763,
                -1.7531555455004848,
                -0.41018198685755913,
                -0.6763524231988076,
                0.2885406963586912
            ]
        },
        {
            "positions": [
                -0.5267708068266896,
                -1.6357342437215523,
                -1.6974830924613462,
                -0.5780929885021824,
                -0.7045357537604485,
                0.36892637029632747
            ]
        },
        {
            "positions": [
                -0.541094675890937,
                -1.6372172943322285,
                -1.6418106394222074,
                -0.7460039901468054,
                -0.7327190843220894,
                0.44931204423396365
            ]
        },
        {
            "positions": [
                -0.5554185449551843,
                -1.6387003449429045,
                -1.5861381863830686,
                -0.9139149917914287,
                -0.7609024148837302,
                0.5296977181715999
            ]
        },
        {
            "positions": [
                -0.5228594078151846,
                -1.669279557248175,
                -1.601079888359551,
                -1.0039060541339477,
                -0.8134303219291196,
                0.6964169913922059
            ]
        },
        {
            "positions": [
                -0.49030027067518483,
                -1.6998587695534453,
                -1.6160215903360333,
                -1.0938971164764668,
                -0.8659582289745089,
                0.8631362646128119
            ]
        },
        {
            "positions": [
                -0.45774113353518514,
                -1.730437981858716,
                -1.630963292312516,
                -1.183888178818986,
                -0.9184861360198981,
                1.0298555378334178
            ]
        },
        {
            "positions": [
                -0.4251819963951854,
                -1.7610171941639863,
                -1.6459049942889983,
                -1.273879241161505,
                -0.9710140430652876,
                1.196574811054024
            ]
        },
        {
            "positions": [
                -0.3926228592551857,
                -1.7915964064692567,
                -1.6608466962654806,
                -1.363870303504024,
                -1.0235419501106768,
                1.3632940842746297
            ]
        },
        {
            "positions": [
                -0.360063722115186,
                -1.8221756187745273,
                -1.675788398241963,
                -1.4538613658465431,
                -1.076069857156066,
                1.530013357495236
            ]
        },
        {
            "positions": [
                -0.3275045849751863,
                -1.8527548310797977,
                -1.6907301002184454,
                -1.5438524281890622,
                -1.1285977642014555,
                1.6967326307158417
            ]
        },
        {
            "positions": [
                -0.29494544783518656,
                -1.883334043385068,
                -1.705671802194928,
                -1.6338434905315813,
                -1.181125671246845,
                1.8634519039364479
            ]
        },
        {
            "positions": [
                -0.26238631069518686,
                -1.9139132556903384,
                -1.7206135041714103,
                -1.7238345528741004,
                -1.2336535782922342,
                2.0301711771570536
            ]
        },
        {
            "positions": [
                -0.22982717355518711,
                -1.9444924679956088,
                -1.7355552061478927,
                -1.8138256152166194,
                -1.2861814853376234,
                2.19689045037766
            ]
        },
        {
            "positions": [
                -0.19726803641518742,
                -1.9750716803008794,
                -1.750496908124375,
                -1.9038166775591385,
                -1.338709392383013,
                2.3636097235982656
            ]
        },
        {
            "positions": [
                -0.16470889927518773,
                -2.00565089260615,
                -1.7654386101008575,
                -1.9938077399016576,
                -1.3912372994284021,
                2.530328996818872
            ]
        },
        {
            "positions": [
                -0.13214976213518798,
                -2.03623010491142,
                -1.78038031207734,
                -2.0837988022441767,
                -1.4437652064737914,
                2.6970482700394776
            ]
        },
        {
            "positions": [
                -0.09959062499518828,
                -2.066809317216691,
                -1.7953220140538224,
                -2.1737898645866958,
                -1.4962931135191808,
                2.8637675432600838
            ]
        },
        {
            "positions": [
                -0.06703148785518853,
                -2.097388529521961,
                -1.8102637160303048,
                -2.263780926929215,
                -1.5488210205645703,
                3.03048681648069
            ]
        },
        {
            "positions": [
                -0.034472350715188865,
                -2.1279677418272316,
                -1.8252054180067872,
                -2.353771989271734,
                -1.6013489276099595,
                3.1972060897012957
            ]
        }
    ]
}