{
    "goal": {
        "global_pose": {
            "orientation": {
                "w": 0.7031023502349854,
                "x": -0.7110244035720825,
                "y": 0.007748599164187908,
                "z": 0.005598929710686207
            },
            "position": {
                "x": 0.11585023208521307,
                "y": 0.44412534475326537,
                "z": 0.3711530566215515
            }
        },
        "name": "move_to_auspresseinheit_A"
    },
    "id": "LazyPRM_move_to_auspresseinheit_A_43",
    "joint_names": [
        "shoulder_pan_joint",
        "shoulder_lift_joint",
        "elbow_joint",
        "wrist_1_joint",
        "wrist_2_joint",
        "wrist_3_joint"
    ],
    "metrics": {
        "cart_traj_len": 0.9608402174931331,
        "distance_elbow_joint": 0.2636228007518877,
        "distance_shoulder_lift_joint": 1.3639582567426802,
        "distance_shoulder_pan_joint": 1.092846166201178,
        "distance_wrist_1_joint": 0.5493294524176457,
        "distance_wrist_2_joint": 1.7945784794577717,
        "distance_wrist_3_joint": 0.18183929687570277,
        "smoothness": 1.6782477228675998,
        "time": 0.138209145,
        "traj_len": 2.290452892431291,
        "weighted_distance": 2.820241297845574
    },
    "planner": "LazyPRM",
    "start": {
        "state": {
            "elbow_joint": 2.4225746658250005,
            "shoulder_lift_joint": -1.3736534386056498,
            "shoulder_pan_joint": -0.3378633547517467,
            "wrist_1_joint": -1.0288598680537169,
            "wrist_2_joint": 1.233022673432363,
            "wrist_3_joint": -3.0940220416140027
        }
    },
    "waypoints": [
        {
            "positions": [
                -0.3378633547517467,
                -1.3736534386056498,
                2.4225746658250005,
                -1.0288598680537169,
                1.233022673432363,
                -3.0940220416140027
            ]
        },
        {
            "positions": [
                -0.22506170842675988,
                -1.479298169698183,
                2.435777395182842,
                -1.004439398480657,
                1.1035811088270082,
                -3.099354127971674
            ]
        },
        {
            "positions": [
                -0.11226006210177306,
                -1.5849429007907163,
                2.448980124540683,
                -0.9800189289075973,
                0.9741395442216534,
                -3.104686214329345
            ]
        },
        {
            "positions": [
                0.0005415842232137646,
                -1.6905876318832496,
                2.462182853898524,
                -0.9555984593345376,
                0.8446979796162986,
                -3.1100183006870163
            ]
        },
        {
            "positions": [
                0.11334323054820061,
                -1.7962323629757828,
                2.475385583256365,
                -0.9311779897614778,
                0.7152564150109437,
                -3.1153503870446877
            ]
        },
        {
            "positions": [
                0.22614487687318746,
                -1.901877094068316,
                2.4885883126142065,
                -0.9067575201884179,
                0.5858148504055889,
                -3.1206824734023586
            ]
        },
        {
            "positions": [
                0.33894652319817425,
                -2.0075218251608495,
                2.5017910419720475,
                -0.8823370506153583,
                0.45637328580023406,
                -3.12601455976003
            ]
        },
        {
            "positions": [
                0.45174816952316116,
                -2.1131665562533826,
                2.514993771329889,
                -0.8579165810422984,
                0.32693172119487923,
                -3.1313466461177013
            ]
        },
        {
            "positions": [
                0.5645498158481479,
                -2.2188112873459156,
                2.52819650068773,
                -0.8334961114692386,
                0.1974901565895244,
                -3.136678732475372
            ]
        },
        {
            "positions": [
                0.6773514621731349,
                -2.324456018438449,
                2.5413992300455712,
                -0.8090756418961789,
                0.06804859198416963,
                -3.1420108188330436
            ]
        },
        {
            "positions": [
                0.6947770860426492,
                -2.240913513954528,
                2.5102088718229574,
                -0.7163672157304996,
                0.19671458223882624,
                -3.1174569286780565
            ]
        },
        {
            "positions": [
                0.7122027099121635,
                -2.157371009470607,
                2.479018513600344,
                -0.6236587895648203,
                0.32538057249348284,
                -3.092903038523069
            ]
        },
        {
            "positions": [
                0.7296283337816778,
                -2.073828504986686,
                2.44782815537773,
                -0.530950363399141,
                0.4540465627481395,
                -3.068349148368082
            ]
        },
        {
            "positions": [
                0.716951094947801,
                -1.992564423257627,
                2.4222145744459924,
                -0.5052403895176061,
                0.5758497763709436,
                -3.098443572963932
            ]
        },
        {
            "positions": [
                0.7042738561139241,
                -1.911300341528568,
                2.3966009935142543,
                -0.47953041563607113,
                0.6976529899937477,
                -3.128537997559782
            ]
        }
    ]
}