{
    "goal": {
        "global_pose": {
            "orientation": {
                "w": 0.5084816262002911,
                "x": -0.4908360881923452,
                "y": 0.5182115481033761,
                "z": -0.48164630358495003
            },
            "position": {
                "x": 0.5540239810943604,
                "y": -0.46912469901144505,
                "z": 0.16403168439865112
            }
        },
        "name": "move_to_storage_B"
    },
    "id": "LazyPRMstar_move_to_storage_B_81",
    "joint_names": [
        "shoulder_pan_joint",
        "shoulder_lift_joint",
        "elbow_joint",
        "wrist_1_joint",
        "wrist_2_joint",
        "wrist_3_joint"
    ],
    "metrics": {
        "cart_traj_len": 0.83698747893537,
        "distance_elbow_joint": 0.45033132804792153,
        "distance_shoulder_lift_joint": 0.45835835354590615,
        "distance_shoulder_pan_joint": 0.35881191211932373,
        "distance_wrist_1_joint": 3.001852487993908,
        "distance_wrist_2_joint": 2.701550410923449,
        "distance_wrist_3_joint": 3.133934539587661,
        "smoothness": 0.04276441044915529,
        "time": 5.060866836,
        "traj_len": 3.178810946284502,
        "weighted_distance": 4.698522215581283
    },
    "planner": "LazyPRMstar",
    "start": {
        "state": {
            "elbow_joint": 1.664937868594044,
            "shoulder_lift_joint": -0.661644460510453,
            "shoulder_pan_joint": -0.9139846352900073,
            "wrist_1_joint": 2.146753192139373,
            "wrist_2_joint": -2.2341966793290973,
            "wrist_3_joint": 0.005466555786416001
        }
    },
    "waypoints": [
        {
            "positions": [
                -0.9139846352900073,
                -0.661644460510453,
                1.664937868594044,
                2.146753192139373,
                -2.2341966793290973,
                0.005466555786416001
            ]
        },
        {
            "positions": [
                -0.9028538991042802,
                -0.7067975852325976,
                1.7150672283135369,
                2.0758768924987683,
                -2.1442845424123695,
                -0.1091997103103351
            ]
        },
        {
            "positions": [
                -0.891723162918553,
                -0.7519507099547422,
                1.76519658803303,
                2.0050005928581633,
                -2.054372405495642,
                -0.2238659764070862
            ]
        },
        {
            "positions": [
                -0.8805924267328259,
                -0.7971038346768867,
                1.8153259477525232,
                1.934124293217558,
                -1.9644602685789143,
                -0.33853224250383723
            ]
        },
        {
            "positions": [
                -0.8694616905470989,
                -0.8422569593990313,
                1.8654553074720162,
                1.863247993576953,
                -1.8745481316621868,
                -0.45319850860058836
            ]
        },
        {
            "positions": [
                -0.8583309543613717,
                -0.887410084121176,
                1.915584667191509,
                1.792371693936348,
                -1.784635994745459,
                -0.5678647746973395
            ]
        },
        {
            "positions": [
                -0.8472002181756446,
                -0.9325632088433204,
                1.9657140269110023,
                1.721495394295743,
                -1.6947238578287314,
                -0.6825310407940905
            ]
        },
        {
            "positions": [
                -0.8360694819899175,
                -0.9777163335654651,
                2.0158433866304954,
                1.6506190946551378,
                -1.6048117209120036,
                -0.7971973068908417
            ]
        },
        {
            "positions": [
                -0.8249387458041904,
                -1.0228694582876097,
                2.0659727463499884,
                1.5797427950145329,
                -1.5148995839952761,
                -0.9118635729875928
            ]
        },
        {
            "positions": [
                -0.8399257470616074,
                -1.0282657558303179,
                2.0632340546671006,
                1.4444737899662514,
                -1.4047743997958524,
                -1.03500826247724
            ]
        },
        {
            "positions": [
                -0.8549127483190244,
                -1.0336620533730263,
                2.0604953629842133,
                1.3092047849179698,
                -1.2946492155964286,
                -1.1581529519668876
            ]
        },
        {
            "positions": [
                -0.8698997495764415,
                -1.0390583509157345,
                2.0577566713013256,
                1.1739357798696883,
                -1.1845240313970047,
                -1.281297641456535
            ]
        },
        {
            "positions": [
                -0.8848867508338585,
                -1.044454648458443,
                2.055017979618438,
                1.0386667748214067,
                -1.074398847197581,
                -1.4044423309461822
            ]
        },
        {
            "positions": [
                -0.8998737520912756,
                -1.0498509460011511,
                2.0522792879355505,
                0.9033977697731251,
                -0.9642736629981572,
                -1.5275870204358297
            ]
        },
        {
            "positions": [
                -0.9148607533486927,
                -1.0552472435438596,
                2.0495405962526627,
                0.7681287647248437,
                -0.8541484787987335,
                -1.650731709925477
            ]
        },
        {
            "positions": [
                -0.9298477546061097,
                -1.0606435410865678,
                2.046801904569775,
                0.6328597596765622,
                -0.7440232945993097,
                -1.7738763994151245
            ]
        },
        {
            "positions": [
                -0.9448347558635267,
                -1.0660398386292762,
                2.0440632128868876,
                0.49759075462828073,
                -0.633898110399886,
                -1.8970210889047716
            ]
        },
        {
            "positions": [
                -0.9598217571209438,
                -1.0714361361719844,
                2.041324521204,
                0.3623217495799991,
                -0.5237729262004621,
                -2.020165778394419
            ]
        },
        {
            "positions": [
                -0.9748087583783608,
                -1.0768324337146926,
                2.038585829521112,
                0.22705274453171742,
                -0.41364774200103827,
                -2.1433104678840667
            ]
        },
        {
            "positions": [
                -0.9897957596357778,
                -1.082228731257401,
                2.035847137838225,
                0.09178373948343599,
                -0.3035225578016145,
                -2.2664551573737137
            ]
        },
        {
            "positions": [
                -1.004782760893195,
                -1.0876250288001093,
                2.033108446155337,
                -0.04348526556484544,
                -0.19339737360219078,
                -2.3895998468633612
            ]
        },
        {
            "positions": [
                -1.0197697621506119,
                -1.0930213263428177,
                2.0303697544724493,
                -0.1787542706131271,
                -0.08327218940276704,
                -2.5127445363530088
            ]
        },
        {
            "positions": [
                -1.034756763408029,
                -1.0984176238855259,
                2.027631062789562,
                -0.31402327566140853,
                0.026852994796656704,
                -2.6358892258426563
            ]
        },
        {
            "positions": [
                -1.049743764665446,
                -1.1038139214282343,
                2.024892371106674,
                -0.4492922807096904,
                0.13697817899608067,
                -2.7590339153323034
            ]
        },
        {
            "positions": [
                -1.064730765922863,
                -1.1092102189709425,
                2.0221536794237864,
                -0.5845612857579714,
                0.2471033631955042,
                -2.8821786048219504
            ]
        },
        {
            "positions": [
                -1.0797177671802802,
                -1.114606516513651,
                2.019414987740899,
                -0.7198302908062533,
                0.35722854739492815,
                -3.005323294311598
            ]
        },
        {
            "positions": [
                -1.0947047684376972,
                -1.1200028140563592,
                2.0166762960580114,
                -0.8550992958545348,
                0.46735373159435184,
                -3.1284679838012455
            ]
        }
    ]
}