{
    "goal": {
        "global_pose": {
            "orientation": {
                "w": 0.005598929693374612,
                "x": 0.007748599140229565,
                "y": 0.7110244013736278,
                "z": -0.7031023480610252
            },
            "position": {
                "x": -0.8858502320852131,
                "y": -0.7141253447532654,
                "z": 0.3711530566215515
            }
        },
        "name": "move_to_auspresseinheit_C"
    },
    "id": "LazyPRMstar_move_to_auspresseinheit_C_146",
    "joint_names": [
        "shoulder_pan_joint",
        "shoulder_lift_joint",
        "elbow_joint",
        "wrist_1_joint",
        "wrist_2_joint",
        "wrist_3_joint"
    ],
    "metrics": {
        "cart_traj_len": 0.4933533951947167,
        "distance_elbow_joint": 1.0084111172329335,
        "distance_shoulder_lift_joint": 0.3284405449386575,
        "distance_shoulder_pan_joint": 0.25610864620010654,
        "distance_wrist_1_joint": 0.699966062271405,
        "distance_wrist_2_joint": 1.3114949829981222,
        "distance_wrist_3_joint": 0.06723157423037573,
        "smoothness": 1.4533828710525085e-15,
        "time": 5.0001419,
        "traj_len": 1.9161557681648953,
        "weighted_distance": 2.411965406385813
    },
    "planner": "LazyPRMstar",
    "start": {
        "state": {
            "elbow_joint": 1.7527959577737207,
            "shoulder_lift_joint": -0.9740617694225068,
            "shoulder_pan_joint": -2.967991417825858,
            "wrist_1_joint": -0.759517768980727,
            "wrist_2_joint": 1.7443932448377408,
            "wrist_3_joint": -3.0840537646736568
        }
    },
    "waypoints": [
        {
            "positions": [
                -2.967991417825858,
                -0.9740617694225068,
                1.7527959577737207,
                -0.759517768980727,
                1.7443932448377408,
                -3.0840537646736568
            ]
        },
        {
            "positions": [
                -2.9423805532058473,
                -0.941217714928641,
                1.6519548460504274,
                -0.6895211627535864,
                1.6132437465379286,
                -3.0907769220966945
            ]
        },
        {
            "positions": [
                -2.9167696885858367,
                -0.9083736604347753,
                1.551113734327134,
                -0.619524556526446,
                1.4820942482381163,
                -3.097500079519732
            ]
        },
        {
            "positions": [
                -2.891158823965826,
                -0.8755296059409096,
                1.4502726226038405,
                -0.5495279502993055,
                1.3509447499383043,
                -3.1042232369427696
            ]
        },
        {
            "positions": [
                -2.8655479593458155,
                -0.8426855514470437,
                1.3494315108805472,
                -0.47953134407216497,
                1.2197952516384918,
                -3.110946394365807
            ]
        },
        {
            "positions": [
                -2.839937094725805,
                -0.809841496953178,
                1.248590399157254,
                -0.4095347378450245,
                1.0886457533386797,
                -3.1176695517888446
            ]
        },
        {
            "positions": [
                -2.814326230105794,
                -0.7769974424593122,
                1.1477492874339605,
                -0.339538131617884,
                0.9574962550388676,
                -3.1243927092118824
            ]
        },
        {
            "positions": [
                -2.7887153654857832,
                -0.7441533879654465,
                1.046908175710667,
                -0.2695415253907435,
                0.8263467567390553,
                -3.1311158666349197
            ]
        },
        {
            "positions": [
                -2.7631045008657726,
                -0.7113093334715808,
                0.9460670639873738,
                -0.19954491916360295,
                0.695197258439243,
                -3.1378390240579574
            ]
        },
        {
            "positions": [
                -2.737493636245762,
                -0.678465278977715,
                0.8452259522640805,
                -0.1295483129364624,
                0.5640477601394309,
                -3.1445621814809948
            ]
        },
        {
            "positions": [
                -2.7118827716257514,
                -0.6456212244838493,
                0.7443848405407871,
                -0.05955170670932197,
                0.4328982618396187,
                -3.1512853389040325
            ]
        }
    ]
}