{
    "goal": {
        "global_pose": {
            "orientation": {
                "w": 0.7047431493862688,
                "x": -0.7094548369677653,
                "y": 0.0024358444001904,
                "z": -0.0022348060817251984
            },
            "position": {
                "x": -0.39052492380142206,
                "y": 0.3671506643295288,
                "z": 0.19426114857196808
            }
        },
        "name": "move_to_magneteinheit_D"
    },
    "id": "LazyPRM_move_to_magneteinheit_D_149",
    "joint_names": [
        "shoulder_pan_joint",
        "shoulder_lift_joint",
        "elbow_joint",
        "wrist_1_joint",
        "wrist_2_joint",
        "wrist_3_joint"
    ],
    "metrics": {
        "cart_traj_len": 4.233106369730909,
        "distance_elbow_joint": 3.1284407845502047,
        "distance_shoulder_lift_joint": 2.2615958157935534,
        "distance_shoulder_pan_joint": 3.41024476756178,
        "distance_wrist_1_joint": 1.9882882804699715,
        "distance_wrist_2_joint": 0.49821575032399057,
        "distance_wrist_3_joint": 3.151263972573738,
        "smoothness": 0.33775599793183975,
        "time": 0.18455005800000002,
        "traj_len": 3.7997433296570486,
        "weighted_distance": 4.819448240951933
    },
    "planner": "LazyPRM",
    "start": {
        "state": {
            "elbow_joint": 0.749534889911806,
            "shoulder_lift_joint": -0.6476975780787326,
            "shoulder_pan_joint": -2.711696901376241,
            "wrist_1_joint": -0.07506478083263063,
            "wrist_2_joint": 0.43296659715538205,
            "wrist_3_joint": -3.14703540197715
        }
    },
    "waypoints": [
        {
            "positions": [
                -2.711696901376241,
                -0.6476975780787326,
                0.749534889911806,
                -0.07506478083263063,
                0.43296659715538205,
                -3.14703540197715
            ]
        },
        {
            "positions": [
                -2.739629291694348,
                -0.5690875508549735,
                0.5804686877022907,
                -0.007811514284814289,
                0.4309927940983398,
                -3.129769612700624
            ]
        },
        {
            "positions": [
                -2.767561682012455,
                -0.4904775236312145,
                0.41140248549277536,
                0.05944175226300205,
                0.4290189910412975,
                -3.112503823424098
            ]
        },
        {
            "positions": [
                -2.7954940723305626,
                -0.41186749640745546,
                0.24233628328326007,
                0.1266950188108184,
                0.42704518798425517,
                -3.0952380341475716
            ]
        },
        {
            "positions": [
                -2.8234264626486696,
                -0.33325746918369636,
                0.07327008107374477,
                0.19394828535863473,
                0.4250713849272129,
                -3.0779722448710456
            ]
        },
        {
            "positions": [
                -2.8091899320247435,
                -0.39068818348502443,
                -0.033498156305727306,
                0.25973975853690134,
                0.43959029726783566,
                -3.024588496747585
            ]
        },
        {
            "positions": [
                -2.794953401400818,
                -0.4481188977863525,
                -0.1402663936851994,
                0.3255312317151679,
                0.45410920960845846,
                -2.971204748624124
            ]
        },
        {
            "positions": [
                -2.780716870776892,
                -0.5055496120876806,
                -0.2470346310646715,
                0.39132270489343446,
                0.4686281219490812,
                -2.9178210005006635
            ]
        },
        {
            "positions": [
                -2.766480340152966,
                -0.5629803263890086,
                -0.35380286844414355,
                0.45711417807170107,
                0.48314703428970396,
                -2.864437252377203
            ]
        },
        {
            "positions": [
                -2.6452134943419,
                -0.6142330451870948,
                -0.4075822588587463,
                0.5093206820263984,
                0.4853455001193573,
                -2.7542396467538146
            ]
        },
        {
            "positions": [
                -2.523946648530834,
                -0.6654857639851808,
                -0.4613616492733491,
                0.5615271859810956,
                0.4875439659490106,
                -2.644042041130427
            ]
        },
        {
            "positions": [
                -2.4026798027197676,
                -0.7167384827832669,
                -0.5151410396879519,
                0.6137336899357928,
                0.48974243177866394,
                -2.5338444355070386
            ]
        },
        {
            "positions": [
                -2.2814129569087016,
                -0.767991201581353,
                -0.5689204301025548,
                0.6659401938904901,
                0.4919408976083173,
                -2.423646829883651
            ]
        },
        {
            "positions": [
                -2.1601461110976357,
                -0.819243920379439,
                -0.6226998205171576,
                0.7181466978451874,
                0.4941393634379706,
                -2.3134492242602627
            ]
        },
        {
            "positions": [
                -2.0388792652865693,
                -0.8704966391775252,
                -0.6764792109317603,
                0.7703532017998846,
                0.49633782926762393,
                -2.203251618636875
            ]
        },
        {
            "positions": [
                -1.9176124194755033,
                -0.9217493579756113,
                -0.7302586013463632,
                0.8225597057545819,
                0.49853629509727726,
                -2.0930540130134867
            ]
        },
        {
            "positions": [
                -1.7963455736644374,
                -0.9730020767736973,
                -0.7840379917609659,
                0.8747662097092792,
                0.5007347609269306,
                -1.982856407390099
            ]
        },
        {
            "positions": [
                -1.6750787278533714,
                -1.0242547955717836,
                -0.8378173821755688,
                0.9269727136639765,
                0.5029332267565839,
                -1.8726588017667107
            ]
        },
        {
            "positions": [
                -1.5538118820423052,
                -1.0755075143698696,
                -0.8915967725901716,
                0.9791792176186738,
                0.5051316925862372,
                -1.7624611961433228
            ]
        },
        {
            "positions": [
                -1.4325450362312393,
                -1.1267602331679556,
                -0.9453761630047743,
                1.031385721573371,
                0.5073301584158906,
                -1.6522635905199348
            ]
        },
        {
            "positions": [
                -1.3112781904201731,
                -1.1780129519660418,
                -0.9991555534193771,
                1.083592225528068,
                0.5095286242455439,
                -1.5420659848965468
            ]
        },
        {
            "positions": [
                -1.1900113446091072,
                -1.2292656707641276,
                -1.05293494383398,
                1.1357987294827654,
                0.5117270900751972,
                -1.4318683792731588
            ]
        },
        {
            "positions": [
                -1.068744498798041,
                -1.2805183895622139,
                -1.1067143342485828,
                1.1880052334374627,
                0.5139255559048506,
                -1.3216707736497706
            ]
        },
        {
            "positions": [
                -0.9474776529869748,
                -1.3317711083603,
                -1.1604937246631857,
                1.2402117373921602,
                0.5161240217345039,
                -1.2114731680263828
            ]
        },
        {
            "positions": [
                -0.8262108071759089,
                -1.383023827158386,
                -1.2142731150777881,
                1.2924182413468572,
                0.5183224875641572,
                -1.1012755624029948
            ]
        },
        {
            "positions": [
                -0.7049439613648429,
                -1.4342765459564721,
                -1.268052505492391,
                1.3446247453015547,
                0.5205209533938105,
                -0.9910779567796066
            ]
        },
        {
            "positions": [
                -0.583677115553777,
                -1.4855292647545584,
                -1.321831895906994,
                1.3968312492562518,
                0.5227194192234639,
                -0.8808803511562187
            ]
        },
        {
            "positions": [
                -0.4624102697427106,
                -1.5367819835526442,
                -1.3756112863215968,
                1.4490377532109489,
                0.5249178850531172,
                -0.7706827455328309
            ]
        },
        {
            "positions": [
                -0.34114342393164465,
                -1.5880347023507304,
                -1.4293906767361997,
                1.5012442571656464,
                0.5271163508827705,
                -0.6604851399094427
            ]
        },
        {
            "positions": [
                -0.2198765781205787,
                -1.6392874211488166,
                -1.4831700671508021,
                1.5534507611203434,
                0.5293148167124239,
                -0.5502875342860549
            ]
        },
        {
            "positions": [
                -0.09860973230951275,
                -1.6905401399469024,
                -1.536949457565405,
                1.605657265075041,
                0.5315132825420772,
                -0.4400899286626667
            ]
        },
        {
            "positions": [
                0.02265711350155364,
                -1.7417928587449887,
                -1.590728847980008,
                1.657863769029738,
                0.5337117483717305,
                -0.3298923230392785
            ]
        },
        {
            "positions": [
                0.14392395931261948,
                -1.793045577543075,
                -1.6445082383946108,
                1.7100702729844355,
                0.5359102142013838,
                -0.21969471741589092
            ]
        },
        {
            "positions": [
                0.09970374611212911,
                -1.8672943014671108,
                -1.783039306951864,
                1.6925232132485544,
                0.4622633638867943,
                -0.20847399904784364
            ]
        },
        {
            "positions": [
                0.05548353291163874,
                -1.9415430253911468,
                -1.9215703755091171,
                1.6749761535126733,
                0.3886165135722047,
                -0.1972532806797964
            ]
        },
        {
            "positions": [
                0.011263319711148384,
                -2.015791749315183,
                -2.0601014440663703,
                1.6574290937767922,
                0.31496966325761516,
                -0.1860325623117491
            ]
        },
        {
            "positions": [
                -0.032956893489342,
                -2.0900404732392186,
                -2.1986325126236235,
                1.639882034040911,
                0.2413228129430256,
                -0.17481184394370186
            ]
        },
        {
            "positions": [
                -0.07717710668983234,
                -2.1642891971632547,
                -2.3371635811808766,
                1.62233497430503,
                0.16767596262843604,
                -0.16359112557565458
            ]
        },
        {
            "positions": [
                -0.1322089658526379,
                -2.222351186622734,
                -2.3580347379096374,
                1.56462601031828,
                0.17329969125278735,
                -0.0796812774895332
            ]
        },
        {
            "positions": [
                -0.18724082501544345,
                -2.2804131760822135,
                -2.378905894638398,
                1.5069170463315302,
                0.17892341987713867,
                0.0042285705965881895
            ]
        }
    ]
}