{
    "goal": {
        "global_pose": {
            "orientation": {
                "w": 0.7031023480610252,
                "x": -0.7110244013736278,
                "y": 0.0077485991402295624,
                "z": 0.005598929693374583
            },
            "position": {
                "x": -0.8841497679147869,
                "y": 0.44412534475326537,
                "z": 0.3711530566215515
            }
        },
        "name": "move_to_auspresseinheit_D"
    },
    "id": "LazyPRM_move_to_auspresseinheit_D_61",
    "joint_names": [
        "shoulder_pan_joint",
        "shoulder_lift_joint",
        "elbow_joint",
        "wrist_1_joint",
        "wrist_2_joint",
        "wrist_3_joint"
    ],
    "metrics": {
        "cart_traj_len": 0.3427054403359357,
        "distance_elbow_joint": 0.6334319035197729,
        "distance_shoulder_lift_joint": 0.1182178893710426,
        "distance_shoulder_pan_joint": 0.1334473991380882,
        "distance_wrist_1_joint": 0.5198081003992017,
        "distance_wrist_2_joint": 1.4359059831679037,
        "distance_wrist_3_joint": 0.004222934196794981,
        "smoothness": 0.0,
        "time": 0.012425097,
        "traj_len": 1.686722920278492,
        "weighted_distance": 2.19298749694418
    },
    "planner": "LazyPRM",
    "start": {
        "state": {
            "elbow_joint": -1.8275523626775212,
            "shoulder_lift_joint": -2.126789852344167,
            "shoulder_pan_joint": -0.03513704404078235,
            "wrist_1_joint": -2.347782403156801,
            "wrist_2_joint": -1.6058999987535132,
            "wrist_3_joint": -3.0880379163319196
        }
    },
    "waypoints": [
        {
            "positions": [
                -0.03513704404078235,
                -2.126789852344167,
                -1.8275523626775212,
                -2.347782403156801,
                -1.6058999987535132,
                -3.0880379163319196
            ]
        },
        {
            "positions": [
                -0.05181796893304337,
                -2.141567088515547,
                -1.7483733747375496,
                -2.4127584157067012,
                -1.4264117508575251,
                -3.088565783106519
            ]
        },
        {
            "positions": [
                -0.0684988938253044,
                -2.1563443246869274,
                -1.669194386797578,
                -2.477734428256601,
                -1.2469235029615373,
                -3.0890936498811183
            ]
        },
        {
            "positions": [
                -0.08517981871756541,
                -2.1711215608583077,
                -1.5900153988576065,
                -2.5427104408065015,
                -1.0674352550655493,
                -3.0896215166557175
            ]
        },
        {
            "positions": [
                -0.10186074360982644,
                -2.1858987970296884,
                -1.5108364109176349,
                -2.6076864533564015,
                -0.8879470071695613,
                -3.090149383430317
            ]
        },
        {
            "positions": [
                -0.11854166850208747,
                -2.2006760332010686,
                -1.431657422977663,
                -2.672662465906302,
                -0.7084587592735734,
                -3.0906772502049167
            ]
        },
        {
            "positions": [
                -0.1352225933943485,
                -2.215453269372449,
                -1.3524784350376915,
                -2.7376384784562022,
                -0.5289705113775853,
                -3.091205116979516
            ]
        },
        {
            "positions": [
                -0.15190351828660953,
                -2.230230505543829,
                -1.27329944709772,
                -2.802614491006102,
                -0.3494822634815975,
                -3.091732983754115
            ]
        },
        {
            "positions": [
                -0.16858444317887056,
                -2.2450077417152094,
                -1.1941204591577483,
                -2.8675905035560025,
                -0.1699940155856095,
                -3.0922608505287146
            ]
        }
    ]
}