{
    "goal": {
        "global_pose": {
            "orientation": {
                "w": 0.5084816217422485,
                "x": -0.49083608388900757,
                "y": 0.5182115435600281,
                "z": -0.4816462993621826
            },
            "position": {
                "x": 0.5540239810943604,
                "y": 0.030875300988554955,
                "z": 0.16403168439865112
            }
        },
        "name": "move_to_storage_A"
    },
    "id": "LazyPRM_move_to_storage_A_60",
    "joint_names": [
        "shoulder_pan_joint",
        "shoulder_lift_joint",
        "elbow_joint",
        "wrist_1_joint",
        "wrist_2_joint",
        "wrist_3_joint"
    ],
    "metrics": {
        "cart_traj_len": 0.3531924743339475,
        "distance_elbow_joint": 0.44827508935057714,
        "distance_shoulder_lift_joint": 0.23430060504091088,
        "distance_shoulder_pan_joint": 0.4606228644923209,
        "distance_wrist_1_joint": 0.24141738999893791,
        "distance_wrist_2_joint": 1.103548742194043,
        "distance_wrist_3_joint": 0.09259779068625207,
        "smoothness": 2.2204460668324854e-16,
        "time": 0.021782693000000002,
        "traj_len": 1.6064751730926445,
        "weighted_distance": 2.027541416427425
    },
    "planner": "LazyPRM",
    "start": {
        "state": {
            "elbow_joint": 1.971548259319323,
            "shoulder_lift_joint": -1.1394851275133948,
            "shoulder_pan_joint": 0.1228115487234821,
            "wrist_1_joint": -0.7804723859257726,
            "wrist_2_joint": 0.12958671773740124,
            "wrist_3_joint": -3.192489227718131
        }
    },
    "waypoints": [
        {
            "positions": [
                0.1228115487234821,
                -1.1394851275133948,
                1.971548259319323,
                -0.7804723859257726,
                0.12958671773740124,
                -3.192489227718131
            ]
        },
        {
            "positions": [
                0.057008282367436255,
                -1.1729566425192393,
                2.0355875577979767,
                -0.8149605844970494,
                0.28723653805083593,
                -3.1792609719058094
            ]
        },
        {
            "positions": [
                -0.00879498398860959,
                -1.2064281575250837,
                2.0996268562766307,
                -0.8494487830683263,
                0.4448863583642707,
                -3.1660327160934876
            ]
        },
        {
            "positions": [
                -0.07459825034465542,
                -1.2398996725309281,
                2.1636661547552847,
                -0.8839369816396031,
                0.6025361786777054,
                -3.152804460281166
            ]
        },
        {
            "positions": [
                -0.14040151670070128,
                -1.2733711875367724,
                2.2277054532339386,
                -0.91842518021088,
                0.7601859989911401,
                -3.1395762044688444
            ]
        },
        {
            "positions": [
                -0.20620478305674717,
                -1.3068427025426168,
                2.291744751712592,
                -0.9529133787821569,
                0.9178358193045749,
                -3.1263479486565227
            ]
        },
        {
            "positions": [
                -0.27200804941279294,
                -1.3403142175484613,
                2.355784050191246,
                -0.9874015773534337,
                1.0754856396180095,
                -3.113119692844201
            ]
        },
        {
            "positions": [
                -0.3378113157688388,
                -1.3737857325543057,
                2.4198233486699,
                -1.0218897759247105,
                1.2331354599314444,
                -3.099891437031879
            ]
        }
    ]
}{
    "goal": {
        "global_pose": {
            "orientation": {
                "w": 0.5084816217422485,
                "x": -0.49083608388900757,
                "y": 0.5182115435600281,
                "z": -0.4816462993621826
            },
            "position": {
                "x": 0.5540239810943604,
                "y": 0.030875300988554955,
                "z": 0.16403168439865112
            }
        },
        "name": "move_to_storage_A"
    },
    "id": "LazyPRM_move_to_storage_A_60",
    "joint_names": [
        "shoulder_pan_joint",
        "shoulder_lift_joint",
        "elbow_joint",
        "wrist_1_joint",
        "wrist_2_joint",
        "wrist_3_joint"
    ],
    "metrics": {
        "cart_traj_len": 0.3540149089569814,
        "distance_elbow_joint": 0.45301654145612025,
        "distance_shoulder_lift_joint": 0.2339914001117156,
        "distance_shoulder_pan_joint": 0.4601382871663554,
        "distance_wrist_1_joint": 0.2541266145288754,
        "distance_wrist_2_joint": 1.1129129690407675,
        "distance_wrist_3_joint": 0.10690072903592318,
        "smoothness": 8.881784197001252e-16,
        "time": 0.022000027,
        "traj_len": 1.6189770045741099,
        "weighted_distance": 2.0498603813385063
    },
    "planner": "LazyPRM",
    "start": {
        "state": {
            "elbow_joint": 1.97154746011099,
            "shoulder_lift_joint": -1.13948474672311,
            "shoulder_pan_joint": 0.12281154466712228,
            "wrist_1_joint": -0.7804688027058302,
            "wrist_2_joint": 0.12958655903071145,
            "wrist_3_joint": 3.0906928834467795
        }
    },
    "waypoints": [
        {
            "positions": [
                0.12281154466712228,
                -1.13948474672311,
                1.97154746011099,
                -0.7804688027058302,
                0.12958655903071145,
                3.0906928834467795
            ]
        },
        {
            "positions": [
                0.05707750364335723,
                -1.1729120895962122,
                2.036264108890436,
                -0.8167726047813838,
                0.28857412603653537,
                3.1059644161661972
            ]
        },
        {
            "positions": [
                -0.008656537380407822,
                -1.2063394324693144,
                2.1009807576698813,
                -0.8530764068569374,
                0.44756169304235927,
                3.1212359488856145
            ]
        },
        {
            "positions": [
                -0.07439057840417289,
                -1.2397667753424166,
                2.1656974064493273,
                -0.889380208932491,
                0.6065492600481832,
                3.1365074816050322
            ]
        },
        {
            "positions": [
                -0.1401246194279379,
                -1.2731941182155189,
                2.230414055228773,
                -0.9256840110080446,
                0.7655368270540072,
                3.15177901432445
            ]
        },
        {
            "positions": [
                -0.20585866045170298,
                -1.306621461088621,
                2.2951307040082187,
                -0.9619878130835984,
                0.9245243940598311,
                3.1670505470438677
            ]
        },
        {
            "positions": [
                -0.27159270147546805,
                -1.3400488039617233,
                2.359847352787664,
                -0.998291615159152,
                1.083511961065655,
                3.182322079763285
            ]
        },
        {
            "positions": [
                -0.3373267424992331,
                -1.3734761468348256,
                2.42456400156711,
                -1.0345954172347056,
                1.242499528071479,
                3.1975936124827027
            ]
        }
    ]
}{
    "goal": {
        "global_pose": {
            "orientation": {
                "w": 0.5084816217422485,
                "x": -0.49083608388900757,
                "y": 0.5182115435600281,
                "z": -0.4816462993621826
            },
            "position": {
                "x": 0.5540239810943604,
                "y": 0.030875300988554955,
                "z": 0.16403168439865112
            }
        },
        "name": "move_to_storage_A"
    },
    "id": "LazyPRM_move_to_storage_A_60",
    "joint_names": [
        "shoulder_pan_joint",
        "shoulder_lift_joint",
        "elbow_joint",
        "wrist_1_joint",
        "wrist_2_joint",
        "wrist_3_joint"
    ],
    "metrics": {
        "cart_traj_len": 0.35345325024419055,
        "distance_elbow_joint": 0.45247889002414743,
        "distance_shoulder_lift_joint": 0.23341443460432587,
        "distance_shoulder_pan_joint": 0.4595244654189032,
        "distance_wrist_1_joint": 0.2575551904430269,
        "distance_wrist_2_joint": 1.110534343017884,
        "distance_wrist_3_joint": 0.09783725389414011,
        "smoothness": 8.881784232165597e-16,
        "time": 0.021886449,
        "traj_len": 1.615965524818654,
        "weighted_distance": 2.0433082534584983
    },
    "planner": "LazyPRM",
    "start": {
        "state": {
            "elbow_joint": 1.9715472970024885,
            "shoulder_lift_joint": -1.1394870060712896,
            "shoulder_pan_joint": 0.12281152778156021,
            "wrist_1_joint": -0.780463741449964,
            "wrist_2_joint": 0.12958659822042276,
            "wrist_3_joint": 3.090690232415272
        }
    },
    "waypoints": [
        {
            "positions": [
                0.12281152778156021,
                -1.1394870060712896,
                1.9715472970024885,
                -0.780463741449964,
                0.12958659822042276,
                3.090690232415272
            ]
        },
        {
            "positions": [
                0.057165175578859764,
                -1.172831925300479,
                2.0361871384345096,
                -0.8172573400846821,
                0.28823436150869186,
                3.1046669829715774
            ]
        },
        {
            "positions": [
                -0.00848117662384068,
                -1.2061768445296683,
                2.1008269798665307,
                -0.8540509387194002,
                0.446882124796961,
                3.1186437335278834
            ]
        },
        {
            "positions": [
                -0.07412752882654111,
                -1.2395217637588578,
                2.1654668212985517,
                -0.8908445373541184,
                0.6055298880852301,
                3.132620484084189
            ]
        },
        {
            "positions": [
                -0.13977388102924157,
                -1.2728666829880473,
                2.230106662730573,
                -0.9276381359888365,
                0.7641776513734992,
                3.146597234640495
            ]
        },
        {
            "positions": [
                -0.20542023323194206,
                -1.3062116022172368,
                2.294746504162594,
                -0.9644317346235547,
                0.9228254146617685,
                3.1605739851968004
            ]
        },
        {
            "positions": [
                -0.27106658543464246,
                -1.339556521446426,
                2.359386345594615,
                -1.0012253332582728,
                1.0814731779500375,
                3.1745507357531064
            ]
        },
        {
            "positions": [
                -0.33671293763734295,
                -1.3729014406756155,
                2.424026187026636,
                -1.0380189318929909,
                1.2401209412383067,
                3.188527486309412
            ]
        }
    ]
}