{
    "goal": {
        "global_pose": {
            "orientation": {
                "w": 0.7047431468963623,
                "x": -0.7094548344612122,
                "y": 0.0024358443915843964,
                "z": -0.0022348060738295317
            },
            "position": {
                "x": 0.6094750761985779,
                "y": 0.3671506643295288,
                "z": 0.19426114857196808
            }
        },
        "name": "move_to_magneteinheit_A"
    },
    "id": "LazyPRMstar_move_to_magneteinheit_A_71",
    "joint_names": [
        "shoulder_pan_joint",
        "shoulder_lift_joint",
        "elbow_joint",
        "wrist_1_joint",
        "wrist_2_joint",
        "wrist_3_joint"
    ],
    "metrics": {
        "cart_traj_len": 3.2271169071484187,
        "distance_elbow_joint": 3.933064530395293,
        "distance_shoulder_lift_joint": 0.4676687504153013,
        "distance_shoulder_pan_joint": 2.624086722390688,
        "distance_wrist_1_joint": 3.5646209453001294,
        "distance_wrist_2_joint": 1.4322114143171778,
        "distance_wrist_3_joint": 0.6701155442162099,
        "smoothness": 0.1917079876351656,
        "time": 5.037826721,
        "traj_len": 3.562550758520473,
        "weighted_distance": 4.36220487312145
    },
    "planner": "LazyPRMstar",
    "start": {
        "state": {
            "elbow_joint": -1.9196185241190666,
            "shoulder_lift_joint": -1.2443396400964142,
            "shoulder_pan_joint": 2.6996025414629847,
            "wrist_1_joint": -1.5485510000780065,
            "wrist_2_joint": -1.5709468930060704,
            "wrist_3_joint": 0.4420197071253992
        }
    },
    "waypoints": [
        {
            "positions": [
                2.6996025414629847,
                -1.2443396400964142,
                -1.9196185241190666,
                -1.5485510000780065,
                -1.5709468930060704,
                0.4420197071253992
            ]
        },
        {
            "positions": [
                2.6069097802591052,
                -1.2309791584737835,
                -1.8195094303070558,
                -1.425590809547923,
                -1.525450481824639,
                0.42102393695887097
            ]
        },
        {
            "positions": [
                2.5142170190552258,
                -1.2176186768511528,
                -1.7194003364950448,
                -1.3026306190178396,
                -1.479954070643208,
                0.4000281667923428
            ]
        },
        {
            "positions": [
                2.4215242578513463,
                -1.2042581952285223,
                -1.619291242683034,
                -1.1796704284877562,
                -1.4344576594617766,
                0.3790323966258146
            ]
        },
        {
            "positions": [
                2.328831496647467,
                -1.1908977136058916,
                -1.519182148871023,
                -1.0567102379576727,
                -1.3889612482803453,
                0.3580366264592864
            ]
        },
        {
            "positions": [
                2.2361387354435873,
                -1.1775372319832609,
                -1.419073055059012,
                -0.9337500474275893,
                -1.3434648370989142,
                0.33704085629275826
            ]
        },
        {
            "positions": [
                2.143445974239708,
                -1.1641767503606302,
                -1.3189639612470012,
                -0.8107898568975058,
                -1.2979684259174828,
                0.31604508612623006
            ]
        },
        {
            "positions": [
                2.0507532130358284,
                -1.1508162687379997,
                -1.2188548674349904,
                -0.6878296663674224,
                -1.2524720147360515,
                0.29504931595970185
            ]
        },
        {
            "positions": [
                1.9580604518319489,
                -1.137455787115369,
                -1.1187457736229796,
                -0.5648694758373389,
                -1.2069756035546204,
                0.27405354579317365
            ]
        },
        {
            "positions": [
                1.8653676906280694,
                -1.1240953054927383,
                -1.0186366798109683,
                -0.4419092853072555,
                -1.161479192373189,
                0.25305777562664544
            ]
        },
        {
            "positions": [
                1.77267492942419,
                -1.1107348238701076,
                -0.9185275859989575,
                -0.31894909477717204,
                -1.1159827811917578,
                0.2320620054601173
            ]
        },
        {
            "positions": [
                1.6799821682203104,
                -1.097374342247477,
                -0.8184184921869466,
                -0.1959889042470886,
                -1.0704863700103266,
                0.2110662352935891
            ]
        },
        {
            "positions": [
                1.587289407016431,
                -1.0840138606248464,
                -0.7183093983749358,
                -0.07302871371700514,
                -1.0249899588288953,
                0.19007046512706094
            ]
        },
        {
            "positions": [
                1.4945966458125515,
                -1.0706533790022157,
                -0.6182003045629247,
                0.0499314768130783,
                -0.979493547647464,
                0.16907469496053273
            ]
        },
        {
            "positions": [
                1.401903884608672,
                -1.057292897379585,
                -0.5180912107509139,
                0.17289166734316175,
                -0.9339971364660328,
                0.14807892479400453
            ]
        },
        {
            "positions": [
                1.3092111234047925,
                -1.0439324157569545,
                -0.4179821169389031,
                0.2958518578732452,
                -0.8885007252846016,
                0.12708315462747632
            ]
        },
        {
            "positions": [
                1.216518362200913,
                -1.0305719341343238,
                -0.31787302312689225,
                0.41881204840332864,
                -0.8430043141031703,
                0.10608738446094818
            ]
        },
        {
            "positions": [
                1.1238256009970338,
                -1.017211452511693,
                -0.21776392931488142,
                0.5417722389334119,
                -0.797507902921739,
                0.08509161429441997
            ]
        },
        {
            "positions": [
                1.0311328397931538,
                -1.0038509708890624,
                -0.11765483550287015,
                0.6647324294634955,
                -0.7520114917403077,
                0.06409584412789177
            ]
        },
        {
            "positions": [
                0.9384400785892746,
                -0.9904904892664317,
                -0.017545741690859318,
                0.7876926199935792,
                -0.7065150805588765,
                0.04310007396136356
            ]
        },
        {
            "positions": [
                0.8457473173853951,
                -0.9771300076438011,
                0.08256335212115173,
                0.9106528105236624,
                -0.6610186693774452,
                0.02210430379483541
            ]
        },
        {
            "positions": [
                0.7530545561815156,
                -0.9637695260211705,
                0.18267244593316256,
                1.0336130010537457,
                -0.615522258196014,
                0.0011085336283072067
            ]
        },
        {
            "positions": [
                0.6603617949776361,
                -0.9504090443985398,
                0.2827815397451734,
                1.1565731915838293,
                -0.5700258470145827,
                -0.019887236538220998
            ]
        },
        {
            "positions": [
                0.5676690337737567,
                -0.9370485627759092,
                0.3828906335571842,
                1.2795333821139125,
                -0.5245294358331516,
                -0.04088300670474915
            ]
        },
        {
            "positions": [
                0.4749762725698772,
                -0.9236880811532786,
                0.48299972736919505,
                1.4024935726439962,
                -0.47903302465172026,
                -0.0618787768712773
            ]
        },
        {
            "positions": [
                0.3822835113659977,
                -0.9103275995306479,
                0.5831088211812063,
                1.5254537631740799,
                -0.43353661347028893,
                -0.08287454703780561
            ]
        },
        {
            "positions": [
                0.2895907501621182,
                -0.8969671179080172,
                0.6832179149932172,
                1.648413953704163,
                -0.3880402022888576,
                -0.1038703172043337
            ]
        },
        {
            "positions": [
                0.19689798895823873,
                -0.8836066362853865,
                0.783327008805228,
                1.7713741442342468,
                -0.3425437911074265,
                -0.12486608737086191
            ]
        },
        {
            "positions": [
                0.10420522775435945,
                -0.8702461546627559,
                0.8834361026172388,
                1.89433433476433,
                -0.29704737992599517,
                -0.1458618575373901
            ]
        },
        {
            "positions": [
                0.10289538939479514,
                -0.8478460010844708,
                1.1540602481689495,
                1.9202479659204332,
                -0.2584283088095334,
                -0.12658830668814136
            ]
        },
        {
            "positions": [
                0.10158555103523086,
                -0.8254458475061859,
                1.4246843937206601,
                1.9461615970765365,
                -0.21980923769307156,
                -0.10731475583889262
            ]
        },
        {
            "positions": [
                0.10027571267566657,
                -0.8030456939279009,
                1.6953085392723706,
                1.9720752282326397,
                -0.18119016657660975,
                -0.08804120498964388
            ]
        },
        {
            "positions": [
                0.09896587431610226,
                -0.7806455403496159,
                1.9659326848240812,
                1.997988859388743,
                -0.14257109546014796,
                -0.06876765414039515
            ]
        },
        {
            "positions": [
                0.12241592955990674,
                -0.7846201910181189,
                2.0134460062762263,
                1.979907773555364,
                -0.13873547868889244,
                -0.06362787798396956
            ]
        }
    ]
}