{
    "goal": {
        "global_pose": {
            "orientation": {
                "w": 0.7047431493862688,
                "x": -0.7094548369677653,
                "y": 0.0024358444001904,
                "z": -0.0022348060817251984
            },
            "position": {
                "x": -0.39052492380142206,
                "y": 0.3671506643295288,
                "z": 0.19426114857196808
            }
        },
        "name": "move_to_magneteinheit_D"
    },
    "id": "LazyPRM_move_to_magneteinheit_D_35",
    "joint_names": [
        "shoulder_pan_joint",
        "shoulder_lift_joint",
        "elbow_joint",
        "wrist_1_joint",
        "wrist_2_joint",
        "wrist_3_joint"
    ],
    "metrics": {
        "cart_traj_len": 4.807600104011188,
        "distance_elbow_joint": 3.09945464186606,
        "distance_shoulder_lift_joint": 1.651945530082676,
        "distance_shoulder_pan_joint": 2.8253496111403953,
        "distance_wrist_1_joint": 2.8048337491539996,
        "distance_wrist_2_joint": 0.7164165655570849,
        "distance_wrist_3_joint": 0.5703759375240565,
        "smoothness": 0.3967368718785211,
        "time": 0.371344725,
        "traj_len": 3.4159004721045774,
        "weighted_distance": 4.041086267958589
    },
    "planner": "LazyPRM",
    "start": {
        "state": {
            "elbow_joint": 0.749534889911806,
            "shoulder_lift_joint": -0.6476975780787326,
            "shoulder_pan_joint": -2.711696901376241,
            "wrist_1_joint": -0.07506478083263063,
            "wrist_2_joint": 0.43296659715538205,
            "wrist_3_joint": -3.14703540197715
        }
    },
    "waypoints": [
        {
            "positions": [
                -2.711696901376241,
                -0.6476975780787326,
                0.749534889911806,
                -0.07506478083263063,
                0.43296659715538205,
                -3.14703540197715
            ]
        },
        {
            "positions": [
                -2.732402196610101,
                -0.7837584760443992,
                0.7514375228742232,
                -0.1955390823748566,
                0.4405903900216985,
                -3.06710653829247
            ]
        },
        {
            "positions": [
                -2.753107491843961,
                -0.9198193740100656,
                0.7533401558366404,
                -0.31601338391708256,
                0.4482141828880149,
                -2.98717767460779
            ]
        },
        {
            "positions": [
                -2.6332669288826103,
                -0.9726190574271872,
                0.6793524431638185,
                -0.42378063411011246,
                0.4167358602789571,
                -2.9790311709274038
            ]
        },
        {
            "positions": [
                -2.513426365921259,
                -1.025418740844309,
                0.6053647304909965,
                -0.5315478843031425,
                0.38525753766989934,
                -2.9708846672470175
            ]
        },
        {
            "positions": [
                -2.393585802959908,
                -1.0782184242614306,
                0.5313770178181746,
                -0.6393151344961724,
                0.35377921506084153,
                -2.9627381635666312
            ]
        },
        {
            "positions": [
                -2.273745239998557,
                -1.1310181076785522,
                0.45738930514535264,
                -0.7470823846892023,
                0.3223008924517837,
                -2.954591659886245
            ]
        },
        {
            "positions": [
                -2.153904677037206,
                -1.1838177910956738,
                0.38340159247253075,
                -0.8548496348822322,
                0.2908225698427259,
                -2.9464451562058587
            ]
        },
        {
            "positions": [
                -2.0340641140758553,
                -1.2366174745127954,
                0.3094138797997088,
                -0.9626168850752622,
                0.25934424723366817,
                -2.938298652525472
            ]
        },
        {
            "positions": [
                -1.914223551114504,
                -1.289417157929917,
                0.2354261671268869,
                -1.0703841352682921,
                0.22786592462461036,
                -2.9301521488450857
            ]
        },
        {
            "positions": [
                -1.7943829881531532,
                -1.3422168413470388,
                0.1614384544540649,
                -1.1781513854613221,
                0.1963876020155526,
                -2.9220056451646994
            ]
        },
        {
            "positions": [
                -1.6745424251918022,
                -1.3950165247641604,
                0.08745074178124301,
                -1.285918635654352,
                0.1649092794064948,
                -2.913859141484313
            ]
        },
        {
            "positions": [
                -1.5547018622304511,
                -1.447816208181282,
                0.01346302910842112,
                -1.3936858858473817,
                0.133430956797437,
                -2.905712637803927
            ]
        },
        {
            "positions": [
                -1.4348612992690999,
                -1.5006158915984036,
                -0.060524683564400994,
                -1.501453136040412,
                0.10195263418837919,
                -2.8975661341235406
            ]
        },
        {
            "positions": [
                -1.315020736307749,
                -1.5534155750155252,
                -0.13451239623722278,
                -1.6092203862334418,
                0.07047431157932144,
                -2.8894196304431543
            ]
        },
        {
            "positions": [
                -1.195180173346398,
                -1.606215258432647,
                -0.20850010891004478,
                -1.716987636426472,
                0.03899598897026357,
                -2.881273126762768
            ]
        },
        {
            "positions": [
                -1.075339610385047,
                -1.6590149418497684,
                -0.28248782158286656,
                -1.8247548866195018,
                0.0075176663612058214,
                -2.8731266230823818
            ]
        },
        {
            "positions": [
                -0.955499047423696,
                -1.7118146252668902,
                -0.3564755342556887,
                -1.9325221368125316,
                -0.023960656247851986,
                -2.8649801194019955
            ]
        },
        {
            "positions": [
                -0.8356584844623451,
                -1.7646143086840116,
                -0.43046324692851057,
                -2.0402893870055614,
                -0.05543897885690968,
                -2.8568336157216088
            ]
        },
        {
            "positions": [
                -0.7158179215009941,
                -1.8174139921011334,
                -0.5044509596013325,
                -2.1480566371985916,
                -0.0869173014659676,
                -2.8486871120412225
            ]
        },
        {
            "positions": [
                -0.5959773585396433,
                -1.870213675518255,
                -0.5784386722741544,
                -2.2558238873916214,
                -0.1183956240750253,
                -2.840540608360836
            ]
        },
        {
            "positions": [
                -0.476136795578292,
                -1.9230133589353766,
                -0.6524263849469765,
                -2.3635911375846512,
                -0.1498739466840831,
                -2.83239410468045
            ]
        },
        {
            "positions": [
                -0.3562962326169412,
                -1.9758130423524984,
                -0.7264140976197981,
                -2.471358387777681,
                -0.1813522692931409,
                -2.8242476010000637
            ]
        },
        {
            "positions": [
                -0.23645566965559014,
                -2.02861272576962,
                -0.8004018102926203,
                -2.5791256379707113,
                -0.21283059190219872,
                -2.8161010973196774
            ]
        },
        {
            "positions": [
                -0.20460751132756802,
                -1.9945597898171148,
                -1.031073575122681,
                -2.5442773402419046,
                -0.20843880406777754,
                -2.85782265176072
            ]
        },
        {
            "positions": [
                -0.17275935299954592,
                -1.96050685386461,
                -1.2617453399527414,
                -2.5094290425130974,
                -0.20404701623335636,
                -2.899544206201763
            ]
        },
        {
            "positions": [
                -0.1409111946715238,
                -1.926453917912105,
                -1.492417104782802,
                -2.4745807447842907,
                -0.19965522839893518,
                -2.941265760642805
            ]
        },
        {
            "positions": [
                -0.10906303634350167,
                -1.8924009819596002,
                -1.7230888696128628,
                -2.4397324470554835,
                -0.195263440564514,
                -2.982987315083848
            ]
        },
        {
            "positions": [
                -0.07721487801547959,
                -1.8583480460070951,
                -1.9537606344429232,
                -2.404884149326677,
                -0.19087165273009282,
                -3.0247088695248907
            ]
        },
        {
            "positions": [
                -0.13123808143757676,
                -1.807965194692463,
                -2.1480349272737542,
                -2.3416184476407347,
                -0.18178901979902662,
                -3.040125799855576
            ]
        },
        {
            "positions": [
                -0.1852612848596739,
                -1.757582343377831,
                -2.3423092201045854,
                -2.278352745954792,
                -0.1727063868679604,
                -3.055542730186261
            ]
        }
    ]
}