{
    "goal": {
        "global_pose": {
            "orientation": {
                "w": -0.4816463035849501,
                "x": 0.5182115481033762,
                "y": 0.4908360881923453,
                "z": -0.5084816262002911
            },
            "position": {
                "x": -0.8240239810943604,
                "y": 0.19912469901144506,
                "z": 0.16403168439865112
            }
        },
        "name": "move_to_storage_D"
    },
    "id": "LazyPRMstar_move_to_storage_D_62",
    "joint_names": [
        "shoulder_pan_joint",
        "shoulder_lift_joint",
        "elbow_joint",
        "wrist_1_joint",
        "wrist_2_joint",
        "wrist_3_joint"
    ],
    "metrics": {
        "cart_traj_len": 1.0500964429632904,
        "distance_elbow_joint": 0.5587650610666264,
        "distance_shoulder_lift_joint": 0.7522039148113722,
        "distance_shoulder_pan_joint": 1.088538327098681,
        "distance_wrist_1_joint": 3.867528599903961,
        "distance_wrist_2_joint": 1.7951516242952559,
        "distance_wrist_3_joint": 3.149632604416237,
        "smoothness": 0.18302489346335035,
        "time": 5.021529142,
        "traj_len": 3.348405610375202,
        "weighted_distance": 4.813913747110953
    },
    "planner": "LazyPRMstar",
    "start": {
        "state": {
            "elbow_joint": -2.384821988534728,
            "shoulder_lift_joint": -2.2788054721415256,
            "shoulder_pan_joint": -0.1854694642142757,
            "wrist_1_joint": 1.4845938289331202,
            "wrist_2_joint": 0.17898776772866878,
            "wrist_3_joint": 0.037105688729662994
        }
    },
    "waypoints": [
        {
            "positions": [
                -0.1854694642142757,
                -2.2788054721415256,
                -2.384821988534728,
                1.4845938289331202,
                0.17898776772866878,
                0.037105688729662994
            ]
        },
        {
            "positions": [
                -0.1282720503575029,
                -2.238351837828846,
                -2.378728665335225,
                1.492662054665911,
                0.14265678889632585,
                0.23242778369551667
            ]
        },
        {
            "positions": [
                -0.07107463650073009,
                -2.197898203516167,
                -2.3726353421357222,
                1.5007302803987022,
                0.10632581006398294,
                0.4277498786613704
            ]
        },
        {
            "positions": [
                -0.03749101855285263,
                -2.1731635556915037,
                -2.3577446309904326,
                1.4251321737692575,
                0.04955029584724888,
                0.5975390085684973
            ]
        },
        {
            "positions": [
                -0.0039074006049751725,
                -2.1484289078668404,
                -2.3428539198451435,
                1.3495340671398126,
                -0.00722521836948517,
                0.7673281384756242
            ]
        },
        {
            "positions": [
                0.029676217342902295,
                -2.1236942600421767,
                -2.327963208699854,
                1.273935960510368,
                -0.06400073258621926,
                0.9371172683827511
            ]
        },
        {
            "positions": [
                0.06325983529077975,
                -2.0989596122175134,
                -2.3130724975545642,
                1.1983378538809233,
                -0.12077624680295328,
                1.106906398289878
            ]
        },
        {
            "positions": [
                0.0968434532386572,
                -2.07422496439285,
                -2.2981817864092746,
                1.1227397472514786,
                -0.17755176101968734,
                1.276695528197005
            ]
        },
        {
            "positions": [
                0.13042707118653468,
                -2.049490316568187,
                -2.2832910752639854,
                1.0471416406220337,
                -0.23432727523642144,
                1.446484658104132
            ]
        },
        {
            "positions": [
                0.16401068913441214,
                -2.024755668743523,
                -2.268400364118696,
                0.971543533992589,
                -0.2911027894531555,
                1.6162737880112585
            ]
        },
        {
            "positions": [
                0.1975943070822896,
                -2.00002102091886,
                -2.253509652973406,
                0.8959454273631443,
                -0.3478783036698895,
                1.7860629179183856
            ]
        },
        {
            "positions": [
                0.23117792503016704,
                -1.9752863730941965,
                -2.2386189418281166,
                0.8203473207336995,
                -0.4046538178866235,
                1.9558520478255126
            ]
        },
        {
            "positions": [
                0.2647615429780445,
                -1.950551725269533,
                -2.2237282306828274,
                0.7447492141042549,
                -0.4614293321033576,
                2.125641177732639
            ]
        },
        {
            "positions": [
                0.29834516092592195,
                -1.9258170774448697,
                -2.208837519537538,
                0.6691511074748101,
                -0.5182048463200917,
                2.295430307639766
            ]
        },
        {
            "positions": [
                0.33192877887379946,
                -1.9010824296202062,
                -2.193946808392248,
                0.5935530008453653,
                -0.5749803605368259,
                2.465219437546893
            ]
        },
        {
            "positions": [
                0.3655123968216769,
                -1.876347781795543,
                -2.1790560972469586,
                0.5179548942159206,
                -0.6317558747535599,
                2.6350085674540202
            ]
        },
        {
            "positions": [
                0.39909601476955436,
                -1.8516131339708797,
                -2.1641653861016694,
                0.4423567875864758,
                -0.688531388970294,
                2.804797697361147
            ]
        },
        {
            "positions": [
                0.4326796327174318,
                -1.8268784861462162,
                -2.14927467495638,
                0.3667586809570311,
                -0.745306903187028,
                2.974586827268274
            ]
        },
        {
            "positions": [
                0.39649584578151076,
                -1.8499767114397594,
                -2.124411771303435,
                0.15772633103420747,
                -0.8122958996008403,
                2.990906170797322
            ]
        },
        {
            "positions": [
                0.3603120588455897,
                -1.8730749367333028,
                -2.099548867650491,
                -0.05130601888861619,
                -0.8792848960146524,
                3.00722551432637
            ]
        },
        {
            "positions": [
                0.3241282719096687,
                -1.896173162026846,
                -2.0746859639975463,
                -0.2603383688114398,
                -0.9462738924284647,
                3.0235448578554185
            ]
        },
        {
            "positions": [
                0.28794448497374764,
                -1.9192713873203893,
                -2.0498230603446017,
                -0.4693707187342635,
                -1.013262888842277,
                3.0398642013844666
            ]
        },
        {
            "positions": [
                0.25176069803782664,
                -1.9423696126139327,
                -2.0249601566916575,
                -0.6784030686570872,
                -1.0802518852560892,
                3.0561835449135146
            ]
        },
        {
            "positions": [
                0.21557691110190555,
                -1.965467837907476,
                -2.000097253038713,
                -0.8874354185799107,
                -1.1472408816699016,
                3.0725028884425627
            ]
        },
        {
            "positions": [
                0.17939312416598452,
                -1.9885660632010191,
                -1.9752343493857685,
                -1.0964677685027344,
                -1.2142298780837137,
                3.088822231971611
            ]
        },
        {
            "positions": [
                0.14320933723006346,
                -2.0116642884945626,
                -1.950371445732824,
                -1.3055001184255581,
                -1.281218874497526,
                3.1051415755006593
            ]
        },
        {
            "positions": [
                0.10702555029414246,
                -2.0347625137881056,
                -1.9255085420798794,
                -1.5145324683483816,
                -1.348207870911338,
                3.1214609190297073
            ]
        },
        {
            "positions": [
                0.0708417633582214,
                -2.057860739081649,
                -1.900645638426935,
                -1.7235648182712056,
                -1.4151968673251505,
                3.1377802625587554
            ]
        },
        {
            "positions": [
                0.03465797642230034,
                -2.0809589643751925,
                -1.8757827347739906,
                -1.9325971681940288,
                -1.4821858637389629,
                3.154099606087804
            ]
        },
        {
            "positions": [
                -0.0015258105136207178,
                -2.1040571896687355,
                -1.850919831121046,
                -2.1416295181168525,
                -1.549174860152775,
                3.170418949616852
            ]
        },
        {
            "positions": [
                -0.03770959744954169,
                -2.127155414962279,
                -1.8260569274681016,
                -2.3506618680396762,
                -1.6161638565665872,
                3.1867382931459
            ]
        }
    ]
}