{
    "goal": {
        "global_pose": {
            "orientation": {
                "w": -0.4816463035849501,
                "x": 0.5182115481033762,
                "y": 0.4908360881923453,
                "z": -0.5084816262002911
            },
            "position": {
                "x": -0.8240239810943604,
                "y": -0.300875300988555,
                "z": 0.16403168439865112
            }
        },
        "name": "move_to_storage_C"
    },
    "id": "LazyPRMstar_move_to_storage_C_108",
    "joint_names": [
        "shoulder_pan_joint",
        "shoulder_lift_joint",
        "elbow_joint",
        "wrist_1_joint",
        "wrist_2_joint",
        "wrist_3_joint"
    ],
    "metrics": {
        "cart_traj_len": 0.5768358511425481,
        "distance_elbow_joint": 0.25974456773672383,
        "distance_shoulder_lift_joint": 0.18966104853124577,
        "distance_shoulder_pan_joint": 0.4953968445823267,
        "distance_wrist_1_joint": 0.08717851705049018,
        "distance_wrist_2_joint": 1.0650244022522082,
        "distance_wrist_3_joint": 0.060429523999790735,
        "smoothness": 0.0,
        "time": 5.001305748,
        "traj_len": 1.4688209231055993,
        "weighted_distance": 1.8521600555716196
    },
    "planner": "LazyPRMstar",
    "start": {
        "state": {
            "elbow_joint": 2.010868314990456,
            "shoulder_lift_joint": -1.1634956873337592,
            "shoulder_pan_joint": -2.4736205022346125,
            "wrist_1_joint": -0.8367026794202681,
            "wrist_2_joint": 0.6746043897044499,
            "wrist_3_joint": -3.1496632123970403
        }
    },
    "waypoints": [
        {
            "positions": [
                -2.4736205022346125,
                -1.1634956873337592,
                2.010868314990456,
                -0.8367026794202681,
                0.6746043897044499,
                -3.1496632123970403
            ]
        },
        {
            "positions": [
                -2.5561866429983335,
                -1.1318855125785516,
                1.9675775537010018,
                -0.8221729265785197,
                0.8521084567464846,
                -3.139591625063742
            ]
        },
        {
            "positions": [
                -2.6387527837620546,
                -1.1002753378233439,
                1.9242867924115479,
                -0.8076431737367714,
                1.0296125237885194,
                -3.1295200377304435
            ]
        },
        {
            "positions": [
                -2.721318924525776,
                -1.0686651630681363,
                1.880996031122094,
                -0.793113420895023,
                1.207116590830554,
                -3.1194484503971447
            ]
        },
        {
            "positions": [
                -2.803885065289497,
                -1.0370549883129287,
                1.83770526983264,
                -0.7785836680532746,
                1.3846206578725888,
                -3.1093768630638463
            ]
        },
        {
            "positions": [
                -2.886451206053218,
                -1.005444813557721,
                1.794414508543186,
                -0.7640539152115263,
                1.5621247249146233,
                -3.099305275730548
            ]
        },
        {
            "positions": [
                -2.969017346816939,
                -0.9738346388025134,
                1.751123747253732,
                -0.7495241623697779,
                1.739628791956658,
                -3.0892336883972495
            ]
        }
    ]
}