{
    "goal": {
        "global_pose": {
            "orientation": {
                "w": 0.7047431468963623,
                "x": -0.7094548344612122,
                "y": 0.0024358443915843964,
                "z": -0.0022348060738295317
            },
            "position": {
                "x": 0.6094750761985779,
                "y": 0.3671506643295288,
                "z": 0.19426114857196808
            }
        },
        "name": "move_to_magneteinheit_A"
    },
    "id": "LazyPRMstar_move_to_magneteinheit_A_125",
    "joint_names": [
        "shoulder_pan_joint",
        "shoulder_lift_joint",
        "elbow_joint",
        "wrist_1_joint",
        "wrist_2_joint",
        "wrist_3_joint"
    ],
    "metrics": {
        "cart_traj_len": 3.2211225186048202,
        "distance_elbow_joint": 4.153068693326636,
        "distance_shoulder_lift_joint": 1.0025067874052214,
        "distance_shoulder_pan_joint": 2.914172508050344,
        "distance_wrist_1_joint": 0.9544929824054702,
        "distance_wrist_2_joint": 1.753112630690321,
        "distance_wrist_3_joint": 2.6621147949898476,
        "smoothness": 0.5013426165628265,
        "time": 5.022674314,
        "traj_len": 3.6659880519264982,
        "weighted_distance": 4.633713802118483
    },
    "planner": "LazyPRMstar",
    "start": {
        "state": {
            "elbow_joint": -1.9196185241190666,
            "shoulder_lift_joint": -1.2443396400964142,
            "shoulder_pan_joint": 2.6996025414629847,
            "wrist_1_joint": -1.5485510000780065,
            "wrist_2_joint": -1.5709468930060704,
            "wrist_3_joint": 0.4420197071253992
        }
    },
    "waypoints": [
        {
            "positions": [
                2.6996025414629847,
                -1.2443396400964142,
                -1.9196185241190666,
                -1.5485510000780065,
                -1.5709468930060704,
                0.4420197071253992
            ]
        },
        {
            "positions": [
                2.608097317236631,
                -1.2593137836475126,
                -1.7970276309511586,
                -1.5269209201740055,
                -1.5140499097550217,
                0.5254898838309177
            ]
        },
        {
            "positions": [
                2.5165920930102774,
                -1.274287927198611,
                -1.6744367377832503,
                -1.5052908402700047,
                -1.4571529265039733,
                0.608960060536436
            ]
        },
        {
            "positions": [
                2.4250868687839238,
                -1.289262070749709,
                -1.5518458446153423,
                -1.4836607603660037,
                -1.4002559432529247,
                0.6924302372419544
            ]
        },
        {
            "positions": [
                2.3335816445575706,
                -1.3042362143008075,
                -1.429254951447434,
                -1.462030680462003,
                -1.343358960001876,
                0.7759004139474729
            ]
        },
        {
            "positions": [
                2.242076420331217,
                -1.3192103578519059,
                -1.306664058279526,
                -1.440400600558002,
                -1.2864619767508274,
                0.8593705906529914
            ]
        },
        {
            "positions": [
                2.1505711961048632,
                -1.3341845014030043,
                -1.1840731651116179,
                -1.418770520654001,
                -1.229564993499779,
                0.9428407673585097
            ]
        },
        {
            "positions": [
                2.0590659718785096,
                -1.3491586449541026,
                -1.0614822719437096,
                -1.39714044075,
                -1.1726680102487304,
                1.0263109440640283
            ]
        },
        {
            "positions": [
                1.967560747652156,
                -1.364132788505201,
                -0.9388913787758015,
                -1.375510360845999,
                -1.115771026997682,
                1.1097811207695467
            ]
        },
        {
            "positions": [
                1.8760555234258023,
                -1.3791069320562994,
                -0.8163004856078935,
                -1.3538802809419983,
                -1.0588740437466333,
                1.193251297475065
            ]
        },
        {
            "positions": [
                1.7845502991994489,
                -1.3940810756073976,
                -0.6937095924399852,
                -1.3322502010379973,
                -1.0019770604955847,
                1.2767214741805835
            ]
        },
        {
            "positions": [
                1.6930450749730952,
                -1.409055219158496,
                -0.5711186992720771,
                -1.3106201211339965,
                -0.9450800772445361,
                1.3601916508861018
            ]
        },
        {
            "positions": [
                1.6015398507467415,
                -1.4240293627095943,
                -0.44852780610416887,
                -1.2889900412299955,
                -0.8881830939934875,
                1.4436618275916202
            ]
        },
        {
            "positions": [
                1.510034626520388,
                -1.4390035062606927,
                -0.3259369129362608,
                -1.2673599613259947,
                -0.831286110742439,
                1.527132004297139
            ]
        },
        {
            "positions": [
                1.4185294022940345,
                -1.4539776498117911,
                -0.20334601976835254,
                -1.2457298814219937,
                -0.7743891274913903,
                1.6106021810026574
            ]
        },
        {
            "positions": [
                1.3270241780676808,
                -1.4689517933628893,
                -0.08075512660044448,
                -1.2240998015179927,
                -0.7174921442403418,
                1.6940723577081758
            ]
        },
        {
            "positions": [
                1.2355189538413271,
                -1.4839259369139877,
                0.04183576656746357,
                -1.202469721613992,
                -0.6605951609892933,
                1.7775425344136941
            ]
        },
        {
            "positions": [
                1.1440137296149737,
                -1.498900080465086,
                0.16442665973537185,
                -1.1808396417099911,
                -0.6036981777382446,
                1.8610127111192125
            ]
        },
        {
            "positions": [
                1.05250850538862,
                -1.5138742240161844,
                0.2870175529032797,
                -1.15920956180599,
                -0.5468011944871962,
                1.9444828878247309
            ]
        },
        {
            "positions": [
                0.9610032811622664,
                -1.5288483675672828,
                0.40960844607118796,
                -1.137579481901989,
                -0.4899042112361476,
                2.0279530645302493
            ]
        },
        {
            "positions": [
                0.869498056935913,
                -1.543822511118381,
                0.5321993392390962,
                -1.1159494019979883,
                -0.43300722798509894,
                2.1114232412357676
            ]
        },
        {
            "positions": [
                0.7779928327095593,
                -1.5587966546694796,
                0.6547902324070041,
                -1.0943193220939873,
                -0.3761102447340505,
                2.194893417941286
            ]
        },
        {
            "positions": [
                0.6864876084832057,
                -1.5737707982205777,
                0.7773811255749123,
                -1.0726892421899865,
                -0.3192132614830019,
                2.2783635946468044
            ]
        },
        {
            "positions": [
                0.594982384256852,
                -1.5887449417716761,
                0.8999720187428211,
                -1.0510591622859855,
                -0.26231627823195325,
                2.361833771352323
            ]
        },
        {
            "positions": [
                0.5034771600304984,
                -1.6037190853227745,
                1.022562911910729,
                -1.0294290823819847,
                -0.2054192949809046,
                2.4453039480578416
            ]
        },
        {
            "positions": [
                0.4119719358041447,
                -1.618693228873873,
                1.1451538050786372,
                -1.0077990024779835,
                -0.14852231172985597,
                2.5287741247633604
            ]
        },
        {
            "positions": [
                0.32046671157779105,
                -1.6336673724249713,
                1.267744698246545,
                -0.9861689225739827,
                -0.09162532847880756,
                2.6122443014688788
            ]
        },
        {
            "positions": [
                0.2289614873514374,
                -1.6486415159760694,
                1.3903355914144533,
                -0.9645388426699818,
                -0.03472834522775892,
                2.695714478174397
            ]
        },
        {
            "positions": [
                0.1374562631250842,
                -1.6636156595271678,
                1.5129264845823616,
                -0.9429087627659809,
                0.022168638023289722,
                2.7791846548799155
            ]
        },
        {
            "positions": [
                0.045951038898730534,
                -1.6785898030782662,
                1.6355173777502694,
                -0.92127868286198,
                0.07906562127433814,
                2.862654831585434
            ]
        },
        {
            "positions": [
                -0.04555418532762298,
                -1.6935639466293646,
                1.7581082709181777,
                -0.8996486029579791,
                0.13596260452538675,
                2.9461250082909523
            ]
        },
        {
            "positions": [
                -0.00991125427934697,
                -1.5789149142413246,
                1.873122505324826,
                -0.9326665453032649,
                0.12633644722597587,
                2.9825227095337006
            ]
        },
        {
            "positions": [
                0.02573167676892904,
                -1.4642658818532848,
                1.9881367397314742,
                -0.9656844876485506,
                0.11671028992656499,
                3.0189204107764485
            ]
        },
        {
            "positions": [
                0.061374607817205065,
                -1.3496168494652447,
                2.1031509741381225,
                -0.9987024299938364,
                0.10708413262715409,
                3.055318112019197
            ]
        },
        {
            "positions": [
                0.09241810187465915,
                -1.244949157611169,
                2.038001376603399,
                -0.8954340508690437,
                0.11574646325746964,
                3.079726307067222
            ]
        },
        {
            "positions": [
                0.12346159593211326,
                -1.1402814657570937,
                1.9728517790686757,
                -0.7921656717442509,
                0.12440879388778518,
                3.104134502115247
            ]
        }
    ]
}