{
    "goal": {
        "global_pose": {
            "orientation": {
                "w": 0.7031023502349854,
                "x": -0.7110244035720825,
                "y": 0.007748599164187908,
                "z": 0.005598929710686207
            },
            "position": {
                "x": 0.11585023208521307,
                "y": 0.44412534475326537,
                "z": 0.3711530566215515
            }
        },
        "name": "move_to_auspresseinheit_A"
    },
    "id": "LazyPRMstar_move_to_auspresseinheit_A_28",
    "joint_names": [
        "shoulder_pan_joint",
        "shoulder_lift_joint",
        "elbow_joint",
        "wrist_1_joint",
        "wrist_2_joint",
        "wrist_3_joint"
    ],
    "metrics": {
        "cart_traj_len": 0.782590632042385,
        "distance_elbow_joint": 0.21786713473028385,
        "distance_shoulder_lift_joint": 0.5369254492921338,
        "distance_shoulder_pan_joint": 1.0434038251369562,
        "distance_wrist_1_joint": 0.5508360132913922,
        "distance_wrist_2_joint": 0.5327277710521907,
        "distance_wrist_3_joint": 0.20443074574365117,
        "smoothness": 0.38001366786210033,
        "time": 5.013991089,
        "traj_len": 1.756755799548306,
        "weighted_distance": 2.1397701313639956
    },
    "planner": "LazyPRMstar",
    "start": {
        "state": {
            "elbow_joint": 2.4225746658250005,
            "shoulder_lift_joint": -1.3736534386056498,
            "shoulder_pan_joint": -0.3378633547517467,
            "wrist_1_joint": -1.0288598680537169,
            "wrist_2_joint": 1.233022673432363,
            "wrist_3_joint": -3.0940220416140027
        }
    },
    "waypoints": [
        {
            "positions": [
                -0.3378633547517467,
                -1.3736534386056498,
                2.4225746658250005,
                -1.0288598680537169,
                1.233022673432363,
                -3.0940220416140027
            ]
        },
        {
            "positions": [
                -0.2913323624108901,
                -1.480981932525663,
                2.3979728896045085,
                -0.9256054852922518,
                1.191913203682072,
                -3.0778351636035435
            ]
        },
        {
            "positions": [
                -0.2448013700700335,
                -1.5883104264456762,
                2.373371113384016,
                -0.8223511025307868,
                1.1508037339317811,
                -3.061648285593084
            ]
        },
        {
            "positions": [
                -0.1982703777291769,
                -1.6956389203656894,
                2.348769337163524,
                -0.7190967197693219,
                1.1096942641814904,
                -3.045461407582625
            ]
        },
        {
            "positions": [
                -0.15173938538832027,
                -1.8029674142857026,
                2.3241675609430317,
                -0.6158423370078567,
                1.0685847944311995,
                -3.0292745295721657
            ]
        },
        {
            "positions": [
                -0.10520839304746368,
                -1.9102959082057158,
                2.2995657847225397,
                -0.5125879542463918,
                1.0274753246809085,
                -3.0130876515617064
            ]
        },
        {
            "positions": [
                0.09747882281070464,
                -1.910225163282699,
                2.3232803481294955,
                -0.503946929375375,
                0.9456802191057245,
                -3.043961740484545
            ]
        },
        {
            "positions": [
                0.3001660386688729,
                -1.910154418359682,
                2.3469949115364512,
                -0.49530590450435824,
                0.8638851135305404,
                -3.074835829407384
            ]
        },
        {
            "positions": [
                0.5028532545270413,
                -1.9100836734366649,
                2.370709474943407,
                -0.4866648796333415,
                0.7820900079553563,
                -3.1057099183302226
            ]
        },
        {
            "positions": [
                0.7055404703852096,
                -1.910012928513648,
                2.3944240383503628,
                -0.4780238547623247,
                0.7002949023801723,
                -3.1365840072530613
            ]
        }
    ]
}