{
    "goal": {
        "global_pose": {
            "orientation": {
                "w": -0.00223480608172531,
                "x": 0.0024358444001904467,
                "y": 0.7094548369677653,
                "z": -0.704743149386269
            },
            "position": {
                "x": 0.6205249238014221,
                "y": -0.6371506643295288,
                "z": 0.19426114857196808
            }
        },
        "name": "move_to_magneteinheit_B"
    },
    "id": "LazyPRM_move_to_magneteinheit_B_73",
    "joint_names": [
        "shoulder_pan_joint",
        "shoulder_lift_joint",
        "elbow_joint",
        "wrist_1_joint",
        "wrist_2_joint",
        "wrist_3_joint"
    ],
    "metrics": {
        "cart_traj_len": 1.449199448394419,
        "distance_elbow_joint": 0.9563555331289115,
        "distance_shoulder_lift_joint": 0.8421694315499204,
        "distance_shoulder_pan_joint": 1.6197736103420666,
        "distance_wrist_1_joint": 0.9735883866257944,
        "distance_wrist_2_joint": 1.531864412660745,
        "distance_wrist_3_joint": 2.0486512158999854,
        "smoothness": 0.46621805017801266,
        "time": 1.6944673579999998,
        "traj_len": 2.8235443311921675,
        "weighted_distance": 3.8177425032725734
    },
    "planner": "LazyPRM",
    "start": {
        "state": {
            "elbow_joint": 2.6216224122426386,
            "shoulder_lift_joint": -1.4174107377796124,
            "shoulder_pan_joint": 0.7066234856936794,
            "wrist_1_joint": 1.9546482284002225,
            "wrist_2_joint": -0.7096286983471962,
            "wrist_3_joint": 0.005740856962016249
        }
    },
    "waypoints": [
        {
            "positions": [
                0.7066234856936794,
                -1.4174107377796124,
                2.6216224122426386,
                1.9546482284002225,
                -0.7096286983471962,
                0.005740856962016249
            ]
        },
        {
            "positions": [
                0.6757205149834764,
                -1.4395356311167447,
                2.6130666142449277,
                1.7618860286162399,
                -0.710482197522381,
                0.056184881946572104
            ]
        },
        {
            "positions": [
                0.6448175442732733,
                -1.461660524453877,
                2.604510816247217,
                1.5691238288322573,
                -0.7113356966975657,
                0.10662890693112796
            ]
        },
        {
            "positions": [
                0.5066465988653641,
                -1.4161623622584105,
                2.553772403681635,
                1.5790813210756334,
                -0.7499271743114111,
                0.19058410328197872
            ]
        },
        {
            "positions": [
                0.36847565345745503,
                -1.3706642000629439,
                2.503033991116053,
                1.5890388133190092,
                -0.7885186519252565,
                0.2745392996328295
            ]
        },
        {
            "positions": [
                0.23030470804954595,
                -1.3251660378674774,
                2.4522955785504714,
                1.5989963055623853,
                -0.8271101295391018,
                0.3584944959836803
            ]
        },
        {
            "positions": [
                0.09213376264163675,
                -1.2796678756720108,
                2.4015571659848898,
                1.608953797805761,
                -0.8657016071529472,
                0.4424496923345311
            ]
        },
        {
            "positions": [
                -0.04603718276627233,
                -1.2341697134765444,
                2.3508187534193077,
                1.6189112900491371,
                -0.9042930847667926,
                0.5264048886853818
            ]
        },
        {
            "positions": [
                -0.18420812817418142,
                -1.188671551281078,
                2.300080340853726,
                1.628868782292513,
                -0.942884562380638,
                0.6103600850362325
            ]
        },
        {
            "positions": [
                -0.3223790735820906,
                -1.1431733890856113,
                2.2493419282881444,
                1.638826274535889,
                -0.9814760399944833,
                0.6943152813870833
            ]
        },
        {
            "positions": [
                -0.4605500189899998,
                -1.0976752268901449,
                2.1986035157225623,
                1.6487837667792649,
                -1.0200675176083287,
                0.7782704777379341
            ]
        },
        {
            "positions": [
                -0.598720964397909,
                -1.0521770646946782,
                2.1478651031569806,
                1.658741259022641,
                -1.058658995222174,
                0.8622256740887849
            ]
        },
        {
            "positions": [
                -0.736891909805818,
                -1.0066789024992118,
                2.0971266905913986,
                1.6686987512660167,
                -1.0972504728360195,
                0.9461808704396356
            ]
        },
        {
            "positions": [
                -0.8750628552137273,
                -0.9611807403037452,
                2.046388278025817,
                1.6786562435093928,
                -1.135841950449865,
                1.0301360667904864
            ]
        },
        {
            "positions": [
                -0.8792947740398005,
                -0.9281318668897981,
                2.0040414559244737,
                1.7318264182183587,
                -1.2586920794007623,
                0.9163298438936514
            ]
        },
        {
            "positions": [
                -0.8835266928658737,
                -0.895082993475851,
                1.9616946338231303,
                1.7849965929273248,
                -1.3815422083516595,
                0.8025236209968164
            ]
        },
        {
            "positions": [
                -0.887758611691947,
                -0.8620341200619038,
                1.919347811721787,
                1.8381667676362907,
                -1.504392337302557,
                0.6887173980999814
            ]
        },
        {
            "positions": [
                -0.8919905305180202,
                -0.8289852466479568,
                1.8770009896204436,
                1.8913369423452566,
                -1.6272424662534544,
                0.5749111752031464
            ]
        },
        {
            "positions": [
                -0.8962224493440935,
                -0.7959363732340097,
                1.8346541675191004,
                1.9445071170542227,
                -1.7500925952043518,
                0.4611049523063113
            ]
        },
        {
            "positions": [
                -0.9004543681701667,
                -0.7628874998200625,
                1.7923073454177572,
                1.9976772917631886,
                -1.8729427241552492,
                0.34729872940947637
            ]
        },
        {
            "positions": [
                -0.90468628699624,
                -0.7298386264061154,
                1.7499605233164137,
                2.0508474664721548,
                -1.9957928531061464,
                0.2334925065126413
            ]
        },
        {
            "positions": [
                -0.9089182058223132,
                -0.6967897529921683,
                1.7076137012150703,
                2.1040176411811204,
                -2.118642982057044,
                0.11968628361580635
            ]
        },
        {
            "positions": [
                -0.9131501246483864,
                -0.6637408795782211,
                1.665266879113727,
                2.1571878158900866,
                -2.2414931110079412,
                0.005880060718971382
            ]
        }
    ]
}