{
    "goal": {
        "global_pose": {
            "orientation": {
                "w": -0.4816463035849501,
                "x": 0.5182115481033762,
                "y": 0.4908360881923453,
                "z": -0.5084816262002911
            },
            "position": {
                "x": -0.8240239810943604,
                "y": 0.19912469901144506,
                "z": 0.16403168439865112
            }
        },
        "name": "move_to_storage_D"
    },
    "id": "LazyPRMstar_move_to_storage_D_58",
    "joint_names": [
        "shoulder_pan_joint",
        "shoulder_lift_joint",
        "elbow_joint",
        "wrist_1_joint",
        "wrist_2_joint",
        "wrist_3_joint"
    ],
    "metrics": {
        "cart_traj_len": 3.997153620539524,
        "distance_elbow_joint": 4.6997091042929,
        "distance_shoulder_lift_joint": 1.2645053182031563,
        "distance_shoulder_pan_joint": 2.8124482829172015,
        "distance_wrist_1_joint": 2.7154419601886213,
        "distance_wrist_2_joint": 0.8707427041505622,
        "distance_wrist_3_joint": 3.1564008200562736,
        "smoothness": 0.26355683734544,
        "time": 5.059779389,
        "traj_len": 3.9394477011135347,
        "weighted_distance": 5.041649977364598
    },
    "planner": "LazyPRMstar",
    "start": {
        "state": {
            "elbow_joint": -2.384821988534728,
            "shoulder_lift_joint": -2.2788054721415256,
            "shoulder_pan_joint": -0.1854694642142757,
            "wrist_1_joint": 1.4845938289331202,
            "wrist_2_joint": 0.17898776772866878,
            "wrist_3_joint": 0.037105688729662994
        }
    },
    "waypoints": [
        {
            "positions": [
                -0.1854694642142757,
                -2.2788054721415256,
                -2.384821988534728,
                1.4845938289331202,
                0.17898776772866878,
                0.037105688729662994
            ]
        },
        {
            "positions": [
                -0.13292320639989347,
                -2.2733400944576188,
                -2.445851860801271,
                1.5391568715269024,
                0.21015758244467,
                0.15661431031108008
            ]
        },
        {
            "positions": [
                -0.08037694858551121,
                -2.2678747167737123,
                -2.5068817330678144,
                1.5937199141206846,
                0.2413273971606712,
                0.27612293189249715
            ]
        },
        {
            "positions": [
                -0.027830690771128958,
                -2.262409339089806,
                -2.5679116053343574,
                1.6482829567144668,
                0.2724972118766724,
                0.3956315534739143
            ]
        },
        {
            "positions": [
                0.024715567043253284,
                -2.256943961405899,
                -2.6289414776009004,
                1.702845999308249,
                0.30366702659267364,
                0.5151401750553314
            ]
        },
        {
            "positions": [
                0.09823068302444841,
                -2.2227501396710667,
                -2.507116588095456,
                1.6339217752345765,
                0.32428559775480365,
                0.5879029411723959
            ]
        },
        {
            "positions": [
                0.17174579900564355,
                -2.1885563179362344,
                -2.3852916985900117,
                1.5649975511609038,
                0.34490416891693365,
                0.6606657072894606
            ]
        },
        {
            "positions": [
                0.2452609149868387,
                -2.1543624962014016,
                -2.263466809084567,
                1.4960733270872313,
                0.3655227400790637,
                0.7334284734065252
            ]
        },
        {
            "positions": [
                0.3187760309680338,
                -2.1201686744665693,
                -2.1416419195791225,
                1.4271491030135586,
                0.3861413112411937,
                0.8061912395235897
            ]
        },
        {
            "positions": [
                0.39229114694922895,
                -2.085974852731737,
                -2.0198170300736784,
                1.358224878939886,
                0.4067598824033237,
                0.8789540056406544
            ]
        },
        {
            "positions": [
                0.4658062629304241,
                -2.0517810309969047,
                -1.8979921405682338,
                1.2893006548662136,
                0.4273784535654538,
                0.9517167717577191
            ]
        },
        {
            "positions": [
                0.5393213789116192,
                -2.0175872092620724,
                -1.7761672510627893,
                1.2203764307925409,
                0.4479970247275838,
                1.0244795378747837
            ]
        },
        {
            "positions": [
                0.6128364948928143,
                -1.9833933875272398,
                -1.6543423615573452,
                1.1514522067188684,
                0.4686155958897138,
                1.0972423039918482
            ]
        },
        {
            "positions": [
                0.6863516108740094,
                -1.9491995657924073,
                -1.5325174720519008,
                1.0825279826451957,
                0.4892341670518438,
                1.1700050701089126
            ]
        },
        {
            "positions": [
                0.7598667268552046,
                -1.915005744057575,
                -1.4106925825464562,
                1.0136037585715232,
                0.5098527382139738,
                1.2427678362259773
            ]
        },
        {
            "positions": [
                0.8333818428363997,
                -1.8808119223227426,
                -1.288867693041012,
                0.9446795344978506,
                0.5304713093761039,
                1.315530602343042
            ]
        },
        {
            "positions": [
                0.9068969588175949,
                -1.84661810058791,
                -1.1670428035355673,
                0.875755310424178,
                0.5510898805382338,
                1.3882933684601066
            ]
        },
        {
            "positions": [
                0.98041207479879,
                -1.8124242788530778,
                -1.045217914030123,
                0.8068310863505054,
                0.5717084517003639,
                1.4610561345771713
            ]
        },
        {
            "positions": [
                1.0539271907799852,
                -1.7782304571182452,
                -0.9233930245246784,
                0.7379068622768328,
                0.592327022862494,
                1.5338189006942358
            ]
        },
        {
            "positions": [
                1.1274423067611803,
                -1.744036635383413,
                -0.8015681350192343,
                0.6689826382031603,
                0.612945594024624,
                1.6065816668113002
            ]
        },
        {
            "positions": [
                1.2009574227423754,
                -1.7098428136485806,
                -0.6797432455137897,
                0.6000584141294878,
                0.633564165186754,
                1.679344432928365
            ]
        },
        {
            "positions": [
                1.2744725387235705,
                -1.675648991913748,
                -0.5579183560083454,
                0.5311341900558151,
                0.6541827363488839,
                1.7521071990454296
            ]
        },
        {
            "positions": [
                1.3479876547047656,
                -1.6414551701789157,
                -0.43609346650290126,
                0.4622099659821426,
                0.674801307511014,
                1.824869965162494
            ]
        },
        {
            "positions": [
                1.4215027706859606,
                -1.6072613484440832,
                -0.3142685769974567,
                0.3932857419084701,
                0.695419878673144,
                1.897632731279559
            ]
        },
        {
            "positions": [
                1.495017886667156,
                -1.5730675267092509,
                -0.19244368749201213,
                0.3243615178347974,
                0.7160384498352741,
                1.9703954973966233
            ]
        },
        {
            "positions": [
                1.568533002648351,
                -1.5388737049744186,
                -0.07061879798656756,
                0.2554372937611249,
                0.736657020997404,
                2.043158263513688
            ]
        },
        {
            "positions": [
                1.6420481186295461,
                -1.5046798832395862,
                0.05120609151887656,
                0.18651306968745218,
                0.757275592159534,
                2.1159210296307527
            ]
        },
        {
            "positions": [
                1.7155632346107414,
                -1.4704860615047537,
                0.17303098102432113,
                0.11758884561377969,
                0.7778941633216641,
                2.188683795747817
            ]
        },
        {
            "positions": [
                1.7890783505919365,
                -1.4362922397699212,
                0.2948558705297657,
                0.04866462154010698,
                0.7985127344837941,
                2.261446561864882
            ]
        },
        {
            "positions": [
                1.8625934665731316,
                -1.4020984180350888,
                0.41668076003521026,
                -0.020259602533565513,
                0.8191313056459242,
                2.3342093279819465
            ]
        },
        {
            "positions": [
                1.9361085825543267,
                -1.3679045963002565,
                0.5385056495406544,
                -0.08918382660723823,
                0.8397498768080542,
                2.406972094099011
            ]
        },
        {
            "positions": [
                2.0096236985355223,
                -1.333710774565424,
                0.660330539046099,
                -0.15810805068091072,
                0.8603684479701842,
                2.479734860216076
            ]
        },
        {
            "positions": [
                2.083138814516717,
                -1.2995169528305914,
                0.7821554285515435,
                -0.22703227475458343,
                0.8809870191323143,
                2.5524976263331403
            ]
        },
        {
            "positions": [
                2.1566539304979124,
                -1.2653231310957591,
                0.9039803180569881,
                -0.2959564988282559,
                0.9016055902944443,
                2.6252603924502047
            ]
        },
        {
            "positions": [
                2.2301690464791073,
                -1.2311293093609268,
                1.0258052075624318,
                -0.3648807229019284,
                0.9222241614565743,
                2.698023158567269
            ]
        },
        {
            "positions": [
                2.303684162460302,
                -1.1969354876260945,
                1.1476300970678763,
                -0.4338049469756009,
                0.9428427326187042,
                2.7707859246843336
            ]
        },
        {
            "positions": [
                2.3771992784414975,
                -1.162741665891262,
                1.269454986573321,
                -0.5027291710492734,
                0.9634613037808343,
                2.8435486908013985
            ]
        },
        {
            "positions": [
                2.450714394422693,
                -1.1285478441564296,
                1.391279876078765,
                -0.5716533951229459,
                0.9840798749429643,
                2.916311456918463
            ]
        },
        {
            "positions": [
                2.5242295104038877,
                -1.094354022421597,
                1.5131047655842096,
                -0.6405776191966188,
                1.0046984461050943,
                2.989074223035528
            ]
        },
        {
            "positions": [
                2.597744626385083,
                -1.0601602006867648,
                1.634929655089654,
                -0.7095018432702913,
                1.0253170172672244,
                3.0618369891525923
            ]
        },
        {
            "positions": [
                2.6123617225440046,
                -1.037230177312567,
                1.73078889635774,
                -0.7519228168877674,
                1.0375237445732277,
                3.1276717489692647
            ]
        },
        {
            "positions": [
                2.626978818702926,
                -1.0143001539383694,
                1.8266481376258261,
                -0.7943437905052435,
                1.049730471879231,
                3.1935065087859367
            ]
        }
    ]
}