{
    "goal": {
        "global_pose": {
            "orientation": {
                "w": 0.7031023480610252,
                "x": -0.7110244013736278,
                "y": 0.0077485991402295624,
                "z": 0.005598929693374583
            },
            "position": {
                "x": -0.8841497679147869,
                "y": 0.44412534475326537,
                "z": 0.3711530566215515
            }
        },
        "name": "move_to_auspresseinheit_D"
    },
    "id": "LazyPRMstar_move_to_auspresseinheit_D_109",
    "joint_names": [
        "shoulder_pan_joint",
        "shoulder_lift_joint",
        "elbow_joint",
        "wrist_1_joint",
        "wrist_2_joint",
        "wrist_3_joint"
    ],
    "metrics": {
        "cart_traj_len": 0.34247013450041197,
        "distance_elbow_joint": 0.6260933367969479,
        "distance_shoulder_lift_joint": 0.11453768188757918,
        "distance_shoulder_pan_joint": 0.13414105654913974,
        "distance_wrist_1_joint": 0.49986001107435296,
        "distance_wrist_2_joint": 1.4331211258039354,
        "distance_wrist_3_joint": 0.034688051576360124,
        "smoothness": 9.868649123407766e-16,
        "time": 5.000229267000001,
        "traj_len": 1.6859541107895892,
        "weighted_distance": 2.2010902988563017
    },
    "planner": "LazyPRMstar",
    "start": {
        "state": {
            "elbow_joint": -1.8275523626775212,
            "shoulder_lift_joint": -2.126789852344167,
            "shoulder_pan_joint": -0.03513704404078235,
            "wrist_1_joint": -2.347782403156801,
            "wrist_2_joint": -1.6058999987535132,
            "wrist_3_joint": -3.0880379163319196
        }
    },
    "waypoints": [
        {
            "positions": [
                -0.03513704404078235,
                -2.126789852344167,
                -1.8275523626775212,
                -2.347782403156801,
                -1.6058999987535132,
                -3.0880379163319196
            ]
        },
        {
            "positions": [
                -0.05190467610942481,
                -2.1411070625801143,
                -1.7492906955779026,
                -2.410264904541095,
                -1.4267598580280212,
                -3.0923739227789646
            ]
        },
        {
            "positions": [
                -0.06867230817806728,
                -2.1554242728160617,
                -1.6710290284782843,
                -2.4727474059253893,
                -1.2476197173025294,
                -3.0967099292260096
            ]
        },
        {
            "positions": [
                -0.08543994024670976,
                -2.169741483052009,
                -1.5927673613786657,
                -2.535229907309683,
                -1.0684795765770374,
                -3.1010459356730546
            ]
        },
        {
            "positions": [
                -0.10220757231535221,
                -2.184058693287956,
                -1.5145056942790474,
                -2.5977124086939773,
                -0.8893394358515455,
                -3.1053819421200997
            ]
        },
        {
            "positions": [
                -0.1189752043839947,
                -2.1983759035239037,
                -1.4362440271794288,
                -2.6601949100782716,
                -0.7101992951260536,
                -3.1097179485671447
            ]
        },
        {
            "positions": [
                -0.13574283645263716,
                -2.212693113759851,
                -1.3579823600798102,
                -2.7226774114625654,
                -0.5310591544005616,
                -3.1140539550141897
            ]
        },
        {
            "positions": [
                -0.1525104685212796,
                -2.2270103239957986,
                -1.2797206929801916,
                -2.7851599128468596,
                -0.35191901367506984,
                -3.1183899614612347
            ]
        },
        {
            "positions": [
                -0.1692781005899221,
                -2.241327534231746,
                -1.2014590258805733,
                -2.847642414231154,
                -0.17277887294957783,
                -3.1227259679082797
            ]
        }
    ]
}