{
    "goal": {
        "global_pose": {
            "orientation": {
                "w": -0.00223480608172531,
                "x": 0.0024358444001904467,
                "y": 0.7094548369677653,
                "z": -0.704743149386269
            },
            "position": {
                "x": -0.37947507619857795,
                "y": -0.6371506643295288,
                "z": 0.19426114857196808
            }
        },
        "name": "move_to_magneteinheit_C"
    },
    "id": "LazyPRMstar_move_to_magneteinheit_C_49",
    "joint_names": [
        "shoulder_pan_joint",
        "shoulder_lift_joint",
        "elbow_joint",
        "wrist_1_joint",
        "wrist_2_joint",
        "wrist_3_joint"
    ],
    "metrics": {
        "cart_traj_len": 0.8054605662155366,
        "distance_elbow_joint": 0.6132808184055127,
        "distance_shoulder_lift_joint": 0.6370047519644038,
        "distance_shoulder_pan_joint": 0.8004067430476358,
        "distance_wrist_1_joint": 1.1040635715447629,
        "distance_wrist_2_joint": 0.7929617506923455,
        "distance_wrist_3_joint": 1.7416567246246895,
        "smoothness": 0.40384793739444674,
        "time": 5.019148736,
        "traj_len": 2.3852409438627684,
        "weighted_distance": 3.327117841580884
    },
    "planner": "LazyPRMstar",
    "start": {
        "state": {
            "elbow_joint": 1.9565354010623817,
            "shoulder_lift_joint": -1.4165861575791021,
            "shoulder_pan_joint": -1.6717766225146293,
            "wrist_1_joint": -0.5286633292919765,
            "wrist_2_joint": 1.472756589071564,
            "wrist_3_joint": -3.1238370188695823
        }
    },
    "waypoints": [
        {
            "positions": [
                -1.6717766225146293,
                -1.4165861575791021,
                1.9565354010623817,
                -0.5286633292919765,
                1.472756589071564,
                -3.1238370188695823
            ]
        },
        {
            "positions": [
                -1.690683239288539,
                -1.472010533331724,
                1.9529971885574273,
                -0.647655773308814,
                1.4523299366268185,
                -3.078185634039965
            ]
        },
        {
            "positions": [
                -1.7095898560624485,
                -1.5274349090843458,
                1.9494589760524728,
                -0.7666482173256515,
                1.431903284182073,
                -3.032534249210348
            ]
        },
        {
            "positions": [
                -1.7442780987929476,
                -1.5969330293005295,
                1.9505844947745574,
                -0.9298374385821064,
                1.4031824219807514,
                -2.9578268578659856
            ]
        },
        {
            "positions": [
                -1.8298789555347332,
                -1.599301018731445,
                2.017262269031102,
                -0.9905911839125517,
                1.3971334324256208,
                -2.8185008475105753
            ]
        },
        {
            "positions": [
                -1.9154798122765189,
                -1.6016690081623604,
                2.0839400432876465,
                -1.051344929242997,
                1.3910844428704903,
                -2.6791748371551654
            ]
        },
        {
            "positions": [
                -2.0010806690183043,
                -1.6040369975932756,
                2.1506178175441906,
                -1.1120986745734422,
                1.3850354533153597,
                -2.539848826799755
            ]
        },
        {
            "positions": [
                -2.08668152576009,
                -1.606404987024191,
                2.217295591800735,
                -1.1728524199038877,
                1.3789864637602292,
                -2.4005228164443446
            ]
        },
        {
            "positions": [
                -2.1722823825018756,
                -1.6087729764551064,
                2.2839733660572796,
                -1.2336061652343329,
                1.3729374742050986,
                -2.2611968060889347
            ]
        },
        {
            "positions": [
                -2.2426716379010947,
                -1.522930000193414,
                2.257671883875445,
                -1.2353432603194716,
                1.2791196581132267,
                -2.303955850178688
            ]
        },
        {
            "positions": [
                -2.3130608933003143,
                -1.4370870239317215,
                2.23137040169361,
                -1.2370803554046104,
                1.1853018420213548,
                -2.346714894268442
            ]
        },
        {
            "positions": [
                -2.3834501486995334,
                -1.3512440476700291,
                2.2050689195117754,
                -1.2388174504897491,
                1.091484025929483,
                -2.3894739383581953
            ]
        },
        {
            "positions": [
                -2.3982390181766555,
                -1.3200292136194753,
                2.172937993370893,
                -1.1731658754319174,
                1.022869161337772,
                -2.5145971682873256
            ]
        },
        {
            "positions": [
                -2.413027887653777,
                -1.2888143795689218,
                2.140807067230011,
                -1.1075143003740857,
                0.9542542967460614,
                -2.639720398216456
            ]
        },
        {
            "positions": [
                -2.4278167571308993,
                -1.2575995455183682,
                2.108676141089129,
                -1.041862725316254,
                0.8856394321543506,
                -2.764843628145586
            ]
        },
        {
            "positions": [
                -2.4426056266080214,
                -1.2263847114678144,
                2.076545214948247,
                -0.9762111502584223,
                0.81702456756264,
                -2.889966858074716
            ]
        },
        {
            "positions": [
                -2.457394496085143,
                -1.1951698774172606,
                2.044414288807365,
                -0.9105595752005906,
                0.7484097029709291,
                -3.0150900880038463
            ]
        },
        {
            "positions": [
                -2.472183365562265,
                -1.163955043366707,
                2.0122833626664827,
                -0.8449080001427589,
                0.6797948383792184,
                -3.1402133179329765
            ]
        }
    ]
}