{
    "goal": {
        "global_pose": {
            "orientation": {
                "w": 0.7031023502349854,
                "x": -0.7110244035720825,
                "y": 0.007748599164187908,
                "z": 0.005598929710686207
            },
            "position": {
                "x": 0.11585023208521307,
                "y": 0.44412534475326537,
                "z": 0.3711530566215515
            }
        },
        "name": "move_to_auspresseinheit_A"
    },
    "id": "LazyPRM_move_to_auspresseinheit_A_89",
    "joint_names": [
        "shoulder_pan_joint",
        "shoulder_lift_joint",
        "elbow_joint",
        "wrist_1_joint",
        "wrist_2_joint",
        "wrist_3_joint"
    ],
    "metrics": {
        "cart_traj_len": 0.7723157915386452,
        "distance_elbow_joint": 0.062101425667017374,
        "distance_shoulder_lift_joint": 0.8674719493065706,
        "distance_shoulder_pan_joint": 1.0468395974497886,
        "distance_wrist_1_joint": 0.8004964186521061,
        "distance_wrist_2_joint": 0.5116719342675866,
        "distance_wrist_3_joint": 0.23020896522186618,
        "smoothness": 0.8501109663493054,
        "time": 0.06598409799999999,
        "traj_len": 1.8758438875783177,
        "weighted_distance": 2.30029923573616
    },
    "planner": "LazyPRM",
    "start": {
        "state": {
            "elbow_joint": 2.4225746658250005,
            "shoulder_lift_joint": -1.3736534386056498,
            "shoulder_pan_joint": -0.3378633547517467,
            "wrist_1_joint": -1.0288598680537169,
            "wrist_2_joint": 1.233022673432363,
            "wrist_3_joint": -3.0940220416140027
        }
    },
    "waypoints": [
        {
            "positions": [
                -0.3378633547517467,
                -1.3736534386056498,
                2.4225746658250005,
                -1.0288598680537169,
                1.233022673432363,
                -3.0940220416140027
            ]
        },
        {
            "positions": [
                -0.3288183145943145,
                -1.514071047288939,
                2.4135818447790025,
                -0.8927319505093194,
                1.1603519208516435,
                -3.121156265943704
            ]
        },
        {
            "positions": [
                -0.3197732744368823,
                -1.654488655972228,
                2.4045890237330045,
                -0.7566040329649221,
                1.087681168270924,
                -3.1482904902734057
            ]
        },
        {
            "positions": [
                -0.31072823427945007,
                -1.7949062646555172,
                2.395596202687007,
                -0.6204761154205247,
                1.0150104156902042,
                -3.175424714603107
            ]
        },
        {
            "positions": [
                -0.3016831941220179,
                -1.9353238733388063,
                2.386603381641009,
                -0.48434819787612726,
                0.9423396631094847,
                -3.2025589389328086
            ]
        },
        {
            "positions": [
                -0.29263815396458565,
                -2.0757414820220954,
                2.377610560595011,
                -0.3482202803317299,
                0.8696689105287652,
                -3.22969316326251
            ]
        },
        {
            "positions": [
                -0.042234554798928736,
                -2.034395505549564,
                2.381894890704268,
                -0.37818448806425975,
                0.832589367687768,
                -3.20605870236917
            ]
        },
        {
            "positions": [
                0.20816904436672817,
                -1.993049529077033,
                2.386179220813525,
                -0.40814869579678953,
                0.7955098248467708,
                -3.1824242414758306
            ]
        },
        {
            "positions": [
                0.4585726435323851,
                -1.9517035526045017,
                2.390463550922782,
                -0.4381129035293193,
                0.7584302820057736,
                -3.1587897805824907
            ]
        },
        {
            "positions": [
                0.7089762426980419,
                -1.9103575761319704,
                2.394747881032039,
                -0.46807711126184914,
                0.7213507391647764,
                -3.135155319689151
            ]
        }
    ]
}