{
    "goal": {
        "global_pose": {
            "orientation": {
                "w": 0.005598929693374612,
                "x": 0.007748599140229565,
                "y": 0.7110244013736278,
                "z": -0.7031023480610252
            },
            "position": {
                "x": -0.8858502320852131,
                "y": -0.7141253447532654,
                "z": 0.3711530566215515
            }
        },
        "name": "move_to_auspresseinheit_C"
    },
    "id": "LazyPRM_move_to_auspresseinheit_C_57",
    "joint_names": [
        "shoulder_pan_joint",
        "shoulder_lift_joint",
        "elbow_joint",
        "wrist_1_joint",
        "wrist_2_joint",
        "wrist_3_joint"
    ],
    "metrics": {
        "cart_traj_len": 0.4940289058562967,
        "distance_elbow_joint": 1.0073104165258024,
        "distance_shoulder_lift_joint": 0.32815326358359076,
        "distance_shoulder_pan_joint": 0.2565333823753586,
        "distance_wrist_1_joint": 0.6905179565490477,
        "distance_wrist_2_joint": 1.3196781726891542,
        "distance_wrist_3_joint": 0.06445735628952187,
        "smoothness": 3.2297397080004555e-16,
        "time": 0.012609582999999999,
        "traj_len": 1.9148500066617427,
        "weighted_distance": 2.409514762318281
    },
    "planner": "LazyPRM",
    "start": {
        "state": {
            "elbow_joint": 1.7527959577737207,
            "shoulder_lift_joint": -0.9740617694225068,
            "shoulder_pan_joint": -2.967991417825858,
            "wrist_1_joint": -0.759517768980727,
            "wrist_2_joint": 1.7443932448377408,
            "wrist_3_joint": -3.0840537646736568
        }
    },
    "waypoints": [
        {
            "positions": [
                -2.967991417825858,
                -0.9740617694225068,
                1.7527959577737207,
                -0.759517768980727,
                1.7443932448377408,
                -3.0840537646736568
            ]
        },
        {
            "positions": [
                -2.942338079588322,
                -0.9412464430641477,
                1.6520649161211405,
                -0.6904659733258223,
                1.6124254275688255,
                -3.090499500302609
            ]
        },
        {
            "positions": [
                -2.916684741350786,
                -0.9084311167057886,
                1.55133387446856,
                -0.6214141776709174,
                1.48045761029991,
                -3.0969452359315612
            ]
        },
        {
            "positions": [
                -2.8910314031132502,
                -0.8756157903474295,
                1.45060283281598,
                -0.5523623820160126,
                1.3484897930309945,
                -3.1033909715605135
            ]
        },
        {
            "positions": [
                -2.8653780648757143,
                -0.8428004639890705,
                1.3498717911633997,
                -0.4833105863611079,
                1.216521975762079,
                -3.1098367071894657
            ]
        },
        {
            "positions": [
                -2.8397247266381784,
                -0.8099851376307114,
                1.2491407495108193,
                -0.41425879070620314,
                1.0845541584931637,
                -3.1162824428184175
            ]
        },
        {
            "positions": [
                -2.814071388400643,
                -0.7771698112723523,
                1.1484097078582391,
                -0.34520699505129837,
                0.9525863412242483,
                -3.1227281784473697
            ]
        },
        {
            "positions": [
                -2.788418050163107,
                -0.7443544849139933,
                1.047678666205659,
                -0.27615519939639366,
                0.820618523955333,
                -3.129173914076322
            ]
        },
        {
            "positions": [
                -2.762764711925571,
                -0.7115391585556341,
                0.9469476245530787,
                -0.20710340374148883,
                0.6886507066864174,
                -3.135619649705274
            ]
        },
        {
            "positions": [
                -2.7371113736880353,
                -0.6787238321972751,
                0.8462165829004984,
                -0.138051608086584,
                0.556682889417502,
                -3.1420653853342264
            ]
        },
        {
            "positions": [
                -2.7114580354504993,
                -0.645908505838916,
                0.7454855412479182,
                -0.06899981243167931,
                0.4247150721485866,
                -3.1485111209631786
            ]
        }
    ]
}