{
    "goal": {
        "global_pose": {
            "orientation": {
                "w": 0.5084816217422485,
                "x": -0.49083608388900757,
                "y": 0.5182115435600281,
                "z": -0.4816462993621826
            },
            "position": {
                "x": 0.5540239810943604,
                "y": 0.030875300988554955,
                "z": 0.16403168439865112
            }
        },
        "name": "move_to_storage_A"
    },
    "id": "LazyPRMstar_move_to_storage_A_69",
    "joint_names": [
        "shoulder_pan_joint",
        "shoulder_lift_joint",
        "elbow_joint",
        "wrist_1_joint",
        "wrist_2_joint",
        "wrist_3_joint"
    ],
    "metrics": {
        "cart_traj_len": 0.35342561549979445,
        "distance_elbow_joint": 0.45287131847106576,
        "distance_shoulder_lift_joint": 0.2329897543843844,
        "distance_shoulder_pan_joint": 0.4640957186864996,
        "distance_wrist_1_joint": 0.2577863949634348,
        "distance_wrist_2_joint": 1.0906080129354068,
        "distance_wrist_3_joint": 0.09561437004584761,
        "smoothness": 6.661338165333112e-16,
        "time": 5.000281514,
        "traj_len": 1.6105792651982824,
        "weighted_distance": 2.0331228977799585
    },
    "planner": "LazyPRMstar",
    "start": {
        "state": {
            "elbow_joint": 1.971548259319323,
            "shoulder_lift_joint": -1.1394851275133948,
            "shoulder_pan_joint": 0.1228115487234821,
            "wrist_1_joint": -0.7804723859257726,
            "wrist_2_joint": 0.12958671773740124,
            "wrist_3_joint": -3.192489227718131
        }
    },
    "waypoints": [
        {
            "positions": [
                0.1228115487234821,
                -1.1394851275133948,
                1.971548259319323,
                -0.7804723859257726,
                0.12958671773740124,
                -3.192489227718131
            ]
        },
        {
            "positions": [
                0.05651216033969644,
                -1.1727693781397355,
                2.0362441619580465,
                -0.8172990137776919,
                0.28538786244245934,
                -3.178830031997296
            ]
        },
        {
            "positions": [
                -0.009787228044089213,
                -1.2060536287660761,
                2.10094006459677,
                -0.8541256416296111,
                0.4411890071475174,
                -3.1651708362764603
            ]
        },
        {
            "positions": [
                -0.07608661642787487,
                -1.2393378793924168,
                2.165635967235494,
                -0.8909522694815304,
                0.5969901518525755,
                -3.151511640555625
            ]
        },
        {
            "positions": [
                -0.14238600481166053,
                -1.2726221300187572,
                2.2303318698742176,
                -0.9277788973334496,
                0.7527912965576337,
                -3.1378524448347895
            ]
        },
        {
            "positions": [
                -0.2086853931954462,
                -1.305906380645098,
                2.2950277725129413,
                -0.9646055251853689,
                0.9085924412626918,
                -3.1241932491139544
            ]
        },
        {
            "positions": [
                -0.27498478157923184,
                -1.3391906312714386,
                2.359723675151665,
                -1.001432153037288,
                1.0643935859677498,
                -3.1105340533931187
            ]
        },
        {
            "positions": [
                -0.3412841699630175,
                -1.3724748818977792,
                2.4244195777903887,
                -1.0382587808892074,
                1.220194730672808,
                -3.0968748576722835
            ]
        }
    ]
}{
    "goal": {
        "global_pose": {
            "orientation": {
                "w": 0.5084816217422485,
                "x": -0.49083608388900757,
                "y": 0.5182115435600281,
                "z": -0.4816462993621826
            },
            "position": {
                "x": 0.5540239810943604,
                "y": 0.030875300988554955,
                "z": 0.16403168439865112
            }
        },
        "name": "move_to_storage_A"
    },
    "id": "LazyPRMstar_move_to_storage_A_69",
    "joint_names": [
        "shoulder_pan_joint",
        "shoulder_lift_joint",
        "elbow_joint",
        "wrist_1_joint",
        "wrist_2_joint",
        "wrist_3_joint"
    ],
    "metrics": {
        "cart_traj_len": 0.35317445490015503,
        "distance_elbow_joint": 0.45018138503602145,
        "distance_shoulder_lift_joint": 0.23420348046463157,
        "distance_shoulder_pan_joint": 0.4599644744785278,
        "distance_wrist_1_joint": 0.24939977414728864,
        "distance_wrist_2_joint": 1.1064245942550988,
        "distance_wrist_3_joint": 0.09559546658293039,
        "smoothness": 1.1102230298998083e-15,
        "time": 5.00115025,
        "traj_len": 1.6111390923705187,
        "weighted_distance": 2.035383127701698
    },
    "planner": "LazyPRMstar",
    "start": {
        "state": {
            "elbow_joint": 1.97154746011099,
            "shoulder_lift_joint": -1.13948474672311,
            "shoulder_pan_joint": 0.12281154466712228,
            "wrist_1_joint": -0.7804688027058302,
            "wrist_2_joint": 0.12958655903071145,
            "wrist_3_joint": 3.0906928834467795
        }
    },
    "waypoints": [
        {
            "positions": [
                0.12281154466712228,
                -1.13948474672311,
                1.97154746011099,
                -0.7804688027058302,
                0.12958655903071145,
                3.0906928834467795
            ]
        },
        {
            "positions": [
                0.0571023340273326,
                -1.172942386789486,
                2.0358590865447073,
                -0.8160973418697286,
                0.2876472153528684,
                3.1043493786729126
            ]
        },
        {
            "positions": [
                -0.008606876612457084,
                -1.206400026855862,
                2.1001707129784246,
                -0.8517258810336269,
                0.44570787167502535,
                3.1180058738990453
            ]
        },
        {
            "positions": [
                -0.07431608725224677,
                -1.2398576669222379,
                2.164482339412142,
                -0.8873544201975253,
                0.6037685279971823,
                3.1316623691251784
            ]
        },
        {
            "positions": [
                -0.14002529789203644,
                -1.2733153069886136,
                2.2287939658458593,
                -0.9229829593614237,
                0.7618291843193393,
                3.145318864351311
            ]
        },
        {
            "positions": [
                -0.20573450853182612,
                -1.3067729470549896,
                2.2931055922795767,
                -0.958611498525322,
                0.9198898406414964,
                3.158975359577444
            ]
        },
        {
            "positions": [
                -0.2714437191716158,
                -1.3402305871213656,
                2.357417218713294,
                -0.9942400376892204,
                1.077950496963653,
                3.172631854803577
            ]
        },
        {
            "positions": [
                -0.3371529298114055,
                -1.3736882271877415,
                2.4217288451470114,
                -1.0298685768531188,
                1.2360111532858102,
                3.18628835002971
            ]
        }
    ]
}{
    "goal": {
        "global_pose": {
            "orientation": {
                "w": 0.5084816217422485,
                "x": -0.49083608388900757,
                "y": 0.5182115435600281,
                "z": -0.4816462993621826
            },
            "position": {
                "x": 0.5540239810943604,
                "y": 0.030875300988554955,
                "z": 0.16403168439865112
            }
        },
        "name": "move_to_storage_A"
    },
    "id": "LazyPRMstar_move_to_storage_A_69",
    "joint_names": [
        "shoulder_pan_joint",
        "shoulder_lift_joint",
        "elbow_joint",
        "wrist_1_joint",
        "wrist_2_joint",
        "wrist_3_joint"
    ],
    "metrics": {
        "cart_traj_len": 0.35313898975866315,
        "distance_elbow_joint": 0.4499291180767351,
        "distance_shoulder_lift_joint": 0.2352891656758147,
        "distance_shoulder_pan_joint": 0.4606768891575771,
        "distance_wrist_1_joint": 0.2383563808103386,
        "distance_wrist_2_joint": 1.1044234643166875,
        "distance_wrist_3_joint": 0.10359981157442899,
        "smoothness": 0.0,
        "time": 5.001512504,
        "traj_len": 1.6100542939949516,
        "weighted_distance": 2.0352528830313608
    },
    "planner": "LazyPRMstar",
    "start": {
        "state": {
            "elbow_joint": 1.9715472970024885,
            "shoulder_lift_joint": -1.1394870060712896,
            "shoulder_pan_joint": 0.12281152778156021,
            "wrist_1_joint": -0.780463741449964,
            "wrist_2_joint": 0.12958659822042276,
            "wrist_3_joint": 3.090690232415272
        }
    },
    "waypoints": [
        {
            "positions": [
                0.12281152778156021,
                -1.1394870060712896,
                1.9715472970024885,
                -0.780463741449964,
                0.12958659822042276,
                3.090690232415272
            ]
        },
        {
            "positions": [
                0.057000543616192056,
                -1.1730997440249775,
                2.035822885299165,
                -0.814514652994298,
                0.2873613788370924,
                3.105490205497333
            ]
        },
        {
            "positions": [
                -0.008810440549176096,
                -1.2067124819786652,
                2.1000984735958412,
                -0.8485655645386322,
                0.44513615945376206,
                3.1202901785793946
            ]
        },
        {
            "positions": [
                -0.07462142471454425,
                -1.2403252199323531,
                2.164374061892518,
                -0.8826164760829662,
                0.6029109400704317,
                3.1350901516614558
            ]
        },
        {
            "positions": [
                -0.1404324088799124,
                -1.2739379578860408,
                2.2286496501891944,
                -0.9166673876273004,
                0.7606857206871013,
                3.149890124743517
            ]
        },
        {
            "positions": [
                -0.20624339304528058,
                -1.3075506958397287,
                2.292925238485871,
                -0.9507182991716344,
                0.918460501303771,
                3.164690097825578
            ]
        },
        {
            "positions": [
                -0.27205437721064873,
                -1.3411634337934164,
                2.357200826782547,
                -0.9847692107159685,
                1.0762352819204406,
                3.1794900709076397
            ]
        },
        {
            "positions": [
                -0.33786536137601686,
                -1.3747761717471043,
                2.4214764150792236,
                -1.0188201222603026,
                1.2340100625371102,
                3.194290043989701
            ]
        }
    ]
}