{
    "goal": {
        "global_pose": {
            "orientation": {
                "w": 0.005598929693374612,
                "x": 0.007748599140229565,
                "y": 0.7110244013736278,
                "z": -0.7031023480610252
            },
            "position": {
                "x": -0.8858502320852131,
                "y": -0.7141253447532654,
                "z": 0.3711530566215515
            }
        },
        "name": "move_to_auspresseinheit_C"
    },
    "id": "LazyPRMstar_move_to_auspresseinheit_C_17",
    "joint_names": [
        "shoulder_pan_joint",
        "shoulder_lift_joint",
        "elbow_joint",
        "wrist_1_joint",
        "wrist_2_joint",
        "wrist_3_joint"
    ],
    "metrics": {
        "cart_traj_len": 0.4920768518661834,
        "distance_elbow_joint": 0.9874282063598278,
        "distance_shoulder_lift_joint": 0.31857518371875304,
        "distance_shoulder_pan_joint": 0.2560066987421523,
        "distance_wrist_1_joint": 0.6549227276681411,
        "distance_wrist_2_joint": 1.3095272593769438,
        "distance_wrist_3_joint": 0.04669324500787653,
        "smoothness": 1.2918958869311894e-15,
        "time": 5.000228175,
        "traj_len": 1.890278635776666,
        "weighted_distance": 2.37297066942146
    },
    "planner": "LazyPRMstar",
    "start": {
        "state": {
            "elbow_joint": 1.7527959577737207,
            "shoulder_lift_joint": -0.9740617694225068,
            "shoulder_pan_joint": -2.967991417825858,
            "wrist_1_joint": -0.759517768980727,
            "wrist_2_joint": 1.7443932448377408,
            "wrist_3_joint": -3.0840537646736568
        }
    },
    "waypoints": [
        {
            "positions": [
                -2.967991417825858,
                -0.9740617694225068,
                1.7527959577737207,
                -0.759517768980727,
                1.7443932448377408,
                -3.0840537646736568
            ]
        },
        {
            "positions": [
                -2.942390747951643,
                -0.9422042510506314,
                1.6540531371377378,
                -0.6940254962139129,
                1.6134405189000465,
                -3.0887230891744446
            ]
        },
        {
            "positions": [
                -2.9167900780774274,
                -0.9103467326787562,
                1.555310316501755,
                -0.6285332234470987,
                1.4824877929623521,
                -3.093392413675232
            ]
        },
        {
            "positions": [
                -2.8911894082032124,
                -0.8784892143068809,
                1.4565674958657724,
                -0.5630409506802847,
                1.3515350670246578,
                -3.09806173817602
            ]
        },
        {
            "positions": [
                -2.865588738328997,
                -0.8466316959350055,
                1.3578246752297896,
                -0.4975486779134705,
                1.2205823410869634,
                -3.102731062676807
            ]
        },
        {
            "positions": [
                -2.839988068454782,
                -0.8147741775631303,
                1.2590818545938067,
                -0.43205640514665644,
                1.0896296151492688,
                -3.107400387177595
            ]
        },
        {
            "positions": [
                -2.8143873985805667,
                -0.782916659191255,
                1.1603390339578241,
                -0.36656413237984237,
                0.9586768892115746,
                -3.112069711678383
            ]
        },
        {
            "positions": [
                -2.7887867287063512,
                -0.7510591408193796,
                1.0615962133218413,
                -0.30107185961302824,
                0.8277241632738802,
                -3.1167390361791703
            ]
        },
        {
            "positions": [
                -2.763186058832136,
                -0.7192016224475044,
                0.9628533926858585,
                -0.23557958684621405,
                0.6967714373361857,
                -3.121408360679958
            ]
        },
        {
            "positions": [
                -2.7375853889579207,
                -0.687344104075629,
                0.8641105720498756,
                -0.17008731407940003,
                0.5658187113984914,
                -3.1260776851807455
            ]
        },
        {
            "positions": [
                -2.7119847190837056,
                -0.6554865857037537,
                0.7653677514138929,
                -0.10459504131258587,
                0.43486598546079697,
                -3.1307470096815333
            ]
        }
    ]
}