{
    "goal": {
        "global_pose": {
            "orientation": {
                "w": 0.005598929693374612,
                "x": 0.007748599140229565,
                "y": 0.7110244013736278,
                "z": -0.7031023480610252
            },
            "position": {
                "x": -0.8858502320852131,
                "y": -0.7141253447532654,
                "z": 0.3711530566215515
            }
        },
        "name": "move_to_auspresseinheit_C"
    },
    "id": "LazyPRMstar_move_to_auspresseinheit_C_14",
    "joint_names": [
        "shoulder_pan_joint",
        "shoulder_lift_joint",
        "elbow_joint",
        "wrist_1_joint",
        "wrist_2_joint",
        "wrist_3_joint"
    ],
    "metrics": {
        "cart_traj_len": 0.4937402505024828,
        "distance_elbow_joint": 0.9976380588545314,
        "distance_shoulder_lift_joint": 0.32368709497814496,
        "distance_shoulder_pan_joint": 0.2569913191575828,
        "distance_wrist_1_joint": 0.6697339603502284,
        "distance_wrist_2_joint": 1.3070124962596288,
        "distance_wrist_3_joint": 0.05493805036231825,
        "smoothness": 3.2297397335745243e-16,
        "time": 5.0004293650000005,
        "traj_len": 1.9000002578848336,
        "weighted_distance": 2.386760050213873
    },
    "planner": "LazyPRMstar",
    "start": {
        "state": {
            "elbow_joint": 1.7527959577737207,
            "shoulder_lift_joint": -0.9740617694225068,
            "shoulder_pan_joint": -2.967991417825858,
            "wrist_1_joint": -0.759517768980727,
            "wrist_2_joint": 1.7443932448377408,
            "wrist_3_joint": -3.0840537646736568
        }
    },
    "waypoints": [
        {
            "positions": [
                -2.967991417825858,
                -0.9740617694225068,
                1.7527959577737207,
                -0.759517768980727,
                1.7443932448377408,
                -3.0840537646736568
            ]
        },
        {
            "positions": [
                -2.9422922859100997,
                -0.9416930599246923,
                1.6530321518882676,
                -0.6925443729457041,
                1.6136919952117779,
                -3.0895475697098886
            ]
        },
        {
            "positions": [
                -2.9165931539943415,
                -0.9093243504268778,
                1.5532683460028145,
                -0.6255709769106813,
                1.4829907455858151,
                -3.0950413747461205
            ]
        },
        {
            "positions": [
                -2.8908940220785833,
                -0.8769556409290633,
                1.4535045401173612,
                -0.5585975808756585,
                1.3522894959598522,
                -3.1005351797823524
            ]
        },
        {
            "positions": [
                -2.865194890162825,
                -0.8445869314312487,
                1.353740734231908,
                -0.49162418484063564,
                1.2215882463338894,
                -3.1060289848185842
            ]
        },
        {
            "positions": [
                -2.8394957582470663,
                -0.8122182219334343,
                1.253976928346455,
                -0.4246507888056128,
                1.0908869967079264,
                -3.111522789854816
            ]
        },
        {
            "positions": [
                -2.813796626331308,
                -0.7798495124356198,
                1.1542131224610017,
                -0.35767739277058996,
                0.9601857470819636,
                -3.1170165948910475
            ]
        },
        {
            "positions": [
                -2.78809749441555,
                -0.7474808029378053,
                1.0544493165755489,
                -0.2907039967355672,
                0.8294844974560007,
                -3.1225103999272794
            ]
        },
        {
            "positions": [
                -2.7623983624997916,
                -0.7151120934399908,
                0.9546855106900956,
                -0.2237306007005443,
                0.6987832478300378,
                -3.1280042049635113
            ]
        },
        {
            "positions": [
                -2.7366992305840334,
                -0.6827433839421764,
                0.8549217048046424,
                -0.15675720466552145,
                0.5680819982040748,
                -3.133498009999743
            ]
        },
        {
            "positions": [
                -2.711000098668275,
                -0.6503746744443618,
                0.7551578989191893,
                -0.08978380863049865,
                0.43738074857811204,
                -3.138991815035975
            ]
        }
    ]
}