{
    "goal": {
        "global_pose": {
            "orientation": {
                "w": 0.7047431468963623,
                "x": -0.7094548344612122,
                "y": 0.0024358443915843964,
                "z": -0.0022348060738295317
            },
            "position": {
                "x": 0.6094750761985779,
                "y": 0.3671506643295288,
                "z": 0.19426114857196808
            }
        },
        "name": "move_to_magneteinheit_A"
    },
    "id": "LazyPRMstar_move_to_magneteinheit_A_126",
    "joint_names": [
        "shoulder_pan_joint",
        "shoulder_lift_joint",
        "elbow_joint",
        "wrist_1_joint",
        "wrist_2_joint",
        "wrist_3_joint"
    ],
    "metrics": {
        "cart_traj_len": 3.0686564642579133,
        "distance_elbow_joint": 3.9240484840276197,
        "distance_shoulder_lift_joint": 0.46315128451224585,
        "distance_shoulder_pan_joint": 2.7565746555511446,
        "distance_wrist_1_joint": 3.5194129009931094,
        "distance_wrist_2_joint": 1.451125326149688,
        "distance_wrist_3_joint": 0.7156182318393294,
        "smoothness": 0.019355060129287716,
        "time": 5.0408384,
        "traj_len": 3.581889289617022,
        "weighted_distance": 4.385396854777751
    },
    "planner": "LazyPRMstar",
    "start": {
        "state": {
            "elbow_joint": -1.9196185241190666,
            "shoulder_lift_joint": -1.2443396400964142,
            "shoulder_pan_joint": 2.6996025414629847,
            "wrist_1_joint": -1.5485510000780065,
            "wrist_2_joint": -1.5709468930060704,
            "wrist_3_joint": 0.4420197071253992
        }
    },
    "waypoints": [
        {
            "positions": [
                2.6996025414629847,
                -1.2443396400964142,
                -1.9196185241190666,
                -1.5485510000780065,
                -1.5709468930060704,
                0.4420197071253992
            ]
        },
        {
            "positions": [
                2.583655277081269,
                -1.228457163864567,
                -1.8451507582982174,
                -1.4377904839194298,
                -1.5324859753020672,
                0.4155945296317331
            ]
        },
        {
            "positions": [
                2.4677080126995525,
                -1.2125746876327197,
                -1.770682992477368,
                -1.3270299677608532,
                -1.494025057598064,
                0.3891693521380671
            ]
        },
        {
            "positions": [
                2.3517607483178367,
                -1.1966922114008725,
                -1.6962152266565185,
                -1.2162694516022765,
                -1.455564139894061,
                0.362744174644401
            ]
        },
        {
            "positions": [
                2.2358134839361203,
                -1.1808097351690252,
                -1.6217474608356692,
                -1.1055089354436998,
                -1.417103222190058,
                0.33631899715073493
            ]
        },
        {
            "positions": [
                2.1198662195544045,
                -1.1649272589371777,
                -1.54727969501482,
                -0.9947484192851231,
                -1.3786423044860547,
                0.30989381965706886
            ]
        },
        {
            "positions": [
                2.003918955172688,
                -1.1490447827053305,
                -1.4728119291939705,
                -0.8839879031265464,
                -1.3401813867820516,
                0.28346864216340284
            ]
        },
        {
            "positions": [
                1.8879716907909723,
                -1.1331623064734833,
                -1.398344163373121,
                -0.7732273869679697,
                -1.3017204690780484,
                0.25704346466973677
            ]
        },
        {
            "positions": [
                1.7720244264092562,
                -1.117279830241636,
                -1.3238763975522718,
                -0.662466870809393,
                -1.2632595513740452,
                0.23061828717607072
            ]
        },
        {
            "positions": [
                1.65607716202754,
                -1.1013973540097888,
                -1.2494086317314224,
                -0.5517063546508163,
                -1.224798633670042,
                0.20419310968240464
            ]
        },
        {
            "positions": [
                1.540129897645824,
                -1.0855148777779415,
                -1.1749408659105731,
                -0.4409458384922398,
                -1.186337715966039,
                0.1777679321887386
            ]
        },
        {
            "positions": [
                1.4241826332641079,
                -1.0696324015460943,
                -1.1004731000897237,
                -0.33018532233366304,
                -1.147876798262036,
                0.15134275469507252
            ]
        },
        {
            "positions": [
                1.308235368882392,
                -1.053749925314247,
                -1.0260053342688744,
                -0.2194248061750863,
                -1.1094158805580328,
                0.1249175772014065
            ]
        },
        {
            "positions": [
                1.192288104500676,
                -1.0378674490823998,
                -0.9515375684480251,
                -0.10866429001650979,
                -1.0709549628540298,
                0.09849239970774043
            ]
        },
        {
            "positions": [
                1.0763408401189596,
                -1.0219849728505523,
                -0.8770698026271755,
                0.00209622614206717,
                -1.0324940451500266,
                0.07206722221407436
            ]
        },
        {
            "positions": [
                0.9603935757372437,
                -1.006102496618705,
                -0.8026020368063262,
                0.11285674230064369,
                -0.9940331274460233,
                0.04564204472040828
            ]
        },
        {
            "positions": [
                0.8444463113555276,
                -0.9902200203868579,
                -0.728134270985477,
                0.22361725845922042,
                -0.9555722097420203,
                0.019216867226742262
            ]
        },
        {
            "positions": [
                0.7284990469738117,
                -0.9743375441550106,
                -0.6536665051646278,
                0.33437777461779694,
                -0.9171112920380171,
                -0.007208310266923756
            ]
        },
        {
            "positions": [
                0.6125517825920954,
                -0.9584550679231634,
                -0.5791987393437781,
                0.4451382907763739,
                -0.8786503743340139,
                -0.033633487760589886
            ]
        },
        {
            "positions": [
                0.49660451821037954,
                -0.9425725916913161,
                -0.5047309735229288,
                0.5558988069349506,
                -0.8401894566300109,
                -0.06005866525425596
            ]
        },
        {
            "positions": [
                0.3806572538286632,
                -0.9266901154594689,
                -0.4302632077020796,
                0.6666593230935269,
                -0.8017285389260077,
                -0.08648384274792198
            ]
        },
        {
            "positions": [
                0.26470998944694735,
                -0.9108076392276216,
                -0.35579544188123013,
                0.7774198392521037,
                -0.7632676212220046,
                -0.112909020241588
            ]
        },
        {
            "positions": [
                0.14876272506523103,
                -0.8949251629957743,
                -0.28132767606038067,
                0.8881803554106804,
                -0.7248067035180014,
                -0.13933419773525413
            ]
        },
        {
            "positions": [
                0.032815460683514944,
                -0.879042686763927,
                -0.20685991023953137,
                0.998940871569257,
                -0.6863457858139983,
                -0.16575937522892015
            ]
        },
        {
            "positions": [
                0.040041093519525235,
                -0.8699852100521118,
                0.00575484809402213,
                1.0952895111495142,
                -0.6377492040728124,
                -0.1650061548107053
            ]
        },
        {
            "positions": [
                0.04726672635553552,
                -0.8609277333402965,
                0.21836960642757564,
                1.1916381507297715,
                -0.5891526223316267,
                -0.16425293439249045
            ]
        },
        {
            "positions": [
                0.05449235919154581,
                -0.8518702566284813,
                0.43098436476112906,
                1.2879867903100286,
                -0.5405560405904408,
                -0.16349971397427557
            ]
        },
        {
            "positions": [
                0.061717992027556096,
                -0.842812779916666,
                0.6435991230946827,
                1.384335429890286,
                -0.49195945884925507,
                -0.16274649355606072
            ]
        },
        {
            "positions": [
                0.0689436248635664,
                -0.8337553032048508,
                0.8562138814282361,
                1.480684069470543,
                -0.4433628771080692,
                -0.16199327313784587
            ]
        },
        {
            "positions": [
                0.07616925769957666,
                -0.8246978264930355,
                1.0688286397617894,
                1.5770327090508003,
                -0.39476629536688346,
                -0.16124005271963102
            ]
        },
        {
            "positions": [
                0.08339489053558696,
                -0.8156403497812202,
                1.281443398095343,
                1.6733813486310574,
                -0.34616971362569765,
                -0.16048683230141617
            ]
        },
        {
            "positions": [
                0.09062052337159726,
                -0.806582873069405,
                1.4940581564288966,
                1.7697299882113147,
                -0.2975731318845118,
                -0.1597336118832013
            ]
        },
        {
            "positions": [
                0.09784615620760755,
                -0.7975253963575897,
                1.7066729147624502,
                1.866078627791572,
                -0.24897655014332598,
                -0.15898039146498644
            ]
        },
        {
            "positions": [
                0.10507178904361783,
                -0.7884679196457745,
                1.9192876730960036,
                1.962427267371829,
                -0.20037996840214017,
                -0.1582271710467716
            ]
        },
        {
            "positions": [
                0.12260303545518965,
                -0.7811883555841683,
                2.0044299599085527,
                1.9708619009151038,
                -0.11982156685638226,
                -0.05792022574391009
            ]
        }
    ]
}