{
    "goal": {
        "global_pose": {
            "orientation": {
                "w": 0.7047431493862688,
                "x": -0.7094548369677653,
                "y": 0.0024358444001904,
                "z": -0.0022348060817251984
            },
            "position": {
                "x": -0.39052492380142206,
                "y": 0.3671506643295288,
                "z": 0.19426114857196808
            }
        },
        "name": "move_to_magneteinheit_D"
    },
    "id": "LazyPRM_move_to_magneteinheit_D_112",
    "joint_names": [
        "shoulder_pan_joint",
        "shoulder_lift_joint",
        "elbow_joint",
        "wrist_1_joint",
        "wrist_2_joint",
        "wrist_3_joint"
    ],
    "metrics": {
        "cart_traj_len": 4.129426511154157,
        "distance_elbow_joint": 3.1227051355686033,
        "distance_shoulder_lift_joint": 1.6331931578983927,
        "distance_shoulder_pan_joint": 2.8879166109001297,
        "distance_wrist_1_joint": 1.5990059052563836,
        "distance_wrist_2_joint": 1.7735880318845307,
        "distance_wrist_3_joint": 3.1488223403981186,
        "smoothness": 0.22934242884011508,
        "time": 0.154602665,
        "traj_len": 3.763672565713728,
        "weighted_distance": 4.882158313680877
    },
    "planner": "LazyPRM",
    "start": {
        "state": {
            "elbow_joint": 0.749534889911806,
            "shoulder_lift_joint": -0.6476975780787326,
            "shoulder_pan_joint": -2.711696901376241,
            "wrist_1_joint": -0.07506478083263063,
            "wrist_2_joint": 0.43296659715538205,
            "wrist_3_joint": -3.14703540197715
        }
    },
    "waypoints": [
        {
            "positions": [
                -2.711696901376241,
                -0.6476975780787326,
                0.749534889911806,
                -0.07506478083263063,
                0.43296659715538205,
                -3.14703540197715
            ]
        },
        {
            "positions": [
                -2.7230314134640086,
                -0.8318391218542541,
                0.6718285041121349,
                -0.06475098766471943,
                0.5086106922649787,
                -3.149559173315512
            ]
        },
        {
            "positions": [
                -2.6177452537036197,
                -0.8648323566947779,
                0.5747288525370955,
                -0.05208103612632186,
                0.4680114779259899,
                -3.043257147189125
            ]
        },
        {
            "positions": [
                -2.512459093943231,
                -0.8978255915353017,
                0.4776292009620561,
                -0.03941108458792429,
                0.4274122635870011,
                -2.9369551210627374
            ]
        },
        {
            "positions": [
                -2.4071729341828423,
                -0.9308188263758255,
                0.38052954938701666,
                -0.02674113304952673,
                0.3868130492480123,
                -2.83065309493635
            ]
        },
        {
            "positions": [
                -2.3018867744224534,
                -0.9638120612163492,
                0.28342989781197725,
                -0.014071181511129162,
                0.34621383490902347,
                -2.724351068809963
            ]
        },
        {
            "positions": [
                -2.1966006146620645,
                -0.9968052960568731,
                0.18633024623693784,
                -0.0014012299727315936,
                0.3056146205700347,
                -2.618049042683576
            ]
        },
        {
            "positions": [
                -2.091314454901676,
                -1.0297985308973967,
                0.08923059466189842,
                0.011268721565665968,
                0.2650154062310459,
                -2.5117470165571882
            ]
        },
        {
            "positions": [
                -1.986028295141287,
                -1.0627917657379207,
                -0.007869056913140993,
                0.023938673104063543,
                0.22441619189205708,
                -2.405444990430801
            ]
        },
        {
            "positions": [
                -1.8807421353808984,
                -1.0957850005784444,
                -0.1049687084881804,
                0.036608624642461104,
                0.1838169775530683,
                -2.299142964304414
            ]
        },
        {
            "positions": [
                -1.7754559756205097,
                -1.1287782354189682,
                -0.2020683600632197,
                0.049278576180858666,
                0.14321776321407953,
                -2.1928409381780263
            ]
        },
        {
            "positions": [
                -1.6701698158601208,
                -1.1617714702594921,
                -0.29916801163825923,
                0.06194852771925624,
                0.1026185488750907,
                -2.086538912051639
            ]
        },
        {
            "positions": [
                -1.5648836560997321,
                -1.1947647051000159,
                -0.39626766321329854,
                0.0746184792576538,
                0.06201933453610192,
                -1.980236885925252
            ]
        },
        {
            "positions": [
                -1.4595974963393434,
                -1.2277579399405396,
                -0.49336731478833806,
                0.08728843079605136,
                0.021420120197113146,
                -1.8739348597988645
            ]
        },
        {
            "positions": [
                -1.3543113365789545,
                -1.2607511747810634,
                -0.5904669663633774,
                0.09995838233444893,
                -0.019179094141875686,
                -1.7676328336724774
            ]
        },
        {
            "positions": [
                -1.2490251768185656,
                -1.293744409621587,
                -0.6875666179384169,
                0.11262833387284651,
                -0.05977830848086452,
                -1.66133080754609
            ]
        },
        {
            "positions": [
                -1.1437390170581772,
                -1.3267376444621108,
                -0.7846662695134562,
                0.12529828541124405,
                -0.10037752281985324,
                -1.5550287814197028
            ]
        },
        {
            "positions": [
                -1.0384528572977882,
                -1.3597308793026346,
                -0.8817659210884957,
                0.13796823694964164,
                -0.14097673715884207,
                -1.4487267552933154
            ]
        },
        {
            "positions": [
                -0.9331666975373993,
                -1.3927241141431583,
                -0.9788655726635352,
                0.1506381884880392,
                -0.1815759514978309,
                -1.342424729166928
            ]
        },
        {
            "positions": [
                -0.8278805377770109,
                -1.425717348983682,
                -1.0759652242385744,
                0.16330814002643676,
                -0.22217516583681962,
                -1.2361227030405408
            ]
        },
        {
            "positions": [
                -0.722594378016622,
                -1.458710583824206,
                -1.1730648758136137,
                0.17597809156483432,
                -0.26277438017580845,
                -1.1298206769141537
            ]
        },
        {
            "positions": [
                -0.617308218256233,
                -1.49170381866473,
                -1.2701645273886535,
                0.1886480431032319,
                -0.3033735945147973,
                -1.023518650787766
            ]
        },
        {
            "positions": [
                -0.5120220584958446,
                -1.5246970535052535,
                -1.3672641789636928,
                0.20131799464162947,
                -0.343972808853786,
                -0.9172166246613789
            ]
        },
        {
            "positions": [
                -0.4067358987354557,
                -1.5576902883457775,
                -1.464363830538732,
                0.21398794618002703,
                -0.38457202319277484,
                -0.8109145985349917
            ]
        },
        {
            "positions": [
                -0.30144973897506677,
                -1.5906835231863012,
                -1.5614634821137718,
                0.2266578977184246,
                -0.42517123753176367,
                -0.7046125724086041
            ]
        },
        {
            "positions": [
                -0.1961635792146783,
                -1.623676758026825,
                -1.6585631336888111,
                0.23932784925682216,
                -0.4657704518707524,
                -0.5983105462822169
            ]
        },
        {
            "positions": [
                -0.09087741945428944,
                -1.6566699928673487,
                -1.7556627852638504,
                0.2519978007952197,
                -0.5063696662097412,
                -0.49200852015582996
            ]
        },
        {
            "positions": [
                -0.07841970809112339,
                -1.7171843799048228,
                -1.8215874466037099,
                0.38357424306280563,
                -0.4339438565783131,
                -0.4427307822556317
            ]
        },
        {
            "positions": [
                -0.06596199672795733,
                -1.7776987669422968,
                -1.887512107943569,
                0.5151506853303915,
                -0.36151804694688494,
                -0.39345304435543355
            ]
        },
        {
            "positions": [
                -0.05350428536479128,
                -1.8382131539797708,
                -1.9534367692834285,
                0.6467271275979776,
                -0.28909223731545675,
                -0.3441753064552353
            ]
        },
        {
            "positions": [
                -0.04104657400162523,
                -1.8987275410172448,
                -2.0193614306232877,
                0.7783035698655635,
                -0.2166664276840286,
                -0.2948975685550371
            ]
        },
        {
            "positions": [
                -0.028588862638459167,
                -1.9592419280547189,
                -2.0852860919631473,
                0.9098800121331495,
                -0.1442406180526004,
                -0.24561983065483886
            ]
        },
        {
            "positions": [
                -0.016131151275293115,
                -2.019756315092193,
                -2.1512107533030065,
                1.0414564544007354,
                -0.0718148084211723,
                -0.19634209275464065
            ]
        },
        {
            "positions": [
                -0.02096630237743891,
                -2.084562854902029,
                -2.2173619472504376,
                1.1742445482853705,
                0.0013159013756454396,
                -0.1444825244921561
            ]
        },
        {
            "positions": [
                -0.025801453479584707,
                -2.1493693947118655,
                -2.2835131411978686,
                1.3070326421700056,
                0.07444661117246318,
                -0.09262295622967151
            ]
        },
        {
            "positions": [
                -0.030636604581730502,
                -2.214175934521702,
                -2.3496643351452997,
                1.439820736054641,
                0.14757732096928095,
                -0.040763387967186926
            ]
        },
        {
            "positions": [
                -0.1858129878989397,
                -2.2808907359771253,
                -2.3731702456567976,
                1.523941124423753,
                0.17659391209047332,
                -0.003260604255756123
            ]
        }
    ]
}