{
    "goal": {
        "global_pose": {
            "orientation": {
                "w": 0.7047431493862688,
                "x": -0.7094548369677653,
                "y": 0.0024358444001904,
                "z": -0.0022348060817251984
            },
            "position": {
                "x": -0.39052492380142206,
                "y": 0.3671506643295288,
                "z": 0.19426114857196808
            }
        },
        "name": "move_to_magneteinheit_D"
    },
    "id": "LazyPRM_move_to_magneteinheit_D_131",
    "joint_names": [
        "shoulder_pan_joint",
        "shoulder_lift_joint",
        "elbow_joint",
        "wrist_1_joint",
        "wrist_2_joint",
        "wrist_3_joint"
    ],
    "metrics": {
        "cart_traj_len": 4.643770864196932,
        "distance_elbow_joint": 3.1231902566415632,
        "distance_shoulder_lift_joint": 1.6361628471024126,
        "distance_shoulder_pan_joint": 4.585631038165978,
        "distance_wrist_1_joint": 1.762704996618965,
        "distance_wrist_2_joint": 3.148143670788563,
        "distance_wrist_3_joint": 3.148462301893707,
        "smoothness": 0.37571490850442596,
        "time": 0.13774204,
        "traj_len": 4.1718455282058535,
        "weighted_distance": 5.349024993623244
    },
    "planner": "LazyPRM",
    "start": {
        "state": {
            "elbow_joint": 0.749534889911806,
            "shoulder_lift_joint": -0.6476975780787326,
            "shoulder_pan_joint": -2.711696901376241,
            "wrist_1_joint": -0.07506478083263063,
            "wrist_2_joint": 0.43296659715538205,
            "wrist_3_joint": -3.14703540197715
        }
    },
    "waypoints": [
        {
            "positions": [
                -2.711696901376241,
                -0.6476975780787326,
                0.749534889911806,
                -0.07506478083263063,
                0.43296659715538205,
                -3.14703540197715
            ]
        },
        {
            "positions": [
                -2.7344720417056747,
                -0.7398752047282476,
                0.7346513144674975,
                -0.08840180769979455,
                0.41017939085624255,
                -3.1219707508797967
            ]
        },
        {
            "positions": [
                -2.5865913583783455,
                -0.8129197625395712,
                0.6965360823624775,
                -0.0687205409219017,
                0.3708885393830329,
                -3.08066571304833
            ]
        },
        {
            "positions": [
                -2.438710675051016,
                -0.8859643203508949,
                0.6584208502574576,
                -0.049039274144008854,
                0.33159768790982325,
                -3.039360675216863
            ]
        },
        {
            "positions": [
                -2.2908299917236867,
                -0.9590088781622186,
                0.6203056181524376,
                -0.029358007366116004,
                0.29230683643661354,
                -2.9980556373853964
            ]
        },
        {
            "positions": [
                -2.142949308396357,
                -1.032053435973542,
                0.5821903860474176,
                -0.009676740588223154,
                0.2530159849634039,
                -2.956750599553929
            ]
        },
        {
            "positions": [
                -1.995068625069028,
                -1.1050979937848657,
                0.5440751539423976,
                0.01000452618966971,
                0.2137251334901942,
                -2.9154455617224624
            ]
        },
        {
            "positions": [
                -1.8471879417416985,
                -1.1781425515961894,
                0.5059599218373776,
                0.029685792967562546,
                0.17443428201698455,
                -2.8741405238909956
            ]
        },
        {
            "positions": [
                -1.6993072584143691,
                -1.251187109407513,
                0.4678446897323576,
                0.04936705974545541,
                0.1351434305437749,
                -2.832835486059529
            ]
        },
        {
            "positions": [
                -1.6023292779283422,
                -1.266894994421215,
                0.3951986052729095,
                0.10869068326868137,
                0.08096999988696144,
                -2.7381226949222284
            ]
        },
        {
            "positions": [
                -1.5053512974423153,
                -1.2826028794349167,
                0.3225525208134614,
                0.16801430679190732,
                0.02679656923014799,
                -2.643409903784928
            ]
        },
        {
            "positions": [
                -1.4083733169562884,
                -1.2983107644486185,
                0.24990643635401333,
                0.22733793031513325,
                -0.027376861426665455,
                -2.5486971126476274
            ]
        },
        {
            "positions": [
                -1.3113953364702617,
                -1.3140186494623205,
                0.17726035189456524,
                0.28666155383835923,
                -0.08155029208347891,
                -2.453984321510327
            ]
        },
        {
            "positions": [
                -1.2144173559842348,
                -1.3297265344760223,
                0.10461426743511715,
                0.3459851773615852,
                -0.1357237227402924,
                -2.3592715303730265
            ]
        },
        {
            "positions": [
                -1.117439375498208,
                -1.345434419489724,
                0.03196818297566906,
                0.4053088008848111,
                -0.1898971533971058,
                -2.264558739235726
            ]
        },
        {
            "positions": [
                -1.0204613950121812,
                -1.3611423045034259,
                -0.04067790148377903,
                0.46463242440803704,
                -0.24407058405391927,
                -2.169845948098426
            ]
        },
        {
            "positions": [
                -0.9234834145261542,
                -1.3768501895171277,
                -0.11332398594322712,
                0.523956047931263,
                -0.2982440147107327,
                -2.075133156961125
            ]
        },
        {
            "positions": [
                -0.8265054340401274,
                -1.3925580745308295,
                -0.1859700704026752,
                0.5832796714544889,
                -0.35241744536754616,
                -1.980420365823825
            ]
        },
        {
            "positions": [
                -0.7295274535541005,
                -1.4082659595445315,
                -0.2586161548621233,
                0.642603294977715,
                -0.4065908760243597,
                -1.8857075746865246
            ]
        },
        {
            "positions": [
                -0.6325494730680739,
                -1.4239738445582333,
                -0.3312622393215714,
                0.7019269185009408,
                -0.4607643066811731,
                -1.7909947835492241
            ]
        },
        {
            "positions": [
                -0.5355714925820467,
                -1.439681729571935,
                -0.4039083237810195,
                0.7612505420241668,
                -0.5149377373379865,
                -1.6962819924119237
            ]
        },
        {
            "positions": [
                -0.43859351209602004,
                -1.4553896145856369,
                -0.4765544082404676,
                0.8205741655473927,
                -0.5691111679948,
                -1.6015692012746232
            ]
        },
        {
            "positions": [
                -0.34161553160999336,
                -1.4710974995993387,
                -0.5492004926999157,
                0.8798977890706187,
                -0.6232845986516135,
                -1.5068564101373227
            ]
        },
        {
            "positions": [
                -0.24463755112396646,
                -1.4868053846130405,
                -0.6218465771593638,
                0.9392214125938445,
                -0.6774580293084268,
                -1.4121436190000225
            ]
        },
        {
            "positions": [
                -0.14765957063793933,
                -1.5025132696267423,
                -0.6944926616188118,
                0.9985450361170706,
                -0.7316314599652404,
                -1.3174308278627218
            ]
        },
        {
            "positions": [
                -0.05068159015191265,
                -1.5182211546404443,
                -0.7671387460782599,
                1.0578686596402964,
                -0.7858048906220538,
                -1.2227180367254216
            ]
        },
        {
            "positions": [
                0.04629639033411426,
                -1.533929039654146,
                -0.839784830537708,
                1.1171922831635224,
                -0.8399783212788672,
                -1.128005245588121
            ]
        },
        {
            "positions": [
                0.14327437082014094,
                -1.5496369246678479,
                -0.9124309149971561,
                1.1765159066867483,
                -0.8941517519356805,
                -1.0332924544508206
            ]
        },
        {
            "positions": [
                0.24025235130616807,
                -1.5653448096815497,
                -0.9850769994566042,
                1.2358395302099745,
                -0.9483251825924943,
                -0.9385796633135202
            ]
        },
        {
            "positions": [
                0.33723033179219497,
                -1.5810526946952514,
                -1.0577230839160523,
                1.2951631537332002,
                -1.0024986132493077,
                -0.8438668721762197
            ]
        },
        {
            "positions": [
                0.43420831227822143,
                -1.5967605797089532,
                -1.1303691683755004,
                1.3544867772564262,
                -1.056672043906121,
                -0.7491540810389195
            ]
        },
        {
            "positions": [
                0.5311862927642483,
                -1.6124684647226553,
                -1.2030152528349485,
                1.4138104007796521,
                -1.1108454745629344,
                -0.654441289901619
            ]
        },
        {
            "positions": [
                0.6281642732502757,
                -1.628176349736357,
                -1.2756613372943966,
                1.473134024302878,
                -1.165018905219748,
                -0.5597284987643185
            ]
        },
        {
            "positions": [
                0.7251422537363021,
                -1.6438842347500588,
                -1.3483074217538447,
                1.532457647826104,
                -1.2191923358765615,
                -0.46501570762701805
            ]
        },
        {
            "positions": [
                0.822120234222329,
                -1.6595921197637606,
                -1.4209535062132927,
                1.59178127134933,
                -1.2733657665333749,
                -0.3703029164897178
            ]
        },
        {
            "positions": [
                0.7382649323966174,
                -1.7116144785485428,
                -1.5003453279229981,
                1.5860158637907737,
                -1.1532148242750577,
                -0.3393254317891949
            ]
        },
        {
            "positions": [
                0.6544096305709058,
                -1.7636368373333247,
                -1.5797371496327035,
                1.5802504562322173,
                -1.0330638820167406,
                -0.3083479470886719
            ]
        },
        {
            "positions": [
                0.5705543287451942,
                -1.8156591961181068,
                -1.6591289713424089,
                1.5744850486736608,
                -0.9129129397584234,
                -0.277370462388149
            ]
        },
        {
            "positions": [
                0.4866990269194826,
                -1.867681554902889,
                -1.738520793052114,
                1.5687196411151045,
                -0.7927619975001062,
                -0.24639297768762608
            ]
        },
        {
            "positions": [
                0.4028437250937709,
                -1.919703913687671,
                -1.8179126147618196,
                1.5629542335565483,
                -0.672611055241789,
                -0.2154154929871031
            ]
        },
        {
            "positions": [
                0.3189884232680593,
                -1.971726272472453,
                -1.8973044364715248,
                1.5571888259979918,
                -0.5524601129834719,
                -0.1844380082865802
            ]
        },
        {
            "positions": [
                0.23513312144234766,
                -2.023748631257235,
                -1.9766962581812302,
                1.5514234184394353,
                -0.4323091707251546,
                -0.15346052358605725
            ]
        },
        {
            "positions": [
                0.1512778196166361,
                -2.075770990042017,
                -2.0560880798909356,
                1.545658010880879,
                -0.3121582284668376,
                -0.12248303888553433
            ]
        },
        {
            "positions": [
                0.06742251779092445,
                -2.127793348826799,
                -2.135479901600641,
                1.5398926033223228,
                -0.19200728620852048,
                -0.09150555418501138
            ]
        },
        {
            "positions": [
                -0.016432784034787207,
                -2.1798157076115814,
                -2.2148717233103463,
                1.5341271957637663,
                -0.07185634395020313,
                -0.06052806948448841
            ]
        },
        {
            "positions": [
                -0.10028808586049875,
                -2.231838066396363,
                -2.2942635450200517,
                1.5283617882052098,
                0.048294598308114,
                -0.02955058478396555
            ]
        },
        {
            "positions": [
                -0.18414338768621047,
                -2.283860425181145,
                -2.373655366729757,
                1.5225963806466536,
                0.1684455405664311,
                0.0014268999165574126
            ]
        }
    ]
}