{
    "goal": {
        "global_pose": {
            "orientation": {
                "w": 0.5084816217422485,
                "x": -0.49083608388900757,
                "y": 0.5182115435600281,
                "z": -0.4816462993621826
            },
            "position": {
                "x": 0.5540239810943604,
                "y": 0.030875300988554955,
                "z": 0.16403168439865112
            }
        },
        "name": "move_to_storage_A"
    },
    "id": "LazyPRM_move_to_storage_A_85",
    "joint_names": [
        "shoulder_pan_joint",
        "shoulder_lift_joint",
        "elbow_joint",
        "wrist_1_joint",
        "wrist_2_joint",
        "wrist_3_joint"
    ],
    "metrics": {
        "cart_traj_len": 0.35314108236931857,
        "distance_elbow_joint": 0.45281349857981135,
        "distance_shoulder_lift_joint": 0.2352387853653526,
        "distance_shoulder_pan_joint": 0.4611849308940914,
        "distance_wrist_1_joint": 0.2526952644439756,
        "distance_wrist_2_joint": 1.1023030044594115,
        "distance_wrist_3_joint": 0.09446028311481358,
        "smoothness": 4.440892098500626e-16,
        "time": 0.021839202,
        "traj_len": 1.6120470733999848,
        "weighted_distance": 2.0353413969136653
    },
    "planner": "LazyPRM",
    "start": {
        "state": {
            "elbow_joint": 1.971548259319323,
            "shoulder_lift_joint": -1.1394851275133948,
            "shoulder_pan_joint": 0.1228115487234821,
            "wrist_1_joint": -0.7804723859257726,
            "wrist_2_joint": 0.12958671773740124,
            "wrist_3_joint": -3.192489227718131
        }
    },
    "waypoints": [
        {
            "positions": [
                0.1228115487234821,
                -1.1394851275133948,
                1.971548259319323,
                -0.7804723859257726,
                0.12958671773740124,
                -3.192489227718131
            ]
        },
        {
            "positions": [
                0.056927987167183336,
                -1.1730906682798738,
                2.0362359019735816,
                -0.8165717094177691,
                0.28705857551731717,
                -3.178994901558872
            ]
        },
        {
            "positions": [
                -0.008955574389115428,
                -1.2066962090463527,
                2.1009235446278405,
                -0.8526710329097656,
                0.4445304332972331,
                -3.165500575399613
            ]
        },
        {
            "positions": [
                -0.07483913594541419,
                -1.2403017498128317,
                2.1656111872820993,
                -0.8887703564017622,
                0.602002291077149,
                -3.1520062492403538
            ]
        },
        {
            "positions": [
                -0.14072269750171296,
                -1.2739072905793105,
                2.230298829936358,
                -0.9248696798937587,
                0.759474148857065,
                -3.138511923081095
            ]
        },
        {
            "positions": [
                -0.20660625905801178,
                -1.3075128313457896,
                2.294986472590617,
                -0.9609690033857552,
                0.916946006636981,
                -3.1250175969218357
            ]
        },
        {
            "positions": [
                -0.2724898206143105,
                -1.3411183721122684,
                2.3596741152448755,
                -0.9970683268777517,
                1.0744178644168967,
                -3.111523270762577
            ]
        },
        {
            "positions": [
                -0.3383733821706093,
                -1.3747239128787474,
                2.4243617578991343,
                -1.0331676503697482,
                1.2318897221968128,
                -3.0980289446033176
            ]
        }
    ]
}{
    "goal": {
        "global_pose": {
            "orientation": {
                "w": 0.5084816217422485,
                "x": -0.49083608388900757,
                "y": 0.5182115435600281,
                "z": -0.4816462993621826
            },
            "position": {
                "x": 0.5540239810943604,
                "y": 0.030875300988554955,
                "z": 0.16403168439865112
            }
        },
        "name": "move_to_storage_A"
    },
    "id": "LazyPRM_move_to_storage_A_85",
    "joint_names": [
        "shoulder_pan_joint",
        "shoulder_lift_joint",
        "elbow_joint",
        "wrist_1_joint",
        "wrist_2_joint",
        "wrist_3_joint"
    ],
    "metrics": {
        "cart_traj_len": 0.3533334781813953,
        "distance_elbow_joint": 0.44833092589310475,
        "distance_shoulder_lift_joint": 0.23486587656578162,
        "distance_shoulder_pan_joint": 0.4638351579498866,
        "distance_wrist_1_joint": 0.23532313031633323,
        "distance_wrist_2_joint": 1.09155629638467,
        "distance_wrist_3_joint": 0.09014376918046851,
        "smoothness": 1.5543122362334363e-15,
        "time": 0.02206476,
        "traj_len": 1.601266734897795,
        "weighted_distance": 2.0177269689807353
    },
    "planner": "LazyPRM",
    "start": {
        "state": {
            "elbow_joint": 1.97154746011099,
            "shoulder_lift_joint": -1.13948474672311,
            "shoulder_pan_joint": 0.12281154466712228,
            "wrist_1_joint": -0.7804688027058302,
            "wrist_2_joint": 0.12958655903071145,
            "wrist_3_joint": 3.0906928834467795
        }
    },
    "waypoints": [
        {
            "positions": [
                0.12281154466712228,
                -1.13948474672311,
                1.97154746011099,
                -0.7804688027058302,
                0.12958655903071145,
                3.0906928834467795
            ]
        },
        {
            "positions": [
                0.05654937924570991,
                -1.173037014803936,
                2.0355947352385764,
                -0.8140863927510207,
                0.28552317279995004,
                3.103570564758275
            ]
        },
        {
            "positions": [
                -0.009712786175702467,
                -1.2065892828847617,
                2.099642010366163,
                -0.8477039827962111,
                0.4414597865691886,
                3.1164482460697704
            ]
        },
        {
            "positions": [
                -0.07597495159711483,
                -1.2401415509655878,
                2.1636892854937493,
                -0.8813215728414016,
                0.5973964003384272,
                3.129325927381266
            ]
        },
        {
            "positions": [
                -0.1422371170185272,
                -1.2736938190464138,
                2.2277365606213353,
                -0.914939162886592,
                0.7533330141076658,
                3.1422036086927614
            ]
        },
        {
            "positions": [
                -0.2084992824399396,
                -1.3072460871272398,
                2.2917838357489217,
                -0.9485567529317824,
                0.9092696278769045,
                3.155081290004257
            ]
        },
        {
            "positions": [
                -0.2747614478613519,
                -1.3407983552080656,
                2.355831110876508,
                -0.9821743429769729,
                1.065206241646143,
                3.1679589713157523
            ]
        },
        {
            "positions": [
                -0.3410236132827643,
                -1.3743506232888916,
                2.4198783860040947,
                -1.0157919330221634,
                1.2211428554153816,
                3.180836652627248
            ]
        }
    ]
}{
    "goal": {
        "global_pose": {
            "orientation": {
                "w": 0.5084816217422485,
                "x": -0.49083608388900757,
                "y": 0.5182115435600281,
                "z": -0.4816462993621826
            },
            "position": {
                "x": 0.5540239810943604,
                "y": 0.030875300988554955,
                "z": 0.16403168439865112
            }
        },
        "name": "move_to_storage_A"
    },
    "id": "LazyPRM_move_to_storage_A_85",
    "joint_names": [
        "shoulder_pan_joint",
        "shoulder_lift_joint",
        "elbow_joint",
        "wrist_1_joint",
        "wrist_2_joint",
        "wrist_3_joint"
    ],
    "metrics": {
        "cart_traj_len": 0.35316874313983193,
        "distance_elbow_joint": 0.45206718859228756,
        "distance_shoulder_lift_joint": 0.2358777665970011,
        "distance_shoulder_pan_joint": 0.46161411903735766,
        "distance_wrist_1_joint": 0.24508642741070075,
        "distance_wrist_2_joint": 1.1012430944030207,
        "distance_wrist_3_joint": 0.10368554381671657,
        "smoothness": 4.440892098500626e-16,
        "time": 0.021909207,
        "traj_len": 1.6123194906274265,
        "weighted_distance": 2.0379584758537743
    },
    "planner": "LazyPRM",
    "start": {
        "state": {
            "elbow_joint": 1.9715472970024885,
            "shoulder_lift_joint": -1.1394870060712896,
            "shoulder_pan_joint": 0.12281152778156021,
            "wrist_1_joint": -0.780463741449964,
            "wrist_2_joint": 0.12958659822042276,
            "wrist_3_joint": 3.090690232415272
        }
    },
    "waypoints": [
        {
            "positions": [
                0.12281152778156021,
                -1.1394870060712896,
                1.9715472970024885,
                -0.780463741449964,
                0.12958659822042276,
                3.090690232415272
            ]
        },
        {
            "positions": [
                0.056866653633366265,
                -1.1731838298708612,
                2.036128323944244,
                -0.8154760882229213,
                0.2869070402779971,
                3.105502452960517
            ]
        },
        {
            "positions": [
                -0.009078220514827678,
                -1.2068806536704328,
                2.100709350885999,
                -0.8504884349958785,
                0.4442274823355715,
                3.1203146735057623
            ]
        },
        {
            "positions": [
                -0.07502309466302162,
                -1.2405774774700045,
                2.1652903778277546,
                -0.8855007817688357,
                0.6015479243931459,
                3.1351268940510075
            ]
        },
        {
            "positions": [
                -0.14096796881121557,
                -1.2742743012695759,
                2.22987140476951,
                -0.920513128541793,
                0.7588683664507202,
                3.1499391145962528
            ]
        },
        {
            "positions": [
                -0.2069128429594095,
                -1.3079711250691475,
                2.2944524317112656,
                -0.9555254753147502,
                0.9161888085082946,
                3.164751335141498
            ]
        },
        {
            "positions": [
                -0.2728577171076034,
                -1.341667948868719,
                2.3590334586530206,
                -0.9905378220877075,
                1.073509250565869,
                3.179563555686743
            ]
        },
        {
            "positions": [
                -0.3388025912557974,
                -1.3753647726682907,
                2.423614485594776,
                -1.0255501688606647,
                1.2308296926234434,
                3.1943757762319884
            ]
        }
    ]
}