{
    "goal": {
        "global_pose": {
            "orientation": {
                "w": -0.00223480608172531,
                "x": 0.0024358444001904467,
                "y": 0.7094548369677653,
                "z": -0.704743149386269
            },
            "position": {
                "x": 0.6205249238014221,
                "y": -0.6371506643295288,
                "z": 0.19426114857196808
            }
        },
        "name": "move_to_magneteinheit_B"
    },
    "id": "LazyPRM_move_to_magneteinheit_B_91",
    "joint_names": [
        "shoulder_pan_joint",
        "shoulder_lift_joint",
        "elbow_joint",
        "wrist_1_joint",
        "wrist_2_joint",
        "wrist_3_joint"
    ],
    "metrics": {
        "cart_traj_len": 1.9909522199034773,
        "distance_elbow_joint": 1.3423468131165122,
        "distance_shoulder_lift_joint": 0.7685916847972517,
        "distance_shoulder_pan_joint": 2.1556610054034286,
        "distance_wrist_1_joint": 0.5024515177147304,
        "distance_wrist_2_joint": 1.5153603887787905,
        "distance_wrist_3_joint": 0.39294142711860747,
        "smoothness": 1.8113685811111282,
        "time": 4.515297299,
        "traj_len": 2.584057436847974,
        "weighted_distance": 3.0791309809197878
    },
    "planner": "LazyPRM",
    "start": {
        "state": {
            "elbow_joint": 2.6216224122426386,
            "shoulder_lift_joint": -1.4174107377796124,
            "shoulder_pan_joint": 0.7066234856936794,
            "wrist_1_joint": 1.9546482284002225,
            "wrist_2_joint": -0.7096286983471962,
            "wrist_3_joint": 0.005740856962016249
        }
    },
    "waypoints": [
        {
            "positions": [
                0.7066234856936794,
                -1.4174107377796124,
                2.6216224122426386,
                1.9546482284002225,
                -0.7096286983471962,
                0.005740856962016249
            ]
        },
        {
            "positions": [
                0.6628126839167539,
                -1.422945450985301,
                2.611212704446034,
                1.9349592428305447,
                -0.7148318463081563,
                0.01878735017430032
            ]
        },
        {
            "positions": [
                0.5123462306809307,
                -1.3984156504672913,
                2.5298997864655726,
                1.9522347299421168,
                -0.8055672309236365,
                0.0013112045604656251
            ]
        },
        {
            "positions": [
                0.36187977744510746,
                -1.3738858499492819,
                2.448586868485111,
                1.969510217053689,
                -0.8963026155391166,
                -0.016164941053369068
            ]
        },
        {
            "positions": [
                0.21141332420928433,
                -1.3493560494312722,
                2.3672739505046496,
                1.9867857041652608,
                -0.9870380001545968,
                -0.03364108666720376
            ]
        },
        {
            "positions": [
                0.060946870973461076,
                -1.3248262489132627,
                2.285961032524188,
                2.004061191276833,
                -1.077773384770077,
                -0.051117232281038455
            ]
        },
        {
            "positions": [
                -0.08951958226236201,
                -1.300296448395253,
                2.2046481145437267,
                2.0213366783884053,
                -1.1685087693855571,
                -0.06859337789487314
            ]
        },
        {
            "positions": [
                -0.2399860354981852,
                -1.2757666478772436,
                2.123335196563265,
                2.038612165499977,
                -1.259244154001037,
                -0.08606952350870783
            ]
        },
        {
            "positions": [
                -0.3904524887340084,
                -1.251236847359234,
                2.0420222785828037,
                2.055887652611549,
                -1.3499795386165174,
                -0.10354566912254254
            ]
        },
        {
            "positions": [
                -0.5409189419698317,
                -1.2267070468412244,
                1.9607093606023422,
                2.073163139723121,
                -1.4407149232319976,
                -0.12102181473637723
            ]
        },
        {
            "positions": [
                -0.6913853952056548,
                -1.2021772463232148,
                1.8793964426218808,
                2.0904386268346933,
                -1.5314503078474777,
                -0.13849796035021195
            ]
        },
        {
            "positions": [
                -0.8418518484414779,
                -1.1776474458052053,
                1.7980835246414193,
                2.1077141139462654,
                -1.6221856924629579,
                -0.1559741059640466
            ]
        },
        {
            "positions": [
                -0.9923183016773013,
                -1.1531176452871956,
                1.7167706066609578,
                2.1249896010578375,
                -1.712921077078438,
                -0.1734502515778813
            ]
        },
        {
            "positions": [
                -0.9256404320256246,
                -1.0822993234830762,
                1.7649510324379767,
                2.162875702981626,
                -1.7981315864883332,
                -0.12932752104419196
            ]
        },
        {
            "positions": [
                -0.8589625623739481,
                -1.0114810016789568,
                1.8131314582149956,
                2.2007618049054143,
                -1.8833420958982285,
                -0.08520479051050261
            ]
        },
        {
            "positions": [
                -0.7922846927222715,
                -0.9406626798748373,
                1.8613118839920142,
                2.2386479068292022,
                -1.968552605308124,
                -0.04108205997681327
            ]
        },
        {
            "positions": [
                -0.7256068230705949,
                -0.8698443580707179,
                1.909492309769033,
                2.2765340087529906,
                -2.053763114718019,
                0.0030406705568760684
            ]
        },
        {
            "positions": [
                -0.7889427362125088,
                -0.7998590651783912,
                1.8279012082934476,
                2.2294714200121217,
                -2.1108384388540085,
                -0.0006814661162520678
            ]
        },
        {
            "positions": [
                -0.8522786493544225,
                -0.7298737722860646,
                1.7463101068178624,
                2.182408831271253,
                -2.1679137629899974,
                -0.004403602789380204
            ]
        },
        {
            "positions": [
                -0.9156145624963364,
                -0.659888479393738,
                1.664719005342277,
                2.135346242530384,
                -2.2249890871259868,
                -0.00812573946250834
            ]
        }
    ]
}