{
    "goal": {
        "global_pose": {
            "orientation": {
                "w": 0.005598929693374612,
                "x": 0.007748599140229565,
                "y": 0.7110244013736278,
                "z": -0.7031023480610252
            },
            "position": {
                "x": 0.1141497679147869,
                "y": -0.7141253447532654,
                "z": 0.3711530566215515
            }
        },
        "name": "move_to_auspresseinheit_B"
    },
    "id": "LazyPRM_move_to_auspresseinheit_B_77",
    "joint_names": [
        "shoulder_pan_joint",
        "shoulder_lift_joint",
        "elbow_joint",
        "wrist_1_joint",
        "wrist_2_joint",
        "wrist_3_joint"
    ],
    "metrics": {
        "cart_traj_len": 0.5655396203866827,
        "distance_elbow_joint": 0.06397938384043034,
        "distance_shoulder_lift_joint": 0.2948980455895216,
        "distance_shoulder_pan_joint": 0.5791956332959585,
        "distance_wrist_1_joint": 0.33385079195462997,
        "distance_wrist_2_joint": 0.9892802486603605,
        "distance_wrist_3_joint": 0.001516734539020348,
        "smoothness": 7.612957943425664e-16,
        "time": 0.011680672,
        "traj_len": 1.5042343028530898,
        "weighted_distance": 1.8944353637886282
    },
    "planner": "LazyPRM",
    "start": {
        "state": {
            "elbow_joint": 2.0193083361928714,
            "shoulder_lift_joint": -1.1220246554650708,
            "shoulder_pan_joint": -1.0952077554168747,
            "wrist_1_joint": -0.8559753972642168,
            "wrist_2_joint": 0.4759566250798843,
            "wrist_3_joint": -3.1240929996934557
        }
    },
    "waypoints": [
        {
            "positions": [
                -1.0952077554168747,
                -1.1220246554650708,
                2.0193083361928714,
                -0.8559753972642168,
                0.4759566250798843,
                -3.1240929996934557
            ]
        },
        {
            "positions": [
                -1.1917403609662012,
                -1.171174329729991,
                2.0086451055528,
                -0.8003335986051118,
                0.6408366665232776,
                -3.1243457887832924
            ]
        },
        {
            "positions": [
                -1.2882729665155275,
                -1.2203240039949113,
                1.997981874912728,
                -0.7446917999460068,
                0.8057167079666712,
                -3.124598577873129
            ]
        },
        {
            "positions": [
                -1.3848055720648538,
                -1.2694736782598315,
                1.9873186442726563,
                -0.6890500012869019,
                0.9705967494100645,
                -3.124851366962966
            ]
        },
        {
            "positions": [
                -1.4813381776141803,
                -1.318623352524752,
                1.9766554136325845,
                -0.6334082026277968,
                1.135476790853458,
                -3.1251041560528026
            ]
        },
        {
            "positions": [
                -1.5778707831635068,
                -1.3677730267896722,
                1.9659921829925129,
                -0.5777664039686918,
                1.3003568322968513,
                -3.1253569451426393
            ]
        },
        {
            "positions": [
                -1.6744033887128331,
                -1.4169227010545924,
                1.955328952352441,
                -0.5221246053095868,
                1.4652368737402448,
                -3.125609734232476
            ]
        }
    ]
}