{
    "goal": {
        "global_pose": {
            "orientation": {
                "w": 0.005598929693374612,
                "x": 0.007748599140229565,
                "y": 0.7110244013736278,
                "z": -0.7031023480610252
            },
            "position": {
                "x": -0.8858502320852131,
                "y": -0.7141253447532654,
                "z": 0.3711530566215515
            }
        },
        "name": "move_to_auspresseinheit_C"
    },
    "id": "LazyPRMstar_move_to_auspresseinheit_C_127",
    "joint_names": [
        "shoulder_pan_joint",
        "shoulder_lift_joint",
        "elbow_joint",
        "wrist_1_joint",
        "wrist_2_joint",
        "wrist_3_joint"
    ],
    "metrics": {
        "cart_traj_len": 0.49299318181615637,
        "distance_elbow_joint": 0.9996971413718775,
        "distance_shoulder_lift_joint": 0.32482248098370814,
        "distance_shoulder_pan_joint": 0.25650784675171545,
        "distance_wrist_1_joint": 0.6802433672468983,
        "distance_wrist_2_joint": 1.3061162916866973,
        "distance_wrist_3_joint": 0.058188863914631295,
        "smoothness": 9.689219149575433e-16,
        "time": 5.000396213,
        "traj_len": 1.9040945333558226,
        "weighted_distance": 2.3933895167143993
    },
    "planner": "LazyPRMstar",
    "start": {
        "state": {
            "elbow_joint": 1.7527959577737207,
            "shoulder_lift_joint": -0.9740617694225068,
            "shoulder_pan_joint": -2.967991417825858,
            "wrist_1_joint": -0.759517768980727,
            "wrist_2_joint": 1.7443932448377408,
            "wrist_3_joint": -3.0840537646736568
        }
    },
    "waypoints": [
        {
            "positions": [
                -2.967991417825858,
                -0.9740617694225068,
                1.7527959577737207,
                -0.759517768980727,
                1.7443932448377408,
                -3.0840537646736568
            ]
        },
        {
            "positions": [
                -2.9423406331506863,
                -0.9415795213241359,
                1.6528262436365329,
                -0.6914934322560371,
                1.6137816156690712,
                -3.0898726510651198
            ]
        },
        {
            "positions": [
                -2.916689848475515,
                -0.9090972732257652,
                1.552856529499345,
                -0.6234690955313473,
                1.4831699865004013,
                -3.095691537456583
            ]
        },
        {
            "positions": [
                -2.8910390638003434,
                -0.8766150251273943,
                1.4528868153621575,
                -0.5554447588066576,
                1.3525583573317317,
                -3.101510423848046
            ]
        },
        {
            "positions": [
                -2.8653882791251717,
                -0.8441327770290235,
                1.3529171012249697,
                -0.4874204220819677,
                1.2219467281630618,
                -3.107329310239509
            ]
        },
        {
            "positions": [
                -2.8397374944500005,
                -0.8116505289306527,
                1.2529473870877819,
                -0.41939608535727785,
                1.0913350989943922,
                -3.1131481966309726
            ]
        },
        {
            "positions": [
                -2.8140867097748288,
                -0.779168280832282,
                1.1529776729505943,
                -0.351371748632588,
                0.9607234698257224,
                -3.1189670830224356
            ]
        },
        {
            "positions": [
                -2.788435925099657,
                -0.7466860327339111,
                1.0530079588134065,
                -0.28334741190789825,
                0.8301118406570528,
                -3.1247859694138986
            ]
        },
        {
            "positions": [
                -2.7627851404244854,
                -0.7142037846355402,
                0.9530382446762187,
                -0.21532307518320837,
                0.699500211488383,
                -3.1306048558053616
            ]
        },
        {
            "positions": [
                -2.737134355749314,
                -0.6817215365371694,
                0.8530685305390309,
                -0.14729873845851849,
                0.5688885823197132,
                -3.136423742196825
            ]
        },
        {
            "positions": [
                -2.7114835710741425,
                -0.6492392884387986,
                0.7530988164018432,
                -0.07927440173382871,
                0.43827695315104365,
                -3.142242628588288
            ]
        }
    ]
}