{
    "goal": {
        "global_pose": {
            "orientation": {
                "w": 0.005598929693374612,
                "x": 0.007748599140229565,
                "y": 0.7110244013736278,
                "z": -0.7031023480610252
            },
            "position": {
                "x": 0.1141497679147869,
                "y": -0.7141253447532654,
                "z": 0.3711530566215515
            }
        },
        "name": "move_to_auspresseinheit_B"
    },
    "id": "LazyPRM_move_to_auspresseinheit_B_36",
    "joint_names": [
        "shoulder_pan_joint",
        "shoulder_lift_joint",
        "elbow_joint",
        "wrist_1_joint",
        "wrist_2_joint",
        "wrist_3_joint"
    ],
    "metrics": {
        "cart_traj_len": 0.5643614188410593,
        "distance_elbow_joint": 0.060329921850613255,
        "distance_shoulder_lift_joint": 0.29426138506121813,
        "distance_shoulder_pan_joint": 0.5763346604195201,
        "distance_wrist_1_joint": 0.3150822085508125,
        "distance_wrist_2_joint": 0.9941597499608357,
        "distance_wrist_3_joint": 0.002091088382931261,
        "smoothness": 2.5376526478085547e-16,
        "time": 0.011830193999999999,
        "traj_len": 1.497417448217407,
        "weighted_distance": 1.8856519163152679
    },
    "planner": "LazyPRM",
    "start": {
        "state": {
            "elbow_joint": 2.0193083361928714,
            "shoulder_lift_joint": -1.1220246554650708,
            "shoulder_pan_joint": -1.0952077554168747,
            "wrist_1_joint": -0.8559753972642168,
            "wrist_2_joint": 0.4759566250798843,
            "wrist_3_joint": -3.1240929996934557
        }
    },
    "waypoints": [
        {
            "positions": [
                -1.0952077554168747,
                -1.1220246554650708,
                2.0193083361928714,
                -0.8559753972642168,
                0.4759566250798843,
                -3.1240929996934557
            ]
        },
        {
            "positions": [
                -1.1912635321534613,
                -1.1710682196419404,
                2.009253349217769,
                -0.8034616958390813,
                0.6416499167400236,
                -3.123744484962967
            ]
        },
        {
            "positions": [
                -1.287319308890048,
                -1.2201117838188102,
                1.999198362242667,
                -0.750947994413946,
                0.8073432084001628,
                -3.1233959702324787
            ]
        },
        {
            "positions": [
                -1.3833750856266347,
                -1.2691553479956799,
                1.989143375267565,
                -0.6984342929888105,
                0.9730365000603021,
                -3.12304745550199
            ]
        },
        {
            "positions": [
                -1.4794308623632213,
                -1.3181989121725495,
                1.9790883882924626,
                -0.6459205915636752,
                1.1387297917204413,
                -3.1226989407715013
            ]
        },
        {
            "positions": [
                -1.5754866390998081,
                -1.3672424763494193,
                1.9690334013173603,
                -0.5934068901385396,
                1.3044230833805808,
                -3.122350426041013
            ]
        },
        {
            "positions": [
                -1.6715424158363947,
                -1.416286040526289,
                1.9589784143422582,
                -0.5408931887134043,
                1.47011637504072,
                -3.1220019113105244
            ]
        }
    ]
}