{
    "goal": {
        "global_pose": {
            "orientation": {
                "w": -0.00223480608172531,
                "x": 0.0024358444001904467,
                "y": 0.7094548369677653,
                "z": -0.704743149386269
            },
            "position": {
                "x": 0.6205249238014221,
                "y": -0.6371506643295288,
                "z": 0.19426114857196808
            }
        },
        "name": "move_to_magneteinheit_B"
    },
    "id": "LazyPRMstar_move_to_magneteinheit_B_51",
    "joint_names": [
        "shoulder_pan_joint",
        "shoulder_lift_joint",
        "elbow_joint",
        "wrist_1_joint",
        "wrist_2_joint",
        "wrist_3_joint"
    ],
    "metrics": {
        "cart_traj_len": 3.3308847044917536,
        "distance_elbow_joint": 4.794182764415972,
        "distance_shoulder_lift_joint": 0.7690684095180322,
        "distance_shoulder_pan_joint": 2.053883507579559,
        "distance_wrist_1_joint": 4.3981812386131525,
        "distance_wrist_2_joint": 1.2469614653022836,
        "distance_wrist_3_joint": 3.164935865742147,
        "smoothness": 0.11556365546777919,
        "time": 5.054257495,
        "traj_len": 4.053049870303986,
        "weighted_distance": 5.329374042659314
    },
    "planner": "LazyPRMstar",
    "start": {
        "state": {
            "elbow_joint": 2.6216224122426386,
            "shoulder_lift_joint": -1.4174107377796124,
            "shoulder_pan_joint": 0.7066234856936794,
            "wrist_1_joint": 1.9546482284002225,
            "wrist_2_joint": -0.7096286983471962,
            "wrist_3_joint": 0.005740856962016249
        }
    },
    "waypoints": [
        {
            "positions": [
                0.7066234856936794,
                -1.4174107377796124,
                2.6216224122426386,
                1.9546482284002225,
                -0.7096286983471962,
                0.005740856962016249
            ]
        },
        {
            "positions": [
                0.681621195323254,
                -1.4573685166785229,
                2.6029281942478955,
                1.7933579096695142,
                -0.7217739204519455,
                -0.00423958542098588
            ]
        },
        {
            "positions": [
                0.6566189049528286,
                -1.4973262955774334,
                2.5842339762531523,
                1.632067590938806,
                -0.733919142556695,
                -0.01422002780398801
            ]
        },
        {
            "positions": [
                0.7111758016523773,
                -1.5182046459811205,
                2.5013614057251177,
                1.4879622835837856,
                -0.7526896054947361,
                0.028139784553448843
            ]
        },
        {
            "positions": [
                0.7657326983519259,
                -1.5390829963848076,
                2.418488835197083,
                1.343856976228765,
                -0.7714600684327773,
                0.0704995969108857
            ]
        },
        {
            "positions": [
                0.8146702265004946,
                -1.5556890943996418,
                2.274498994474582,
                1.2517822116492774,
                -0.7862729009519577,
                0.1420856929450754
            ]
        },
        {
            "positions": [
                0.8636077546490633,
                -1.5722951924144761,
                2.1305091537520813,
                1.1597074470697897,
                -0.801085733471138,
                0.21367178897926506
            ]
        },
        {
            "positions": [
                0.912545282797632,
                -1.5889012904293103,
                1.9865193130295808,
                1.067632682490302,
                -0.8158985659903184,
                0.2852578850134547
            ]
        },
        {
            "positions": [
                0.9614828109462007,
                -1.6055073884441444,
                1.84252947230708,
                0.9755579179108143,
                -0.8307113985094987,
                0.3568439810476444
            ]
        },
        {
            "positions": [
                1.0104203390947695,
                -1.6221134864589786,
                1.6985396315845793,
                0.8834831533313267,
                -0.8455242310286791,
                0.4284300770818341
            ]
        },
        {
            "positions": [
                1.0593578672433381,
                -1.638719584473813,
                1.5545497908620785,
                0.7914083887518389,
                -0.8603370635478594,
                0.5000161731160238
            ]
        },
        {
            "positions": [
                1.1082953953919068,
                -1.655325682488647,
                1.4105599501395778,
                0.6993336241723512,
                -0.8751498960670399,
                0.5716022691502135
            ]
        },
        {
            "positions": [
                1.1572329235404755,
                -1.6719317805034812,
                1.266570109417077,
                0.6072588595928635,
                -0.8899627285862202,
                0.6431883651844031
            ]
        },
        {
            "positions": [
                1.2061704516890441,
                -1.6885378785183154,
                1.1225802686945763,
                0.5151840950133758,
                -0.9047755611054006,
                0.7147744612185928
            ]
        },
        {
            "positions": [
                1.2551079798376128,
                -1.7051439765331498,
                0.9785904279720756,
                0.4231093304338882,
                -0.9195883936245809,
                0.7863605572527825
            ]
        },
        {
            "positions": [
                1.3040455079861815,
                -1.721750074547984,
                0.8346005872495748,
                0.3310345658544005,
                -0.9344012261437613,
                0.8579466532869722
            ]
        },
        {
            "positions": [
                1.3529830361347503,
                -1.738356172562818,
                0.6906107465270739,
                0.2389598012749128,
                -0.9492140586629416,
                0.9295327493211619
            ]
        },
        {
            "positions": [
                1.401920564283319,
                -1.7549622705776522,
                0.5466209058045732,
                0.14688503669542508,
                -0.964026891182122,
                1.0011188453553514
            ]
        },
        {
            "positions": [
                1.4508580924318877,
                -1.7715683685924866,
                0.4026310650820726,
                0.054810272115937364,
                -0.9788397237013025,
                1.0727049413895413
            ]
        },
        {
            "positions": [
                1.4997956205804563,
                -1.7881744666073207,
                0.2586412243595717,
                -0.03726449246355035,
                -0.9936525562204828,
                1.144291037423731
            ]
        },
        {
            "positions": [
                1.548733148729025,
                -1.8047805646221549,
                0.11465138363707084,
                -0.12933925704303806,
                -1.008465388739663,
                1.2158771334579206
            ]
        },
        {
            "positions": [
                1.5976706768775937,
                -1.8213866626369892,
                -0.029338457085429592,
                -0.22141402162252577,
                -1.0232782212588436,
                1.2874632294921102
            ]
        },
        {
            "positions": [
                1.6466082050261623,
                -1.8379927606518234,
                -0.17332829780793046,
                -0.3134887862020135,
                -1.038091053778024,
                1.3590493255262999
            ]
        },
        {
            "positions": [
                1.6955457331747312,
                -1.8545988586666575,
                -0.31731813853043134,
                -0.40556355078150097,
                -1.0529038862972042,
                1.4306354215604897
            ]
        },
        {
            "positions": [
                1.7444832613232997,
                -1.8712049566814917,
                -0.46130797925293177,
                -0.4976383153609887,
                -1.0677167188163845,
                1.5022215175946794
            ]
        },
        {
            "positions": [
                1.7934207894718686,
                -1.8878110546963258,
                -0.6052978199754326,
                -0.5897130799404764,
                -1.0825295513355648,
                1.573807613628869
            ]
        },
        {
            "positions": [
                1.8423583176204372,
                -1.9044171527111602,
                -0.7492876606979335,
                -0.6817878445199641,
                -1.0973423838547454,
                1.6453937096630586
            ]
        },
        {
            "positions": [
                1.891295845769006,
                -1.9210232507259943,
                -0.8932775014204344,
                -0.773862609099452,
                -1.1121552163739257,
                1.7169798056972485
            ]
        },
        {
            "positions": [
                1.9402333739175746,
                -1.9376293487408285,
                -1.0372673421429353,
                -0.8659373736789395,
                -1.1269680488931062,
                1.7885659017314381
            ]
        },
        {
            "positions": [
                1.9891709020661434,
                -1.9542354467556629,
                -1.1812571828654361,
                -0.9580121382584275,
                -1.1417808814122865,
                1.8601519977656278
            ]
        },
        {
            "positions": [
                2.038108430214712,
                -1.970841544770497,
                -1.3252470235879366,
                -1.050086902837915,
                -1.1565937139314668,
                1.9317380937998174
            ]
        },
        {
            "positions": [
                2.087045958363281,
                -1.9874476427853311,
                -1.4692368643104374,
                -1.1421616674174029,
                -1.1714065464506471,
                2.0033241898340073
            ]
        },
        {
            "positions": [
                2.1359834865118494,
                -2.0040537408001655,
                -1.6132267050329379,
                -1.2342364319968904,
                -1.1862193789698274,
                2.0749102858681967
            ]
        },
        {
            "positions": [
                2.184921014660418,
                -2.0206598388149994,
                -1.7572165457554387,
                -1.3263111965763783,
                -1.201032211489008,
                2.146496381902386
            ]
        },
        {
            "positions": [
                2.2338585428089868,
                -2.037265936829834,
                -1.9012063864779398,
                -1.4183859611558656,
                -1.2158450440081883,
                2.218082477936576
            ]
        },
        {
            "positions": [
                2.283696285997988,
                -2.0596821578884152,
                -1.9039223621972954,
                -1.5350307079552783,
                -1.1344649629614878,
                2.3244691669525626
            ]
        },
        {
            "positions": [
                2.333534029186989,
                -2.0820983789469967,
                -1.9066383379166512,
                -1.6516754547546908,
                -1.053084881914787,
                2.4308558559685496
            ]
        },
        {
            "positions": [
                2.38337177237599,
                -2.1045146000055777,
                -1.9093543136360067,
                -1.7683202015541035,
                -0.9717048008680866,
                2.5372425449845366
            ]
        },
        {
            "positions": [
                2.4332095155649913,
                -2.126930821064159,
                -1.9120702893553623,
                -1.8849649483535162,
                -0.8903247198213862,
                2.643629234000523
            ]
        },
        {
            "positions": [
                2.471090901602749,
                -2.1368555421030733,
                -1.8686552788856998,
                -1.9780596253300853,
                -0.8211205872456379,
                2.7248168538624618
            ]
        },
        {
            "positions": [
                2.5089722876405065,
                -2.1467802631419874,
                -1.8252402684160374,
                -2.0711543023066543,
                -0.7519164546698895,
                2.8060044737244003
            ]
        },
        {
            "positions": [
                2.546853673678264,
                -2.1567049841809016,
                -1.781825257946375,
                -2.164248979283223,
                -0.6827123220941412,
                2.8871920935863393
            ]
        },
        {
            "positions": [
                2.5847350597160217,
                -2.1666297052198162,
                -1.7384102474767125,
                -2.2573436562597924,
                -0.6135081895183929,
                2.968379713448278
            ]
        },
        {
            "positions": [
                2.6226164457537795,
                -2.1765544262587304,
                -1.69499523700705,
                -2.3504383332363616,
                -0.5443040569426446,
                3.0495673333102165
            ]
        },
        {
            "positions": [
                2.660497831791537,
                -2.1864791472976446,
                -1.6515802265373876,
                -2.4435330102129305,
                -0.4750999243668963,
                3.130754953172155
            ]
        }
    ]
}