{
    "goal": {
        "global_pose": {
            "orientation": {
                "w": 0.7031023480610252,
                "x": -0.7110244013736278,
                "y": 0.0077485991402295624,
                "z": 0.005598929693374583
            },
            "position": {
                "x": -0.8841497679147869,
                "y": 0.44412534475326537,
                "z": 0.3711530566215515
            }
        },
        "name": "move_to_auspresseinheit_D"
    },
    "id": "LazyPRM_move_to_auspresseinheit_D_22",
    "joint_names": [
        "shoulder_pan_joint",
        "shoulder_lift_joint",
        "elbow_joint",
        "wrist_1_joint",
        "wrist_2_joint",
        "wrist_3_joint"
    ],
    "metrics": {
        "cart_traj_len": 0.34348831354718445,
        "distance_elbow_joint": 0.6505057700710495,
        "distance_shoulder_lift_joint": 0.12808512785293003,
        "distance_shoulder_pan_joint": 0.1334204720502594,
        "distance_wrist_1_joint": 0.5677391315802431,
        "distance_wrist_2_joint": 1.4376669920748297,
        "distance_wrist_3_joint": 0.0324576262870413,
        "smoothness": 3.947459674368863e-16,
        "time": 0.012554553000000001,
        "traj_len": 1.7175200493491634,
        "weighted_distance": 2.2405795000725837
    },
    "planner": "LazyPRM",
    "start": {
        "state": {
            "elbow_joint": -1.8275523626775212,
            "shoulder_lift_joint": -2.126789852344167,
            "shoulder_pan_joint": -0.03513704404078235,
            "wrist_1_joint": -2.347782403156801,
            "wrist_2_joint": -1.6058999987535132,
            "wrist_3_joint": -3.0880379163319196
        }
    },
    "waypoints": [
        {
            "positions": [
                -0.03513704404078235,
                -2.126789852344167,
                -1.8275523626775212,
                -2.347782403156801,
                -1.6058999987535132,
                -3.0880379163319196
            ]
        },
        {
            "positions": [
                -0.05181460304706477,
                -2.142800493325783,
                -1.74623914141864,
                -2.4187497946043313,
                -1.4261916247441595,
                -3.0839807130460395
            ]
        },
        {
            "positions": [
                -0.0684921620533472,
                -2.1588111343073995,
                -1.6649259201597588,
                -2.4897171860518617,
                -1.2464832507348058,
                -3.0799235097601594
            ]
        },
        {
            "positions": [
                -0.08516972105962961,
                -2.1748217752890158,
                -1.5836126989008776,
                -2.560684577499392,
                -1.066774876725452,
                -3.0758663064742793
            ]
        },
        {
            "positions": [
                -0.10184728006591204,
                -2.1908324162706316,
                -1.5022994776419965,
                -2.6316519689469224,
                -0.8870665027160983,
                -3.071809103188399
            ]
        },
        {
            "positions": [
                -0.11852483907219447,
                -2.206843057252248,
                -1.4209862563831153,
                -2.702619360394453,
                -0.7073581287067446,
                -3.0677518999025186
            ]
        },
        {
            "positions": [
                -0.1352023980784769,
                -2.2228536982338643,
                -1.339673035124234,
                -2.7735867518419832,
                -0.5276497546973908,
                -3.0636946966166385
            ]
        },
        {
            "positions": [
                -0.15187995708475932,
                -2.2388643392154806,
                -1.258359813865353,
                -2.8445541432895136,
                -0.34794138068803715,
                -3.0596374933307584
            ]
        },
        {
            "positions": [
                -0.16855751609104175,
                -2.254874980197097,
                -1.1770465926064717,
                -2.915521534737044,
                -0.16823300667868354,
                -3.0555802900448783
            ]
        }
    ]
}