{
    "goal": {
        "global_pose": {
            "orientation": {
                "w": -0.00223480608172531,
                "x": 0.0024358444001904467,
                "y": 0.7094548369677653,
                "z": -0.704743149386269
            },
            "position": {
                "x": -0.37947507619857795,
                "y": -0.6371506643295288,
                "z": 0.19426114857196808
            }
        },
        "name": "move_to_magneteinheit_C"
    },
    "id": "LazyPRM_move_to_magneteinheit_C_78",
    "joint_names": [
        "shoulder_pan_joint",
        "shoulder_lift_joint",
        "elbow_joint",
        "wrist_1_joint",
        "wrist_2_joint",
        "wrist_3_joint"
    ],
    "metrics": {
        "cart_traj_len": 1.3694775085302913,
        "distance_elbow_joint": 0.7301840228538246,
        "distance_shoulder_lift_joint": 1.2793486481170173,
        "distance_shoulder_pan_joint": 1.2208555637446497,
        "distance_wrist_1_joint": 7.8031672960277465,
        "distance_wrist_2_joint": 1.8811140149373542,
        "distance_wrist_3_joint": 1.0251380864250068,
        "smoothness": 0.829412566478135,
        "time": 1.2769464069999998,
        "traj_len": 3.733605178926342,
        "weighted_distance": 5.066987775386942
    },
    "planner": "LazyPRM",
    "start": {
        "state": {
            "elbow_joint": 1.9565354010623817,
            "shoulder_lift_joint": -1.4165861575791021,
            "shoulder_pan_joint": -1.6717766225146293,
            "wrist_1_joint": -0.5286633292919765,
            "wrist_2_joint": 1.472756589071564,
            "wrist_3_joint": -3.1238370188695823
        }
    },
    "waypoints": [
        {
            "positions": [
                -1.6717766225146293,
                -1.4165861575791021,
                1.9565354010623817,
                -0.5286633292919765,
                1.472756589071564,
                -3.1238370188695823
            ]
        },
        {
            "positions": [
                -1.7249975966677706,
                -1.443582136158565,
                1.9771145823746208,
                -0.331191371491551,
                1.402158803088289,
                -3.0975396369951937
            ]
        },
        {
            "positions": [
                -1.7782185708209117,
                -1.4705781147380281,
                1.99769376368686,
                -0.13371941369112544,
                1.331561017105014,
                -3.0712422551208047
            ]
        },
        {
            "positions": [
                -1.831439544974053,
                -1.497574093317491,
                2.018272944999099,
                0.06375254410930009,
                1.260963231121739,
                -3.044944873246416
            ]
        },
        {
            "positions": [
                -1.8846605191271943,
                -1.524570071896954,
                2.038852126311338,
                0.26122450190972557,
                1.190365445138464,
                -3.0186474913720276
            ]
        },
        {
            "positions": [
                -1.9378814932803354,
                -1.551566050476417,
                2.059431307623577,
                0.45869645971015116,
                1.119767659155189,
                -2.9923501094976386
            ]
        },
        {
            "positions": [
                -1.9911024674334767,
                -1.57856202905588,
                2.080010488935816,
                0.6561684175105766,
                1.049169873171914,
                -2.96605272762325
            ]
        },
        {
            "positions": [
                -2.044323441586618,
                -1.6055580076353428,
                2.100589670248055,
                0.8536403753110022,
                0.978572087188639,
                -2.939755345748861
            ]
        },
        {
            "positions": [
                -2.097544415739759,
                -1.632553986214806,
                2.1211688515602942,
                1.0511123331114276,
                0.907974301205364,
                -2.9134579638744724
            ]
        },
        {
            "positions": [
                -2.1507653898929004,
                -1.6595499647942689,
                2.1417480328725333,
                1.2485842909118532,
                0.8373765152220891,
                -2.887160582000084
            ]
        },
        {
            "positions": [
                -2.2039863640460418,
                -1.6865459433737318,
                2.1623272141847725,
                1.4460562487122788,
                0.7667787292388141,
                -2.860863200125695
            ]
        },
        {
            "positions": [
                -2.2572073381991826,
                -1.7135419219531949,
                2.1829063954970116,
                1.6435282065127044,
                0.696180943255539,
                -2.8345658182513063
            ]
        },
        {
            "positions": [
                -2.310428312352324,
                -1.7405379005326578,
                2.2034855768092507,
                1.8410001643131297,
                0.6255831572722641,
                -2.8082684363769177
            ]
        },
        {
            "positions": [
                -2.3636492865054652,
                -1.7675338791121207,
                2.22406475812149,
                2.0384721221135553,
                0.5549853712889891,
                -2.7819710545025287
            ]
        },
        {
            "positions": [
                -2.4168702606586066,
                -1.7945298576915836,
                2.244643939433729,
                2.235944079913981,
                0.48438758530571413,
                -2.75567367262814
            ]
        },
        {
            "positions": [
                -2.470091234811748,
                -1.8215258362710467,
                2.2652231207459677,
                2.433416037714407,
                0.4137897993224391,
                -2.729376290753751
            ]
        },
        {
            "positions": [
                -2.5233122089648887,
                -1.8485218148505096,
                2.285802302058207,
                2.630887995514832,
                0.34319201333916416,
                -2.7030789088793625
            ]
        },
        {
            "positions": [
                -2.5765331831180305,
                -1.8755177934299727,
                2.306381483370446,
                2.8283599533152577,
                0.272594227355889,
                -2.676781527004974
            ]
        },
        {
            "positions": [
                -2.6297541572711713,
                -1.9025137720094354,
                2.326960664682685,
                3.0258319111156826,
                0.2019964413726143,
                -2.650484145130585
            ]
        },
        {
            "positions": [
                -2.6829751314243127,
                -1.9295097505888985,
                2.347539845994924,
                3.223303868916109,
                0.13139865538933915,
                -2.6241867632561964
            ]
        },
        {
            "positions": [
                -2.6706423634928442,
                -1.8844259238178855,
                2.3275881061172017,
                2.9849979808090703,
                0.1631490131102291,
                -2.655097812127468
            ]
        },
        {
            "positions": [
                -2.6583095955613754,
                -1.8393420970468726,
                2.307636366239479,
                2.7466920927020313,
                0.1948993708311191,
                -2.68600886099874
            ]
        },
        {
            "positions": [
                -2.645976827629907,
                -1.7942582702758596,
                2.2876846263617567,
                2.5083862045949927,
                0.2266497285520091,
                -2.7169199098700116
            ]
        },
        {
            "positions": [
                -2.633644059698438,
                -1.7491744435048466,
                2.2677328864840343,
                2.270080316487954,
                0.25840008627289907,
                -2.7478309587412837
            ]
        },
        {
            "positions": [
                -2.6213112917669696,
                -1.7040906167338334,
                2.247781146606312,
                2.031774428380915,
                0.2901504439937891,
                -2.7787420076125553
            ]
        },
        {
            "positions": [
                -2.608978523835501,
                -1.6590067899628205,
                2.2278294067285893,
                1.7934685402738766,
                0.32190080171467905,
                -2.8096530564838273
            ]
        },
        {
            "positions": [
                -2.5966457559040323,
                -1.6139229631918075,
                2.207877666850867,
                1.555162652166838,
                0.353651159435569,
                -2.840564105355099
            ]
        },
        {
            "positions": [
                -2.584312987972564,
                -1.5688391364207945,
                2.1879259269731444,
                1.3168567640597992,
                0.385401517156459,
                -2.871475154226371
            ]
        },
        {
            "positions": [
                -2.571980220041095,
                -1.5237553096497816,
                2.167974187095422,
                1.0785508759527604,
                0.41715187487734895,
                -2.9023862030976426
            ]
        },
        {
            "positions": [
                -2.5596474521096266,
                -1.4786714828787686,
                2.1480224472176994,
                0.8402449878457219,
                0.44890223259823897,
                -2.9332972519689147
            ]
        },
        {
            "positions": [
                -2.5473146841781578,
                -1.4335876561077554,
                2.128070707339977,
                0.6019390997386829,
                0.48065259031912894,
                -2.9642083008401863
            ]
        },
        {
            "positions": [
                -2.5349819162466893,
                -1.3885038293367424,
                2.1081189674622545,
                0.3636332116316443,
                0.512402948040019,
                -2.9951193497114583
            ]
        },
        {
            "positions": [
                -2.522649148315221,
                -1.3434200025657295,
                2.088167227584532,
                0.12532732352460618,
                0.5441533057609089,
                -3.02603039858273
            ]
        },
        {
            "positions": [
                -2.510316380383752,
                -1.2983361757947165,
                2.0682154877068095,
                -0.11297856458243283,
                0.5759036634817989,
                -3.056941447454002
            ]
        },
        {
            "positions": [
                -2.4979836124522836,
                -1.2532523490237035,
                2.048263747829087,
                -0.3512844526894714,
                0.6076540212026889,
                -3.0878524963252736
            ]
        },
        {
            "positions": [
                -2.4856508445208148,
                -1.2081685222526906,
                2.0283120079513646,
                -0.5895903407965104,
                0.6394043789235788,
                -3.118763545196545
            ]
        },
        {
            "positions": [
                -2.4733180765893463,
                -1.1630846954816776,
                2.008360268073642,
                -0.827896228903549,
                0.6711547366444688,
                -3.1496745940678172
            ]
        }
    ]
}