{
    "goal": {
        "global_pose": {
            "orientation": {
                "w": 0.005598929693374612,
                "x": 0.007748599140229565,
                "y": 0.7110244013736278,
                "z": -0.7031023480610252
            },
            "position": {
                "x": -0.8858502320852131,
                "y": -0.7141253447532654,
                "z": 0.3711530566215515
            }
        },
        "name": "move_to_auspresseinheit_C"
    },
    "id": "LazyPRMstar_move_to_auspresseinheit_C_27",
    "joint_names": [
        "shoulder_pan_joint",
        "shoulder_lift_joint",
        "elbow_joint",
        "wrist_1_joint",
        "wrist_2_joint",
        "wrist_3_joint"
    ],
    "metrics": {
        "cart_traj_len": 0.4933066253471893,
        "distance_elbow_joint": 1.000056935975147,
        "distance_shoulder_lift_joint": 0.3252611555016125,
        "distance_shoulder_pan_joint": 0.2557090813654912,
        "distance_wrist_1_joint": 0.6672707272980891,
        "distance_wrist_2_joint": 1.3195211150268151,
        "distance_wrist_3_joint": 0.05711350634344248,
        "smoothness": 1.6148698667872622e-16,
        "time": 5.000123846999999,
        "traj_len": 1.9039255556640333,
        "weighted_distance": 2.3928960229233502
    },
    "planner": "LazyPRMstar",
    "start": {
        "state": {
            "elbow_joint": 1.7527959577737207,
            "shoulder_lift_joint": -0.9740617694225068,
            "shoulder_pan_joint": -2.967991417825858,
            "wrist_1_joint": -0.759517768980727,
            "wrist_2_joint": 1.7443932448377408,
            "wrist_3_joint": -3.0840537646736568
        }
    },
    "waypoints": [
        {
            "positions": [
                -2.967991417825858,
                -0.9740617694225068,
                1.7527959577737207,
                -0.759517768980727,
                1.7443932448377408,
                -3.0840537646736568
            ]
        },
        {
            "positions": [
                -2.942420509689309,
                -0.9415356538723455,
                1.652790264176206,
                -0.692790696250918,
                1.6124411333350592,
                -3.0897651153080012
            ]
        },
        {
            "positions": [
                -2.9168496015527596,
                -0.9090095383221842,
                1.5527845705786913,
                -0.6260636235211091,
                1.4804890218323778,
                -3.0954764659423453
            ]
        },
        {
            "positions": [
                -2.8912786934162105,
                -0.8764834227720231,
                1.4527788769811765,
                -0.5593365507913003,
                1.3485369103296962,
                -3.1011878165766893
            ]
        },
        {
            "positions": [
                -2.8657077852796613,
                -0.8439573072218618,
                1.3527731833836618,
                -0.4926094780614913,
                1.2165847988270149,
                -3.1068991672110338
            ]
        },
        {
            "positions": [
                -2.840136877143112,
                -0.8114311916717005,
                1.2527674897861472,
                -0.4258824053316824,
                1.0846326873243333,
                -3.1126105178453782
            ]
        },
        {
            "positions": [
                -2.8145659690065634,
                -0.7789050761215393,
                1.1527617961886325,
                -0.35915533260187354,
                0.9526805758216518,
                -3.1183218684797223
            ]
        },
        {
            "positions": [
                -2.7889950608700143,
                -0.746378960571378,
                1.0527561025911178,
                -0.2924282598720646,
                0.8207284643189703,
                -3.1240332191140663
            ]
        },
        {
            "positions": [
                -2.763424152733465,
                -0.7138528450212167,
                0.952750408993603,
                -0.22570118714225562,
                0.6887763528162887,
                -3.1297445697484108
            ]
        },
        {
            "positions": [
                -2.737853244596916,
                -0.6813267294710554,
                0.8527447153960883,
                -0.1589741144124468,
                0.5568242413136071,
                -3.1354559203827552
            ]
        },
        {
            "positions": [
                -2.7122823364603668,
                -0.6488006139208943,
                0.7527390217985735,
                -0.09224704168263784,
                0.42487212981092565,
                -3.1411672710170992
            ]
        }
    ]
}