{
    "goal": {
        "global_pose": {
            "orientation": {
                "w": 0.7047431493862688,
                "x": -0.7094548369677653,
                "y": 0.0024358444001904,
                "z": -0.0022348060817251984
            },
            "position": {
                "x": -0.39052492380142206,
                "y": 0.3671506643295288,
                "z": 0.19426114857196808
            }
        },
        "name": "move_to_magneteinheit_D"
    },
    "id": "LazyPRM_move_to_magneteinheit_D_78",
    "joint_names": [
        "shoulder_pan_joint",
        "shoulder_lift_joint",
        "elbow_joint",
        "wrist_1_joint",
        "wrist_2_joint",
        "wrist_3_joint"
    ],
    "metrics": {
        "cart_traj_len": 4.845950655162061,
        "distance_elbow_joint": 3.86801949643772,
        "distance_shoulder_lift_joint": 1.6356288693421834,
        "distance_shoulder_pan_joint": 4.2380230126747636,
        "distance_wrist_1_joint": 2.802276320182526,
        "distance_wrist_2_joint": 1.0820208107162852,
        "distance_wrist_3_joint": 3.654082038924597,
        "smoothness": 0.6428240795604023,
        "time": 0.16799877000000002,
        "traj_len": 4.156928018173767,
        "weighted_distance": 5.335963995102111
    },
    "planner": "LazyPRM",
    "start": {
        "state": {
            "elbow_joint": 0.749534889911806,
            "shoulder_lift_joint": -0.6476975780787326,
            "shoulder_pan_joint": -2.711696901376241,
            "wrist_1_joint": -0.07506478083263063,
            "wrist_2_joint": 0.43296659715538205,
            "wrist_3_joint": -3.14703540197715
        }
    },
    "waypoints": [
        {
            "positions": [
                -2.711696901376241,
                -0.6476975780787326,
                0.749534889911806,
                -0.07506478083263063,
                0.43296659715538205,
                -3.14703540197715
            ]
        },
        {
            "positions": [
                -2.850820253447003,
                -0.710886798436771,
                0.7935966884639493,
                -0.055531397037271564,
                0.3462456270804628,
                -3.124516296315137
            ]
        },
        {
            "positions": [
                -2.7696463605198725,
                -0.7694722094957436,
                0.7502857686674854,
                0.11041140474251662,
                0.30817835849125086,
                -3.121553816330918
            ]
        },
        {
            "positions": [
                -2.6884724675927423,
                -0.8280576205547161,
                0.7069748488710215,
                0.2763542065223048,
                0.2701110899020389,
                -3.1185913363466993
            ]
        },
        {
            "positions": [
                -2.607298574665612,
                -0.8866430316136886,
                0.6636639290745576,
                0.442297008302093,
                0.23204382131282703,
                -3.1156288563624805
            ]
        },
        {
            "positions": [
                -2.5261246817384815,
                -0.9452284426726612,
                0.6203530092780938,
                0.6082398100818811,
                0.19397655272361508,
                -3.1126663763782614
            ]
        },
        {
            "positions": [
                -2.3931745275596694,
                -0.9883971874470321,
                0.5566160909479541,
                0.6740463048665503,
                0.19068238613016897,
                -3.03955885843073
            ]
        },
        {
            "positions": [
                -2.260224373380858,
                -1.031565932221403,
                0.4928791726178142,
                0.7398527996512194,
                0.18738821953672288,
                -2.9664513404831987
            ]
        },
        {
            "positions": [
                -2.1272742192020457,
                -1.074734676995774,
                0.4291422542876745,
                0.8056592944358886,
                0.18409405294327677,
                -2.8933438225356674
            ]
        },
        {
            "positions": [
                -1.994324065023234,
                -1.117903421770145,
                0.3654053359575347,
                0.8714657892205577,
                0.18079988634983066,
                -2.820236304588136
            ]
        },
        {
            "positions": [
                -1.861373910844422,
                -1.1610721665445158,
                0.301668417627395,
                0.937272284005227,
                0.17750571975638457,
                -2.7471287866406047
            ]
        },
        {
            "positions": [
                -1.72842375666561,
                -1.204240911318887,
                0.2379314992972552,
                1.003078778789896,
                0.17421155316293846,
                -2.6740212686930733
            ]
        },
        {
            "positions": [
                -1.595473602486798,
                -1.247409656093258,
                0.17419458096711543,
                1.0688852735745653,
                0.17091738656949235,
                -2.6009137507455415
            ]
        },
        {
            "positions": [
                -1.4625234483079863,
                -1.2905784008676289,
                0.11045766263697565,
                1.1346917683592346,
                0.16762321997604623,
                -2.5278062327980106
            ]
        },
        {
            "positions": [
                -1.3295732941291742,
                -1.3337471456419998,
                0.046720744306835926,
                1.2004982631439036,
                0.16432905338260015,
                -2.454698714850479
            ]
        },
        {
            "positions": [
                -1.1966231399503624,
                -1.3769158904163707,
                -0.0170161740233038,
                1.2663047579285727,
                0.16103488678915404,
                -2.3815911969029475
            ]
        },
        {
            "positions": [
                -1.0636729857715503,
                -1.4200846351907417,
                -0.08075309235344363,
                1.3321112527132422,
                0.15774072019570792,
                -2.308483678955416
            ]
        },
        {
            "positions": [
                -0.9307228315927387,
                -1.4632533799651126,
                -0.14449001068358336,
                1.3979177474979112,
                0.15444655360226184,
                -2.235376161007885
            ]
        },
        {
            "positions": [
                -0.7977726774139269,
                -1.5064221247394836,
                -0.20822692901372308,
                1.4637242422825802,
                0.15115238700881573,
                -2.1622686430603535
            ]
        },
        {
            "positions": [
                -0.6648225232351146,
                -1.5495908695138545,
                -0.2719638473438629,
                1.5295307370672495,
                0.1478582204153696,
                -2.089161125112822
            ]
        },
        {
            "positions": [
                -0.5318723690563028,
                -1.5927596142882257,
                -0.33570076567400264,
                1.5953372318519188,
                0.1445640538219235,
                -2.016053607165291
            ]
        },
        {
            "positions": [
                -0.39892221487749113,
                -1.6359283590625964,
                -0.3994376840041425,
                1.6611437266365878,
                0.14126988722847741,
                -1.9429460892177597
            ]
        },
        {
            "positions": [
                -0.26597206069867907,
                -1.6790971038369675,
                -0.4631746023342822,
                1.7269502214212569,
                0.1379757206350313,
                -1.8698385712702283
            ]
        },
        {
            "positions": [
                -0.133021906519867,
                -1.7222658486113382,
                -0.5269115206644219,
                1.7927567162059261,
                0.13468155404158522,
                -1.7967310533226968
            ]
        },
        {
            "positions": [
                -7.175234105538664e-05,
                -1.7654345933857094,
                -0.5906484389945617,
                1.8585632109905954,
                0.1313873874481391,
                -1.7236235353751654
            ]
        },
        {
            "positions": [
                0.13287840183775668,
                -1.8086033381600801,
                -0.6543853573247014,
                1.9243697057752644,
                0.128093220854693,
                -1.650516017427634
            ]
        },
        {
            "positions": [
                0.2658285560165683,
                -1.8517720829344513,
                -0.7181222756548411,
                1.9901762005599337,
                0.12479905426124689,
                -1.577408499480103
            ]
        },
        {
            "positions": [
                0.3987787101953808,
                -1.8949408277088222,
                -0.781859193984981,
                2.055982695344603,
                0.12150488766780078,
                -1.5043009815325714
            ]
        },
        {
            "positions": [
                0.5317288643741924,
                -1.9381095724831932,
                -0.8455961123151208,
                2.121789190129272,
                0.11821072107435468,
                -1.43119346358504
            ]
        },
        {
            "positions": [
                0.5020736014266961,
                -1.9595351039980347,
                -0.9884456776103543,
                2.100558837365014,
                0.14973121070612613,
                -1.3017527077602282
            ]
        },
        {
            "positions": [
                0.47241833847919984,
                -1.9809606355128762,
                -1.1312952429055878,
                2.0793284846007563,
                0.1812517003378976,
                -1.1723119519354166
            ]
        },
        {
            "positions": [
                0.4427630755317036,
                -2.0023861670277174,
                -1.2741448082008213,
                2.0580981318364984,
                0.21277218996966904,
                -1.0428711961106047
            ]
        },
        {
            "positions": [
                0.41310781258420726,
                -2.023811698542559,
                -1.4169943734960548,
                2.0368677790722405,
                0.2442926796014405,
                -0.913430440285793
            ]
        },
        {
            "positions": [
                0.383452549636711,
                -2.0452372300574004,
                -1.5598439387912886,
                2.0156374263079826,
                0.275813169233212,
                -0.7839896844609813
            ]
        },
        {
            "positions": [
                0.35379728668921473,
                -2.0666627615722417,
                -1.7026935040865219,
                1.9944070735437245,
                0.30733365886498343,
                -0.6545489286361695
            ]
        },
        {
            "positions": [
                0.3241420237417184,
                -2.0880882930870834,
                -1.8455430693817556,
                1.9731767207794666,
                0.3388541484967549,
                -0.5251081728113579
            ]
        },
        {
            "positions": [
                0.2944867607942221,
                -2.1095138246019247,
                -1.9883926346769891,
                1.9519463680152087,
                0.37037463812852633,
                -0.39566741698654595
            ]
        },
        {
            "positions": [
                0.2648314978467259,
                -2.130939356116766,
                -2.1312421999722226,
                1.9307160152509508,
                0.4018951277602978,
                -0.2662266611617343
            ]
        },
        {
            "positions": [
                0.23517623489922956,
                -2.1523648876316077,
                -2.274091765267456,
                1.9094856624866927,
                0.43341561739206924,
                -0.13678590533692248
            ]
        },
        {
            "positions": [
                0.2055209719517333,
                -2.173790419146449,
                -2.4169413305626897,
                1.8882553097224348,
                0.4649361070238407,
                -0.007345149512110849
            ]
        },
        {
            "positions": [
                0.17586570900423698,
                -2.1952159506612907,
                -2.5597908958579234,
                1.867024956958177,
                0.49645659665561215,
                0.122095606312701
            ]
        },
        {
            "positions": [
                0.14621044605674072,
                -2.216641482176132,
                -2.7026404611531567,
                1.845794604193919,
                0.5279770862873836,
                0.25153636213751274
            ]
        },
        {
            "positions": [
                0.0800440211636695,
                -2.2299784752250886,
                -2.6370963514994625,
                1.7799090515368647,
                0.45647737240293784,
                0.20043430717552602
            ]
        },
        {
            "positions": [
                0.013877596270598286,
                -2.2433154682740457,
                -2.5715522418457684,
                1.7140234988798104,
                0.3849776585184921,
                0.1493322522135393
            ]
        },
        {
            "positions": [
                -0.05228882862247289,
                -2.2566524613230023,
                -2.5060081321920746,
                1.6481379462227563,
                0.3134779446340463,
                0.09823019725155258
            ]
        },
        {
            "positions": [
                -0.11845525351554415,
                -2.2699894543719594,
                -2.4404640225383805,
                1.582252393565702,
                0.24197823074960056,
                0.047128142289565855
            ]
        },
        {
            "positions": [
                -0.18462167840861532,
                -2.283326447420916,
                -2.3749199128846863,
                1.5163668409086477,
                0.17047851686515483,
                -0.003973912672420876
            ]
        }
    ]
}