{
    "goal": {
        "global_pose": {
            "orientation": {
                "w": -0.4816463035849501,
                "x": 0.5182115481033762,
                "y": 0.4908360881923453,
                "z": -0.5084816262002911
            },
            "position": {
                "x": -0.8240239810943604,
                "y": 0.19912469901144506,
                "z": 0.16403168439865112
            }
        },
        "name": "move_to_storage_D"
    },
    "id": "LazyPRM_move_to_storage_D_83",
    "joint_names": [
        "shoulder_pan_joint",
        "shoulder_lift_joint",
        "elbow_joint",
        "wrist_1_joint",
        "wrist_2_joint",
        "wrist_3_joint"
    ],
    "metrics": {
        "cart_traj_len": 3.817484557646243,
        "distance_elbow_joint": 4.211780858929496,
        "distance_shoulder_lift_joint": 1.263513676018057,
        "distance_shoulder_pan_joint": 2.8143804732677227,
        "distance_wrist_1_joint": 2.2772746612767834,
        "distance_wrist_2_joint": 0.8856677891602861,
        "distance_wrist_3_joint": 3.1242864067162586,
        "smoothness": 9.109522251991704e-16,
        "time": 0.120847541,
        "traj_len": 3.8179711713642632,
        "weighted_distance": 4.897797375273726
    },
    "planner": "LazyPRM",
    "start": {
        "state": {
            "elbow_joint": -2.384821988534728,
            "shoulder_lift_joint": -2.2788054721415256,
            "shoulder_pan_joint": -0.1854694642142757,
            "wrist_1_joint": 1.4845938289331202,
            "wrist_2_joint": 0.17898776772866878,
            "wrist_3_joint": 0.037105688729662994
        }
    },
    "waypoints": [
        {
            "positions": [
                -0.1854694642142757,
                -2.2788054721415256,
                -2.384821988534728,
                1.4845938289331202,
                0.17898776772866878,
                0.037105688729662994
            ]
        },
        {
            "positions": [
                -0.09124663471137394,
                -2.2637487929305746,
                -2.2300634430101405,
                1.4038166827797485,
                0.19439624633468516,
                0.01285928211755762
            ]
        },
        {
            "positions": [
                0.002976194791527831,
                -2.248692113719624,
                -2.0753048974855535,
                1.3230395366263767,
                0.20980472494070151,
                -0.011387124494547755
            ]
        },
        {
            "positions": [
                0.09719902429442959,
                -2.233635434508673,
                -1.920546351960966,
                1.242262390473005,
                0.2252132035467179,
                -0.03563353110665314
            ]
        },
        {
            "positions": [
                0.19142185379733137,
                -2.2185787552977225,
                -1.7657878064363788,
                1.1614852443196333,
                0.24062168215273427,
                -0.059879937718758505
            ]
        },
        {
            "positions": [
                0.28564468330023307,
                -2.2035220760867715,
                -1.6110292609117915,
                1.0807080981662613,
                0.2560301607587506,
                -0.08412634433086388
            ]
        },
        {
            "positions": [
                0.3798675128031349,
                -2.1884653968758205,
                -1.4562707153872043,
                0.9999309520128896,
                0.27143863936476703,
                -0.10837275094296928
            ]
        },
        {
            "positions": [
                0.47409034230603664,
                -2.17340871766487,
                -1.301512169862617,
                0.9191538058595179,
                0.2868471179707834,
                -0.13261915755507464
            ]
        },
        {
            "positions": [
                0.5683131718089385,
                -2.158352038453919,
                -1.1467536243380296,
                0.8383766597061462,
                0.3022555965767998,
                -0.15686556416718
            ]
        },
        {
            "positions": [
                0.6625360013118402,
                -2.143295359242968,
                -0.9919950788134424,
                0.7575995135527744,
                0.31766407518281614,
                -0.1811119707792854
            ]
        },
        {
            "positions": [
                0.7567588308147419,
                -2.1282386800320174,
                -0.8372365332888552,
                0.6768223673994027,
                0.3330725537888325,
                -0.20535837739139076
            ]
        },
        {
            "positions": [
                0.8509816603176438,
                -2.1131820008210664,
                -0.6824779877642677,
                0.5960452212460308,
                0.3484810323948489,
                -0.22960478400349618
            ]
        },
        {
            "positions": [
                0.9452044898205455,
                -2.098125321610116,
                -0.5277194422396807,
                0.5152680750926592,
                0.36388951100086525,
                -0.2538511906156016
            ]
        },
        {
            "positions": [
                1.0394273193234473,
                -2.083068642399165,
                -0.37296089671509325,
                0.4344909289392873,
                0.37929798960688166,
                -0.2780975972277069
            ]
        },
        {
            "positions": [
                1.1336501488263488,
                -2.068011963188214,
                -0.21820235119050624,
                0.3537137827859156,
                0.394706468212898,
                -0.3023440038398123
            ]
        },
        {
            "positions": [
                1.2278729783292508,
                -2.0529552839772633,
                -0.06344380566591878,
                0.27293663663254386,
                0.41011494681891436,
                -0.3265904104519177
            ]
        },
        {
            "positions": [
                1.3220958078321525,
                -2.0378986047663123,
                0.09131473985866867,
                0.19215949047917213,
                0.4255234254249307,
                -0.35083681706402303
            ]
        },
        {
            "positions": [
                1.4163186373350543,
                -2.022841925555362,
                0.24607328538325612,
                0.11138234432580019,
                0.4409319040309472,
                -0.37508322367612845
            ]
        },
        {
            "positions": [
                1.510541466837956,
                -2.007785246344411,
                0.40083183090784313,
                0.030605198172428683,
                0.4563403826369635,
                -0.39932963028823376
            ]
        },
        {
            "positions": [
                1.604764296340858,
                -1.9927285671334598,
                0.5555903764324306,
                -0.050171947980943266,
                0.4717488612429799,
                -0.4235760369003392
            ]
        },
        {
            "positions": [
                1.6989871258437594,
                -1.977671887922509,
                0.7103489219570176,
                -0.13094909413431477,
                0.48715733984899623,
                -0.4478224435124445
            ]
        },
        {
            "positions": [
                1.7932099553466614,
                -1.9626152087115583,
                0.865107467481605,
                -0.21172624028768683,
                0.5025658184550126,
                -0.47206885012454997
            ]
        },
        {
            "positions": [
                1.8423688408588252,
                -1.9068903020887296,
                0.9216869617706146,
                -0.24590003982039133,
                0.5356299207158327,
                -0.625898959998788
            ]
        },
        {
            "positions": [
                1.891527726370989,
                -1.8511653954659006,
                0.9782664560596241,
                -0.2800738393530958,
                0.5686940229766528,
                -0.7797290698730259
            ]
        },
        {
            "positions": [
                1.940686611883153,
                -1.795440488843072,
                1.0348459503486338,
                -0.3142476388858003,
                0.601758125237473,
                -0.933559179747264
            ]
        },
        {
            "positions": [
                1.9898454973953168,
                -1.739715582220243,
                1.0914254446376432,
                -0.3484214384185048,
                0.6348222274982931,
                -1.0873892896215018
            ]
        },
        {
            "positions": [
                2.0390043829074807,
                -1.683990675597414,
                1.1480049389266527,
                -0.3825952379512093,
                0.6678863297591132,
                -1.24121939949574
            ]
        },
        {
            "positions": [
                2.0881632684196445,
                -1.6282657689745854,
                1.2045844332156623,
                -0.41676903748391386,
                0.7009504320199333,
                -1.395049509369978
            ]
        },
        {
            "positions": [
                2.1373221539318084,
                -1.5725408623517567,
                1.2611639275046718,
                -0.4509428370166183,
                0.7340145342807535,
                -1.5488796192442158
            ]
        },
        {
            "positions": [
                2.186481039443972,
                -1.5168159557289278,
                1.3177434217936814,
                -0.48511663654932285,
                0.7670786365415736,
                -1.7027097291184539
            ]
        },
        {
            "positions": [
                2.235639924956136,
                -1.4610910491060989,
                1.3743229160826909,
                -0.5192904360820274,
                0.8001427388023938,
                -1.8565398389926917
            ]
        },
        {
            "positions": [
                2.2847988104683,
                -1.4053661424832702,
                1.4309024103717005,
                -0.5534642356147319,
                0.8332068410632139,
                -2.0103699488669298
            ]
        },
        {
            "positions": [
                2.3339576959804638,
                -1.3496412358604415,
                1.4874819046607102,
                -0.5876380351474364,
                0.8662709433240341,
                -2.1642000587411676
            ]
        },
        {
            "positions": [
                2.3831165814926276,
                -1.2939163292376126,
                1.5440613989497196,
                -0.6218118346801409,
                0.8993350455848542,
                -2.318030168615406
            ]
        },
        {
            "positions": [
                2.4322754670047915,
                -1.2381914226147839,
                1.600640893238729,
                -0.6559856342128454,
                0.9323991478456743,
                -2.4718602784896433
            ]
        },
        {
            "positions": [
                2.4814343525169553,
                -1.1824665159919552,
                1.6572203875277385,
                -0.6901594337455499,
                0.9654632501064944,
                -2.6256903883638816
            ]
        },
        {
            "positions": [
                2.530593238029119,
                -1.1267416093691263,
                1.7137998818167481,
                -0.7243332332782544,
                0.9985273523673146,
                -2.7795204982381194
            ]
        },
        {
            "positions": [
                2.579752123541283,
                -1.0710167027462973,
                1.7703793761057578,
                -0.7585070328109589,
                1.0315914546281348,
                -2.9333506081123577
            ]
        },
        {
            "positions": [
                2.628911009053447,
                -1.0152917961234686,
                1.8269588703947672,
                -0.7926808323436634,
                1.0646555568889549,
                -3.0871807179865955
            ]
        }
    ]
}