{
    "goal": {
        "global_pose": {
            "orientation": {
                "w": 0.005598929693374612,
                "x": 0.007748599140229565,
                "y": 0.7110244013736278,
                "z": -0.7031023480610252
            },
            "position": {
                "x": 0.1141497679147869,
                "y": -0.7141253447532654,
                "z": 0.3711530566215515
            }
        },
        "name": "move_to_auspresseinheit_B"
    },
    "id": "LazyPRMstar_move_to_auspresseinheit_B_146",
    "joint_names": [
        "shoulder_pan_joint",
        "shoulder_lift_joint",
        "elbow_joint",
        "wrist_1_joint",
        "wrist_2_joint",
        "wrist_3_joint"
    ],
    "metrics": {
        "cart_traj_len": 0.5653053819757209,
        "distance_elbow_joint": 0.06720366378722464,
        "distance_shoulder_lift_joint": 0.2926426770830255,
        "distance_shoulder_pan_joint": 0.5760031033978903,
        "distance_wrist_1_joint": 0.33992649180407397,
        "distance_wrist_2_joint": 1.00191866839831,
        "distance_wrist_3_joint": 0.009969866795852322,
        "smoothness": 2.5376526478085547e-16,
        "time": 5.000227112,
        "traj_len": 1.512502717771567,
        "weighted_distance": 1.910353204268903
    },
    "planner": "LazyPRMstar",
    "start": {
        "state": {
            "elbow_joint": 2.0193083361928714,
            "shoulder_lift_joint": -1.1220246554650708,
            "shoulder_pan_joint": -1.0952077554168747,
            "wrist_1_joint": -0.8559753972642168,
            "wrist_2_joint": 0.4759566250798843,
            "wrist_3_joint": -3.1240929996934557
        }
    },
    "waypoints": [
        {
            "positions": [
                -1.0952077554168747,
                -1.1220246554650708,
                2.0193083361928714,
                -0.8559753972642168,
                0.4759566250798843,
                -3.1240929996934557
            ]
        },
        {
            "positions": [
                -1.1912082726498563,
                -1.1707984349789085,
                2.0081077255616675,
                -0.7993209819635378,
                0.6429430698129359,
                -3.1257546441594313
            ]
        },
        {
            "positions": [
                -1.2872087898828382,
                -1.2195722144927459,
                1.9969071149304631,
                -0.7426665666628588,
                0.8099295145459875,
                -3.1274162886254064
            ]
        },
        {
            "positions": [
                -1.3832093071158198,
                -1.2683459940065835,
                1.9857065042992592,
                -0.6860121513621797,
                0.9769159592790393,
                -3.1290779330913816
            ]
        },
        {
            "positions": [
                -1.4792098243488014,
                -1.3171197735204212,
                1.974505893668055,
                -0.6293577360615008,
                1.1439024040120909,
                -3.130739577557357
            ]
        },
        {
            "positions": [
                -1.5752103415817833,
                -1.3658935530342586,
                1.963305283036851,
                -0.5727033207608219,
                1.3108888487451427,
                -3.132401222023333
            ]
        },
        {
            "positions": [
                -1.671210858814765,
                -1.4146673325480963,
                1.9521046724056468,
                -0.5160489054601428,
                1.4778752934781942,
                -3.134062866489308
            ]
        }
    ]
}