{
    "goal": {
        "global_pose": {
            "orientation": {
                "w": 0.005598929693374612,
                "x": 0.007748599140229565,
                "y": 0.7110244013736278,
                "z": -0.7031023480610252
            },
            "position": {
                "x": -0.8858502320852131,
                "y": -0.7141253447532654,
                "z": 0.3711530566215515
            }
        },
        "name": "move_to_auspresseinheit_C"
    },
    "id": "LazyPRM_move_to_auspresseinheit_C_120",
    "joint_names": [
        "shoulder_pan_joint",
        "shoulder_lift_joint",
        "elbow_joint",
        "wrist_1_joint",
        "wrist_2_joint",
        "wrist_3_joint"
    ],
    "metrics": {
        "cart_traj_len": 0.4936536372748965,
        "distance_elbow_joint": 0.9967149729453526,
        "distance_shoulder_lift_joint": 0.3235396513323372,
        "distance_shoulder_pan_joint": 0.2567002154206799,
        "distance_wrist_1_joint": 0.663650356876373,
        "distance_wrist_2_joint": 1.3123250098645782,
        "distance_wrist_3_joint": 0.051889649912157054,
        "smoothness": 6.459479427736914e-16,
        "time": 0.022037624,
        "traj_len": 1.8986363149248668,
        "weighted_distance": 2.384234577997044
    },
    "planner": "LazyPRM",
    "start": {
        "state": {
            "elbow_joint": 1.7527959577737207,
            "shoulder_lift_joint": -0.9740617694225068,
            "shoulder_pan_joint": -2.967991417825858,
            "wrist_1_joint": -0.759517768980727,
            "wrist_2_joint": 1.7443932448377408,
            "wrist_3_joint": -3.0840537646736568
        }
    },
    "waypoints": [
        {
            "positions": [
                -2.967991417825858,
                -0.9740617694225068,
                1.7527959577737207,
                -0.759517768980727,
                1.7443932448377408,
                -3.0840537646736568
            ]
        },
        {
            "positions": [
                -2.94232139628379,
                -0.941707804289273,
                1.6531244604791855,
                -0.6931527332930897,
                1.613160743851283,
                -3.0892427296648726
            ]
        },
        {
            "positions": [
                -2.916651374741722,
                -0.9093538391560393,
                1.55345296318465,
                -0.6267876976054524,
                1.481928242864825,
                -3.0944316946560884
            ]
        },
        {
            "positions": [
                -2.890981353199654,
                -0.8769998740228057,
                1.453781465890115,
                -0.5604226619178151,
                1.3506957418783674,
                -3.0996206596473037
            ]
        },
        {
            "positions": [
                -2.865311331657586,
                -0.8446459088895719,
                1.3541099685955795,
                -0.4940576262301778,
                1.2194632408919095,
                -3.1048096246385195
            ]
        },
        {
            "positions": [
                -2.839641310115518,
                -0.8122919437563382,
                1.2544384713010444,
                -0.4276925905425405,
                1.0882307399054518,
                -3.1099985896297353
            ]
        },
        {
            "positions": [
                -2.81397128857345,
                -0.7799379786231044,
                1.1547669740065092,
                -0.3613275548549032,
                0.9569982389189939,
                -3.115187554620951
            ]
        },
        {
            "positions": [
                -2.788301267031382,
                -0.7475840134898708,
                1.055095476711974,
                -0.29496251916726596,
                0.8257657379325362,
                -3.120376519612167
            ]
        },
        {
            "positions": [
                -2.762631245489314,
                -0.715230048356637,
                0.9554239794174385,
                -0.2285974834796286,
                0.6945332369460782,
                -3.1255654846033822
            ]
        },
        {
            "positions": [
                -2.736961223947246,
                -0.6828760832234033,
                0.8557524821229033,
                -0.1622324477919913,
                0.5633007359596205,
                -3.130754449594598
            ]
        },
        {
            "positions": [
                -2.711291202405178,
                -0.6505221180901696,
                0.756080984828368,
                -0.09586741210435396,
                0.43206823497316255,
                -3.135943414585814
            ]
        }
    ]
}