{
    "goal": {
        "global_pose": {
            "orientation": {
                "w": 0.5084816262002911,
                "x": -0.4908360881923452,
                "y": 0.5182115481033761,
                "z": -0.48164630358495003
            },
            "position": {
                "x": 0.5540239810943604,
                "y": -0.46912469901144505,
                "z": 0.16403168439865112
            }
        },
        "name": "move_to_storage_B"
    },
    "id": "LazyPRM_move_to_storage_B_97",
    "joint_names": [
        "shoulder_pan_joint",
        "shoulder_lift_joint",
        "elbow_joint",
        "wrist_1_joint",
        "wrist_2_joint",
        "wrist_3_joint"
    ],
    "metrics": {
        "cart_traj_len": 2.7207875366276055,
        "distance_elbow_joint": 0.35092905963543686,
        "distance_shoulder_lift_joint": 2.3421238181326514,
        "distance_shoulder_pan_joint": 2.2503356573685704,
        "distance_wrist_1_joint": 2.98085927962906,
        "distance_wrist_2_joint": 2.718775773057867,
        "distance_wrist_3_joint": 3.1331818150974806,
        "smoothness": 0.2335118555088641,
        "time": 2.149869611,
        "traj_len": 3.711631097364212,
        "weighted_distance": 5.073677570146033
    },
    "planner": "LazyPRM",
    "start": {
        "state": {
            "elbow_joint": 1.664937868594044,
            "shoulder_lift_joint": -0.661644460510453,
            "shoulder_pan_joint": -0.9139846352900073,
            "wrist_1_joint": 2.146753192139373,
            "wrist_2_joint": -2.2341966793290973,
            "wrist_3_joint": 0.005466555786416001
        }
    },
    "waypoints": [
        {
            "positions": [
                -0.9139846352900073,
                -0.661644460510453,
                1.664937868594044,
                2.146753192139373,
                -2.2341966793290973,
                0.005466555786416001
            ]
        },
        {
            "positions": [
                -0.8400362214340932,
                -0.7617181915713731,
                1.6782179585114747,
                2.0847776038647843,
                -2.162361262553882,
                0.05325135864745732
            ]
        },
        {
            "positions": [
                -0.7660878075781792,
                -0.8617919226322931,
                1.6914980484289055,
                2.0228020155901953,
                -2.0905258457786666,
                0.10103616150849865
            ]
        },
        {
            "positions": [
                -0.6921393937222651,
                -0.9618656536932131,
                1.7047781383463363,
                1.9608264273156064,
                -2.018690429003451,
                0.14882096436953995
            ]
        },
        {
            "positions": [
                -0.618190979866351,
                -1.0619393847541332,
                1.7180582282637669,
                1.8988508390410175,
                -1.9468550122282355,
                0.1966057672305813
            ]
        },
        {
            "positions": [
                -0.5442425660104369,
                -1.1620131158150533,
                1.7313383181811977,
                1.8368752507664283,
                -1.8750195954530202,
                0.24439057009162263
            ]
        },
        {
            "positions": [
                -0.47029415215452286,
                -1.2620868468759734,
                1.7446184080986284,
                1.7748996624918394,
                -1.803184178677805,
                0.29217537295266394
            ]
        },
        {
            "positions": [
                -0.39634573829860875,
                -1.3621605779368933,
                1.7578984980160592,
                1.7129240742172505,
                -1.7313487619025894,
                0.3399601758137053
            ]
        },
        {
            "positions": [
                -0.32239732444269475,
                -1.4622343089978134,
                1.77117858793349,
                1.6509484859426615,
                -1.6595133451273738,
                0.3877449786747466
            ]
        },
        {
            "positions": [
                -0.24844891058678054,
                -1.5623080400587335,
                1.7844586778509208,
                1.5889728976680724,
                -1.5876779283521585,
                0.435529781535788
            ]
        },
        {
            "positions": [
                -0.17450049673086654,
                -1.6623817711196536,
                1.7977387677683516,
                1.5269973093934834,
                -1.5158425115769432,
                0.4833145843968293
            ]
        },
        {
            "positions": [
                -0.10055208287495243,
                -1.7624555021805737,
                1.8110188576857822,
                1.4650217211188945,
                -1.4440070948017278,
                0.5310993872578705
            ]
        },
        {
            "positions": [
                -0.026603669019038434,
                -1.8625292332414936,
                1.824298947603213,
                1.4030461328443056,
                -1.3721716780265123,
                0.5788841901189118
            ]
        },
        {
            "positions": [
                0.047344744836875785,
                -1.9626029643024137,
                1.8375790375206438,
                1.3410705445697166,
                -1.3003362612512968,
                0.6266689929799533
            ]
        },
        {
            "positions": [
                0.12129315869278987,
                -2.0626766953633338,
                1.8508591274380746,
                1.2790949562951277,
                -1.2285008444760814,
                0.6744537958409945
            ]
        },
        {
            "positions": [
                0.06606325581161836,
                -2.019899805214253,
                1.8583594820195022,
                1.183040363395818,
                -1.1506335745576792,
                0.7864626401611264
            ]
        },
        {
            "positions": [
                0.010833352930446849,
                -1.9771229150651728,
                1.8658598366009296,
                1.0869857704965082,
                -1.0727663046392768,
                0.8984714844812584
            ]
        },
        {
            "positions": [
                -0.044396549950724645,
                -1.9343460249160924,
                1.8733601911823572,
                0.9909311775971985,
                -0.9948990347208746,
                1.0104803288013904
            ]
        },
        {
            "positions": [
                -0.09962645283189617,
                -1.8915691347670118,
                1.8808605457637848,
                0.8948765846978887,
                -0.9170317648024722,
                1.1224891731215223
            ]
        },
        {
            "positions": [
                -0.15485635571306763,
                -1.8487922446179315,
                1.8883609003452124,
                0.7988219917985789,
                -0.83916449488407,
                1.2344980174416542
            ]
        },
        {
            "positions": [
                -0.21008625859423916,
                -1.806015354468851,
                1.8958612549266398,
                0.7027673988992692,
                -0.7612972249656677,
                1.3465068617617861
            ]
        },
        {
            "positions": [
                -0.2653161614754107,
                -1.7632384643197705,
                1.9033616095080674,
                0.6067128059999595,
                -0.6834299550472653,
                1.458515706081918
            ]
        },
        {
            "positions": [
                -0.32054606435658217,
                -1.7204615741706901,
                1.910861964089495,
                0.5106582131006496,
                -0.605562685128863,
                1.57052455040205
            ]
        },
        {
            "positions": [
                -0.37577596723775375,
                -1.6776846840216095,
                1.9183623186709227,
                0.4146036202013399,
                -0.5276954152104606,
                1.6825333947221819
            ]
        },
        {
            "positions": [
                -0.4310058701189251,
                -1.6349077938725292,
                1.92586267325235,
                0.31854902730203016,
                -0.4498281452920584,
                1.7945422390423138
            ]
        },
        {
            "positions": [
                -0.4862357730000967,
                -1.5921309037234486,
                1.9333630278337777,
                0.22249443440272043,
                -0.3719608753736561,
                1.9065510833624457
            ]
        },
        {
            "positions": [
                -0.5414656758812681,
                -1.5493540135743684,
                1.9408633824152053,
                0.1264398415034107,
                -0.29409360545525387,
                2.0185599276825776
            ]
        },
        {
            "positions": [
                -0.5966955787624397,
                -1.5065771234252878,
                1.9483637369966327,
                0.030385248604100967,
                -0.21622633553685144,
                2.1305687720027096
            ]
        },
        {
            "positions": [
                -0.6519254816436112,
                -1.4638002332762072,
                1.9558640915780603,
                -0.06566934429520876,
                -0.13835906561844924,
                2.2425776163228415
            ]
        },
        {
            "positions": [
                -0.7071553845247827,
                -1.4210233431271269,
                1.963364446159488,
                -0.1617239371945185,
                -0.060491795700047035,
                2.354586460642973
            ]
        },
        {
            "positions": [
                -0.7623852874059542,
                -1.3782464529780465,
                1.9708648007409155,
                -0.25777853009382845,
                0.01737547421835539,
                2.4665953049631053
            ]
        },
        {
            "positions": [
                -0.8176151902871257,
                -1.335469562828966,
                1.978365155322343,
                -0.35383312299313796,
                0.09524274413675782,
                2.5786041492832372
            ]
        },
        {
            "positions": [
                -0.8728450931682973,
                -1.2926926726798853,
                1.9858655099037705,
                -0.4498877158924479,
                0.17311001405516024,
                2.690612993603369
            ]
        },
        {
            "positions": [
                -0.9280749960494687,
                -1.249915782530805,
                1.9933658644851981,
                -0.5459423087917576,
                0.25097728397356245,
                2.802621837923501
            ]
        },
        {
            "positions": [
                -0.9833048989306401,
                -1.2071388923817246,
                2.0008662190666255,
                -0.6419969016910674,
                0.32884455389196465,
                2.914630682243633
            ]
        },
        {
            "positions": [
                -1.038534801811812,
                -1.164362002232644,
                2.008366573648053,
                -0.7380514945903771,
                0.4067118238103671,
                3.026639526563765
            ]
        },
        {
            "positions": [
                -1.0937647046929833,
                -1.1215851120835636,
                2.0158669282294808,
                -0.8341060874896867,
                0.4845790937287692,
                3.138648370883897
            ]
        }
    ]
}