{
    "goal": {
        "global_pose": {
            "orientation": {
                "w": -0.4816463035849501,
                "x": 0.5182115481033762,
                "y": 0.4908360881923453,
                "z": -0.5084816262002911
            },
            "position": {
                "x": -0.8240239810943604,
                "y": 0.19912469901144506,
                "z": 0.16403168439865112
            }
        },
        "name": "move_to_storage_D"
    },
    "id": "LazyPRM_move_to_storage_D_33",
    "joint_names": [
        "shoulder_pan_joint",
        "shoulder_lift_joint",
        "elbow_joint",
        "wrist_1_joint",
        "wrist_2_joint",
        "wrist_3_joint"
    ],
    "metrics": {
        "cart_traj_len": 3.9167144582600435,
        "distance_elbow_joint": 4.215195410294765,
        "distance_shoulder_lift_joint": 1.2635904837410499,
        "distance_shoulder_pan_joint": 2.8138154595086866,
        "distance_wrist_1_joint": 2.463788636453641,
        "distance_wrist_2_joint": 0.931080201247333,
        "distance_wrist_3_joint": 3.126189237738607,
        "smoothness": 0.10791261443850653,
        "time": 0.140655375,
        "traj_len": 3.8488517026489975,
        "weighted_distance": 4.9457968763549385
    },
    "planner": "LazyPRM",
    "start": {
        "state": {
            "elbow_joint": -2.384821988534728,
            "shoulder_lift_joint": -2.2788054721415256,
            "shoulder_pan_joint": -0.1854694642142757,
            "wrist_1_joint": 1.4845938289331202,
            "wrist_2_joint": 0.17898776772866878,
            "wrist_3_joint": 0.037105688729662994
        }
    },
    "waypoints": [
        {
            "positions": [
                -0.1854694642142757,
                -2.2788054721415256,
                -2.384821988534728,
                1.4845938289331202,
                0.17898776772866878,
                0.037105688729662994
            ]
        },
        {
            "positions": [
                -0.06340941451295631,
                -2.2409624496930043,
                -2.380672262650402,
                1.5027503333194066,
                0.18589959786214078,
                0.02856803908189605
            ]
        },
        {
            "positions": [
                0.001955148840489321,
                -2.2178596285608942,
                -2.2642535020083328,
                1.432912773541602,
                0.21236914511832009,
                -0.057579728187594575
            ]
        },
        {
            "positions": [
                0.06731971219393496,
                -2.1947568074287847,
                -2.1478347413662635,
                1.3630752137637976,
                0.2388386923744994,
                -0.14372749545708519
            ]
        },
        {
            "positions": [
                0.1326842755473806,
                -2.1716539862966746,
                -2.031415980724194,
                1.293237653985993,
                0.26530823963067873,
                -0.22987526272657582
            ]
        },
        {
            "positions": [
                0.19804883890082622,
                -2.148551165164565,
                -1.9149972200821246,
                1.2234000942081886,
                0.29177778688685807,
                -0.31602302999606646
            ]
        },
        {
            "positions": [
                0.2634134022542719,
                -2.125448344032455,
                -1.7985784594400553,
                1.1535625344303841,
                0.3182473341430374,
                -0.4021707972655571
            ]
        },
        {
            "positions": [
                0.32877796560771755,
                -2.1023455229003454,
                -1.6821596987979859,
                1.0837249746525797,
                0.3447168813992167,
                -0.4883185645350477
            ]
        },
        {
            "positions": [
                0.3941425289611631,
                -2.0792427017682353,
                -1.5657409381559166,
                1.0138874148747754,
                0.371186428655396,
                -0.5744663318045382
            ]
        },
        {
            "positions": [
                0.45950709231460873,
                -2.0561398806361257,
                -1.4493221775138472,
                0.9440498550969708,
                0.3976559759115753,
                -0.6606140990740289
            ]
        },
        {
            "positions": [
                0.5248716556680544,
                -2.0330370595040157,
                -1.332903416871778,
                0.8742122953191663,
                0.42412552316775465,
                -0.7467618663435195
            ]
        },
        {
            "positions": [
                0.5902362190215,
                -2.009934238371906,
                -1.2164846562297085,
                0.8043747355413619,
                0.450595070423934,
                -0.8329096336130102
            ]
        },
        {
            "positions": [
                0.6556007823749457,
                -1.986831417239796,
                -1.1000658955876392,
                0.7345371757635574,
                0.47706461768011327,
                -0.9190574008825008
            ]
        },
        {
            "positions": [
                0.7209653457283913,
                -1.9637285961076862,
                -0.9836471349455698,
                0.6646996159857529,
                0.5035341649362925,
                -1.0052051681519913
            ]
        },
        {
            "positions": [
                0.7863299090818369,
                -1.9406257749755764,
                -0.8672283743035005,
                0.5948620562079485,
                0.5300037121924719,
                -1.091352935421482
            ]
        },
        {
            "positions": [
                0.8516944724352825,
                -1.9175229538434666,
                -0.7508096136614313,
                0.525024496430144,
                0.5564732594486512,
                -1.1775007026909725
            ]
        },
        {
            "positions": [
                0.9170590357887282,
                -1.8944201327113568,
                -0.6343908530193618,
                0.45518693665233956,
                0.5829428067048306,
                -1.263648469960463
            ]
        },
        {
            "positions": [
                0.9824235991421738,
                -1.871317311579247,
                -0.5179720923772926,
                0.3853493768745351,
                0.6094123539610099,
                -1.349796237229954
            ]
        },
        {
            "positions": [
                1.0477881624956196,
                -1.8482144904471371,
                -0.4015533317352231,
                0.3155118170967306,
                0.6358819012171892,
                -1.4359440044994445
            ]
        },
        {
            "positions": [
                1.1131527258490652,
                -1.8251116693150273,
                -0.2851345710931539,
                0.24567425731892611,
                0.6623514484733686,
                -1.522091771768935
            ]
        },
        {
            "positions": [
                1.1785172892025109,
                -1.8020088481829175,
                -0.1687158104510842,
                0.17583669754112163,
                0.6888209957295479,
                -1.6082395390384259
            ]
        },
        {
            "positions": [
                1.2438818525559565,
                -1.7789060270508077,
                -0.05229704980901495,
                0.10599913776331715,
                0.7152905429857273,
                -1.6943873063079165
            ]
        },
        {
            "positions": [
                1.3092464159094022,
                -1.7558032059186979,
                0.06412171083305429,
                0.03616157798551267,
                0.7417600902419066,
                -1.780535073577407
            ]
        },
        {
            "positions": [
                1.3746109792628478,
                -1.7327003847865878,
                0.18054047147512353,
                -0.03367598179229181,
                0.7682296374980857,
                -1.8666828408468976
            ]
        },
        {
            "positions": [
                1.4399755426162935,
                -1.7095975636544782,
                0.2969592321171932,
                -0.10351354157009629,
                0.794699184754265,
                -1.9528306081163884
            ]
        },
        {
            "positions": [
                1.505340105969739,
                -1.6864947425223682,
                0.41337799275926246,
                -0.17335110134790077,
                0.8211687320104444,
                -2.038978375385879
            ]
        },
        {
            "positions": [
                1.5707046693231848,
                -1.6633919213902586,
                0.5297967534013317,
                -0.24318866112570525,
                0.8476382792666237,
                -2.12512614265537
            ]
        },
        {
            "positions": [
                1.6360692326766302,
                -1.6402891002581486,
                0.6462155140434009,
                -0.3130262209035095,
                0.874107826522803,
                -2.21127390992486
            ]
        },
        {
            "positions": [
                1.7014337960300758,
                -1.617186279126039,
                0.7626342746854702,
                -0.382863780681314,
                0.9005773737789824,
                -2.2974216771943508
            ]
        },
        {
            "positions": [
                1.7667983593835215,
                -1.594083457993929,
                0.8790530353275394,
                -0.4527013404591185,
                0.9270469210351617,
                -2.3835694444638413
            ]
        },
        {
            "positions": [
                1.8321629227369671,
                -1.5709806368618193,
                0.9954717959696091,
                -0.5225389002369227,
                0.9535164682913411,
                -2.469717211733332
            ]
        },
        {
            "positions": [
                1.8975274860904128,
                -1.5478778157297093,
                1.1118905566116783,
                -0.5923764600147274,
                0.9799860155475202,
                -2.5558649790028225
            ]
        },
        {
            "positions": [
                1.9628920494438582,
                -1.5247749945975995,
                1.2283093172537476,
                -0.6622140197925317,
                1.0064555628036995,
                -2.6420127462723135
            ]
        },
        {
            "positions": [
                2.028256612797304,
                -1.5016721734654896,
                1.3447280778958168,
                -0.7320515795703364,
                1.0329251100598789,
                -2.728160513541804
            ]
        },
        {
            "positions": [
                2.0936211761507493,
                -1.4785693523333798,
                1.4611468385378865,
                -0.8018891393481407,
                1.0593946573160582,
                -2.8143082808112947
            ]
        },
        {
            "positions": [
                2.158985739504195,
                -1.45546653120127,
                1.577565599179956,
                -0.8717266991259451,
                1.0858642045722375,
                -2.9004560480807853
            ]
        },
        {
            "positions": [
                2.2763258034517495,
                -1.3454036455010714,
                1.640767554824976,
                -0.8539379242204443,
                1.0798132634712965,
                -2.9476129233128248
            ]
        },
        {
            "positions": [
                2.3936658673993034,
                -1.2353407598008728,
                1.7039695104699961,
                -0.8361491493149437,
                1.0737623223703554,
                -2.9947697985448647
            ]
        },
        {
            "positions": [
                2.5110059313468573,
                -1.1252778741006744,
                1.7671714661150162,
                -0.818360374409443,
                1.0677113812694143,
                -3.0419266737769046
            ]
        },
        {
            "positions": [
                2.6283459952944117,
                -1.0152149884004757,
                1.8303734217600363,
                -0.8005715995039422,
                1.0616604401684733,
                -3.089083549008944
            ]
        }
    ]
}