{
    "goal": {
        "global_pose": {
            "orientation": {
                "w": -0.00223480608172531,
                "x": 0.0024358444001904467,
                "y": 0.7094548369677653,
                "z": -0.704743149386269
            },
            "position": {
                "x": -0.37947507619857795,
                "y": -0.6371506643295288,
                "z": 0.19426114857196808
            }
        },
        "name": "move_to_magneteinheit_C"
    },
    "id": "LazyPRM_move_to_magneteinheit_C_133",
    "joint_names": [
        "shoulder_pan_joint",
        "shoulder_lift_joint",
        "elbow_joint",
        "wrist_1_joint",
        "wrist_2_joint",
        "wrist_3_joint"
    ],
    "metrics": {
        "cart_traj_len": 1.1513077328445578,
        "distance_elbow_joint": 1.1411841097302644,
        "distance_shoulder_lift_joint": 1.1881406549465514,
        "distance_shoulder_pan_joint": 1.898654005706805,
        "distance_wrist_1_joint": 1.4008669441855761,
        "distance_wrist_2_joint": 2.6971652163585214,
        "distance_wrist_3_joint": 1.5891732778873005,
        "smoothness": 1.2339004589991112,
        "time": 1.411917198,
        "traj_len": 3.1488385491820656,
        "weighted_distance": 4.146270966197664
    },
    "planner": "LazyPRM",
    "start": {
        "state": {
            "elbow_joint": 1.9565354010623817,
            "shoulder_lift_joint": -1.4165861575791021,
            "shoulder_pan_joint": -1.6717766225146293,
            "wrist_1_joint": -0.5286633292919765,
            "wrist_2_joint": 1.472756589071564,
            "wrist_3_joint": -3.1238370188695823
        }
    },
    "waypoints": [
        {
            "positions": [
                -1.6717766225146293,
                -1.4165861575791021,
                1.9565354010623817,
                -0.5286633292919765,
                1.472756589071564,
                -3.1238370188695823
            ]
        },
        {
            "positions": [
                -1.6875992942735805,
                -1.4946344628699877,
                2.0125629784657577,
                -0.5850461228025996,
                1.4124151574662742,
                -3.008535538265201
            ]
        },
        {
            "positions": [
                -1.7034219660325314,
                -1.5726827681608733,
                2.0685905558691338,
                -0.6414289163132229,
                1.3520737258609843,
                -2.8932340576608198
            ]
        },
        {
            "positions": [
                -1.7192446377914825,
                -1.6507310734517588,
                2.1246181332725103,
                -0.6978117098238461,
                1.2917322942556946,
                -2.7779325770564385
            ]
        },
        {
            "positions": [
                -1.7350673095504336,
                -1.7287793787426442,
                2.1806457106758863,
                -0.7541945033344692,
                1.2313908626504049,
                -2.662631096452057
            ]
        },
        {
            "positions": [
                -1.7508899813093846,
                -1.8068276840335298,
                2.2366732880792624,
                -0.8105772968450924,
                1.171049431045115,
                -2.547329615847676
            ]
        },
        {
            "positions": [
                -1.7667126530683357,
                -1.8848759893244154,
                2.2927008654826384,
                -0.8669600903557156,
                1.1107079994398252,
                -2.4320281352432946
            ]
        },
        {
            "positions": [
                -1.8713029457720038,
                -1.8569943135845581,
                2.314643672957673,
                -0.9104636474832437,
                0.9952816697518194,
                -2.499102094278109
            ]
        },
        {
            "positions": [
                -1.9758932384756722,
                -1.8291126378447011,
                2.3365864804327074,
                -0.9539672046107719,
                0.8798553400638136,
                -2.5661760533129234
            ]
        },
        {
            "positions": [
                -2.0804835311793406,
                -1.801230962104844,
                2.358529287907742,
                -0.9974707617383,
                0.7644290103758078,
                -2.6332500123477383
            ]
        },
        {
            "positions": [
                -2.1850738238830085,
                -1.773349286364987,
                2.380472095382777,
                -1.040974318865828,
                0.6490026806878021,
                -2.7003239713825526
            ]
        },
        {
            "positions": [
                -2.289664116586677,
                -1.7454676106251297,
                2.4024149028578115,
                -1.0844778759933562,
                0.5335763509997963,
                -2.767397930417367
            ]
        },
        {
            "positions": [
                -2.3942544092903453,
                -1.7175859348852724,
                2.424357710332846,
                -1.1279814331208842,
                0.41815002131179047,
                -2.834471889452182
            ]
        },
        {
            "positions": [
                -2.498844701994013,
                -1.6897042591454154,
                2.4463005178078805,
                -1.1714849902484124,
                0.30272369162378465,
                -2.9015458484869963
            ]
        },
        {
            "positions": [
                -2.6034349946976816,
                -1.6618225834055582,
                2.468243325282915,
                -1.2149885473759405,
                0.18729736193577895,
                -2.9686198075218106
            ]
        },
        {
            "positions": [
                -2.70802528740135,
                -1.6339409076657012,
                2.49018613275795,
                -1.2584921045034685,
                0.07187103224777314,
                -3.035693766556625
            ]
        },
        {
            "positions": [
                -2.8126155801050183,
                -1.606059231925844,
                2.5121289402329845,
                -1.3019956616309967,
                -0.043555297440232676,
                -3.1027677255914394
            ]
        },
        {
            "positions": [
                -2.9172058728086863,
                -1.578177556185987,
                2.534071747708019,
                -1.3454992187585246,
                -0.1589816271282385,
                -3.1698416846262543
            ]
        },
        {
            "positions": [
                -3.0217961655123546,
                -1.5502958804461298,
                2.5560145551830535,
                -1.3890027758860528,
                -0.2744079568162443,
                -3.2369156436610687
            ]
        },
        {
            "positions": [
                -2.95321685767372,
                -1.5021370411557606,
                2.4883014357318545,
                -1.3214368386871154,
                -0.1556578730074052,
                -3.2253560329306636
            ]
        },
        {
            "positions": [
                -2.8846375498350847,
                -1.4539782018653917,
                2.4205883162806554,
                -1.253870901488178,
                -0.036907789198566104,
                -3.213796422200259
            ]
        },
        {
            "positions": [
                -2.8160582419964495,
                -1.4058193625750226,
                2.3528751968294563,
                -1.1863049642892403,
                0.08184229461027298,
                -3.202236811469854
            ]
        },
        {
            "positions": [
                -2.7474789341578147,
                -1.3576605232846535,
                2.2851620773782573,
                -1.1187390270903028,
                0.2005923784191121,
                -3.190677200739449
            ]
        },
        {
            "positions": [
                -2.67889962631918,
                -1.3095016839942843,
                2.217448957927058,
                -1.0511730898913654,
                0.31934246222795115,
                -3.1791175900090445
            ]
        },
        {
            "positions": [
                -2.610320318480545,
                -1.2613428447039152,
                2.149735838475859,
                -0.9836071526924279,
                0.43809254603679026,
                -3.1675579792786395
            ]
        },
        {
            "positions": [
                -2.5417410106419096,
                -1.2131840054135463,
                2.08202271902466,
                -0.9160412154934905,
                0.5568426298456294,
                -3.155998368548235
            ]
        },
        {
            "positions": [
                -2.473161702803275,
                -1.1650251661231772,
                2.014309599573461,
                -0.8484752782945529,
                0.6755927136544685,
                -3.14443875781783
            ]
        }
    ]
}