{
    "goal": {
        "global_pose": {
            "orientation": {
                "w": 0.7031023502349854,
                "x": -0.7110244035720825,
                "y": 0.007748599164187908,
                "z": 0.005598929710686207
            },
            "position": {
                "x": 0.11585023208521307,
                "y": 0.44412534475326537,
                "z": 0.3711530566215515
            }
        },
        "name": "move_to_auspresseinheit_A"
    },
    "id": "LazyPRM_move_to_auspresseinheit_A_146",
    "joint_names": [
        "shoulder_pan_joint",
        "shoulder_lift_joint",
        "elbow_joint",
        "wrist_1_joint",
        "wrist_2_joint",
        "wrist_3_joint"
    ],
    "metrics": {
        "cart_traj_len": 0.6840640248339536,
        "distance_elbow_joint": 0.025954002307518653,
        "distance_shoulder_lift_joint": 0.5391615162151406,
        "distance_shoulder_pan_joint": 1.0431082364048372,
        "distance_wrist_1_joint": 0.5483960429192759,
        "distance_wrist_2_joint": 1.1274071708693956,
        "distance_wrist_3_joint": 0.1411943920372951,
        "smoothness": 0.7844416213239885,
        "time": 0.046823176,
        "traj_len": 1.8507353567578113,
        "weighted_distance": 2.3202183859750622
    },
    "planner": "LazyPRM",
    "start": {
        "state": {
            "elbow_joint": 2.4225746658250005,
            "shoulder_lift_joint": -1.3736534386056498,
            "shoulder_pan_joint": -0.3378633547517467,
            "wrist_1_joint": -1.0288598680537169,
            "wrist_2_joint": 1.233022673432363,
            "wrist_3_joint": -3.0940220416140027
        }
    },
    "waypoints": [
        {
            "positions": [
                -0.3378633547517467,
                -1.3736534386056498,
                2.4225746658250005,
                -1.0288598680537169,
                1.233022673432363,
                -3.0940220416140027
            ]
        },
        {
            "positions": [
                -0.23204577511150937,
                -1.4255984677251543,
                2.4200597059796447,
                -0.9663044160002127,
                1.0954058343680173,
                -3.0840550005009177
            ]
        },
        {
            "positions": [
                -0.12622819547127198,
                -1.4775434968446586,
                2.417544746134289,
                -0.9037489639467085,
                0.9577889953036716,
                -3.074087959387833
            ]
        },
        {
            "positions": [
                -0.020410615831034595,
                -1.529488525964163,
                2.415029786288933,
                -0.8411935118932041,
                0.8201721562393257,
                -3.0641209182747486
            ]
        },
        {
            "positions": [
                0.08540696380920276,
                -1.5814335550836676,
                2.4125148264435774,
                -0.7786380598396999,
                0.68255531717498,
                -3.0541538771616636
            ]
        },
        {
            "positions": [
                0.19122454344944023,
                -1.633378584203172,
                2.4099998665982216,
                -0.7160826077861956,
                0.5449384781106341,
                -3.0441868360485786
            ]
        },
        {
            "positions": [
                0.2970421230896775,
                -1.6853236133226763,
                2.407484906752866,
                -0.6535271557326914,
                0.4073216390462884,
                -3.034219794935494
            ]
        },
        {
            "positions": [
                0.3990928127305307,
                -1.7421964486972048,
                2.40476884594402,
                -0.6102613230831287,
                0.48274817316711865,
                -3.0545678312751905
            ]
        },
        {
            "positions": [
                0.5011435023713839,
                -1.7990692840717335,
                2.402052785135174,
                -0.5669954904335661,
                0.5581747072879489,
                -3.0749158676148873
            ]
        },
        {
            "positions": [
                0.6031941920122372,
                -1.855942119446262,
                2.3993367243263277,
                -0.5237296577840036,
                0.6336012414087793,
                -3.095263903954584
            ]
        },
        {
            "positions": [
                0.7052448816530904,
                -1.9128149548207904,
                2.396620663517482,
                -0.48046382513444097,
                0.7090277755296095,
                -3.1156119402942806
            ]
        }
    ]
}