{
    "goal": {
        "global_pose": {
            "orientation": {
                "w": 0.7047431493862688,
                "x": -0.7094548369677653,
                "y": 0.0024358444001904,
                "z": -0.0022348060817251984
            },
            "position": {
                "x": -0.39052492380142206,
                "y": 0.3671506643295288,
                "z": 0.19426114857196808
            }
        },
        "name": "move_to_magneteinheit_D"
    },
    "id": "LazyPRMstar_move_to_magneteinheit_D_13",
    "joint_names": [
        "shoulder_pan_joint",
        "shoulder_lift_joint",
        "elbow_joint",
        "wrist_1_joint",
        "wrist_2_joint",
        "wrist_3_joint"
    ],
    "metrics": {
        "cart_traj_len": 4.850017367294438,
        "distance_elbow_joint": 3.106681941587909,
        "distance_shoulder_lift_joint": 1.407895543466436,
        "distance_shoulder_pan_joint": 3.1272220732659806,
        "distance_wrist_1_joint": 2.1157117070171054,
        "distance_wrist_2_joint": 1.5616952747839175,
        "distance_wrist_3_joint": 6.303077535547349,
        "smoothness": 0.21555926509898646,
        "time": 5.042159185,
        "traj_len": 4.197890431594028,
        "weighted_distance": 5.822872669788034
    },
    "planner": "LazyPRMstar",
    "start": {
        "state": {
            "elbow_joint": 0.749534889911806,
            "shoulder_lift_joint": -0.6476975780787326,
            "shoulder_pan_joint": -2.711696901376241,
            "wrist_1_joint": -0.07506478083263063,
            "wrist_2_joint": 0.43296659715538205,
            "wrist_3_joint": -3.14703540197715
        }
    },
    "waypoints": [
        {
            "positions": [
                -2.711696901376241,
                -0.6476975780787326,
                0.749534889911806,
                -0.07506478083263063,
                0.43296659715538205,
                -3.14703540197715
            ]
        },
        {
            "positions": [
                -2.719836084786793,
                -0.7527374735707403,
                0.7166072690800129,
                -0.24608617280984443,
                0.4577769457759822,
                -3.1262220932869673
            ]
        },
        {
            "positions": [
                -2.7279752681973446,
                -0.8577773690627478,
                0.6836796482482199,
                -0.41710756478705824,
                0.48258729439658243,
                -3.1054087845967846
            ]
        },
        {
            "positions": [
                -2.7361144516078966,
                -0.9628172645547555,
                0.6507520274164269,
                -0.588128956764272,
                0.5073976430171826,
                -3.084595475906602
            ]
        },
        {
            "positions": [
                -2.657772863157615,
                -1.0082428638590517,
                0.6019266893844284,
                -0.6463722373396663,
                0.5239786707388873,
                -2.9382651027104245
            ]
        },
        {
            "positions": [
                -2.5794312747073334,
                -1.0536684631633482,
                0.55310135135243,
                -0.7046155179150606,
                0.5405596984605919,
                -2.7919347295142467
            ]
        },
        {
            "positions": [
                -2.501089686257052,
                -1.0990940624676444,
                0.5042760133204316,
                -0.7628587984904548,
                0.5571407261822966,
                -2.6456043563180693
            ]
        },
        {
            "positions": [
                -2.42274809780677,
                -1.1445196617719406,
                0.4554506752884331,
                -0.8211020790658491,
                0.5737217539040012,
                -2.4992739831218915
            ]
        },
        {
            "positions": [
                -2.3444065093564888,
                -1.1899452610762369,
                0.40662533725643457,
                -0.8793453596412434,
                0.5903027816257058,
                -2.352943609925714
            ]
        },
        {
            "positions": [
                -2.2660649209062074,
                -1.2353708603805331,
                0.35779999922443617,
                -0.9375886402166376,
                0.6068838093474105,
                -2.2066132367295364
            ]
        },
        {
            "positions": [
                -2.187723332455926,
                -1.2807964596848296,
                0.3089746611924377,
                -0.9958319207920319,
                0.6234648370691152,
                -2.060282863533359
            ]
        },
        {
            "positions": [
                -2.109381744005644,
                -1.3262220589891258,
                0.2601493231604392,
                -1.0540752013674262,
                0.6400458647908198,
                -1.9139524903371814
            ]
        },
        {
            "positions": [
                -2.0310401555553628,
                -1.371647658293422,
                0.21132398512844075,
                -1.1123184819428205,
                0.6566268925125245,
                -1.7676221171410038
            ]
        },
        {
            "positions": [
                -1.9526985671050812,
                -1.4170732575977185,
                0.1624986470964423,
                -1.1705617625182148,
                0.6732079202342292,
                -1.6212917439448262
            ]
        },
        {
            "positions": [
                -1.8743569786547996,
                -1.4624988569020148,
                0.11367330906444384,
                -1.228805043093609,
                0.6897889479559338,
                -1.4749613707486486
            ]
        },
        {
            "positions": [
                -1.7960153902045182,
                -1.507924456206311,
                0.06484797103244544,
                -1.2870483236690031,
                0.7063699756776384,
                -1.328630997552471
            ]
        },
        {
            "positions": [
                -1.7176738017542366,
                -1.5533500555106072,
                0.01602263300044693,
                -1.3452916042443976,
                0.722951003399343,
                -1.1823006243562935
            ]
        },
        {
            "positions": [
                -1.6393322133039552,
                -1.5987756548149035,
                -0.03280270503155147,
                -1.4035348848197917,
                0.7395320311210477,
                -1.035970251160116
            ]
        },
        {
            "positions": [
                -1.5609906248536736,
                -1.6442012541192,
                -0.08162804306354998,
                -1.4617781653951862,
                0.7561130588427524,
                -0.8896398779639383
            ]
        },
        {
            "positions": [
                -1.4826490364033917,
                -1.6896268534234962,
                -0.1304533810955485,
                -1.5200214459705803,
                0.7726940865644569,
                -0.7433095047677609
            ]
        },
        {
            "positions": [
                -1.4043074479531104,
                -1.7350524527277924,
                -0.1792787191275469,
                -1.5782647265459746,
                0.7892751142861616,
                -0.5969791315715831
            ]
        },
        {
            "positions": [
                -1.3259658595028287,
                -1.7804780520320889,
                -0.2281040571595454,
                -1.636508007121369,
                0.8058561420078663,
                -0.45064875837540574
            ]
        },
        {
            "positions": [
                -1.2476242710525474,
                -1.825903651336385,
                -0.2769293951915438,
                -1.6947512876967632,
                0.8224371697295709,
                -0.3043183851792284
            ]
        },
        {
            "positions": [
                -1.1692826826022658,
                -1.8713292506406813,
                -0.3257547332235423,
                -1.7529945682721575,
                0.8390181974512756,
                -0.15798801198305074
            ]
        },
        {
            "positions": [
                -1.1029695982818912,
                -1.8729443257957419,
                -0.41882454913776385,
                -1.7646005888421743,
                0.7820521789961115,
                0.006838019350658919
            ]
        },
        {
            "positions": [
                -1.0366565139615165,
                -1.8745594009508024,
                -0.5118943650519854,
                -1.7762066094121913,
                0.7250861605409472,
                0.17166405068436857
            ]
        },
        {
            "positions": [
                -0.970343429641142,
                -1.876174476105863,
                -0.604964180966207,
                -1.7878126299822081,
                0.6681201420857831,
                0.33649008201807823
            ]
        },
        {
            "positions": [
                -0.9040303453207673,
                -1.8777895512609237,
                -0.6980339968804283,
                -1.799418650552225,
                0.6111541236306189,
                0.5013161133517878
            ]
        },
        {
            "positions": [
                -0.8377172610003927,
                -1.8794046264159843,
                -0.7911038127946499,
                -1.811024671122242,
                0.5541881051754547,
                0.6661421446854976
            ]
        },
        {
            "positions": [
                -0.7714041766800181,
                -1.8810197015710448,
                -0.8841736287088715,
                -1.8226306916922588,
                0.4972220867202906,
                0.8309681760192071
            ]
        },
        {
            "positions": [
                -0.7050910923596435,
                -1.8826347767261054,
                -0.977243444623093,
                -1.8342367122622756,
                0.4402560682651264,
                0.9957942073529167
            ]
        },
        {
            "positions": [
                -0.6387780080392689,
                -1.884249851881166,
                -1.0703132605373145,
                -1.8458427328322924,
                0.38329004980996223,
                1.1606202386866264
            ]
        },
        {
            "positions": [
                -0.5724649237188943,
                -1.8858649270362264,
                -1.163383076451536,
                -1.8574487534023094,
                0.32632403135479804,
                1.325446270020336
            ]
        },
        {
            "positions": [
                -0.5061518393985197,
                -1.8874800021912872,
                -1.2564528923657576,
                -1.8690547739723262,
                0.2693580128996339,
                1.4902723013540458
            ]
        },
        {
            "positions": [
                -0.43983875507814507,
                -1.8890950773463477,
                -1.349522708279979,
                -1.8806607945423433,
                0.21239199444446966,
                1.6550983326877555
            ]
        },
        {
            "positions": [
                -0.37352567075777054,
                -1.8907101525014083,
                -1.4425925241942008,
                -1.89226681511236,
                0.15542597598930563,
                1.819924364021465
            ]
        },
        {
            "positions": [
                -0.3072125864373958,
                -1.8923252276564688,
                -1.5356623401084222,
                -1.9038728356823769,
                0.09845995753414138,
                1.984750395355175
            ]
        },
        {
            "positions": [
                -0.24089950211702127,
                -1.8939403028115294,
                -1.6287321560226435,
                -1.9154788562523937,
                0.04149393907897725,
                2.1495764266888844
            ]
        },
        {
            "positions": [
                -0.17458641779664663,
                -1.89555537796659,
                -1.7218019719368653,
                -1.9270848768224107,
                -0.015472079376186998,
                2.3144024580225944
            ]
        },
        {
            "positions": [
                -0.108273333476272,
                -1.8971704531216507,
                -1.8148717878510867,
                -1.9386908973924275,
                -0.07243809783135113,
                2.479228489356304
            ]
        },
        {
            "positions": [
                -0.04196024915589747,
                -1.8987855282767112,
                -1.9079416037653085,
                -1.9502969179624443,
                -0.12940411628651527,
                2.644054520690014
            ]
        },
        {
            "positions": [
                0.02435283516447706,
                -1.9004006034317718,
                -2.00101141967953,
                -1.9619029385324613,
                -0.18637013474167952,
                2.808880552023723
            ]
        },
        {
            "positions": [
                0.09066591948485192,
                -1.9020156785868323,
                -2.0940812355937513,
                -1.9735089591024781,
                -0.24333615319684365,
                2.973706583357433
            ]
        },
        {
            "positions": [
                -0.0013421311623399157,
                -1.8508231976007201,
                -2.181769840954535,
                -2.0459314686848975,
                -0.21890637858354184,
                3.034485100095022
            ]
        },
        {
            "positions": [
                -0.09335018180953175,
                -1.7996307166146082,
                -2.269458446315319,
                -2.118353978267317,
                -0.19447660397024003,
                3.0952636168326118
            ]
        },
        {
            "positions": [
                -0.18535823245672362,
                -1.748438235628496,
                -2.357147051676103,
                -2.190776487849736,
                -0.17004682935693818,
                3.156042133570201
            ]
        }
    ]
}