{
    "goal": {
        "global_pose": {
            "orientation": {
                "w": -0.00223480608172531,
                "x": 0.0024358444001904467,
                "y": 0.7094548369677653,
                "z": -0.704743149386269
            },
            "position": {
                "x": -0.37947507619857795,
                "y": -0.6371506643295288,
                "z": 0.19426114857196808
            }
        },
        "name": "move_to_magneteinheit_C"
    },
    "id": "LazyPRM_move_to_magneteinheit_C_96",
    "joint_names": [
        "shoulder_pan_joint",
        "shoulder_lift_joint",
        "elbow_joint",
        "wrist_1_joint",
        "wrist_2_joint",
        "wrist_3_joint"
    ],
    "metrics": {
        "cart_traj_len": 0.724057593822353,
        "distance_elbow_joint": 0.35907907470962996,
        "distance_shoulder_lift_joint": 0.31241411584049383,
        "distance_shoulder_pan_joint": 1.186498205419641,
        "distance_wrist_1_joint": 0.30468704728243357,
        "distance_wrist_2_joint": 1.4543854158316685,
        "distance_wrist_3_joint": 1.165041167472602,
        "smoothness": 1.4564958466381634,
        "time": 0.09367323200000001,
        "traj_len": 2.186802466286443,
        "weighted_distance": 2.9784660187109364
    },
    "planner": "LazyPRM",
    "start": {
        "state": {
            "elbow_joint": 1.9565354010623817,
            "shoulder_lift_joint": -1.4165861575791021,
            "shoulder_pan_joint": -1.6717766225146293,
            "wrist_1_joint": -0.5286633292919765,
            "wrist_2_joint": 1.472756589071564,
            "wrist_3_joint": -3.1238370188695823
        }
    },
    "waypoints": [
        {
            "positions": [
                -1.6717766225146293,
                -1.4165861575791021,
                1.9565354010623817,
                -0.5286633292919765,
                1.472756589071564,
                -3.1238370188695823
            ]
        },
        {
            "positions": [
                -1.7651241610153272,
                -1.4202199206459662,
                1.9822928334170484,
                -0.5494658436529877,
                1.3313133282347303,
                -3.052641634444145
            ]
        },
        {
            "positions": [
                -1.858471699516025,
                -1.4238536837128304,
                2.0080502657717147,
                -0.5702683580139989,
                1.1898700673978966,
                -2.981446250018708
            ]
        },
        {
            "positions": [
                -1.9518192380167227,
                -1.4274874467796945,
                2.0338076981263815,
                -0.5910708723750101,
                1.0484268065610631,
                -2.9102508655932704
            ]
        },
        {
            "positions": [
                -2.0451667765174206,
                -1.4311212098465587,
                2.0595651304810483,
                -0.6118733867360213,
                0.9069835457242295,
                -2.8390554811678332
            ]
        },
        {
            "positions": [
                -2.1385143150181185,
                -1.4347549729134228,
                2.085322562835715,
                -0.6326759010970325,
                0.7655402848873958,
                -2.767860096742396
            ]
        },
        {
            "positions": [
                -2.2318618535188164,
                -1.438388735980287,
                2.111079995190382,
                -0.6534784154580437,
                0.6240970240505622,
                -2.6966647123169585
            ]
        },
        {
            "positions": [
                -2.3252093920195143,
                -1.442022499047151,
                2.136837427545048,
                -0.674280929819055,
                0.48265376321372866,
                -2.6254693278915213
            ]
        },
        {
            "positions": [
                -2.418556930520212,
                -1.4456562621140152,
                2.162594859899715,
                -0.6950834441800662,
                0.341210502376895,
                -2.554273943466084
            ]
        },
        {
            "positions": [
                -2.501276518349403,
                -1.382477070732194,
                2.1500448195946715,
                -0.7122098600152114,
                0.4064379017384444,
                -2.6512019853496587
            ]
        },
        {
            "positions": [
                -2.583996106178594,
                -1.3192978793503727,
                2.1374947792896286,
                -0.7293362758503565,
                0.47166530109999383,
                -2.748130027233233
            ]
        },
        {
            "positions": [
                -2.6667156940077845,
                -1.2561186879685515,
                2.1249447389845852,
                -0.7464626916855017,
                0.5368927004615432,
                -2.8450580691168077
            ]
        },
        {
            "positions": [
                -2.6028626493656226,
                -1.2248498755818458,
                2.0864882406655294,
                -0.7754252533151378,
                0.5792784108123272,
                -2.9466227245896013
            ]
        },
        {
            "positions": [
                -2.5390096047234607,
                -1.1935810631951402,
                2.048031742346474,
                -0.804387814944774,
                0.6216641211631112,
                -3.0481873800623944
            ]
        },
        {
            "positions": [
                -2.475156560081299,
                -1.1623122508084345,
                2.009575244027418,
                -0.83335037657441,
                0.6640498315138952,
                -3.149752035535188
            ]
        }
    ]
}