{
    "goal": {
        "global_pose": {
            "orientation": {
                "w": 0.005598929693374612,
                "x": 0.007748599140229565,
                "y": 0.7110244013736278,
                "z": -0.7031023480610252
            },
            "position": {
                "x": -0.8858502320852131,
                "y": -0.7141253447532654,
                "z": 0.3711530566215515
            }
        },
        "name": "move_to_auspresseinheit_C"
    },
    "id": "LazyPRM_move_to_auspresseinheit_C_114",
    "joint_names": [
        "shoulder_pan_joint",
        "shoulder_lift_joint",
        "elbow_joint",
        "wrist_1_joint",
        "wrist_2_joint",
        "wrist_3_joint"
    ],
    "metrics": {
        "cart_traj_len": 0.49191566721517543,
        "distance_elbow_joint": 0.9869797333413951,
        "distance_shoulder_lift_joint": 0.31835969144317167,
        "distance_shoulder_pan_joint": 0.25614568828961026,
        "distance_wrist_1_joint": 0.6572908446151713,
        "distance_wrist_2_joint": 1.307471332086393,
        "distance_wrist_3_joint": 0.04697120341038863,
        "smoothness": 4.844609600361787e-16,
        "time": 0.012663523,
        "traj_len": 1.8902958745091019,
        "weighted_distance": 2.373167309042595
    },
    "planner": "LazyPRM",
    "start": {
        "state": {
            "elbow_joint": 1.7527959577737207,
            "shoulder_lift_joint": -0.9740617694225068,
            "shoulder_pan_joint": -2.967991417825858,
            "wrist_1_joint": -0.759517768980727,
            "wrist_2_joint": 1.7443932448377408,
            "wrist_3_joint": -3.0840537646736568
        }
    },
    "waypoints": [
        {
            "positions": [
                -2.967991417825858,
                -0.9740617694225068,
                1.7527959577737207,
                -0.759517768980727,
                1.7443932448377408,
                -3.0840537646736568
            ]
        },
        {
            "positions": [
                -2.942376848996897,
                -0.9422258002781896,
                1.6540979844395811,
                -0.6937886845192098,
                1.6136461116291014,
                -3.0887508850146954
            ]
        },
        {
            "positions": [
                -2.916762280167936,
                -0.9103898311338724,
                1.5554000111054416,
                -0.6280596000576927,
                1.4828989784204623,
                -3.0934480053557345
            ]
        },
        {
            "positions": [
                -2.891147711338975,
                -0.8785538619895553,
                1.456702037771302,
                -0.5623305155961756,
                1.3521518452118229,
                -3.0981451256967736
            ]
        },
        {
            "positions": [
                -2.8655331425100137,
                -0.8467178928452381,
                1.3580040644371625,
                -0.49660143113465843,
                1.2214047120031837,
                -3.1028422460378122
            ]
        },
        {
            "positions": [
                -2.839918573681053,
                -0.8148819237009209,
                1.2593060911030232,
                -0.43087234667314134,
                1.0906575787945443,
                -3.107539366378851
            ]
        },
        {
            "positions": [
                -2.814304004852092,
                -0.7830459545566038,
                1.1606081177688836,
                -0.36514326221162424,
                0.959910445585905,
                -3.11223648671989
            ]
        },
        {
            "positions": [
                -2.7886894360231307,
                -0.7512099854122867,
                1.061910144434744,
                -0.2994141777501071,
                0.8291633123772657,
                -3.116933607060929
            ]
        },
        {
            "positions": [
                -2.76307486719417,
                -0.7193740162679694,
                0.9632121711006045,
                -0.23368509328858988,
                0.6984161791686263,
                -3.1216307274019677
            ]
        },
        {
            "positions": [
                -2.7374602983652085,
                -0.6875380471236523,
                0.8645141977664651,
                -0.16795600882707284,
                0.5676690459599869,
                -3.1263278477430063
            ]
        },
        {
            "positions": [
                -2.7118457295362477,
                -0.6557020779793351,
                0.7658162244323256,
                -0.10222692436555564,
                0.43692191275134784,
                -3.1310249680840454
            ]
        }
    ]
}