{
    "goal": {
        "global_pose": {
            "orientation": {
                "w": 0.5084816217422485,
                "x": -0.49083608388900757,
                "y": 0.5182115435600281,
                "z": -0.4816462993621826
            },
            "position": {
                "x": 0.5540239810943604,
                "y": 0.030875300988554955,
                "z": 0.16403168439865112
            }
        },
        "name": "move_to_storage_A"
    },
    "id": "LazyPRM_move_to_storage_A_59",
    "joint_names": [
        "shoulder_pan_joint",
        "shoulder_lift_joint",
        "elbow_joint",
        "wrist_1_joint",
        "wrist_2_joint",
        "wrist_3_joint"
    ],
    "metrics": {
        "cart_traj_len": 0.3526882512471584,
        "distance_elbow_joint": 0.452028695840067,
        "distance_shoulder_lift_joint": 0.23260087299947618,
        "distance_shoulder_pan_joint": 0.46024551759595017,
        "distance_wrist_1_joint": 0.25999041519108157,
        "distance_wrist_2_joint": 1.1009136736315306,
        "distance_wrist_3_joint": 0.10865829323504927,
        "smoothness": 1.1102230298998083e-15,
        "time": 0.021932835999999997,
        "traj_len": 1.616922220916379,
        "weighted_distance": 2.0475981402086365
    },
    "planner": "LazyPRM",
    "start": {
        "state": {
            "elbow_joint": 1.971548259319323,
            "shoulder_lift_joint": -1.1394851275133948,
            "shoulder_pan_joint": 0.1228115487234821,
            "wrist_1_joint": -0.7804723859257726,
            "wrist_2_joint": 0.12958671773740124,
            "wrist_3_joint": -3.192489227718131
        }
    },
    "waypoints": [
        {
            "positions": [
                0.1228115487234821,
                -1.1394851275133948,
                1.971548259319323,
                -0.7804723859257726,
                0.12958671773740124,
                -3.192489227718131
            ]
        },
        {
            "positions": [
                0.05706218906691779,
                -1.1727138236561772,
                2.0361237872964755,
                -0.8176138738102129,
                0.2868600996847628,
                -3.176966614398838
            ]
        },
        {
            "positions": [
                -0.00868717058964652,
                -1.2059425197989595,
                2.1006993152736277,
                -0.854755361694653,
                0.4441334816321243,
                -3.1614440010795457
            ]
        },
        {
            "positions": [
                -0.07443653024621083,
                -1.2391712159417418,
                2.1652748432507805,
                -0.8918968495790933,
                0.6014068635794858,
                -3.1459213877602528
            ]
        },
        {
            "positions": [
                -0.14018588990277514,
                -1.272399912084524,
                2.2298503712279327,
                -0.9290383374635335,
                0.7586802455268473,
                -3.1303987744409603
            ]
        },
        {
            "positions": [
                -0.20593524955933945,
                -1.3056286082273063,
                2.294425899205085,
                -0.9661798253479738,
                0.9159536274742088,
                -3.1148761611216673
            ]
        },
        {
            "positions": [
                -0.27168460921590376,
                -1.3388573043700887,
                2.3590014271822377,
                -1.003321313232414,
                1.0732270094215703,
                -3.099353547802375
            ]
        },
        {
            "positions": [
                -0.33743396887246807,
                -1.372086000512871,
                2.42357695515939,
                -1.0404628011168542,
                1.2305003913689319,
                -3.083830934483082
            ]
        }
    ]
}{
    "goal": {
        "global_pose": {
            "orientation": {
                "w": 0.5084816217422485,
                "x": -0.49083608388900757,
                "y": 0.5182115435600281,
                "z": -0.4816462993621826
            },
            "position": {
                "x": 0.5540239810943604,
                "y": 0.030875300988554955,
                "z": 0.16403168439865112
            }
        },
        "name": "move_to_storage_A"
    },
    "id": "LazyPRM_move_to_storage_A_59",
    "joint_names": [
        "shoulder_pan_joint",
        "shoulder_lift_joint",
        "elbow_joint",
        "wrist_1_joint",
        "wrist_2_joint",
        "wrist_3_joint"
    ],
    "metrics": {
        "cart_traj_len": 0.35342915665459773,
        "distance_elbow_joint": 0.45301008792556363,
        "distance_shoulder_lift_joint": 0.23437190852259615,
        "distance_shoulder_pan_joint": 0.4591693995694258,
        "distance_wrist_1_joint": 0.25228133935046415,
        "distance_wrist_2_joint": 1.112994124834274,
        "distance_wrist_3_joint": 0.10884578736475525,
        "smoothness": 8.881784197001252e-16,
        "time": 0.022022292000000002,
        "traj_len": 1.6188491738167206,
        "weighted_distance": 2.0502779534690725
    },
    "planner": "LazyPRM",
    "start": {
        "state": {
            "elbow_joint": 1.97154746011099,
            "shoulder_lift_joint": -1.13948474672311,
            "shoulder_pan_joint": 0.12281154466712228,
            "wrist_1_joint": -0.7804688027058302,
            "wrist_2_joint": 0.12958655903071145,
            "wrist_3_joint": 3.0906928834467795
        }
    },
    "waypoints": [
        {
            "positions": [
                0.12281154466712228,
                -1.13948474672311,
                1.97154746011099,
                -0.7804688027058302,
                0.12958655903071145,
                3.0906928834467795
            ]
        },
        {
            "positions": [
                0.05721591615720431,
                -1.1729664479406237,
                2.036263186957499,
                -0.8165089940416108,
                0.288585719721322,
                3.1062422816417445
            ]
        },
        {
            "positions": [
                -0.008379712352713661,
                -1.2064481491581374,
                2.100978913804008,
                -0.8525491853773913,
                0.44758488041193256,
                3.1217916798367096
            ]
        },
        {
            "positions": [
                -0.07397534086263162,
                -1.239929850375651,
                2.1656946406505173,
                -0.888589376713172,
                0.6065840411025432,
                3.1373410780316746
            ]
        },
        {
            "positions": [
                -0.1395709693725496,
                -1.2734115515931648,
                2.230410367497026,
                -0.9246295680489526,
                0.7655832017931538,
                3.1528904762266396
            ]
        },
        {
            "positions": [
                -0.2051665978824676,
                -1.3068932528106787,
                2.2951260943435354,
                -0.9606697593847331,
                0.9245823624837644,
                3.1684398744216047
            ]
        },
        {
            "positions": [
                -0.2707622263923855,
                -1.3403749540281924,
                2.3598418211900443,
                -0.9967099507205137,
                1.0835815231743748,
                3.1839892726165697
            ]
        },
        {
            "positions": [
                -0.3363578549023035,
                -1.373856655245706,
                2.4245575480365535,
                -1.0327501420562943,
                1.2425806838649855,
                3.1995386708115348
            ]
        }
    ]
}{
    "goal": {
        "global_pose": {
            "orientation": {
                "w": 0.5084816217422485,
                "x": -0.49083608388900757,
                "y": 0.5182115435600281,
                "z": -0.4816462993621826
            },
            "position": {
                "x": 0.5540239810943604,
                "y": 0.030875300988554955,
                "z": 0.16403168439865112
            }
        },
        "name": "move_to_storage_A"
    },
    "id": "LazyPRM_move_to_storage_A_59",
    "joint_names": [
        "shoulder_pan_joint",
        "shoulder_lift_joint",
        "elbow_joint",
        "wrist_1_joint",
        "wrist_2_joint",
        "wrist_3_joint"
    ],
    "metrics": {
        "cart_traj_len": 0.3525583338724667,
        "distance_elbow_joint": 0.45209143215466163,
        "distance_shoulder_lift_joint": 0.2332313571332667,
        "distance_shoulder_pan_joint": 0.46189612428806254,
        "distance_wrist_1_joint": 0.2529222936845441,
        "distance_wrist_2_joint": 1.0937520593438834,
        "distance_wrist_3_joint": 0.1032493659123368,
        "smoothness": 6.661338165333112e-16,
        "time": 0.022161465,
        "traj_len": 1.6115652740477984,
        "weighted_distance": 2.037232367053365
    },
    "planner": "LazyPRM",
    "start": {
        "state": {
            "elbow_joint": 1.9715472970024885,
            "shoulder_lift_joint": -1.1394870060712896,
            "shoulder_pan_joint": 0.12281152778156021,
            "wrist_1_joint": -0.780463741449964,
            "wrist_2_joint": 0.12958659822042276,
            "wrist_3_joint": 3.090690232415272
        }
    },
    "waypoints": [
        {
            "positions": [
                0.12281152778156021,
                -1.1394870060712896,
                1.9715472970024885,
                -0.780463741449964,
                0.12958659822042276,
                3.090690232415272
            ]
        },
        {
            "positions": [
                0.05682636716897986,
                -1.172805771376042,
                2.0361317873102975,
                -0.8165954976906131,
                0.28583689241240606,
                3.1054401418313198
            ]
        },
        {
            "positions": [
                -0.009158793443600488,
                -1.2061245366807944,
                2.100716277618106,
                -0.8527272539312623,
                0.4420871866043894,
                3.120190051247368
            ]
        },
        {
            "positions": [
                -0.07514395405618085,
                -1.2394433019855469,
                2.165300767925915,
                -0.8888590101719115,
                0.5983374807963727,
                3.134939960663416
            ]
        },
        {
            "positions": [
                -0.14112911466876119,
                -1.272762067290299,
                2.2298852582337236,
                -0.9249907664125606,
                0.754587774988356,
                3.1496898700794644
            ]
        },
        {
            "positions": [
                -0.20711427528134155,
                -1.3060808325950515,
                2.2944697485415326,
                -0.9611225226532099,
                0.9108380691803395,
                3.1644397794955124
            ]
        },
        {
            "positions": [
                -0.27309943589392194,
                -1.339399597899804,
                2.359054238849341,
                -0.997254278893859,
                1.0670883633723227,
                3.1791896889115607
            ]
        },
        {
            "positions": [
                -0.3390845965065023,
                -1.3727183632045563,
                2.42363872915715,
                -1.033386035134508,
                1.2233386575643062,
                3.1939395983276087
            ]
        }
    ]
}