{
    "goal": {
        "global_pose": {
            "orientation": {
                "w": 0.5084816262002911,
                "x": -0.4908360881923452,
                "y": 0.5182115481033761,
                "z": -0.48164630358495003
            },
            "position": {
                "x": 0.5540239810943604,
                "y": -0.46912469901144505,
                "z": 0.16403168439865112
            }
        },
        "name": "move_to_storage_B"
    },
    "id": "LazyPRM_move_to_storage_B_1",
    "joint_names": [
        "shoulder_pan_joint",
        "shoulder_lift_joint",
        "elbow_joint",
        "wrist_1_joint",
        "wrist_2_joint",
        "wrist_3_joint"
    ],
    "metrics": {
        "cart_traj_len": 0.8113846762571004,
        "distance_elbow_joint": 0.3587682220966366,
        "distance_shoulder_lift_joint": 0.4606355589726545,
        "distance_shoulder_pan_joint": 0.39448418760163084,
        "distance_wrist_1_joint": 3.023917273253372,
        "distance_wrist_2_joint": 2.7017668012988407,
        "distance_wrist_3_joint": 3.115078104580089,
        "smoothness": 0.043003599114673614,
        "time": 0.10832720600000001,
        "traj_len": 3.1709068336681265,
        "weighted_distance": 4.691533910302217
    },
    "planner": "LazyPRM",
    "start": {
        "state": {
            "elbow_joint": 1.664937868594044,
            "shoulder_lift_joint": -0.661644460510453,
            "shoulder_pan_joint": -0.9139846352900073,
            "wrist_1_joint": 2.146753192139373,
            "wrist_2_joint": -2.2341966793290973,
            "wrist_3_joint": 0.005466555786416001
        }
    },
    "waypoints": [
        {
            "positions": [
                -0.9139846352900073,
                -0.661644460510453,
                1.664937868594044,
                2.146753192139373,
                -2.2341966793290973,
                0.005466555786416001
            ]
        },
        {
            "positions": [
                -0.8874249976320674,
                -0.7359151932815082,
                1.7183114666173336,
                2.1414019730187217,
                -2.184107743607507,
                -0.12053125818364885
            ]
        },
        {
            "positions": [
                -0.8608653599741275,
                -0.8101859260525636,
                1.7716850646406233,
                2.13605075389807,
                -2.1340188078859166,
                -0.2465290721537137
            ]
        },
        {
            "positions": [
                -0.8343057223161876,
                -0.8844566588236189,
                1.825058662663913,
                2.1306995347774182,
                -2.0839298721643265,
                -0.37252688612377854
            ]
        },
        {
            "positions": [
                -0.8077460846582477,
                -0.9587273915946741,
                1.8784322606872026,
                2.1253483156567667,
                -2.0338409364427363,
                -0.49852470009384336
            ]
        },
        {
            "positions": [
                -0.8208481590659691,
                -0.9661616019532393,
                1.8850356165964517,
                1.9888704794399137,
                -1.9201404337876236,
                -0.6172104659438357
            ]
        },
        {
            "positions": [
                -0.8339502334736906,
                -0.9735958123118045,
                1.8916389725057006,
                1.8523926432230609,
                -1.8064399311325108,
                -0.7358962317938279
            ]
        },
        {
            "positions": [
                -0.847052307881412,
                -0.9810300226703695,
                1.8982423284149497,
                1.7159148070062078,
                -1.6927394284773982,
                -0.8545819976438201
            ]
        },
        {
            "positions": [
                -0.8601543822891334,
                -0.9884642330289347,
                1.9048456843241985,
                1.579436970789355,
                -1.5790389258222854,
                -0.9732677634938125
            ]
        },
        {
            "positions": [
                -0.8732564566968548,
                -0.9958984433874999,
                1.9114490402334476,
                1.442959134572502,
                -1.4653384231671727,
                -1.0919535293438047
            ]
        },
        {
            "positions": [
                -0.8863585311045762,
                -1.003332653746065,
                1.9180523961426965,
                1.3064812983556489,
                -1.35163792051206,
                -1.210639295193797
            ]
        },
        {
            "positions": [
                -0.8994606055122977,
                -1.0107668641046301,
                1.9246557520519456,
                1.170003462138796,
                -1.2379374178569473,
                -1.3293250610437892
            ]
        },
        {
            "positions": [
                -0.912562679920019,
                -1.0182010744631953,
                1.9312591079611945,
                1.033525625921943,
                -1.1242369152018346,
                -1.4480108268937815
            ]
        },
        {
            "positions": [
                -0.9256647543277405,
                -1.0256352848217605,
                1.9378624638704436,
                0.8970477897050899,
                -1.0105364125467216,
                -1.5666965927437737
            ]
        },
        {
            "positions": [
                -0.9387668287354619,
                -1.0330694951803256,
                1.9444658197796925,
                0.7605699534882371,
                -0.896835909891609,
                -1.685382358593766
            ]
        },
        {
            "positions": [
                -0.9518689031431833,
                -1.0405037055388908,
                1.9510691756889416,
                0.624092117271384,
                -0.7831354072364962,
                -1.8040681244437582
            ]
        },
        {
            "positions": [
                -0.9649709775509048,
                -1.047937915897456,
                1.9576725315981904,
                0.4876142810545312,
                -0.6694349045813837,
                -1.9227538902937504
            ]
        },
        {
            "positions": [
                -0.9780730519586263,
                -1.0553721262560212,
                1.9642758875074395,
                0.3511364448376779,
                -0.5557344019262707,
                -2.041439656143743
            ]
        },
        {
            "positions": [
                -0.9911751263663476,
                -1.0628063366145863,
                1.9708792434166886,
                0.2146586086208251,
                -0.4420338992711581,
                -2.160125421993735
            ]
        },
        {
            "positions": [
                -1.004277200774069,
                -1.0702405469731515,
                1.9774825993259375,
                0.07818077240397248,
                -0.3283333966160453,
                -2.2788111878437274
            ]
        },
        {
            "positions": [
                -1.0173792751817905,
                -1.0776747573317167,
                1.9840859552351866,
                -0.0582970638128808,
                -0.21463289396093255,
                -2.39749695369372
            ]
        },
        {
            "positions": [
                -1.030481349589512,
                -1.0851089676902816,
                1.9906893111444355,
                -0.19477490002973363,
                -0.10093239130581977,
                -2.516182719543712
            ]
        },
        {
            "positions": [
                -1.0435834239972333,
                -1.0925431780488468,
                1.9972926670536846,
                -0.3312527362465869,
                0.012768111349293232,
                -2.6348684853937043
            ]
        },
        {
            "positions": [
                -1.0566854984049547,
                -1.099977388407412,
                2.0038960229629335,
                -0.46773057246343974,
                0.12646861400440557,
                -2.7535542512436963
            ]
        },
        {
            "positions": [
                -1.0697875728126762,
                -1.1074115987659772,
                2.0104993788721823,
                -0.6042084086802926,
                0.24016911665951834,
                -2.872240017093689
            ]
        },
        {
            "positions": [
                -1.0828896472203975,
                -1.1148458091245423,
                2.0171027347814316,
                -0.7406862448971459,
                0.3538696193146311,
                -2.9909257829436813
            ]
        },
        {
            "positions": [
                -1.095991721628119,
                -1.1222800194831075,
                2.0237060906906805,
                -0.8771640811139986,
                0.4675701219697437,
                -3.1096115487936733
            ]
        }
    ]
}