{
    "goal": {
        "global_pose": {
            "orientation": {
                "w": 0.7031023502349854,
                "x": -0.7110244035720825,
                "y": 0.007748599164187908,
                "z": 0.005598929710686207
            },
            "position": {
                "x": 0.11585023208521307,
                "y": 0.44412534475326537,
                "z": 0.3711530566215515
            }
        },
        "name": "move_to_auspresseinheit_A"
    },
    "id": "LazyPRMstar_move_to_auspresseinheit_A_30",
    "joint_names": [
        "shoulder_pan_joint",
        "shoulder_lift_joint",
        "elbow_joint",
        "wrist_1_joint",
        "wrist_2_joint",
        "wrist_3_joint"
    ],
    "metrics": {
        "cart_traj_len": 0.6532285261343546,
        "distance_elbow_joint": 0.3233746869439029,
        "distance_shoulder_lift_joint": 0.7647564867399228,
        "distance_shoulder_pan_joint": 1.0444874293611823,
        "distance_wrist_1_joint": 0.9756269986955051,
        "distance_wrist_2_joint": 0.7659177913596468,
        "distance_wrist_3_joint": 0.37898756601497174,
        "smoothness": 1.067417655887899,
        "time": 5.007742961,
        "traj_len": 2.062316891051211,
        "weighted_distance": 2.59859017184323
    },
    "planner": "LazyPRMstar",
    "start": {
        "state": {
            "elbow_joint": 2.4225746658250005,
            "shoulder_lift_joint": -1.3736534386056498,
            "shoulder_pan_joint": -0.3378633547517467,
            "wrist_1_joint": -1.0288598680537169,
            "wrist_2_joint": 1.233022673432363,
            "wrist_3_joint": -3.0940220416140027
        }
    },
    "waypoints": [
        {
            "positions": [
                -0.3378633547517467,
                -1.3736534386056498,
                2.4225746658250005,
                -1.0288598680537169,
                1.233022673432363,
                -3.0940220416140027
            ]
        },
        {
            "positions": [
                -0.30603869878424406,
                -1.4665394576579118,
                2.4437345006894557,
                -0.9198200979228016,
                1.1410699486901847,
                -3.123164221484631
            ]
        },
        {
            "positions": [
                -0.27421404281674133,
                -1.5594254767101738,
                2.4648943355539106,
                -0.8107803277918864,
                1.0491172239480067,
                -3.15230640135526
            ]
        },
        {
            "positions": [
                -0.24238938684923864,
                -1.6523114957624359,
                2.486054170418366,
                -0.701740557660971,
                0.9571644992058284,
                -3.1814485812258884
            ]
        },
        {
            "positions": [
                -0.21056473088173594,
                -1.745197514814698,
                2.507214005282821,
                -0.5927007875300558,
                0.8652117744636503,
                -3.2105907610965168
            ]
        },
        {
            "positions": [
                -0.17874007491423322,
                -1.83808353386696,
                2.5283738401472764,
                -0.48366101739914047,
                0.773259049721472,
                -3.239732940967145
            ]
        },
        {
            "positions": [
                -0.14691541894673055,
                -1.9309695529192221,
                2.5495336750117312,
                -0.3746212472682252,
                0.6813063249792938,
                -3.268875120837774
            ]
        },
        {
            "positions": [
                -0.11509076297922782,
                -2.023855571971484,
                2.5706935098761865,
                -0.26558147713730995,
                0.5893536002371156,
                -3.2980173007084024
            ]
        },
        {
            "positions": [
                0.0492522045385049,
                -2.0009447012966666,
                2.535642341297643,
                -0.3080511986931295,
                0.6138033438699955,
                -3.263018839324288
            ]
        },
        {
            "positions": [
                0.21359517205623763,
                -1.9780338306218488,
                2.5005911727191,
                -0.3505209202489491,
                0.6382530875028753,
                -3.2280203779401737
            ]
        },
        {
            "positions": [
                0.3779381395739703,
                -1.955122959947031,
                2.465540004140556,
                -0.3929906418047687,
                0.6627028311357551,
                -3.193021916556059
            ]
        },
        {
            "positions": [
                0.5422811070917031,
                -1.9322120892722134,
                2.430488835562013,
                -0.4354603633605883,
                0.687152574768635,
                -3.1580234551719446
            ]
        },
        {
            "positions": [
                0.7066240746094358,
                -1.9093012185973957,
                2.3954376669834696,
                -0.47793008491640787,
                0.7116023184015149,
                -3.1230249937878303
            ]
        }
    ]
}