{
    "goal": {
        "global_pose": {
            "orientation": {
                "w": 0.005598929693374612,
                "x": 0.007748599140229565,
                "y": 0.7110244013736278,
                "z": -0.7031023480610252
            },
            "position": {
                "x": 0.1141497679147869,
                "y": -0.7141253447532654,
                "z": 0.3711530566215515
            }
        },
        "name": "move_to_auspresseinheit_B"
    },
    "id": "LazyPRMstar_move_to_auspresseinheit_B_11",
    "joint_names": [
        "shoulder_pan_joint",
        "shoulder_lift_joint",
        "elbow_joint",
        "wrist_1_joint",
        "wrist_2_joint",
        "wrist_3_joint"
    ],
    "metrics": {
        "cart_traj_len": 0.5648695368983658,
        "distance_elbow_joint": 0.0663648139130919,
        "distance_shoulder_lift_joint": 0.293018540249796,
        "distance_shoulder_pan_joint": 0.5778418334554396,
        "distance_wrist_1_joint": 0.33629255925038715,
        "distance_wrist_2_joint": 0.9869754031891824,
        "distance_wrist_3_joint": 0.004856415229797406,
        "smoothness": 5.075305255429287e-16,
        "time": 5.000961005,
        "traj_len": 1.5051078251366892,
        "weighted_distance": 1.8969265558230923
    },
    "planner": "LazyPRMstar",
    "start": {
        "state": {
            "elbow_joint": 2.0193083361928714,
            "shoulder_lift_joint": -1.1220246554650708,
            "shoulder_pan_joint": -1.0952077554168747,
            "wrist_1_joint": -0.8559753972642168,
            "wrist_2_joint": 0.4759566250798843,
            "wrist_3_joint": -3.1240929996934557
        }
    },
    "waypoints": [
        {
            "positions": [
                -1.0952077554168747,
                -1.1220246554650708,
                2.0193083361928714,
                -0.8559753972642168,
                0.4759566250798843,
                -3.1240929996934557
            ]
        },
        {
            "positions": [
                -1.191514727659448,
                -1.1708610788400369,
                2.0082475338740227,
                -0.7999266373891523,
                0.6404525256114146,
                -3.1232835971551562
            ]
        },
        {
            "positions": [
                -1.2878216999020211,
                -1.2196975022150027,
                1.9971867315551741,
                -0.7438778775140877,
                0.8049484261429452,
                -3.1224741946168564
            ]
        },
        {
            "positions": [
                -1.3841286721445945,
                -1.2685339255899688,
                1.9861259292363256,
                -0.6878291176390232,
                0.9694443266744754,
                -3.121664792078557
            ]
        },
        {
            "positions": [
                -1.4804356443871676,
                -1.3173703489649349,
                1.9750651269174768,
                -0.6317803577639587,
                1.133940227206006,
                -3.1208553895402575
            ]
        },
        {
            "positions": [
                -1.576742616629741,
                -1.3662067723399007,
                1.964004324598628,
                -0.5757315978888942,
                1.2984361277375362,
                -3.1200459870019577
            ]
        },
        {
            "positions": [
                -1.6730495888723143,
                -1.4150431957148668,
                1.9529435222797795,
                -0.5196828380138296,
                1.4629320282690668,
                -3.1192365844636583
            ]
        }
    ]
}