{
    "goal": {
        "global_pose": {
            "orientation": {
                "w": -0.4816463035849501,
                "x": 0.5182115481033762,
                "y": 0.4908360881923453,
                "z": -0.5084816262002911
            },
            "position": {
                "x": -0.8240239810943604,
                "y": -0.300875300988555,
                "z": 0.16403168439865112
            }
        },
        "name": "move_to_storage_C"
    },
    "id": "LazyPRM_move_to_storage_C_13",
    "joint_names": [
        "shoulder_pan_joint",
        "shoulder_lift_joint",
        "elbow_joint",
        "wrist_1_joint",
        "wrist_2_joint",
        "wrist_3_joint"
    ],
    "metrics": {
        "cart_traj_len": 0.5772842188417934,
        "distance_elbow_joint": 0.2556716330958173,
        "distance_shoulder_lift_joint": 0.1894952674846706,
        "distance_shoulder_pan_joint": 0.4961772804599405,
        "distance_wrist_1_joint": 0.06652610533234748,
        "distance_wrist_2_joint": 1.0604992490913552,
        "distance_wrist_3_joint": 0.05546912838937734,
        "smoothness": 5.075305295617109e-16,
        "time": 0.011679542,
        "traj_len": 1.457339584260823,
        "weighted_distance": 1.83352182290148
    },
    "planner": "LazyPRM",
    "start": {
        "state": {
            "elbow_joint": 2.010868314990456,
            "shoulder_lift_joint": -1.1634956873337592,
            "shoulder_pan_joint": -2.4736205022346125,
            "wrist_1_joint": -0.8367026794202681,
            "wrist_2_joint": 0.6746043897044499,
            "wrist_3_joint": -3.1496632123970403
        }
    },
    "waypoints": [
        {
            "positions": [
                -2.4736205022346125,
                -1.1634956873337592,
                2.010868314990456,
                -0.8367026794202681,
                0.6746043897044499,
                -3.1496632123970403
            ]
        },
        {
            "positions": [
                -2.5563167156446025,
                -1.1319131427529807,
                1.968256376141153,
                -0.8256149951982101,
                0.8513542645530091,
                -3.140418357665477
            ]
        },
        {
            "positions": [
                -2.6390129290545925,
                -1.1003305981722022,
                1.92564443729185,
                -0.8145273109761523,
                1.0281041394015684,
                -3.1311735029339145
            ]
        },
        {
            "positions": [
                -2.721709142464583,
                -1.068748053591424,
                1.8830324984425473,
                -0.8034396267540944,
                1.2048540142501274,
                -3.121928648202352
            ]
        },
        {
            "positions": [
                -2.804405355874573,
                -1.0371655090106455,
                1.8404205595932444,
                -0.7923519425320364,
                1.3816038890986868,
                -3.1126837934707887
            ]
        },
        {
            "positions": [
                -2.887101569284563,
                -1.005582964429867,
                1.7978086207439414,
                -0.7812642583099785,
                1.5583537639472458,
                -3.1034389387392256
            ]
        },
        {
            "positions": [
                -2.969797782694553,
                -0.9740004198490886,
                1.7551966818946385,
                -0.7701765740879206,
                1.7351036387958052,
                -3.094194084007663
            ]
        }
    ]
}