{
    "goal": {
        "global_pose": {
            "orientation": {
                "w": -0.00223480608172531,
                "x": 0.0024358444001904467,
                "y": 0.7094548369677653,
                "z": -0.704743149386269
            },
            "position": {
                "x": -0.37947507619857795,
                "y": -0.6371506643295288,
                "z": 0.19426114857196808
            }
        },
        "name": "move_to_magneteinheit_C"
    },
    "id": "LazyPRM_move_to_magneteinheit_C_71",
    "joint_names": [
        "shoulder_pan_joint",
        "shoulder_lift_joint",
        "elbow_joint",
        "wrist_1_joint",
        "wrist_2_joint",
        "wrist_3_joint"
    ],
    "metrics": {
        "cart_traj_len": 0.6855842041084161,
        "distance_elbow_joint": 0.7267341935661915,
        "distance_shoulder_lift_joint": 0.25422449725595486,
        "distance_shoulder_pan_joint": 0.8008238329730404,
        "distance_wrist_1_joint": 0.29420116538441077,
        "distance_wrist_2_joint": 0.7911583857715903,
        "distance_wrist_3_joint": 1.9566456638309595,
        "smoothness": 1.0915895939448312,
        "time": 0.053342711,
        "traj_len": 2.1963123044736026,
        "weighted_distance": 3.1340769961186448
    },
    "planner": "LazyPRM",
    "start": {
        "state": {
            "elbow_joint": 1.9565354010623817,
            "shoulder_lift_joint": -1.4165861575791021,
            "shoulder_pan_joint": -1.6717766225146293,
            "wrist_1_joint": -0.5286633292919765,
            "wrist_2_joint": 1.472756589071564,
            "wrist_3_joint": -3.1238370188695823
        }
    },
    "waypoints": [
        {
            "positions": [
                -1.6717766225146293,
                -1.4165861575791021,
                1.9565354010623817,
                -0.5286633292919765,
                1.472756589071564,
                -3.1238370188695823
            ]
        },
        {
            "positions": [
                -1.775399829935366,
                -1.4102790013367297,
                2.021370819573573,
                -0.5306857564620131,
                1.4429648142441753,
                -2.9630007462770287
            ]
        },
        {
            "positions": [
                -1.8790230373561025,
                -1.4039718450943572,
                2.086206238084765,
                -0.5327081836320497,
                1.4131730394167865,
                -2.8021644736844755
            ]
        },
        {
            "positions": [
                -1.9826462447768392,
                -1.397664688851985,
                2.1510416565959565,
                -0.5347306108020864,
                1.383381264589398,
                -2.641328201091922
            ]
        },
        {
            "positions": [
                -2.086269452197576,
                -1.3913575326096126,
                2.215877075107148,
                -0.5367530379721231,
                1.3535894897620093,
                -2.4804919284993687
            ]
        },
        {
            "positions": [
                -2.1898926596183124,
                -1.3850503763672402,
                2.28071249361834,
                -0.5387754651421598,
                1.3237977149346205,
                -2.319655655906815
            ]
        },
        {
            "positions": [
                -2.293515867039049,
                -1.3787432201248677,
                2.3455479121295313,
                -0.5407978923121964,
                1.294005940107232,
                -2.1588193833142615
            ]
        },
        {
            "positions": [
                -2.317939532927323,
                -1.356134688468353,
                2.295240255194601,
                -0.5822159666260056,
                1.2204015155725763,
                -2.269689466413607
            ]
        },
        {
            "positions": [
                -2.342363198815597,
                -1.3335261568118384,
                2.2449325982596706,
                -0.6236340409398148,
                1.1467970910379208,
                -2.3805595495129523
            ]
        },
        {
            "positions": [
                -2.3667868647038706,
                -1.3109176251553236,
                2.1946249413247405,
                -0.665052115253624,
                1.0731926665032652,
                -2.4914296326122978
            ]
        },
        {
            "positions": [
                -2.3912105305921445,
                -1.288309093498809,
                2.14431728438981,
                -0.7064701895674331,
                0.9995882419686096,
                -2.602299715711643
            ]
        },
        {
            "positions": [
                -2.4156341964804184,
                -1.2657005618422943,
                2.09400962745488,
                -0.7478882638812423,
                0.9259838174339541,
                -2.7131697988109886
            ]
        },
        {
            "positions": [
                -2.4346229494828355,
                -1.2312542613359119,
                2.065281828180083,
                -0.7728803408129573,
                0.8445219460559606,
                -2.858929003070626
            ]
        },
        {
            "positions": [
                -2.4536117024852526,
                -1.1968079608295297,
                2.0365540289052864,
                -0.7978724177446722,
                0.7630600746779672,
                -3.004688207330263
            ]
        },
        {
            "positions": [
                -2.4726004554876697,
                -1.1623616603231472,
                2.0078262296304894,
                -0.8228644946763872,
                0.6815982032999737,
                -3.1504474115899
            ]
        }
    ]
}