{
    "goal": {
        "global_pose": {
            "orientation": {
                "w": 0.7047431493862688,
                "x": -0.7094548369677653,
                "y": 0.0024358444001904,
                "z": -0.0022348060817251984
            },
            "position": {
                "x": -0.39052492380142206,
                "y": 0.3671506643295288,
                "z": 0.19426114857196808
            }
        },
        "name": "move_to_magneteinheit_D"
    },
    "id": "LazyPRMstar_move_to_magneteinheit_D_86",
    "joint_names": [
        "shoulder_pan_joint",
        "shoulder_lift_joint",
        "elbow_joint",
        "wrist_1_joint",
        "wrist_2_joint",
        "wrist_3_joint"
    ],
    "metrics": {
        "cart_traj_len": 3.6174138757180243,
        "distance_elbow_joint": 3.2253941930623617,
        "distance_shoulder_lift_joint": 1.6312912813729825,
        "distance_shoulder_pan_joint": 2.5378389898758695,
        "distance_wrist_1_joint": 1.552564775499901,
        "distance_wrist_2_joint": 1.2633564545787097,
        "distance_wrist_3_joint": 3.1921184150874673,
        "smoothness": 0.044606986140985974,
        "time": 5.040533516,
        "traj_len": 3.6609512574571776,
        "weighted_distance": 4.754232027334262
    },
    "planner": "LazyPRMstar",
    "start": {
        "state": {
            "elbow_joint": 0.749534889911806,
            "shoulder_lift_joint": -0.6476975780787326,
            "shoulder_pan_joint": -2.711696901376241,
            "wrist_1_joint": -0.07506478083263063,
            "wrist_2_joint": 0.43296659715538205,
            "wrist_3_joint": -3.14703540197715
        }
    },
    "waypoints": [
        {
            "positions": [
                -2.711696901376241,
                -0.6476975780787326,
                0.749534889911806,
                -0.07506478083263063,
                0.43296659715538205,
                -3.14703540197715
            ]
        },
        {
            "positions": [
                -2.713227134607409,
                -0.6686385514211656,
                0.6806505331820014,
                -0.0700123511877967,
                0.4190155416289668,
                -3.135892619162312
            ]
        },
        {
            "positions": [
                -2.7178178343009125,
                -0.7314614714484643,
                0.4739974629925876,
                -0.0548550622532949,
                0.3771623750497212,
                -3.102464270717799
            ]
        },
        {
            "positions": [
                -2.638605409690636,
                -0.7696581626651635,
                0.3394164354084669,
                -0.02925685833221404,
                0.34237337748190566,
                -3.0220076238440847
            ]
        },
        {
            "positions": [
                -2.5593929850803594,
                -0.8078548538818626,
                0.20483540782434623,
                -0.0036586544111331804,
                0.30758437991409016,
                -2.9415509769703703
            ]
        },
        {
            "positions": [
                -2.480180560470083,
                -0.8460515450985618,
                0.07025438024022562,
                0.021939549509947677,
                0.2727953823462746,
                -2.8610943300966554
            ]
        },
        {
            "positions": [
                -2.4009681358598067,
                -0.884248236315261,
                -0.06432664734389515,
                0.04753775343102854,
                0.23800638477845906,
                -2.780637683222941
            ]
        },
        {
            "positions": [
                -2.32175571124953,
                -0.9224449275319602,
                -0.19890767492801575,
                0.0731359573521094,
                0.20321738721064353,
                -2.7001810363492265
            ]
        },
        {
            "positions": [
                -2.2425432866392536,
                -0.9606416187486593,
                -0.33348870251213636,
                0.09873416127319026,
                0.168428389642828,
                -2.619724389475512
            ]
        },
        {
            "positions": [
                -2.1633308620289773,
                -0.9988383099653584,
                -0.4680697300962571,
                0.1243323651942711,
                0.13363939207501246,
                -2.5392677426017976
            ]
        },
        {
            "positions": [
                -2.0841184374187005,
                -1.0370350011820577,
                -0.6026507576803779,
                0.149930569115352,
                0.0988503945071969,
                -2.458811095728083
            ]
        },
        {
            "positions": [
                -2.004906012808424,
                -1.0752316923987568,
                -0.7372317852644985,
                0.17552877303643283,
                0.06406139693938134,
                -2.3783544488543686
            ]
        },
        {
            "positions": [
                -1.9256935881981478,
                -1.113428383615456,
                -0.8718128128486191,
                0.2011269769575137,
                0.029272399371565838,
                -2.2978978019806537
            ]
        },
        {
            "positions": [
                -1.8464811635878713,
                -1.1516250748321553,
                -1.00639384043274,
                0.22672518087859456,
                -0.005516598196249722,
                -2.2174411551069393
            ]
        },
        {
            "positions": [
                -1.767268738977595,
                -1.1898217660488544,
                -1.1409748680168603,
                0.2523233847996754,
                -0.04030559576406523,
                -2.136984508233225
            ]
        },
        {
            "positions": [
                -1.6880563143673184,
                -1.2280184572655535,
                -1.2755558956009811,
                0.2779215887207563,
                -0.07509459333188079,
                -2.05652786135951
            ]
        },
        {
            "positions": [
                -1.608843889757042,
                -1.2662151484822526,
                -1.4101369231851018,
                0.3035197926418371,
                -0.10988359089969629,
                -1.9760712144857957
            ]
        },
        {
            "positions": [
                -1.5296314651467655,
                -1.3044118396989517,
                -1.5447179507692224,
                0.329117996562918,
                -0.1446725884675118,
                -1.8956145676120812
            ]
        },
        {
            "positions": [
                -1.450419040536489,
                -1.342608530915651,
                -1.6792989783533434,
                0.3547162004839989,
                -0.17946158603532741,
                -1.8151579207383666
            ]
        },
        {
            "positions": [
                -1.3712066159262126,
                -1.3808052221323501,
                -1.8138800059374636,
                0.3803144044050797,
                -0.21425058360314292,
                -1.7347012738646521
            ]
        },
        {
            "positions": [
                -1.291994191315936,
                -1.4190019133490495,
                -1.9484610335215846,
                0.40591260832616055,
                -0.24903958117095853,
                -1.6542446269909377
            ]
        },
        {
            "positions": [
                -1.2127817667056597,
                -1.4571986045657486,
                -2.0830420611057052,
                0.4315108122472414,
                -0.28382857873877393,
                -1.5737879801172232
            ]
        },
        {
            "positions": [
                -1.1335693420953832,
                -1.4953952957824477,
                -2.217623088689826,
                0.4571090161683222,
                -0.3186175763065896,
                -1.4933313332435085
            ]
        },
        {
            "positions": [
                -1.0384809682224097,
                -1.544742125865395,
                -2.2583341271881494,
                0.5117369315407412,
                -0.3244273701136367,
                -1.4444598937932596
            ]
        },
        {
            "positions": [
                -0.9433925943494361,
                -1.5940889559483424,
                -2.299045165686473,
                0.5663648469131602,
                -0.3302371639206838,
                -1.3955884543430106
            ]
        },
        {
            "positions": [
                -0.8682484139219919,
                -1.6546685277239448,
                -2.314724493912671,
                0.6433674400466084,
                -0.2971590530117816,
                -1.2868724555105384
            ]
        },
        {
            "positions": [
                -0.7931042334945477,
                -1.7152480994995472,
                -2.3304038221388694,
                0.7203700331800565,
                -0.26408094210287936,
                -1.1781564566780665
            ]
        },
        {
            "positions": [
                -0.7179600530671035,
                -1.7758276712751493,
                -2.3460831503650676,
                0.7973726263135047,
                -0.23100283119397713,
                -1.0694404578455943
            ]
        },
        {
            "positions": [
                -0.6428158726396593,
                -1.8364072430507516,
                -2.3617624785912663,
                0.874375219446953,
                -0.19792472028507488,
                -0.9607244590131223
            ]
        },
        {
            "positions": [
                -0.5676716922122151,
                -1.896986814826354,
                -2.3774418068174645,
                0.9513778125804011,
                -0.16484660937617263,
                -0.8520084601806501
            ]
        },
        {
            "positions": [
                -0.49252751178477094,
                -1.9575663866019564,
                -2.3931211350436628,
                1.0283804057138493,
                -0.13176849846727043,
                -0.7432924613481781
            ]
        },
        {
            "positions": [
                -0.4173833313573267,
                -2.0181459583775587,
                -2.408800463269861,
                1.1053829988472974,
                -0.09869038755836816,
                -0.634576462515706
            ]
        },
        {
            "positions": [
                -0.3587481344067134,
                -2.0706354221666157,
                -2.415956917256278,
                1.1749479928773507,
                -0.06117691017674383,
                -0.5255363513975366
            ]
        },
        {
            "positions": [
                -0.30011293745610007,
                -2.1231248859556726,
                -2.4231133712426955,
                1.244512986907404,
                -0.023663432795119496,
                -0.4164962402793674
            ]
        },
        {
            "positions": [
                -0.24147774050548676,
                -2.1756143497447296,
                -2.4302698252291126,
                1.3140779809374574,
                0.01385004458650485,
                -0.3074561291611981
            ]
        },
        {
            "positions": [
                -0.223018419453563,
                -2.210072519647058,
                -2.4150733325886318,
                1.3685519855140618,
                0.06587187291832318,
                -0.1899430817373592
            ]
        },
        {
            "positions": [
                -0.20455909840163922,
                -2.2445306895493866,
                -2.3998768399481505,
                1.4230259900906659,
                0.11789370125014151,
                -0.07243003431352027
            ]
        },
        {
            "positions": [
                -0.18609977734971545,
                -2.278988859451715,
                -2.3846803473076696,
                1.4774999946672702,
                0.16991552958195985,
                0.04508301311031867
            ]
        }
    ]
}