{
    "goal": {
        "global_pose": {
            "orientation": {
                "w": -0.4816463035849501,
                "x": 0.5182115481033762,
                "y": 0.4908360881923453,
                "z": -0.5084816262002911
            },
            "position": {
                "x": -0.8240239810943604,
                "y": 0.19912469901144506,
                "z": 0.16403168439865112
            }
        },
        "name": "move_to_storage_D"
    },
    "id": "LazyPRMstar_move_to_storage_D_84",
    "joint_names": [
        "shoulder_pan_joint",
        "shoulder_lift_joint",
        "elbow_joint",
        "wrist_1_joint",
        "wrist_2_joint",
        "wrist_3_joint"
    ],
    "metrics": {
        "cart_traj_len": 4.061897000256663,
        "distance_elbow_joint": 4.235573673389443,
        "distance_shoulder_lift_joint": 1.2645242260179987,
        "distance_shoulder_pan_joint": 2.8141458620401294,
        "distance_wrist_1_joint": 2.2650421244365253,
        "distance_wrist_2_joint": 1.333663057140425,
        "distance_wrist_3_joint": 3.6953153469320332,
        "smoothness": 0.2603946108057173,
        "time": 5.049376905,
        "traj_len": 3.950729589576658,
        "weighted_distance": 5.1572861240576495
    },
    "planner": "LazyPRMstar",
    "start": {
        "state": {
            "elbow_joint": -2.384821988534728,
            "shoulder_lift_joint": -2.2788054721415256,
            "shoulder_pan_joint": -0.1854694642142757,
            "wrist_1_joint": 1.4845938289331202,
            "wrist_2_joint": 0.17898776772866878,
            "wrist_3_joint": 0.037105688729662994
        }
    },
    "waypoints": [
        {
            "positions": [
                -0.1854694642142757,
                -2.2788054721415256,
                -2.384821988534728,
                1.4845938289331202,
                0.17898776772866878,
                0.037105688729662994
            ]
        },
        {
            "positions": [
                -0.07662192409248998,
                -2.227036724476323,
                -2.389135489487393,
                1.4744940791854046,
                0.2757188318962115,
                0.1303280628072353
            ]
        },
        {
            "positions": [
                0.032225616029295745,
                -2.17526797681112,
                -2.393448990440058,
                1.464394329437689,
                0.3724498960637542,
                0.2235504368848076
            ]
        },
        {
            "positions": [
                0.1410731561510815,
                -2.123499229145917,
                -2.397762491392723,
                1.4542945796899736,
                0.469180960231297,
                0.31677281096237997
            ]
        },
        {
            "positions": [
                0.20630454330488218,
                -2.0963101538311806,
                -2.2972556147832712,
                1.3868729086206784,
                0.49478899384647523,
                0.21550429043822686
            ]
        },
        {
            "positions": [
                0.27153593045868285,
                -2.069121078516444,
                -2.1967487381738198,
                1.3194512375513832,
                0.5203970274616535,
                0.11423576991407375
            ]
        },
        {
            "positions": [
                0.3367673176124835,
                -2.041932003201707,
                -2.096241861564368,
                1.252029566482088,
                0.5460050610768317,
                0.012967249389920665
            ]
        },
        {
            "positions": [
                0.4019987047662842,
                -2.0147429278869704,
                -1.995734984954916,
                1.184607895412793,
                0.5716130946920099,
                -0.08830127113423247
            ]
        },
        {
            "positions": [
                0.46723009192008486,
                -1.9875538525722338,
                -1.8952281083454643,
                1.1171862243434978,
                0.5972211283071881,
                -0.1895697916583856
            ]
        },
        {
            "positions": [
                0.5324614790738855,
                -1.960364777257497,
                -1.7947212317360126,
                1.0497645532742026,
                0.6228291619223664,
                -0.29083831218253864
            ]
        },
        {
            "positions": [
                0.5976928662276861,
                -1.9331757019427604,
                -1.6942143551265607,
                0.9823428822049074,
                0.6484371955375445,
                -0.3921068327066918
            ]
        },
        {
            "positions": [
                0.6629242533814869,
                -1.9059866266280237,
                -1.593707478517109,
                0.9149212111356122,
                0.6740452291527228,
                -0.4933753532308449
            ]
        },
        {
            "positions": [
                0.7281556405352875,
                -1.878797551313287,
                -1.4932006019076574,
                0.847499540066317,
                0.6996532627679011,
                -0.594643873754998
            ]
        },
        {
            "positions": [
                0.7933870276890882,
                -1.8516084759985505,
                -1.3926937252982055,
                0.7800778689970218,
                0.7252612963830792,
                -0.6959123942791512
            ]
        },
        {
            "positions": [
                0.8586184148428889,
                -1.8244194006838137,
                -1.2921868486887538,
                0.7126561979277267,
                0.7508693299982574,
                -0.7971809148033042
            ]
        },
        {
            "positions": [
                0.9238498019966895,
                -1.7972303253690771,
                -1.191679972079302,
                0.6452345268584315,
                0.7764773636134357,
                -0.8984494353274572
            ]
        },
        {
            "positions": [
                0.9890811891504901,
                -1.7700412500543403,
                -1.0911730954698502,
                0.5778128557891363,
                0.8020853972286139,
                -0.9997179558516105
            ]
        },
        {
            "positions": [
                1.0543125763042909,
                -1.7428521747396037,
                -0.9906662188603985,
                0.5103911847198412,
                0.8276934308437922,
                -1.1009864763757635
            ]
        },
        {
            "positions": [
                1.1195439634580917,
                -1.7156630994248672,
                -0.8901593422509466,
                0.44296951365054604,
                0.8533014644589704,
                -1.2022549968999168
            ]
        },
        {
            "positions": [
                1.184775350611892,
                -1.6884740241101304,
                -0.7896524656414949,
                0.37554784258125085,
                0.8789094980741485,
                -1.3035235174240698
            ]
        },
        {
            "positions": [
                1.250006737765693,
                -1.6612849487953936,
                -0.6891455890320433,
                0.30812617151195565,
                0.9045175316893268,
                -1.4047920379482228
            ]
        },
        {
            "positions": [
                1.3152381249194933,
                -1.634095873480657,
                -0.5886387124225914,
                0.24070450044266045,
                0.9301255653045051,
                -1.506060558472376
            ]
        },
        {
            "positions": [
                1.3804695120732942,
                -1.6069067981659204,
                -0.4881318358131397,
                0.17328282937336525,
                0.9557335989196832,
                -1.607329078996529
            ]
        },
        {
            "positions": [
                1.445700899227095,
                -1.5797177228511836,
                -0.3876249592036878,
                0.10586115830407006,
                0.9813416325348614,
                -1.7085975995206824
            ]
        },
        {
            "positions": [
                1.5109322863808954,
                -1.552528647536447,
                -0.2871180825942363,
                0.03843948723477508,
                1.0069496661500397,
                -1.8098661200448352
            ]
        },
        {
            "positions": [
                1.5761636735346962,
                -1.5253395722217102,
                -0.18661120598478442,
                -0.028982183834520114,
                1.032557699765218,
                -1.9111346405689884
            ]
        },
        {
            "positions": [
                1.641395060688497,
                -1.4981504969069737,
                -0.08610432937533252,
                -0.09640385490381531,
                1.0581657333803962,
                -2.0124031610931414
            ]
        },
        {
            "positions": [
                1.7066264478422974,
                -1.470961421592237,
                0.014402547234118934,
                -0.1638255259731105,
                1.0837737669955745,
                -2.1136716816172942
            ]
        },
        {
            "positions": [
                1.7718578349960983,
                -1.4437723462775003,
                0.11490942384357083,
                -0.2312471970424057,
                1.1093818006107525,
                -2.214940202141448
            ]
        },
        {
            "positions": [
                1.8370892221498987,
                -1.4165832709627635,
                0.21541630045302274,
                -0.2986688681117009,
                1.1349898342259308,
                -2.3162087226656007
            ]
        },
        {
            "positions": [
                1.9023206093036995,
                -1.389394195648027,
                0.31592317706247464,
                -0.3660905391809961,
                1.160597867841109,
                -2.4174772431897544
            ]
        },
        {
            "positions": [
                1.9675519964575003,
                -1.3622051203332903,
                0.4164300536719261,
                -0.4335122102502911,
                1.1862059014562873,
                -2.5187457637139072
            ]
        },
        {
            "positions": [
                2.0327833836113007,
                -1.3350160450185538,
                0.516936930281378,
                -0.5009338813195863,
                1.2118139350714654,
                -2.62001428423806
            ]
        },
        {
            "positions": [
                2.0980147707651016,
                -1.307826969703817,
                0.6174438068908299,
                -0.5683555523888815,
                1.2374219686866437,
                -2.7212828047622137
            ]
        },
        {
            "positions": [
                2.163246157918902,
                -1.2806378943890802,
                0.7179506835002814,
                -0.6357772234581767,
                1.263030002301822,
                -2.8225513252863665
            ]
        },
        {
            "positions": [
                2.228477545072703,
                -1.2534488190743436,
                0.818457560109733,
                -0.7031988945274721,
                1.2886380359170002,
                -2.9238198458105193
            ]
        },
        {
            "positions": [
                2.2951773538648945,
                -1.213587556915874,
                0.9861930799478983,
                -0.7160737946901276,
                1.2513025710916512,
                -2.9529957737982553
            ]
        },
        {
            "positions": [
                2.3618771626570862,
                -1.1737262947574048,
                1.1539285997860635,
                -0.728948694852783,
                1.2139671062663022,
                -2.9821717017859917
            ]
        },
        {
            "positions": [
                2.428576971449278,
                -1.1338650325989352,
                1.321664119624229,
                -0.7418235950154386,
                1.1766316414409532,
                -3.0113476297737276
            ]
        },
        {
            "positions": [
                2.49527678024147,
                -1.0940037704404657,
                1.4893996394623943,
                -0.7546984951780941,
                1.1392961766156045,
                -3.0405235577614635
            ]
        },
        {
            "positions": [
                2.561976589033662,
                -1.0541425082819964,
                1.6571351593005597,
                -0.7675733953407495,
                1.1019607117902555,
                -3.0696994857492
            ]
        },
        {
            "positions": [
                2.6286763978258536,
                -1.0142812461235269,
                1.8248706791387248,
                -0.780448295503405,
                1.0646252469649065,
                -3.098875413736936
            ]
        }
    ]
}