{
    "goal": {
        "global_pose": {
            "orientation": {
                "w": -0.4816463035849501,
                "x": 0.5182115481033762,
                "y": 0.4908360881923453,
                "z": -0.5084816262002911
            },
            "position": {
                "x": -0.8240239810943604,
                "y": 0.19912469901144506,
                "z": 0.16403168439865112
            }
        },
        "name": "move_to_storage_D"
    },
    "id": "LazyPRM_move_to_storage_D_56",
    "joint_names": [
        "shoulder_pan_joint",
        "shoulder_lift_joint",
        "elbow_joint",
        "wrist_1_joint",
        "wrist_2_joint",
        "wrist_3_joint"
    ],
    "metrics": {
        "cart_traj_len": 3.852945782810331,
        "distance_elbow_joint": 4.2081788410063234,
        "distance_shoulder_lift_joint": 1.2649558629754367,
        "distance_shoulder_pan_joint": 2.813419448929657,
        "distance_wrist_1_joint": 2.264361985276871,
        "distance_wrist_2_joint": 0.8790959202408182,
        "distance_wrist_3_joint": 3.137802197833473,
        "smoothness": 0.0020444137421305447,
        "time": 0.12715258299999999,
        "traj_len": 3.816780614112184,
        "weighted_distance": 4.897639896669334
    },
    "planner": "LazyPRM",
    "start": {
        "state": {
            "elbow_joint": -2.384821988534728,
            "shoulder_lift_joint": -2.2788054721415256,
            "shoulder_pan_joint": -0.1854694642142757,
            "wrist_1_joint": 1.4845938289331202,
            "wrist_2_joint": 0.17898776772866878,
            "wrist_3_joint": 0.037105688729662994
        }
    },
    "waypoints": [
        {
            "positions": [
                -0.1854694642142757,
                -2.2788054721415256,
                -2.384821988534728,
                1.4845938289331202,
                0.17898776772866878,
                0.037105688729662994
            ]
        },
        {
            "positions": [
                -0.1543486291240886,
                -2.2790927089739723,
                -2.3781221201534617,
                1.4645506001530655,
                0.1797904628502443,
                0.043944723131554855
            ]
        },
        {
            "positions": [
                -0.07784053855285498,
                -2.2422186452342094,
                -2.273659027195803,
                1.4036747462191463,
                0.19627236399755785,
                0.13700983490972046
            ]
        },
        {
            "positions": [
                -0.001332447981621382,
                -2.205344581494446,
                -2.1691959342381435,
                1.3427988922852272,
                0.2127542651448714,
                0.23007494668788603
            ]
        },
        {
            "positions": [
                0.07517564258961221,
                -2.1684705177546832,
                -2.0647328412804846,
                1.2819230383513078,
                0.22923616629218496,
                0.32314005846605165
            ]
        },
        {
            "positions": [
                0.15168373316084582,
                -2.13159645401492,
                -1.9602697483228253,
                1.2210471844173887,
                0.2457180674394985,
                0.4162051702442172
            ]
        },
        {
            "positions": [
                0.2281918237320794,
                -2.094722390275157,
                -1.8558066553651664,
                1.1601713304834695,
                0.26219996858681205,
                0.5092702820223829
            ]
        },
        {
            "positions": [
                0.304699914303313,
                -2.0578483265353937,
                -1.751343562407507,
                1.0992954765495502,
                0.2786818697341256,
                0.6023353938005485
            ]
        },
        {
            "positions": [
                0.3812080048745466,
                -2.020974262795631,
                -1.6468804694498482,
                1.038419622615631,
                0.2951637708814392,
                0.695400505578714
            ]
        },
        {
            "positions": [
                0.45771609544578024,
                -1.9841001990558675,
                -1.5424173764921891,
                0.9775437686817119,
                0.3116456720287527,
                0.7884656173568796
            ]
        },
        {
            "positions": [
                0.5342241860170138,
                -1.9472261353161044,
                -1.43795428353453,
                0.9166679147477927,
                0.3281275731760663,
                0.8815307291350453
            ]
        },
        {
            "positions": [
                0.6107322765882475,
                -1.9103520715763413,
                -1.333491190576871,
                0.8557920608138735,
                0.34460947432337985,
                0.9745958409132108
            ]
        },
        {
            "positions": [
                0.6872403671594809,
                -1.8734780078365785,
                -1.2290280976192118,
                0.7949162068799543,
                0.36109137547069337,
                1.0676609526913763
            ]
        },
        {
            "positions": [
                0.7637484577307145,
                -1.8366039440968152,
                -1.1245650046615527,
                0.7340403529460351,
                0.37757327661800694,
                1.160726064469542
            ]
        },
        {
            "positions": [
                0.8402565483019482,
                -1.7997298803570523,
                -1.0201019117038936,
                0.673164499012116,
                0.3940551777653205,
                1.2537911762477076
            ]
        },
        {
            "positions": [
                0.9167646388731818,
                -1.762855816617289,
                -0.9156388187462345,
                0.6122886450781967,
                0.410537078912634,
                1.3468562880258732
            ]
        },
        {
            "positions": [
                0.9932727294444155,
                -1.725981752877526,
                -0.8111757257885754,
                0.5514127911442774,
                0.4270189800599476,
                1.4399213998040388
            ]
        },
        {
            "positions": [
                1.0697808200156491,
                -1.6891076891377628,
                -0.7067126328309166,
                0.4905369372103583,
                0.4435008812072611,
                1.5329865115822043
            ]
        },
        {
            "positions": [
                1.1462889105868825,
                -1.652233625398,
                -0.6022495398732575,
                0.42966108327643915,
                0.4599827823545747,
                1.62605162336037
            ]
        },
        {
            "positions": [
                1.2227970011581162,
                -1.6153595616582366,
                -0.49778644691559837,
                0.36878522934252,
                0.47646468350188825,
                1.7191167351385357
            ]
        },
        {
            "positions": [
                1.2993050917293498,
                -1.5784854979184737,
                -0.39332335395793927,
                0.30790937540860086,
                0.49294658464920177,
                1.812181846916701
            ]
        },
        {
            "positions": [
                1.3758131823005835,
                -1.5416114341787104,
                -0.28886026100028017,
                0.2470335214746815,
                0.5094284857965153,
                1.9052469586948668
            ]
        },
        {
            "positions": [
                1.4523212728718171,
                -1.5047373704389475,
                -0.1843971680426213,
                0.18615766754076235,
                0.5259103869438289,
                1.9983120704730324
            ]
        },
        {
            "positions": [
                1.5288293634430505,
                -1.4678633066991844,
                -0.07993407508496198,
                0.1252818136068432,
                0.5423922880911425,
                2.0913771822511977
            ]
        },
        {
            "positions": [
                1.6053374540142844,
                -1.4309892429594213,
                0.024529017872697345,
                0.06440595967292384,
                0.558874189238456,
                2.1844422940293637
            ]
        },
        {
            "positions": [
                1.6818455445855178,
                -1.3941151792196582,
                0.12899211083035622,
                0.0035301057390046964,
                0.5753560903857695,
                2.2775074058075293
            ]
        },
        {
            "positions": [
                1.7583536351567512,
                -1.3572411154798951,
                0.2334552037880151,
                -0.05734574819491445,
                0.5918379915330831,
                2.3705725175856944
            ]
        },
        {
            "positions": [
                1.8348617257279851,
                -1.320367051740132,
                0.3379182967456744,
                -0.11822160212883359,
                0.6083198926803967,
                2.4636376293638604
            ]
        },
        {
            "positions": [
                1.9113698162992185,
                -1.283492988000369,
                0.4423813897033333,
                -0.17909745606275274,
                0.6248017938277102,
                2.556702741142026
            ]
        },
        {
            "positions": [
                1.9878779068704522,
                -1.2466189242606058,
                0.5468444826609926,
                -0.2399733099966721,
                0.6412836949750238,
                2.6497678529201916
            ]
        },
        {
            "positions": [
                2.064385997441686,
                -1.2097448605208427,
                0.6513075756186515,
                -0.3008491639305913,
                0.6577655961223373,
                2.742832964698357
            ]
        },
        {
            "positions": [
                2.132362933115105,
                -1.1873685432079246,
                0.7888297847683358,
                -0.35470847816487233,
                0.7019507525694506,
                2.7904300600438012
            ]
        },
        {
            "positions": [
                2.2003398687885243,
                -1.1649922258950065,
                0.92635199391802,
                -0.4085677923991534,
                0.746135909016564,
                2.8380271553892453
            ]
        },
        {
            "positions": [
                2.2683168044619437,
                -1.1426159085820886,
                1.0638742030677042,
                -0.46242710663343445,
                0.7903210654636773,
                2.8856242507346894
            ]
        },
        {
            "positions": [
                2.3362937401353627,
                -1.1202395912691705,
                1.2013964122173886,
                -0.5162864208677155,
                0.8345062219107906,
                2.933221346080134
            ]
        },
        {
            "positions": [
                2.4042706758087817,
                -1.0978632739562524,
                1.338918621367073,
                -0.5701457351019965,
                0.878691378357904,
                2.980818441425578
            ]
        },
        {
            "positions": [
                2.472247611482201,
                -1.0754869566433345,
                1.4764408305167571,
                -0.6240050493362777,
                0.9228765348050173,
                3.028415536771022
            ]
        },
        {
            "positions": [
                2.5402245471556206,
                -1.0531106393304164,
                1.6139630396664413,
                -0.6778643635705587,
                0.9670616912521306,
                3.0760126321164662
            ]
        },
        {
            "positions": [
                2.6082014828290396,
                -1.0307343220174983,
                1.7514852488161257,
                -0.7317236778048397,
                1.011246847699244,
                3.1236097274619103
            ]
        },
        {
            "positions": [
                2.6279499847153813,
                -1.0144240828309823,
                1.8233568524715953,
                -0.7797681563437515,
                1.058083687969487,
                3.174907886563136
            ]
        }
    ]
}