{
    "goal": {
        "global_pose": {
            "orientation": {
                "w": 0.7047431493862688,
                "x": -0.7094548369677653,
                "y": 0.0024358444001904,
                "z": -0.0022348060817251984
            },
            "position": {
                "x": -0.39052492380142206,
                "y": 0.3671506643295288,
                "z": 0.19426114857196808
            }
        },
        "name": "move_to_magneteinheit_D"
    },
    "id": "LazyPRMstar_move_to_magneteinheit_D_3",
    "joint_names": [
        "shoulder_pan_joint",
        "shoulder_lift_joint",
        "elbow_joint",
        "wrist_1_joint",
        "wrist_2_joint",
        "wrist_3_joint"
    ],
    "metrics": {
        "cart_traj_len": 4.836751582394037,
        "distance_elbow_joint": 3.095969455719536,
        "distance_shoulder_lift_joint": 1.2617920684186879,
        "distance_shoulder_pan_joint": 3.316696315543301,
        "distance_wrist_1_joint": 2.183266501927493,
        "distance_wrist_2_joint": 0.7993105846713873,
        "distance_wrist_3_joint": 0.15775545403980606,
        "smoothness": 0.2795104726321389,
        "time": 5.026133514,
        "traj_len": 3.288584859832602,
        "weighted_distance": 3.7567111114642158
    },
    "planner": "LazyPRMstar",
    "start": {
        "state": {
            "elbow_joint": 0.749534889911806,
            "shoulder_lift_joint": -0.6476975780787326,
            "shoulder_pan_joint": -2.711696901376241,
            "wrist_1_joint": -0.07506478083263063,
            "wrist_2_joint": 0.43296659715538205,
            "wrist_3_joint": -3.14703540197715
        }
    },
    "waypoints": [
        {
            "positions": [
                -2.711696901376241,
                -0.6476975780787326,
                0.749534889911806,
                -0.07506478083263063,
                0.43296659715538205,
                -3.14703540197715
            ]
        },
        {
            "positions": [
                -2.5662265396202217,
                -0.7322635373637437,
                0.6918072528375714,
                -0.09562683808026452,
                0.39704809225839854,
                -3.162086324453635
            ]
        },
        {
            "positions": [
                -2.4207561778642024,
                -0.8168294966487548,
                0.6340796157633368,
                -0.11618889532789842,
                0.3611295873614151,
                -3.1771372469301205
            ]
        },
        {
            "positions": [
                -2.2823586570401173,
                -0.8700877402462717,
                0.5218170519551433,
                -0.1642399594452766,
                0.3275156152506037,
                -3.172147119561283
            ]
        },
        {
            "positions": [
                -2.143961136216032,
                -0.9233459838437884,
                0.40955448814694967,
                -0.2122910235626548,
                0.2939016431397923,
                -3.1671569921924454
            ]
        },
        {
            "positions": [
                -2.0055636153919467,
                -0.9766042274413053,
                0.29729192433875606,
                -0.260342087680033,
                0.26028767102898087,
                -3.162166864823608
            ]
        },
        {
            "positions": [
                -1.8671660945678612,
                -1.029862471038822,
                0.18502936053056251,
                -0.3083931517974112,
                0.2266736989181695,
                -3.1571767374547703
            ]
        },
        {
            "positions": [
                -1.7287685737437761,
                -1.0831207146363389,
                0.07276679672236896,
                -0.35644421591478936,
                0.19305972680735808,
                -3.152186610085933
            ]
        },
        {
            "positions": [
                -1.5903710529196906,
                -1.1363789582338557,
                -0.039495767085824696,
                -0.4044952800321676,
                0.1594457546965467,
                -3.1471964827170953
            ]
        },
        {
            "positions": [
                -1.4519735320956055,
                -1.1896372018313723,
                -0.15175833089401825,
                -0.45254634414954575,
                0.1258317825857353,
                -3.1422063553482578
            ]
        },
        {
            "positions": [
                -1.3135760112715202,
                -1.2428954454288892,
                -0.2640208947022118,
                -0.500597408266924,
                0.09221781047492389,
                -3.1372162279794202
            ]
        },
        {
            "positions": [
                -1.175178490447435,
                -1.296153689026406,
                -0.37628345851040534,
                -0.5486484723843021,
                0.05860383836411248,
                -3.1322261006105827
            ]
        },
        {
            "positions": [
                -1.0367809696233496,
                -1.349411932623923,
                -0.4885460223185989,
                -0.5966995365016804,
                0.024989866253301074,
                -3.127235973241745
            ]
        },
        {
            "positions": [
                -0.8983834487992641,
                -1.4026701762214397,
                -0.6008085861267927,
                -0.6447506006190586,
                -0.008624105857510334,
                -3.1222458458729077
            ]
        },
        {
            "positions": [
                -0.759985927975179,
                -1.4559284198189566,
                -0.7130711499349862,
                -0.6928016647364368,
                -0.042238077968321686,
                -3.11725571850407
            ]
        },
        {
            "positions": [
                -0.6215884071510935,
                -1.5091866634164735,
                -0.8253337137431798,
                -0.740852728853815,
                -0.07585205007913315,
                -3.1122655911352326
            ]
        },
        {
            "positions": [
                -0.48319088632700846,
                -1.56244490701399,
                -0.9375962775513733,
                -0.7889037929711932,
                -0.1094660221899445,
                -3.107275463766395
            ]
        },
        {
            "positions": [
                -0.34479336550292317,
                -1.615703150611507,
                -1.0498588413595669,
                -0.8369548570885714,
                -0.1430799943007559,
                -3.1022853363975575
            ]
        },
        {
            "positions": [
                -0.2063958446788381,
                -1.6689613942090236,
                -1.1621214051677604,
                -0.8850059212059496,
                -0.17669396641156732,
                -3.09729520902872
            ]
        },
        {
            "positions": [
                -0.06799832385475257,
                -1.7222196378065404,
                -1.2743839689759542,
                -0.9330569853233278,
                -0.21030793852237872,
                -3.0923050816598825
            ]
        },
        {
            "positions": [
                0.0703991969693325,
                -1.7754778814040573,
                -1.3866465327841475,
                -0.981108049440706,
                -0.24392191063319013,
                -3.087314954291045
            ]
        },
        {
            "positions": [
                0.2087967177934179,
                -1.8287361250015741,
                -1.4989090965923413,
                -1.0291591135580842,
                -0.2775358827440016,
                -3.0823248269222074
            ]
        },
        {
            "positions": [
                0.15655956179026903,
                -1.8175995731648864,
                -1.6192317701473533,
                -1.1990187762152817,
                -0.26582808649389594,
                -3.0786992303249154
            ]
        },
        {
            "positions": [
                0.10432240578712015,
                -1.8064630213281985,
                -1.7395544437023651,
                -1.3688784388724793,
                -0.25412029024379035,
                -3.075073633727624
            ]
        },
        {
            "positions": [
                0.05208524978397128,
                -1.7953264694915108,
                -1.8598771172573771,
                -1.5387381015296766,
                -0.2424124939936847,
                -3.071448037130332
            ]
        },
        {
            "positions": [
                -0.00015190621917759994,
                -1.784189917654823,
                -1.980199790812389,
                -1.7085977641868744,
                -0.23070469774357905,
                -3.06782244053304
            ]
        },
        {
            "positions": [
                -0.05238906222232648,
                -1.7730533658181353,
                -2.100522464367401,
                -1.8784574268440717,
                -0.21899690149347342,
                -3.064196843935748
            ]
        },
        {
            "positions": [
                -0.10462621822547535,
                -1.7619168139814474,
                -2.220845137922413,
                -2.0483170895012695,
                -0.2072891052433678,
                -3.0605712473384563
            ]
        },
        {
            "positions": [
                -0.15686337422862423,
                -1.7507802621447597,
                -2.341167811477425,
                -2.2181767521584668,
                -0.19558130899326215,
                -3.0569456507411643
            ]
        },
        {
            "positions": [
                -0.18740597858022395,
                -1.7535779207837916,
                -2.34643456580773,
                -2.258331282760124,
                -0.18872777797199822,
                -3.064407663639044
            ]
        }
    ]
}