{
    "goal": {
        "global_pose": {
            "orientation": {
                "w": 0.005598929693374612,
                "x": 0.007748599140229565,
                "y": 0.7110244013736278,
                "z": -0.7031023480610252
            },
            "position": {
                "x": 0.1141497679147869,
                "y": -0.7141253447532654,
                "z": 0.3711530566215515
            }
        },
        "name": "move_to_auspresseinheit_B"
    },
    "id": "LazyPRMstar_move_to_auspresseinheit_B_31",
    "joint_names": [
        "shoulder_pan_joint",
        "shoulder_lift_joint",
        "elbow_joint",
        "wrist_1_joint",
        "wrist_2_joint",
        "wrist_3_joint"
    ],
    "metrics": {
        "cart_traj_len": 0.564295880072866,
        "distance_elbow_joint": 0.06136255100347343,
        "distance_shoulder_lift_joint": 0.29454124882371957,
        "distance_shoulder_pan_joint": 0.5752564229244259,
        "distance_wrist_1_joint": 0.32056057687733575,
        "distance_wrist_2_joint": 1.000338345695339,
        "distance_wrist_3_joint": 0.0043316030492643876,
        "smoothness": 5.075305255429287e-16,
        "time": 5.00152164,
        "traj_len": 1.5021287389480165,
        "weighted_distance": 1.893661236083361
    },
    "planner": "LazyPRMstar",
    "start": {
        "state": {
            "elbow_joint": 2.0193083361928714,
            "shoulder_lift_joint": -1.1220246554650708,
            "shoulder_pan_joint": -1.0952077554168747,
            "wrist_1_joint": -0.8559753972642168,
            "wrist_2_joint": 0.4759566250798843,
            "wrist_3_joint": -3.1240929996934557
        }
    },
    "waypoints": [
        {
            "positions": [
                -1.0952077554168747,
                -1.1220246554650708,
                2.0193083361928714,
                -0.8559753972642168,
                0.4759566250798843,
                -3.1240929996934557
            ]
        },
        {
            "positions": [
                -1.191083825904279,
                -1.1711148636023574,
                2.009081244358959,
                -0.8025486344513275,
                0.6426796826957741,
                -3.1233710658519116
            ]
        },
        {
            "positions": [
                -1.2869598963916833,
                -1.220205071739644,
                1.998854152525047,
                -0.7491218716384382,
                0.8094027403116639,
                -3.1226491320103675
            ]
        },
        {
            "positions": [
                -1.3828359668790875,
                -1.2692952798769306,
                1.9886270606911347,
                -0.695695108825549,
                0.9761257979275537,
                -3.1219271981688235
            ]
        },
        {
            "positions": [
                -1.478712037366492,
                -1.3183854880142172,
                1.9783999688572225,
                -0.6422683460126597,
                1.1428488555434435,
                -3.1212052643272794
            ]
        },
        {
            "positions": [
                -1.5745881078538964,
                -1.3674756961515038,
                1.9681728770233102,
                -0.5888415831997703,
                1.3095719131593335,
                -3.1204833304857353
            ]
        },
        {
            "positions": [
                -1.6704641783413006,
                -1.4165659042887904,
                1.957945785189398,
                -0.535414820386881,
                1.4762949707752233,
                -3.1197613966441913
            ]
        }
    ]
}