{
    "goal": {
        "global_pose": {
            "orientation": {
                "w": -0.4816463035849501,
                "x": 0.5182115481033762,
                "y": 0.4908360881923453,
                "z": -0.5084816262002911
            },
            "position": {
                "x": -0.8240239810943604,
                "y": 0.19912469901144506,
                "z": 0.16403168439865112
            }
        },
        "name": "move_to_storage_D"
    },
    "id": "LazyPRMstar_move_to_storage_D_69",
    "joint_names": [
        "shoulder_pan_joint",
        "shoulder_lift_joint",
        "elbow_joint",
        "wrist_1_joint",
        "wrist_2_joint",
        "wrist_3_joint"
    ],
    "metrics": {
        "cart_traj_len": 3.480995574814036,
        "distance_elbow_joint": 4.21279568209937,
        "distance_shoulder_lift_joint": 1.2638538622531434,
        "distance_shoulder_pan_joint": 2.812579921071401,
        "distance_wrist_1_joint": 2.2806502906714994,
        "distance_wrist_2_joint": 0.8737639069939668,
        "distance_wrist_3_joint": 3.143750866691493,
        "smoothness": 3.416070865626389e-16,
        "time": 5.055878234,
        "traj_len": 3.819344777547698,
        "weighted_distance": 4.90197005915268
    },
    "planner": "LazyPRMstar",
    "start": {
        "state": {
            "elbow_joint": -2.384821988534728,
            "shoulder_lift_joint": -2.2788054721415256,
            "shoulder_pan_joint": -0.1854694642142757,
            "wrist_1_joint": 1.4845938289331202,
            "wrist_2_joint": 0.17898776772866878,
            "wrist_3_joint": 0.037105688729662994
        }
    },
    "waypoints": [
        {
            "positions": [
                -0.1854694642142757,
                -2.2788054721415256,
                -2.384821988534728,
                1.4845938289331202,
                0.17898776772866878,
                0.037105688729662994
            ]
        },
        {
            "positions": [
                -0.09919489073861676,
                -2.245943206669892,
                -2.2505668504695384,
                1.4523540493914762,
                0.2039297194332936,
                0.11859239863286561
            ]
        },
        {
            "positions": [
                -0.012920317262957809,
                -2.213080941198258,
                -2.116311712404349,
                1.4201142698498321,
                0.22887167113791843,
                0.20007910853606822
            ]
        },
        {
            "positions": [
                0.07335425621270117,
                -2.180218675726625,
                -1.9820565743391596,
                1.3878744903081879,
                0.2538136228425433,
                0.28156581843927087
            ]
        },
        {
            "positions": [
                0.1596288296883601,
                -2.147356410254991,
                -1.8478014362739703,
                1.3556347107665438,
                0.27875557454716804,
                0.3630525283424735
            ]
        },
        {
            "positions": [
                0.24590340316401907,
                -2.1144941447833574,
                -1.7135462982087808,
                1.3233949312248998,
                0.3036975262517929,
                0.4445392382456761
            ]
        },
        {
            "positions": [
                0.3321779766396781,
                -2.0816318793117237,
                -1.5792911601435913,
                1.2911551516832558,
                0.3286394779564177,
                0.5260259481488787
            ]
        },
        {
            "positions": [
                0.418452550115337,
                -2.04876961384009,
                -1.4450360220784018,
                1.2589153721416118,
                0.35358142966104256,
                0.6075126580520814
            ]
        },
        {
            "positions": [
                0.5047271235909959,
                -2.015907348368456,
                -1.3107808840132125,
                1.2266755925999675,
                0.3785233813656673,
                0.6889993679552839
            ]
        },
        {
            "positions": [
                0.591001697066655,
                -1.9830450828968227,
                -1.176525745948023,
                1.1944358130583235,
                0.4034653330702922,
                0.7704860778584867
            ]
        },
        {
            "positions": [
                0.6772762705423139,
                -1.950182817425189,
                -1.0422706078828334,
                1.1621960335166794,
                0.428407284774917,
                0.8519727877616893
            ]
        },
        {
            "positions": [
                0.7635508440179728,
                -1.9173205519535554,
                -0.9080154698176441,
                1.1299562539750354,
                0.45334923647954184,
                0.9334594976648918
            ]
        },
        {
            "positions": [
                0.8498254174936318,
                -1.8844582864819217,
                -0.7737603317524546,
                1.0977164744333914,
                0.4782911881841666,
                1.0149462075680944
            ]
        },
        {
            "positions": [
                0.9360999909692908,
                -1.851596021010288,
                -0.6395051936872651,
                1.0654766948917471,
                0.5032331398887915,
                1.0964329174712972
            ]
        },
        {
            "positions": [
                1.0223745644449496,
                -1.8187337555386545,
                -0.5052500556220756,
                1.033236915350103,
                0.5281750915934164,
                1.1779196273744998
            ]
        },
        {
            "positions": [
                1.1086491379206085,
                -1.7858714900670207,
                -0.3709949175568861,
                1.000997135808459,
                0.5531170432980411,
                1.2594063372777025
            ]
        },
        {
            "positions": [
                1.1949237113962674,
                -1.7530092245953872,
                -0.236739779491697,
                0.9687573562668149,
                0.5780589950026659,
                1.3408930471809049
            ]
        },
        {
            "positions": [
                1.2811982848719263,
                -1.7201469591237535,
                -0.10248464142650748,
                0.9365175767251709,
                0.6030009467072908,
                1.4223797570841075
            ]
        },
        {
            "positions": [
                1.3674728583475855,
                -1.6872846936521197,
                0.03177049663868203,
                0.9042777971835267,
                0.6279428984119156,
                1.5038664669873103
            ]
        },
        {
            "positions": [
                1.4537474318232442,
                -1.654422428180486,
                0.16602563470387155,
                0.8720380176418827,
                0.6528848501165404,
                1.5853531768905127
            ]
        },
        {
            "positions": [
                1.5400220052989033,
                -1.6215601627088523,
                0.30028077276906107,
                0.8397982381002386,
                0.6778268018211653,
                1.6668398867937155
            ]
        },
        {
            "positions": [
                1.6262965787745622,
                -1.5886978972372188,
                0.43453591083425014,
                0.8075584585585945,
                0.70276875352579,
                1.7483265966969181
            ]
        },
        {
            "positions": [
                1.7125711522502212,
                -1.5558356317655853,
                0.5687910488994397,
                0.7753186790169505,
                0.7277107052304148,
                1.8298133066001205
            ]
        },
        {
            "positions": [
                1.7988457257258803,
                -1.5229733662939515,
                0.7030461869646292,
                0.7430788994753064,
                0.7526526569350397,
                1.9113000165033234
            ]
        },
        {
            "positions": [
                1.8851202992015392,
                -1.4901111008223178,
                0.8373013250298187,
                0.7108391199336623,
                0.7775946086396645,
                1.992786726406526
            ]
        },
        {
            "positions": [
                1.9713948726771977,
                -1.4572488353506843,
                0.9715564630950078,
                0.6785993403920183,
                0.8025365603442893,
                2.0742734363097286
            ]
        },
        {
            "positions": [
                2.057669446152857,
                -1.4243865698790505,
                1.1058116011601977,
                0.6463595608503742,
                0.8274785120489142,
                2.1557601462129314
            ]
        },
        {
            "positions": [
                2.143944019628516,
                -1.391524304407417,
                1.2400667392253868,
                0.6141197813087301,
                0.852420463753539,
                2.237246856116134
            ]
        },
        {
            "positions": [
                2.230218593104175,
                -1.3586620389357833,
                1.3743218772905768,
                0.581880001767086,
                0.8773624154581638,
                2.3187335660193367
            ]
        },
        {
            "positions": [
                2.316493166579834,
                -1.3257997734641496,
                1.5085770153557658,
                0.549640222225442,
                0.9023043671627886,
                2.400220275922539
            ]
        },
        {
            "positions": [
                2.351006198832866,
                -1.2912610886223976,
                1.544065535156752,
                0.4001183684516841,
                0.9190207346694382,
                2.486957640311274
            ]
        },
        {
            "positions": [
                2.3855192310858984,
                -1.2567224037806457,
                1.579554054957738,
                0.2505965146779262,
                0.935737102176088,
                2.5736950047000096
            ]
        },
        {
            "positions": [
                2.420032263338931,
                -1.2221837189388938,
                1.6150425747587243,
                0.10107466090416833,
                0.9524534696827376,
                2.6604323690887446
            ]
        },
        {
            "positions": [
                2.4545452955919633,
                -1.1876450340971418,
                1.6505310945597103,
                -0.04844719286958954,
                0.9691698371893872,
                2.74716973347748
            ]
        },
        {
            "positions": [
                2.4890583278449956,
                -1.15310634925539,
                1.6860196143606965,
                -0.19796904664334747,
                0.9858862046960369,
                2.833907097866215
            ]
        },
        {
            "positions": [
                2.523571360098028,
                -1.118567664413638,
                1.7215081341616825,
                -0.3474909004171053,
                1.0026025722026866,
                2.92064446225495
            ]
        },
        {
            "positions": [
                2.5580843923510606,
                -1.084028979571886,
                1.7569966539626687,
                -0.4970127541908633,
                1.0193189397093363,
                3.0073818266436856
            ]
        },
        {
            "positions": [
                2.592597424604093,
                -1.049490294730134,
                1.7924851737636547,
                -0.646534607964621,
                1.0360353072159858,
                3.094119191032421
            ]
        },
        {
            "positions": [
                2.627110456857125,
                -1.0149516098883822,
                1.827973693564641,
                -0.7960564617383789,
                1.0527516747226355,
                3.180856555421156
            ]
        }
    ]
}