{
    "goal": {
        "global_pose": {
            "orientation": {
                "w": 0.005598929693374612,
                "x": 0.007748599140229565,
                "y": 0.7110244013736278,
                "z": -0.7031023480610252
            },
            "position": {
                "x": -0.8858502320852131,
                "y": -0.7141253447532654,
                "z": 0.3711530566215515
            }
        },
        "name": "move_to_auspresseinheit_C"
    },
    "id": "LazyPRM_move_to_auspresseinheit_C_23",
    "joint_names": [
        "shoulder_pan_joint",
        "shoulder_lift_joint",
        "elbow_joint",
        "wrist_1_joint",
        "wrist_2_joint",
        "wrist_3_joint"
    ],
    "metrics": {
        "cart_traj_len": 0.4927937759578416,
        "distance_elbow_joint": 0.9989843909424452,
        "distance_shoulder_lift_joint": 0.3236731740072605,
        "distance_shoulder_pan_joint": 0.25615617512394007,
        "distance_wrist_1_joint": 0.682348787211198,
        "distance_wrist_2_joint": 1.3071701882300542,
        "distance_wrist_3_joint": 0.0686757684679149,
        "smoothness": 3.2297397335745243e-16,
        "time": 0.012331779,
        "traj_len": 1.9070942514681368,
        "weighted_distance": 2.4008079882322733
    },
    "planner": "LazyPRM",
    "start": {
        "state": {
            "elbow_joint": 1.7527959577737207,
            "shoulder_lift_joint": -0.9740617694225068,
            "shoulder_pan_joint": -2.967991417825858,
            "wrist_1_joint": -0.759517768980727,
            "wrist_2_joint": 1.7443932448377408,
            "wrist_3_joint": -3.0840537646736568
        }
    },
    "waypoints": [
        {
            "positions": [
                -2.967991417825858,
                -0.9740617694225068,
                1.7527959577737207,
                -0.759517768980727,
                1.7443932448377408,
                -3.0840537646736568
            ]
        },
        {
            "positions": [
                -2.942375800313464,
                -0.9416944520217807,
                1.652897518679476,
                -0.6912828902596072,
                1.6136762260147355,
                -3.090921341520448
            ]
        },
        {
            "positions": [
                -2.91676018280107,
                -0.9093271346210546,
                1.5529990795852315,
                -0.6230480115384873,
                1.48295920719173,
                -3.0977889183672396
            ]
        },
        {
            "positions": [
                -2.891144565288676,
                -0.8769598172203287,
                1.4531006404909872,
                -0.5548131328173675,
                1.3522421883687246,
                -3.1046564952140314
            ]
        },
        {
            "positions": [
                -2.8655289477762818,
                -0.8445924998196026,
                1.3532022013967426,
                -0.4865782540962478,
                1.221525169545719,
                -3.111524072060823
            ]
        },
        {
            "positions": [
                -2.839913330263888,
                -0.8122251824188765,
                1.253303762302498,
                -0.418343375375128,
                1.0908081507227139,
                -3.1183916489076142
            ]
        },
        {
            "positions": [
                -2.814297712751494,
                -0.7798578650181505,
                1.1534053232082537,
                -0.35010849665400823,
                0.9600911318997084,
                -3.1252592257544056
            ]
        },
        {
            "positions": [
                -2.7886820952391,
                -0.7474905476174245,
                1.0535068841140092,
                -0.28187361793288845,
                0.829374113076703,
                -3.132126802601197
            ]
        },
        {
            "positions": [
                -2.763066477726706,
                -0.7151232302166983,
                0.9536084450197645,
                -0.21363873921176857,
                0.6986570942536974,
                -3.138994379447989
            ]
        },
        {
            "positions": [
                -2.7374508602143117,
                -0.6827559128159724,
                0.8537100059255199,
                -0.1454038604906488,
                0.567940075430692,
                -3.1458619562947803
            ]
        },
        {
            "positions": [
                -2.711835242701918,
                -0.6503885954152463,
                0.7538115668312755,
                -0.07716898176952897,
                0.43722305660768673,
                -3.1527295331415717
            ]
        }
    ]
}