{
    "goal": {
        "global_pose": {
            "orientation": {
                "w": 0.7031023502349854,
                "x": -0.7110244035720825,
                "y": 0.007748599164187908,
                "z": 0.005598929710686207
            },
            "position": {
                "x": 0.11585023208521307,
                "y": 0.44412534475326537,
                "z": 0.3711530566215515
            }
        },
        "name": "move_to_auspresseinheit_A"
    },
    "id": "LazyPRMstar_move_to_auspresseinheit_A_85",
    "joint_names": [
        "shoulder_pan_joint",
        "shoulder_lift_joint",
        "elbow_joint",
        "wrist_1_joint",
        "wrist_2_joint",
        "wrist_3_joint"
    ],
    "metrics": {
        "cart_traj_len": 0.6769480887002705,
        "distance_elbow_joint": 0.044718355787701114,
        "distance_shoulder_lift_joint": 0.5433988135166288,
        "distance_shoulder_pan_joint": 1.058225754795514,
        "distance_wrist_1_joint": 0.5540666961762515,
        "distance_wrist_2_joint": 1.1344354390135012,
        "distance_wrist_3_joint": 0.22936921079628814,
        "smoothness": 0.9672306386931621,
        "time": 5.011701496000001,
        "traj_len": 1.8879126754396998,
        "weighted_distance": 2.38986502272999
    },
    "planner": "LazyPRMstar",
    "start": {
        "state": {
            "elbow_joint": 2.4225746658250005,
            "shoulder_lift_joint": -1.3736534386056498,
            "shoulder_pan_joint": -0.3378633547517467,
            "wrist_1_joint": -1.0288598680537169,
            "wrist_2_joint": 1.233022673432363,
            "wrist_3_joint": -3.0940220416140027
        }
    },
    "waypoints": [
        {
            "positions": [
                -0.3378633547517467,
                -1.3736534386056498,
                2.4225746658250005,
                -1.0288598680537169,
                1.233022673432363,
                -3.0940220416140027
            ]
        },
        {
            "positions": [
                -0.18598530967245094,
                -1.449576510103581,
                2.424309292862145,
                -0.9617705722011215,
                1.2931776971130895,
                -3.1216394529996827
            ]
        },
        {
            "positions": [
                -0.03410726459315516,
                -1.525499581601512,
                2.426043919899289,
                -0.8946812763485261,
                1.353332720793816,
                -3.149256864385363
            ]
        },
        {
            "positions": [
                0.11777078048614054,
                -1.601422653099443,
                2.427778546936434,
                -0.8275919804959309,
                1.4134877444745424,
                -3.176874275771043
            ]
        },
        {
            "positions": [
                0.2696488255654364,
                -1.6773457245973742,
                2.4295131739735782,
                -0.7605026846433354,
                1.4736427681552688,
                -3.2044916871567235
            ]
        },
        {
            "positions": [
                0.42152687064473204,
                -1.7532687960953053,
                2.4312478010107226,
                -0.6934133887907401,
                1.5337977918359953,
                -3.2321090985424035
            ]
        },
        {
            "positions": [
                0.4939954660041167,
                -1.793277300447996,
                2.4227139634324506,
                -0.6388569668811924,
                1.3371478306886697,
                -3.211334794987514
            ]
        },
        {
            "positions": [
                0.5664640613635012,
                -1.8332858048006866,
                2.4141801258541786,
                -0.5843005449716449,
                1.1404978695413441,
                -3.190560491432624
            ]
        },
        {
            "positions": [
                0.6389326567228859,
                -1.8732943091533771,
                2.405646288275906,
                -0.5297441230620972,
                0.9438479083940188,
                -3.1697861878777345
            ]
        },
        {
            "positions": [
                0.7114012520822706,
                -1.913302813506068,
                2.3971124506976342,
                -0.47518770115254955,
                0.7471979472466932,
                -3.149011884322845
            ]
        },
        {
            "positions": [
                0.7024401041207737,
                -1.9095533748898572,
                2.3952025804087436,
                -0.4747931718774654,
                0.7001374712261264,
                -3.140826944674516
            ]
        }
    ]
}