{
    "goal": {
        "global_pose": {
            "orientation": {
                "w": 0.7047431468963623,
                "x": -0.7094548344612122,
                "y": 0.0024358443915843964,
                "z": -0.0022348060738295317
            },
            "position": {
                "x": 0.6094750761985779,
                "y": 0.3671506643295288,
                "z": 0.19426114857196808
            }
        },
        "name": "move_to_magneteinheit_A"
    },
    "id": "LazyPRMstar_move_to_magneteinheit_A_60",
    "joint_names": [
        "shoulder_pan_joint",
        "shoulder_lift_joint",
        "elbow_joint",
        "wrist_1_joint",
        "wrist_2_joint",
        "wrist_3_joint"
    ],
    "metrics": {
        "cart_traj_len": 3.2408630806986545,
        "distance_elbow_joint": 3.9113081064877218,
        "distance_shoulder_lift_joint": 0.9082240992081076,
        "distance_shoulder_pan_joint": 2.587476683340654,
        "distance_wrist_1_joint": 3.4591465821536387,
        "distance_wrist_2_joint": 1.440852857387986,
        "distance_wrist_3_joint": 0.42184278828622995,
        "smoothness": 0.08039913070140885,
        "time": 5.040308201,
        "traj_len": 3.5677515492063536,
        "weighted_distance": 4.29796883806507
    },
    "planner": "LazyPRMstar",
    "start": {
        "state": {
            "elbow_joint": -1.9196185241190666,
            "shoulder_lift_joint": -1.2443396400964142,
            "shoulder_pan_joint": 2.6996025414629847,
            "wrist_1_joint": -1.5485510000780065,
            "wrist_2_joint": -1.5709468930060704,
            "wrist_3_joint": 0.4420197071253992
        }
    },
    "waypoints": [
        {
            "positions": [
                2.6996025414629847,
                -1.2443396400964142,
                -1.9196185241190666,
                -1.5485510000780065,
                -1.5709468930060704,
                0.4420197071253992
            ]
        },
        {
            "positions": [
                2.5859204331657506,
                -1.2246388878603731,
                -1.8148642189306061,
                -1.444896212532541,
                -1.5372971893327052,
                0.42835556071992825
            ]
        },
        {
            "positions": [
                2.472238324868517,
                -1.2049381356243323,
                -1.7101099137421458,
                -1.3412414249870757,
                -1.5036474856593398,
                0.4146914143144574
            ]
        },
        {
            "positions": [
                2.358556216571283,
                -1.1852373833882912,
                -1.6053556085536855,
                -1.2375866374416105,
                -1.4699977819859744,
                0.40102726790898646
            ]
        },
        {
            "positions": [
                2.2448741082740487,
                -1.1655366311522504,
                -1.500601303365225,
                -1.133931849896145,
                -1.4363480783126092,
                0.3873631215035156
            ]
        },
        {
            "positions": [
                2.1311919999768145,
                -1.1458358789162093,
                -1.3958469981767645,
                -1.0302770623506796,
                -1.4026983746392439,
                0.37369897509804467
            ]
        },
        {
            "positions": [
                2.017509891679581,
                -1.1261351266801685,
                -1.2910926929883042,
                -0.9266222748052143,
                -1.3690486709658787,
                0.3600348286925738
            ]
        },
        {
            "positions": [
                1.9038277833823467,
                -1.1064343744441274,
                -1.186338387799844,
                -0.8229674872597489,
                -1.3353989672925133,
                0.3463706822871029
            ]
        },
        {
            "positions": [
                1.7901456750851128,
                -1.0867336222080866,
                -1.0815840826113834,
                -0.7193126997142835,
                -1.3017492636191481,
                0.332706535881632
            ]
        },
        {
            "positions": [
                1.6764635667878787,
                -1.0670328699720455,
                -0.976829777422923,
                -0.6156579121688182,
                -1.2680995599457827,
                0.3190423894761611
            ]
        },
        {
            "positions": [
                1.5627814584906448,
                -1.0473321177360047,
                -0.8720754722344626,
                -0.5120031246233527,
                -1.2344498562724175,
                0.30537824307069017
            ]
        },
        {
            "positions": [
                1.4490993501934106,
                -1.0276313654999636,
                -0.7673211670460021,
                -0.4083483370778873,
                -1.2008001525990522,
                0.2917140966652193
            ]
        },
        {
            "positions": [
                1.3354172418961767,
                -1.0079306132639227,
                -0.6625668618575418,
                -0.3046935495324221,
                -1.167150448925687,
                0.27804995025974844
            ]
        },
        {
            "positions": [
                1.2217351335989426,
                -0.9882298610278817,
                -0.5578125566690812,
                -0.20103876198695647,
                -1.1335007452523216,
                0.26438580385427746
            ]
        },
        {
            "positions": [
                1.1080530253017087,
                -0.9685291087918408,
                -0.45305825148062095,
                -0.09738397444149127,
                -1.0998510415789564,
                0.2507216574488066
            ]
        },
        {
            "positions": [
                0.9943709170044746,
                -0.9488283565557998,
                -0.34830394629216044,
                0.006270813103974149,
                -1.066201337905591,
                0.2370575110433357
            ]
        },
        {
            "positions": [
                0.8806888087072409,
                -0.9291276043197589,
                -0.24354964110370014,
                0.10992560064943957,
                -1.0325516342322258,
                0.2233933646378648
            ]
        },
        {
            "positions": [
                0.7670067004100067,
                -0.9094268520837179,
                -0.13879533591523963,
                0.213580388194905,
                -0.9989019305588605,
                0.20972921823239388
            ]
        },
        {
            "positions": [
                0.6533245921127726,
                -0.889726099847677,
                -0.03404103072677933,
                0.3172351757403702,
                -0.9652522268854952,
                0.196065071826923
            ]
        },
        {
            "positions": [
                0.5396424838155385,
                -0.870025347611636,
                0.07071327446168119,
                0.4208899632858356,
                -0.9316025232121299,
                0.1824009254214521
            ]
        },
        {
            "positions": [
                0.4259603755183048,
                -0.850324595375595,
                0.17546757965014148,
                0.524544750831301,
                -0.8979528195387646,
                0.16873677901598122
            ]
        },
        {
            "positions": [
                0.3122782672210709,
                -0.8306238431395541,
                0.2802218848386022,
                0.6281995383767665,
                -0.8643031158653993,
                0.15507263261051032
            ]
        },
        {
            "positions": [
                0.2732008862739872,
                -0.7757344271634686,
                0.40112607964768243,
                0.7477305828324217,
                -0.8062226049703857,
                0.1540358273223787
            ]
        },
        {
            "positions": [
                0.23412350532690346,
                -0.7208450111873833,
                0.5220302744567626,
                0.8672616272880769,
                -0.748142094075372,
                0.1529990220342471
            ]
        },
        {
            "positions": [
                0.19504612437981975,
                -0.6659555952112979,
                0.6429344692658427,
                0.9867926717437321,
                -0.6900615831803584,
                0.15196221674611546
            ]
        },
        {
            "positions": [
                0.15596874343273603,
                -0.6110661792352126,
                0.7638386640749231,
                1.1063237161993873,
                -0.6319810722853447,
                0.15092541145798385
            ]
        },
        {
            "positions": [
                0.11689136248565232,
                -0.5561767632591271,
                0.8847428588840032,
                1.2258547606550425,
                -0.5739005613903311,
                0.14988860616985222
            ]
        },
        {
            "positions": [
                0.1175721488232696,
                -0.5876140807406729,
                1.0428781050960962,
                1.323674878000841,
                -0.5104996291371531,
                0.13135836512261181
            ]
        },
        {
            "positions": [
                0.11825293516088689,
                -0.6190513982222188,
                1.2010133513081893,
                1.4214949953466394,
                -0.44709869688397497,
                0.1128281240753714
            ]
        },
        {
            "positions": [
                0.11893372149850417,
                -0.6504887157037645,
                1.3591485975202824,
                1.5193151126924378,
                -0.3836977646307969,
                0.094297883028131
            ]
        },
        {
            "positions": [
                0.11961450783612146,
                -0.6819260331853103,
                1.5172838437323755,
                1.6171352300382362,
                -0.32029683237761886,
                0.07576764198089059
            ]
        },
        {
            "positions": [
                0.12029529417373874,
                -0.7133633506668562,
                1.6754190899444685,
                1.7149553473840347,
                -0.2568959001244408,
                0.05723740093365018
            ]
        },
        {
            "positions": [
                0.12097608051135603,
                -0.7448006681484018,
                1.8335543361565614,
                1.812775464729833,
                -0.19349496787126275,
                0.03870715988640977
            ]
        },
        {
            "positions": [
                0.12165686684897331,
                -0.7762379856299477,
                1.9916895823686545,
                1.9105955820756315,
                -0.1300940356180847,
                0.020176918839169368
            ]
        }
    ]
}