{
    "goal": {
        "global_pose": {
            "orientation": {
                "w": 0.005598929693374612,
                "x": 0.007748599140229565,
                "y": 0.7110244013736278,
                "z": -0.7031023480610252
            },
            "position": {
                "x": 0.1141497679147869,
                "y": -0.7141253447532654,
                "z": 0.3711530566215515
            }
        },
        "name": "move_to_auspresseinheit_B"
    },
    "id": "LazyPRM_move_to_auspresseinheit_B_13",
    "joint_names": [
        "shoulder_pan_joint",
        "shoulder_lift_joint",
        "elbow_joint",
        "wrist_1_joint",
        "wrist_2_joint",
        "wrist_3_joint"
    ],
    "metrics": {
        "cart_traj_len": 0.5651064185612642,
        "distance_elbow_joint": 0.06357948786232215,
        "distance_shoulder_lift_joint": 0.29467412305457397,
        "distance_shoulder_pan_joint": 0.5780830089405504,
        "distance_wrist_1_joint": 0.33151835974253474,
        "distance_wrist_2_joint": 0.9918428070833603,
        "distance_wrist_3_joint": 0.009147918585984183,
        "smoothness": 0.0,
        "time": 0.011732159,
        "traj_len": 1.5062688024616742,
        "weighted_distance": 1.9001322873071729
    },
    "planner": "LazyPRM",
    "start": {
        "state": {
            "elbow_joint": 2.0193083361928714,
            "shoulder_lift_joint": -1.1220246554650708,
            "shoulder_pan_joint": -1.0952077554168747,
            "wrist_1_joint": -0.8559753972642168,
            "wrist_2_joint": 0.4759566250798843,
            "wrist_3_joint": -3.1240929996934557
        }
    },
    "waypoints": [
        {
            "positions": [
                -1.0952077554168747,
                -1.1220246554650708,
                2.0193083361928714,
                -0.8559753972642168,
                0.4759566250798843,
                -3.1240929996934557
            ]
        },
        {
            "positions": [
                -1.1915549235736331,
                -1.1711370093074998,
                2.0087117548824844,
                -0.8007223373071277,
                0.6412637595937777,
                -3.12561765279112
            ]
        },
        {
            "positions": [
                -1.2879020917303914,
                -1.2202493631499287,
                1.9981151735720974,
                -0.7454692773500385,
                0.806570894107671,
                -3.1271423058887837
            ]
        },
        {
            "positions": [
                -1.3842492598871499,
                -1.269361716992358,
                1.9875185922617105,
                -0.6902162173929494,
                0.9718780286215645,
                -3.1286669589864475
            ]
        },
        {
            "positions": [
                -1.4805964280439081,
                -1.3184740708347868,
                1.9769220109513232,
                -0.6349631574358603,
                1.1371851631354577,
                -3.130191612084112
            ]
        },
        {
            "positions": [
                -1.5769435962006666,
                -1.3675864246772158,
                1.9663254296409363,
                -0.5797100974787712,
                1.3024922976493511,
                -3.131716265181776
            ]
        },
        {
            "positions": [
                -1.673290764357425,
                -1.4166987785196448,
                1.9557288483305493,
                -0.524457037521682,
                1.4677994321632446,
                -3.13324091827944
            ]
        }
    ]
}