{
    "goal": {
        "global_pose": {
            "orientation": {
                "w": 0.7047431468963623,
                "x": -0.7094548344612122,
                "y": 0.0024358443915843964,
                "z": -0.0022348060738295317
            },
            "position": {
                "x": 0.6094750761985779,
                "y": 0.3671506643295288,
                "z": 0.19426114857196808
            }
        },
        "name": "move_to_magneteinheit_A"
    },
    "id": "LazyPRMstar_move_to_magneteinheit_A_97",
    "joint_names": [
        "shoulder_pan_joint",
        "shoulder_lift_joint",
        "elbow_joint",
        "wrist_1_joint",
        "wrist_2_joint",
        "wrist_3_joint"
    ],
    "metrics": {
        "cart_traj_len": 3.2956692679000894,
        "distance_elbow_joint": 3.8816183382700657,
        "distance_shoulder_lift_joint": 0.11123569424953517,
        "distance_shoulder_pan_joint": 2.584405692364549,
        "distance_wrist_1_joint": 0.807127197376477,
        "distance_wrist_2_joint": 1.6918715553441053,
        "distance_wrist_3_joint": 3.1057433660905813,
        "smoothness": 0.017759786306701535,
        "time": 5.032202175,
        "traj_len": 3.4902724598081614,
        "weighted_distance": 4.570830048098163
    },
    "planner": "LazyPRMstar",
    "start": {
        "state": {
            "elbow_joint": -1.9196185241190666,
            "shoulder_lift_joint": -1.2443396400964142,
            "shoulder_pan_joint": 2.6996025414629847,
            "wrist_1_joint": -1.5485510000780065,
            "wrist_2_joint": -1.5709468930060704,
            "wrist_3_joint": 0.4420197071253992
        }
    },
    "waypoints": [
        {
            "positions": [
                2.6996025414629847,
                -1.2443396400964142,
                -1.9196185241190666,
                -1.5485510000780065,
                -1.5709468930060704,
                0.4420197071253992
            ]
        },
        {
            "positions": [
                2.5946261338504,
                -1.2433916617075957,
                -1.8032639904144125,
                -1.5226500294492458,
                -1.5474094304442652,
                0.5610396721830546
            ]
        },
        {
            "positions": [
                2.4896497262378157,
                -1.2424436833187773,
                -1.6869094567097582,
                -1.496749058820485,
                -1.52387196788246,
                0.6800596372407102
            ]
        },
        {
            "positions": [
                2.384673318625231,
                -1.2414957049299589,
                -1.5705549230051041,
                -1.4708480881917243,
                -1.5003345053206547,
                0.7990796022983656
            ]
        },
        {
            "positions": [
                2.279696911012646,
                -1.2405477265411404,
                -1.45420038930045,
                -1.4449471175629633,
                -1.4767970427588495,
                0.918099567356021
            ]
        },
        {
            "positions": [
                2.174720503400062,
                -1.239599748152322,
                -1.3378458555957957,
                -1.4190461469342026,
                -1.4532595801970443,
                1.0371195324136766
            ]
        },
        {
            "positions": [
                2.069744095787477,
                -1.2386517697635036,
                -1.2214913218911416,
                -1.3931451763054419,
                -1.429722117635239,
                1.1561394974713322
            ]
        },
        {
            "positions": [
                1.9647676881748923,
                -1.2377037913746853,
                -1.1051367881864875,
                -1.3672442056766811,
                -1.4061846550734338,
                1.2751594625289875
            ]
        },
        {
            "positions": [
                1.859791280562308,
                -1.236755812985867,
                -0.9887822544818333,
                -1.3413432350479204,
                -1.3826471925116286,
                1.3941794275866428
            ]
        },
        {
            "positions": [
                1.7548148729497233,
                -1.2358078345970485,
                -0.8724277207771791,
                -1.3154422644191595,
                -1.3591097299498234,
                1.5131993926442986
            ]
        },
        {
            "positions": [
                1.6498384653371385,
                -1.23485985620823,
                -0.7560731870725248,
                -1.2895412937903987,
                -1.3355722673880182,
                1.632219357701954
            ]
        },
        {
            "positions": [
                1.5448620577245542,
                -1.2339118778194116,
                -0.6397186533678709,
                -1.263640323161638,
                -1.312034804826213,
                1.7512393227596093
            ]
        },
        {
            "positions": [
                1.4398856501119695,
                -1.2329638994305931,
                -0.5233641196632166,
                -1.2377393525328773,
                -1.2884973422644077,
                1.870259287817265
            ]
        },
        {
            "positions": [
                1.334909242499385,
                -1.2320159210417747,
                -0.4070095859585625,
                -1.2118383819041165,
                -1.2649598797026025,
                1.9892792528749204
            ]
        },
        {
            "positions": [
                1.2299328348868002,
                -1.2310679426529563,
                -0.2906550522539082,
                -1.1859374112753556,
                -1.2414224171407973,
                2.108299217932576
            ]
        },
        {
            "positions": [
                1.1249564272742156,
                -1.2301199642641378,
                -0.1743005185492541,
                -1.160036440646595,
                -1.217884954578992,
                2.2273191829902315
            ]
        },
        {
            "positions": [
                1.019980019661631,
                -1.2291719858753194,
                -0.05794598484460001,
                -1.134135470017834,
                -1.1943474920171868,
                2.346339148047887
            ]
        },
        {
            "positions": [
                0.9150036120490463,
                -1.228224007486501,
                0.05840854886005431,
                -1.1082344993890734,
                -1.1708100294553816,
                2.4653591131055426
            ]
        },
        {
            "positions": [
                0.8100272044364618,
                -1.2272760290976827,
                0.1747630825647084,
                -1.0823335287603126,
                -1.1472725668935764,
                2.584379078163198
            ]
        },
        {
            "positions": [
                0.7050507968238773,
                -1.2263280507088643,
                0.2911176162693625,
                -1.056432558131552,
                -1.1237351043317712,
                2.7033990432208532
            ]
        },
        {
            "positions": [
                0.6000743892112923,
                -1.2253800723200459,
                0.40747214997401704,
                -1.0305315875027912,
                -1.100197641769966,
                2.822419008278509
            ]
        },
        {
            "positions": [
                0.495097981598708,
                -1.2244320939312274,
                0.5238266836786711,
                -1.0046306168740302,
                -1.0766601792081607,
                2.9414389733361643
            ]
        },
        {
            "positions": [
                0.3901215739861237,
                -1.223484115542409,
                0.6401812173833248,
                -0.9787296462452696,
                -1.0531227166463555,
                3.0604589383938197
            ]
        },
        {
            "positions": [
                0.2851451663735385,
                -1.2225361371535906,
                0.7565357510879793,
                -0.9528286756165087,
                -1.0295852540845503,
                3.1794789034514754
            ]
        },
        {
            "positions": [
                0.18016875876095395,
                -1.2215881587647721,
                0.8728902847926334,
                -0.926927704987748,
                -1.006047791522745,
                3.2984988685091308
            ]
        },
        {
            "positions": [
                0.16246076401029497,
                -1.2089736572882535,
                0.9263051967131688,
                -0.911338158212039,
                -0.9903795587721484,
                3.300891276766923
            ]
        },
        {
            "positions": [
                0.15376520667287885,
                -1.1946234225366918,
                1.0806795984768685,
                -0.8838475033530816,
                -0.8379869076331161,
                3.267595000082593
            ]
        },
        {
            "positions": [
                0.14506964933546274,
                -1.18027318778513,
                1.2350540002405679,
                -0.8563568484941243,
                -0.6855942564940838,
                3.2342987233982634
            ]
        },
        {
            "positions": [
                0.1363740919980466,
                -1.1659229530335684,
                1.3894284020042675,
                -0.8288661936351669,
                -0.5332016053550517,
                3.2010024467139333
            ]
        },
        {
            "positions": [
                0.12767853466063048,
                -1.1515727182820066,
                1.5438028037679672,
                -0.8013755387762096,
                -0.38080895421601924,
                3.1677061700296036
            ]
        },
        {
            "positions": [
                0.11898297732321436,
                -1.137222483530445,
                1.6981772055316666,
                -0.7738848839172522,
                -0.22841630307698696,
                3.1344098933452735
            ]
        },
        {
            "positions": [
                0.1208760414356041,
                -1.1351632146886619,
                1.830088509841333,
                -0.7576543433093909,
                -0.05374582036947595,
                3.0942146868315694
            ]
        },
        {
            "positions": [
                0.12276910554799382,
                -1.133103945846879,
                1.9619998141509998,
                -0.7414238027015295,
                0.12092466233803507,
                3.0540194803178657
            ]
        }
    ]
}