{
    "goal": {
        "global_pose": {
            "orientation": {
                "w": -0.00223480608172531,
                "x": 0.0024358444001904467,
                "y": 0.7094548369677653,
                "z": -0.704743149386269
            },
            "position": {
                "x": -0.37947507619857795,
                "y": -0.6371506643295288,
                "z": 0.19426114857196808
            }
        },
        "name": "move_to_magneteinheit_C"
    },
    "id": "LazyPRM_move_to_magneteinheit_C_62",
    "joint_names": [
        "shoulder_pan_joint",
        "shoulder_lift_joint",
        "elbow_joint",
        "wrist_1_joint",
        "wrist_2_joint",
        "wrist_3_joint"
    ],
    "metrics": {
        "cart_traj_len": 6.076504360483061,
        "distance_elbow_joint": 1.0463362778157106,
        "distance_shoulder_lift_joint": 2.490269830231729,
        "distance_shoulder_pan_joint": 8.850443673845971,
        "distance_wrist_1_joint": 2.3236302172375196,
        "distance_wrist_2_joint": 1.5163173246597732,
        "distance_wrist_3_joint": 4.913429461233276,
        "smoothness": 0.6373944590071937,
        "time": 2.989765321,
        "traj_len": 4.597871984410177,
        "weighted_distance": 5.89976552494994
    },
    "planner": "LazyPRM",
    "start": {
        "state": {
            "elbow_joint": 1.9565354010623817,
            "shoulder_lift_joint": -1.4165861575791021,
            "shoulder_pan_joint": -1.6717766225146293,
            "wrist_1_joint": -0.5286633292919765,
            "wrist_2_joint": 1.472756589071564,
            "wrist_3_joint": -3.1238370188695823
        }
    },
    "waypoints": [
        {
            "positions": [
                -1.6717766225146293,
                -1.4165861575791021,
                1.9565354010623817,
                -0.5286633292919765,
                1.472756589071564,
                -3.1238370188695823
            ]
        },
        {
            "positions": [
                -1.5170047284552513,
                -1.459638665316023,
                1.937544013189406,
                -0.4902624709257888,
                1.428168155395997,
                -3.029749695640797
            ]
        },
        {
            "positions": [
                -1.3622328343958734,
                -1.5026911730529438,
                1.9185526253164304,
                -0.45186161255960117,
                1.3835797217204302,
                -2.935662372412012
            ]
        },
        {
            "positions": [
                -1.207460940336495,
                -1.5457436807898646,
                1.8995612374434547,
                -0.4134607541934135,
                1.3389912880448633,
                -2.8415750491832275
            ]
        },
        {
            "positions": [
                -1.0526890462771172,
                -1.5887961885267854,
                1.8805698495704792,
                -0.3750598958272259,
                1.2944028543692967,
                -2.7474877259544424
            ]
        },
        {
            "positions": [
                -0.8979171522177392,
                -1.6318486962637062,
                1.8615784616975035,
                -0.3366590374610382,
                1.2498144206937298,
                -2.6534004027256572
            ]
        },
        {
            "positions": [
                -0.7431452581583611,
                -1.674901204000627,
                1.8425870738245278,
                -0.29825817909485053,
                1.205225987018163,
                -2.559313079496872
            ]
        },
        {
            "positions": [
                -0.5883733640989832,
                -1.7179537117375479,
                1.8235956859515523,
                -0.2598573207286629,
                1.160637553342596,
                -2.4652257562680875
            ]
        },
        {
            "positions": [
                -0.43360147003960514,
                -1.761006219474469,
                1.8046042980785766,
                -0.22145646236247524,
                1.1160491196670292,
                -2.3711384330393024
            ]
        },
        {
            "positions": [
                -0.27882957598022706,
                -1.8040587272113895,
                1.785612910205601,
                -0.18305560399628762,
                1.0714606859914624,
                -2.2770511098105173
            ]
        },
        {
            "positions": [
                -0.12405768192084898,
                -1.8471112349483105,
                1.7666215223326254,
                -0.14465474563009995,
                1.0268722523158957,
                -2.182963786581732
            ]
        },
        {
            "positions": [
                0.030714212138528874,
                -1.8901637426852314,
                1.7476301344596497,
                -0.10625388726391233,
                0.9822838186403289,
                -2.088876463352947
            ]
        },
        {
            "positions": [
                0.18548610619790717,
                -1.9332162504221522,
                1.728638746586674,
                -0.06785302889772465,
                0.9376953849647619,
                -1.9947891401241622
            ]
        },
        {
            "positions": [
                0.34025800025728503,
                -1.976268758159073,
                1.7096473587136984,
                -0.029452170531537036,
                0.8931069512891952,
                -1.9007018168953773
            ]
        },
        {
            "positions": [
                0.4950298943166629,
                -2.019321265895994,
                1.690655970840723,
                0.008948687834650637,
                0.8485185176136284,
                -1.8066144936665924
            ]
        },
        {
            "positions": [
                0.6498017883760407,
                -2.0623737736329146,
                1.6716645829677472,
                0.0473495462008382,
                0.8039300839380615,
                -1.7125271704378073
            ]
        },
        {
            "positions": [
                0.804573682435419,
                -2.1054262813698355,
                1.6526731950947715,
                0.08575040456702598,
                0.7593416502624947,
                -1.6184398472090222
            ]
        },
        {
            "positions": [
                0.9593455764947973,
                -2.1484787891067563,
                1.6336818072217958,
                0.12415126293321355,
                0.7147532165869278,
                -1.5243525239802374
            ]
        },
        {
            "positions": [
                1.1141174705541752,
                -2.191531296843677,
                1.6146904193488203,
                0.16255212129940122,
                0.6701647829113611,
                -1.4302652007514522
            ]
        },
        {
            "positions": [
                1.268889364613553,
                -2.234583804580598,
                1.5956990314758448,
                0.20095297966558878,
                0.6255763492357942,
                -1.3361778775226674
            ]
        },
        {
            "positions": [
                1.4236612586729314,
                -2.2776363123175187,
                1.576707643602869,
                0.23935383803177657,
                0.5809879155602273,
                -1.2420905542938823
            ]
        },
        {
            "positions": [
                1.5784331527323092,
                -2.3206888200544395,
                1.5577162557298934,
                0.27775469639796413,
                0.5363994818846605,
                -1.1480032310650974
            ]
        },
        {
            "positions": [
                1.733205046791687,
                -2.3637413277913604,
                1.5387248678569176,
                0.3161555547641518,
                0.4918110482090937,
                -1.0539159078363123
            ]
        },
        {
            "positions": [
                1.8879769408510654,
                -2.406793835528281,
                1.5197334799839421,
                0.35455641313033937,
                0.44722261453352696,
                -0.9598285846075272
            ]
        },
        {
            "positions": [
                2.0427488349104435,
                -2.449846343265202,
                1.5007420921109664,
                0.39295727149652715,
                0.4026341808579599,
                -0.8657412613787421
            ]
        },
        {
            "positions": [
                2.1975207289698213,
                -2.492898851002123,
                1.481750704237991,
                0.4313581298627147,
                0.35804574718239324,
                -0.7716539381499574
            ]
        },
        {
            "positions": [
                2.352292623029199,
                -2.5359513587390436,
                1.4627593163650152,
                0.4697589882289024,
                0.3134573135068264,
                -0.6775666149211723
            ]
        },
        {
            "positions": [
                2.1799221077326942,
                -2.486990479129337,
                1.4824936089763847,
                0.4224301346675938,
                0.32620795811736336,
                -0.7656794383956318
            ]
        },
        {
            "positions": [
                2.007551592436189,
                -2.43802959951963,
                1.502227901587754,
                0.3751012811062852,
                0.3389586027279003,
                -0.8537922618700913
            ]
        },
        {
            "positions": [
                1.8351810771396837,
                -2.3890687199099236,
                1.5219621941991235,
                0.3277724275449766,
                0.3517092473384372,
                -0.9419050853445508
            ]
        },
        {
            "positions": [
                1.6628105618431785,
                -2.3401078403002167,
                1.541696486810493,
                0.28044357398366804,
                0.3644598919489742,
                -1.0300179088190102
            ]
        },
        {
            "positions": [
                1.4904400465466734,
                -2.29114696069051,
                1.5614307794218625,
                0.23311472042235942,
                0.3772105365595112,
                -1.11813073229347
            ]
        },
        {
            "positions": [
                1.3180695312501682,
                -2.2421860810808036,
                1.5811650720332318,
                0.18578586686105086,
                0.38996118117004813,
                -1.2062435557679292
            ]
        },
        {
            "positions": [
                1.145699015953663,
                -2.1932252014710967,
                1.6008993646446013,
                0.13845701329974225,
                0.40271182578058506,
                -1.2943563792423889
            ]
        },
        {
            "positions": [
                0.9733285006571579,
                -2.14426432186139,
                1.6206336572559707,
                0.09112815973843369,
                0.41546247039112205,
                -1.3824692027168484
            ]
        },
        {
            "positions": [
                0.8009579853606525,
                -2.095303442251683,
                1.6403679498673402,
                0.04379930617712502,
                0.42821311500165904,
                -1.470582026191308
            ]
        },
        {
            "positions": [
                0.6285874700641476,
                -2.0463425626419767,
                1.6601022424787095,
                -0.00352954738418354,
                0.44096375961219597,
                -1.5586948496657675
            ]
        },
        {
            "positions": [
                0.45621695476764246,
                -1.99738168303227,
                1.679836535090079,
                -0.0508584009454921,
                0.4537144042227329,
                -1.646807673140227
            ]
        },
        {
            "positions": [
                0.2838464394711373,
                -1.9484208034225632,
                1.6995708277014483,
                -0.09818725450680066,
                0.4664650488332699,
                -1.7349204966146863
            ]
        },
        {
            "positions": [
                0.11147592417463192,
                -1.8994599238128564,
                1.7193051203128178,
                -0.14551610806810933,
                0.4792156934438069,
                -1.823033320089146
            ]
        },
        {
            "positions": [
                -0.06089459112187301,
                -1.8504990442031497,
                1.7390394129241873,
                -0.1928449616294179,
                0.4919663380543438,
                -1.9111461435636055
            ]
        },
        {
            "positions": [
                -0.23326510641837794,
                -1.8015381645934432,
                1.7587737055355568,
                -0.24017381519072645,
                0.5047169826648807,
                -1.999258967038065
            ]
        },
        {
            "positions": [
                -0.4056356217148833,
                -1.7525772849837364,
                1.778507998146926,
                -0.287502668752035,
                0.5174676272754177,
                -2.0873717905125244
            ]
        },
        {
            "positions": [
                -0.5780061370113883,
                -1.7036164053740297,
                1.7982422907582956,
                -0.33483152231334357,
                0.5302182718859547,
                -2.175484613986984
            ]
        },
        {
            "positions": [
                -0.7503766523078941,
                -1.654655525764323,
                1.817976583369665,
                -0.38216037587465235,
                0.5429689164964917,
                -2.263597437461444
            ]
        },
        {
            "positions": [
                -0.922747167604399,
                -1.6056946461546162,
                1.8377108759810346,
                -0.4294892294359609,
                0.5557195611070286,
                -2.351710260935903
            ]
        },
        {
            "positions": [
                -1.095117682900904,
                -1.5567337665449097,
                1.8574451685924038,
                -0.47681808299726947,
                0.5684702057175656,
                -2.4398230844103628
            ]
        },
        {
            "positions": [
                -1.2674881981974089,
                -1.507772886935203,
                1.8771794612037733,
                -0.524146936558578,
                0.5812208503281026,
                -2.527935907884822
            ]
        },
        {
            "positions": [
                -1.4398587134939143,
                -1.4588120073254962,
                1.8969137538151428,
                -0.5714757901198866,
                0.5939714949386394,
                -2.6160487313592817
            ]
        },
        {
            "positions": [
                -1.6122292287904192,
                -1.4098511277157895,
                1.916648046426512,
                -0.6188046436811951,
                0.6067221395491764,
                -2.7041615548337408
            ]
        },
        {
            "positions": [
                -1.7845997440869246,
                -1.360890248106083,
                1.9363823390378816,
                -0.6661334972425037,
                0.6194727841597134,
                -2.7922743783082002
            ]
        },
        {
            "positions": [
                -1.9569702593834304,
                -1.311929368496376,
                1.956116631649251,
                -0.7134623508038125,
                0.6322234287702504,
                -2.88038720178266
            ]
        },
        {
            "positions": [
                -2.1293407746799353,
                -1.2629684888866692,
                1.9758509242606204,
                -0.760791204365121,
                0.6449740733807874,
                -2.9685000252571196
            ]
        },
        {
            "positions": [
                -2.3017112899764403,
                -1.2140076092769627,
                1.9955852168719899,
                -0.8081200579264296,
                0.6577247179913244,
                -3.056612848731579
            ]
        },
        {
            "positions": [
                -2.474081805272945,
                -1.165046729667256,
                2.0153195094833594,
                -0.855448911487738,
                0.6704753626018612,
                -3.1447256722060386
            ]
        }
    ]
}