{
    "goal": {
        "global_pose": {
            "orientation": {
                "w": -0.4816463035849501,
                "x": 0.5182115481033762,
                "y": 0.4908360881923453,
                "z": -0.5084816262002911
            },
            "position": {
                "x": -0.8240239810943604,
                "y": 0.19912469901144506,
                "z": 0.16403168439865112
            }
        },
        "name": "move_to_storage_D"
    },
    "id": "LazyPRMstar_move_to_storage_D_104",
    "joint_names": [
        "shoulder_pan_joint",
        "shoulder_lift_joint",
        "elbow_joint",
        "wrist_1_joint",
        "wrist_2_joint",
        "wrist_3_joint"
    ],
    "metrics": {
        "cart_traj_len": 4.017913773133777,
        "distance_elbow_joint": 4.339107488685178,
        "distance_shoulder_lift_joint": 1.2639635389171129,
        "distance_shoulder_pan_joint": 2.8125576831861787,
        "distance_wrist_1_joint": 2.2647773811891683,
        "distance_wrist_2_joint": 0.8705624419011265,
        "distance_wrist_3_joint": 3.1346338573559085,
        "smoothness": 0.08664516041547604,
        "time": 5.035608829,
        "traj_len": 3.832179848498068,
        "weighted_distance": 4.9081778624084915
    },
    "planner": "LazyPRMstar",
    "start": {
        "state": {
            "elbow_joint": -2.384821988534728,
            "shoulder_lift_joint": -2.2788054721415256,
            "shoulder_pan_joint": -0.1854694642142757,
            "wrist_1_joint": 1.4845938289331202,
            "wrist_2_joint": 0.17898776772866878,
            "wrist_3_joint": 0.037105688729662994
        }
    },
    "waypoints": [
        {
            "positions": [
                -0.1854694642142757,
                -2.2788054721415256,
                -2.384821988534728,
                1.4845938289331202,
                0.17898776772866878,
                0.037105688729662994
            ]
        },
        {
            "positions": [
                -0.15789091732624078,
                -2.2244809010913253,
                -2.4174160047949327,
                1.4152772763827555,
                0.17925976488124196,
                0.10748249130356907
            ]
        },
        {
            "positions": [
                -0.13031237043820582,
                -2.170156330041125,
                -2.450010021055137,
                1.345960723832391,
                0.17953176203381516,
                0.17785929387747515
            ]
        },
        {
            "positions": [
                -0.04375334567283999,
                -2.125328522389162,
                -2.3952023736177908,
                1.254358934943579,
                0.19547152487743819,
                0.27168595045863414
            ]
        },
        {
            "positions": [
                0.042805679092525833,
                -2.0805007147371986,
                -2.340394726180444,
                1.162757146054767,
                0.2114112877210612,
                0.3655126070397931
            ]
        },
        {
            "positions": [
                0.12936470385789167,
                -2.0356729070852353,
                -2.285587078743098,
                1.0711553571659551,
                0.22735105056468422,
                0.4593392636209521
            ]
        },
        {
            "positions": [
                0.21592372862325748,
                -1.9908450994332718,
                -2.230779431305751,
                0.9795535682771432,
                0.24329081340830722,
                0.5531659202021111
            ]
        },
        {
            "positions": [
                0.30248275338862335,
                -1.9460172917813083,
                -2.175971783868405,
                0.8879517793883313,
                0.25923057625193024,
                0.64699257678327
            ]
        },
        {
            "positions": [
                0.38904177815398916,
                -1.901189484129345,
                -2.1211641364310583,
                0.7963499904995193,
                0.2751703390955533,
                0.740819233364429
            ]
        },
        {
            "positions": [
                0.47560080291935497,
                -1.8563616764773818,
                -2.066356488993712,
                0.7047482016107074,
                0.2911101019391763,
                0.834645889945588
            ]
        },
        {
            "positions": [
                0.5621598276847208,
                -1.8115338688254186,
                -2.0115488415563654,
                0.6131464127218954,
                0.3070498647827993,
                0.9284725465267469
            ]
        },
        {
            "positions": [
                0.6487188524500866,
                -1.766706061173455,
                -1.9567411941190191,
                0.5215446238330835,
                0.32298962762642236,
                1.022299203107906
            ]
        },
        {
            "positions": [
                0.7352778772154525,
                -1.7218782535214918,
                -1.9019335466816725,
                0.42994283494427155,
                0.33892939047004533,
                1.116125859689065
            ]
        },
        {
            "positions": [
                0.8218369019808185,
                -1.6770504458695283,
                -1.8471258992443262,
                0.33834104605545945,
                0.3548691533136684,
                1.209952516270224
            ]
        },
        {
            "positions": [
                0.9083959267461841,
                -1.632222638217565,
                -1.7923182518069798,
                0.24673925716664757,
                0.3708089161572914,
                1.303779172851383
            ]
        },
        {
            "positions": [
                0.9949549515115499,
                -1.5873948305656018,
                -1.7375106043696333,
                0.1551374682778357,
                0.3867486790009144,
                1.3976058294325422
            ]
        },
        {
            "positions": [
                1.0815139762769157,
                -1.5425670229136386,
                -1.6827029569322869,
                0.06353567938902382,
                0.40268844184453745,
                1.491432486013701
            ]
        },
        {
            "positions": [
                1.1680730010422817,
                -1.497739215261675,
                -1.6278953094949404,
                -0.028066109499788272,
                0.4186282046881604,
                1.5852591425948601
            ]
        },
        {
            "positions": [
                1.2546320258076473,
                -1.4529114076097118,
                -1.573087662057594,
                -0.11966789838860015,
                0.43456796753178345,
                1.6790857991760189
            ]
        },
        {
            "positions": [
                1.3411910505730134,
                -1.4080835999577483,
                -1.5182800146202475,
                -0.21126968727741202,
                0.4505077303754065,
                1.772912455757178
            ]
        },
        {
            "positions": [
                1.4277500753383792,
                -1.363255792305785,
                -1.463472367182901,
                -0.3028714761662239,
                0.4664474932190295,
                1.8667391123383368
            ]
        },
        {
            "positions": [
                1.514309100103745,
                -1.3184279846538218,
                -1.4086647197455546,
                -0.3944732650550361,
                0.48238725606265254,
                1.960565768919496
            ]
        },
        {
            "positions": [
                1.576130162263087,
                -1.3015620929077436,
                -1.2290772666980443,
                -0.41590161434398126,
                0.513896309038605,
                2.027853200984278
            ]
        },
        {
            "positions": [
                1.6379512244224292,
                -1.2846962011616652,
                -1.049489813650534,
                -0.4373299636329265,
                0.5454053620145572,
                2.09514063304906
            ]
        },
        {
            "positions": [
                1.6997722865817715,
                -1.267830309415587,
                -0.8699023606030236,
                -0.45875831292187164,
                0.5769144149905097,
                2.1624280651138417
            ]
        },
        {
            "positions": [
                1.7615933487411135,
                -1.2509644176695087,
                -0.6903149075555132,
                -0.48018666221081685,
                0.608423467966462,
                2.2297154971786237
            ]
        },
        {
            "positions": [
                1.8234144109004555,
                -1.2340985259234305,
                -0.5107274545080028,
                -0.5016150114997621,
                0.6399325209424145,
                2.2970029292434058
            ]
        },
        {
            "positions": [
                1.8852354730597978,
                -1.217232634177352,
                -0.3311400014604926,
                -0.5230433607887072,
                0.6714415739183668,
                2.364290361308188
            ]
        },
        {
            "positions": [
                1.94705653521914,
                -1.2003667424312738,
                -0.15155254841298205,
                -0.5444717100776524,
                0.7029506268943192,
                2.43157779337297
            ]
        },
        {
            "positions": [
                2.008877597378482,
                -1.1835008506851956,
                0.02803490463452829,
                -0.5659000593665976,
                0.7344596798702715,
                2.4988652254377515
            ]
        },
        {
            "positions": [
                2.070698659537824,
                -1.1666349589391172,
                0.20762235768203863,
                -0.5873284086555428,
                0.7659687328462239,
                2.566152657502534
            ]
        },
        {
            "positions": [
                2.1325197216971663,
                -1.149769067193039,
                0.38720981072954896,
                -0.6087567579444879,
                0.7974777858221763,
                2.6334400895673156
            ]
        },
        {
            "positions": [
                2.1943407838565085,
                -1.1329031754469607,
                0.5667972637770595,
                -0.6301851072334331,
                0.8289868387981287,
                2.7007275216320976
            ]
        },
        {
            "positions": [
                2.256161846015851,
                -1.1160372837008825,
                0.7463847168245694,
                -0.6516134565223783,
                0.860495891774081,
                2.7680149536968797
            ]
        },
        {
            "positions": [
                2.3179829081751926,
                -1.099171391954804,
                0.9259721698720802,
                -0.6730418058113234,
                0.8920049447500333,
                2.8353023857616617
            ]
        },
        {
            "positions": [
                2.379803970334535,
                -1.0823055002087258,
                1.1055596229195905,
                -0.6944701551002687,
                0.9235139977259859,
                2.9025898178264438
            ]
        },
        {
            "positions": [
                2.441625032493877,
                -1.0654396084626476,
                1.2851470759671009,
                -0.7158985043892139,
                0.9550230507019382,
                2.9698772498912254
            ]
        },
        {
            "positions": [
                2.503446094653219,
                -1.0485737167165694,
                1.4647345290146112,
                -0.737326853678159,
                0.9865321036778905,
                3.0371646819560074
            ]
        },
        {
            "positions": [
                2.565267156812561,
                -1.031707824970491,
                1.6443219820621215,
                -0.7587552029671042,
                1.018041156653843,
                3.1044521140207895
            ]
        },
        {
            "positions": [
                2.6270882189719034,
                -1.0148419332244127,
                1.8239094351096319,
                -0.7801835522560494,
                1.0495502096297953,
                3.1717395460855715
            ]
        }
    ]
}