{
    "goal": {
        "global_pose": {
            "orientation": {
                "w": 0.7047431493862688,
                "x": -0.7094548369677653,
                "y": 0.0024358444001904,
                "z": -0.0022348060817251984
            },
            "position": {
                "x": -0.39052492380142206,
                "y": 0.3671506643295288,
                "z": 0.19426114857196808
            }
        },
        "name": "move_to_magneteinheit_D"
    },
    "id": "LazyPRMstar_move_to_magneteinheit_D_19",
    "joint_names": [
        "shoulder_pan_joint",
        "shoulder_lift_joint",
        "elbow_joint",
        "wrist_1_joint",
        "wrist_2_joint",
        "wrist_3_joint"
    ],
    "metrics": {
        "cart_traj_len": 4.2328366168603235,
        "distance_elbow_joint": 3.1019309262356933,
        "distance_shoulder_lift_joint": 1.1025935924728234,
        "distance_shoulder_pan_joint": 3.352461978762701,
        "distance_wrist_1_joint": 2.1595231071978325,
        "distance_wrist_2_joint": 1.2384973074104975,
        "distance_wrist_3_joint": 6.347769741946269,
        "smoothness": 0.16949370579758674,
        "time": 5.033800948,
        "traj_len": 4.159660641690115,
        "weighted_distance": 5.778956354959491
    },
    "planner": "LazyPRMstar",
    "start": {
        "state": {
            "elbow_joint": 0.749534889911806,
            "shoulder_lift_joint": -0.6476975780787326,
            "shoulder_pan_joint": -2.711696901376241,
            "wrist_1_joint": -0.07506478083263063,
            "wrist_2_joint": 0.43296659715538205,
            "wrist_3_joint": -3.14703540197715
        }
    },
    "waypoints": [
        {
            "positions": [
                -2.711696901376241,
                -0.6476975780787326,
                0.749534889911806,
                -0.07506478083263063,
                0.43296659715538205,
                -3.14703540197715
            ]
        },
        {
            "positions": [
                -2.7721156229858583,
                -0.685049815769275,
                0.7211913907720611,
                -0.09755579732065106,
                0.4999753376026542,
                -3.006657717843446
            ]
        },
        {
            "positions": [
                -2.8325343445954756,
                -0.7224020534598175,
                0.6928478916323162,
                -0.12004681380867148,
                0.5669840780499263,
                -2.8662800337097423
            ]
        },
        {
            "positions": [
                -2.8929530662050924,
                -0.7597542911503598,
                0.6645043924925712,
                -0.1425378302966919,
                0.6339928184971986,
                -2.7259023495760384
            ]
        },
        {
            "positions": [
                -2.9533717878147097,
                -0.7971065288409022,
                0.6361608933528263,
                -0.16502884678471233,
                0.7010015589444707,
                -2.5855246654423345
            ]
        },
        {
            "positions": [
                -2.8698211810665746,
                -0.8093352906579364,
                0.553759001123051,
                -0.22018756779697204,
                0.7024681156024069,
                -2.4342664681715043
            ]
        },
        {
            "positions": [
                -2.786270574318439,
                -0.8215640524749708,
                0.47135710889327553,
                -0.2753462888092318,
                0.703934672260343,
                -2.283008270900674
            ]
        },
        {
            "positions": [
                -2.702719967570304,
                -0.833792814292005,
                0.3889552166635002,
                -0.3305050098214915,
                0.7054012289182792,
                -2.1317500736298443
            ]
        },
        {
            "positions": [
                -2.619169360822169,
                -0.8460215761090393,
                0.3065533244337248,
                -0.3856637308337512,
                0.7068677855762153,
                -1.980491876359014
            ]
        },
        {
            "positions": [
                -2.5356187540740334,
                -0.8582503379260735,
                0.2241514322039494,
                -0.440822451846011,
                0.7083343422341515,
                -1.8292336790881838
            ]
        },
        {
            "positions": [
                -2.4520681473258983,
                -0.8704790997431079,
                0.14174953997417405,
                -0.4959811728582707,
                0.7098008988920876,
                -1.6779754818173538
            ]
        },
        {
            "positions": [
                -2.368517540577763,
                -0.8827078615601421,
                0.0593476477443986,
                -0.5511398938705304,
                0.7112674555500238,
                -1.5267172845465238
            ]
        },
        {
            "positions": [
                -2.2849669338296277,
                -0.8949366233771764,
                -0.02305424448537674,
                -0.6062986148827901,
                0.71273401220796,
                -1.3754590872756935
            ]
        },
        {
            "positions": [
                -2.2014163270814926,
                -0.9071653851942107,
                -0.1054561367151522,
                -0.6614573358950498,
                0.7142005688658961,
                -1.2242008900048633
            ]
        },
        {
            "positions": [
                -2.1178657203333575,
                -0.919394147011245,
                -0.18785802894492754,
                -0.7166160569073096,
                0.7156671255238323,
                -1.0729426927340333
            ]
        },
        {
            "positions": [
                -2.034315113585222,
                -0.9316229088282793,
                -0.270259921174703,
                -0.7717747779195693,
                0.7171336821817684,
                -0.9216844954632031
            ]
        },
        {
            "positions": [
                -1.950764506837087,
                -0.9438516706453135,
                -0.3526618134044782,
                -0.826933498931829,
                0.7186002388397046,
                -0.7704262981923731
            ]
        },
        {
            "positions": [
                -1.8672139000889516,
                -0.9560804324623479,
                -0.4350637056342538,
                -0.8820922199440887,
                0.7200667954976407,
                -0.6191681009215428
            ]
        },
        {
            "positions": [
                -1.7836632933408165,
                -0.9683091942793821,
                -0.5174655978640291,
                -0.9372509409563484,
                0.7215333521555769,
                -0.46790990365071305
            ]
        },
        {
            "positions": [
                -1.7001126865926812,
                -0.9805379560964165,
                -0.5998674900938045,
                -0.9924096619686081,
                0.7229999088135131,
                -0.3166517063798828
            ]
        },
        {
            "positions": [
                -1.6165620798445461,
                -0.9927667179134507,
                -0.6822693823235798,
                -1.047568382980868,
                0.7244664654714491,
                -0.1653935091090526
            ]
        },
        {
            "positions": [
                -1.533011473096411,
                -1.004995479730485,
                -0.7646712745533552,
                -1.1027271039931275,
                0.7259330221293853,
                -0.014135311838222808
            ]
        },
        {
            "positions": [
                -1.4494608663482755,
                -1.0172242415475192,
                -0.8470731667831307,
                -1.1578858250053874,
                0.7273995787873214,
                0.13712288543260787
            ]
        },
        {
            "positions": [
                -1.3659102596001405,
                -1.0294530033645535,
                -0.9294750590129061,
                -1.213044546017647,
                0.7288661354452576,
                0.28838108270343765
            ]
        },
        {
            "positions": [
                -1.2823596528520051,
                -1.0416817651815877,
                -1.0118769512426815,
                -1.2682032670299068,
                0.7303326921031937,
                0.4396392799742679
            ]
        },
        {
            "positions": [
                -1.19880904610387,
                -1.0539105269986222,
                -1.0942788434724569,
                -1.3233619880421663,
                0.7317992487611299,
                0.5908974772450977
            ]
        },
        {
            "positions": [
                -1.1152584393557345,
                -1.0661392888156564,
                -1.1766807357022322,
                -1.3785207090544263,
                0.733265805419066,
                0.7421556745159283
            ]
        },
        {
            "positions": [
                -1.0317078326075995,
                -1.0783680506326907,
                -1.2590826279320075,
                -1.433679430066686,
                0.7347323620770022,
                0.8934138717867581
            ]
        },
        {
            "positions": [
                -0.9481572258594642,
                -1.090596812449725,
                -1.3414845201617829,
                -1.4888381510789457,
                0.7361989187349384,
                1.0446720690575884
            ]
        },
        {
            "positions": [
                -0.8646066191113291,
                -1.1028255742667592,
                -1.4238864123915582,
                -1.5439968720912052,
                0.7376654753928745,
                1.1959302663284181
            ]
        },
        {
            "positions": [
                -0.7810560123631936,
                -1.1150543360837935,
                -1.506288304621334,
                -1.5991555931034651,
                0.7391320320508107,
                1.3471884635992488
            ]
        },
        {
            "positions": [
                -0.6975054056150585,
                -1.1272830979008277,
                -1.5886901968511093,
                -1.6543143141157248,
                0.7405985887087468,
                1.498446660870079
            ]
        },
        {
            "positions": [
                -0.6139547988669234,
                -1.139511859717862,
                -1.6710920890808847,
                -1.7094730351279845,
                0.742065145366683,
                1.6497048581409084
            ]
        },
        {
            "positions": [
                -0.5304041921187883,
                -1.1517406215348962,
                -1.7534939813106596,
                -1.7646317561402443,
                0.7435317020246192,
                1.8009630554117386
            ]
        },
        {
            "positions": [
                -0.4468535853706528,
                -1.1639693833519307,
                -1.8358958735404354,
                -1.819790477152504,
                0.7449982586825553,
                1.9522212526825689
            ]
        },
        {
            "positions": [
                -0.36330297862251787,
                -1.176198145168965,
                -1.9182977657702107,
                -1.8749491981647637,
                0.7464648153404915,
                2.103479449953399
            ]
        },
        {
            "positions": [
                -0.2616003787721735,
                -1.199191817010289,
                -1.9673177494028309,
                -1.9041055772718654,
                0.7259358915641518,
                2.161208965373936
            ]
        },
        {
            "positions": [
                -0.1598977789218292,
                -1.2221854888516135,
                -2.016337733035451,
                -1.9332619563789673,
                0.7054069677878121,
                2.218938480794473
            ]
        },
        {
            "positions": [
                -0.11108069297671025,
                -1.277691131580604,
                -2.068852583459131,
                -1.9729506402368095,
                0.6214807357602499,
                2.329619560102629
            ]
        },
        {
            "positions": [
                -0.0622636070315913,
                -1.333196774309595,
                -2.1213674338828103,
                -2.0126393240946516,
                0.5375545037326876,
                2.440300639410784
            ]
        },
        {
            "positions": [
                -0.01344652108647236,
                -1.3887024170385855,
                -2.17388228430649,
                -2.052328007952494,
                0.45362827170512543,
                2.5509817187189396
            ]
        },
        {
            "positions": [
                -0.04192349201913828,
                -1.4489672092907473,
                -2.2036345763093896,
                -2.0827046546321553,
                0.3482678474401218,
                2.6592738222606362
            ]
        },
        {
            "positions": [
                -0.07040046295180422,
                -1.509232001542909,
                -2.2333868683122895,
                -2.113081301311817,
                0.24290742317511815,
                2.767565925802333
            ]
        },
        {
            "positions": [
                -0.09887743388447014,
                -1.5694967937950708,
                -2.263139160315189,
                -2.143457947991479,
                0.13754699891011452,
                2.8758580293440295
            ]
        },
        {
            "positions": [
                -0.12735440481713606,
                -1.6297615860472325,
                -2.2928914523180883,
                -2.17383459467114,
                0.03218657464511088,
                2.9841501328857256
            ]
        },
        {
            "positions": [
                -0.155831375749802,
                -1.6900263782993943,
                -2.322643744320988,
                -2.2042112413508015,
                -0.07317384961989282,
                3.092442236427422
            ]
        },
        {
            "positions": [
                -0.1843083466824679,
                -1.750291170551556,
                -2.3523960363238876,
                -2.2345878880304633,
                -0.17853427388489637,
                3.200734339969119
            ]
        }
    ]
}