{
    "goal": {
        "global_pose": {
            "orientation": {
                "w": 0.7047431493862688,
                "x": -0.7094548369677653,
                "y": 0.0024358444001904,
                "z": -0.0022348060817251984
            },
            "position": {
                "x": -0.39052492380142206,
                "y": 0.3671506643295288,
                "z": 0.19426114857196808
            }
        },
        "name": "move_to_magneteinheit_D"
    },
    "id": "LazyPRMstar_move_to_magneteinheit_D_98",
    "joint_names": [
        "shoulder_pan_joint",
        "shoulder_lift_joint",
        "elbow_joint",
        "wrist_1_joint",
        "wrist_2_joint",
        "wrist_3_joint"
    ],
    "metrics": {
        "cart_traj_len": 3.602018887605538,
        "distance_elbow_joint": 3.495726437328251,
        "distance_shoulder_lift_joint": 1.6266521259329918,
        "distance_shoulder_pan_joint": 3.090132033824211,
        "distance_wrist_1_joint": 1.6663772378936244,
        "distance_wrist_2_joint": 0.42864421597757524,
        "distance_wrist_3_joint": 3.240980914859218,
        "smoothness": 0.3009552451272132,
        "time": 5.038031348,
        "traj_len": 3.6808304723004928,
        "weighted_distance": 4.703774680977556
    },
    "planner": "LazyPRMstar",
    "start": {
        "state": {
            "elbow_joint": 0.749534889911806,
            "shoulder_lift_joint": -0.6476975780787326,
            "shoulder_pan_joint": -2.711696901376241,
            "wrist_1_joint": -0.07506478083263063,
            "wrist_2_joint": 0.43296659715538205,
            "wrist_3_joint": -3.14703540197715
        }
    },
    "waypoints": [
        {
            "positions": [
                -2.711696901376241,
                -0.6476975780787326,
                0.749534889911806,
                -0.07506478083263063,
                0.43296659715538205,
                -3.14703540197715
            ]
        },
        {
            "positions": [
                -2.738301081059062,
                -0.6851965862408813,
                0.7921655226778417,
                0.0029336642809742394,
                0.43228374842710826,
                -3.0185981717525587
            ]
        },
        {
            "positions": [
                -2.7409911134673592,
                -0.7274114516658514,
                0.7609240792081269,
                0.11888365587542038,
                0.42317557735457156,
                -2.8555318422960694
            ]
        },
        {
            "positions": [
                -2.743681145875656,
                -0.7696263170908214,
                0.729682635738412,
                0.2348336474698665,
                0.41406740628203487,
                -2.69246551283958
            ]
        },
        {
            "positions": [
                -2.6517809873395475,
                -0.7985457367446297,
                0.6078737258980504,
                0.28727248564683616,
                0.40175692448497313,
                -2.6185192054839246
            ]
        },
        {
            "positions": [
                -2.559880828803439,
                -0.8274651563984381,
                0.48606481605768903,
                0.33971132382380576,
                0.3894464426879114,
                -2.544572898128269
            ]
        },
        {
            "positions": [
                -2.4679806702673304,
                -0.8563845760522464,
                0.3642559062173275,
                0.39215016200077546,
                0.3771359608908497,
                -2.4706265907726137
            ]
        },
        {
            "positions": [
                -2.376080511731222,
                -0.8853039957060548,
                0.24244699637696604,
                0.44458900017774505,
                0.364825479093788,
                -2.3966802834169583
            ]
        },
        {
            "positions": [
                -2.2841803531951133,
                -0.9142234153598631,
                0.12063808653660446,
                0.4970278383547147,
                0.35251499729672625,
                -2.3227339760613024
            ]
        },
        {
            "positions": [
                -2.1922801946590047,
                -0.9431428350136715,
                -0.0011708233037569515,
                0.5494666765316844,
                0.3402045154996645,
                -2.248787668705647
            ]
        },
        {
            "positions": [
                -2.100380036122896,
                -0.9720622546674798,
                -0.12297973314411847,
                0.601905514708654,
                0.3278940337026028,
                -2.1748413613499915
            ]
        },
        {
            "positions": [
                -2.0084798775867876,
                -1.000981674321288,
                -0.2447886429844799,
                0.6543443528856236,
                0.3155835519055411,
                -2.100895053994336
            ]
        },
        {
            "positions": [
                -1.9165797190506793,
                -1.0299010939750963,
                -0.3665975528248414,
                0.7067831910625932,
                0.30327307010847937,
                -2.0269487466386806
            ]
        },
        {
            "positions": [
                -1.8246795605145705,
                -1.0588205136289048,
                -0.48840646266520304,
                0.7592220292395628,
                0.29096258831141764,
                -1.9530024392830252
            ]
        },
        {
            "positions": [
                -1.7327794019784621,
                -1.0877399332827131,
                -0.6102153725055642,
                0.8116608674165324,
                0.2786521065143559,
                -1.8790561319273698
            ]
        },
        {
            "positions": [
                -1.6408792434423536,
                -1.1166593529365214,
                -0.7320242823459259,
                0.8640997055935022,
                0.26634162471729417,
                -1.805109824571714
            ]
        },
        {
            "positions": [
                -1.548979084906245,
                -1.1455787725903297,
                -0.8538331921862873,
                0.9165385437704718,
                0.2540311429202325,
                -1.7311635172160587
            ]
        },
        {
            "positions": [
                -1.4570789263701365,
                -1.1744981922441382,
                -0.9756421020266489,
                0.9689773819474414,
                0.24172066112317073,
                -1.657217209860403
            ]
        },
        {
            "positions": [
                -1.365178767834028,
                -1.2034176118979465,
                -1.0974510118670104,
                1.021416220124411,
                0.22941017932610902,
                -1.5832709025047476
            ]
        },
        {
            "positions": [
                -1.2732786092979196,
                -1.2323370315517548,
                -1.2192599217073719,
                1.0738550583013806,
                0.21709969752904731,
                -1.5093245951490921
            ]
        },
        {
            "positions": [
                -1.1813784507618108,
                -1.261256451205563,
                -1.3410688315477333,
                1.1262938964783504,
                0.20478921573198558,
                -1.4353782877934365
            ]
        },
        {
            "positions": [
                -1.0894782922257025,
                -1.2901758708593714,
                -1.4628777413880947,
                1.17873273465532,
                0.19247873393492387,
                -1.3614319804377812
            ]
        },
        {
            "positions": [
                -0.9975781336895939,
                -1.3190952905131796,
                -1.584686651228456,
                1.2311715728322896,
                0.18016825213786214,
                -1.2874856730821258
            ]
        },
        {
            "positions": [
                -0.9056779751534851,
                -1.3480147101669882,
                -1.706495561068818,
                1.2836104110092592,
                0.1678577703408004,
                -1.2135393657264701
            ]
        },
        {
            "positions": [
                -0.8137778166173768,
                -1.3769341298207967,
                -1.828304470909179,
                1.3360492491862288,
                0.15554728854373867,
                -1.1395930583708147
            ]
        },
        {
            "positions": [
                -0.7218776580812682,
                -1.405853549474605,
                -1.9501133807495403,
                1.3884880873631984,
                0.143236806746677,
                -1.0656467510151593
            ]
        },
        {
            "positions": [
                -0.6299774995451597,
                -1.4347729691284132,
                -2.071922290589902,
                1.4409269255401682,
                0.13092632494961526,
                -0.9917004436595036
            ]
        },
        {
            "positions": [
                -0.5380773410090512,
                -1.4636923887822215,
                -2.1937312004302636,
                1.4933657637171378,
                0.11861584315255351,
                -0.9177541363038482
            ]
        },
        {
            "positions": [
                -0.3874462931576529,
                -1.5267300986882608,
                -2.2776850558834867,
                1.4991486966513905,
                0.1123092255311108,
                -0.8448899060904549
            ]
        },
        {
            "positions": [
                -0.23681524530625458,
                -1.5897678085943,
                -2.36163891133671,
                1.5049316295856432,
                0.10600260790966809,
                -0.7720256758770616
            ]
        },
        {
            "positions": [
                -0.08618419745485628,
                -1.652805518500339,
                -2.445592766789933,
                1.5107145625198957,
                0.09969599028822539,
                -0.6991614456636682
            ]
        },
        {
            "positions": [
                0.06444685039654206,
                -1.7158432284063783,
                -2.529546622243156,
                1.5164974954541484,
                0.09338937266678268,
                -0.626297215450275
            ]
        },
        {
            "positions": [
                0.014442891786022496,
                -1.8275445235274475,
                -2.5032698903149124,
                1.5015345031327791,
                0.11120277096457788,
                -0.48224866978380654
            ]
        },
        {
            "positions": [
                -0.03556106682449707,
                -1.9392458186485166,
                -2.476993158386669,
                1.4865715108114101,
                0.12901616926237308,
                -0.3382001241173381
            ]
        },
        {
            "positions": [
                -0.08556502543501661,
                -2.050947113769586,
                -2.4507164264584254,
                1.471608518490041,
                0.14682956756016827,
                -0.19415157845086967
            ]
        },
        {
            "positions": [
                -0.1355689840455362,
                -2.1626484088906555,
                -2.424439694530182,
                1.456645526168672,
                0.16464296585796345,
                -0.0501030327844012
            ]
        },
        {
            "positions": [
                -0.18557294265605576,
                -2.2743497040117244,
                -2.3981629626019383,
                1.4416825338473027,
                0.18245636415575867,
                0.09394551288206725
            ]
        }
    ]
}