{
    "goal": {
        "global_pose": {
            "orientation": {
                "w": 0.5084816262002911,
                "x": -0.4908360881923452,
                "y": 0.5182115481033761,
                "z": -0.48164630358495003
            },
            "position": {
                "x": 0.5540239810943604,
                "y": -0.46912469901144505,
                "z": 0.16403168439865112
            }
        },
        "name": "move_to_storage_B"
    },
    "id": "LazyPRM_move_to_storage_B_86",
    "joint_names": [
        "shoulder_pan_joint",
        "shoulder_lift_joint",
        "elbow_joint",
        "wrist_1_joint",
        "wrist_2_joint",
        "wrist_3_joint"
    ],
    "metrics": {
        "cart_traj_len": 1.4774971601392834,
        "distance_elbow_joint": 0.34800300460965294,
        "distance_shoulder_lift_joint": 1.632316017562596,
        "distance_shoulder_pan_joint": 0.5111116670311785,
        "distance_wrist_1_joint": 3.061449318096111,
        "distance_wrist_2_joint": 2.7005029237508635,
        "distance_wrist_3_joint": 3.4003053641605088,
        "smoothness": 0.2577616524975404,
        "time": 4.003201387,
        "traj_len": 3.413749887617854,
        "weighted_distance": 4.9210010430174576
    },
    "planner": "LazyPRM",
    "start": {
        "state": {
            "elbow_joint": 1.664937868594044,
            "shoulder_lift_joint": -0.661644460510453,
            "shoulder_pan_joint": -0.9139846352900073,
            "wrist_1_joint": 2.146753192139373,
            "wrist_2_joint": -2.2341966793290973,
            "wrist_3_joint": 0.005466555786416001
        }
    },
    "waypoints": [
        {
            "positions": [
                -0.9139846352900073,
                -0.661644460510453,
                1.664937868594044,
                2.146753192139373,
                -2.2341966793290973,
                0.005466555786416001
            ]
        },
        {
            "positions": [
                -0.9190686343471064,
                -0.8128076599626584,
                1.729819151403754,
                2.1679185746049456,
                -2.220391682987203,
                -0.06316978461753278
            ]
        },
        {
            "positions": [
                -0.9241526334042054,
                -0.9639708594148637,
                1.7947004342134643,
                2.189083957070518,
                -2.2065866866453083,
                -0.13180612502148156
            ]
        },
        {
            "positions": [
                -0.961535224793965,
                -1.0465110113759273,
                1.8156550388968598,
                2.09553110609341,
                -2.1070976811705684,
                -0.10079992265820167
            ]
        },
        {
            "positions": [
                -0.9989178161837247,
                -1.1290511633369908,
                1.8366096435802555,
                2.0019782551163017,
                -2.007608675695828,
                -0.06979372029492178
            ]
        },
        {
            "positions": [
                -1.0363004075734843,
                -1.2115913152980544,
                1.857564248263651,
                1.9084254041391935,
                -1.9081196702210879,
                -0.038787517931641896
            ]
        },
        {
            "positions": [
                -1.073682998963244,
                -1.294131467259118,
                1.8785188529470467,
                1.8148725531620853,
                -1.8086306647463477,
                -0.007781315568362007
            ]
        },
        {
            "positions": [
                -1.1110655903530033,
                -1.3766716192201818,
                1.8994734576304422,
                1.721319702184977,
                -1.7091416592716075,
                0.02322488679491788
            ]
        },
        {
            "positions": [
                -1.148448181742763,
                -1.4592117711812453,
                1.920428062313838,
                1.627766851207869,
                -1.6096526537968674,
                0.05423108915819777
            ]
        },
        {
            "positions": [
                -1.1858307731325226,
                -1.541751923142309,
                1.9413826669972334,
                1.5342140002307607,
                -1.5101636483221272,
                0.08523729152147766
            ]
        },
        {
            "positions": [
                -1.2232133645222822,
                -1.6242920751033725,
                1.9623372716806289,
                1.4406611492536525,
                -1.410674642847387,
                0.11624349388475755
            ]
        },
        {
            "positions": [
                -1.2605959559120419,
                -1.706832227064436,
                1.9832918763640246,
                1.3471082982765443,
                -1.311185637372647,
                0.1472496962480374
            ]
        },
        {
            "positions": [
                -1.2523709385915847,
                -1.6774758145140054,
                1.9847743262060082,
                1.2382511535579945,
                -1.2223110432829263,
                0.29644853935219206
            ]
        },
        {
            "positions": [
                -1.2441459212711274,
                -1.6481194019635748,
                1.986256776047992,
                1.129394008839445,
                -1.1334364491932056,
                0.44564738245634666
            ]
        },
        {
            "positions": [
                -1.2359209039506702,
                -1.6187629894131441,
                1.9877392258899755,
                1.0205368641208952,
                -1.044561855103485,
                0.5948462255605014
            ]
        },
        {
            "positions": [
                -1.227695886630213,
                -1.5894065768627135,
                1.989221675731959,
                0.9116797194023455,
                -0.9556872610137643,
                0.7440450686646559
            ]
        },
        {
            "positions": [
                -1.219470869309756,
                -1.5600501643122828,
                1.9907041255739426,
                0.8028225746837958,
                -0.8668126669240437,
                0.8932439117688106
            ]
        },
        {
            "positions": [
                -1.2112458519892988,
                -1.5306937517618522,
                1.9921865754159263,
                0.6939654299652461,
                -0.777938072834323,
                1.0424427548729653
            ]
        },
        {
            "positions": [
                -1.2030208346688416,
                -1.5013373392114215,
                1.99366902525791,
                0.5851082852466964,
                -0.6890634787446024,
                1.1916415979771198
            ]
        },
        {
            "positions": [
                -1.1947958173483844,
                -1.471980926660991,
                1.9951514750998935,
                0.47625114052814665,
                -0.6001888846548817,
                1.3408404410812744
            ]
        },
        {
            "positions": [
                -1.1865708000279271,
                -1.4426245141105603,
                1.9966339249418772,
                0.367393995809597,
                -0.5113142905651611,
                1.490039284185429
            ]
        },
        {
            "positions": [
                -1.17834578270747,
                -1.4132681015601296,
                1.9981163747838608,
                0.2585368510910473,
                -0.42243969647544044,
                1.6392381272895837
            ]
        },
        {
            "positions": [
                -1.1701207653870127,
                -1.383911689009699,
                1.9995988246258443,
                0.1496797063724975,
                -0.3335651023857197,
                1.7884369703937384
            ]
        },
        {
            "positions": [
                -1.1618957480665555,
                -1.3545552764592683,
                2.001081274467828,
                0.04082256165394793,
                -0.24469050829599914,
                1.937635813497893
            ]
        },
        {
            "positions": [
                -1.1536707307460983,
                -1.3251988639088377,
                2.0025637243098116,
                -0.06803458306460186,
                -0.1558159142062785,
                2.086834656602048
            ]
        },
        {
            "positions": [
                -1.145445713425641,
                -1.295842451358407,
                2.004046174151795,
                -0.17689172778315143,
                -0.06694132011655785,
                2.236033499706202
            ]
        },
        {
            "positions": [
                -1.1372206961051838,
                -1.2664860388079764,
                2.005528623993779,
                -0.2857488725017012,
                0.021933273973162803,
                2.385232342810357
            ]
        },
        {
            "positions": [
                -1.1289956787847268,
                -1.2371296262575457,
                2.0070110738357623,
                -0.394606017220251,
                0.11080786806288345,
                2.5344311859145114
            ]
        },
        {
            "positions": [
                -1.1207706614642696,
                -1.207773213707115,
                2.008493523677746,
                -0.5034631619388006,
                0.1996824621526041,
                2.683630029018666
            ]
        },
        {
            "positions": [
                -1.1125456441438124,
                -1.1784168011566845,
                2.0099759735197296,
                -0.6123203066573504,
                0.28855705624232475,
                2.8328288721228208
            ]
        },
        {
            "positions": [
                -1.1043206268233552,
                -1.1490603886062538,
                2.0114584233617134,
                -0.7211774513758997,
                0.3774316503320454,
                2.9820277152269754
            ]
        },
        {
            "positions": [
                -1.096095609502898,
                -1.1197039760558232,
                2.012940873203697,
                -0.8300345960944495,
                0.46630624442176594,
                3.13122655833113
            ]
        }
    ]
}