{
    "goal": {
        "global_pose": {
            "orientation": {
                "w": -0.4816463035849501,
                "x": 0.5182115481033762,
                "y": 0.4908360881923453,
                "z": -0.5084816262002911
            },
            "position": {
                "x": -0.8240239810943604,
                "y": 0.19912469901144506,
                "z": 0.16403168439865112
            }
        },
        "name": "move_to_storage_D"
    },
    "id": "LazyPRMstar_move_to_storage_D_3",
    "joint_names": [
        "shoulder_pan_joint",
        "shoulder_lift_joint",
        "elbow_joint",
        "wrist_1_joint",
        "wrist_2_joint",
        "wrist_3_joint"
    ],
    "metrics": {
        "cart_traj_len": 3.645852363938248,
        "distance_elbow_joint": 4.209260723966507,
        "distance_shoulder_lift_joint": 1.2643958850181571,
        "distance_shoulder_pan_joint": 2.815437785124812,
        "distance_wrist_1_joint": 2.264441662188169,
        "distance_wrist_2_joint": 0.8873260762682597,
        "distance_wrist_3_joint": 3.141608762881157,
        "smoothness": 4.782499201599205e-16,
        "time": 5.069204174999999,
        "traj_len": 3.8187001578347393,
        "weighted_distance": 4.900760773560142
    },
    "planner": "LazyPRMstar",
    "start": {
        "state": {
            "elbow_joint": -2.384821988534728,
            "shoulder_lift_joint": -2.2788054721415256,
            "shoulder_pan_joint": -0.1854694642142757,
            "wrist_1_joint": 1.4845938289331202,
            "wrist_2_joint": 0.17898776772866878,
            "wrist_3_joint": 0.037105688729662994
        }
    },
    "waypoints": [
        {
            "positions": [
                -0.1854694642142757,
                -2.2788054721415256,
                -2.384821988534728,
                1.4845938289331202,
                0.17898776772866878,
                0.037105688729662994
            ]
        },
        {
            "positions": [
                -0.07386494629023299,
                -2.236996281211933,
                -2.2660620352110805,
                1.4655297126976372,
                0.2078280070486767,
                -0.032318076950309874
            ]
        },
        {
            "positions": [
                0.037739571633809726,
                -2.19518709028234,
                -2.1473020818874327,
                1.446465596462154,
                0.2366682463686846,
                -0.10174184263028274
            ]
        },
        {
            "positions": [
                0.14934408955785247,
                -2.1533778993527473,
                -2.0285421285637852,
                1.427401480226671,
                0.26550848568869256,
                -0.1711656083102556
            ]
        },
        {
            "positions": [
                0.2609486074818952,
                -2.1115687084231545,
                -1.9097821752401378,
                1.4083373639911878,
                0.29434872500870046,
                -0.24058937399022848
            ]
        },
        {
            "positions": [
                0.372553125405938,
                -2.0697595174935617,
                -1.79102222191649,
                1.3892732477557048,
                0.32318896432870836,
                -0.3100131396702014
            ]
        },
        {
            "positions": [
                0.4841576433299807,
                -2.027950326563969,
                -1.6722622685928425,
                1.3702091315202216,
                0.35202920364871626,
                -0.37943690535017416
            ]
        },
        {
            "positions": [
                0.5957621612540234,
                -1.986141135634376,
                -1.5535023152691951,
                1.3511450152847386,
                0.3808694429687242,
                -0.44886067103014715
            ]
        },
        {
            "positions": [
                0.7073666791780661,
                -1.9443319447047833,
                -1.4347423619455475,
                1.3320808990492554,
                0.4097096822887321,
                -0.5182844367101199
            ]
        },
        {
            "positions": [
                0.8189711971021089,
                -1.9025227537751905,
                -1.3159824086218999,
                1.3130167828137724,
                0.43854992160874007,
                -0.5877082023900928
            ]
        },
        {
            "positions": [
                0.9305757150261517,
                -1.8607135628455977,
                -1.1972224552982522,
                1.2939526665782894,
                0.46739016092874797,
                -0.6571319680700657
            ]
        },
        {
            "positions": [
                1.0421802329501944,
                -1.818904371916005,
                -1.0784625019746046,
                1.2748885503428062,
                0.49623040024875587,
                -0.7265557337500386
            ]
        },
        {
            "positions": [
                1.153784750874237,
                -1.7770951809864122,
                -0.9597025486509572,
                1.2558244341073233,
                0.5250706395687638,
                -0.7959794994300113
            ]
        },
        {
            "positions": [
                1.2653892687982797,
                -1.7352859900568194,
                -0.8409425953273095,
                1.23676031787184,
                0.5539108788887717,
                -0.8654032651099842
            ]
        },
        {
            "positions": [
                1.3769937867223223,
                -1.6934767991272266,
                -0.7221826420036621,
                1.217696201636357,
                0.5827511182087797,
                -0.9348270307899572
            ]
        },
        {
            "positions": [
                1.4885983046463651,
                -1.6516676081976338,
                -0.6034226886800145,
                1.1986320854008738,
                0.6115913575287876,
                -1.00425079646993
            ]
        },
        {
            "positions": [
                1.6002028225704077,
                -1.609858417268041,
                -0.48466273535636706,
                1.1795679691653909,
                0.6404315968487955,
                -1.0736745621499029
            ]
        },
        {
            "positions": [
                1.7118073404944505,
                -1.5680492263384482,
                -0.3659027820327192,
                1.1605038529299079,
                0.6692718361688034,
                -1.1430983278298756
            ]
        },
        {
            "positions": [
                1.8234118584184935,
                -1.5262400354088554,
                -0.24714282870907198,
                1.1414397366944247,
                0.6981120754888113,
                -1.2125220935098486
            ]
        },
        {
            "positions": [
                1.8637396815430955,
                -1.500648512994581,
                -0.14356375050202944,
                1.045375358196951,
                0.7165221639142171,
                -1.307121142541931
            ]
        },
        {
            "positions": [
                1.9040675046676978,
                -1.4750569905803068,
                -0.039984672294986895,
                0.9493109796994773,
                0.734932252339623,
                -1.4017201915740132
            ]
        },
        {
            "positions": [
                1.9443953277922998,
                -1.4494654681660324,
                0.06359440591205559,
                0.8532466012020037,
                0.7533423407650288,
                -1.4963192406060954
            ]
        },
        {
            "positions": [
                1.984723150916902,
                -1.423873945751758,
                0.1671734841190982,
                0.75718222270453,
                0.7717524291904347,
                -1.5909182896381777
            ]
        },
        {
            "positions": [
                2.025050974041504,
                -1.3982824233374838,
                0.27075256232614064,
                0.6611178442070563,
                0.7901625176158406,
                -1.68551733867026
            ]
        },
        {
            "positions": [
                2.0653787971661064,
                -1.3726909009232093,
                0.37433164053318313,
                0.5650534657095827,
                0.8085726060412464,
                -1.7801163877023423
            ]
        },
        {
            "positions": [
                2.105706620290708,
                -1.347099378508935,
                0.4779107187402256,
                0.4689890872121091,
                0.8269826944666523,
                -1.8747154367344245
            ]
        },
        {
            "positions": [
                2.1460344434153105,
                -1.3215078560946607,
                0.5814897969472683,
                0.37292470871463523,
                0.8453927828920581,
                -1.9693144857665068
            ]
        },
        {
            "positions": [
                2.1863622665399127,
                -1.2959163336803863,
                0.6850688751543108,
                0.2768603302171616,
                0.863802871317464,
                -2.063913534798589
            ]
        },
        {
            "positions": [
                2.226690089664515,
                -1.270324811266112,
                0.7886479533613533,
                0.180795951719688,
                0.8822129597428698,
                -2.1585125838306713
            ]
        },
        {
            "positions": [
                2.2670179127891172,
                -1.2447332888518376,
                0.892227031568396,
                0.08473157322221425,
                0.9006230481682758,
                -2.253111632862754
            ]
        },
        {
            "positions": [
                2.307345735913719,
                -1.2191417664375632,
                0.9958061097754383,
                -0.011332805275259261,
                0.9190331365936816,
                -2.347710681894836
            ]
        },
        {
            "positions": [
                2.3476735590383213,
                -1.1935502440232888,
                1.099385187982481,
                -0.107397183772733,
                0.9374432250190874,
                -2.442309730926918
            ]
        },
        {
            "positions": [
                2.3880013821629236,
                -1.1679587216090146,
                1.2029642661895232,
                -0.2034615622702065,
                0.9558533134444933,
                -2.5369087799590004
            ]
        },
        {
            "positions": [
                2.4283292052875254,
                -1.1423671991947402,
                1.306543344396566,
                -0.29952594076768024,
                0.9742634018698991,
                -2.631507828991083
            ]
        },
        {
            "positions": [
                2.4686570284121276,
                -1.116775676780466,
                1.4101224226036086,
                -0.3955903192651542,
                0.9926734902953049,
                -2.726106878023165
            ]
        },
        {
            "positions": [
                2.50898485153673,
                -1.0911841543661915,
                1.513701500810651,
                -0.4916546977626277,
                1.0110835787207109,
                -2.820705927055247
            ]
        },
        {
            "positions": [
                2.5493126746613317,
                -1.0655926319519171,
                1.6172805790176936,
                -0.5877190762601014,
                1.0294936671461168,
                -2.9153049760873295
            ]
        },
        {
            "positions": [
                2.589640497785934,
                -1.040001109537643,
                1.7208596572247359,
                -0.683783454757575,
                1.0479037555715225,
                -3.009904025119412
            ]
        },
        {
            "positions": [
                2.6299683209105362,
                -1.0144095871233685,
                1.8244387354317788,
                -0.7798478332550487,
                1.0663138439969284,
                -3.104503074151494
            ]
        }
    ]
}