{
    "goal": {
        "global_pose": {
            "orientation": {
                "w": 0.5084816262002911,
                "x": -0.4908360881923452,
                "y": 0.5182115481033761,
                "z": -0.48164630358495003
            },
            "position": {
                "x": 0.5540239810943604,
                "y": -0.46912469901144505,
                "z": 0.16403168439865112
            }
        },
        "name": "move_to_storage_B"
    },
    "id": "LazyPRM_move_to_storage_B_40",
    "joint_names": [
        "shoulder_pan_joint",
        "shoulder_lift_joint",
        "elbow_joint",
        "wrist_1_joint",
        "wrist_2_joint",
        "wrist_3_joint"
    ],
    "metrics": {
        "cart_traj_len": 0.5972137065429843,
        "distance_elbow_joint": 0.34963972771315044,
        "distance_shoulder_lift_joint": 0.45961694001655506,
        "distance_shoulder_pan_joint": 0.192135924940947,
        "distance_wrist_1_joint": 2.9858424640258856,
        "distance_wrist_2_joint": 2.7055054865543284,
        "distance_wrist_3_joint": 3.1325288965723175,
        "smoothness": 0.032951818094820874,
        "time": 0.138515368,
        "traj_len": 3.134528583347612,
        "weighted_distance": 4.667084227175253
    },
    "planner": "LazyPRM",
    "start": {
        "state": {
            "elbow_joint": 1.664937868594044,
            "shoulder_lift_joint": -0.661644460510453,
            "shoulder_pan_joint": -0.9139846352900073,
            "wrist_1_joint": 2.146753192139373,
            "wrist_2_joint": -2.2341966793290973,
            "wrist_3_joint": 0.005466555786416001
        }
    },
    "waypoints": [
        {
            "positions": [
                -0.9139846352900073,
                -0.661644460510453,
                1.664937868594044,
                2.146753192139373,
                -2.2341966793290973,
                0.005466555786416001
            ]
        },
        {
            "positions": [
                -0.9082345044376705,
                -0.682847951414661,
                1.6954016467331599,
                2.1338810349735136,
                -2.2164330572700575,
                -0.049037573074219076
            ]
        },
        {
            "positions": [
                -0.915689936201215,
                -0.7003844893791549,
                1.7081686847161213,
                2.0149622226991126,
                -2.108923382690246,
                -0.17215856378268637
            ]
        },
        {
            "positions": [
                -0.9231453679647593,
                -0.7179210273436488,
                1.7209357226990827,
                1.8960434104247115,
                -2.001413708110434,
                -0.2952795544911537
            ]
        },
        {
            "positions": [
                -0.9306007997283038,
                -0.7354575653081427,
                1.733702760682044,
                1.7771245981503103,
                -1.8939040335306228,
                -0.41840054519962094
            ]
        },
        {
            "positions": [
                -0.9380562314918481,
                -0.7529941032726366,
                1.7464697986650053,
                1.6582057858759094,
                -1.7863943589508113,
                -0.5415215359080883
            ]
        },
        {
            "positions": [
                -0.9455116632553926,
                -0.7705306412371304,
                1.7592368366479667,
                1.5392869736015085,
                -1.6788846843709997,
                -0.6646425266165555
            ]
        },
        {
            "positions": [
                -0.952967095018937,
                -0.7880671792016243,
                1.7720038746309281,
                1.4203681613271073,
                -1.571375009791188,
                -0.7877635173250228
            ]
        },
        {
            "positions": [
                -0.9604225267824814,
                -0.8056037171661182,
                1.7847709126138895,
                1.3014493490527062,
                -1.4638653352113766,
                -0.9108845080334902
            ]
        },
        {
            "positions": [
                -0.9678779585460258,
                -0.8231402551306121,
                1.797537950596851,
                1.1825305367783052,
                -1.3563556606315652,
                -1.0340054987419576
            ]
        },
        {
            "positions": [
                -0.9753333903095702,
                -0.840676793095106,
                1.8103049885798124,
                1.0636117245039043,
                -1.2488459860517536,
                -1.1571264894504245
            ]
        },
        {
            "positions": [
                -0.9827888220731146,
                -0.8582133310595998,
                1.8230720265627736,
                0.9446929122295031,
                -1.141336311471942,
                -1.280247480158892
            ]
        },
        {
            "positions": [
                -0.990244253836659,
                -0.8757498690240937,
                1.835839064545735,
                0.8257740999551022,
                -1.0338266368921305,
                -1.4033684708673593
            ]
        },
        {
            "positions": [
                -0.9976996856002034,
                -0.8932864069885876,
                1.8486061025286964,
                0.706855287680701,
                -0.9263169623123189,
                -1.5264894615758267
            ]
        },
        {
            "positions": [
                -1.0051551173637479,
                -0.9108229449530815,
                1.8613731405116578,
                0.5879364754063001,
                -0.8188072877325074,
                -1.649610452284294
            ]
        },
        {
            "positions": [
                -1.0126105491272923,
                -0.9283594829175754,
                1.8741401784946192,
                0.46901766313189897,
                -0.7112976131526958,
                -1.7727314429927614
            ]
        },
        {
            "positions": [
                -1.0200659808908366,
                -0.9458960208820693,
                1.8869072164775806,
                0.35009885085749803,
                -0.6037879385728844,
                -1.8958524337012284
            ]
        },
        {
            "positions": [
                -1.027521412654381,
                -0.9634325588465631,
                1.899674254460542,
                0.23118003858309688,
                -0.49627826399307273,
                -2.0189734244096957
            ]
        },
        {
            "positions": [
                -1.0349768444179255,
                -0.980969096811057,
                1.9124412924435032,
                0.11226122630869595,
                -0.3887685894132611,
                -2.142094415118163
            ]
        },
        {
            "positions": [
                -1.04243227618147,
                -0.9985056347755509,
                1.9252083304264647,
                -0.006657585965704982,
                -0.28125891483344967,
                -2.26521540582663
            ]
        },
        {
            "positions": [
                -1.0498877079450142,
                -1.0160421727400448,
                1.937975368409426,
                -0.12557639824010636,
                -0.17374924025363825,
                -2.3883363965350974
            ]
        },
        {
            "positions": [
                -1.0573431397085586,
                -1.0335787107045387,
                1.9507424063923875,
                -0.2444952105145073,
                -0.06623956567382638,
                -2.511457387243565
            ]
        },
        {
            "positions": [
                -1.064798571472103,
                -1.0511152486690325,
                1.9635094443753487,
                -0.3634140227889082,
                0.04127010890598504,
                -2.634578377952032
            ]
        },
        {
            "positions": [
                -1.0722540032356476,
                -1.0686517866335263,
                1.97627648235831,
                -0.48233283506330915,
                0.14877978348579646,
                -2.7576993686604996
            ]
        },
        {
            "positions": [
                -1.079709434999192,
                -1.0861883245980204,
                1.9890435203412715,
                -0.6012516473377105,
                0.2562894580656083,
                -2.880820359368967
            ]
        },
        {
            "positions": [
                -1.0871648667627363,
                -1.1037248625625142,
                2.001810558324233,
                -0.7201704596121115,
                0.36379913264541974,
                -3.003941350077434
            ]
        },
        {
            "positions": [
                -1.0946202985262807,
                -1.121261400527008,
                2.0145775963071944,
                -0.8390892718865124,
                0.4713088072252312,
                -3.1270623407859013
            ]
        }
    ]
}