{
    "goal": {
        "global_pose": {
            "orientation": {
                "w": -0.4816463035849501,
                "x": 0.5182115481033762,
                "y": 0.4908360881923453,
                "z": -0.5084816262002911
            },
            "position": {
                "x": -0.8240239810943604,
                "y": -0.300875300988555,
                "z": 0.16403168439865112
            }
        },
        "name": "move_to_storage_C"
    },
    "id": "LazyPRM_move_to_storage_C_73",
    "joint_names": [
        "shoulder_pan_joint",
        "shoulder_lift_joint",
        "elbow_joint",
        "wrist_1_joint",
        "wrist_2_joint",
        "wrist_3_joint"
    ],
    "metrics": {
        "cart_traj_len": 0.5767700348622348,
        "distance_elbow_joint": 0.2597641388330323,
        "distance_shoulder_lift_joint": 0.1898013590580141,
        "distance_shoulder_pan_joint": 0.49348264852692036,
        "distance_wrist_1_joint": 0.08066418484867177,
        "distance_wrist_2_joint": 1.0752479092152973,
        "distance_wrist_3_joint": 0.07018139674418844,
        "smoothness": 0.0,
        "time": 0.011761639,
        "traj_len": 1.4728006101391065,
        "weighted_distance": 1.8615629252803865
    },
    "planner": "LazyPRM",
    "start": {
        "state": {
            "elbow_joint": 2.010868314990456,
            "shoulder_lift_joint": -1.1634956873337592,
            "shoulder_pan_joint": -2.4736205022346125,
            "wrist_1_joint": -0.8367026794202681,
            "wrist_2_joint": 0.6746043897044499,
            "wrist_3_joint": -3.1496632123970403
        }
    },
    "waypoints": [
        {
            "positions": [
                -2.4736205022346125,
                -1.1634956873337592,
                2.010868314990456,
                -0.8367026794202681,
                0.6746043897044499,
                -3.1496632123970403
            ]
        },
        {
            "positions": [
                -2.5558676103224327,
                -1.1318621274907568,
                1.967574291851617,
                -0.8232586486121561,
                0.8538123745736661,
                -3.1379663129396755
            ]
        },
        {
            "positions": [
                -2.6381147184102525,
                -1.1002285676477546,
                1.9242802687127785,
                -0.8098146178040442,
                1.0330203594428824,
                -3.126269413482311
            ]
        },
        {
            "positions": [
                -2.7203618264980727,
                -1.0685950078047521,
                1.8809862455739397,
                -0.7963705869959322,
                1.2122283443120985,
                -3.114572514024946
            ]
        },
        {
            "positions": [
                -2.802608934585893,
                -1.0369614479617497,
                1.8376922224351009,
                -0.7829265561878203,
                1.3914363291813148,
                -3.1028756145675813
            ]
        },
        {
            "positions": [
                -2.8848560426737127,
                -1.0053278881187475,
                1.7943981992962623,
                -0.7694825253797083,
                1.570644314050531,
                -3.0911787151102166
            ]
        },
        {
            "positions": [
                -2.967103150761533,
                -0.9736943282757451,
                1.7511041761574235,
                -0.7560384945715963,
                1.7498522989197471,
                -3.079481815652852
            ]
        }
    ]
}