{
    "goal": {
        "global_pose": {
            "orientation": {
                "w": 0.005598929693374612,
                "x": 0.007748599140229565,
                "y": 0.7110244013736278,
                "z": -0.7031023480610252
            },
            "position": {
                "x": -0.8858502320852131,
                "y": -0.7141253447532654,
                "z": 0.3711530566215515
            }
        },
        "name": "move_to_auspresseinheit_C"
    },
    "id": "LazyPRMstar_move_to_auspresseinheit_C_20",
    "joint_names": [
        "shoulder_pan_joint",
        "shoulder_lift_joint",
        "elbow_joint",
        "wrist_1_joint",
        "wrist_2_joint",
        "wrist_3_joint"
    ],
    "metrics": {
        "cart_traj_len": 0.49347792995555484,
        "distance_elbow_joint": 0.9994365332096905,
        "distance_shoulder_lift_joint": 0.32466710210911676,
        "distance_shoulder_pan_joint": 0.25712664767647997,
        "distance_wrist_1_joint": 0.6794270518396568,
        "distance_wrist_2_joint": 1.3077125116617616,
        "distance_wrist_3_joint": 0.05719370378007316,
        "smoothness": 8.074349282788172e-16,
        "time": 5.000178205,
        "traj_len": 1.9040912662676595,
        "weighted_distance": 2.393134037478541
    },
    "planner": "LazyPRMstar",
    "start": {
        "state": {
            "elbow_joint": 1.7527959577737207,
            "shoulder_lift_joint": -0.9740617694225068,
            "shoulder_pan_joint": -2.967991417825858,
            "wrist_1_joint": -0.759517768980727,
            "wrist_2_joint": 1.7443932448377408,
            "wrist_3_joint": -3.0840537646736568
        }
    },
    "waypoints": [
        {
            "positions": [
                -2.967991417825858,
                -0.9740617694225068,
                1.7527959577737207,
                -0.759517768980727,
                1.7443932448377408,
                -3.0840537646736568
            ]
        },
        {
            "positions": [
                -2.94227875305821,
                -0.9415950592115951,
                1.6528523044527517,
                -0.6915750637967613,
                1.6136219936715648,
                -3.089773135051664
            ]
        },
        {
            "positions": [
                -2.916566088290562,
                -0.9091283490006834,
                1.5529086511317827,
                -0.6236323586127956,
                1.4828507425053885,
                -3.0954925054296716
            ]
        },
        {
            "positions": [
                -2.890853423522914,
                -0.8766616387897718,
                1.4529649978108135,
                -0.5556896534288299,
                1.3520794913392122,
                -3.1012118758076785
            ]
        },
        {
            "positions": [
                -2.865140758755266,
                -0.84419492857886,
                1.3530213444898445,
                -0.48774694824486425,
                1.2213082401730362,
                -3.106931246185686
            ]
        },
        {
            "positions": [
                -2.839428093987618,
                -0.8117282183679484,
                1.2530776911688755,
                -0.4198042430608986,
                1.0905369890068601,
                -3.1126506165636934
            ]
        },
        {
            "positions": [
                -2.81371542921997,
                -0.7792615081570368,
                1.1531340378479062,
                -0.3518615378769329,
                0.9597657378406839,
                -3.1183699869417008
            ]
        },
        {
            "positions": [
                -2.788002764452322,
                -0.746794797946125,
                1.0531903845269373,
                -0.28391883269296725,
                0.8289944866745078,
                -3.124089357319708
            ]
        },
        {
            "positions": [
                -2.762290099684674,
                -0.7143280877352134,
                0.9532467312059683,
                -0.21597612750900153,
                0.6982232355083315,
                -3.129808727697715
            ]
        },
        {
            "positions": [
                -2.736577434917026,
                -0.6818613775243016,
                0.8533030778849992,
                -0.1480334223250358,
                0.5674519843421553,
                -3.1355280980757225
            ]
        },
        {
            "positions": [
                -2.710864770149378,
                -0.64939466731339,
                0.7533594245640302,
                -0.08009071714107024,
                0.4366807331759792,
                -3.14124746845373
            ]
        }
    ]
}