{
    "goal": {
        "global_pose": {
            "orientation": {
                "w": 0.7047431493862688,
                "x": -0.7094548369677653,
                "y": 0.0024358444001904,
                "z": -0.0022348060817251984
            },
            "position": {
                "x": -0.39052492380142206,
                "y": 0.3671506643295288,
                "z": 0.19426114857196808
            }
        },
        "name": "move_to_magneteinheit_D"
    },
    "id": "LazyPRMstar_move_to_magneteinheit_D_42",
    "joint_names": [
        "shoulder_pan_joint",
        "shoulder_lift_joint",
        "elbow_joint",
        "wrist_1_joint",
        "wrist_2_joint",
        "wrist_3_joint"
    ],
    "metrics": {
        "cart_traj_len": 4.859392531228759,
        "distance_elbow_joint": 3.361875952378472,
        "distance_shoulder_lift_joint": 1.4853249853117423,
        "distance_shoulder_pan_joint": 3.313134590319376,
        "distance_wrist_1_joint": 2.486512525422166,
        "distance_wrist_2_joint": 0.6325392093272207,
        "distance_wrist_3_joint": 0.7175172443369036,
        "smoothness": 0.6434768130170578,
        "time": 5.028238198,
        "traj_len": 3.463654790405054,
        "weighted_distance": 4.068290885681489
    },
    "planner": "LazyPRMstar",
    "start": {
        "state": {
            "elbow_joint": 0.749534889911806,
            "shoulder_lift_joint": -0.6476975780787326,
            "shoulder_pan_joint": -2.711696901376241,
            "wrist_1_joint": -0.07506478083263063,
            "wrist_2_joint": 0.43296659715538205,
            "wrist_3_joint": -3.14703540197715
        }
    },
    "waypoints": [
        {
            "positions": [
                -2.711696901376241,
                -0.6476975780787326,
                0.749534889911806,
                -0.07506478083263063,
                0.43296659715538205,
                -3.14703540197715
            ]
        },
        {
            "positions": [
                -2.760557012776835,
                -0.7007658259797117,
                0.7806752196659812,
                -0.2144424805102224,
                0.41950537200016547,
                -3.078648596479141
            ]
        },
        {
            "positions": [
                -2.8094171241774286,
                -0.7538340738806908,
                0.8118155494201565,
                -0.3538201801878142,
                0.4060441468449489,
                -3.0102617909811316
            ]
        },
        {
            "positions": [
                -2.858277235578022,
                -0.8069023217816699,
                0.8429558791743319,
                -0.493197879865406,
                0.3925829216897323,
                -2.941874985483122
            ]
        },
        {
            "positions": [
                -2.907137346978616,
                -0.859970569682649,
                0.8740962089285071,
                -0.6325755795429978,
                0.3791216965345157,
                -2.873488179985113
            ]
        },
        {
            "positions": [
                -2.7882067701819007,
                -0.9145178707564099,
                0.7750489858126697,
                -0.7246926942139652,
                0.3639370515280189,
                -2.872505942967899
            ]
        },
        {
            "positions": [
                -2.669276193385185,
                -0.9690651718301708,
                0.6760017626968321,
                -0.8168098088849327,
                0.3487524065215222,
                -2.8715237059506853
            ]
        },
        {
            "positions": [
                -2.55034561658847,
                -1.0236124729039318,
                0.5769545395809945,
                -0.9089269235559001,
                0.3335677615150254,
                -2.8705414689334714
            ]
        },
        {
            "positions": [
                -2.4314150397917547,
                -1.0781597739776927,
                0.47790731646515705,
                -1.0010440382268675,
                0.3183831165085286,
                -2.8695592319162575
            ]
        },
        {
            "positions": [
                -2.312484462995039,
                -1.1327070750514536,
                0.3788600933493195,
                -1.0931611528978349,
                0.30319847150203183,
                -2.8685769948990436
            ]
        },
        {
            "positions": [
                -2.1935538861983237,
                -1.1872543761252146,
                0.279812870233482,
                -1.1852782675688025,
                0.28801382649553503,
                -2.8675947578818297
            ]
        },
        {
            "positions": [
                -2.0746233094016087,
                -1.2418016771989753,
                0.18076564711764453,
                -1.2773953822397697,
                0.27282918148903823,
                -2.866612520864616
            ]
        },
        {
            "positions": [
                -1.9556927326048932,
                -1.2963489782727362,
                0.08171842400180696,
                -1.3695124969107373,
                0.2576445364825415,
                -2.865630283847402
            ]
        },
        {
            "positions": [
                -1.8367621558081777,
                -1.3508962793464971,
                -0.017328799114030513,
                -1.4616296115817047,
                0.24245989147604466,
                -2.8646480468301885
            ]
        },
        {
            "positions": [
                -1.7178315790114624,
                -1.405443580420258,
                -0.11637602222986809,
                -1.553746726252672,
                0.2272752464695479,
                -2.8636658098129746
            ]
        },
        {
            "positions": [
                -1.598901002214747,
                -1.459990881494019,
                -0.21542324534570567,
                -1.6458638409236395,
                0.2120906014630511,
                -2.8626835727957607
            ]
        },
        {
            "positions": [
                -1.4799704254180315,
                -1.51453818256778,
                -0.31447046846154314,
                -1.7379809555946069,
                0.19690595645655432,
                -2.861701335778547
            ]
        },
        {
            "positions": [
                -1.3610398486213164,
                -1.5690854836415409,
                -0.4135176915773806,
                -1.8300980702655743,
                0.18172131145005754,
                -2.860719098761333
            ]
        },
        {
            "positions": [
                -1.242109271824601,
                -1.6236327847153018,
                -0.5125649146932181,
                -1.9222151849365416,
                0.16653666644356077,
                -2.859736861744119
            ]
        },
        {
            "positions": [
                -1.1231786950278855,
                -1.6781800857890627,
                -0.6116121378090555,
                -2.014332299607509,
                0.15135202143706397,
                -2.858754624726905
            ]
        },
        {
            "positions": [
                -1.0042481182311702,
                -1.7327273868628237,
                -0.7106593609248932,
                -2.1064494142784764,
                0.1361673764305672,
                -2.857772387709691
            ]
        },
        {
            "positions": [
                -0.8853175414344546,
                -1.7872746879365846,
                -0.8097065840407307,
                -2.198566528949444,
                0.12098273142407043,
                -2.8567901506924773
            ]
        },
        {
            "positions": [
                -0.7348807400480757,
                -1.7747939068098615,
                -0.9840645007835578,
                -2.2076043575107387,
                0.10164398028625579,
                -2.8455960694357723
            ]
        },
        {
            "positions": [
                -0.5844439386616967,
                -1.7623131256831384,
                -1.1584224175263849,
                -2.216642186072034,
                0.08230522914844116,
                -2.8344019881790667
            ]
        },
        {
            "positions": [
                -0.4340071372753178,
                -1.749832344556415,
                -1.332780334269212,
                -2.225680014633329,
                0.06296647801062652,
                -2.8232079069223617
            ]
        },
        {
            "positions": [
                -0.2835703358889389,
                -1.7373515634296919,
                -1.507138251012039,
                -2.234717843194624,
                0.043627726872811884,
                -2.812013825665656
            ]
        },
        {
            "positions": [
                -0.13313353450255994,
                -1.7248707823029688,
                -1.6814961677548659,
                -2.243755671755919,
                0.02428897573499725,
                -2.800819744408951
            ]
        },
        {
            "positions": [
                -0.060042115527700626,
                -1.7119063089494155,
                -1.8490366797096578,
                -2.236499698277047,
                0.028523456304615225,
                -2.7963330204816566
            ]
        },
        {
            "positions": [
                0.013049303447158682,
                -1.6989418355958623,
                -2.01657719166445,
                -2.2292437247981747,
                0.0327579368742332,
                -2.791846296554362
            ]
        },
        {
            "positions": [
                0.010107963512563553,
                -1.7496696519456576,
                -2.1239961448192486,
                -2.2695074151060606,
                -0.03674508697260975,
                -2.8105826223093078
            ]
        },
        {
            "positions": [
                0.007166623577968424,
                -1.8003974682954527,
                -2.2314150979740472,
                -2.309771105413947,
                -0.1062481108194527,
                -2.829318948064254
            ]
        },
        {
            "positions": [
                0.004225283643373295,
                -1.851125284645248,
                -2.338834051128846,
                -2.350034795721833,
                -0.17575113466629566,
                -2.8480552738191998
            ]
        },
        {
            "positions": [
                -0.05866920785244013,
                -1.8160480932906538,
                -2.3469621755636516,
                -2.289195256849341,
                -0.1734566162572719,
                -2.950094994368959
            ]
        },
        {
            "positions": [
                -0.12156369934825356,
                -1.7809709019360598,
                -2.3550902999984578,
                -2.2283557179768496,
                -0.17116209784824815,
                -3.052134714918718
            ]
        },
        {
            "positions": [
                -0.184458190844067,
                -1.7458937105814656,
                -2.3632184244332635,
                -2.167516179104358,
                -0.1688675794392244,
                -3.1541744354684775
            ]
        }
    ]
}