{
    "goal": {
        "global_pose": {
            "orientation": {
                "w": -0.4816463035849501,
                "x": 0.5182115481033762,
                "y": 0.4908360881923453,
                "z": -0.5084816262002911
            },
            "position": {
                "x": -0.8240239810943604,
                "y": 0.19912469901144506,
                "z": 0.16403168439865112
            }
        },
        "name": "move_to_storage_D"
    },
    "id": "LazyPRM_move_to_storage_D_100",
    "joint_names": [
        "shoulder_pan_joint",
        "shoulder_lift_joint",
        "elbow_joint",
        "wrist_1_joint",
        "wrist_2_joint",
        "wrist_3_joint"
    ],
    "metrics": {
        "cart_traj_len": 3.6329501249858245,
        "distance_elbow_joint": 4.20848414250758,
        "distance_shoulder_lift_joint": 1.2637970391097355,
        "distance_shoulder_pan_joint": 2.812819656054949,
        "distance_wrist_1_joint": 2.2732028572289558,
        "distance_wrist_2_joint": 0.881840271259268,
        "distance_wrist_3_joint": 3.1424552162573884,
        "smoothness": 0.2182967912828376,
        "time": 0.127416146,
        "traj_len": 3.8187169550017543,
        "weighted_distance": 4.901280724812737
    },
    "planner": "LazyPRM",
    "start": {
        "state": {
            "elbow_joint": -2.384821988534728,
            "shoulder_lift_joint": -2.2788054721415256,
            "shoulder_pan_joint": -0.1854694642142757,
            "wrist_1_joint": 1.4845938289331202,
            "wrist_2_joint": 0.17898776772866878,
            "wrist_3_joint": 0.037105688729662994
        }
    },
    "waypoints": [
        {
            "positions": [
                -0.1854694642142757,
                -2.2788054721415256,
                -2.384821988534728,
                1.4845938289331202,
                0.17898776772866878,
                0.037105688729662994
            ]
        },
        {
            "positions": [
                -0.17782564545741658,
                -2.270927796636138,
                -2.384095311843976,
                1.4898183173288368,
                0.17504493477567976,
                0.03375845538807104
            ]
        },
        {
            "positions": [
                -0.09396195407030239,
                -2.2437149612340836,
                -2.2584695018750556,
                1.4358385184658755,
                0.19512044227016812,
                0.1089600487338104
            ]
        },
        {
            "positions": [
                -0.010098262683188197,
                -2.2165021258320294,
                -2.1328436919061353,
                1.381858719602914,
                0.21519594976465647,
                0.18416164207954977
            ]
        },
        {
            "positions": [
                0.073765428703926,
                -2.189289290429975,
                -2.0072178819372155,
                1.3278789207399526,
                0.23527145725914483,
                0.25936323542528916
            ]
        },
        {
            "positions": [
                0.1576291200910402,
                -2.1620764550279215,
                -1.8815920719682953,
                1.2738991218769913,
                0.25534696475363317,
                0.3345648287710285
            ]
        },
        {
            "positions": [
                0.24149281147815432,
                -2.1348636196258672,
                -1.7559662619993752,
                1.21991932301403,
                0.27542247224812155,
                0.4097664221167679
            ]
        },
        {
            "positions": [
                0.32535650286526857,
                -2.107650784223813,
                -1.630340452030455,
                1.1659395241510684,
                0.29549797974260994,
                0.4849680154625073
            ]
        },
        {
            "positions": [
                0.4092201942523827,
                -2.080437948821759,
                -1.504714642061535,
                1.111959725288107,
                0.3155734872370983,
                0.5601696088082466
            ]
        },
        {
            "positions": [
                0.49308388563949695,
                -2.0532251134197046,
                -1.3790888320926147,
                1.0579799264251457,
                0.3356489947315866,
                0.6353712021539859
            ]
        },
        {
            "positions": [
                0.576947577026611,
                -2.0260122780176504,
                -1.2534630221236946,
                1.0040001275621844,
                0.355724502226075,
                0.7105727954997254
            ]
        },
        {
            "positions": [
                0.6608112684137253,
                -1.9987994426155964,
                -1.1278372121547746,
                0.9500203286992229,
                0.3758000097205634,
                0.7857743888454647
            ]
        },
        {
            "positions": [
                0.7446749598008395,
                -1.9715866072135424,
                -1.0022114021858544,
                0.8960405298362616,
                0.3958755172150517,
                0.860975982191204
            ]
        },
        {
            "positions": [
                0.8285386511879538,
                -1.9443737718114882,
                -0.8765855922169341,
                0.8420607309733,
                0.4159510247095401,
                0.9361775755369435
            ]
        },
        {
            "positions": [
                0.912402342575068,
                -1.917160936409434,
                -0.7509597822480141,
                0.7880809321103387,
                0.4360265322040284,
                1.011379168882683
            ]
        },
        {
            "positions": [
                0.996266033962182,
                -1.8899481010073798,
                -0.6253339722790938,
                0.7341011332473772,
                0.4561020396985168,
                1.0865807622284223
            ]
        },
        {
            "positions": [
                1.0801297253492963,
                -1.8627352656053255,
                -0.4997081623101738,
                0.6801213343844159,
                0.4761775471930052,
                1.1617823555741615
            ]
        },
        {
            "positions": [
                1.1639934167364105,
                -1.8355224302032715,
                -0.37408235234125353,
                0.6261415355214546,
                0.4962530546874935,
                1.2369839489199008
            ]
        },
        {
            "positions": [
                1.2478571081235246,
                -1.8083095948012173,
                -0.24845654237233372,
                0.5721617366584931,
                0.5163285621819819,
                1.3121855422656403
            ]
        },
        {
            "positions": [
                1.3317207995106388,
                -1.7810967593991633,
                -0.12283073240341347,
                0.5181819377955318,
                0.5364040696764703,
                1.3873871356113796
            ]
        },
        {
            "positions": [
                1.415584490897753,
                -1.7538839239971091,
                0.002795077565506787,
                0.46420213893257034,
                0.5564795771709586,
                1.4625887289571189
            ]
        },
        {
            "positions": [
                1.499448182284867,
                -1.726671088595055,
                0.1284208875344266,
                0.410222340069609,
                0.5765550846654469,
                1.5377903223028584
            ]
        },
        {
            "positions": [
                1.5833118736719813,
                -1.6994582531930007,
                0.25404669750334685,
                0.35624254120664767,
                0.5966305921599353,
                1.6129919156485977
            ]
        },
        {
            "positions": [
                1.6671755650590956,
                -1.6722454177909467,
                0.3796725074722671,
                0.30226274234368633,
                0.6167060996544237,
                1.688193508994337
            ]
        },
        {
            "positions": [
                1.7510392564462098,
                -1.6450325823888923,
                0.5052983174411874,
                0.24828294348072455,
                0.6367816071489121,
                1.7633951023400767
            ]
        },
        {
            "positions": [
                1.834902947833324,
                -1.6178197469868383,
                0.6309241274101076,
                0.1943031446177632,
                0.6568571146434005,
                1.838596695685816
            ]
        },
        {
            "positions": [
                1.9187666392204383,
                -1.5906069115847843,
                0.7565499373790279,
                0.14032334575480188,
                0.6769326221378887,
                1.9137982890315552
            ]
        },
        {
            "positions": [
                2.0026303306075524,
                -1.56339407618273,
                0.8821757473479477,
                0.08634354689184054,
                0.6970081296323771,
                1.9889998823772947
            ]
        },
        {
            "positions": [
                2.0864940219946666,
                -1.5361812407806759,
                1.007801557316868,
                0.0323637480288792,
                0.7170836371268655,
                2.064201475723034
            ]
        },
        {
            "positions": [
                2.1703577133817804,
                -1.5089684053786216,
                1.1334273672857882,
                -0.021616050834082357,
                0.7371591446213539,
                2.1394030690687735
            ]
        },
        {
            "positions": [
                2.2542214047688947,
                -1.4817555699765674,
                1.259053177254708,
                -0.0755958496970437,
                0.7572346521158422,
                2.2146046624145126
            ]
        },
        {
            "positions": [
                2.338085096156009,
                -1.4545427345745134,
                1.3846789872236283,
                -0.12957564856000497,
                0.7773101596103306,
                2.289806255760252
            ]
        },
        {
            "positions": [
                2.374243233116592,
                -1.399600946881673,
                1.439551883067281,
                -0.21064869892805468,
                0.811764186294284,
                2.400188778578204
            ]
        },
        {
            "positions": [
                2.410401370077175,
                -1.3446591591888326,
                1.494424778910934,
                -0.2917217492961044,
                0.8462182129782376,
                2.5105713013961557
            ]
        },
        {
            "positions": [
                2.446559507037758,
                -1.2897173714959922,
                1.549297674754587,
                -0.3727947996641541,
                0.8806722396621911,
                2.6209538242141077
            ]
        },
        {
            "positions": [
                2.482717643998341,
                -1.2347755838031518,
                1.6041705705982399,
                -0.4538678500322038,
                0.9151262663461446,
                2.7313363470320597
            ]
        },
        {
            "positions": [
                2.518875780958924,
                -1.1798337961103114,
                1.6590434664418927,
                -0.5349409004002534,
                0.9495802930300982,
                2.8417188698500118
            ]
        },
        {
            "positions": [
                2.5550339179195074,
                -1.124892008417471,
                1.7139163622855458,
                -0.6160139507683032,
                0.9840343197140516,
                2.952101392667964
            ]
        },
        {
            "positions": [
                2.59119205488009,
                -1.0699502207246305,
                1.7687892581291986,
                -0.697087001136353,
                1.0184883463980052,
                3.0624839154859154
            ]
        },
        {
            "positions": [
                2.6273501918406734,
                -1.0150084330317901,
                1.8236621539728515,
                -0.7781600515044027,
                1.0529423730819587,
                3.1728664383038674
            ]
        }
    ]
}