{
    "goal": {
        "global_pose": {
            "orientation": {
                "w": 0.005598929693374612,
                "x": 0.007748599140229565,
                "y": 0.7110244013736278,
                "z": -0.7031023480610252
            },
            "position": {
                "x": 0.1141497679147869,
                "y": -0.7141253447532654,
                "z": 0.3711530566215515
            }
        },
        "name": "move_to_auspresseinheit_B"
    },
    "id": "LazyPRMstar_move_to_auspresseinheit_B_56",
    "joint_names": [
        "shoulder_pan_joint",
        "shoulder_lift_joint",
        "elbow_joint",
        "wrist_1_joint",
        "wrist_2_joint",
        "wrist_3_joint"
    ],
    "metrics": {
        "cart_traj_len": 0.5643197804995121,
        "distance_elbow_joint": 0.05977577150449753,
        "distance_shoulder_lift_joint": 0.2939085913957564,
        "distance_shoulder_pan_joint": 0.5752325316965041,
        "distance_wrist_1_joint": 0.3137212948229706,
        "distance_wrist_2_joint": 1.0017219787532634,
        "distance_wrist_3_joint": 0.009137890014589978,
        "smoothness": 0.0,
        "time": 5.000880989,
        "traj_len": 1.501165566547402,
        "weighted_distance": 1.8939950136663497
    },
    "planner": "LazyPRMstar",
    "start": {
        "state": {
            "elbow_joint": 2.0193083361928714,
            "shoulder_lift_joint": -1.1220246554650708,
            "shoulder_pan_joint": -1.0952077554168747,
            "wrist_1_joint": -0.8559753972642168,
            "wrist_2_joint": 0.4759566250798843,
            "wrist_3_joint": -3.1240929996934557
        }
    },
    "waypoints": [
        {
            "positions": [
                -1.0952077554168747,
                -1.1220246554650708,
                2.0193083361928714,
                -0.8559753972642168,
                0.4759566250798843,
                -3.1240929996934557
            ]
        },
        {
            "positions": [
                -1.1910798440329586,
                -1.1710094206976969,
                2.0093457076087886,
                -0.8036885147937217,
                0.6429102882054282,
                -3.122570018024357
            ]
        },
        {
            "positions": [
                -1.2869519326490426,
                -1.219994185930323,
                1.9993830790247056,
                -0.7514016323232265,
                0.809863951330972,
                -3.121047036355259
            ]
        },
        {
            "positions": [
                -1.3828240212651268,
                -1.268978951162949,
                1.9894204504406225,
                -0.6991147498527315,
                0.9768176144565159,
                -3.1195240546861607
            ]
        },
        {
            "positions": [
                -1.4786961098812106,
                -1.317963716395575,
                1.9794578218565397,
                -0.6468278673822364,
                1.1437712775820599,
                -3.118001073017062
            ]
        },
        {
            "positions": [
                -1.5745681984972948,
                -1.3669484816282012,
                1.969495193272457,
                -0.5945409849117412,
                1.3107249407076038,
                -3.116478091347964
            ]
        },
        {
            "positions": [
                -1.6704402871133788,
                -1.4159332468608272,
                1.959532564688374,
                -0.5422541024412462,
                1.4776786038331478,
                -3.1149551096788657
            ]
        }
    ]
}