{
    "goal": {
        "global_pose": {
            "orientation": {
                "w": 0.7047431493862688,
                "x": -0.7094548369677653,
                "y": 0.0024358444001904,
                "z": -0.0022348060817251984
            },
            "position": {
                "x": -0.39052492380142206,
                "y": 0.3671506643295288,
                "z": 0.19426114857196808
            }
        },
        "name": "move_to_magneteinheit_D"
    },
    "id": "LazyPRMstar_move_to_magneteinheit_D_4",
    "joint_names": [
        "shoulder_pan_joint",
        "shoulder_lift_joint",
        "elbow_joint",
        "wrist_1_joint",
        "wrist_2_joint",
        "wrist_3_joint"
    ],
    "metrics": {
        "cart_traj_len": 4.750270468607766,
        "distance_elbow_joint": 3.2171162727209275,
        "distance_shoulder_lift_joint": 1.3530772762677465,
        "distance_shoulder_pan_joint": 3.1613872802568284,
        "distance_wrist_1_joint": 2.7271499133133097,
        "distance_wrist_2_joint": 0.8126858396332964,
        "distance_wrist_3_joint": 6.330765046734898,
        "smoothness": 0.20190476300080382,
        "time": 5.033685698999999,
        "traj_len": 4.19549539731925,
        "weighted_distance": 5.814081825649121
    },
    "planner": "LazyPRMstar",
    "start": {
        "state": {
            "elbow_joint": 0.749534889911806,
            "shoulder_lift_joint": -0.6476975780787326,
            "shoulder_pan_joint": -2.711696901376241,
            "wrist_1_joint": -0.07506478083263063,
            "wrist_2_joint": 0.43296659715538205,
            "wrist_3_joint": -3.14703540197715
        }
    },
    "waypoints": [
        {
            "positions": [
                -2.711696901376241,
                -0.6476975780787326,
                0.749534889911806,
                -0.07506478083263063,
                0.43296659715538205,
                -3.14703540197715
            ]
        },
        {
            "positions": [
                -2.7337976193137337,
                -0.7648286203912971,
                0.7775339090101385,
                -0.1907479262114273,
                0.4019630390718621,
                -3.1452868409030073
            ]
        },
        {
            "positions": [
                -2.755898337251226,
                -0.8819596627038616,
                0.8055329281084712,
                -0.306431071590224,
                0.37095948098834214,
                -3.143538279828864
            ]
        },
        {
            "positions": [
                -2.655522655391863,
                -0.9173893692947548,
                0.7173881247836787,
                -0.3839576959199906,
                0.37454376935752115,
                -3.058998524591753
            ]
        },
        {
            "positions": [
                -2.5551469735325,
                -0.9528190758856481,
                0.6292433214588863,
                -0.4614843202497573,
                0.3781280577267001,
                -2.974458769354642
            ]
        },
        {
            "positions": [
                -2.4547712916731372,
                -0.9882487824765412,
                0.5410985181340938,
                -0.5390109445795239,
                0.3817123460958791,
                -2.8899190141175306
            ]
        },
        {
            "positions": [
                -2.3543956098137744,
                -1.0236784890674344,
                0.45295371480930136,
                -0.6165375689092906,
                0.3852966344650581,
                -2.8053792588804196
            ]
        },
        {
            "positions": [
                -2.2540199279544115,
                -1.0591081956583277,
                0.3648089114845089,
                -0.6940641932390572,
                0.3888809228342371,
                -2.7208395036433086
            ]
        },
        {
            "positions": [
                -2.1536442460950487,
                -1.094537902249221,
                0.2766641081597164,
                -0.7715908175688239,
                0.39246521120341604,
                -2.6362997484061976
            ]
        },
        {
            "positions": [
                -2.053268564235686,
                -1.1299676088401143,
                0.18851930483492396,
                -0.8491174418985905,
                0.39604949957259505,
                -2.551759993169086
            ]
        },
        {
            "positions": [
                -1.952892882376323,
                -1.1653973154310073,
                0.1003745015101315,
                -0.9266440662283572,
                0.399633787941774,
                -2.467220237931975
            ]
        },
        {
            "positions": [
                -1.85251720051696,
                -1.2008270220219006,
                0.012229698185338922,
                -1.0041706905581238,
                0.403218076310953,
                -2.382680482694864
            ]
        },
        {
            "positions": [
                -1.752141518657597,
                -1.236256728612794,
                -0.07591510513945343,
                -1.0816973148878906,
                0.406802364680132,
                -2.298140727457753
            ]
        },
        {
            "positions": [
                -1.6517658367982342,
                -1.2716864352036872,
                -0.1640599084642459,
                -1.159223939217657,
                0.410386653049311,
                -2.2136009722206422
            ]
        },
        {
            "positions": [
                -1.5513901549388713,
                -1.3071161417945802,
                -0.25220471178903836,
                -1.2367505635474236,
                0.41397094141848995,
                -2.129061216983531
            ]
        },
        {
            "positions": [
                -1.4510144730795085,
                -1.3425458483854735,
                -0.3403495151138308,
                -1.3142771878771904,
                0.41755522978766896,
                -2.04452146174642
            ]
        },
        {
            "positions": [
                -1.3506387912201456,
                -1.3779755549763668,
                -0.4284943184386233,
                -1.3918038122069571,
                0.4211395181568479,
                -1.9599817065093088
            ]
        },
        {
            "positions": [
                -1.2502631093607828,
                -1.4134052615672599,
                -0.5166391217634158,
                -1.4693304365367235,
                0.4247238065260269,
                -1.8754419512721978
            ]
        },
        {
            "positions": [
                -1.14988742750142,
                -1.4488349681581532,
                -0.6047839250882082,
                -1.5468570608664902,
                0.42830809489520594,
                -1.7909021960350866
            ]
        },
        {
            "positions": [
                -1.049511745642057,
                -1.4842646747490464,
                -0.6929287284130005,
                -1.624383685196257,
                0.4318923832643849,
                -1.7063624407979756
            ]
        },
        {
            "positions": [
                -0.949136063782694,
                -1.5196943813399397,
                -0.7810735317377934,
                -1.7019103095260237,
                0.4354766716335639,
                -1.6218226855608644
            ]
        },
        {
            "positions": [
                -0.8487603819233311,
                -1.555124087930833,
                -0.8692183350625856,
                -1.7794369338557905,
                0.43906096000274286,
                -1.5372829303237534
            ]
        },
        {
            "positions": [
                -0.7483847000639683,
                -1.590553794521726,
                -0.9573631383873781,
                -1.8569635581855568,
                0.4426452483719219,
                -1.4527431750866422
            ]
        },
        {
            "positions": [
                -0.6480090182046054,
                -1.6259835011126194,
                -1.0455079417121707,
                -1.9344901825153236,
                0.44622953674110083,
                -1.3682034198495312
            ]
        },
        {
            "positions": [
                -0.5476333363452426,
                -1.6614132077035126,
                -1.133652745036963,
                -2.0120168068450903,
                0.44981382511027984,
                -1.2836636646124202
            ]
        },
        {
            "positions": [
                -0.44725765448587973,
                -1.6968429142944057,
                -1.2217975483617551,
                -2.0895434311748566,
                0.4533981134794588,
                -1.199123909375309
            ]
        },
        {
            "positions": [
                -0.3468819726265169,
                -1.732272620885299,
                -1.3099423516865478,
                -2.1670700555046234,
                0.4569824018486378,
                -1.114584154138198
            ]
        },
        {
            "positions": [
                -0.24650629076715402,
                -1.7677023274761923,
                -1.3980871550113405,
                -2.24459667983439,
                0.4605666902178168,
                -1.0300443989010866
            ]
        },
        {
            "positions": [
                -0.14613060890779117,
                -1.8031320340670853,
                -1.4862319583361328,
                -2.322123304164157,
                0.4641509785869958,
                -0.9455046436639756
            ]
        },
        {
            "positions": [
                -0.04575492704842832,
                -1.8385617406579788,
                -1.5743767616609254,
                -2.3996499284939232,
                0.46773526695617473,
                -0.8609648884268646
            ]
        },
        {
            "positions": [
                0.05462075481093473,
                -1.873991447248872,
                -1.662521564985718,
                -2.47717655282369,
                0.47131955532535375,
                -0.7764251331897535
            ]
        },
        {
            "positions": [
                0.019778438545894943,
                -1.8718555969313162,
                -1.7783137775455693,
                -2.484034320808878,
                0.45286809006417605,
                -0.570338564370869
            ]
        },
        {
            "positions": [
                -0.015063877719144844,
                -1.8697197466137605,
                -1.894105990105421,
                -2.490892088794066,
                0.43441662480299836,
                -0.3642519955519846
            ]
        },
        {
            "positions": [
                -0.049906193984184624,
                -1.8675838962962046,
                -2.0098982026652723,
                -2.4977498567792544,
                0.41596515954182073,
                -0.1581654267331002
            ]
        },
        {
            "positions": [
                -0.08474851024922442,
                -1.8654480459786489,
                -2.1256904152251237,
                -2.5046076247644424,
                0.39751369428064304,
                0.04792114208578424
            ]
        },
        {
            "positions": [
                -0.11959082651426418,
                -1.8633121956610932,
                -2.241482627784975,
                -2.5114653927496304,
                0.37906222901946535,
                0.2540077109046687
            ]
        },
        {
            "positions": [
                -0.144350052097786,
                -1.8537967048429076,
                -2.2671994416770036,
                -2.492882054041303,
                0.3400738432551045,
                0.4896633064160095
            ]
        },
        {
            "positions": [
                -0.16910927768130785,
                -1.844281214024722,
                -2.2929162555690326,
                -2.4742987153329756,
                0.3010854574907436,
                0.7253189019273503
            ]
        },
        {
            "positions": [
                -0.19386850326482968,
                -1.8347657232065364,
                -2.318633069461061,
                -2.4557153766246484,
                0.26209707172638275,
                0.9609744974386911
            ]
        },
        {
            "positions": [
                -0.2186277288483515,
                -1.8252502323883508,
                -2.3443498833530896,
                -2.437132037916321,
                0.22310868596202185,
                1.196630092950032
            ]
        },
        {
            "positions": [
                -0.21385369046829486,
                -1.8141013477830528,
                -2.3459549437906184,
                -2.4062154741216064,
                0.1656647174240343,
                1.4805014574939916
            ]
        },
        {
            "positions": [
                -0.20907965208823825,
                -1.8029524631777547,
                -2.3475600042281473,
                -2.375298910326892,
                0.10822074888604673,
                1.7643728220379513
            ]
        },
        {
            "positions": [
                -0.20430561370818162,
                -1.7918035785724566,
                -2.349165064665676,
                -2.3443823465321776,
                0.05077678034805916,
                2.0482441865819108
            ]
        },
        {
            "positions": [
                -0.19953157532812502,
                -1.7806546939671588,
                -2.350770125103205,
                -2.3134657827374636,
                -0.006667188189928397,
                2.33211555112587
            ]
        },
        {
            "positions": [
                -0.19475753694806838,
                -1.7695058093618607,
                -2.3523751855407338,
                -2.282549218942749,
                -0.06411115672791598,
                2.61598691566983
            ]
        },
        {
            "positions": [
                -0.18998349856801178,
                -1.7583569247565627,
                -2.3539802459782626,
                -2.251632655148035,
                -0.12155512526590354,
                2.89985828021379
            ]
        },
        {
            "positions": [
                -0.18520946018795514,
                -1.7472080401512646,
                -2.3555853064157914,
                -2.2207160913533204,
                -0.17899909380389112,
                3.1837296447577494
            ]
        }
    ]
}