{
    "goal": {
        "global_pose": {
            "orientation": {
                "w": 0.7031023480610252,
                "x": -0.7110244013736278,
                "y": 0.0077485991402295624,
                "z": 0.005598929693374583
            },
            "position": {
                "x": -0.8841497679147869,
                "y": 0.44412534475326537,
                "z": 0.3711530566215515
            }
        },
        "name": "move_to_auspresseinheit_D"
    },
    "id": "LazyPRMstar_move_to_auspresseinheit_D_58",
    "joint_names": [
        "shoulder_pan_joint",
        "shoulder_lift_joint",
        "elbow_joint",
        "wrist_1_joint",
        "wrist_2_joint",
        "wrist_3_joint"
    ],
    "metrics": {
        "cart_traj_len": 0.34445022236202066,
        "distance_elbow_joint": 0.6723795223499811,
        "distance_shoulder_lift_joint": 0.14068587072108008,
        "distance_shoulder_pan_joint": 0.1330035920375829,
        "distance_wrist_1_joint": 0.6324219125865476,
        "distance_wrist_2_joint": 1.446231936254248,
        "distance_wrist_3_joint": 0.09274064368201174,
        "smoothness": 3.947459674368863e-16,
        "time": 5.000079803,
        "traj_len": 1.7656340157664192,
        "weighted_distance": 2.3198272810354372
    },
    "planner": "LazyPRMstar",
    "start": {
        "state": {
            "elbow_joint": -1.8275523626775212,
            "shoulder_lift_joint": -2.126789852344167,
            "shoulder_pan_joint": -0.03513704404078235,
            "wrist_1_joint": -2.347782403156801,
            "wrist_2_joint": -1.6058999987535132,
            "wrist_3_joint": -3.0880379163319196
        }
    },
    "waypoints": [
        {
            "positions": [
                -0.03513704404078235,
                -2.126789852344167,
                -1.8275523626775212,
                -2.347782403156801,
                -1.6058999987535132,
                -3.0880379163319196
            ]
        },
        {
            "positions": [
                -0.05176249304548021,
                -2.1443755861843017,
                -1.7435049223837735,
                -2.4268351422301193,
                -1.4251210067217321,
                -3.076445335871668
            ]
        },
        {
            "positions": [
                -0.06838794205017808,
                -2.161961320024437,
                -1.6594574820900259,
                -2.5058878813034378,
                -1.244342014689951,
                -3.0648527554114167
            ]
        },
        {
            "positions": [
                -0.08501339105487593,
                -2.179547053864572,
                -1.5754100417962782,
                -2.584940620376756,
                -1.0635630226581703,
                -3.0532601749511654
            ]
        },
        {
            "positions": [
                -0.1016388400595738,
                -2.1971327877047067,
                -1.4913626015025305,
                -2.6639933594500746,
                -0.8827840306263892,
                -3.0416675944909137
            ]
        },
        {
            "positions": [
                -0.11826428906427167,
                -2.214718521544842,
                -1.4073151612087829,
                -2.743046098523393,
                -0.7020050385946082,
                -3.030075014030662
            ]
        },
        {
            "positions": [
                -0.13488973806896953,
                -2.232304255384977,
                -1.3232677209150354,
                -2.8220988375967115,
                -0.5212260465628273,
                -3.018482433570411
            ]
        },
        {
            "positions": [
                -0.1515151870736674,
                -2.249889989225112,
                -1.2392202806212878,
                -2.90115157667003,
                -0.3404470545310463,
                -3.0068898531101595
            ]
        },
        {
            "positions": [
                -0.16814063607836527,
                -2.267475723065247,
                -1.15517284032754,
                -2.9802043157433484,
                -0.1596680624992652,
                -2.995297272649908
            ]
        }
    ]
}