{
    "goal": {
        "global_pose": {
            "orientation": {
                "w": -0.00223480608172531,
                "x": 0.0024358444001904467,
                "y": 0.7094548369677653,
                "z": -0.704743149386269
            },
            "position": {
                "x": -0.37947507619857795,
                "y": -0.6371506643295288,
                "z": 0.19426114857196808
            }
        },
        "name": "move_to_magneteinheit_C"
    },
    "id": "LazyPRM_move_to_magneteinheit_C_147",
    "joint_names": [
        "shoulder_pan_joint",
        "shoulder_lift_joint",
        "elbow_joint",
        "wrist_1_joint",
        "wrist_2_joint",
        "wrist_3_joint"
    ],
    "metrics": {
        "cart_traj_len": 0.8960315245696104,
        "distance_elbow_joint": 0.08657798056753929,
        "distance_shoulder_lift_joint": 0.8237984126561906,
        "distance_shoulder_pan_joint": 0.9311690733900873,
        "distance_wrist_1_joint": 0.887311173476625,
        "distance_wrist_2_joint": 0.8449207293034735,
        "distance_wrist_3_joint": 1.4336463313066665,
        "smoothness": 0.637309040907974,
        "time": 0.3960725,
        "traj_len": 2.2377273517344736,
        "weighted_distance": 3.0995077457709335
    },
    "planner": "LazyPRM",
    "start": {
        "state": {
            "elbow_joint": 1.9565354010623817,
            "shoulder_lift_joint": -1.4165861575791021,
            "shoulder_pan_joint": -1.6717766225146293,
            "wrist_1_joint": -0.5286633292919765,
            "wrist_2_joint": 1.472756589071564,
            "wrist_3_joint": -3.1238370188695823
        }
    },
    "waypoints": [
        {
            "positions": [
                -1.6717766225146293,
                -1.4165861575791021,
                1.9565354010623817,
                -0.5286633292919765,
                1.472756589071564,
                -3.1238370188695823
            ]
        },
        {
            "positions": [
                -1.695455180635162,
                -1.451862750939464,
                1.9681215876299705,
                -0.4384762673642542,
                1.3572480125414437,
                -3.0358593488210754
            ]
        },
        {
            "positions": [
                -1.7191337387556949,
                -1.4871393442998257,
                1.979707774197559,
                -0.34828920543653197,
                1.2417394360113234,
                -2.9478816787725686
            ]
        },
        {
            "positions": [
                -1.8200567341569422,
                -1.5300627308244572,
                1.9766378074326312,
                -0.3270181717817067,
                1.1348551664028441,
                -2.8425671072831173
            ]
        },
        {
            "positions": [
                -1.9209797295581899,
                -1.5729861173490887,
                1.973567840667703,
                -0.3057471381268815,
                1.0279708967943648,
                -2.7372525357936657
            ]
        },
        {
            "positions": [
                -2.0219027249594372,
                -1.6159095038737203,
                1.9704978739027752,
                -0.2844761044720563,
                0.9210866271858855,
                -2.6319379643042145
            ]
        },
        {
            "positions": [
                -2.1228257203606846,
                -1.6588328903983518,
                1.967427907137847,
                -0.26320507081723105,
                0.8142023575774062,
                -2.526623392814763
            ]
        },
        {
            "positions": [
                -2.223748715761932,
                -1.7017562769229833,
                1.9643579403729192,
                -0.24193403716240583,
                0.7073180879689269,
                -2.4213088213253116
            ]
        },
        {
            "positions": [
                -2.328766138829864,
                -1.6949837544288726,
                1.967520394794496,
                -0.35319741657803855,
                0.6868497903183807,
                -2.4614136540557503
            ]
        },
        {
            "positions": [
                -2.433783561897796,
                -1.6882112319347617,
                1.9706828492160724,
                -0.4644607959936713,
                0.6663814926678345,
                -2.501518486786189
            ]
        },
        {
            "positions": [
                -2.538800984965728,
                -1.681438709440651,
                1.973845303637649,
                -0.575724175409304,
                0.6459131950172883,
                -2.541623319516628
            ]
        },
        {
            "positions": [
                -2.5227648072309807,
                -1.5518610279831568,
                1.9834874062233971,
                -0.642422111184343,
                0.6504325288295878,
                -2.6943242284093976
            ]
        },
        {
            "positions": [
                -2.5067286294962337,
                -1.4222833465256626,
                1.9931295088091452,
                -0.7091200469593821,
                0.6549518626418872,
                -2.8470251373021673
            ]
        },
        {
            "positions": [
                -2.490692451761486,
                -1.292705665068168,
                2.002771611394893,
                -0.7758179827344212,
                0.6594711964541866,
                -2.9997260461949375
            ]
        },
        {
            "positions": [
                -2.474656274026739,
                -1.1631279836106738,
                2.0124137139806413,
                -0.8425159185094602,
                0.6639905302664861,
                -3.1524269550877073
            ]
        }
    ]
}