{
    "goal": {
        "global_pose": {
            "orientation": {
                "w": -0.00223480608172531,
                "x": 0.0024358444001904467,
                "y": 0.7094548369677653,
                "z": -0.704743149386269
            },
            "position": {
                "x": 0.6205249238014221,
                "y": -0.6371506643295288,
                "z": 0.19426114857196808
            }
        },
        "name": "move_to_magneteinheit_B"
    },
    "id": "LazyPRMstar_move_to_magneteinheit_B_109",
    "joint_names": [
        "shoulder_pan_joint",
        "shoulder_lift_joint",
        "elbow_joint",
        "wrist_1_joint",
        "wrist_2_joint",
        "wrist_3_joint"
    ],
    "metrics": {
        "cart_traj_len": 3.71357726178074,
        "distance_elbow_joint": 4.751707137655385,
        "distance_shoulder_lift_joint": 1.1842149556694368,
        "distance_shoulder_pan_joint": 2.4105139429024396,
        "distance_wrist_1_joint": 4.433427983627604,
        "distance_wrist_2_joint": 2.310487701098668,
        "distance_wrist_3_joint": 3.1543050795317424,
        "smoothness": 0.2902880773250954,
        "time": 5.073197161,
        "traj_len": 4.2713764526772025,
        "weighted_distance": 5.594388496008749
    },
    "planner": "LazyPRMstar",
    "start": {
        "state": {
            "elbow_joint": 2.6216224122426386,
            "shoulder_lift_joint": -1.4174107377796124,
            "shoulder_pan_joint": 0.7066234856936794,
            "wrist_1_joint": 1.9546482284002225,
            "wrist_2_joint": -0.7096286983471962,
            "wrist_3_joint": 0.005740856962016249
        }
    },
    "waypoints": [
        {
            "positions": [
                0.7066234856936794,
                -1.4174107377796124,
                2.6216224122426386,
                1.9546482284002225,
                -0.7096286983471962,
                0.005740856962016249
            ]
        },
        {
            "positions": [
                0.6608897493504073,
                -1.4834898478500795,
                2.5873501640607324,
                1.8056337307777752,
                -0.6804221434709669,
                0.0376267205345923
            ]
        },
        {
            "positions": [
                0.6151560130071352,
                -1.549568957920547,
                2.553077915878826,
                1.656619233155328,
                -0.6512155885947375,
                0.06951258410716836
            ]
        },
        {
            "positions": [
                0.5694222766638631,
                -1.6156480679910141,
                2.51880566769692,
                1.507604735532881,
                -0.622009033718508,
                0.10139844767974442
            ]
        },
        {
            "positions": [
                0.523688540320591,
                -1.6817271780614815,
                2.4845334195150137,
                1.3585902379104335,
                -0.5928024788422787,
                0.1332843112523205
            ]
        },
        {
            "positions": [
                0.47795480397731893,
                -1.7478062881319487,
                2.4502611713331075,
                1.2095757402879865,
                -0.5635959239660493,
                0.16517017482489654
            ]
        },
        {
            "positions": [
                0.5361380863605298,
                -1.740176816809523,
                2.310725191900346,
                1.0887675248362065,
                -0.538158260587096,
                0.20605067315500686
            ]
        },
        {
            "positions": [
                0.5943213687437409,
                -1.7325473454870974,
                2.171189212467585,
                0.9679593093844265,
                -0.5127205972081428,
                0.24693117148511717
            ]
        },
        {
            "positions": [
                0.6525046511269518,
                -1.7249178741646718,
                2.0316532330348234,
                0.8471510939326465,
                -0.4872829338291895,
                0.2878116698152275
            ]
        },
        {
            "positions": [
                0.7106879335101627,
                -1.7172884028422462,
                1.8921172536020618,
                0.7263428784808665,
                -0.4618452704502363,
                0.32869216814533786
            ]
        },
        {
            "positions": [
                0.7688712158933737,
                -1.7096589315198205,
                1.7525812741693003,
                0.6055346630290864,
                -0.43640760707128307,
                0.3695726664754482
            ]
        },
        {
            "positions": [
                0.8270544982765846,
                -1.7020294601973949,
                1.613045294736539,
                0.48472644757730643,
                -0.4109699436923298,
                0.4104531648055585
            ]
        },
        {
            "positions": [
                0.8852377806597955,
                -1.6943999888749695,
                1.4735093153037777,
                0.36391823212552643,
                -0.38553228031337655,
                0.4513336631356688
            ]
        },
        {
            "positions": [
                0.9434210630430064,
                -1.6867705175525438,
                1.3339733358710162,
                0.24311001667374643,
                -0.36009461693442335,
                0.4922141614657791
            ]
        },
        {
            "positions": [
                1.0016043454262173,
                -1.6791410462301182,
                1.1944373564382547,
                0.12230180122196632,
                -0.3346569535554701,
                0.5330946597958894
            ]
        },
        {
            "positions": [
                1.0597876278094285,
                -1.6715115749076925,
                1.0549013770054934,
                0.001493585770186323,
                -0.30921929017651684,
                0.5739751581259998
            ]
        },
        {
            "positions": [
                1.1179709101926394,
                -1.663882103585267,
                0.9153653975727318,
                -0.11931462968159368,
                -0.2837816267975636,
                0.6148556564561101
            ]
        },
        {
            "positions": [
                1.1761541925758503,
                -1.6562526322628413,
                0.7758294181399705,
                -0.24012284513337367,
                -0.2583439634186103,
                0.6557361547862204
            ]
        },
        {
            "positions": [
                1.2343374749590612,
                -1.6486231609404156,
                0.636293438707209,
                -0.3609310605851537,
                -0.23290630003965707,
                0.6966166531163307
            ]
        },
        {
            "positions": [
                1.2925207573422721,
                -1.64099368961799,
                0.4967574592744477,
                -0.4817392760369337,
                -0.2074686366607038,
                0.737497151446441
            ]
        },
        {
            "positions": [
                1.3507040397254833,
                -1.6333642182955643,
                0.35722147984168595,
                -0.6025474914887139,
                -0.18203097328175055,
                0.7783776497765513
            ]
        },
        {
            "positions": [
                1.408887322108694,
                -1.6257347469731387,
                0.21768550040892487,
                -0.7233557069404937,
                -0.15659330990279735,
                0.8192581481066616
            ]
        },
        {
            "positions": [
                1.467070604491905,
                -1.618105275650713,
                0.07814952097616334,
                -0.8441639223922741,
                -0.13115564652384404,
                0.860138646436772
            ]
        },
        {
            "positions": [
                1.525253886875116,
                -1.6104758043282874,
                -0.06138645845659818,
                -0.9649721378440539,
                -0.10571798314489084,
                0.9010191447668823
            ]
        },
        {
            "positions": [
                1.5834371692583271,
                -1.6028463330058618,
                -0.2009224378893597,
                -1.085780353295834,
                -0.08028031976593758,
                0.9418996430969928
            ]
        },
        {
            "positions": [
                1.6416204516415378,
                -1.5952168616834363,
                -0.3404584173221208,
                -1.2065885687476139,
                -0.05484265638698438,
                0.9827801414271029
            ]
        },
        {
            "positions": [
                1.699803734024749,
                -1.5875873903610107,
                -0.4799943967548823,
                -1.327396784199394,
                -0.02940499300803101,
                1.0236606397572134
            ]
        },
        {
            "positions": [
                1.7579870164079598,
                -1.579957919038585,
                -0.6195303761876438,
                -1.4482049996511739,
                -0.003967329629077865,
                1.0645411380873235
            ]
        },
        {
            "positions": [
                1.8161702987911708,
                -1.5723284477161594,
                -0.7590663556204054,
                -1.569013215102954,
                0.021470333749875392,
                1.105421636417434
            ]
        },
        {
            "positions": [
                1.8743535811743817,
                -1.5646989763937338,
                -0.8986023350531664,
                -1.6898214305547339,
                0.04690799712882865,
                1.1463021347475442
            ]
        },
        {
            "positions": [
                1.9325368635575928,
                -1.5570695050713081,
                -1.038138314485928,
                -1.810629646006514,
                0.0723456605077819,
                1.1871826330776547
            ]
        },
        {
            "positions": [
                1.9907201459408035,
                -1.5494400337488825,
                -1.1776742939186895,
                -1.9314378614582939,
                0.09778332388673516,
                1.228063131407765
            ]
        },
        {
            "positions": [
                2.0489034283240146,
                -1.5418105624264569,
                -1.317210273351451,
                -2.052246076910074,
                0.12322098726568839,
                1.2689436297378753
            ]
        },
        {
            "positions": [
                2.0556058433105235,
                -1.607581885078147,
                -1.419608097651873,
                -2.0666886346073583,
                0.23303898626106545,
                1.2929176892885086
            ]
        },
        {
            "positions": [
                2.0623082582970325,
                -1.6733532077298372,
                -1.522005921952295,
                -2.0811311923046425,
                0.3428569852564425,
                1.3168917488391418
            ]
        },
        {
            "positions": [
                2.069010673283541,
                -1.7391245303815275,
                -1.6244037462527168,
                -2.095573750001927,
                0.4526749842518196,
                1.3408658083897753
            ]
        },
        {
            "positions": [
                2.07571308827005,
                -1.8048958530332175,
                -1.7268015705531388,
                -2.1100163076992113,
                0.5624929832471967,
                1.3648398679404086
            ]
        },
        {
            "positions": [
                2.1550269793855703,
                -1.834967021734835,
                -1.7668670301482143,
                -2.1464220864520076,
                0.4959733538050416,
                1.4972401267176858
            ]
        },
        {
            "positions": [
                2.2343408705010908,
                -1.8650381904364528,
                -1.8069324897432897,
                -2.1828278652048043,
                0.42945372436288654,
                1.6296403854949633
            ]
        },
        {
            "positions": [
                2.313654761616611,
                -1.8951093591380705,
                -1.8469979493383653,
                -2.219233643957601,
                0.3629340949207315,
                1.7620406442722405
            ]
        },
        {
            "positions": [
                2.3929686527321317,
                -1.925180527839688,
                -1.8870634089334408,
                -2.2556394227103973,
                0.2964144654785764,
                1.8944409030495177
            ]
        },
        {
            "positions": [
                2.42632257928604,
                -1.9582372421144854,
                -1.8566857443735274,
                -2.2835319642750203,
                0.1998785277616194,
                2.052641532230048
            ]
        },
        {
            "positions": [
                2.459676505839948,
                -1.9912939563892824,
                -1.8263080798136142,
                -2.311424505839643,
                0.1033425900446624,
                2.2108421614105778
            ]
        },
        {
            "positions": [
                2.4930304323938564,
                -2.0243506706640795,
                -1.795930415253701,
                -2.339317047404266,
                0.006806652327705387,
                2.369042790591108
            ]
        },
        {
            "positions": [
                2.526384358947765,
                -2.0574073849388768,
                -1.7655527506937876,
                -2.3672095889688896,
                -0.08972928538925162,
                2.5272434197716382
            ]
        },
        {
            "positions": [
                2.5597382855016733,
                -2.090464099213674,
                -1.7351750861338742,
                -2.3951021305335125,
                -0.18626522310620863,
                2.6854440489521685
            ]
        },
        {
            "positions": [
                2.5930922120555815,
                -2.1235208134884713,
                -1.704797421573961,
                -2.4229946720981355,
                -0.28280116082316564,
                2.8436446781326987
            ]
        },
        {
            "positions": [
                2.6264461386094897,
                -2.156577527763268,
                -1.6744197570140478,
                -2.4508872136627584,
                -0.37933709854012265,
                3.0018453073132285
            ]
        },
        {
            "positions": [
                2.659800065163398,
                -2.1896342420380654,
                -1.6440420924541344,
                -2.4787797552273814,
                -0.47587303625707966,
                3.1600459364937588
            ]
        }
    ]
}