{
    "goal": {
        "global_pose": {
            "orientation": {
                "w": 0.7047431493862688,
                "x": -0.7094548369677653,
                "y": 0.0024358444001904,
                "z": -0.0022348060817251984
            },
            "position": {
                "x": -0.39052492380142206,
                "y": 0.3671506643295288,
                "z": 0.19426114857196808
            }
        },
        "name": "move_to_magneteinheit_D"
    },
    "id": "LazyPRMstar_move_to_magneteinheit_D_88",
    "joint_names": [
        "shoulder_pan_joint",
        "shoulder_lift_joint",
        "elbow_joint",
        "wrist_1_joint",
        "wrist_2_joint",
        "wrist_3_joint"
    ],
    "metrics": {
        "cart_traj_len": 3.6421398968255816,
        "distance_elbow_joint": 3.1440271297647784,
        "distance_shoulder_lift_joint": 1.888096716794723,
        "distance_shoulder_pan_joint": 2.9679690734355564,
        "distance_wrist_1_joint": 2.113092483222215,
        "distance_wrist_2_joint": 0.5668255765834341,
        "distance_wrist_3_joint": 3.220524299070452,
        "smoothness": 0.16296290608502365,
        "time": 5.048746231,
        "traj_len": 3.7283421622580675,
        "weighted_distance": 4.798072731505611
    },
    "planner": "LazyPRMstar",
    "start": {
        "state": {
            "elbow_joint": 0.749534889911806,
            "shoulder_lift_joint": -0.6476975780787326,
            "shoulder_pan_joint": -2.711696901376241,
            "wrist_1_joint": -0.07506478083263063,
            "wrist_2_joint": 0.43296659715538205,
            "wrist_3_joint": -3.14703540197715
        }
    },
    "waypoints": [
        {
            "positions": [
                -2.711696901376241,
                -0.6476975780787326,
                0.749534889911806,
                -0.07506478083263063,
                0.43296659715538205,
                -3.14703540197715
            ]
        },
        {
            "positions": [
                -2.728561906429608,
                -0.6261064886335772,
                0.6684267134003348,
                0.015310824768178855,
                0.3674771401563828,
                -3.059085215859943
            ]
        },
        {
            "positions": [
                -2.7454269114829746,
                -0.6045153991884218,
                0.5873185368888636,
                0.10568643036898834,
                0.30198768315738356,
                -2.9711350297427357
            ]
        },
        {
            "positions": [
                -2.7622919165363413,
                -0.5829243097432664,
                0.5062103603773924,
                0.19606203596979782,
                0.23649822615838428,
                -2.8831848436255285
            ]
        },
        {
            "positions": [
                -2.768376638704928,
                -0.56651775955111,
                0.4362595407337291,
                0.27464320815323107,
                0.18372026456855797,
                -2.8067429277423885
            ]
        },
        {
            "positions": [
                -2.7744613608735147,
                -0.5501112093589535,
                0.36630872109006574,
                0.35322438033666426,
                0.13094230297873166,
                -2.7303010118592486
            ]
        },
        {
            "positions": [
                -2.7805460830421014,
                -0.5337046591667971,
                0.29635790144640245,
                0.4318055525200975,
                0.07816434138890535,
                -2.653859095976109
            ]
        },
        {
            "positions": [
                -2.786630805210688,
                -0.5172981089746407,
                0.2264070818027391,
                0.5103867247035307,
                0.025386379799079026,
                -2.577417180092969
            ]
        },
        {
            "positions": [
                -2.6681062733454177,
                -0.5637262548901949,
                0.12786799886884082,
                0.5639398318184629,
                0.031191581904693403,
                -2.506981829726557
            ]
        },
        {
            "positions": [
                -2.549581741480148,
                -0.6101544008057492,
                0.02932891593494255,
                0.617492938933395,
                0.03699678401030778,
                -2.4365464793601443
            ]
        },
        {
            "positions": [
                -2.4310572096148775,
                -0.6565825467213035,
                -0.06921016699895571,
                0.6710460460483271,
                0.042801986115922154,
                -2.366111128993732
            ]
        },
        {
            "positions": [
                -2.312532677749607,
                -0.7030106926368578,
                -0.167749249932854,
                0.7245991531632592,
                0.048607188221536535,
                -2.29567577862732
            ]
        },
        {
            "positions": [
                -2.194008145884337,
                -0.749438838552412,
                -0.2662883328667523,
                0.7781522602781913,
                0.05441239032715091,
                -2.2252404282609075
            ]
        },
        {
            "positions": [
                -2.075483614019067,
                -0.7958669844679662,
                -0.36482741580065053,
                0.8317053673931234,
                0.06021759243276528,
                -2.1548050778944954
            ]
        },
        {
            "positions": [
                -1.9569590821537965,
                -0.8422951303835206,
                -0.4633664987345489,
                0.8852584745080556,
                0.06602279453837967,
                -2.084369727528083
            ]
        },
        {
            "positions": [
                -1.8384345502885262,
                -0.8887232762990749,
                -0.5619055816684471,
                0.9388115816229876,
                0.07182799664399403,
                -2.0139343771616707
            ]
        },
        {
            "positions": [
                -1.7199100184232559,
                -0.9351514222146291,
                -0.6604446646023454,
                0.9923646887379198,
                0.07763319874960842,
                -1.9434990267952583
            ]
        },
        {
            "positions": [
                -1.6013854865579857,
                -0.9815795681301833,
                -0.7589837475362438,
                1.0459177958528518,
                0.08343840085522279,
                -1.873063676428846
            ]
        },
        {
            "positions": [
                -1.4828609546927156,
                -1.0280077140457378,
                -0.8575228304701421,
                1.099470902967784,
                0.08924360296083718,
                -1.8026283260624338
            ]
        },
        {
            "positions": [
                -1.3643364228274453,
                -1.0744358599612918,
                -0.9560619134040402,
                1.153024010082716,
                0.09504880506645154,
                -1.7321929756960213
            ]
        },
        {
            "positions": [
                -1.2458118909621752,
                -1.1208640058768462,
                -1.0546009963379386,
                1.2065771171976483,
                0.10085400717206591,
                -1.6617576253296091
            ]
        },
        {
            "positions": [
                -1.1272873590969048,
                -1.1672921517924004,
                -1.153140079271837,
                1.2601302243125803,
                0.1066592092776803,
                -1.5913222749631968
            ]
        },
        {
            "positions": [
                -1.0087628272316347,
                -1.2137202977079546,
                -1.2516791622057353,
                1.3136833314275125,
                0.11246441138329467,
                -1.5208869245967844
            ]
        },
        {
            "positions": [
                -0.8902382953663646,
                -1.260148443623509,
                -1.3502182451396334,
                1.3672364385424445,
                0.11826961348890905,
                -1.4504515742303723
            ]
        },
        {
            "positions": [
                -0.7717137635010944,
                -1.306576589539063,
                -1.4487573280735315,
                1.4207895456573767,
                0.12407481559452342,
                -1.38001622386396
            ]
        },
        {
            "positions": [
                -0.6531892316358237,
                -1.3530047354546175,
                -1.54729641100743,
                1.4743426527723087,
                0.1298800177001378,
                -1.3095808734975476
            ]
        },
        {
            "positions": [
                -0.5346646997705538,
                -1.3994328813701717,
                -1.6458354939413282,
                1.527895759887241,
                0.13568521980575218,
                -1.2391455231311352
            ]
        },
        {
            "positions": [
                -0.4161401679052834,
                -1.445861027285726,
                -1.7443745768752266,
                1.581448867002173,
                0.14149042191136657,
                -1.168710172764723
            ]
        },
        {
            "positions": [
                -0.2976156360400135,
                -1.4922891732012804,
                -1.8429136598091247,
                1.6350019741171051,
                0.14729562401698093,
                -1.0982748223983108
            ]
        },
        {
            "positions": [
                -0.17909110417474317,
                -1.5387173191168346,
                -1.9414527427430233,
                1.6885550812320373,
                0.15310082612259535,
                -1.0278394720318984
            ]
        },
        {
            "positions": [
                -0.06056657230947297,
                -1.5851454650323888,
                -2.039991825676921,
                1.7421081883469693,
                0.1589060282282097,
                -0.957404121665486
            ]
        },
        {
            "positions": [
                -0.05358841801351425,
                -1.6908627200254267,
                -2.1248671232902816,
                1.7085324731119416,
                0.15861852572676466,
                -0.8177411243525952
            ]
        },
        {
            "positions": [
                -0.04661026371755554,
                -1.7965799750184643,
                -2.2097424209036416,
                1.6749567578769138,
                0.1583310232253196,
                -0.6780781270397043
            ]
        },
        {
            "positions": [
                -0.039632109421596826,
                -1.9022972300115022,
                -2.294617718517002,
                1.641381042641886,
                0.15804352072387456,
                -0.5384151297268133
            ]
        },
        {
            "positions": [
                -0.06481516025517883,
                -2.0073122091589597,
                -2.3414110759860973,
                1.5935697423128627,
                0.1626280708559799,
                -0.37718322009614846
            ]
        },
        {
            "positions": [
                -0.10509963458132401,
                -2.096539924994397,
                -2.3591047972750556,
                1.5444427196433599,
                0.1693876219098332,
                -0.22695918103299834
            ]
        },
        {
            "positions": [
                -0.14538410890746922,
                -2.1857676408298343,
                -2.376798518564014,
                1.4953156969738568,
                0.17614717296368645,
                -0.07673514196984821
            ]
        },
        {
            "positions": [
                -0.1856685832336144,
                -2.2749953566652716,
                -2.394492239852972,
                1.446188674304354,
                0.18290672401753974,
                0.0734888970933019
            ]
        }
    ]
}