{
    "goal": {
        "global_pose": {
            "orientation": {
                "w": 0.005598929693374612,
                "x": 0.007748599140229565,
                "y": 0.7110244013736278,
                "z": -0.7031023480610252
            },
            "position": {
                "x": 0.1141497679147869,
                "y": -0.7141253447532654,
                "z": 0.3711530566215515
            }
        },
        "name": "move_to_auspresseinheit_B"
    },
    "id": "LazyPRMstar_move_to_auspresseinheit_B_73",
    "joint_names": [
        "shoulder_pan_joint",
        "shoulder_lift_joint",
        "elbow_joint",
        "wrist_1_joint",
        "wrist_2_joint",
        "wrist_3_joint"
    ],
    "metrics": {
        "cart_traj_len": 0.5652182255765177,
        "distance_elbow_joint": 0.06692385686021551,
        "distance_shoulder_lift_joint": 0.2928072042710723,
        "distance_shoulder_pan_joint": 0.5757981512354187,
        "distance_wrist_1_joint": 0.3376188060658296,
        "distance_wrist_2_joint": 1.0011013702320486,
        "distance_wrist_3_joint": 0.000769958867122611,
        "smoothness": 0.0,
        "time": 5.0002304010000005,
        "traj_len": 1.508316726530508,
        "weighted_distance": 1.9013888191434782
    },
    "planner": "LazyPRMstar",
    "start": {
        "state": {
            "elbow_joint": 2.0193083361928714,
            "shoulder_lift_joint": -1.1220246554650708,
            "shoulder_pan_joint": -1.0952077554168747,
            "wrist_1_joint": -0.8559753972642168,
            "wrist_2_joint": 0.4759566250798843,
            "wrist_3_joint": -3.1240929996934557
        }
    },
    "waypoints": [
        {
            "positions": [
                -1.0952077554168747,
                -1.1220246554650708,
                2.0193083361928714,
                -0.8559753972642168,
                0.4759566250798843,
                -3.1240929996934557
            ]
        },
        {
            "positions": [
                -1.1911741139561112,
                -1.1708258561769163,
                2.008154360049502,
                -0.7997055962532452,
                0.6428068534518924,
                -3.1242213261713094
            ]
        },
        {
            "positions": [
                -1.2871404724953475,
                -1.2196270568887615,
                1.997000383906133,
                -0.7434357952422735,
                0.8096570818239004,
                -3.124349652649163
            ]
        },
        {
            "positions": [
                -1.383106831034584,
                -1.268428257600607,
                1.9858464077627636,
                -0.687165994231302,
                0.9765073101959085,
                -3.124477979127017
            ]
        },
        {
            "positions": [
                -1.4790731895738203,
                -1.3172294583124524,
                1.9746924316193943,
                -0.6308961932203304,
                1.1433575385679167,
                -3.1246063056048707
            ]
        },
        {
            "positions": [
                -1.575039548113057,
                -1.3660306590242977,
                1.9635384554760251,
                -0.5746263922093587,
                1.3102077669399248,
                -3.1247346320827245
            ]
        },
        {
            "positions": [
                -1.6710059066522933,
                -1.4148318597361431,
                1.952384479332656,
                -0.5183565911983872,
                1.477057995311933,
                -3.1248629585605783
            ]
        }
    ]
}