{
    "goal": {
        "global_pose": {
            "orientation": {
                "w": 0.7031023502349854,
                "x": -0.7110244035720825,
                "y": 0.007748599164187908,
                "z": 0.005598929710686207
            },
            "position": {
                "x": 0.11585023208521307,
                "y": 0.44412534475326537,
                "z": 0.3711530566215515
            }
        },
        "name": "move_to_auspresseinheit_A"
    },
    "id": "LazyPRM_move_to_auspresseinheit_A_31",
    "joint_names": [
        "shoulder_pan_joint",
        "shoulder_lift_joint",
        "elbow_joint",
        "wrist_1_joint",
        "wrist_2_joint",
        "wrist_3_joint"
    ],
    "metrics": {
        "cart_traj_len": 1.1808058704580369,
        "distance_elbow_joint": 0.1684964916019056,
        "distance_shoulder_lift_joint": 1.5994405810284895,
        "distance_shoulder_pan_joint": 3.8194737734860587,
        "distance_wrist_1_joint": 3.526417742857134,
        "distance_wrist_2_joint": 2.024674824275076,
        "distance_wrist_3_joint": 2.360684635208143,
        "smoothness": 0.8349742697228563,
        "time": 0.137669453,
        "traj_len": 3.674124119903518,
        "weighted_distance": 4.875617897867439
    },
    "planner": "LazyPRM",
    "start": {
        "state": {
            "elbow_joint": 2.4225746658250005,
            "shoulder_lift_joint": -1.3736534386056498,
            "shoulder_pan_joint": -0.3378633547517467,
            "wrist_1_joint": -1.0288598680537169,
            "wrist_2_joint": 1.233022673432363,
            "wrist_3_joint": -3.0940220416140027
        }
    },
    "waypoints": [
        {
            "positions": [
                -0.3378633547517467,
                -1.3736534386056498,
                2.4225746658250005,
                -1.0288598680537169,
                1.233022673432363,
                -3.0940220416140027
            ]
        },
        {
            "positions": [
                -0.4149967579393248,
                -1.433002728559099,
                2.4172014853520123,
                -0.9157158750159982,
                1.162065949935854,
                -3.0294809924788546
            ]
        },
        {
            "positions": [
                -0.4921301611269029,
                -1.492352018512548,
                2.4118283048790246,
                -0.8025718819782796,
                1.0911092264393452,
                -2.964939943343707
            ]
        },
        {
            "positions": [
                -0.569263564314481,
                -1.5517013084659972,
                2.4064551244060364,
                -0.689427888940561,
                1.0201525029428362,
                -2.900398894208559
            ]
        },
        {
            "positions": [
                -0.6463969675020591,
                -1.6110505984194465,
                2.4010819439330486,
                -0.5762838959028422,
                0.9491957794463273,
                -2.835857845073411
            ]
        },
        {
            "positions": [
                -0.7235303706896372,
                -1.6703998883728957,
                2.3957087634600605,
                -0.4631399028651235,
                0.8782390559498183,
                -2.771316795938263
            ]
        },
        {
            "positions": [
                -0.8006637738772152,
                -1.7297491783263448,
                2.3903355829870727,
                -0.3499959098274049,
                0.8072823324533095,
                -2.706775746803115
            ]
        },
        {
            "positions": [
                -0.8777971770647934,
                -1.789098468279794,
                2.3849624025140845,
                -0.2368519167896862,
                0.7363256089568004,
                -2.642234697667967
            ]
        },
        {
            "positions": [
                -0.9549305802523713,
                -1.848447758233243,
                2.379589222041097,
                -0.1237079237519676,
                0.6653688854602916,
                -2.5776936485328195
            ]
        },
        {
            "positions": [
                -1.0320639834399494,
                -1.9077970481866924,
                2.3742160415681086,
                -0.010563930714248881,
                0.5944121619637827,
                -2.5131525993976713
            ]
        },
        {
            "positions": [
                -1.1091973866275275,
                -1.9671463381401415,
                2.3688428610951204,
                0.10258006232346983,
                0.5234554384672737,
                -2.448611550262523
            ]
        },
        {
            "positions": [
                -1.1863307898151056,
                -2.0264956280935906,
                2.3634696806221327,
                0.21572405536118855,
                0.45249871497076477,
                -2.3840705011273755
            ]
        },
        {
            "positions": [
                -1.2634641930026838,
                -2.08584491804704,
                2.3580965001491445,
                0.32886804839890704,
                0.38154199147425594,
                -2.3195294519922274
            ]
        },
        {
            "positions": [
                -1.3405975961902616,
                -2.145194208000489,
                2.3527233196761568,
                0.44201204143662576,
                0.310585267977747,
                -2.2549884028570792
            ]
        },
        {
            "positions": [
                -1.41773099937784,
                -2.2045434979539382,
                2.3473501392031686,
                0.5551560344743445,
                0.23962854448123794,
                -2.1904473537219316
            ]
        },
        {
            "positions": [
                -1.494864402565418,
                -2.263892787907387,
                2.341976958730181,
                0.6683000275120632,
                0.1686718209847291,
                -2.1259063045867834
            ]
        },
        {
            "positions": [
                -1.571997805752996,
                -2.3232420778608365,
                2.3366037782571927,
                0.7814440205497817,
                0.09771509748822016,
                -2.0613652554516357
            ]
        },
        {
            "positions": [
                -1.649131208940574,
                -2.3825913678142854,
                2.331230597784205,
                0.8945880135875004,
                0.026758373991711215,
                -1.9968242063164876
            ]
        },
        {
            "positions": [
                -1.7262646121281522,
                -2.4419406577677347,
                2.3258574173112168,
                1.007732006625219,
                -0.04419834950479773,
                -1.9322831571813397
            ]
        },
        {
            "positions": [
                -1.583260346474643,
                -2.4106963423638286,
                2.330079725728165,
                0.9200951908500308,
                -0.0002304788378615641,
                -2.0028093778151916
            ]
        },
        {
            "positions": [
                -1.4402560808211342,
                -2.3794520269599224,
                2.3343020341451135,
                0.8324583750748427,
                0.0437373918290746,
                -2.0733355984490434
            ]
        },
        {
            "positions": [
                -1.297251815167625,
                -2.3482077115560163,
                2.338524342562062,
                0.7448215592996545,
                0.08770526249601077,
                -2.143861819082895
            ]
        },
        {
            "positions": [
                -1.1542475495141162,
                -2.31696339615211,
                2.3427466509790102,
                0.6571847435244664,
                0.13167313316294693,
                -2.214388039716747
            ]
        },
        {
            "positions": [
                -1.0112432838606071,
                -2.285719080748204,
                2.3469689593959586,
                0.5695479277492783,
                0.17564100382988312,
                -2.2849142603505985
            ]
        },
        {
            "positions": [
                -0.868239018207098,
                -2.254474765344298,
                2.351191267812907,
                0.4819111119740902,
                0.21960887449681926,
                -2.3554404809844502
            ]
        },
        {
            "positions": [
                -0.7252347525535892,
                -2.2232304499403917,
                2.3554135762298554,
                0.3942742961989021,
                0.2635767451637554,
                -2.425966701618302
            ]
        },
        {
            "positions": [
                -0.5822304869000801,
                -2.1919861345364855,
                2.3596358846468037,
                0.30663748042371397,
                0.3075446158306916,
                -2.4964929222521537
            ]
        },
        {
            "positions": [
                -0.4392262212465712,
                -2.1607418191325793,
                2.3638581930637517,
                0.21900066464852586,
                0.3515124864976278,
                -2.5670191428860054
            ]
        },
        {
            "positions": [
                -0.2962219555930621,
                -2.129497503728673,
                2.3680805014807,
                0.13136384887333774,
                0.395480357164564,
                -2.637545363519857
            ]
        },
        {
            "positions": [
                -0.15321768993955298,
                -2.098253188324767,
                2.3723028098976484,
                0.043727033098149626,
                0.4394482278315001,
                -2.708071584153709
            ]
        },
        {
            "positions": [
                -0.010213424286043882,
                -2.067008872920861,
                2.376525118314597,
                -0.04390978267703849,
                0.48341609849843625,
                -2.778597804787561
            ]
        },
        {
            "positions": [
                0.13279084136746477,
                -2.0357645575169547,
                2.380747426731545,
                -0.1315465984522266,
                0.5273839691653724,
                -2.8491240254214123
            ]
        },
        {
            "positions": [
                0.2757951070209739,
                -2.0045202421130486,
                2.3849697351484935,
                -0.21918341422741472,
                0.5713518398323085,
                -2.9196502460552645
            ]
        },
        {
            "positions": [
                0.41879937267448275,
                -1.9732759267091424,
                2.389192043565442,
                -0.30682023000260283,
                0.6153197104992447,
                -2.990176466689116
            ]
        },
        {
            "positions": [
                0.5618036383279921,
                -1.9420316113052363,
                2.3934143519823903,
                -0.39445704577779095,
                0.6592875811661809,
                -3.060702687322968
            ]
        },
        {
            "positions": [
                0.7048079039815011,
                -1.9107872959013301,
                2.3976366603993386,
                -0.4820938615529792,
                0.7032554518331171,
                -3.1312289079568196
            ]
        }
    ]
}