{
    "goal": {
        "global_pose": {
            "orientation": {
                "w": -0.4816463035849501,
                "x": 0.5182115481033762,
                "y": 0.4908360881923453,
                "z": -0.5084816262002911
            },
            "position": {
                "x": -0.8240239810943604,
                "y": -0.300875300988555,
                "z": 0.16403168439865112
            }
        },
        "name": "move_to_storage_C"
    },
    "id": "LazyPRMstar_move_to_storage_C_125",
    "joint_names": [
        "shoulder_pan_joint",
        "shoulder_lift_joint",
        "elbow_joint",
        "wrist_1_joint",
        "wrist_2_joint",
        "wrist_3_joint"
    ],
    "metrics": {
        "cart_traj_len": 0.5766353223732551,
        "distance_elbow_joint": 0.25392838549996055,
        "distance_shoulder_lift_joint": 0.18817651658122825,
        "distance_shoulder_pan_joint": 0.495334128783568,
        "distance_wrist_1_joint": 0.06476223279717597,
        "distance_wrist_2_joint": 1.0663721552321155,
        "distance_wrist_3_joint": 0.06888973088186567,
        "smoothness": 0.0,
        "time": 5.000184548999999,
        "traj_len": 1.4620065491563004,
        "weighted_distance": 1.8456372881931427
    },
    "planner": "LazyPRMstar",
    "start": {
        "state": {
            "elbow_joint": 2.010868314990456,
            "shoulder_lift_joint": -1.1634956873337592,
            "shoulder_pan_joint": -2.4736205022346125,
            "wrist_1_joint": -0.8367026794202681,
            "wrist_2_joint": 0.6746043897044499,
            "wrist_3_joint": -3.1496632123970403
        }
    },
    "waypoints": [
        {
            "positions": [
                -2.4736205022346125,
                -1.1634956873337592,
                2.010868314990456,
                -0.8367026794202681,
                0.6746043897044499,
                -3.1496632123970403
            ]
        },
        {
            "positions": [
                -2.556176190365207,
                -1.1321329345702211,
                1.968546917407129,
                -0.8259089739540721,
                0.8523330822431359,
                -3.138181590583396
            ]
        },
        {
            "positions": [
                -2.638731878495802,
                -1.100770181806683,
                1.9262255198238023,
                -0.8151152684878761,
                1.0300617747818217,
                -3.126699968769752
            ]
        },
        {
            "positions": [
                -2.7212875666263967,
                -1.069407429043145,
                1.8839041222404755,
                -0.8043215630216801,
                1.2077904673205078,
                -3.1152183469561074
            ]
        },
        {
            "positions": [
                -2.803843254756991,
                -1.038044676279607,
                1.8415827246571488,
                -0.7935278575554842,
                1.3855191598591934,
                -3.103736725142463
            ]
        },
        {
            "positions": [
                -2.8863989428875856,
                -1.0066819235160689,
                1.799261327073822,
                -0.7827341520892881,
                1.5632478523978794,
                -3.092255103328819
            ]
        },
        {
            "positions": [
                -2.9689546310181805,
                -0.9753191707525309,
                1.7569399294904953,
                -0.7719404466230921,
                1.7409765449365655,
                -3.0807734815151746
            ]
        }
    ]
}