{
    "goal": {
        "global_pose": {
            "orientation": {
                "w": 0.5084816262002911,
                "x": -0.4908360881923452,
                "y": 0.5182115481033761,
                "z": -0.48164630358495003
            },
            "position": {
                "x": 0.5540239810943604,
                "y": -0.46912469901144505,
                "z": 0.16403168439865112
            }
        },
        "name": "move_to_storage_B"
    },
    "id": "LazyPRM_move_to_storage_B_71",
    "joint_names": [
        "shoulder_pan_joint",
        "shoulder_lift_joint",
        "elbow_joint",
        "wrist_1_joint",
        "wrist_2_joint",
        "wrist_3_joint"
    ],
    "metrics": {
        "cart_traj_len": 1.0125294430818144,
        "distance_elbow_joint": 0.9354209397334561,
        "distance_shoulder_lift_joint": 0.9589715245334782,
        "distance_shoulder_pan_joint": 0.18158700545767525,
        "distance_wrist_1_joint": 2.997399007804151,
        "distance_wrist_2_joint": 2.704107799957506,
        "distance_wrist_3_joint": 3.1334507545551626,
        "smoothness": 0.07145321806040922,
        "time": 0.135844312,
        "traj_len": 3.3031707542967603,
        "weighted_distance": 4.783235865908497
    },
    "planner": "LazyPRM",
    "start": {
        "state": {
            "elbow_joint": 1.664937868594044,
            "shoulder_lift_joint": -0.661644460510453,
            "shoulder_pan_joint": -0.9139846352900073,
            "wrist_1_joint": 2.146753192139373,
            "wrist_2_joint": -2.2341966793290973,
            "wrist_3_joint": 0.005466555786416001
        }
    },
    "waypoints": [
        {
            "positions": [
                -0.9139846352900073,
                -0.661644460510453,
                1.664937868594044,
                2.146753192139373,
                -2.2341966793290973,
                0.005466555786416001
            ]
        },
        {
            "positions": [
                -0.9348625036699337,
                -0.7628459294925336,
                1.7567995816642339,
                2.130335096389538,
                -2.136719993498056,
                -0.032533072028771065
            ]
        },
        {
            "positions": [
                -0.9557403720498603,
                -0.8640473984746141,
                1.848661294734424,
                2.1139170006397032,
                -2.039243307667015,
                -0.07053269984395813
            ]
        },
        {
            "positions": [
                -0.9766182404297867,
                -0.9652488674566947,
                1.940523007804614,
                2.0974989048898682,
                -1.9417666218359735,
                -0.1085323276591452
            ]
        },
        {
            "positions": [
                -0.9974961088097133,
                -1.0664503364387752,
                2.0323847208748043,
                2.0810808091400337,
                -1.8442899360049323,
                -0.14653195547433226
            ]
        },
        {
            "positions": [
                -1.0183739771896398,
                -1.167651805420856,
                2.1242464339449945,
                2.0646627133901987,
                -1.7468132501738909,
                -0.18453158328951932
            ]
        },
        {
            "positions": [
                -1.0392518455695663,
                -1.2688532744029364,
                2.216108147015184,
                2.0482446176403637,
                -1.6493365643428497,
                -0.2225312111047064
            ]
        },
        {
            "positions": [
                -1.0601297139494927,
                -1.370054743385017,
                2.3079698600853744,
                2.0318265218905287,
                -1.5518598785118085,
                -0.2605308389198934
            ]
        },
        {
            "positions": [
                -1.0617407106221377,
                -1.3586655960368845,
                2.2946794533470958,
                1.900805052001651,
                -1.4599611967327077,
                -0.3908696280039322
            ]
        },
        {
            "positions": [
                -1.0633517072947827,
                -1.347276448688752,
                2.2813890466088176,
                1.7697835821127736,
                -1.368062514953607,
                -0.5212084170879709
            ]
        },
        {
            "positions": [
                -1.0649627039674276,
                -1.3358873013406196,
                2.268098639870539,
                1.638762112223896,
                -1.2761638331745062,
                -0.6515472061720098
            ]
        },
        {
            "positions": [
                -1.0665737006400726,
                -1.3244981539924872,
                2.2548082331322608,
                1.5077406423350186,
                -1.1842651513954054,
                -0.7818859952560486
            ]
        },
        {
            "positions": [
                -1.0681846973127176,
                -1.3131090066443547,
                2.241517826393982,
                1.376719172446141,
                -1.0923664696163047,
                -0.9122247843400872
            ]
        },
        {
            "positions": [
                -1.0697956939853628,
                -1.3017198592962222,
                2.228227419655704,
                1.2456977025572633,
                -1.000467787837204,
                -1.042563573424126
            ]
        },
        {
            "positions": [
                -1.0714066906580078,
                -1.2903307119480898,
                2.2149370129174253,
                1.1146762326683857,
                -0.908569106058103,
                -1.172902362508165
            ]
        },
        {
            "positions": [
                -1.0730176873306527,
                -1.2789415645999573,
                2.201646606179147,
                0.9836547627795083,
                -0.8166704242790022,
                -1.3032411515922038
            ]
        },
        {
            "positions": [
                -1.0746286840032977,
                -1.2675524172518249,
                2.1883561994408685,
                0.8526332928906306,
                -0.7247717424999014,
                -1.4335799406762426
            ]
        },
        {
            "positions": [
                -1.0762396806759427,
                -1.2561632699036924,
                2.1750657927025903,
                0.7216118230017532,
                -0.6328730607208006,
                -1.5639187297602812
            ]
        },
        {
            "positions": [
                -1.0778506773485876,
                -1.24477412255556,
                2.1617753859643116,
                0.5905903531128756,
                -0.5409743789416999,
                -1.69425751884432
            ]
        },
        {
            "positions": [
                -1.0794616740212326,
                -1.2333849752074273,
                2.1484849792260334,
                0.45956888322399814,
                -0.4490756971625991,
                -1.8245963079283587
            ]
        },
        {
            "positions": [
                -1.0810726706938776,
                -1.2219958278592948,
                2.135194572487755,
                0.3285474133351203,
                -0.35717701538349833,
                -1.9549350970123978
            ]
        },
        {
            "positions": [
                -1.0826836673665226,
                -1.2106066805111624,
                2.121904165749476,
                0.19752594344624286,
                -0.26527833360439756,
                -2.085273886096436
            ]
        },
        {
            "positions": [
                -1.0842946640391675,
                -1.19921753316303,
                2.108613759011198,
                0.06650447355736544,
                -0.1733796518252968,
                -2.2156126751804748
            ]
        },
        {
            "positions": [
                -1.0859056607118125,
                -1.1878283858148975,
                2.0953233522729193,
                -0.0645169963315122,
                -0.08148097004619581,
                -2.345951464264514
            ]
        },
        {
            "positions": [
                -1.0875166573844577,
                -1.176439238466765,
                2.082032945534641,
                -0.19553846622038984,
                0.010417711732904733,
                -2.4762902533485525
            ]
        },
        {
            "positions": [
                -1.0891276540571027,
                -1.1650500911186326,
                2.0687425387963625,
                -0.3265599361092675,
                0.10231639351200572,
                -2.6066290424325915
            ]
        },
        {
            "positions": [
                -1.0907386507297476,
                -1.1536609437705,
                2.0554521320580843,
                -0.4575814059981451,
                0.1942150752911065,
                -2.73696783151663
            ]
        },
        {
            "positions": [
                -1.0923496474023926,
                -1.1422717964223676,
                2.0421617253198057,
                -0.5886028758870223,
                0.28611375707020725,
                -2.8673066206006688
            ]
        },
        {
            "positions": [
                -1.0939606440750376,
                -1.1308826490742352,
                2.028871318581527,
                -0.7196243457759,
                0.378012438849308,
                -2.997645409684708
            ]
        },
        {
            "positions": [
                -1.0955716407476825,
                -1.1194935017261027,
                2.015580911843249,
                -0.8506458156647778,
                0.46991112062840884,
                -3.1279841987687464
            ]
        }
    ]
}