{
    "goal": {
        "global_pose": {
            "orientation": {
                "w": 0.005598929693374612,
                "x": 0.007748599140229565,
                "y": 0.7110244013736278,
                "z": -0.7031023480610252
            },
            "position": {
                "x": -0.8858502320852131,
                "y": -0.7141253447532654,
                "z": 0.3711530566215515
            }
        },
        "name": "move_to_auspresseinheit_C"
    },
    "id": "LazyPRMstar_move_to_auspresseinheit_C_108",
    "joint_names": [
        "shoulder_pan_joint",
        "shoulder_lift_joint",
        "elbow_joint",
        "wrist_1_joint",
        "wrist_2_joint",
        "wrist_3_joint"
    ],
    "metrics": {
        "cart_traj_len": 0.4921043560597427,
        "distance_elbow_joint": 0.9968332199818549,
        "distance_shoulder_lift_joint": 0.32362669678378553,
        "distance_shoulder_pan_joint": 0.25612821780902717,
        "distance_wrist_1_joint": 0.6793054056533147,
        "distance_wrist_2_joint": 1.302727611547536,
        "distance_wrist_3_joint": 0.05878410477318097,
        "smoothness": 8.074349282788172e-16,
        "time": 5.000693595,
        "traj_len": 1.9019477533698708,
        "weighted_distance": 2.3910262406121583
    },
    "planner": "LazyPRMstar",
    "start": {
        "state": {
            "elbow_joint": 1.7527959577737207,
            "shoulder_lift_joint": -0.9740617694225068,
            "shoulder_pan_joint": -2.967991417825858,
            "wrist_1_joint": -0.759517768980727,
            "wrist_2_joint": 1.7443932448377408,
            "wrist_3_joint": -3.0840537646736568
        }
    },
    "waypoints": [
        {
            "positions": [
                -2.967991417825858,
                -0.9740617694225068,
                1.7527959577737207,
                -0.759517768980727,
                1.7443932448377408,
                -3.0840537646736568
            ]
        },
        {
            "positions": [
                -2.9423785960449553,
                -0.9416990997441282,
                1.6531126357755352,
                -0.6915872284153955,
                1.6141204836829872,
                -3.0899321751509747
            ]
        },
        {
            "positions": [
                -2.9167657742640527,
                -0.9093364300657497,
                1.5534293137773496,
                -0.623656687850064,
                1.4838477225282336,
                -3.095810585628293
            ]
        },
        {
            "positions": [
                -2.8911529524831496,
                -0.8769737603873711,
                1.4537459917791642,
                -0.5557261472847326,
                1.35357496137348,
                -3.101688996105611
            ]
        },
        {
            "positions": [
                -2.865540130702247,
                -0.8446110907089925,
                1.3540626697809786,
                -0.4877956067194011,
                1.2233022002187264,
                -3.107567406582929
            ]
        },
        {
            "positions": [
                -2.8399273089213444,
                -0.812248421030614,
                1.2543793477827931,
                -0.41986506615406965,
                1.0930294390639728,
                -3.1134458170602475
            ]
        },
        {
            "positions": [
                -2.8143144871404417,
                -0.7798857513522355,
                1.1546960257846077,
                -0.3519345255887382,
                0.9627566779092193,
                -3.1193242275375654
            ]
        },
        {
            "positions": [
                -2.788701665359539,
                -0.747523081673857,
                1.055012703786422,
                -0.28400398502340674,
                0.8324839167544658,
                -3.1252026380148834
            ]
        },
        {
            "positions": [
                -2.763088843578636,
                -0.7151604119954784,
                0.9553293817882367,
                -0.2160734444580752,
                0.7022111555997121,
                -3.1310810484922014
            ]
        },
        {
            "positions": [
                -2.7374760217977334,
                -0.6827977423170998,
                0.8556460597900513,
                -0.14814290389274376,
                0.5719383944449585,
                -3.1369594589695198
            ]
        },
        {
            "positions": [
                -2.711863200016831,
                -0.6504350726387212,
                0.7559627377918657,
                -0.08021236332741229,
                0.44166563329020486,
                -3.1428378694468377
            ]
        }
    ]
}