{
    "goal": {
        "global_pose": {
            "orientation": {
                "w": 0.5084816217422485,
                "x": -0.49083608388900757,
                "y": 0.5182115435600281,
                "z": -0.4816462993621826
            },
            "position": {
                "x": 0.5540239810943604,
                "y": 0.030875300988554955,
                "z": 0.16403168439865112
            }
        },
        "name": "move_to_storage_A"
    },
    "id": "LazyPRM_move_to_storage_A_61",
    "joint_names": [
        "shoulder_pan_joint",
        "shoulder_lift_joint",
        "elbow_joint",
        "wrist_1_joint",
        "wrist_2_joint",
        "wrist_3_joint"
    ],
    "metrics": {
        "cart_traj_len": 0.3524486563533523,
        "distance_elbow_joint": 0.4528309057444935,
        "distance_shoulder_lift_joint": 0.23485406282015298,
        "distance_shoulder_pan_joint": 0.4585540534871801,
        "distance_wrist_1_joint": 0.25302274026291427,
        "distance_wrist_2_joint": 1.1082860895015252,
        "distance_wrist_3_joint": 0.10296950449994302,
        "smoothness": 7.771561092534257e-16,
        "time": 0.011700787,
        "traj_len": 1.6157095519666302,
        "weighted_distance": 2.043958217547642
    },
    "planner": "LazyPRM",
    "start": {
        "state": {
            "elbow_joint": 1.971548259319323,
            "shoulder_lift_joint": -1.1394851275133948,
            "shoulder_pan_joint": 0.1228115487234821,
            "wrist_1_joint": -0.7804723859257726,
            "wrist_2_joint": 0.12958671773740124,
            "wrist_3_joint": -3.192489227718131
        }
    },
    "waypoints": [
        {
            "positions": [
                0.1228115487234821,
                -1.1394851275133948,
                1.971548259319323,
                -0.7804723859257726,
                0.12958671773740124,
                -3.192489227718131
            ]
        },
        {
            "positions": [
                0.05730382679674209,
                -1.1730357079162739,
                2.0362383887113933,
                -0.8166184916776175,
                0.28791330195190484,
                -3.1777792985038538
            ]
        },
        {
            "positions": [
                -0.008203895129997918,
                -1.2065862883191527,
                2.100928518103464,
                -0.8527645974294624,
                0.4462398861664084,
                -3.163069369289576
            ]
        },
        {
            "positions": [
                -0.07371161705673793,
                -1.2401368687220318,
                2.1656186474955343,
                -0.8889107031813073,
                0.604566470380912,
                -3.1483594400752986
            ]
        },
        {
            "positions": [
                -0.13921933898347794,
                -1.2736874491249108,
                2.230308776887605,
                -0.9250568089331522,
                0.7628930545954157,
                -3.1336495108610207
            ]
        },
        {
            "positions": [
                -0.20472706091021797,
                -1.30723802952779,
                2.2949989062796754,
                -0.9612029146849971,
                0.9212196388099193,
                -3.1189395816467433
            ]
        },
        {
            "positions": [
                -0.27023478283695795,
                -1.3407886099306687,
                2.359689035671746,
                -0.997349020436842,
                1.0795462230244228,
                -3.1042296524324655
            ]
        },
        {
            "positions": [
                -0.335742504763698,
                -1.3743391903335478,
                2.4243791650638165,
                -1.0334951261886869,
                1.2378728072389265,
                -3.089519723218188
            ]
        }
    ]
}{
    "goal": {
        "global_pose": {
            "orientation": {
                "w": 0.5084816217422485,
                "x": -0.49083608388900757,
                "y": 0.5182115435600281,
                "z": -0.4816462993621826
            },
            "position": {
                "x": 0.5540239810943604,
                "y": 0.030875300988554955,
                "z": 0.16403168439865112
            }
        },
        "name": "move_to_storage_A"
    },
    "id": "LazyPRM_move_to_storage_A_61",
    "joint_names": [
        "shoulder_pan_joint",
        "shoulder_lift_joint",
        "elbow_joint",
        "wrist_1_joint",
        "wrist_2_joint",
        "wrist_3_joint"
    ],
    "metrics": {
        "cart_traj_len": 0.3537890315140638,
        "distance_elbow_joint": 0.44907087407441626,
        "distance_shoulder_lift_joint": 0.23497166686037674,
        "distance_shoulder_pan_joint": 0.46072932856139054,
        "distance_wrist_1_joint": 0.2361829468405796,
        "distance_wrist_2_joint": 1.1087431922807789,
        "distance_wrist_3_joint": 0.08847021559666945,
        "smoothness": 4.440892098500626e-16,
        "time": 0.021942741,
        "traj_len": 1.6056675322787752,
        "weighted_distance": 2.0248542650099313
    },
    "planner": "LazyPRM",
    "start": {
        "state": {
            "elbow_joint": 1.97154746011099,
            "shoulder_lift_joint": -1.13948474672311,
            "shoulder_pan_joint": 0.12281154466712228,
            "wrist_1_joint": -0.7804688027058302,
            "wrist_2_joint": 0.12958655903071145,
            "wrist_3_joint": 3.0906928834467795
        }
    },
    "waypoints": [
        {
            "positions": [
                0.12281154466712228,
                -1.13948474672311,
                1.97154746011099,
                -0.7804688027058302,
                0.12958655903071145,
                3.0906928834467795
            ]
        },
        {
            "positions": [
                0.056993069158352214,
                -1.1730521277031638,
                2.035700442121621,
                -0.8142092236830558,
                0.2879784436422513,
                3.1033314856748753
            ]
        },
        {
            "positions": [
                -0.008825406350417855,
                -1.2066195086832177,
                2.0998534241322515,
                -0.8479496446602814,
                0.4463703282537911,
                3.1159700879029706
            ]
        },
        {
            "positions": [
                -0.07464388185918792,
                -1.2401868896632715,
                2.1640064061428825,
                -0.8816900656375072,
                0.6047622128653309,
                3.1286086901310663
            ]
        },
        {
            "positions": [
                -0.14046235736795798,
                -1.2737542706433251,
                2.2281593881535136,
                -0.9154304866147328,
                0.7631540974768708,
                3.141247292359162
            ]
        },
        {
            "positions": [
                -0.2062808328767281,
                -1.307321651623379,
                2.2923123701641446,
                -0.9491709075919585,
                0.9215459820884107,
                3.153885894587258
            ]
        },
        {
            "positions": [
                -0.2720993083854981,
                -1.3408890326034328,
                2.356465352174775,
                -0.9829113285691842,
                1.0799378666999504,
                3.166524496815353
            ]
        },
        {
            "positions": [
                -0.33791778389426824,
                -1.3744564135834867,
                2.420618334185406,
                -1.0166517495464098,
                1.2383297513114904,
                3.179163099043449
            ]
        }
    ]
}{
    "goal": {
        "global_pose": {
            "orientation": {
                "w": 0.5084816217422485,
                "x": -0.49083608388900757,
                "y": 0.5182115435600281,
                "z": -0.4816462993621826
            },
            "position": {
                "x": 0.5540239810943604,
                "y": 0.030875300988554955,
                "z": 0.16403168439865112
            }
        },
        "name": "move_to_storage_A"
    },
    "id": "LazyPRM_move_to_storage_A_61",
    "joint_names": [
        "shoulder_pan_joint",
        "shoulder_lift_joint",
        "elbow_joint",
        "wrist_1_joint",
        "wrist_2_joint",
        "wrist_3_joint"
    ],
    "metrics": {
        "cart_traj_len": 0.3540333138790427,
        "distance_elbow_joint": 0.45159969275723366,
        "distance_shoulder_lift_joint": 0.23425489181729353,
        "distance_shoulder_pan_joint": 0.4627788855572295,
        "distance_wrist_1_joint": 0.24695665744439665,
        "distance_wrist_2_joint": 1.1017401384256413,
        "distance_wrist_3_joint": 0.09206351148178671,
        "smoothness": 6.661338200497456e-16,
        "time": 0.022029474,
        "traj_len": 1.6091593387491436,
        "weighted_distance": 2.0303245051757592
    },
    "planner": "LazyPRM",
    "start": {
        "state": {
            "elbow_joint": 1.9715472970024885,
            "shoulder_lift_joint": -1.1394870060712896,
            "shoulder_pan_joint": 0.12281152778156021,
            "wrist_1_joint": -0.780463741449964,
            "wrist_2_joint": 0.12958659822042276,
            "wrist_3_joint": 3.090690232415272
        }
    },
    "waypoints": [
        {
            "positions": [
                0.12281152778156021,
                -1.1394870060712896,
                1.9715472970024885,
                -0.780463741449964,
                0.12958659822042276,
                3.090690232415272
            ]
        },
        {
            "positions": [
                0.056700258416241725,
                -1.1729519906166173,
                2.0360615388249506,
                -0.8157432639420207,
                0.2869780465669429,
                3.1038421626269557
            ]
        },
        {
            "positions": [
                -0.009411010949076759,
                -1.206416975161945,
                2.1005757806474126,
                -0.8510227864340774,
                0.4443694949134631,
                3.1169940928386395
            ]
        },
        {
            "positions": [
                -0.07552228031439526,
                -1.2398819597072726,
                2.1650900224698746,
                -0.8863023089261339,
                0.6017609432599833,
                3.1301460230503233
            ]
        },
        {
            "positions": [
                -0.14163354967971373,
                -1.2733469442526002,
                2.229604264292336,
                -0.9215818314181906,
                0.7591523916065035,
                3.143297953262007
            ]
        },
        {
            "positions": [
                -0.20774481904503225,
                -1.3068119287979278,
                2.294118506114798,
                -0.9568613539102473,
                0.9165438399530237,
                3.156449883473691
            ]
        },
        {
            "positions": [
                -0.2738560884103507,
                -1.3402769133432555,
                2.35863274793726,
                -0.992140876402304,
                1.0739352882995439,
                3.1696018136853747
            ]
        },
        {
            "positions": [
                -0.3399673577756693,
                -1.3737418978885831,
                2.423146989759722,
                -1.0274203988943607,
                1.231326736646064,
                3.1827537438970586
            ]
        }
    ]
}