{
    "goal": {
        "global_pose": {
            "orientation": {
                "w": 0.7031023480610252,
                "x": -0.7110244013736278,
                "y": 0.0077485991402295624,
                "z": 0.005598929693374583
            },
            "position": {
                "x": -0.8841497679147869,
                "y": 0.44412534475326537,
                "z": 0.3711530566215515
            }
        },
        "name": "move_to_auspresseinheit_D"
    },
    "id": "LazyPRM_move_to_auspresseinheit_D_105",
    "joint_names": [
        "shoulder_pan_joint",
        "shoulder_lift_joint",
        "elbow_joint",
        "wrist_1_joint",
        "wrist_2_joint",
        "wrist_3_joint"
    ],
    "metrics": {
        "cart_traj_len": 0.34552716636260605,
        "distance_elbow_joint": 0.6742515791431436,
        "distance_shoulder_lift_joint": 0.1412538152968934,
        "distance_shoulder_pan_joint": 0.13424163061536318,
        "distance_wrist_1_joint": 0.6408366141700284,
        "distance_wrist_2_joint": 1.4470538508621549,
        "distance_wrist_3_joint": 0.08831317616860845,
        "smoothness": 2.9605947279411004e-16,
        "time": 0.012326779000000001,
        "traj_len": 1.7680358215421406,
        "weighted_distance": 2.3217380307919306
    },
    "planner": "LazyPRM",
    "start": {
        "state": {
            "elbow_joint": -1.8275523626775212,
            "shoulder_lift_joint": -2.126789852344167,
            "shoulder_pan_joint": -0.03513704404078235,
            "wrist_1_joint": -2.347782403156801,
            "wrist_2_joint": -1.6058999987535132,
            "wrist_3_joint": -3.0880379163319196
        }
    },
    "waypoints": [
        {
            "positions": [
                -0.03513704404078235,
                -2.126789852344167,
                -1.8275523626775212,
                -2.347782403156801,
                -1.6058999987535132,
                -3.0880379163319196
            ]
        },
        {
            "positions": [
                -0.05191724786770274,
                -2.1444465792562784,
                -1.7432709152846282,
                -2.4278869799280542,
                -1.4250182673957439,
                -3.0769987693108436
            ]
        },
        {
            "positions": [
                -0.06869745169462314,
                -2.1621033061683903,
                -1.6589894678917352,
                -2.507991556699308,
                -1.2441365360379746,
                -3.0659596222897676
            ]
        },
        {
            "positions": [
                -0.08547765552154354,
                -2.179760033080502,
                -1.5747080204988424,
                -2.5880961334705614,
                -1.063254804680205,
                -3.0549204752686916
            ]
        },
        {
            "positions": [
                -0.10225785934846393,
                -2.1974167599926133,
                -1.4904265731059494,
                -2.6682007102418153,
                -0.8823730733224358,
                -3.0438813282476156
            ]
        },
        {
            "positions": [
                -0.11903806317538435,
                -2.2150734869047253,
                -1.4061451257130564,
                -2.7483052870130686,
                -0.7014913419646664,
                -3.032842181226539
            ]
        },
        {
            "positions": [
                -0.13581826700230473,
                -2.232730213816837,
                -1.3218636783201636,
                -2.828409863784322,
                -0.5206096106068969,
                -3.021803034205463
            ]
        },
        {
            "positions": [
                -0.15259847082922512,
                -2.2503869407289487,
                -1.2375822309272706,
                -2.9085144405555754,
                -0.3397278792491276,
                -3.010763887184387
            ]
        },
        {
            "positions": [
                -0.16937867465614553,
                -2.2680436676410602,
                -1.1533007835343776,
                -2.988619017326829,
                -0.15884614789135842,
                -2.999724740163311
            ]
        }
    ]
}