{
    "goal": {
        "global_pose": {
            "orientation": {
                "w": 0.7047431493862688,
                "x": -0.7094548369677653,
                "y": 0.0024358444001904,
                "z": -0.0022348060817251984
            },
            "position": {
                "x": -0.39052492380142206,
                "y": 0.3671506643295288,
                "z": 0.19426114857196808
            }
        },
        "name": "move_to_magneteinheit_D"
    },
    "id": "LazyPRM_move_to_magneteinheit_D_110",
    "joint_names": [
        "shoulder_pan_joint",
        "shoulder_lift_joint",
        "elbow_joint",
        "wrist_1_joint",
        "wrist_2_joint",
        "wrist_3_joint"
    ],
    "metrics": {
        "cart_traj_len": 3.9165397291832216,
        "distance_elbow_joint": 3.147615156663997,
        "distance_shoulder_lift_joint": 3.890116014990789,
        "distance_shoulder_pan_joint": 6.010415236637904,
        "distance_wrist_1_joint": 2.9208417064990178,
        "distance_wrist_2_joint": 2.2728193542014474,
        "distance_wrist_3_joint": 5.619747346228333,
        "smoothness": 0.48084510676757647,
        "time": 0.193933083,
        "traj_len": 4.8848290466731275,
        "weighted_distance": 6.347811478641958
    },
    "planner": "LazyPRM",
    "start": {
        "state": {
            "elbow_joint": 0.749534889911806,
            "shoulder_lift_joint": -0.6476975780787326,
            "shoulder_pan_joint": -2.711696901376241,
            "wrist_1_joint": -0.07506478083263063,
            "wrist_2_joint": 0.43296659715538205,
            "wrist_3_joint": -3.14703540197715
        }
    },
    "waypoints": [
        {
            "positions": [
                -2.711696901376241,
                -0.6476975780787326,
                0.749534889911806,
                -0.07506478083263063,
                0.43296659715538205,
                -3.14703540197715
            ]
        },
        {
            "positions": [
                -2.73248090463259,
                -0.835233688686613,
                0.7345539278737179,
                -0.07851226939317349,
                0.4343843263222378,
                -3.134092383800728
            ]
        },
        {
            "positions": [
                -2.619190973649862,
                -0.9160278668319283,
                0.6844671138976237,
                -0.09508067357407157,
                0.39627847310536324,
                -3.0711013918401555
            ]
        },
        {
            "positions": [
                -2.505901042667134,
                -0.9968220449772435,
                0.6343802999215296,
                -0.11164907775496967,
                0.35817261988848864,
                -3.008110399879583
            ]
        },
        {
            "positions": [
                -2.392611111684406,
                -1.0776162231225588,
                0.5842934859454354,
                -0.12821748193586774,
                0.3200667666716141,
                -2.945119407919011
            ]
        },
        {
            "positions": [
                -2.279321180701678,
                -1.158410401267874,
                0.5342066719693412,
                -0.14478588611676585,
                0.2819609134547395,
                -2.8821284159584386
            ]
        },
        {
            "positions": [
                -2.1660312497189502,
                -1.2392045794131894,
                0.4841198579932471,
                -0.16135429029766393,
                0.24385506023786496,
                -2.819137423997866
            ]
        },
        {
            "positions": [
                -2.0527413187362225,
                -1.3199987575585046,
                0.4340330440171529,
                -0.17792269447856202,
                0.20574920702099042,
                -2.7561464320372937
            ]
        },
        {
            "positions": [
                -1.9394513877534942,
                -1.4007929357038198,
                0.38394623004105877,
                -0.1944910986594601,
                0.16764335380411588,
                -2.6931554400767217
            ]
        },
        {
            "positions": [
                -1.8261614567707665,
                -1.4815871138491352,
                0.3338594160649646,
                -0.2110595028403582,
                0.12953750058724123,
                -2.6301644481161492
            ]
        },
        {
            "positions": [
                -1.7128715257880385,
                -1.5623812919944504,
                0.28377260208887045,
                -0.2276279070212563,
                0.09143164737036669,
                -2.567173456155577
            ]
        },
        {
            "positions": [
                -1.5995815948053105,
                -1.6431754701397656,
                0.23368578811277627,
                -0.24419631120215438,
                0.05332579415349216,
                -2.5041824641950043
            ]
        },
        {
            "positions": [
                -1.509996962196721,
                -1.610848327488831,
                0.16065451832304892,
                -0.18081875171721612,
                0.028161952833580046,
                -2.396153175165315
            ]
        },
        {
            "positions": [
                -1.4204123295881317,
                -1.5785211848378964,
                0.08762324853332157,
                -0.11744119223227789,
                0.0029981115136679323,
                -2.2881238861356263
            ]
        },
        {
            "positions": [
                -1.3308276969795423,
                -1.5461940421869618,
                0.014591978743594192,
                -0.054063632747339635,
                -0.022165729806244178,
                -2.180094597105937
            ]
        },
        {
            "positions": [
                -1.2412430643709527,
                -1.5138668995360272,
                -0.05843929104613313,
                0.009313926737598593,
                -0.047329571126156295,
                -2.072065308076248
            ]
        },
        {
            "positions": [
                -1.1516584317623633,
                -1.4815397568850925,
                -0.13147056083586048,
                0.07269148622253682,
                -0.0724934124460684,
                -1.9640360190465591
            ]
        },
        {
            "positions": [
                -1.0620737991537739,
                -1.4492126142341577,
                -0.20450183062558788,
                0.1360690457074751,
                -0.09765725376598051,
                -1.8560067300168699
            ]
        },
        {
            "positions": [
                -0.9724891665451844,
                -1.416885471583223,
                -0.2775331004153152,
                0.19944660519241333,
                -0.12282109508589266,
                -1.7479774409871807
            ]
        },
        {
            "positions": [
                -0.882904533936595,
                -1.3845583289322885,
                -0.3505643702050425,
                0.2628241646773516,
                -0.14798493640580473,
                -1.6399481519574919
            ]
        },
        {
            "positions": [
                -0.7933199013280057,
                -1.3522311862813539,
                -0.4235956399947699,
                0.32620172416228976,
                -0.17314877772571685,
                -1.5319188629278027
            ]
        },
        {
            "positions": [
                -0.7037352687194162,
                -1.3199040436304192,
                -0.4966269097844972,
                0.38957928364722805,
                -0.19831261904562897,
                -1.4238895738981137
            ]
        },
        {
            "positions": [
                -0.6141506361108267,
                -1.2875769009794846,
                -0.5696581795742246,
                0.45295684313216633,
                -0.22347646036554109,
                -1.3158602848684247
            ]
        },
        {
            "positions": [
                -0.5245660035022373,
                -1.2552497583285498,
                -0.642689449363952,
                0.5163344026171046,
                -0.2486403016854532,
                -1.2078309958387354
            ]
        },
        {
            "positions": [
                -0.43498137089364786,
                -1.2229226156776152,
                -0.7157207191536794,
                0.5797119621020428,
                -0.2738041430053653,
                -1.0998017068090464
            ]
        },
        {
            "positions": [
                -0.34539673828505824,
                -1.1905954730266806,
                -0.7887519889434067,
                0.6430895215869811,
                -0.2989679843252775,
                -0.9917724177793572
            ]
        },
        {
            "positions": [
                -0.25581210567646906,
                -1.158268330375746,
                -0.861783258733134,
                0.7064670810719192,
                -0.32413182564518955,
                -0.8837431287496684
            ]
        },
        {
            "positions": [
                -0.16622747306787944,
                -1.1259411877248113,
                -0.9348145285228613,
                0.7698446405568575,
                -0.34929566696510167,
                -0.7757138397199792
            ]
        },
        {
            "positions": [
                -0.07664284045929004,
                -1.0936140450738767,
                -1.0078457983125888,
                0.8332222000417957,
                -0.3744595082850138,
                -0.6676845506902902
            ]
        },
        {
            "positions": [
                0.012941792149299136,
                -1.061286902422942,
                -1.080877068102316,
                0.8965997595267339,
                -0.39962334960492585,
                -0.5596552616606012
            ]
        },
        {
            "positions": [
                0.10252642475788876,
                -1.0289597597720075,
                -1.1539083378920434,
                0.9599773190116723,
                -0.42478719092483797,
                -0.4516259726309122
            ]
        },
        {
            "positions": [
                0.19211105736647816,
                -0.9966326171210729,
                -1.2269396076817707,
                1.0233548784966104,
                -0.4499510322447501,
                -0.343596683601223
            ]
        },
        {
            "positions": [
                0.28169568997506755,
                -0.9643054744701381,
                -1.2999708774714982,
                1.0867324379815486,
                -0.4751148735646622,
                -0.23556739457153375
            ]
        },
        {
            "positions": [
                0.3712803225836572,
                -0.9319783318192035,
                -1.3730021472612255,
                1.150109997466487,
                -0.5002787148845743,
                -0.12753810554184497
            ]
        },
        {
            "positions": [
                0.4608649551922466,
                -0.8996511891682689,
                -1.446033417050953,
                1.2134875569514252,
                -0.5254425562044864,
                -0.019508816512155747
            ]
        },
        {
            "positions": [
                0.550449587800836,
                -0.8673240465173342,
                -1.5190646868406803,
                1.2768651164363636,
                -0.5506063975243985,
                0.08852047251753348
            ]
        },
        {
            "positions": [
                0.6400342204094254,
                -0.8349969038663996,
                -1.5920959566304076,
                1.3402426759213018,
                -0.5757702388443107,
                0.1965497615472227
            ]
        },
        {
            "positions": [
                0.7296188530180148,
                -0.802669761215465,
                -1.665127226420135,
                1.40362023540624,
                -0.6009340801642228,
                0.3045790505769115
            ]
        },
        {
            "positions": [
                0.8192034856266046,
                -0.7703426185645302,
                -1.7381584962098624,
                1.4669977948911783,
                -0.626097921484135,
                0.4126083396066007
            ]
        },
        {
            "positions": [
                0.908788118235194,
                -0.7380154759135956,
                -1.8111897659995897,
                1.5303753543761165,
                -0.6512617628040471,
                0.5206376286362899
            ]
        },
        {
            "positions": [
                0.9983727508437834,
                -0.705688333262661,
                -1.884221035789317,
                1.5937529138610549,
                -0.6764256041239592,
                0.6286669176659792
            ]
        },
        {
            "positions": [
                1.0879573834523724,
                -0.6733611906117265,
                -1.9572523055790443,
                1.6571304733459928,
                -0.7015894454438713,
                0.7366962066956675
            ]
        },
        {
            "positions": [
                1.1775420160609618,
                -0.6410340479607919,
                -2.0302835753687716,
                1.720508032830931,
                -0.7267532867637834,
                0.8447254957253567
            ]
        },
        {
            "positions": [
                1.2671266486695516,
                -0.608706905309857,
                -2.103314845158499,
                1.7838855923158694,
                -0.7519171280836955,
                0.9527547847550459
            ]
        },
        {
            "positions": [
                1.356711281278141,
                -0.5763797626589224,
                -2.1763461149482266,
                1.8472631518008078,
                -0.7770809694036076,
                1.0607840737847352
            ]
        },
        {
            "positions": [
                1.4462959138867304,
                -0.5440526200079878,
                -2.249377384737954,
                1.9106407112857458,
                -0.8022448107235197,
                1.168813362814424
            ]
        },
        {
            "positions": [
                1.53588054649532,
                -0.5117254773570532,
                -2.322408654527681,
                1.9740182707706841,
                -0.8274086520434318,
                1.2768426518441134
            ]
        },
        {
            "positions": [
                1.4283011851044678,
                -0.6219247354912435,
                -2.327138130291713,
                1.940674796135893,
                -0.764308111626624,
                1.2021008210686712
            ]
        },
        {
            "positions": [
                1.3207218237136154,
                -0.7321239936254338,
                -2.331867606055745,
                1.907331321501102,
                -0.7012075712098162,
                1.1273589902932293
            ]
        },
        {
            "positions": [
                1.2131424623227631,
                -0.842323251759624,
                -2.3365970818197765,
                1.873987846866311,
                -0.6381070307930085,
                1.0526171595177871
            ]
        },
        {
            "positions": [
                1.105563100931911,
                -0.9525225098938143,
                -2.3413265575838085,
                1.84064437223152,
                -0.5750064903762007,
                0.9778753287423452
            ]
        },
        {
            "positions": [
                0.9979837395410585,
                -1.0627217680280046,
                -2.3460560333478404,
                1.8073008975967289,
                -0.5119059499593929,
                0.903133497966903
            ]
        },
        {
            "positions": [
                0.8904043781502062,
                -1.1729210261621947,
                -2.3507855091118723,
                1.773957422961938,
                -0.4488054095425851,
                0.828391667191461
            ]
        },
        {
            "positions": [
                0.7828250167593539,
                -1.283120284296385,
                -2.3555149848759043,
                1.7406139483271468,
                -0.3857048691257773,
                0.7536498364160189
            ]
        },
        {
            "positions": [
                0.6752456553685016,
                -1.3933195424305753,
                -2.3602444606399358,
                1.7072704736923558,
                -0.3226043287089695,
                0.6789080056405769
            ]
        },
        {
            "positions": [
                0.5676662939776492,
                -1.5035188005647657,
                -2.3649739364039677,
                1.6739269990575647,
                -0.2595037882921617,
                0.6041661748651348
            ]
        },
        {
            "positions": [
                0.4600869325867969,
                -1.613718058698956,
                -2.3697034121679996,
                1.6405835244227736,
                -0.1964032478753539,
                0.5294243440896927
            ]
        },
        {
            "positions": [
                0.35250757119594467,
                -1.723917316833146,
                -2.3744328879320316,
                1.6072400497879826,
                -0.1333027074585461,
                0.4546825133142507
            ]
        },
        {
            "positions": [
                0.24492820980509244,
                -1.8341165749673363,
                -2.3791623636960635,
                1.5738965751531915,
                -0.07020216704173832,
                0.3799406825388085
            ]
        },
        {
            "positions": [
                0.13734884841424,
                -1.9443158331015267,
                -2.3838918394600954,
                1.5405531005184006,
                -0.007101626624930524,
                0.3051988517633665
            ]
        },
        {
            "positions": [
                0.029769487023387775,
                -2.054515091235717,
                -2.388621315224127,
                1.5072096258836094,
                0.05599891379187727,
                0.23045702098792442
            ]
        },
        {
            "positions": [
                -0.07780987436746467,
                -2.1647143493699073,
                -2.393350790988159,
                1.4738661512488185,
                0.11909945420868506,
                0.15571519021248248
            ]
        },
        {
            "positions": [
                -0.18538923575831695,
                -2.2749136075040974,
                -2.3980802667521908,
                1.4405226766140273,
                0.1821999946254928,
                0.08097335943704037
            ]
        }
    ]
}