{
    "goal": {
        "global_pose": {
            "orientation": {
                "w": 0.7047431493862688,
                "x": -0.7094548369677653,
                "y": 0.0024358444001904,
                "z": -0.0022348060817251984
            },
            "position": {
                "x": -0.39052492380142206,
                "y": 0.3671506643295288,
                "z": 0.19426114857196808
            }
        },
        "name": "move_to_magneteinheit_D"
    },
    "id": "LazyPRMstar_move_to_magneteinheit_D_39",
    "joint_names": [
        "shoulder_pan_joint",
        "shoulder_lift_joint",
        "elbow_joint",
        "wrist_1_joint",
        "wrist_2_joint",
        "wrist_3_joint"
    ],
    "metrics": {
        "cart_traj_len": 4.423912697145342,
        "distance_elbow_joint": 3.140565049506995,
        "distance_shoulder_lift_joint": 1.6287759487252063,
        "distance_shoulder_pan_joint": 3.509834254058675,
        "distance_wrist_1_joint": 1.5304259529717668,
        "distance_wrist_2_joint": 2.2500405805448542,
        "distance_wrist_3_joint": 3.3043563943375203,
        "smoothness": 0.39401307108846023,
        "time": 5.038156622000001,
        "traj_len": 3.919693633454663,
        "weighted_distance": 5.074758861496445
    },
    "planner": "LazyPRMstar",
    "start": {
        "state": {
            "elbow_joint": 0.749534889911806,
            "shoulder_lift_joint": -0.6476975780787326,
            "shoulder_pan_joint": -2.711696901376241,
            "wrist_1_joint": -0.07506478083263063,
            "wrist_2_joint": 0.43296659715538205,
            "wrist_3_joint": -3.14703540197715
        }
    },
    "waypoints": [
        {
            "positions": [
                -2.711696901376241,
                -0.6476975780787326,
                0.749534889911806,
                -0.07506478083263063,
                0.43296659715538205,
                -3.14703540197715
            ]
        },
        {
            "positions": [
                -2.7312827817959304,
                -0.8513431793348964,
                0.7398778157285995,
                -0.04363463077663904,
                0.5128965272516549,
                -3.1879518464129446
            ]
        },
        {
            "positions": [
                -2.5660899980766656,
                -0.8816529171498374,
                0.6656312944937325,
                -0.009498933057104378,
                0.5264603627455976,
                -3.120270785889125
            ]
        },
        {
            "positions": [
                -2.4008972143574003,
                -0.9119626549647784,
                0.5913847732588654,
                0.024636764662430283,
                0.5400241982395403,
                -3.052589725365305
            ]
        },
        {
            "positions": [
                -2.235704430638135,
                -0.9422723927797192,
                0.5171382520239984,
                0.05877246238196496,
                0.553588033733483,
                -2.9849086648414853
            ]
        },
        {
            "positions": [
                -2.0705116469188702,
                -0.9725821305946601,
                0.4428917307891314,
                0.0929081601014996,
                0.5671518692274257,
                -2.9172276043176653
            ]
        },
        {
            "positions": [
                -1.9053188631996052,
                -1.002891868409601,
                0.36864520955426444,
                0.12704385782103428,
                0.5807157047213684,
                -2.8495465437938456
            ]
        },
        {
            "positions": [
                -1.7401260794803401,
                -1.0332016062245422,
                0.2943986883193974,
                0.16117955554056895,
                0.594279540215311,
                -2.7818654832700256
            ]
        },
        {
            "positions": [
                -1.5749332957610749,
                -1.063511344039483,
                0.22015216708453045,
                0.1953152532601036,
                0.6078433757092536,
                -2.714184422746206
            ]
        },
        {
            "positions": [
                -1.40974051204181,
                -1.0938210818544238,
                0.14590564584966337,
                0.22945095097963825,
                0.6214072112031963,
                -2.6465033622223864
            ]
        },
        {
            "positions": [
                -1.244547728322545,
                -1.124130819669365,
                0.0716591246147964,
                0.2635866486991729,
                0.634971046697139,
                -2.5788223016985663
            ]
        },
        {
            "positions": [
                -1.07935494460328,
                -1.1544405574843057,
                -0.00258739662007057,
                0.2977223464187076,
                0.6485348821910817,
                -2.5111412411747467
            ]
        },
        {
            "positions": [
                -0.9141621608840149,
                -1.1847502952992466,
                -0.07683391785493754,
                0.3318580441382422,
                0.6620987176850244,
                -2.443460180650927
            ]
        },
        {
            "positions": [
                -0.7489693771647497,
                -1.2150600331141876,
                -0.15108043908980462,
                0.36599374185777694,
                0.6756625531789671,
                -2.375779120127107
            ]
        },
        {
            "positions": [
                -0.5837765934454846,
                -1.2453697709291285,
                -0.2253269603246717,
                0.4001294395773116,
                0.6892263886729098,
                -2.3080980596032874
            ]
        },
        {
            "positions": [
                -0.41858380972621934,
                -1.2756795087440695,
                -0.29957348155953856,
                0.43426513729684624,
                0.7027902241668524,
                -2.2404169990794673
            ]
        },
        {
            "positions": [
                -0.25339102600695457,
                -1.3059892465590104,
                -0.37382000279440564,
                0.4684008350163809,
                0.7163540596607951,
                -2.1727359385556477
            ]
        },
        {
            "positions": [
                -0.21966834194048912,
                -1.3122689777762298,
                -0.4783614486360794,
                0.5190144930015913,
                0.6381619384731438,
                -2.061055916807806
            ]
        },
        {
            "positions": [
                -0.18594565787402367,
                -1.318548708993449,
                -0.5829028944777531,
                0.5696281509868016,
                0.5599698172854926,
                -1.9493758950599642
            ]
        },
        {
            "positions": [
                -0.15222297380755823,
                -1.3248284402106683,
                -0.6874443403194269,
                0.6202418089720121,
                0.48177769609784116,
                -1.8376958733121227
            ]
        },
        {
            "positions": [
                -0.11850028974109278,
                -1.3311081714278874,
                -0.7919857861611006,
                0.6708554669572224,
                0.40358557491018987,
                -1.7260158515642807
            ]
        },
        {
            "positions": [
                -0.08477760567462733,
                -1.3373879026451068,
                -0.8965272320027744,
                0.7214691249424328,
                0.3253934537225386,
                -1.6143358298164392
            ]
        },
        {
            "positions": [
                -0.051054921608161885,
                -1.3436676338623261,
                -1.0010686778444482,
                0.7720827829276431,
                0.24720133253488724,
                -1.5026558080685974
            ]
        },
        {
            "positions": [
                -0.017332237541696438,
                -1.3499473650795453,
                -1.1056101236861218,
                0.8226964409128535,
                0.1690092113472359,
                -1.3909757863207557
            ]
        },
        {
            "positions": [
                0.01639044652476901,
                -1.3562270962967646,
                -1.2101515695277958,
                0.873310098898064,
                0.09081709015958461,
                -1.279295764572914
            ]
        },
        {
            "positions": [
                0.050113130591234456,
                -1.362506827513984,
                -1.3146930153694694,
                0.9239237568832743,
                0.012624968971933326,
                -1.1676157428250722
            ]
        },
        {
            "positions": [
                0.0838358146576999,
                -1.3687865587312031,
                -1.4192344612111432,
                0.9745374148684847,
                -0.06556715221571796,
                -1.0559357210772304
            ]
        },
        {
            "positions": [
                0.11755849872416535,
                -1.3750662899484225,
                -1.523775907052817,
                1.025151072853695,
                -0.14375927340336936,
                -0.9442556993293887
            ]
        },
        {
            "positions": [
                0.1512811827906308,
                -1.3813460211656419,
                -1.6283173528944908,
                1.0757647308389053,
                -0.22195139459102065,
                -0.8325756775815472
            ]
        },
        {
            "positions": [
                0.18500386685709624,
                -1.387625752382861,
                -1.7328587987361646,
                1.126378388824116,
                -0.30014351577867204,
                -0.7208956558337054
            ]
        },
        {
            "positions": [
                0.2187265509235617,
                -1.3939054836000804,
                -1.8374002445778381,
                1.1769920468093262,
                -0.37833563696632333,
                -0.6092156340858637
            ]
        },
        {
            "positions": [
                0.2524492349900271,
                -1.4001852148172995,
                -1.941941690419512,
                1.2276057047945366,
                -0.4565277581539746,
                -0.4975356123380219
            ]
        },
        {
            "positions": [
                0.28617191905649264,
                -1.4064649460345189,
                -2.0464831362611857,
                1.278219362779747,
                -0.5347198793416259,
                -0.38585559059018015
            ]
        },
        {
            "positions": [
                0.22707270995817175,
                -1.5152160186306964,
                -2.089551514177936,
                1.3003620889496705,
                -0.44527248196199837,
                -0.3281876288303097
            ]
        },
        {
            "positions": [
                0.16797350085985085,
                -1.623967091226874,
                -2.132619892094686,
                1.3225048151195944,
                -0.35582508458237083,
                -0.27051966707043934
            ]
        },
        {
            "positions": [
                0.10887429176152999,
                -1.7327181638230513,
                -2.1756882700114364,
                1.344647541289518,
                -0.26637768720274335,
                -0.21285170531056893
            ]
        },
        {
            "positions": [
                0.0497750826632091,
                -1.8414692364192289,
                -2.2187566479281866,
                1.3667902674594417,
                -0.17693028982311582,
                -0.15518374355069853
            ]
        },
        {
            "positions": [
                -0.009324126435111768,
                -1.9502203090154064,
                -2.2618250258449373,
                1.3889329936293653,
                -0.08748289244348828,
                -0.0975157817908281
            ]
        },
        {
            "positions": [
                -0.06842333553343266,
                -2.0589713816115838,
                -2.3048934037616875,
                1.411075719799289,
                0.0019645049361391997,
                -0.039847820030957715
            ]
        },
        {
            "positions": [
                -0.12752254463175355,
                -2.1677224542077616,
                -2.3479617816784377,
                1.4332184459692128,
                0.09141190231576679,
                0.017820141728912664
            ]
        },
        {
            "positions": [
                -0.18662175373007445,
                -2.276473526803939,
                -2.391030159595188,
                1.4553611721391364,
                0.18085929969539427,
                0.07548810348878313
            ]
        }
    ]
}