{
    "goal": {
        "global_pose": {
            "orientation": {
                "w": 0.7031023480610252,
                "x": -0.7110244013736278,
                "y": 0.0077485991402295624,
                "z": 0.005598929693374583
            },
            "position": {
                "x": -0.8841497679147869,
                "y": 0.44412534475326537,
                "z": 0.3711530566215515
            }
        },
        "name": "move_to_auspresseinheit_D"
    },
    "id": "LazyPRM_move_to_auspresseinheit_D_136",
    "joint_names": [
        "shoulder_pan_joint",
        "shoulder_lift_joint",
        "elbow_joint",
        "wrist_1_joint",
        "wrist_2_joint",
        "wrist_3_joint"
    ],
    "metrics": {
        "cart_traj_len": 0.3447922993400169,
        "distance_elbow_joint": 0.6602744143385029,
        "distance_shoulder_lift_joint": 0.13339120562588036,
        "distance_shoulder_pan_joint": 0.134453199929318,
        "distance_wrist_1_joint": 0.5972818271364368,
        "distance_wrist_2_joint": 1.4446321873964687,
        "distance_wrist_3_joint": 0.05176862602560606,
        "smoothness": 1.3816108777619129e-15,
        "time": 0.012412984,
        "traj_len": 1.7383329544285275,
        "weighted_distance": 2.2731591952690713
    },
    "planner": "LazyPRM",
    "start": {
        "state": {
            "elbow_joint": -1.8275523626775212,
            "shoulder_lift_joint": -2.126789852344167,
            "shoulder_pan_joint": -0.03513704404078235,
            "wrist_1_joint": -2.347782403156801,
            "wrist_2_joint": -1.6058999987535132,
            "wrist_3_joint": -3.0880379163319196
        }
    },
    "waypoints": [
        {
            "positions": [
                -0.03513704404078235,
                -2.126789852344167,
                -1.8275523626775212,
                -2.347782403156801,
                -1.6058999987535132,
                -3.0880379163319196
            ]
        },
        {
            "positions": [
                -0.051943694031947096,
                -2.143463753047402,
                -1.7450180608852084,
                -2.4224426315488556,
                -1.4253209753289546,
                -3.081566838078719
            ]
        },
        {
            "positions": [
                -0.06875034402311185,
                -2.160137653750637,
                -1.6624837590928956,
                -2.49710285994091,
                -1.244741951904396,
                -3.075095759825518
            ]
        },
        {
            "positions": [
                -0.0855569940142766,
                -2.176811554453872,
                -1.5799494573005826,
                -2.5717630883329647,
                -1.0641629284798375,
                -3.0686246815723175
            ]
        },
        {
            "positions": [
                -0.10236364400544135,
                -2.193485455157107,
                -1.4974151555082698,
                -2.646423316725019,
                -0.8835839050552788,
                -3.062153603319117
            ]
        },
        {
            "positions": [
                -0.11917029399660611,
                -2.210159355860342,
                -1.414880853715957,
                -2.721083545117074,
                -0.7030048816307203,
                -3.0556825250659156
            ]
        },
        {
            "positions": [
                -0.13597694398777085,
                -2.226833256563577,
                -1.332346551923644,
                -2.7957437735091286,
                -0.5224258582061616,
                -3.049211446812715
            ]
        },
        {
            "positions": [
                -0.1527835939789356,
                -2.243507157266812,
                -1.2498122501313311,
                -2.870404001901183,
                -0.34184683478160305,
                -3.0427403685595142
            ]
        },
        {
            "positions": [
                -0.16959024397010036,
                -2.260181057970047,
                -1.1672779483390183,
                -2.9450642302932377,
                -0.16126781135704443,
                -3.0362692903063135
            ]
        }
    ]
}