{
    "goal": {
        "global_pose": {
            "orientation": {
                "w": 0.5084816262002911,
                "x": -0.4908360881923452,
                "y": 0.5182115481033761,
                "z": -0.48164630358495003
            },
            "position": {
                "x": 0.5540239810943604,
                "y": -0.46912469901144505,
                "z": 0.16403168439865112
            }
        },
        "name": "move_to_storage_B"
    },
    "id": "LazyPRMstar_move_to_storage_B_30",
    "joint_names": [
        "shoulder_pan_joint",
        "shoulder_lift_joint",
        "elbow_joint",
        "wrist_1_joint",
        "wrist_2_joint",
        "wrist_3_joint"
    ],
    "metrics": {
        "cart_traj_len": 0.6122146576677003,
        "distance_elbow_joint": 0.35024488218019556,
        "distance_shoulder_lift_joint": 0.45814642717093346,
        "distance_shoulder_pan_joint": 0.24760589079288786,
        "distance_wrist_1_joint": 2.981657866857266,
        "distance_wrist_2_joint": 2.7075309544911526,
        "distance_wrist_3_joint": 3.154604927226102,
        "smoothness": 0.029289837742771548,
        "time": 5.054767421,
        "traj_len": 3.1463933239057287,
        "weighted_distance": 4.679550151939731
    },
    "planner": "LazyPRMstar",
    "start": {
        "state": {
            "elbow_joint": 1.664937868594044,
            "shoulder_lift_joint": -0.661644460510453,
            "shoulder_pan_joint": -0.9139846352900073,
            "wrist_1_joint": 2.146753192139373,
            "wrist_2_joint": -2.2341966793290973,
            "wrist_3_joint": 0.005466555786416001
        }
    },
    "waypoints": [
        {
            "positions": [
                -0.9139846352900073,
                -0.661644460510453,
                1.664937868594044,
                2.146753192139373,
                -2.2341966793290973,
                0.005466555786416001
            ]
        },
        {
            "positions": [
                -0.881237200383304,
                -0.6792310769387124,
                1.7013391345981868,
                2.0750109798399228,
                -2.080179177498187,
                -0.002863318829652915
            ]
        },
        {
            "positions": [
                -0.8898315386187514,
                -0.6968534693684194,
                1.7138928792452288,
                1.9586143536576102,
                -1.9780386393917773,
                -0.12871432093405422
            ]
        },
        {
            "positions": [
                -0.8984258768541987,
                -0.7144758617981264,
                1.7264466238922709,
                1.8422177274752976,
                -1.8758981012853677,
                -0.2545653230384555
            ]
        },
        {
            "positions": [
                -0.9070202150896461,
                -0.7320982542278334,
                1.7390003685393132,
                1.725821101292985,
                -1.773757563178958,
                -0.38041632514285684
            ]
        },
        {
            "positions": [
                -0.9156145533250936,
                -0.7497206466575402,
                1.7515541131863552,
                1.6094244751106723,
                -1.6716170250725484,
                -0.5062673272472582
            ]
        },
        {
            "positions": [
                -0.9242088915605409,
                -0.7673430390872472,
                1.7641078578333973,
                1.4930278489283597,
                -1.5694764869661384,
                -0.6321183293516596
            ]
        },
        {
            "positions": [
                -0.9328032297959883,
                -0.7849654315169542,
                1.7766616024804394,
                1.376631222746047,
                -1.4673359488597288,
                -0.7579693314560608
            ]
        },
        {
            "positions": [
                -0.9413975680314357,
                -0.8025878239466612,
                1.7892153471274814,
                1.2602345965637343,
                -1.365195410753319,
                -0.8838203335604623
            ]
        },
        {
            "positions": [
                -0.9499919062668831,
                -0.8202102163763682,
                1.8017690917745237,
                1.1438379703814219,
                -1.2630548726469095,
                -1.0096713356648634
            ]
        },
        {
            "positions": [
                -0.9585862445023304,
                -0.837832608806075,
                1.8143228364215658,
                1.027441344199109,
                -1.1609143345404997,
                -1.1355223377692647
            ]
        },
        {
            "positions": [
                -0.9671805827377778,
                -0.855455001235782,
                1.8268765810686078,
                0.9110447180167964,
                -1.05877379643409,
                -1.2613733398736662
            ]
        },
        {
            "positions": [
                -0.9757749209732252,
                -0.873077393665489,
                1.83943032571565,
                0.7946480918344838,
                -0.9566332583276804,
                -1.3872243419780674
            ]
        },
        {
            "positions": [
                -0.9843692592086726,
                -0.890699786095196,
                1.851984070362692,
                0.6782514656521712,
                -0.8544927202212709,
                -1.5130753440824687
            ]
        },
        {
            "positions": [
                -0.99296359744412,
                -0.9083221785249029,
                1.8645378150097343,
                0.5618548394698586,
                -0.7523521821148609,
                -1.6389263461868702
            ]
        },
        {
            "positions": [
                -1.0015579356795674,
                -0.9259445709546099,
                1.8770915596567763,
                0.44545821328754576,
                -0.6502116440084511,
                -1.7647773482912716
            ]
        },
        {
            "positions": [
                -1.0101522739150148,
                -0.9435669633843169,
                1.8896453043038184,
                0.32906158710523337,
                -0.5480711059020418,
                -1.8906283503956727
            ]
        },
        {
            "positions": [
                -1.018746612150462,
                -0.9611893558140239,
                1.9021990489508604,
                0.21266496092292075,
                -0.445930567795632,
                -2.016479352500074
            ]
        },
        {
            "positions": [
                -1.0273409503859094,
                -0.9788117482437309,
                1.9147527935979025,
                0.09626833474060792,
                -0.34379002968922223,
                -2.1423303546044754
            ]
        },
        {
            "positions": [
                -1.0359352886213569,
                -0.9964341406734377,
                1.9273065382449448,
                -0.020128291441704693,
                -0.24164949158281268,
                -2.2681813567088764
            ]
        },
        {
            "positions": [
                -1.0445296268568043,
                -1.0140565331031448,
                1.9398602828919869,
                -0.1365249176240173,
                -0.1395089534764029,
                -2.394032358813278
            ]
        },
        {
            "positions": [
                -1.0531239650922517,
                -1.0316789255328516,
                1.952414027539029,
                -0.2529215438063299,
                -0.03736841536999291,
                -2.5198833609176794
            ]
        },
        {
            "positions": [
                -1.0617183033276991,
                -1.0493013179625585,
                1.964967772186071,
                -0.36931816998864253,
                0.06477212273641664,
                -2.6457343630220804
            ]
        },
        {
            "positions": [
                -1.0703126415631465,
                -1.0669237103922655,
                1.977521516833113,
                -0.48571479617095514,
                0.1669126608428262,
                -2.771585365126482
            ]
        },
        {
            "positions": [
                -1.0789069797985937,
                -1.0845461028219725,
                1.9900752614801553,
                -0.6021114223532678,
                0.2690531989492362,
                -2.8974363672308834
            ]
        },
        {
            "positions": [
                -1.0875013180340412,
                -1.1021684952516795,
                2.002629006127197,
                -0.7185080485355804,
                0.3711937370556453,
                -3.0232873693352844
            ]
        },
        {
            "positions": [
                -1.0960956562694886,
                -1.1197908876813865,
                2.0151827507742395,
                -0.834904674717893,
                0.47333427516205534,
                -3.149138371439686
            ]
        }
    ]
}