{
    "goal": {
        "global_pose": {
            "orientation": {
                "w": 0.7047431493862688,
                "x": -0.7094548369677653,
                "y": 0.0024358444001904,
                "z": -0.0022348060817251984
            },
            "position": {
                "x": -0.39052492380142206,
                "y": 0.3671506643295288,
                "z": 0.19426114857196808
            }
        },
        "name": "move_to_magneteinheit_D"
    },
    "id": "LazyPRM_move_to_magneteinheit_D_89",
    "joint_names": [
        "shoulder_pan_joint",
        "shoulder_lift_joint",
        "elbow_joint",
        "wrist_1_joint",
        "wrist_2_joint",
        "wrist_3_joint"
    ],
    "metrics": {
        "cart_traj_len": 5.910386292514138,
        "distance_elbow_joint": 3.5581529564783776,
        "distance_shoulder_lift_joint": 1.1030745197852692,
        "distance_shoulder_pan_joint": 7.641887258800706,
        "distance_wrist_1_joint": 3.4611571577316744,
        "distance_wrist_2_joint": 2.7834489901061663,
        "distance_wrist_3_joint": 6.27957238854331,
        "smoothness": 0.34224263944614497,
        "time": 0.39064693300000003,
        "traj_len": 4.982699396054865,
        "weighted_distance": 6.605379943377215
    },
    "planner": "LazyPRM",
    "start": {
        "state": {
            "elbow_joint": 0.749534889911806,
            "shoulder_lift_joint": -0.6476975780787326,
            "shoulder_pan_joint": -2.711696901376241,
            "wrist_1_joint": -0.07506478083263063,
            "wrist_2_joint": 0.43296659715538205,
            "wrist_3_joint": -3.14703540197715
        }
    },
    "waypoints": [
        {
            "positions": [
                -2.711696901376241,
                -0.6476975780787326,
                0.749534889911806,
                -0.07506478083263063,
                0.43296659715538205,
                -3.14703540197715
            ]
        },
        {
            "positions": [
                -2.726384838320789,
                -0.6452691944549331,
                0.7160127502629904,
                0.05831344958048676,
                0.31100428795372337,
                -3.1455220741687655
            ]
        },
        {
            "positions": [
                -2.7410727752653377,
                -0.6428408108311335,
                0.6824906106141748,
                0.19169167999360415,
                0.18904197875206474,
                -3.144008746360381
            ]
        },
        {
            "positions": [
                -2.69872429763529,
                -0.6659680080638843,
                0.615405553792914,
                0.2755136184727965,
                0.1004658445865988,
                -3.1256739930879633
            ]
        },
        {
            "positions": [
                -2.6563758200052425,
                -0.6890952052966353,
                0.5483204969716531,
                0.3593355569519888,
                0.011889710421132849,
                -3.1073392398155457
            ]
        },
        {
            "positions": [
                -2.614027342375195,
                -0.7122224025293861,
                0.4812354401503922,
                0.4431574954311811,
                -0.07668642374433304,
                -3.0890044865431276
            ]
        },
        {
            "positions": [
                -2.5716788647451474,
                -0.735349599762137,
                0.41415038332913134,
                0.5269794339103735,
                -0.16526255790979905,
                -3.07066973327071
            ]
        },
        {
            "positions": [
                -2.5293303871151,
                -0.7584767969948878,
                0.3470653265078705,
                0.6108013723895658,
                -0.25383869207526494,
                -3.0523349799982924
            ]
        },
        {
            "positions": [
                -2.410493111481203,
                -0.7719757006549279,
                0.2754743525453175,
                0.5642580695801297,
                -0.2274218173823157,
                -2.940031169243316
            ]
        },
        {
            "positions": [
                -2.291655835847307,
                -0.7854746043149681,
                0.2038833785827645,
                0.5177147667706936,
                -0.20100494268936647,
                -2.82772735848834
            ]
        },
        {
            "positions": [
                -2.1728185602134102,
                -0.7989735079750082,
                0.13229240462021155,
                0.4711714639612576,
                -0.17458806799641724,
                -2.7154235477333635
            ]
        },
        {
            "positions": [
                -2.053981284579514,
                -0.8124724116350484,
                0.06070143065765854,
                0.4246281611518215,
                -0.148171193303468,
                -2.603119736978387
            ]
        },
        {
            "positions": [
                -1.9351440089456173,
                -0.8259713152950885,
                -0.010889543304894445,
                0.3780848583423855,
                -0.12175431861051877,
                -2.490815926223411
            ]
        },
        {
            "positions": [
                -1.8163067333117209,
                -0.8394702189551286,
                -0.08248051726744737,
                0.3315415555329494,
                -0.09533744391756957,
                -2.3785121154684346
            ]
        },
        {
            "positions": [
                -1.6974694576778244,
                -0.8529691226151688,
                -0.1540714912300004,
                0.28499825272351326,
                -0.06892056922462031,
                -2.2662083047134582
            ]
        },
        {
            "positions": [
                -1.5786321820439277,
                -0.8664680262752089,
                -0.2256624651925534,
                0.23845494991407723,
                -0.04250369453167108,
                -2.153904493958482
            ]
        },
        {
            "positions": [
                -1.4597949064100313,
                -0.879966929935249,
                -0.2972534391551064,
                0.19191164710464115,
                -0.016086819838721844,
                -2.0416006832035056
            ]
        },
        {
            "positions": [
                -1.3409576307761348,
                -0.8934658335952892,
                -0.36884441311765936,
                0.14536834429520512,
                0.010330054854227388,
                -1.9292968724485293
            ]
        },
        {
            "positions": [
                -1.2221203551422384,
                -0.9069647372553293,
                -0.44043538708021235,
                0.09882504148576898,
                0.03674692954717662,
                -1.8169930616935528
            ]
        },
        {
            "positions": [
                -1.103283079508342,
                -0.9204636409153695,
                -0.5120263610427652,
                0.05228173867633301,
                0.0631638042401258,
                -1.7046892509385767
            ]
        },
        {
            "positions": [
                -0.9844458038744455,
                -0.9339625445754097,
                -0.5836173350053183,
                0.005738435866896929,
                0.08958067893307509,
                -1.5923854401836002
            ]
        },
        {
            "positions": [
                -0.8656085282405488,
                -0.9474614482354499,
                -0.6552083089678713,
                -0.040804866942539264,
                0.11599755362602432,
                -1.4800816294286239
            ]
        },
        {
            "positions": [
                -0.7467712526066526,
                -0.96096035189549,
                -0.7267992829304242,
                -0.08734816975197524,
                0.1424144283189735,
                -1.3677778186736476
            ]
        },
        {
            "positions": [
                -0.6279339769727559,
                -0.9744592555555301,
                -0.7983902568929773,
                -0.13389147256141132,
                0.16883130301192278,
                -1.2554740079186713
            ]
        },
        {
            "positions": [
                -0.5090967013388594,
                -0.9879581592155703,
                -0.8699812308555301,
                -0.1804347753708474,
                0.19524817770487196,
                -1.1431701971636952
            ]
        },
        {
            "positions": [
                -0.39025942570496275,
                -1.0014570628756103,
                -0.9415722048180832,
                -0.22697807818028348,
                0.22166505239782125,
                -1.0308663864087189
            ]
        },
        {
            "positions": [
                -0.2714221500710665,
                -1.0149559665356507,
                -1.0131631787806363,
                -0.27352138098971956,
                0.24808192709077043,
                -0.9185625756537421
            ]
        },
        {
            "positions": [
                -0.15258487443716984,
                -1.0284548701956906,
                -1.0847541527431892,
                -0.32006468379915554,
                0.2744988017837197,
                -0.8062587648987662
            ]
        },
        {
            "positions": [
                -0.033747598803273604,
                -1.041953773855731,
                -1.156345126705742,
                -0.36660798660859173,
                0.3009156764766689,
                -0.6939549541437895
            ]
        },
        {
            "positions": [
                0.08508967683062307,
                -1.0554526775157709,
                -1.2279361006682952,
                -0.4131512894180278,
                0.3273325511696182,
                -0.5816511433888132
            ]
        },
        {
            "positions": [
                0.20392695246451975,
                -1.0689515811758112,
                -1.2995270746308483,
                -0.459694592227464,
                0.35374942586256747,
                -0.4693473326338369
            ]
        },
        {
            "positions": [
                0.322764228098416,
                -1.0824504848358512,
                -1.371118048593401,
                -0.5062378950368998,
                0.38016630055551653,
                -0.357043521878861
            ]
        },
        {
            "positions": [
                0.4416015037323122,
                -1.0959493884958915,
                -1.442709022555954,
                -0.552781197846336,
                0.4065831752484658,
                -0.2447397111238847
            ]
        },
        {
            "positions": [
                0.5604387793662089,
                -1.1094482921559317,
                -1.514299996518507,
                -0.5993245006557719,
                0.4330000499414151,
                -0.13243590036890796
            ]
        },
        {
            "positions": [
                0.6792760550001056,
                -1.1229471958159718,
                -1.5858909704810602,
                -0.6458678034652081,
                0.4594169246343643,
                -0.020132089613931647
            ]
        },
        {
            "positions": [
                0.7981133306340022,
                -1.136446099476012,
                -1.657481944443613,
                -0.6924111062746443,
                0.4858337993273136,
                0.09217172114104466
            ]
        },
        {
            "positions": [
                0.9169506062678985,
                -1.149945003136052,
                -1.729072918406166,
                -0.73895440908408,
                0.5122506740202628,
                0.20447553189602052
            ]
        },
        {
            "positions": [
                1.0357878819017947,
                -1.1634439067960922,
                -1.8006638923687188,
                -0.7854977118935162,
                0.538667548713212,
                0.3167793426509973
            ]
        },
        {
            "positions": [
                1.1546251575356914,
                -1.1769428104561324,
                -1.8722548663312721,
                -0.8320410147029524,
                0.5650844234061612,
                0.4290831534059736
            ]
        },
        {
            "positions": [
                1.273462433169588,
                -1.1904417141161725,
                -1.943845840293825,
                -0.8785843175123884,
                0.5915012980991106,
                0.5413869641609499
            ]
        },
        {
            "positions": [
                1.3922997088034847,
                -1.2039406177762126,
                -2.015436814256378,
                -0.9251276203218246,
                0.6179181727920597,
                0.6536907749159262
            ]
        },
        {
            "positions": [
                1.511136984437381,
                -1.2174395214362528,
                -2.087027788218931,
                -0.9716709231312606,
                0.6443350474850089,
                0.7659945856709021
            ]
        },
        {
            "positions": [
                1.6299742600712772,
                -1.230938425096293,
                -2.158618762181484,
                -1.0182142259406965,
                0.6707519221779581,
                0.8782983964258788
            ]
        },
        {
            "positions": [
                1.7488115357051743,
                -1.244437328756333,
                -2.2302097361440367,
                -1.0647575287501327,
                0.6971687968709075,
                0.9906022071808547
            ]
        },
        {
            "positions": [
                1.8676488113390706,
                -1.2579362324163732,
                -2.3018007101065896,
                -1.1113008315595687,
                0.7235856715638567,
                1.1029060179358314
            ]
        },
        {
            "positions": [
                1.9864860869729668,
                -1.2714351360764133,
                -2.3733916840691434,
                -1.157844134369005,
                0.7500025462568058,
                1.2152098286908082
            ]
        },
        {
            "positions": [
                2.105323362606863,
                -1.2849340397364535,
                -2.4449826580316953,
                -1.2043874371784409,
                0.776419420949755,
                1.327513639445784
            ]
        },
        {
            "positions": [
                2.22416063824076,
                -1.2984329433964936,
                -2.516573631994249,
                -1.2509307399878768,
                0.8028362956427044,
                1.43981745020076
            ]
        },
        {
            "positions": [
                2.3429979138746564,
                -1.3119318470565338,
                -2.588164605956802,
                -1.297474042797313,
                0.8292531703356536,
                1.5521212609557367
            ]
        },
        {
            "positions": [
                2.194266108241032,
                -1.3371745950749025,
                -2.5751967553326978,
                -1.3484749598162895,
                0.7696324739553828,
                1.645086891873997
            ]
        },
        {
            "positions": [
                2.045534302607408,
                -1.3624173430932713,
                -2.562228904708594,
                -1.399475876835266,
                0.7100117775751121,
                1.738052522792257
            ]
        },
        {
            "positions": [
                1.8968024969737836,
                -1.3876600911116401,
                -2.5492610540844898,
                -1.4504767938542427,
                0.6503910811948413,
                1.8310181537105172
            ]
        },
        {
            "positions": [
                1.7480706913401591,
                -1.412902839130009,
                -2.5362932034603856,
                -1.5014777108732191,
                0.5907703848145707,
                1.9239837846287773
            ]
        },
        {
            "positions": [
                1.599338885706535,
                -1.438145587148378,
                -2.5233253528362813,
                -1.5524786278921956,
                0.5311496884342999,
                2.0169494155470375
            ]
        },
        {
            "positions": [
                1.4506070800729107,
                -1.4633883351667467,
                -2.5103575022121776,
                -1.6034795449111723,
                0.4715289920540291,
                2.109915046465298
            ]
        },
        {
            "positions": [
                1.3018752744392863,
                -1.4886310831851155,
                -2.4973896515880734,
                -1.6544804619301487,
                0.41190829567375836,
                2.202880677383558
            ]
        },
        {
            "positions": [
                1.153143468805662,
                -1.5138738312034843,
                -2.484421800963969,
                -1.7054813789491252,
                0.35228759929348763,
                2.295846308301818
            ]
        },
        {
            "positions": [
                1.0044116631720377,
                -1.539116579221853,
                -2.4714539503398654,
                -1.7564822959681017,
                0.29266690291321684,
                2.388811939220078
            ]
        },
        {
            "positions": [
                0.8556798575384135,
                -1.5643593272402219,
                -2.458486099715761,
                -1.8074832129870781,
                0.23304620653294605,
                2.4817775701383384
            ]
        },
        {
            "positions": [
                0.706948051904789,
                -1.5896020752585907,
                -2.445518249091657,
                -1.8584841300060546,
                0.17342551015267538,
                2.5747432010565987
            ]
        },
        {
            "positions": [
                0.5582162462711648,
                -1.6148448232769597,
                -2.432550398467553,
                -1.9094850470250313,
                0.11380481377240459,
                2.667708831974859
            ]
        },
        {
            "positions": [
                0.40948444063754064,
                -1.6400875712953282,
                -2.419582547843449,
                -1.9604859640440078,
                0.05418411739213391,
                2.7606744628931192
            ]
        },
        {
            "positions": [
                0.2607526350039162,
                -1.6653303193136972,
                -2.4066146972193447,
                -2.011486881062984,
                -0.005436578988136875,
                2.8536400938113795
            ]
        },
        {
            "positions": [
                0.11202082937029223,
                -1.690573067332066,
                -2.3936468465952405,
                -2.062487798081961,
                -0.06505727536840755,
                2.9466057247296398
            ]
        },
        {
            "positions": [
                -0.036710976263332196,
                -1.7158158153504348,
                -2.3806789959711367,
                -2.1134887151009374,
                -0.12467797174867834,
                3.0395713556478996
            ]
        },
        {
            "positions": [
                -0.18544278189695673,
                -1.7410585633688036,
                -2.3677111453470325,
                -2.164489632119914,
                -0.1842986681289492,
                3.13253698656616
            ]
        }
    ]
}