{
    "goal": {
        "global_pose": {
            "orientation": {
                "w": -0.00223480608172531,
                "x": 0.0024358444001904467,
                "y": 0.7094548369677653,
                "z": -0.704743149386269
            },
            "position": {
                "x": 0.6205249238014221,
                "y": -0.6371506643295288,
                "z": 0.19426114857196808
            }
        },
        "name": "move_to_magneteinheit_B"
    },
    "id": "LazyPRMstar_move_to_magneteinheit_B_137",
    "joint_names": [
        "shoulder_pan_joint",
        "shoulder_lift_joint",
        "elbow_joint",
        "wrist_1_joint",
        "wrist_2_joint",
        "wrist_3_joint"
    ],
    "metrics": {
        "cart_traj_len": 3.414885183077519,
        "distance_elbow_joint": 4.5524526988819005,
        "distance_shoulder_lift_joint": 0.7687496933653177,
        "distance_shoulder_pan_joint": 2.184444231141119,
        "distance_wrist_1_joint": 4.4133031645040735,
        "distance_wrist_2_joint": 0.4319762899385153,
        "distance_wrist_3_joint": 3.143655996774204,
        "smoothness": 0.13686093975915495,
        "time": 5.058013613999999,
        "traj_len": 3.9363157996539253,
        "weighted_distance": 5.160152470867128
    },
    "planner": "LazyPRMstar",
    "start": {
        "state": {
            "elbow_joint": 2.6216224122426386,
            "shoulder_lift_joint": -1.4174107377796124,
            "shoulder_pan_joint": 0.7066234856936794,
            "wrist_1_joint": 1.9546482284002225,
            "wrist_2_joint": -0.7096286983471962,
            "wrist_3_joint": 0.005740856962016249
        }
    },
    "waypoints": [
        {
            "positions": [
                0.7066234856936794,
                -1.4174107377796124,
                2.6216224122426386,
                1.9546482284002225,
                -0.7096286983471962,
                0.005740856962016249
            ]
        },
        {
            "positions": [
                0.6872124176446427,
                -1.4323070086392506,
                2.5850821449012686,
                1.7991985248828368,
                -0.7197119065017694,
                0.08749591352629423
            ]
        },
        {
            "positions": [
                0.667801349595606,
                -1.447203279498889,
                2.5485418775598987,
                1.6437488213654514,
                -0.7297951146563427,
                0.16925097009057222
            ]
        },
        {
            "positions": [
                0.6843689291946258,
                -1.475980734993915,
                2.474202814481367,
                1.512564259730798,
                -0.7413865658355747,
                0.2387031910899361
            ]
        },
        {
            "positions": [
                0.7009365087936457,
                -1.5047581904889407,
                2.3998637514028345,
                1.3813796980961444,
                -0.7529780170148068,
                0.3081554120893
            ]
        },
        {
            "positions": [
                0.7371471662724446,
                -1.5257058139552477,
                2.3004896745580665,
                1.2603309881973954,
                -0.7596089689294755,
                0.37382331834377236
            ]
        },
        {
            "positions": [
                0.7733578237512435,
                -1.5466534374215548,
                2.2011155977132986,
                1.1392822782986467,
                -0.766239920844144,
                0.4394912245982448
            ]
        },
        {
            "positions": [
                0.8095684812300425,
                -1.5676010608878619,
                2.1017415208685306,
                1.0182335683998978,
                -0.7728708727588127,
                0.5051591308527172
            ]
        },
        {
            "positions": [
                0.8457791387088415,
                -1.5885486843541687,
                2.0023674440237627,
                0.8971848585011488,
                -0.7795018246734813,
                0.5708270371071896
            ]
        },
        {
            "positions": [
                0.8819897961876404,
                -1.6094963078204758,
                1.9029933671789947,
                0.7761361486024,
                -0.78613277658815,
                0.636494943361662
            ]
        },
        {
            "positions": [
                0.9182004536664394,
                -1.6304439312867829,
                1.8036192903342267,
                0.6550874387036512,
                -0.7927637285028186,
                0.7021628496161345
            ]
        },
        {
            "positions": [
                0.9544111111452384,
                -1.65139155475309,
                1.7042452134894588,
                0.5340387288049022,
                -0.7993946804174872,
                0.7678307558706069
            ]
        },
        {
            "positions": [
                0.9906217686240373,
                -1.672339178219397,
                1.6048711366446908,
                0.4129900189061534,
                -0.8060256323321559,
                0.8334986621250793
            ]
        },
        {
            "positions": [
                1.0594036013350057,
                -1.6754556434931374,
                1.4675685241886742,
                0.3116756393107318,
                -0.7976807643730424,
                0.9077527560337763
            ]
        },
        {
            "positions": [
                1.128185434045974,
                -1.678572108766878,
                1.3302659117326576,
                0.2103612597153102,
                -0.7893358964139289,
                0.9820068499424732
            ]
        },
        {
            "positions": [
                1.1969672667569426,
                -1.6816885740406182,
                1.192963299276641,
                0.10904688011988861,
                -0.7809910284548154,
                1.05626094385117
            ]
        },
        {
            "positions": [
                1.265749099467911,
                -1.6848050393143588,
                1.0556606868206244,
                0.007732500524467001,
                -0.7726461604957018,
                1.1305150377598672
            ]
        },
        {
            "positions": [
                1.3345309321788794,
                -1.687921504588099,
                0.9183580743646077,
                -0.09358187907095461,
                -0.7643012925365883,
                1.204769131668564
            ]
        },
        {
            "positions": [
                1.403312764889848,
                -1.6910379698618396,
                0.7810554619085911,
                -0.19489625866637617,
                -0.7559564245774748,
                1.2790232255772611
            ]
        },
        {
            "positions": [
                1.4720945976008164,
                -1.69415443513558,
                0.6437528494525745,
                -0.2962106382617977,
                -0.7476115566183613,
                1.353277319485958
            ]
        },
        {
            "positions": [
                1.5408764303117848,
                -1.6972709004093205,
                0.5064502369965578,
                -0.3975250178572194,
                -0.7392666886592478,
                1.427531413394655
            ]
        },
        {
            "positions": [
                1.6096582630227532,
                -1.7003873656830608,
                0.3691476245405412,
                -0.49883939745264094,
                -0.7309218207001343,
                1.501785507303352
            ]
        },
        {
            "positions": [
                1.6784400957337215,
                -1.7035038309568014,
                0.23184501208452457,
                -0.6001537770480626,
                -0.7225769527410209,
                1.5760396012120488
            ]
        },
        {
            "positions": [
                1.7472219284446902,
                -1.7066202962305417,
                0.09454239962850797,
                -0.7014681566434843,
                -0.7142320847819073,
                1.6502936951207459
            ]
        },
        {
            "positions": [
                1.8160037611556585,
                -1.7097367615042822,
                -0.04276021282750864,
                -0.8027825362389057,
                -0.7058872168227938,
                1.724547789029443
            ]
        },
        {
            "positions": [
                1.884785593866627,
                -1.7128532267780225,
                -0.18006282528352546,
                -0.9040969158343274,
                -0.6975423488636803,
                1.79880188293814
            ]
        },
        {
            "positions": [
                1.9535674265775955,
                -1.715969692051763,
                -0.31736543773954184,
                -1.0054112954297487,
                -0.6891974809045668,
                1.8730559768468367
            ]
        },
        {
            "positions": [
                2.022349259288564,
                -1.7190861573255034,
                -0.45466805019555867,
                -1.1067256750251704,
                -0.6808526129454533,
                1.9473100707555338
            ]
        },
        {
            "positions": [
                2.0911310919995323,
                -1.722202622599244,
                -0.5919706626515753,
                -1.208040054620592,
                -0.6725077449863397,
                2.0215641646642304
            ]
        },
        {
            "positions": [
                2.159912924710501,
                -1.7253190878729843,
                -0.7292732751075919,
                -1.3093544342160137,
                -0.6641628770272262,
                2.095818258572928
            ]
        },
        {
            "positions": [
                2.228694757421469,
                -1.7284355531467246,
                -0.8665758875636085,
                -1.4106688138114354,
                -0.6558180090681127,
                2.1700723524816246
            ]
        },
        {
            "positions": [
                2.2974765901324377,
                -1.7315520184204651,
                -1.003878500019625,
                -1.511983193406857,
                -0.6474731411089992,
                2.2443264463903216
            ]
        },
        {
            "positions": [
                2.360343332172875,
                -1.7521965179792376,
                -1.1162482252143895,
                -1.5962891630080165,
                -0.6364009839880517,
                2.324827424550118
            ]
        },
        {
            "positions": [
                2.423210074213312,
                -1.77284101753801,
                -1.228617950409154,
                -1.6805951326091757,
                -0.625328826867104,
                2.4053284027099147
            ]
        },
        {
            "positions": [
                2.486076816253749,
                -1.7934855170967825,
                -1.3409876756039185,
                -1.7649011022103351,
                -0.6142566697461564,
                2.485829380869711
            ]
        },
        {
            "positions": [
                2.5489435582941864,
                -1.814130016655555,
                -1.453357400798683,
                -1.8492070718114946,
                -0.6031845126252089,
                2.566330359029508
            ]
        },
        {
            "positions": [
                2.611810300334624,
                -1.8347745162143274,
                -1.5657271259934475,
                -1.9335130414126538,
                -0.5921123555042613,
                2.6468313371893046
            ]
        },
        {
            "positions": [
                2.674677042375061,
                -1.8554190157730999,
                -1.678096851188212,
                -2.0178190110138132,
                -0.5810401983833137,
                2.727332315349101
            ]
        },
        {
            "positions": [
                2.7375437844154984,
                -1.8760635153318723,
                -1.7904665763829763,
                -2.1021249806149727,
                -0.5699680412623661,
                2.8078332935088977
            ]
        },
        {
            "positions": [
                2.723769802844845,
                -1.9570019306116855,
                -1.7645878622879176,
                -2.199142024852602,
                -0.5446545139946883,
                2.9010163560382933
            ]
        },
        {
            "positions": [
                2.709995821274192,
                -2.037940345891499,
                -1.738709148192859,
                -2.2961590690902307,
                -0.5193409867270105,
                2.9941994185676895
            ]
        },
        {
            "positions": [
                2.685829972733268,
                -2.1120503885182145,
                -1.694406007159776,
                -2.37740700259704,
                -0.4948936315528053,
                3.071798136151955
            ]
        },
        {
            "positions": [
                2.661664124192345,
                -2.18616043114493,
                -1.650102866126693,
                -2.4586549361038497,
                -0.4704462763786002,
                3.1493968537362202
            ]
        }
    ]
}