{
    "goal": {
        "global_pose": {
            "orientation": {
                "w": -0.4816463035849501,
                "x": 0.5182115481033762,
                "y": 0.4908360881923453,
                "z": -0.5084816262002911
            },
            "position": {
                "x": -0.8240239810943604,
                "y": 0.19912469901144506,
                "z": 0.16403168439865112
            }
        },
        "name": "move_to_storage_D"
    },
    "id": "LazyPRMstar_move_to_storage_D_114",
    "joint_names": [
        "shoulder_pan_joint",
        "shoulder_lift_joint",
        "elbow_joint",
        "wrist_1_joint",
        "wrist_2_joint",
        "wrist_3_joint"
    ],
    "metrics": {
        "cart_traj_len": 3.871870300796382,
        "distance_elbow_joint": 4.211637029438158,
        "distance_shoulder_lift_joint": 1.2639097081368975,
        "distance_shoulder_pan_joint": 2.812652623199292,
        "distance_wrist_1_joint": 2.846900022870545,
        "distance_wrist_2_joint": 0.8734321626404109,
        "distance_wrist_3_joint": 3.144236376459695,
        "smoothness": 0.05990525135319049,
        "time": 5.028791986,
        "traj_len": 3.8926556388595435,
        "weighted_distance": 5.016131264348586
    },
    "planner": "LazyPRMstar",
    "start": {
        "state": {
            "elbow_joint": -2.384821988534728,
            "shoulder_lift_joint": -2.2788054721415256,
            "shoulder_pan_joint": -0.1854694642142757,
            "wrist_1_joint": 1.4845938289331202,
            "wrist_2_joint": 0.17898776772866878,
            "wrist_3_joint": 0.037105688729662994
        }
    },
    "waypoints": [
        {
            "positions": [
                -0.1854694642142757,
                -2.2788054721415256,
                -2.384821988534728,
                1.4845938289331202,
                0.17898776772866878,
                0.037105688729662994
            ]
        },
        {
            "positions": [
                -0.026151332780054576,
                -2.241970353021283,
                -2.232743347155882,
                1.5134745642703578,
                0.19524885999229694,
                0.03568941345062989
            ]
        },
        {
            "positions": [
                0.13316679865416656,
                -2.205135233901041,
                -2.0806647057770356,
                1.542355299607595,
                0.21150995225592512,
                0.03427313817159678
            ]
        },
        {
            "positions": [
                0.2924849300883877,
                -2.1683001147807985,
                -1.9285860643981896,
                1.5712360349448327,
                0.22777104451955327,
                0.032856862892563676
            ]
        },
        {
            "positions": [
                0.45180306152260885,
                -2.1314649956605565,
                -1.7765074230193432,
                1.60011677028207,
                0.24403213678318142,
                0.031440587613530566
            ]
        },
        {
            "positions": [
                0.61112119295683,
                -2.094629876540314,
                -1.6244287816404972,
                1.6289975056193076,
                0.26029322904680957,
                0.030024312334497462
            ]
        },
        {
            "positions": [
                0.7704393243910511,
                -2.057794757420072,
                -1.4723501402616512,
                1.6578782409565451,
                0.2765543213104377,
                0.028608037055464358
            ]
        },
        {
            "positions": [
                0.9297574558252722,
                -2.0209596382998294,
                -1.320271498882805,
                1.6867589762937825,
                0.29281541357406593,
                0.027191761776431247
            ]
        },
        {
            "positions": [
                1.0890755872594933,
                -1.984124519179587,
                -1.1681928575039586,
                1.71563971163102,
                0.3090765058376941,
                0.025775486497398144
            ]
        },
        {
            "positions": [
                1.2483937186937144,
                -1.9472894000593448,
                -1.0161142161251127,
                1.7445204469682576,
                0.32533759810132223,
                0.024359211218365033
            ]
        },
        {
            "positions": [
                1.4077118501279355,
                -1.9104542809391025,
                -0.8640355747462665,
                1.773401182305495,
                0.3415986903649504,
                0.02294293593933193
            ]
        },
        {
            "positions": [
                1.4497625849161107,
                -1.8795729527689482,
                -0.7712476224824838,
                1.6851910902538338,
                0.36610976760647207,
                -0.08499063729064613
            ]
        },
        {
            "positions": [
                1.491813319704286,
                -1.8486916245987939,
                -0.6784596702187012,
                1.5969809982021728,
                0.3906208448479938,
                -0.1929242105206242
            ]
        },
        {
            "positions": [
                1.533864054492461,
                -1.8178102964286396,
                -0.5856717179549186,
                1.508770906150512,
                0.4151319220895155,
                -0.30085778375060224
            ]
        },
        {
            "positions": [
                1.5759147892806364,
                -1.7869289682584855,
                -0.49288376569113596,
                1.4205608140988508,
                0.4396429993310372,
                -0.4087913569805803
            ]
        },
        {
            "positions": [
                1.6179655240688116,
                -1.7560476400883311,
                -0.4000958134273533,
                1.3323507220471897,
                0.4641540765725589,
                -0.5167249302105583
            ]
        },
        {
            "positions": [
                1.6600162588569867,
                -1.7251663119181768,
                -0.3073078611635707,
                1.2441406299955289,
                0.4886651538140806,
                -0.6246585034405364
            ]
        },
        {
            "positions": [
                1.702066993645162,
                -1.6942849837480225,
                -0.214519908899788,
                1.1559305379438678,
                0.5131762310556023,
                -0.7325920766705145
            ]
        },
        {
            "positions": [
                1.7441177284333371,
                -1.6634036555778682,
                -0.12173195663600545,
                1.0677204458922067,
                0.537687308297124,
                -0.8405256499004925
            ]
        },
        {
            "positions": [
                1.7861684632215122,
                -1.6325223274077139,
                -0.028944004372222776,
                0.9795103538405456,
                0.5621983855386457,
                -0.9484592231304706
            ]
        },
        {
            "positions": [
                1.8282191980096876,
                -1.6016409992375595,
                0.0638439478915599,
                0.8913002617888846,
                0.5867094627801674,
                -1.0563927963604487
            ]
        },
        {
            "positions": [
                1.8702699327978627,
                -1.5707596710674054,
                0.15663190015534245,
                0.8030901697372236,
                0.6112205400216891,
                -1.1643263695904267
            ]
        },
        {
            "positions": [
                1.9123206675860378,
                -1.5398783428972511,
                0.24941985241912512,
                0.7148800776855626,
                0.6357316172632108,
                -1.2722599428204049
            ]
        },
        {
            "positions": [
                1.9543714023742131,
                -1.5089970147270968,
                0.3422078046829078,
                0.6266699856339015,
                0.6602426945047326,
                -1.3801935160503829
            ]
        },
        {
            "positions": [
                1.9964221371623885,
                -1.4781156865569425,
                0.43499575694669046,
                0.5384598935822404,
                0.6847537717462542,
                -1.488127089280361
            ]
        },
        {
            "positions": [
                2.038472871950564,
                -1.4472343583867882,
                0.5277837092104731,
                0.45024980153057936,
                0.709264848987776,
                -1.596060662510339
            ]
        },
        {
            "positions": [
                2.0805236067387387,
                -1.4163530302166338,
                0.6205716614742556,
                0.3620397094789183,
                0.7337759262292975,
                -1.703994235740317
            ]
        },
        {
            "positions": [
                2.1225743415269136,
                -1.3854717020464795,
                0.713359613738038,
                0.2738296174272574,
                0.7582870034708193,
                -1.811927808970295
            ]
        },
        {
            "positions": [
                2.1646250763150894,
                -1.3545903738763254,
                0.8061475660018209,
                0.18561952537559634,
                0.782798080712341,
                -1.9198613822002732
            ]
        },
        {
            "positions": [
                2.2066758111032643,
                -1.3237090457061709,
                0.8989355182656034,
                0.09740943332393526,
                0.8073091579538627,
                -2.027794955430251
            ]
        },
        {
            "positions": [
                2.2487265458914396,
                -1.2928277175360168,
                0.9917234705293863,
                0.009199341272274175,
                0.8318202351953845,
                -2.135728528660229
            ]
        },
        {
            "positions": [
                2.290777280679615,
                -1.2619463893658625,
                1.0845114227931687,
                -0.0790107507793869,
                0.8563313124369062,
                -2.2436621018902074
            ]
        },
        {
            "positions": [
                2.33282801546779,
                -1.2310650611957081,
                1.1772993750569514,
                -0.16722084283104777,
                0.8808423896784279,
                -2.351595675120185
            ]
        },
        {
            "positions": [
                2.374878750255965,
                -1.2001837330255538,
                1.2700873273207343,
                -0.25543093488270907,
                0.9053534669199496,
                -2.4595292483501634
            ]
        },
        {
            "positions": [
                2.4169294850441405,
                -1.1693024048553995,
                1.3628752795845167,
                -0.3436410269343697,
                0.9298645441614712,
                -2.5674628215801416
            ]
        },
        {
            "positions": [
                2.4589802198323154,
                -1.1384210766852454,
                1.4556632318482992,
                -0.4318511189860308,
                0.9543756214029929,
                -2.6753963948101194
            ]
        },
        {
            "positions": [
                2.5010309546204907,
                -1.1075397485150908,
                1.548451184112082,
                -0.5200612110376919,
                0.9788866986445147,
                -2.7833299680400976
            ]
        },
        {
            "positions": [
                2.543081689408666,
                -1.0766584203449368,
                1.6412391363758645,
                -0.608271303089353,
                1.0033977758860364,
                -2.891263541270076
            ]
        },
        {
            "positions": [
                2.585132424196841,
                -1.0457770921747822,
                1.7340270886396474,
                -0.696481395141014,
                1.027908853127558,
                -2.999197114500054
            ]
        },
        {
            "positions": [
                2.6271831589850163,
                -1.014895764004628,
                1.8268150409034298,
                -0.7846914871926749,
                1.0524199303690798,
                -3.1071306877300318
            ]
        }
    ]
}