{
    "goal": {
        "global_pose": {
            "orientation": {
                "w": -0.4816463035849501,
                "x": 0.5182115481033762,
                "y": 0.4908360881923453,
                "z": -0.5084816262002911
            },
            "position": {
                "x": -0.8240239810943604,
                "y": -0.300875300988555,
                "z": 0.16403168439865112
            }
        },
        "name": "move_to_storage_C"
    },
    "id": "LazyPRM_move_to_storage_C_60",
    "joint_names": [
        "shoulder_pan_joint",
        "shoulder_lift_joint",
        "elbow_joint",
        "wrist_1_joint",
        "wrist_2_joint",
        "wrist_3_joint"
    ],
    "metrics": {
        "cart_traj_len": 0.5761004006756542,
        "distance_elbow_joint": 0.26159454348491606,
        "distance_shoulder_lift_joint": 0.18931470235740178,
        "distance_shoulder_pan_joint": 0.4924397419281563,
        "distance_wrist_1_joint": 0.09039054006784264,
        "distance_wrist_2_joint": 1.0788886201867811,
        "distance_wrist_3_joint": 0.06251772770619723,
        "smoothness": 2.5376526478085547e-16,
        "time": 0.011879075999999999,
        "traj_len": 1.4748375760507646,
        "weighted_distance": 1.8626487836944232
    },
    "planner": "LazyPRM",
    "start": {
        "state": {
            "elbow_joint": 2.010868314990456,
            "shoulder_lift_joint": -1.1634956873337592,
            "shoulder_pan_joint": -2.4736205022346125,
            "wrist_1_joint": -0.8367026794202681,
            "wrist_2_joint": 0.6746043897044499,
            "wrist_3_joint": -3.1496632123970403
        }
    },
    "waypoints": [
        {
            "positions": [
                -2.4736205022346125,
                -1.1634956873337592,
                2.010868314990456,
                -0.8367026794202681,
                0.6746043897044499,
                -3.1496632123970403
            ]
        },
        {
            "positions": [
                -2.5556937925559717,
                -1.1319432369408589,
                1.9672692244096366,
                -0.821637589408961,
                0.8544191597355801,
                -3.139243591112674
            ]
        },
        {
            "positions": [
                -2.6377670828773314,
                -1.1003907865479585,
                1.9236701338288171,
                -0.8065724993976539,
                1.0342339297667102,
                -3.128823969828308
            ]
        },
        {
            "positions": [
                -2.7198403731986907,
                -1.0688383361550584,
                1.8800710432479977,
                -0.7915074093863468,
                1.2140486997978406,
                -3.1184043485439417
            ]
        },
        {
            "positions": [
                -2.80191366352005,
                -1.037285885762158,
                1.8364719526671784,
                -0.7764423193750397,
                1.3938634698289705,
                -3.1079847272595753
            ]
        },
        {
            "positions": [
                -2.8839869538414096,
                -1.0057334353692577,
                1.7928728620863592,
                -0.7613772293637325,
                1.5736782398601008,
                -3.0975651059752094
            ]
        },
        {
            "positions": [
                -2.966060244162769,
                -0.9741809849763574,
                1.7492737715055398,
                -0.7463121393524255,
                1.7534930098912311,
                -3.087145484690843
            ]
        }
    ]
}