{
    "goal": {
        "global_pose": {
            "orientation": {
                "w": -0.4816463035849501,
                "x": 0.5182115481033762,
                "y": 0.4908360881923453,
                "z": -0.5084816262002911
            },
            "position": {
                "x": -0.8240239810943604,
                "y": -0.300875300988555,
                "z": 0.16403168439865112
            }
        },
        "name": "move_to_storage_C"
    },
    "id": "LazyPRMstar_move_to_storage_C_15",
    "joint_names": [
        "shoulder_pan_joint",
        "shoulder_lift_joint",
        "elbow_joint",
        "wrist_1_joint",
        "wrist_2_joint",
        "wrist_3_joint"
    ],
    "metrics": {
        "cart_traj_len": 0.576853142076,
        "distance_elbow_joint": 0.258592952965395,
        "distance_shoulder_lift_joint": 0.18863806906396074,
        "distance_shoulder_pan_joint": 0.49452970559740317,
        "distance_wrist_1_joint": 0.08001608927022996,
        "distance_wrist_2_joint": 1.0713224502032652,
        "distance_wrist_3_joint": 0.07445317027222442,
        "smoothness": 2.5376526478085547e-16,
        "time": 5.000254546,
        "traj_len": 1.4722609949912,
        "weighted_distance": 1.8622022761747508
    },
    "planner": "LazyPRMstar",
    "start": {
        "state": {
            "elbow_joint": 2.010868314990456,
            "shoulder_lift_joint": -1.1634956873337592,
            "shoulder_pan_joint": -2.4736205022346125,
            "wrist_1_joint": -0.8367026794202681,
            "wrist_2_joint": 0.6746043897044499,
            "wrist_3_joint": -3.1496632123970403
        }
    },
    "waypoints": [
        {
            "positions": [
                -2.4736205022346125,
                -1.1634956873337592,
                2.010868314990456,
                -0.8367026794202681,
                0.6746043897044499,
                -3.1496632123970403
            ]
        },
        {
            "positions": [
                -2.5560421198341796,
                -1.1320560091564325,
                1.9677694894962232,
                -0.8233666645418964,
                0.8531581314049941,
                -3.137254350685003
            ]
        },
        {
            "positions": [
                -2.6384637374337467,
                -1.1006163309791055,
                1.9246706640019908,
                -0.8100306496635248,
                1.0317118731055384,
                -3.1248454889729653
            ]
        },
        {
            "positions": [
                -2.720885355033314,
                -1.0691766528017788,
                1.8815718385077584,
                -0.7966946347851531,
                1.2102656148060826,
                -3.1124366272609283
            ]
        },
        {
            "positions": [
                -2.8033069726328814,
                -1.037736974624452,
                1.8384730130135258,
                -0.7833586199067815,
                1.3888193565066267,
                -3.100027765548891
            ]
        },
        {
            "positions": [
                -2.8857285902324485,
                -1.0062972964471253,
                1.7953741875192932,
                -0.7700226050284098,
                1.567373098207171,
                -3.0876189038368533
            ]
        },
        {
            "positions": [
                -2.9681502078320157,
                -0.9748576182697984,
                1.7522753620250608,
                -0.7566865901500381,
                1.745926839907715,
                -3.075210042124816
            ]
        }
    ]
}