{
    "goal": {
        "global_pose": {
            "orientation": {
                "w": 0.5084816217422485,
                "x": -0.49083608388900757,
                "y": 0.5182115435600281,
                "z": -0.4816462993621826
            },
            "position": {
                "x": 0.5540239810943604,
                "y": 0.030875300988554955,
                "z": 0.16403168439865112
            }
        },
        "name": "move_to_storage_A"
    },
    "id": "LazyPRMstar_move_to_storage_A_126",
    "joint_names": [
        "shoulder_pan_joint",
        "shoulder_lift_joint",
        "elbow_joint",
        "wrist_1_joint",
        "wrist_2_joint",
        "wrist_3_joint"
    ],
    "metrics": {
        "cart_traj_len": 0.35288540671519664,
        "distance_elbow_joint": 0.45403853493176416,
        "distance_shoulder_lift_joint": 0.23549094768185763,
        "distance_shoulder_pan_joint": 0.463168857773407,
        "distance_wrist_1_joint": 0.2563127923841978,
        "distance_wrist_2_joint": 1.0921686223700753,
        "distance_wrist_3_joint": 0.09629880024877657,
        "smoothness": 2.442490657182277e-15,
        "time": 5.001621254000001,
        "traj_len": 1.611669493224364,
        "weighted_distance": 2.0343445063808403
    },
    "planner": "LazyPRMstar",
    "start": {
        "state": {
            "elbow_joint": 1.971548259319323,
            "shoulder_lift_joint": -1.1394851275133948,
            "shoulder_pan_joint": 0.1228115487234821,
            "wrist_1_joint": -0.7804723859257726,
            "wrist_2_joint": 0.12958671773740124,
            "wrist_3_joint": -3.192489227718131
        }
    },
    "waypoints": [
        {
            "positions": [
                0.1228115487234821,
                -1.1394851275133948,
                1.971548259319323,
                -0.7804723859257726,
                0.12958671773740124,
                -3.192489227718131
            ]
        },
        {
            "positions": [
                0.056644569041566825,
                -1.173126691467946,
                2.036410907166718,
                -0.8170884991235151,
                0.285610806647412,
                -3.1787322562540203
            ]
        },
        {
            "positions": [
                -0.00952241064034845,
                -1.206768255422497,
                2.101273555014113,
                -0.8537046123212577,
                0.44163489555742275,
                -3.164975284789909
            ]
        },
        {
            "positions": [
                -0.07568939032226374,
                -1.240409819377048,
                2.1661362028615074,
                -0.8903207255190002,
                0.5976589844674335,
                -3.1512183133257983
            ]
        },
        {
            "positions": [
                -0.141856370004179,
                -1.2740513833315992,
                2.2309988507089025,
                -0.9269368387167428,
                0.7536830733774442,
                -3.1374613418616875
            ]
        },
        {
            "positions": [
                -0.20802334968609432,
                -1.3076929472861503,
                2.2958614985562975,
                -0.9635529519144853,
                0.9097071622874551,
                -3.1237043703975766
            ]
        },
        {
            "positions": [
                -0.2741903293680096,
                -1.3413345112407014,
                2.360724146403692,
                -1.000169065112228,
                1.0657312511974657,
                -3.1099473989334654
            ]
        },
        {
            "positions": [
                -0.3403573090499249,
                -1.3749760751952524,
                2.425586794251087,
                -1.0367851783099704,
                1.2217553401074766,
                -3.0961904274693546
            ]
        }
    ]
}{
    "goal": {
        "global_pose": {
            "orientation": {
                "w": 0.5084816217422485,
                "x": -0.49083608388900757,
                "y": 0.5182115435600281,
                "z": -0.4816462993621826
            },
            "position": {
                "x": 0.5540239810943604,
                "y": 0.030875300988554955,
                "z": 0.16403168439865112
            }
        },
        "name": "move_to_storage_A"
    },
    "id": "LazyPRMstar_move_to_storage_A_126",
    "joint_names": [
        "shoulder_pan_joint",
        "shoulder_lift_joint",
        "elbow_joint",
        "wrist_1_joint",
        "wrist_2_joint",
        "wrist_3_joint"
    ],
    "metrics": {
        "cart_traj_len": 0.35244888010737135,
        "distance_elbow_joint": 0.45148937322499405,
        "distance_shoulder_lift_joint": 0.23340544913625383,
        "distance_shoulder_pan_joint": 0.4593619430610679,
        "distance_wrist_1_joint": 0.2552001142495546,
        "distance_wrist_2_joint": 1.1034066368251192,
        "distance_wrist_3_joint": 0.10400584815610081,
        "smoothness": 1.3322676295501878e-15,
        "time": 5.000752733000001,
        "traj_len": 1.6145802441046684,
        "weighted_distance": 2.0429116016215594
    },
    "planner": "LazyPRMstar",
    "start": {
        "state": {
            "elbow_joint": 1.97154746011099,
            "shoulder_lift_joint": -1.13948474672311,
            "shoulder_pan_joint": 0.12281154466712228,
            "wrist_1_joint": -0.7804688027058302,
            "wrist_2_joint": 0.12958655903071145,
            "wrist_3_joint": 3.0906928834467795
        }
    },
    "waypoints": [
        {
            "positions": [
                0.12281154466712228,
                -1.13948474672311,
                1.97154746011099,
                -0.7804688027058302,
                0.12958655903071145,
                3.0906928834467795
            ]
        },
        {
            "positions": [
                0.05718840994411259,
                -1.1728283823140033,
                2.0360459420002748,
                -0.816925961884338,
                0.28721607857715703,
                3.105550861754794
            ]
        },
        {
            "positions": [
                -0.008434724778897104,
                -1.2061720179048967,
                2.1005444238895596,
                -0.8533831210628458,
                0.4448455981236026,
                3.1204088400628085
            ]
        },
        {
            "positions": [
                -0.07405785950190681,
                -1.23951565349579,
                2.1650429057788445,
                -0.8898402802413535,
                0.6024751176700482,
                3.1352668183708228
            ]
        },
        {
            "positions": [
                -0.13968099422491648,
                -1.2728592890866834,
                2.2295413876681294,
                -0.9262974394198613,
                0.7601046372164938,
                3.150124796678837
            ]
        },
        {
            "positions": [
                -0.2053041289479262,
                -1.306202924677577,
                2.2940398695574142,
                -0.9627545985983692,
                0.9177341567629395,
                3.1649827749868513
            ]
        },
        {
            "positions": [
                -0.2709272636709359,
                -1.3395465602684704,
                2.358538351446699,
                -0.999211757776877,
                1.075363676309385,
                3.179840753294866
            ]
        },
        {
            "positions": [
                -0.3365503983939456,
                -1.3728901958593638,
                2.423036833335984,
                -1.0356689169553848,
                1.2329931958558307,
                3.1946987316028803
            ]
        }
    ]
}{
    "goal": {
        "global_pose": {
            "orientation": {
                "w": 0.5084816217422485,
                "x": -0.49083608388900757,
                "y": 0.5182115435600281,
                "z": -0.4816462993621826
            },
            "position": {
                "x": 0.5540239810943604,
                "y": 0.030875300988554955,
                "z": 0.16403168439865112
            }
        },
        "name": "move_to_storage_A"
    },
    "id": "LazyPRMstar_move_to_storage_A_126",
    "joint_names": [
        "shoulder_pan_joint",
        "shoulder_lift_joint",
        "elbow_joint",
        "wrist_1_joint",
        "wrist_2_joint",
        "wrist_3_joint"
    ],
    "metrics": {
        "cart_traj_len": 0.35325680251240205,
        "distance_elbow_joint": 0.45035142774130854,
        "distance_shoulder_lift_joint": 0.2331979471342327,
        "distance_shoulder_pan_joint": 0.4623207067140003,
        "distance_wrist_1_joint": 0.249316806837536,
        "distance_wrist_2_joint": 1.096613132974609,
        "distance_wrist_3_joint": 0.09475002556893353,
        "smoothness": 5.551115138160447e-16,
        "time": 5.0007022899999996,
        "traj_len": 1.608275488518873,
        "weighted_distance": 2.0302660017644567
    },
    "planner": "LazyPRMstar",
    "start": {
        "state": {
            "elbow_joint": 1.9715472970024885,
            "shoulder_lift_joint": -1.1394870060712896,
            "shoulder_pan_joint": 0.12281152778156021,
            "wrist_1_joint": -0.780463741449964,
            "wrist_2_joint": 0.12958659822042276,
            "wrist_3_joint": 3.090690232415272
        }
    },
    "waypoints": [
        {
            "positions": [
                0.12281152778156021,
                -1.1394870060712896,
                1.9715472970024885,
                -0.780463741449964,
                0.12958659822042276,
                3.090690232415272
            ]
        },
        {
            "positions": [
                0.056765712536703025,
                -1.172800998519037,
                2.0358832152512467,
                -0.8160804281410405,
                0.2862456172167954,
                3.104225950353691
            ]
        },
        {
            "positions": [
                -0.009280102708154159,
                -1.2061149909667848,
                2.1002191335000053,
                -0.8516971148321171,
                0.4429046362131681,
                3.11776166829211
            ]
        },
        {
            "positions": [
                -0.07532591795301133,
                -1.2394289834145322,
                2.1645550517487635,
                -0.8873138015231937,
                0.5995636552095408,
                3.131297386230529
            ]
        },
        {
            "positions": [
                -0.14137173319786853,
                -1.2727429758622797,
                2.228890969997522,
                -0.9229304882142703,
                0.7562226742059135,
                3.1448331041689483
            ]
        },
        {
            "positions": [
                -0.20741754844272572,
                -1.3060569683100272,
                2.2932268882462803,
                -0.9585471749053469,
                0.9128816932022863,
                3.1583688221073674
            ]
        },
        {
            "positions": [
                -0.27346336368758284,
                -1.3393709607577748,
                2.3575628064950385,
                -0.9941638615964234,
                1.0695407121986589,
                3.1719045400457864
            ]
        },
        {
            "positions": [
                -0.33950917893244004,
                -1.3726849532055223,
                2.421898724743797,
                -1.0297805482875,
                1.2261997311950317,
                3.1854402579842054
            ]
        }
    ]
}