{
    "goal": {
        "global_pose": {
            "orientation": {
                "w": 0.7047431493862688,
                "x": -0.7094548369677653,
                "y": 0.0024358444001904,
                "z": -0.0022348060817251984
            },
            "position": {
                "x": -0.39052492380142206,
                "y": 0.3671506643295288,
                "z": 0.19426114857196808
            }
        },
        "name": "move_to_magneteinheit_D"
    },
    "id": "LazyPRM_move_to_magneteinheit_D_71",
    "joint_names": [
        "shoulder_pan_joint",
        "shoulder_lift_joint",
        "elbow_joint",
        "wrist_1_joint",
        "wrist_2_joint",
        "wrist_3_joint"
    ],
    "metrics": {
        "cart_traj_len": 4.375328597348125,
        "distance_elbow_joint": 3.196593084902127,
        "distance_shoulder_lift_joint": 1.6286744187784834,
        "distance_shoulder_pan_joint": 3.3017038558038316,
        "distance_wrist_1_joint": 2.193418611893401,
        "distance_wrist_2_joint": 0.8655950566441661,
        "distance_wrist_3_joint": 4.399636263715249,
        "smoothness": 0.5422347838061896,
        "time": 0.152872587,
        "traj_len": 3.94786287651145,
        "weighted_distance": 5.238693299641173
    },
    "planner": "LazyPRM",
    "start": {
        "state": {
            "elbow_joint": 0.749534889911806,
            "shoulder_lift_joint": -0.6476975780787326,
            "shoulder_pan_joint": -2.711696901376241,
            "wrist_1_joint": -0.07506478083263063,
            "wrist_2_joint": 0.43296659715538205,
            "wrist_3_joint": -3.14703540197715
        }
    },
    "waypoints": [
        {
            "positions": [
                -2.711696901376241,
                -0.6476975780787326,
                0.749534889911806,
                -0.07506478083263063,
                0.43296659715538205,
                -3.14703540197715
            ]
        },
        {
            "positions": [
                -2.750576837632205,
                -0.7903858093982,
                0.7353159689733149,
                -0.14771791670475087,
                0.3989841833460851,
                -3.126044640504884
            ]
        },
        {
            "positions": [
                -2.7029172331837903,
                -0.8860233736095613,
                0.7370308978977832,
                -0.1905512097900371,
                0.4004907691559936,
                -2.945524778423486
            ]
        },
        {
            "positions": [
                -2.6552576287353755,
                -0.9816609378209225,
                0.7387458268222516,
                -0.2333845028753233,
                0.4019973549659021,
                -2.765004916342088
            ]
        },
        {
            "positions": [
                -2.6075980242869607,
                -1.0772985020322838,
                0.74046075574672,
                -0.2762177959606095,
                0.40350394077581064,
                -2.5844850542606896
            ]
        },
        {
            "positions": [
                -2.559938419838546,
                -1.172936066243645,
                0.7421756846711883,
                -0.31905108904589574,
                0.4050105265857191,
                -2.4039651921792915
            ]
        },
        {
            "positions": [
                -2.512278815390131,
                -1.2685736304550064,
                0.7438906135956568,
                -0.36188438213118196,
                0.4065171123956276,
                -2.2234453300978934
            ]
        },
        {
            "positions": [
                -2.4646192109417164,
                -1.3642111946663675,
                0.7456055425201251,
                -0.4047176752164682,
                0.40802369820553613,
                -2.042925468016495
            ]
        },
        {
            "positions": [
                -2.3557235954350637,
                -1.381849334092554,
                0.6476217039435035,
                -0.35563298716275193,
                0.39832558520075856,
                -1.9346375606175459
            ]
        },
        {
            "positions": [
                -2.2468279799284105,
                -1.3994874735187404,
                0.5496378653668819,
                -0.30654829910903575,
                0.388627472195981,
                -1.8263496532185965
            ]
        },
        {
            "positions": [
                -2.137932364421758,
                -1.4171256129449268,
                0.45165402679026023,
                -0.2574636110553195,
                0.3789293591912034,
                -1.718061745819647
            ]
        },
        {
            "positions": [
                -2.0290367489151047,
                -1.4347637523711132,
                0.3536701882136386,
                -0.2083789230016033,
                0.3692312461864259,
                -1.6097738384206979
            ]
        },
        {
            "positions": [
                -1.920141133408452,
                -1.4524018917972996,
                0.255686349637017,
                -0.15929423494788705,
                0.3595331331816483,
                -1.5014859310217483
            ]
        },
        {
            "positions": [
                -1.8112455179017992,
                -1.470040031223486,
                0.15770251106039535,
                -0.11020954689417084,
                0.34983502017687074,
                -1.393198023622799
            ]
        },
        {
            "positions": [
                -1.702349902395146,
                -1.4876781706496727,
                0.059718672483773716,
                -0.0611248588404546,
                0.34013690717209316,
                -1.2849101162238497
            ]
        },
        {
            "positions": [
                -1.5934542868884933,
                -1.505316310075859,
                -0.03826516609284791,
                -0.012040170786738413,
                0.3304387941673156,
                -1.1766222088249003
            ]
        },
        {
            "positions": [
                -1.4845586713818404,
                -1.5229544495020455,
                -0.13624900466946954,
                0.03704451726697783,
                0.32074068116253807,
                -1.068334301425951
            ]
        },
        {
            "positions": [
                -1.3756630558751874,
                -1.540592588928232,
                -0.23423284324609117,
                0.08612920532069407,
                0.31104256815776044,
                -0.9600463940270014
            ]
        },
        {
            "positions": [
                -1.2667674403685347,
                -1.5582307283544183,
                -0.3322166818227128,
                0.13521389337441025,
                0.3013444551529829,
                -0.8517584866280521
            ]
        },
        {
            "positions": [
                -1.1578718248618818,
                -1.5758688677806048,
                -0.43020052039933443,
                0.1842985814281265,
                0.29164634214820534,
                -0.7434705792291028
            ]
        },
        {
            "positions": [
                -1.048976209355229,
                -1.5935070072067912,
                -0.5281843589759561,
                0.23338326948184263,
                0.28194822914342776,
                -0.6351826718301534
            ]
        },
        {
            "positions": [
                -0.9400805938485759,
                -1.6111451466329776,
                -0.6261681975525777,
                0.282467957535559,
                0.2722501161386502,
                -0.5268947644312039
            ]
        },
        {
            "positions": [
                -0.8311849783419232,
                -1.628783286059164,
                -0.7241520361291993,
                0.3315526455892751,
                0.2625520031338726,
                -0.41860685703225453
            ]
        },
        {
            "positions": [
                -0.7222893628352702,
                -1.6464214254853504,
                -0.822135874705821,
                0.38063733364299135,
                0.2528538901290951,
                -0.3103189496333054
            ]
        },
        {
            "positions": [
                -0.6133937473286173,
                -1.664059564911537,
                -0.9201197132824426,
                0.4297220216967077,
                0.2431557771243175,
                -0.20203104223435586
            ]
        },
        {
            "positions": [
                -0.5044981318219643,
                -1.6816977043377235,
                -1.0181035518590642,
                0.47880670975042383,
                0.23345766411953994,
                -0.09374313483540653
            ]
        },
        {
            "positions": [
                -0.3956025163153116,
                -1.69933584376391,
                -1.1160873904356858,
                0.52789139780414,
                0.2237595511147624,
                0.014544772563542807
            ]
        },
        {
            "positions": [
                -0.28670690080865846,
                -1.7169739831900963,
                -1.2140712290123075,
                0.5769760858578563,
                0.2140614381099848,
                0.12283267996249236
            ]
        },
        {
            "positions": [
                -0.17781128530200574,
                -1.7346121226162827,
                -1.312055067588929,
                0.6260607739115726,
                0.20436332510520724,
                0.23112058736144148
            ]
        },
        {
            "positions": [
                -0.06891566979535302,
                -1.7522502620424691,
                -1.4100389061655507,
                0.6751454619652887,
                0.1946652121004297,
                0.33940849476039103
            ]
        },
        {
            "positions": [
                0.03997994571130015,
                -1.7698884014686556,
                -1.5080227447421723,
                0.724230150019005,
                0.1849670990956521,
                0.4476964021593406
            ]
        },
        {
            "positions": [
                0.14887556121795298,
                -1.787526540894842,
                -1.606006583318794,
                0.7733148380727211,
                0.17526898609087455,
                0.5559843095582896
            ]
        },
        {
            "positions": [
                0.150987569685568,
                -1.8357924386051228,
                -1.7205232778603161,
                0.8219566997972456,
                0.13267541806955852,
                0.4707649908665441
            ]
        },
        {
            "positions": [
                0.15309957815318304,
                -1.8840583363154035,
                -1.835039972401838,
                0.8705985615217702,
                0.09008185004824247,
                0.3855456721747986
            ]
        },
        {
            "positions": [
                0.15521158662079806,
                -1.932324234025684,
                -1.9495566669433602,
                0.9192404232462947,
                0.047488282026926426,
                0.3003263534830531
            ]
        },
        {
            "positions": [
                0.15732359508841307,
                -1.9805901317359649,
                -2.064073361484882,
                0.9678822849708193,
                0.0048947140056103955,
                0.2151070347913076
            ]
        },
        {
            "positions": [
                0.1594356035560281,
                -2.0288560294462457,
                -2.178590056026404,
                1.0165241466953439,
                -0.03769885401570566,
                0.12988771609956207
            ]
        },
        {
            "positions": [
                0.16154761202364312,
                -2.0771219271565267,
                -2.2931067505679263,
                1.0651660084198684,
                -0.0802924220370217,
                0.044668397407816585
            ]
        },
        {
            "positions": [
                0.16365962049125815,
                -2.125387824866807,
                -2.4076234451094485,
                1.113807870144393,
                -0.12288599005833772,
                -0.0405509212839289
            ]
        },
        {
            "positions": [
                0.0765127551351571,
                -2.1631338678644094,
                -2.4029095444126356,
                1.2001179131815687,
                -0.049970130130451665,
                -0.015530590949531485
            ]
        },
        {
            "positions": [
                -0.01063411022094396,
                -2.2008799108620116,
                -2.3981956437158227,
                1.2864279562187444,
                0.022945729797434394,
                0.009489739384865928
            ]
        },
        {
            "positions": [
                -0.09778097557704502,
                -2.238625953859614,
                -2.39348174301901,
                1.3727379992559199,
                0.09586158972532044,
                0.03451006971926335
            ]
        },
        {
            "positions": [
                -0.18492784093314607,
                -2.276371996857216,
                -2.388767842322197,
                1.4590480422930956,
                0.1687774496532065,
                0.05953040005366075
            ]
        }
    ]
}