{
    "goal": {
        "global_pose": {
            "orientation": {
                "w": 0.005598929693374612,
                "x": 0.007748599140229565,
                "y": 0.7110244013736278,
                "z": -0.7031023480610252
            },
            "position": {
                "x": 0.1141497679147869,
                "y": -0.7141253447532654,
                "z": 0.3711530566215515
            }
        },
        "name": "move_to_auspresseinheit_B"
    },
    "id": "LazyPRMstar_move_to_auspresseinheit_B_61",
    "joint_names": [
        "shoulder_pan_joint",
        "shoulder_lift_joint",
        "elbow_joint",
        "wrist_1_joint",
        "wrist_2_joint",
        "wrist_3_joint"
    ],
    "metrics": {
        "cart_traj_len": 0.5643778253760733,
        "distance_elbow_joint": 0.06179670551508898,
        "distance_shoulder_lift_joint": 0.29453692105797646,
        "distance_shoulder_pan_joint": 0.5753392053646249,
        "distance_wrist_1_joint": 0.31955848215307725,
        "distance_wrist_2_joint": 0.9978793852109737,
        "distance_wrist_3_joint": 0.0003135713693938058,
        "smoothness": 0.0,
        "time": 5.000492766,
        "traj_len": 1.4998080779456868,
        "weighted_distance": 1.888779839148537
    },
    "planner": "LazyPRMstar",
    "start": {
        "state": {
            "elbow_joint": 2.0193083361928714,
            "shoulder_lift_joint": -1.1220246554650708,
            "shoulder_pan_joint": -1.0952077554168747,
            "wrist_1_joint": -0.8559753972642168,
            "wrist_2_joint": 0.4759566250798843,
            "wrist_3_joint": -3.1240929996934557
        }
    },
    "waypoints": [
        {
            "positions": [
                -1.0952077554168747,
                -1.1220246554650708,
                2.0193083361928714,
                -0.8559753972642168,
                0.4759566250798843,
                -3.1240929996934557
            ]
        },
        {
            "positions": [
                -1.1910976229776455,
                -1.1711141423080669,
                2.00900888527369,
                -0.802715650238704,
                0.6422698559483799,
                -3.1241452615883545
            ]
        },
        {
            "positions": [
                -1.2869874905384162,
                -1.220203629151063,
                1.9987094343545084,
                -0.749455903213191,
                0.8085830868168755,
                -3.1241975234832537
            ]
        },
        {
            "positions": [
                -1.382877358099187,
                -1.269293115994059,
                1.9884099834353268,
                -0.6961961561876782,
                0.9748963176853711,
                -3.1242497853781526
            ]
        },
        {
            "positions": [
                -1.4787672256599578,
                -1.318382602837055,
                1.9781105325161454,
                -0.6429364091621653,
                1.1412095485538667,
                -3.1243020472730514
            ]
        },
        {
            "positions": [
                -1.5746570932207287,
                -1.3674720896800512,
                1.967811081596964,
                -0.5896766621366524,
                1.3075227794223625,
                -3.1243543091679506
            ]
        },
        {
            "positions": [
                -1.6705469607814996,
                -1.4165615765230473,
                1.9575116306777824,
                -0.5364169151111395,
                1.473836010290858,
                -3.1244065710628495
            ]
        }
    ]
}