{
    "goal": {
        "global_pose": {
            "orientation": {
                "w": 0.7047431493862688,
                "x": -0.7094548369677653,
                "y": 0.0024358444001904,
                "z": -0.0022348060817251984
            },
            "position": {
                "x": -0.39052492380142206,
                "y": 0.3671506643295288,
                "z": 0.19426114857196808
            }
        },
        "name": "move_to_magneteinheit_D"
    },
    "id": "LazyPRM_move_to_magneteinheit_D_109",
    "joint_names": [
        "shoulder_pan_joint",
        "shoulder_lift_joint",
        "elbow_joint",
        "wrist_1_joint",
        "wrist_2_joint",
        "wrist_3_joint"
    ],
    "metrics": {
        "cart_traj_len": 4.664067774346464,
        "distance_elbow_joint": 3.4944453378973126,
        "distance_shoulder_lift_joint": 1.872290694511327,
        "distance_shoulder_pan_joint": 3.450700957298435,
        "distance_wrist_1_joint": 1.8460916788284758,
        "distance_wrist_2_joint": 1.8673571901714814,
        "distance_wrist_3_joint": 3.6594033502504564,
        "smoothness": 0.3812496613579276,
        "time": 0.257315741,
        "traj_len": 4.023715845951039,
        "weighted_distance": 5.217522858450967
    },
    "planner": "LazyPRM",
    "start": {
        "state": {
            "elbow_joint": 0.749534889911806,
            "shoulder_lift_joint": -0.6476975780787326,
            "shoulder_pan_joint": -2.711696901376241,
            "wrist_1_joint": -0.07506478083263063,
            "wrist_2_joint": 0.43296659715538205,
            "wrist_3_joint": -3.14703540197715
        }
    },
    "waypoints": [
        {
            "positions": [
                -2.711696901376241,
                -0.6476975780787326,
                0.749534889911806,
                -0.07506478083263063,
                0.43296659715538205,
                -3.14703540197715
            ]
        },
        {
            "positions": [
                -2.778184383964434,
                -0.6198384434015779,
                0.765457979909343,
                -0.023542196602597182,
                0.3123276408917248,
                -3.212795897962356
            ]
        },
        {
            "positions": [
                -2.844671866552627,
                -0.5919793087244232,
                0.7813810699068799,
                0.027980387627436265,
                0.19168868462806757,
                -3.2785563939475613
            ]
        },
        {
            "positions": [
                -2.9111593491408194,
                -0.5641201740472684,
                0.797304159904417,
                0.07950297185746971,
                0.07104972836441031,
                -3.3443168899327667
            ]
        },
        {
            "positions": [
                -2.9776468317290123,
                -0.5362610393701137,
                0.813227249901954,
                0.13102555608750316,
                -0.04958922789924691,
                -3.4100773859179725
            ]
        },
        {
            "positions": [
                -2.9128072973582335,
                -0.619402722784336,
                0.833448901498894,
                0.22756934913522694,
                -0.14630655283374241,
                -3.382015494563176
            ]
        },
        {
            "positions": [
                -2.8479677629874547,
                -0.7025444061985581,
                0.8536705530958338,
                0.32411314218295073,
                -0.24302387776823792,
                -3.35395360320838
            ]
        },
        {
            "positions": [
                -2.7831282286166763,
                -0.7856860896127803,
                0.8738922046927737,
                0.42065693523067454,
                -0.33974120270273345,
                -3.3258917118535836
            ]
        },
        {
            "positions": [
                -2.7182886942458975,
                -0.8688277730270024,
                0.8941138562897137,
                0.5172007282783984,
                -0.4364585276372289,
                -3.2978298204987873
            ]
        },
        {
            "positions": [
                -2.6534491598751186,
                -0.9519694564412247,
                0.9143355078866536,
                0.6137445213261221,
                -0.5331758525717245,
                -3.269767929143991
            ]
        },
        {
            "positions": [
                -2.58860962550434,
                -1.035111139855447,
                0.9345571594835935,
                0.7102883143738459,
                -0.62989317750622,
                -3.2417060377891946
            ]
        },
        {
            "positions": [
                -2.387567902301873,
                -1.098937612756821,
                0.9096081842286498,
                0.7462462668909933,
                -0.6275014428464192,
                -3.1871461264861063
            ]
        },
        {
            "positions": [
                -2.1865261790994066,
                -1.162764085658195,
                0.884659208973706,
                0.7822042194081407,
                -0.6251097081866183,
                -3.132586215183018
            ]
        },
        {
            "positions": [
                -1.9854844558969398,
                -1.2265905585595687,
                0.8597102337187622,
                0.8181621719252881,
                -0.6227179735268173,
                -3.0780263038799296
            ]
        },
        {
            "positions": [
                -1.7844427326944734,
                -1.2904170314609427,
                0.8347612584638184,
                0.8541201244424355,
                -0.6203262388670165,
                -3.0234663925768417
            ]
        },
        {
            "positions": [
                -1.5834010094920066,
                -1.3542435043623167,
                0.8098122832088747,
                0.890078076959583,
                -0.6179345042072157,
                -2.9689064812737533
            ]
        },
        {
            "positions": [
                -1.38235928628954,
                -1.4180699772636907,
                0.7848633079539309,
                0.9260360294767304,
                -0.6155427695474148,
                -2.914346569970665
            ]
        },
        {
            "positions": [
                -1.1813175630870731,
                -1.4818964501650647,
                0.7599143326989871,
                0.9619939819938779,
                -0.6131510348876139,
                -2.8597866586675766
            ]
        },
        {
            "positions": [
                -0.9802758398846068,
                -1.5457229230664384,
                0.7349653574440433,
                0.9979519345110252,
                -0.6107593002278131,
                -2.8052267473644883
            ]
        },
        {
            "positions": [
                -0.7792341166821402,
                -1.6095493959678127,
                0.7100163821890996,
                1.0339098870281727,
                -0.6083675655680123,
                -2.7506668360614004
            ]
        },
        {
            "positions": [
                -0.5781923934796733,
                -1.6733758688691864,
                0.6850674069341558,
                1.06986783954532,
                -0.6059758309082114,
                -2.696106924758312
            ]
        },
        {
            "positions": [
                -0.37715067027720695,
                -1.7372023417705604,
                0.660118431679212,
                1.1058257920624674,
                -0.6035840962484105,
                -2.6415470134552237
            ]
        },
        {
            "positions": [
                -0.17610894707474029,
                -1.8010288146719344,
                0.6351694564242683,
                1.1417837445796148,
                -0.6011923615886097,
                -2.5869871021521353
            ]
        },
        {
            "positions": [
                -0.16571472956642114,
                -1.8281201905093811,
                0.47568866026577405,
                1.169791975294863,
                -0.5622270871881766,
                -2.4709689392102487
            ]
        },
        {
            "positions": [
                -0.155320512058102,
                -1.855211566346828,
                0.3162078641072798,
                1.197800206010111,
                -0.5232618127877436,
                -2.354950776268362
            ]
        },
        {
            "positions": [
                -0.14492629454978284,
                -1.8823029421842747,
                0.15672706794878555,
                1.225808436725359,
                -0.48429653838731057,
                -2.2389326133264755
            ]
        },
        {
            "positions": [
                -0.1345320770414637,
                -1.9093943180217217,
                -0.00275372820970865,
                1.253816667440607,
                -0.4453312639868776,
                -2.122914450384589
            ]
        },
        {
            "positions": [
                -0.12413785953314455,
                -1.9364856938591684,
                -0.16223452436820296,
                1.281824898155855,
                -0.40636598958644454,
                -2.0068962874427023
            ]
        },
        {
            "positions": [
                -0.1137436420248254,
                -1.9635770696966153,
                -0.32171532052669716,
                1.3098331288711031,
                -0.36740071518601153,
                -1.890878124500816
            ]
        },
        {
            "positions": [
                -0.10334942451650625,
                -1.990668445534062,
                -0.48119611668519147,
                1.3378413595863512,
                -0.32843544078557846,
                -1.7748599615589291
            ]
        },
        {
            "positions": [
                -0.0929552070081871,
                -2.017759821371509,
                -0.6406769128436856,
                1.3658495903015992,
                -0.2894701663851455,
                -1.6588417986170427
            ]
        },
        {
            "positions": [
                -0.08256098949986795,
                -2.0448511972089554,
                -0.8001577090021799,
                1.3938578210168475,
                -0.25050489198471243,
                -1.5428236356751561
            ]
        },
        {
            "positions": [
                -0.0721667719915488,
                -2.0719425730464023,
                -0.9596385051606742,
                1.4218660517320956,
                -0.21153961758427936,
                -1.4268054727332695
            ]
        },
        {
            "positions": [
                -0.061772554483229644,
                -2.099033948883849,
                -1.1191193013191685,
                1.4498742824473436,
                -0.17257434318384635,
                -1.310787309791383
            ]
        },
        {
            "positions": [
                -0.05137833697491051,
                -2.126125324721296,
                -1.2786000974776626,
                1.4778825131625917,
                -0.1336090687834134,
                -1.1947691468494965
            ]
        },
        {
            "positions": [
                -0.04098411946659136,
                -2.1532167005587426,
                -1.4380808936361567,
                1.5058907438778397,
                -0.09464379438298032,
                -1.07875098390761
            ]
        },
        {
            "positions": [
                -0.030589901958272214,
                -2.1803080763961895,
                -1.5975616897946512,
                1.5338989745930878,
                -0.05567851998254725,
                -0.9627328209657231
            ]
        },
        {
            "positions": [
                -0.020195684449953066,
                -2.2073994522336364,
                -1.7570424859531453,
                1.5619072053083358,
                -0.01671324558211429,
                -0.8467146580238365
            ]
        },
        {
            "positions": [
                -0.009801466941633918,
                -2.234490828071083,
                -1.9165232821116394,
                1.5899154360235839,
                0.02225202881831867,
                -0.7306964950819501
            ]
        },
        {
            "positions": [
                0.0005927505666852295,
                -2.26158220390853,
                -2.0760040782701337,
                1.617923666738832,
                0.06121730321875174,
                -0.6146783321400635
            ]
        },
        {
            "positions": [
                0.010986968075004391,
                -2.2886735797459767,
                -2.235484874428628,
                1.64593189745408,
                0.10018257761918484,
                -0.49866016919817685
            ]
        },
        {
            "positions": [
                -0.054385440972211166,
                -2.2858597079370284,
                -2.2819452192330627,
                1.6042335639401584,
                0.12498979774734331,
                -0.3370121193348975
            ]
        },
        {
            "positions": [
                -0.11975785001942672,
                -2.28304583612808,
                -2.3284055640374968,
                1.5625352304262365,
                0.14979701787550181,
                -0.1753640694716182
            ]
        },
        {
            "positions": [
                -0.18513025906664232,
                -2.2802319643191318,
                -2.3748659088419313,
                1.520836896912315,
                0.1746042380036603,
                -0.013716019608338872
            ]
        }
    ]
}