{
    "goal": {
        "global_pose": {
            "orientation": {
                "w": -0.4816463035849501,
                "x": 0.5182115481033762,
                "y": 0.4908360881923453,
                "z": -0.5084816262002911
            },
            "position": {
                "x": -0.8240239810943604,
                "y": 0.19912469901144506,
                "z": 0.16403168439865112
            }
        },
        "name": "move_to_storage_D"
    },
    "id": "LazyPRMstar_move_to_storage_D_85",
    "joint_names": [
        "shoulder_pan_joint",
        "shoulder_lift_joint",
        "elbow_joint",
        "wrist_1_joint",
        "wrist_2_joint",
        "wrist_3_joint"
    ],
    "metrics": {
        "cart_traj_len": 1.1719144357638347,
        "distance_elbow_joint": 0.554735042641032,
        "distance_shoulder_lift_joint": 0.15195924353168833,
        "distance_shoulder_pan_joint": 1.5929812214488575,
        "distance_wrist_1_joint": 3.8203823827542833,
        "distance_wrist_2_joint": 1.773410108275859,
        "distance_wrist_3_joint": 3.116901182404267,
        "smoothness": 0.11559825111659468,
        "time": 5.029484131,
        "traj_len": 3.318187634998357,
        "weighted_distance": 4.778908247381891
    },
    "planner": "LazyPRMstar",
    "start": {
        "state": {
            "elbow_joint": -2.384821988534728,
            "shoulder_lift_joint": -2.2788054721415256,
            "shoulder_pan_joint": -0.1854694642142757,
            "wrist_1_joint": 1.4845938289331202,
            "wrist_2_joint": 0.17898776772866878,
            "wrist_3_joint": 0.037105688729662994
        }
    },
    "waypoints": [
        {
            "positions": [
                -0.1854694642142757,
                -2.2788054721415256,
                -2.384821988534728,
                1.4845938289331202,
                0.17898776772866878,
                0.037105688729662994
            ]
        },
        {
            "positions": [
                -0.10616686952818656,
                -2.2766266416214007,
                -2.3629476219002257,
                1.4109218642302754,
                0.06881140464141138,
                -0.03969571277736475
            ]
        },
        {
            "positions": [
                -0.026864274842097413,
                -2.274447811101276,
                -2.3410732552657234,
                1.3372498995274305,
                -0.041364958445846034,
                -0.1164971142843925
            ]
        },
        {
            "positions": [
                0.05243831984399169,
                -2.2722689805811513,
                -2.319198888631221,
                1.2635779348245857,
                -0.15154132153310337,
                -0.1932985157914202
            ]
        },
        {
            "positions": [
                0.13174091453008088,
                -2.2700901500610264,
                -2.297324521996719,
                1.1899059701217407,
                -0.2617176846203608,
                -0.27009991729844796
            ]
        },
        {
            "positions": [
                0.21104350921617002,
                -2.2679113195409015,
                -2.2754501553622166,
                1.116234005418896,
                -0.37189404770761825,
                -0.3469013188054757
            ]
        },
        {
            "positions": [
                0.2903461039022591,
                -2.2657324890207766,
                -2.253575788727715,
                1.0425620407160512,
                -0.48207041079487556,
                -0.42370272031250344
            ]
        },
        {
            "positions": [
                0.36964869858834837,
                -2.2635536585006517,
                -2.2317014220932125,
                0.9688900760132062,
                -0.5922467738821331,
                -0.5005041218195312
            ]
        },
        {
            "positions": [
                0.4489512932744375,
                -2.261374827980527,
                -2.2098270554587103,
                0.8952181113103613,
                -0.7024231369693905,
                -0.5773055233265589
            ]
        },
        {
            "positions": [
                0.5282538879605266,
                -2.2591959974604023,
                -2.187952688824208,
                0.8215461466075165,
                -0.8125995000566479,
                -0.6541069248335867
            ]
        },
        {
            "positions": [
                0.6075564826466158,
                -2.2570171669402774,
                -2.1660783221897058,
                0.7478741819046717,
                -0.9227758631439053,
                -0.7309083263406144
            ]
        },
        {
            "positions": [
                0.6868590773327049,
                -2.2548383364201525,
                -2.1442039555552035,
                0.6742022172018268,
                -1.0329522262311626,
                -0.8077097278476422
            ]
        },
        {
            "positions": [
                0.6468228173381563,
                -2.247727663764024,
                -2.1267530105740087,
                0.5069805077005496,
                -1.0641450103598307,
                -0.9339367148380289
            ]
        },
        {
            "positions": [
                0.6067865573436075,
                -2.2406169911078955,
                -2.109302065592814,
                0.3397587981992724,
                -1.095337794488499,
                -1.0601637018284156
            ]
        },
        {
            "positions": [
                0.5667502973490588,
                -2.2335063184517665,
                -2.091851120611619,
                0.17253708869799522,
                -1.126530578617167,
                -1.1863906888188025
            ]
        },
        {
            "positions": [
                0.5267140373545102,
                -2.226395645795638,
                -2.0744001756304242,
                0.005315379196717984,
                -1.1577233627458354,
                -1.3126176758091892
            ]
        },
        {
            "positions": [
                0.4866777773599615,
                -2.2192849731395095,
                -2.056949230649229,
                -0.16190633030455936,
                -1.1889161468745035,
                -1.4388446627995761
            ]
        },
        {
            "positions": [
                0.4466415173654128,
                -2.212174300483381,
                -2.039498285668034,
                -0.3291280398058364,
                -1.2201089310031719,
                -1.5650716497899628
            ]
        },
        {
            "positions": [
                0.4066052573708641,
                -2.205063627827252,
                -2.0220473406868393,
                -0.49634974930711373,
                -1.25130171513184,
                -1.6912986367803495
            ]
        },
        {
            "positions": [
                0.36656899737631543,
                -2.1979529551711234,
                -2.0045963957056445,
                -0.6635714588083909,
                -1.2824944992605083,
                -1.8175256237707362
            ]
        },
        {
            "positions": [
                0.32653273738176675,
                -2.190842282514995,
                -1.9871454507244497,
                -0.8307931683096682,
                -1.3136872833891764,
                -1.9437526107611232
            ]
        },
        {
            "positions": [
                0.28649647738721806,
                -2.1837316098588664,
                -1.9696945057432549,
                -0.9980148778109456,
                -1.3448800675178445,
                -2.06997959775151
            ]
        },
        {
            "positions": [
                0.24646021739266932,
                -2.176620937202738,
                -1.95224356076206,
                -1.165236587312223,
                -1.3760728516465128,
                -2.196206584741897
            ]
        },
        {
            "positions": [
                0.2064239573981207,
                -2.169510264546609,
                -1.934792615780865,
                -1.3324582968134995,
                -1.407265635775181,
                -2.3224335717322835
            ]
        },
        {
            "positions": [
                0.16638769740357207,
                -2.1623995918904804,
                -1.9173416707996702,
                -1.4996800063147768,
                -1.4384584199038493,
                -2.44866055872267
            ]
        },
        {
            "positions": [
                0.12635143740902333,
                -2.155288919234352,
                -1.8998907258184754,
                -1.6669017158160542,
                -1.4696512040325174,
                -2.5748875457130573
            ]
        },
        {
            "positions": [
                0.08631517741447459,
                -2.1481782465782233,
                -1.8824397808372804,
                -1.8341234253173315,
                -1.5008439881611857,
                -2.7011145327034436
            ]
        },
        {
            "positions": [
                0.04627891741992596,
                -2.1410675739220943,
                -1.8649888358560855,
                -2.0013451348186084,
                -1.5320367722898538,
                -2.8273415196938303
            ]
        },
        {
            "positions": [
                0.006242657425377329,
                -2.133956901265966,
                -1.8475378908748907,
                -2.1685668443198858,
                -1.5632295564185221,
                -2.9535685066842174
            ]
        },
        {
            "positions": [
                -0.03379360256917146,
                -2.1268462286098373,
                -1.830086945893696,
                -2.335788553821163,
                -1.5944223405471902,
                -3.079795493674604
            ]
        }
    ]
}