{
    "goal": {
        "global_pose": {
            "orientation": {
                "w": -0.4816463035849501,
                "x": 0.5182115481033762,
                "y": 0.4908360881923453,
                "z": -0.5084816262002911
            },
            "position": {
                "x": -0.8240239810943604,
                "y": 0.19912469901144506,
                "z": 0.16403168439865112
            }
        },
        "name": "move_to_storage_D"
    },
    "id": "LazyPRMstar_move_to_storage_D_52",
    "joint_names": [
        "shoulder_pan_joint",
        "shoulder_lift_joint",
        "elbow_joint",
        "wrist_1_joint",
        "wrist_2_joint",
        "wrist_3_joint"
    ],
    "metrics": {
        "cart_traj_len": 0.6474990367130151,
        "distance_elbow_joint": 0.5584180478052208,
        "distance_shoulder_lift_joint": 0.2853537641927524,
        "distance_shoulder_pan_joint": 0.46172770984675116,
        "distance_wrist_1_joint": 3.831475868373021,
        "distance_wrist_2_joint": 1.8195536717394327,
        "distance_wrist_3_joint": 3.220320505944741,
        "smoothness": 0.1478320918755307,
        "time": 5.016842034,
        "traj_len": 3.190117484968527,
        "weighted_distance": 4.71895328647189
    },
    "planner": "LazyPRMstar",
    "start": {
        "state": {
            "elbow_joint": -2.384821988534728,
            "shoulder_lift_joint": -2.2788054721415256,
            "shoulder_pan_joint": -0.1854694642142757,
            "wrist_1_joint": 1.4845938289331202,
            "wrist_2_joint": 0.17898776772866878,
            "wrist_3_joint": 0.037105688729662994
        }
    },
    "waypoints": [
        {
            "positions": [
                -0.1854694642142757,
                -2.2788054721415256,
                -2.384821988534728,
                1.4845938289331202,
                0.17898776772866878,
                0.037105688729662994
            ]
        },
        {
            "positions": [
                -0.15600690689302388,
                -2.275371766370601,
                -2.3741722516482446,
                1.4707216151253595,
                0.19684810838622385,
                0.004575816042738004
            ]
        },
        {
            "positions": [
                -0.06392607605956102,
                -2.203754671402125,
                -2.3258167579612468,
                1.3527138417041806,
                0.18165203797770343,
                0.0057598405857610495
            ]
        },
        {
            "positions": [
                0.028154754773901836,
                -2.1321375764336485,
                -2.2774612642742493,
                1.234706068283002,
                0.16645596756918304,
                0.006943865128784096
            ]
        },
        {
            "positions": [
                0.12023558560736469,
                -2.0605204814651725,
                -2.2291057705872515,
                1.1166982948618231,
                0.15125989716066263,
                0.008127889671807142
            ]
        },
        {
            "positions": [
                0.11345199169322943,
                -2.0634365150963205,
                -2.2115969953760453,
                0.9661078455443569,
                0.07490750064517061,
                0.14657304443827437
            ]
        },
        {
            "positions": [
                0.10666839777909416,
                -2.066352548727468,
                -2.194088220164839,
                0.8155173962268907,
                -0.0014448958703213999,
                0.28501819920474164
            ]
        },
        {
            "positions": [
                0.0998848038649589,
                -2.069268582358616,
                -2.1765794449536324,
                0.6649269469094243,
                -0.07779729238581343,
                0.4234633539712089
            ]
        },
        {
            "positions": [
                0.09310120995082365,
                -2.0721846159897637,
                -2.1590706697424262,
                0.5143364975919581,
                -0.15414968890130543,
                0.5619085087376761
            ]
        },
        {
            "positions": [
                0.08631761603668839,
                -2.0751006496209117,
                -2.14156189453122,
                0.36374604827449175,
                -0.23050208541679745,
                0.7003536635041433
            ]
        },
        {
            "positions": [
                0.07953402212255312,
                -2.0780166832520592,
                -2.124053119320014,
                0.21315559895702552,
                -0.3068544819322895,
                0.8387988182706105
            ]
        },
        {
            "positions": [
                0.07275042820841784,
                -2.0809327168832072,
                -2.1065443441088076,
                0.06256514963955917,
                -0.3832068784477815,
                0.9772439730370779
            ]
        },
        {
            "positions": [
                0.0659668342942826,
                -2.083848750514355,
                -2.0890355688976014,
                -0.08802529967790695,
                -0.4595592749632735,
                1.115689127803545
            ]
        },
        {
            "positions": [
                0.05918324038014733,
                -2.086764784145503,
                -2.071526793686395,
                -0.23861574899537352,
                -0.5359116714787655,
                1.2541342825700124
            ]
        },
        {
            "positions": [
                0.05239964646601207,
                -2.0896808177766504,
                -2.0540180184751886,
                -0.38920619831283965,
                -0.6122640679942575,
                1.3925794373364795
            ]
        },
        {
            "positions": [
                0.0456160525518768,
                -2.0925968514077984,
                -2.0365092432639824,
                -0.539796647630306,
                -0.6886164645097497,
                1.5310245921029468
            ]
        },
        {
            "positions": [
                0.038832458637741554,
                -2.095512885038946,
                -2.019000468052776,
                -0.6903870969477721,
                -0.7649688610252416,
                1.669469746869414
            ]
        },
        {
            "positions": [
                0.032048864723606296,
                -2.098428918670094,
                -2.00149169284157,
                -0.8409775462652382,
                -0.8413212575407336,
                1.807914901635881
            ]
        },
        {
            "positions": [
                0.02526527080947101,
                -2.1013449523012415,
                -1.9839829176303636,
                -0.9915679955827048,
                -0.9176736540562256,
                1.9463600564023487
            ]
        },
        {
            "positions": [
                0.018481676895335752,
                -2.1042609859323895,
                -1.9664741424191574,
                -1.142158444900171,
                -0.9940260505717176,
                2.084805211168816
            ]
        },
        {
            "positions": [
                0.011698082981200494,
                -2.107177019563537,
                -1.948965367207951,
                -1.292748894217637,
                -1.0703784470872095,
                2.223250365935283
            ]
        },
        {
            "positions": [
                0.004914489067065236,
                -2.110093053194685,
                -1.9314565919967448,
                -1.4433393435351036,
                -1.1467308436027015,
                2.3616955207017503
            ]
        },
        {
            "positions": [
                -0.0018691048470700355,
                -2.1130090868258327,
                -1.9139478167855386,
                -1.5939297928525702,
                -1.2230832401181937,
                2.500140675468218
            ]
        },
        {
            "positions": [
                -0.00865269876120528,
                -2.1159251204569807,
                -1.8964390415743324,
                -1.7445202421700363,
                -1.2994356366336857,
                2.638585830234685
            ]
        },
        {
            "positions": [
                -0.015436292675340552,
                -2.1188411540881282,
                -1.878930266363126,
                -1.8951106914875024,
                -1.3757880331491776,
                2.777030985001152
            ]
        },
        {
            "positions": [
                -0.022219886589475796,
                -2.1217571877192762,
                -1.8614214911519198,
                -2.045701140804969,
                -1.4521404296646696,
                2.915476139767619
            ]
        },
        {
            "positions": [
                -0.029003480503611095,
                -2.124673221350424,
                -1.8439127159407134,
                -2.196291590122435,
                -1.5284928261801618,
                3.053921294534087
            ]
        },
        {
            "positions": [
                -0.035787074417746347,
                -2.127589254981572,
                -1.8264039407295072,
                -2.346882039439901,
                -1.6048452226956538,
                3.192366449300554
            ]
        }
    ]
}