{
    "goal": {
        "global_pose": {
            "orientation": {
                "w": -0.4816463035849501,
                "x": 0.5182115481033762,
                "y": 0.4908360881923453,
                "z": -0.5084816262002911
            },
            "position": {
                "x": -0.8240239810943604,
                "y": 0.19912469901144506,
                "z": 0.16403168439865112
            }
        },
        "name": "move_to_storage_D"
    },
    "id": "LazyPRM_move_to_storage_D_64",
    "joint_names": [
        "shoulder_pan_joint",
        "shoulder_lift_joint",
        "elbow_joint",
        "wrist_1_joint",
        "wrist_2_joint",
        "wrist_3_joint"
    ],
    "metrics": {
        "cart_traj_len": 3.4197389853410978,
        "distance_elbow_joint": 4.338814365080179,
        "distance_shoulder_lift_joint": 1.9656995029465638,
        "distance_shoulder_pan_joint": 2.8443134153928873,
        "distance_wrist_1_joint": 2.2690227832476952,
        "distance_wrist_2_joint": 1.4950883637840597,
        "distance_wrist_3_joint": 3.3188729473524194,
        "smoothness": 0.22453905281323397,
        "time": 1.564869933,
        "traj_len": 4.028872221578119,
        "weighted_distance": 5.160781764378377
    },
    "planner": "LazyPRM",
    "start": {
        "state": {
            "elbow_joint": -2.384821988534728,
            "shoulder_lift_joint": -2.2788054721415256,
            "shoulder_pan_joint": -0.1854694642142757,
            "wrist_1_joint": 1.4845938289331202,
            "wrist_2_joint": 0.17898776772866878,
            "wrist_3_joint": 0.037105688729662994
        }
    },
    "waypoints": [
        {
            "positions": [
                -0.1854694642142757,
                -2.2788054721415256,
                -2.384821988534728,
                1.4845938289331202,
                0.17898776772866878,
                0.037105688729662994
            ]
        },
        {
            "positions": [
                -0.20108318665273117,
                -2.2341267954483977,
                -2.4497814159462736,
                1.3607426040196218,
                0.13741615424600367,
                -0.021839540782485116
            ]
        },
        {
            "positions": [
                -0.09923948456119477,
                -2.1357602868458665,
                -2.4051960911163386,
                1.2674908878998505,
                0.09264202085970358,
                -0.025754567045766532
            ]
        },
        {
            "positions": [
                0.0026042175303416237,
                -2.0373937782433353,
                -2.3606107662864035,
                1.1742391717800795,
                0.04786788747340347,
                -0.029669593309047948
            ]
        },
        {
            "positions": [
                0.10444791962187805,
                -1.9390272696408042,
                -2.3160254414564685,
                1.0809874556603085,
                0.0030937540871033564,
                -0.03358461957232936
            ]
        },
        {
            "positions": [
                0.20629162171341442,
                -1.840660761038273,
                -2.271440116626533,
                0.9877357395405373,
                -0.04168037929919674,
                -0.03749964583561078
            ]
        },
        {
            "positions": [
                0.3081353238049509,
                -1.7422942524357419,
                -2.226854791796598,
                0.8944840234207662,
                -0.08645451268549686,
                -0.0414146720988922
            ]
        },
        {
            "positions": [
                0.40997902589648727,
                -1.6439277438332107,
                -2.182269466966663,
                0.801232307300995,
                -0.13122864607179696,
                -0.04532969836217361
            ]
        },
        {
            "positions": [
                0.499817980464364,
                -1.603065576256024,
                -2.075696411467673,
                0.7588903440314214,
                -0.11601429883177582,
                0.046510978275864326
            ]
        },
        {
            "positions": [
                0.5896569350322407,
                -1.5622034086788372,
                -1.969123355968683,
                0.7165483807618478,
                -0.10079995159175467,
                0.13835165491390228
            ]
        },
        {
            "positions": [
                0.6794958896001175,
                -1.5213412411016507,
                -1.8625503004696928,
                0.6742064174922742,
                -0.08558560435173353,
                0.23019233155194024
            ]
        },
        {
            "positions": [
                0.7693348441679942,
                -1.480479073524464,
                -1.755977244970703,
                0.6318644542227005,
                -0.07037125711171238,
                0.32203300818997815
            ]
        },
        {
            "positions": [
                0.8591737987358711,
                -1.4396169059472772,
                -1.6494041894717129,
                0.5895224909531269,
                -0.05515690987169124,
                0.4138736848280162
            ]
        },
        {
            "positions": [
                0.9490127533037478,
                -1.3987547383700907,
                -1.5428311339727228,
                0.5471805276835533,
                -0.03994256263167009,
                0.5057143614660541
            ]
        },
        {
            "positions": [
                1.0388517078716246,
                -1.357892570792904,
                -1.4362580784737329,
                0.5048385644139797,
                -0.024728215391648947,
                0.597555038104092
            ]
        },
        {
            "positions": [
                1.1286906624395012,
                -1.3170304032157172,
                -1.329685022974743,
                0.46249660114440616,
                -0.009513868151627802,
                0.6893957147421299
            ]
        },
        {
            "positions": [
                1.218529617007378,
                -1.2761682356385304,
                -1.223111967475753,
                0.42015463787483254,
                0.005700479088393329,
                0.7812363913801679
            ]
        },
        {
            "positions": [
                1.3083685715752549,
                -1.2353060680613437,
                -1.1165389119767628,
                0.37781267460525886,
                0.020914826328414488,
                0.873077068018206
            ]
        },
        {
            "positions": [
                1.3982075261431315,
                -1.1944439004841572,
                -1.009965856477773,
                0.3354707113356853,
                0.03612917356843562,
                0.9649177446562438
            ]
        },
        {
            "positions": [
                1.4880464807110083,
                -1.1535817329069704,
                -0.9033928009787828,
                0.29312874806611167,
                0.05134352080845678,
                1.0567584212942818
            ]
        },
        {
            "positions": [
                1.577885435278885,
                -1.1127195653297837,
                -0.796819745479793,
                0.25078678479653804,
                0.06655786804847791,
                1.1485990979323197
            ]
        },
        {
            "positions": [
                1.667724389846762,
                -1.0718573977525971,
                -0.6902466899808026,
                0.20844482152696442,
                0.08177221528849907,
                1.2404397745703577
            ]
        },
        {
            "positions": [
                1.7575633444146386,
                -1.0309952301754104,
                -0.5836736344818128,
                0.1661028582573908,
                0.09698656252852023,
                1.3322804512083957
            ]
        },
        {
            "positions": [
                1.8474022989825152,
                -0.9901330625982236,
                -0.4771005789828229,
                0.12376089498781728,
                0.11220090976854136,
                1.4241211278464334
            ]
        },
        {
            "positions": [
                1.9372412535503922,
                -0.9492708950210369,
                -0.3705275234838328,
                0.08141893171824355,
                0.1274152570085625,
                1.5159618044844716
            ]
        },
        {
            "positions": [
                2.027080208118269,
                -0.9084087274438503,
                -0.2639544679848429,
                0.039076968448670035,
                0.14262960424858362,
                1.6078024811225093
            ]
        },
        {
            "positions": [
                2.1169191626861457,
                -0.8675465598666636,
                -0.15738141248585302,
                -0.0032649948209035884,
                0.1578439514886048,
                1.6996431577605473
            ]
        },
        {
            "positions": [
                2.2067581172540223,
                -0.8266843922894769,
                -0.0508083569868627,
                -0.04560695809047732,
                0.17305829872862594,
                1.7914838343985855
            ]
        },
        {
            "positions": [
                2.296597071821899,
                -0.7858222247122901,
                0.055764698512127175,
                -0.08794892136005084,
                0.18827264596864707,
                1.8833245110366232
            ]
        },
        {
            "positions": [
                2.3864360263897755,
                -0.7449600571351035,
                0.16233775401111705,
                -0.13029088462962446,
                0.2034869932086682,
                1.9751651876746612
            ]
        },
        {
            "positions": [
                2.476274980957653,
                -0.7040978895579167,
                0.2689108095101074,
                -0.17263284789919808,
                0.21870134044868939,
                2.067005864312699
            ]
        },
        {
            "positions": [
                2.5661139355255296,
                -0.6632357219807301,
                0.37548386500909725,
                -0.21497481116877165,
                0.23391568768871052,
                2.158846540950737
            ]
        },
        {
            "positions": [
                2.5717050783233635,
                -0.6950656995067092,
                0.5071738338012121,
                -0.26674336963657197,
                0.3084363800726275,
                2.2526884792187074
            ]
        },
        {
            "positions": [
                2.577296221121197,
                -0.7268956770326881,
                0.6388638025933269,
                -0.3185119281043723,
                0.38295707245654453,
                2.3465304174866772
            ]
        },
        {
            "positions": [
                2.582887363919031,
                -0.7587256545586671,
                0.7705537713854416,
                -0.3702804865721726,
                0.45747776484046143,
                2.4403723557546475
            ]
        },
        {
            "positions": [
                2.5884785067168643,
                -0.7905556320846461,
                0.9022437401775564,
                -0.422049045039973,
                0.5319984572243786,
                2.5342142940226178
            ]
        },
        {
            "positions": [
                2.594069649514698,
                -0.8223856096106251,
                1.0339337089696712,
                -0.47381760350777324,
                0.6065191496082954,
                2.628056232290588
            ]
        },
        {
            "positions": [
                2.5996607923125317,
                -0.8542155871366041,
                1.1656236777617859,
                -0.5255861619755735,
                0.6810398419922123,
                2.721898170558558
            ]
        },
        {
            "positions": [
                2.6052519351103656,
                -0.8860455646625831,
                1.2973136465539006,
                -0.577354720443374,
                0.7555605343761295,
                2.815740108826528
            ]
        },
        {
            "positions": [
                2.610843077908199,
                -0.917875542188562,
                1.4290036153460155,
                -0.6291232789111743,
                0.8300812267600465,
                2.9095820470944984
            ]
        },
        {
            "positions": [
                2.616434220706033,
                -0.9497055197145411,
                1.5606935841381304,
                -0.6808918373789745,
                0.9046019191439635,
                3.0034239853624687
            ]
        },
        {
            "positions": [
                2.6220253635038664,
                -0.9815354972405201,
                1.692383552930245,
                -0.7326603958467748,
                0.9791226115278804,
                3.0972659236304385
            ]
        },
        {
            "positions": [
                2.6276165063017003,
                -1.013365474766499,
                1.8240735217223598,
                -0.7844289543145753,
                1.0536433039117974,
                3.191107861898409
            ]
        }
    ]
}