{
    "goal": {
        "global_pose": {
            "orientation": {
                "w": 0.7031023480610252,
                "x": -0.7110244013736278,
                "y": 0.0077485991402295624,
                "z": 0.005598929693374583
            },
            "position": {
                "x": -0.8841497679147869,
                "y": 0.44412534475326537,
                "z": 0.3711530566215515
            }
        },
        "name": "move_to_auspresseinheit_D"
    },
    "id": "LazyPRM_move_to_auspresseinheit_D_97",
    "joint_names": [
        "shoulder_pan_joint",
        "shoulder_lift_joint",
        "elbow_joint",
        "wrist_1_joint",
        "wrist_2_joint",
        "wrist_3_joint"
    ],
    "metrics": {
        "cart_traj_len": 0.3441898046402326,
        "distance_elbow_joint": 0.659787278204784,
        "distance_shoulder_lift_joint": 0.13340076409532253,
        "distance_shoulder_pan_joint": 0.13422950686063306,
        "distance_wrist_1_joint": 0.6034845471866439,
        "distance_wrist_2_joint": 1.4342305713123757,
        "distance_wrist_3_joint": 0.053902894906990184,
        "smoothness": 5.921189480296099e-16,
        "time": 0.012459785,
        "traj_len": 1.7375372118509431,
        "weighted_distance": 2.2725660542390727
    },
    "planner": "LazyPRM",
    "start": {
        "state": {
            "elbow_joint": -1.8275523626775212,
            "shoulder_lift_joint": -2.126789852344167,
            "shoulder_pan_joint": -0.03513704404078235,
            "wrist_1_joint": -2.347782403156801,
            "wrist_2_joint": -1.6058999987535132,
            "wrist_3_joint": -3.0880379163319196
        }
    },
    "waypoints": [
        {
            "positions": [
                -0.03513704404078235,
                -2.126789852344167,
                -1.8275523626775212,
                -2.347782403156801,
                -1.6058999987535132,
                -3.0880379163319196
            ]
        },
        {
            "positions": [
                -0.05191573239836148,
                -2.1434649478560823,
                -1.7450789529019233,
                -2.423217971555131,
                -1.4266211773394661,
                -3.081300054468546
            ]
        },
        {
            "positions": [
                -0.06869442075594062,
                -2.1601400433679974,
                -1.6626055431263251,
                -2.498653539953462,
                -1.2473423559254193,
                -3.074562192605172
            ]
        },
        {
            "positions": [
                -0.08547310911351974,
                -2.176815138879913,
                -1.5801321333507272,
                -2.5740891083517923,
                -1.0680635345113723,
                -3.0678243307417983
            ]
        },
        {
            "positions": [
                -0.10225179747109889,
                -2.1934902343918283,
                -1.497658723575129,
                -2.649524676750123,
                -0.8887847130973253,
                -3.0610864688784245
            ]
        },
        {
            "positions": [
                -0.119030485828678,
                -2.2101653299037434,
                -1.4151853137995312,
                -2.7249602451484534,
                -0.7095058916832784,
                -3.0543486070150507
            ]
        },
        {
            "positions": [
                -0.13580917418625715,
                -2.226840425415659,
                -1.3327119040239332,
                -2.8003958135467837,
                -0.5302270702692313,
                -3.047610745151677
            ]
        },
        {
            "positions": [
                -0.15258786254383627,
                -2.243515520927574,
                -1.250238494248335,
                -2.8758313819451145,
                -0.3509482488551845,
                -3.040872883288303
            ]
        },
        {
            "positions": [
                -0.16936655090141542,
                -2.2601906164394894,
                -1.1677650844727372,
                -2.9512669503434448,
                -0.17166942744113742,
                -3.0341350214249294
            ]
        }
    ]
}