{
    "goal": {
        "global_pose": {
            "orientation": {
                "w": 0.7047431493862688,
                "x": -0.7094548369677653,
                "y": 0.0024358444001904,
                "z": -0.0022348060817251984
            },
            "position": {
                "x": -0.39052492380142206,
                "y": 0.3671506643295288,
                "z": 0.19426114857196808
            }
        },
        "name": "move_to_magneteinheit_D"
    },
    "id": "LazyPRMstar_move_to_magneteinheit_D_21",
    "joint_names": [
        "shoulder_pan_joint",
        "shoulder_lift_joint",
        "elbow_joint",
        "wrist_1_joint",
        "wrist_2_joint",
        "wrist_3_joint"
    ],
    "metrics": {
        "cart_traj_len": 5.765798292938697,
        "distance_elbow_joint": 3.111854453048117,
        "distance_shoulder_lift_joint": 1.0966172141050805,
        "distance_shoulder_pan_joint": 7.677718624527546,
        "distance_wrist_1_joint": 2.1092186492126763,
        "distance_wrist_2_joint": 6.200905599207119,
        "distance_wrist_3_joint": 8.13935262724926,
        "smoothness": 0.24933211465909794,
        "time": 5.066424776,
        "traj_len": 5.323125695242394,
        "weighted_distance": 7.2749224511514985
    },
    "planner": "LazyPRMstar",
    "start": {
        "state": {
            "elbow_joint": 0.749534889911806,
            "shoulder_lift_joint": -0.6476975780787326,
            "shoulder_pan_joint": -2.711696901376241,
            "wrist_1_joint": -0.07506478083263063,
            "wrist_2_joint": 0.43296659715538205,
            "wrist_3_joint": -3.14703540197715
        }
    },
    "waypoints": [
        {
            "positions": [
                -2.711696901376241,
                -0.6476975780787326,
                0.749534889911806,
                -0.07506478083263063,
                0.43296659715538205,
                -3.14703540197715
            ]
        },
        {
            "positions": [
                -2.739969694587831,
                -0.649383030406051,
                0.7483608660449617,
                -0.09911558581568886,
                0.49349171167410366,
                -2.9257066550196553
            ]
        },
        {
            "positions": [
                -2.768242487799421,
                -0.6510684827333695,
                0.7471868421781173,
                -0.1231663907987471,
                0.5540168261928253,
                -2.70437790806216
            ]
        },
        {
            "positions": [
                -2.7635360160718174,
                -0.6780745245772716,
                0.7213789674125247,
                -0.1262109184317444,
                0.6164411579996655,
                -2.4631110780650998
            ]
        },
        {
            "positions": [
                -2.7588295443442137,
                -0.7050805664211738,
                0.6955710926469321,
                -0.12925544606474168,
                0.6788654898065057,
                -2.221844248068039
            ]
        },
        {
            "positions": [
                -2.7541230726166095,
                -0.7320866082650759,
                0.6697632178813395,
                -0.13229997369773897,
                0.7412898216133459,
                -1.9805774180709785
            ]
        },
        {
            "positions": [
                -2.7494166008890057,
                -0.7590926501089781,
                0.643955343115747,
                -0.13534450133073625,
                0.803714153420186,
                -1.7393105880739181
            ]
        },
        {
            "positions": [
                -2.744710129161402,
                -0.7860986919528802,
                0.6181474683501543,
                -0.13838902896373353,
                0.8661384852270263,
                -1.4980437580768573
            ]
        },
        {
            "positions": [
                -2.7400036574337983,
                -0.8131047337967823,
                0.5923395935845618,
                -0.14143355659673085,
                0.9285628170338664,
                -1.256776928079797
            ]
        },
        {
            "positions": [
                -2.735297185706194,
                -0.8401107756406845,
                0.5665317188189692,
                -0.14447808422972813,
                0.9909871488407067,
                -1.0155100980827363
            ]
        },
        {
            "positions": [
                -2.7305907139785903,
                -0.8671168174845867,
                0.5407238440533766,
                -0.14752261186272542,
                1.0534114806475467,
                -0.7742432680856759
            ]
        },
        {
            "positions": [
                -2.7258842422509866,
                -0.8941228593284888,
                0.514915969287784,
                -0.1505671394957227,
                1.115835812454387,
                -0.5329764380886154
            ]
        },
        {
            "positions": [
                -2.567804210472429,
                -0.9038615719744157,
                0.4313753842931279,
                -0.19334938065918852,
                1.1816462200247038,
                -0.5616783050305669
            ]
        },
        {
            "positions": [
                -2.4097241786938715,
                -0.9136002846203427,
                0.3478347992984717,
                -0.23613162182265435,
                1.2474566275950205,
                -0.5903801719725186
            ]
        },
        {
            "positions": [
                -2.251644146915314,
                -0.9233389972662697,
                0.2642942143038156,
                -0.2789138629861202,
                1.313267035165337,
                -0.6190820389144701
            ]
        },
        {
            "positions": [
                -2.093564115136756,
                -0.9330777099121966,
                0.18075362930915945,
                -0.321696104149586,
                1.3790774427356538,
                -0.6477839058564218
            ]
        },
        {
            "positions": [
                -1.9354840833581985,
                -0.9428164225581237,
                0.09721304431450328,
                -0.3644783453130518,
                1.4448878503059706,
                -0.6764857727983733
            ]
        },
        {
            "positions": [
                -1.7774040515796408,
                -0.9525551352040507,
                0.013672459319847174,
                -0.40726058647651764,
                1.5106982578762873,
                -0.705187639740325
            ]
        },
        {
            "positions": [
                -1.6193240198010832,
                -0.9622938478499776,
                -0.06986812567480905,
                -0.45004282763998343,
                1.576508665446604,
                -0.7338895066822765
            ]
        },
        {
            "positions": [
                -1.4612439880225256,
                -0.9720325604959046,
                -0.15340871066946515,
                -0.4928250688034493,
                1.6423190730169206,
                -0.7625913736242281
            ]
        },
        {
            "positions": [
                -1.303163956243968,
                -0.9817712731418315,
                -0.23694929566412126,
                -0.5356073099669152,
                1.7081294805872376,
                -0.7912932405661797
            ]
        },
        {
            "positions": [
                -1.1450839244654105,
                -0.9915099857877585,
                -0.3204898806587775,
                -0.5783895511303809,
                1.773939888157554,
                -0.8199951075081313
            ]
        },
        {
            "positions": [
                -0.9870038926868527,
                -1.0012486984336855,
                -0.4040304656534336,
                -0.6211717922938467,
                1.8397502957278709,
                -0.8486969744500829
            ]
        },
        {
            "positions": [
                -0.8289238609082952,
                -1.0109874110796124,
                -0.4875710506480897,
                -0.6639540334573126,
                1.9055607032981876,
                -0.8773988413920344
            ]
        },
        {
            "positions": [
                -0.6708438291297374,
                -1.0207261237255394,
                -0.5711116356427459,
                -0.7067362746207784,
                1.9713711108685041,
                -0.906100708333986
            ]
        },
        {
            "positions": [
                -0.5127637973511798,
                -1.0304648363714664,
                -0.6546522206374021,
                -0.7495185157842441,
                2.037181518438821,
                -0.9348025752759377
            ]
        },
        {
            "positions": [
                -0.35468376557262227,
                -1.0402035490173933,
                -0.7381928056320581,
                -0.7923007569477101,
                2.1029919260091376,
                -0.9635044422178892
            ]
        },
        {
            "positions": [
                -0.1966037337940647,
                -1.0499422616633203,
                -0.8217333906267144,
                -0.8350829981111758,
                2.168802333579454,
                -0.9922063091598408
            ]
        },
        {
            "positions": [
                -0.038523702015507144,
                -1.0596809743092472,
                -0.9052739756213706,
                -0.8778652392746418,
                2.234612741149771,
                -1.0209081761017924
            ]
        },
        {
            "positions": [
                0.11955632976305042,
                -1.0694196869551742,
                -0.9888145606160266,
                -0.9206474804381075,
                2.300423148720088,
                -1.049610043043744
            ]
        },
        {
            "positions": [
                0.277636361541608,
                -1.0791583996011012,
                -1.0723551456106828,
                -0.9634297216015733,
                2.366233556290404,
                -1.0783119099856955
            ]
        },
        {
            "positions": [
                0.43571639332016554,
                -1.0888971122470283,
                -1.155895730605339,
                -1.0062119627650392,
                2.432043963860721,
                -1.1070137769276471
            ]
        },
        {
            "positions": [
                0.5937964250987235,
                -1.098635824892955,
                -1.239436315599995,
                -1.048994203928505,
                2.497854371431038,
                -1.1357156438695988
            ]
        },
        {
            "positions": [
                0.7518764568772811,
                -1.1083745375388823,
                -1.3229769005946512,
                -1.0917764450919707,
                2.5636647790013547,
                -1.1644175108115502
            ]
        },
        {
            "positions": [
                0.9099564886558387,
                -1.1181132501848092,
                -1.4065174855893074,
                -1.1345586862554367,
                2.6294751865716712,
                -1.193119377753502
            ]
        },
        {
            "positions": [
                1.0680365204343962,
                -1.1278519628307362,
                -1.4900580705839634,
                -1.1773409274189024,
                2.695285594141988,
                -1.2218212446954535
            ]
        },
        {
            "positions": [
                1.2261165522129538,
                -1.1375906754766631,
                -1.5735986555786199,
                -1.2201231685823681,
                2.7610960017123047,
                -1.2505231116374051
            ]
        },
        {
            "positions": [
                1.3841965839915118,
                -1.14732938812259,
                -1.6571392405732759,
                -1.262905409745834,
                2.8269064092826213,
                -1.2792249785793568
            ]
        },
        {
            "positions": [
                1.5422766157700694,
                -1.157068100768517,
                -1.7406798255679319,
                -1.3056876509092998,
                2.8927168168529382,
                -1.3079268455213082
            ]
        },
        {
            "positions": [
                1.700356647548627,
                -1.166806813414444,
                -1.8242204105625883,
                -1.3484698920727656,
                2.958527224423255,
                -1.3366287124632599
            ]
        },
        {
            "positions": [
                1.8584366793271845,
                -1.176545526060371,
                -1.9077609955572443,
                -1.3912521332362315,
                3.0243376319935718,
                -1.3653305794052115
            ]
        },
        {
            "positions": [
                2.016516711105742,
                -1.186284238706298,
                -1.9913015805519003,
                -1.4340343743996973,
                3.0901480395638883,
                -1.394032446347163
            ]
        },
        {
            "positions": [
                2.1745967428842996,
                -1.196022951352225,
                -2.0748421655465568,
                -1.4768166155631632,
                3.1559584471342053,
                -1.4227343132891148
            ]
        },
        {
            "positions": [
                2.3326767746628567,
                -1.2057616639981519,
                -2.1583827505412128,
                -1.519598856726629,
                3.221768854704522,
                -1.4514361802310662
            ]
        },
        {
            "positions": [
                2.2513782657711765,
                -1.223134345552528,
                -2.164961357399119,
                -1.5410402945756185,
                3.1117010049736193,
                -1.3028286343853157
            ]
        },
        {
            "positions": [
                2.1700797568794963,
                -1.2405070271069043,
                -2.1715399642570254,
                -1.562481732424608,
                3.0016331552427165,
                -1.154221088539565
            ]
        },
        {
            "positions": [
                2.088781247987816,
                -1.2578797086612803,
                -2.178118571114932,
                -1.5839231702735979,
                2.891565305511814,
                -1.0056135426938144
            ]
        },
        {
            "positions": [
                2.007482739096136,
                -1.2752523902156565,
                -2.184697177972838,
                -1.6053646081225874,
                2.781497455780911,
                -0.8570059968480638
            ]
        },
        {
            "positions": [
                1.9261842302044554,
                -1.2926250717700327,
                -2.1912757848307445,
                -1.626806045971577,
                2.6714296060500087,
                -0.7083984510023131
            ]
        },
        {
            "positions": [
                1.844885721312775,
                -1.309997753324409,
                -2.1978543916886513,
                -1.6482474838205665,
                2.561361756319106,
                -0.5597909051565625
            ]
        },
        {
            "positions": [
                1.7635872124210947,
                -1.3273704348787851,
                -2.2044329985465576,
                -1.669688921669556,
                2.4512939065882033,
                -0.41118335931081185
            ]
        },
        {
            "positions": [
                1.6822887035294145,
                -1.3447431164331611,
                -2.211011605404464,
                -1.6911303595185458,
                2.341226056857301,
                -0.2625758134650613
            ]
        },
        {
            "positions": [
                1.6009901946377343,
                -1.3621157979875373,
                -2.2175902122623703,
                -1.7125717973675354,
                2.231158207126398,
                -0.11396826761931056
            ]
        },
        {
            "positions": [
                1.519691685746054,
                -1.3794884795419136,
                -2.2241688191202766,
                -1.734013235216525,
                2.1210903573954956,
                0.03463927822643997
            ]
        },
        {
            "positions": [
                1.4383931768543736,
                -1.3968611610962898,
                -2.230747425978183,
                -1.7554546730655147,
                2.0110225076645927,
                0.18324682407219073
            ]
        },
        {
            "positions": [
                1.3570946679626934,
                -1.414233842650666,
                -2.2373260328360893,
                -1.7768961109145043,
                1.9009546579336902,
                0.33185436991794126
            ]
        },
        {
            "positions": [
                1.275796159071013,
                -1.431606524205042,
                -2.2439046396939957,
                -1.7983375487634938,
                1.7908868082027876,
                0.480461915763692
            ]
        },
        {
            "positions": [
                1.194497650179333,
                -1.4489792057594182,
                -2.250483246551902,
                -1.8197789866124834,
                1.680818958471885,
                0.6290694616094425
            ]
        },
        {
            "positions": [
                1.1131991412876525,
                -1.4663518873137944,
                -2.2570618534098084,
                -1.841220424461473,
                1.5707511087409822,
                0.7776770074551935
            ]
        },
        {
            "positions": [
                1.0319006323959723,
                -1.4837245688681706,
                -2.263640460267715,
                -1.8626618623104627,
                1.4606832590100798,
                0.9262845533009436
            ]
        },
        {
            "positions": [
                0.9506021235042921,
                -1.5010972504225468,
                -2.2702190671256215,
                -1.8841033001594523,
                1.3506154092791771,
                1.0748920991466941
            ]
        },
        {
            "positions": [
                0.8693036146126116,
                -1.5184699319769228,
                -2.276797673983528,
                -1.9055447380084418,
                1.2405475595482742,
                1.2234996449924451
            ]
        },
        {
            "positions": [
                0.7880051057209314,
                -1.535842613531299,
                -2.283376280841434,
                -1.9269861758574314,
                1.1304797098173718,
                1.3721071908381957
            ]
        },
        {
            "positions": [
                0.7067065968292512,
                -1.5532152950856752,
                -2.2899548876993405,
                -1.948427613706421,
                1.0204118600864693,
                1.5207147366839462
            ]
        },
        {
            "positions": [
                0.625408087937571,
                -1.5705879766400515,
                -2.296533494557247,
                -1.9698690515554107,
                0.9103440103555669,
                1.6693222825296967
            ]
        },
        {
            "positions": [
                0.5441095790458905,
                -1.5879606581944277,
                -2.303112101415153,
                -1.9913104894044003,
                0.8002761606246636,
                1.8179298283754477
            ]
        },
        {
            "positions": [
                0.4628110701542103,
                -1.6053333397488037,
                -2.3096907082730596,
                -2.01275192725339,
                0.6902083108937611,
                1.9665373742211982
            ]
        },
        {
            "positions": [
                0.3815125612625301,
                -1.6227060213031799,
                -2.316269315130966,
                -2.0341933651023796,
                0.5801404611628587,
                2.1151449200669488
            ]
        },
        {
            "positions": [
                0.30021405237084986,
                -1.640078702857556,
                -2.3228479219888722,
                -2.055634802951369,
                0.4700726114319562,
                2.2637524659126993
            ]
        },
        {
            "positions": [
                0.2189155434791692,
                -1.6574513844119323,
                -2.3294265288467786,
                -2.0770762408003587,
                0.36000476170105333,
                2.4123600117584503
            ]
        },
        {
            "positions": [
                0.13761703458748897,
                -1.6748240659663085,
                -2.3360051357046854,
                -2.0985176786493485,
                0.2499369119701509,
                2.5609675576042013
            ]
        },
        {
            "positions": [
                0.056318525695809196,
                -1.6921967475206845,
                -2.3425837425625917,
                -2.119959116498338,
                0.139869062239248,
                2.7095751034499513
            ]
        },
        {
            "positions": [
                -0.024979983195871025,
                -1.709569429075061,
                -2.349162349420498,
                -2.1414005543473276,
                0.029801212508345554,
                2.8581826492957014
            ]
        },
        {
            "positions": [
                -0.10627849208755169,
                -1.726942110629437,
                -2.3557409562784044,
                -2.1628419921963173,
                -0.08026663722255734,
                3.0067901951414533
            ]
        },
        {
            "positions": [
                -0.18757700097923188,
                -1.7443147921838131,
                -2.3623195631363108,
                -2.1842834300453067,
                -0.19033448695345986,
                3.1553977409872034
            ]
        }
    ]
}