{
    "goal": {
        "global_pose": {
            "orientation": {
                "w": -0.4816463035849501,
                "x": 0.5182115481033762,
                "y": 0.4908360881923453,
                "z": -0.5084816262002911
            },
            "position": {
                "x": -0.8240239810943604,
                "y": 0.19912469901144506,
                "z": 0.16403168439865112
            }
        },
        "name": "move_to_storage_D"
    },
    "id": "LazyPRM_move_to_storage_D_97",
    "joint_names": [
        "shoulder_pan_joint",
        "shoulder_lift_joint",
        "elbow_joint",
        "wrist_1_joint",
        "wrist_2_joint",
        "wrist_3_joint"
    ],
    "metrics": {
        "cart_traj_len": 3.9516073869025807,
        "distance_elbow_joint": 4.212687041327607,
        "distance_shoulder_lift_joint": 1.3951149894051575,
        "distance_shoulder_pan_joint": 2.811759278725733,
        "distance_wrist_1_joint": 2.477120473278968,
        "distance_wrist_2_joint": 0.8896739433649331,
        "distance_wrist_3_joint": 3.13293569257774,
        "smoothness": 0.1719163518266496,
        "time": 0.172453603,
        "traj_len": 3.862549859701508,
        "weighted_distance": 4.954993160487663
    },
    "planner": "LazyPRM",
    "start": {
        "state": {
            "elbow_joint": -2.384821988534728,
            "shoulder_lift_joint": -2.2788054721415256,
            "shoulder_pan_joint": -0.1854694642142757,
            "wrist_1_joint": 1.4845938289331202,
            "wrist_2_joint": 0.17898776772866878,
            "wrist_3_joint": 0.037105688729662994
        }
    },
    "waypoints": [
        {
            "positions": [
                -0.1854694642142757,
                -2.2788054721415256,
                -2.384821988534728,
                1.4845938289331202,
                0.17898776772866878,
                0.037105688729662994
            ]
        },
        {
            "positions": [
                -0.16685443100485842,
                -2.276134024271274,
                -2.382383910802366,
                1.4794355856632944,
                0.1679702551129006,
                0.03377889336443378
            ]
        },
        {
            "positions": [
                -0.07792997591242665,
                -2.2333394981554866,
                -2.288551971737648,
                1.40289535044873,
                0.1837162818591197,
                -0.0444369536771141
            ]
        },
        {
            "positions": [
                0.010994479180005123,
                -2.1905449720396994,
                -2.194720032672931,
                1.3263551152341657,
                0.19946230860533884,
                -0.12265280071866198
            ]
        },
        {
            "positions": [
                0.09991893427243687,
                -2.147750445923912,
                -2.100888093608213,
                1.2498148800196014,
                0.21520833535155798,
                -0.20086864776020985
            ]
        },
        {
            "positions": [
                0.18884338936486866,
                -2.1049559198081247,
                -2.0070561545434957,
                1.1732746448050368,
                0.2309543620977771,
                -0.27908449480175773
            ]
        },
        {
            "positions": [
                0.2777678444573004,
                -2.062161393692337,
                -1.913224215478778,
                1.0967344095904725,
                0.2467003888439962,
                -0.3573003418433056
            ]
        },
        {
            "positions": [
                0.36669229954973215,
                -2.01936686757655,
                -1.8193922764140604,
                1.0201941743759082,
                0.2624464155902153,
                -0.4355161888848535
            ]
        },
        {
            "positions": [
                0.455616754642164,
                -1.9765723414607623,
                -1.7255603373493429,
                0.9436539391613438,
                0.2781924423364345,
                -0.5137320359264015
            ]
        },
        {
            "positions": [
                0.5445412097345957,
                -1.933777815344975,
                -1.6317283982846253,
                0.8671137039467794,
                0.2939384690826536,
                -0.5919478829679493
            ]
        },
        {
            "positions": [
                0.6334656648270276,
                -1.8909832892291876,
                -1.5378964592199078,
                0.790573468732215,
                0.3096844958288727,
                -0.6701637300094972
            ]
        },
        {
            "positions": [
                0.7223901199194592,
                -1.8481887631134,
                -1.44406452015519,
                0.7140332335176507,
                0.32543052257509186,
                -0.7483795770510451
            ]
        },
        {
            "positions": [
                0.8113145750118911,
                -1.8053942369976126,
                -1.3502325810904725,
                0.6374929983030863,
                0.341176549321311,
                -0.826595424092593
            ]
        },
        {
            "positions": [
                0.9002390301043227,
                -1.7625997108818252,
                -1.256400642025755,
                0.560952763088522,
                0.3569225760675301,
                -0.9048112711341408
            ]
        },
        {
            "positions": [
                0.9891634851967547,
                -1.7198051847660378,
                -1.1625687029610374,
                0.4844125278739576,
                0.37266860281374925,
                -0.9830271181756888
            ]
        },
        {
            "positions": [
                1.0780879402891865,
                -1.6770106586502505,
                -1.0687367638963199,
                0.4078722926593932,
                0.3884146295599683,
                -1.0612429652172366
            ]
        },
        {
            "positions": [
                1.1670123953816183,
                -1.6342161325344629,
                -0.9749048248316021,
                0.33133205744482885,
                0.40416065630618747,
                -1.1394588122587845
            ]
        },
        {
            "positions": [
                1.25593685047405,
                -1.5914216064186757,
                -0.8810728857668848,
                0.25479182223026453,
                0.4199066830524066,
                -1.2176746593003323
            ]
        },
        {
            "positions": [
                1.3448613055664818,
                -1.548627080302888,
                -0.7872409467021673,
                0.1782515870157002,
                0.4356527097986257,
                -1.2958905063418802
            ]
        },
        {
            "positions": [
                1.4337857606589135,
                -1.5058325541871007,
                -0.6934090076374495,
                0.10171135180113566,
                0.45139873654484486,
                -1.3741063533834281
            ]
        },
        {
            "positions": [
                1.5227102157513452,
                -1.4630380280713133,
                -0.599577068572732,
                0.02517111658657134,
                0.46714476329106397,
                -1.452322200424976
            ]
        },
        {
            "positions": [
                1.611634670843777,
                -1.420243501955526,
                -0.5057451295080144,
                -0.05136911862799298,
                0.4828907900372831,
                -1.5305380474665238
            ]
        },
        {
            "positions": [
                1.7005591259362087,
                -1.3774489758397386,
                -0.4119131904432969,
                -0.1279093538425573,
                0.4986368167835022,
                -1.6087538945080717
            ]
        },
        {
            "positions": [
                1.7894835810286405,
                -1.334654449723951,
                -0.3180812513785791,
                -0.20444958905712185,
                0.5143828435297213,
                -1.6869697415496197
            ]
        },
        {
            "positions": [
                1.8784080361210727,
                -1.2918599236081636,
                -0.2242493123138618,
                -0.2809898242716862,
                0.5301288702759405,
                -1.7651855885911676
            ]
        },
        {
            "positions": [
                1.967332491213504,
                -1.2490653974923762,
                -0.13041737324914404,
                -0.3575300594862503,
                0.5458748970221596,
                -1.8434014356327153
            ]
        },
        {
            "positions": [
                2.0562569463059357,
                -1.2062708713765888,
                -0.036585434184426724,
                -0.4340702947008146,
                0.5616209237683787,
                -1.9216172826742632
            ]
        },
        {
            "positions": [
                2.145181401398368,
                -1.1634763452608015,
                0.05724650488029104,
                -0.5106105299153791,
                0.5773669505145979,
                -1.9998331297158112
            ]
        },
        {
            "positions": [
                2.2341058564907996,
                -1.120681819145014,
                0.1510784439450088,
                -0.5871507651299437,
                0.593112977260817,
                -2.078048976757359
            ]
        },
        {
            "positions": [
                2.3230303115832314,
                -1.0778872930292267,
                0.24491038300972612,
                -0.663691000344508,
                0.6088590040070361,
                -2.156264823798907
            ]
        },
        {
            "positions": [
                2.411954766675663,
                -1.0350927669134393,
                0.33874232207444344,
                -0.7402312355590723,
                0.6246050307532551,
                -2.2344806708404548
            ]
        },
        {
            "positions": [
                2.500879221768095,
                -0.9922982407976517,
                0.43257426113916164,
                -0.8167714707736367,
                0.6403510574994744,
                -2.312696517882003
            ]
        },
        {
            "positions": [
                2.5898036768605266,
                -0.9495037146818645,
                0.5264062002038792,
                -0.8933117059882008,
                0.6560970842456935,
                -2.3909123649235506
            ]
        },
        {
            "positions": [
                2.595015982239231,
                -0.9589056049597925,
                0.7123288934308791,
                -0.8791381433656796,
                0.7118870273337466,
                -2.4916148847699113
            ]
        },
        {
            "positions": [
                2.6002282876179352,
                -0.9683074952377205,
                0.8982515866578791,
                -0.8649645807431585,
                0.7676769704217997,
                -2.5923174046162725
            ]
        },
        {
            "positions": [
                2.6054405929966395,
                -0.9777093855156486,
                1.0841742798848792,
                -0.8507910181206374,
                0.8234669135098529,
                -2.693019924462633
            ]
        },
        {
            "positions": [
                2.6106528983753443,
                -0.9871112757935765,
                1.2700969731118792,
                -0.8366174554981163,
                0.879256856597906,
                -2.7937224443089943
            ]
        },
        {
            "positions": [
                2.6158652037540486,
                -0.9965131660715045,
                1.4560196663388791,
                -0.8224438928755952,
                0.9350467996859592,
                -2.894424964155355
            ]
        },
        {
            "positions": [
                2.621077509132753,
                -1.0059150563494326,
                1.641942359565879,
                -0.808270330253074,
                0.9908367427740123,
                -2.995127484001716
            ]
        },
        {
            "positions": [
                2.6262898145114573,
                -1.0153169466273606,
                1.827865052792879,
                -0.7940967676305529,
                1.0466266858620654,
                -3.095830003848077
            ]
        }
    ]
}