{
    "goal": {
        "global_pose": {
            "orientation": {
                "w": -0.00223480608172531,
                "x": 0.0024358444001904467,
                "y": 0.7094548369677653,
                "z": -0.704743149386269
            },
            "position": {
                "x": -0.37947507619857795,
                "y": -0.6371506643295288,
                "z": 0.19426114857196808
            }
        },
        "name": "move_to_magneteinheit_C"
    },
    "id": "LazyPRMstar_move_to_magneteinheit_C_140",
    "joint_names": [
        "shoulder_pan_joint",
        "shoulder_lift_joint",
        "elbow_joint",
        "wrist_1_joint",
        "wrist_2_joint",
        "wrist_3_joint"
    ],
    "metrics": {
        "cart_traj_len": 0.5928340826856736,
        "distance_elbow_joint": 0.15625676102060915,
        "distance_shoulder_lift_joint": 0.3753593347628952,
        "distance_shoulder_pan_joint": 0.8016076068120153,
        "distance_wrist_1_joint": 2.180583863969549,
        "distance_wrist_2_joint": 0.7953495126152523,
        "distance_wrist_3_joint": 1.8232960949999795,
        "smoothness": 1.1507205520252686,
        "time": 5.022937188999999,
        "traj_len": 2.4763790449323992,
        "weighted_distance": 3.5714113093796773
    },
    "planner": "LazyPRMstar",
    "start": {
        "state": {
            "elbow_joint": 1.9565354010623817,
            "shoulder_lift_joint": -1.4165861575791021,
            "shoulder_pan_joint": -1.6717766225146293,
            "wrist_1_joint": -0.5286633292919765,
            "wrist_2_joint": 1.472756589071564,
            "wrist_3_joint": -3.1238370188695823
        }
    },
    "waypoints": [
        {
            "positions": [
                -1.6717766225146293,
                -1.4165861575791021,
                1.9565354010623817,
                -0.5286633292919765,
                1.472756589071564,
                -3.1238370188695823
            ]
        },
        {
            "positions": [
                -1.7046729873054354,
                -1.4369565742304986,
                1.9412055696138748,
                -0.40928088972348037,
                1.445935839703071,
                -2.9685303464155353
            ]
        },
        {
            "positions": [
                -1.7375693520962414,
                -1.457326990881895,
                1.925875738165368,
                -0.2898984501549843,
                1.4191150903345784,
                -2.8132236739614878
            ]
        },
        {
            "positions": [
                -1.7704657168870475,
                -1.4776974075332916,
                1.910545906716861,
                -0.1705160105864882,
                1.3922943409660855,
                -2.6579170015074407
            ]
        },
        {
            "positions": [
                -1.861185215032128,
                -1.4474739141074409,
                1.9094685351096803,
                -0.07314124342943949,
                1.3437287897063572,
                -2.586586648150673
            ]
        },
        {
            "positions": [
                -1.9519047131772083,
                -1.41725042068159,
                1.9083911635024995,
                0.024233523727609202,
                1.295163238446629,
                -2.5152562947939052
            ]
        },
        {
            "positions": [
                -2.0426242113222886,
                -1.3870269272557392,
                1.9073137918953187,
                0.12160829088465791,
                1.2465976871869007,
                -2.4439259414371373
            ]
        },
        {
            "positions": [
                -2.1333437094673693,
                -1.3568034338298884,
                1.906236420288138,
                0.2189830580417066,
                1.1980321359271724,
                -2.3725955880803697
            ]
        },
        {
            "positions": [
                -2.2240632076124496,
                -1.3265799404040375,
                1.905159048680957,
                0.3163578251987553,
                1.1494665846674441,
                -2.3012652347236022
            ]
        },
        {
            "positions": [
                -2.31478270575753,
                -1.2963564469781867,
                1.9040816770737763,
                0.41373259235580395,
                1.1009010334077158,
                -2.2299348813668343
            ]
        },
        {
            "positions": [
                -2.3464201444532318,
                -1.287335139197208,
                1.9127629092438139,
                0.3316050512422548,
                1.07055769057254,
                -2.2970366340888058
            ]
        },
        {
            "positions": [
                -2.3780575831489332,
                -1.2783138314162295,
                1.9214441414138512,
                0.24947751012870567,
                1.040214347737364,
                -2.364138386810777
            ]
        },
        {
            "positions": [
                -2.391675675460035,
                -1.2619046158888518,
                1.9337927946555553,
                0.09605853011518128,
                0.9883847375543565,
                -2.4777370228183897
            ]
        },
        {
            "positions": [
                -2.4052937677711363,
                -1.2454954003614742,
                1.9461414478972594,
                -0.0573604498983431,
                0.936555127371349,
                -2.591335658826002
            ]
        },
        {
            "positions": [
                -2.418911860082238,
                -1.2290861848340966,
                1.9584901011389635,
                -0.2107794299118675,
                0.8847255171883416,
                -2.704934294833615
            ]
        },
        {
            "positions": [
                -2.43252995239334,
                -1.2126769693067188,
                1.9708387543806678,
                -0.3641984099253919,
                0.8328959070053341,
                -2.8185329308412275
            ]
        },
        {
            "positions": [
                -2.4461480447044415,
                -1.1962677537793411,
                1.983187407622372,
                -0.5176173899389163,
                0.7810662968223265,
                -2.9321315668488404
            ]
        },
        {
            "positions": [
                -2.459766137015543,
                -1.1798585382519635,
                1.995536060864076,
                -0.6710363699524406,
                0.7292366866393192,
                -3.045730202856453
            ]
        },
        {
            "positions": [
                -2.4733842293266446,
                -1.163449322724586,
                2.00788471410578,
                -0.8244553499659649,
                0.6774070764563116,
                -3.1593288388640657
            ]
        }
    ]
}