{
    "goal": {
        "global_pose": {
            "orientation": {
                "w": 0.005598929693374612,
                "x": 0.007748599140229565,
                "y": 0.7110244013736278,
                "z": -0.7031023480610252
            },
            "position": {
                "x": -0.8858502320852131,
                "y": -0.7141253447532654,
                "z": 0.3711530566215515
            }
        },
        "name": "move_to_auspresseinheit_C"
    },
    "id": "LazyPRMstar_move_to_auspresseinheit_C_132",
    "joint_names": [
        "shoulder_pan_joint",
        "shoulder_lift_joint",
        "elbow_joint",
        "wrist_1_joint",
        "wrist_2_joint",
        "wrist_3_joint"
    ],
    "metrics": {
        "cart_traj_len": 0.49281772108978744,
        "distance_elbow_joint": 0.9910232879525944,
        "distance_shoulder_lift_joint": 0.3214077465465741,
        "distance_shoulder_pan_joint": 0.256621741093519,
        "distance_wrist_1_joint": 0.6544797688666384,
        "distance_wrist_2_joint": 1.3085993985305329,
        "distance_wrist_3_joint": 0.0445182052340205,
        "smoothness": 3.2297397335745243e-16,
        "time": 5.001541252,
        "traj_len": 1.8912033598277789,
        "weighted_distance": 2.3725019970674612
    },
    "planner": "LazyPRMstar",
    "start": {
        "state": {
            "elbow_joint": 1.7527959577737207,
            "shoulder_lift_joint": -0.9740617694225068,
            "shoulder_pan_joint": -2.967991417825858,
            "wrist_1_joint": -0.759517768980727,
            "wrist_2_joint": 1.7443932448377408,
            "wrist_3_joint": -3.0840537646736568
        }
    },
    "waypoints": [
        {
            "positions": [
                -2.967991417825858,
                -0.9740617694225068,
                1.7527959577737207,
                -0.759517768980727,
                1.7443932448377408,
                -3.0840537646736568
            ]
        },
        {
            "positions": [
                -2.942329243716506,
                -0.9419209947678494,
                1.6536936289784612,
                -0.6940697920940632,
                1.6135333049846876,
                -3.088505585197059
            ]
        },
        {
            "positions": [
                -2.916667069607154,
                -0.9097802201131919,
                1.5545913001832017,
                -0.6286218152073992,
                1.4826733651316342,
                -3.092957405720461
            ]
        },
        {
            "positions": [
                -2.8910048954978023,
                -0.8776394454585346,
                1.4554889713879424,
                -0.5631738383207354,
                1.351813425278581,
                -3.097409226243863
            ]
        },
        {
            "positions": [
                -2.8653427213884504,
                -0.8454986708038771,
                1.356386642592683,
                -0.4977258614340716,
                1.2209534854255275,
                -3.101861046767265
            ]
        },
        {
            "positions": [
                -2.8396805472790985,
                -0.8133578961492197,
                1.2572843137974234,
                -0.4322778845474078,
                1.0900935455724743,
                -3.106312867290667
            ]
        },
        {
            "positions": [
                -2.8140183731697466,
                -0.7812171214945623,
                1.1581819850021642,
                -0.36682990766074397,
                0.9592336057194212,
                -3.110764687814069
            ]
        },
        {
            "positions": [
                -2.7883561990603947,
                -0.7490763468399049,
                1.0590796562069045,
                -0.30138193077408015,
                0.8283736658663678,
                -3.115216508337471
            ]
        },
        {
            "positions": [
                -2.7626940249510428,
                -0.7169355721852475,
                0.9599773274116451,
                -0.23593395388741623,
                0.6975137260133144,
                -3.119668328860873
            ]
        },
        {
            "positions": [
                -2.737031850841691,
                -0.6847947975305901,
                0.8608749986163856,
                -0.1704859770007524,
                0.5666537861602612,
                -3.124120149384275
            ]
        },
        {
            "positions": [
                -2.711369676732339,
                -0.6526540228759327,
                0.7617726698211262,
                -0.10503800011408862,
                0.435793846307208,
                -3.1285719699076773
            ]
        }
    ]
}