{
    "goal": {
        "global_pose": {
            "orientation": {
                "w": -0.00223480608172531,
                "x": 0.0024358444001904467,
                "y": 0.7094548369677653,
                "z": -0.704743149386269
            },
            "position": {
                "x": -0.37947507619857795,
                "y": -0.6371506643295288,
                "z": 0.19426114857196808
            }
        },
        "name": "move_to_magneteinheit_C"
    },
    "id": "LazyPRM_move_to_magneteinheit_C_52",
    "joint_names": [
        "shoulder_pan_joint",
        "shoulder_lift_joint",
        "elbow_joint",
        "wrist_1_joint",
        "wrist_2_joint",
        "wrist_3_joint"
    ],
    "metrics": {
        "cart_traj_len": 0.851211060760516,
        "distance_elbow_joint": 0.9175431062213706,
        "distance_shoulder_lift_joint": 0.7242104181727067,
        "distance_shoulder_pan_joint": 0.8019216231400887,
        "distance_wrist_1_joint": 0.8329985529547571,
        "distance_wrist_2_joint": 0.8106374246655633,
        "distance_wrist_3_joint": 0.33404786159810884,
        "smoothness": 1.5237972544032792,
        "time": 0.148055839,
        "traj_len": 2.102702781363214,
        "weighted_distance": 2.5948199720923095
    },
    "planner": "LazyPRM",
    "start": {
        "state": {
            "elbow_joint": 1.9565354010623817,
            "shoulder_lift_joint": -1.4165861575791021,
            "shoulder_pan_joint": -1.6717766225146293,
            "wrist_1_joint": -0.5286633292919765,
            "wrist_2_joint": 1.472756589071564,
            "wrist_3_joint": -3.1238370188695823
        }
    },
    "waypoints": [
        {
            "positions": [
                -1.6717766225146293,
                -1.4165861575791021,
                1.9565354010623817,
                -0.5286633292919765,
                1.472756589071564,
                -3.1238370188695823
            ]
        },
        {
            "positions": [
                -1.7265673340353758,
                -1.4753560639385024,
                2.0776184404040614,
                -0.46079220228409196,
                1.4747676910832048,
                -3.170058381688297
            ]
        },
        {
            "positions": [
                -1.781358045556122,
                -1.5341259702979029,
                2.1987014797457407,
                -0.39292107527620745,
                1.476778793094846,
                -3.2162797445070113
            ]
        },
        {
            "positions": [
                -1.8361487570768684,
                -1.5928958766573031,
                2.3197845190874204,
                -0.32504994826832295,
                1.478789895106487,
                -3.2625011073257255
            ]
        },
        {
            "positions": [
                -1.8909394685976149,
                -1.6516657830167034,
                2.4408675584291,
                -0.25717882126043845,
                1.480800997118128,
                -3.30872247014444
            ]
        },
        {
            "positions": [
                -2.002210152017416,
                -1.5849482393926744,
                2.3428231247831413,
                -0.2715667910174663,
                1.4367185214375158,
                -3.2839829524960806
            ]
        },
        {
            "positions": [
                -2.113480835437217,
                -1.5182306957686456,
                2.244778691137182,
                -0.28595476077449405,
                1.3926360457569036,
                -3.259243434847721
            ]
        },
        {
            "positions": [
                -2.224751518857018,
                -1.4515131521446167,
                2.1467342574912225,
                -0.30034273053152183,
                1.3485535700762914,
                -3.234503917199361
            ]
        },
        {
            "positions": [
                -2.336022202276819,
                -1.3847956085205877,
                2.0486898238452635,
                -0.31473070028854966,
                1.3044710943956792,
                -3.2097643995510015
            ]
        },
        {
            "positions": [
                -2.370441213121294,
                -1.3292304539608404,
                2.03843152027756,
                -0.44072124176232663,
                1.1479053159215415,
                -3.1972133146185486
            ]
        },
        {
            "positions": [
                -2.404860223965769,
                -1.2736652994010929,
                2.028173216709856,
                -0.5667117832361036,
                0.9913395374474039,
                -3.1846622296860954
            ]
        },
        {
            "positions": [
                -2.4392792348102432,
                -1.2181001448413453,
                2.017914913142152,
                -0.6927023247098806,
                0.8347737589732663,
                -3.172111144753642
            ]
        },
        {
            "positions": [
                -2.473698245654718,
                -1.162534990281598,
                2.007656609574448,
                -0.8186928661836576,
                0.6782079804991287,
                -3.1595600598211893
            ]
        }
    ]
}