{
    "goal": {
        "global_pose": {
            "orientation": {
                "w": -0.4816463035849501,
                "x": 0.5182115481033762,
                "y": 0.4908360881923453,
                "z": -0.5084816262002911
            },
            "position": {
                "x": -0.8240239810943604,
                "y": 0.19912469901144506,
                "z": 0.16403168439865112
            }
        },
        "name": "move_to_storage_D"
    },
    "id": "LazyPRM_move_to_storage_D_36",
    "joint_names": [
        "shoulder_pan_joint",
        "shoulder_lift_joint",
        "elbow_joint",
        "wrist_1_joint",
        "wrist_2_joint",
        "wrist_3_joint"
    ],
    "metrics": {
        "cart_traj_len": 1.1925805484670544,
        "distance_elbow_joint": 0.9485798802743002,
        "distance_shoulder_lift_joint": 0.6285498166332655,
        "distance_shoulder_pan_joint": 0.40742232714899407,
        "distance_wrist_1_joint": 3.910493315403538,
        "distance_wrist_2_joint": 1.7744032109023142,
        "distance_wrist_3_joint": 3.151032993926157,
        "smoothness": 0.2091272349634446,
        "time": 1.578938623,
        "traj_len": 3.289450036752127,
        "weighted_distance": 4.775713984154278
    },
    "planner": "LazyPRM",
    "start": {
        "state": {
            "elbow_joint": -2.384821988534728,
            "shoulder_lift_joint": -2.2788054721415256,
            "shoulder_pan_joint": -0.1854694642142757,
            "wrist_1_joint": 1.4845938289331202,
            "wrist_2_joint": 0.17898776772866878,
            "wrist_3_joint": 0.037105688729662994
        }
    },
    "waypoints": [
        {
            "positions": [
                -0.1854694642142757,
                -2.2788054721415256,
                -2.384821988534728,
                1.4845938289331202,
                0.17898776772866878,
                0.037105688729662994
            ]
        },
        {
            "positions": [
                -0.12492739707255324,
                -2.167477451691977,
                -2.364358566744081,
                1.5052750358834297,
                0.16538853022410943,
                0.06673751846553867
            ]
        },
        {
            "positions": [
                -0.06438532993083075,
                -2.056149431242429,
                -2.343895144953434,
                1.525956242833739,
                0.1517892927195501,
                0.09636934820141435
            ]
        },
        {
            "positions": [
                -0.056824103149553024,
                -2.048175231541978,
                -2.310011728085433,
                1.3832200430199388,
                0.0908978335336459,
                0.22121305402718894
            ]
        },
        {
            "positions": [
                -0.0492628763682753,
                -2.0402010318415273,
                -2.2761283112174326,
                1.2404838432061387,
                0.0300063743477417,
                0.34605675985296347
            ]
        },
        {
            "positions": [
                -0.041701649586997576,
                -2.0322268321410766,
                -2.2422448943494317,
                1.0977476433923385,
                -0.03088508483816249,
                0.47090046567873806
            ]
        },
        {
            "positions": [
                -0.034140422805719856,
                -2.024252632440626,
                -2.208361477481431,
                0.9550114435785384,
                -0.09177654402406671,
                0.5957441715045126
            ]
        },
        {
            "positions": [
                -0.026579196024442128,
                -2.016278432740175,
                -2.17447806061343,
                0.8122752437647383,
                -0.15266800320997093,
                0.7205878773302872
            ]
        },
        {
            "positions": [
                -0.0190179692431644,
                -2.0083042330397243,
                -2.1405946437454295,
                0.6695390439509381,
                -0.2135594623958751,
                0.8454315831560617
            ]
        },
        {
            "positions": [
                -0.011456742461886674,
                -2.0003300333392735,
                -2.1067112268774286,
                0.526802844137138,
                -0.2744509215817793,
                0.9702752889818362
            ]
        },
        {
            "positions": [
                -0.0038955156806089533,
                -1.992355833638823,
                -2.0728278100094277,
                0.3840666443233378,
                -0.3353423807676835,
                1.095118994807611
            ]
        },
        {
            "positions": [
                0.003665711100668767,
                -1.9843816339383722,
                -2.038944393141427,
                0.24133044450953767,
                -0.39623383995358774,
                1.2199627006333853
            ]
        },
        {
            "positions": [
                0.011226937881946494,
                -1.9764074342379214,
                -2.0050609762734264,
                0.09859424469573752,
                -0.45712529913949196,
                1.34480640645916
            ]
        },
        {
            "positions": [
                0.018788164663224236,
                -1.9684332345374709,
                -1.9711775594054255,
                -0.04414195511806285,
                -0.5180167583253962,
                1.4696501122849346
            ]
        },
        {
            "positions": [
                0.02634939144450195,
                -1.96045903483702,
                -1.9372941425374246,
                -0.18687815493186277,
                -0.5789082175113003,
                1.5944938181107091
            ]
        },
        {
            "positions": [
                0.033910618225779676,
                -1.9524848351365693,
                -1.903410725669424,
                -0.32961435474566314,
                -0.6397996766972046,
                1.7193375239364839
            ]
        },
        {
            "positions": [
                0.041471845007057404,
                -1.9445106354361186,
                -1.8695273088014233,
                -0.47235055455946307,
                -0.7006911358831087,
                1.8441812297622582
            ]
        },
        {
            "positions": [
                0.04903307178833513,
                -1.9365364357356678,
                -1.8356438919334224,
                -0.6150867543732634,
                -0.761582595069013,
                1.969024935588033
            ]
        },
        {
            "positions": [
                0.056594298569612844,
                -1.928562236035217,
                -1.8017604750654215,
                -0.7578229541870634,
                -0.8224740542549172,
                2.0938686414138075
            ]
        },
        {
            "positions": [
                0.06415552535089057,
                -1.9205880363347663,
                -1.7678770581974208,
                -0.9005591540008637,
                -0.8833655134408214,
                2.2187123472395824
            ]
        },
        {
            "positions": [
                0.07171675213216828,
                -1.9126138366343157,
                -1.7339936413294201,
                -1.0432953538146637,
                -0.9442569726267256,
                2.3435560530653565
            ]
        },
        {
            "positions": [
                0.07927797891344603,
                -1.904639636933865,
                -1.7001102244614192,
                -1.186031553628464,
                -1.0051484318126298,
                2.4683997588911315
            ]
        },
        {
            "positions": [
                0.08683920569472374,
                -1.8966654372334142,
                -1.6662268075934183,
                -1.328767753442264,
                -1.066039890998534,
                2.593243464716906
            ]
        },
        {
            "positions": [
                0.09440043247600148,
                -1.8886912375329634,
                -1.6323433907254177,
                -1.4715039532560645,
                -1.1269313501844382,
                2.7180871705426806
            ]
        },
        {
            "positions": [
                0.07314169406621535,
                -1.9284305012037473,
                -1.6650269378029159,
                -1.6167824041582504,
                -1.205012032349306,
                2.7964290892282038
            ]
        },
        {
            "positions": [
                0.051882955656429204,
                -1.968169764874531,
                -1.6977104848804143,
                -1.7620608550604362,
                -1.283092714514174,
                2.874771007913727
            ]
        },
        {
            "positions": [
                0.030624217246643062,
                -2.007909028545315,
                -1.7303940319579127,
                -1.9073393059626222,
                -1.3611733966790418,
                2.9531129265992506
            ]
        },
        {
            "positions": [
                0.009365478836856928,
                -2.047648292216099,
                -1.763077579035411,
                -2.052617756864808,
                -1.4392540788439097,
                3.031454845284774
            ]
        },
        {
            "positions": [
                -0.011893259572929221,
                -2.087387555886883,
                -1.7957611261129092,
                -2.197896207766994,
                -1.5173347610087775,
                3.109796763970297
            ]
        },
        {
            "positions": [
                -0.03315199798271534,
                -2.1271268195576667,
                -1.8284446731904076,
                -2.34317465866918,
                -1.5954154431736454,
                3.1881386826558202
            ]
        }
    ]
}