{
    "goal": {
        "global_pose": {
            "orientation": {
                "w": -0.4816463035849501,
                "x": 0.5182115481033762,
                "y": 0.4908360881923453,
                "z": -0.5084816262002911
            },
            "position": {
                "x": -0.8240239810943604,
                "y": 0.19912469901144506,
                "z": 0.16403168439865112
            }
        },
        "name": "move_to_storage_D"
    },
    "id": "LazyPRMstar_move_to_storage_D_8",
    "joint_names": [
        "shoulder_pan_joint",
        "shoulder_lift_joint",
        "elbow_joint",
        "wrist_1_joint",
        "wrist_2_joint",
        "wrist_3_joint"
    ],
    "metrics": {
        "cart_traj_len": 4.161353868083051,
        "distance_elbow_joint": 4.214541062265184,
        "distance_shoulder_lift_joint": 1.2636168766608558,
        "distance_shoulder_pan_joint": 2.8123935742151454,
        "distance_wrist_1_joint": 2.283327499302312,
        "distance_wrist_2_joint": 0.8788805296704351,
        "distance_wrist_3_joint": 3.131194203300908,
        "smoothness": 2.960594749844182e-16,
        "time": 5.025269854,
        "traj_len": 3.818894309275243,
        "weighted_distance": 4.899852057051253
    },
    "planner": "LazyPRMstar",
    "start": {
        "state": {
            "elbow_joint": -2.384821988534728,
            "shoulder_lift_joint": -2.2788054721415256,
            "shoulder_pan_joint": -0.1854694642142757,
            "wrist_1_joint": 1.4845938289331202,
            "wrist_2_joint": 0.17898776772866878,
            "wrist_3_joint": 0.037105688729662994
        }
    },
    "waypoints": [
        {
            "positions": [
                -0.1854694642142757,
                -2.2788054721415256,
                -2.384821988534728,
                1.4845938289331202,
                0.17898776772866878,
                0.037105688729662994
            ]
        },
        {
            "positions": [
                -0.06084494556062538,
                -2.2263232993685236,
                -2.326234780941259,
                1.418740697043731,
                0.21533207446537833,
                -0.010715682763524886
            ]
        },
        {
            "positions": [
                0.06377957309302495,
                -2.173841126595521,
                -2.26764757334779,
                1.352887565154342,
                0.25167638120208785,
                -0.05853705425671277
            ]
        },
        {
            "positions": [
                0.1884040917466753,
                -2.121358953822519,
                -2.209060365754321,
                1.2870344332649528,
                0.28802068793879737,
                -0.10635842574990065
            ]
        },
        {
            "positions": [
                0.3130286104003256,
                -2.0688767810495166,
                -2.1504731581608523,
                1.2211813013755637,
                0.32436499467550695,
                -0.15417979724308853
            ]
        },
        {
            "positions": [
                0.437653129053976,
                -2.0163946082765145,
                -2.0918859505673835,
                1.1553281694861748,
                0.36070930141221647,
                -0.2020011687362764
            ]
        },
        {
            "positions": [
                0.5622776477076263,
                -1.9639124355035122,
                -2.033298742973914,
                1.0894750375967857,
                0.397053608148926,
                -0.2498225402294643
            ]
        },
        {
            "positions": [
                0.6869021663612767,
                -1.91143026273051,
                -1.9747115353804454,
                1.0236219057073965,
                0.4333979148856355,
                -0.29764391172265214
            ]
        },
        {
            "positions": [
                0.811526685014927,
                -1.8589480899575077,
                -1.9161243277869764,
                0.9577687738180074,
                0.469742221622345,
                -0.34546528321584
            ]
        },
        {
            "positions": [
                0.9361512036685774,
                -1.8064659171845054,
                -1.8575371201935074,
                0.8919156419286183,
                0.5060865283590545,
                -0.3932866547090279
            ]
        },
        {
            "positions": [
                1.0607757223222276,
                -1.7539837444115032,
                -1.7989499126000386,
                0.8260625100392291,
                0.5424308350957641,
                -0.4411080262022158
            ]
        },
        {
            "positions": [
                1.185400240975878,
                -1.701501571638501,
                -1.7403627050065695,
                0.7602093781498401,
                0.5787751418324737,
                -0.48892939769540367
            ]
        },
        {
            "positions": [
                1.3100247596295282,
                -1.6490193988654989,
                -1.6817754974131005,
                0.694356246260451,
                0.6151194485691832,
                -0.5367507691885915
            ]
        },
        {
            "positions": [
                1.4346492782831786,
                -1.5965372260924964,
                -1.6231882898196317,
                0.6285031143710619,
                0.6514637553058927,
                -0.5845721406817794
            ]
        },
        {
            "positions": [
                1.5592737969368289,
                -1.5440550533194943,
                -1.5646010822261627,
                0.5626499824816729,
                0.6878080620426023,
                -0.6323935121749673
            ]
        },
        {
            "positions": [
                1.6838983155904792,
                -1.491572880546492,
                -1.5060138746326936,
                0.49679685059228373,
                0.7241523687793118,
                -0.6802148836681552
            ]
        },
        {
            "positions": [
                1.8085228342441295,
                -1.4390907077734898,
                -1.4474266670392248,
                0.4309437187028947,
                0.7604966755160213,
                -0.7280362551613431
            ]
        },
        {
            "positions": [
                1.8457228922330722,
                -1.419822429941998,
                -1.2984654970042393,
                0.3750492919268908,
                0.7740135674197978,
                -0.8355840851345204
            ]
        },
        {
            "positions": [
                1.8829229502220148,
                -1.4005541521105063,
                -1.149504326969254,
                0.31915486515088687,
                0.7875304593235742,
                -0.9431319151076978
            ]
        },
        {
            "positions": [
                1.9201230082109575,
                -1.3812858742790144,
                -1.0005431569342684,
                0.263260438374883,
                0.8010473512273507,
                -1.0506797450808751
            ]
        },
        {
            "positions": [
                1.9573230661999004,
                -1.3620175964475225,
                -0.851581986899283,
                0.20736601159887905,
                0.8145642431311272,
                -1.1582275750540525
            ]
        },
        {
            "positions": [
                1.994523124188843,
                -1.3427493186160306,
                -0.7026208168642976,
                0.15147158482287515,
                0.8280811350349037,
                -1.2657754050272298
            ]
        },
        {
            "positions": [
                2.0317231821777857,
                -1.323481040784539,
                -0.5536596468293121,
                0.09557715804687122,
                0.8415980269386801,
                -1.3733232350004072
            ]
        },
        {
            "positions": [
                2.068923240166728,
                -1.3042127629530471,
                -0.4046984767943267,
                0.0396827312708673,
                0.8551149188424566,
                -1.4808710649735846
            ]
        },
        {
            "positions": [
                2.106123298155671,
                -1.2849444851215552,
                -0.25573730675934114,
                -0.016211695505136625,
                0.8686318107462331,
                -1.588418894946762
            ]
        },
        {
            "positions": [
                2.143323356144614,
                -1.2656762072900634,
                -0.1067761367243556,
                -0.07210612228114055,
                0.8821487026500097,
                -1.6959667249199395
            ]
        },
        {
            "positions": [
                2.1805234141335563,
                -1.2464079294585717,
                0.04218503331062973,
                -0.12800054905714442,
                0.8956655945537861,
                -1.8035145548931166
            ]
        },
        {
            "positions": [
                2.217723472122499,
                -1.2271396516270798,
                0.19114620334561527,
                -0.1838949758331484,
                0.9091824864575626,
                -1.911062384866294
            ]
        },
        {
            "positions": [
                2.2549235301114416,
                -1.207871373795588,
                0.3401073733806006,
                -0.23978940260915227,
                0.9226993783613391,
                -2.0186102148394713
            ]
        },
        {
            "positions": [
                2.2921235881003845,
                -1.1886030959640963,
                0.48906854341558637,
                -0.29568382938515625,
                0.9362162702651156,
                -2.126158044812649
            ]
        },
        {
            "positions": [
                2.3293236460893274,
                -1.1693348181326044,
                0.6380297134505715,
                -0.3515782561611601,
                0.949733162168892,
                -2.233705874785826
            ]
        },
        {
            "positions": [
                2.36652370407827,
                -1.1500665403011125,
                0.786990883485557,
                -0.407472682937164,
                0.9632500540726685,
                -2.341253704759003
            ]
        },
        {
            "positions": [
                2.4037237620672127,
                -1.1307982624696207,
                0.9359520535205426,
                -0.46336710971316797,
                0.976766945976445,
                -2.4488015347321808
            ]
        },
        {
            "positions": [
                2.440923820056155,
                -1.111529984638129,
                1.084913223555528,
                -0.519261536489172,
                0.9902838378802215,
                -2.5563493647053583
            ]
        },
        {
            "positions": [
                2.478123878045098,
                -1.0922617068066371,
                1.2338743935905137,
                -0.5751559632651758,
                1.003800729783998,
                -2.663897194678536
            ]
        },
        {
            "positions": [
                2.5153239360340405,
                -1.0729934289751453,
                1.3828355636254992,
                -0.6310503900411798,
                1.0173176216877744,
                -2.771445024651713
            ]
        },
        {
            "positions": [
                2.5525239940229834,
                -1.0537251511436536,
                1.5317967336604843,
                -0.6869448168171836,
                1.0308345135915509,
                -2.87899285462489
            ]
        },
        {
            "positions": [
                2.589724052011926,
                -1.0344568733121617,
                1.6807579036954698,
                -0.7428392435931875,
                1.0443514054953273,
                -2.9865406845980678
            ]
        },
        {
            "positions": [
                2.6269241100008687,
                -1.0151885954806699,
                1.8297190737304552,
                -0.7987336703691914,
                1.0578682973991038,
                -3.094088514571245
            ]
        }
    ]
}