{
    "goal": {
        "global_pose": {
            "orientation": {
                "w": 0.7047431493862688,
                "x": -0.7094548369677653,
                "y": 0.0024358444001904,
                "z": -0.0022348060817251984
            },
            "position": {
                "x": -0.39052492380142206,
                "y": 0.3671506643295288,
                "z": 0.19426114857196808
            }
        },
        "name": "move_to_magneteinheit_D"
    },
    "id": "LazyPRMstar_move_to_magneteinheit_D_107",
    "joint_names": [
        "shoulder_pan_joint",
        "shoulder_lift_joint",
        "elbow_joint",
        "wrist_1_joint",
        "wrist_2_joint",
        "wrist_3_joint"
    ],
    "metrics": {
        "cart_traj_len": 4.132859931136985,
        "distance_elbow_joint": 3.2041819370800124,
        "distance_shoulder_lift_joint": 1.6332942338698986,
        "distance_shoulder_pan_joint": 2.967264749328506,
        "distance_wrist_1_joint": 1.5631698291614955,
        "distance_wrist_2_joint": 0.5117315520494699,
        "distance_wrist_3_joint": 3.173801440335004,
        "smoothness": 0.13660435554404138,
        "time": 5.047052772,
        "traj_len": 3.6129549875170586,
        "weighted_distance": 4.634214928518677
    },
    "planner": "LazyPRMstar",
    "start": {
        "state": {
            "elbow_joint": 0.749534889911806,
            "shoulder_lift_joint": -0.6476975780787326,
            "shoulder_pan_joint": -2.711696901376241,
            "wrist_1_joint": -0.07506478083263063,
            "wrist_2_joint": 0.43296659715538205,
            "wrist_3_joint": -3.14703540197715
        }
    },
    "waypoints": [
        {
            "positions": [
                -2.711696901376241,
                -0.6476975780787326,
                0.749534889911806,
                -0.07506478083263063,
                0.43296659715538205,
                -3.14703540197715
            ]
        },
        {
            "positions": [
                -2.719349251308209,
                -0.7030711403549139,
                0.6930972292054053,
                -0.01739643358164792,
                0.44302082561502565,
                -3.097992483628727
            ]
        },
        {
            "positions": [
                -2.7270016012401768,
                -0.7584447026310951,
                0.6366595684990046,
                0.04027191366933479,
                0.4530750540746692,
                -3.0489495652803043
            ]
        },
        {
            "positions": [
                -2.620962634008581,
                -0.8033582122203806,
                0.5348536211788288,
                0.09242184158350553,
                0.45745030766098793,
                -2.966194741136365
            ]
        },
        {
            "positions": [
                -2.514923666776986,
                -0.8482717218096663,
                0.43304767385865295,
                0.14457176949767628,
                0.4618255612473066,
                -2.883439916992425
            ]
        },
        {
            "positions": [
                -2.4088846995453905,
                -0.8931852313989519,
                0.33124172653847717,
                0.19672169741184703,
                0.46620081483362535,
                -2.800685092848486
            ]
        },
        {
            "positions": [
                -2.3028457323137954,
                -0.9380987409882374,
                0.22943577921830133,
                0.24887162532601775,
                0.4705760684199441,
                -2.7179302687045466
            ]
        },
        {
            "positions": [
                -2.1968067650822,
                -0.9830122505775231,
                0.1276298318981255,
                0.30102155324018853,
                0.4749513220062628,
                -2.635175444560607
            ]
        },
        {
            "positions": [
                -2.0907677978506047,
                -1.0279257601668086,
                0.025823884577949707,
                0.35317148115435926,
                0.4793265755925815,
                -2.5524206204166675
            ]
        },
        {
            "positions": [
                -1.9847288306190092,
                -1.0728392697560942,
                -0.07598206274222619,
                0.40532140906853004,
                0.48370182917890026,
                -2.4696657962727278
            ]
        },
        {
            "positions": [
                -1.8786898633874136,
                -1.1177527793453796,
                -0.17778801006240197,
                0.45747133698270076,
                0.488077082765219,
                -2.3869109721287884
            ]
        },
        {
            "positions": [
                -1.7726508961558185,
                -1.1626662889346653,
                -0.27959395738257775,
                0.5096212648968714,
                0.4924523363515377,
                -2.304156147984849
            ]
        },
        {
            "positions": [
                -1.666611928924223,
                -1.207579798523951,
                -0.38139990470275364,
                0.5617711928110423,
                0.4968275899378564,
                -2.2214013238409094
            ]
        },
        {
            "positions": [
                -1.5605729616926276,
                -1.2524933081132366,
                -0.4832058520229294,
                0.613921120725213,
                0.5012028435241751,
                -2.13864649969697
            ]
        },
        {
            "positions": [
                -1.4545339944610323,
                -1.2974068177025222,
                -0.5850117993431052,
                0.6660710486393837,
                0.5055780971104938,
                -2.0558916755530308
            ]
        },
        {
            "positions": [
                -1.3484950272294367,
                -1.3423203272918078,
                -0.686817746663281,
                0.7182209765535545,
                0.5099533506968126,
                -1.973136851409091
            ]
        },
        {
            "positions": [
                -1.2424560599978414,
                -1.3872338368810935,
                -0.788623693983457,
                0.7703709044677253,
                0.5143286042831313,
                -1.8903820272651515
            ]
        },
        {
            "positions": [
                -1.136417092766246,
                -1.432147346470379,
                -0.8904296413036326,
                0.822520832381896,
                0.5187038578694501,
                -1.8076272031212122
            ]
        },
        {
            "positions": [
                -1.0303781255346507,
                -1.4770608560596643,
                -0.9922355886238086,
                0.8746707602960667,
                0.5230791114557687,
                -1.7248723789772726
            ]
        },
        {
            "positions": [
                -0.9243391583030551,
                -1.52197436564895,
                -1.0940415359439843,
                0.9268206882102376,
                0.5274543650420874,
                -1.642117554833333
            ]
        },
        {
            "positions": [
                -0.81830019107146,
                -1.5668878752382356,
                -1.1958474832641601,
                0.9789706161244082,
                0.5318296186284062,
                -1.5593627306893938
            ]
        },
        {
            "positions": [
                -0.7122612238398647,
                -1.6118013848275212,
                -1.297653430584336,
                1.031120544038579,
                0.5362048722147249,
                -1.4766079065454543
            ]
        },
        {
            "positions": [
                -0.6062222566082691,
                -1.6567148944168069,
                -1.399459377904512,
                1.0832704719527497,
                0.5405801258010436,
                -1.3938530824015147
            ]
        },
        {
            "positions": [
                -0.500183289376674,
                -1.7016284040060925,
                -1.5012653252246877,
                1.1354203998669203,
                0.5449553793873624,
                -1.3110982582575754
            ]
        },
        {
            "positions": [
                -0.39414432214507844,
                -1.746541913595378,
                -1.6030712725448635,
                1.1875703277810912,
                0.5493306329736811,
                -1.228343434113636
            ]
        },
        {
            "positions": [
                -0.2881053549134829,
                -1.7914554231846638,
                -1.7048772198650393,
                1.239720255695262,
                0.5537058865599997,
                -1.1455886099696964
            ]
        },
        {
            "positions": [
                -0.18206638768188776,
                -1.836368932773949,
                -1.806683167185215,
                1.2918701836094326,
                0.5580811401463185,
                -1.062833785825757
            ]
        },
        {
            "positions": [
                -0.07602742045029229,
                -1.8812824423632346,
                -1.9084891145053908,
                1.3440201115236035,
                0.5624563937326372,
                -0.9800789616818175
            ]
        },
        {
            "positions": [
                -0.04415766934899691,
                -1.932869048499256,
                -1.9847754982280257,
                1.3606800373468464,
                0.5239985525873939,
                -0.8710351903806923
            ]
        },
        {
            "positions": [
                -0.012287918247701535,
                -1.9844556546352772,
                -2.0610618819506605,
                1.3773399631700893,
                0.4855407114421506,
                -0.7619914190795671
            ]
        },
        {
            "positions": [
                0.019581832853593852,
                -2.0360422607712985,
                -2.1373482656732956,
                1.3939998889933323,
                0.4470828702969073,
                -0.6529476477784419
            ]
        },
        {
            "positions": [
                0.0023270105267355137,
                -2.09536703616304,
                -2.207912048533271,
                1.4118353224235785,
                0.3956579065682209,
                -0.5234755780594166
            ]
        },
        {
            "positions": [
                -0.014927811800122825,
                -2.154691811554782,
                -2.278475831393247,
                1.4296707558538246,
                0.34423294283953454,
                -0.3940035083403913
            ]
        },
        {
            "positions": [
                -0.03218263412698116,
                -2.2140165869465243,
                -2.3490396142532224,
                1.4475061892840706,
                0.29280797911084816,
                -0.26453143862136597
            ]
        },
        {
            "positions": [
                -0.0494374564538395,
                -2.273341362338266,
                -2.419603397113198,
                1.4653416227143168,
                0.24138301538216178,
                -0.13505936890234058
            ]
        },
        {
            "positions": [
                -0.11761611948552263,
                -2.2771665871434488,
                -2.4020815720856934,
                1.4767233355215907,
                0.21079882682129214,
                -0.05414666527224325
            ]
        },
        {
            "positions": [
                -0.18579478251720577,
                -2.280991811948631,
                -2.3845597470581885,
                1.488105048328865,
                0.18021463826042253,
                0.026766038357854065
            ]
        }
    ]
}