{
    "goal": {
        "global_pose": {
            "orientation": {
                "w": 0.005598929693374612,
                "x": 0.007748599140229565,
                "y": 0.7110244013736278,
                "z": -0.7031023480610252
            },
            "position": {
                "x": -0.8858502320852131,
                "y": -0.7141253447532654,
                "z": 0.3711530566215515
            }
        },
        "name": "move_to_auspresseinheit_C"
    },
    "id": "LazyPRMstar_move_to_auspresseinheit_C_47",
    "joint_names": [
        "shoulder_pan_joint",
        "shoulder_lift_joint",
        "elbow_joint",
        "wrist_1_joint",
        "wrist_2_joint",
        "wrist_3_joint"
    ],
    "metrics": {
        "cart_traj_len": 0.49420206456942883,
        "distance_elbow_joint": 1.0092620247912494,
        "distance_shoulder_lift_joint": 0.32880743510256505,
        "distance_shoulder_pan_joint": 0.25603974827945475,
        "distance_wrist_1_joint": 0.6898624616617137,
        "distance_wrist_2_joint": 1.3145466061700166,
        "distance_wrist_3_joint": 0.06858547551628291,
        "smoothness": 4.844609574787718e-16,
        "time": 5.000313481,
        "traj_len": 1.9149683421720793,
        "weighted_distance": 2.4101211111447447
    },
    "planner": "LazyPRMstar",
    "start": {
        "state": {
            "elbow_joint": 1.7527959577737207,
            "shoulder_lift_joint": -0.9740617694225068,
            "shoulder_pan_joint": -2.967991417825858,
            "wrist_1_joint": -0.759517768980727,
            "wrist_2_joint": 1.7443932448377408,
            "wrist_3_joint": -3.0840537646736568
        }
    },
    "waypoints": [
        {
            "positions": [
                -2.967991417825858,
                -0.9740617694225068,
                1.7527959577737207,
                -0.759517768980727,
                1.7443932448377408,
                -3.0840537646736568
            ]
        },
        {
            "positions": [
                -2.9423874429979127,
                -0.9411810259122503,
                1.6518697552945958,
                -0.6905315228145557,
                1.612938584220739,
                -3.090912312225285
            ]
        },
        {
            "positions": [
                -2.916783468169967,
                -0.9083002824019938,
                1.5509435528154707,
                -0.6215452766483842,
                1.4814839236037374,
                -3.0977708597769134
            ]
        },
        {
            "positions": [
                -2.8911794933420216,
                -0.8754195388917373,
                1.4500173503363458,
                -0.5525590304822129,
                1.3500292629867359,
                -3.1046294073285416
            ]
        },
        {
            "positions": [
                -2.865575518514076,
                -0.8425387953814807,
                1.349091147857221,
                -0.4835727843160415,
                1.2185746023697341,
                -3.11148795488017
            ]
        },
        {
            "positions": [
                -2.8399715436861306,
                -0.8096580518712242,
                1.2481649453780959,
                -0.4145865381498701,
                1.0871199417527326,
                -3.1183465024317982
            ]
        },
        {
            "positions": [
                -2.8143675688581853,
                -0.7767773083609677,
                1.147238742898971,
                -0.34560029198369874,
                0.9556652811357309,
                -3.1252050499834265
            ]
        },
        {
            "positions": [
                -2.7887635940302395,
                -0.7438965648507112,
                1.0463125404198461,
                -0.2766140458175274,
                0.8242106205187293,
                -3.132063597535055
            ]
        },
        {
            "positions": [
                -2.7631596192022942,
                -0.7110158213404547,
                0.9453863379407211,
                -0.20762779965135603,
                0.6927559599017274,
                -3.138922145086683
            ]
        },
        {
            "positions": [
                -2.7375556443743485,
                -0.6781350778301982,
                0.8444601354615962,
                -0.1386415534851846,
                0.5613012992847259,
                -3.1457806926383114
            ]
        },
        {
            "positions": [
                -2.711951669546403,
                -0.6452543343199417,
                0.7435339329824713,
                -0.06965530731901329,
                0.4298466386677242,
                -3.1526392401899397
            ]
        }
    ]
}