{
    "goal": {
        "global_pose": {
            "orientation": {
                "w": -0.4816463035849501,
                "x": 0.5182115481033762,
                "y": 0.4908360881923453,
                "z": -0.5084816262002911
            },
            "position": {
                "x": -0.8240239810943604,
                "y": 0.19912469901144506,
                "z": 0.16403168439865112
            }
        },
        "name": "move_to_storage_D"
    },
    "id": "LazyPRM_move_to_storage_D_42",
    "joint_names": [
        "shoulder_pan_joint",
        "shoulder_lift_joint",
        "elbow_joint",
        "wrist_1_joint",
        "wrist_2_joint",
        "wrist_3_joint"
    ],
    "metrics": {
        "cart_traj_len": 3.754773930915286,
        "distance_elbow_joint": 4.208511727326106,
        "distance_shoulder_lift_joint": 1.2657949954054204,
        "distance_shoulder_pan_joint": 2.813348581706156,
        "distance_wrist_1_joint": 2.435660427245514,
        "distance_wrist_2_joint": 0.8742350656946515,
        "distance_wrist_3_joint": 3.1397881664246015,
        "smoothness": 0.12472177614549629,
        "time": 0.06921245,
        "traj_len": 3.8389241935472564,
        "weighted_distance": 4.932221689015187
    },
    "planner": "LazyPRM",
    "start": {
        "state": {
            "elbow_joint": -2.384821988534728,
            "shoulder_lift_joint": -2.2788054721415256,
            "shoulder_pan_joint": -0.1854694642142757,
            "wrist_1_joint": 1.4845938289331202,
            "wrist_2_joint": 0.17898776772866878,
            "wrist_3_joint": 0.037105688729662994
        }
    },
    "waypoints": [
        {
            "positions": [
                -0.1854694642142757,
                -2.2788054721415256,
                -2.384821988534728,
                1.4845938289331202,
                0.17898776772866878,
                0.037105688729662994
            ]
        },
        {
            "positions": [
                -0.1615327388206357,
                -2.2622016748395612,
                -2.3840826369531656,
                1.5268655407248983,
                0.2063868370382695,
                0.14496364592048522
            ]
        },
        {
            "positions": [
                -0.1375960134269957,
                -2.245597877537597,
                -2.3833432853716032,
                1.5691372525166765,
                0.23378590634787016,
                0.2528216031113074
            ]
        },
        {
            "positions": [
                -0.05108575945023401,
                -2.222228989547176,
                -2.2645690909553635,
                1.5105601628439673,
                0.25313344130995197,
                0.33590870474430345
            ]
        },
        {
            "positions": [
                0.03542449452652768,
                -2.1988601015567553,
                -2.145794896539124,
                1.4519830731712584,
                0.27248097627203377,
                0.4189958063772995
            ]
        },
        {
            "positions": [
                0.12193474850328936,
                -2.1754912135663345,
                -2.0270207021228845,
                1.3934059834985493,
                0.2918285112341156,
                0.5020829080102955
            ]
        },
        {
            "positions": [
                0.20844500248005107,
                -2.1521223255759137,
                -1.9082465077066448,
                1.3348288938258401,
                0.3111760461961974,
                0.5851700096432917
            ]
        },
        {
            "positions": [
                0.29495525645681275,
                -2.128753437585493,
                -1.7894723132904051,
                1.276251804153131,
                0.3305235811582792,
                0.6682571112762876
            ]
        },
        {
            "positions": [
                0.38146551043357446,
                -2.1053845495950716,
                -1.6706981188741654,
                1.217674714480422,
                0.349871116120361,
                0.7513442129092838
            ]
        },
        {
            "positions": [
                0.46797576441033617,
                -2.0820156616046512,
                -1.5519239244579262,
                1.159097624807713,
                0.3692186510824428,
                0.8344313145422797
            ]
        },
        {
            "positions": [
                0.5544860183870979,
                -2.05864677361423,
                -1.4331497300416864,
                1.1005205351350038,
                0.38856618604452453,
                0.9175184161752759
            ]
        },
        {
            "positions": [
                0.6409962723638595,
                -2.035277885623809,
                -1.3143755356254467,
                1.041943445462295,
                0.40791372100660633,
                1.000605517808272
            ]
        },
        {
            "positions": [
                0.7275065263406213,
                -2.0119089976333884,
                -1.195601341209207,
                0.9833663557895858,
                0.42726125596868814,
                1.083692619441268
            ]
        },
        {
            "positions": [
                0.8140167803173829,
                -1.9885401096429676,
                -1.0768271467929675,
                0.9247892661168767,
                0.44660879093076994,
                1.1667797210742639
            ]
        },
        {
            "positions": [
                0.9005270342941446,
                -1.9651712216525468,
                -0.9580529523767278,
                0.8662121764441676,
                0.46595632589285174,
                1.24986682270726
            ]
        },
        {
            "positions": [
                0.9870372882709063,
                -1.941802333662126,
                -0.8392787579604883,
                0.8076350867714586,
                0.48530386085493354,
                1.3329539243402562
            ]
        },
        {
            "positions": [
                1.073547542247668,
                -1.9184334456717052,
                -0.7205045635442489,
                0.7490579970987495,
                0.5046513958170153,
                1.4160410259732519
            ]
        },
        {
            "positions": [
                1.1600577962244294,
                -1.8950645576812843,
                -0.6017303691280094,
                0.6904809074260405,
                0.5239989307790971,
                1.499128127606248
            ]
        },
        {
            "positions": [
                1.2465680502011913,
                -1.8716956696908635,
                -0.48295617471176944,
                0.6319038177533313,
                0.543346465741179,
                1.5822152292392442
            ]
        },
        {
            "positions": [
                1.333078304177953,
                -1.8483267817004425,
                -0.36418198029552995,
                0.5733267280806222,
                0.5626940007032608,
                1.6653023308722403
            ]
        },
        {
            "positions": [
                1.4195885581547145,
                -1.8249578937100217,
                -0.24540778587929024,
                0.5147496384079133,
                0.5820415356653426,
                1.7483894325052365
            ]
        },
        {
            "positions": [
                1.5060988121314762,
                -1.801589005719601,
                -0.12663359146305098,
                0.4561725487352042,
                0.6013890706274243,
                1.8314765341382322
            ]
        },
        {
            "positions": [
                1.5926090661082382,
                -1.77822011772918,
                -0.007859397046810823,
                0.39759545906249505,
                0.6207366055895062,
                1.9145636357712283
            ]
        },
        {
            "positions": [
                1.6791193200849999,
                -1.7548512297387593,
                0.11091479736942844,
                0.3390183693897859,
                0.640084140551588,
                1.9976507374042245
            ]
        },
        {
            "positions": [
                1.7656295740617614,
                -1.7314823417483383,
                0.22968899178566815,
                0.280441279717077,
                0.6594316755136698,
                2.0807378390372206
            ]
        },
        {
            "positions": [
                1.852139828038523,
                -1.7081134537579175,
                0.3484631862019074,
                0.22186419004436786,
                0.6787792104757515,
                2.1638249406702164
            ]
        },
        {
            "positions": [
                1.9386500820152848,
                -1.6847445657674966,
                0.46723738061814757,
                0.16328710037165872,
                0.6981267454378334,
                2.2469120423032125
            ]
        },
        {
            "positions": [
                2.0251603359920467,
                -1.6613756777770758,
                0.5860115750343868,
                0.10471001069894981,
                0.7174742803999151,
                2.3299991439362087
            ]
        },
        {
            "positions": [
                2.111670589968808,
                -1.638006789786655,
                0.7047857694506268,
                0.04613292102624067,
                0.7368218153619969,
                2.413086245569205
            ]
        },
        {
            "positions": [
                2.158598637925451,
                -1.581188943145696,
                0.8065043121179678,
                -0.029150049171170464,
                0.7655855442766626,
                2.4825233009860286
            ]
        },
        {
            "positions": [
                2.205526685882094,
                -1.5243710965047368,
                0.9082228547853087,
                -0.1044330193685816,
                0.7943492731913284,
                2.551960356402852
            ]
        },
        {
            "positions": [
                2.252454733838737,
                -1.4675532498637778,
                1.0099413974526497,
                -0.1797159895659927,
                0.8231130021059941,
                2.6213974118196757
            ]
        },
        {
            "positions": [
                2.29938278179538,
                -1.4107354032228188,
                1.1116599401199907,
                -0.25499895976340387,
                0.8518767310206599,
                2.6908344672364994
            ]
        },
        {
            "positions": [
                2.3463108297520225,
                -1.3539175565818597,
                1.2133784827873315,
                -0.33028192996081496,
                0.8806404599353257,
                2.7602715226533228
            ]
        },
        {
            "positions": [
                2.3932388777086655,
                -1.2970997099409005,
                1.3150970254546726,
                -0.40556490015822605,
                0.9094041888499914,
                2.8297085780701465
            ]
        },
        {
            "positions": [
                2.4401669256653085,
                -1.2402818632999415,
                1.4168155681220136,
                -0.48084787035563725,
                0.9381679177646571,
                2.89914563348697
            ]
        },
        {
            "positions": [
                2.4870949736219514,
                -1.1834640166589825,
                1.5185341107893546,
                -0.5561308405530484,
                0.966931646679323,
                2.9685826889037936
            ]
        },
        {
            "positions": [
                2.5340230215785944,
                -1.1266461700180233,
                1.6202526534566957,
                -0.6314138107504595,
                0.9956953755939888,
                3.0380197443206174
            ]
        },
        {
            "positions": [
                2.5809510695352373,
                -1.0698283233770645,
                1.7219711961240365,
                -0.7066967809478706,
                1.0244591045086544,
                3.1074567997374407
            ]
        },
        {
            "positions": [
                2.6278791174918803,
                -1.0130104767361052,
                1.8236897387913775,
                -0.7819797511452817,
                1.0532228334233202,
                3.1768938551542645
            ]
        }
    ]
}