{
    "goal": {
        "global_pose": {
            "orientation": {
                "w": -0.00223480608172531,
                "x": 0.0024358444001904467,
                "y": 0.7094548369677653,
                "z": -0.704743149386269
            },
            "position": {
                "x": -0.37947507619857795,
                "y": -0.6371506643295288,
                "z": 0.19426114857196808
            }
        },
        "name": "move_to_magneteinheit_C"
    },
    "id": "LazyPRMstar_move_to_magneteinheit_C_144",
    "joint_names": [
        "shoulder_pan_joint",
        "shoulder_lift_joint",
        "elbow_joint",
        "wrist_1_joint",
        "wrist_2_joint",
        "wrist_3_joint"
    ],
    "metrics": {
        "cart_traj_len": 0.6858446755238004,
        "distance_elbow_joint": 0.7020883229302646,
        "distance_shoulder_lift_joint": 0.29039724486127705,
        "distance_shoulder_pan_joint": 0.8023751273795237,
        "distance_wrist_1_joint": 0.5901972388071128,
        "distance_wrist_2_joint": 0.7957702250964226,
        "distance_wrist_3_joint": 0.49661730350130995,
        "smoothness": 1.1148208898292042,
        "time": 5.017368492,
        "traj_len": 1.917666671394148,
        "weighted_distance": 2.4610257076028415
    },
    "planner": "LazyPRMstar",
    "start": {
        "state": {
            "elbow_joint": 1.9565354010623817,
            "shoulder_lift_joint": -1.4165861575791021,
            "shoulder_pan_joint": -1.6717766225146293,
            "wrist_1_joint": -0.5286633292919765,
            "wrist_2_joint": 1.472756589071564,
            "wrist_3_joint": -3.1238370188695823
        }
    },
    "waypoints": [
        {
            "positions": [
                -1.6717766225146293,
                -1.4165861575791021,
                1.9565354010623817,
                -0.5286633292919765,
                1.472756589071564,
                -3.1238370188695823
            ]
        },
        {
            "positions": [
                -1.80254939208317,
                -1.4195816701437984,
                2.0192964931392643,
                -0.5038327769117453,
                1.3866632912163308,
                -3.0848774477042227
            ]
        },
        {
            "positions": [
                -1.9333221616517107,
                -1.4225771827084948,
                2.082057585216147,
                -0.47900222453151414,
                1.3005699933610975,
                -3.0459178765388626
            ]
        },
        {
            "positions": [
                -2.0640949312202514,
                -1.4255726952731909,
                2.1448186772930296,
                -0.454171672151283,
                1.2144766955058643,
                -3.0069583053735025
            ]
        },
        {
            "positions": [
                -2.1948677007887922,
                -1.4285682078378872,
                2.2075797693699117,
                -0.4293411197710519,
                1.128383397650631,
                -2.967998734208143
            ]
        },
        {
            "positions": [
                -2.325640470357333,
                -1.4315637204025835,
                2.2703408614467944,
                -0.4045105673908207,
                1.0422900997953979,
                -2.9290391630427832
            ]
        },
        {
            "positions": [
                -2.456413239925874,
                -1.4345592329672798,
                2.333101953523677,
                -0.37968001501058957,
                0.9561968019401647,
                -2.890079591877423
            ]
        },
        {
            "positions": [
                -2.4599609419195296,
                -1.38007439907266,
                2.2679975994298833,
                -0.46792279991573477,
                0.90035471434716,
                -2.9426515671792535
            ]
        },
        {
            "positions": [
                -2.4635086439131855,
                -1.32558956517804,
                2.202893245336089,
                -0.55616558482088,
                0.8445126267541553,
                -2.9952235424810834
            ]
        },
        {
            "positions": [
                -2.4670563459068413,
                -1.2711047312834203,
                2.1377888912422955,
                -0.6444083697260251,
                0.7886705391611507,
                -3.0477955177829137
            ]
        },
        {
            "positions": [
                -2.470604047900497,
                -1.2166198973888003,
                2.0726845371485014,
                -0.7326511546311704,
                0.732828451568146,
                -3.1003674930847436
            ]
        },
        {
            "positions": [
                -2.474151749894153,
                -1.1621350634941805,
                2.0075801830547078,
                -0.8208939395363155,
                0.6769863639751413,
                -3.152939468386574
            ]
        }
    ]
}