{
    "goal": {
        "global_pose": {
            "orientation": {
                "w": -0.00223480608172531,
                "x": 0.0024358444001904467,
                "y": 0.7094548369677653,
                "z": -0.704743149386269
            },
            "position": {
                "x": 0.6205249238014221,
                "y": -0.6371506643295288,
                "z": 0.19426114857196808
            }
        },
        "name": "move_to_magneteinheit_B"
    },
    "id": "LazyPRM_move_to_magneteinheit_B_48",
    "joint_names": [
        "shoulder_pan_joint",
        "shoulder_lift_joint",
        "elbow_joint",
        "wrist_1_joint",
        "wrist_2_joint",
        "wrist_3_joint"
    ],
    "metrics": {
        "cart_traj_len": 1.4924399843714493,
        "distance_elbow_joint": 1.0165529198266783,
        "distance_shoulder_lift_joint": 1.0727815118113178,
        "distance_shoulder_pan_joint": 1.6220396651211462,
        "distance_wrist_1_joint": 0.28226087375091824,
        "distance_wrist_2_joint": 1.6033283802864389,
        "distance_wrist_3_joint": 0.3920886601819022,
        "smoothness": 0.7998231989520197,
        "time": 0.15845963600000001,
        "traj_len": 2.447253973534092,
        "weighted_distance": 2.942587056550674
    },
    "planner": "LazyPRM",
    "start": {
        "state": {
            "elbow_joint": 2.6216224122426386,
            "shoulder_lift_joint": -1.4174107377796124,
            "shoulder_pan_joint": 0.7066234856936794,
            "wrist_1_joint": 1.9546482284002225,
            "wrist_2_joint": -0.7096286983471962,
            "wrist_3_joint": 0.005740856962016249
        }
    },
    "waypoints": [
        {
            "positions": [
                0.7066234856936794,
                -1.4174107377796124,
                2.6216224122426386,
                1.9546482284002225,
                -0.7096286983471962,
                0.005740856962016249
            ]
        },
        {
            "positions": [
                0.6576241672326177,
                -1.4972487180443612,
                2.637629411575739,
                1.995712843988648,
                -0.6878297470609548,
                -0.040396042401679745
            ]
        },
        {
            "positions": [
                0.6086248487715562,
                -1.57708669830911,
                2.653636410908839,
                2.0367774595770736,
                -0.6660307957747134,
                -0.08653294176537574
            ]
        },
        {
            "positions": [
                0.4850888191875936,
                -1.5065650805450306,
                2.5819515995162066,
                2.033067137381119,
                -0.7829748668480128,
                -0.09534486328283831
            ]
        },
        {
            "positions": [
                0.361552789603631,
                -1.4360434627809513,
                2.5102667881235745,
                2.0293568151851638,
                -0.8999189379213122,
                -0.10415678480030087
            ]
        },
        {
            "positions": [
                0.23801676001966843,
                -1.3655218450168718,
                2.438581976730942,
                2.025646492989209,
                -1.0168630089946116,
                -0.11296870631776343
            ]
        },
        {
            "positions": [
                0.11448073043570578,
                -1.2950002272527925,
                2.3668971653383095,
                2.0219361707932544,
                -1.133807080067911,
                -0.121780627835226
            ]
        },
        {
            "positions": [
                -0.009055299148256757,
                -1.224478609488713,
                2.2952123539456775,
                2.0182258485972993,
                -1.2507511511412104,
                -0.13059254935268855
            ]
        },
        {
            "positions": [
                -0.13259132873221935,
                -1.1539569917246337,
                2.223527542553045,
                2.0145155264013446,
                -1.3676952222145098,
                -0.13940447087015112
            ]
        },
        {
            "positions": [
                -0.25612735831618205,
                -1.0834353739605542,
                2.1518427311604125,
                2.01080520420539,
                -1.4846392932878092,
                -0.1482163923876137
            ]
        },
        {
            "positions": [
                -0.37966338790014464,
                -1.012913756196475,
                2.0801579197677804,
                2.0070948820094348,
                -1.6015833643611086,
                -0.15702831390507627
            ]
        },
        {
            "positions": [
                -0.5031994174841072,
                -0.9423921384323954,
                2.008473108375148,
                2.00338455981348,
                -1.718527435434408,
                -0.16584023542253884
            ]
        },
        {
            "positions": [
                -0.6267354470680697,
                -0.871870520668316,
                1.9367882969825159,
                1.9996742376175254,
                -1.8354715065077074,
                -0.17465215694000139
            ]
        },
        {
            "positions": [
                -0.7502714766520323,
                -0.8013489029042367,
                1.8651034855898834,
                1.9959639154215705,
                -1.9524155775810068,
                -0.18346407845746396
            ]
        },
        {
            "positions": [
                -0.8053197109105104,
                -0.7555596509452546,
                1.7997681536427093,
                2.0490699482277583,
                -2.043530809550228,
                -0.11583617020332329
            ]
        },
        {
            "positions": [
                -0.8603679451689884,
                -0.7097703989862724,
                1.7344328216955354,
                2.1021759810339464,
                -2.1346460415194484,
                -0.048208261949182624
            ]
        },
        {
            "positions": [
                -0.9154161794274664,
                -0.6639811470272903,
                1.6690974897483613,
                2.1552820138401345,
                -2.2257612734886694,
                0.019419646304958033
            ]
        }
    ]
}