{
    "goal": {
        "global_pose": {
            "orientation": {
                "w": 0.005598929693374612,
                "x": 0.007748599140229565,
                "y": 0.7110244013736278,
                "z": -0.7031023480610252
            },
            "position": {
                "x": -0.8858502320852131,
                "y": -0.7141253447532654,
                "z": 0.3711530566215515
            }
        },
        "name": "move_to_auspresseinheit_C"
    },
    "id": "LazyPRMstar_move_to_auspresseinheit_C_5",
    "joint_names": [
        "shoulder_pan_joint",
        "shoulder_lift_joint",
        "elbow_joint",
        "wrist_1_joint",
        "wrist_2_joint",
        "wrist_3_joint"
    ],
    "metrics": {
        "cart_traj_len": 0.4923409223688607,
        "distance_elbow_joint": 0.9916346136712553,
        "distance_shoulder_lift_joint": 0.3216525062787938,
        "distance_shoulder_pan_joint": 0.25601034163644254,
        "distance_wrist_1_joint": 0.6569228144624306,
        "distance_wrist_2_joint": 1.3107244989026168,
        "distance_wrist_3_joint": 0.03689926483390593,
        "smoothness": 6.459479416000911e-16,
        "time": 5.000315377,
        "traj_len": 1.8904613298836466,
        "weighted_distance": 2.3696602884840487
    },
    "planner": "LazyPRMstar",
    "start": {
        "state": {
            "elbow_joint": 1.7527959577737207,
            "shoulder_lift_joint": -0.9740617694225068,
            "shoulder_pan_joint": -2.967991417825858,
            "wrist_1_joint": -0.759517768980727,
            "wrist_2_joint": 1.7443932448377408,
            "wrist_3_joint": -3.0840537646736568
        }
    },
    "waypoints": [
        {
            "positions": [
                -2.967991417825858,
                -0.9740617694225068,
                1.7527959577737207,
                -0.759517768980727,
                1.7443932448377408,
                -3.0840537646736568
            ]
        },
        {
            "positions": [
                -2.9423903836622136,
                -0.9418965187946274,
                1.6536324964065952,
                -0.6938254875344839,
                1.6133207949474793,
                -3.0877436911570473
            ]
        },
        {
            "positions": [
                -2.9167893494985693,
                -0.909731268166748,
                1.5544690350394696,
                -0.6281332060882409,
                1.4822483450572175,
                -3.091433617640438
            ]
        },
        {
            "positions": [
                -2.8911883153349254,
                -0.8775660175388686,
                1.4553055736723441,
                -0.5624409246419978,
                1.3511758951669557,
                -3.0951235441238287
            ]
        },
        {
            "positions": [
                -2.865587281171281,
                -0.8454007669109892,
                1.3561421123052186,
                -0.49674864319575474,
                1.2201034452766941,
                -3.0988134706072192
            ]
        },
        {
            "positions": [
                -2.8399862470076367,
                -0.8132355162831099,
                1.256978650938093,
                -0.4310563617495117,
                1.0890309953864326,
                -3.1025033970906097
            ]
        },
        {
            "positions": [
                -2.8143852128439923,
                -0.7810702656552305,
                1.1578151895709676,
                -0.3653640803032686,
                0.9579585454961708,
                -3.1061933235740002
            ]
        },
        {
            "positions": [
                -2.788784178680348,
                -0.7489050150273511,
                1.058651728203842,
                -0.2996717988570256,
                0.8268860956059092,
                -3.1098832500573907
            ]
        },
        {
            "positions": [
                -2.763183144516704,
                -0.7167397643994717,
                0.9594882668367164,
                -0.2339795174107825,
                0.6958136457156474,
                -3.1135731765407817
            ]
        },
        {
            "positions": [
                -2.7375821103530598,
                -0.6845745137715924,
                0.8603248054695909,
                -0.16828723596453943,
                0.5647411958253856,
                -3.117263103024172
            ]
        },
        {
            "positions": [
                -2.7119810761894154,
                -0.652409263143713,
                0.7611613441024654,
                -0.10259495451829635,
                0.433668745935124,
                -3.1209530295075627
            ]
        }
    ]
}