{
    "goal": {
        "global_pose": {
            "orientation": {
                "w": 0.005598929693374612,
                "x": 0.007748599140229565,
                "y": 0.7110244013736278,
                "z": -0.7031023480610252
            },
            "position": {
                "x": 0.1141497679147869,
                "y": -0.7141253447532654,
                "z": 0.3711530566215515
            }
        },
        "name": "move_to_auspresseinheit_B"
    },
    "id": "LazyPRM_move_to_auspresseinheit_B_52",
    "joint_names": [
        "shoulder_pan_joint",
        "shoulder_lift_joint",
        "elbow_joint",
        "wrist_1_joint",
        "wrist_2_joint",
        "wrist_3_joint"
    ],
    "metrics": {
        "cart_traj_len": 0.5648236782506,
        "distance_elbow_joint": 0.06622432523440946,
        "distance_shoulder_lift_joint": 0.2933559812251423,
        "distance_shoulder_pan_joint": 0.5741706143519882,
        "distance_wrist_1_joint": 0.33724370657163194,
        "distance_wrist_2_joint": 1.0088291824421403,
        "distance_wrist_3_joint": 0.0011725154482271627,
        "smoothness": 3.806478935924272e-16,
        "time": 0.011873119000000001,
        "traj_len": 1.510296767285668,
        "weighted_distance": 1.9051021613508727
    },
    "planner": "LazyPRM",
    "start": {
        "state": {
            "elbow_joint": 2.0193083361928714,
            "shoulder_lift_joint": -1.1220246554650708,
            "shoulder_pan_joint": -1.0952077554168747,
            "wrist_1_joint": -0.8559753972642168,
            "wrist_2_joint": 0.4759566250798843,
            "wrist_3_joint": -3.1240929996934557
        }
    },
    "waypoints": [
        {
            "positions": [
                -1.0952077554168747,
                -1.1220246554650708,
                2.0193083361928714,
                -0.8559753972642168,
                0.4759566250798843,
                -3.1240929996934557
            ]
        },
        {
            "positions": [
                -1.1909028578088727,
                -1.1709173190025945,
                2.008270948653803,
                -0.7997681128356114,
                0.6440948221535743,
                -3.124288418934827
            ]
        },
        {
            "positions": [
                -1.2865979602008708,
                -1.2198099825401183,
                1.997233561114735,
                -0.7435608284070061,
                0.8122330192272644,
                -3.124483838176198
            ]
        },
        {
            "positions": [
                -1.3822930625928689,
                -1.2687026460776418,
                1.9861961735756668,
                -0.6873535439784009,
                0.9803712163009544,
                -3.1246792574175695
            ]
        },
        {
            "positions": [
                -1.4779881649848667,
                -1.3175953096151656,
                1.9751587860365984,
                -0.6311462595497955,
                1.1485094133746445,
                -3.1248746766589406
            ]
        },
        {
            "positions": [
                -1.5736832673768648,
                -1.3664879731526893,
                1.96412139849753,
                -0.5749389751211902,
                1.3166476104483344,
                -3.1250700959003117
            ]
        },
        {
            "positions": [
                -1.669378369768863,
                -1.415380636690213,
                1.953084010958462,
                -0.5187316906925848,
                1.4847858075220246,
                -3.125265515141683
            ]
        }
    ]
}