{
    "goal": {
        "global_pose": {
            "orientation": {
                "w": 0.7031023480610252,
                "x": -0.7110244013736278,
                "y": 0.0077485991402295624,
                "z": 0.005598929693374583
            },
            "position": {
                "x": -0.8841497679147869,
                "y": 0.44412534475326537,
                "z": 0.3711530566215515
            }
        },
        "name": "move_to_auspresseinheit_D"
    },
    "id": "LazyPRMstar_move_to_auspresseinheit_D_60",
    "joint_names": [
        "shoulder_pan_joint",
        "shoulder_lift_joint",
        "elbow_joint",
        "wrist_1_joint",
        "wrist_2_joint",
        "wrist_3_joint"
    ],
    "metrics": {
        "cart_traj_len": 0.34412214285806975,
        "distance_elbow_joint": 0.6491709562402048,
        "distance_shoulder_lift_joint": 0.12675045040067134,
        "distance_shoulder_pan_joint": 0.13469365998621732,
        "distance_wrist_1_joint": 0.5754581157070429,
        "distance_wrist_2_joint": 1.4292728709911264,
        "distance_wrist_3_joint": 0.04403172949563894,
        "smoothness": 4.934324567253731e-16,
        "time": 5.000656982000001,
        "traj_len": 1.7202842157099802,
        "weighted_distance": 2.2477037679619505
    },
    "planner": "LazyPRMstar",
    "start": {
        "state": {
            "elbow_joint": -1.8275523626775212,
            "shoulder_lift_joint": -2.126789852344167,
            "shoulder_pan_joint": -0.03513704404078235,
            "wrist_1_joint": -2.347782403156801,
            "wrist_2_joint": -1.6058999987535132,
            "wrist_3_joint": -3.0880379163319196
        }
    },
    "waypoints": [
        {
            "positions": [
                -0.03513704404078235,
                -2.126789852344167,
                -1.8275523626775212,
                -2.347782403156801,
                -1.6058999987535132,
                -3.0880379163319196
            ]
        },
        {
            "positions": [
                -0.05197375153905952,
                -2.1426336586442507,
                -1.7464059931474956,
                -2.4197146676201813,
                -1.4272408898796223,
                -3.0825339501449647
            ]
        },
        {
            "positions": [
                -0.06881045903733668,
                -2.1584774649443346,
                -1.66525962361747,
                -2.4916469320835617,
                -1.2485817810057316,
                -3.0770299839580098
            ]
        },
        {
            "positions": [
                -0.08564716653561386,
                -2.1743212712444184,
                -1.5841132540874443,
                -2.563579196546942,
                -1.069922672131841,
                -3.071526017771055
            ]
        },
        {
            "positions": [
                -0.102483874033891,
                -2.1901650775445027,
                -1.5029668845574187,
                -2.6355114610103225,
                -0.89126356325795,
                -3.0660220515841
            ]
        },
        {
            "positions": [
                -0.11932058153216818,
                -2.2060088838445866,
                -1.421820515027393,
                -2.7074437254737025,
                -0.7126044543840592,
                -3.0605180853971454
            ]
        },
        {
            "positions": [
                -0.13615728903044536,
                -2.2218526901446705,
                -1.3406741454973676,
                -2.779375989937083,
                -0.5339453455101684,
                -3.0550141192101905
            ]
        },
        {
            "positions": [
                -0.1529939965287225,
                -2.2376964964447543,
                -1.259527775967342,
                -2.8513082544004633,
                -0.3552862366362777,
                -3.0495101530232356
            ]
        },
        {
            "positions": [
                -0.16983070402699968,
                -2.253540302744838,
                -1.1783814064373164,
                -2.9232405188638437,
                -0.1766271277623867,
                -3.0440061868362807
            ]
        }
    ]
}