{
    "goal": {
        "global_pose": {
            "orientation": {
                "w": 0.005598929693374612,
                "x": 0.007748599140229565,
                "y": 0.7110244013736278,
                "z": -0.7031023480610252
            },
            "position": {
                "x": -0.8858502320852131,
                "y": -0.7141253447532654,
                "z": 0.3711530566215515
            }
        },
        "name": "move_to_auspresseinheit_C"
    },
    "id": "LazyPRMstar_move_to_auspresseinheit_C_70",
    "joint_names": [
        "shoulder_pan_joint",
        "shoulder_lift_joint",
        "elbow_joint",
        "wrist_1_joint",
        "wrist_2_joint",
        "wrist_3_joint"
    ],
    "metrics": {
        "cart_traj_len": 0.4938067242881172,
        "distance_elbow_joint": 1.0140167610364184,
        "distance_shoulder_lift_joint": 0.3325276582359148,
        "distance_shoulder_pan_joint": 0.25582927656219745,
        "distance_wrist_1_joint": 0.6985225578874965,
        "distance_wrist_2_joint": 1.3209329368822593,
        "distance_wrist_3_joint": 0.06852457397248024,
        "smoothness": 3.2297397335745243e-16,
        "time": 5.001258986000001,
        "traj_len": 1.9210293502642708,
        "weighted_distance": 2.418027792911298
    },
    "planner": "LazyPRMstar",
    "start": {
        "state": {
            "elbow_joint": 1.7527959577737207,
            "shoulder_lift_joint": -0.9740617694225068,
            "shoulder_pan_joint": -2.967991417825858,
            "wrist_1_joint": -0.759517768980727,
            "wrist_2_joint": 1.7443932448377408,
            "wrist_3_joint": -3.0840537646736568
        }
    },
    "waypoints": [
        {
            "positions": [
                -2.967991417825858,
                -0.9740617694225068,
                1.7527959577737207,
                -0.759517768980727,
                1.7443932448377408,
                -3.0840537646736568
            ]
        },
        {
            "positions": [
                -2.942408490169638,
                -0.9408090035989153,
                1.6513942816700788,
                -0.6896655131919773,
                1.6122999511495149,
                -3.0909062220709047
            ]
        },
        {
            "positions": [
                -2.9168255625134183,
                -0.9075562377753238,
                1.549992605566437,
                -0.6198132574032277,
                1.4802066574612889,
                -3.0977586794681526
            ]
        },
        {
            "positions": [
                -2.891242634857199,
                -0.8743034719517323,
                1.4485909294627952,
                -0.549961001614478,
                1.3481133637730631,
                -3.104611136865401
            ]
        },
        {
            "positions": [
                -2.865659707200979,
                -0.8410507061281408,
                1.3471892533591534,
                -0.4801087458257284,
                1.216020070084837,
                -3.111463594262649
            ]
        },
        {
            "positions": [
                -2.8400767795447592,
                -0.8077979403045494,
                1.2457875772555114,
                -0.4102564900369787,
                1.0839267763966112,
                -3.118316051659897
            ]
        },
        {
            "positions": [
                -2.8144938518885394,
                -0.7745451744809579,
                1.1443859011518698,
                -0.3404042342482291,
                0.9518334827083853,
                -3.125168509057145
            ]
        },
        {
            "positions": [
                -2.7889109242323196,
                -0.7412924086573665,
                1.0429842250482277,
                -0.2705519784594795,
                0.8197401890201593,
                -3.1320209664543928
            ]
        },
        {
            "positions": [
                -2.7633279965761,
                -0.708039642833775,
                0.9415825489445859,
                -0.20069972267072977,
                0.6876468953319332,
                -3.138873423851641
            ]
        },
        {
            "positions": [
                -2.7377450689198803,
                -0.6747868770101835,
                0.8401808728409441,
                -0.13084746688198012,
                0.5555536016437075,
                -3.145725881248889
            ]
        },
        {
            "positions": [
                -2.7121621412636605,
                -0.641534111186592,
                0.7387791967373023,
                -0.06099521109323048,
                0.42346030795548156,
                -3.152578338646137
            ]
        }
    ]
}