{
    "goal": {
        "global_pose": {
            "orientation": {
                "w": 0.005598929693374612,
                "x": 0.007748599140229565,
                "y": 0.7110244013736278,
                "z": -0.7031023480610252
            },
            "position": {
                "x": -0.8858502320852131,
                "y": -0.7141253447532654,
                "z": 0.3711530566215515
            }
        },
        "name": "move_to_auspresseinheit_C"
    },
    "id": "LazyPRMstar_move_to_auspresseinheit_C_13",
    "joint_names": [
        "shoulder_pan_joint",
        "shoulder_lift_joint",
        "elbow_joint",
        "wrist_1_joint",
        "wrist_2_joint",
        "wrist_3_joint"
    ],
    "metrics": {
        "cart_traj_len": 0.49319434619351293,
        "distance_elbow_joint": 1.0045146641074783,
        "distance_shoulder_lift_joint": 0.32747330539997377,
        "distance_shoulder_pan_joint": 0.256111337746995,
        "distance_wrist_1_joint": 0.685363968117458,
        "distance_wrist_2_joint": 1.3124065530901199,
        "distance_wrist_3_joint": 0.06340555931735015,
        "smoothness": 3.2297397080004555e-16,
        "time": 5.001486024,
        "traj_len": 1.9103076683559053,
        "weighted_distance": 2.402885146573105
    },
    "planner": "LazyPRMstar",
    "start": {
        "state": {
            "elbow_joint": 1.7527959577737207,
            "shoulder_lift_joint": -0.9740617694225068,
            "shoulder_pan_joint": -2.967991417825858,
            "wrist_1_joint": -0.759517768980727,
            "wrist_2_joint": 1.7443932448377408,
            "wrist_3_joint": -3.0840537646736568
        }
    },
    "waypoints": [
        {
            "positions": [
                -2.967991417825858,
                -0.9740617694225068,
                1.7527959577737207,
                -0.759517768980727,
                1.7443932448377408,
                -3.0840537646736568
            ]
        },
        {
            "positions": [
                -2.9423802840511586,
                -0.9413144388825094,
                1.6523444913629728,
                -0.6909813721689811,
                1.6131525895287289,
                -3.090394320605392
            ]
        },
        {
            "positions": [
                -2.9167691502764588,
                -0.908567108342512,
                1.551893024952225,
                -0.6224449753572354,
                1.481911934219717,
                -3.096734876537127
            ]
        },
        {
            "positions": [
                -2.8911580165017594,
                -0.8758197778025146,
                1.4514415585414773,
                -0.5539085785454896,
                1.350671278910705,
                -3.1030754324688616
            ]
        },
        {
            "positions": [
                -2.86554688272706,
                -0.8430724472625173,
                1.3509900921307294,
                -0.48537218173374375,
                1.219430623601693,
                -3.1094159884005967
            ]
        },
        {
            "positions": [
                -2.8399357489523602,
                -0.8103251167225198,
                1.2505386257199815,
                -0.41683578492199796,
                1.088189968292681,
                -3.115756544332332
            ]
        },
        {
            "positions": [
                -2.814324615177661,
                -0.7775777861825225,
                1.1500871593092339,
                -0.3482993881102522,
                0.9569493129836689,
                -3.122097100264067
            ]
        },
        {
            "positions": [
                -2.7887134814029615,
                -0.7448304556425251,
                1.049635692898486,
                -0.2797629912985064,
                0.825708657674657,
                -3.128437656195802
            ]
        },
        {
            "positions": [
                -2.763102347628262,
                -0.7120831251025277,
                0.949184226487738,
                -0.2112265944867605,
                0.6944680023656449,
                -3.1347782121275367
            ]
        },
        {
            "positions": [
                -2.7374912138535623,
                -0.6793357945625303,
                0.8487327600769902,
                -0.14269019767501478,
                0.5632273470566329,
                -3.141118768059272
            ]
        },
        {
            "positions": [
                -2.711880080078863,
                -0.646588464022533,
                0.7482812936662424,
                -0.07415380086326896,
                0.431986691747621,
                -3.147459323991007
            ]
        }
    ]
}