{
    "goal": {
        "global_pose": {
            "orientation": {
                "w": -0.4816463035849501,
                "x": 0.5182115481033762,
                "y": 0.4908360881923453,
                "z": -0.5084816262002911
            },
            "position": {
                "x": -0.8240239810943604,
                "y": 0.19912469901144506,
                "z": 0.16403168439865112
            }
        },
        "name": "move_to_storage_D"
    },
    "id": "LazyPRM_move_to_storage_D_24",
    "joint_names": [
        "shoulder_pan_joint",
        "shoulder_lift_joint",
        "elbow_joint",
        "wrist_1_joint",
        "wrist_2_joint",
        "wrist_3_joint"
    ],
    "metrics": {
        "cart_traj_len": 3.2643632231859145,
        "distance_elbow_joint": 4.700517373866553,
        "distance_shoulder_lift_joint": 1.2658413011369918,
        "distance_shoulder_pan_joint": 3.0644131955672824,
        "distance_wrist_1_joint": 2.2937504542548384,
        "distance_wrist_2_joint": 0.8796702937904944,
        "distance_wrist_3_joint": 3.1341982134007553,
        "smoothness": 0.03204903815823821,
        "time": 1.602597192,
        "traj_len": 3.9164257725657103,
        "weighted_distance": 4.977972278635526
    },
    "planner": "LazyPRM",
    "start": {
        "state": {
            "elbow_joint": -2.384821988534728,
            "shoulder_lift_joint": -2.2788054721415256,
            "shoulder_pan_joint": -0.1854694642142757,
            "wrist_1_joint": 1.4845938289331202,
            "wrist_2_joint": 0.17898776772866878,
            "wrist_3_joint": 0.037105688729662994
        }
    },
    "waypoints": [
        {
            "positions": [
                -0.1854694642142757,
                -2.2788054721415256,
                -2.384821988534728,
                1.4845938289331202,
                0.17898776772866878,
                0.037105688729662994
            ]
        },
        {
            "positions": [
                -0.20837091669064525,
                -2.22926649780276,
                -2.45039348471638,
                1.484076664062671,
                0.2167168551889999,
                -0.09873228775528567
            ]
        },
        {
            "positions": [
                -0.23127236916701482,
                -2.179727523463994,
                -2.515964980898032,
                1.4835594991922219,
                0.25444594264933107,
                -0.23457026424023433
            ]
        },
        {
            "positions": [
                -0.25417382164338437,
                -2.1301885491252284,
                -2.581536477079684,
                1.4830423343217727,
                0.2921750301096622,
                -0.37040824072518297
            ]
        },
        {
            "positions": [
                -0.27927022398085677,
                -2.0412620680175295,
                -2.6306318410418292,
                1.4842113673953945,
                0.33327199951263214,
                -0.5229544948909114
            ]
        },
        {
            "positions": [
                -0.29511084994124726,
                -1.9377175673102809,
                -2.6304653246936422,
                1.4873251808483121,
                0.3588723071280753,
                -0.6242900384949452
            ]
        },
        {
            "positions": [
                -0.31095147590163774,
                -1.8341730666030323,
                -2.6302988083454553,
                1.4904389943012295,
                0.38447261474351835,
                -0.725625582098979
            ]
        },
        {
            "positions": [
                -0.3022025958565568,
                -1.6920062143534917,
                -2.531987213122077,
                1.4928546229750406,
                0.38622160641620173,
                -0.7493457674710481
            ]
        },
        {
            "positions": [
                -0.2934537158114758,
                -1.5498393621039512,
                -2.433675617898699,
                1.4952702516488514,
                0.3879705980888852,
                -0.7730659528431173
            ]
        },
        {
            "positions": [
                -0.2847048357663948,
                -1.4076725098544107,
                -2.3353640226753205,
                1.4976858803226625,
                0.38971958976156856,
                -0.7967861382151864
            ]
        },
        {
            "positions": [
                -0.17611422598665388,
                -1.3935425434293718,
                -2.207044480559502,
                1.4416275197550275,
                0.4089858218016413,
                -0.8625775145634376
            ]
        },
        {
            "positions": [
                -0.06752361620691294,
                -1.3794125770043326,
                -2.0787249384436834,
                1.3855691591873924,
                0.428252053841714,
                -0.9283688909116887
            ]
        },
        {
            "positions": [
                0.041066993572828,
                -1.3652826105792937,
                -1.9504053963278651,
                1.3295107986197572,
                0.4475182858817867,
                -0.99416026725994
            ]
        },
        {
            "positions": [
                0.14965760335256895,
                -1.3511526441542545,
                -1.8220858542120466,
                1.2734524380521222,
                0.46678451792185943,
                -1.059951643608191
            ]
        },
        {
            "positions": [
                0.25824821313230995,
                -1.3370226777292156,
                -1.693766312096228,
                1.2173940774844871,
                0.48605074996193215,
                -1.1257430199564424
            ]
        },
        {
            "positions": [
                0.36683882291205083,
                -1.3228927113041764,
                -1.5654467699804098,
                1.1613357169168521,
                0.5053169820020048,
                -1.1915343963046936
            ]
        },
        {
            "positions": [
                0.47542943269179183,
                -1.3087627448791375,
                -1.437127227864591,
                1.1052773563492169,
                0.5245832140420776,
                -1.2573257726529448
            ]
        },
        {
            "positions": [
                0.5840200424715327,
                -1.2946327784540983,
                -1.3088076857487727,
                1.0492189957815818,
                0.5438494460821502,
                -1.323117149001196
            ]
        },
        {
            "positions": [
                0.6926106522512736,
                -1.2805028120290594,
                -1.1804881436329542,
                0.9931606352139468,
                0.563115678122223,
                -1.3889085253494473
            ]
        },
        {
            "positions": [
                0.8012012620310147,
                -1.2663728456040202,
                -1.0521686015171356,
                0.9371022746463118,
                0.5823819101622957,
                -1.4546999016976985
            ]
        },
        {
            "positions": [
                0.9097918718107556,
                -1.2522428791789812,
                -0.9238490594013173,
                0.8810439140786768,
                0.6016481422023684,
                -1.5204912780459496
            ]
        },
        {
            "positions": [
                1.0183824815904965,
                -1.2381129127539423,
                -0.7955295172854988,
                0.8249855535110416,
                0.6209143742424411,
                -1.5862826543942008
            ]
        },
        {
            "positions": [
                1.1269730913702374,
                -1.2239829463289031,
                -0.6672099751696805,
                0.7689271929434066,
                0.6401806062825138,
                -1.652074030742452
            ]
        },
        {
            "positions": [
                1.2355637011499785,
                -1.209852979903864,
                -0.5388904330538618,
                0.7128688323757715,
                0.6594468383225867,
                -1.7178654070907031
            ]
        },
        {
            "positions": [
                1.3441543109297194,
                -1.195723013478825,
                -0.41057089093804344,
                0.6568104718081365,
                0.6787130703626593,
                -1.7836567834389543
            ]
        },
        {
            "positions": [
                1.4527449207094603,
                -1.181593047053786,
                -0.2822513488222249,
                0.6007521112405014,
                0.697979302402732,
                -1.8494481597872054
            ]
        },
        {
            "positions": [
                1.5613355304892014,
                -1.167463080628747,
                -0.15393180670640616,
                0.5446937506728662,
                0.7172455344428048,
                -1.9152395361354568
            ]
        },
        {
            "positions": [
                1.669926140268942,
                -1.153333114203708,
                -0.025612264590587852,
                0.48863539010523116,
                0.7365117664828774,
                -1.981030912483708
            ]
        },
        {
            "positions": [
                1.778516750048683,
                -1.1392031477786688,
                0.10270727752523046,
                0.43257702953759614,
                0.7557779985229501,
                -2.046822288831959
            ]
        },
        {
            "positions": [
                1.8871073598284243,
                -1.1250731813536299,
                0.2310268196410492,
                0.3765186689699611,
                0.7750442305630229,
                -2.1126136651802105
            ]
        },
        {
            "positions": [
                1.9956979696081651,
                -1.1109432149285907,
                0.3593463617568675,
                0.3204603084023261,
                0.7943104626030956,
                -2.1784050415284617
            ]
        },
        {
            "positions": [
                2.104288579387906,
                -1.0968132485035518,
                0.4876659038726858,
                0.26440194783469106,
                0.8135766946431683,
                -2.2441964178767124
            ]
        },
        {
            "positions": [
                2.212879189167647,
                -1.0826832820785128,
                0.6159854459885046,
                0.20834358726705582,
                0.832842926683241,
                -2.309987794224964
            ]
        },
        {
            "positions": [
                2.321469798947388,
                -1.0685533156534737,
                0.7443049881043228,
                0.15228522669942088,
                0.8521091587233137,
                -2.375779170573215
            ]
        },
        {
            "positions": [
                2.355526455506376,
                -1.0623767440258136,
                0.8642795094613561,
                0.04871247558615864,
                0.8750590368117415,
                -2.4559250988063126
            ]
        },
        {
            "positions": [
                2.3895831120653646,
                -1.0562001723981538,
                0.9842540308183895,
                -0.0548602755271036,
                0.8980089149001692,
                -2.53607102703941
            ]
        },
        {
            "positions": [
                2.4236397686243527,
                -1.0500236007704937,
                1.104228552175423,
                -0.15843302664036582,
                0.9209587929885968,
                -2.6162169552725074
            ]
        },
        {
            "positions": [
                2.457696425183341,
                -1.0438470291428337,
                1.2242030735324563,
                -0.2620057777536281,
                0.9439086710770246,
                -2.696362883505605
            ]
        },
        {
            "positions": [
                2.4917530817423295,
                -1.0376704575151738,
                1.3441775948894896,
                -0.36557852886689035,
                0.9668585491654523,
                -2.7765088117387027
            ]
        },
        {
            "positions": [
                2.5258097383013176,
                -1.0314938858875138,
                1.464152116246523,
                -0.4691512799801525,
                0.9898084272538801,
                -2.8566547399718
            ]
        },
        {
            "positions": [
                2.5598663948603058,
                -1.0253173142598537,
                1.5841266376035565,
                -0.5727240310934147,
                1.0127583053423077,
                -2.9368006682048975
            ]
        },
        {
            "positions": [
                2.5939230514192944,
                -1.019140742632194,
                1.7041011589605897,
                -0.676296782206677,
                1.0357081834307356,
                -3.016946596437995
            ]
        },
        {
            "positions": [
                2.6279797079782825,
                -1.0129641710045338,
                1.824075680317623,
                -0.7798695333199392,
                1.0586580615191632,
                -3.0970925246710923
            ]
        }
    ]
}