{
    "goal": {
        "global_pose": {
            "orientation": {
                "w": 0.7031023502349854,
                "x": -0.7110244035720825,
                "y": 0.007748599164187908,
                "z": 0.005598929710686207
            },
            "position": {
                "x": 0.11585023208521307,
                "y": 0.44412534475326537,
                "z": 0.3711530566215515
            }
        },
        "name": "move_to_auspresseinheit_A"
    },
    "id": "LazyPRM_move_to_auspresseinheit_A_30",
    "joint_names": [
        "shoulder_pan_joint",
        "shoulder_lift_joint",
        "elbow_joint",
        "wrist_1_joint",
        "wrist_2_joint",
        "wrist_3_joint"
    ],
    "metrics": {
        "cart_traj_len": 0.6763119581393409,
        "distance_elbow_joint": 0.1600029757618766,
        "distance_shoulder_lift_joint": 0.5359771307461596,
        "distance_shoulder_pan_joint": 1.0477318697982412,
        "distance_wrist_1_joint": 0.543185251021762,
        "distance_wrist_2_joint": 0.5139778451207032,
        "distance_wrist_3_joint": 0.960355047638858,
        "smoothness": 0.628703266837914,
        "time": 0.051248844,
        "traj_len": 1.9393891100260414,
        "weighted_distance": 2.5959782956542186
    },
    "planner": "LazyPRM",
    "start": {
        "state": {
            "elbow_joint": 2.4225746658250005,
            "shoulder_lift_joint": -1.3736534386056498,
            "shoulder_pan_joint": -0.3378633547517467,
            "wrist_1_joint": -1.0288598680537169,
            "wrist_2_joint": 1.233022673432363,
            "wrist_3_joint": -3.0940220416140027
        }
    },
    "waypoints": [
        {
            "positions": [
                -0.3378633547517467,
                -1.3736534386056498,
                2.4225746658250005,
                -1.0288598680537169,
                1.233022673432363,
                -3.0940220416140027
            ]
        },
        {
            "positions": [
                -0.21444393581849502,
                -1.4437731648722247,
                2.4322310854371403,
                -0.9716970078111643,
                1.1678628613430737,
                -3.0278710097099695
            ]
        },
        {
            "positions": [
                -0.0910245168852433,
                -1.5138928911387999,
                2.4418875050492796,
                -0.9145341475686116,
                1.1027030492537844,
                -2.961719977805936
            ]
        },
        {
            "positions": [
                0.03239490204800838,
                -1.5840126174053748,
                2.4515439246614195,
                -0.857371287326059,
                1.037543237164495,
                -2.895568945901903
            ]
        },
        {
            "positions": [
                0.15581432098126013,
                -1.65413234367195,
                2.461200344273559,
                -0.8002084270835064,
                0.9723834250752057,
                -2.8294179139978697
            ]
        },
        {
            "positions": [
                0.2792337399145119,
                -1.7242520699385249,
                2.4708567638856986,
                -0.7430455668409538,
                0.9072236129859164,
                -2.7632668820938364
            ]
        },
        {
            "positions": [
                0.4026531588477635,
                -1.7943717962051,
                2.480513183497838,
                -0.6858827065984012,
                0.842063800896627,
                -2.697115850189803
            ]
        },
        {
            "positions": [
                0.5260725777810153,
                -1.864491522471675,
                2.490169603109978,
                -0.6287198463558485,
                0.7769039888073377,
                -2.63096481828577
            ]
        },
        {
            "positions": [
                0.5873378902028417,
                -1.8795378714317197,
                2.459366923617678,
                -0.581038103247884,
                0.757617601975445,
                -2.796730759722645
            ]
        },
        {
            "positions": [
                0.6486032026246681,
                -1.8945842203917647,
                2.4285642441253783,
                -0.5333563601399195,
                0.7383312151435525,
                -2.96249670115952
            ]
        },
        {
            "positions": [
                0.7098685150464944,
                -1.9096305693518094,
                2.3977615646330785,
                -0.4856746170319549,
                0.7190448283116598,
                -3.128262642596395
            ]
        }
    ]
}