{
    "goal": {
        "global_pose": {
            "orientation": {
                "w": 0.005598929693374612,
                "x": 0.007748599140229565,
                "y": 0.7110244013736278,
                "z": -0.7031023480610252
            },
            "position": {
                "x": 0.1141497679147869,
                "y": -0.7141253447532654,
                "z": 0.3711530566215515
            }
        },
        "name": "move_to_auspresseinheit_B"
    },
    "id": "LazyPRMstar_move_to_auspresseinheit_B_128",
    "joint_names": [
        "shoulder_pan_joint",
        "shoulder_lift_joint",
        "elbow_joint",
        "wrist_1_joint",
        "wrist_2_joint",
        "wrist_3_joint"
    ],
    "metrics": {
        "cart_traj_len": 0.5649632785552291,
        "distance_elbow_joint": 0.06330686716287626,
        "distance_shoulder_lift_joint": 0.2951695325477979,
        "distance_shoulder_pan_joint": 0.5742552576955942,
        "distance_wrist_1_joint": 0.3268249280378417,
        "distance_wrist_2_joint": 1.0088182839344895,
        "distance_wrist_3_joint": 0.008888424992604449,
        "smoothness": 5.075305295617109e-16,
        "time": 5.000470804,
        "traj_len": 1.5090604011672972,
        "weighted_distance": 1.9054352144139521
    },
    "planner": "LazyPRMstar",
    "start": {
        "state": {
            "elbow_joint": 2.0193083361928714,
            "shoulder_lift_joint": -1.1220246554650708,
            "shoulder_pan_joint": -1.0952077554168747,
            "wrist_1_joint": -0.8559753972642168,
            "wrist_2_joint": 0.4759566250798843,
            "wrist_3_joint": -3.1240929996934557
        }
    },
    "waypoints": [
        {
            "positions": [
                -1.0952077554168747,
                -1.1220246554650708,
                2.0193083361928714,
                -0.8559753972642168,
                0.4759566250798843,
                -3.1240929996934557
            ]
        },
        {
            "positions": [
                -1.190916965032807,
                -1.1712195775563705,
                2.008757191665725,
                -0.8015045759245765,
                0.6440930057356326,
                -3.1255744038588897
            ]
        },
        {
            "positions": [
                -1.2866261746487393,
                -1.22041449964767,
                1.9982060471385794,
                -0.7470337545849363,
                0.8122293863913808,
                -3.127055808024324
            ]
        },
        {
            "positions": [
                -1.3823353842646717,
                -1.2696094217389697,
                1.9876549026114332,
                -0.6925629332452959,
                0.9803657670471291,
                -3.128537212189758
            ]
        },
        {
            "positions": [
                -1.478044593880604,
                -1.3188043438302695,
                1.9771037580842872,
                -0.6380921119056557,
                1.1485021477028772,
                -3.130018616355192
            ]
        },
        {
            "positions": [
                -1.5737538034965364,
                -1.367999265921569,
                1.9665526135571412,
                -0.5836212905660154,
                1.3166385283586255,
                -3.131500020520626
            ]
        },
        {
            "positions": [
                -1.6694630131124688,
                -1.4171941880128687,
                1.9560014690299952,
                -0.5291504692263751,
                1.4847749090143738,
                -3.13298142468606
            ]
        }
    ]
}