{
    "goal": {
        "global_pose": {
            "orientation": {
                "w": 0.7031023480610252,
                "x": -0.7110244013736278,
                "y": 0.0077485991402295624,
                "z": 0.005598929693374583
            },
            "position": {
                "x": -0.8841497679147869,
                "y": 0.44412534475326537,
                "z": 0.3711530566215515
            }
        },
        "name": "move_to_auspresseinheit_D"
    },
    "id": "LazyPRMstar_move_to_auspresseinheit_D_48",
    "joint_names": [
        "shoulder_pan_joint",
        "shoulder_lift_joint",
        "elbow_joint",
        "wrist_1_joint",
        "wrist_2_joint",
        "wrist_3_joint"
    ],
    "metrics": {
        "cart_traj_len": 0.3443187711043837,
        "distance_elbow_joint": 0.6571969453534701,
        "distance_shoulder_lift_joint": 0.13235348487171184,
        "distance_shoulder_pan_joint": 0.1343788967451478,
        "distance_wrist_1_joint": 0.5825171237038052,
        "distance_wrist_2_joint": 1.4442078708065758,
        "distance_wrist_3_joint": 0.0374324646980031,
        "smoothness": 0.0,
        "time": 5.00124549,
        "traj_len": 1.7286083379929398,
        "weighted_distance": 2.256031185530267
    },
    "planner": "LazyPRMstar",
    "start": {
        "state": {
            "elbow_joint": -1.8275523626775212,
            "shoulder_lift_joint": -2.126789852344167,
            "shoulder_pan_joint": -0.03513704404078235,
            "wrist_1_joint": -2.347782403156801,
            "wrist_2_joint": -1.6058999987535132,
            "wrist_3_joint": -3.0880379163319196
        }
    },
    "waypoints": [
        {
            "positions": [
                -0.03513704404078235,
                -2.126789852344167,
                -1.8275523626775212,
                -2.347782403156801,
                -1.6058999987535132,
                -3.0880379163319196
            ]
        },
        {
            "positions": [
                -0.051934406133925824,
                -2.1433340379531307,
                -1.7454027445083375,
                -2.4205970436197766,
                -1.4253740149026912,
                -3.083358858244669
            ]
        },
        {
            "positions": [
                -0.0687317682270693,
                -2.159878223562095,
                -1.6632531263391537,
                -2.4934116840827523,
                -1.2448480310518693,
                -3.0786798001574187
            ]
        },
        {
            "positions": [
                -0.08552913032021278,
                -2.176422409171059,
                -1.5811035081699698,
                -2.566226324545728,
                -1.0643220472010473,
                -3.0740007420701683
            ]
        },
        {
            "positions": [
                -0.10232649241335626,
                -2.1929665947800228,
                -1.4989538900007862,
                -2.6390409650087037,
                -0.8837960633502253,
                -3.069321683982918
            ]
        },
        {
            "positions": [
                -0.11912385450649973,
                -2.2095107803889866,
                -1.4168042718316025,
                -2.711855605471679,
                -0.7032700794994033,
                -3.064642625895668
            ]
        },
        {
            "positions": [
                -0.1359212165996432,
                -2.2260549659979505,
                -1.3346546536624186,
                -2.7846702459346546,
                -0.5227440956485814,
                -3.0599635678084174
            ]
        },
        {
            "positions": [
                -0.15271857869278668,
                -2.242599151606915,
                -1.2525050354932348,
                -2.8574848863976303,
                -0.3422181117977594,
                -3.055284509721167
            ]
        },
        {
            "positions": [
                -0.16951594078593016,
                -2.2591433372158787,
                -1.1703554173240511,
                -2.930299526860606,
                -0.16169212794693735,
                -3.0506054516339165
            ]
        }
    ]
}