{
    "goal": {
        "global_pose": {
            "orientation": {
                "w": 0.7031023502349854,
                "x": -0.7110244035720825,
                "y": 0.007748599164187908,
                "z": 0.005598929710686207
            },
            "position": {
                "x": 0.11585023208521307,
                "y": 0.44412534475326537,
                "z": 0.3711530566215515
            }
        },
        "name": "move_to_auspresseinheit_A"
    },
    "id": "LazyPRM_move_to_auspresseinheit_A_63",
    "joint_names": [
        "shoulder_pan_joint",
        "shoulder_lift_joint",
        "elbow_joint",
        "wrist_1_joint",
        "wrist_2_joint",
        "wrist_3_joint"
    ],
    "metrics": {
        "cart_traj_len": 0.8598610722227068,
        "distance_elbow_joint": 0.5392221233202981,
        "distance_shoulder_lift_joint": 0.5626636086857426,
        "distance_shoulder_pan_joint": 1.0439872090160467,
        "distance_wrist_1_joint": 2.4797925803105896,
        "distance_wrist_2_joint": 1.0003663736316806,
        "distance_wrist_3_joint": 0.48089982462933056,
        "smoothness": 1.3031687127721223,
        "time": 0.10084256,
        "traj_len": 2.471220694230624,
        "weighted_distance": 3.247905528612958
    },
    "planner": "LazyPRM",
    "start": {
        "state": {
            "elbow_joint": 2.4225746658250005,
            "shoulder_lift_joint": -1.3736534386056498,
            "shoulder_pan_joint": -0.3378633547517467,
            "wrist_1_joint": -1.0288598680537169,
            "wrist_2_joint": 1.233022673432363,
            "wrist_3_joint": -3.0940220416140027
        }
    },
    "waypoints": [
        {
            "positions": [
                -0.3378633547517467,
                -1.3736534386056498,
                2.4225746658250005,
                -1.0288598680537169,
                1.233022673432363,
                -3.0940220416140027
            ]
        },
        {
            "positions": [
                -0.2595172392827979,
                -1.4233794499419166,
                2.396505922514212,
                -0.8898682223668579,
                1.1634714761706277,
                -3.0743895950700413
            ]
        },
        {
            "positions": [
                -0.18117112381384914,
                -1.4731054612781833,
                2.370437179203424,
                -0.7508765766799989,
                1.0939202789088924,
                -3.0547571485260794
            ]
        },
        {
            "positions": [
                -0.10282500834490035,
                -1.5228314726144503,
                2.3443684358926355,
                -0.6118849309931399,
                1.0243690816471571,
                -3.035124701982118
            ]
        },
        {
            "positions": [
                -0.024478892875951563,
                -1.572557483950717,
                2.318299692581847,
                -0.47289328530628083,
                0.9548178843854216,
                -3.0154922554381565
            ]
        },
        {
            "positions": [
                0.0538672225929972,
                -1.6222834952869838,
                2.292230949271059,
                -0.3339016396194219,
                0.8852666871236863,
                -2.9958598088941946
            ]
        },
        {
            "positions": [
                0.13221333806194602,
                -1.6720095066232505,
                2.2661622059602706,
                -0.19490999393256292,
                0.815715489861951,
                -2.976227362350233
            ]
        },
        {
            "positions": [
                0.21055945353089484,
                -1.7217355179595173,
                2.2400934626494826,
                -0.055918348245703964,
                0.7461642926002157,
                -2.956594915806271
            ]
        },
        {
            "positions": [
                0.2889055689998436,
                -1.771461529295784,
                2.214024719338694,
                0.08307329744115521,
                0.6766130953384802,
                -2.9369624692623097
            ]
        },
        {
            "positions": [
                0.36725168446879247,
                -1.821187540632051,
                2.1879559760279057,
                0.22206494312801417,
                0.6070618980767448,
                -2.9173300227183483
            ]
        },
        {
            "positions": [
                0.4455977999377411,
                -1.8709135519683178,
                2.1618872327171177,
                0.3610565888148731,
                0.5375107008150096,
                -2.8976975761743864
            ]
        },
        {
            "positions": [
                0.5239439154066899,
                -1.9206395633045845,
                2.1358184894063292,
                0.5000482345017322,
                0.4679595035532742,
                -2.878065129630425
            ]
        },
        {
            "positions": [
                0.560379903178212,
                -1.917504066507223,
                2.1863116787866548,
                0.30987133895070407,
                0.5150201443037925,
                -2.9310537121595757
            ]
        },
        {
            "positions": [
                0.596815890949734,
                -1.9143685697098614,
                2.23680486816698,
                0.119694443399676,
                0.5620807850543109,
                -2.984042294688726
            ]
        },
        {
            "positions": [
                0.6332518787212559,
                -1.9112330729124998,
                2.2872980575473054,
                -0.07048245215135207,
                0.6091414258048292,
                -3.0370308772178767
            ]
        },
        {
            "positions": [
                0.6696878664927779,
                -1.9080975761151382,
                2.3377912469276305,
                -0.2606593477023802,
                0.6562020665553476,
                -3.090019459747027
            ]
        },
        {
            "positions": [
                0.7061238542642999,
                -1.9049620793177766,
                2.388284436307956,
                -0.4508362432534082,
                0.7032627073058659,
                -3.1430080422761777
            ]
        }
    ]
}