{
    "goal": {
        "global_pose": {
            "orientation": {
                "w": 0.7047431493862688,
                "x": -0.7094548369677653,
                "y": 0.0024358444001904,
                "z": -0.0022348060817251984
            },
            "position": {
                "x": -0.39052492380142206,
                "y": 0.3671506643295288,
                "z": 0.19426114857196808
            }
        },
        "name": "move_to_magneteinheit_D"
    },
    "id": "LazyPRM_move_to_magneteinheit_D_105",
    "joint_names": [
        "shoulder_pan_joint",
        "shoulder_lift_joint",
        "elbow_joint",
        "wrist_1_joint",
        "wrist_2_joint",
        "wrist_3_joint"
    ],
    "metrics": {
        "cart_traj_len": 4.074099011367126,
        "distance_elbow_joint": 3.192894011143335,
        "distance_shoulder_lift_joint": 1.6343865472019632,
        "distance_shoulder_pan_joint": 3.0247066494069568,
        "distance_wrist_1_joint": 1.6099718521354838,
        "distance_wrist_2_joint": 0.39058666005489606,
        "distance_wrist_3_joint": 3.1262967652764857,
        "smoothness": 0.20770219388990369,
        "time": 0.231834444,
        "traj_len": 3.6026160613114357,
        "weighted_distance": 4.607818847129568
    },
    "planner": "LazyPRM",
    "start": {
        "state": {
            "elbow_joint": 0.749534889911806,
            "shoulder_lift_joint": -0.6476975780787326,
            "shoulder_pan_joint": -2.711696901376241,
            "wrist_1_joint": -0.07506478083263063,
            "wrist_2_joint": 0.43296659715538205,
            "wrist_3_joint": -3.14703540197715
        }
    },
    "waypoints": [
        {
            "positions": [
                -2.711696901376241,
                -0.6476975780787326,
                0.749534889911806,
                -0.07506478083263063,
                0.43296659715538205,
                -3.14703540197715
            ]
        },
        {
            "positions": [
                -2.7315395966153067,
                -0.683812476531267,
                0.7610280458930383,
                0.1635638152444272,
                0.4563590084159612,
                -3.1160028049054764
            ]
        },
        {
            "positions": [
                -2.7513822918543727,
                -0.7199273749838012,
                0.7725212018742708,
                0.40219241132148503,
                0.4797514196765404,
                -3.0849702078338024
            ]
        },
        {
            "positions": [
                -2.7712249870934382,
                -0.7560422734363356,
                0.7840143578555031,
                0.640821007398543,
                0.5031438309371196,
                -3.0539376107621288
            ]
        },
        {
            "positions": [
                -2.667715581854221,
                -0.8030608828982245,
                0.6850589816541869,
                0.6687266460108949,
                0.5011548855659982,
                -2.9404947499305516
            ]
        },
        {
            "positions": [
                -2.564206176615004,
                -0.8500794923601135,
                0.5861036054528705,
                0.6966322846232469,
                0.4991659401948767,
                -2.8270518890989744
            ]
        },
        {
            "positions": [
                -2.460696771375787,
                -0.8970981018220026,
                0.4871482292515544,
                0.7245379232355988,
                0.49717699482375527,
                -2.7136090282673977
            ]
        },
        {
            "positions": [
                -2.35718736613657,
                -0.9441167112838915,
                0.3881928530502381,
                0.7524435618479509,
                0.49518804945263384,
                -2.6001661674358205
            ]
        },
        {
            "positions": [
                -2.253677960897353,
                -0.9911353207457805,
                0.2892374768489218,
                0.7803492004603029,
                0.49319910408151246,
                -2.4867233066042433
            ]
        },
        {
            "positions": [
                -2.150168555658136,
                -1.0381539302076694,
                0.19028210064760565,
                0.8082548390726548,
                0.49121015871039103,
                -2.373280445772666
            ]
        },
        {
            "positions": [
                -2.0466591504189187,
                -1.0851725396695584,
                0.09132672444628931,
                0.8361604776850068,
                0.4892212133392696,
                -2.259837584941089
            ]
        },
        {
            "positions": [
                -1.9431497451797015,
                -1.1321911491314474,
                -0.007628651755026916,
                0.8640661162973587,
                0.48723226796814817,
                -2.146394724109512
            ]
        },
        {
            "positions": [
                -1.8396403399404846,
                -1.1792097585933363,
                -0.10658402795634314,
                0.8919717549097108,
                0.48524332259702674,
                -2.032951863277935
            ]
        },
        {
            "positions": [
                -1.7361309347012674,
                -1.2262283680552253,
                -0.20553940415765948,
                0.9198773935220628,
                0.4832543772259053,
                -1.919509002446358
            ]
        },
        {
            "positions": [
                -1.6326215294620503,
                -1.2732469775171142,
                -0.3044947803589756,
                0.9477830321344147,
                0.4812654318547839,
                -1.8060661416147807
            ]
        },
        {
            "positions": [
                -1.5291121242228334,
                -1.3202655869790032,
                -0.4034501565602918,
                0.9756886707467667,
                0.47927648648366244,
                -1.6926232807832038
            ]
        },
        {
            "positions": [
                -1.4256027189836162,
                -1.3672841964408922,
                -0.5024055327616083,
                1.0035943093591186,
                0.47728754111254107,
                -1.5791804199516266
            ]
        },
        {
            "positions": [
                -1.322093313744399,
                -1.4143028059027813,
                -0.6013609089629245,
                1.0314999479714706,
                0.47529859574141964,
                -1.4657375591200494
            ]
        },
        {
            "positions": [
                -1.2185839085051822,
                -1.46132141536467,
                -0.7003162851642407,
                1.0594055865838226,
                0.4733096503702982,
                -1.3522946982884725
            ]
        },
        {
            "positions": [
                -1.115074503265965,
                -1.5083400248265593,
                -0.7992716613655569,
                1.0873112251961745,
                0.4713207049991768,
                -1.2388518374568953
            ]
        },
        {
            "positions": [
                -1.0115650980267479,
                -1.5553586342884482,
                -0.8982270375668734,
                1.1152168638085267,
                0.46933175962805534,
                -1.1254089766253181
            ]
        },
        {
            "positions": [
                -0.908055692787531,
                -1.6023772437503372,
                -0.9971824137681894,
                1.1431225024208787,
                0.4673428142569339,
                -1.0119661157937414
            ]
        },
        {
            "positions": [
                -0.8045462875483138,
                -1.6493958532122261,
                -1.0961377899695055,
                1.1710281410332306,
                0.4653538688858125,
                -0.8985232549621642
            ]
        },
        {
            "positions": [
                -0.7010368823090967,
                -1.6964144626741153,
                -1.195093166170822,
                1.1989337796455826,
                0.46336492351469105,
                -0.7850803941305871
            ]
        },
        {
            "positions": [
                -0.59752747706988,
                -1.743433072136004,
                -1.2940485423721384,
                1.2268394182579345,
                0.4613759781435697,
                -0.6716375332990099
            ]
        },
        {
            "positions": [
                -0.4940180718306624,
                -1.7904516815978933,
                -1.3930039185734544,
                1.2547450568702865,
                0.45938703277244824,
                -0.5581946724674327
            ]
        },
        {
            "positions": [
                -0.39050866659144523,
                -1.8374702910597822,
                -1.4919592947747709,
                1.2826506954826384,
                0.4573980874013268,
                -0.44475181163585553
            ]
        },
        {
            "positions": [
                -0.28699926135222853,
                -1.8844889005216712,
                -1.5909146709760869,
                1.3105563340949904,
                0.4554091420302054,
                -0.3313089508042788
            ]
        },
        {
            "positions": [
                -0.1834898561130115,
                -1.9315075099835601,
                -1.6898700471774033,
                1.3384619727073424,
                0.45342019665908395,
                -0.2178660899727014
            ]
        },
        {
            "positions": [
                -0.13664868460063423,
                -1.9780595708094832,
                -1.778776378130459,
                1.387278354982636,
                0.40327974384094845,
                -0.17451195586688287
            ]
        },
        {
            "positions": [
                -0.08980751308825699,
                -2.0246116316354064,
                -1.8676827090835149,
                1.4360947372579296,
                0.353139291022813,
                -0.13115782176106433
            ]
        },
        {
            "positions": [
                -0.04296634157587975,
                -2.07116369246133,
                -1.9565890400365706,
                1.4849111195332232,
                0.30299883820467755,
                -0.08780368765524582
            ]
        },
        {
            "positions": [
                0.003874829936497508,
                -2.117715753287253,
                -2.0454953709896264,
                1.5337275018085168,
                0.25285838538654204,
                -0.04444955354942729
            ]
        },
        {
            "positions": [
                -0.09116454339341426,
                -2.1998999392839744,
                -2.209947778166881,
                1.5331377170613485,
                0.21779639502525153,
                -0.03259409512504556
            ]
        },
        {
            "positions": [
                -0.18620391672332604,
                -2.282084125280696,
                -2.3744001853441348,
                1.5325479323141804,
                0.18273440466396101,
                -0.02073863670066383
            ]
        }
    ]
}