{
    "goal": {
        "global_pose": {
            "orientation": {
                "w": 0.005598929693374612,
                "x": 0.007748599140229565,
                "y": 0.7110244013736278,
                "z": -0.7031023480610252
            },
            "position": {
                "x": 0.1141497679147869,
                "y": -0.7141253447532654,
                "z": 0.3711530566215515
            }
        },
        "name": "move_to_auspresseinheit_B"
    },
    "id": "LazyPRM_move_to_auspresseinheit_B_119",
    "joint_names": [
        "shoulder_pan_joint",
        "shoulder_lift_joint",
        "elbow_joint",
        "wrist_1_joint",
        "wrist_2_joint",
        "wrist_3_joint"
    ],
    "metrics": {
        "cart_traj_len": 0.5642759960345852,
        "distance_elbow_joint": 0.061355979957023354,
        "distance_shoulder_lift_joint": 0.2950976778537586,
        "distance_shoulder_pan_joint": 0.5749041424004377,
        "distance_wrist_1_joint": 0.3220956520702998,
        "distance_wrist_2_joint": 1.0028006869559605,
        "distance_wrist_3_joint": 0.003883326812161414,
        "smoothness": 0.0,
        "time": 0.01183153,
        "traj_len": 1.5033753576700803,
        "weighted_distance": 1.8954684008709364
    },
    "planner": "LazyPRM",
    "start": {
        "state": {
            "elbow_joint": 2.0193083361928714,
            "shoulder_lift_joint": -1.1220246554650708,
            "shoulder_pan_joint": -1.0952077554168747,
            "wrist_1_joint": -0.8559753972642168,
            "wrist_2_joint": 0.4759566250798843,
            "wrist_3_joint": -3.1240929996934557
        }
    },
    "waypoints": [
        {
            "positions": [
                -1.0952077554168747,
                -1.1220246554650708,
                2.0193083361928714,
                -0.8559753972642168,
                0.4759566250798843,
                -3.1240929996934557
            ]
        },
        {
            "positions": [
                -1.1910251124836142,
                -1.1712076017740305,
                2.0090823395333675,
                -0.8022927885858335,
                0.6430900729058777,
                -3.1234457785580956
            ]
        },
        {
            "positions": [
                -1.286842469550354,
                -1.2203905480829904,
                1.9988563428738637,
                -0.7486101799074502,
                0.8102235207318711,
                -3.122798557422735
            ]
        },
        {
            "positions": [
                -1.3826598266170935,
                -1.26957349439195,
                1.9886303462143597,
                -0.6949275712290669,
                0.9773569685578645,
                -3.122151336287375
            ]
        },
        {
            "positions": [
                -1.478477183683833,
                -1.3187564407009098,
                1.9784043495548558,
                -0.6412449625506836,
                1.1444904163838578,
                -3.121504115152015
            ]
        },
        {
            "positions": [
                -1.5742945407505728,
                -1.3679393870098697,
                1.968178352895352,
                -0.5875623538723003,
                1.3116238642098514,
                -3.1208568940166543
            ]
        },
        {
            "positions": [
                -1.6701118978173124,
                -1.4171223333188294,
                1.957952356235848,
                -0.533879745193917,
                1.4787573120358448,
                -3.1202096728812942
            ]
        }
    ]
}