{
    "goal": {
        "global_pose": {
            "orientation": {
                "w": -0.00223480608172531,
                "x": 0.0024358444001904467,
                "y": 0.7094548369677653,
                "z": -0.704743149386269
            },
            "position": {
                "x": 0.6205249238014221,
                "y": -0.6371506643295288,
                "z": 0.19426114857196808
            }
        },
        "name": "move_to_magneteinheit_B"
    },
    "id": "LazyPRM_move_to_magneteinheit_B_132",
    "joint_names": [
        "shoulder_pan_joint",
        "shoulder_lift_joint",
        "elbow_joint",
        "wrist_1_joint",
        "wrist_2_joint",
        "wrist_3_joint"
    ],
    "metrics": {
        "cart_traj_len": 1.471226454987479,
        "distance_elbow_joint": 0.9582844795245358,
        "distance_shoulder_lift_joint": 1.0132095473730898,
        "distance_shoulder_pan_joint": 1.6208086512909097,
        "distance_wrist_1_joint": 0.19258321706833126,
        "distance_wrist_2_joint": 1.6541023976273799,
        "distance_wrist_3_joint": 0.44551774859671195,
        "smoothness": 0.4770731802036837,
        "time": 0.118736127,
        "traj_len": 2.425800082752278,
        "weighted_distance": 2.9363629124088346
    },
    "planner": "LazyPRM",
    "start": {
        "state": {
            "elbow_joint": 2.6216224122426386,
            "shoulder_lift_joint": -1.4174107377796124,
            "shoulder_pan_joint": 0.7066234856936794,
            "wrist_1_joint": 1.9546482284002225,
            "wrist_2_joint": -0.7096286983471962,
            "wrist_3_joint": 0.005740856962016249
        }
    },
    "waypoints": [
        {
            "positions": [
                0.7066234856936794,
                -1.4174107377796124,
                2.6216224122426386,
                1.9546482284002225,
                -0.7096286983471962,
                0.005740856962016249
            ]
        },
        {
            "positions": [
                0.5885776972559582,
                -1.4601918961160727,
                2.616948201804038,
                1.9955524297759288,
                -0.6877666987968001,
                0.07960670248391623
            ]
        },
        {
            "positions": [
                0.470531908818237,
                -1.5029730544525328,
                2.612273991365438,
                2.036456631151635,
                -0.665904699246404,
                0.15347254800581622
            ]
        },
        {
            "positions": [
                0.35248612038051574,
                -1.5457542127889932,
                2.6075997809268374,
                2.0773608325273414,
                -0.6440426996960079,
                0.2273383935277162
            ]
        },
        {
            "positions": [
                0.25504986761299686,
                -1.4776875918379386,
                2.53496425414155,
                2.082735495061281,
                -0.7662362688480227,
                0.21011376183302297
            ]
        },
        {
            "positions": [
                0.15761361484547792,
                -1.409620970886884,
                2.4623287273562626,
                2.0881101575952203,
                -0.8884298380000374,
                0.19288913013832976
            ]
        },
        {
            "positions": [
                0.060177362077958985,
                -1.3415543499358296,
                2.3896932005709757,
                2.09348482012916,
                -1.0106234071520521,
                0.17566449844363652
            ]
        },
        {
            "positions": [
                -0.0372588906895599,
                -1.273487728984775,
                2.3170576737856883,
                2.098859482663099,
                -1.132816976304067,
                0.15843986674894328
            ]
        },
        {
            "positions": [
                -0.13469514345707884,
                -1.2054211080337205,
                2.244422147000401,
                2.1042341451970383,
                -1.2550105454560816,
                0.14121523505425007
            ]
        },
        {
            "positions": [
                -0.23213139622459777,
                -1.137354487082666,
                2.171786620215114,
                2.109608807730978,
                -1.3772041146080962,
                0.12399060335955683
            ]
        },
        {
            "positions": [
                -0.32956764899211655,
                -1.0692878661316114,
                2.0991510934298265,
                2.1149834702649173,
                -1.4993976837601108,
                0.10676597166486362
            ]
        },
        {
            "positions": [
                -0.42700390175963554,
                -1.0012212451805569,
                2.026515566644539,
                2.1203581327988568,
                -1.621591252912126,
                0.08954133997017039
            ]
        },
        {
            "positions": [
                -0.5244401545271544,
                -0.9331546242295023,
                1.953880039859252,
                2.1257327953327962,
                -1.7437848220641405,
                0.07231670827547718
            ]
        },
        {
            "positions": [
                -0.6218764072946734,
                -0.8650880032784478,
                1.8812445130739646,
                2.1311074578667353,
                -1.8659783912161552,
                0.05509207658078394
            ]
        },
        {
            "positions": [
                -0.7193126600621923,
                -0.7970213823273933,
                1.8086089862886774,
                2.1364821204006748,
                -1.9881719603681698,
                0.0378674448860907
            ]
        },
        {
            "positions": [
                -0.8167489128297113,
                -0.7289547613763387,
                1.73597345950339,
                2.1418567829346142,
                -2.110365529520185,
                0.020642813191397463
            ]
        },
        {
            "positions": [
                -0.9141851655972301,
                -0.6608881404252842,
                1.6633379327181028,
                2.1472314454685537,
                -2.2325590986721995,
                0.003418181496704257
            ]
        }
    ]
}