{
    "goal": {
        "global_pose": {
            "orientation": {
                "w": 0.7031023480610252,
                "x": -0.7110244013736278,
                "y": 0.0077485991402295624,
                "z": 0.005598929693374583
            },
            "position": {
                "x": -0.8841497679147869,
                "y": 0.44412534475326537,
                "z": 0.3711530566215515
            }
        },
        "name": "move_to_auspresseinheit_D"
    },
    "id": "LazyPRMstar_move_to_auspresseinheit_D_97",
    "joint_names": [
        "shoulder_pan_joint",
        "shoulder_lift_joint",
        "elbow_joint",
        "wrist_1_joint",
        "wrist_2_joint",
        "wrist_3_joint"
    ],
    "metrics": {
        "cart_traj_len": 0.3425089282115857,
        "distance_elbow_joint": 0.6347305836889365,
        "distance_shoulder_lift_joint": 0.11979289150671146,
        "distance_shoulder_pan_joint": 0.13326150294765013,
        "distance_wrist_1_joint": 0.5133335624525652,
        "distance_wrist_2_joint": 1.440977919877116,
        "distance_wrist_3_joint": 0.011103661877474025,
        "smoothness": 0.0,
        "time": 5.001605895000001,
        "traj_len": 1.6891418301464365,
        "weighted_distance": 2.197662150658077
    },
    "planner": "LazyPRMstar",
    "start": {
        "state": {
            "elbow_joint": -1.8275523626775212,
            "shoulder_lift_joint": -2.126789852344167,
            "shoulder_pan_joint": -0.03513704404078235,
            "wrist_1_joint": -2.347782403156801,
            "wrist_2_joint": -1.6058999987535132,
            "wrist_3_joint": -3.0880379163319196
        }
    },
    "waypoints": [
        {
            "positions": [
                -0.03513704404078235,
                -2.126789852344167,
                -1.8275523626775212,
                -2.347782403156801,
                -1.6058999987535132,
                -3.0880379163319196
            ]
        },
        {
            "positions": [
                -0.05179473190923861,
                -2.141763963782506,
                -1.7482110397164041,
                -2.4119490984633716,
                -1.4257777587688736,
                -3.089425874066604
            ]
        },
        {
            "positions": [
                -0.06845241977769488,
                -2.1567380752208445,
                -1.668869716755287,
                -2.4761157937699423,
                -1.2456555187842342,
                -3.090813831801288
            ]
        },
        {
            "positions": [
                -0.08511010764615115,
                -2.1717121866591835,
                -1.58952839379417,
                -2.540282489076513,
                -1.0655332787995948,
                -3.0922017895359724
            ]
        },
        {
            "positions": [
                -0.1017677955146074,
                -2.1866862980975226,
                -1.510187070833053,
                -2.6044491843830837,
                -0.8854110388149552,
                -3.0935897472706566
            ]
        },
        {
            "positions": [
                -0.11842548338306369,
                -2.2016604095358616,
                -1.4308457478719359,
                -2.668615879689654,
                -0.7052887988303157,
                -3.094977705005341
            ]
        },
        {
            "positions": [
                -0.13508317125151995,
                -2.2166345209742007,
                -1.3515044249108188,
                -2.7327825749962247,
                -0.5251665588456762,
                -3.096365662740025
            ]
        },
        {
            "positions": [
                -0.1517408591199762,
                -2.2316086324125393,
                -1.2721631019497017,
                -2.7969492703027954,
                -0.3450443188610368,
                -3.0977536204747094
            ]
        },
        {
            "positions": [
                -0.16839854698843248,
                -2.2465827438508783,
                -1.1928217789885847,
                -2.861115965609366,
                -0.1649220788763973,
                -3.0991415782093936
            ]
        }
    ]
}