{
    "goal": {
        "global_pose": {
            "orientation": {
                "w": 0.005598929693374612,
                "x": 0.007748599140229565,
                "y": 0.7110244013736278,
                "z": -0.7031023480610252
            },
            "position": {
                "x": 0.1141497679147869,
                "y": -0.7141253447532654,
                "z": 0.3711530566215515
            }
        },
        "name": "move_to_auspresseinheit_B"
    },
    "id": "LazyPRM_move_to_auspresseinheit_B_67",
    "joint_names": [
        "shoulder_pan_joint",
        "shoulder_lift_joint",
        "elbow_joint",
        "wrist_1_joint",
        "wrist_2_joint",
        "wrist_3_joint"
    ],
    "metrics": {
        "cart_traj_len": 0.5644273071757285,
        "distance_elbow_joint": 0.06615602054144643,
        "distance_shoulder_lift_joint": 0.2935739147769214,
        "distance_shoulder_pan_joint": 0.5768819509893541,
        "distance_wrist_1_joint": 0.33870293255590955,
        "distance_wrist_2_joint": 0.9910043567164399,
        "distance_wrist_3_joint": 0.0038655964110598795,
        "smoothness": 2.5376526478085547e-16,
        "time": 0.011762366,
        "traj_len": 1.5067132348231136,
        "weighted_distance": 1.8993744375676958
    },
    "planner": "LazyPRM",
    "start": {
        "state": {
            "elbow_joint": 2.0193083361928714,
            "shoulder_lift_joint": -1.1220246554650708,
            "shoulder_pan_joint": -1.0952077554168747,
            "wrist_1_joint": -0.8559753972642168,
            "wrist_2_joint": 0.4759566250798843,
            "wrist_3_joint": -3.1240929996934557
        }
    },
    "waypoints": [
        {
            "positions": [
                -1.0952077554168747,
                -1.1220246554650708,
                2.0193083361928714,
                -0.8559753972642168,
                0.4759566250798843,
                -3.1240929996934557
            ]
        },
        {
            "positions": [
                -1.1913547472484336,
                -1.1709536412612245,
                2.008282332769297,
                -0.7995249085048985,
                0.6411240178659576,
                -3.124737265761966
            ]
        },
        {
            "positions": [
                -1.2875017390799928,
                -1.219882627057378,
                1.9972563293457226,
                -0.7430744197455803,
                0.8062914106520309,
                -3.1253815318304756
            ]
        },
        {
            "positions": [
                -1.3836487309115517,
                -1.2688116128535314,
                1.9862303259221483,
                -0.6866239309862621,
                0.9714588034381042,
                -3.1260257978989854
            ]
        },
        {
            "positions": [
                -1.4797957227431107,
                -1.317740598649685,
                1.9752043224985738,
                -0.6301734422269438,
                1.1366261962241775,
                -3.1266700639674956
            ]
        },
        {
            "positions": [
                -1.5759427145746698,
                -1.3666695844458387,
                1.9641783190749993,
                -0.5737229534676255,
                1.301793589010251,
                -3.127314330036006
            ]
        },
        {
            "positions": [
                -1.6720897064062288,
                -1.4155985702419922,
                1.953152315651425,
                -0.5172724647083072,
                1.4669609817963243,
                -3.1279585961045155
            ]
        }
    ]
}