{
    "goal": {
        "global_pose": {
            "orientation": {
                "w": 0.7047431493862688,
                "x": -0.7094548369677653,
                "y": 0.0024358444001904,
                "z": -0.0022348060817251984
            },
            "position": {
                "x": -0.39052492380142206,
                "y": 0.3671506643295288,
                "z": 0.19426114857196808
            }
        },
        "name": "move_to_magneteinheit_D"
    },
    "id": "LazyPRMstar_move_to_magneteinheit_D_71",
    "joint_names": [
        "shoulder_pan_joint",
        "shoulder_lift_joint",
        "elbow_joint",
        "wrist_1_joint",
        "wrist_2_joint",
        "wrist_3_joint"
    ],
    "metrics": {
        "cart_traj_len": 3.715250537817499,
        "distance_elbow_joint": 3.1685706244340395,
        "distance_shoulder_lift_joint": 1.6672024601047342,
        "distance_shoulder_pan_joint": 3.138827270368228,
        "distance_wrist_1_joint": 1.5423660130559624,
        "distance_wrist_2_joint": 1.2241457408784198,
        "distance_wrist_3_joint": 3.1969541275710958,
        "smoothness": 0.1561093132400215,
        "time": 5.056112525,
        "traj_len": 3.7333719659863087,
        "weighted_distance": 4.806088455853581
    },
    "planner": "LazyPRMstar",
    "start": {
        "state": {
            "elbow_joint": 0.749534889911806,
            "shoulder_lift_joint": -0.6476975780787326,
            "shoulder_pan_joint": -2.711696901376241,
            "wrist_1_joint": -0.07506478083263063,
            "wrist_2_joint": 0.43296659715538205,
            "wrist_3_joint": -3.14703540197715
        }
    },
    "waypoints": [
        {
            "positions": [
                -2.711696901376241,
                -0.6476975780787326,
                0.749534889911806,
                -0.07506478083263063,
                0.43296659715538205,
                -3.14703540197715
            ]
        },
        {
            "positions": [
                -2.7315874514994296,
                -0.6427698574124456,
                0.6254937953825157,
                -0.04615137518325017,
                0.3359462453877494,
                -3.044383353988164
            ]
        },
        {
            "positions": [
                -2.751478001622618,
                -0.6378421367461586,
                0.5014527008532255,
                -0.01723796953386971,
                0.23892589362011682,
                -2.941731305999178
            ]
        },
        {
            "positions": [
                -2.771368551745806,
                -0.6329144160798716,
                0.3774116063239351,
                0.011675436115510751,
                0.14190554185248422,
                -2.8390792580101913
            ]
        },
        {
            "positions": [
                -2.7912591018689947,
                -0.6279866954135847,
                0.25337051179464487,
                0.040588841764891206,
                0.04488519008485159,
                -2.7364272100212053
            ]
        },
        {
            "positions": [
                -2.678224574776087,
                -0.6633989776947665,
                0.14989266494239023,
                0.0819201910243385,
                0.030473291193447733,
                -2.649712370818493
            ]
        },
        {
            "positions": [
                -2.565190047683179,
                -0.6988112599759484,
                0.04641481809013556,
                0.1232515402837858,
                0.016061392302043877,
                -2.5629975316157805
            ]
        },
        {
            "positions": [
                -2.452155520590271,
                -0.7342235422571304,
                -0.057063028762119106,
                0.16458288954323308,
                0.001649493410640017,
                -2.4762826924130685
            ]
        },
        {
            "positions": [
                -2.3391209934973634,
                -0.7696358245383123,
                -0.16054087561437375,
                0.2059142388026804,
                -0.012762405480763836,
                -2.389567853210356
            ]
        },
        {
            "positions": [
                -2.2260864664044555,
                -0.8050481068194941,
                -0.2640187224666285,
                0.2472455880621277,
                -0.027174304372167696,
                -2.3028530140076438
            ]
        },
        {
            "positions": [
                -2.1130519393115477,
                -0.8404603891006761,
                -0.3674965693188831,
                0.28857693732157497,
                -0.041586203263571556,
                -2.2161381748049314
            ]
        },
        {
            "positions": [
                -2.00001741221864,
                -0.875872671381858,
                -0.4709744161711378,
                0.3299082865810223,
                -0.055998102154975415,
                -2.129423335602219
            ]
        },
        {
            "positions": [
                -1.886982885125732,
                -0.9112849536630399,
                -0.5744522630233924,
                0.37123963584046954,
                -0.07041000104637926,
                -2.0427084963995066
            ]
        },
        {
            "positions": [
                -1.7739483580328241,
                -0.9466972359442217,
                -0.6779301098756471,
                0.41257098509991685,
                -0.08482189993778314,
                -1.9559936571967944
            ]
        },
        {
            "positions": [
                -1.6609138309399163,
                -0.9821095182254036,
                -0.7814079567279019,
                0.45390233435936417,
                -0.09923379882918698,
                -1.869278817994082
            ]
        },
        {
            "positions": [
                -1.5478793038470084,
                -1.0175218005065856,
                -0.8848858035801562,
                0.4952336836188114,
                -0.11364569772059083,
                -1.7825639787913699
            ]
        },
        {
            "positions": [
                -1.4348447767541006,
                -1.0529340827877673,
                -0.988363650432411,
                0.5365650328782587,
                -0.1280575966119947,
                -1.6958491395886575
            ]
        },
        {
            "positions": [
                -1.3218102496611928,
                -1.0883463650689493,
                -1.0918414972846655,
                0.577896382137706,
                -0.14246949550339855,
                -1.6091343003859453
            ]
        },
        {
            "positions": [
                -1.208775722568285,
                -1.1237586473501313,
                -1.1953193441369203,
                0.6192277313971534,
                -0.15688139439480242,
                -1.5224194611832327
            ]
        },
        {
            "positions": [
                -1.095741195475377,
                -1.1591709296313133,
                -1.2987971909891751,
                0.6605590806566006,
                -0.17129329328620627,
                -1.4357046219805205
            ]
        },
        {
            "positions": [
                -0.9827066683824692,
                -1.194583211912495,
                -1.4022750378414295,
                0.7018904299160479,
                -0.1857051921776101,
                -1.3489897827778083
            ]
        },
        {
            "positions": [
                -0.8696721412895614,
                -1.229995494193677,
                -1.5057528846936843,
                0.7432217791754953,
                -0.200117091069014,
                -1.2622749435750957
            ]
        },
        {
            "positions": [
                -0.7566376141966535,
                -1.2654077764748588,
                -1.609230731545939,
                0.7845531284349425,
                -0.21452898996041786,
                -1.1755601043723836
            ]
        },
        {
            "positions": [
                -0.6436030871037457,
                -1.3008200587560408,
                -1.7127085783981935,
                0.8258844776943898,
                -0.22894088885182168,
                -1.0888452651696714
            ]
        },
        {
            "positions": [
                -0.5305685600108379,
                -1.3362323410372228,
                -1.8161864252504487,
                0.8672158269538371,
                -0.24335278774322555,
                -1.0021304259669588
            ]
        },
        {
            "positions": [
                -0.41753403291793,
                -1.3716446233184045,
                -1.919664272102703,
                0.9085471762132844,
                -0.2577646866346294,
                -0.9154155867642466
            ]
        },
        {
            "positions": [
                -0.30449950582502217,
                -1.4070569055995863,
                -2.0231421189549574,
                0.9498785254727317,
                -0.27217658552603324,
                -0.8287007475615344
            ]
        },
        {
            "positions": [
                -0.19146497873211432,
                -1.4424691878807683,
                -2.1266199658072127,
                0.991209874732179,
                -0.2865884844174372,
                -0.7419859083588218
            ]
        },
        {
            "positions": [
                -0.07843045163920637,
                -1.4778814701619503,
                -2.230097812659467,
                1.0325412239916263,
                -0.301000383308841,
                -0.6552710691561094
            ]
        },
        {
            "positions": [
                -0.05461317452124678,
                -1.5786113726366104,
                -2.2652135237214672,
                1.08416709787822,
                -0.22816179553856022,
                -0.5623406159428623
            ]
        },
        {
            "positions": [
                -0.030795897403287198,
                -1.6793412751112706,
                -2.3003292347834674,
                1.1357929717648139,
                -0.15532320776827946,
                -0.4694101627296151
            ]
        },
        {
            "positions": [
                -0.006978620285327614,
                -1.7800711775859308,
                -2.335444945845468,
                1.1874188456514074,
                -0.08248461999799872,
                -0.376479709516368
            ]
        },
        {
            "positions": [
                0.01683865683263197,
                -1.8808010800605912,
                -2.370560656907468,
                1.2390447195380012,
                -0.009646032227717927,
                -0.2835492563031208
            ]
        },
        {
            "positions": [
                0.040655933950591555,
                -1.9815309825352514,
                -2.4056763679694684,
                1.290670593424595,
                0.06319255554256281,
                -0.1906188030898737
            ]
        },
        {
            "positions": [
                -0.03512741073470453,
                -2.0795134126412247,
                -2.4012232457852134,
                1.3495474730241739,
                0.10518782939682725,
                -0.11043962686193419
            ]
        },
        {
            "positions": [
                -0.11091075542000062,
                -2.1774958427471978,
                -2.396770123600958,
                1.4084243526237528,
                0.14718310325109168,
                -0.030260450633994684
            ]
        },
        {
            "positions": [
                -0.18669410010529672,
                -2.275478272853171,
                -2.392317001416703,
                1.4673012322233316,
                0.18917837710535612,
                0.04991872559394484
            ]
        }
    ]
}