{
    "goal": {
        "global_pose": {
            "orientation": {
                "w": -0.4816463035849501,
                "x": 0.5182115481033762,
                "y": 0.4908360881923453,
                "z": -0.5084816262002911
            },
            "position": {
                "x": -0.8240239810943604,
                "y": -0.300875300988555,
                "z": 0.16403168439865112
            }
        },
        "name": "move_to_storage_C"
    },
    "id": "LazyPRM_move_to_storage_C_112",
    "joint_names": [
        "shoulder_pan_joint",
        "shoulder_lift_joint",
        "elbow_joint",
        "wrist_1_joint",
        "wrist_2_joint",
        "wrist_3_joint"
    ],
    "metrics": {
        "cart_traj_len": 0.576894092254836,
        "distance_elbow_joint": 0.2579967976352868,
        "distance_shoulder_lift_joint": 0.19116991981929532,
        "distance_shoulder_pan_joint": 0.4922523010315114,
        "distance_wrist_1_joint": 0.06754214202857511,
        "distance_wrist_2_joint": 1.0821096015806404,
        "distance_wrist_3_joint": 0.055167127864176546,
        "smoothness": 2.5376526478085547e-16,
        "time": 0.011978657,
        "traj_len": 1.4650043992969732,
        "weighted_distance": 1.845595808755821
    },
    "planner": "LazyPRM",
    "start": {
        "state": {
            "elbow_joint": 2.010868314990456,
            "shoulder_lift_joint": -1.1634956873337592,
            "shoulder_pan_joint": -2.4736205022346125,
            "wrist_1_joint": -0.8367026794202681,
            "wrist_2_joint": 0.6746043897044499,
            "wrist_3_joint": -3.1496632123970403
        }
    },
    "waypoints": [
        {
            "positions": [
                -2.4736205022346125,
                -1.1634956873337592,
                2.010868314990456,
                -0.8367026794202681,
                0.6746043897044499,
                -3.1496632123970403
            ]
        },
        {
            "positions": [
                -2.555662552406531,
                -1.1316340340305433,
                1.9678688487179081,
                -0.8254456557488389,
                0.85495598996789,
                -3.140468691086344
            ]
        },
        {
            "positions": [
                -2.6377046025784496,
                -1.0997723807273274,
                1.9248693824453602,
                -0.8141886320774098,
                1.03530759023133,
                -3.131274169775648
            ]
        },
        {
            "positions": [
                -2.719746652750368,
                -1.0679107274241115,
                1.8818699161728123,
                -0.8029316084059805,
                1.2156591904947702,
                -3.1220796484649522
            ]
        },
        {
            "positions": [
                -2.8017887029222868,
                -1.0360490741208956,
                1.8388704499002646,
                -0.7916745847345513,
                1.39601079075821,
                -3.112885127154256
            ]
        },
        {
            "positions": [
                -2.8838307530942053,
                -1.0041874208176798,
                1.795870983627717,
                -0.7804175610631222,
                1.5763623910216502,
                -3.1036906058435596
            ]
        },
        {
            "positions": [
                -2.965872803266124,
                -0.9723257675144639,
                1.752871517355169,
                -0.769160537391693,
                1.7567139912850902,
                -3.0944960845328637
            ]
        }
    ]
}