{
    "goal": {
        "global_pose": {
            "orientation": {
                "w": 0.005598929693374612,
                "x": 0.007748599140229565,
                "y": 0.7110244013736278,
                "z": -0.7031023480610252
            },
            "position": {
                "x": 0.1141497679147869,
                "y": -0.7141253447532654,
                "z": 0.3711530566215515
            }
        },
        "name": "move_to_auspresseinheit_B"
    },
    "id": "LazyPRM_move_to_auspresseinheit_B_138",
    "joint_names": [
        "shoulder_pan_joint",
        "shoulder_lift_joint",
        "elbow_joint",
        "wrist_1_joint",
        "wrist_2_joint",
        "wrist_3_joint"
    ],
    "metrics": {
        "cart_traj_len": 0.563628555456656,
        "distance_elbow_joint": 0.05960218338404455,
        "distance_shoulder_lift_joint": 0.2954074163042264,
        "distance_shoulder_pan_joint": 0.5763732921949296,
        "distance_wrist_1_joint": 0.3195875795696541,
        "distance_wrist_2_joint": 0.9930484415705407,
        "distance_wrist_3_joint": 0.00731070319381244,
        "smoothness": 0.0,
        "time": 0.011683909999999999,
        "traj_len": 1.5004431399480649,
        "weighted_distance": 1.8917153707006316
    },
    "planner": "LazyPRM",
    "start": {
        "state": {
            "elbow_joint": 2.0193083361928714,
            "shoulder_lift_joint": -1.1220246554650708,
            "shoulder_pan_joint": -1.0952077554168747,
            "wrist_1_joint": -0.8559753972642168,
            "wrist_2_joint": 0.4759566250798843,
            "wrist_3_joint": -3.1240929996934557
        }
    },
    "waypoints": [
        {
            "positions": [
                -1.0952077554168747,
                -1.1220246554650708,
                2.0193083361928714,
                -0.8559753972642168,
                0.4759566250798843,
                -3.1240929996934557
            ]
        },
        {
            "positions": [
                -1.1912699707826961,
                -1.1712592248491085,
                2.009374638962197,
                -0.8027108006692745,
                0.6414646986749744,
                -3.1228745491611534
            ]
        },
        {
            "positions": [
                -1.2873321861485179,
                -1.2204937942331462,
                1.9994409417315233,
                -0.749446204074332,
                0.8069727722700646,
                -3.1216560986288515
            ]
        },
        {
            "positions": [
                -1.3833944015143396,
                -1.269728363617184,
                1.989507244500849,
                -0.6961816074793897,
                0.9724808458651546,
                -3.1204376480965497
            ]
        },
        {
            "positions": [
                -1.479456616880161,
                -1.3189629330012218,
                1.979573547270175,
                -0.6429170108844474,
                1.1379889194602448,
                -3.1192191975642474
            ]
        },
        {
            "positions": [
                -1.5755188322459825,
                -1.3681975023852595,
                1.969639850039501,
                -0.589652414289505,
                1.3034969930553348,
                -3.118000747031945
            ]
        },
        {
            "positions": [
                -1.6715810476118043,
                -1.4174320717692972,
                1.9597061528088269,
                -0.5363878176945627,
                1.469005066650425,
                -3.1167822964996432
            ]
        }
    ]
}