{
    "goal": {
        "global_pose": {
            "orientation": {
                "w": 0.5084816262002911,
                "x": -0.4908360881923452,
                "y": 0.5182115481033761,
                "z": -0.48164630358495003
            },
            "position": {
                "x": 0.5540239810943604,
                "y": -0.46912469901144505,
                "z": 0.16403168439865112
            }
        },
        "name": "move_to_storage_B"
    },
    "id": "LazyPRM_move_to_storage_B_43",
    "joint_names": [
        "shoulder_pan_joint",
        "shoulder_lift_joint",
        "elbow_joint",
        "wrist_1_joint",
        "wrist_2_joint",
        "wrist_3_joint"
    ],
    "metrics": {
        "cart_traj_len": 3.4960640466943613,
        "distance_elbow_joint": 0.5297378894548799,
        "distance_shoulder_lift_joint": 2.0939961981444877,
        "distance_shoulder_pan_joint": 3.782070225381011,
        "distance_wrist_1_joint": 3.018852346580614,
        "distance_wrist_2_joint": 2.700198122848944,
        "distance_wrist_3_joint": 3.1698268291271723,
        "smoothness": 0.2981491013573298,
        "time": 0.128657287,
        "traj_len": 3.910841547740986,
        "weighted_distance": 5.230046437577875
    },
    "planner": "LazyPRM",
    "start": {
        "state": {
            "elbow_joint": 1.664937868594044,
            "shoulder_lift_joint": -0.661644460510453,
            "shoulder_pan_joint": -0.9139846352900073,
            "wrist_1_joint": 2.146753192139373,
            "wrist_2_joint": -2.2341966793290973,
            "wrist_3_joint": 0.005466555786416001
        }
    },
    "waypoints": [
        {
            "positions": [
                -0.9139846352900073,
                -0.661644460510453,
                1.664937868594044,
                2.146753192139373,
                -2.2341966793290973,
                0.005466555786416001
            ]
        },
        {
            "positions": [
                -0.8239767837250032,
                -0.7255003210367237,
                1.6606216954355948,
                2.080502133549871,
                -2.1314259242700984,
                0.06756684197839943
            ]
        },
        {
            "positions": [
                -0.7339689321599989,
                -0.7893561815629945,
                1.6563055222771457,
                2.014251074960369,
                -2.0286551692110995,
                0.12966712817038287
            ]
        },
        {
            "positions": [
                -0.6439610805949948,
                -0.8532120420892652,
                1.6519893491186965,
                1.9480000163708664,
                -1.9258844141521005,
                0.1917674143623663
            ]
        },
        {
            "positions": [
                -0.5539532290299906,
                -0.917067902615536,
                1.6476731759602474,
                1.881748957781364,
                -1.8231136590931014,
                0.25386770055434976
            ]
        },
        {
            "positions": [
                -0.46394537746498643,
                -0.9809237631418066,
                1.6433570028017983,
                1.8154978991918618,
                -1.7203429040341025,
                0.3159679867463332
            ]
        },
        {
            "positions": [
                -0.3739375258999823,
                -1.0447796236680773,
                1.6390408296433494,
                1.7492468406023596,
                -1.6175721489751036,
                0.37806827293831663
            ]
        },
        {
            "positions": [
                -0.2839296743349782,
                -1.108635484194348,
                1.6347246564849003,
                1.6829957820128572,
                -1.5148013939161047,
                0.44016855913030006
            ]
        },
        {
            "positions": [
                -0.19392182276997383,
                -1.1724913447206187,
                1.6304084833264512,
                1.6167447234233547,
                -1.4120306388571056,
                0.5022688453222834
            ]
        },
        {
            "positions": [
                -0.1039139712049697,
                -1.2363472052468896,
                1.626092310168002,
                1.5504936648338528,
                -1.3092598837981066,
                0.5643691315142669
            ]
        },
        {
            "positions": [
                -0.013906119639965575,
                -1.30020306577316,
                1.621776137009553,
                1.4842426062443503,
                -1.2064891287391077,
                0.6264694177062503
            ]
        },
        {
            "positions": [
                0.07610173192503866,
                -1.364058926299431,
                1.6174599638511038,
                1.417991547654848,
                -1.1037183736801086,
                0.6885697038982338
            ]
        },
        {
            "positions": [
                0.16610958349004268,
                -1.4279147868257014,
                1.6131437906926547,
                1.351740489065346,
                -1.00094761862111,
                0.7506699900902172
            ]
        },
        {
            "positions": [
                0.2561174350550469,
                -1.4917706473519723,
                1.6088276175342056,
                1.2854894304758435,
                -0.8981768635621108,
                0.8127702762822007
            ]
        },
        {
            "positions": [
                0.34612528662005093,
                -1.555626507878243,
                1.6045114443757564,
                1.219238371886341,
                -0.7954061085031121,
                0.874870562474184
            ]
        },
        {
            "positions": [
                0.4361331381850554,
                -1.6194823684045137,
                1.6001952712173075,
                1.152987313296839,
                -0.692635353444113,
                0.9369708486661674
            ]
        },
        {
            "positions": [
                0.5261409897500596,
                -1.6833382289307846,
                1.5958790980588584,
                1.0867362547073365,
                -0.5898645983851138,
                0.9990711348581509
            ]
        },
        {
            "positions": [
                0.6161488413150636,
                -1.747194089457055,
                1.5915629249004093,
                1.0204851961178343,
                -0.48709384332611516,
                1.0611714210501344
            ]
        },
        {
            "positions": [
                0.7061566928800679,
                -1.811049949983326,
                1.5872467517419602,
                0.9542341375283321,
                -0.38432308826711603,
                1.123271707242118
            ]
        },
        {
            "positions": [
                0.7961645444450719,
                -1.8749058105095966,
                1.582930578583511,
                0.8879830789388299,
                -0.28155233320811734,
                1.1853719934341012
            ]
        },
        {
            "positions": [
                0.8861723960100762,
                -1.9387616710358673,
                1.578614405425062,
                0.8217320203493275,
                -0.17878157814911821,
                1.2474722796260846
            ]
        },
        {
            "positions": [
                0.7818611752689748,
                -1.8957680401085477,
                1.6019520068085302,
                0.7325830111498239,
                -0.1448456296402252,
                1.348936548325427
            ]
        },
        {
            "positions": [
                0.6775499545278734,
                -1.852774409181228,
                1.6252896081919985,
                0.6434340019503203,
                -0.11090968113133222,
                1.4504008170247693
            ]
        },
        {
            "positions": [
                0.5732387337867719,
                -1.8097807782539084,
                1.6486272095754668,
                0.5542849927508167,
                -0.07697373262243923,
                1.5518650857241116
            ]
        },
        {
            "positions": [
                0.46892751304567043,
                -1.7667871473265888,
                1.6719648109589351,
                0.46513598355131314,
                -0.043037784113546224,
                1.653329354423454
            ]
        },
        {
            "positions": [
                0.36461629230456893,
                -1.723793516399269,
                1.6953024123424034,
                0.37598697435180956,
                -0.009101835604653247,
                1.7547936231227963
            ]
        },
        {
            "positions": [
                0.2603050715634675,
                -1.6807998854719495,
                1.7186400137258717,
                0.286837965152306,
                0.024834112904239758,
                1.8562578918221384
            ]
        },
        {
            "positions": [
                0.15599385082236605,
                -1.6378062545446297,
                1.74197761510934,
                0.19768895595280245,
                0.05877006141313276,
                1.9577221605214807
            ]
        },
        {
            "positions": [
                0.05168263008126461,
                -1.5948126236173101,
                1.7653152164928083,
                0.10853994675329881,
                0.09270600992202577,
                2.059186429220823
            ]
        },
        {
            "positions": [
                -0.05262859065983683,
                -1.5518189926899906,
                1.7886528178762766,
                0.019390937553795284,
                0.12664195843091874,
                2.1606506979201656
            ]
        },
        {
            "positions": [
                -0.15693981140093838,
                -1.5088253617626708,
                1.811990419259745,
                -0.06975807164570835,
                0.16057790693981172,
                2.2621149666195075
            ]
        },
        {
            "positions": [
                -0.2612510321420398,
                -1.4658317308353512,
                1.8353280206432134,
                -0.158907080845212,
                0.19451385544870475,
                2.3635792353188503
            ]
        },
        {
            "positions": [
                -0.36556225288314126,
                -1.4228380999080317,
                1.8586656220266815,
                -0.24805609004471552,
                0.22844980395759773,
                2.465043504018192
            ]
        },
        {
            "positions": [
                -0.4698734736242429,
                -1.379844468980712,
                1.88200322341015,
                -0.33720509924421926,
                0.26238575246649076,
                2.566507772717535
            ]
        },
        {
            "positions": [
                -0.5741846943653441,
                -1.3368508380533923,
                1.9053408247936183,
                -0.42635410844372257,
                0.29632170097538374,
                2.667972041416877
            ]
        },
        {
            "positions": [
                -0.6784959151064458,
                -1.2938572071260728,
                1.9286784261770866,
                -0.5155031176432263,
                0.3302576494842767,
                2.7694363101162196
            ]
        },
        {
            "positions": [
                -0.782807135847547,
                -1.250863576198753,
                1.952016027560555,
                -0.6046521268427298,
                0.36419359799316975,
                2.8709005788155615
            ]
        },
        {
            "positions": [
                -0.8871183565886487,
                -1.2078699452714332,
                1.9753536289440232,
                -0.6938011360422336,
                0.3981295465020628,
                2.972364847514904
            ]
        },
        {
            "positions": [
                -0.9914295773297499,
                -1.1648763143441139,
                1.9986912303274915,
                -0.7829501452417369,
                0.4320654950109557,
                3.073829116214246
            ]
        },
        {
            "positions": [
                -1.0957407980708516,
                -1.121882683416794,
                2.02202883171096,
                -0.8720991544412408,
                0.46600144351984873,
                3.1752933849135885
            ]
        }
    ]
}