{
    "goal": {
        "global_pose": {
            "orientation": {
                "w": -0.00223480608172531,
                "x": 0.0024358444001904467,
                "y": 0.7094548369677653,
                "z": -0.704743149386269
            },
            "position": {
                "x": -0.37947507619857795,
                "y": -0.6371506643295288,
                "z": 0.19426114857196808
            }
        },
        "name": "move_to_magneteinheit_C"
    },
    "id": "LazyPRM_move_to_magneteinheit_C_91",
    "joint_names": [
        "shoulder_pan_joint",
        "shoulder_lift_joint",
        "elbow_joint",
        "wrist_1_joint",
        "wrist_2_joint",
        "wrist_3_joint"
    ],
    "metrics": {
        "cart_traj_len": 0.6339740739258157,
        "distance_elbow_joint": 0.7135647409720223,
        "distance_shoulder_lift_joint": 0.612120746888537,
        "distance_shoulder_pan_joint": 0.8025278371696614,
        "distance_wrist_1_joint": 0.3083088093650701,
        "distance_wrist_2_joint": 0.8522486516037758,
        "distance_wrist_3_joint": 1.173736221973154,
        "smoothness": 1.10006528640117,
        "time": 0.07224167399999999,
        "traj_len": 2.112464676147798,
        "weighted_distance": 2.823213933248307
    },
    "planner": "LazyPRM",
    "start": {
        "state": {
            "elbow_joint": 1.9565354010623817,
            "shoulder_lift_joint": -1.4165861575791021,
            "shoulder_pan_joint": -1.6717766225146293,
            "wrist_1_joint": -0.5286633292919765,
            "wrist_2_joint": 1.472756589071564,
            "wrist_3_joint": -3.1238370188695823
        }
    },
    "waypoints": [
        {
            "positions": [
                -1.6717766225146293,
                -1.4165861575791021,
                1.9565354010623817,
                -0.5286633292919765,
                1.472756589071564,
                -3.1238370188695823
            ]
        },
        {
            "positions": [
                -1.7673785919982723,
                -1.4389754863980238,
                2.0044212516016016,
                -0.556262450701249,
                1.3693938000593313,
                -3.0519977802831324
            ]
        },
        {
            "positions": [
                -1.862980561481915,
                -1.4613648152169454,
                2.052307102140822,
                -0.5838615721105217,
                1.2660310110470987,
                -2.9801585416966825
            ]
        },
        {
            "positions": [
                -1.958582530965558,
                -1.483754144035867,
                2.100192952680042,
                -0.6114606935197944,
                1.162668222034866,
                -2.908319303110232
            ]
        },
        {
            "positions": [
                -2.054184500449201,
                -1.506143472854789,
                2.1480788032192617,
                -0.6390598149290669,
                1.0593054330226337,
                -2.836480064523782
            ]
        },
        {
            "positions": [
                -2.1497864699328435,
                -1.5285328016737105,
                2.195964653758482,
                -0.6666589363383395,
                0.9559426440104011,
                -2.7646408259373323
            ]
        },
        {
            "positions": [
                -2.2453884394164865,
                -1.5509221304926322,
                2.243850504297702,
                -0.6942580577476122,
                0.8525798549981685,
                -2.692801587350882
            ]
        },
        {
            "positions": [
                -2.3409904089001294,
                -1.5733114593115538,
                2.2917363548369223,
                -0.7218571791568849,
                0.749217065985936,
                -2.620962348764432
            ]
        },
        {
            "positions": [
                -2.4365923783837724,
                -1.5957007881304754,
                2.339622205376142,
                -0.7494563005661574,
                0.6458542769737033,
                -2.549123110177982
            ]
        },
        {
            "positions": [
                -2.44603095667249,
                -1.5105818411229355,
                2.2753377112620963,
                -0.7672522392029629,
                0.6490166721725571,
                -2.666027071872688
            ]
        },
        {
            "positions": [
                -2.4554695349612077,
                -1.4254628941153953,
                2.211053217148051,
                -0.7850481778397683,
                0.6521790673714107,
                -2.782931033567394
            ]
        },
        {
            "positions": [
                -2.4649081132499253,
                -1.3403439471078553,
                2.146768723034005,
                -0.8028441164765738,
                0.6553414625702645,
                -2.8998349952620996
            ]
        },
        {
            "positions": [
                -2.469606286467108,
                -1.2515193094505834,
                2.0779564958759424,
                -0.8199081275668102,
                0.6632710395249415,
                -3.023990209360818
            ]
        },
        {
            "positions": [
                -2.4743044596842907,
                -1.1626946717933118,
                2.0091442687178804,
                -0.8369721386570466,
                0.6712006164796186,
                -3.148145423459536
            ]
        }
    ]
}