{
    "goal": {
        "global_pose": {
            "orientation": {
                "w": -0.00223480608172531,
                "x": 0.0024358444001904467,
                "y": 0.7094548369677653,
                "z": -0.704743149386269
            },
            "position": {
                "x": 0.6205249238014221,
                "y": -0.6371506643295288,
                "z": 0.19426114857196808
            }
        },
        "name": "move_to_magneteinheit_B"
    },
    "id": "LazyPRMstar_move_to_magneteinheit_B_112",
    "joint_names": [
        "shoulder_pan_joint",
        "shoulder_lift_joint",
        "elbow_joint",
        "wrist_1_joint",
        "wrist_2_joint",
        "wrist_3_joint"
    ],
    "metrics": {
        "cart_traj_len": 1.4779851059568916,
        "distance_elbow_joint": 0.9593406796294146,
        "distance_shoulder_lift_joint": 0.7576820514644188,
        "distance_shoulder_pan_joint": 1.6194312210559447,
        "distance_wrist_1_joint": 0.18240443526043304,
        "distance_wrist_2_joint": 1.5317097185614854,
        "distance_wrist_3_joint": 0.09289824864960965,
        "smoothness": 0.02473079635149459,
        "time": 5.010892911,
        "traj_len": 2.267921152646473,
        "weighted_distance": 2.6539361344505723
    },
    "planner": "LazyPRMstar",
    "start": {
        "state": {
            "elbow_joint": 2.6216224122426386,
            "shoulder_lift_joint": -1.4174107377796124,
            "shoulder_pan_joint": 0.7066234856936794,
            "wrist_1_joint": 1.9546482284002225,
            "wrist_2_joint": -0.7096286983471962,
            "wrist_3_joint": 0.005740856962016249
        }
    },
    "waypoints": [
        {
            "positions": [
                0.7066234856936794,
                -1.4174107377796124,
                2.6216224122426386,
                1.9546482284002225,
                -0.7096286983471962,
                0.005740856962016249
            ]
        },
        {
            "positions": [
                0.5948484158717169,
                -1.4157176367118942,
                2.614323612130537,
                1.9832475709272626,
                -0.7794405715571755,
                -0.019878306136348618
            ]
        },
        {
            "positions": [
                0.4830733460497545,
                -1.414024535644176,
                2.607024812018435,
                2.0118469134543027,
                -0.8492524447671548,
                -0.04549746923471349
            ]
        },
        {
            "positions": [
                0.36674992259875283,
                -1.3511665482000943,
                2.528296222068001,
                2.0222807259714988,
                -0.965259609112282,
                -0.04202580903030683
            ]
        },
        {
            "positions": [
                0.25042649914775117,
                -1.2883085607560123,
                2.449567632117567,
                2.032714538488695,
                -1.0812667734574093,
                -0.03855414882590017
            ]
        },
        {
            "positions": [
                0.1341030756967495,
                -1.2254505733119305,
                2.370839042167132,
                2.043148351005891,
                -1.1972739378025365,
                -0.03508248862149352
            ]
        },
        {
            "positions": [
                0.017779652245747846,
                -1.1625925858678485,
                2.292110452216698,
                2.053582163523087,
                -1.3132811021476636,
                -0.03161082841708686
            ]
        },
        {
            "positions": [
                -0.09854377120525382,
                -1.0997345984237668,
                2.2133818622662638,
                2.064015976040283,
                -1.429288266492791,
                -0.028139168212680195
            ]
        },
        {
            "positions": [
                -0.21486719465625548,
                -1.0368766109796848,
                2.1346532723158296,
                2.0744497885574793,
                -1.545295430837918,
                -0.02466750800827354
            ]
        },
        {
            "positions": [
                -0.33119061810725714,
                -0.974018623535603,
                2.0559246823653954,
                2.084883601074675,
                -1.6613025951830456,
                -0.02119584780386688
            ]
        },
        {
            "positions": [
                -0.4475140415582588,
                -0.9111606360915211,
                1.9771960924149612,
                2.095317413591871,
                -1.7773097595281726,
                -0.017724187599460223
            ]
        },
        {
            "positions": [
                -0.5638374650092606,
                -0.8483026486474392,
                1.8984675024645268,
                2.105751226109067,
                -1.8933169238732999,
                -0.014252527395053564
            ]
        },
        {
            "positions": [
                -0.6801608884602621,
                -0.7854446612033573,
                1.8197389125140924,
                2.1161850386262633,
                -2.009324088218427,
                -0.0107808671906469
            ]
        },
        {
            "positions": [
                -0.7964843119112637,
                -0.7225866737592754,
                1.7410103225636582,
                2.1266188511434594,
                -2.125331252563554,
                -0.007309206986240248
            ]
        },
        {
            "positions": [
                -0.9128077353622654,
                -0.6597286863151935,
                1.662281732613224,
                2.1370526636606555,
                -2.2413384169086816,
                -0.0038375467818335856
            ]
        }
    ]
}