{
    "goal": {
        "global_pose": {
            "orientation": {
                "w": 0.5084816262002911,
                "x": -0.4908360881923452,
                "y": 0.5182115481033761,
                "z": -0.48164630358495003
            },
            "position": {
                "x": 0.5540239810943604,
                "y": -0.46912469901144505,
                "z": 0.16403168439865112
            }
        },
        "name": "move_to_storage_B"
    },
    "id": "LazyPRMstar_move_to_storage_B_80",
    "joint_names": [
        "shoulder_pan_joint",
        "shoulder_lift_joint",
        "elbow_joint",
        "wrist_1_joint",
        "wrist_2_joint",
        "wrist_3_joint"
    ],
    "metrics": {
        "cart_traj_len": 0.8589173897716216,
        "distance_elbow_joint": 0.40204450031003924,
        "distance_shoulder_lift_joint": 0.4595950653499419,
        "distance_shoulder_pan_joint": 0.4448313712652562,
        "distance_wrist_1_joint": 2.995976378448417,
        "distance_wrist_2_joint": 2.7037593257874124,
        "distance_wrist_3_joint": 3.138165858087683,
        "smoothness": 0.04983948204384418,
        "time": 5.057329762,
        "traj_len": 3.1850231552139068,
        "weighted_distance": 4.703237174506506
    },
    "planner": "LazyPRMstar",
    "start": {
        "state": {
            "elbow_joint": 1.664937868594044,
            "shoulder_lift_joint": -0.661644460510453,
            "shoulder_pan_joint": -0.9139846352900073,
            "wrist_1_joint": 2.146753192139373,
            "wrist_2_joint": -2.2341966793290973,
            "wrist_3_joint": 0.005466555786416001
        }
    },
    "waypoints": [
        {
            "positions": [
                -0.9139846352900073,
                -0.661644460510453,
                1.664937868594044,
                2.146753192139373,
                -2.2341966793290973,
                0.005466555786416001
            ]
        },
        {
            "positions": [
                -0.8920758233433527,
                -0.724110705754936,
                1.727683113320897,
                2.060554586668048,
                -2.1667065032232014,
                -0.06151936940947003
            ]
        },
        {
            "positions": [
                -0.870167011396698,
                -0.7865769509994188,
                1.7904283580477502,
                1.9743559811967226,
                -2.099216327117306,
                -0.12850529460535606
            ]
        },
        {
            "positions": [
                -0.8482581994500433,
                -0.8490431962439018,
                1.8531736027746033,
                1.8881573757253975,
                -2.03172615101141,
                -0.19549121980124212
            ]
        },
        {
            "positions": [
                -0.8263493875033887,
                -0.9115094414883846,
                1.9159188475014564,
                1.8019587702540723,
                -1.9642359749055143,
                -0.2624771449971281
            ]
        },
        {
            "positions": [
                -0.8044405755567341,
                -0.9739756867328677,
                1.9786640922283096,
                1.715760164782747,
                -1.8967457987996184,
                -0.3294630701930142
            ]
        },
        {
            "positions": [
                -0.7825317636100795,
                -1.0364419319773506,
                2.0414093369551627,
                1.6295615593114217,
                -1.8292556226937227,
                -0.3964489953889002
            ]
        },
        {
            "positions": [
                -0.7974545493046189,
                -1.0404799126384479,
                2.0401915735290235,
                1.5115241904723518,
                -1.719788086067435,
                -0.5267466290513938
            ]
        },
        {
            "positions": [
                -0.8123773349991583,
                -1.0445178932995454,
                2.0389738101028847,
                1.393486821633282,
                -1.6103205494411474,
                -0.6570442627138875
            ]
        },
        {
            "positions": [
                -0.8273001206936978,
                -1.0485558739606426,
                2.0377560466767455,
                1.2754494527942122,
                -1.50085301281486,
                -0.7873418963763812
            ]
        },
        {
            "positions": [
                -0.8422229063882373,
                -1.05259385462174,
                2.0365382832506063,
                1.1574120839551425,
                -1.3913854761885724,
                -0.9176395300388748
            ]
        },
        {
            "positions": [
                -0.8571456920827767,
                -1.0566318352828372,
                2.0353205198244675,
                1.0393747151160726,
                -1.2819179395622848,
                -1.0479371637013686
            ]
        },
        {
            "positions": [
                -0.8720684777773161,
                -1.0606698159439347,
                2.0341027563983283,
                0.9213373462770028,
                -1.1724504029359974,
                -1.178234797363862
            ]
        },
        {
            "positions": [
                -0.8869912634718556,
                -1.064707796605032,
                2.032884992972189,
                0.803299977437933,
                -1.0629828663097098,
                -1.3085324310263557
            ]
        },
        {
            "positions": [
                -0.9019140491663951,
                -1.0687457772661293,
                2.0316672295460503,
                0.6852626085988632,
                -0.9535153296834222,
                -1.4388300646888492
            ]
        },
        {
            "positions": [
                -0.9168368348609345,
                -1.0727837579272268,
                2.030449466119911,
                0.5672252397597934,
                -0.8440477930571347,
                -1.569127698351343
            ]
        },
        {
            "positions": [
                -0.9317596205554739,
                -1.076821738588324,
                2.029231702693772,
                0.44918787092072376,
                -0.7345802564308472,
                -1.6994253320138366
            ]
        },
        {
            "positions": [
                -0.9466824062500134,
                -1.0808597192494214,
                2.028013939267633,
                0.33115050208165364,
                -0.6251127198045594,
                -1.8297229656763303
            ]
        },
        {
            "positions": [
                -0.9616051919445529,
                -1.0848976999105187,
                2.026796175841494,
                0.21311313324258396,
                -0.515645183178272,
                -1.960020599338824
            ]
        },
        {
            "positions": [
                -0.9765279776390923,
                -1.0889356805716162,
                2.0255784124153546,
                0.09507576440351406,
                -0.4061776465519844,
                -2.0903182330013177
            ]
        },
        {
            "positions": [
                -0.9914507633336317,
                -1.0929736612327134,
                2.024360648989216,
                -0.022961604435555616,
                -0.296710109925697,
                -2.2206158666638114
            ]
        },
        {
            "positions": [
                -1.006373549028171,
                -1.0970116418938107,
                2.0231428855630766,
                -0.14099897327462552,
                -0.1872425732994092,
                -2.350913500326305
            ]
        },
        {
            "positions": [
                -1.0212963347227106,
                -1.1010496225549082,
                2.0219251221369374,
                -0.2590363421136952,
                -0.0777750366731218,
                -2.4812111339887983
            ]
        },
        {
            "positions": [
                -1.03621912041725,
                -1.1050876032160055,
                2.0207073587107987,
                -0.3770737109527651,
                0.03169249995316581,
                -2.611508767651292
            ]
        },
        {
            "positions": [
                -1.0511419061117895,
                -1.1091255838771028,
                2.0194895952846594,
                -0.4951110797918348,
                0.1411600365794532,
                -2.7418064013137857
            ]
        },
        {
            "positions": [
                -1.066064691806329,
                -1.1131635645382,
                2.01827183185852,
                -0.6131484486309045,
                0.2506275732057408,
                -2.8721040349762794
            ]
        },
        {
            "positions": [
                -1.0809874775008683,
                -1.1172015451992976,
                2.0170540684323814,
                -0.7311858174699741,
                0.3600951098320282,
                -3.002401668638773
            ]
        },
        {
            "positions": [
                -1.0959102631954079,
                -1.1212395258603949,
                2.0158363050062422,
                -0.8492231863090444,
                0.4695626464583162,
                -3.132699302301267
            ]
        }
    ]
}