{
    "goal": {
        "global_pose": {
            "orientation": {
                "w": -0.00223480608172531,
                "x": 0.0024358444001904467,
                "y": 0.7094548369677653,
                "z": -0.704743149386269
            },
            "position": {
                "x": -0.37947507619857795,
                "y": -0.6371506643295288,
                "z": 0.19426114857196808
            }
        },
        "name": "move_to_magneteinheit_C"
    },
    "id": "LazyPRMstar_move_to_magneteinheit_C_21",
    "joint_names": [
        "shoulder_pan_joint",
        "shoulder_lift_joint",
        "elbow_joint",
        "wrist_1_joint",
        "wrist_2_joint",
        "wrist_3_joint"
    ],
    "metrics": {
        "cart_traj_len": 0.7267825598713905,
        "distance_elbow_joint": 0.3222440750349893,
        "distance_shoulder_lift_joint": 0.9973577799554627,
        "distance_shoulder_pan_joint": 0.8282010371420003,
        "distance_wrist_1_joint": 0.8657635921677611,
        "distance_wrist_2_joint": 0.7883963190887747,
        "distance_wrist_3_joint": 0.2732481478325859,
        "smoothness": 1.176647792272828,
        "time": 5.005440275000001,
        "traj_len": 2.018715173376763,
        "weighted_distance": 2.505168089798224
    },
    "planner": "LazyPRMstar",
    "start": {
        "state": {
            "elbow_joint": 1.9565354010623817,
            "shoulder_lift_joint": -1.4165861575791021,
            "shoulder_pan_joint": -1.6717766225146293,
            "wrist_1_joint": -0.5286633292919765,
            "wrist_2_joint": 1.472756589071564,
            "wrist_3_joint": -3.1238370188695823
        }
    },
    "waypoints": [
        {
            "positions": [
                -1.6717766225146293,
                -1.4165861575791021,
                1.9565354010623817,
                -0.5286633292919765,
                1.472756589071564,
                -3.1238370188695823
            ]
        },
        {
            "positions": [
                -1.7800694471302478,
                -1.4786739125072845,
                1.987875631703647,
                -0.4813330768967009,
                1.3886482072060422,
                -3.104367633381887
            ]
        },
        {
            "positions": [
                -1.8883622717458663,
                -1.540761667435467,
                2.0192158623449123,
                -0.4340028245014253,
                1.3045398253405205,
                -3.0848982478941913
            ]
        },
        {
            "positions": [
                -1.996655096361485,
                -1.6028494223636494,
                2.050556092986178,
                -0.3866725721061497,
                1.220431443474999,
                -3.0654288624064954
            ]
        },
        {
            "positions": [
                -2.1049479209771036,
                -1.664937177291832,
                2.0818963236274435,
                -0.33934231971087414,
                1.1363230616094773,
                -3.0459594769188
            ]
        },
        {
            "positions": [
                -2.213240745592722,
                -1.7270249322200144,
                2.113236554268709,
                -0.2920120673155986,
                1.0522146797439555,
                -3.0264900914311044
            ]
        },
        {
            "positions": [
                -2.3215335702083406,
                -1.7891126871481968,
                2.144576784909974,
                -0.24468181492032298,
                0.9681062978784338,
                -3.007020705943409
            ]
        },
        {
            "positions": [
                -2.376345658966125,
                -1.7168395315938594,
                2.134519557699339,
                -0.3151569222646419,
                0.9011937671725714,
                -3.023923332701353
            ]
        },
        {
            "positions": [
                -2.4311577477239097,
                -1.6445663760395217,
                2.1244623304887043,
                -0.3856320296089609,
                0.8342812364667089,
                -3.0408259594592972
            ]
        },
        {
            "positions": [
                -2.485969836481694,
                -1.5722932204851843,
                2.1144051032780693,
                -0.45610713695327987,
                0.7673687057608464,
                -3.0577285862172414
            ]
        },
        {
            "positions": [
                -2.481300562090049,
                -1.4362892925773991,
                2.0797281000929053,
                -0.5795593888743301,
                0.7396992271681606,
                -3.0929699044281014
            ]
        },
        {
            "positions": [
                -2.4766312876984036,
                -1.300285364669614,
                2.0450510969077413,
                -0.7030116407953804,
                0.712029748575475,
                -3.1282112226389613
            ]
        },
        {
            "positions": [
                -2.4719620133067584,
                -1.1642814367618288,
                2.0103740937225774,
                -0.8264638927164306,
                0.6843602699827892,
                -3.1634525408498213
            ]
        }
    ]
}