{
    "goal": {
        "global_pose": {
            "orientation": {
                "w": 0.7047431493862688,
                "x": -0.7094548369677653,
                "y": 0.0024358444001904,
                "z": -0.0022348060817251984
            },
            "position": {
                "x": -0.39052492380142206,
                "y": 0.3671506643295288,
                "z": 0.19426114857196808
            }
        },
        "name": "move_to_magneteinheit_D"
    },
    "id": "LazyPRM_move_to_magneteinheit_D_132",
    "joint_names": [
        "shoulder_pan_joint",
        "shoulder_lift_joint",
        "elbow_joint",
        "wrist_1_joint",
        "wrist_2_joint",
        "wrist_3_joint"
    ],
    "metrics": {
        "cart_traj_len": 4.043447751450185,
        "distance_elbow_joint": 4.838766920070672,
        "distance_shoulder_lift_joint": 1.6355653891450868,
        "distance_shoulder_pan_joint": 2.9695372849978754,
        "distance_wrist_1_joint": 3.236277108558137,
        "distance_wrist_2_joint": 0.5147874861412424,
        "distance_wrist_3_joint": 3.8864067232918096,
        "smoothness": 0.24262681871624964,
        "time": 1.14011719,
        "traj_len": 4.132957888994857,
        "weighted_distance": 5.348384705075713
    },
    "planner": "LazyPRM",
    "start": {
        "state": {
            "elbow_joint": 0.749534889911806,
            "shoulder_lift_joint": -0.6476975780787326,
            "shoulder_pan_joint": -2.711696901376241,
            "wrist_1_joint": -0.07506478083263063,
            "wrist_2_joint": 0.43296659715538205,
            "wrist_3_joint": -3.14703540197715
        }
    },
    "waypoints": [
        {
            "positions": [
                -2.711696901376241,
                -0.6476975780787326,
                0.749534889911806,
                -0.07506478083263063,
                0.43296659715538205,
                -3.14703540197715
            ]
        },
        {
            "positions": [
                -2.7196478528705677,
                -0.7413487698740038,
                0.8721570081264577,
                -0.03775012041493231,
                0.41241802844860775,
                -3.0389664250898294
            ]
        },
        {
            "positions": [
                -2.727598804364894,
                -0.8349999616692749,
                0.9947791263411095,
                -0.000435459997233989,
                0.39186945974183346,
                -2.9308974482025087
            ]
        },
        {
            "positions": [
                -2.7355497558592208,
                -0.9286511534645461,
                1.1174012445557613,
                0.03687920042046433,
                0.37132089103505916,
                -2.822828471315188
            ]
        },
        {
            "positions": [
                -2.743500707353547,
                -1.0223023452598174,
                1.2400233627704131,
                0.07419386083816265,
                0.35077232232828487,
                -2.7147594944278675
            ]
        },
        {
            "positions": [
                -2.7514516588478735,
                -1.1159535370550886,
                1.3626454809850648,
                0.11150852125586097,
                0.3302237536215106,
                -2.6066905175405464
            ]
        },
        {
            "positions": [
                -2.7594026103422,
                -1.2096047288503597,
                1.4852675991997166,
                0.1488231816735593,
                0.3096751849147363,
                -2.4986215406532257
            ]
        },
        {
            "positions": [
                -2.7673535618365266,
                -1.303255920645631,
                1.6078897174143685,
                0.1861378420912576,
                0.289126616207962,
                -2.390552563765905
            ]
        },
        {
            "positions": [
                -2.6583837095034073,
                -1.3277009234329118,
                1.5981863826940494,
                0.24928059921223678,
                0.2729460135301928,
                -2.2474582131860115
            ]
        },
        {
            "positions": [
                -2.549413857170288,
                -1.3521459262201925,
                1.5884830479737304,
                0.31242335633321594,
                0.2567654108524237,
                -2.1043638626061183
            ]
        },
        {
            "positions": [
                -2.440444004837169,
                -1.3765909290074734,
                1.5787797132534114,
                0.3755661134541951,
                0.24058480817465458,
                -1.9612695120262247
            ]
        },
        {
            "positions": [
                -2.33147415250405,
                -1.401035931794754,
                1.5690763785330926,
                0.43870887057517427,
                0.22440420549688544,
                -1.818175161446331
            ]
        },
        {
            "positions": [
                -2.2225043001709306,
                -1.425480934582035,
                1.5593730438127735,
                0.5018516276961534,
                0.20822360281911628,
                -1.6750808108664377
            ]
        },
        {
            "positions": [
                -2.1135344478378113,
                -1.4499259373693156,
                1.5496697090924545,
                0.5649943848171326,
                0.19204300014134718,
                -1.5319864602865443
            ]
        },
        {
            "positions": [
                -2.004564595504692,
                -1.4743709401565965,
                1.5399663743721355,
                0.6281371419381118,
                0.175862397463578,
                -1.3888921097066507
            ]
        },
        {
            "positions": [
                -1.9209792937062822,
                -1.4937792803726353,
                1.409452676291374,
                0.7027781862420249,
                0.17014744867353607,
                -1.312648057016841
            ]
        },
        {
            "positions": [
                -1.8373939919078721,
                -1.5131876205886738,
                1.2789389782106122,
                0.7774192305459381,
                0.16443249988349412,
                -1.2364040043270315
            ]
        },
        {
            "positions": [
                -1.7538086901094623,
                -1.5325959608047126,
                1.1484252801298505,
                0.8520602748498513,
                0.1587175510934522,
                -1.1601599516372219
            ]
        },
        {
            "positions": [
                -1.6702233883110524,
                -1.5520043010207514,
                1.017911582049089,
                0.9267013191537644,
                0.15300260230341026,
                -1.0839158989474122
            ]
        },
        {
            "positions": [
                -1.5866380865126426,
                -1.5714126412367901,
                0.8873978839683273,
                1.0013423634576775,
                0.1472876535133683,
                -1.0076718462576026
            ]
        },
        {
            "positions": [
                -1.5030527847142325,
                -1.5908209814528287,
                0.7568841858875657,
                1.0759834077615906,
                0.14157270472332636,
                -0.931427793567793
            ]
        },
        {
            "positions": [
                -1.4194674829158225,
                -1.6102293216688675,
                0.626370487806804,
                1.1506244520655038,
                0.13585775593328442,
                -0.8551837408779833
            ]
        },
        {
            "positions": [
                -1.3358821811174129,
                -1.6296376618849062,
                0.4958567897260424,
                1.225265496369417,
                0.1301428071432425,
                -0.7789396881881737
            ]
        },
        {
            "positions": [
                -1.2522968793190028,
                -1.649046002100945,
                0.36534309164528067,
                1.2999065406733301,
                0.12442785835320054,
                -0.7026956354983641
            ]
        },
        {
            "positions": [
                -1.168711577520593,
                -1.6684543423169835,
                0.23482939356451915,
                1.3745475849772433,
                0.11871290956315861,
                -0.6264515828085545
            ]
        },
        {
            "positions": [
                -1.0851262757221831,
                -1.6878626825330223,
                0.10431569548375763,
                1.4491886292811564,
                0.11299796077311666,
                -0.5502075301187449
            ]
        },
        {
            "positions": [
                -1.001540973923773,
                -1.707271022749061,
                -0.02619800259700411,
                1.5238296735850696,
                0.10728301198307472,
                -0.4739634774289353
            ]
        },
        {
            "positions": [
                -0.9179556721253632,
                -1.7266793629650996,
                -0.15671170067776563,
                1.5984707178889828,
                0.10156806319303278,
                -0.3977194247391258
            ]
        },
        {
            "positions": [
                -0.8343703703269532,
                -1.7460877031811384,
                -0.2872253987585274,
                1.673111762192896,
                0.09585311440299084,
                -0.321475372049316
            ]
        },
        {
            "positions": [
                -0.7507850685285433,
                -1.7654960433971771,
                -0.4177390968392889,
                1.747752806496809,
                0.09013816561294889,
                -0.24523131935950637
            ]
        },
        {
            "positions": [
                -0.6671997667301335,
                -1.784904383613216,
                -0.5482527949200506,
                1.8223938508007222,
                0.08442321682290696,
                -0.16898726666969677
            ]
        },
        {
            "positions": [
                -0.5836144649317236,
                -1.8043127238292547,
                -0.6787664930008119,
                1.8970348951046354,
                0.07870826803286501,
                -0.09274321397988738
            ]
        },
        {
            "positions": [
                -0.5000291631333136,
                -1.8237210640452932,
                -0.8092801910815741,
                1.9716759394085486,
                0.07299331924282307,
                -0.016499161290077557
            ]
        },
        {
            "positions": [
                -0.41644386133490374,
                -1.843129404261332,
                -0.9397938891623354,
                2.0463169837124617,
                0.06727837045278114,
                0.05974489139973205
            ]
        },
        {
            "positions": [
                -0.3328585595364939,
                -1.8625377444773707,
                -1.0703075872430972,
                2.120958028016375,
                0.06156342166273919,
                0.13598894408954165
            ]
        },
        {
            "positions": [
                -0.24927325773808406,
                -1.8819460846934093,
                -1.2008212853238585,
                2.195599072320288,
                0.05584847287269726,
                0.21223299677935104
            ]
        },
        {
            "positions": [
                -0.165687955939674,
                -1.901354424909448,
                -1.3313349834046202,
                2.270240116624201,
                0.05013352408265531,
                0.28847704946916086
            ]
        },
        {
            "positions": [
                -0.08210265414126414,
                -1.9207627651254868,
                -1.4618486814853817,
                2.3448811609281144,
                0.04441857529261336,
                0.3647211021589706
            ]
        },
        {
            "positions": [
                -0.06651729095672584,
                -1.9664925842872603,
                -1.6145072964244476,
                2.3145966266334757,
                0.0488908251205343,
                0.31613844889446424
            ]
        },
        {
            "positions": [
                -0.050931927772187566,
                -2.0122224034490337,
                -1.7671659113635134,
                2.284312092338837,
                0.053363074948455234,
                0.2675557956299579
            ]
        },
        {
            "positions": [
                -0.03534656458764928,
                -2.0579522226108073,
                -1.9198245263025793,
                2.254027558044198,
                0.05783532477637617,
                0.2189731423654516
            ]
        },
        {
            "positions": [
                -0.019761201403110995,
                -2.1036820417725806,
                -2.072483141241645,
                2.2237430237495595,
                0.06230757460429711,
                0.17039048910094526
            ]
        },
        {
            "positions": [
                -0.053018854223945915,
                -2.1395982268628284,
                -2.1324909880240646,
                2.084704417825792,
                0.0839776675976551,
                0.1343265678814127
            ]
        },
        {
            "positions": [
                -0.08627650704478083,
                -2.1755144119530763,
                -2.192498834806484,
                1.9456658119020247,
                0.1056477605910131,
                0.09826264666188016
            ]
        },
        {
            "positions": [
                -0.11953415986561576,
                -2.2114305970433237,
                -2.2525066815889034,
                1.8066272059782575,
                0.1273178535843711,
                0.0621987254423476
            ]
        },
        {
            "positions": [
                -0.15279181268645067,
                -2.2473467821335715,
                -2.312514528371323,
                1.66758860005449,
                0.1489879465777291,
                0.026134804222815056
            ]
        },
        {
            "positions": [
                -0.1860494655072856,
                -2.2832629672238194,
                -2.3725223751537423,
                1.5285499941307228,
                0.17065803957108708,
                -0.009929116996717492
            ]
        }
    ]
}