{
    "goal": {
        "global_pose": {
            "orientation": {
                "w": -0.00223480608172531,
                "x": 0.0024358444001904467,
                "y": 0.7094548369677653,
                "z": -0.704743149386269
            },
            "position": {
                "x": -0.37947507619857795,
                "y": -0.6371506643295288,
                "z": 0.19426114857196808
            }
        },
        "name": "move_to_magneteinheit_C"
    },
    "id": "LazyPRM_move_to_magneteinheit_C_36",
    "joint_names": [
        "shoulder_pan_joint",
        "shoulder_lift_joint",
        "elbow_joint",
        "wrist_1_joint",
        "wrist_2_joint",
        "wrist_3_joint"
    ],
    "metrics": {
        "cart_traj_len": 1.5215634641128277,
        "distance_elbow_joint": 0.6352277471795778,
        "distance_shoulder_lift_joint": 2.931154948798729,
        "distance_shoulder_pan_joint": 2.089466244858403,
        "distance_wrist_1_joint": 3.204387880796819,
        "distance_wrist_2_joint": 1.294880215265858,
        "distance_wrist_3_joint": 2.339977826922383,
        "smoothness": 1.1875153095999493,
        "time": 0.192188091,
        "traj_len": 3.534840146855551,
        "weighted_distance": 4.655568559663709
    },
    "planner": "LazyPRM",
    "start": {
        "state": {
            "elbow_joint": 1.9565354010623817,
            "shoulder_lift_joint": -1.4165861575791021,
            "shoulder_pan_joint": -1.6717766225146293,
            "wrist_1_joint": -0.5286633292919765,
            "wrist_2_joint": 1.472756589071564,
            "wrist_3_joint": -3.1238370188695823
        }
    },
    "waypoints": [
        {
            "positions": [
                -1.6717766225146293,
                -1.4165861575791021,
                1.9565354010623817,
                -0.5286633292919765,
                1.472756589071564,
                -3.1238370188695823
            ]
        },
        {
            "positions": [
                -1.6577413710133677,
                -1.4252820525134802,
                2.001115988688262,
                -0.6062927623221156,
                1.51444964865822,
                -2.931015167746759
            ]
        },
        {
            "positions": [
                -1.6437061195121063,
                -1.4339779474478582,
                2.0456965763141417,
                -0.6839221953522546,
                1.5561427082448758,
                -2.738193316623936
            ]
        },
        {
            "positions": [
                -1.629670868010845,
                -1.442673842382236,
                2.090277163940022,
                -0.7615516283823938,
                1.5978357678315318,
                -2.5453714655011126
            ]
        },
        {
            "positions": [
                -1.6156356165095833,
                -1.4513697373166141,
                2.134857751565902,
                -0.8391810614125328,
                1.6395288274181878,
                -2.3525496143782894
            ]
        },
        {
            "positions": [
                -1.6016003650083217,
                -1.4600656322509922,
                2.179438339191782,
                -0.916810494442672,
                1.6812218870048437,
                -2.159727763255466
            ]
        },
        {
            "positions": [
                -1.5875651135070603,
                -1.4687615271853702,
                2.2240189268176622,
                -0.9944399274728111,
                1.7229149465914997,
                -1.9669059121326429
            ]
        },
        {
            "positions": [
                -1.6839355375447385,
                -1.554534604776897,
                2.2291043221982996,
                -0.8976569156216617,
                1.6851506920833563,
                -2.0336492679724216
            ]
        },
        {
            "positions": [
                -1.7803059615824164,
                -1.640307682368424,
                2.2341897175789374,
                -0.8008739037705124,
                1.6473864375752127,
                -2.1003926238122004
            ]
        },
        {
            "positions": [
                -1.8766763856200945,
                -1.7260807599599508,
                2.2392751129595747,
                -0.7040908919193629,
                1.6096221830670694,
                -2.167135979651979
            ]
        },
        {
            "positions": [
                -1.9730468096577725,
                -1.8118538375514777,
                2.244360508340212,
                -0.6073078800682136,
                1.571857928558926,
                -2.233879335491758
            ]
        },
        {
            "positions": [
                -2.0694172336954506,
                -1.8976269151430043,
                2.2494459037208494,
                -0.5105248682170642,
                1.5340936740507825,
                -2.3006226913315366
            ]
        },
        {
            "positions": [
                -2.1657876577331288,
                -1.9833999927345314,
                2.254531299101487,
                -0.4137418563659149,
                1.496329419542639,
                -2.3673660471713154
            ]
        },
        {
            "positions": [
                -2.2621580817708065,
                -2.069173070326058,
                2.2596166944821245,
                -0.3169588445147655,
                1.4585651650344957,
                -2.434109403011094
            ]
        },
        {
            "positions": [
                -2.3585285058084846,
                -2.154946147917585,
                2.264702089862762,
                -0.22017583266361607,
                1.4208009105263522,
                -2.500852758850873
            ]
        },
        {
            "positions": [
                -2.4548989298461628,
                -2.2407192255091117,
                2.2697874852433992,
                -0.12339282081246672,
                1.3830366560182088,
                -2.5675961146906516
            ]
        },
        {
            "positions": [
                -2.551269353883841,
                -2.326492303100639,
                2.274872880624037,
                -0.02660980896131737,
                1.3452724015100654,
                -2.6343394705304304
            ]
        },
        {
            "positions": [
                -2.647639777921519,
                -2.4122653806921655,
                2.2799582760046744,
                0.07017320288983186,
                1.307508147001922,
                -2.701082826370209
            ]
        },
        {
            "positions": [
                -2.744010201959197,
                -2.498038458283692,
                2.2850436713853117,
                0.16695621474098132,
                1.2697438924937785,
                -2.767826182209988
            ]
        },
        {
            "positions": [
                -2.8403806259968754,
                -2.583811535875219,
                2.290129066765949,
                0.2637392265921308,
                1.231979637985635,
                -2.8345695380497666
            ]
        },
        {
            "positions": [
                -2.936751050034553,
                -2.6695846134667462,
                2.295214462146587,
                0.36052223844328,
                1.1942153834774918,
                -2.9013128938895454
            ]
        },
        {
            "positions": [
                -3.033121474072231,
                -2.755357691058273,
                2.300299857527224,
                0.4573052502944295,
                1.1564511289693482,
                -2.968056249729324
            ]
        },
        {
            "positions": [
                -2.986479942798426,
                -2.6226590731149764,
                2.276011249967663,
                0.35006640822370083,
                1.1165962922923673,
                -2.983214281611721
            ]
        },
        {
            "positions": [
                -2.9398384115246206,
                -2.48996045517168,
                2.251722642408102,
                0.24282756615297216,
                1.0767414556153865,
                -2.998372313494118
            ]
        },
        {
            "positions": [
                -2.8931968802508155,
                -2.3572618372283833,
                2.2274340348485406,
                0.13558872408224348,
                1.0368866189384054,
                -3.0135303453765148
            ]
        },
        {
            "positions": [
                -2.8465553489770103,
                -2.224563219285087,
                2.203145427288979,
                0.028349882011514838,
                0.9970317822614246,
                -3.0286883772589115
            ]
        },
        {
            "positions": [
                -2.799913817703205,
                -2.09186460134179,
                2.178856819729418,
                -0.07888896005921386,
                0.9571769455844437,
                -3.0438464091413087
            ]
        },
        {
            "positions": [
                -2.7532722864293997,
                -1.9591659833984936,
                2.1545682121698566,
                -0.1861278021299425,
                0.9173221089074628,
                -3.0590044410237054
            ]
        },
        {
            "positions": [
                -2.7066307551555946,
                -1.8264673654551968,
                2.1302796046102954,
                -0.29336664420067127,
                0.8774672722304819,
                -3.074162472906102
            ]
        },
        {
            "positions": [
                -2.659989223881789,
                -1.6937687475119005,
                2.1059909970507342,
                -0.4006054862713998,
                0.8376124355535011,
                -3.0893205047884993
            ]
        },
        {
            "positions": [
                -2.613347692607984,
                -1.5610701295686038,
                2.0817023894911726,
                -0.5078443283421286,
                0.7977575988765201,
                -3.104478536670896
            ]
        },
        {
            "positions": [
                -2.566706161334179,
                -1.4283715116253073,
                2.0574137819316114,
                -0.6150831704128572,
                0.7579027621995391,
                -3.1196365685532927
            ]
        },
        {
            "positions": [
                -2.5200646300603733,
                -1.2956728936820108,
                2.03312517437205,
                -0.7223220124835859,
                0.7180479255225583,
                -3.13479460043569
            ]
        },
        {
            "positions": [
                -2.473423098786568,
                -1.1629742757387143,
                2.008836566812489,
                -0.8295608545543145,
                0.6781930888455774,
                -3.1499526323180866
            ]
        }
    ]
}