{
    "goal": {
        "global_pose": {
            "orientation": {
                "w": -0.4816463035849501,
                "x": 0.5182115481033762,
                "y": 0.4908360881923453,
                "z": -0.5084816262002911
            },
            "position": {
                "x": -0.8240239810943604,
                "y": 0.19912469901144506,
                "z": 0.16403168439865112
            }
        },
        "name": "move_to_storage_D"
    },
    "id": "LazyPRMstar_move_to_storage_D_147",
    "joint_names": [
        "shoulder_pan_joint",
        "shoulder_lift_joint",
        "elbow_joint",
        "wrist_1_joint",
        "wrist_2_joint",
        "wrist_3_joint"
    ],
    "metrics": {
        "cart_traj_len": 0.9150548323477199,
        "distance_elbow_joint": 0.5560401585924315,
        "distance_shoulder_lift_joint": 0.22376102255772734,
        "distance_shoulder_pan_joint": 1.1042113506286788,
        "distance_wrist_1_joint": 3.8226201590402287,
        "distance_wrist_2_joint": 2.4696516039472947,
        "distance_wrist_3_joint": 3.125825215665448,
        "smoothness": 0.22990827415439336,
        "time": 5.016887904,
        "traj_len": 3.3618610189048277,
        "weighted_distance": 4.883239877862875
    },
    "planner": "LazyPRMstar",
    "start": {
        "state": {
            "elbow_joint": -2.384821988534728,
            "shoulder_lift_joint": -2.2788054721415256,
            "shoulder_pan_joint": -0.1854694642142757,
            "wrist_1_joint": 1.4845938289331202,
            "wrist_2_joint": 0.17898776772866878,
            "wrist_3_joint": 0.037105688729662994
        }
    },
    "waypoints": [
        {
            "positions": [
                -0.1854694642142757,
                -2.2788054721415256,
                -2.384821988534728,
                1.4845938289331202,
                0.17898776772866878,
                0.037105688729662994
            ]
        },
        {
            "positions": [
                -0.08097613523260819,
                -2.247505353778364,
                -2.3381121363678354,
                1.4019064736104174,
                0.23545949276416328,
                0.015477937421029223
            ]
        },
        {
            "positions": [
                0.023517193749059334,
                -2.216205235415202,
                -2.291402284200943,
                1.3192191182877147,
                0.2919312177996578,
                -0.006149813887604549
            ]
        },
        {
            "positions": [
                0.12801052273072686,
                -2.1849051170520397,
                -2.24469243203405,
                1.2365317629650117,
                0.3484029428351523,
                -0.02777756519623832
            ]
        },
        {
            "positions": [
                0.23250385171239438,
                -2.153604998688878,
                -2.1979825798671575,
                1.1538444076423089,
                0.4048746678706468,
                -0.04940531650487209
            ]
        },
        {
            "positions": [
                0.3369971806940619,
                -2.122304880325716,
                -2.151272727700265,
                1.0711570523196061,
                0.4613463929061413,
                -0.07103306781350587
            ]
        },
        {
            "positions": [
                0.44149050967572945,
                -2.0910047619625542,
                -2.1045628755333725,
                0.9884696969969032,
                0.5178181179416358,
                -0.09266081912213964
            ]
        },
        {
            "positions": [
                0.4216050356449514,
                -2.092503108311669,
                -2.0930719986337443,
                0.8498656958675694,
                0.42903389903603883,
                -0.21749659861437487
            ]
        },
        {
            "positions": [
                0.4017195616141733,
                -2.094001454660784,
                -2.081581121734116,
                0.7112616947382356,
                0.3402496801304419,
                -0.3423323781066101
            ]
        },
        {
            "positions": [
                0.3818340875833953,
                -2.0954998010098986,
                -2.0700902448344882,
                0.5726576936089018,
                0.25146546122484487,
                -0.46716815759884533
            ]
        },
        {
            "positions": [
                0.36194861355261726,
                -2.0969981473590136,
                -2.05859936793486,
                0.43405369247956804,
                0.1626812423192479,
                -0.5920039370910806
            ]
        },
        {
            "positions": [
                0.3420631395218392,
                -2.0984964937081285,
                -2.0471084910352317,
                0.29544969135023413,
                0.0738970234136509,
                -0.7168397165833158
            ]
        },
        {
            "positions": [
                0.32217766549106114,
                -2.099994840057243,
                -2.0356176141356035,
                0.15684569022090034,
                -0.01488719549194606,
                -0.841675496075551
            ]
        },
        {
            "positions": [
                0.3022921914602831,
                -2.101493186406358,
                -2.0241267372359752,
                0.018241689091566426,
                -0.10367141439754313,
                -0.9665112755677863
            ]
        },
        {
            "positions": [
                0.28240671742950507,
                -2.102991532755473,
                -2.012635860336347,
                -0.12036231203776715,
                -0.19245563330313997,
                -1.0913470550600215
            ]
        },
        {
            "positions": [
                0.26252124339872696,
                -2.104489879104588,
                -2.0011449834367188,
                -0.25896631316710106,
                -0.28123985220873704,
                -1.2161828345522567
            ]
        },
        {
            "positions": [
                0.24263576936794892,
                -2.105988225453703,
                -1.9896541065370907,
                -0.39757031429643497,
                -0.370024071114334,
                -1.341018614044492
            ]
        },
        {
            "positions": [
                0.2227502953371709,
                -2.1074865718028173,
                -1.9781632296374627,
                -0.5361743154257687,
                -0.45880829001993084,
                -1.4658543935367272
            ]
        },
        {
            "positions": [
                0.20286482130639283,
                -2.1089849181519322,
                -1.9666723527378345,
                -0.6747783165551026,
                -0.5475925089255279,
                -1.5906901730289624
            ]
        },
        {
            "positions": [
                0.18297934727561477,
                -2.110483264501047,
                -1.9551814758382062,
                -0.8133823176844363,
                -0.6363767278311249,
                -1.7155259525211977
            ]
        },
        {
            "positions": [
                0.1630938732448367,
                -2.1119816108501617,
                -1.9436905989385782,
                -0.9519863188137704,
                -0.725160946736722,
                -1.840361732013433
            ]
        },
        {
            "positions": [
                0.1432083992140587,
                -2.1134799571992766,
                -1.93219972203895,
                -1.0905903199431042,
                -0.8139451656423188,
                -1.9651975115056681
            ]
        },
        {
            "positions": [
                0.12332292518328064,
                -2.1149783035483916,
                -1.9207088451393217,
                -1.2291943210724376,
                -0.9027293845479157,
                -2.090033290997903
            ]
        },
        {
            "positions": [
                0.10343745115250258,
                -2.1164766498975065,
                -1.9092179682396937,
                -1.367798322201772,
                -0.9915136034535129,
                -2.2148690704901384
            ]
        },
        {
            "positions": [
                0.08355197712172452,
                -2.1179749962466214,
                -1.8977270913400655,
                -1.5064023233311055,
                -1.08029782235911,
                -2.3397048499823736
            ]
        },
        {
            "positions": [
                0.06366650309094646,
                -2.119473342595736,
                -1.8862362144404372,
                -1.6450063244604394,
                -1.1690820412647067,
                -2.464540629474609
            ]
        },
        {
            "positions": [
                0.0437810290601684,
                -2.120971688944851,
                -1.8747453375408092,
                -1.7836103255897733,
                -1.257866260170304,
                -2.589376408966844
            ]
        },
        {
            "positions": [
                0.023895555029390336,
                -2.122470035293966,
                -1.863254460641181,
                -1.9222143267191072,
                -1.3466504790759006,
                -2.7142121884590793
            ]
        },
        {
            "positions": [
                0.004010080998612331,
                -2.1239683816430803,
                -1.851763583741553,
                -2.0608183278484407,
                -1.4354346979814974,
                -2.8390479679513145
            ]
        },
        {
            "positions": [
                -0.01587539303216573,
                -2.1254667279921953,
                -1.8402727068419247,
                -2.1994223289777746,
                -1.524218916887095,
                -2.9638837474435498
            ]
        },
        {
            "positions": [
                -0.03576086706294379,
                -2.12696507434131,
                -1.8287818299422964,
                -2.3380263301071085,
                -1.6130031357926917,
                -3.088719526935785
            ]
        }
    ]
}