{
    "goal": {
        "global_pose": {
            "orientation": {
                "w": 0.5084816217422485,
                "x": -0.49083608388900757,
                "y": 0.5182115435600281,
                "z": -0.4816462993621826
            },
            "position": {
                "x": 0.5540239810943604,
                "y": 0.030875300988554955,
                "z": 0.16403168439865112
            }
        },
        "name": "move_to_storage_A"
    },
    "id": "LazyPRM_move_to_storage_A_44",
    "joint_names": [
        "shoulder_pan_joint",
        "shoulder_lift_joint",
        "elbow_joint",
        "wrist_1_joint",
        "wrist_2_joint",
        "wrist_3_joint"
    ],
    "metrics": {
        "cart_traj_len": 0.3532566637945957,
        "distance_elbow_joint": 0.45550210535126623,
        "distance_shoulder_lift_joint": 0.23380504496356602,
        "distance_shoulder_pan_joint": 0.4616913396665026,
        "distance_wrist_1_joint": 0.26344475049294547,
        "distance_wrist_2_joint": 1.1008250046183121,
        "distance_wrist_3_joint": 0.10773730119916891,
        "smoothness": 8.881784232165597e-16,
        "time": 0.021979945,
        "traj_len": 1.6195695558671634,
        "weighted_distance": 2.0500609512405616
    },
    "planner": "LazyPRM",
    "start": {
        "state": {
            "elbow_joint": 1.971548259319323,
            "shoulder_lift_joint": -1.1394851275133948,
            "shoulder_pan_joint": 0.1228115487234821,
            "wrist_1_joint": -0.7804723859257726,
            "wrist_2_joint": 0.12958671773740124,
            "wrist_3_joint": -3.192489227718131
        }
    },
    "waypoints": [
        {
            "positions": [
                0.1228115487234821,
                -1.1394851275133948,
                1.971548259319323,
                -0.7804723859257726,
                0.12958671773740124,
                -3.192489227718131
            ]
        },
        {
            "positions": [
                0.05685564305683888,
                -1.1728858482224758,
                2.036619988655218,
                -0.8181073502819077,
                0.2868474326828744,
                -3.1770981846896786
            ]
        },
        {
            "positions": [
                -0.009100262609804344,
                -1.2062865689315565,
                2.1016917179911134,
                -0.8557423146380427,
                0.4441081476283475,
                -3.1617071416612257
            ]
        },
        {
            "positions": [
                -0.07505616827644757,
                -1.2396872896406375,
                2.1667634473270083,
                -0.8933772789941778,
                0.6013688625738207,
                -3.146316098632773
            ]
        },
        {
            "positions": [
                -0.1410120739430908,
                -1.2730880103497182,
                2.2318351766629037,
                -0.9310122433503129,
                0.7586295775192938,
                -3.13092505560432
            ]
        },
        {
            "positions": [
                -0.20696797960973407,
                -1.3064887310587991,
                2.296906905998799,
                -0.968647207706448,
                0.915890292464767,
                -3.1155340125758677
            ]
        },
        {
            "positions": [
                -0.27292388527637723,
                -1.3398894517678799,
                2.361978635334694,
                -1.006282172062583,
                1.0731510074102402,
                -3.1001429695474148
            ]
        },
        {
            "positions": [
                -0.3388797909430205,
                -1.3732901724769608,
                2.427050364670589,
                -1.043917136418718,
                1.2304117223557134,
                -3.0847519265189622
            ]
        }
    ]
}{
    "goal": {
        "global_pose": {
            "orientation": {
                "w": 0.5084816217422485,
                "x": -0.49083608388900757,
                "y": 0.5182115435600281,
                "z": -0.4816462993621826
            },
            "position": {
                "x": 0.5540239810943604,
                "y": 0.030875300988554955,
                "z": 0.16403168439865112
            }
        },
        "name": "move_to_storage_A"
    },
    "id": "LazyPRM_move_to_storage_A_44",
    "joint_names": [
        "shoulder_pan_joint",
        "shoulder_lift_joint",
        "elbow_joint",
        "wrist_1_joint",
        "wrist_2_joint",
        "wrist_3_joint"
    ],
    "metrics": {
        "cart_traj_len": 0.35245449347774427,
        "distance_elbow_joint": 0.4503561485716303,
        "distance_shoulder_lift_joint": 0.23325597495873618,
        "distance_shoulder_pan_joint": 0.4603204643028775,
        "distance_wrist_1_joint": 0.24861190059848548,
        "distance_wrist_2_joint": 1.099318719080345,
        "distance_wrist_3_joint": 0.10602672977251082,
        "smoothness": 1.3322676295501878e-15,
        "time": 0.022059762,
        "traj_len": 1.6117971141817402,
        "weighted_distance": 2.0390865642508746
    },
    "planner": "LazyPRM",
    "start": {
        "state": {
            "elbow_joint": 1.97154746011099,
            "shoulder_lift_joint": -1.13948474672311,
            "shoulder_pan_joint": 0.12281154466712228,
            "wrist_1_joint": -0.7804688027058302,
            "wrist_2_joint": 0.12958655903071145,
            "wrist_3_joint": 3.0906928834467795
        }
    },
    "waypoints": [
        {
            "positions": [
                0.12281154466712228,
                -1.13948474672311,
                1.97154746011099,
                -0.7804688027058302,
                0.12958655903071145,
                3.0906928834467795
            ]
        },
        {
            "positions": [
                0.05705147833813978,
                -1.1728070288600723,
                2.03588405276408,
                -0.8159847885056138,
                0.2866320903279036,
                3.1058395591285666
            ]
        },
        {
            "positions": [
                -0.008708587990842717,
                -1.2061293109970346,
                2.10022064541717,
                -0.8515007743053975,
                0.4436776216250957,
                3.120986234810354
            ]
        },
        {
            "positions": [
                -0.0744686543198252,
                -1.2394515931339969,
                2.1645572380702602,
                -0.887016760105181,
                0.6007231529222878,
                3.136132910492141
            ]
        },
        {
            "positions": [
                -0.1402287206488077,
                -1.2727738752709592,
                2.22889383072335,
                -0.9225327459049647,
                0.7577686842194801,
                3.1512795861739287
            ]
        },
        {
            "positions": [
                -0.20598878697779022,
                -1.3060961574079215,
                2.29323042337644,
                -0.9580487317047484,
                0.9148142155166723,
                3.1664262618557157
            ]
        },
        {
            "positions": [
                -0.2717488533067727,
                -1.3394184395448838,
                2.35756701602953,
                -0.993564717504532,
                1.0718597468138642,
                3.1815729375375033
            ]
        },
        {
            "positions": [
                -0.3375089196357552,
                -1.3727407216818461,
                2.4219036086826202,
                -1.0290807033043157,
                1.2289052781110565,
                3.1967196132192903
            ]
        }
    ]
}{
    "goal": {
        "global_pose": {
            "orientation": {
                "w": 0.5084816217422485,
                "x": -0.49083608388900757,
                "y": 0.5182115435600281,
                "z": -0.4816462993621826
            },
            "position": {
                "x": 0.5540239810943604,
                "y": 0.030875300988554955,
                "z": 0.16403168439865112
            }
        },
        "name": "move_to_storage_A"
    },
    "id": "LazyPRM_move_to_storage_A_44",
    "joint_names": [
        "shoulder_pan_joint",
        "shoulder_lift_joint",
        "elbow_joint",
        "wrist_1_joint",
        "wrist_2_joint",
        "wrist_3_joint"
    ],
    "metrics": {
        "cart_traj_len": 0.35271393549860025,
        "distance_elbow_joint": 0.4506290219517761,
        "distance_shoulder_lift_joint": 0.23511092678640955,
        "distance_shoulder_pan_joint": 0.45797074184747744,
        "distance_wrist_1_joint": 0.2446737284626581,
        "distance_wrist_2_joint": 1.1125730843001438,
        "distance_wrist_3_joint": 0.08927280673375382,
        "smoothness": 6.661338165333112e-16,
        "time": 0.02190162,
        "traj_len": 1.6094192462134342,
        "weighted_distance": 2.0312613658297467
    },
    "planner": "LazyPRM",
    "start": {
        "state": {
            "elbow_joint": 1.9715472970024885,
            "shoulder_lift_joint": -1.1394870060712896,
            "shoulder_pan_joint": 0.12281152778156021,
            "wrist_1_joint": -0.780463741449964,
            "wrist_2_joint": 0.12958659822042276,
            "wrist_3_joint": 3.090690232415272
        }
    },
    "waypoints": [
        {
            "positions": [
                0.12281152778156021,
                -1.1394870060712896,
                1.9715472970024885,
                -0.780463741449964,
                0.12958659822042276,
                3.090690232415272
            ]
        },
        {
            "positions": [
                0.05738713608906344,
                -1.173074281326491,
                2.035922871567028,
                -0.8154171312303438,
                0.2885256102633004,
                3.103443490520094
            ]
        },
        {
            "positions": [
                -0.008037255603433324,
                -1.2066615565816923,
                2.1002984461315672,
                -0.8503705210107234,
                0.4474646223061781,
                3.116196748624916
            ]
        },
        {
            "positions": [
                -0.0734616472959301,
                -1.2402488318368936,
                2.164674020696107,
                -0.8853239107911032,
                0.6064036343490558,
                3.1289500067297378
            ]
        },
        {
            "positions": [
                -0.13888603898842686,
                -1.273836107092095,
                2.2290495952606464,
                -0.9202773005714829,
                0.7653426463919334,
                3.1417032648345598
            ]
        },
        {
            "positions": [
                -0.20431043068092367,
                -1.3074233823472965,
                2.293425169825186,
                -0.9552306903518626,
                0.9242816584348111,
                3.1544565229393817
            ]
        },
        {
            "positions": [
                -0.2697348223734204,
                -1.3410106576024978,
                2.357800744389725,
                -0.9901840801322424,
                1.0832206704776888,
                3.1672097810442037
            ]
        },
        {
            "positions": [
                -0.3351592140659172,
                -1.3745979328576992,
                2.4221763189542647,
                -1.0251374699126221,
                1.2421596825205665,
                3.1799630391490257
            ]
        }
    ]
}