{
    "goal": {
        "global_pose": {
            "orientation": {
                "w": -0.00223480608172531,
                "x": 0.0024358444001904467,
                "y": 0.7094548369677653,
                "z": -0.704743149386269
            },
            "position": {
                "x": -0.37947507619857795,
                "y": -0.6371506643295288,
                "z": 0.19426114857196808
            }
        },
        "name": "move_to_magneteinheit_C"
    },
    "id": "LazyPRMstar_move_to_magneteinheit_C_1",
    "joint_names": [
        "shoulder_pan_joint",
        "shoulder_lift_joint",
        "elbow_joint",
        "wrist_1_joint",
        "wrist_2_joint",
        "wrist_3_joint"
    ],
    "metrics": {
        "cart_traj_len": 0.6581948353616124,
        "distance_elbow_joint": 0.7703066615335197,
        "distance_shoulder_lift_joint": 0.4059697703208538,
        "distance_shoulder_pan_joint": 0.9326448903833964,
        "distance_wrist_1_joint": 0.3130208117298696,
        "distance_wrist_2_joint": 0.8179645902569577,
        "distance_wrist_3_joint": 1.352021428633071,
        "smoothness": 0.8104977172581077,
        "time": 5.007836198000001,
        "traj_len": 2.14287847365586,
        "weighted_distance": 2.9029220471984147
    },
    "planner": "LazyPRMstar",
    "start": {
        "state": {
            "elbow_joint": 1.9565354010623817,
            "shoulder_lift_joint": -1.4165861575791021,
            "shoulder_pan_joint": -1.6717766225146293,
            "wrist_1_joint": -0.5286633292919765,
            "wrist_2_joint": 1.472756589071564,
            "wrist_3_joint": -3.1238370188695823
        }
    },
    "waypoints": [
        {
            "positions": [
                -1.6717766225146293,
                -1.4165861575791021,
                1.9565354010623817,
                -0.5286633292919765,
                1.472756589071564,
                -3.1238370188695823
            ]
        },
        {
            "positions": [
                -1.7617243532867823,
                -1.4293338202387118,
                2.0055060843436374,
                -0.5580998749022927,
                1.3897597874363692,
                -3.0431531789703175
            ]
        },
        {
            "positions": [
                -1.8516720840589354,
                -1.4420814828983213,
                2.0544767676248927,
                -0.5875364205126091,
                1.3067629858011742,
                -2.962469339071052
            ]
        },
        {
            "positions": [
                -1.9416198148310881,
                -1.4548291455579307,
                2.103447450906148,
                -0.6169729661229255,
                1.2237661841659793,
                -2.8817854991717873
            ]
        },
        {
            "positions": [
                -2.031567545603241,
                -1.4675768082175404,
                2.152418134187404,
                -0.6464095117332418,
                1.1407693825307845,
                -2.8011016592725224
            ]
        },
        {
            "positions": [
                -2.121515276375394,
                -1.4803244708771501,
                2.2013888174686596,
                -0.6758460573435581,
                1.0577725808955898,
                -2.720417819373257
            ]
        },
        {
            "positions": [
                -2.211463007147547,
                -1.4930721335367596,
                2.250359500749915,
                -0.7052826029538745,
                0.9747757792603948,
                -2.6397339794739922
            ]
        },
        {
            "positions": [
                -2.320703552753717,
                -1.489455910822845,
                2.289944302044735,
                -0.7436631794392091,
                0.870749190403411,
                -2.580792165480998
            ]
        },
        {
            "positions": [
                -2.429944098359887,
                -1.4858396881089304,
                2.329529103339555,
                -0.7820437559245437,
                0.7667226015464272,
                -2.521850351488004
            ]
        },
        {
            "positions": [
                -2.5391846439660566,
                -1.4822234653950157,
                2.3691139046343754,
                -0.8204243324098783,
                0.6626960126894434,
                -2.46290853749501
            ]
        },
        {
            "positions": [
                -2.5228754267330644,
                -1.4025646838396526,
                2.279681865143994,
                -0.8257392845628703,
                0.6646720161581527,
                -2.6356817743096346
            ]
        },
        {
            "positions": [
                -2.506566209500072,
                -1.3229059022842895,
                2.1902498256536127,
                -0.8310542367158622,
                0.666648019626862,
                -2.808455011124259
            ]
        },
        {
            "positions": [
                -2.4902569922670796,
                -1.2432471207289264,
                2.100817786163231,
                -0.8363691888688541,
                0.6686240230955713,
                -2.981228247938884
            ]
        },
        {
            "positions": [
                -2.4739477750340875,
                -1.1635883391735633,
                2.0113857466728495,
                -0.8416841410218461,
                0.6706000265642806,
                -3.1540014847535085
            ]
        }
    ]
}