{
    "goal": {
        "global_pose": {
            "orientation": {
                "w": -0.4816463035849501,
                "x": 0.5182115481033762,
                "y": 0.4908360881923453,
                "z": -0.5084816262002911
            },
            "position": {
                "x": -0.8240239810943604,
                "y": -0.300875300988555,
                "z": 0.16403168439865112
            }
        },
        "name": "move_to_storage_C"
    },
    "id": "LazyPRM_move_to_storage_C_53",
    "joint_names": [
        "shoulder_pan_joint",
        "shoulder_lift_joint",
        "elbow_joint",
        "wrist_1_joint",
        "wrist_2_joint",
        "wrist_3_joint"
    ],
    "metrics": {
        "cart_traj_len": 0.5765153445398342,
        "distance_elbow_joint": 0.25958810612771255,
        "distance_shoulder_lift_joint": 0.18809928552729027,
        "distance_shoulder_pan_joint": 0.49485702230754924,
        "distance_wrist_1_joint": 0.08580291735506707,
        "distance_wrist_2_joint": 1.0662459519112888,
        "distance_wrist_3_joint": 0.07615478710714418,
        "smoothness": 2.5376526478085547e-16,
        "time": 0.011769309,
        "traj_len": 1.4733458760033409,
        "weighted_distance": 1.8641637572425596
    },
    "planner": "LazyPRM",
    "start": {
        "state": {
            "elbow_joint": 2.010868314990456,
            "shoulder_lift_joint": -1.1634956873337592,
            "shoulder_pan_joint": -2.4736205022346125,
            "wrist_1_joint": -0.8367026794202681,
            "wrist_2_joint": 0.6746043897044499,
            "wrist_3_joint": -3.1496632123970403
        }
    },
    "waypoints": [
        {
            "positions": [
                -2.4736205022346125,
                -1.1634956873337592,
                2.010868314990456,
                -0.8367026794202681,
                0.6746043897044499,
                -3.1496632123970403
            ]
        },
        {
            "positions": [
                -2.556096672619204,
                -1.1321458064125443,
                1.967603630635837,
                -0.8224021931944236,
                0.8523120483563313,
                -3.136970747879183
            ]
        },
        {
            "positions": [
                -2.6385728430037956,
                -1.100795925491329,
                1.9243389462812184,
                -0.8081017069685791,
                1.0300197070082129,
                -3.1242782833613254
            ]
        },
        {
            "positions": [
                -2.721049013388387,
                -1.069446044570114,
                1.8810742619265994,
                -0.7938012207427345,
                1.2077273656600944,
                -3.1115858188434684
            ]
        },
        {
            "positions": [
                -2.8035251837729787,
                -1.038096163648899,
                1.8378095775719807,
                -0.7795007345168901,
                1.3854350243119757,
                -3.098893354325611
            ]
        },
        {
            "positions": [
                -2.88600135415757,
                -1.006746282727684,
                1.794544893217362,
                -0.7652002482910456,
                1.5631426829638573,
                -3.0862008898077535
            ]
        },
        {
            "positions": [
                -2.9684775245421617,
                -0.9753964018064689,
                1.7512802088627433,
                -0.750899762065201,
                1.7408503416157388,
                -3.073508425289896
            ]
        }
    ]
}