{
    "goal": {
        "global_pose": {
            "orientation": {
                "w": -0.00223480608172531,
                "x": 0.0024358444001904467,
                "y": 0.7094548369677653,
                "z": -0.704743149386269
            },
            "position": {
                "x": -0.37947507619857795,
                "y": -0.6371506643295288,
                "z": 0.19426114857196808
            }
        },
        "name": "move_to_magneteinheit_C"
    },
    "id": "LazyPRMstar_move_to_magneteinheit_C_64",
    "joint_names": [
        "shoulder_pan_joint",
        "shoulder_lift_joint",
        "elbow_joint",
        "wrist_1_joint",
        "wrist_2_joint",
        "wrist_3_joint"
    ],
    "metrics": {
        "cart_traj_len": 0.7536422969307148,
        "distance_elbow_joint": 1.001290093255573,
        "distance_shoulder_lift_joint": 1.1239385422557349,
        "distance_shoulder_pan_joint": 0.8013473473415857,
        "distance_wrist_1_joint": 0.5239317364797206,
        "distance_wrist_2_joint": 0.9227680722361326,
        "distance_wrist_3_joint": 0.1587387686599966,
        "smoothness": 1.3833676230282148,
        "time": 5.006600636,
        "traj_len": 2.128852874256167,
        "weighted_distance": 2.5092213745033716
    },
    "planner": "LazyPRMstar",
    "start": {
        "state": {
            "elbow_joint": 1.9565354010623817,
            "shoulder_lift_joint": -1.4165861575791021,
            "shoulder_pan_joint": -1.6717766225146293,
            "wrist_1_joint": -0.5286633292919765,
            "wrist_2_joint": 1.472756589071564,
            "wrist_3_joint": -3.1238370188695823
        }
    },
    "waypoints": [
        {
            "positions": [
                -1.6717766225146293,
                -1.4165861575791021,
                1.9565354010623817,
                -0.5286633292919765,
                1.472756589071564,
                -3.1238370188695823
            ]
        },
        {
            "positions": [
                -1.785530044771361,
                -1.4891000930851075,
                2.044228872535054,
                -0.5969550408371582,
                1.483521748402353,
                -3.1126090595235323
            ]
        },
        {
            "positions": [
                -1.8992834670280923,
                -1.5616140285911129,
                2.1319223440077257,
                -0.66524675238234,
                1.494286907733142,
                -3.1013811001774823
            ]
        },
        {
            "positions": [
                -2.0130368892848236,
                -1.6341279640971185,
                2.219615815480398,
                -0.7335384639275218,
                1.5050520670639311,
                -3.090153140831432
            ]
        },
        {
            "positions": [
                -2.126790311541555,
                -1.7066418996031238,
                2.3073092869530702,
                -0.8018301754727035,
                1.5158172263947203,
                -3.078925181485382
            ]
        },
        {
            "positions": [
                -2.2405437337982868,
                -1.7791558351091292,
                2.395002758425742,
                -0.8701218870178853,
                1.5265823857255092,
                -3.067697222139332
            ]
        },
        {
            "positions": [
                -2.354297156055018,
                -1.8516697706151346,
                2.4826962298984143,
                -0.938413598563067,
                1.5373475450562983,
                -3.056469262793282
            ]
        },
        {
            "positions": [
                -2.3741016250218845,
                -1.7368606157451842,
                2.403508019161824,
                -0.9193833540282954,
                1.3943180256810654,
                -3.071697764890565
            ]
        },
        {
            "positions": [
                -2.3939060939887504,
                -1.6220514608752339,
                2.3243198084252343,
                -0.9003531094935238,
                1.2512885063058323,
                -3.0869262669878474
            ]
        },
        {
            "positions": [
                -2.4137105629556164,
                -1.5072423060052835,
                2.245131597688644,
                -0.8813228649587521,
                1.1082589869305992,
                -3.1021547690851303
            ]
        },
        {
            "positions": [
                -2.4335150319224828,
                -1.3924331511353332,
                2.165943386952054,
                -0.8622926204239804,
                0.9652294675553663,
                -3.117383271182413
            ]
        },
        {
            "positions": [
                -2.453319500889349,
                -1.2776239962653826,
                2.086755176215464,
                -0.8432623758892087,
                0.8221999481801332,
                -3.1326117732796956
            ]
        },
        {
            "positions": [
                -2.473123969856215,
                -1.1628148413954322,
                2.007566965478874,
                -0.8242321313544371,
                0.6791704288049002,
                -3.1478402753769785
            ]
        }
    ]
}