{
    "goal": {
        "global_pose": {
            "orientation": {
                "w": 0.005598929693374612,
                "x": 0.007748599140229565,
                "y": 0.7110244013736278,
                "z": -0.7031023480610252
            },
            "position": {
                "x": 0.1141497679147869,
                "y": -0.7141253447532654,
                "z": 0.3711530566215515
            }
        },
        "name": "move_to_auspresseinheit_B"
    },
    "id": "LazyPRMstar_move_to_auspresseinheit_B_33",
    "joint_names": [
        "shoulder_pan_joint",
        "shoulder_lift_joint",
        "elbow_joint",
        "wrist_1_joint",
        "wrist_2_joint",
        "wrist_3_joint"
    ],
    "metrics": {
        "cart_traj_len": 0.5644222931825187,
        "distance_elbow_joint": 0.06321805431468297,
        "distance_shoulder_lift_joint": 0.29481122662738146,
        "distance_shoulder_pan_joint": 0.5769287951480437,
        "distance_wrist_1_joint": 0.3353085924096282,
        "distance_wrist_2_joint": 0.9974719984924045,
        "distance_wrist_3_joint": 0.007321691447057965,
        "smoothness": 3.806478935924272e-16,
        "time": 5.000112505,
        "traj_len": 1.5083303213948858,
        "weighted_distance": 1.9032825150868555
    },
    "planner": "LazyPRMstar",
    "start": {
        "state": {
            "elbow_joint": 2.0193083361928714,
            "shoulder_lift_joint": -1.1220246554650708,
            "shoulder_pan_joint": -1.0952077554168747,
            "wrist_1_joint": -0.8559753972642168,
            "wrist_2_joint": 0.4759566250798843,
            "wrist_3_joint": -3.1240929996934557
        }
    },
    "waypoints": [
        {
            "positions": [
                -1.0952077554168747,
                -1.1220246554650708,
                2.0193083361928714,
                -0.8559753972642168,
                0.4759566250798843,
                -3.1240929996934557
            ]
        },
        {
            "positions": [
                -1.1913625546082152,
                -1.1711598599029678,
                2.008771993807091,
                -0.8000906318626121,
                0.6422019581619517,
                -3.1253132816012985
            ]
        },
        {
            "positions": [
                -1.287517353799556,
                -1.2202950643408645,
                1.9982356514213104,
                -0.7442058664610074,
                0.808447291244019,
                -3.126533563509142
            ]
        },
        {
            "positions": [
                -1.3836721529908966,
                -1.2694302687787615,
                1.98769930903553,
                -0.6883211010594027,
                0.9746926243260865,
                -3.1277538454169846
            ]
        },
        {
            "positions": [
                -1.4798269521822371,
                -1.3185654732166585,
                1.9771629666497494,
                -0.632436335657798,
                1.140937957408154,
                -3.1289741273248275
            ]
        },
        {
            "positions": [
                -1.5759817513735777,
                -1.3677006776545553,
                1.966626624263969,
                -0.5765515702561933,
                1.3071832904902214,
                -3.130194409232671
            ]
        },
        {
            "positions": [
                -1.6721365505649184,
                -1.4168358820924523,
                1.9560902818781885,
                -0.5206668048545886,
                1.4734286235722889,
                -3.1314146911405136
            ]
        }
    ]
}