{
    "goal": {
        "global_pose": {
            "orientation": {
                "w": -0.4816463035849501,
                "x": 0.5182115481033762,
                "y": 0.4908360881923453,
                "z": -0.5084816262002911
            },
            "position": {
                "x": -0.8240239810943604,
                "y": -0.300875300988555,
                "z": 0.16403168439865112
            }
        },
        "name": "move_to_storage_C"
    },
    "id": "LazyPRM_move_to_storage_C_39",
    "joint_names": [
        "shoulder_pan_joint",
        "shoulder_lift_joint",
        "elbow_joint",
        "wrist_1_joint",
        "wrist_2_joint",
        "wrist_3_joint"
    ],
    "metrics": {
        "cart_traj_len": 0.5760082548118066,
        "distance_elbow_joint": 0.25689435009759487,
        "distance_shoulder_lift_joint": 0.18895536326635654,
        "distance_shoulder_pan_joint": 0.49424599493352206,
        "distance_wrist_1_joint": 0.07844983260910932,
        "distance_wrist_2_joint": 1.0693859448523733,
        "distance_wrist_3_joint": 0.07454354702507837,
        "smoothness": 0.0,
        "time": 0.011680253,
        "traj_len": 1.470535627852666,
        "weighted_distance": 1.859945672404351
    },
    "planner": "LazyPRM",
    "start": {
        "state": {
            "elbow_joint": 2.010868314990456,
            "shoulder_lift_joint": -1.1634956873337592,
            "shoulder_pan_joint": -2.4736205022346125,
            "wrist_1_joint": -0.8367026794202681,
            "wrist_2_joint": 0.6746043897044499,
            "wrist_3_joint": -3.1496632123970403
        }
    },
    "waypoints": [
        {
            "positions": [
                -2.4736205022346125,
                -1.1634956873337592,
                2.010868314990456,
                -0.8367026794202681,
                0.6746043897044499,
                -3.1496632123970403
            ]
        },
        {
            "positions": [
                -2.555994834723533,
                -1.1320031267893664,
                1.96805258997419,
                -0.8236277073187499,
                0.8528353805131788,
                -3.1372392878928608
            ]
        },
        {
            "positions": [
                -2.638369167212453,
                -1.1005105662449737,
                1.9252368649579241,
                -0.8105527352172317,
                1.0310663713219077,
                -3.124815363388681
            ]
        },
        {
            "positions": [
                -2.7207434997013733,
                -1.069018005700581,
                1.8824211399416584,
                -0.7974777631157135,
                1.2092973621306364,
                -3.112391438884501
            ]
        },
        {
            "positions": [
                -2.803117832190294,
                -1.0375254451561882,
                1.8396054149253926,
                -0.7844027910141952,
                1.3875283529393654,
                -3.0999675143803214
            ]
        },
        {
            "positions": [
                -2.8854921646792144,
                -1.0060328846117954,
                1.7967896899091267,
                -0.771327818912677,
                1.5657593437480943,
                -3.087543589876142
            ]
        },
        {
            "positions": [
                -2.9678664971681346,
                -0.9745403240674027,
                1.753973964892861,
                -0.7582528468111588,
                1.743990334556823,
                -3.075119665371962
            ]
        }
    ]
}