{
    "goal": {
        "global_pose": {
            "orientation": {
                "w": 0.005598929693374612,
                "x": 0.007748599140229565,
                "y": 0.7110244013736278,
                "z": -0.7031023480610252
            },
            "position": {
                "x": -0.8858502320852131,
                "y": -0.7141253447532654,
                "z": 0.3711530566215515
            }
        },
        "name": "move_to_auspresseinheit_C"
    },
    "id": "LazyPRM_move_to_auspresseinheit_C_35",
    "joint_names": [
        "shoulder_pan_joint",
        "shoulder_lift_joint",
        "elbow_joint",
        "wrist_1_joint",
        "wrist_2_joint",
        "wrist_3_joint"
    ],
    "metrics": {
        "cart_traj_len": 0.49461888649429697,
        "distance_elbow_joint": 1.0139722371585183,
        "distance_shoulder_lift_joint": 0.33138607255927266,
        "distance_shoulder_pan_joint": 0.2567224667950523,
        "distance_wrist_1_joint": 0.7030587749164161,
        "distance_wrist_2_joint": 1.3167893301482128,
        "distance_wrist_3_joint": 0.08411423670136298,
        "smoothness": 3.2297397080004555e-16,
        "time": 0.012806609,
        "traj_len": 1.925108599087032,
        "weighted_distance": 2.42778081727865
    },
    "planner": "LazyPRM",
    "start": {
        "state": {
            "elbow_joint": 1.7527959577737207,
            "shoulder_lift_joint": -0.9740617694225068,
            "shoulder_pan_joint": -2.967991417825858,
            "wrist_1_joint": -0.759517768980727,
            "wrist_2_joint": 1.7443932448377408,
            "wrist_3_joint": -3.0840537646736568
        }
    },
    "waypoints": [
        {
            "positions": [
                -2.967991417825858,
                -0.9740617694225068,
                1.7527959577737207,
                -0.759517768980727,
                1.7443932448377408,
                -3.0840537646736568
            ]
        },
        {
            "positions": [
                -2.9423191711463526,
                -0.9409231621665795,
                1.6513987340578689,
                -0.6892118914890853,
                1.6127143118229195,
                -3.0924651883437932
            ]
        },
        {
            "positions": [
                -2.9166469244668476,
                -0.9077845549106522,
                1.550001510342017,
                -0.6189060139974437,
                1.4810353788080983,
                -3.1008766120139293
            ]
        },
        {
            "positions": [
                -2.890974677787342,
                -0.874645947654725,
                1.4486042866261652,
                -0.5486001365058021,
                1.349356445793277,
                -3.1092880356840658
            ]
        },
        {
            "positions": [
                -2.8653024311078372,
                -0.8415073403987977,
                1.3472070629103134,
                -0.4782942590141605,
                1.2176775127784558,
                -3.117699459354202
            ]
        },
        {
            "positions": [
                -2.839630184428332,
                -0.8083687331428704,
                1.2458098391944614,
                -0.4079883815225189,
                1.0859985797636345,
                -3.1261108830243383
            ]
        },
        {
            "positions": [
                -2.8139579377488264,
                -0.7752301258869432,
                1.1444126154786098,
                -0.33768250403087724,
                0.9543196467488132,
                -3.1345223066944747
            ]
        },
        {
            "positions": [
                -2.7882856910693214,
                -0.742091518631016,
                1.0430153917627578,
                -0.26737662653923566,
                0.822640713733992,
                -3.1429337303646108
            ]
        },
        {
            "positions": [
                -2.762613444389816,
                -0.7089529113750886,
                0.941618168046906,
                -0.19707074904759403,
                0.6909617807191706,
                -3.1513451540347472
            ]
        },
        {
            "positions": [
                -2.736941197710311,
                -0.6758143041191613,
                0.8402209443310542,
                -0.1267648715559524,
                0.5592828477043492,
                -3.1597565777048833
            ]
        },
        {
            "positions": [
                -2.7112689510308057,
                -0.6426756968632341,
                0.7388237206152024,
                -0.05645899406431081,
                0.4276039146895282,
                -3.1681680013750197
            ]
        }
    ]
}