{
    "goal": {
        "global_pose": {
            "orientation": {
                "w": 0.7047431493862688,
                "x": -0.7094548369677653,
                "y": 0.0024358444001904,
                "z": -0.0022348060817251984
            },
            "position": {
                "x": -0.39052492380142206,
                "y": 0.3671506643295288,
                "z": 0.19426114857196808
            }
        },
        "name": "move_to_magneteinheit_D"
    },
    "id": "LazyPRM_move_to_magneteinheit_D_72",
    "joint_names": [
        "shoulder_pan_joint",
        "shoulder_lift_joint",
        "elbow_joint",
        "wrist_1_joint",
        "wrist_2_joint",
        "wrist_3_joint"
    ],
    "metrics": {
        "cart_traj_len": 3.888489026273564,
        "distance_elbow_joint": 3.1306837207101412,
        "distance_shoulder_lift_joint": 1.6322078645157732,
        "distance_shoulder_pan_joint": 4.369334650904674,
        "distance_wrist_1_joint": 2.7295829294034832,
        "distance_wrist_2_joint": 1.9117216559726407,
        "distance_wrist_3_joint": 3.3120724270753366,
        "smoothness": 0.49762729538984557,
        "time": 0.84547242,
        "traj_len": 4.133473508876288,
        "weighted_distance": 5.3245706576313605
    },
    "planner": "LazyPRM",
    "start": {
        "state": {
            "elbow_joint": 0.749534889911806,
            "shoulder_lift_joint": -0.6476975780787326,
            "shoulder_pan_joint": -2.711696901376241,
            "wrist_1_joint": -0.07506478083263063,
            "wrist_2_joint": 0.43296659715538205,
            "wrist_3_joint": -3.14703540197715
        }
    },
    "waypoints": [
        {
            "positions": [
                -2.711696901376241,
                -0.6476975780787326,
                0.749534889911806,
                -0.07506478083263063,
                0.43296659715538205,
                -3.14703540197715
            ]
        },
        {
            "positions": [
                -2.7082594460132845,
                -0.6566081844798419,
                0.7404950709971659,
                -0.01113694059525025,
                0.29640940495364554,
                -2.983310144077324
            ]
        },
        {
            "positions": [
                -2.7048219906503275,
                -0.6655187908809512,
                0.7314552520825259,
                0.05279089964213013,
                0.15985221275190908,
                -2.8195848861774984
            ]
        },
        {
            "positions": [
                -2.701384535287371,
                -0.6744293972820605,
                0.7224154331678859,
                0.11671873987951051,
                0.023295020550172574,
                -2.6558596282776725
            ]
        },
        {
            "positions": [
                -2.6979470799244143,
                -0.6833400036831698,
                0.7133756142532459,
                0.1806465801168909,
                -0.11326217165156388,
                -2.4921343703778467
            ]
        },
        {
            "positions": [
                -2.6945096245614573,
                -0.6922506100842791,
                0.7043357953386059,
                0.2445744203542713,
                -0.24981936385330045,
                -2.328409112478021
            ]
        },
        {
            "positions": [
                -2.6910721691985007,
                -0.7011612164853884,
                0.6952959764239659,
                0.30850226059165164,
                -0.3863765560550369,
                -2.164683854578195
            ]
        },
        {
            "positions": [
                -2.708974220125625,
                -0.8252038315436256,
                0.6169361538994025,
                0.35909272216469,
                -0.4254622300488442,
                -2.1059661097907645
            ]
        },
        {
            "positions": [
                -2.726876271052749,
                -0.9492464466018629,
                0.5385763313748391,
                0.4096831837377284,
                -0.46454790404265145,
                -2.0472483650033344
            ]
        },
        {
            "positions": [
                -2.744778321979873,
                -1.0732890616601,
                0.46021650885027576,
                0.46027364531076675,
                -0.5036335780364587,
                -1.988530620215904
            ]
        },
        {
            "positions": [
                -2.7626803729069973,
                -1.1973316767183373,
                0.38185668632571235,
                0.5108641068838051,
                -0.542719252030266,
                -1.9298128754284738
            ]
        },
        {
            "positions": [
                -2.7805824238341215,
                -1.3213742917765745,
                0.303496863801149,
                0.5614545684568435,
                -0.5818049260240733,
                -1.8710951306410435
            ]
        },
        {
            "positions": [
                -2.648771827302205,
                -1.328952563885509,
                0.21380546010301238,
                0.6195475492943509,
                -0.5500341995469649,
                -1.7953822063976208
            ]
        },
        {
            "positions": [
                -2.5169612307702884,
                -1.3365308359944437,
                0.12411405640487574,
                0.6776405301318582,
                -0.5182634730698564,
                -1.7196692821541983
            ]
        },
        {
            "positions": [
                -2.3851506342383724,
                -1.3441091081033782,
                0.034422652706739165,
                0.7357335109693656,
                -0.486492746592748,
                -1.6439563579107757
            ]
        },
        {
            "positions": [
                -2.253340037706456,
                -1.3516873802123128,
                -0.0552687509913975,
                0.7938264918068729,
                -0.45472202011563956,
                -1.568243433667353
            ]
        },
        {
            "positions": [
                -2.1215294411745393,
                -1.3592656523212474,
                -0.1449601546895341,
                0.8519194726443802,
                -0.4229512936385311,
                -1.4925305094239305
            ]
        },
        {
            "positions": [
                -1.9897188446426228,
                -1.366843924430182,
                -0.23465155838767066,
                0.9100124534818876,
                -0.3911805671614227,
                -1.4168175851805078
            ]
        },
        {
            "positions": [
                -1.8579082481107068,
                -1.3744221965391168,
                -0.3243429620858073,
                0.9681054343193949,
                -0.35940984068431425,
                -1.3411046609370851
            ]
        },
        {
            "positions": [
                -1.72609765157879,
                -1.3820004686480514,
                -0.414034365783944,
                1.0261984151569021,
                -0.3276391142072058,
                -1.2653917366936627
            ]
        },
        {
            "positions": [
                -1.5942870550468737,
                -1.389578740756986,
                -0.5037257694820805,
                1.0842913959944096,
                -0.2958683877300974,
                -1.18967881245024
            ]
        },
        {
            "positions": [
                -1.4624764585149572,
                -1.3971570128659205,
                -0.5934171731802171,
                1.142384376831917,
                -0.26409766125298895,
                -1.1139658882068173
            ]
        },
        {
            "positions": [
                -1.330665861983041,
                -1.4047352849748551,
                -0.6831085768783538,
                1.200477357669424,
                -0.2323269347758805,
                -1.0382529639633948
            ]
        },
        {
            "positions": [
                -1.1988552654511244,
                -1.4123135570837897,
                -0.7727999805764902,
                1.2585703385069316,
                -0.20055620829877208,
                -0.962540039719972
            ]
        },
        {
            "positions": [
                -1.0670446689192081,
                -1.4198918291927243,
                -0.8624913842746269,
                1.316663319344439,
                -0.16878548182166364,
                -0.8868271154765495
            ]
        },
        {
            "positions": [
                -0.9352340723872918,
                -1.4274701013016589,
                -0.9521827879727636,
                1.374756300181946,
                -0.1370147553445552,
                -0.811114191233127
            ]
        },
        {
            "positions": [
                -0.8034234758553755,
                -1.4350483734105934,
                -1.0418741916709,
                1.4328492810194535,
                -0.10524402886744683,
                -0.7354012669897043
            ]
        },
        {
            "positions": [
                -0.6716128793234586,
                -1.442626645519528,
                -1.131565595369037,
                1.490942261856961,
                -0.07347330239033834,
                -0.6596883427462816
            ]
        },
        {
            "positions": [
                -0.5398022827915425,
                -1.4502049176284626,
                -1.2212569990671733,
                1.5490352426944685,
                -0.0417025759132299,
                -0.583975418502859
            ]
        },
        {
            "positions": [
                -0.407991686259626,
                -1.4577831897373972,
                -1.31094840276531,
                1.6071282235319755,
                -0.009931849436121465,
                -0.5082624942594365
            ]
        },
        {
            "positions": [
                -0.27618108972770994,
                -1.4653614618463318,
                -1.4006398064634464,
                1.665221204369483,
                0.02183887704098697,
                -0.4325495700160138
            ]
        },
        {
            "positions": [
                -0.14437049319579298,
                -1.4729397339552666,
                -1.4903312101615833,
                1.7233141852069904,
                0.053609603518095406,
                -0.3568366457725911
            ]
        },
        {
            "positions": [
                -0.012559896663876913,
                -1.4805180060642011,
                -1.5800226138597198,
                1.7814071660444977,
                0.08538032999520384,
                -0.2811237215291684
            ]
        },
        {
            "positions": [
                0.1192506998680396,
                -1.4880962781731357,
                -1.6697140175578564,
                1.839500146882005,
                0.11715105647231228,
                -0.20541079728574596
            ]
        },
        {
            "positions": [
                0.25106129639995567,
                -1.4956745502820703,
                -1.759405421255993,
                1.8975931277195122,
                0.1489217829494207,
                -0.12969787304232328
            ]
        },
        {
            "positions": [
                0.3828718929318726,
                -1.5032528223910049,
                -1.8490968249541295,
                1.9556861085570199,
                0.18069250942652915,
                -0.05398494879890059
            ]
        },
        {
            "positions": [
                0.5146824894637887,
                -1.5108310944999395,
                -1.9387882286522664,
                2.013779089394527,
                0.21246323590363758,
                0.021727975444522096
            ]
        },
        {
            "positions": [
                0.6464930859957054,
                -1.518409366608874,
                -2.028479632350403,
                2.0718720702320343,
                0.24423396238074602,
                0.09744089968794456
            ]
        },
        {
            "positions": [
                0.527618206815493,
                -1.6271945203211071,
                -2.0788609464143932,
                1.9886369161836317,
                0.23410378461097983,
                0.08778431034362405
            ]
        },
        {
            "positions": [
                0.40874332763528054,
                -1.7359796740333402,
                -2.129242260478384,
                1.905401762135229,
                0.22397360684121362,
                0.07812772099930353
            ]
        },
        {
            "positions": [
                0.28986844845506804,
                -1.8447648277455733,
                -2.179623574542374,
                1.8221666080868264,
                0.21384342907144743,
                0.068471131654983
            ]
        },
        {
            "positions": [
                0.1709935692748556,
                -1.9535499814578063,
                -2.230004888606364,
                1.7389314540384238,
                0.20371325130168122,
                0.05881454231066249
            ]
        },
        {
            "positions": [
                0.052118690094643094,
                -2.0623351351700396,
                -2.2803862026703543,
                1.655696299990021,
                0.19358307353191503,
                0.04915795296634197
            ]
        },
        {
            "positions": [
                -0.06675618908556935,
                -2.1711202888822725,
                -2.330767516734345,
                1.5724611459416185,
                0.18345289576214885,
                0.03950136362202146
            ]
        },
        {
            "positions": [
                -0.18563106826578182,
                -2.279905442594506,
                -2.381148830798335,
                1.4892259918932158,
                0.17332271799238264,
                0.02984477427770094
            ]
        }
    ]
}