{
    "goal": {
        "global_pose": {
            "orientation": {
                "w": 0.7047431493862688,
                "x": -0.7094548369677653,
                "y": 0.0024358444001904,
                "z": -0.0022348060817251984
            },
            "position": {
                "x": -0.39052492380142206,
                "y": 0.3671506643295288,
                "z": 0.19426114857196808
            }
        },
        "name": "move_to_magneteinheit_D"
    },
    "id": "LazyPRMstar_move_to_magneteinheit_D_104",
    "joint_names": [
        "shoulder_pan_joint",
        "shoulder_lift_joint",
        "elbow_joint",
        "wrist_1_joint",
        "wrist_2_joint",
        "wrist_3_joint"
    ],
    "metrics": {
        "cart_traj_len": 3.851118078894832,
        "distance_elbow_joint": 3.150957997047604,
        "distance_shoulder_lift_joint": 2.0964563468003696,
        "distance_shoulder_pan_joint": 3.1026940449735605,
        "distance_wrist_1_joint": 1.5802130952430489,
        "distance_wrist_2_joint": 1.3310129301571605,
        "distance_wrist_3_joint": 3.5292840076775773,
        "smoothness": 0.2962610652345501,
        "time": 5.049171562000001,
        "traj_len": 3.845857306492185,
        "weighted_distance": 4.975983567361802
    },
    "planner": "LazyPRMstar",
    "start": {
        "state": {
            "elbow_joint": 0.749534889911806,
            "shoulder_lift_joint": -0.6476975780787326,
            "shoulder_pan_joint": -2.711696901376241,
            "wrist_1_joint": -0.07506478083263063,
            "wrist_2_joint": 0.43296659715538205,
            "wrist_3_joint": -3.14703540197715
        }
    },
    "waypoints": [
        {
            "positions": [
                -2.711696901376241,
                -0.6476975780787326,
                0.749534889911806,
                -0.07506478083263063,
                0.43296659715538205,
                -3.14703540197715
            ]
        },
        {
            "positions": [
                -2.72873262939067,
                -0.6152948682008467,
                0.7043067512712493,
                -0.02760780135317297,
                0.3304070849597367,
                -3.074303361023318
            ]
        },
        {
            "positions": [
                -2.7457683574050993,
                -0.5828921583229607,
                0.6590786126306927,
                0.019849178126284686,
                0.22784757276409132,
                -3.0015713200694862
            ]
        },
        {
            "positions": [
                -2.7628040854195284,
                -0.5504894484450746,
                0.613850473990136,
                0.06730615760574232,
                0.125288060568446,
                -2.928839279115654
            ]
        },
        {
            "positions": [
                -2.7798398134339575,
                -0.5180867385671887,
                0.5686223353495793,
                0.1147631370852,
                0.022728548372800583,
                -2.8561072381618224
            ]
        },
        {
            "positions": [
                -2.7968755414483866,
                -0.4856840286893027,
                0.5233941967090227,
                0.16222011656465765,
                -0.07983096382284478,
                -2.7833751972079903
            ]
        },
        {
            "positions": [
                -2.7983869893933235,
                -0.468093849086786,
                0.4083919550915621,
                0.22993575677431824,
                -0.12424917069329781,
                -2.7203630447676956
            ]
        },
        {
            "positions": [
                -2.7998984373382605,
                -0.4505036694842692,
                0.2933897134741016,
                0.2976513969839788,
                -0.16866737756375083,
                -2.6573508923274005
            ]
        },
        {
            "positions": [
                -2.8014098852831975,
                -0.4329134898817524,
                0.1783874718566411,
                0.3653670371936394,
                -0.2130855844342039,
                -2.594338739887106
            ]
        },
        {
            "positions": [
                -2.8029213332281344,
                -0.41532331027923564,
                0.06338523023918058,
                0.4330826774033,
                -0.2575037913046569,
                -2.531326587446811
            ]
        },
        {
            "positions": [
                -2.696842460229896,
                -0.4568908517846474,
                -0.013854704571809498,
                0.46885802207081134,
                -0.2418623741132231,
                -2.4262474808866847
            ]
        },
        {
            "positions": [
                -2.5907635872316574,
                -0.4984583932900592,
                -0.09109463938279957,
                0.5046333667383227,
                -0.2262209569217893,
                -2.321168374326558
            ]
        },
        {
            "positions": [
                -2.484684714233419,
                -0.540025934795471,
                -0.16833457419378967,
                0.5404087114058341,
                -0.21057953973035554,
                -2.2160892677664314
            ]
        },
        {
            "positions": [
                -2.3786058412351805,
                -0.5815934763008828,
                -0.24557450900477973,
                0.5761840560733456,
                -0.19493812253892173,
                -2.111010161206305
            ]
        },
        {
            "positions": [
                -2.2725269682369422,
                -0.6231610178062945,
                -0.32281444381576985,
                0.6119594007408569,
                -0.17929670534748793,
                -2.005931054646178
            ]
        },
        {
            "positions": [
                -2.166448095238704,
                -0.6647285593117063,
                -0.4000543786267599,
                0.6477347454083683,
                -0.16365528815605415,
                -1.9008519480860517
            ]
        },
        {
            "positions": [
                -2.0603692222404657,
                -0.706296100817118,
                -0.4772943134377499,
                0.6835100900758797,
                -0.14801387096462038,
                -1.7957728415259253
            ]
        },
        {
            "positions": [
                -1.954290349242227,
                -0.7478636423225298,
                -0.5545342482487401,
                0.719285434743391,
                -0.13237245377318657,
                -1.6906937349657984
            ]
        },
        {
            "positions": [
                -1.8482114762439885,
                -0.7894311838279415,
                -0.6317741830597301,
                0.7550607794109024,
                -0.1167310365817528,
                -1.585614628405672
            ]
        },
        {
            "positions": [
                -1.74213260324575,
                -0.8309987253333533,
                -0.7090141178707203,
                0.7908361240784139,
                -0.10108961939031899,
                -1.4805355218455454
            ]
        },
        {
            "positions": [
                -1.6360537302475118,
                -0.872566266838765,
                -0.7862540526817103,
                0.8266114687459252,
                -0.08544820219888521,
                -1.3754564152854187
            ]
        },
        {
            "positions": [
                -1.529974857249273,
                -0.9141338083441769,
                -0.8634939874927003,
                0.8623868134134366,
                -0.06980678500745141,
                -1.270377308725292
            ]
        },
        {
            "positions": [
                -1.4238959842510348,
                -0.9557013498495887,
                -0.9407339223036904,
                0.898162158080948,
                -0.054165367816017634,
                -1.1652982021651657
            ]
        },
        {
            "positions": [
                -1.3178171112527965,
                -0.9972688913550004,
                -1.0179738571146804,
                0.9339375027484593,
                -0.03852395062458386,
                -1.0602190956050392
            ]
        },
        {
            "positions": [
                -1.211738238254558,
                -1.0388364328604123,
                -1.0952137919256704,
                0.9697128474159706,
                -0.022882533433150082,
                -0.9551399890449126
            ]
        },
        {
            "positions": [
                -1.1056593652563194,
                -1.080403974365824,
                -1.1724537267366606,
                1.0054881920834822,
                -0.00724111624171625,
                -0.850060882484786
            ]
        },
        {
            "positions": [
                -0.9995804922580811,
                -1.1219715158712358,
                -1.2496936615476506,
                1.0412635367509935,
                0.008400300949717499,
                -0.7449817759246593
            ]
        },
        {
            "positions": [
                -0.8935016192598426,
                -1.1635390573766475,
                -1.3269335963586406,
                1.0770388814185048,
                0.024041718141151303,
                -0.6399026693645329
            ]
        },
        {
            "positions": [
                -0.7874227462616044,
                -1.2051065988820593,
                -1.4041735311696306,
                1.1128142260860163,
                0.03968313533258511,
                -0.5348235628044062
            ]
        },
        {
            "positions": [
                -0.6813438732633657,
                -1.246674140387471,
                -1.481413465980621,
                1.1485895707535276,
                0.05532455252401891,
                -0.4297444562442796
            ]
        },
        {
            "positions": [
                -0.5752650002651274,
                -1.2882416818928828,
                -1.558653400791611,
                1.184364915421039,
                0.07096596971545266,
                -0.32466534968415317
            ]
        },
        {
            "positions": [
                -0.46918612726688913,
                -1.3298092233982945,
                -1.635893335602601,
                1.2201402600885505,
                0.08660738690688646,
                -0.2195862431240263
            ]
        },
        {
            "positions": [
                -0.3631072542686504,
                -1.3713767649037063,
                -1.713133270413591,
                1.2559156047560618,
                0.10224880409832027,
                -0.11450713656389988
            ]
        },
        {
            "positions": [
                -0.2570283812704117,
                -1.412944306409118,
                -1.7903732052245813,
                1.291690949423573,
                0.11789022128975407,
                -0.009428030003773014
            ]
        },
        {
            "positions": [
                -0.15094950827217346,
                -1.4545118479145298,
                -1.8676131400355713,
                1.3274662940910846,
                0.13353163848118782,
                0.09565107655635341
            ]
        },
        {
            "positions": [
                -0.044870635273935006,
                -1.4960793894199416,
                -1.9448530748465616,
                1.363241638758596,
                0.14917305567262162,
                0.20073018311647992
            ]
        },
        {
            "positions": [
                -0.030548181495995703,
                -1.6521719046048386,
                -2.0563652075738537,
                1.379977568595121,
                0.12376396327395861,
                0.16371183735395303
            ]
        },
        {
            "positions": [
                -0.0162257277180564,
                -1.808264419789736,
                -2.1678773403011453,
                1.3967134984316463,
                0.09835487087529561,
                0.12669349159142615
            ]
        },
        {
            "positions": [
                -0.0019032739401170992,
                -1.9643569349746333,
                -2.2793894730284374,
                1.4134494282681713,
                0.07294577847663261,
                0.08967514582889927
            ]
        },
        {
            "positions": [
                0.012419179837822203,
                -2.1204494501595303,
                -2.3909016057557295,
                1.4301853581046964,
                0.04753668607796959,
                0.05265680006637238
            ]
        },
        {
            "positions": [
                -0.08564537019003335,
                -2.1999274197198195,
                -2.385640855065695,
                1.4676668362575573,
                0.11365134864056506,
                0.035934280299452524
            ]
        },
        {
            "positions": [
                -0.1837099202178889,
                -2.2794053892801083,
                -2.3803801043756607,
                1.5051483144104183,
                0.17976601120316055,
                0.01921176053253267
            ]
        }
    ]
}