{
    "goal": {
        "global_pose": {
            "orientation": {
                "w": -0.00223480608172531,
                "x": 0.0024358444001904467,
                "y": 0.7094548369677653,
                "z": -0.704743149386269
            },
            "position": {
                "x": -0.37947507619857795,
                "y": -0.6371506643295288,
                "z": 0.19426114857196808
            }
        },
        "name": "move_to_magneteinheit_C"
    },
    "id": "LazyPRMstar_move_to_magneteinheit_C_51",
    "joint_names": [
        "shoulder_pan_joint",
        "shoulder_lift_joint",
        "elbow_joint",
        "wrist_1_joint",
        "wrist_2_joint",
        "wrist_3_joint"
    ],
    "metrics": {
        "cart_traj_len": 0.8218727709919721,
        "distance_elbow_joint": 0.7440506797412514,
        "distance_shoulder_lift_joint": 1.0728364690314993,
        "distance_shoulder_pan_joint": 0.8013617063246998,
        "distance_wrist_1_joint": 1.61730119385233,
        "distance_wrist_2_joint": 1.078164393215225,
        "distance_wrist_3_joint": 0.21729213364059197,
        "smoothness": 1.5168241413163759,
        "time": 5.0124399120000005,
        "traj_len": 2.3518092133091066,
        "weighted_distance": 2.9429672832286697
    },
    "planner": "LazyPRMstar",
    "start": {
        "state": {
            "elbow_joint": 1.9565354010623817,
            "shoulder_lift_joint": -1.4165861575791021,
            "shoulder_pan_joint": -1.6717766225146293,
            "wrist_1_joint": -0.5286633292919765,
            "wrist_2_joint": 1.472756589071564,
            "wrist_3_joint": -3.1238370188695823
        }
    },
    "waypoints": [
        {
            "positions": [
                -1.6717766225146293,
                -1.4165861575791021,
                1.9565354010623817,
                -0.5286633292919765,
                1.472756589071564,
                -3.1238370188695823
            ]
        },
        {
            "positions": [
                -1.7704437382518952,
                -1.484828477614475,
                2.022897795429963,
                -0.41875970983471855,
                1.49694475783672,
                -3.145082573371769
            ]
        },
        {
            "positions": [
                -1.869110853989161,
                -1.5530707976498477,
                2.0892601897975447,
                -0.30885609037746065,
                1.5211329266018763,
                -3.1663281278739563
            ]
        },
        {
            "positions": [
                -1.9677779697264266,
                -1.6213131176852205,
                2.155622584165126,
                -0.19895247092020268,
                1.5453210953670324,
                -3.187573682376143
            ]
        },
        {
            "positions": [
                -2.0664450854636924,
                -1.6895554377205935,
                2.221984978532708,
                -0.08904885146294478,
                1.5695092641321888,
                -3.20881923687833
            ]
        },
        {
            "positions": [
                -2.1651122012009583,
                -1.7577977577559663,
                2.2883473729002897,
                0.020854767994313184,
                1.593697432897345,
                -3.230064791380517
            ]
        },
        {
            "positions": [
                -2.263779316938224,
                -1.826040077791339,
                2.354709767267871,
                0.1307583874515711,
                1.6178856016625012,
                -3.251310345882704
            ]
        },
        {
            "positions": [
                -2.2870414293716803,
                -1.7523309057003098,
                2.3162790657638976,
                0.024327334439484136,
                1.5142150038153581,
                -3.2413304784796515
            ]
        },
        {
            "positions": [
                -2.3103035418051365,
                -1.6786217336092808,
                2.277848364259924,
                -0.08210371857260282,
                1.410544405968215,
                -3.2313506110765995
            ]
        },
        {
            "positions": [
                -2.3335656542385923,
                -1.6049125615182516,
                2.2394176627559506,
                -0.1885347715846898,
                1.306873808121072,
                -3.221370743673547
            ]
        },
        {
            "positions": [
                -2.3568277666720485,
                -1.5312033894272226,
                2.200986961251977,
                -0.2949658245967767,
                1.203203210273929,
                -3.211390876270495
            ]
        },
        {
            "positions": [
                -2.3800898791055047,
                -1.457494217336193,
                2.1625562597480035,
                -0.4013968776088638,
                1.0995326124267857,
                -3.2014110088674426
            ]
        },
        {
            "positions": [
                -2.403351991538961,
                -1.383785045245164,
                2.12412555824403,
                -0.5078279306209507,
                0.9958620145796427,
                -3.1914311414643906
            ]
        },
        {
            "positions": [
                -2.4266141039724167,
                -1.310075873154135,
                2.0856948567400564,
                -0.6142589836330377,
                0.8921914167324996,
                -3.181451274061338
            ]
        },
        {
            "positions": [
                -2.449876216405873,
                -1.2363667010631059,
                2.047264155236083,
                -0.7206900366451245,
                0.7885208188853566,
                -3.171471406658286
            ]
        },
        {
            "positions": [
                -2.473138328839329,
                -1.1626575289720766,
                2.0088334537321093,
                -0.8271210896572115,
                0.6848502210382135,
                -3.1614915392552336
            ]
        }
    ]
}