{
    "goal": {
        "global_pose": {
            "orientation": {
                "w": 0.005598929693374612,
                "x": 0.007748599140229565,
                "y": 0.7110244013736278,
                "z": -0.7031023480610252
            },
            "position": {
                "x": 0.1141497679147869,
                "y": -0.7141253447532654,
                "z": 0.3711530566215515
            }
        },
        "name": "move_to_auspresseinheit_B"
    },
    "id": "LazyPRM_move_to_auspresseinheit_B_23",
    "joint_names": [
        "shoulder_pan_joint",
        "shoulder_lift_joint",
        "elbow_joint",
        "wrist_1_joint",
        "wrist_2_joint",
        "wrist_3_joint"
    ],
    "metrics": {
        "cart_traj_len": 0.5649757182222556,
        "distance_elbow_joint": 0.06334907948410007,
        "distance_shoulder_lift_joint": 0.29393887704672683,
        "distance_shoulder_pan_joint": 0.5759692014803195,
        "distance_wrist_1_joint": 0.32524721022872916,
        "distance_wrist_2_joint": 0.9992435544627156,
        "distance_wrist_3_joint": 0.00881289066180857,
        "smoothness": 5.075305255429287e-16,
        "time": 0.011854337,
        "traj_len": 1.50551015053516,
        "weighted_distance": 1.8996519047918916
    },
    "planner": "LazyPRM",
    "start": {
        "state": {
            "elbow_joint": 2.0193083361928714,
            "shoulder_lift_joint": -1.1220246554650708,
            "shoulder_pan_joint": -1.0952077554168747,
            "wrist_1_joint": -0.8559753972642168,
            "wrist_2_joint": 0.4759566250798843,
            "wrist_3_joint": -3.1240929996934557
        }
    },
    "waypoints": [
        {
            "positions": [
                -1.0952077554168747,
                -1.1220246554650708,
                2.0193083361928714,
                -0.8559753972642168,
                0.4759566250798843,
                -3.1240929996934557
            ]
        },
        {
            "positions": [
                -1.1912026223302612,
                -1.171014468306192,
                2.008750156278855,
                -0.8017675288927619,
                0.642497217490337,
                -3.125561814803757
            ]
        },
        {
            "positions": [
                -1.2871974892436477,
                -1.220004281147313,
                1.9981919763648381,
                -0.7475596605213071,
                0.8090378099007896,
                -3.1270306299140587
            ]
        },
        {
            "positions": [
                -1.3831923561570343,
                -1.268994093988434,
                1.9876337964508215,
                -0.6933517921498522,
                0.9755784023112422,
                -3.12849944502436
            ]
        },
        {
            "positions": [
                -1.4791872230704208,
                -1.3179839068295554,
                1.9770756165368046,
                -0.6391439237783973,
                1.1421189947216948,
                -3.1299682601346612
            ]
        },
        {
            "positions": [
                -1.5751820899838076,
                -1.3669737196706766,
                1.966517436622788,
                -0.5849360554069425,
                1.3086595871321474,
                -3.1314370752449627
            ]
        },
        {
            "positions": [
                -1.6711769568971941,
                -1.4159635325117976,
                1.9559592567087714,
                -0.5307281870354876,
                1.4752001795426,
                -3.1329058903552642
            ]
        }
    ]
}