{
    "goal": {
        "global_pose": {
            "orientation": {
                "w": 0.7031023502349854,
                "x": -0.7110244035720825,
                "y": 0.007748599164187908,
                "z": 0.005598929710686207
            },
            "position": {
                "x": 0.11585023208521307,
                "y": 0.44412534475326537,
                "z": 0.3711530566215515
            }
        },
        "name": "move_to_auspresseinheit_A"
    },
    "id": "LazyPRMstar_move_to_auspresseinheit_A_112",
    "joint_names": [
        "shoulder_pan_joint",
        "shoulder_lift_joint",
        "elbow_joint",
        "wrist_1_joint",
        "wrist_2_joint",
        "wrist_3_joint"
    ],
    "metrics": {
        "cart_traj_len": 0.7594635751199629,
        "distance_elbow_joint": 0.48000183608006797,
        "distance_shoulder_lift_joint": 1.3526086966580482,
        "distance_shoulder_pan_joint": 1.0459910865544548,
        "distance_wrist_1_joint": 0.5658940546738265,
        "distance_wrist_2_joint": 0.5126879209609859,
        "distance_wrist_3_joint": 0.052817671295610324,
        "smoothness": 1.1431456871698171,
        "time": 5.140528646,
        "traj_len": 2.002498755610848,
        "weighted_distance": 2.27908283843502
    },
    "planner": "LazyPRMstar",
    "start": {
        "state": {
            "elbow_joint": 2.4225746658250005,
            "shoulder_lift_joint": -1.3736534386056498,
            "shoulder_pan_joint": -0.3378633547517467,
            "wrist_1_joint": -1.0288598680537169,
            "wrist_2_joint": 1.233022673432363,
            "wrist_3_joint": -3.0940220416140027
        }
    },
    "waypoints": [
        {
            "positions": [
                -0.3378633547517467,
                -1.3736534386056498,
                2.4225746658250005,
                -1.0288598680537169,
                1.233022673432363,
                -3.0940220416140027
            ]
        },
        {
            "positions": [
                -0.2079014042876822,
                -1.5088437098084204,
                2.455068542231357,
                -0.9493136983561339,
                1.2156365170153696,
                -3.092475783541319
            ]
        },
        {
            "positions": [
                -0.07793945382361767,
                -1.644033981011191,
                2.4875624186377134,
                -0.8697675286585509,
                1.1982503605983759,
                -3.0909295254686353
            ]
        },
        {
            "positions": [
                0.052022496640446836,
                -1.7792242522139614,
                2.52005629504407,
                -0.7902213589609679,
                1.1808642041813824,
                -3.0893832673959514
            ]
        },
        {
            "positions": [
                0.1819844471045114,
                -1.914414523416732,
                2.552550171450426,
                -0.7106751892633849,
                1.163478047764389,
                -3.087837009323268
            ]
        },
        {
            "positions": [
                0.31194639756857595,
                -2.0496047946195026,
                2.5850440478567824,
                -0.6311290195658018,
                1.1460918913473954,
                -3.086290751250584
            ]
        },
        {
            "positions": [
                0.4419083480326404,
                -2.1847950658222732,
                2.617537924263139,
                -0.5515828498682189,
                1.1287057349304017,
                -3.0847444931779004
            ]
        },
        {
            "positions": [
                0.571870298496705,
                -2.319985337025044,
                2.6500318006694954,
                -0.4720366801706358,
                1.1113195785134082,
                -3.0831982351052165
            ]
        },
        {
            "positions": [
                0.6059346568232058,
                -2.2184161374653804,
                2.586895625360602,
                -0.4743043968683222,
                1.0135733720029005,
                -3.0936967013019228
            ]
        },
        {
            "positions": [
                0.6399990151497066,
                -2.116846937905717,
                2.523759450051709,
                -0.4765721135660086,
                0.9158271654923926,
                -3.1041951674986286
            ]
        },
        {
            "positions": [
                0.6740633734762074,
                -2.0152777383460534,
                2.4606232747428156,
                -0.4788398302636949,
                0.8180809589818849,
                -3.1146936336953344
            ]
        },
        {
            "positions": [
                0.7081277318027082,
                -1.9137085387863897,
                2.3974870994339224,
                -0.4811075469613813,
                0.7203347524713771,
                -3.1251920998920406
            ]
        }
    ]
}