{
    "goal": {
        "global_pose": {
            "orientation": {
                "w": -0.00223480608172531,
                "x": 0.0024358444001904467,
                "y": 0.7094548369677653,
                "z": -0.704743149386269
            },
            "position": {
                "x": 0.6205249238014221,
                "y": -0.6371506643295288,
                "z": 0.19426114857196808
            }
        },
        "name": "move_to_magneteinheit_B"
    },
    "id": "LazyPRM_move_to_magneteinheit_B_85",
    "joint_names": [
        "shoulder_pan_joint",
        "shoulder_lift_joint",
        "elbow_joint",
        "wrist_1_joint",
        "wrist_2_joint",
        "wrist_3_joint"
    ],
    "metrics": {
        "cart_traj_len": 1.7684640551778592,
        "distance_elbow_joint": 0.958609519105694,
        "distance_shoulder_lift_joint": 1.3698784090178617,
        "distance_shoulder_pan_joint": 1.6235127402494856,
        "distance_wrist_1_joint": 0.4865076525846104,
        "distance_wrist_2_joint": 1.5166844786654867,
        "distance_wrist_3_joint": 1.164675039882816,
        "smoothness": 0.6233700145599868,
        "time": 0.079094972,
        "traj_len": 2.668308048090766,
        "weighted_distance": 3.3841409619756804
    },
    "planner": "LazyPRM",
    "start": {
        "state": {
            "elbow_joint": 2.6216224122426386,
            "shoulder_lift_joint": -1.4174107377796124,
            "shoulder_pan_joint": 0.7066234856936794,
            "wrist_1_joint": 1.9546482284002225,
            "wrist_2_joint": -0.7096286983471962,
            "wrist_3_joint": 0.005740856962016249
        }
    },
    "waypoints": [
        {
            "positions": [
                0.7066234856936794,
                -1.4174107377796124,
                2.6216224122426386,
                1.9546482284002225,
                -0.7096286983471962,
                0.005740856962016249
            ]
        },
        {
            "positions": [
                0.706915162021212,
                -1.4939856241538416,
                2.5685499338163886,
                1.9173900563799862,
                -0.7435927420683757,
                0.15110979007391726
            ]
        },
        {
            "positions": [
                0.7072068383487444,
                -1.5705605105280709,
                2.5154774553901382,
                1.8801318843597499,
                -0.7775567857895551,
                0.29647872318581825
            ]
        },
        {
            "positions": [
                0.707498514676277,
                -1.6471353969023,
                2.462404976963888,
                1.8428737123395136,
                -0.8115208295107347,
                0.4418476562977192
            ]
        },
        {
            "positions": [
                0.7077901910038096,
                -1.7237102832765292,
                2.409332498537638,
                1.8056155403192773,
                -0.8454848732319141,
                0.5872165894096202
            ]
        },
        {
            "positions": [
                0.5996337886745192,
                -1.6528050257084663,
                2.3595778581775915,
                1.8281138712861884,
                -0.9375400934839654,
                0.5483366355806061
            ]
        },
        {
            "positions": [
                0.49147738634522886,
                -1.5818997681404032,
                2.3098232178175455,
                1.8506122022530993,
                -1.0295953137360165,
                0.5094566817515919
            ]
        },
        {
            "positions": [
                0.3833209840159385,
                -1.5109945105723401,
                2.260068577457499,
                1.8731105332200104,
                -1.1216505339880678,
                0.4705767279225777
            ]
        },
        {
            "positions": [
                0.2751645816866482,
                -1.4400892530042773,
                2.210313937097453,
                1.8956088641869213,
                -1.213705754240119,
                0.43169677409356355
            ]
        },
        {
            "positions": [
                0.1670081793573579,
                -1.3691839954362144,
                2.1605592967374068,
                1.9181071951538324,
                -1.3057609744921703,
                0.3928168202645494
            ]
        },
        {
            "positions": [
                0.05885177702806743,
                -1.2982787378681513,
                2.1108046563773604,
                1.9406055261207433,
                -1.3978161947442216,
                0.35393686643553524
            ]
        },
        {
            "positions": [
                -0.049304625301222926,
                -1.2273734803000884,
                2.0610500160173144,
                1.9631038570876544,
                -1.4898714149962728,
                0.315056912606521
            ]
        },
        {
            "positions": [
                -0.15746102763051317,
                -1.1564682227320255,
                2.011295375657268,
                1.9856021880545653,
                -1.581926635248324,
                0.2761769587775069
            ]
        },
        {
            "positions": [
                -0.26561742995980353,
                -1.0855629651639624,
                1.9615407352972218,
                2.0081005190214762,
                -1.6739818555003754,
                0.23729700494849276
            ]
        },
        {
            "positions": [
                -0.3737738322890938,
                -1.0146577075958993,
                1.9117860949371757,
                2.0305988499883876,
                -1.7660370757524264,
                0.1984170511194786
            ]
        },
        {
            "positions": [
                -0.48193023461838425,
                -0.9437524500278365,
                1.8620314545771295,
                2.0530971809552985,
                -1.858092296004478,
                0.15953709729046445
            ]
        },
        {
            "positions": [
                -0.5900866369476747,
                -0.8728471924597734,
                1.8122768142170833,
                2.0755955119222094,
                -1.950147516256529,
                0.12065714346145023
            ]
        },
        {
            "positions": [
                -0.698243039276965,
                -0.8019419348917105,
                1.762522173857037,
                2.0980938428891207,
                -2.0422027365085804,
                0.08177718963243608
            ]
        },
        {
            "positions": [
                -0.8063994416062554,
                -0.7310366773236475,
                1.7127675334969907,
                2.1205921738560316,
                -2.1342579567606315,
                0.04289723580342186
            ]
        },
        {
            "positions": [
                -0.9145558439355457,
                -0.6601314197555844,
                1.6630128931369446,
                2.1430905048229425,
                -2.226313177012683,
                0.004017281974407711
            ]
        }
    ]
}