{
    "goal": {
        "global_pose": {
            "orientation": {
                "w": -0.00223480608172531,
                "x": 0.0024358444001904467,
                "y": 0.7094548369677653,
                "z": -0.704743149386269
            },
            "position": {
                "x": -0.37947507619857795,
                "y": -0.6371506643295288,
                "z": 0.19426114857196808
            }
        },
        "name": "move_to_magneteinheit_C"
    },
    "id": "LazyPRM_move_to_magneteinheit_C_84",
    "joint_names": [
        "shoulder_pan_joint",
        "shoulder_lift_joint",
        "elbow_joint",
        "wrist_1_joint",
        "wrist_2_joint",
        "wrist_3_joint"
    ],
    "metrics": {
        "cart_traj_len": 0.9736992354538,
        "distance_elbow_joint": 1.0736613107322337,
        "distance_shoulder_lift_joint": 1.19198189587434,
        "distance_shoulder_pan_joint": 1.4482632786778484,
        "distance_wrist_1_joint": 0.689253549496771,
        "distance_wrist_2_joint": 0.787630162178383,
        "distance_wrist_3_joint": 1.2576056463778187,
        "smoothness": 1.3078220657529736,
        "time": 0.037619225,
        "traj_len": 2.5393691821665856,
        "weighted_distance": 3.231174840173182
    },
    "planner": "LazyPRM",
    "start": {
        "state": {
            "elbow_joint": 1.9565354010623817,
            "shoulder_lift_joint": -1.4165861575791021,
            "shoulder_pan_joint": -1.6717766225146293,
            "wrist_1_joint": -0.5286633292919765,
            "wrist_2_joint": 1.472756589071564,
            "wrist_3_joint": -3.1238370188695823
        }
    },
    "waypoints": [
        {
            "positions": [
                -1.6717766225146293,
                -1.4165861575791021,
                1.9565354010623817,
                -0.5286633292919765,
                1.472756589071564,
                -3.1238370188695823
            ]
        },
        {
            "positions": [
                -1.812322432078113,
                -1.4753249198330354,
                2.0270397894973,
                -0.5048782072171751,
                1.4531865737666794,
                -3.046936421962493
            ]
        },
        {
            "positions": [
                -1.9528682416415966,
                -1.5340636820869684,
                2.0975441779322175,
                -0.4810930851423738,
                1.4336165584617948,
                -2.9700358250554038
            ]
        },
        {
            "positions": [
                -2.0934140512050803,
                -1.5928024443409017,
                2.1680485663671356,
                -0.4573079630675725,
                1.41404654315691,
                -2.8931352281483145
            ]
        },
        {
            "positions": [
                -2.233959860768564,
                -1.651541206594835,
                2.2385529548020537,
                -0.43352284099277116,
                1.3944765278520255,
                -2.816234631241225
            ]
        },
        {
            "positions": [
                -2.3745056703320477,
                -1.710279968848768,
                2.3090573432369714,
                -0.40973771891796984,
                1.374906512547141,
                -2.739334034334136
            ]
        },
        {
            "positions": [
                -2.515051479895531,
                -1.7690187311027012,
                2.3795617316718896,
                -0.3859525968431685,
                1.3553364972422561,
                -2.6624334374270466
            ]
        },
        {
            "positions": [
                -2.6555972894590147,
                -1.8277574933566343,
                2.4500661201068072,
                -0.3621674747683672,
                1.3357664819373716,
                -2.5855328405199574
            ]
        },
        {
            "positions": [
                -2.7961430990224985,
                -1.8864962556105676,
                2.5205705085417254,
                -0.33838235269356587,
                1.316196466632487,
                -2.508632243612868
            ]
        },
        {
            "positions": [
                -2.7601545654480564,
                -1.8062660558502481,
                2.46394537484696,
                -0.3938237496822726,
                1.2460775733281197,
                -2.5800101181818795
            ]
        },
        {
            "positions": [
                -2.7241660318736143,
                -1.7260358560899287,
                2.407320241152194,
                -0.4492651466709793,
                1.1759586800237523,
                -2.6513879927508914
            ]
        },
        {
            "positions": [
                -2.688177498299172,
                -1.6458056563296093,
                2.3506951074574287,
                -0.504706543659686,
                1.105839786719385,
                -2.722765867319903
            ]
        },
        {
            "positions": [
                -2.65218896472473,
                -1.5655754565692899,
                2.2940699737626633,
                -0.5601479406483927,
                1.0357208934150177,
                -2.7941437418889143
            ]
        },
        {
            "positions": [
                -2.6162004311502876,
                -1.4853452568089707,
                2.2374448400678975,
                -0.6155893376370994,
                0.9656020001106502,
                -2.8655216164579262
            ]
        },
        {
            "positions": [
                -2.5802118975758455,
                -1.4051150570486513,
                2.180819706373132,
                -0.6710307346258061,
                0.895483106806283,
                -2.9368994910269377
            ]
        },
        {
            "positions": [
                -2.5442233640014034,
                -1.3248848572883318,
                2.1241945726783666,
                -0.7264721316145129,
                0.8253642135019157,
                -3.008277365595949
            ]
        },
        {
            "positions": [
                -2.5082348304269613,
                -1.2446546575280124,
                2.067569438983601,
                -0.7819135286032195,
                0.7552453201975483,
                -3.0796552401649606
            ]
        },
        {
            "positions": [
                -2.472246296852519,
                -1.164424457767693,
                2.0109443052888354,
                -0.8373549255919263,
                0.6851264268931809,
                -3.1510331147339725
            ]
        }
    ]
}