{
    "goal": {
        "global_pose": {
            "orientation": {
                "w": -0.4816463035849501,
                "x": 0.5182115481033762,
                "y": 0.4908360881923453,
                "z": -0.5084816262002911
            },
            "position": {
                "x": -0.8240239810943604,
                "y": 0.19912469901144506,
                "z": 0.16403168439865112
            }
        },
        "name": "move_to_storage_D"
    },
    "id": "LazyPRM_move_to_storage_D_14",
    "joint_names": [
        "shoulder_pan_joint",
        "shoulder_lift_joint",
        "elbow_joint",
        "wrist_1_joint",
        "wrist_2_joint",
        "wrist_3_joint"
    ],
    "metrics": {
        "cart_traj_len": 0.599372387106623,
        "distance_elbow_joint": 0.7886539044286824,
        "distance_shoulder_lift_joint": 0.1717704647865932,
        "distance_shoulder_pan_joint": 0.2845971920069103,
        "distance_wrist_1_joint": 3.824187059240908,
        "distance_wrist_2_joint": 1.7799778633723227,
        "distance_wrist_3_joint": 3.1607635870064286,
        "smoothness": 0.09605911177658787,
        "time": 0.120185982,
        "traj_len": 3.163850513352653,
        "weighted_distance": 4.6835501670706945
    },
    "planner": "LazyPRM",
    "start": {
        "state": {
            "elbow_joint": -2.384821988534728,
            "shoulder_lift_joint": -2.2788054721415256,
            "shoulder_pan_joint": -0.1854694642142757,
            "wrist_1_joint": 1.4845938289331202,
            "wrist_2_joint": 0.17898776772866878,
            "wrist_3_joint": 0.037105688729662994
        }
    },
    "waypoints": [
        {
            "positions": [
                -0.1854694642142757,
                -2.2788054721415256,
                -2.384821988534728,
                1.4845938289331202,
                0.17898776772866878,
                0.037105688729662994
            ]
        },
        {
            "positions": [
                -0.07657068947578326,
                -2.1976290544523596,
                -2.44351038923275,
                1.461868559349442,
                0.11766170798776886,
                0.09930555913204349
            ]
        },
        {
            "positions": [
                0.032328085262709194,
                -2.1164526367631935,
                -2.5021987899307714,
                1.4391432897657639,
                0.05633564824686893,
                0.16150542953442398
            ]
        },
        {
            "positions": [
                0.029544766823962305,
                -2.1168450379885377,
                -2.474228910637745,
                1.2816959347626993,
                -0.012719591081902848,
                0.2880205897928268
            ]
        },
        {
            "positions": [
                0.02676144838521542,
                -2.117237439213882,
                -2.4462590313447183,
                1.1242485797596347,
                -0.08177483041067463,
                0.4145357500512296
            ]
        },
        {
            "positions": [
                0.02397812994646853,
                -2.117629840439226,
                -2.4182891520516914,
                0.9668012247565699,
                -0.1508300697394464,
                0.5410509103096324
            ]
        },
        {
            "positions": [
                0.021194811507721643,
                -2.1180222416645704,
                -2.390319272758665,
                0.8093538697535053,
                -0.21988530906821818,
                0.6675660705680353
            ]
        },
        {
            "positions": [
                0.01841149306897475,
                -2.1184146428899147,
                -2.3623493934656383,
                0.6519065147504406,
                -0.28894054839698996,
                0.794081230826438
            ]
        },
        {
            "positions": [
                0.015628174630227865,
                -2.118807044115259,
                -2.334379514172612,
                0.494459159747376,
                -0.35799578772576174,
                0.9205963910848409
            ]
        },
        {
            "positions": [
                0.012844856191480975,
                -2.119199445340603,
                -2.306409634879585,
                0.33701180474431136,
                -0.42705102705453357,
                1.0471115513432439
            ]
        },
        {
            "positions": [
                0.01006153775273409,
                -2.1195918465659473,
                -2.2784397555865583,
                0.17956444974124675,
                -0.4961062663833053,
                1.1736267116016466
            ]
        },
        {
            "positions": [
                0.0072782193139872,
                -2.1199842477912916,
                -2.250469876293532,
                0.02211709473818191,
                -0.5651615057120771,
                1.3001418718600495
            ]
        },
        {
            "positions": [
                0.00449490087524031,
                -2.120376649016636,
                -2.2224999970005053,
                -0.1353302602648827,
                -0.6342167450408489,
                1.4266570321184522
            ]
        },
        {
            "positions": [
                0.0017115824364934244,
                -2.12076905024198,
                -2.1945301177074787,
                -0.2927776152679473,
                -0.7032719843696207,
                1.5531721923768549
            ]
        },
        {
            "positions": [
                -0.001071736002253465,
                -2.121161451467324,
                -2.1665602384144518,
                -0.45022497027101194,
                -0.7723272236983925,
                1.6796873526352578
            ]
        },
        {
            "positions": [
                -0.003855054441000351,
                -2.121553852692668,
                -2.1385903591214253,
                -0.6076723252740766,
                -0.841382463027164,
                1.8062025128936605
            ]
        },
        {
            "positions": [
                -0.006638372879747244,
                -2.1219462539180123,
                -2.1106204798283987,
                -0.7651196802771412,
                -0.910437702355936,
                1.9327176731520637
            ]
        },
        {
            "positions": [
                -0.00942169131849413,
                -2.1223386551433565,
                -2.0826506005353718,
                -0.9225670352802058,
                -0.9794929416847078,
                2.059232833410466
            ]
        },
        {
            "positions": [
                -0.012205009757241016,
                -2.1227310563687007,
                -2.0546807212423452,
                -1.0800143902832704,
                -1.0485481810134796,
                2.185747993668869
            ]
        },
        {
            "positions": [
                -0.014988328195987909,
                -2.123123457594045,
                -2.0267108419493187,
                -1.2374617452863355,
                -1.1176034203422514,
                2.312263153927272
            ]
        },
        {
            "positions": [
                -0.017771646634734795,
                -2.123515858819389,
                -1.9987409626562922,
                -1.3949091002894,
                -1.1866586596710231,
                2.438778314185675
            ]
        },
        {
            "positions": [
                -0.02055496507348168,
                -2.1239082600447334,
                -1.9707710833632657,
                -1.5523564552924642,
                -1.255713898999795,
                2.5652934744440774
            ]
        },
        {
            "positions": [
                -0.023338283512228573,
                -2.1243006612700777,
                -1.9428012040702387,
                -1.7098038102955293,
                -1.3247691383285667,
                2.6918086347024803
            ]
        },
        {
            "positions": [
                -0.02612160195097546,
                -2.124693062495422,
                -1.9148313247772122,
                -1.867251165298594,
                -1.3938243776573385,
                2.8183237949608833
            ]
        },
        {
            "positions": [
                -0.028904920389722345,
                -2.125085463720766,
                -1.8868614454841857,
                -2.0246985203016585,
                -1.4628796169861102,
                2.9448389552192857
            ]
        },
        {
            "positions": [
                -0.031688238828469245,
                -2.1254778649461104,
                -1.8588915661911591,
                -2.182145875304723,
                -1.531934856314882,
                3.071354115477689
            ]
        },
        {
            "positions": [
                -0.03447155726721612,
                -2.1258702661714546,
                -1.8309216868981324,
                -2.3395932303077878,
                -1.6009900956436538,
                3.1978692757360916
            ]
        }
    ]
}