{
    "goal": {
        "global_pose": {
            "orientation": {
                "w": 0.7031023480610252,
                "x": -0.7110244013736278,
                "y": 0.0077485991402295624,
                "z": 0.005598929693374583
            },
            "position": {
                "x": -0.8841497679147869,
                "y": 0.44412534475326537,
                "z": 0.3711530566215515
            }
        },
        "name": "move_to_auspresseinheit_D"
    },
    "id": "LazyPRM_move_to_auspresseinheit_D_99",
    "joint_names": [
        "shoulder_pan_joint",
        "shoulder_lift_joint",
        "elbow_joint",
        "wrist_1_joint",
        "wrist_2_joint",
        "wrist_3_joint"
    ],
    "metrics": {
        "cart_traj_len": 0.34315567542240455,
        "distance_elbow_joint": 0.6499143747247618,
        "distance_shoulder_lift_joint": 0.12801846917864657,
        "distance_shoulder_pan_joint": 0.13313400915971432,
        "distance_wrist_1_joint": 0.5660487491705011,
        "distance_wrist_2_joint": 1.4429588293162028,
        "distance_wrist_3_joint": 0.035242767648913986,
        "smoothness": 0.0,
        "time": 0.012436427,
        "traj_len": 1.7191036033929834,
        "weighted_distance": 2.2438382992059105
    },
    "planner": "LazyPRM",
    "start": {
        "state": {
            "elbow_joint": -1.8275523626775212,
            "shoulder_lift_joint": -2.126789852344167,
            "shoulder_pan_joint": -0.03513704404078235,
            "wrist_1_joint": -2.347782403156801,
            "wrist_2_joint": -1.6058999987535132,
            "wrist_3_joint": -3.0880379163319196
        }
    },
    "waypoints": [
        {
            "positions": [
                -0.03513704404078235,
                -2.126789852344167,
                -1.8275523626775212,
                -2.347782403156801,
                -1.6058999987535132,
                -3.0880379163319196
            ]
        },
        {
            "positions": [
                -0.05177879518574664,
                -2.1427921609914975,
                -1.746313065836926,
                -2.4185384968031136,
                -1.425530145088988,
                -3.0836325703758054
            ]
        },
        {
            "positions": [
                -0.06842054633071093,
                -2.1587944696388286,
                -1.6650737689963306,
                -2.4892945904494264,
                -1.2451602914244626,
                -3.079227224419691
            ]
        },
        {
            "positions": [
                -0.08506229747567523,
                -2.1747967782861592,
                -1.5838344721557356,
                -2.5600506840957387,
                -1.064790437759937,
                -3.074821878463577
            ]
        },
        {
            "positions": [
                -0.1017040486206395,
                -2.19079908693349,
                -1.5025951753151403,
                -2.6308067777420514,
                -0.8844205840954118,
                -3.070416532507463
            ]
        },
        {
            "positions": [
                -0.1183457997656038,
                -2.206801395580821,
                -1.421355878474545,
                -2.701562871388364,
                -0.7040507304308865,
                -3.066011186551348
            ]
        },
        {
            "positions": [
                -0.1349875509105681,
                -2.2228037042281517,
                -1.34011658163395,
                -2.7723189650346765,
                -0.523680876766361,
                -3.061605840595234
            ]
        },
        {
            "positions": [
                -0.15162930205553238,
                -2.2388060128754828,
                -1.2588772847933547,
                -2.843075058680989,
                -0.3433110231018357,
                -3.05720049463912
            ]
        },
        {
            "positions": [
                -0.16827105320049668,
                -2.2548083215228134,
                -1.1776379879527594,
                -2.913831152327302,
                -0.1629411694373105,
                -3.0527951486830056
            ]
        }
    ]
}