{
    "goal": {
        "global_pose": {
            "orientation": {
                "w": 0.7031023480610252,
                "x": -0.7110244013736278,
                "y": 0.0077485991402295624,
                "z": 0.005598929693374583
            },
            "position": {
                "x": -0.8841497679147869,
                "y": 0.44412534475326537,
                "z": 0.3711530566215515
            }
        },
        "name": "move_to_auspresseinheit_D"
    },
    "id": "LazyPRMstar_move_to_auspresseinheit_D_4",
    "joint_names": [
        "shoulder_pan_joint",
        "shoulder_lift_joint",
        "elbow_joint",
        "wrist_1_joint",
        "wrist_2_joint",
        "wrist_3_joint"
    ],
    "metrics": {
        "cart_traj_len": 0.3425767111618811,
        "distance_elbow_joint": 0.6364722170923114,
        "distance_shoulder_lift_joint": 0.12092137369978273,
        "distance_shoulder_pan_joint": 0.13342663146943398,
        "distance_wrist_1_joint": 0.5194053555966271,
        "distance_wrist_2_joint": 1.4457876052666887,
        "distance_wrist_3_joint": 0.02117198775670248,
        "smoothness": 7.894919182364742e-16,
        "time": 5.000158437,
        "traj_len": 1.6962267451262365,
        "weighted_distance": 2.2101407437668463
    },
    "planner": "LazyPRMstar",
    "start": {
        "state": {
            "elbow_joint": -1.8275523626775212,
            "shoulder_lift_joint": -2.126789852344167,
            "shoulder_pan_joint": -0.03513704404078235,
            "wrist_1_joint": -2.347782403156801,
            "wrist_2_joint": -1.6058999987535132,
            "wrist_3_joint": -3.0880379163319196
        }
    },
    "waypoints": [
        {
            "positions": [
                -0.03513704404078235,
                -2.126789852344167,
                -1.8275523626775212,
                -2.347782403156801,
                -1.6058999987535132,
                -3.0880379163319196
            ]
        },
        {
            "positions": [
                -0.05181537297446159,
                -2.1419050240566397,
                -1.7479933355409822,
                -2.4127080726063794,
                -1.425176548095177,
                -3.0906844148015074
            ]
        },
        {
            "positions": [
                -0.06849370190814084,
                -2.1570201957691126,
                -1.6684343084044433,
                -2.4776337420559575,
                -1.244453097436841,
                -3.093330913271095
            ]
        },
        {
            "positions": [
                -0.0851720308418201,
                -2.1721353674815855,
                -1.5888752812679043,
                -2.542559411505536,
                -1.063729646778505,
                -3.095977411740683
            ]
        },
        {
            "positions": [
                -0.10185035977549933,
                -2.187250539194058,
                -1.5093162541313654,
                -2.607485080955114,
                -0.8830061961201688,
                -3.0986239102102706
            ]
        },
        {
            "positions": [
                -0.1185286887091786,
                -2.202365710906531,
                -1.4297572269948264,
                -2.672410750404693,
                -0.7022827454618328,
                -3.101270408679859
            ]
        },
        {
            "positions": [
                -0.13520701764285784,
                -2.217480882619004,
                -1.3501981998582877,
                -2.7373364198542713,
                -0.5215592948034966,
                -3.1039169071494466
            ]
        },
        {
            "positions": [
                -0.15188534657653707,
                -2.2325960543314767,
                -1.2706391727217488,
                -2.8022620893038495,
                -0.34083584414516066,
                -3.1065634056190343
            ]
        },
        {
            "positions": [
                -0.16856367551021634,
                -2.2477112260439496,
                -1.1910801455852098,
                -2.867187758753428,
                -0.16011239348682452,
                -3.109209904088622
            ]
        }
    ]
}