{
    "goal": {
        "global_pose": {
            "orientation": {
                "w": 0.7031023502349854,
                "x": -0.7110244035720825,
                "y": 0.007748599164187908,
                "z": 0.005598929710686207
            },
            "position": {
                "x": 0.11585023208521307,
                "y": 0.44412534475326537,
                "z": 0.3711530566215515
            }
        },
        "name": "move_to_auspresseinheit_A"
    },
    "id": "LazyPRMstar_move_to_auspresseinheit_A_127",
    "joint_names": [
        "shoulder_pan_joint",
        "shoulder_lift_joint",
        "elbow_joint",
        "wrist_1_joint",
        "wrist_2_joint",
        "wrist_3_joint"
    ],
    "metrics": {
        "cart_traj_len": 0.9106372099950013,
        "distance_elbow_joint": 0.5962194973324975,
        "distance_shoulder_lift_joint": 1.309188100377375,
        "distance_shoulder_pan_joint": 1.0459779402187763,
        "distance_wrist_1_joint": 1.0169592446714173,
        "distance_wrist_2_joint": 0.7324930161843105,
        "distance_wrist_3_joint": 1.096437718308941,
        "smoothness": 1.2877937139352984,
        "time": 5.009748503,
        "traj_len": 2.4077532093412977,
        "weighted_distance": 3.1208337370912487
    },
    "planner": "LazyPRMstar",
    "start": {
        "state": {
            "elbow_joint": 2.4225746658250005,
            "shoulder_lift_joint": -1.3736534386056498,
            "shoulder_pan_joint": -0.3378633547517467,
            "wrist_1_joint": -1.0288598680537169,
            "wrist_2_joint": 1.233022673432363,
            "wrist_3_joint": -3.0940220416140027
        }
    },
    "waypoints": [
        {
            "positions": [
                -0.3378633547517467,
                -1.3736534386056498,
                2.4225746658250005,
                -1.0288598680537169,
                1.233022673432363,
                -3.0940220416140027
            ]
        },
        {
            "positions": [
                -0.2544033339579333,
                -1.4575225202172268,
                2.4483898185846127,
                -0.9571869154914658,
                1.1762163491398459,
                -3.0464143580026732
            ]
        },
        {
            "positions": [
                -0.17094331316411987,
                -1.541391601828804,
                2.4742049713442253,
                -0.8855139629292147,
                1.1194100248473284,
                -2.9988066743913433
            ]
        },
        {
            "positions": [
                -0.08748329237030644,
                -1.625260683440381,
                2.5000201241038376,
                -0.8138410103669637,
                1.0626037005548112,
                -2.951198990780014
            ]
        },
        {
            "positions": [
                -0.004023271576493015,
                -1.7091297650519583,
                2.52583527686345,
                -0.7421680578047125,
                1.005797376262294,
                -2.9035913071686843
            ]
        },
        {
            "positions": [
                0.07943674921732041,
                -1.7929988466635354,
                2.5516504296230624,
                -0.6704951052424615,
                0.9489910519697767,
                -2.8559836235573544
            ]
        },
        {
            "positions": [
                0.16289677001113384,
                -1.8768679282751126,
                2.577465582382675,
                -0.5988221526802104,
                0.8921847276772594,
                -2.808375939946025
            ]
        },
        {
            "positions": [
                0.24635679080494727,
                -1.9607370098866896,
                2.6032807351422873,
                -0.5271492001179594,
                0.8353784033847422,
                -2.7607682563346954
            ]
        },
        {
            "positions": [
                0.3298168115987607,
                -2.0446060914982667,
                2.6290958879019,
                -0.45547624755570826,
                0.7785720790922249,
                -2.7131605727233654
            ]
        },
        {
            "positions": [
                0.4132768323925741,
                -2.128475173109844,
                2.654911040661512,
                -0.3838032949934571,
                0.7217657547997076,
                -2.665552889112036
            ]
        },
        {
            "positions": [
                0.49673685318638755,
                -2.212344254721421,
                2.6807261934211244,
                -0.3121303424312062,
                0.6649594305071904,
                -2.617945205500706
            ]
        },
        {
            "positions": [
                0.580196873980201,
                -2.296213336332998,
                2.706541346180737,
                -0.24045738986895504,
                0.6081531062146731,
                -2.5703375218893765
            ]
        },
        {
            "positions": [
                0.6057804162775667,
                -2.2188876958029926,
                2.644090782785385,
                -0.28616874316628615,
                0.6296777960079972,
                -2.6848881616062394
            ]
        },
        {
            "positions": [
                0.6313639585749324,
                -2.1415620552729875,
                2.5816402193900325,
                -0.3318800964636172,
                0.6512024858013213,
                -2.7994388013231024
            ]
        },
        {
            "positions": [
                0.6569475008722983,
                -2.0642364147429824,
                2.5191896559946807,
                -0.37759144976094827,
                0.6727271755946455,
                -2.9139894410399654
            ]
        },
        {
            "positions": [
                0.682531043169664,
                -1.9869107742129768,
                2.4567390925993284,
                -0.4233028030582794,
                0.6942518653879696,
                -3.0285400807568283
            ]
        },
        {
            "positions": [
                0.7081145854670297,
                -1.9095851336829714,
                2.394288529203976,
                -0.4690141563556105,
                0.7157765551812937,
                -3.1430907204736913
            ]
        }
    ]
}