{
    "goal": {
        "global_pose": {
            "orientation": {
                "w": 0.7047431468963623,
                "x": -0.7094548344612122,
                "y": 0.0024358443915843964,
                "z": -0.0022348060738295317
            },
            "position": {
                "x": 0.6094750761985779,
                "y": 0.3671506643295288,
                "z": 0.19426114857196808
            }
        },
        "name": "move_to_magneteinheit_A"
    },
    "id": "LazyPRM_move_to_magneteinheit_A_118",
    "joint_names": [
        "shoulder_pan_joint",
        "shoulder_lift_joint",
        "elbow_joint",
        "wrist_1_joint",
        "wrist_2_joint",
        "wrist_3_joint"
    ],
    "metrics": {
        "cart_traj_len": 3.3265942616695674,
        "distance_elbow_joint": 3.9109289571349453,
        "distance_shoulder_lift_joint": 0.5343715216634763,
        "distance_shoulder_pan_joint": 2.9521457186740676,
        "distance_wrist_1_joint": 0.685776660698725,
        "distance_wrist_2_joint": 1.7085428425768507,
        "distance_wrist_3_joint": 3.5510006234644265,
        "smoothness": 0.05183232344529834,
        "time": 0.07479765,
        "traj_len": 3.6527751537991615,
        "weighted_distance": 4.779025745318488
    },
    "planner": "LazyPRM",
    "start": {
        "state": {
            "elbow_joint": -1.9196185241190666,
            "shoulder_lift_joint": -1.2443396400964142,
            "shoulder_pan_joint": 2.6996025414629847,
            "wrist_1_joint": -1.5485510000780065,
            "wrist_2_joint": -1.5709468930060704,
            "wrist_3_joint": 0.4420197071253992
        }
    },
    "waypoints": [
        {
            "positions": [
                2.6996025414629847,
                -1.2443396400964142,
                -1.9196185241190666,
                -1.5485510000780065,
                -1.5709468930060704,
                0.4420197071253992
            ]
        },
        {
            "positions": [
                2.5793994936275144,
                -1.253931877459678,
                -1.8005177926378648,
                -1.5377711095843398,
                -1.5460935107386669,
                0.34063289878878233
            ]
        },
        {
            "positions": [
                2.459196445792044,
                -1.263524114822942,
                -1.6814170611566632,
                -1.526991219090673,
                -1.5212401284712633,
                0.23924609045216555
            ]
        },
        {
            "positions": [
                2.338993397956574,
                -1.2731163521862057,
                -1.5623163296754614,
                -1.5162113285970062,
                -1.4963867462038598,
                0.1378592821155487
            ]
        },
        {
            "positions": [
                2.2187903501211035,
                -1.2827085895494694,
                -1.4432155981942598,
                -1.5054314381033393,
                -1.471533363936456,
                0.036472473778931924
            ]
        },
        {
            "positions": [
                2.098587302285633,
                -1.2923008269127334,
                -1.324114866713058,
                -1.4946515476096727,
                -1.4466799816690525,
                -0.06491433455768492
            ]
        },
        {
            "positions": [
                1.9783842544501629,
                -1.3018930642759972,
                -1.2050141352318562,
                -1.483871657116006,
                -1.421826599401649,
                -0.16630114289430176
            ]
        },
        {
            "positions": [
                1.8581812066146925,
                -1.311485301639261,
                -1.0859134037506544,
                -1.473091766622339,
                -1.3969732171342455,
                -0.2676879512309186
            ]
        },
        {
            "positions": [
                1.7379781587792222,
                -1.3210775390025247,
                -0.9668126722694528,
                -1.4623118761286724,
                -1.372119834866842,
                -0.3690747595675353
            ]
        },
        {
            "positions": [
                1.617775110943752,
                -1.3306697763657886,
                -0.847711940788251,
                -1.4515319856350055,
                -1.3472664525994382,
                -0.47046156790415217
            ]
        },
        {
            "positions": [
                1.4975720631082816,
                -1.3402620137290524,
                -0.7286112093070494,
                -1.4407520951413388,
                -1.3224130703320347,
                -0.571848376240769
            ]
        },
        {
            "positions": [
                1.3773690152728113,
                -1.3498542510923162,
                -0.6095104778258476,
                -1.4299722046476722,
                -1.2975596880646312,
                -0.6732351845773857
            ]
        },
        {
            "positions": [
                1.257165967437341,
                -1.3594464884555801,
                -0.49040974634464574,
                -1.4191923141540053,
                -1.2727063057972277,
                -0.7746219929140027
            ]
        },
        {
            "positions": [
                1.136962919601871,
                -1.369038725818844,
                -0.37130901486344414,
                -1.4084124236603386,
                -1.2478529235298241,
                -0.8760088012506194
            ]
        },
        {
            "positions": [
                1.0167598717664004,
                -1.3786309631821076,
                -0.2522082833822421,
                -1.397632533166672,
                -1.2229995412624204,
                -0.9773956095872364
            ]
        },
        {
            "positions": [
                0.8965568239309301,
                -1.3882232005453716,
                -0.1331075519010405,
                -1.386852642673005,
                -1.1981461589950169,
                -1.0787824179238532
            ]
        },
        {
            "positions": [
                0.7763537760954597,
                -1.3978154379086354,
                -0.014006820419838917,
                -1.3760727521793383,
                -1.1732927767276133,
                -1.1801692262604697
            ]
        },
        {
            "positions": [
                0.6561507282599894,
                -1.4074076752718991,
                0.1050939110613629,
                -1.3652928616856714,
                -1.1484393944602098,
                -1.2815560345970867
            ]
        },
        {
            "positions": [
                0.5359476804245191,
                -1.4169999126351631,
                0.22419464254256471,
                -1.3545129711920048,
                -1.1235860121928063,
                -1.3829428429337036
            ]
        },
        {
            "positions": [
                0.4157446325890488,
                -1.4265921499984269,
                0.34329537402376653,
                -1.343733080698338,
                -1.0987326299254028,
                -1.4843296512703201
            ]
        },
        {
            "positions": [
                0.2955415847535785,
                -1.4361843873616906,
                0.4623961055049679,
                -1.3329531902046712,
                -1.0738792476579992,
                -1.585716459606937
            ]
        },
        {
            "positions": [
                0.1753385369181082,
                -1.4457766247249544,
                0.5814968369861697,
                -1.3221732997110045,
                -1.0490258653905955,
                -1.6871032679435536
            ]
        },
        {
            "positions": [
                0.05513548908263788,
                -1.4553688620882184,
                0.7005975684673715,
                -1.3113934092173376,
                -1.024172483123192,
                -1.7884900762801705
            ]
        },
        {
            "positions": [
                -0.06506755875283264,
                -1.4649610994514821,
                0.8196982999485734,
                -1.300613518723671,
                -0.9993191008557885,
                -1.8898768846167875
            ]
        },
        {
            "positions": [
                -0.052442308164008494,
                -1.4385819121503143,
                0.9198985353918112,
                -1.2626921114064502,
                -0.9029780263081009,
                -1.9999796577651283
            ]
        },
        {
            "positions": [
                -0.039817057575184354,
                -1.4122027248491464,
                1.020098770835049,
                -1.2247707040892295,
                -0.8066369517604134,
                -2.110082430913469
            ]
        },
        {
            "positions": [
                -0.027191806986360215,
                -1.3858235375479786,
                1.120299006278287,
                -1.1868492967720088,
                -0.7102958772127259,
                -2.2201852040618104
            ]
        },
        {
            "positions": [
                -0.014566556397536068,
                -1.359444350246811,
                1.2204992417215248,
                -1.148927889454788,
                -0.6139548026650383,
                -2.3302879772101512
            ]
        },
        {
            "positions": [
                -0.0019413058087119212,
                -1.3330651629456431,
                1.3206994771647627,
                -1.1110064821375674,
                -0.5176137281173507,
                -2.440390750358492
            ]
        },
        {
            "positions": [
                0.010683944780112212,
                -1.3066859756444753,
                1.4208997126080003,
                -1.0730850748203469,
                -0.42127265356966326,
                -2.550493523506833
            ]
        },
        {
            "positions": [
                0.023309195368936372,
                -1.2803067883433075,
                1.5210999480512384,
                -1.0351636675031262,
                -0.32493157902197567,
                -2.660596296655174
            ]
        },
        {
            "positions": [
                0.035934445957760505,
                -1.2539276010421396,
                1.621300183494476,
                -0.9972422601859054,
                -0.2285905044742882,
                -2.770699069803515
            ]
        },
        {
            "positions": [
                0.04855969654658465,
                -1.2275484137409718,
                1.7215004189377139,
                -0.9593208528686847,
                -0.13224942992660066,
                -2.880801842951856
            ]
        },
        {
            "positions": [
                0.07317581759952874,
                -1.2021026215416724,
                1.8114370902971022,
                -0.9271386817055504,
                -0.04230097009414051,
                -2.956861534080913
            ]
        },
        {
            "positions": [
                0.09779193865247282,
                -1.1766568293423731,
                1.9013737616564905,
                -0.8949565105424159,
                0.04764748973831964,
                -3.03292122520997
            ]
        },
        {
            "positions": [
                0.1224080597054169,
                -1.1512110371430737,
                1.9913104330158788,
                -0.8627743393792815,
                0.1375959495707798,
                -3.108980916339027
            ]
        }
    ]
}