{
    "goal": {
        "global_pose": {
            "orientation": {
                "w": -0.00223480608172531,
                "x": 0.0024358444001904467,
                "y": 0.7094548369677653,
                "z": -0.704743149386269
            },
            "position": {
                "x": 0.6205249238014221,
                "y": -0.6371506643295288,
                "z": 0.19426114857196808
            }
        },
        "name": "move_to_magneteinheit_B"
    },
    "id": "LazyPRMstar_move_to_magneteinheit_B_88",
    "joint_names": [
        "shoulder_pan_joint",
        "shoulder_lift_joint",
        "elbow_joint",
        "wrist_1_joint",
        "wrist_2_joint",
        "wrist_3_joint"
    ],
    "metrics": {
        "cart_traj_len": 3.675673522505885,
        "distance_elbow_joint": 4.298540016468586,
        "distance_shoulder_lift_joint": 1.0249614961862825,
        "distance_shoulder_pan_joint": 1.953645095676305,
        "distance_wrist_1_joint": 4.537896466666174,
        "distance_wrist_2_joint": 3.871177246254641,
        "distance_wrist_3_joint": 3.2038667992891945,
        "smoothness": 0.12236106475592497,
        "time": 5.062952868,
        "traj_len": 4.34627278487455,
        "weighted_distance": 5.8057638973730565
    },
    "planner": "LazyPRMstar",
    "start": {
        "state": {
            "elbow_joint": 2.6216224122426386,
            "shoulder_lift_joint": -1.4174107377796124,
            "shoulder_pan_joint": 0.7066234856936794,
            "wrist_1_joint": 1.9546482284002225,
            "wrist_2_joint": -0.7096286983471962,
            "wrist_3_joint": 0.005740856962016249
        }
    },
    "waypoints": [
        {
            "positions": [
                0.7066234856936794,
                -1.4174107377796124,
                2.6216224122426386,
                1.9546482284002225,
                -0.7096286983471962,
                0.005740856962016249
            ]
        },
        {
            "positions": [
                0.765716322566192,
                -1.4803560706314232,
                2.6328005883790113,
                2.0242133011883916,
                -0.6173369517132155,
                0.08746618185351986
            ]
        },
        {
            "positions": [
                0.8484167180369047,
                -1.540828249132036,
                2.5706493922535683,
                2.006714782906661,
                -0.5138814488994589,
                0.13955321526147055
            ]
        },
        {
            "positions": [
                0.9136154441620818,
                -1.57043031361608,
                2.4497472837266434,
                1.90245774301286,
                -0.44629766238823293,
                0.1444613323915277
            ]
        },
        {
            "positions": [
                0.978814170287259,
                -1.600032378100124,
                2.328845175199719,
                1.798200703119059,
                -0.378713875877007,
                0.14936944952158485
            ]
        },
        {
            "positions": [
                1.0440128964124362,
                -1.629634442584168,
                2.207943066672794,
                1.6939436632252578,
                -0.311130089365781,
                0.154277566651642
            ]
        },
        {
            "positions": [
                1.1092116225376134,
                -1.659236507068212,
                2.0870409581458693,
                1.5896866233314568,
                -0.24354630285455509,
                0.15918568378169914
            ]
        },
        {
            "positions": [
                1.1744103486627906,
                -1.688838571552256,
                1.966138849618945,
                1.4854295834376559,
                -0.17596251634332916,
                0.1640938009117563
            ]
        },
        {
            "positions": [
                1.2396090747879678,
                -1.7184406360363,
                1.84523674109202,
                1.3811725435438547,
                -0.10837872983210317,
                0.16900191804181341
            ]
        },
        {
            "positions": [
                1.304807800913145,
                -1.748042700520344,
                1.7243346325650957,
                1.276915503650054,
                -0.0407949433208773,
                0.17391003517187056
            ]
        },
        {
            "positions": [
                1.3700065270383222,
                -1.777644765004388,
                1.6034325240381708,
                1.1726584637562527,
                0.026788843190348688,
                0.1788181523019277
            ]
        },
        {
            "positions": [
                1.4352052531634993,
                -1.8072468294884318,
                1.4825304155112462,
                1.0684014238624517,
                0.09437262970157456,
                0.18372626943198486
            ]
        },
        {
            "positions": [
                1.5004039792886765,
                -1.836848893972476,
                1.3616283069843214,
                0.9641443839686505,
                0.16195641621280055,
                0.188634386562042
            ]
        },
        {
            "positions": [
                1.5656027054138537,
                -1.8664509584565199,
                1.240726198457397,
                0.8598873440748498,
                0.22954020272402653,
                0.19354250369209916
            ]
        },
        {
            "positions": [
                1.6308014315390307,
                -1.896053022940564,
                1.119824089930472,
                0.7556303041810486,
                0.2971239892352525,
                0.1984506208221563
            ]
        },
        {
            "positions": [
                1.696000157664208,
                -1.925655087424608,
                0.9989219814035475,
                0.6513732642872476,
                0.3647077757464784,
                0.20335873795221343
            ]
        },
        {
            "positions": [
                1.761198883789385,
                -1.955257151908652,
                0.8780198728766229,
                0.5471162243934466,
                0.43229156225770426,
                0.2082668550822706
            ]
        },
        {
            "positions": [
                1.8263976099145622,
                -1.984859216392696,
                0.7571177643496982,
                0.4428591844996457,
                0.49987534876893014,
                0.21317497221232773
            ]
        },
        {
            "positions": [
                1.8915963360397396,
                -2.01446128087674,
                0.6362156558227734,
                0.3386021446058445,
                0.5674591352801562,
                0.2180830893423849
            ]
        },
        {
            "positions": [
                1.9567950621649166,
                -2.044063345360784,
                0.5153135472958486,
                0.2343451047120435,
                0.6350429217913821,
                0.22299120647244203
            ]
        },
        {
            "positions": [
                2.021993788290094,
                -2.073665409844828,
                0.39441143876892415,
                0.13008806481824253,
                0.702626708302608,
                0.22789932360249918
            ]
        },
        {
            "positions": [
                2.087192514415271,
                -2.103267474328872,
                0.27350933024199975,
                0.02583102492444156,
                0.7702104948138341,
                0.23280744073255633
            ]
        },
        {
            "positions": [
                2.1523912405404486,
                -2.132869538812916,
                0.15260722171507446,
                -0.07842601496935986,
                0.83779428132506,
                0.23771555786261347
            ]
        },
        {
            "positions": [
                2.217589966665625,
                -2.16247160329696,
                0.03170511318815006,
                -0.1826830548631606,
                0.905378067836286,
                0.24262367499267062
            ]
        },
        {
            "positions": [
                2.2827886927908025,
                -2.192073667781004,
                -0.08919699533877434,
                -0.28694009475696136,
                0.9729618543475119,
                0.24753179212272775
            ]
        },
        {
            "positions": [
                2.34798741891598,
                -2.221675732265048,
                -0.2100991038656992,
                -0.39119713465076256,
                1.040545640858738,
                0.2524399092527849
            ]
        },
        {
            "positions": [
                2.413186145041157,
                -2.251277796749092,
                -0.33100121239262403,
                -0.49545417454456375,
                1.1081294273699638,
                0.25734802638284204
            ]
        },
        {
            "positions": [
                2.478384871166334,
                -2.280879861233136,
                -0.4519033209195489,
                -0.599711214438365,
                1.1757132138811897,
                0.26225614351289916
            ]
        },
        {
            "positions": [
                2.5435835972915113,
                -2.31048192571718,
                -0.5728054294464732,
                -0.7039682543321659,
                1.2432970003924158,
                0.26716426064295634
            ]
        },
        {
            "positions": [
                2.568377774535279,
                -2.3111520329379607,
                -0.7122790126217271,
                -0.8340596735167981,
                1.267765138558293,
                0.25910577440911914
            ]
        },
        {
            "positions": [
                2.5931719517790466,
                -2.3118221401587418,
                -0.8517525957969809,
                -0.9641510927014303,
                1.2922332767241702,
                0.2510472881752819
            ]
        },
        {
            "positions": [
                2.6179661290228147,
                -2.3124922473795224,
                -0.9912261789722349,
                -1.0942425118860624,
                1.3167014148900476,
                0.24298880194144468
            ]
        },
        {
            "positions": [
                2.6427603062665823,
                -2.313162354600303,
                -1.1306997621474888,
                -1.2243339310706947,
                1.341169553055925,
                0.23493031570760747
            ]
        },
        {
            "positions": [
                2.653672389142206,
                -2.3081951561255103,
                -1.2202120967624894,
                -1.3301969704902232,
                1.2949329894724737,
                0.3222820025040426
            ]
        },
        {
            "positions": [
                2.6540846511564418,
                -2.300429988569835,
                -1.2473589189619088,
                -1.3998170406276853,
                1.1840490875182195,
                0.498710612746322
            ]
        },
        {
            "positions": [
                2.654496913170678,
                -2.2926648210141605,
                -1.274505741161328,
                -1.4694371107651472,
                1.0731651855639652,
                0.6751392229886013
            ]
        },
        {
            "positions": [
                2.6549091751849145,
                -2.2848996534584853,
                -1.3016525633607474,
                -1.539057180902609,
                0.9622812836097109,
                0.8515678332308807
            ]
        },
        {
            "positions": [
                2.6553214371991505,
                -2.2771344859028106,
                -1.3287993855601667,
                -1.608677251040071,
                0.8513973816554565,
                1.02799644347316
            ]
        },
        {
            "positions": [
                2.6557336992133864,
                -2.2693693183471355,
                -1.355946207759586,
                -1.6782973211775332,
                0.7405134797012023,
                1.2044250537154395
            ]
        },
        {
            "positions": [
                2.656145961227623,
                -2.261604150791461,
                -1.3830930299590054,
                -1.747917391314995,
                0.629629577746948,
                1.3808536639577187
            ]
        },
        {
            "positions": [
                2.656558223241859,
                -2.2538389832357857,
                -1.4102398521584245,
                -1.8175374614524569,
                0.5187456757926937,
                1.557282274199998
            ]
        },
        {
            "positions": [
                2.656970485256095,
                -2.246073815680111,
                -1.4373866743578438,
                -1.887157531589919,
                0.40786177383843947,
                1.7337108844422775
            ]
        },
        {
            "positions": [
                2.657382747270331,
                -2.238308648124436,
                -1.4645334965572632,
                -1.956777601727381,
                0.29697787188418523,
                1.910139494684557
            ]
        },
        {
            "positions": [
                2.6577950092845675,
                -2.2305434805687607,
                -1.4916803187566825,
                -2.026397671864843,
                0.18609396992993088,
                2.0865681049268363
            ]
        },
        {
            "positions": [
                2.658207271298804,
                -2.222778313013086,
                -1.5188271409561018,
                -2.0960177420023047,
                0.07521006797567664,
                2.2629967151691157
            ]
        },
        {
            "positions": [
                2.65861953331304,
                -2.215013145457411,
                -1.5459739631555212,
                -2.165637812139767,
                -0.035673833978577596,
                2.439425325411395
            ]
        },
        {
            "positions": [
                2.6590317953272757,
                -2.207247977901736,
                -1.5731207853549405,
                -2.235257882277229,
                -0.14655773593283183,
                2.6158539356536745
            ]
        },
        {
            "positions": [
                2.659444057341512,
                -2.199482810346061,
                -1.6002676075543598,
                -2.3048779524146905,
                -0.2574416378870863,
                2.792282545895954
            ]
        },
        {
            "positions": [
                2.6598563193557485,
                -2.1917176427903864,
                -1.6274144297537791,
                -2.3744980225521526,
                -0.36832553984134053,
                2.9687111561382333
            ]
        },
        {
            "positions": [
                2.6602685813699845,
                -2.1839524752347113,
                -1.6545612519531985,
                -2.4441180926896147,
                -0.4792094417955947,
                3.1451397663805127
            ]
        }
    ]
}