{
    "goal": {
        "global_pose": {
            "orientation": {
                "w": 0.7047431493862688,
                "x": -0.7094548369677653,
                "y": 0.0024358444001904,
                "z": -0.0022348060817251984
            },
            "position": {
                "x": -0.39052492380142206,
                "y": 0.3671506643295288,
                "z": 0.19426114857196808
            }
        },
        "name": "move_to_magneteinheit_D"
    },
    "id": "LazyPRM_move_to_magneteinheit_D_120",
    "joint_names": [
        "shoulder_pan_joint",
        "shoulder_lift_joint",
        "elbow_joint",
        "wrist_1_joint",
        "wrist_2_joint",
        "wrist_3_joint"
    ],
    "metrics": {
        "cart_traj_len": 4.128865574156875,
        "distance_elbow_joint": 3.124789197566375,
        "distance_shoulder_lift_joint": 1.6335483970728764,
        "distance_shoulder_pan_joint": 3.5390602055889384,
        "distance_wrist_1_joint": 3.6003360397820448,
        "distance_wrist_2_joint": 1.6947419823037415,
        "distance_wrist_3_joint": 3.139391796380089,
        "smoothness": 0.34004808257756647,
        "time": 0.16110718499999999,
        "traj_len": 4.0904605631510575,
        "weighted_distance": 5.320312888688035
    },
    "planner": "LazyPRM",
    "start": {
        "state": {
            "elbow_joint": 0.749534889911806,
            "shoulder_lift_joint": -0.6476975780787326,
            "shoulder_pan_joint": -2.711696901376241,
            "wrist_1_joint": -0.07506478083263063,
            "wrist_2_joint": 0.43296659715538205,
            "wrist_3_joint": -3.14703540197715
        }
    },
    "waypoints": [
        {
            "positions": [
                -2.711696901376241,
                -0.6476975780787326,
                0.749534889911806,
                -0.07506478083263063,
                0.43296659715538205,
                -3.14703540197715
            ]
        },
        {
            "positions": [
                -2.7343236457905933,
                -0.6661656071276877,
                0.7032689554095561,
                -0.15841388958204233,
                0.3250381275953944,
                -3.034092454429708
            ]
        },
        {
            "positions": [
                -2.7569503902049455,
                -0.6846336361766429,
                0.6570030209073064,
                -0.24176299833145407,
                0.21710965803540674,
                -2.9211495068822657
            ]
        },
        {
            "positions": [
                -2.7795771346192977,
                -0.7031016652255979,
                0.6107370864050566,
                -0.3251121070808658,
                0.1091811884754191,
                -2.8082065593348235
            ]
        },
        {
            "positions": [
                -2.7828446284791144,
                -0.7182694707898993,
                0.5660605633788792,
                -0.3848553175066185,
                0.03610029554466049,
                -2.7517053695504625
            ]
        },
        {
            "positions": [
                -2.698284475713037,
                -0.748581655415862,
                0.4769041710450959,
                -0.31657101456253933,
                -0.008339055331391725,
                -2.6750985525757165
            ]
        },
        {
            "positions": [
                -2.6137243229469593,
                -0.7788938400418245,
                0.3877477787113126,
                -0.2482867116184602,
                -0.05277840620744394,
                -2.5984917356009705
            ]
        },
        {
            "positions": [
                -2.529164170180882,
                -0.8092060246677871,
                0.29859138637752924,
                -0.18000240867438103,
                -0.09721775708349614,
                -2.5218849186262244
            ]
        },
        {
            "positions": [
                -2.4446040174148047,
                -0.8395182092937497,
                0.20943499404374594,
                -0.11171810573030189,
                -0.14165710795954836,
                -2.445278101651479
            ]
        },
        {
            "positions": [
                -2.3600438646487274,
                -0.8698303939197123,
                0.12027860170996257,
                -0.04343380278622272,
                -0.18609645883560058,
                -2.368671284676733
            ]
        },
        {
            "positions": [
                -2.2754837118826496,
                -0.9001425785456748,
                0.031122209376179266,
                0.024850500157856448,
                -0.23053580971165277,
                -2.292064467701987
            ]
        },
        {
            "positions": [
                -2.1909235591165723,
                -0.9304547631716374,
                -0.058034182957603986,
                0.0931348031019355,
                -0.274975160587705,
                -2.2154576507272408
            ]
        },
        {
            "positions": [
                -2.106363406350495,
                -0.9607669477976,
                -0.14719057529138735,
                0.16141910604601473,
                -0.3194145114637572,
                -2.1388508337524947
            ]
        },
        {
            "positions": [
                -2.0218032535844177,
                -0.9910791324235626,
                -0.2363469676251706,
                0.22970340899009378,
                -0.3638538623398094,
                -2.0622440167777487
            ]
        },
        {
            "positions": [
                -1.93724310081834,
                -1.0213913170495252,
                -0.3255033599589541,
                0.29798771193417306,
                -0.40829321321586165,
                -1.985637199803003
            ]
        },
        {
            "positions": [
                -1.8526829480522626,
                -1.0517035016754877,
                -0.4146597522927373,
                0.3662720148782521,
                -0.4527325640919138,
                -1.909030382828257
            ]
        },
        {
            "positions": [
                -1.768122795286185,
                -1.0820156863014503,
                -0.5038161446265207,
                0.4345563178223314,
                -0.49717191496796603,
                -1.832423565853511
            ]
        },
        {
            "positions": [
                -1.6835626425201078,
                -1.112327870927413,
                -0.5929725369603038,
                0.5028406207664105,
                -0.5416112658440182,
                -1.755816748878765
            ]
        },
        {
            "positions": [
                -1.5761143737959786,
                -1.1459878235061671,
                -0.6444516783781387,
                0.5980794808252483,
                -0.5189952964727915,
                -1.6813783598585696
            ]
        },
        {
            "positions": [
                -1.4686661050718495,
                -1.1796477760849213,
                -0.6959308197959735,
                0.6933183408840862,
                -0.4963793271015648,
                -1.6069399708383743
            ]
        },
        {
            "positions": [
                -1.3612178363477203,
                -1.2133077286636755,
                -0.7474099612138083,
                0.7885572009429241,
                -0.47376335773033806,
                -1.5325015818181789
            ]
        },
        {
            "positions": [
                -1.2537695676235914,
                -1.2469676812424297,
                -0.7988891026316431,
                0.883796061001762,
                -0.4511473883591114,
                -1.4580631927979835
            ]
        },
        {
            "positions": [
                -1.146321298899462,
                -1.280627633821184,
                -0.850368244049478,
                0.9790349210606,
                -0.42853141898788466,
                -1.3836248037777878
            ]
        },
        {
            "positions": [
                -1.038873030175333,
                -1.314287586399938,
                -0.9018473854673128,
                1.0742737811194378,
                -0.40591544961665793,
                -1.3091864147575927
            ]
        },
        {
            "positions": [
                -0.9314247614512039,
                -1.3479475389786921,
                -0.9533265268851477,
                1.1695126411782757,
                -0.38329948024543126,
                -1.234748025737397
            ]
        },
        {
            "positions": [
                -0.8239764927270748,
                -1.3816074915574463,
                -1.0048056683029825,
                1.2647515012371136,
                -0.3606835108742046,
                -1.1603096367172019
            ]
        },
        {
            "positions": [
                -0.7165282240029457,
                -1.4152674441362005,
                -1.0562848097208173,
                1.3599903612959516,
                -0.3380675415029778,
                -1.0858712476970063
            ]
        },
        {
            "positions": [
                -0.6090799552788164,
                -1.4489273967149547,
                -1.1077639511386521,
                1.4552292213547895,
                -0.3154515721317511,
                -1.0114328586768107
            ]
        },
        {
            "positions": [
                -0.5016316865546873,
                -1.482587349293709,
                -1.1592430925564872,
                1.5504680814136274,
                -0.2928356027605244,
                -0.9369944696566154
            ]
        },
        {
            "positions": [
                -0.3941834178305583,
                -1.516247301872463,
                -1.2107222339743218,
                1.6457069414724652,
                -0.2702196333892977,
                -0.8625560806364201
            ]
        },
        {
            "positions": [
                -0.28673514910642917,
                -1.5499072544512171,
                -1.2622013753921566,
                1.740945801531303,
                -0.247603664018071,
                -0.7881176916162246
            ]
        },
        {
            "positions": [
                -0.1792868803823,
                -1.5835672070299713,
                -1.3136805168099916,
                1.836184661590141,
                -0.22498769464684426,
                -0.7136793025960291
            ]
        },
        {
            "positions": [
                -0.07183861165817085,
                -1.6172271596087255,
                -1.3651596582278265,
                1.931423521648979,
                -0.2023717252756176,
                -0.6392409135758337
            ]
        },
        {
            "positions": [
                0.03560965706595809,
                -1.6508871121874797,
                -1.416638799645661,
                2.0266623817078164,
                -0.1797557559043909,
                -0.5648025245556385
            ]
        },
        {
            "positions": [
                0.14305792579008725,
                -1.684547064766234,
                -1.4681179410634961,
                2.121901241766655,
                -0.15713978653316418,
                -0.4903641355354429
            ]
        },
        {
            "positions": [
                0.2505061945142164,
                -1.7182070173449882,
                -1.519597082481331,
                2.2171401018254926,
                -0.13452381716193745,
                -0.4159257465152475
            ]
        },
        {
            "positions": [
                0.23683157666149096,
                -1.7897577075951498,
                -1.6168022995948457,
                2.1581740672634977,
                -0.08911040053351871,
                -0.35497209589985806
            ]
        },
        {
            "positions": [
                0.22315695880876552,
                -1.8613083978453113,
                -1.7140075167083606,
                2.0992080327015032,
                -0.04369698390509996,
                -0.29401844528446863
            ]
        },
        {
            "positions": [
                0.20948234095604007,
                -1.932859088095473,
                -1.8112127338218755,
                2.040241998139509,
                0.0017164327233187837,
                -0.2330647946690792
            ]
        },
        {
            "positions": [
                0.19580772310331462,
                -2.0044097783456345,
                -1.9084179509353902,
                1.981275963577514,
                0.04712984935173753,
                -0.17211114405368977
            ]
        },
        {
            "positions": [
                0.18213310525058915,
                -2.075960468595796,
                -2.005623168048905,
                1.9223099290155192,
                0.09254326598015628,
                -0.11115749343830034
            ]
        },
        {
            "positions": [
                0.1684584873978637,
                -2.147511158845958,
                -2.10282838516242,
                1.8633438944535246,
                0.13795668260857502,
                -0.05020384282291093
            ]
        },
        {
            "positions": [
                0.050953837939069616,
                -2.1920894309478416,
                -2.193637025993136,
                1.7517592689855317,
                0.1514887395591577,
                -0.03601709708096154
            ]
        },
        {
            "positions": [
                -0.06655081151972447,
                -2.2366677030497253,
                -2.2844456668238524,
                1.6401746435175386,
                0.16502079650974036,
                -0.02183035133901215
            ]
        },
        {
            "positions": [
                -0.18405546097851855,
                -2.281245975151609,
                -2.3752543076545685,
                1.5285900180495458,
                0.17855285346032304,
                -0.00764360559706276
            ]
        }
    ]
}