{
    "goal": {
        "global_pose": {
            "orientation": {
                "w": 0.7047431468963623,
                "x": -0.7094548344612122,
                "y": 0.0024358443915843964,
                "z": -0.0022348060738295317
            },
            "position": {
                "x": 0.6094750761985779,
                "y": 0.3671506643295288,
                "z": 0.19426114857196808
            }
        },
        "name": "move_to_magneteinheit_A"
    },
    "id": "LazyPRM_move_to_magneteinheit_A_130",
    "joint_names": [
        "shoulder_pan_joint",
        "shoulder_lift_joint",
        "elbow_joint",
        "wrist_1_joint",
        "wrist_2_joint",
        "wrist_3_joint"
    ],
    "metrics": {
        "cart_traj_len": 3.722502188418676,
        "distance_elbow_joint": 4.002581552624998,
        "distance_shoulder_lift_joint": 0.21479880650832506,
        "distance_shoulder_pan_joint": 2.6762632487704865,
        "distance_wrist_1_joint": 0.8297684961437745,
        "distance_wrist_2_joint": 2.6657433292012587,
        "distance_wrist_3_joint": 2.584652933854082,
        "smoothness": 0.26172626254042686,
        "time": 0.096161552,
        "traj_len": 3.601917318193592,
        "weighted_distance": 4.651733661782038
    },
    "planner": "LazyPRM",
    "start": {
        "state": {
            "elbow_joint": -1.9196185241190666,
            "shoulder_lift_joint": -1.2443396400964142,
            "shoulder_pan_joint": 2.6996025414629847,
            "wrist_1_joint": -1.5485510000780065,
            "wrist_2_joint": -1.5709468930060704,
            "wrist_3_joint": 0.4420197071253992
        }
    },
    "waypoints": [
        {
            "positions": [
                2.6996025414629847,
                -1.2443396400964142,
                -1.9196185241190666,
                -1.5485510000780065,
                -1.5709468930060704,
                0.4420197071253992
            ]
        },
        {
            "positions": [
                2.6039960935442634,
                -1.2380029096575076,
                -1.7942582268974252,
                -1.5282328797515943,
                -1.4835290511997499,
                0.50020975802779
            ]
        },
        {
            "positions": [
                2.5083896456255417,
                -1.2316661792186008,
                -1.668897929675784,
                -1.5079147594251823,
                -1.3961112093934294,
                0.5583998089301809
            ]
        },
        {
            "positions": [
                2.4127831977068204,
                -1.2253294487796942,
                -1.5435376324541425,
                -1.48759663909877,
                -1.3086933675871089,
                0.6165898598325719
            ]
        },
        {
            "positions": [
                2.3171767497880986,
                -1.2189927183407874,
                -1.4181773352325013,
                -1.4672785187723578,
                -1.2212755257807884,
                0.6747799107349627
            ]
        },
        {
            "positions": [
                2.2215703018693773,
                -1.2126559879018808,
                -1.29281703801086,
                -1.4469603984459456,
                -1.1338576839744676,
                0.7329699616373535
            ]
        },
        {
            "positions": [
                2.1259638539506556,
                -1.206319257462974,
                -1.1674567407892187,
                -1.4266422781195336,
                -1.0464398421681471,
                0.7911600125397444
            ]
        },
        {
            "positions": [
                2.0303574060319343,
                -1.1999825270240674,
                -1.0420964435675772,
                -1.4063241577931214,
                -0.9590220003618266,
                0.8493500634421354
            ]
        },
        {
            "positions": [
                1.9347509581132127,
                -1.1936457965851606,
                -0.9167361463459358,
                -1.3860060374667091,
                -0.8716041585555062,
                0.9075401143445262
            ]
        },
        {
            "positions": [
                1.8391445101944912,
                -1.187309066146254,
                -0.7913758491242946,
                -1.365687917140297,
                -0.7841863167491857,
                0.9657301652469171
            ]
        },
        {
            "positions": [
                1.7435380622757697,
                -1.1809723357073474,
                -0.6660155519026532,
                -1.345369796813885,
                -0.6967684749428651,
                1.023920216149308
            ]
        },
        {
            "positions": [
                1.6479316143570482,
                -1.1746356052684406,
                -0.5406552546810119,
                -1.3250516764874727,
                -0.6093506331365446,
                1.0821102670516989
            ]
        },
        {
            "positions": [
                1.5523251664383269,
                -1.168298874829534,
                -0.41529495745937073,
                -1.3047335561610605,
                -0.5219327913302241,
                1.1403003179540896
            ]
        },
        {
            "positions": [
                1.456718718519605,
                -1.1619621443906272,
                -0.28993466023772907,
                -1.2844154358346485,
                -0.43451494952390357,
                1.1984903688564805
            ]
        },
        {
            "positions": [
                1.3611122706008836,
                -1.1556254139517206,
                -0.16457436301608763,
                -1.2640973155082362,
                -0.34709710771758284,
                1.2566804197588715
            ]
        },
        {
            "positions": [
                1.2655058226821623,
                -1.1492886835128138,
                -0.03921406579444664,
                -1.243779195181824,
                -0.25967926591126256,
                1.3148704706612624
            ]
        },
        {
            "positions": [
                1.1698993747634407,
                -1.1429519530739072,
                0.08614623142719502,
                -1.223461074855412,
                -0.17226142410494205,
                1.3730605215636533
            ]
        },
        {
            "positions": [
                1.0742929268447192,
                -1.1366152226350006,
                0.21150652864883623,
                -1.2031429545289998,
                -0.08484358229862132,
                1.4312505724660443
            ]
        },
        {
            "positions": [
                0.9786864789259977,
                -1.1302784921960938,
                0.33686682587047745,
                -1.1828248342025875,
                0.0025742595076989616,
                1.4894406233684352
            ]
        },
        {
            "positions": [
                0.8830800310072762,
                -1.1239417617571872,
                0.46222712309211866,
                -1.1625067138761753,
                0.08999210131401969,
                1.5476306742708257
            ]
        },
        {
            "positions": [
                0.7874735830885546,
                -1.1176050313182804,
                0.5875874203137603,
                -1.142188593549763,
                0.1774099431203402,
                1.6058207251732166
            ]
        },
        {
            "positions": [
                0.6918671351698333,
                -1.1112683008793738,
                0.7129477175354015,
                -1.121870473223351,
                0.2648277849266605,
                1.6640107760756075
            ]
        },
        {
            "positions": [
                0.5962606872511116,
                -1.104931570440467,
                0.8383080147570428,
                -1.1015523528969389,
                0.3522456267329812,
                1.7222008269779985
            ]
        },
        {
            "positions": [
                0.5006542393323903,
                -1.0985948400015604,
                0.9636683119786844,
                -1.0812342325705266,
                0.4396634685393017,
                1.7803908778803894
            ]
        },
        {
            "positions": [
                0.405047791413669,
                -1.0922581095626538,
                1.0890286092003252,
                -1.0609161122441146,
                0.5270813103456222,
                1.8385809287827803
            ]
        },
        {
            "positions": [
                0.30944134349494734,
                -1.085921379123747,
                1.2143889064219668,
                -1.0405979919177024,
                0.614499152151943,
                1.8967709796851713
            ]
        },
        {
            "positions": [
                0.27005993050392213,
                -1.085223606364083,
                1.3489262492552798,
                -1.0199889100840358,
                0.5513969369814059,
                2.0229422060511313
            ]
        },
        {
            "positions": [
                0.2306785175128969,
                -1.0845258336044188,
                1.4834635920885928,
                -0.9993798282503692,
                0.48829472181086886,
                2.1491134324170917
            ]
        },
        {
            "positions": [
                0.19129710452187165,
                -1.0838280608447546,
                1.6180009349219058,
                -0.9787707464167026,
                0.4251925066403318,
                2.2752846587830517
            ]
        },
        {
            "positions": [
                0.15191569153084644,
                -1.0831302880850906,
                1.7525382777552188,
                -0.9581616645830359,
                0.36209029146979477,
                2.4014558851490118
            ]
        },
        {
            "positions": [
                0.1125342785398212,
                -1.0824325153254266,
                1.8870756205885317,
                -0.9375525827493693,
                0.2989880762992577,
                2.527627111514972
            ]
        },
        {
            "positions": [
                0.07315286554879599,
                -1.0817347425657624,
                2.0216129634218447,
                -0.9169435009157026,
                0.23588586112872068,
                2.6537983378809322
            ]
        },
        {
            "positions": [
                0.08975738983422875,
                -1.0991327122249868,
                2.0011629417271486,
                -0.8508898352552124,
                0.20199119678871302,
                2.778089772247115
            ]
        },
        {
            "positions": [
                0.1063619141196615,
                -1.1165306818842113,
                1.9807129200324527,
                -0.7848361695947222,
                0.16809653244870537,
                2.902381206613298
            ]
        },
        {
            "positions": [
                0.12296643840509427,
                -1.1339286515434357,
                1.9602628983377566,
                -0.718782503934232,
                0.1342018681086977,
                3.026672640979481
            ]
        }
    ]
}