{
    "goal": {
        "global_pose": {
            "orientation": {
                "w": -0.4816463035849501,
                "x": 0.5182115481033762,
                "y": 0.4908360881923453,
                "z": -0.5084816262002911
            },
            "position": {
                "x": -0.8240239810943604,
                "y": 0.19912469901144506,
                "z": 0.16403168439865112
            }
        },
        "name": "move_to_storage_D"
    },
    "id": "LazyPRMstar_move_to_storage_D_6",
    "joint_names": [
        "shoulder_pan_joint",
        "shoulder_lift_joint",
        "elbow_joint",
        "wrist_1_joint",
        "wrist_2_joint",
        "wrist_3_joint"
    ],
    "metrics": {
        "cart_traj_len": 3.5456638292426454,
        "distance_elbow_joint": 4.824545017358622,
        "distance_shoulder_lift_joint": 2.0840237033406206,
        "distance_shoulder_pan_joint": 2.8130112374577654,
        "distance_wrist_1_joint": 2.5625329501093765,
        "distance_wrist_2_joint": 0.9931957943486297,
        "distance_wrist_3_joint": 3.1275150548833537,
        "smoothness": 0.299840220303865,
        "time": 5.038663475,
        "traj_len": 4.050286873481725,
        "weighted_distance": 5.120115488123591
    },
    "planner": "LazyPRMstar",
    "start": {
        "state": {
            "elbow_joint": -2.384821988534728,
            "shoulder_lift_joint": -2.2788054721415256,
            "shoulder_pan_joint": -0.1854694642142757,
            "wrist_1_joint": 1.4845938289331202,
            "wrist_2_joint": 0.17898776772866878,
            "wrist_3_joint": 0.037105688729662994
        }
    },
    "waypoints": [
        {
            "positions": [
                -0.1854694642142757,
                -2.2788054721415256,
                -2.384821988534728,
                1.4845938289331202,
                0.17898776772866878,
                0.037105688729662994
            ]
        },
        {
            "positions": [
                -0.10166415507806362,
                -2.227344807872983,
                -2.461254506055461,
                1.51956179557842,
                0.19468655726064374,
                -0.07229129109538218
            ]
        },
        {
            "positions": [
                -0.017858845941851526,
                -2.175884143604441,
                -2.5376870235761935,
                1.55452976222372,
                0.21038534679261867,
                -0.18168827092042736
            ]
        },
        {
            "positions": [
                0.06594646319436057,
                -2.1244234793358987,
                -2.6141195410969265,
                1.58949772886902,
                0.22608413632459362,
                -0.29108525074547253
            ]
        },
        {
            "positions": [
                0.14975177233057269,
                -2.0729628150673562,
                -2.6905520586176594,
                1.6244656955143197,
                0.24178292585656858,
                -0.4004822305705177
            ]
        },
        {
            "positions": [
                0.23259255702021692,
                -2.0205333867233937,
                -2.618094236289585,
                1.5747123104959238,
                0.27298809202872626,
                -0.4965211922926482
            ]
        },
        {
            "positions": [
                0.31543334170986115,
                -1.968103958379431,
                -2.5456364139615104,
                1.5249589254775278,
                0.30419325820088394,
                -0.5925601540147787
            ]
        },
        {
            "positions": [
                0.3982741263995053,
                -1.9156745300354687,
                -2.473178591633436,
                1.4752055404591318,
                0.3353984243730416,
                -0.6885991157369091
            ]
        },
        {
            "positions": [
                0.48111491108914956,
                -1.8632451016915061,
                -2.400720769305362,
                1.4254521554407358,
                0.3666035905451993,
                -0.7846380774590397
            ]
        },
        {
            "positions": [
                0.5639556957787938,
                -1.8108156733475436,
                -2.3282629469772873,
                1.3756987704223396,
                0.39780875671735705,
                -0.8806770391811702
            ]
        },
        {
            "positions": [
                0.6467964804684381,
                -1.7583862450035812,
                -2.255805124649213,
                1.3259453854039438,
                0.4290139228895147,
                -0.9767160009033007
            ]
        },
        {
            "positions": [
                0.7296372651580822,
                -1.7059568166596186,
                -2.1833473023211383,
                1.2761920003855476,
                0.4602190890616724,
                -1.0727549626254311
            ]
        },
        {
            "positions": [
                0.8124780498477264,
                -1.653527388315656,
                -2.1108894799930638,
                1.2264386153671516,
                0.49142425523383004,
                -1.1687939243475616
            ]
        },
        {
            "positions": [
                0.8953188345373707,
                -1.6010979599716935,
                -2.0384316576649892,
                1.1766852303487556,
                0.5226294214059878,
                -1.2648328860696925
            ]
        },
        {
            "positions": [
                0.9781596192270149,
                -1.5486685316277309,
                -1.965973835336915,
                1.1269318453303596,
                0.5538345875781454,
                -1.360871847791823
            ]
        },
        {
            "positions": [
                1.0610004039166592,
                -1.4962391032837685,
                -1.8935160130088404,
                1.0771784603119636,
                0.5850397537503031,
                -1.4569108095139534
            ]
        },
        {
            "positions": [
                1.1438411886063033,
                -1.443809674939806,
                -1.8210581906807661,
                1.0274250752935676,
                0.6162449199224608,
                -1.5529497712360838
            ]
        },
        {
            "positions": [
                1.2266819732959475,
                -1.3913802465958434,
                -1.7486003683526916,
                0.9776716902751715,
                0.6474500860946185,
                -1.6489887329582142
            ]
        },
        {
            "positions": [
                1.309522757985592,
                -1.338950818251881,
                -1.676142546024617,
                0.9279183052567755,
                0.6786552522667761,
                -1.7450276946803447
            ]
        },
        {
            "positions": [
                1.3923635426752359,
                -1.2865213899079184,
                -1.6036847236965426,
                0.8781649202383796,
                0.7098604184389339,
                -1.8410666564024751
            ]
        },
        {
            "positions": [
                1.4752043273648803,
                -1.2340919615639558,
                -1.5312269013684683,
                0.8284115352199836,
                0.7410655846110916,
                -1.9371056181246056
            ]
        },
        {
            "positions": [
                1.5580451120545242,
                -1.1816625332199933,
                -1.4587690790403938,
                0.7786581502015876,
                0.7722707507832492,
                -2.033144579846736
            ]
        },
        {
            "positions": [
                1.6408858967441686,
                -1.1292331048760307,
                -1.3863112567123193,
                0.7289047651831915,
                0.803475916955407,
                -2.129183541568867
            ]
        },
        {
            "positions": [
                1.723726681433813,
                -1.076803676532068,
                -1.3138534343842447,
                0.6791513801647955,
                0.8346810831275646,
                -2.2252225032909974
            ]
        },
        {
            "positions": [
                1.806567466123457,
                -1.0243742481881057,
                -1.2413956120561704,
                0.6293979951463995,
                0.8658862492997224,
                -2.321261465013128
            ]
        },
        {
            "positions": [
                1.8894082508131014,
                -0.9719448198441432,
                -1.168937789728096,
                0.5796446101280035,
                0.89709141547188,
                -2.4173004267352582
            ]
        },
        {
            "positions": [
                1.9722490355027458,
                -0.9195153915001808,
                -1.0964799674000214,
                0.5298912251096075,
                0.9282965816440377,
                -2.5133393884573887
            ]
        },
        {
            "positions": [
                2.0550898201923897,
                -0.8670859631562182,
                -1.024022145071947,
                0.4801378400912115,
                0.9595017478161953,
                -2.609378350179519
            ]
        },
        {
            "positions": [
                2.137930604882034,
                -0.8146565348122556,
                -0.9515643227438726,
                0.43038445507281553,
                0.990706913988353,
                -2.7054173119016496
            ]
        },
        {
            "positions": [
                2.220771389571678,
                -0.7622271064682931,
                -0.8791065004157981,
                0.3806310700544193,
                1.0219120801605108,
                -2.8014562736237805
            ]
        },
        {
            "positions": [
                2.3036121742613225,
                -0.7097976781243305,
                -0.8066486780877236,
                0.33087768503602333,
                1.0531172463326683,
                -2.897495235345911
            ]
        },
        {
            "positions": [
                2.3864529589509664,
                -0.6573682497803681,
                -0.7341908557596493,
                0.28112430001762734,
                1.084322412504826,
                -2.9935341970680414
            ]
        },
        {
            "positions": [
                2.469293743640611,
                -0.6049388214364055,
                -0.6617330334315749,
                0.23137091499923138,
                1.1155275786769838,
                -3.089573158790172
            ]
        },
        {
            "positions": [
                2.4836799281499635,
                -0.6422258262214511,
                -0.43536976778706526,
                0.1377739783616779,
                1.1103770347315007,
                -3.089649177641401
            ]
        },
        {
            "positions": [
                2.498066112659316,
                -0.6795128310064966,
                -0.20900650214255573,
                0.04417704172412443,
                1.1052264907860174,
                -3.0897251964926298
            ]
        },
        {
            "positions": [
                2.5124522971686685,
                -0.7167998357915422,
                0.017356763501953698,
                -0.04941989491342899,
                1.1000759468405343,
                -3.0898012153438588
            ]
        },
        {
            "positions": [
                2.526838481678021,
                -0.7540868405765877,
                0.2437200291464634,
                -0.14301683155098252,
                1.0949254028950512,
                -3.0898772341950878
            ]
        },
        {
            "positions": [
                2.541224666187374,
                -0.7913738453616332,
                0.4700832947909729,
                -0.23661376818853594,
                1.0897748589495682,
                -3.0899532530463167
            ]
        },
        {
            "positions": [
                2.5556108506967266,
                -0.8286608501466788,
                0.6964465604354823,
                -0.3302107048260894,
                1.0846243150040848,
                -3.0900292718975457
            ]
        },
        {
            "positions": [
                2.5699970352060793,
                -0.8659478549317243,
                0.9228098260799921,
                -0.4238076414636429,
                1.0794737710586018,
                -3.0901052907487747
            ]
        },
        {
            "positions": [
                2.584383219715432,
                -0.9032348597167699,
                1.1491730917245015,
                -0.5174045781011964,
                1.0743232271131187,
                -3.0901813096000037
            ]
        },
        {
            "positions": [
                2.598769404224784,
                -0.9405218645018154,
                1.3755363573690111,
                -0.61100151473875,
                1.0691726831676356,
                -3.0902573284512327
            ]
        },
        {
            "positions": [
                2.613155588734137,
                -0.977808869286861,
                1.6018996230135207,
                -0.7045984513763033,
                1.0640221392221523,
                -3.0903333473024617
            ]
        },
        {
            "positions": [
                2.6275417732434896,
                -1.0150958740719065,
                1.8282628886580303,
                -0.7981953880138567,
                1.0588715952766692,
                -3.0904093661536907
            ]
        }
    ]
}