{
    "goal": {
        "global_pose": {
            "orientation": {
                "w": 0.7031023480610252,
                "x": -0.7110244013736278,
                "y": 0.0077485991402295624,
                "z": 0.005598929693374583
            },
            "position": {
                "x": -0.8841497679147869,
                "y": 0.44412534475326537,
                "z": 0.3711530566215515
            }
        },
        "name": "move_to_auspresseinheit_D"
    },
    "id": "LazyPRMstar_move_to_auspresseinheit_D_99",
    "joint_names": [
        "shoulder_pan_joint",
        "shoulder_lift_joint",
        "elbow_joint",
        "wrist_1_joint",
        "wrist_2_joint",
        "wrist_3_joint"
    ],
    "metrics": {
        "cart_traj_len": 0.34373706238261126,
        "distance_elbow_joint": 0.6530632224379913,
        "distance_shoulder_lift_joint": 0.13000653314819255,
        "distance_shoulder_pan_joint": 0.13414091280011992,
        "distance_wrist_1_joint": 0.5764266241368112,
        "distance_wrist_2_joint": 1.4354784254174935,
        "distance_wrist_3_joint": 0.03226964085175732,
        "smoothness": 7.89491931748053e-16,
        "time": 5.000192531,
        "traj_len": 1.7208676180323592,
        "weighted_distance": 2.244511013572931
    },
    "planner": "LazyPRMstar",
    "start": {
        "state": {
            "elbow_joint": -1.8275523626775212,
            "shoulder_lift_joint": -2.126789852344167,
            "shoulder_pan_joint": -0.03513704404078235,
            "wrist_1_joint": -2.347782403156801,
            "wrist_2_joint": -1.6058999987535132,
            "wrist_3_joint": -3.0880379163319196
        }
    },
    "waypoints": [
        {
            "positions": [
                -0.03513704404078235,
                -2.126789852344167,
                -1.8275523626775212,
                -2.347782403156801,
                -1.6058999987535132,
                -3.0880379163319196
            ]
        },
        {
            "positions": [
                -0.05190465814079734,
                -2.143040668987691,
                -1.7459194598727723,
                -2.4198357311739023,
                -1.4264651955763266,
                -3.0840042112254498
            ]
        },
        {
            "positions": [
                -0.06867227224081232,
                -2.159291485631215,
                -1.6642865570680234,
                -2.4918890591910037,
                -1.24703039239914,
                -3.0799705061189804
            ]
        },
        {
            "positions": [
                -0.08543988634082732,
                -2.175542302274739,
                -1.5826536542632745,
                -2.563942387208105,
                -1.067595589221953,
                -3.0759368010125105
            ]
        },
        {
            "positions": [
                -0.10220750044084231,
                -2.1917931189182633,
                -1.5010207514585256,
                -2.6359957152252065,
                -0.8881607860447664,
                -3.071903095906041
            ]
        },
        {
            "positions": [
                -0.1189751145408573,
                -2.208043935561787,
                -1.4193878486537765,
                -2.708049043242308,
                -0.7087259828675798,
                -3.0678693907995713
            ]
        },
        {
            "positions": [
                -0.13574272864087228,
                -2.2242947522053114,
                -1.3377549458490277,
                -2.7801023712594093,
                -0.529291179690393,
                -3.0638356856931015
            ]
        },
        {
            "positions": [
                -0.1525103427408873,
                -2.240545568848835,
                -1.2561220430442788,
                -2.8521556992765107,
                -0.34985637651320634,
                -3.059801980586632
            ]
        },
        {
            "positions": [
                -0.16927795684090227,
                -2.2567963854923594,
                -1.1744891402395299,
                -2.924209027293612,
                -0.17042157333601973,
                -3.0557682754801623
            ]
        }
    ]
}