{
    "goal": {
        "global_pose": {
            "orientation": {
                "w": -0.00223480608172531,
                "x": 0.0024358444001904467,
                "y": 0.7094548369677653,
                "z": -0.704743149386269
            },
            "position": {
                "x": -0.37947507619857795,
                "y": -0.6371506643295288,
                "z": 0.19426114857196808
            }
        },
        "name": "move_to_magneteinheit_C"
    },
    "id": "LazyPRMstar_move_to_magneteinheit_C_102",
    "joint_names": [
        "shoulder_pan_joint",
        "shoulder_lift_joint",
        "elbow_joint",
        "wrist_1_joint",
        "wrist_2_joint",
        "wrist_3_joint"
    ],
    "metrics": {
        "cart_traj_len": 0.9394962389805223,
        "distance_elbow_joint": 0.45250117594199235,
        "distance_shoulder_lift_joint": 0.2540874076629811,
        "distance_shoulder_pan_joint": 0.8902068224343502,
        "distance_wrist_1_joint": 0.8151843386191235,
        "distance_wrist_2_joint": 1.5186535831359802,
        "distance_wrist_3_joint": 0.14382716630905357,
        "smoothness": 1.3273514147802148,
        "time": 5.010212384,
        "traj_len": 2.018529289880006,
        "weighted_distance": 2.587653908171781
    },
    "planner": "LazyPRMstar",
    "start": {
        "state": {
            "elbow_joint": 1.9565354010623817,
            "shoulder_lift_joint": -1.4165861575791021,
            "shoulder_pan_joint": -1.6717766225146293,
            "wrist_1_joint": -0.5286633292919765,
            "wrist_2_joint": 1.472756589071564,
            "wrist_3_joint": -3.1238370188695823
        }
    },
    "waypoints": [
        {
            "positions": [
                -1.6717766225146293,
                -1.4165861575791021,
                1.9565354010623817,
                -0.5286633292919765,
                1.472756589071564,
                -3.1238370188695823
            ]
        },
        {
            "positions": [
                -1.6606915465158723,
                -1.4112250586298596,
                2.019531933737538,
                -0.46480261996613653,
                1.2471179082094535,
                -3.1099605981435303
            ]
        },
        {
            "positions": [
                -1.6496064705171152,
                -1.4058639596806173,
                2.082528466412695,
                -0.4009419106402966,
                1.021479227347343,
                -3.0960841774174783
            ]
        },
        {
            "positions": [
                -1.638521394518358,
                -1.4005028607313748,
                2.1455249990878515,
                -0.3370812013144567,
                0.7958405464852327,
                -3.082207756691426
            ]
        },
        {
            "positions": [
                -1.627436318519601,
                -1.3951417617821322,
                2.208521531763008,
                -0.27322049198861675,
                0.5702018656231223,
                -3.068331335965374
            ]
        },
        {
            "positions": [
                -1.7583644746026734,
                -1.3553274472551993,
                2.2047943309403593,
                -0.33428957905267503,
                0.4845567766303128,
                -3.0762484316603196
            ]
        },
        {
            "positions": [
                -1.8892926306857458,
                -1.3155131327282665,
                2.2010671301177105,
                -0.39535866611673326,
                0.39891168763750345,
                -3.084165527355265
            ]
        },
        {
            "positions": [
                -2.0202207867688182,
                -1.2756988182013336,
                2.1973399292950617,
                -0.45642775318079154,
                0.313266598644694,
                -3.0920826230502105
            ]
        },
        {
            "positions": [
                -2.1334912993163444,
                -1.2473988011300303,
                2.150006568601707,
                -0.5505613132116888,
                0.40305749682197156,
                -3.1082251721302128
            ]
        },
        {
            "positions": [
                -2.2467618118638706,
                -1.2190987840587273,
                2.102673207908352,
                -0.6446948732425861,
                0.49284839499924915,
                -3.1243677212102146
            ]
        },
        {
            "positions": [
                -2.3600323244113968,
                -1.1907987669874243,
                2.055339847214997,
                -0.7388284332734834,
                0.5826392931765267,
                -3.140510270290217
            ]
        },
        {
            "positions": [
                -2.473302836958923,
                -1.162498749916121,
                2.008006486521642,
                -0.8329619933043806,
                0.6724301913538042,
                -3.156652819370219
            ]
        }
    ]
}