{
    "goal": {
        "global_pose": {
            "orientation": {
                "w": -0.00223480608172531,
                "x": 0.0024358444001904467,
                "y": 0.7094548369677653,
                "z": -0.704743149386269
            },
            "position": {
                "x": 0.6205249238014221,
                "y": -0.6371506643295288,
                "z": 0.19426114857196808
            }
        },
        "name": "move_to_magneteinheit_B"
    },
    "id": "LazyPRM_move_to_magneteinheit_B_46",
    "joint_names": [
        "shoulder_pan_joint",
        "shoulder_lift_joint",
        "elbow_joint",
        "wrist_1_joint",
        "wrist_2_joint",
        "wrist_3_joint"
    ],
    "metrics": {
        "cart_traj_len": 1.6130419139344807,
        "distance_elbow_joint": 0.9534094905972497,
        "distance_shoulder_lift_joint": 1.2427275492658008,
        "distance_shoulder_pan_joint": 1.6208567361821022,
        "distance_wrist_1_joint": 0.8664509962363374,
        "distance_wrist_2_joint": 1.5178181012684242,
        "distance_wrist_3_joint": 0.06516087980164899,
        "smoothness": 0.5706069686939136,
        "time": 0.21672265500000001,
        "traj_len": 2.5032825955835594,
        "weighted_distance": 2.963277680282363
    },
    "planner": "LazyPRM",
    "start": {
        "state": {
            "elbow_joint": 2.6216224122426386,
            "shoulder_lift_joint": -1.4174107377796124,
            "shoulder_pan_joint": 0.7066234856936794,
            "wrist_1_joint": 1.9546482284002225,
            "wrist_2_joint": -0.7096286983471962,
            "wrist_3_joint": 0.005740856962016249
        }
    },
    "waypoints": [
        {
            "positions": [
                0.7066234856936794,
                -1.4174107377796124,
                2.6216224122426386,
                1.9546482284002225,
                -0.7096286983471962,
                0.005740856962016249
            ]
        },
        {
            "positions": [
                0.6708434628076141,
                -1.4932732236634396,
                2.5921954649146306,
                1.8173148063908662,
                -0.7132186155836677,
                -0.008502044068826873
            ]
        },
        {
            "positions": [
                0.6350634399215487,
                -1.5691357095472667,
                2.562768517586622,
                1.6799813843815101,
                -0.7168085328201391,
                -0.022744945099669997
            ]
        },
        {
            "positions": [
                0.5180777805971999,
                -1.662429394221502,
                2.477682082442576,
                1.6224944069399614,
                -0.7322186118054167,
                -0.017989993841426875
            ]
        },
        {
            "positions": [
                0.4157698498053697,
                -1.5911644733055084,
                2.4198628566713483,
                1.6606584908525384,
                -0.8390206252204313,
                -0.015709984807018334
            ]
        },
        {
            "positions": [
                0.3134619190135395,
                -1.5198995523895147,
                2.362043630900121,
                1.6988225747651151,
                -0.9458226386354458,
                -0.013429975772609789
            ]
        },
        {
            "positions": [
                0.21115398822170928,
                -1.448634631473521,
                2.304224405128893,
                1.736986658677692,
                -1.0526246520504603,
                -0.011149966738201247
            ]
        },
        {
            "positions": [
                0.10884605742987907,
                -1.3773697105575273,
                2.2464051793576654,
                1.7751507425902688,
                -1.159426665465475,
                -0.008869957703792704
            ]
        },
        {
            "positions": [
                0.006538126638048869,
                -1.3061047896415339,
                2.1885859535864376,
                1.8133148265028458,
                -1.2662286788804895,
                -0.006589948669384161
            ]
        },
        {
            "positions": [
                -0.09576980415378133,
                -1.2348398687255402,
                2.1307667278152103,
                1.8514789104154226,
                -1.373030692295504,
                -0.004309939634975618
            ]
        },
        {
            "positions": [
                -0.19807773494561154,
                -1.1635749478095465,
                2.0729475020439825,
                1.8896429943279995,
                -1.4798327057105185,
                -0.0020299306005670745
            ]
        },
        {
            "positions": [
                -0.30038566573744174,
                -1.0923100268935528,
                2.0151282762727547,
                1.9278070782405763,
                -1.586634719125533,
                0.000250078433841467
            ]
        },
        {
            "positions": [
                -0.40269359652927206,
                -1.0210451059775592,
                1.9573090505015271,
                1.9659711621531533,
                -1.693436732540548,
                0.002530087468250012
            ]
        },
        {
            "positions": [
                -0.5050015273211022,
                -0.9497801850615655,
                1.8994898247302996,
                2.0041352460657302,
                -1.8002387459555624,
                0.0048100965026585535
            ]
        },
        {
            "positions": [
                -0.6073094581129324,
                -0.8785152641455718,
                1.8416705989590718,
                2.042299329978307,
                -1.907040759370577,
                0.0070901055370670985
            ]
        },
        {
            "positions": [
                -0.7096173889047626,
                -0.8072503432295782,
                1.7838513731878443,
                2.0804634138908837,
                -2.0138427727855914,
                0.00937011457147564
            ]
        },
        {
            "positions": [
                -0.8119253196965928,
                -0.7359854223135845,
                1.7260321474166167,
                2.1186274978034607,
                -2.120644786200606,
                0.011650123605884185
            ]
        },
        {
            "positions": [
                -0.914233250488423,
                -0.6647205013975909,
                1.668212921645389,
                2.1567915817160377,
                -2.2274467996156204,
                0.013930132640292728
            ]
        }
    ]
}