{
    "goal": {
        "global_pose": {
            "orientation": {
                "w": 0.5084816217422485,
                "x": -0.49083608388900757,
                "y": 0.5182115435600281,
                "z": -0.4816462993621826
            },
            "position": {
                "x": 0.5540239810943604,
                "y": 0.030875300988554955,
                "z": 0.16403168439865112
            }
        },
        "name": "move_to_storage_A"
    },
    "id": "LazyPRMstar_move_to_storage_A_4",
    "joint_names": [
        "shoulder_pan_joint",
        "shoulder_lift_joint",
        "elbow_joint",
        "wrist_1_joint",
        "wrist_2_joint",
        "wrist_3_joint"
    ],
    "metrics": {
        "cart_traj_len": 0.3533491405984793,
        "distance_elbow_joint": 0.45305232586127064,
        "distance_shoulder_lift_joint": 0.2353726586224636,
        "distance_shoulder_pan_joint": 0.46255884130078617,
        "distance_wrist_1_joint": 0.24991140219673025,
        "distance_wrist_2_joint": 1.0983847405939775,
        "distance_wrist_3_joint": 0.10419604443116448,
        "smoothness": 0.0,
        "time": 5.000727330999999,
        "traj_len": 1.6135290555197301,
        "weighted_distance": 2.0396480688244796
    },
    "planner": "LazyPRMstar",
    "start": {
        "state": {
            "elbow_joint": 1.971548259319323,
            "shoulder_lift_joint": -1.1394851275133948,
            "shoulder_pan_joint": 0.1228115487234821,
            "wrist_1_joint": -0.7804723859257726,
            "wrist_2_joint": 0.12958671773740124,
            "wrist_3_joint": -3.192489227718131
        }
    },
    "waypoints": [
        {
            "positions": [
                0.1228115487234821,
                -1.1394851275133948,
                1.971548259319323,
                -0.7804723859257726,
                0.12958671773740124,
                -3.192489227718131
            ]
        },
        {
            "positions": [
                0.05673171425194122,
                -1.1731097930308896,
                2.0362700201566475,
                -0.8161740148110198,
                0.2864988235365409,
                -3.177604078513679
            ]
        },
        {
            "positions": [
                -0.00934812021959966,
                -1.2067344585483843,
                2.1009917809939718,
                -0.851875643696267,
                0.4434109293356805,
                -3.162718929309227
            ]
        },
        {
            "positions": [
                -0.07542795469114053,
                -1.2403591240658791,
                2.165713541831296,
                -0.8875772725815141,
                0.6003230351348201,
                -3.147833780104775
            ]
        },
        {
            "positions": [
                -0.14150778916268142,
                -1.273983789583374,
                2.2304353026686203,
                -0.9232789014667613,
                0.7572351409339598,
                -3.132948630900323
            ]
        },
        {
            "positions": [
                -0.20758762363422234,
                -1.3076084551008689,
                2.295157063505945,
                -0.9589805303520085,
                0.9141472467330995,
                -3.118063481695871
            ]
        },
        {
            "positions": [
                -0.27366745810576315,
                -1.3412331206183636,
                2.3598788243432693,
                -0.9946821592372557,
                1.071059352532239,
                -3.1031783324914186
            ]
        },
        {
            "positions": [
                -0.33974729257730407,
                -1.3748577861358584,
                2.4246005851805936,
                -1.0303837881225029,
                1.2279714583313788,
                -3.0882931832869667
            ]
        }
    ]
}{
    "goal": {
        "global_pose": {
            "orientation": {
                "w": 0.5084816217422485,
                "x": -0.49083608388900757,
                "y": 0.5182115435600281,
                "z": -0.4816462993621826
            },
            "position": {
                "x": 0.5540239810943604,
                "y": 0.030875300988554955,
                "z": 0.16403168439865112
            }
        },
        "name": "move_to_storage_A"
    },
    "id": "LazyPRMstar_move_to_storage_A_4",
    "joint_names": [
        "shoulder_pan_joint",
        "shoulder_lift_joint",
        "elbow_joint",
        "wrist_1_joint",
        "wrist_2_joint",
        "wrist_3_joint"
    ],
    "metrics": {
        "cart_traj_len": 0.35222128703758226,
        "distance_elbow_joint": 0.4518006155070218,
        "distance_shoulder_lift_joint": 0.23357643994238964,
        "distance_shoulder_pan_joint": 0.45932913012925697,
        "distance_wrist_1_joint": 0.2532843801712825,
        "distance_wrist_2_joint": 1.1022446120285618,
        "distance_wrist_3_joint": 0.10932756761802676,
        "smoothness": 4.440892098500626e-16,
        "time": 5.000349842,
        "traj_len": 1.6154141095695986,
        "weighted_distance": 2.045420952477127
    },
    "planner": "LazyPRMstar",
    "start": {
        "state": {
            "elbow_joint": 1.97154746011099,
            "shoulder_lift_joint": -1.13948474672311,
            "shoulder_pan_joint": 0.12281154466712228,
            "wrist_1_joint": -0.7804688027058302,
            "wrist_2_joint": 0.12958655903071145,
            "wrist_3_joint": 3.0906928834467795
        }
    },
    "waypoints": [
        {
            "positions": [
                0.12281154466712228,
                -1.13948474672311,
                1.97154746011099,
                -0.7804688027058302,
                0.12958655903071145,
                3.0906928834467795
            ]
        },
        {
            "positions": [
                0.05719309750579986,
                -1.1728528095720228,
                2.0360904051834217,
                -0.816652285587442,
                0.28705007503479174,
                3.106311107392212
            ]
        },
        {
            "positions": [
                -0.008425349655522565,
                -1.2062208724209356,
                2.1006333502558534,
                -0.8528357684690537,
                0.444513591038872,
                3.121929331337644
            ]
        },
        {
            "positions": [
                -0.07404379681684499,
                -1.2395889352698484,
                2.165176295328285,
                -0.8890192513506655,
                0.6019771070429523,
                3.1375475552830765
            ]
        },
        {
            "positions": [
                -0.1396622439781674,
                -1.2729569981187612,
                2.2297192404007165,
                -0.9252027342322773,
                0.7594406230470325,
                3.1531657792285093
            ]
        },
        {
            "positions": [
                -0.20528069113948982,
                -1.306325060967674,
                2.294262185473148,
                -0.9613862171138892,
                0.9169041390511128,
                3.1687840031739416
            ]
        },
        {
            "positions": [
                -0.27089913830081225,
                -1.3396931238165868,
                2.35880513054558,
                -0.9975696999955009,
                1.074367655055193,
                3.184402227119374
            ]
        },
        {
            "positions": [
                -0.33651758546213467,
                -1.3730611866654996,
                2.4233480756180117,
                -1.0337531828771127,
                1.2318311710592733,
                3.2000204510648063
            ]
        }
    ]
}{
    "goal": {
        "global_pose": {
            "orientation": {
                "w": 0.5084816217422485,
                "x": -0.49083608388900757,
                "y": 0.5182115435600281,
                "z": -0.4816462993621826
            },
            "position": {
                "x": 0.5540239810943604,
                "y": 0.030875300988554955,
                "z": 0.16403168439865112
            }
        },
        "name": "move_to_storage_A"
    },
    "id": "LazyPRMstar_move_to_storage_A_4",
    "joint_names": [
        "shoulder_pan_joint",
        "shoulder_lift_joint",
        "elbow_joint",
        "wrist_1_joint",
        "wrist_2_joint",
        "wrist_3_joint"
    ],
    "metrics": {
        "cart_traj_len": 0.3534672025037854,
        "distance_elbow_joint": 0.4528656933998181,
        "distance_shoulder_lift_joint": 0.23457536155329128,
        "distance_shoulder_pan_joint": 0.4595715355407307,
        "distance_wrist_1_joint": 0.2546546635197098,
        "distance_wrist_2_joint": 1.1113172099285529,
        "distance_wrist_3_joint": 0.1009311515392648,
        "smoothness": 0.0,
        "time": 5.000138968,
        "traj_len": 1.616760840533122,
        "weighted_distance": 2.044932710875387
    },
    "planner": "LazyPRMstar",
    "start": {
        "state": {
            "elbow_joint": 1.9715472970024885,
            "shoulder_lift_joint": -1.1394870060712896,
            "shoulder_pan_joint": 0.12281152778156021,
            "wrist_1_joint": -0.780463741449964,
            "wrist_2_joint": 0.12958659822042276,
            "wrist_3_joint": 3.090690232415272
        }
    },
    "waypoints": [
        {
            "positions": [
                0.12281152778156021,
                -1.1394870060712896,
                1.9715472970024885,
                -0.780463741449964,
                0.12958659822042276,
                3.090690232415272
            ]
        },
        {
            "positions": [
                0.05715845127574154,
                -1.172997772007474,
                2.036242396059605,
                -0.8168429790956369,
                0.28834619963878744,
                3.1051089683494526
            ]
        },
        {
            "positions": [
                -0.00849462523007713,
                -1.2065085379436586,
                2.1009374951167223,
                -0.8532222167413096,
                0.44710580105715214,
                3.1195277042836334
            ]
        },
        {
            "positions": [
                -0.0741477017358958,
                -1.240019303879843,
                2.165632594173839,
                -0.8896014543869825,
                0.6058654024755168,
                3.133946440217814
            ]
        },
        {
            "positions": [
                -0.13980077824171447,
                -1.2735300698160275,
                2.230327693230956,
                -0.9259806920326553,
                0.7646250038938814,
                3.1483651761519944
            ]
        },
        {
            "positions": [
                -0.20545385474753317,
                -1.307040835752212,
                2.295022792288073,
                -0.9623599296783281,
                0.9233846053122462,
                3.162783912086175
            ]
        },
        {
            "positions": [
                -0.27110693125335183,
                -1.3405516016883965,
                2.3597178913451895,
                -0.9987391673240009,
                1.0821442067306108,
                3.177202648020356
            ]
        },
        {
            "positions": [
                -0.3367600077591705,
                -1.374062367624581,
                2.4244129904023066,
                -1.0351184049696738,
                1.2409038081489756,
                3.1916213839545367
            ]
        }
    ]
}