{
    "goal": {
        "global_pose": {
            "orientation": {
                "w": 0.7047431493862688,
                "x": -0.7094548369677653,
                "y": 0.0024358444001904,
                "z": -0.0022348060817251984
            },
            "position": {
                "x": -0.39052492380142206,
                "y": 0.3671506643295288,
                "z": 0.19426114857196808
            }
        },
        "name": "move_to_magneteinheit_D"
    },
    "id": "LazyPRM_move_to_magneteinheit_D_49",
    "joint_names": [
        "shoulder_pan_joint",
        "shoulder_lift_joint",
        "elbow_joint",
        "wrist_1_joint",
        "wrist_2_joint",
        "wrist_3_joint"
    ],
    "metrics": {
        "cart_traj_len": 5.888677371901461,
        "distance_elbow_joint": 3.103178035303095,
        "distance_shoulder_lift_joint": 1.1025187698088488,
        "distance_shoulder_pan_joint": 7.086445187451602,
        "distance_wrist_1_joint": 2.149608801444124,
        "distance_wrist_2_joint": 3.015272943229309,
        "distance_wrist_3_joint": 2.6597989531058963,
        "smoothness": 0.43319267464927996,
        "time": 0.168829644,
        "traj_len": 4.372278889817402,
        "weighted_distance": 5.4407078897169345
    },
    "planner": "LazyPRM",
    "start": {
        "state": {
            "elbow_joint": 0.749534889911806,
            "shoulder_lift_joint": -0.6476975780787326,
            "shoulder_pan_joint": -2.711696901376241,
            "wrist_1_joint": -0.07506478083263063,
            "wrist_2_joint": 0.43296659715538205,
            "wrist_3_joint": -3.14703540197715
        }
    },
    "waypoints": [
        {
            "positions": [
                -2.711696901376241,
                -0.6476975780787326,
                0.749534889911806,
                -0.07506478083263063,
                0.43296659715538205,
                -3.14703540197715
            ]
        },
        {
            "positions": [
                -2.7251763653909493,
                -0.7098291708670784,
                0.5941423543557978,
                -0.07695317708622153,
                0.35906523993107653,
                -3.123469800129061
            ]
        },
        {
            "positions": [
                -2.7386558294056575,
                -0.7719607636554242,
                0.43874981879978947,
                -0.07884157333981243,
                0.28516388270677095,
                -3.099904198280972
            ]
        },
        {
            "positions": [
                -2.567022052151801,
                -0.7890329906333439,
                0.35998792183477357,
                -0.10036694198070167,
                0.22558615481549052,
                -3.0531214173374317
            ]
        },
        {
            "positions": [
                -2.3953882748979445,
                -0.8061052176112634,
                0.2812260248697577,
                -0.12189231062159092,
                0.16600842692421008,
                -3.0063386363938918
            ]
        },
        {
            "positions": [
                -2.2237544976440877,
                -0.8231774445891831,
                0.20246412790474178,
                -0.14341767926248017,
                0.10643069903292968,
                -2.9595558554503514
            ]
        },
        {
            "positions": [
                -2.0521207203902314,
                -0.8402496715671027,
                0.12370223093972588,
                -0.16494304790336944,
                0.04685297114164924,
                -2.9127730745068114
            ]
        },
        {
            "positions": [
                -1.8804869431363747,
                -0.8573218985450224,
                0.04494033397470998,
                -0.1864684165442587,
                -0.012724756749631194,
                -2.865990293563271
            ]
        },
        {
            "positions": [
                -1.7088531658825181,
                -0.8743941255229419,
                -0.03382156299030592,
                -0.20799378518514794,
                -0.0723024846409116,
                -2.819207512619731
            ]
        },
        {
            "positions": [
                -1.5372193886286616,
                -0.8914663525008616,
                -0.11258345995532182,
                -0.2295191538260372,
                -0.13188021253219206,
                -2.7724247316761907
            ]
        },
        {
            "positions": [
                -1.365585611374805,
                -0.9085385794787812,
                -0.19134535692033772,
                -0.25104452246692643,
                -0.19145794042347247,
                -2.725641950732651
            ]
        },
        {
            "positions": [
                -1.1939518341209483,
                -0.9256108064567008,
                -0.2701072538853536,
                -0.2725698911078157,
                -0.251035668314753,
                -2.6788591697891104
            ]
        },
        {
            "positions": [
                -1.0223180568670918,
                -0.9426830334346205,
                -0.3488691508503695,
                -0.294095259748705,
                -0.31061339620603334,
                -2.6320763888455705
            ]
        },
        {
            "positions": [
                -0.8506842796132355,
                -0.9597552604125401,
                -0.4276310478153854,
                -0.31562062838959415,
                -0.3701911240973138,
                -2.58529360790203
            ]
        },
        {
            "positions": [
                -0.6790505023593787,
                -0.9768274873904597,
                -0.5063929447804013,
                -0.3371459970304834,
                -0.42976885198859416,
                -2.53851082695849
            ]
        },
        {
            "positions": [
                -0.5074167251055219,
                -0.9938997143683793,
                -0.5851548417454172,
                -0.3586713656713727,
                -0.48934657987987473,
                -2.49172804601495
            ]
        },
        {
            "positions": [
                -0.3357829478516656,
                -1.010971941346299,
                -0.6639167387104331,
                -0.380196734312262,
                -0.5489243077711551,
                -2.44494526507141
            ]
        },
        {
            "positions": [
                -0.1641491705978093,
                -1.0280441683242185,
                -0.742678635675449,
                -0.40172210295315114,
                -0.6085020356624354,
                -2.3981624841278695
            ]
        },
        {
            "positions": [
                0.007484606656047443,
                -1.0451163953021383,
                -0.8214405326404649,
                -0.4232474715940404,
                -0.6680797635537159,
                -2.3513797031843295
            ]
        },
        {
            "positions": [
                0.17911838390990376,
                -1.0621886222800578,
                -0.9002024296054808,
                -0.4447728402349297,
                -0.7276574914449964,
                -2.304596922240789
            ]
        },
        {
            "positions": [
                0.35075216116376096,
                -1.0792608492579774,
                -0.9789643265704967,
                -0.46629820887581896,
                -0.7872352193362769,
                -2.2578141412972492
            ]
        },
        {
            "positions": [
                0.5223859384176173,
                -1.0963330762358972,
                -1.0577262235355125,
                -0.48782357751670824,
                -0.8468129472275573,
                -2.211031360353709
            ]
        },
        {
            "positions": [
                0.694019715671474,
                -1.1134053032138167,
                -1.1364881205005286,
                -0.5093489461575975,
                -0.9063906751188376,
                -2.1642485794101685
            ]
        },
        {
            "positions": [
                0.8656534929253303,
                -1.1304775301917362,
                -1.2152500174655443,
                -0.5308743147984867,
                -0.965968403010118,
                -2.1174657984666285
            ]
        },
        {
            "positions": [
                1.0372872701791866,
                -1.147549757169656,
                -1.2940119144305604,
                -0.552399683439376,
                -1.0255461309013985,
                -2.0706830175230886
            ]
        },
        {
            "positions": [
                1.2089210474330434,
                -1.1646219841475756,
                -1.372773811395576,
                -0.5739250520802652,
                -1.085123858792679,
                -2.023900236579548
            ]
        },
        {
            "positions": [
                1.3805548246869002,
                -1.181694211125495,
                -1.4515357083605922,
                -0.5954504207211545,
                -1.1447015866839592,
                -1.977117455636008
            ]
        },
        {
            "positions": [
                1.552188601940757,
                -1.1987664381034149,
                -1.5302976053256079,
                -0.6169757893620438,
                -1.2042793145752397,
                -1.9303346746924679
            ]
        },
        {
            "positions": [
                1.7238223791946137,
                -1.2158386650813344,
                -1.609059502290624,
                -0.6385011580029331,
                -1.2638570424665203,
                -1.8835518937489277
            ]
        },
        {
            "positions": [
                1.8954561564484695,
                -1.2329108920592542,
                -1.6878213992556401,
                -0.6600265266438222,
                -1.3234347703578009,
                -1.8367691128053876
            ]
        },
        {
            "positions": [
                2.0670899337023263,
                -1.2499831190371737,
                -1.7665832962206558,
                -0.6815518952847115,
                -1.383012498249081,
                -1.7899863318618474
            ]
        },
        {
            "positions": [
                1.9484720128436839,
                -1.276311183713511,
                -1.7974811830191102,
                -0.7627688261790295,
                -1.3198917694161945,
                -1.8585521151771418
            ]
        },
        {
            "positions": [
                1.8298540919850415,
                -1.3026392483898481,
                -1.8283790698175644,
                -0.8439857570733477,
                -1.2567710405833077,
                -1.9271178984924362
            ]
        },
        {
            "positions": [
                1.7112361711263988,
                -1.3289673130661854,
                -1.8592769566160188,
                -0.9252026879676657,
                -1.1936503117504211,
                -1.9956836818077306
            ]
        },
        {
            "positions": [
                1.5926182502677566,
                -1.3552953777425227,
                -1.8901748434144732,
                -1.0064196188619838,
                -1.1305295829175346,
                -2.064249465123025
            ]
        },
        {
            "positions": [
                1.474000329409114,
                -1.38162344241886,
                -1.9210727302129276,
                -1.0876365497563019,
                -1.0674088540846478,
                -2.1328152484383196
            ]
        },
        {
            "positions": [
                1.3553824085504715,
                -1.4079515070951971,
                -1.9519706170113817,
                -1.16885348065062,
                -1.0042881252517613,
                -2.201381031753614
            ]
        },
        {
            "positions": [
                1.2367644876918291,
                -1.4342795717715344,
                -1.9828685038098361,
                -1.2500704115449381,
                -0.9411673964188747,
                -2.2699468150689084
            ]
        },
        {
            "positions": [
                1.1181465668331867,
                -1.4606076364478717,
                -2.0137663906082905,
                -1.3312873424392562,
                -0.878046667585988,
                -2.338512598384203
            ]
        },
        {
            "positions": [
                0.9995286459745443,
                -1.486935701124209,
                -2.0446642774067447,
                -1.4125042733335742,
                -0.8149259387531015,
                -2.407078381699497
            ]
        },
        {
            "positions": [
                0.8809107251159018,
                -1.5132637658005461,
                -2.0755621642051993,
                -1.4937212042278922,
                -0.7518052099202148,
                -2.4756441650147916
            ]
        },
        {
            "positions": [
                0.7622928042572592,
                -1.5395918304768834,
                -2.1064600510036535,
                -1.5749381351222103,
                -0.6886844810873282,
                -2.544209948330086
            ]
        },
        {
            "positions": [
                0.6436748833986168,
                -1.5659198951532207,
                -2.1373579378021077,
                -1.6561550660165283,
                -0.6255637522544416,
                -2.6127757316453804
            ]
        },
        {
            "positions": [
                0.5250569625399744,
                -1.592247959829558,
                -2.1682558246005623,
                -1.7373719969108465,
                -0.5624430234215549,
                -2.6813415149606747
            ]
        },
        {
            "positions": [
                0.40643904168133194,
                -1.618576024505895,
                -2.1991537113990165,
                -1.8185889278051646,
                -0.4993222945886684,
                -2.749907298275969
            ]
        },
        {
            "positions": [
                0.2878211208226895,
                -1.6449040891822324,
                -2.2300515981974707,
                -1.8998058586994826,
                -0.4362015657557816,
                -2.8184730815912635
            ]
        },
        {
            "positions": [
                0.1692031999640471,
                -1.6712321538585697,
                -2.2609494849959253,
                -1.9810227895938006,
                -0.37308083692289506,
                -2.887038864906558
            ]
        },
        {
            "positions": [
                0.050585279105404446,
                -1.6975602185349068,
                -2.2918473717943795,
                -2.062239720488119,
                -0.3099601080900085,
                -2.9556046482218523
            ]
        },
        {
            "positions": [
                -0.06803264175323775,
                -1.723888283211244,
                -2.3227452585928337,
                -2.1434566513824365,
                -0.24683937925712196,
                -3.0241704315371467
            ]
        },
        {
            "positions": [
                -0.1866505626118803,
                -1.7502163478875814,
                -2.3536431453912883,
                -2.224673582276755,
                -0.18371865042423516,
                -3.092736214852441
            ]
        }
    ]
}