{
    "goal": {
        "global_pose": {
            "orientation": {
                "w": -0.4816463035849501,
                "x": 0.5182115481033762,
                "y": 0.4908360881923453,
                "z": -0.5084816262002911
            },
            "position": {
                "x": -0.8240239810943604,
                "y": 0.19912469901144506,
                "z": 0.16403168439865112
            }
        },
        "name": "move_to_storage_D"
    },
    "id": "LazyPRM_move_to_storage_D_76",
    "joint_names": [
        "shoulder_pan_joint",
        "shoulder_lift_joint",
        "elbow_joint",
        "wrist_1_joint",
        "wrist_2_joint",
        "wrist_3_joint"
    ],
    "metrics": {
        "cart_traj_len": 0.8243054626241981,
        "distance_elbow_joint": 0.6808706160300038,
        "distance_shoulder_lift_joint": 0.42551759984108006,
        "distance_shoulder_pan_joint": 0.5544455894382173,
        "distance_wrist_1_joint": 3.826414211236175,
        "distance_wrist_2_joint": 1.7955496961131252,
        "distance_wrist_3_joint": 3.1218936567398665,
        "smoothness": 0.12429723204264513,
        "time": 0.11058422,
        "traj_len": 3.225630383258204,
        "weighted_distance": 4.719156978765116
    },
    "planner": "LazyPRM",
    "start": {
        "state": {
            "elbow_joint": -2.384821988534728,
            "shoulder_lift_joint": -2.2788054721415256,
            "shoulder_pan_joint": -0.1854694642142757,
            "wrist_1_joint": 1.4845938289331202,
            "wrist_2_joint": 0.17898776772866878,
            "wrist_3_joint": 0.037105688729662994
        }
    },
    "waypoints": [
        {
            "positions": [
                -0.1854694642142757,
                -2.2788054721415256,
                -2.384821988534728,
                1.4845938289331202,
                0.17898776772866878,
                0.037105688729662994
            ]
        },
        {
            "positions": [
                -0.1682224350590552,
                -2.262110135981464,
                -2.405426249235751,
                1.4613504155346133,
                0.16245818322363187,
                -0.23241103882795086
            ]
        },
        {
            "positions": [
                -0.1509754059038347,
                -2.2454147998214027,
                -2.426030509936774,
                1.4381070021361066,
                0.14592859871859493,
                -0.5019277663855647
            ]
        },
        {
            "positions": [
                -0.1337283767486142,
                -2.228719463661341,
                -2.446634770637797,
                1.4148635887375998,
                0.129399014213558,
                -0.7714444939431786
            ]
        },
        {
            "positions": [
                -0.09087019733539034,
                -2.194728700257584,
                -2.3882102379476584,
                1.3661281839325112,
                0.09008712723612003,
                -0.9241997253393492
            ]
        },
        {
            "positions": [
                -0.048012017922166486,
                -2.1607379368538266,
                -2.3297857052575197,
                1.3173927791274227,
                0.05077524025868203,
                -1.0769549567355199
            ]
        },
        {
            "positions": [
                -0.005153838508942632,
                -2.1267471734500694,
                -2.271361172567381,
                1.2686573743223342,
                0.011463353281244051,
                -1.2297101881316908
            ]
        },
        {
            "positions": [
                0.037704340904281236,
                -2.0927564100463125,
                -2.2129366398772423,
                1.2199219695172456,
                -0.027848533696193944,
                -1.3824654195278614
            ]
        },
        {
            "positions": [
                0.0805625203175051,
                -2.0587656466425552,
                -2.1545121071871036,
                1.171186564712157,
                -0.06716042067363195,
                -1.5352206509240323
            ]
        },
        {
            "positions": [
                0.12342069973072894,
                -2.024774883238798,
                -2.096087574496965,
                1.1224511599070686,
                -0.10647230765106991,
                -1.687975882320203
            ]
        },
        {
            "positions": [
                0.16627887914395284,
                -1.9907841198350407,
                -2.0376630418068262,
                1.07371575510198,
                -0.1457841946285079,
                -1.8407311137163735
            ]
        },
        {
            "positions": [
                0.1543555117274829,
                -1.9988721343958993,
                -2.0253050356247106,
                0.8728018646663898,
                -0.2323005319082696,
                -1.9139109286748341
            ]
        },
        {
            "positions": [
                0.14243214431101298,
                -2.006960148956758,
                -2.012947029442595,
                0.6718879742307995,
                -0.3188168691880313,
                -1.9870907436332947
            ]
        },
        {
            "positions": [
                0.13050877689454304,
                -2.015048163517616,
                -2.0005890232604795,
                0.4709740837952091,
                -0.40533320646779303,
                -2.060270558591755
            ]
        },
        {
            "positions": [
                0.11858540947807314,
                -2.0231361780784747,
                -1.9882310170783641,
                0.27006019335961895,
                -0.4918495437475547,
                -2.133450373550216
            ]
        },
        {
            "positions": [
                0.10666204206160321,
                -2.0312241926393333,
                -1.9758730108962486,
                0.06914630292402868,
                -0.5783658810273165,
                -2.2066301885086763
            ]
        },
        {
            "positions": [
                0.09473867464513328,
                -2.039312207200192,
                -1.9635150047141332,
                -0.1317675875115618,
                -0.6648822183070782,
                -2.279810003467137
            ]
        },
        {
            "positions": [
                0.08281530722866337,
                -2.0474002217610505,
                -1.9511569985320176,
                -0.33268147794715186,
                -0.7513985555868398,
                -2.3529898184255975
            ]
        },
        {
            "positions": [
                0.07089193981219344,
                -2.055488236321909,
                -1.938798992349902,
                -0.5335953683827421,
                -0.8379148928666015,
                -2.4261696333840583
            ]
        },
        {
            "positions": [
                0.058968572395723506,
                -2.0635762508827673,
                -1.9264409861677867,
                -0.7345092588183326,
                -0.9244312301463632,
                -2.4993494483425187
            ]
        },
        {
            "positions": [
                0.047045204979253574,
                -2.071664265443626,
                -1.9140829799856711,
                -0.9354231492539227,
                -1.010947567426125,
                -2.5725292633009795
            ]
        },
        {
            "positions": [
                0.03512183756278364,
                -2.0797522800044845,
                -1.9017249738035555,
                -1.1363370396895132,
                -1.0974639047058865,
                -2.64570907825944
            ]
        },
        {
            "positions": [
                0.02319847014631371,
                -2.087840294565343,
                -1.8893669676214402,
                -1.3372509301251037,
                -1.1839802419856484,
                -2.7188888932179007
            ]
        },
        {
            "positions": [
                0.011275102729843806,
                -2.0959283091262018,
                -1.8770089614393246,
                -1.5381648205606933,
                -1.27049657926541,
                -2.792068708176361
            ]
        },
        {
            "positions": [
                -0.0006482646866260988,
                -2.1040163236870604,
                -1.864650955257209,
                -1.7390787109962837,
                -1.3570129165451716,
                -2.865248523134822
            ]
        },
        {
            "positions": [
                -0.012571632103096031,
                -2.1121043382479185,
                -1.8522929490750935,
                -1.9399926014318742,
                -1.4435292538249334,
                -2.9384283380932823
            ]
        },
        {
            "positions": [
                -0.024494999519565963,
                -2.120192352808777,
                -1.839934942892978,
                -2.1409064918674643,
                -1.530045591104695,
                -3.0116081530517427
            ]
        },
        {
            "positions": [
                -0.03641836693603591,
                -2.1282803673696358,
                -1.8275769367108625,
                -2.341820382303055,
                -1.6165619283844568,
                -3.0847879680102035
            ]
        }
    ]
}