{
    "goal": {
        "global_pose": {
            "orientation": {
                "w": 0.005598929693374612,
                "x": 0.007748599140229565,
                "y": 0.7110244013736278,
                "z": -0.7031023480610252
            },
            "position": {
                "x": -0.8858502320852131,
                "y": -0.7141253447532654,
                "z": 0.3711530566215515
            }
        },
        "name": "move_to_auspresseinheit_C"
    },
    "id": "LazyPRM_move_to_auspresseinheit_C_71",
    "joint_names": [
        "shoulder_pan_joint",
        "shoulder_lift_joint",
        "elbow_joint",
        "wrist_1_joint",
        "wrist_2_joint",
        "wrist_3_joint"
    ],
    "metrics": {
        "cart_traj_len": 0.4944388373801934,
        "distance_elbow_joint": 1.015519235686905,
        "distance_shoulder_lift_joint": 0.3320284517703296,
        "distance_shoulder_pan_joint": 0.2559704880802114,
        "distance_wrist_1_joint": 0.7029450037683351,
        "distance_wrist_2_joint": 1.3211990645067557,
        "distance_wrist_3_joint": 0.07367389139131619,
        "smoothness": 0.0,
        "time": 0.012731348,
        "traj_len": 1.923885686625859,
        "weighted_distance": 2.4233918350653854
    },
    "planner": "LazyPRM",
    "start": {
        "state": {
            "elbow_joint": 1.7527959577737207,
            "shoulder_lift_joint": -0.9740617694225068,
            "shoulder_pan_joint": -2.967991417825858,
            "wrist_1_joint": -0.759517768980727,
            "wrist_2_joint": 1.7443932448377408,
            "wrist_3_joint": -3.0840537646736568
        }
    },
    "waypoints": [
        {
            "positions": [
                -2.967991417825858,
                -0.9740617694225068,
                1.7527959577737207,
                -0.759517768980727,
                1.7443932448377408,
                -3.0840537646736568
            ]
        },
        {
            "positions": [
                -2.942394369017837,
                -0.9408589242454738,
                1.65124403420503,
                -0.6892232686038935,
                1.6122733383870653,
                -3.0914211538127883
            ]
        },
        {
            "positions": [
                -2.916797320209816,
                -0.9076560790684408,
                1.5496921106363397,
                -0.6189287682270599,
                1.4801534319363896,
                -3.09878854295192
            ]
        },
        {
            "positions": [
                -2.8912002714017944,
                -0.8744532338914079,
                1.4481401870676491,
                -0.5486342678502265,
                1.348033525485714,
                -3.1061559320910517
            ]
        },
        {
            "positions": [
                -2.8656032225937733,
                -0.841250388714375,
                1.3465882634989588,
                -0.4783397674733929,
                1.2159136190350384,
                -3.113523321230183
            ]
        },
        {
            "positions": [
                -2.8400061737857523,
                -0.808047543537342,
                1.2450363399302682,
                -0.4080452670965594,
                1.083793712584363,
                -3.1208907103693146
            ]
        },
        {
            "positions": [
                -2.814409124977731,
                -0.774844698360309,
                1.1434844163615776,
                -0.3377507667197259,
                0.9516738061336875,
                -3.1282580995084466
            ]
        },
        {
            "positions": [
                -2.78881207616971,
                -0.741641853183276,
                1.0419324927928872,
                -0.26745626634289243,
                0.8195538996830118,
                -3.135625488647578
            ]
        },
        {
            "positions": [
                -2.7632150273616887,
                -0.708439008006243,
                0.9403805692241967,
                -0.19716176596605883,
                0.6874339932323361,
                -3.1429928777867095
            ]
        },
        {
            "positions": [
                -2.7376179785536676,
                -0.6752361628292101,
                0.8388286456555062,
                -0.12686726558922534,
                0.5553140867816606,
                -3.1503602669258415
            ]
        },
        {
            "positions": [
                -2.7120209297456466,
                -0.6420333176521772,
                0.7372767220868157,
                -0.056572765212391886,
                0.42319418033098505,
                -3.157727656064973
            ]
        }
    ]
}