{
    "goal": {
        "global_pose": {
            "orientation": {
                "w": 0.7031023502349854,
                "x": -0.7110244035720825,
                "y": 0.007748599164187908,
                "z": 0.005598929710686207
            },
            "position": {
                "x": 0.11585023208521307,
                "y": 0.44412534475326537,
                "z": 0.3711530566215515
            }
        },
        "name": "move_to_auspresseinheit_A"
    },
    "id": "LazyPRMstar_move_to_auspresseinheit_A_114",
    "joint_names": [
        "shoulder_pan_joint",
        "shoulder_lift_joint",
        "elbow_joint",
        "wrist_1_joint",
        "wrist_2_joint",
        "wrist_3_joint"
    ],
    "metrics": {
        "cart_traj_len": 0.6655606736591033,
        "distance_elbow_joint": 0.6086842034575772,
        "distance_shoulder_lift_joint": 0.534497379246526,
        "distance_shoulder_pan_joint": 1.141153941964789,
        "distance_wrist_1_joint": 0.7132192579657479,
        "distance_wrist_2_joint": 1.2367298321844484,
        "distance_wrist_3_joint": 0.3676431167095342,
        "smoothness": 1.0450879402639899,
        "time": 5.006749909,
        "traj_len": 2.145210416609201,
        "weighted_distance": 2.699474588711271
    },
    "planner": "LazyPRMstar",
    "start": {
        "state": {
            "elbow_joint": 2.4225746658250005,
            "shoulder_lift_joint": -1.3736534386056498,
            "shoulder_pan_joint": -0.3378633547517467,
            "wrist_1_joint": -1.0288598680537169,
            "wrist_2_joint": 1.233022673432363,
            "wrist_3_joint": -3.0940220416140027
        }
    },
    "waypoints": [
        {
            "positions": [
                -0.3378633547517467,
                -1.3736534386056498,
                2.4225746658250005,
                -1.0288598680537169,
                1.233022673432363,
                -3.0940220416140027
            ]
        },
        {
            "positions": [
                -0.34737135736678226,
                -1.4578815648533716,
                2.4805979580134987,
                -1.0435915187930347,
                1.0581127088961517,
                -3.0617608139633323
            ]
        },
        {
            "positions": [
                -0.3568793599818178,
                -1.5421096911010934,
                2.538621250201997,
                -1.0583231695323525,
                0.8832027443599406,
                -3.0294995863126624
            ]
        },
        {
            "positions": [
                -0.3663873625968534,
                -1.626337817348815,
                2.5966445423904956,
                -1.07305482027167,
                0.7082927798237294,
                -2.997238358661992
            ]
        },
        {
            "positions": [
                -0.37589536521188893,
                -1.7105659435965368,
                2.654667834578994,
                -1.087786471010988,
                0.5333828152875181,
                -2.964977131011322
            ]
        },
        {
            "positions": [
                -0.38540336782692447,
                -1.7947940698442586,
                2.712691126767492,
                -1.1025181217503057,
                0.3584728507513069,
                -2.9327159033606516
            ]
        },
        {
            "positions": [
                -0.22917280655698002,
                -1.8109878909882469,
                2.6671814492653367,
                -1.0111522639975687,
                0.4102128521089344,
                -2.9621926145686777
            ]
        },
        {
            "positions": [
                -0.07294224528703558,
                -1.827181712132235,
                2.621671771763182,
                -0.9197864062448318,
                0.4619528534665618,
                -2.9916693257767037
            ]
        },
        {
            "positions": [
                0.08328831598290887,
                -1.8433755332762232,
                2.5761620942610266,
                -0.8284205484920948,
                0.5136928548241892,
                -3.02114603698473
            ]
        },
        {
            "positions": [
                0.2395188772528533,
                -1.8595693544202112,
                2.5306524167588718,
                -0.7370546907393577,
                0.5654328561818167,
                -3.0506227481927564
            ]
        },
        {
            "positions": [
                0.3957494385227978,
                -1.8757631755641995,
                2.4851427392567165,
                -0.6456888329866206,
                0.6171728575394442,
                -3.0800994594007824
            ]
        },
        {
            "positions": [
                0.5519799997927421,
                -1.8919569967081875,
                2.4396330617545616,
                -0.5543229752338837,
                0.6689128588970716,
                -3.1095761706088085
            ]
        },
        {
            "positions": [
                0.7082105610626866,
                -1.9081508178521758,
                2.3941233842524063,
                -0.4629571174811466,
                0.7206528602546991,
                -3.1390528818168346
            ]
        }
    ]
}