{
    "goal": {
        "global_pose": {
            "orientation": {
                "w": 0.7031023502349854,
                "x": -0.7110244035720825,
                "y": 0.007748599164187908,
                "z": 0.005598929710686207
            },
            "position": {
                "x": 0.11585023208521307,
                "y": 0.44412534475326537,
                "z": 0.3711530566215515
            }
        },
        "name": "move_to_auspresseinheit_A"
    },
    "id": "LazyPRMstar_move_to_auspresseinheit_A_84",
    "joint_names": [
        "shoulder_pan_joint",
        "shoulder_lift_joint",
        "elbow_joint",
        "wrist_1_joint",
        "wrist_2_joint",
        "wrist_3_joint"
    ],
    "metrics": {
        "cart_traj_len": 0.7912018398687675,
        "distance_elbow_joint": 0.28536053970434594,
        "distance_shoulder_lift_joint": 0.7623814678347927,
        "distance_shoulder_pan_joint": 1.0460995778730422,
        "distance_wrist_1_joint": 0.5766030146680141,
        "distance_wrist_2_joint": 1.4542329327092536,
        "distance_wrist_3_joint": 0.19126488460520763,
        "smoothness": 1.3603075009274135,
        "time": 5.004287747,
        "traj_len": 2.0774846371019584,
        "weighted_distance": 2.5940910034118576
    },
    "planner": "LazyPRMstar",
    "start": {
        "state": {
            "elbow_joint": 2.4225746658250005,
            "shoulder_lift_joint": -1.3736534386056498,
            "shoulder_pan_joint": -0.3378633547517467,
            "wrist_1_joint": -1.0288598680537169,
            "wrist_2_joint": 1.233022673432363,
            "wrist_3_joint": -3.0940220416140027
        }
    },
    "waypoints": [
        {
            "positions": [
                -0.3378633547517467,
                -1.3736534386056498,
                2.4225746658250005,
                -1.0288598680537169,
                1.233022673432363,
                -3.0940220416140027
            ]
        },
        {
            "positions": [
                -0.23568019259633285,
                -1.445635340423984,
                2.436607963211994,
                -0.9711302541039843,
                1.1237920157481474,
                -3.1080849965960224
            ]
        },
        {
            "positions": [
                -0.13349703044091898,
                -1.517617242242318,
                2.450641260598988,
                -0.9134006401542518,
                1.0145613580639319,
                -3.122147951578042
            ]
        },
        {
            "positions": [
                -0.03131386828550514,
                -1.5895991440606523,
                2.4646745579859815,
                -0.8556710262045194,
                0.9053307003797162,
                -3.1362109065600623
            ]
        },
        {
            "positions": [
                0.07086929386990876,
                -1.6615810458789864,
                2.478707855372975,
                -0.7979414122547869,
                0.7961000426955006,
                -3.150273861542082
            ]
        },
        {
            "positions": [
                0.17305245602532265,
                -1.7335629476973204,
                2.4927411527599688,
                -0.7402117983050543,
                0.6868693850112849,
                -3.1643368165241017
            ]
        },
        {
            "positions": [
                0.27523561818073644,
                -1.8055448495156545,
                2.5067744501469624,
                -0.6824821843553219,
                0.5776387273270693,
                -3.1783997715061214
            ]
        },
        {
            "positions": [
                0.37741878033615045,
                -1.8775267513339888,
                2.520807747533956,
                -0.6247525704055894,
                0.46840806964285375,
                -3.1924627264881416
            ]
        },
        {
            "positions": [
                0.47960194249156424,
                -1.9495086531523227,
                2.5348410449209497,
                -0.5670229564558569,
                0.35917741195863817,
                -3.2065256814701613
            ]
        },
        {
            "positions": [
                0.5817851046469782,
                -2.021490554970657,
                2.5488743423079434,
                -0.5092933425061243,
                0.24994675427442248,
                -3.220588636452181
            ]
        },
        {
            "positions": [
                0.6239354774717506,
                -1.9833091044807285,
                2.495854054567476,
                -0.4902811794659839,
                0.4069990921248601,
                -3.1990225398631713
            ]
        },
        {
            "positions": [
                0.6660858502965231,
                -1.9451276539908,
                2.442833766827008,
                -0.4712690164258434,
                0.5640514299752977,
                -3.177456443274161
            ]
        },
        {
            "positions": [
                0.7082362231212955,
                -1.9069462035008715,
                2.3898134790865404,
                -0.45225685338570293,
                0.7211037678257354,
                -3.1558903466851516
            ]
        }
    ]
}