{
    "goal": {
        "global_pose": {
            "orientation": {
                "w": 0.5084816262002911,
                "x": -0.4908360881923452,
                "y": 0.5182115481033761,
                "z": -0.48164630358495003
            },
            "position": {
                "x": 0.5540239810943604,
                "y": -0.46912469901144505,
                "z": 0.16403168439865112
            }
        },
        "name": "move_to_storage_B"
    },
    "id": "LazyPRM_move_to_storage_B_29",
    "joint_names": [
        "shoulder_pan_joint",
        "shoulder_lift_joint",
        "elbow_joint",
        "wrist_1_joint",
        "wrist_2_joint",
        "wrist_3_joint"
    ],
    "metrics": {
        "cart_traj_len": 1.2199435198243234,
        "distance_elbow_joint": 0.528476264022518,
        "distance_shoulder_lift_joint": 0.46086265512167435,
        "distance_shoulder_pan_joint": 0.9455558863243735,
        "distance_wrist_1_joint": 2.9797868571839263,
        "distance_wrist_2_joint": 2.71731139702134,
        "distance_wrist_3_joint": 4.029696425376499,
        "smoothness": 0.3120168987809274,
        "time": 0.140122711,
        "traj_len": 3.414921592811514,
        "weighted_distance": 5.04164463146785
    },
    "planner": "LazyPRM",
    "start": {
        "state": {
            "elbow_joint": 1.664937868594044,
            "shoulder_lift_joint": -0.661644460510453,
            "shoulder_pan_joint": -0.9139846352900073,
            "wrist_1_joint": 2.146753192139373,
            "wrist_2_joint": -2.2341966793290973,
            "wrist_3_joint": 0.005466555786416001
        }
    },
    "waypoints": [
        {
            "positions": [
                -0.9139846352900073,
                -0.661644460510453,
                1.664937868594044,
                2.146753192139373,
                -2.2341966793290973,
                0.005466555786416001
            ]
        },
        {
            "positions": [
                -0.8502392605936485,
                -0.7248920073353582,
                1.6502139475478093,
                2.0908974284360613,
                -2.110927347443816,
                0.07964200666118496
            ]
        },
        {
            "positions": [
                -0.7864938858972897,
                -0.7881395541602634,
                1.6354900265015744,
                2.0350416647327494,
                -1.9876580155585348,
                0.1538174575359539
            ]
        },
        {
            "positions": [
                -0.7227485112009309,
                -0.8513871009851687,
                1.6207661054553397,
                1.9791859010294377,
                -1.8643886836732535,
                0.2279929084107229
            ]
        },
        {
            "positions": [
                -0.6590031365045721,
                -0.9146346478100739,
                1.606042184409105,
                1.9233301373261258,
                -1.7411193517879724,
                0.30216835928549185
            ]
        },
        {
            "positions": [
                -0.5952577618082133,
                -0.9778821946349792,
                1.5913182633628702,
                1.867474373622814,
                -1.6178500199026908,
                0.37634381016026086
            ]
        },
        {
            "positions": [
                -0.5315123871118546,
                -1.0411297414598844,
                1.5765943423166355,
                1.8116186099195022,
                -1.4945806880174097,
                0.4505192610350298
            ]
        },
        {
            "positions": [
                -0.5549742053679471,
                -1.044520465383728,
                1.5949332063893484,
                1.7014247651293333,
                -1.4121767127795075,
                0.30115910602970125
            ]
        },
        {
            "positions": [
                -0.5784360236240396,
                -1.0479111893075712,
                1.6132720704620613,
                1.5912309203391644,
                -1.3297727375416055,
                0.15179895102437269
            ]
        },
        {
            "positions": [
                -0.6018978418801322,
                -1.0513019132314148,
                1.6316109345347742,
                1.4810370755489952,
                -1.2473687623037033,
                0.0024387960190441205
            ]
        },
        {
            "positions": [
                -0.6253596601362247,
                -1.054692637155258,
                1.6499497986074871,
                1.3708432307588265,
                -1.1649647870658013,
                -0.14692135898628444
            ]
        },
        {
            "positions": [
                -0.6488214783923172,
                -1.0580833610791016,
                1.6682886626802,
                1.2606493859686574,
                -1.082560811827899,
                -0.29628151399161307
            ]
        },
        {
            "positions": [
                -0.6722832966484098,
                -1.0614740850029452,
                1.686627526752913,
                1.1504555411784885,
                -1.0001568365899969,
                -0.4456416689969416
            ]
        },
        {
            "positions": [
                -0.6957451149045023,
                -1.0648648089267885,
                1.7049663908256258,
                1.0402616963883196,
                -0.9177528613520948,
                -0.5950018240022702
            ]
        },
        {
            "positions": [
                -0.7192069331605948,
                -1.068255532850632,
                1.7233052548983387,
                0.9300678515981506,
                -0.8353488861141927,
                -0.7443619790075987
            ]
        },
        {
            "positions": [
                -0.7426687514166873,
                -1.0716462567744756,
                1.7416441189710516,
                0.8198740068079816,
                -0.7529449108762906,
                -0.8937221340129272
            ]
        },
        {
            "positions": [
                -0.7661305696727798,
                -1.0750369806983189,
                1.7599829830437645,
                0.7096801620178126,
                -0.6705409356383883,
                -1.043082289018256
            ]
        },
        {
            "positions": [
                -0.7895923879288724,
                -1.0784277046221624,
                1.7783218471164774,
                0.5994863172276437,
                -0.5881369604004864,
                -1.1924424440235843
            ]
        },
        {
            "positions": [
                -0.8130542061849649,
                -1.081818428546006,
                1.7966607111891904,
                0.48929247243747476,
                -0.5057329851625841,
                -1.341802599028913
            ]
        },
        {
            "positions": [
                -0.8365160244410574,
                -1.0852091524698493,
                1.8149995752619033,
                0.37909862764730584,
                -0.42332900992468203,
                -1.4911627540342414
            ]
        },
        {
            "positions": [
                -0.85997784269715,
                -1.0885998763936928,
                1.8333384393346162,
                0.2689047828571367,
                -0.3409250346867798,
                -1.64052290903957
            ]
        },
        {
            "positions": [
                -0.8834396609532426,
                -1.0919906003175361,
                1.851677303407329,
                0.1587109380669678,
                -0.2585210594488778,
                -1.7898830640448984
            ]
        },
        {
            "positions": [
                -0.9069014792093351,
                -1.0953813242413797,
                1.870016167480042,
                0.048517093276799095,
                -0.1761170842109756,
                -1.9392432190502271
            ]
        },
        {
            "positions": [
                -0.9303632974654277,
                -1.0987720481652232,
                1.8883550315527549,
                -0.06167675151337004,
                -0.09371310897307339,
                -2.088603374055556
            ]
        },
        {
            "positions": [
                -0.9538251157215201,
                -1.1021627720890665,
                1.9066938956254678,
                -0.17187059630353896,
                -0.011309133735171395,
                -2.237963529060884
            ]
        },
        {
            "positions": [
                -0.9772869339776127,
                -1.10555349601291,
                1.9250327596981807,
                -0.2820644410937079,
                0.07109484150273082,
                -2.387323684066213
            ]
        },
        {
            "positions": [
                -1.0007487522337053,
                -1.1089442199367534,
                1.9433716237708936,
                -0.392258285883877,
                0.15349881674063304,
                -2.5366838390715416
            ]
        },
        {
            "positions": [
                -1.0242105704897977,
                -1.112334943860597,
                1.9617104878436065,
                -0.5024521306740457,
                0.23590279197853503,
                -2.68604399407687
            ]
        },
        {
            "positions": [
                -1.04767238874589,
                -1.1157256677844405,
                1.9800493519163194,
                -0.6126459754642148,
                0.318306767216437,
                -2.835404149082198
            ]
        },
        {
            "positions": [
                -1.071134207001983,
                -1.1191163917082838,
                1.9983882159890323,
                -0.722839820254384,
                0.40071074245433946,
                -2.9847643040875274
            ]
        },
        {
            "positions": [
                -1.0945960252580753,
                -1.1225071156321274,
                2.016727080061745,
                -0.8330336650445525,
                0.4831147176922415,
                -3.1341244590928556
            ]
        }
    ]
}