{
    "goal": {
        "global_pose": {
            "orientation": {
                "w": 0.005598929693374612,
                "x": 0.007748599140229565,
                "y": 0.7110244013736278,
                "z": -0.7031023480610252
            },
            "position": {
                "x": 0.1141497679147869,
                "y": -0.7141253447532654,
                "z": 0.3711530566215515
            }
        },
        "name": "move_to_auspresseinheit_B"
    },
    "id": "LazyPRMstar_move_to_auspresseinheit_B_79",
    "joint_names": [
        "shoulder_pan_joint",
        "shoulder_lift_joint",
        "elbow_joint",
        "wrist_1_joint",
        "wrist_2_joint",
        "wrist_3_joint"
    ],
    "metrics": {
        "cart_traj_len": 0.565045197440951,
        "distance_elbow_joint": 0.06242783842404975,
        "distance_shoulder_lift_joint": 0.29370819513315105,
        "distance_shoulder_pan_joint": 0.5758918713322247,
        "distance_wrist_1_joint": 0.32202371373388483,
        "distance_wrist_2_joint": 1.0013690668178112,
        "distance_wrist_3_joint": 0.00045770947980727783,
        "smoothness": 0.0,
        "time": 5.000079359,
        "traj_len": 1.5019581868084506,
        "weighted_distance": 1.892138101310853
    },
    "planner": "LazyPRMstar",
    "start": {
        "state": {
            "elbow_joint": 2.0193083361928714,
            "shoulder_lift_joint": -1.1220246554650708,
            "shoulder_pan_joint": -1.0952077554168747,
            "wrist_1_joint": -0.8559753972642168,
            "wrist_2_joint": 0.4759566250798843,
            "wrist_3_joint": -3.1240929996934557
        }
    },
    "waypoints": [
        {
            "positions": [
                -1.0952077554168747,
                -1.1220246554650708,
                2.0193083361928714,
                -0.8559753972642168,
                0.4759566250798843,
                -3.1240929996934557
            ]
        },
        {
            "positions": [
                -1.1911897339722455,
                -1.170976021320596,
                2.00890369645553,
                -0.8023047783085693,
                0.6428514695495195,
                -3.124169284606757
            ]
        },
        {
            "positions": [
                -1.2871717125276163,
                -1.2199273871761211,
                1.9984990567181882,
                -0.7486341593529219,
                0.8097463140191548,
                -3.124245569520058
            ]
        },
        {
            "positions": [
                -1.383153691082987,
                -1.2688787530316463,
                1.9880944169808465,
                -0.6949635403972744,
                0.97664115848879,
                -3.1243218544333593
            ]
        },
        {
            "positions": [
                -1.4791356696383577,
                -1.3178301188871715,
                1.977689777243505,
                -0.641292921441627,
                1.1435360029584252,
                -3.1243981393466607
            ]
        },
        {
            "positions": [
                -1.5751176481937286,
                -1.3667814847426967,
                1.9672851375061633,
                -0.5876223024859795,
                1.3104308474280604,
                -3.1244744242599616
            ]
        },
        {
            "positions": [
                -1.6710996267490994,
                -1.4157328505982218,
                1.9568804977688217,
                -0.533951683530332,
                1.4773256918976956,
                -3.124550709173263
            ]
        }
    ]
}