{
    "goal": {
        "global_pose": {
            "orientation": {
                "w": -0.00223480608172531,
                "x": 0.0024358444001904467,
                "y": 0.7094548369677653,
                "z": -0.704743149386269
            },
            "position": {
                "x": -0.37947507619857795,
                "y": -0.6371506643295288,
                "z": 0.19426114857196808
            }
        },
        "name": "move_to_magneteinheit_C"
    },
    "id": "LazyPRM_move_to_magneteinheit_C_112",
    "joint_names": [
        "shoulder_pan_joint",
        "shoulder_lift_joint",
        "elbow_joint",
        "wrist_1_joint",
        "wrist_2_joint",
        "wrist_3_joint"
    ],
    "metrics": {
        "cart_traj_len": 2.613704943626385,
        "distance_elbow_joint": 0.45910119669402905,
        "distance_shoulder_lift_joint": 3.700130483258146,
        "distance_shoulder_pan_joint": 0.8423123896266154,
        "distance_wrist_1_joint": 1.7161918102636853,
        "distance_wrist_2_joint": 4.141113009264912,
        "distance_wrist_3_joint": 3.3971412237945318,
        "smoothness": 1.3276052815702142,
        "time": 0.192019776,
        "traj_len": 3.7757105441098,
        "weighted_distance": 5.187251428263293
    },
    "planner": "LazyPRM",
    "start": {
        "state": {
            "elbow_joint": 1.9565354010623817,
            "shoulder_lift_joint": -1.4165861575791021,
            "shoulder_pan_joint": -1.6717766225146293,
            "wrist_1_joint": -0.5286633292919765,
            "wrist_2_joint": 1.472756589071564,
            "wrist_3_joint": -3.1238370188695823
        }
    },
    "waypoints": [
        {
            "positions": [
                -1.6717766225146293,
                -1.4165861575791021,
                1.9565354010623817,
                -0.5286633292919765,
                1.472756589071564,
                -3.1238370188695823
            ]
        },
        {
            "positions": [
                -1.7374349675806608,
                -1.4387390825091837,
                1.9654053609588593,
                -0.5332214631719047,
                1.3054149549712695,
                -2.998030755358974
            ]
        },
        {
            "positions": [
                -1.8030933126466926,
                -1.460892007439265,
                1.9742753208553372,
                -0.5377795970518328,
                1.138073320870975,
                -2.872224491848366
            ]
        },
        {
            "positions": [
                -1.8687516577127241,
                -1.4830449323693466,
                1.9831452807518148,
                -0.542337730931761,
                0.9707316867706803,
                -2.746418228337758
            ]
        },
        {
            "positions": [
                -1.8921179605654401,
                -1.5865761564133163,
                1.9975799201628,
                -0.6051630629701747,
                1.0704503295527443,
                -2.664101925871924
            ]
        },
        {
            "positions": [
                -1.9154842634181561,
                -1.6901073804572857,
                2.0120145595737853,
                -0.6679883950085885,
                1.1701689723348083,
                -2.5817856234060907
            ]
        },
        {
            "positions": [
                -1.938850566270872,
                -1.7936386045012553,
                2.0264491989847704,
                -0.7308137270470024,
                1.2698876151168723,
                -2.499469320940257
            ]
        },
        {
            "positions": [
                -1.962216869123588,
                -1.8971698285452248,
                2.0408838383957555,
                -0.7936390590854162,
                1.3696062578989363,
                -2.4171530184744237
            ]
        },
        {
            "positions": [
                -1.985583171976304,
                -2.0007010525891946,
                2.0553184778067406,
                -0.85646439112383,
                1.4693249006810003,
                -2.33483671600859
            ]
        },
        {
            "positions": [
                -2.00894947482902,
                -2.104232276633164,
                2.0697531172177257,
                -0.9192897231622439,
                1.5690435434630645,
                -2.252520413542756
            ]
        },
        {
            "positions": [
                -2.032315777681736,
                -2.2077635006771335,
                2.0841877566287113,
                -0.9821150552006577,
                1.6687621862451283,
                -2.170204111076923
            ]
        },
        {
            "positions": [
                -2.055682080534452,
                -2.311294724721103,
                2.0986223960396964,
                -1.0449403872390715,
                1.7684808290271925,
                -2.087887808611089
            ]
        },
        {
            "positions": [
                -2.079048383387168,
                -2.4148259487650727,
                2.1130570354506815,
                -1.1077657192774852,
                1.8681994718092563,
                -2.0055715061452553
            ]
        },
        {
            "positions": [
                -2.102414686239884,
                -2.518357172809042,
                2.1274916748616666,
                -1.170591051315899,
                1.9679181145913205,
                -1.923255203679422
            ]
        },
        {
            "positions": [
                -2.1257809890925996,
                -2.621888396853012,
                2.1419263142726517,
                -1.2334163833543128,
                2.0676367573733847,
                -1.8409389012135882
            ]
        },
        {
            "positions": [
                -2.1491472919453156,
                -2.7254196208969814,
                2.156360953683637,
                -1.2962417153927266,
                2.1673554001554485,
                -1.7586225987477546
            ]
        },
        {
            "positions": [
                -2.1725135947980316,
                -2.828950844940951,
                2.1707955930946223,
                -1.3590670474311404,
                2.2670740429375122,
                -1.676306296281921
            ]
        },
        {
            "positions": [
                -2.1958798976507476,
                -2.9324820689849203,
                2.1852302325056074,
                -1.4218923794695544,
                2.3667926857195765,
                -1.5939899938160873
            ]
        },
        {
            "positions": [
                -2.2192462005034637,
                -3.0360132930288897,
                2.1996648719165925,
                -1.4847177115079682,
                2.4665113285016407,
                -1.5116736913502538
            ]
        },
        {
            "positions": [
                -2.2426125033561797,
                -3.1395445170728595,
                2.2140995113275777,
                -1.547543043546382,
                2.5662299712837044,
                -1.4293573888844202
            ]
        },
        {
            "positions": [
                -2.257396996955871,
                -3.026447581764767,
                2.2039038685617163,
                -1.508862057766477,
                2.4504394156019984,
                -1.5248026770608796
            ]
        },
        {
            "positions": [
                -2.272181490555563,
                -2.9133506464566747,
                2.1937082257958544,
                -1.4701810719865722,
                2.334648859920293,
                -1.620247965237339
            ]
        },
        {
            "positions": [
                -2.2869659841552545,
                -2.8002537111485823,
                2.183512583029993,
                -1.4315000862066674,
                2.2188583042385868,
                -1.7156932534137983
            ]
        },
        {
            "positions": [
                -2.301750477754946,
                -2.68715677584049,
                2.1733169402641317,
                -1.3928191004267623,
                2.1030677485568807,
                -1.8111385415902577
            ]
        },
        {
            "positions": [
                -2.3165349713546375,
                -2.5740598405323976,
                2.16312129749827,
                -1.3541381146468574,
                1.987277192875175,
                -1.9065838297667173
            ]
        },
        {
            "positions": [
                -2.3313194649543294,
                -2.460962905224305,
                2.1529256547324085,
                -1.3154571288669525,
                1.871486637193469,
                -2.0020291179431764
            ]
        },
        {
            "positions": [
                -2.346103958554021,
                -2.3478659699162128,
                2.142730011966547,
                -1.2767761430870477,
                1.755696081511763,
                -2.0974744061196358
            ]
        },
        {
            "positions": [
                -2.3608884521537123,
                -2.2347690346081204,
                2.1325343692006853,
                -1.2380951573071428,
                1.6399055258300572,
                -2.192919694296095
            ]
        },
        {
            "positions": [
                -2.3756729457534043,
                -2.121672099300028,
                2.122338726434824,
                -1.199414171527238,
                1.5241149701483512,
                -2.2883649824725545
            ]
        },
        {
            "positions": [
                -2.3904574393530957,
                -2.0085751639919356,
                2.112143083668962,
                -1.160733185747333,
                1.4083244144666454,
                -2.3838102706490143
            ]
        },
        {
            "positions": [
                -2.405241932952787,
                -1.8954782286838432,
                2.1019474409031007,
                -1.122052199967428,
                1.2925338587849393,
                -2.4792555588254737
            ]
        },
        {
            "positions": [
                -2.420026426552479,
                -1.7823812933757508,
                2.0917517981372393,
                -1.0833712141875234,
                1.1767433031032335,
                -2.574700847001933
            ]
        },
        {
            "positions": [
                -2.4348109201521706,
                -1.6692843580676584,
                2.0815561553713775,
                -1.0446902284076183,
                1.0609527474215277,
                -2.670146135178392
            ]
        },
        {
            "positions": [
                -2.449595413751862,
                -1.556187422759566,
                2.071360512605516,
                -1.0060092426277136,
                0.9451621917398219,
                -2.7655914233548513
            ]
        },
        {
            "positions": [
                -2.4643799073515535,
                -1.4430904874514736,
                2.0611648698396547,
                -0.9673282568478087,
                0.8293716360581158,
                -2.861036711531311
            ]
        },
        {
            "positions": [
                -2.4791644009512455,
                -1.3299935521433812,
                2.050969227073793,
                -0.9286472710679037,
                0.71358108037641,
                -2.9564819997077705
            ]
        },
        {
            "positions": [
                -2.493948894550937,
                -1.2168966168352888,
                2.0407735843079315,
                -0.8899662852879988,
                0.597790524694704,
                -3.05192728788423
            ]
        },
        {
            "positions": [
                -2.473808776960629,
                -1.1623723933084704,
                2.0125624248987446,
                -0.850230947537102,
                0.6729409005567087,
                -3.13201898269379
            ]
        }
    ]
}