{
    "goal": {
        "global_pose": {
            "orientation": {
                "w": 0.005598929693374612,
                "x": 0.007748599140229565,
                "y": 0.7110244013736278,
                "z": -0.7031023480610252
            },
            "position": {
                "x": -0.8858502320852131,
                "y": -0.7141253447532654,
                "z": 0.3711530566215515
            }
        },
        "name": "move_to_auspresseinheit_C"
    },
    "id": "LazyPRM_move_to_auspresseinheit_C_131",
    "joint_names": [
        "shoulder_pan_joint",
        "shoulder_lift_joint",
        "elbow_joint",
        "wrist_1_joint",
        "wrist_2_joint",
        "wrist_3_joint"
    ],
    "metrics": {
        "cart_traj_len": 0.4928586754576377,
        "distance_elbow_joint": 1.003460251394706,
        "distance_shoulder_lift_joint": 0.3265426048249501,
        "distance_shoulder_pan_joint": 0.25567585988723307,
        "distance_wrist_1_joint": 0.6854178621438246,
        "distance_wrist_2_joint": 1.3179899299727567,
        "distance_wrist_3_joint": 0.06692856896734556,
        "smoothness": 1.1304089002524633e-15,
        "time": 0.012761515999999999,
        "traj_len": 1.9120708870726568,
        "weighted_distance": 2.4069233488505795
    },
    "planner": "LazyPRM",
    "start": {
        "state": {
            "elbow_joint": 1.7527959577737207,
            "shoulder_lift_joint": -0.9740617694225068,
            "shoulder_pan_joint": -2.967991417825858,
            "wrist_1_joint": -0.759517768980727,
            "wrist_2_joint": 1.7443932448377408,
            "wrist_3_joint": -3.0840537646736568
        }
    },
    "waypoints": [
        {
            "positions": [
                -2.967991417825858,
                -0.9740617694225068,
                1.7527959577737207,
                -0.759517768980727,
                1.7443932448377408,
                -3.0840537646736568
            ]
        },
        {
            "positions": [
                -2.9424238318371345,
                -0.9414075089400118,
                1.65244993263425,
                -0.6909759827663445,
                1.6125942518404652,
                -3.0907466215703914
            ]
        },
        {
            "positions": [
                -2.9168562458484115,
                -0.9087532484575167,
                1.5521039074947796,
                -0.6224341965519621,
                1.4807952588431894,
                -3.097439478467126
            ]
        },
        {
            "positions": [
                -2.891288659859688,
                -0.8760989879750217,
                1.451757882355309,
                -0.5538924103375796,
                1.3489962658459138,
                -3.1041323353638606
            ]
        },
        {
            "positions": [
                -2.8657210738709646,
                -0.8434447274925267,
                1.3514118572158382,
                -0.4853506241231971,
                1.217197272848638,
                -3.110825192260595
            ]
        },
        {
            "positions": [
                -2.840153487882241,
                -0.8107904670100317,
                1.2510658320763677,
                -0.4168088379088147,
                1.0853982798513626,
                -3.1175180491573293
            ]
        },
        {
            "positions": [
                -2.814585901893518,
                -0.7781362065275367,
                1.1507198069368971,
                -0.34826705169443223,
                0.9535992868540869,
                -3.124210906054064
            ]
        },
        {
            "positions": [
                -2.7890183159047948,
                -0.7454819460450417,
                1.0503737817974266,
                -0.2797252654800498,
                0.8218002938568112,
                -3.1309037629507985
            ]
        },
        {
            "positions": [
                -2.7634507299160713,
                -0.7128276855625466,
                0.9500277566579558,
                -0.21118347926566727,
                0.6900013008595354,
                -3.137596619847533
            ]
        },
        {
            "positions": [
                -2.7378831439273483,
                -0.6801734250800516,
                0.8496817315184853,
                -0.14264169305128482,
                0.5582023078622598,
                -3.1442894767442677
            ]
        },
        {
            "positions": [
                -2.712315557938625,
                -0.6475191645975567,
                0.7493357063790148,
                -0.07409990683690233,
                0.4264033148649841,
                -3.1509823336410023
            ]
        }
    ]
}