{
    "goal": {
        "global_pose": {
            "orientation": {
                "w": -0.4816463035849501,
                "x": 0.5182115481033762,
                "y": 0.4908360881923453,
                "z": -0.5084816262002911
            },
            "position": {
                "x": -0.8240239810943604,
                "y": 0.19912469901144506,
                "z": 0.16403168439865112
            }
        },
        "name": "move_to_storage_D"
    },
    "id": "LazyPRM_move_to_storage_D_35",
    "joint_names": [
        "shoulder_pan_joint",
        "shoulder_lift_joint",
        "elbow_joint",
        "wrist_1_joint",
        "wrist_2_joint",
        "wrist_3_joint"
    ],
    "metrics": {
        "cart_traj_len": 0.5388744255209578,
        "distance_elbow_joint": 0.5551241059498482,
        "distance_shoulder_lift_joint": 0.15321693664518898,
        "distance_shoulder_pan_joint": 0.24890792250236654,
        "distance_wrist_1_joint": 3.8279232398311036,
        "distance_wrist_2_joint": 1.780503843199483,
        "distance_wrist_3_joint": 3.14927367094678,
        "smoothness": 0.007077227825841865,
        "time": 0.140728128,
        "traj_len": 3.1168814092093347,
        "weighted_distance": 4.649938079587611
    },
    "planner": "LazyPRM",
    "start": {
        "state": {
            "elbow_joint": -2.384821988534728,
            "shoulder_lift_joint": -2.2788054721415256,
            "shoulder_pan_joint": -0.1854694642142757,
            "wrist_1_joint": 1.4845938289331202,
            "wrist_2_joint": 0.17898776772866878,
            "wrist_3_joint": 0.037105688729662994
        }
    },
    "waypoints": [
        {
            "positions": [
                -0.1854694642142757,
                -2.2788054721415256,
                -2.384821988534728,
                1.4845938289331202,
                0.17898776772866878,
                0.037105688729662994
            ]
        },
        {
            "positions": [
                0.014661181626748922,
                -2.258125891429186,
                -2.3844361857499226,
                1.4721330417726284,
                0.17250281439486892,
                0.11978259620662639
            ]
        },
        {
            "positions": [
                0.01262879509919301,
                -2.2526035015986507,
                -2.3613220897847125,
                1.3131554395780196,
                0.09858536065046546,
                0.24755746135120205
            ]
        },
        {
            "positions": [
                0.010596408571637097,
                -2.2470811117681153,
                -2.3382079938195024,
                1.1541778373834108,
                0.024667906906061993,
                0.37533232649577775
            ]
        },
        {
            "positions": [
                0.008564022044081184,
                -2.24155872193758,
                -2.3150938978542923,
                0.9952002351888019,
                -0.049249546838341485,
                0.5031071916403534
            ]
        },
        {
            "positions": [
                0.006531635516525271,
                -2.2360363321070444,
                -2.2919798018890822,
                0.8362226329941931,
                -0.12316700058274493,
                0.630882056784929
            ]
        },
        {
            "positions": [
                0.004499248988969359,
                -2.230513942276509,
                -2.268865705923872,
                0.6772450307995842,
                -0.19708445432714844,
                0.7586569219295047
            ]
        },
        {
            "positions": [
                0.002466862461413446,
                -2.2249915524459736,
                -2.2457516099586616,
                0.5182674286049754,
                -0.2710019080715519,
                0.8864317870740804
            ]
        },
        {
            "positions": [
                0.0004344759338575314,
                -2.2194691626154386,
                -2.2226375139934516,
                0.35928982641036655,
                -0.3449193618159554,
                1.0142066522186561
            ]
        },
        {
            "positions": [
                -0.0015979105936983796,
                -2.213946772784903,
                -2.1995234180282415,
                0.20031222421575778,
                -0.4188368155603588,
                1.1419815173632317
            ]
        },
        {
            "positions": [
                -0.0036302971212542924,
                -2.2084243829543677,
                -2.1764093220630314,
                0.041334622021149015,
                -0.4927542693047623,
                1.2697563825078075
            ]
        },
        {
            "positions": [
                -0.005662683648810205,
                -2.2029019931238323,
                -2.1532952260978213,
                -0.11764298017345998,
                -0.5666717230491658,
                1.3975312476523831
            ]
        },
        {
            "positions": [
                -0.007695070176366118,
                -2.197379603293297,
                -2.1301811301326112,
                -0.2766205823680685,
                -0.6405891767935692,
                1.5253061127969587
            ]
        },
        {
            "positions": [
                -0.00972745670392203,
                -2.1918572134627614,
                -2.107067034167401,
                -0.4355981845626775,
                -0.7145066305379727,
                1.6530809779415345
            ]
        },
        {
            "positions": [
                -0.01175984323147794,
                -2.186334823632226,
                -2.083952938202191,
                -0.5945757867572863,
                -0.7884240842823761,
                1.7808558430861101
            ]
        },
        {
            "positions": [
                -0.01379222975903386,
                -2.1808124338016905,
                -2.060838842236981,
                -0.7535533889518953,
                -0.8623415380267797,
                1.908630708230686
            ]
        },
        {
            "positions": [
                -0.01582461628658977,
                -2.175290043971155,
                -2.037724746271771,
                -0.9125309911465038,
                -0.9362589917711831,
                2.0364055733752617
            ]
        },
        {
            "positions": [
                -0.01785700281414568,
                -2.1697676541406197,
                -2.014610650306561,
                -1.0715085933411128,
                -1.0101764455155866,
                2.1641804385198373
            ]
        },
        {
            "positions": [
                -0.019889389341701594,
                -2.1642452643100842,
                -1.9914965543413505,
                -1.2304861955357218,
                -1.0840938992599902,
                2.2919553036644134
            ]
        },
        {
            "positions": [
                -0.021921775869257507,
                -2.1587228744795492,
                -1.9683824583761405,
                -1.3894637977303304,
                -1.1580113530043934,
                2.419730168808989
            ]
        },
        {
            "positions": [
                -0.02395416239681342,
                -2.153200484649014,
                -1.9452683624109304,
                -1.5484413999249393,
                -1.231928806748797,
                2.5475050339535645
            ]
        },
        {
            "positions": [
                -0.025986548924369333,
                -2.1476780948184784,
                -1.92215426644572,
                -1.7074190021195483,
                -1.3058462604932006,
                2.67527989909814
            ]
        },
        {
            "positions": [
                -0.028018935451925246,
                -2.142155704987943,
                -1.89904017048051,
                -1.8663966043141569,
                -1.3797637142376038,
                2.8030547642427157
            ]
        },
        {
            "positions": [
                -0.03005132197948116,
                -2.1366333151574075,
                -1.8759260745153,
                -2.0253742065087654,
                -1.4536811679820074,
                2.9308296293872913
            ]
        },
        {
            "positions": [
                -0.03208370850703707,
                -2.131110925326872,
                -1.8528119785500898,
                -2.184351808703375,
                -1.527598621726411,
                3.0586044945318673
            ]
        },
        {
            "positions": [
                -0.03411609503459299,
                -2.1255885354963366,
                -1.8296978825848798,
                -2.3433294108979834,
                -1.6015160754708142,
                3.186379359676443
            ]
        }
    ]
}