{
    "goal": {
        "global_pose": {
            "orientation": {
                "w": 0.7047431493862688,
                "x": -0.7094548369677653,
                "y": 0.0024358444001904,
                "z": -0.0022348060817251984
            },
            "position": {
                "x": -0.39052492380142206,
                "y": 0.3671506643295288,
                "z": 0.19426114857196808
            }
        },
        "name": "move_to_magneteinheit_D"
    },
    "id": "LazyPRM_move_to_magneteinheit_D_34",
    "joint_names": [
        "shoulder_pan_joint",
        "shoulder_lift_joint",
        "elbow_joint",
        "wrist_1_joint",
        "wrist_2_joint",
        "wrist_3_joint"
    ],
    "metrics": {
        "cart_traj_len": 3.986009136978311,
        "distance_elbow_joint": 3.732696150747998,
        "distance_shoulder_lift_joint": 1.7396401673152961,
        "distance_shoulder_pan_joint": 3.262778470391727,
        "distance_wrist_1_joint": 1.6408752819849477,
        "distance_wrist_2_joint": 0.9431796895944655,
        "distance_wrist_3_joint": 3.1335150625262913,
        "smoothness": 1.3517576701716867,
        "time": 0.18496257500000002,
        "traj_len": 3.8016686892153984,
        "weighted_distance": 4.827397841404074
    },
    "planner": "LazyPRM",
    "start": {
        "state": {
            "elbow_joint": 0.749534889911806,
            "shoulder_lift_joint": -0.6476975780787326,
            "shoulder_pan_joint": -2.711696901376241,
            "wrist_1_joint": -0.07506478083263063,
            "wrist_2_joint": 0.43296659715538205,
            "wrist_3_joint": -3.14703540197715
        }
    },
    "waypoints": [
        {
            "positions": [
                -2.711696901376241,
                -0.6476975780787326,
                0.749534889911806,
                -0.07506478083263063,
                0.43296659715538205,
                -3.14703540197715
            ]
        },
        {
            "positions": [
                -2.7098292414820486,
                -0.6625114245950887,
                0.7335196678704192,
                0.030101422117278995,
                0.36993268834275095,
                -3.137979391891665
            ]
        },
        {
            "positions": [
                -2.707961581587856,
                -0.6773252711114449,
                0.7175044458290324,
                0.13526762506718862,
                0.30689877953011985,
                -3.12892338180618
            ]
        },
        {
            "positions": [
                -2.6148507820572804,
                -0.6507615349494315,
                0.809762713337414,
                0.14551606476075196,
                0.3594529383070031,
                -3.1261140508309415
            ]
        },
        {
            "positions": [
                -2.5217399825267046,
                -0.624197798787418,
                0.9020209808457956,
                0.15576450445431528,
                0.4120070970838863,
                -3.123304719855703
            ]
        },
        {
            "positions": [
                -2.5825687422842933,
                -0.6517828539063311,
                0.8298386544792834,
                0.21904301329187947,
                0.3349483853575434,
                -3.1191402671155384
            ]
        },
        {
            "positions": [
                -2.643397502041882,
                -0.6793679090252441,
                0.7576563281127711,
                0.28232152212944367,
                0.2578896736312005,
                -3.114975814375374
            ]
        },
        {
            "positions": [
                -2.704226261799471,
                -0.7069529641441572,
                0.6854740017462588,
                0.34560003096700787,
                0.18083096190485765,
                -3.1108113616352093
            ]
        },
        {
            "positions": [
                -2.6098497148502124,
                -0.725741644415083,
                0.5588714283474934,
                0.3812467499321293,
                0.1853048119901032,
                -2.999266800685767
            ]
        },
        {
            "positions": [
                -2.5154731679009545,
                -0.7445303246860088,
                0.4322688549487279,
                0.41689346889725076,
                0.1897786620753488,
                -2.887722239736325
            ]
        },
        {
            "positions": [
                -2.4210966209516966,
                -0.7633190049569346,
                0.30566628154996245,
                0.4525401878623722,
                0.19425251216059436,
                -2.7761776787868833
            ]
        },
        {
            "positions": [
                -2.3267200740024383,
                -0.7821076852278603,
                0.179063708151197,
                0.48818690682749366,
                0.19872636224583992,
                -2.664633117837441
            ]
        },
        {
            "positions": [
                -2.23234352705318,
                -0.8008963654987862,
                0.052461134752431526,
                0.5238336257926152,
                0.2032002123310855,
                -2.5530885568879986
            ]
        },
        {
            "positions": [
                -2.137966980103922,
                -0.8196850457697119,
                -0.07414143864633393,
                0.5594803447577366,
                0.20767406241633107,
                -2.4415439959385568
            ]
        },
        {
            "positions": [
                -2.043590433154664,
                -0.8384737260406376,
                -0.2007440120450994,
                0.5951270637228581,
                0.21214791250157664,
                -2.329999434989115
            ]
        },
        {
            "positions": [
                -1.9492138862054058,
                -0.8572624063115635,
                -0.32734658544386486,
                0.6307737826879796,
                0.2166217625868222,
                -2.2184548740396726
            ]
        },
        {
            "positions": [
                -1.8548373392561477,
                -0.8760510865824893,
                -0.4539491588426303,
                0.666420501653101,
                0.2210956126720678,
                -2.1069103130902302
            ]
        },
        {
            "positions": [
                -1.7604607923068896,
                -0.894839766853415,
                -0.5805517322413958,
                0.7020672206182224,
                0.22556946275731335,
                -1.9953657521407884
            ]
        },
        {
            "positions": [
                -1.6660842453576312,
                -0.9136284471243409,
                -0.7071543056401612,
                0.7377139395833439,
                0.23004331284255894,
                -1.883821191191346
            ]
        },
        {
            "positions": [
                -1.5717076984083733,
                -0.9324171273952666,
                -0.8337568790389267,
                0.7733606585484654,
                0.2345171629278045,
                -1.7722766302419042
            ]
        },
        {
            "positions": [
                -1.477331151459115,
                -0.9512058076661924,
                -0.9603594524376922,
                0.8090073775135869,
                0.2389910130130501,
                -1.6607320692924619
            ]
        },
        {
            "positions": [
                -1.382954604509857,
                -0.9699944879371182,
                -1.0869620258364576,
                0.8446540964787083,
                0.24346486309829563,
                -1.54918750834302
            ]
        },
        {
            "positions": [
                -1.2885780575605987,
                -0.988783168208044,
                -1.213564599235223,
                0.8803008154438298,
                0.24793871318354122,
                -1.4376429473935777
            ]
        },
        {
            "positions": [
                -1.1942015106113408,
                -1.0075718484789697,
                -1.3401671726339885,
                0.9159475344089512,
                0.2524125632687868,
                -1.3260983864441358
            ]
        },
        {
            "positions": [
                -1.0998249636620825,
                -1.0263605287498956,
                -1.466769746032754,
                0.9515942533740727,
                0.25688641335403234,
                -1.2145538254946935
            ]
        },
        {
            "positions": [
                -1.0054484167128246,
                -1.0451492090208214,
                -1.5933723194315195,
                0.9872409723391941,
                0.26136026343927793,
                -1.1030092645452516
            ]
        },
        {
            "positions": [
                -0.9110718697635662,
                -1.063937889291747,
                -1.719974892830285,
                1.0228876913043154,
                0.2658341135245235,
                -0.9914647035958093
            ]
        },
        {
            "positions": [
                -0.8166953228143083,
                -1.0827265695626729,
                -1.8465774662290504,
                1.058534410269437,
                0.27030796360976905,
                -0.8799201426463674
            ]
        },
        {
            "positions": [
                -0.7223187758650499,
                -1.1015152498335987,
                -1.9731800396278159,
                1.0941811292345585,
                0.27478181369501464,
                -0.7683755816969251
            ]
        },
        {
            "positions": [
                -0.6318668641723952,
                -1.1676616814663565,
                -2.0390625868974848,
                1.144114186905327,
                0.29953725894834643,
                -0.7160441878894455
            ]
        },
        {
            "positions": [
                -0.5414149524797407,
                -1.2338081130991145,
                -2.1049451341671537,
                1.1940472445760955,
                0.32429270420167816,
                -0.6637127940819658
            ]
        },
        {
            "positions": [
                -0.45096304078708604,
                -1.2999545447318723,
                -2.1708276814368226,
                1.243980302246864,
                0.34904814945500995,
                -0.6113814002744863
            ]
        },
        {
            "positions": [
                -0.36051112909443145,
                -1.3661009763646301,
                -2.2367102287064915,
                1.2939133599176327,
                0.3738035947083417,
                -0.5590500064670066
            ]
        },
        {
            "positions": [
                -0.2700592174017768,
                -1.4322474079973881,
                -2.3025927759761604,
                1.343846417588401,
                0.3985590399616735,
                -0.506718612659527
            ]
        },
        {
            "positions": [
                -0.1796073057091222,
                -1.498393839630146,
                -2.3684753232458293,
                1.3937794752591697,
                0.42331448521500525,
                -0.4543872188520474
            ]
        },
        {
            "positions": [
                -0.11996114600144049,
                -1.6149301678486445,
                -2.410242021086118,
                1.4449656227163143,
                0.41679079924654994,
                -0.37590984926032456
            ]
        },
        {
            "positions": [
                -0.06031498629375878,
                -1.731466496067143,
                -2.4520087189264066,
                1.4961517701734588,
                0.4102671132780946,
                -0.29743247966860176
            ]
        },
        {
            "positions": [
                -0.0006688265860770697,
                -1.8480028242856417,
                -2.4937754167666952,
                1.5473379176306035,
                0.4037434273096393,
                -0.2189551100768789
            ]
        },
        {
            "positions": [
                -0.06292810560475404,
                -1.992362816439086,
                -2.453657825421372,
                1.5411803897900322,
                0.3308191479693411,
                -0.15047685320153914
            ]
        },
        {
            "positions": [
                -0.125187384623431,
                -2.1367228085925305,
                -2.4135402340760486,
                1.5350228619494612,
                0.2578948686290428,
                -0.08199859632619941
            ]
        },
        {
            "positions": [
                -0.18744666364210796,
                -2.281082800745975,
                -2.3734226427307252,
                1.52886533410889,
                0.18497058928874455,
                -0.013520339450859658
            ]
        }
    ]
}