{
    "goal": {
        "global_pose": {
            "orientation": {
                "w": -0.00223480608172531,
                "x": 0.0024358444001904467,
                "y": 0.7094548369677653,
                "z": -0.704743149386269
            },
            "position": {
                "x": -0.37947507619857795,
                "y": -0.6371506643295288,
                "z": 0.19426114857196808
            }
        },
        "name": "move_to_magneteinheit_C"
    },
    "id": "LazyPRMstar_move_to_magneteinheit_C_47",
    "joint_names": [
        "shoulder_pan_joint",
        "shoulder_lift_joint",
        "elbow_joint",
        "wrist_1_joint",
        "wrist_2_joint",
        "wrist_3_joint"
    ],
    "metrics": {
        "cart_traj_len": 0.7178530644278144,
        "distance_elbow_joint": 0.1509997081535035,
        "distance_shoulder_lift_joint": 0.8371070615693013,
        "distance_shoulder_pan_joint": 0.8016954130799216,
        "distance_wrist_1_joint": 1.4480491109908629,
        "distance_wrist_2_joint": 0.8018206354047048,
        "distance_wrist_3_joint": 0.07847247006453095,
        "smoothness": 1.302005495677347,
        "time": 5.013309062,
        "traj_len": 2.0293211671055977,
        "weighted_distance": 2.5543999463254483
    },
    "planner": "LazyPRMstar",
    "start": {
        "state": {
            "elbow_joint": 1.9565354010623817,
            "shoulder_lift_joint": -1.4165861575791021,
            "shoulder_pan_joint": -1.6717766225146293,
            "wrist_1_joint": -0.5286633292919765,
            "wrist_2_joint": 1.472756589071564,
            "wrist_3_joint": -3.1238370188695823
        }
    },
    "waypoints": [
        {
            "positions": [
                -1.6717766225146293,
                -1.4165861575791021,
                1.9565354010623817,
                -0.5286633292919765,
                1.472756589071564,
                -3.1238370188695823
            ]
        },
        {
            "positions": [
                -1.7898778364748333,
                -1.474858162465911,
                1.9757675064249303,
                -0.4134151034979813,
                1.4080758757279,
                -3.1285880224089024
            ]
        },
        {
            "positions": [
                -1.9079790504350373,
                -1.5331301673527198,
                1.9949996117874786,
                -0.2981668777039861,
                1.3433951623842362,
                -3.133339025948223
            ]
        },
        {
            "positions": [
                -2.026080264395241,
                -1.5914021722395286,
                2.014231717150027,
                -0.1829186519099909,
                1.2787144490405722,
                -3.138090029487543
            ]
        },
        {
            "positions": [
                -2.144181478355445,
                -1.6496741771263375,
                2.0334638225125756,
                -0.06767042611599572,
                1.2140337356969084,
                -3.1428410330268637
            ]
        },
        {
            "positions": [
                -2.262282692315649,
                -1.7079461820131463,
                2.0526959278751242,
                0.04757779967799944,
                1.1493530223532444,
                -3.147592036566184
            ]
        },
        {
            "positions": [
                -2.314316526285128,
                -1.6713346463467007,
                2.0544296632196386,
                -0.07367759094083595,
                1.0838985805729962,
                -3.1593880339157097
            ]
        },
        {
            "positions": [
                -2.3663503602546077,
                -1.6347231106802549,
                2.0561633985641534,
                -0.19493298155967134,
                1.018444138792748,
                -3.171184031265235
            ]
        },
        {
            "positions": [
                -2.4183841942240867,
                -1.5981115750138093,
                2.057897133908668,
                -0.31618837217850676,
                0.9529896970124998,
                -3.182980028614761
            ]
        },
        {
            "positions": [
                -2.4321561545667025,
                -1.4891334674798293,
                2.0454876400818636,
                -0.4431988247196019,
                0.8824762611760897,
                -3.178147663534923
            ]
        },
        {
            "positions": [
                -2.445928114909319,
                -1.3801553599458494,
                2.0330781462550593,
                -0.570209277260697,
                0.8119628253396795,
                -3.1733152984550848
            ]
        },
        {
            "positions": [
                -2.459700075251935,
                -1.2711772524118692,
                2.0206686524282547,
                -0.6972197298017923,
                0.7414493895032692,
                -3.1684829333752464
            ]
        },
        {
            "positions": [
                -2.473472035594551,
                -1.1621991448778892,
                2.0082591586014504,
                -0.8242301823428875,
                0.6709359536668591,
                -3.1636505682954086
            ]
        }
    ]
}