{
    "goal": {
        "global_pose": {
            "orientation": {
                "w": 0.7031023480610252,
                "x": -0.7110244013736278,
                "y": 0.0077485991402295624,
                "z": 0.005598929693374583
            },
            "position": {
                "x": -0.8841497679147869,
                "y": 0.44412534475326537,
                "z": 0.3711530566215515
            }
        },
        "name": "move_to_auspresseinheit_D"
    },
    "id": "LazyPRMstar_move_to_auspresseinheit_D_114",
    "joint_names": [
        "shoulder_pan_joint",
        "shoulder_lift_joint",
        "elbow_joint",
        "wrist_1_joint",
        "wrist_2_joint",
        "wrist_3_joint"
    ],
    "metrics": {
        "cart_traj_len": 0.3446145327194558,
        "distance_elbow_joint": 0.6501300546552624,
        "distance_shoulder_lift_joint": 0.1270863422353865,
        "distance_shoulder_pan_joint": 0.13410267437938259,
        "distance_wrist_1_joint": 0.5580300968558563,
        "distance_wrist_2_joint": 1.4485537235693697,
        "distance_wrist_3_joint": 0.027222751425918457,
        "smoothness": 3.947459674368863e-16,
        "time": 5.000082406,
        "traj_len": 1.7161368369454622,
        "weighted_distance": 2.237443846535202
    },
    "planner": "LazyPRMstar",
    "start": {
        "state": {
            "elbow_joint": -1.8275523626775212,
            "shoulder_lift_joint": -2.126789852344167,
            "shoulder_pan_joint": -0.03513704404078235,
            "wrist_1_joint": -2.347782403156801,
            "wrist_2_joint": -1.6058999987535132,
            "wrist_3_joint": -3.0880379163319196
        }
    },
    "waypoints": [
        {
            "positions": [
                -0.03513704404078235,
                -2.126789852344167,
                -1.8275523626775212,
                -2.347782403156801,
                -1.6058999987535132,
                -3.0880379163319196
            ]
        },
        {
            "positions": [
                -0.05189987833820517,
                -2.14267564512359,
                -1.7462861058456134,
                -2.417536165263783,
                -1.424830783307342,
                -3.08463507240368
            ]
        },
        {
            "positions": [
                -0.068662712635628,
                -2.1585614379030136,
                -1.6650198490137056,
                -2.4872899273707647,
                -1.2437615678611706,
                -3.08123222847544
            ]
        },
        {
            "positions": [
                -0.08542554693305082,
                -2.174447230682437,
                -1.5837535921817978,
                -2.557043689477747,
                -1.0626923524149996,
                -3.0778293845472002
            ]
        },
        {
            "positions": [
                -0.10218838123047363,
                -2.19033302346186,
                -1.50248733534989,
                -2.626797451584729,
                -0.8816231369688283,
                -3.07442654061896
            ]
        },
        {
            "positions": [
                -0.11895121552789648,
                -2.2062188162412832,
                -1.4212210785179822,
                -2.696551213691711,
                -0.700553921522657,
                -3.0710236966907205
            ]
        },
        {
            "positions": [
                -0.1357140498253193,
                -2.2221046090207066,
                -1.3399548216860744,
                -2.7663049757986933,
                -0.519484706076486,
                -3.067620852762481
            ]
        },
        {
            "positions": [
                -0.1524768841227421,
                -2.23799040180013,
                -1.2586885648541666,
                -2.836058737905675,
                -0.33841549063031473,
                -3.064218008834241
            ]
        },
        {
            "positions": [
                -0.16923971842016494,
                -2.2538761945795533,
                -1.1774223080222588,
                -2.905812500012657,
                -0.15734627518414354,
                -3.060815164906001
            ]
        }
    ]
}