{
    "goal": {
        "global_pose": {
            "orientation": {
                "w": -0.4816463035849501,
                "x": 0.5182115481033762,
                "y": 0.4908360881923453,
                "z": -0.5084816262002911
            },
            "position": {
                "x": -0.8240239810943604,
                "y": -0.300875300988555,
                "z": 0.16403168439865112
            }
        },
        "name": "move_to_storage_C"
    },
    "id": "LazyPRM_move_to_storage_C_32",
    "joint_names": [
        "shoulder_pan_joint",
        "shoulder_lift_joint",
        "elbow_joint",
        "wrist_1_joint",
        "wrist_2_joint",
        "wrist_3_joint"
    ],
    "metrics": {
        "cart_traj_len": 0.5766598768334951,
        "distance_elbow_joint": 0.2557720532757224,
        "distance_shoulder_lift_joint": 0.18899792426202422,
        "distance_shoulder_pan_joint": 0.49518414156095636,
        "distance_wrist_1_joint": 0.06699464102773023,
        "distance_wrist_2_joint": 1.062534399936975,
        "distance_wrist_3_joint": 0.0648794970419666,
        "smoothness": 0.0,
        "time": 0.011910987,
        "traj_len": 1.460945809092649,
        "weighted_distance": 1.8421863890915091
    },
    "planner": "LazyPRM",
    "start": {
        "state": {
            "elbow_joint": 2.010868314990456,
            "shoulder_lift_joint": -1.1634956873337592,
            "shoulder_pan_joint": -2.4736205022346125,
            "wrist_1_joint": -0.8367026794202681,
            "wrist_2_joint": 0.6746043897044499,
            "wrist_3_joint": -3.1496632123970403
        }
    },
    "waypoints": [
        {
            "positions": [
                -2.4736205022346125,
                -1.1634956873337592,
                2.010868314990456,
                -0.8367026794202681,
                0.6746043897044499,
                -3.1496632123970403
            ]
        },
        {
            "positions": [
                -2.556151192494772,
                -1.1319960332900885,
                1.968239639444502,
                -0.8255369059156464,
                0.8516934563606124,
                -3.138849962890046
            ]
        },
        {
            "positions": [
                -2.6386818827549314,
                -1.1004963792464177,
                1.9256109638985484,
                -0.8143711324110247,
                1.0287825230167749,
                -3.1280367133830516
            ]
        },
        {
            "positions": [
                -2.721212573015091,
                -1.068996725202747,
                1.8829822883525946,
                -0.803205358906403,
                1.2058715896729373,
                -3.1172234638760568
            ]
        },
        {
            "positions": [
                -2.80374326327525,
                -1.0374970711590763,
                1.840353612806641,
                -0.7920395854017813,
                1.3829606563290997,
                -3.1064102143690624
            ]
        },
        {
            "positions": [
                -2.8862739535354094,
                -1.0059974171154056,
                1.7977249372606872,
                -0.7808738118971595,
                1.5600497229852626,
                -3.095596964862068
            ]
        },
        {
            "positions": [
                -2.968804643795569,
                -0.974497763071735,
                1.7550962617147334,
                -0.7697080383925379,
                1.7371387896414248,
                -3.0847837153550737
            ]
        }
    ]
}