{
    "goal": {
        "global_pose": {
            "orientation": {
                "w": 0.7047431468963623,
                "x": -0.7094548344612122,
                "y": 0.0024358443915843964,
                "z": -0.0022348060738295317
            },
            "position": {
                "x": 0.6094750761985779,
                "y": 0.3671506643295288,
                "z": 0.19426114857196808
            }
        },
        "name": "move_to_magneteinheit_A"
    },
    "id": "LazyPRM_move_to_magneteinheit_A_45",
    "joint_names": [
        "shoulder_pan_joint",
        "shoulder_lift_joint",
        "elbow_joint",
        "wrist_1_joint",
        "wrist_2_joint",
        "wrist_3_joint"
    ],
    "metrics": {
        "cart_traj_len": 3.390742506997809,
        "distance_elbow_joint": 3.875846740063898,
        "distance_shoulder_lift_joint": 0.4615100019787013,
        "distance_shoulder_pan_joint": 3.186069651297909,
        "distance_wrist_1_joint": 2.471501182563096,
        "distance_wrist_2_joint": 2.204450152712945,
        "distance_wrist_3_joint": 3.6948894830185295,
        "smoothness": 0.2521923481551296,
        "time": 0.117508886,
        "traj_len": 3.986761494199907,
        "weighted_distance": 5.287721391388562
    },
    "planner": "LazyPRM",
    "start": {
        "state": {
            "elbow_joint": -1.9196185241190666,
            "shoulder_lift_joint": -1.2443396400964142,
            "shoulder_pan_joint": 2.6996025414629847,
            "wrist_1_joint": -1.5485510000780065,
            "wrist_2_joint": -1.5709468930060704,
            "wrist_3_joint": 0.4420197071253992
        }
    },
    "waypoints": [
        {
            "positions": [
                2.6996025414629847,
                -1.2443396400964142,
                -1.9196185241190666,
                -1.5485510000780065,
                -1.5709468930060704,
                0.4420197071253992
            ]
        },
        {
            "positions": [
                2.6063577285854826,
                -1.2374815119721982,
                -1.8441304885152936,
                -1.4573503083578934,
                -1.479808930787945,
                0.4098630243463188
            ]
        },
        {
            "positions": [
                2.513112915707981,
                -1.2306233838479823,
                -1.7686424529115203,
                -1.3661496166377802,
                -1.3886709685698198,
                0.3777063415672384
            ]
        },
        {
            "positions": [
                2.419868102830479,
                -1.2237652557237664,
                -1.6931544173077473,
                -1.2749489249176669,
                -1.2975330063516943,
                0.345549658788158
            ]
        },
        {
            "positions": [
                2.326623289952977,
                -1.2169071275995504,
                -1.617666381703974,
                -1.1837482331975537,
                -1.206395044133569,
                0.3133929760090777
            ]
        },
        {
            "positions": [
                2.233378477075475,
                -1.2100489994753345,
                -1.542178346100201,
                -1.0925475414774406,
                -1.1152570819154437,
                0.2812362932299973
            ]
        },
        {
            "positions": [
                2.140133664197973,
                -1.2031908713511186,
                -1.4666903104964277,
                -1.0013468497573275,
                -1.0241191196973185,
                0.2490796104509169
            ]
        },
        {
            "positions": [
                2.046888851320471,
                -1.1963327432269026,
                -1.3912022748926547,
                -0.9101461580372142,
                -0.9329811574791931,
                0.21692292767183652
            ]
        },
        {
            "positions": [
                1.9536440384429694,
                -1.1894746151026867,
                -1.3157142392888814,
                -0.8189454663171011,
                -0.8418431952610677,
                0.18476624489275617
            ]
        },
        {
            "positions": [
                1.8603992255654673,
                -1.1826164869784708,
                -1.2402262036851084,
                -0.7277447745969879,
                -0.7507052330429423,
                0.15260956211367577
            ]
        },
        {
            "positions": [
                1.7671544126879655,
                -1.1757583588542548,
                -1.1647381680813353,
                -0.6365440828768747,
                -0.659567270824817,
                0.12045287933459542
            ]
        },
        {
            "positions": [
                1.6739095998104636,
                -1.168900230730039,
                -1.089250132477562,
                -0.5453433911567616,
                -0.5684293086066918,
                0.08829619655551507
            ]
        },
        {
            "positions": [
                1.5806647869329615,
                -1.162042102605823,
                -1.0137620968737888,
                -0.4541426994366482,
                -0.4772913463885664,
                0.05613951377643461
            ]
        },
        {
            "positions": [
                1.4874199740554594,
                -1.155183974481607,
                -0.9382740612700158,
                -0.36294200771653506,
                -0.386153384170441,
                0.023982830997354265
            ]
        },
        {
            "positions": [
                1.3941751611779576,
                -1.148325846357391,
                -0.8627860256662425,
                -0.27174131599642193,
                -0.2950154219523158,
                -0.008173851781726138
            ]
        },
        {
            "positions": [
                1.3009303483004557,
                -1.1414677182331752,
                -0.7872979900624695,
                -0.18054062427630885,
                -0.2038774597341903,
                -0.04033053456080646
            ]
        },
        {
            "positions": [
                1.221952702101269,
                -1.1473906771362143,
                -0.6521419191482264,
                -0.1624954849127586,
                -0.17864347708729925,
                -0.16534006299331863
            ]
        },
        {
            "positions": [
                1.1429750559020824,
                -1.1533136360392533,
                -0.5169858482339833,
                -0.14445034554920833,
                -0.1534094944404082,
                -0.29034959142583083
            ]
        },
        {
            "positions": [
                1.063997409702896,
                -1.1592365949422925,
                -0.3818297773197402,
                -0.1264052061856581,
                -0.12817551179351716,
                -0.41535911985834295
            ]
        },
        {
            "positions": [
                0.9850197635037092,
                -1.1651595538453314,
                -0.24667370640549713,
                -0.10836006682210782,
                -0.1029415291466261,
                -0.5403686482908552
            ]
        },
        {
            "positions": [
                0.9060421173045226,
                -1.1710825127483706,
                -0.11151763549125404,
                -0.09031492745855756,
                -0.07770754649973505,
                -0.6653781767233673
            ]
        },
        {
            "positions": [
                0.827064471105336,
                -1.1770054716514098,
                0.023638435422989046,
                -0.07226978809500731,
                -0.05247356385284402,
                -0.7903877051558795
            ]
        },
        {
            "positions": [
                0.7480868249061494,
                -1.1829284305544487,
                0.15879450633723213,
                -0.05422464873145705,
                -0.027239581205952962,
                -0.9153972335883918
            ]
        },
        {
            "positions": [
                0.6691091787069627,
                -1.188851389457488,
                0.2939505772514752,
                -0.03617950936790679,
                -0.002005598559061905,
                -1.0404067620209039
            ]
        },
        {
            "positions": [
                0.5901315325077761,
                -1.194774348360527,
                0.4291066481657184,
                -0.018134370004356526,
                0.02322838408782915,
                -1.165416290453416
            ]
        },
        {
            "positions": [
                0.5111538863085895,
                -1.200697307263566,
                0.5642627190799614,
                -8.923064080626486e-05,
                0.04846236673472021,
                -1.2904258188859281
            ]
        },
        {
            "positions": [
                0.4321762401094029,
                -1.2066202661666052,
                0.6994187899942044,
                0.017955908722743996,
                0.07369634938161124,
                -1.4154353473184405
            ]
        },
        {
            "positions": [
                0.35319859391021624,
                -1.2125432250696444,
                0.8345748609084476,
                0.03600104808629423,
                0.09893033202850227,
                -1.5404448757509526
            ]
        },
        {
            "positions": [
                0.27422094771102956,
                -1.2184661839726834,
                0.9697309318226908,
                0.05404618744984449,
                0.12416431467539335,
                -1.6654544041834647
            ]
        },
        {
            "positions": [
                0.1952433015118431,
                -1.2243891428757225,
                1.1048870027369337,
                0.07209132681339475,
                0.14939829732228438,
                -1.790463932615977
            ]
        },
        {
            "positions": [
                0.11626565531265642,
                -1.2303121017787615,
                1.2400430736511767,
                0.09013646617694504,
                0.17463227996917546,
                -1.9154734610484891
            ]
        },
        {
            "positions": [
                0.03728800911346977,
                -1.2362350606818007,
                1.3751991445654197,
                0.10818160554049527,
                0.1998662626160665,
                -2.040482989481001
            ]
        },
        {
            "positions": [
                0.009927095781988401,
                -1.2462245641882779,
                1.4187306053661461,
                0.02079808420722057,
                0.16880431311282873,
                -2.1893497162405033
            ]
        },
        {
            "positions": [
                -0.01743381754949297,
                -1.2562140676947553,
                1.4622620661668724,
                -0.06658543712605414,
                0.137742363609591,
                -2.3382164430000056
            ]
        },
        {
            "positions": [
                -0.04479473088097434,
                -1.2662035712012325,
                1.5057935269675988,
                -0.15396895845932884,
                0.10668041410635323,
                -2.487083169759508
            ]
        },
        {
            "positions": [
                -0.07215564421245571,
                -1.27619307470771,
                1.5493249877683253,
                -0.24135247979260355,
                0.07561846460311548,
                -2.6359498965190102
            ]
        },
        {
            "positions": [
                -0.0995165575439371,
                -1.2861825782141871,
                1.5928564485690517,
                -0.32873600112587825,
                0.044556515099877736,
                -2.7848166232785125
            ]
        },
        {
            "positions": [
                -0.12687747087541845,
                -1.2961720817206643,
                1.6363879093697782,
                -0.41611952245915296,
                0.013494565596639974,
                -2.9336833500380153
            ]
        },
        {
            "positions": [
                -0.1542383842068998,
                -1.3061615852271418,
                1.6799193701705044,
                -0.5035030437924276,
                -0.01756738390659776,
                -3.0825500767975176
            ]
        },
        {
            "positions": [
                -0.1815992975383812,
                -1.316151088733619,
                1.7234508309712309,
                -0.5908865651257024,
                -0.04862933340983553,
                -3.23141680355702
            ]
        },
        {
            "positions": [
                -0.07997669343953362,
                -1.2548328521952794,
                1.801043292629098,
                -0.6294533672185005,
                0.013084466945133273,
                -3.238567794335723
            ]
        },
        {
            "positions": [
                0.021645910659313955,
                -1.19351461565694,
                1.8786357542869652,
                -0.6680201693112987,
                0.07479826730010208,
                -3.2457187851144265
            ]
        },
        {
            "positions": [
                0.12326851475816156,
                -1.1321963791186005,
                1.9562282159448323,
                -0.7065869714040969,
                0.1365120676550709,
                -3.2528697758931298
            ]
        }
    ]
}