{
    "goal": {
        "global_pose": {
            "orientation": {
                "w": 0.5084816262002911,
                "x": -0.4908360881923452,
                "y": 0.5182115481033761,
                "z": -0.48164630358495003
            },
            "position": {
                "x": 0.5540239810943604,
                "y": -0.46912469901144505,
                "z": 0.16403168439865112
            }
        },
        "name": "move_to_storage_B"
    },
    "id": "LazyPRMstar_move_to_storage_B_34",
    "joint_names": [
        "shoulder_pan_joint",
        "shoulder_lift_joint",
        "elbow_joint",
        "wrist_1_joint",
        "wrist_2_joint",
        "wrist_3_joint"
    ],
    "metrics": {
        "cart_traj_len": 0.6664797924502203,
        "distance_elbow_joint": 0.34956373911421057,
        "distance_shoulder_lift_joint": 0.4582989815888192,
        "distance_shoulder_pan_joint": 0.21670710216376865,
        "distance_wrist_1_joint": 2.9852681750606513,
        "distance_wrist_2_joint": 2.703627338142936,
        "distance_wrist_3_joint": 3.1407440207722472,
        "smoothness": 0.026965720158776962,
        "time": 5.047939526,
        "traj_len": 3.139141499971391,
        "weighted_distance": 4.671679881112437
    },
    "planner": "LazyPRMstar",
    "start": {
        "state": {
            "elbow_joint": 1.664937868594044,
            "shoulder_lift_joint": -0.661644460510453,
            "shoulder_pan_joint": -0.9139846352900073,
            "wrist_1_joint": 2.146753192139373,
            "wrist_2_joint": -2.2341966793290973,
            "wrist_3_joint": 0.005466555786416001
        }
    },
    "waypoints": [
        {
            "positions": [
                -0.9139846352900073,
                -0.661644460510453,
                1.664937868594044,
                2.146753192139373,
                -2.2341966793290973,
                0.005466555786416001
            ]
        },
        {
            "positions": [
                -0.8966907367122421,
                -0.7100699808046503,
                1.6842288091435522,
                2.119463569118427,
                -2.2197826180356017,
                -0.02746840092697858
            ]
        },
        {
            "positions": [
                -0.9019670448677604,
                -0.7274959792703107,
                1.6933877512848492,
                1.9968778709518962,
                -2.106809522495483,
                -0.14070588128629674
            ]
        },
        {
            "positions": [
                -0.9072433530232786,
                -0.7449219777359711,
                1.7025466934261464,
                1.8742921727853652,
                -1.9938364269553641,
                -0.25394336164561493
            ]
        },
        {
            "positions": [
                -0.9125196611787969,
                -0.7623479762016315,
                1.7117056355674434,
                1.7517064746188344,
                -1.8808633314152452,
                -0.36718084200493306
            ]
        },
        {
            "positions": [
                -0.9177959693343152,
                -0.7797739746672919,
                1.7208645777087406,
                1.6291207764523032,
                -1.7678902358751265,
                -0.4804183223642513
            ]
        },
        {
            "positions": [
                -0.9230722774898334,
                -0.7971999731329523,
                1.7300235198500375,
                1.5065350782857725,
                -1.6549171403350076,
                -0.5936558027235694
            ]
        },
        {
            "positions": [
                -0.9283485856453517,
                -0.8146259715986127,
                1.7391824619913347,
                1.3839493801192415,
                -1.5419440447948887,
                -0.7068932830828876
            ]
        },
        {
            "positions": [
                -0.9336248938008699,
                -0.8320519700642731,
                1.7483414041326317,
                1.2613636819527105,
                -1.42897094925477,
                -0.8201307634422058
            ]
        },
        {
            "positions": [
                -0.9389012019563882,
                -0.8494779685299335,
                1.757500346273929,
                1.1387779837861796,
                -1.315997853714651,
                -0.933368243801524
            ]
        },
        {
            "positions": [
                -0.9441775101119064,
                -0.866903966995594,
                1.766659288415226,
                1.0161922856196486,
                -1.2030247581745321,
                -1.0466057241608422
            ]
        },
        {
            "positions": [
                -0.9494538182674247,
                -0.8843299654612544,
                1.775818230556523,
                0.8936065874531176,
                -1.0900516626344134,
                -1.1598432045201603
            ]
        },
        {
            "positions": [
                -0.954730126422943,
                -0.9017559639269148,
                1.78497717269782,
                0.7710208892865866,
                -0.9770785670942945,
                -1.2730806848794787
            ]
        },
        {
            "positions": [
                -0.9600064345784612,
                -0.9191819623925752,
                1.7941361148391173,
                0.6484351911200559,
                -0.8641054715541758,
                -1.3863181652387966
            ]
        },
        {
            "positions": [
                -0.9652827427339795,
                -0.9366079608582356,
                1.8032950569804143,
                0.5258494929535249,
                -0.7511323760140571,
                -1.4995556455981147
            ]
        },
        {
            "positions": [
                -0.9705590508894978,
                -0.954033959323896,
                1.8124539991217115,
                0.4032637947869937,
                -0.638159280473938,
                -1.612793125957433
            ]
        },
        {
            "positions": [
                -0.9758353590450161,
                -0.9714599577895564,
                1.8216129412630084,
                0.28067809662046295,
                -0.5251861849338193,
                -1.7260306063167512
            ]
        },
        {
            "positions": [
                -0.9811116672005343,
                -0.9888859562552168,
                1.8307718834043056,
                0.15809239845393197,
                -0.4122130893937004,
                -1.8392680866760693
            ]
        },
        {
            "positions": [
                -0.9863879753560525,
                -1.0063119547208772,
                1.8399308255456026,
                0.035506700287401216,
                -0.2992399938535817,
                -1.9525055670353875
            ]
        },
        {
            "positions": [
                -0.9916642835115708,
                -1.0237379531865376,
                1.8490897676868998,
                -0.08707899787912998,
                -0.18626689831346255,
                -2.065743047394706
            ]
        },
        {
            "positions": [
                -0.996940591667089,
                -1.041163951652198,
                1.8582487098281968,
                -0.20966469604566074,
                -0.07329380277334385,
                -2.178980527754024
            ]
        },
        {
            "positions": [
                -1.0022168998226073,
                -1.0585899501178584,
                1.867407651969494,
                -0.33225039421219194,
                0.03967929276677484,
                -2.292218008113342
            ]
        },
        {
            "positions": [
                -1.0074932079781256,
                -1.0760159485835188,
                1.876566594110791,
                -0.4548360923787227,
                0.15265238830689354,
                -2.40545548847266
            ]
        },
        {
            "positions": [
                -1.0127695161336439,
                -1.0934419470491792,
                1.885725536252088,
                -0.5774217905452539,
                0.2656254838470127,
                -2.518692968831979
            ]
        },
        {
            "positions": [
                -1.0180458242891621,
                -1.1108679455148396,
                1.8948844783933851,
                -0.7000074887117849,
                0.37859857938713115,
                -2.6319304491912967
            ]
        },
        {
            "positions": [
                -1.0440651962921899,
                -1.1138931110429837,
                1.934756854831675,
                -0.7461766534482827,
                0.4088759391960339,
                -2.799712787789475
            ]
        },
        {
            "positions": [
                -1.0700845682952178,
                -1.116918276571128,
                1.9746292312699647,
                -0.7923458181847806,
                0.43915329900493666,
                -2.9674951263876532
            ]
        },
        {
            "positions": [
                -1.0961039402982455,
                -1.1199434420992722,
                2.0145016077082545,
                -0.8385149829212784,
                0.4694306588138394,
                -3.1352774649858315
            ]
        }
    ]
}