{
    "goal": {
        "global_pose": {
            "orientation": {
                "w": 0.7047431468963623,
                "x": -0.7094548344612122,
                "y": 0.0024358443915843964,
                "z": -0.0022348060738295317
            },
            "position": {
                "x": 0.6094750761985779,
                "y": 0.3671506643295288,
                "z": 0.19426114857196808
            }
        },
        "name": "move_to_magneteinheit_A"
    },
    "id": "LazyPRM_move_to_magneteinheit_A_75",
    "joint_names": [
        "shoulder_pan_joint",
        "shoulder_lift_joint",
        "elbow_joint",
        "wrist_1_joint",
        "wrist_2_joint",
        "wrist_3_joint"
    ],
    "metrics": {
        "cart_traj_len": 3.813148866829597,
        "distance_elbow_joint": 4.04064848790644,
        "distance_shoulder_lift_joint": 0.7622858005840027,
        "distance_shoulder_pan_joint": 2.8794869220676453,
        "distance_wrist_1_joint": 1.6955795551214283,
        "distance_wrist_2_joint": 2.5113413681194667,
        "distance_wrist_3_joint": 3.698097405603123,
        "smoothness": 0.9185831948706003,
        "time": 0.24859831599999999,
        "traj_len": 3.948093152320764,
        "weighted_distance": 5.214456373760283
    },
    "planner": "LazyPRM",
    "start": {
        "state": {
            "elbow_joint": -1.9196185241190666,
            "shoulder_lift_joint": -1.2443396400964142,
            "shoulder_pan_joint": 2.6996025414629847,
            "wrist_1_joint": -1.5485510000780065,
            "wrist_2_joint": -1.5709468930060704,
            "wrist_3_joint": 0.4420197071253992
        }
    },
    "waypoints": [
        {
            "positions": [
                2.6996025414629847,
                -1.2443396400964142,
                -1.9196185241190666,
                -1.5485510000780065,
                -1.5709468930060704,
                0.4420197071253992
            ]
        },
        {
            "positions": [
                2.64295708627893,
                -1.242742811671932,
                -1.9232561729202284,
                -1.5471315778309003,
                -1.529257140633283,
                0.33464736049479626
            ]
        },
        {
            "positions": [
                2.564174672795083,
                -1.2407849370775728,
                -1.8180102339922806,
                -1.5165794022692747,
                -1.462742585366312,
                0.22385135124715558
            ]
        },
        {
            "positions": [
                2.485392259311237,
                -1.2388270624832134,
                -1.7127642950643327,
                -1.486027226707649,
                -1.3962280300993408,
                0.11305534199951489
            ]
        },
        {
            "positions": [
                2.4066098458273903,
                -1.2368691878888542,
                -1.6075183561363848,
                -1.4554750511460235,
                -1.3297134748323698,
                0.002259332751874177
            ]
        },
        {
            "positions": [
                2.327827432343544,
                -1.2349113132944949,
                -1.502272417208437,
                -1.424922875584398,
                -1.2631989195653985,
                -0.10853667649576648
            ]
        },
        {
            "positions": [
                2.2490450188596975,
                -1.2329534387001357,
                -1.397026478280489,
                -1.3943707000227725,
                -1.1966843642984275,
                -0.21933268574340714
            ]
        },
        {
            "positions": [
                2.1702626053758514,
                -1.2309955641057764,
                -1.2917805393525412,
                -1.363818524461147,
                -1.1301698090314565,
                -0.3301286949910479
            ]
        },
        {
            "positions": [
                2.0914801918920047,
                -1.2290376895114172,
                -1.1865346004245934,
                -1.3332663488995213,
                -1.0636552537644852,
                -0.44092470423868857
            ]
        },
        {
            "positions": [
                2.0126977784081586,
                -1.227079814917058,
                -1.0812886614966455,
                -1.3027141733378957,
                -0.9971406984975141,
                -0.5517207134863292
            ]
        },
        {
            "positions": [
                1.933915364924312,
                -1.2251219403226987,
                -0.9760427225686975,
                -1.2721619977762701,
                -0.9306261432305429,
                -0.66251672273397
            ]
        },
        {
            "positions": [
                1.8551329514404655,
                -1.2231640657283396,
                -0.8707967836407497,
                -1.2416098222146446,
                -0.8641115879635719,
                -0.7733127319816105
            ]
        },
        {
            "positions": [
                1.7763505379566191,
                -1.2212061911339802,
                -0.7655508447128019,
                -1.211057646653019,
                -0.7975970326966006,
                -0.8841087412292513
            ]
        },
        {
            "positions": [
                1.6975681244727727,
                -1.219248316539621,
                -0.660304905784854,
                -1.1805054710913934,
                -0.7310824774296296,
                -0.9949047504768921
            ]
        },
        {
            "positions": [
                1.6187857109889263,
                -1.217290441945262,
                -0.5550589668569061,
                -1.1499532955297678,
                -0.6645679221626585,
                -1.1057007597245327
            ]
        },
        {
            "positions": [
                1.54000329750508,
                -1.2153325673509026,
                -0.4498130279289583,
                -1.1194011199681424,
                -0.5980533668956873,
                -1.2164967689721733
            ]
        },
        {
            "positions": [
                1.4612208840212333,
                -1.2133746927565434,
                -0.3445670890010104,
                -1.0888489444065166,
                -0.5315388116287162,
                -1.3272927782198143
            ]
        },
        {
            "positions": [
                1.382438470537387,
                -1.211416818162184,
                -0.23932115007306254,
                -1.0582967688448912,
                -0.46502425636174505,
                -1.4380887874674548
            ]
        },
        {
            "positions": [
                1.3036560570535407,
                -1.209458943567825,
                -0.1340752111451149,
                -1.0277445932832656,
                -0.398509701094774,
                -1.5488847967150954
            ]
        },
        {
            "positions": [
                1.224873643569694,
                -1.2075010689734655,
                -0.02882927221716658,
                -0.9971924177216399,
                -0.33199514582780276,
                -1.6596808059627364
            ]
        },
        {
            "positions": [
                1.1460912300858477,
                -1.2055431943791064,
                0.07641666671078107,
                -0.9666402421600144,
                -0.26548059056083173,
                -1.770476815210377
            ]
        },
        {
            "positions": [
                1.0673088166020013,
                -1.2035853197847473,
                0.18166260563872894,
                -0.9360880665983888,
                -0.1989660352938607,
                -1.8812728244580175
            ]
        },
        {
            "positions": [
                0.9885264031181549,
                -1.2016274451903879,
                0.2869085445666768,
                -0.9055358910367632,
                -0.13245148002688967,
                -1.992068833705658
            ]
        },
        {
            "positions": [
                0.9097439896343082,
                -1.1996695705960287,
                0.3921544834946247,
                -0.8749837154751376,
                -0.06593692475991819,
                -2.102864842953299
            ]
        },
        {
            "positions": [
                0.8309615761504621,
                -1.1977116960016694,
                0.49740042242257254,
                -0.844431539913512,
                0.0005776305070528398,
                -2.2136608522009396
            ]
        },
        {
            "positions": [
                0.7521791626666157,
                -1.1957538214073102,
                0.6026463613505204,
                -0.8138793643518866,
                0.06709218577402387,
                -2.3244568614485805
            ]
        },
        {
            "positions": [
                0.6733967491827693,
                -1.193795946812951,
                0.7078923002784683,
                -0.783327188790261,
                0.1336067410409949,
                -2.435252870696221
            ]
        },
        {
            "positions": [
                0.5946143356989229,
                -1.1918380722185917,
                0.8131382392064161,
                -0.7527750132286354,
                0.20012129630796616,
                -2.546048879943862
            ]
        },
        {
            "positions": [
                0.5158319222150762,
                -1.1898801976242326,
                0.918384178134364,
                -0.7222228376670098,
                0.2666358515749372,
                -2.6568448891915026
            ]
        },
        {
            "positions": [
                0.43704950873123005,
                -1.1879223230298732,
                1.0236301170623119,
                -0.6916706621053843,
                0.33315040684190844,
                -2.767640898439143
            ]
        },
        {
            "positions": [
                0.3582670952473834,
                -1.185964448435514,
                1.1288760559902598,
                -0.6611184865437587,
                0.3996649621088795,
                -2.8784369076867837
            ]
        },
        {
            "positions": [
                0.2794846817635368,
                -1.1840065738411547,
                1.2341219949182076,
                -0.6305663109821331,
                0.4661795173758507,
                -2.9892329169344247
            ]
        },
        {
            "positions": [
                0.2007022682796905,
                -1.1820486992467956,
                1.3393679338461553,
                -0.6000141354205075,
                0.5326940726428218,
                -3.1000289261820653
            ]
        },
        {
            "positions": [
                0.2386542701755205,
                -1.0885545694433534,
                1.3205644691447544,
                -0.7084071242048371,
                0.4830601169161212,
                -3.0958282467992237
            ]
        },
        {
            "positions": [
                0.27660627207135047,
                -0.9950604396399111,
                1.3017610044433536,
                -0.8168001129891667,
                0.4334261611894207,
                -3.0916275674163827
            ]
        },
        {
            "positions": [
                0.31455827396718045,
                -0.9015663098364688,
                1.2829575397419528,
                -0.9251931017734962,
                0.3837922054627202,
                -3.0874268880335416
            ]
        },
        {
            "positions": [
                0.3525102758630104,
                -0.8080721800330266,
                1.264154075040552,
                -1.0335860905578258,
                0.33415824973601965,
                -3.0832262086507
            ]
        },
        {
            "positions": [
                0.295950530039152,
                -0.8895075391424958,
                1.3974462925527518,
                -0.9591257844976023,
                0.31587473428945234,
                -3.1087591146398683
            ]
        },
        {
            "positions": [
                0.23939078421529358,
                -0.9709428982519651,
                1.5307385100649518,
                -0.8846654784373789,
                0.297591218842885,
                -3.1342920206290366
            ]
        },
        {
            "positions": [
                0.18283103839143516,
                -1.0523782573614344,
                1.6640307275771518,
                -0.8102051723771554,
                0.27930770339631766,
                -3.1598249266182052
            ]
        },
        {
            "positions": [
                0.12627129256757674,
                -1.1338136164709036,
                1.7973229450893515,
                -0.7357448663169319,
                0.26102418794975035,
                -3.1853578326073735
            ]
        },
        {
            "positions": [
                0.12373163456197875,
                -1.1340905205536418,
                1.9633269485738416,
                -0.751374377402649,
                0.12499367017224745,
                -3.222472263414993
            ]
        }
    ]
}