{
    "goal": {
        "global_pose": {
            "orientation": {
                "w": 0.7047431493862688,
                "x": -0.7094548369677653,
                "y": 0.0024358444001904,
                "z": -0.0022348060817251984
            },
            "position": {
                "x": -0.39052492380142206,
                "y": 0.3671506643295288,
                "z": 0.19426114857196808
            }
        },
        "name": "move_to_magneteinheit_D"
    },
    "id": "LazyPRM_move_to_magneteinheit_D_74",
    "joint_names": [
        "shoulder_pan_joint",
        "shoulder_lift_joint",
        "elbow_joint",
        "wrist_1_joint",
        "wrist_2_joint",
        "wrist_3_joint"
    ],
    "metrics": {
        "cart_traj_len": 4.098176143486785,
        "distance_elbow_joint": 3.305544732119188,
        "distance_shoulder_lift_joint": 1.6350132367384564,
        "distance_shoulder_pan_joint": 3.6808538393167543,
        "distance_wrist_1_joint": 2.727747008632047,
        "distance_wrist_2_joint": 2.08634381530085,
        "distance_wrist_3_joint": 4.089693284880527,
        "smoothness": 0.39959203788905723,
        "time": 0.176116684,
        "traj_len": 4.186310537572174,
        "weighted_distance": 5.524370852023041
    },
    "planner": "LazyPRM",
    "start": {
        "state": {
            "elbow_joint": 0.749534889911806,
            "shoulder_lift_joint": -0.6476975780787326,
            "shoulder_pan_joint": -2.711696901376241,
            "wrist_1_joint": -0.07506478083263063,
            "wrist_2_joint": 0.43296659715538205,
            "wrist_3_joint": -3.14703540197715
        }
    },
    "waypoints": [
        {
            "positions": [
                -2.711696901376241,
                -0.6476975780787326,
                0.749534889911806,
                -0.07506478083263063,
                0.43296659715538205,
                -3.14703540197715
            ]
        },
        {
            "positions": [
                -2.747175262371786,
                -0.6901361078877151,
                0.8337977589595059,
                -0.09627805606299472,
                0.3670853707217491,
                -3.148027971698239
            ]
        },
        {
            "positions": [
                -2.7496797014811643,
                -0.7582946946161949,
                0.8357684092011954,
                -0.08863712099123826,
                0.2790829129224178,
                -2.9252318101973107
            ]
        },
        {
            "positions": [
                -2.7521841405905425,
                -0.8264532813446748,
                0.8377390594428848,
                -0.0809961859194818,
                0.19108045512308655,
                -2.7024356486963823
            ]
        },
        {
            "positions": [
                -2.7546885796999208,
                -0.8946118680731546,
                0.8397097096845743,
                -0.07335525084772535,
                0.10307799732375528,
                -2.479639487195454
            ]
        },
        {
            "positions": [
                -2.757193018809299,
                -0.9627704548016345,
                0.8416803599262638,
                -0.06571431577596888,
                0.015075539524423975,
                -2.2568433256945255
            ]
        },
        {
            "positions": [
                -2.6583140099190152,
                -0.9923731083234754,
                0.7571591290790235,
                -0.017918600115378047,
                -0.01296459382360143,
                -2.162615922739421
            ]
        },
        {
            "positions": [
                -2.5594350010287314,
                -1.0219757618453162,
                0.6726378982317831,
                0.029877115545212787,
                -0.041004727171626836,
                -2.0683885197843166
            ]
        },
        {
            "positions": [
                -2.460555992138448,
                -1.051578415367157,
                0.5881166673845428,
                0.07767283120580361,
                -0.06904486051965224,
                -1.9741611168292121
            ]
        },
        {
            "positions": [
                -2.3616769832481643,
                -1.0811810688889978,
                0.5035954365373025,
                0.12546854686639447,
                -0.09708499386767765,
                -1.8799337138741077
            ]
        },
        {
            "positions": [
                -2.2627979743578805,
                -1.1107837224108388,
                0.4190742056900622,
                0.1732642625269853,
                -0.12512512721570304,
                -1.7857063109190032
            ]
        },
        {
            "positions": [
                -2.1639189654675968,
                -1.1403863759326796,
                0.33455297484282187,
                0.2210599781875761,
                -0.15316526056372845,
                -1.6914789079638988
            ]
        },
        {
            "positions": [
                -2.065039956577313,
                -1.1699890294545203,
                0.2500317439955816,
                0.268855693848167,
                -0.18120539391175386,
                -1.5972515050087943
            ]
        },
        {
            "positions": [
                -1.9661609476870292,
                -1.1995916829763613,
                0.1655105131483412,
                0.3166514095087578,
                -0.20924552725977927,
                -1.50302410205369
            ]
        },
        {
            "positions": [
                -1.8672819387967456,
                -1.229194336498202,
                0.08098928230110092,
                0.36444712516934863,
                -0.23728566060780465,
                -1.4087966990985856
            ]
        },
        {
            "positions": [
                -1.7684029299064619,
                -1.258796990020043,
                -0.003531948546139363,
                0.41224284082993945,
                -0.26532579395583006,
                -1.3145692961434812
            ]
        },
        {
            "positions": [
                -1.6695239210161783,
                -1.2883996435418839,
                -0.08805317939337975,
                0.46003855649053027,
                -0.29336592730385547,
                -1.2203418931883767
            ]
        },
        {
            "positions": [
                -1.5706449121258945,
                -1.3180022970637246,
                -0.17257441024062004,
                0.5078342721511211,
                -0.3214060606518809,
                -1.1261144902332723
            ]
        },
        {
            "positions": [
                -1.4717659032356107,
                -1.3476049505855656,
                -0.2570956410878603,
                0.555629987811712,
                -0.3494461939999063,
                -1.0318870872781678
            ]
        },
        {
            "positions": [
                -1.372886894345327,
                -1.3772076041074064,
                -0.3416168719351006,
                0.6034257034723028,
                -0.3774863273479317,
                -0.9376596843230633
            ]
        },
        {
            "positions": [
                -1.2740078854550432,
                -1.4068102576292474,
                -0.4261381027823411,
                0.6512214191328938,
                -0.40552646069595716,
                -0.8434322813679589
            ]
        },
        {
            "positions": [
                -1.1751288765647596,
                -1.4364129111510882,
                -0.5106593336295814,
                0.6990171347934845,
                -0.4335665940439825,
                -0.7492048784128547
            ]
        },
        {
            "positions": [
                -1.0762498676744758,
                -1.466015564672929,
                -0.5951805644768217,
                0.7468128504540754,
                -0.461606727392008,
                -0.65497747545775
            ]
        },
        {
            "positions": [
                -0.9773708587841923,
                -1.4956182181947697,
                -0.6797017953240619,
                0.7946085661146661,
                -0.4896468607400333,
                -0.5607500725026457
            ]
        },
        {
            "positions": [
                -0.8784918498939083,
                -1.5252208717166107,
                -0.7642230261713024,
                0.8424042817752571,
                -0.5176869940880587,
                -0.46652266954754107
            ]
        },
        {
            "positions": [
                -0.7796128410036247,
                -1.5548235252384517,
                -0.8487442570185425,
                0.8901999974358478,
                -0.5457271274360841,
                -0.37229526659243684
            ]
        },
        {
            "positions": [
                -0.6807338321133409,
                -1.5844261787602925,
                -0.933265487865783,
                0.9379957130964388,
                -0.5737672607841096,
                -0.27806786363733216
            ]
        },
        {
            "positions": [
                -0.5818548232230576,
                -1.6140288322821332,
                -1.0177867187130234,
                0.9857914287570294,
                -0.6018073941321349,
                -0.18384046068222792
            ]
        },
        {
            "positions": [
                -0.48297581433277337,
                -1.643631485803974,
                -1.1023079495602635,
                1.0335871444176203,
                -0.6298475274801604,
                -0.08961305772712347
            ]
        },
        {
            "positions": [
                -0.38409680544249003,
                -1.6732341393258148,
                -1.186829180407504,
                1.081382860078211,
                -0.6578876608281857,
                0.004614345227980987
            ]
        },
        {
            "positions": [
                -0.28521779655220625,
                -1.702836792847656,
                -1.2713504112547445,
                1.129178575738802,
                -0.6859277941762112,
                0.09884174818308544
            ]
        },
        {
            "positions": [
                -0.18633878766192247,
                -1.7324394463694968,
                -1.3558716421019845,
                1.1769742913993928,
                -0.7139679275242365,
                0.1930691511381899
            ]
        },
        {
            "positions": [
                -0.0874597787716388,
                -1.7620420998913375,
                -1.440392872949225,
                1.2247700070599836,
                -0.742008060872262,
                0.2872965540932944
            ]
        },
        {
            "positions": [
                -0.03320205768832765,
                -1.7977573678762317,
                -1.5538506670960455,
                1.3302349090112504,
                -0.6847620414547808,
                0.3098997890938546
            ]
        },
        {
            "positions": [
                0.021055663394983493,
                -1.833472635861126,
                -1.667308461242866,
                1.4356998109625172,
                -0.6275160220372995,
                0.3325030240944149
            ]
        },
        {
            "positions": [
                0.07531338447829464,
                -1.86918790384602,
                -1.7807662553896864,
                1.541164712913784,
                -0.5702700026198183,
                0.3551062590949752
            ]
        },
        {
            "positions": [
                0.12957110556160578,
                -1.9049031718309142,
                -1.8942240495365068,
                1.6466296148650508,
                -0.5130239832023371,
                0.3777094940955354
            ]
        },
        {
            "positions": [
                0.18382882664491695,
                -1.9406184398158084,
                -2.0076818436833275,
                1.7520945168163176,
                -0.4557779637848559,
                0.4003127290960956
            ]
        },
        {
            "positions": [
                0.23808654772822807,
                -1.9763337078007024,
                -2.1211396378301477,
                1.8575594187675843,
                -0.39853194436737466,
                0.4229159640966559
            ]
        },
        {
            "positions": [
                0.2923442688115392,
                -2.012048975785597,
                -2.234597431976968,
                1.9630243207188511,
                -0.3412859249498934,
                0.44551919909721616
            ]
        },
        {
            "positions": [
                0.34660198989485036,
                -2.047764243770491,
                -2.3480552261237886,
                2.068489222670118,
                -0.2840399055324122,
                0.4681224340977764
            ]
        },
        {
            "positions": [
                0.25800820436492566,
                -2.086922005611607,
                -2.3519991721329014,
                1.9781948135586895,
                -0.2084730718768526,
                0.3893640492038728
            ]
        },
        {
            "positions": [
                0.1694144188350009,
                -2.1260797674527234,
                -2.3559431181420143,
                1.887900404447261,
                -0.13290623822129302,
                0.3106056643099693
            ]
        },
        {
            "positions": [
                0.08082063330507616,
                -2.16523752929384,
                -2.3598870641511276,
                1.7976059953358323,
                -0.057339404565733415,
                0.23184727941606573
            ]
        },
        {
            "positions": [
                -0.007773152224848534,
                -2.2043952911349565,
                -2.3638310101602404,
                1.707311586224404,
                0.018227429089826164,
                0.15308889452216218
            ]
        },
        {
            "positions": [
                -0.09636693775477334,
                -2.2435530529760728,
                -2.3677749561693533,
                1.6170171771129755,
                0.09379426274538577,
                0.0743305096282586
            ]
        },
        {
            "positions": [
                -0.184960723284698,
                -2.282710814817189,
                -2.371718902178466,
                1.526722768001547,
                0.16936109640094538,
                -0.004427875265644941
            ]
        }
    ]
}