{
    "goal": {
        "global_pose": {
            "orientation": {
                "w": 0.7047431468963623,
                "x": -0.7094548344612122,
                "y": 0.0024358443915843964,
                "z": -0.0022348060738295317
            },
            "position": {
                "x": 0.6094750761985779,
                "y": 0.3671506643295288,
                "z": 0.19426114857196808
            }
        },
        "name": "move_to_magneteinheit_A"
    },
    "id": "LazyPRMstar_move_to_magneteinheit_A_35",
    "joint_names": [
        "shoulder_pan_joint",
        "shoulder_lift_joint",
        "elbow_joint",
        "wrist_1_joint",
        "wrist_2_joint",
        "wrist_3_joint"
    ],
    "metrics": {
        "cart_traj_len": 3.227184118862651,
        "distance_elbow_joint": 3.9126595070606607,
        "distance_shoulder_lift_joint": 0.5603423265317171,
        "distance_shoulder_pan_joint": 2.7789214277582475,
        "distance_wrist_1_joint": 3.4671817055634717,
        "distance_wrist_2_joint": 2.8218122307897637,
        "distance_wrist_3_joint": 1.142802602377927,
        "smoothness": 0.166509661137293,
        "time": 5.036849208,
        "traj_len": 3.8319342113457258,
        "weighted_distance": 4.822687937363444
    },
    "planner": "LazyPRMstar",
    "start": {
        "state": {
            "elbow_joint": -1.9196185241190666,
            "shoulder_lift_joint": -1.2443396400964142,
            "shoulder_pan_joint": 2.6996025414629847,
            "wrist_1_joint": -1.5485510000780065,
            "wrist_2_joint": -1.5709468930060704,
            "wrist_3_joint": 0.4420197071253992
        }
    },
    "waypoints": [
        {
            "positions": [
                2.6996025414629847,
                -1.2443396400964142,
                -1.9196185241190666,
                -1.5485510000780065,
                -1.5709468930060704,
                0.4420197071253992
            ]
        },
        {
            "positions": [
                2.565659937184832,
                -1.2315669476657127,
                -1.789946705559132,
                -1.489435231469033,
                -1.607297447498255,
                0.4605077537679888
            ]
        },
        {
            "positions": [
                2.4317173329066795,
                -1.2187942552350113,
                -1.6602748869991975,
                -1.4303194628600593,
                -1.64364800199044,
                0.4789958004105785
            ]
        },
        {
            "positions": [
                2.297774728628527,
                -1.2060215628043098,
                -1.5306030684392629,
                -1.371203694251086,
                -1.6799985564826247,
                0.49748384705316817
            ]
        },
        {
            "positions": [
                2.163832124350374,
                -1.1932488703736084,
                -1.4009312498793283,
                -1.3120879256421123,
                -1.7163491109748095,
                0.5159718936957578
            ]
        },
        {
            "positions": [
                2.0298895200722216,
                -1.180476177942907,
                -1.2712594313193937,
                -1.2529721570331387,
                -1.7526996654669942,
                0.5344599403383474
            ]
        },
        {
            "positions": [
                1.895946915794069,
                -1.1677034855122055,
                -1.141587612759459,
                -1.193856388424165,
                -1.789050219959179,
                0.5529479869809371
            ]
        },
        {
            "positions": [
                1.7620043115159163,
                -1.154930793081504,
                -1.0119157941995245,
                -1.1347406198151915,
                -1.8254007744513638,
                0.5714360336235268
            ]
        },
        {
            "positions": [
                1.6280617072377637,
                -1.1421581006508026,
                -0.8822439756395899,
                -1.075624851206218,
                -1.8617513289435486,
                0.5899240802661164
            ]
        },
        {
            "positions": [
                1.494119102959611,
                -1.1293854082201011,
                -0.7525721570796553,
                -1.0165090825972445,
                -1.8981018834357333,
                0.608412126908706
            ]
        },
        {
            "positions": [
                1.3601764986814584,
                -1.1166127157893997,
                -0.6229003385197207,
                -0.957393313988271,
                -1.9344524379279182,
                0.6269001735512958
            ]
        },
        {
            "positions": [
                1.2262338944033058,
                -1.103840023358698,
                -0.4932285199597861,
                -0.8982775453792973,
                -1.970802992420103,
                0.6453882201938854
            ]
        },
        {
            "positions": [
                1.0922912901251531,
                -1.0910673309279966,
                -0.3635567013998515,
                -0.8391617767703238,
                -2.0071535469122876,
                0.663876266836475
            ]
        },
        {
            "positions": [
                0.9583486858470005,
                -1.0782946384972951,
                -0.23388488283991693,
                -0.7800460081613502,
                -2.0435041014044724,
                0.6823643134790647
            ]
        },
        {
            "positions": [
                0.8244060815688479,
                -1.0655219460665937,
                -0.10421306427998234,
                -0.7209302395523767,
                -2.079854655896657,
                0.7008523601216543
            ]
        },
        {
            "positions": [
                0.6904634772906952,
                -1.0527492536358922,
                0.025458754279952256,
                -0.6618144709434031,
                -2.1162052103888422,
                0.719340406764244
            ]
        },
        {
            "positions": [
                0.5565208730125426,
                -1.0399765612051908,
                0.15513057283988685,
                -0.6026987023344296,
                -2.1525557648810265,
                0.7378284534068337
            ]
        },
        {
            "positions": [
                0.42257826873439,
                -1.0272038687744893,
                0.28480239139982144,
                -0.5435829337254561,
                -2.1889063193732117,
                0.7563165000494234
            ]
        },
        {
            "positions": [
                0.28863566445623734,
                -1.0144311763437879,
                0.41447420995975603,
                -0.48446716511648247,
                -2.2252568738653964,
                0.774804546692013
            ]
        },
        {
            "positions": [
                0.15469306017808487,
                -1.0016584839130864,
                0.5441460285196908,
                -0.42535139650750886,
                -2.261607428357581,
                0.7932925933346027
            ]
        },
        {
            "positions": [
                0.14825628505647143,
                -1.008250891047883,
                0.638904106907167,
                -0.3562577538477712,
                -2.1237332004104617,
                0.728767602100819
            ]
        },
        {
            "positions": [
                0.141819509934858,
                -1.0148432981826792,
                0.7336621852946432,
                -0.28716411118803353,
                -1.9858589724633426,
                0.6642426108670354
            ]
        },
        {
            "positions": [
                0.13538273481324456,
                -1.0214357053174756,
                0.8284202636821194,
                -0.2180704685282959,
                -1.8479847445162234,
                0.5997176196332518
            ]
        },
        {
            "positions": [
                0.12894595969163114,
                -1.028028112452272,
                0.9231783420695956,
                -0.14897682586855826,
                -1.7101105165691042,
                0.5351926283994681
            ]
        },
        {
            "positions": [
                0.12250918457001769,
                -1.0346205195870686,
                1.0179364204570718,
                -0.0798831832088206,
                -1.5722362886219847,
                0.4706676371656844
            ]
        },
        {
            "positions": [
                0.11607240944840425,
                -1.0412129267218648,
                1.112694498844548,
                -0.010789540549082932,
                -1.4343620606748657,
                0.4061426459319008
            ]
        },
        {
            "positions": [
                0.10963563432679081,
                -1.0478053338566613,
                1.2074525772320241,
                0.05830410211065473,
                -1.2964878327277463,
                0.3416176546981171
            ]
        },
        {
            "positions": [
                0.1007878640038741,
                -1.0275068052870386,
                1.278709819596963,
                0.20110565828692503,
                -1.2031620963392289,
                0.3107130081637256
            ]
        },
        {
            "positions": [
                0.09194009368095737,
                -1.0072082767174158,
                1.349967061961902,
                0.34390721446319533,
                -1.1098363599507117,
                0.27980836162933415
            ]
        },
        {
            "positions": [
                0.08309232335804066,
                -0.9869097481477931,
                1.421224304326841,
                0.48670877063946555,
                -1.0165106235621946,
                0.24890371509494266
            ]
        },
        {
            "positions": [
                0.07424455303512395,
                -0.9666112195781703,
                1.49248154669178,
                0.6295103268157359,
                -0.9231848871736772,
                0.21799906856055118
            ]
        },
        {
            "positions": [
                0.06539678271220722,
                -0.9463126910085475,
                1.563738789056719,
                0.7723118829920061,
                -0.8298591507851599,
                0.1870944220261597
            ]
        },
        {
            "positions": [
                0.05654901238929052,
                -0.9260141624389248,
                1.6349960314216578,
                0.9151134391682764,
                -0.7365334143966427,
                0.1561897754917682
            ]
        },
        {
            "positions": [
                0.0477012420663738,
                -0.905715633869302,
                1.7062532737865967,
                1.0579149953445466,
                -0.6432076780081254,
                0.12528512895737673
            ]
        },
        {
            "positions": [
                0.038853471743457074,
                -0.8854171052996793,
                1.7775105161515357,
                1.2007165515208171,
                -0.5498819416196081,
                0.09438048242298525
            ]
        },
        {
            "positions": [
                0.030005701420540362,
                -0.8651185767300565,
                1.8487677585164748,
                1.3435181076970872,
                -0.45655620523109086,
                0.06347583588859373
            ]
        },
        {
            "positions": [
                0.021157931097623654,
                -0.8448200481604338,
                1.9200250008814137,
                1.4863196638733576,
                -0.3632304688425736,
                0.03257118935420226
            ]
        },
        {
            "positions": [
                0.054650203561918756,
                -0.8219770365909048,
                1.9443636615681403,
                1.6304233444107268,
                -0.28563889020149213,
                0.0223017519580946
            ]
        },
        {
            "positions": [
                0.08814247602621386,
                -0.7991340250213758,
                1.9687023222548672,
                1.7745270249480958,
                -0.20804731156041062,
                0.012032314561986938
            ]
        },
        {
            "positions": [
                0.12163474849050897,
                -0.7762910134518468,
                1.9930409829415938,
                1.918630705485465,
                -0.13045573291932913,
                0.0017628771658792777
            ]
        }
    ]
}