{
    "goal": {
        "global_pose": {
            "orientation": {
                "w": 0.7047431468963623,
                "x": -0.7094548344612122,
                "y": 0.0024358443915843964,
                "z": -0.0022348060738295317
            },
            "position": {
                "x": 0.6094750761985779,
                "y": 0.3671506643295288,
                "z": 0.19426114857196808
            }
        },
        "name": "move_to_magneteinheit_A"
    },
    "id": "LazyPRMstar_move_to_magneteinheit_A_55",
    "joint_names": [
        "shoulder_pan_joint",
        "shoulder_lift_joint",
        "elbow_joint",
        "wrist_1_joint",
        "wrist_2_joint",
        "wrist_3_joint"
    ],
    "metrics": {
        "cart_traj_len": 3.597650670057787,
        "distance_elbow_joint": 4.213283635978252,
        "distance_shoulder_lift_joint": 0.5685090520697784,
        "distance_shoulder_pan_joint": 3.3408771581190866,
        "distance_wrist_1_joint": 1.7374439647185231,
        "distance_wrist_2_joint": 2.54901495425958,
        "distance_wrist_3_joint": 4.352156565179689,
        "smoothness": 0.5643681684349029,
        "time": 5.030254811,
        "traj_len": 4.0940548763206515,
        "weighted_distance": 5.454544653741721
    },
    "planner": "LazyPRMstar",
    "start": {
        "state": {
            "elbow_joint": -1.9196185241190666,
            "shoulder_lift_joint": -1.2443396400964142,
            "shoulder_pan_joint": 2.6996025414629847,
            "wrist_1_joint": -1.5485510000780065,
            "wrist_2_joint": -1.5709468930060704,
            "wrist_3_joint": 0.4420197071253992
        }
    },
    "waypoints": [
        {
            "positions": [
                2.6996025414629847,
                -1.2443396400964142,
                -1.9196185241190666,
                -1.5485510000780065,
                -1.5709468930060704,
                0.4420197071253992
            ]
        },
        {
            "positions": [
                2.610642534406563,
                -1.245854980929145,
                -1.837361351177217,
                -1.5249514395928543,
                -1.5113820476804045,
                0.31357762365921743
            ]
        },
        {
            "positions": [
                2.5216825273501415,
                -1.2473703217618761,
                -1.7551041782353676,
                -1.501351879107702,
                -1.4518172023547384,
                0.18513554019303569
            ]
        },
        {
            "positions": [
                2.4327225202937197,
                -1.248885662594607,
                -1.672847005293518,
                -1.4777523186225499,
                -1.3922523570290726,
                0.05669345672685394
            ]
        },
        {
            "positions": [
                2.343762513237298,
                -1.250401003427338,
                -1.5905898323516685,
                -1.4541527581373974,
                -1.3326875117034067,
                -0.0717486267393278
            ]
        },
        {
            "positions": [
                2.2548025061808765,
                -1.251916344260069,
                -1.5083326594098188,
                -1.4305531976522452,
                -1.2731226663777409,
                -0.2001907102055096
            ]
        },
        {
            "positions": [
                2.1658424991244547,
                -1.2534316850928,
                -1.4260754864679692,
                -1.406953637167093,
                -1.213557821052075,
                -0.3286327936716913
            ]
        },
        {
            "positions": [
                2.076882492068033,
                -1.2549470259255309,
                -1.3438183135261197,
                -1.3833540766819408,
                -1.153992975726409,
                -0.4570748771378731
            ]
        },
        {
            "positions": [
                1.9879224850116115,
                -1.2564623667582617,
                -1.2615611405842702,
                -1.3597545161967886,
                -1.094428130400743,
                -0.5855169606040548
            ]
        },
        {
            "positions": [
                1.8989624779551897,
                -1.2579777075909928,
                -1.1793039676424204,
                -1.3361549557116361,
                -1.034863285075077,
                -0.7139590440702367
            ]
        },
        {
            "positions": [
                1.810002470898768,
                -1.2594930484237237,
                -1.0970467947005709,
                -1.312555395226484,
                -0.9752984397494111,
                -0.8424011275364184
            ]
        },
        {
            "positions": [
                1.7210424638423465,
                -1.2610083892564548,
                -1.0147896217587213,
                -1.2889558347413317,
                -0.9157335944237452,
                -0.9708432110026001
            ]
        },
        {
            "positions": [
                1.632082456785925,
                -1.2625237300891856,
                -0.9325324488168719,
                -1.2653562742561795,
                -0.8561687490980794,
                -1.0992852944687819
            ]
        },
        {
            "positions": [
                1.543122449729503,
                -1.2640390709219167,
                -0.8502752758750223,
                -1.2417567137710273,
                -0.7966039037724133,
                -1.2277273779349636
            ]
        },
        {
            "positions": [
                1.4541624426730815,
                -1.2655544117546476,
                -0.7680181029331727,
                -1.2181571532858748,
                -0.7370390584467474,
                -1.3561694614011452
            ]
        },
        {
            "positions": [
                1.3652024356166599,
                -1.2670697525873784,
                -0.6857609299913232,
                -1.1945575928007226,
                -0.6774742131210816,
                -1.484611544867327
            ]
        },
        {
            "positions": [
                1.2762424285602383,
                -1.2685850934201095,
                -0.6035037570494737,
                -1.1709580323155704,
                -0.6179093677954156,
                -1.6130536283335086
            ]
        },
        {
            "positions": [
                1.1872824215038167,
                -1.2701004342528404,
                -0.5212465841076241,
                -1.1473584718304182,
                -0.5583445224697499,
                -1.7414957117996903
            ]
        },
        {
            "positions": [
                1.0983224144473946,
                -1.2716157750855714,
                -0.4389894111657744,
                -1.123758911345266,
                -0.49877967714408356,
                -1.8699377952658724
            ]
        },
        {
            "positions": [
                1.009362407390973,
                -1.2731311159183023,
                -0.35673223822392486,
                -1.1001593508601135,
                -0.4392148318184177,
                -1.9983798787320541
            ]
        },
        {
            "positions": [
                0.9204024003345515,
                -1.2746464567510334,
                -0.2744750652820753,
                -1.0765597903749615,
                -0.37964998649275183,
                -2.126821962198236
            ]
        },
        {
            "positions": [
                0.8314423932781299,
                -1.2761617975837642,
                -0.1922178923402258,
                -1.052960229889809,
                -0.320085141167086,
                -2.2552640456644175
            ]
        },
        {
            "positions": [
                0.7424823862217083,
                -1.277677138416495,
                -0.10996071939837626,
                -1.0293606694046569,
                -0.2605202958414201,
                -2.383706129130599
            ]
        },
        {
            "positions": [
                0.6535223791652864,
                -1.2791924792492262,
                -0.02770354645652673,
                -1.0057611089195047,
                -0.20095545051575425,
                -2.512148212596781
            ]
        },
        {
            "positions": [
                0.5645623721088651,
                -1.280707820081957,
                0.054553626485322804,
                -0.9821615484343524,
                -0.1413906051900884,
                -2.6405902960629626
            ]
        },
        {
            "positions": [
                0.47560236505244324,
                -1.2822231609146881,
                0.13681079942717256,
                -0.9585619879492001,
                -0.08182575986442209,
                -2.7690323795291447
            ]
        },
        {
            "positions": [
                0.3866423579960214,
                -1.283738501747419,
                0.2190679723690221,
                -0.9349624274640479,
                -0.022260914538756227,
                -2.8974744629953264
            ]
        },
        {
            "positions": [
                0.29768235093960005,
                -1.28525384258015,
                0.3013251453108716,
                -0.9113628669788956,
                0.037303930786909634,
                -3.025916546461508
            ]
        },
        {
            "positions": [
                0.208722343883178,
                -1.286769183412881,
                0.3835823182527214,
                -0.8877633064937434,
                0.09686877611257555,
                -3.15435862992769
            ]
        },
        {
            "positions": [
                0.16195088852604622,
                -1.3051870319321215,
                0.557573130797307,
                -0.8246888639923404,
                0.14253807458168857,
                -3.1221871757826376
            ]
        },
        {
            "positions": [
                0.11517943316891441,
                -1.323604880451362,
                0.7315639433418926,
                -0.7616144214909375,
                0.1882073730508016,
                -3.090015721637586
            ]
        },
        {
            "positions": [
                0.06840797781178262,
                -1.3420227289706026,
                0.9055547558864782,
                -0.6985399789895347,
                0.2338766715199146,
                -3.0578442674925337
            ]
        },
        {
            "positions": [
                0.02163652245465081,
                -1.3604405774898432,
                1.0795455684310638,
                -0.6354655364881316,
                0.2795459699890276,
                -3.025672813347482
            ]
        },
        {
            "positions": [
                -0.025134932902480978,
                -1.3788584260090837,
                1.2535363809756492,
                -0.5723910939867288,
                0.32521526845814064,
                -2.9935013592024298
            ]
        },
        {
            "positions": [
                -0.07190638825961276,
                -1.3972762745283243,
                1.427527193520235,
                -0.509316651485326,
                0.37088456692725363,
                -2.9613299050573776
            ]
        },
        {
            "positions": [
                -0.11867784361674455,
                -1.4156941230475648,
                1.6015180060648204,
                -0.446242208983923,
                0.41655386539636663,
                -2.929158450912326
            ]
        },
        {
            "positions": [
                -0.1654492989738764,
                -1.4341119715668054,
                1.7755088186094061,
                -0.38316776648252004,
                0.4622231638654797,
                -2.8969869967672737
            ]
        },
        {
            "positions": [
                -0.21222075433100818,
                -1.452529820086046,
                1.9494996311539918,
                -0.32009332398111723,
                0.5078924623345926,
                -2.864815542622222
            ]
        },
        {
            "positions": [
                -0.25899220968813996,
                -1.4709476686052865,
                2.1234904436985773,
                -0.2570188814797143,
                0.5535617608037057,
                -2.8326440884771698
            ]
        },
        {
            "positions": [
                -0.19527847519347946,
                -1.4139641646784689,
                2.095127999005143,
                -0.33133752249975285,
                0.4828107107287384,
                -2.9049880362565164
            ]
        },
        {
            "positions": [
                -0.13156474069881896,
                -1.356980660751651,
                2.066765554311708,
                -0.4056561635197914,
                0.4120596606537711,
                -2.977331984035863
            ]
        },
        {
            "positions": [
                -0.06785100620415846,
                -1.2999971568248334,
                2.0384031096182733,
                -0.47997480453982994,
                0.3413086105788038,
                -3.0496759318152096
            ]
        },
        {
            "positions": [
                -0.004137271709497958,
                -1.2430136528980158,
                2.010040664924839,
                -0.5542934455598685,
                0.2705575605038365,
                -3.122019879594556
            ]
        },
        {
            "positions": [
                0.05957646278516254,
                -1.186030148971198,
                1.981678220231404,
                -0.628612086579907,
                0.1998065104288692,
                -3.194363827373903
            ]
        },
        {
            "positions": [
                0.12329019727982303,
                -1.1290466450443803,
                1.9533157755379693,
                -0.7029307275999456,
                0.1290554603539019,
                -3.2667077751532494
            ]
        }
    ]
}