{
    "goal": {
        "global_pose": {
            "orientation": {
                "w": 0.7031023480610252,
                "x": -0.7110244013736278,
                "y": 0.0077485991402295624,
                "z": 0.005598929693374583
            },
            "position": {
                "x": -0.8841497679147869,
                "y": 0.44412534475326537,
                "z": 0.3711530566215515
            }
        },
        "name": "move_to_auspresseinheit_D"
    },
    "id": "LazyPRM_move_to_auspresseinheit_D_55",
    "joint_names": [
        "shoulder_pan_joint",
        "shoulder_lift_joint",
        "elbow_joint",
        "wrist_1_joint",
        "wrist_2_joint",
        "wrist_3_joint"
    ],
    "metrics": {
        "cart_traj_len": 0.34354865618500824,
        "distance_elbow_joint": 0.6355301446757864,
        "distance_shoulder_lift_joint": 0.11980701306833241,
        "distance_shoulder_pan_joint": 0.13424097295341914,
        "distance_wrist_1_joint": 0.5104028221321335,
        "distance_wrist_2_joint": 1.4467663860369795,
        "distance_wrist_3_joint": 0.01224133696622065,
        "smoothness": 3.9474596431116675e-16,
        "time": 0.012356238,
        "traj_len": 1.690854421833196,
        "weighted_distance": 2.20014557653225
    },
    "planner": "LazyPRM",
    "start": {
        "state": {
            "elbow_joint": -1.8275523626775212,
            "shoulder_lift_joint": -2.126789852344167,
            "shoulder_pan_joint": -0.03513704404078235,
            "wrist_1_joint": -2.347782403156801,
            "wrist_2_joint": -1.6058999987535132,
            "wrist_3_joint": -3.0880379163319196
        }
    },
    "waypoints": [
        {
            "positions": [
                -0.03513704404078235,
                -2.126789852344167,
                -1.8275523626775212,
                -2.347782403156801,
                -1.6058999987535132,
                -3.0880379163319196
            ]
        },
        {
            "positions": [
                -0.05191716565995974,
                -2.1417657289777083,
                -1.7481110945930478,
                -2.4115827559233174,
                -1.4250542004988906,
                -3.089568083452697
            ]
        },
        {
            "positions": [
                -0.06869728727913713,
                -2.15674160561125,
                -1.6686698265085746,
                -2.4753831086898344,
                -1.2442084022442683,
                -3.0910982505734745
            ]
        },
        {
            "positions": [
                -0.08547740889831452,
                -2.1717174822447913,
                -1.5892285584241013,
                -2.539183461456351,
                -1.063362603989646,
                -3.0926284176942525
            ]
        },
        {
            "positions": [
                -0.10225753051749192,
                -2.1866933588783333,
                -1.509787290339628,
                -2.602983814222868,
                -0.8825168057350234,
                -3.09415858481503
            ]
        },
        {
            "positions": [
                -0.11903765213666931,
                -2.2016692355118748,
                -1.4303460222551547,
                -2.6667841669893844,
                -0.701671007480401,
                -3.0956887519358074
            ]
        },
        {
            "positions": [
                -0.1358177737558467,
                -2.2166451121454163,
                -1.3509047541706813,
                -2.730584519755901,
                -0.5208252092257786,
                -3.0972189190565853
            ]
        },
        {
            "positions": [
                -0.1525978953750241,
                -2.2316209887789578,
                -1.271463486086208,
                -2.794384872522418,
                -0.33997941097115625,
                -3.0987490861773628
            ]
        },
        {
            "positions": [
                -0.1693780169942015,
                -2.2465968654124993,
                -1.1920222180017348,
                -2.8581852252889344,
                -0.15913361271653378,
                -3.1002792532981402
            ]
        }
    ]
}