{
    "goal": {
        "global_pose": {
            "orientation": {
                "w": 0.5084816217422485,
                "x": -0.49083608388900757,
                "y": 0.5182115435600281,
                "z": -0.4816462993621826
            },
            "position": {
                "x": 0.5540239810943604,
                "y": 0.030875300988554955,
                "z": 0.16403168439865112
            }
        },
        "name": "move_to_storage_A"
    },
    "id": "LazyPRM_move_to_storage_A_13",
    "joint_names": [
        "shoulder_pan_joint",
        "shoulder_lift_joint",
        "elbow_joint",
        "wrist_1_joint",
        "wrist_2_joint",
        "wrist_3_joint"
    ],
    "metrics": {
        "cart_traj_len": 0.3529546124999083,
        "distance_elbow_joint": 0.4531676980437018,
        "distance_shoulder_lift_joint": 0.23468512014646659,
        "distance_shoulder_pan_joint": 0.4598924188636339,
        "distance_wrist_1_joint": 0.2575477143009658,
        "distance_wrist_2_joint": 1.105992343244916,
        "distance_wrist_3_joint": 0.10919555140900972,
        "smoothness": 4.440892098500626e-16,
        "time": 0.02200549,
        "traj_len": 1.6187899326375532,
        "weighted_distance": 2.0499785380273114
    },
    "planner": "LazyPRM",
    "start": {
        "state": {
            "elbow_joint": 1.971548259319323,
            "shoulder_lift_joint": -1.1394851275133948,
            "shoulder_pan_joint": 0.1228115487234821,
            "wrist_1_joint": -0.7804723859257726,
            "wrist_2_joint": 0.12958671773740124,
            "wrist_3_joint": -3.192489227718131
        }
    },
    "waypoints": [
        {
            "positions": [
                0.1228115487234821,
                -1.1394851275133948,
                1.971548259319323,
                -0.7804723859257726,
                0.12958671773740124,
                -3.192489227718131
            ]
        },
        {
            "positions": [
                0.05711263174296298,
                -1.1730115732486044,
                2.0362865018969947,
                -0.8172649165401963,
                0.28758562391524634,
                -3.1768898632311298
            ]
        },
        {
            "positions": [
                -0.00858628523755614,
                -1.2065380189838137,
                2.1010247444746666,
                -0.85405744715462,
                0.4455845300930915,
                -3.1612904987441284
            ]
        },
        {
            "positions": [
                -0.07428520221807527,
                -1.2400644647190233,
                2.165762987052338,
                -0.8908499777690436,
                0.6035834362709366,
                -3.145691134257127
            ]
        },
        {
            "positions": [
                -0.13998411919859438,
                -1.273590910454233,
                2.2305012296300095,
                -0.9276425083834674,
                0.7615823424487818,
                -3.1300917697701256
            ]
        },
        {
            "positions": [
                -0.20568303617911354,
                -1.3071173561894425,
                2.2952394722076814,
                -0.9644350389978911,
                0.9195812486266269,
                -3.114492405283124
            ]
        },
        {
            "positions": [
                -0.27138195315963265,
                -1.3406438019246518,
                2.3599777147853533,
                -1.0012275696123147,
                1.077580154804472,
                -3.098893040796123
            ]
        },
        {
            "positions": [
                -0.3370808701401518,
                -1.3741702476598614,
                2.424715957363025,
                -1.0380201002267384,
                1.2355790609823172,
                -3.0832936763091214
            ]
        }
    ]
}{
    "goal": {
        "global_pose": {
            "orientation": {
                "w": 0.5084816217422485,
                "x": -0.49083608388900757,
                "y": 0.5182115435600281,
                "z": -0.4816462993621826
            },
            "position": {
                "x": 0.5540239810943604,
                "y": 0.030875300988554955,
                "z": 0.16403168439865112
            }
        },
        "name": "move_to_storage_A"
    },
    "id": "LazyPRM_move_to_storage_A_13",
    "joint_names": [
        "shoulder_pan_joint",
        "shoulder_lift_joint",
        "elbow_joint",
        "wrist_1_joint",
        "wrist_2_joint",
        "wrist_3_joint"
    ],
    "metrics": {
        "cart_traj_len": 0.3524738415906758,
        "distance_elbow_joint": 0.4485822504746446,
        "distance_shoulder_lift_joint": 0.23526727667224945,
        "distance_shoulder_pan_joint": 0.4619468717373347,
        "distance_wrist_1_joint": 0.2386123624056642,
        "distance_wrist_2_joint": 1.0931844126248798,
        "distance_wrist_3_joint": 0.09966989401789039,
        "smoothness": 8.881784213138256e-16,
        "time": 0.011878141,
        "traj_len": 1.605385644613986,
        "weighted_distance": 2.026918752934855
    },
    "planner": "LazyPRM",
    "start": {
        "state": {
            "elbow_joint": 1.97154746011099,
            "shoulder_lift_joint": -1.13948474672311,
            "shoulder_pan_joint": 0.12281154466712228,
            "wrist_1_joint": -0.7804688027058302,
            "wrist_2_joint": 0.12958655903071145,
            "wrist_3_joint": 3.0906928834467795
        }
    },
    "waypoints": [
        {
            "positions": [
                0.12281154466712228,
                -1.13948474672311,
                1.97154746011099,
                -0.7804688027058302,
                0.12958655903071145,
                3.0906928834467795
            ]
        },
        {
            "positions": [
                0.05681913441893162,
                -1.1730943576762884,
                2.035630638750225,
                -0.8145562830494965,
                0.2857557608342657,
                3.1049314397350494
            ]
        },
        {
            "positions": [
                -0.009173275829259045,
                -1.206703968629467,
                2.0997138173894596,
                -0.8486437633931628,
                0.4419249626378199,
                3.1191699960233197
            ]
        },
        {
            "positions": [
                -0.07516568607744971,
                -1.2403135795826454,
                2.1637969960286947,
                -0.8827312437368291,
                0.5980941644413742,
                3.1334085523115895
            ]
        },
        {
            "positions": [
                -0.14115809632564036,
                -1.273923190535824,
                2.2278801746679298,
                -0.9168187240804955,
                0.7542633662449284,
                3.14764710859986
            ]
        },
        {
            "positions": [
                -0.20715050657383105,
                -1.3075328014890024,
                2.291963353307165,
                -0.9509062044241617,
                0.9104325680484827,
                3.1618856648881297
            ]
        },
        {
            "positions": [
                -0.2731429168220217,
                -1.341142412442181,
                2.3560465319463995,
                -0.984993684767828,
                1.066601769852037,
                3.1761242211764
            ]
        },
        {
            "positions": [
                -0.3391353270702124,
                -1.3747520233953594,
                2.4201297105856345,
                -1.0190811651114944,
                1.2227709716555912,
                3.19036277746467
            ]
        }
    ]
}{
    "goal": {
        "global_pose": {
            "orientation": {
                "w": 0.5084816217422485,
                "x": -0.49083608388900757,
                "y": 0.5182115435600281,
                "z": -0.4816462993621826
            },
            "position": {
                "x": 0.5540239810943604,
                "y": 0.030875300988554955,
                "z": 0.16403168439865112
            }
        },
        "name": "move_to_storage_A"
    },
    "id": "LazyPRM_move_to_storage_A_13",
    "joint_names": [
        "shoulder_pan_joint",
        "shoulder_lift_joint",
        "elbow_joint",
        "wrist_1_joint",
        "wrist_2_joint",
        "wrist_3_joint"
    ],
    "metrics": {
        "cart_traj_len": 0.3528220777543498,
        "distance_elbow_joint": 0.44919492216107804,
        "distance_shoulder_lift_joint": 0.23229580981925957,
        "distance_shoulder_pan_joint": 0.45960901268271454,
        "distance_wrist_1_joint": 0.2431338999904724,
        "distance_wrist_2_joint": 1.1047665474868542,
        "distance_wrist_3_joint": 0.10236859335035797,
        "smoothness": 0.0,
        "time": 0.011837181,
        "traj_len": 1.6097728987315996,
        "weighted_distance": 2.0356832807852943
    },
    "planner": "LazyPRM",
    "start": {
        "state": {
            "elbow_joint": 1.9715472970024885,
            "shoulder_lift_joint": -1.1394870060712896,
            "shoulder_pan_joint": 0.12281152778156021,
            "wrist_1_joint": -0.780463741449964,
            "wrist_2_joint": 0.12958659822042276,
            "wrist_3_joint": 3.090690232415272
        }
    },
    "waypoints": [
        {
            "positions": [
                0.12281152778156021,
                -1.1394870060712896,
                1.9715472970024885,
                -0.780463741449964,
                0.12958659822042276,
                3.090690232415272
            ]
        },
        {
            "positions": [
                0.05715309739831528,
                -1.1726721217597553,
                2.035718000168357,
                -0.8151971557343172,
                0.2874103907185448,
                3.1053143171796087
            ]
        },
        {
            "positions": [
                -0.008505332984929642,
                -1.2058572374482208,
                2.099888703334225,
                -0.8499305700186703,
                0.44523418321666686,
                3.1199384019439456
            ]
        },
        {
            "positions": [
                -0.07416376336817457,
                -1.2390423531366865,
                2.1640594065000935,
                -0.8846639843030236,
                0.6030579757147888,
                3.1345624867082824
            ]
        },
        {
            "positions": [
                -0.1398221937514195,
                -1.2722274688251523,
                2.2282301096659616,
                -0.9193973985873768,
                0.7608817682129109,
                3.1491865714726193
            ]
        },
        {
            "positions": [
                -0.20548062413466442,
                -1.305412584513618,
                2.29240081283183,
                -0.9541308128717301,
                0.9187055607110329,
                3.163810656236956
            ]
        },
        {
            "positions": [
                -0.2711390545179093,
                -1.3385977002020835,
                2.356571515997698,
                -0.9888642271560832,
                1.0765293532091549,
                3.178434741001293
            ]
        },
        {
            "positions": [
                -0.3367974849011543,
                -1.3717828158905492,
                2.4207422191635666,
                -1.0235976414404364,
                1.234353145707277,
                3.19305882576563
            ]
        }
    ]
}