{
    "goal": {
        "global_pose": {
            "orientation": {
                "w": 0.7047431493862688,
                "x": -0.7094548369677653,
                "y": 0.0024358444001904,
                "z": -0.0022348060817251984
            },
            "position": {
                "x": -0.39052492380142206,
                "y": 0.3671506643295288,
                "z": 0.19426114857196808
            }
        },
        "name": "move_to_magneteinheit_D"
    },
    "id": "LazyPRM_move_to_magneteinheit_D_134",
    "joint_names": [
        "shoulder_pan_joint",
        "shoulder_lift_joint",
        "elbow_joint",
        "wrist_1_joint",
        "wrist_2_joint",
        "wrist_3_joint"
    ],
    "metrics": {
        "cart_traj_len": 5.32756150060781,
        "distance_elbow_joint": 5.812602743310251,
        "distance_shoulder_lift_joint": 1.8245144781130909,
        "distance_shoulder_pan_joint": 3.4251171822800393,
        "distance_wrist_1_joint": 5.711746706202318,
        "distance_wrist_2_joint": 2.0662696052319873,
        "distance_wrist_3_joint": 3.247136475580605,
        "smoothness": 0.2824819212993473,
        "time": 0.273807417,
        "traj_len": 4.699722033346046,
        "weighted_distance": 6.029898544197389
    },
    "planner": "LazyPRM",
    "start": {
        "state": {
            "elbow_joint": 0.749534889911806,
            "shoulder_lift_joint": -0.6476975780787326,
            "shoulder_pan_joint": -2.711696901376241,
            "wrist_1_joint": -0.07506478083263063,
            "wrist_2_joint": 0.43296659715538205,
            "wrist_3_joint": -3.14703540197715
        }
    },
    "waypoints": [
        {
            "positions": [
                -2.711696901376241,
                -0.6476975780787326,
                0.749534889911806,
                -0.07506478083263063,
                0.43296659715538205,
                -3.14703540197715
            ]
        },
        {
            "positions": [
                -2.7026122225615814,
                -0.7067453181354793,
                0.8606225943617278,
                -0.19201930394028505,
                0.5082104772747719,
                -3.122533774808351
            ]
        },
        {
            "positions": [
                -2.6935275437469217,
                -0.7657930581922258,
                0.9717102988116497,
                -0.3089738270479395,
                0.5834543573941617,
                -3.0980321476395525
            ]
        },
        {
            "positions": [
                -2.6844428649322616,
                -0.8248407982489723,
                1.0827980032615716,
                -0.42592835015559394,
                0.6586982375135515,
                -3.0735305204707535
            ]
        },
        {
            "positions": [
                -2.675358186117602,
                -0.8838885383057189,
                1.1938857077114935,
                -0.5428828732632484,
                0.7339421176329414,
                -3.049028893301955
            ]
        },
        {
            "positions": [
                -2.666273507302942,
                -0.9429362783624655,
                1.3049734121614156,
                -0.6598373963709028,
                0.8091859977523312,
                -3.024527266133156
            ]
        },
        {
            "positions": [
                -2.6571888284882825,
                -1.0019840184192121,
                1.4160611166113375,
                -0.7767919194785573,
                0.884429877871721,
                -3.000025638964357
            ]
        },
        {
            "positions": [
                -2.648104149673623,
                -1.0610317584759585,
                1.5271488210612594,
                -0.8937464425862118,
                0.959673757991111,
                -2.9755240117955584
            ]
        },
        {
            "positions": [
                -2.639019470858963,
                -1.1200794985327052,
                1.6382365255111813,
                -1.0107009656938661,
                1.0349176381105007,
                -2.9510223846267594
            ]
        },
        {
            "positions": [
                -2.6299347920443035,
                -1.1791272385894518,
                1.7493242299611031,
                -1.1276554888015204,
                1.1101615182298905,
                -2.926520757457961
            ]
        },
        {
            "positions": [
                -2.6208501132296433,
                -1.2381749786461982,
                1.860411934411025,
                -1.244610011909175,
                1.1854053983492805,
                -2.902019130289162
            ]
        },
        {
            "positions": [
                -2.6117654344149837,
                -1.2972227187029448,
                1.971499638860947,
                -1.3615645350168293,
                1.2606492784686703,
                -2.8775175031203633
            ]
        },
        {
            "positions": [
                -2.602680755600324,
                -1.3562704587596914,
                2.082587343310869,
                -1.4785190581244838,
                1.33589315858806,
                -2.8530158759515643
            ]
        },
        {
            "positions": [
                -2.4548532705844246,
                -1.3638677140010536,
                2.0776608611058167,
                -1.5658433146997752,
                1.3229096727268046,
                -2.7663407420604296
            ]
        },
        {
            "positions": [
                -2.3070257855685257,
                -1.3714649692424157,
                2.0727343789007646,
                -1.6531675712750664,
                1.3099261868655494,
                -2.6796656081692953
            ]
        },
        {
            "positions": [
                -2.1591983005526263,
                -1.3790622244837778,
                2.0678078966957125,
                -1.7404918278503576,
                1.296942701004294,
                -2.5929904742781607
            ]
        },
        {
            "positions": [
                -2.0113708155367274,
                -1.38665947972514,
                2.0628814144906604,
                -1.827816084425649,
                1.2839592151430388,
                -2.506315340387026
            ]
        },
        {
            "positions": [
                -1.863543330520828,
                -1.394256734966502,
                2.0579549322856083,
                -1.9151403410009404,
                1.2709757292817834,
                -2.4196402064958917
            ]
        },
        {
            "positions": [
                -1.7157158455049288,
                -1.4018539902078642,
                2.0530284500805562,
                -2.002464597576232,
                1.257992243420528,
                -2.332965072604757
            ]
        },
        {
            "positions": [
                -1.5678883604890297,
                -1.4094512454492263,
                2.048101967875504,
                -2.089788854151523,
                1.2450087575592728,
                -2.2462899387136224
            ]
        },
        {
            "positions": [
                -1.4200608754731305,
                -1.4170485006905884,
                2.043175485670452,
                -2.1771131107268142,
                1.2320252716980173,
                -2.159614804822488
            ]
        },
        {
            "positions": [
                -1.3705195642387287,
                -1.4451507473423728,
                1.9247748460138356,
                -2.0710981065621277,
                1.205923560740539,
                -2.0957897184447183
            ]
        },
        {
            "positions": [
                -1.320978253004327,
                -1.4732529939941572,
                1.8063742063572192,
                -1.9650831023974409,
                1.1798218497830606,
                -2.031964632066948
            ]
        },
        {
            "positions": [
                -1.2714369417699252,
                -1.5013552406459416,
                1.6879735667006028,
                -1.8590680982327543,
                1.1537201388255824,
                -1.968139545689178
            ]
        },
        {
            "positions": [
                -1.2218956305355233,
                -1.529457487297726,
                1.5695729270439864,
                -1.7530530940680675,
                1.127618427868104,
                -1.9043144593114079
            ]
        },
        {
            "positions": [
                -1.1723543193011214,
                -1.5575597339495104,
                1.45117228738737,
                -1.647038089903381,
                1.1015167169106257,
                -1.840489372933638
            ]
        },
        {
            "positions": [
                -1.1228130080667198,
                -1.5856619806012948,
                1.3327716477307534,
                -1.5410230857386944,
                1.0754150059531473,
                -1.7766642865558677
            ]
        },
        {
            "positions": [
                -1.073271696832318,
                -1.6137642272530792,
                1.2143710080741372,
                -1.4350080815740078,
                1.0493132949956692,
                -1.7128392001780979
            ]
        },
        {
            "positions": [
                -1.0237303855979163,
                -1.6418664739048636,
                1.0959703684175206,
                -1.328993077409321,
                1.0232115840381908,
                -1.6490141138003278
            ]
        },
        {
            "positions": [
                -0.9741890743635143,
                -1.669968720556648,
                0.9775697287609042,
                -1.2229780732446345,
                0.9971098730807124,
                -1.5851890274225577
            ]
        },
        {
            "positions": [
                -0.9246477631291126,
                -1.6980709672084324,
                0.8591690891042878,
                -1.1169630690799477,
                0.971008162123234,
                -1.5213639410447877
            ]
        },
        {
            "positions": [
                -0.8751064518947107,
                -1.7261732138602168,
                0.7407684494476712,
                -1.0109480649152611,
                0.9449064511657558,
                -1.4575388546670176
            ]
        },
        {
            "positions": [
                -0.825565140660309,
                -1.7542754605120012,
                0.6223678097910548,
                -0.9049330607505743,
                0.9188047402082775,
                -1.3937137682892475
            ]
        },
        {
            "positions": [
                -0.7760238294259072,
                -1.7823777071637856,
                0.5039671701344386,
                -0.798918056585888,
                0.8927030292507991,
                -1.3298886819114777
            ]
        },
        {
            "positions": [
                -0.7264825181915054,
                -1.81047995381557,
                0.3855665304778222,
                -0.6929030524212012,
                0.8666013182933208,
                -1.2660635955337076
            ]
        },
        {
            "positions": [
                -0.6769412069571036,
                -1.8385822004673544,
                0.26716589082120556,
                -0.5868880482565146,
                0.8404996073358425,
                -1.2022385091559376
            ]
        },
        {
            "positions": [
                -0.6273998957227018,
                -1.8666844471191388,
                0.14876525116458916,
                -0.48087304409182785,
                0.8143978963783642,
                -1.1384134227781675
            ]
        },
        {
            "positions": [
                -0.5778585844883,
                -1.8947866937709232,
                0.03036461150797276,
                -0.3748580399271413,
                0.7882961854208859,
                -1.0745883364003974
            ]
        },
        {
            "positions": [
                -0.5283172732538981,
                -1.9228889404227076,
                -0.08803602814864364,
                -0.2688430357624547,
                0.7621944744634075,
                -1.0107632500226273
            ]
        },
        {
            "positions": [
                -0.47877596201949635,
                -1.950991187074492,
                -0.20643666780526004,
                -0.16282803159776815,
                0.7360927635059292,
                -0.9469381636448573
            ]
        },
        {
            "positions": [
                -0.4292346507850945,
                -1.9790934337262764,
                -0.32483730746187645,
                -0.05681302743308114,
                0.7099910525484509,
                -0.8831130772670872
            ]
        },
        {
            "positions": [
                -0.37969333955069273,
                -2.007195680378061,
                -0.44323794711849285,
                0.049201976731605424,
                0.6838893415909726,
                -0.8192879908893171
            ]
        },
        {
            "positions": [
                -0.33015202831629087,
                -2.0352979270298452,
                -0.5616385867751097,
                0.155216980896292,
                0.6577876306334942,
                -0.7554629045115471
            ]
        },
        {
            "positions": [
                -0.280610717081889,
                -2.0634001736816296,
                -0.6800392264317261,
                0.26123198506097856,
                0.631685919676016,
                -0.691637818133777
            ]
        },
        {
            "positions": [
                -0.23106940584748736,
                -2.091502420333414,
                -0.7984398660883425,
                0.36724698922566557,
                0.6055842087185376,
                -0.6278127317560069
            ]
        },
        {
            "positions": [
                -0.1815280946130855,
                -2.1196046669851984,
                -0.9168405057449589,
                0.47326199339035213,
                0.5794824977610592,
                -0.5639876453782369
            ]
        },
        {
            "positions": [
                -0.13198678337868386,
                -2.147706913636983,
                -1.0352411454015749,
                0.5792769975550383,
                0.553380786803581,
                -0.5001625590004672
            ]
        },
        {
            "positions": [
                -0.082445472144282,
                -2.1758091602887673,
                -1.1536417850581913,
                0.6852920017197248,
                0.5272790758461027,
                -0.4363374726226972
            ]
        },
        {
            "positions": [
                -0.03290416090988035,
                -2.2039114069405517,
                -1.2720424247148077,
                0.7913070058844118,
                0.5011773648886243,
                -0.3725123862449271
            ]
        },
        {
            "positions": [
                0.01663715032452151,
                -2.232013653592336,
                -1.390443064371424,
                0.8973220100490984,
                0.47507565393114604,
                -0.30868729986715704
            ]
        },
        {
            "positions": [
                0.06617846155892337,
                -2.2601159002441205,
                -1.508843704028041,
                1.003337014213785,
                0.44897394297366766,
                -0.24486221348938697
            ]
        },
        {
            "positions": [
                0.11571977279332524,
                -2.288218146895905,
                -1.6272443436846573,
                1.1093520183784715,
                0.4228722320161894,
                -0.1810371271116169
            ]
        },
        {
            "positions": [
                0.16526108402772688,
                -2.3163203935476893,
                -1.7456449833412737,
                1.2153670225431585,
                0.396770521058711,
                -0.11721204073384683
            ]
        },
        {
            "positions": [
                0.21480239526212874,
                -2.3444226401994737,
                -1.8640456229978901,
                1.321382026707845,
                0.37066881010123276,
                -0.053386954356076544
            ]
        },
        {
            "positions": [
                0.2643437064965306,
                -2.372524886851258,
                -1.982446262654506,
                1.4273970308725317,
                0.3445670991437544,
                0.01043813202169347
            ]
        },
        {
            "positions": [
                0.152074562894714,
                -2.3476030945161166,
                -2.086075433640959,
                1.428694089549729,
                0.3015628530550036,
                0.03285386741713332
            ]
        },
        {
            "positions": [
                0.03980541929289738,
                -2.3226813021809756,
                -2.189704604627411,
                1.4299911482269263,
                0.25855860696625277,
                0.05526960281257318
            ]
        },
        {
            "positions": [
                -0.07246372430891923,
                -2.297759509845834,
                -2.293333775613864,
                1.4312882069041235,
                0.21555436087750202,
                0.07768533820801304
            ]
        },
        {
            "positions": [
                -0.18473286791073582,
                -2.2728377175106926,
                -2.3969629466003166,
                1.432585265581321,
                0.1725501147887512,
                0.1001010736034529
            ]
        }
    ]
}