{
    "goal": {
        "global_pose": {
            "orientation": {
                "w": -0.4816463035849501,
                "x": 0.5182115481033762,
                "y": 0.4908360881923453,
                "z": -0.5084816262002911
            },
            "position": {
                "x": -0.8240239810943604,
                "y": 0.19912469901144506,
                "z": 0.16403168439865112
            }
        },
        "name": "move_to_storage_D"
    },
    "id": "LazyPRMstar_move_to_storage_D_111",
    "joint_names": [
        "shoulder_pan_joint",
        "shoulder_lift_joint",
        "elbow_joint",
        "wrist_1_joint",
        "wrist_2_joint",
        "wrist_3_joint"
    ],
    "metrics": {
        "cart_traj_len": 4.334829839432386,
        "distance_elbow_joint": 4.209167393769586,
        "distance_shoulder_lift_joint": 1.2633371097030919,
        "distance_shoulder_pan_joint": 2.8120311351419534,
        "distance_wrist_1_joint": 2.5046590479283397,
        "distance_wrist_2_joint": 0.8697427257131359,
        "distance_wrist_3_joint": 3.1356888036605515,
        "smoothness": 0.017248596050337083,
        "time": 5.023979176,
        "traj_len": 3.8463783245953143,
        "weighted_distance": 4.943723859286564
    },
    "planner": "LazyPRMstar",
    "start": {
        "state": {
            "elbow_joint": -2.384821988534728,
            "shoulder_lift_joint": -2.2788054721415256,
            "shoulder_pan_joint": -0.1854694642142757,
            "wrist_1_joint": 1.4845938289331202,
            "wrist_2_joint": 0.17898776772866878,
            "wrist_3_joint": 0.037105688729662994
        }
    },
    "waypoints": [
        {
            "positions": [
                -0.1854694642142757,
                -2.2788054721415256,
                -2.384821988534728,
                1.4845938289331202,
                0.17898776772866878,
                0.037105688729662994
            ]
        },
        {
            "positions": [
                -0.07257535105922436,
                -2.259436888036853,
                -2.337341054137073,
                1.4927272564281229,
                0.23409772800428566,
                -0.103441531941464
            ]
        },
        {
            "positions": [
                0.04031876209582699,
                -2.2400683039321807,
                -2.2898601197394184,
                1.5008606839231253,
                0.2892076882799025,
                -0.24398875261259098
            ]
        },
        {
            "positions": [
                0.15321287525087837,
                -2.220699719827508,
                -2.2423791853417634,
                1.508994111418128,
                0.3443176485555194,
                -0.384535973283718
            ]
        },
        {
            "positions": [
                0.2661069884059297,
                -2.201331135722836,
                -2.1948982509441084,
                1.5171275389131307,
                0.39942760883113626,
                -0.5250831939548449
            ]
        },
        {
            "positions": [
                0.379001101560981,
                -2.181962551618163,
                -2.1474173165464534,
                1.5252609664081331,
                0.45453756910675314,
                -0.6656304146259719
            ]
        },
        {
            "positions": [
                0.4918952147160325,
                -2.1625939675134904,
                -2.099936382148799,
                1.5333943939031358,
                0.50964752938237,
                -0.806177635297099
            ]
        },
        {
            "positions": [
                0.6047893278710837,
                -2.143225383408818,
                -2.052455447751144,
                1.5415278213981385,
                0.5647574896579869,
                -0.946724855968226
            ]
        },
        {
            "positions": [
                0.7176834410261351,
                -2.1238567993041455,
                -2.004974513353489,
                1.549661248893141,
                0.6198674499336038,
                -1.0872720766393529
            ]
        },
        {
            "positions": [
                0.8305775541811865,
                -2.1044882151994733,
                -1.957493578955834,
                1.5577946763881436,
                0.6749774102092205,
                -1.2278192973104798
            ]
        },
        {
            "positions": [
                0.9434716673362377,
                -2.0851196310948006,
                -1.9100126445581793,
                1.5659281038831463,
                0.7300873704848374,
                -1.368366517981607
            ]
        },
        {
            "positions": [
                1.056365780491289,
                -2.065751046990128,
                -1.8625317101605243,
                1.5740615313781487,
                0.7851973307604543,
                -1.5089137386527338
            ]
        },
        {
            "positions": [
                1.1692598936463405,
                -2.0463824628854557,
                -1.8150507757628693,
                1.5821949588731514,
                0.8403072910360713,
                -1.649460959323861
            ]
        },
        {
            "positions": [
                1.2821540068013917,
                -2.027013878780783,
                -1.7675698413652146,
                1.590328386368154,
                0.895417251311688,
                -1.7900081799949878
            ]
        },
        {
            "positions": [
                1.395048119956443,
                -2.0076452946761107,
                -1.7200889069675598,
                1.5984618138631566,
                0.9505272115873049,
                -1.930555400666115
            ]
        },
        {
            "positions": [
                1.5079422331114944,
                -1.988276710571438,
                -1.6726079725699048,
                1.6065952413581592,
                1.0056371718629218,
                -2.071102621337242
            ]
        },
        {
            "positions": [
                1.5565778608426328,
                -1.9459806954352206,
                -1.520566521361002,
                1.5030014311188853,
                1.0075107945402646,
                -2.115775686276096
            ]
        },
        {
            "positions": [
                1.6052134885737712,
                -1.9036846802990028,
                -1.3685250701520995,
                1.3994076208796113,
                1.0093844172176072,
                -2.1604487512149504
            ]
        },
        {
            "positions": [
                1.6538491163049096,
                -1.8613886651627853,
                -1.2164836189431967,
                1.2958138106403374,
                1.01125803989495,
                -2.2051218161538046
            ]
        },
        {
            "positions": [
                1.702484744036048,
                -1.8190926500265678,
                -1.0644421677342941,
                1.1922200004010635,
                1.0131316625722928,
                -2.2497948810926585
            ]
        },
        {
            "positions": [
                1.7511203717671864,
                -1.7767966348903501,
                -0.9124007165253915,
                1.0886261901617895,
                1.0150052852496354,
                -2.2944679460315127
            ]
        },
        {
            "positions": [
                1.7997559994983248,
                -1.7345006197541326,
                -0.7603592653164887,
                0.9850323799225156,
                1.0168789079269782,
                -2.339141010970367
            ]
        },
        {
            "positions": [
                1.8483916272294634,
                -1.692204604617915,
                -0.608317814107586,
                0.8814385696832416,
                1.018752530604321,
                -2.3838140759092212
            ]
        },
        {
            "positions": [
                1.8970272549606015,
                -1.6499085894816974,
                -0.45627636289868345,
                0.7778447594439677,
                1.0206261532816636,
                -2.4284871408480755
            ]
        },
        {
            "positions": [
                1.9456628826917401,
                -1.6076125743454799,
                -0.3042349116897807,
                0.6742509492046938,
                1.0224997759590064,
                -2.4731602057869297
            ]
        },
        {
            "positions": [
                1.9942985104228783,
                -1.5653165592092622,
                -0.15219346048087812,
                0.5706571389654198,
                1.0243733986363492,
                -2.517833270725784
            ]
        },
        {
            "positions": [
                2.042934138154017,
                -1.5230205440730447,
                -0.00015200927197533964,
                0.46706332872614587,
                1.0262470213136918,
                -2.5625063356646383
            ]
        },
        {
            "positions": [
                2.091569765885155,
                -1.4807245289368272,
                0.15188944193692744,
                0.3634695184868719,
                1.0281206439910346,
                -2.607179400603492
            ]
        },
        {
            "positions": [
                2.1402053936162937,
                -1.4384285138006097,
                0.30393089314583,
                0.259875708247598,
                1.0299942666683772,
                -2.6518524655423463
            ]
        },
        {
            "positions": [
                2.1888410213474323,
                -1.396132498664392,
                0.4559723443547328,
                0.15628189800832404,
                1.03186788934572,
                -2.6965255304812006
            ]
        },
        {
            "positions": [
                2.2374766490785705,
                -1.3538364835281742,
                0.6080137955636356,
                0.052688087769050096,
                1.0337415120230629,
                -2.741198595420055
            ]
        },
        {
            "positions": [
                2.2861122768097086,
                -1.3115404683919567,
                0.7600552467725379,
                -0.050905722470223846,
                1.0356151347004054,
                -2.785871660358909
            ]
        },
        {
            "positions": [
                2.3347479045408472,
                -1.2692444532557392,
                0.9120966979814407,
                -0.15449953270949757,
                1.0374887573777483,
                -2.8305447252977634
            ]
        },
        {
            "positions": [
                2.383383532271986,
                -1.2269484381195217,
                1.0641381491903434,
                -0.25809334294877173,
                1.039362380055091,
                -2.8752177902366176
            ]
        },
        {
            "positions": [
                2.432019160003124,
                -1.1846524229833042,
                1.2161796003992462,
                -0.3616871531880457,
                1.0412360027324337,
                -2.9198908551754714
            ]
        },
        {
            "positions": [
                2.480654787734262,
                -1.1423564078470865,
                1.3682210516081486,
                -0.4652809634273196,
                1.0431096254097765,
                -2.9645639201143257
            ]
        },
        {
            "positions": [
                2.529290415465401,
                -1.100060392710869,
                1.5202625028170513,
                -0.5688747736665936,
                1.0449832480871193,
                -3.00923698505318
            ]
        },
        {
            "positions": [
                2.5779260431965394,
                -1.0577643775746512,
                1.672303954025954,
                -0.6724685839058675,
                1.0468568707644619,
                -3.053910049992034
            ]
        },
        {
            "positions": [
                2.6265616709276776,
                -1.0154683624384337,
                1.8243454052348569,
                -0.7760623941451414,
                1.0487304934418047,
                -3.0985831149308884
            ]
        }
    ]
}