{
    "goal": {
        "global_pose": {
            "orientation": {
                "w": 0.005598929693374612,
                "x": 0.007748599140229565,
                "y": 0.7110244013736278,
                "z": -0.7031023480610252
            },
            "position": {
                "x": -0.8858502320852131,
                "y": -0.7141253447532654,
                "z": 0.3711530566215515
            }
        },
        "name": "move_to_auspresseinheit_C"
    },
    "id": "LazyPRMstar_move_to_auspresseinheit_C_16",
    "joint_names": [
        "shoulder_pan_joint",
        "shoulder_lift_joint",
        "elbow_joint",
        "wrist_1_joint",
        "wrist_2_joint",
        "wrist_3_joint"
    ],
    "metrics": {
        "cart_traj_len": 0.4939396361586155,
        "distance_elbow_joint": 1.0158043240152284,
        "distance_shoulder_lift_joint": 0.33160149871865074,
        "distance_shoulder_pan_joint": 0.2560951977093806,
        "distance_wrist_1_joint": 0.7153358284958242,
        "distance_wrist_2_joint": 1.3114097338497268,
        "distance_wrist_3_joint": 0.08994529398976203,
        "smoothness": 4.844609574787718e-16,
        "time": 5.000355993,
        "traj_len": 1.9287798932948708,
        "weighted_distance": 2.4345077586862702
    },
    "planner": "LazyPRMstar",
    "start": {
        "state": {
            "elbow_joint": 1.7527959577737207,
            "shoulder_lift_joint": -0.9740617694225068,
            "shoulder_pan_joint": -2.967991417825858,
            "wrist_1_joint": -0.759517768980727,
            "wrist_2_joint": 1.7443932448377408,
            "wrist_3_joint": -3.0840537646736568
        }
    },
    "waypoints": [
        {
            "positions": [
                -2.967991417825858,
                -0.9740617694225068,
                1.7527959577737207,
                -0.759517768980727,
                1.7443932448377408,
                -3.0840537646736568
            ]
        },
        {
            "positions": [
                -2.94238189805492,
                -0.9409016195506417,
                1.6512155253721978,
                -0.6879841861311445,
                1.6132522714527682,
                -3.093048294072633
            ]
        },
        {
            "positions": [
                -2.916772378283982,
                -0.9077414696787767,
                1.549635092970675,
                -0.6164506032815621,
                1.4821112980677955,
                -3.102042823471609
            ]
        },
        {
            "positions": [
                -2.8911628585130438,
                -0.8745813198069116,
                1.4480546605691522,
                -0.5449170204319798,
                1.3509703246828229,
                -3.1110373528705852
            ]
        },
        {
            "positions": [
                -2.8655533387421057,
                -0.8414211699350465,
                1.3464742281676294,
                -0.47338343758239726,
                1.2198293512978502,
                -3.1200318822695614
            ]
        },
        {
            "positions": [
                -2.8399438189711677,
                -0.8082610200631815,
                1.2448937957661066,
                -0.40184985473281487,
                1.0886883779128773,
                -3.129026411668538
            ]
        },
        {
            "positions": [
                -2.8143342992002296,
                -0.7751008701913163,
                1.1433133633645838,
                -0.3303162718832325,
                0.9575474045279048,
                -3.138020941067514
            ]
        },
        {
            "positions": [
                -2.7887247794292915,
                -0.7419407203194512,
                1.041732930963061,
                -0.2587826890336501,
                0.8264064311429321,
                -3.1470154704664903
            ]
        },
        {
            "positions": [
                -2.7631152596583535,
                -0.7087805704475862,
                0.9401524985615379,
                -0.18724910618406754,
                0.6952654577579593,
                -3.1560099998654665
            ]
        },
        {
            "positions": [
                -2.7375057398874154,
                -0.675620420575721,
                0.8385720661600151,
                -0.1157155233344852,
                0.5641244843729867,
                -3.1650045292644426
            ]
        },
        {
            "positions": [
                -2.7118962201164774,
                -0.642460270703856,
                0.7369916337584923,
                -0.04418194048490278,
                0.4329835109880141,
                -3.173999058663419
            ]
        }
    ]
}