{
    "goal": {
        "global_pose": {
            "orientation": {
                "w": 0.005598929693374612,
                "x": 0.007748599140229565,
                "y": 0.7110244013736278,
                "z": -0.7031023480610252
            },
            "position": {
                "x": -0.8858502320852131,
                "y": -0.7141253447532654,
                "z": 0.3711530566215515
            }
        },
        "name": "move_to_auspresseinheit_C"
    },
    "id": "LazyPRM_move_to_auspresseinheit_C_78",
    "joint_names": [
        "shoulder_pan_joint",
        "shoulder_lift_joint",
        "elbow_joint",
        "wrist_1_joint",
        "wrist_2_joint",
        "wrist_3_joint"
    ],
    "metrics": {
        "cart_traj_len": 0.4922534584556523,
        "distance_elbow_joint": 0.9879528612596283,
        "distance_shoulder_lift_joint": 0.3189750099422105,
        "distance_shoulder_pan_joint": 0.25596320854301524,
        "distance_wrist_1_joint": 0.6527891183888547,
        "distance_wrist_2_joint": 1.315858639024897,
        "distance_wrist_3_joint": 0.03567443340869625,
        "smoothness": 3.2297397335745243e-16,
        "time": 0.012499152000000001,
        "traj_len": 1.8887067719916986,
        "weighted_distance": 2.3679547915444767
    },
    "planner": "LazyPRM",
    "start": {
        "state": {
            "elbow_joint": 1.7527959577737207,
            "shoulder_lift_joint": -0.9740617694225068,
            "shoulder_pan_joint": -2.967991417825858,
            "wrist_1_joint": -0.759517768980727,
            "wrist_2_joint": 1.7443932448377408,
            "wrist_3_joint": -3.0840537646736568
        }
    },
    "waypoints": [
        {
            "positions": [
                -2.967991417825858,
                -0.9740617694225068,
                1.7527959577737207,
                -0.759517768980727,
                1.7443932448377408,
                -3.0840537646736568
            ]
        },
        {
            "positions": [
                -2.9423950969715564,
                -0.9421642684282857,
                1.6540006716477578,
                -0.6942388571418415,
                1.6128073809352512,
                -3.0876212080145264
            ]
        },
        {
            "positions": [
                -2.916798776117255,
                -0.9102667674340646,
                1.5552053855217949,
                -0.6289599453029561,
                1.4812215170327614,
                -3.091188651355396
            ]
        },
        {
            "positions": [
                -2.8912024552629534,
                -0.8783692664398436,
                1.4564100993958322,
                -0.5636810334640706,
                1.3496356531302718,
                -3.094756094696266
            ]
        },
        {
            "positions": [
                -2.865606134408652,
                -0.8464717654456225,
                1.3576148132698693,
                -0.4984021216251851,
                1.218049789227782,
                -3.0983235380371354
            ]
        },
        {
            "positions": [
                -2.8400098135543503,
                -0.8145742644514016,
                1.2588195271439064,
                -0.43312320978629965,
                1.0864639253252923,
                -3.1018909813780047
            ]
        },
        {
            "positions": [
                -2.814413492700049,
                -0.7826767634571805,
                1.1600242410179438,
                -0.3678442979474142,
                0.9548780614228026,
                -3.1054584247188743
            ]
        },
        {
            "positions": [
                -2.7888171718457473,
                -0.7507792624629595,
                1.0612289548919809,
                -0.30256538610852873,
                0.823292197520313,
                -3.109025868059744
            ]
        },
        {
            "positions": [
                -2.7632208509914458,
                -0.7188817614687384,
                0.962433668766018,
                -0.23728647426964322,
                0.6917063336178233,
                -3.1125933114006137
            ]
        },
        {
            "positions": [
                -2.7376245301371442,
                -0.6869842604745173,
                0.8636383826400551,
                -0.17200756243075777,
                0.5601204697153335,
                -3.1161607547414834
            ]
        },
        {
            "positions": [
                -2.7120282092828427,
                -0.6550867594802963,
                0.7648430965140923,
                -0.10672865059187231,
                0.42853460581284386,
                -3.119728198082353
            ]
        }
    ]
}