{
    "goal": {
        "global_pose": {
            "orientation": {
                "w": -0.00223480608172531,
                "x": 0.0024358444001904467,
                "y": 0.7094548369677653,
                "z": -0.704743149386269
            },
            "position": {
                "x": -0.37947507619857795,
                "y": -0.6371506643295288,
                "z": 0.19426114857196808
            }
        },
        "name": "move_to_magneteinheit_C"
    },
    "id": "LazyPRMstar_move_to_magneteinheit_C_46",
    "joint_names": [
        "shoulder_pan_joint",
        "shoulder_lift_joint",
        "elbow_joint",
        "wrist_1_joint",
        "wrist_2_joint",
        "wrist_3_joint"
    ],
    "metrics": {
        "cart_traj_len": 0.7377257153033878,
        "distance_elbow_joint": 0.49117428386615103,
        "distance_shoulder_lift_joint": 0.6640645064519244,
        "distance_shoulder_pan_joint": 1.0780611680978003,
        "distance_wrist_1_joint": 0.4342053356793144,
        "distance_wrist_2_joint": 0.7889839571688096,
        "distance_wrist_3_joint": 0.2961288476441126,
        "smoothness": 1.0463509375983626,
        "time": 5.018771637,
        "traj_len": 1.9371675453889148,
        "weighted_distance": 2.359674784169306
    },
    "planner": "LazyPRMstar",
    "start": {
        "state": {
            "elbow_joint": 1.9565354010623817,
            "shoulder_lift_joint": -1.4165861575791021,
            "shoulder_pan_joint": -1.6717766225146293,
            "wrist_1_joint": -0.5286633292919765,
            "wrist_2_joint": 1.472756589071564,
            "wrist_3_joint": -3.1238370188695823
        }
    },
    "waypoints": [
        {
            "positions": [
                -1.6717766225146293,
                -1.4165861575791021,
                1.9565354010623817,
                -0.5286633292919765,
                1.472756589071564,
                -3.1238370188695823
            ]
        },
        {
            "positions": [
                -1.7701772533703553,
                -1.4590279247023534,
                2.03306592883577,
                -0.5546698135658987,
                1.3982326204134752,
                -3.1187192438895455
            ]
        },
        {
            "positions": [
                -1.8685778842260812,
                -1.501469691825605,
                2.1095964566091583,
                -0.5806762978398211,
                1.3237086517553867,
                -3.1136014689095086
            ]
        },
        {
            "positions": [
                -1.966978515081807,
                -1.5439114589488563,
                2.186126984382547,
                -0.6066827821137434,
                1.249184683097298,
                -3.1084836939294718
            ]
        },
        {
            "positions": [
                -2.1279282240765434,
                -1.5634289151617335,
                2.196738989248621,
                -0.5897125252519714,
                1.1593714675235187,
                -3.0791803148821857
            ]
        },
        {
            "positions": [
                -2.288877933071279,
                -1.582946371374611,
                2.2073509941146954,
                -0.5727422683901993,
                1.0695582519497395,
                -3.0498769358348996
            ]
        },
        {
            "positions": [
                -2.4498276420660154,
                -1.6024638275874885,
                2.2179629989807697,
                -0.5557720115284273,
                0.9797450363759603,
                -3.0205735567876135
            ]
        },
        {
            "positions": [
                -2.6107773510607517,
                -1.6219812838003658,
                2.228575003846844,
                -0.5388017546666553,
                0.8899318208021811,
                -2.9912701777403274
            ]
        },
        {
            "positions": [
                -2.5760122411728323,
                -1.5073139387427006,
                2.1737913335764216,
                -0.6108779685192701,
                0.8383920235773245,
                -3.032160679369042
            ]
        },
        {
            "positions": [
                -2.541247131284913,
                -1.3926465936850354,
                2.1190076633059993,
                -0.682954182371885,
                0.7868522263524678,
                -3.0730511809977563
            ]
        },
        {
            "positions": [
                -2.506482021396993,
                -1.2779792486273702,
                2.0642239930355775,
                -0.7550303962244997,
                0.735312429127611,
                -3.1139416826264705
            ]
        },
        {
            "positions": [
                -2.471716911509074,
                -1.163311903569705,
                2.009440322765155,
                -0.8271066100771146,
                0.6837726319027543,
                -3.154832184255185
            ]
        }
    ]
}