{
    "goal": {
        "global_pose": {
            "orientation": {
                "w": 0.5084816262002911,
                "x": -0.4908360881923452,
                "y": 0.5182115481033761,
                "z": -0.48164630358495003
            },
            "position": {
                "x": 0.5540239810943604,
                "y": -0.46912469901144505,
                "z": 0.16403168439865112
            }
        },
        "name": "move_to_storage_B"
    },
    "id": "LazyPRMstar_move_to_storage_B_1",
    "joint_names": [
        "shoulder_pan_joint",
        "shoulder_lift_joint",
        "elbow_joint",
        "wrist_1_joint",
        "wrist_2_joint",
        "wrist_3_joint"
    ],
    "metrics": {
        "cart_traj_len": 0.8238231191960248,
        "distance_elbow_joint": 0.47402534478462544,
        "distance_shoulder_lift_joint": 0.5735609768523928,
        "distance_shoulder_pan_joint": 0.4021750778065559,
        "distance_wrist_1_joint": 3.304230016483044,
        "distance_wrist_2_joint": 2.7153855436884977,
        "distance_wrist_3_joint": 3.4014624933204374,
        "smoothness": 0.4964846493879749,
        "time": 5.029385921,
        "traj_len": 3.2970956087040535,
        "weighted_distance": 4.8675846165986645
    },
    "planner": "LazyPRMstar",
    "start": {
        "state": {
            "elbow_joint": 1.664937868594044,
            "shoulder_lift_joint": -0.661644460510453,
            "shoulder_pan_joint": -0.9139846352900073,
            "wrist_1_joint": 2.146753192139373,
            "wrist_2_joint": -2.2341966793290973,
            "wrist_3_joint": 0.005466555786416001
        }
    },
    "waypoints": [
        {
            "positions": [
                -0.9139846352900073,
                -0.661644460510453,
                1.664937868594044,
                2.146753192139373,
                -2.2341966793290973,
                0.005466555786416001
            ]
        },
        {
            "positions": [
                -0.8883757175431783,
                -0.6717197518244306,
                1.66407953845039,
                2.172171728633872,
                -2.165674064708294,
                0.0009981867154593852
            ]
        },
        {
            "positions": [
                -0.8457209587151664,
                -0.7432905403735375,
                1.6857151879238348,
                2.227321956423207,
                -2.1263843838535648,
                -0.059264583088421884
            ]
        },
        {
            "positions": [
                -0.8030661998871546,
                -0.8148613289226443,
                1.7073508373972799,
                2.2824721842125424,
                -2.087094702998835,
                -0.11952735289230315
            ]
        },
        {
            "positions": [
                -0.8033526564174325,
                -0.796093209370328,
                1.6876038344384463,
                2.287939033563607,
                -1.9557951877837956,
                -0.008053463372081002
            ]
        },
        {
            "positions": [
                -0.8036391129477103,
                -0.7773250898180116,
                1.6678568314796125,
                2.2934058829146715,
                -1.824495672568756,
                0.10342042614814115
            ]
        },
        {
            "positions": [
                -0.8039255694779882,
                -0.7585569702656954,
                1.648109828520779,
                2.2988727322657363,
                -1.6931961573537164,
                0.21489431566836328
            ]
        },
        {
            "positions": [
                -0.8160254558451911,
                -0.7737252931733308,
                1.663553774638178,
                2.167534795750875,
                -1.6025967814490032,
                0.3374796038384071
            ]
        },
        {
            "positions": [
                -0.828125342212394,
                -0.7888936160809664,
                1.6789977207555773,
                2.036196859236013,
                -1.51199740554429,
                0.4600648920084509
            ]
        },
        {
            "positions": [
                -0.8402252285795969,
                -0.8040619389886019,
                1.6944416668729765,
                1.9048589227211512,
                -1.4213980296395767,
                0.5826501801784947
            ]
        },
        {
            "positions": [
                -0.8523251149467999,
                -0.8192302618962375,
                1.7098856129903757,
                1.7735209862062895,
                -1.3307986537348637,
                0.7052354683485385
            ]
        },
        {
            "positions": [
                -0.8644250013140027,
                -0.834398584803873,
                1.7253295591077749,
                1.6421830496914278,
                -1.2401992778301503,
                0.8278207565185823
            ]
        },
        {
            "positions": [
                -0.8765248876812056,
                -0.8495669077115084,
                1.740773505225174,
                1.5108451131765661,
                -1.1495999019254373,
                0.9504060446886261
            ]
        },
        {
            "positions": [
                -0.8886247740484085,
                -0.864735230619144,
                1.7562174513425732,
                1.3795071766617042,
                -1.059000526020724,
                1.07299133285867
            ]
        },
        {
            "positions": [
                -0.9007246604156114,
                -0.8799035535267795,
                1.7716613974599724,
                1.2481692401468427,
                -0.9684011501160108,
                1.1955766210287138
            ]
        },
        {
            "positions": [
                -0.9128245467828143,
                -0.8950718764344151,
                1.7871053435773716,
                1.116831303631981,
                -0.8778017742112976,
                1.3181619091987578
            ]
        },
        {
            "positions": [
                -0.9249244331500172,
                -0.9102401993420506,
                1.8025492896947708,
                0.9854933671171193,
                -0.7872023983065842,
                1.4407471973688015
            ]
        },
        {
            "positions": [
                -0.9370243195172201,
                -0.9254085222496862,
                1.81799323581217,
                0.8541554306022576,
                -0.6966030224018711,
                1.5633324855388453
            ]
        },
        {
            "positions": [
                -0.9491242058844229,
                -0.9405768451573217,
                1.8334371819295692,
                0.7228174940873959,
                -0.6060036464971579,
                1.685917773708889
            ]
        },
        {
            "positions": [
                -0.9612240922516259,
                -0.9557451680649571,
                1.8488811280469684,
                0.5914795575725345,
                -0.5154042705924446,
                1.8085030618789328
            ]
        },
        {
            "positions": [
                -0.9733239786188288,
                -0.9709134909725927,
                1.8643250741643675,
                0.4601416210576723,
                -0.4248048946877314,
                1.9310883500489768
            ]
        },
        {
            "positions": [
                -0.9854238649860316,
                -0.9860818138802282,
                1.8797690202817667,
                0.32880368454281084,
                -0.3342055187830182,
                2.05367363821902
            ]
        },
        {
            "positions": [
                -0.9975237513532346,
                -1.0012501367878637,
                1.895212966399166,
                0.19746574802794914,
                -0.24360614287830518,
                2.176258926389064
            ]
        },
        {
            "positions": [
                -1.0096236377204375,
                -1.0164184596954993,
                1.910656912516565,
                0.06612781151308722,
                -0.15300676697359172,
                2.298844214559108
            ]
        },
        {
            "positions": [
                -1.0217235240876403,
                -1.0315867826031349,
                1.9261008586339643,
                -0.06521012500177426,
                -0.062407391068878715,
                2.421429502729152
            ]
        },
        {
            "positions": [
                -1.0338234104548432,
                -1.0467551055107704,
                1.9415448047513635,
                -0.19654806151663573,
                0.028191984835834516,
                2.5440147908991952
            ]
        },
        {
            "positions": [
                -1.0459232968220462,
                -1.0619234284184058,
                1.9569887508687627,
                -0.32788599803149765,
                0.11879136074054797,
                2.6666000790692395
            ]
        },
        {
            "positions": [
                -1.058023183189249,
                -1.0770917513260414,
                1.9724326969861619,
                -0.4592239345463591,
                0.20939073664526098,
                2.7891853672392832
            ]
        },
        {
            "positions": [
                -1.0701230695564519,
                -1.092260074233677,
                1.987876643103561,
                -0.590561871061221,
                0.2999901125499742,
                2.911770655409327
            ]
        },
        {
            "positions": [
                -1.082222955923655,
                -1.1074283971413124,
                2.0033205892209605,
                -0.721899807576083,
                0.39058948845468744,
                3.0343559435793708
            ]
        },
        {
            "positions": [
                -1.0943228422908577,
                -1.122596720048948,
                2.0187645353383594,
                -0.8532377440909445,
                0.4811888643594006,
                3.1569412317494145
            ]
        }
    ]
}