{
    "goal": {
        "global_pose": {
            "orientation": {
                "w": 0.005598929693374612,
                "x": 0.007748599140229565,
                "y": 0.7110244013736278,
                "z": -0.7031023480610252
            },
            "position": {
                "x": -0.8858502320852131,
                "y": -0.7141253447532654,
                "z": 0.3711530566215515
            }
        },
        "name": "move_to_auspresseinheit_C"
    },
    "id": "LazyPRM_move_to_auspresseinheit_C_33",
    "joint_names": [
        "shoulder_pan_joint",
        "shoulder_lift_joint",
        "elbow_joint",
        "wrist_1_joint",
        "wrist_2_joint",
        "wrist_3_joint"
    ],
    "metrics": {
        "cart_traj_len": 0.49439323020343057,
        "distance_elbow_joint": 1.011677710090917,
        "distance_shoulder_lift_joint": 0.329724917590026,
        "distance_shoulder_pan_joint": 0.2570105500798805,
        "distance_wrist_1_joint": 0.7052899763814354,
        "distance_wrist_2_joint": 1.3035886187228605,
        "distance_wrist_3_joint": 0.07881714348287261,
        "smoothness": 0.0,
        "time": 0.012934426,
        "traj_len": 1.9199241954691837,
        "weighted_distance": 2.419219253895362
    },
    "planner": "LazyPRM",
    "start": {
        "state": {
            "elbow_joint": 1.7527959577737207,
            "shoulder_lift_joint": -0.9740617694225068,
            "shoulder_pan_joint": -2.967991417825858,
            "wrist_1_joint": -0.759517768980727,
            "wrist_2_joint": 1.7443932448377408,
            "wrist_3_joint": -3.0840537646736568
        }
    },
    "waypoints": [
        {
            "positions": [
                -2.967991417825858,
                -0.9740617694225068,
                1.7527959577737207,
                -0.759517768980727,
                1.7443932448377408,
                -3.0840537646736568
            ]
        },
        {
            "positions": [
                -2.94229036281787,
                -0.9410892776635041,
                1.651628186764629,
                -0.6889887713425834,
                1.6140343829654549,
                -3.091935479021944
            ]
        },
        {
            "positions": [
                -2.9165893078098817,
                -0.9081167859045016,
                1.5504604157555373,
                -0.6184597737044399,
                1.4836755210931687,
                -3.099817193370231
            ]
        },
        {
            "positions": [
                -2.890888252801894,
                -0.875144294145499,
                1.4492926447464456,
                -0.5479307760662964,
                1.3533166592208827,
                -3.1076989077185186
            ]
        },
        {
            "positions": [
                -2.865187197793906,
                -0.8421718023864964,
                1.348124873737354,
                -0.4774017784281528,
                1.2229577973485966,
                -3.1155806220668056
            ]
        },
        {
            "positions": [
                -2.8394861427859177,
                -0.8091993106274937,
                1.2469571027282622,
                -0.40687278079000927,
                1.0925989354763106,
                -3.123462336415093
            ]
        },
        {
            "positions": [
                -2.8137850877779296,
                -0.7762268188684912,
                1.1457893317191705,
                -0.33634378315186575,
                0.9622400736040245,
                -3.1313440507633805
            ]
        },
        {
            "positions": [
                -2.7880840327699414,
                -0.7432543271094886,
                1.0446215607100788,
                -0.26581478551372223,
                0.8318812117317386,
                -3.1392257651116675
            ]
        },
        {
            "positions": [
                -2.7623829777619537,
                -0.7102818353504861,
                0.9434537897009871,
                -0.1952857878755786,
                0.7015223498594525,
                -3.147107479459955
            ]
        },
        {
            "positions": [
                -2.7366819227539656,
                -0.6773093435914834,
                0.8422860186918955,
                -0.12475679023743513,
                0.5711634879871663,
                -3.154989193808242
            ]
        },
        {
            "positions": [
                -2.7109808677459775,
                -0.6443368518324808,
                0.7411182476828038,
                -0.05422779259929157,
                0.44080462611488025,
                -3.1628709081565294
            ]
        }
    ]
}