{
    "goal": {
        "global_pose": {
            "orientation": {
                "w": 0.7047431468963623,
                "x": -0.7094548344612122,
                "y": 0.0024358443915843964,
                "z": -0.0022348060738295317
            },
            "position": {
                "x": 0.6094750761985779,
                "y": 0.3671506643295288,
                "z": 0.19426114857196808
            }
        },
        "name": "move_to_magneteinheit_A"
    },
    "id": "LazyPRM_move_to_magneteinheit_A_150",
    "joint_names": [
        "shoulder_pan_joint",
        "shoulder_lift_joint",
        "elbow_joint",
        "wrist_1_joint",
        "wrist_2_joint",
        "wrist_3_joint"
    ],
    "metrics": {
        "cart_traj_len": 3.2287299846165767,
        "distance_elbow_joint": 3.9004126785626334,
        "distance_shoulder_lift_joint": 1.3846304085416636,
        "distance_shoulder_pan_joint": 2.957495833684653,
        "distance_wrist_1_joint": 0.7325889939049719,
        "distance_wrist_2_joint": 1.714889432494059,
        "distance_wrist_3_joint": 3.4847205594105946,
        "smoothness": 0.1913937795010514,
        "time": 0.137459849,
        "traj_len": 3.7649353124055898,
        "weighted_distance": 4.857124401517714
    },
    "planner": "LazyPRM",
    "start": {
        "state": {
            "elbow_joint": -1.9196185241190666,
            "shoulder_lift_joint": -1.2443396400964142,
            "shoulder_pan_joint": 2.6996025414629847,
            "wrist_1_joint": -1.5485510000780065,
            "wrist_2_joint": -1.5709468930060704,
            "wrist_3_joint": 0.4420197071253992
        }
    },
    "waypoints": [
        {
            "positions": [
                2.6996025414629847,
                -1.2443396400964142,
                -1.9196185241190666,
                -1.5485510000780065,
                -1.5709468930060704,
                0.4420197071253992
            ]
        },
        {
            "positions": [
                2.5887388009290073,
                -1.276488908439309,
                -1.7647853319915212,
                -1.5438668733205019,
                -1.5104903644118202,
                0.42167718076598487
            ]
        },
        {
            "positions": [
                2.47787506039503,
                -1.3086381767822037,
                -1.6099521398639758,
                -1.5391827465629975,
                -1.4500338358175697,
                0.40133465440657057
            ]
        },
        {
            "positions": [
                2.3670113198610525,
                -1.3407874451250985,
                -1.4551189477364306,
                -1.5344986198054928,
                -1.3895773072233195,
                0.3809921280471563
            ]
        },
        {
            "positions": [
                2.2561475793270747,
                -1.3729367134679933,
                -1.3002857556088852,
                -1.5298144930479882,
                -1.329120778629069,
                0.360649601687742
            ]
        },
        {
            "positions": [
                2.1452838387930973,
                -1.405085981810888,
                -1.14545256348134,
                -1.5251303662904838,
                -1.2686642500348189,
                0.3403070753283277
            ]
        },
        {
            "positions": [
                2.03442009825912,
                -1.4372352501537828,
                -0.9906193713537945,
                -1.5204462395329792,
                -1.2082077214405686,
                0.31996454896891346
            ]
        },
        {
            "positions": [
                1.9235563577251424,
                -1.4693845184966776,
                -0.8357861792262491,
                -1.5157621127754746,
                -1.1477511928463182,
                0.29962202260949916
            ]
        },
        {
            "positions": [
                1.812692617191165,
                -1.5015337868395724,
                -0.6809529870987037,
                -1.5110779860179702,
                -1.087294664252068,
                0.27927949625008486
            ]
        },
        {
            "positions": [
                1.7018288766571874,
                -1.5336830551824672,
                -0.5261197949711585,
                -1.5063938592604655,
                -1.0268381356578176,
                0.25893696989067055
            ]
        },
        {
            "positions": [
                1.59096513612321,
                -1.565832323525362,
                -0.37128660284361303,
                -1.501709732502961,
                -0.9663816070635673,
                0.23859444353125628
            ]
        },
        {
            "positions": [
                1.4801013955892324,
                -1.5979815918682567,
                -0.2164534107160676,
                -1.4970256057454565,
                -0.905925078469317,
                0.21825191717184197
            ]
        },
        {
            "positions": [
                1.3692376550552552,
                -1.6301308602111515,
                -0.0616202185885224,
                -1.4923414789879519,
                -0.8454685498750668,
                0.1979093908124277
            ]
        },
        {
            "positions": [
                1.2583739145212776,
                -1.6622801285540463,
                0.09321297353902303,
                -1.4876573522304475,
                -0.7850120212808164,
                0.1775668644530134
            ]
        },
        {
            "positions": [
                1.1475101739873002,
                -1.694429396896941,
                0.24804616566656845,
                -1.4829732254729429,
                -0.7245554926865662,
                0.15722433809359915
            ]
        },
        {
            "positions": [
                1.0366464334533227,
                -1.7265786652398358,
                0.4028793577941139,
                -1.4782890987154382,
                -0.6640989640923158,
                0.13688181173418484
            ]
        },
        {
            "positions": [
                0.9257826929193451,
                -1.7587279335827306,
                0.5577125499216593,
                -1.4736049719579338,
                -0.6036424354980655,
                0.11653928537477054
            ]
        },
        {
            "positions": [
                0.8149189523853677,
                -1.7908772019256254,
                0.7125457420492043,
                -1.4689208452004292,
                -0.5431859069038152,
                0.09619675901535624
            ]
        },
        {
            "positions": [
                0.7040552118513901,
                -1.8230264702685202,
                0.8673789341767497,
                -1.4642367184429246,
                -0.48272937830956497,
                0.07585423265594193
            ]
        },
        {
            "positions": [
                0.5931914713174127,
                -1.855175738611415,
                1.0222121263042951,
                -1.4595525916854202,
                -0.42227284971531476,
                0.055511706296527685
            ]
        },
        {
            "positions": [
                0.4823277307834352,
                -1.8873250069543097,
                1.1770453184318406,
                -1.4548684649279156,
                -0.36181632112106443,
                0.03516917993711338
            ]
        },
        {
            "positions": [
                0.43647655586919837,
                -1.8464098227925232,
                1.2265258107938009,
                -1.4147935152608733,
                -0.3200950245928136,
                0.20115834423565848
            ]
        },
        {
            "positions": [
                0.3906253809549616,
                -1.8054946386307364,
                1.2760063031557611,
                -1.374718565593831,
                -0.27837372806456273,
                0.3671475085342036
            ]
        },
        {
            "positions": [
                0.34477420604072473,
                -1.76457945446895,
                1.3254867955177214,
                -1.3346436159267885,
                -0.23665243153631188,
                0.5331366728327487
            ]
        },
        {
            "positions": [
                0.2989230311264879,
                -1.7236642703071634,
                1.3749672878796817,
                -1.2945686662597462,
                -0.19493113500806103,
                0.6991258371312938
            ]
        },
        {
            "positions": [
                0.25307185621225103,
                -1.6827490861453767,
                1.4244477802416422,
                -1.254493716592704,
                -0.15320983847981018,
                0.865115001429839
            ]
        },
        {
            "positions": [
                0.20722068129801424,
                -1.6418339019835901,
                1.4739282726036023,
                -1.2144187669256616,
                -0.11148854195155933,
                1.0311041657283841
            ]
        },
        {
            "positions": [
                0.1613695063837774,
                -1.6009187178218034,
                1.5234087649655628,
                -1.1743438172586194,
                -0.06976724542330848,
                1.1970933300269293
            ]
        },
        {
            "positions": [
                0.1155183314695406,
                -1.560003533660017,
                1.5728892573275228,
                -1.1342688675915769,
                -0.028045948895057626,
                1.3630824943254742
            ]
        },
        {
            "positions": [
                0.06966715655530376,
                -1.5190883494982304,
                1.6223697496894833,
                -1.0941939179245346,
                0.013675347633193224,
                1.5290716586240194
            ]
        },
        {
            "positions": [
                0.023815981641066908,
                -1.4781731653364436,
                1.6718502420514436,
                -1.0541189682574923,
                0.055396644161444075,
                1.6950608229225648
            ]
        },
        {
            "positions": [
                -0.022035193273169884,
                -1.4372579811746573,
                1.721330734413404,
                -1.01404401859045,
                0.09711794068969493,
                1.8610499872211097
            ]
        },
        {
            "positions": [
                -0.06788636818740668,
                -1.3963427970128706,
                1.7708112267753642,
                -0.9739690689234076,
                0.1388392372179458,
                2.027039151519655
            ]
        },
        {
            "positions": [
                -0.038518565464482186,
                -1.3562837173681703,
                1.8021979894048725,
                -0.9438847857167466,
                0.13738781743366293,
                2.193474751017205
            ]
        },
        {
            "positions": [
                -0.009150762741557697,
                -1.3162246377234699,
                1.8335847520343806,
                -0.9138005025100857,
                0.13593639764938006,
                2.359910350514755
            ]
        },
        {
            "positions": [
                0.0202170399813668,
                -1.2761655580787696,
                1.864971514663889,
                -0.8837162193034247,
                0.1344849778650972,
                2.5263459500123053
            ]
        },
        {
            "positions": [
                0.05418487860319667,
                -1.232670360476027,
                1.903579061257115,
                -0.8611314815932947,
                0.1342352968926987,
                2.721910370728011
            ]
        },
        {
            "positions": [
                0.08815271722502654,
                -1.1891751628732843,
                1.9421866078503414,
                -0.8385467438831646,
                0.13398561592030023,
                2.9174747914437167
            ]
        },
        {
            "positions": [
                0.12212055584685642,
                -1.1456799652705416,
                1.9807941544435674,
                -0.8159620061730346,
                0.13373593494790173,
                3.113039212159422
            ]
        }
    ]
}