{
    "goal": {
        "global_pose": {
            "orientation": {
                "w": 0.005598929693374612,
                "x": 0.007748599140229565,
                "y": 0.7110244013736278,
                "z": -0.7031023480610252
            },
            "position": {
                "x": 0.1141497679147869,
                "y": -0.7141253447532654,
                "z": 0.3711530566215515
            }
        },
        "name": "move_to_auspresseinheit_B"
    },
    "id": "LazyPRMstar_move_to_auspresseinheit_B_134",
    "joint_names": [
        "shoulder_pan_joint",
        "shoulder_lift_joint",
        "elbow_joint",
        "wrist_1_joint",
        "wrist_2_joint",
        "wrist_3_joint"
    ],
    "metrics": {
        "cart_traj_len": 0.5654946819426326,
        "distance_elbow_joint": 0.06290911242843888,
        "distance_shoulder_lift_joint": 0.2950907131421774,
        "distance_shoulder_pan_joint": 0.5780692776287337,
        "distance_wrist_1_joint": 0.32904753220026484,
        "distance_wrist_2_joint": 0.9949903903286113,
        "distance_wrist_3_joint": 0.008225667939967263,
        "smoothness": 3.806478935924272e-16,
        "time": 5.000278554,
        "traj_len": 1.5060985006526608,
        "weighted_distance": 1.8996899620930263
    },
    "planner": "LazyPRMstar",
    "start": {
        "state": {
            "elbow_joint": 2.0193083361928714,
            "shoulder_lift_joint": -1.1220246554650708,
            "shoulder_pan_joint": -1.0952077554168747,
            "wrist_1_joint": -0.8559753972642168,
            "wrist_2_joint": 0.4759566250798843,
            "wrist_3_joint": -3.1240929996934557
        }
    },
    "waypoints": [
        {
            "positions": [
                -1.0952077554168747,
                -1.1220246554650708,
                2.0193083361928714,
                -0.8559753972642168,
                0.4759566250798843,
                -3.1240929996934557
            ]
        },
        {
            "positions": [
                -1.1915526350216636,
                -1.171206440988767,
                2.008823484121465,
                -0.801134141897506,
                0.6417883568013195,
                -3.1227220550367942
            ]
        },
        {
            "positions": [
                -1.2878975146264526,
                -1.2203882265124633,
                1.9983386320500585,
                -0.7462928865307952,
                0.8076200885227547,
                -3.1213511103801332
            ]
        },
        {
            "positions": [
                -1.3842423942312414,
                -1.2695700120361595,
                1.987853779978652,
                -0.6914516311640844,
                0.97345182024419,
                -3.1199801657234723
            ]
        },
        {
            "positions": [
                -1.4805872738360304,
                -1.3187517975598557,
                1.9773689279072455,
                -0.6366103757973736,
                1.139283551965625,
                -3.118609221066811
            ]
        },
        {
            "positions": [
                -1.5769321534408194,
                -1.367933583083552,
                1.966884075835839,
                -0.5817691204306628,
                1.3051152836870603,
                -3.1172382764101494
            ]
        },
        {
            "positions": [
                -1.6732770330456084,
                -1.4171153686072482,
                1.9563992237644325,
                -0.526927865063952,
                1.4709470154084956,
                -3.1158673317534884
            ]
        }
    ]
}