{
    "goal": {
        "global_pose": {
            "orientation": {
                "w": 0.005598929693374612,
                "x": 0.007748599140229565,
                "y": 0.7110244013736278,
                "z": -0.7031023480610252
            },
            "position": {
                "x": 0.1141497679147869,
                "y": -0.7141253447532654,
                "z": 0.3711530566215515
            }
        },
        "name": "move_to_auspresseinheit_B"
    },
    "id": "LazyPRMstar_move_to_auspresseinheit_B_77",
    "joint_names": [
        "shoulder_pan_joint",
        "shoulder_lift_joint",
        "elbow_joint",
        "wrist_1_joint",
        "wrist_2_joint",
        "wrist_3_joint"
    ],
    "metrics": {
        "cart_traj_len": 0.5640399871809402,
        "distance_elbow_joint": 0.06434394640732921,
        "distance_shoulder_lift_joint": 0.29465119585596655,
        "distance_shoulder_pan_joint": 0.5753705294542337,
        "distance_wrist_1_joint": 0.33324745066011774,
        "distance_wrist_2_joint": 0.9970603944074519,
        "distance_wrist_3_joint": 0.007542035956663362,
        "smoothness": 3.806478935924272e-16,
        "time": 5.001482241,
        "traj_len": 1.5073869950154681,
        "weighted_distance": 1.9020009121245602
    },
    "planner": "LazyPRMstar",
    "start": {
        "state": {
            "elbow_joint": 2.0193083361928714,
            "shoulder_lift_joint": -1.1220246554650708,
            "shoulder_pan_joint": -1.0952077554168747,
            "wrist_1_joint": -0.8559753972642168,
            "wrist_2_joint": 0.4759566250798843,
            "wrist_3_joint": -3.1240929996934557
        }
    },
    "waypoints": [
        {
            "positions": [
                -1.0952077554168747,
                -1.1220246554650708,
                2.0193083361928714,
                -0.8559753972642168,
                0.4759566250798843,
                -3.1240929996934557
            ]
        },
        {
            "positions": [
                -1.191102843659247,
                -1.1711331881077318,
                2.008584345124983,
                -0.8004341554875305,
                0.6421333574811263,
                -3.1228359937006784
            ]
        },
        {
            "positions": [
                -1.2869979319016192,
                -1.220241720750393,
                1.997860354057095,
                -0.7448929137108442,
                0.8083100898823683,
                -3.121578987707901
            ]
        },
        {
            "positions": [
                -1.3828930201439915,
                -1.269350253393054,
                1.9871363629892067,
                -0.6893516719341579,
                0.9744868222836103,
                -3.120321981715124
            ]
        },
        {
            "positions": [
                -1.4787881083863637,
                -1.318458786035715,
                1.9764123719213187,
                -0.6338104301574716,
                1.1406635546848523,
                -3.1190649757223468
            ]
        },
        {
            "positions": [
                -1.5746831966287362,
                -1.3675673186783763,
                1.9656883808534305,
                -0.5782691883807853,
                1.3068402870860942,
                -3.1178079697295695
            ]
        },
        {
            "positions": [
                -1.6705782848711084,
                -1.4166758513210373,
                1.9549643897855422,
                -0.522727946604099,
                1.4730170194873362,
                -3.1165509637367923
            ]
        }
    ]
}