{
    "goal": {
        "global_pose": {
            "orientation": {
                "w": 0.7031023480610252,
                "x": -0.7110244013736278,
                "y": 0.0077485991402295624,
                "z": 0.005598929693374583
            },
            "position": {
                "x": -0.8841497679147869,
                "y": 0.44412534475326537,
                "z": 0.3711530566215515
            }
        },
        "name": "move_to_auspresseinheit_D"
    },
    "id": "LazyPRM_move_to_auspresseinheit_D_145",
    "joint_names": [
        "shoulder_pan_joint",
        "shoulder_lift_joint",
        "elbow_joint",
        "wrist_1_joint",
        "wrist_2_joint",
        "wrist_3_joint"
    ],
    "metrics": {
        "cart_traj_len": 0.3445698525244202,
        "distance_elbow_joint": 0.6678581400463963,
        "distance_shoulder_lift_joint": 0.1380822183662045,
        "distance_shoulder_pan_joint": 0.13359401409039162,
        "distance_wrist_1_joint": 0.6181383356865209,
        "distance_wrist_2_joint": 1.4471576429249338,
        "distance_wrist_3_joint": 0.07313065364613758,
        "smoothness": 6.908054404438162e-16,
        "time": 0.012387312000000001,
        "traj_len": 1.7544118686216714,
        "weighted_distance": 2.299895278195143
    },
    "planner": "LazyPRM",
    "start": {
        "state": {
            "elbow_joint": -1.8275523626775212,
            "shoulder_lift_joint": -2.126789852344167,
            "shoulder_pan_joint": -0.03513704404078235,
            "wrist_1_joint": -2.347782403156801,
            "wrist_2_joint": -1.6058999987535132,
            "wrist_3_joint": -3.0880379163319196
        }
    },
    "waypoints": [
        {
            "positions": [
                -0.03513704404078235,
                -2.126789852344167,
                -1.8275523626775212,
                -2.347782403156801,
                -1.6058999987535132,
                -3.0880379163319196
            ]
        },
        {
            "positions": [
                -0.0518362958020813,
                -2.1440501296399423,
                -1.7440700951717216,
                -2.425049695117616,
                -1.4250052933878965,
                -3.0788965846261522
            ]
        },
        {
            "positions": [
                -0.06853554756338026,
                -2.161310406935718,
                -1.660587827665922,
                -2.502316987078431,
                -1.2441105880222798,
                -3.0697552529203853
            ]
        },
        {
            "positions": [
                -0.0852347993246792,
                -2.1785706842314934,
                -1.5771055601601227,
                -2.579584279039246,
                -1.063215882656663,
                -3.060613921214618
            ]
        },
        {
            "positions": [
                -0.10193405108597817,
                -2.1958309615272693,
                -1.493623292654323,
                -2.656851571000061,
                -0.8823211772910463,
                -3.051472589508851
            ]
        },
        {
            "positions": [
                -0.1186333028472771,
                -2.213091238823045,
                -1.4101410251485236,
                -2.7341188629608766,
                -0.7014264719254296,
                -3.0423312578030837
            ]
        },
        {
            "positions": [
                -0.13533255460857607,
                -2.2303515161188203,
                -1.326658757642724,
                -2.8113861549216916,
                -0.5205317665598128,
                -3.0331899260973163
            ]
        },
        {
            "positions": [
                -0.152031806369875,
                -2.247611793414596,
                -1.2431764901369244,
                -2.8886534468825067,
                -0.3396370611941961,
                -3.0240485943915494
            ]
        },
        {
            "positions": [
                -0.16873105813117398,
                -2.2648720707103713,
                -1.1596942226311249,
                -2.9659207388433217,
                -0.15874235582857937,
                -3.014907262685782
            ]
        }
    ]
}