{
    "goal": {
        "global_pose": {
            "orientation": {
                "w": -0.4816463035849501,
                "x": 0.5182115481033762,
                "y": 0.4908360881923453,
                "z": -0.5084816262002911
            },
            "position": {
                "x": -0.8240239810943604,
                "y": 0.19912469901144506,
                "z": 0.16403168439865112
            }
        },
        "name": "move_to_storage_D"
    },
    "id": "LazyPRMstar_move_to_storage_D_68",
    "joint_names": [
        "shoulder_pan_joint",
        "shoulder_lift_joint",
        "elbow_joint",
        "wrist_1_joint",
        "wrist_2_joint",
        "wrist_3_joint"
    ],
    "metrics": {
        "cart_traj_len": 1.222060313419218,
        "distance_elbow_joint": 0.5564629296825281,
        "distance_shoulder_lift_joint": 1.3058428575737517,
        "distance_shoulder_pan_joint": 0.8545199545871064,
        "distance_wrist_1_joint": 4.296764661798834,
        "distance_wrist_2_joint": 1.7796609532696077,
        "distance_wrist_3_joint": 3.157130030437355,
        "smoothness": 0.1913929075480723,
        "time": 5.046991666,
        "traj_len": 3.456932366614826,
        "weighted_distance": 4.933666695601997
    },
    "planner": "LazyPRMstar",
    "start": {
        "state": {
            "elbow_joint": -2.384821988534728,
            "shoulder_lift_joint": -2.2788054721415256,
            "shoulder_pan_joint": -0.1854694642142757,
            "wrist_1_joint": 1.4845938289331202,
            "wrist_2_joint": 0.17898776772866878,
            "wrist_3_joint": 0.037105688729662994
        }
    },
    "waypoints": [
        {
            "positions": [
                -0.1854694642142757,
                -2.2788054721415256,
                -2.384821988534728,
                1.4845938289331202,
                0.17898776772866878,
                0.037105688729662994
            ]
        },
        {
            "positions": [
                -0.1226212801343007,
                -2.1876857135991727,
                -2.337049546494935,
                1.5135894000076058,
                0.0884274936853245,
                0.07065464541861703
            ]
        },
        {
            "positions": [
                -0.05977309605432568,
                -2.09656595505682,
                -2.289277104455142,
                1.5425849710820911,
                -0.0021327803580197813,
                0.10420360210757107
            ]
        },
        {
            "positions": [
                0.0030750880256493474,
                -2.005446196514467,
                -2.241504662415349,
                1.5715805421565767,
                -0.09269305440136408,
                0.1377525587965251
            ]
        },
        {
            "positions": [
                0.06592327210562435,
                -1.914326437972114,
                -2.193732220375556,
                1.600576113231062,
                -0.18325332844470835,
                0.17130151548547914
            ]
        },
        {
            "positions": [
                0.12877145618559935,
                -1.8232066794297612,
                -2.145959778335763,
                1.6295716843055477,
                -0.27381360248805264,
                0.20485047217443317
            ]
        },
        {
            "positions": [
                0.1916196402655744,
                -1.7320869208874081,
                -2.09818733629597,
                1.6585672553800332,
                -0.36437387653139697,
                0.23839942886338722
            ]
        },
        {
            "positions": [
                0.2544678243455494,
                -1.6409671623450552,
                -2.050414894256177,
                1.6875628264545186,
                -0.4549341505747412,
                0.27194838555234124
            ]
        },
        {
            "positions": [
                0.31731600842552443,
                -1.5498474038027024,
                -2.002642452216384,
                1.7165583975290042,
                -0.5454944246180855,
                0.3054973422412953
            ]
        },
        {
            "positions": [
                0.3020232048625981,
                -1.5749293511607427,
                -1.9950649133744631,
                1.5398279586940933,
                -0.5913717620495139,
                0.43109466297719634
            ]
        },
        {
            "positions": [
                0.2867304012996717,
                -1.600011298518783,
                -1.987487374532542,
                1.3630975198591824,
                -0.6372490994809423,
                0.5566919837130972
            ]
        },
        {
            "positions": [
                0.27143759773674536,
                -1.6250932458768235,
                -1.979909835690621,
                1.1863670810242715,
                -0.6831264369123707,
                0.6822893044489983
            ]
        },
        {
            "positions": [
                0.256144794173819,
                -1.6501751932348638,
                -1.9723322968486998,
                1.0096366421893608,
                -0.7290037743437991,
                0.8078866251848993
            ]
        },
        {
            "positions": [
                0.24085199061089263,
                -1.6752571405929042,
                -1.9647547580067788,
                0.8329062033544499,
                -0.7748811117752276,
                0.9334839459208002
            ]
        },
        {
            "positions": [
                0.2255591870479663,
                -1.7003390879509446,
                -1.9571772191648578,
                0.656175764519539,
                -0.820758449206656,
                1.059081266656701
            ]
        },
        {
            "positions": [
                0.21026638348503993,
                -1.725421035308985,
                -1.9495996803229367,
                0.47944532568462805,
                -0.8666357866380844,
                1.1846785873926022
            ]
        },
        {
            "positions": [
                0.19497357992211356,
                -1.7505029826670253,
                -1.9420221414810157,
                0.30271488684971715,
                -0.9125131240695128,
                1.3102759081285034
            ]
        },
        {
            "positions": [
                0.17968077635918722,
                -1.7755849300250657,
                -1.9344446026390947,
                0.12598444801480624,
                -0.9583904615009412,
                1.4358732288644043
            ]
        },
        {
            "positions": [
                0.16438797279626086,
                -1.800666877383106,
                -1.9268670637971737,
                -0.05074599082010445,
                -1.0042677989323696,
                1.5614705496003052
            ]
        },
        {
            "positions": [
                0.1490951692333345,
                -1.8257488247411464,
                -1.9192895249552526,
                -0.22747642965501558,
                -1.0501451363637981,
                1.687067870336206
            ]
        },
        {
            "positions": [
                0.13380236567040815,
                -1.8508307720991868,
                -1.9117119861133314,
                -0.40420686848992626,
                -1.0960224737952262,
                1.812665191072107
            ]
        },
        {
            "positions": [
                0.11850956210748181,
                -1.8759127194572272,
                -1.9041344472714103,
                -0.580937307324837,
                -1.1418998112266547,
                1.938262511808008
            ]
        },
        {
            "positions": [
                0.10321675854455542,
                -1.9009946668152675,
                -1.8965569084294893,
                -0.7576677461597481,
                -1.1877771486580833,
                2.0638598325439093
            ]
        },
        {
            "positions": [
                0.08792395498162905,
                -1.9260766141733079,
                -1.8889793695875683,
                -0.9343981849946592,
                -1.2336544860895116,
                2.18945715327981
            ]
        },
        {
            "positions": [
                0.07263115141870272,
                -1.9511585615313483,
                -1.8814018307456473,
                -1.11112862382957,
                -1.2795318235209399,
                2.315054474015711
            ]
        },
        {
            "positions": [
                0.05733834785577635,
                -1.9762405088893886,
                -1.8738242919037262,
                -1.2878590626644806,
                -1.3254091609523684,
                2.440651794751612
            ]
        },
        {
            "positions": [
                0.04204554429285001,
                -2.001322456247429,
                -1.8662467530618052,
                -1.4645895014993917,
                -1.371286498383797,
                2.566249115487513
            ]
        },
        {
            "positions": [
                0.02675274072992362,
                -2.0264044036054694,
                -1.858669214219884,
                -1.6413199403343024,
                -1.4171638358152252,
                2.691846436223414
            ]
        },
        {
            "positions": [
                0.01145993716699728,
                -2.0514863509635095,
                -1.851091675377963,
                -1.818050379169213,
                -1.4630411732466535,
                2.8174437569593147
            ]
        },
        {
            "positions": [
                -0.0038328663959290576,
                -2.07656829832155,
                -1.843514136536042,
                -1.9947808180041242,
                -1.508918510678082,
                2.9430410776952156
            ]
        },
        {
            "positions": [
                -0.01912566995885545,
                -2.1016502456795907,
                -1.8359365976941209,
                -2.171511256839035,
                -1.5547958481095105,
                3.068638398431117
            ]
        },
        {
            "positions": [
                -0.03441847352178177,
                -2.126732193037631,
                -1.8283590588521998,
                -2.3482416956739462,
                -1.6006731855409388,
                3.194235719167018
            ]
        }
    ]
}