{
    "goal": {
        "global_pose": {
            "orientation": {
                "w": 0.005598929693374612,
                "x": 0.007748599140229565,
                "y": 0.7110244013736278,
                "z": -0.7031023480610252
            },
            "position": {
                "x": -0.8858502320852131,
                "y": -0.7141253447532654,
                "z": 0.3711530566215515
            }
        },
        "name": "move_to_auspresseinheit_C"
    },
    "id": "LazyPRM_move_to_auspresseinheit_C_126",
    "joint_names": [
        "shoulder_pan_joint",
        "shoulder_lift_joint",
        "elbow_joint",
        "wrist_1_joint",
        "wrist_2_joint",
        "wrist_3_joint"
    ],
    "metrics": {
        "cart_traj_len": 0.49364064127087914,
        "distance_elbow_joint": 1.0120959146619908,
        "distance_shoulder_lift_joint": 0.3310377030747784,
        "distance_shoulder_pan_joint": 0.2569156361279381,
        "distance_wrist_1_joint": 0.7094615128469293,
        "distance_wrist_2_joint": 1.3039802305292736,
        "distance_wrist_3_joint": 0.07824178229131018,
        "smoothness": 4.844609574787718e-16,
        "time": 0.012719105000000001,
        "traj_len": 1.9213882427901499,
        "weighted_distance": 2.4210861379742448
    },
    "planner": "LazyPRM",
    "start": {
        "state": {
            "elbow_joint": 1.7527959577737207,
            "shoulder_lift_joint": -0.9740617694225068,
            "shoulder_pan_joint": -2.967991417825858,
            "wrist_1_joint": -0.759517768980727,
            "wrist_2_joint": 1.7443932448377408,
            "wrist_3_joint": -3.0840537646736568
        }
    },
    "waypoints": [
        {
            "positions": [
                -2.967991417825858,
                -0.9740617694225068,
                1.7527959577737207,
                -0.759517768980727,
                1.7443932448377408,
                -3.0840537646736568
            ]
        },
        {
            "positions": [
                -2.942299854213064,
                -0.940957999115029,
                1.6515863663075216,
                -0.688571617696034,
                1.6139952217848135,
                -3.0918779429027876
            ]
        },
        {
            "positions": [
                -2.91660829060027,
                -0.9078542288075511,
                1.5503767748413224,
                -0.6176254664113411,
                1.4835971987318861,
                -3.099702121131919
            ]
        },
        {
            "positions": [
                -2.8909167269874767,
                -0.8747504585000733,
                1.4491671833751234,
                -0.5466793151266482,
                1.3531991756789588,
                -3.1075262993610497
            ]
        },
        {
            "positions": [
                -2.865225163374683,
                -0.8416466881925954,
                1.3479575919089244,
                -0.47573316384195524,
                1.2228011526260314,
                -3.115350477590181
            ]
        },
        {
            "positions": [
                -2.839533599761889,
                -0.8085429178851176,
                1.2467480004427252,
                -0.40478701255726235,
                1.092403129573104,
                -3.123174655819312
            ]
        },
        {
            "positions": [
                -2.813842036149095,
                -0.7754391475776398,
                1.1455384089765261,
                -0.33384086127256946,
                0.9620051065201767,
                -3.1309988340484427
            ]
        },
        {
            "positions": [
                -2.788150472536301,
                -0.7423353772701619,
                1.0443288175103271,
                -0.2628947099878765,
                0.8316070834672494,
                -3.138823012277574
            ]
        },
        {
            "positions": [
                -2.7624589089235077,
                -0.7092316069626841,
                0.943119226044128,
                -0.1919485587031835,
                0.701209060414322,
                -3.146647190506705
            ]
        },
        {
            "positions": [
                -2.7367673453107138,
                -0.6761278366552061,
                0.8419096345779289,
                -0.12100240741849067,
                0.5708110373613946,
                -3.154471368735836
            ]
        },
        {
            "positions": [
                -2.71107578169792,
                -0.6430240663477284,
                0.7407000431117299,
                -0.050056256133797716,
                0.44041301430846713,
                -3.162295546964967
            ]
        }
    ]
}