{
    "goal": {
        "global_pose": {
            "orientation": {
                "w": 0.7031023502349854,
                "x": -0.7110244035720825,
                "y": 0.007748599164187908,
                "z": 0.005598929710686207
            },
            "position": {
                "x": 0.11585023208521307,
                "y": 0.44412534475326537,
                "z": 0.3711530566215515
            }
        },
        "name": "move_to_auspresseinheit_A"
    },
    "id": "LazyPRMstar_move_to_auspresseinheit_A_103",
    "joint_names": [
        "shoulder_pan_joint",
        "shoulder_lift_joint",
        "elbow_joint",
        "wrist_1_joint",
        "wrist_2_joint",
        "wrist_3_joint"
    ],
    "metrics": {
        "cart_traj_len": 0.662955513789669,
        "distance_elbow_joint": 0.05712299040784563,
        "distance_shoulder_lift_joint": 0.5329227623428059,
        "distance_shoulder_pan_joint": 1.046157536965622,
        "distance_wrist_1_joint": 0.561729583456061,
        "distance_wrist_2_joint": 0.5209058590995977,
        "distance_wrist_3_joint": 0.07491127850145052,
        "smoothness": 0.07137128764845704,
        "time": 5.006555414,
        "traj_len": 1.6714514682674406,
        "weighted_distance": 2.0065413054138563
    },
    "planner": "LazyPRMstar",
    "start": {
        "state": {
            "elbow_joint": 2.4225746658250005,
            "shoulder_lift_joint": -1.3736534386056498,
            "shoulder_pan_joint": -0.3378633547517467,
            "wrist_1_joint": -1.0288598680537169,
            "wrist_2_joint": 1.233022673432363,
            "wrist_3_joint": -3.0940220416140027
        }
    },
    "waypoints": [
        {
            "positions": [
                -0.3378633547517467,
                -1.3736534386056498,
                2.4225746658250005,
                -1.0288598680537169,
                1.233022673432363,
                -3.0940220416140027
            ]
        },
        {
            "positions": [
                -0.23483667316679757,
                -1.4534822518416946,
                2.425940594499906,
                -0.9045729010251301,
                1.2174346669722005,
                -3.0904235211644786
            ]
        },
        {
            "positions": [
                -0.13180999158184845,
                -1.5333110650777393,
                2.429306523174811,
                -0.7802859339965433,
                1.2018466605120381,
                -3.0868250007149545
            ]
        },
        {
            "positions": [
                -0.02878330999689932,
                -1.613139878313784,
                2.432672451849716,
                -0.6559989669679565,
                1.1862586540518756,
                -3.08322648026543
            ]
        },
        {
            "positions": [
                0.07424337158804983,
                -1.6929686915498288,
                2.4360383805246215,
                -0.5317119999393697,
                1.170670647591713,
                -3.0796279598159058
            ]
        },
        {
            "positions": [
                0.23275607424450617,
                -1.7463705688994855,
                2.4251235615975655,
                -0.5155665711039412,
                1.0560321892769762,
                -3.094757258991744
            ]
        },
        {
            "positions": [
                0.3912687769009625,
                -1.7997724462491422,
                2.4142087426705094,
                -0.49942114226851275,
                0.9413937309622391,
                -3.1098865581675827
            ]
        },
        {
            "positions": [
                0.5497814795574189,
                -1.853174323598799,
                2.403293923743453,
                -0.48327571343308423,
                0.8267552726475023,
                -3.125015857343421
            ]
        },
        {
            "positions": [
                0.7082941822138752,
                -1.9065762009484557,
                2.392379104816397,
                -0.46713028459765576,
                0.7121168143327653,
                -3.1401451565192593
            ]
        }
    ]
}