{
    "goal": {
        "global_pose": {
            "orientation": {
                "w": 0.005598929693374612,
                "x": 0.007748599140229565,
                "y": 0.7110244013736278,
                "z": -0.7031023480610252
            },
            "position": {
                "x": 0.1141497679147869,
                "y": -0.7141253447532654,
                "z": 0.3711530566215515
            }
        },
        "name": "move_to_auspresseinheit_B"
    },
    "id": "LazyPRMstar_move_to_auspresseinheit_B_22",
    "joint_names": [
        "shoulder_pan_joint",
        "shoulder_lift_joint",
        "elbow_joint",
        "wrist_1_joint",
        "wrist_2_joint",
        "wrist_3_joint"
    ],
    "metrics": {
        "cart_traj_len": 0.5650237434946626,
        "distance_elbow_joint": 0.061636535504500545,
        "distance_shoulder_lift_joint": 0.2950823433333414,
        "distance_shoulder_pan_joint": 0.5794815714555888,
        "distance_wrist_1_joint": 0.3275465935872466,
        "distance_wrist_2_joint": 0.9865655881232238,
        "distance_wrist_3_joint": 0.006808393516767985,
        "smoothness": 5.075305295617109e-16,
        "time": 5.000227047,
        "traj_len": 1.5023718000284314,
        "weighted_distance": 1.8933700098672408
    },
    "planner": "LazyPRMstar",
    "start": {
        "state": {
            "elbow_joint": 2.0193083361928714,
            "shoulder_lift_joint": -1.1220246554650708,
            "shoulder_pan_joint": -1.0952077554168747,
            "wrist_1_joint": -0.8559753972642168,
            "wrist_2_joint": 0.4759566250798843,
            "wrist_3_joint": -3.1240929996934557
        }
    },
    "waypoints": [
        {
            "positions": [
                -1.0952077554168747,
                -1.1220246554650708,
                2.0193083361928714,
                -0.8559753972642168,
                0.4759566250798843,
                -3.1240929996934557
            ]
        },
        {
            "positions": [
                -1.1917880173261395,
                -1.1712050460206278,
                2.0090355802754547,
                -0.8013842983330091,
                0.6403842231004215,
                -3.1252277319462505
            ]
        },
        {
            "positions": [
                -1.2883682792354043,
                -1.2203854365761846,
                1.998762824358038,
                -0.7467931994018012,
                0.804811821120959,
                -3.126362464199045
            ]
        },
        {
            "positions": [
                -1.3849485411446691,
                -1.2695658271317414,
                1.9884900684406213,
                -0.6922021004705935,
                0.9692394191414961,
                -3.1274971964518397
            ]
        },
        {
            "positions": [
                -1.4815288030539338,
                -1.3187462176872984,
                1.9782173125232043,
                -0.6376110015393858,
                1.1336670171620336,
                -3.1286319287046345
            ]
        },
        {
            "positions": [
                -1.5781090649631986,
                -1.3679266082428554,
                1.9679445566057876,
                -0.5830199026081779,
                1.2980946151825707,
                -3.129766660957429
            ]
        },
        {
            "positions": [
                -1.6746893268724634,
                -1.4171069987984122,
                1.9576718006883709,
                -0.5284288036769702,
                1.4625222132031082,
                -3.1309013932102236
            ]
        }
    ]
}