{
    "goal": {
        "global_pose": {
            "orientation": {
                "w": -0.4816463035849501,
                "x": 0.5182115481033762,
                "y": 0.4908360881923453,
                "z": -0.5084816262002911
            },
            "position": {
                "x": -0.8240239810943604,
                "y": -0.300875300988555,
                "z": 0.16403168439865112
            }
        },
        "name": "move_to_storage_C"
    },
    "id": "LazyPRMstar_move_to_storage_C_2",
    "joint_names": [
        "shoulder_pan_joint",
        "shoulder_lift_joint",
        "elbow_joint",
        "wrist_1_joint",
        "wrist_2_joint",
        "wrist_3_joint"
    ],
    "metrics": {
        "cart_traj_len": 0.5769118119254145,
        "distance_elbow_joint": 0.25859576429864917,
        "distance_shoulder_lift_joint": 0.18926998331233824,
        "distance_shoulder_pan_joint": 0.49432495266012655,
        "distance_wrist_1_joint": 0.07810213045065884,
        "distance_wrist_2_joint": 1.0718048785232122,
        "distance_wrist_3_joint": 0.06244219569643006,
        "smoothness": 2.5376526478085547e-16,
        "time": 5.00006325,
        "traj_len": 1.4678351082261982,
        "weighted_distance": 1.8518453783478108
    },
    "planner": "LazyPRMstar",
    "start": {
        "state": {
            "elbow_joint": 2.010868314990456,
            "shoulder_lift_joint": -1.1634956873337592,
            "shoulder_pan_joint": -2.4736205022346125,
            "wrist_1_joint": -0.8367026794202681,
            "wrist_2_joint": 0.6746043897044499,
            "wrist_3_joint": -3.1496632123970403
        }
    },
    "waypoints": [
        {
            "positions": [
                -2.4736205022346125,
                -1.1634956873337592,
                2.010868314990456,
                -0.8367026794202681,
                0.6746043897044499,
                -3.1496632123970403
            ]
        },
        {
            "positions": [
                -2.5560079943446334,
                -1.1319506901150362,
                1.9677690209406808,
                -0.8236856576784917,
                0.8532385361249852,
                -3.1392561797809684
            ]
        },
        {
            "positions": [
                -2.638395486454655,
                -1.100405692896313,
                1.924669726890906,
                -0.8106686359367151,
                1.0318726825455207,
                -3.128849147164897
            ]
        },
        {
            "positions": [
                -2.7207829785646758,
                -1.0688606956775901,
                1.8815704328411313,
                -0.7976516141949387,
                1.2105068289660559,
                -3.1184421145488255
            ]
        },
        {
            "positions": [
                -2.8031704706746967,
                -1.037315698458867,
                1.8384711387913564,
                -0.7846345924531622,
                1.3891409753865913,
                -3.1080350819327536
            ]
        },
        {
            "positions": [
                -2.885557962784718,
                -1.005770701240144,
                1.7953718447415814,
                -0.7716175707113857,
                1.5677751218071267,
                -3.0976280493166817
            ]
        },
        {
            "positions": [
                -2.967945454894739,
                -0.974225704021421,
                1.7522725506918067,
                -0.7586005489696093,
                1.746409268227662,
                -3.08722101670061
            ]
        }
    ]
}