{
    "goal": {
        "global_pose": {
            "orientation": {
                "w": 0.7031023502349854,
                "x": -0.7110244035720825,
                "y": 0.007748599164187908,
                "z": 0.005598929710686207
            },
            "position": {
                "x": 0.11585023208521307,
                "y": 0.44412534475326537,
                "z": 0.3711530566215515
            }
        },
        "name": "move_to_auspresseinheit_A"
    },
    "id": "LazyPRM_move_to_auspresseinheit_A_135",
    "joint_names": [
        "shoulder_pan_joint",
        "shoulder_lift_joint",
        "elbow_joint",
        "wrist_1_joint",
        "wrist_2_joint",
        "wrist_3_joint"
    ],
    "metrics": {
        "cart_traj_len": 0.6476282079952985,
        "distance_elbow_joint": 0.2585950452975756,
        "distance_shoulder_lift_joint": 0.5340690168623063,
        "distance_shoulder_pan_joint": 1.0412628524085366,
        "distance_wrist_1_joint": 1.3955340936085627,
        "distance_wrist_2_joint": 1.0337460893020143,
        "distance_wrist_3_joint": 0.06449872333700624,
        "smoothness": 0.8667715327625106,
        "time": 0.055944640000000004,
        "traj_len": 2.0803138755524375,
        "weighted_distance": 2.6241157463802147
    },
    "planner": "LazyPRM",
    "start": {
        "state": {
            "elbow_joint": 2.4225746658250005,
            "shoulder_lift_joint": -1.3736534386056498,
            "shoulder_pan_joint": -0.3378633547517467,
            "wrist_1_joint": -1.0288598680537169,
            "wrist_2_joint": 1.233022673432363,
            "wrist_3_joint": -3.0940220416140027
        }
    },
    "waypoints": [
        {
            "positions": [
                -0.3378633547517467,
                -1.3736534386056498,
                2.4225746658250005,
                -1.0288598680537169,
                1.233022673432363,
                -3.0940220416140027
            ]
        },
        {
            "positions": [
                -0.3076900177568389,
                -1.4383346899744571,
                2.438832412095979,
                -0.8882091370413874,
                1.1213804128068026,
                -3.102417211418359
            ]
        },
        {
            "positions": [
                -0.2775166807619311,
                -1.5030159413432642,
                2.4550901583669567,
                -0.7475584060290579,
                1.0097381521812423,
                -3.1108123812227144
            ]
        },
        {
            "positions": [
                -0.24734334376702327,
                -1.5676971927120715,
                2.471347904637935,
                -0.6069076750167284,
                0.8980958915556818,
                -3.1192075510270705
            ]
        },
        {
            "positions": [
                -0.21717000677211543,
                -1.6323784440808786,
                2.4876056509089133,
                -0.46625694400439877,
                0.7864536309301215,
                -3.1276027208314265
            ]
        },
        {
            "positions": [
                -0.18699666977720758,
                -1.697059695449686,
                2.5038633971798916,
                -0.32560621299206916,
                0.6748113703045611,
                -3.1359978906357826
            ]
        },
        {
            "positions": [
                -0.1568233327822998,
                -1.761740946818493,
                2.5201211434508695,
                -0.18495548197973977,
                0.5631691096790007,
                -3.144393060440138
            ]
        },
        {
            "positions": [
                -0.12664999578739194,
                -1.8264221981873003,
                2.5363788897218478,
                -0.04430475096741011,
                0.4515268490534403,
                -3.1527882302444943
            ]
        },
        {
            "positions": [
                0.02908645751703523,
                -1.8467049318497877,
                2.5109890322053627,
                -0.1091405754111715,
                0.4886721905988878,
                -3.1523698668842774
            ]
        },
        {
            "positions": [
                0.1848229108214624,
                -1.866987665512275,
                2.4855991746888773,
                -0.17397639985493288,
                0.5258175321443352,
                -3.151951503524061
            ]
        },
        {
            "positions": [
                0.34055936412588955,
                -1.8872703991747624,
                2.460209317172392,
                -0.23881222429869425,
                0.5629628736897826,
                -3.1515331401638442
            ]
        },
        {
            "positions": [
                0.49629581743031675,
                -1.9075531328372497,
                2.434819459655907,
                -0.30364804874245566,
                0.6001082152352301,
                -3.1511147768036274
            ]
        },
        {
            "positions": [
                0.5998476575435532,
                -1.907637794152603,
                2.4132037639885136,
                -0.37946588811606086,
                0.651942664605881,
                -3.1490852361708033
            ]
        },
        {
            "positions": [
                0.7033994976567897,
                -1.9077224554679562,
                2.3915880683211195,
                -0.455283727489666,
                0.7037771139765319,
                -3.1470556955379796
            ]
        }
    ]
}