{
    "goal": {
        "global_pose": {
            "orientation": {
                "w": 0.5084816217422485,
                "x": -0.49083608388900757,
                "y": 0.5182115435600281,
                "z": -0.4816462993621826
            },
            "position": {
                "x": 0.5540239810943604,
                "y": 0.030875300988554955,
                "z": 0.16403168439865112
            }
        },
        "name": "move_to_storage_A"
    },
    "id": "LazyPRM_move_to_storage_A_47",
    "joint_names": [
        "shoulder_pan_joint",
        "shoulder_lift_joint",
        "elbow_joint",
        "wrist_1_joint",
        "wrist_2_joint",
        "wrist_3_joint"
    ],
    "metrics": {
        "cart_traj_len": 0.35282609562037714,
        "distance_elbow_joint": 0.45130492709753667,
        "distance_shoulder_lift_joint": 0.2355152103614362,
        "distance_shoulder_pan_joint": 0.45945145543251636,
        "distance_wrist_1_joint": 0.2458982283877399,
        "distance_wrist_2_joint": 1.1073967792104837,
        "distance_wrist_3_joint": 0.09584312998069278,
        "smoothness": 0.0,
        "time": 0.011275242,
        "traj_len": 1.6110275387064015,
        "weighted_distance": 2.0347950751930806
    },
    "planner": "LazyPRM",
    "start": {
        "state": {
            "elbow_joint": 1.971548259319323,
            "shoulder_lift_joint": -1.1394851275133948,
            "shoulder_pan_joint": 0.1228115487234821,
            "wrist_1_joint": -0.7804723859257726,
            "wrist_2_joint": 0.12958671773740124,
            "wrist_3_joint": -3.192489227718131
        }
    },
    "waypoints": [
        {
            "positions": [
                0.1228115487234821,
                -1.1394851275133948,
                1.971548259319323,
                -0.7804723859257726,
                0.12958671773740124,
                -3.192489227718131
            ]
        },
        {
            "positions": [
                0.05717562651883691,
                -1.1731301575650286,
                2.036020391761828,
                -0.8156007042668784,
                0.2877862576246132,
                -3.1787973520066037
            ]
        },
        {
            "positions": [
                -0.008460295685808278,
                -1.2067751876166624,
                2.1004925242043333,
                -0.850729022607984,
                0.4459857975118251,
                -3.165105476295076
            ]
        },
        {
            "positions": [
                -0.07409621789045348,
                -1.2404202176682961,
                2.1649646566468386,
                -0.8858573409490897,
                0.6041853373990371,
                -3.1514136005835485
            ]
        },
        {
            "positions": [
                -0.13973214009509866,
                -1.2740652477199297,
                2.229436789089344,
                -0.9209856592901954,
                0.762384877286249,
                -3.137721724872021
            ]
        },
        {
            "positions": [
                -0.20536806229974386,
                -1.3077102777715635,
                2.293908921531849,
                -0.9561139776313011,
                0.9205844171734611,
                -3.1240298491604936
            ]
        },
        {
            "positions": [
                -0.27100398450438906,
                -1.3413553078231972,
                2.3583810539743544,
                -0.9912422959724068,
                1.078783957060673,
                -3.110337973448966
            ]
        },
        {
            "positions": [
                -0.33663990670903426,
                -1.375000337874831,
                2.4228531864168596,
                -1.0263706143135125,
                1.236983496947885,
                -3.0966460977374384
            ]
        }
    ]
}{
    "goal": {
        "global_pose": {
            "orientation": {
                "w": 0.5084816217422485,
                "x": -0.49083608388900757,
                "y": 0.5182115435600281,
                "z": -0.4816462993621826
            },
            "position": {
                "x": 0.5540239810943604,
                "y": 0.030875300988554955,
                "z": 0.16403168439865112
            }
        },
        "name": "move_to_storage_A"
    },
    "id": "LazyPRM_move_to_storage_A_47",
    "joint_names": [
        "shoulder_pan_joint",
        "shoulder_lift_joint",
        "elbow_joint",
        "wrist_1_joint",
        "wrist_2_joint",
        "wrist_3_joint"
    ],
    "metrics": {
        "cart_traj_len": 0.35365793503062426,
        "distance_elbow_joint": 0.45206669260566157,
        "distance_shoulder_lift_joint": 0.23559620199122722,
        "distance_shoulder_pan_joint": 0.4604695221226918,
        "distance_wrist_1_joint": 0.2512974519211091,
        "distance_wrist_2_joint": 1.10914267054959,
        "distance_wrist_3_joint": 0.09617646462433038,
        "smoothness": 2.2204460668324854e-16,
        "time": 0.01190992,
        "traj_len": 1.6139234814000971,
        "weighted_distance": 2.0390051631945343
    },
    "planner": "LazyPRM",
    "start": {
        "state": {
            "elbow_joint": 1.97154746011099,
            "shoulder_lift_joint": -1.13948474672311,
            "shoulder_pan_joint": 0.12281154466712228,
            "wrist_1_joint": -0.7804688027058302,
            "wrist_2_joint": 0.12958655903071145,
            "wrist_3_joint": 3.0906928834467795
        }
    },
    "waypoints": [
        {
            "positions": [
                0.12281154466712228,
                -1.13948474672311,
                1.97154746011099,
                -0.7804688027058302,
                0.12958655903071145,
                3.0906928834467795
            ]
        },
        {
            "positions": [
                0.057030184363880604,
                -1.173141347007571,
                2.036128416197513,
                -0.8163684386945601,
                0.2880355119663671,
                3.1044323783931125
            ]
        },
        {
            "positions": [
                -0.008751175939361075,
                -1.206797947292032,
                2.100709372284036,
                -0.8522680746832899,
                0.44648446490202287,
                3.1181718733394455
            ]
        },
        {
            "positions": [
                -0.07453253624260277,
                -1.240454547576493,
                2.1652903283705593,
                -0.8881677106720198,
                0.6049334178376785,
                3.1319113682857784
            ]
        },
        {
            "positions": [
                -0.14031389654584442,
                -1.2741111478609541,
                2.229871284457082,
                -0.9240673466607496,
                0.7633823707733343,
                3.145650863232111
            ]
        },
        {
            "positions": [
                -0.20609525684908614,
                -1.307767748145415,
                2.294452240543605,
                -0.9599669826494795,
                0.92183132370899,
                3.159390358178444
            ]
        },
        {
            "positions": [
                -0.2718766171523278,
                -1.341424348429876,
                2.3590331966301283,
                -0.9958666186382094,
                1.0802802766446455,
                3.173129853124777
            ]
        },
        {
            "positions": [
                -0.3376579774555695,
                -1.3750809487143372,
                2.4236141527166515,
                -1.0317662546269393,
                1.2387292295803014,
                3.18686934807111
            ]
        }
    ]
}{
    "goal": {
        "global_pose": {
            "orientation": {
                "w": 0.5084816217422485,
                "x": -0.49083608388900757,
                "y": 0.5182115435600281,
                "z": -0.4816462993621826
            },
            "position": {
                "x": 0.5540239810943604,
                "y": 0.030875300988554955,
                "z": 0.16403168439865112
            }
        },
        "name": "move_to_storage_A"
    },
    "id": "LazyPRM_move_to_storage_A_47",
    "joint_names": [
        "shoulder_pan_joint",
        "shoulder_lift_joint",
        "elbow_joint",
        "wrist_1_joint",
        "wrist_2_joint",
        "wrist_3_joint"
    ],
    "metrics": {
        "cart_traj_len": 0.35235520766987555,
        "distance_elbow_joint": 0.45290683726722936,
        "distance_shoulder_lift_joint": 0.23500260058737243,
        "distance_shoulder_pan_joint": 0.46045521445789167,
        "distance_wrist_1_joint": 0.2533181254861372,
        "distance_wrist_2_joint": 1.0994435640252542,
        "distance_wrist_3_joint": 0.09016306040367583,
        "smoothness": 6.661338165333112e-16,
        "time": 0.011767643,
        "traj_len": 1.609748241877456,
        "weighted_distance": 2.0308562756990716
    },
    "planner": "LazyPRM",
    "start": {
        "state": {
            "elbow_joint": 1.9715472970024885,
            "shoulder_lift_joint": -1.1394870060712896,
            "shoulder_pan_joint": 0.12281152778156021,
            "wrist_1_joint": -0.780463741449964,
            "wrist_2_joint": 0.12958659822042276,
            "wrist_3_joint": 3.090690232415272
        }
    },
    "waypoints": [
        {
            "positions": [
                0.12281152778156021,
                -1.1394870060712896,
                1.9715472970024885,
                -0.780463741449964,
                0.12958659822042276,
                3.090690232415272
            ]
        },
        {
            "positions": [
                0.05703221143043284,
                -1.1730588061551999,
                2.03624827375495,
                -0.8166520450908408,
                0.2866499645097448,
                3.103570669615797
            ]
        },
        {
            "positions": [
                -0.008747104920694526,
                -1.2066306062391103,
                2.100949250507411,
                -0.8528403487317174,
                0.44371333079906683,
                3.116451106816322
            ]
        },
        {
            "positions": [
                -0.07452642127182191,
                -1.2402024063230206,
                2.1656502272598726,
                -0.8890286523725942,
                0.6007766970883889,
                3.129331544016847
            ]
        },
        {
            "positions": [
                -0.14030573762294926,
                -1.273774206406931,
                2.230351204012334,
                -0.925216956013471,
                0.7578400633777108,
                3.1422119812173723
            ]
        },
        {
            "positions": [
                -0.20608505397407664,
                -1.3073460064908413,
                2.2950521807647952,
                -0.9614052596543476,
                0.9149034296670329,
                3.1550924184178974
            ]
        },
        {
            "positions": [
                -0.27186437032520405,
                -1.3409178065747516,
                2.3597531575172566,
                -0.9975935632952244,
                1.071966795956355,
                3.1679728556184226
            ]
        },
        {
            "positions": [
                -0.33764368667633143,
                -1.374489606658662,
                2.424454134269718,
                -1.0337818669361012,
                1.229030162245677,
                3.1808532928189477
            ]
        }
    ]
}