{
    "goal": {
        "global_pose": {
            "orientation": {
                "w": 0.005598929693374612,
                "x": 0.007748599140229565,
                "y": 0.7110244013736278,
                "z": -0.7031023480610252
            },
            "position": {
                "x": 0.1141497679147869,
                "y": -0.7141253447532654,
                "z": 0.3711530566215515
            }
        },
        "name": "move_to_auspresseinheit_B"
    },
    "id": "LazyPRM_move_to_auspresseinheit_B_93",
    "joint_names": [
        "shoulder_pan_joint",
        "shoulder_lift_joint",
        "elbow_joint",
        "wrist_1_joint",
        "wrist_2_joint",
        "wrist_3_joint"
    ],
    "metrics": {
        "cart_traj_len": 0.5640875284541584,
        "distance_elbow_joint": 0.06388439265658463,
        "distance_shoulder_lift_joint": 0.2943044475629346,
        "distance_shoulder_pan_joint": 0.5776394693644749,
        "distance_wrist_1_joint": 0.3376351316776526,
        "distance_wrist_2_joint": 0.9907645013689104,
        "distance_wrist_3_joint": 0.0020276107439403113,
        "smoothness": 5.075305255429287e-16,
        "time": 0.011817629,
        "traj_len": 1.5054087662075366,
        "weighted_distance": 1.897026728306415
    },
    "planner": "LazyPRM",
    "start": {
        "state": {
            "elbow_joint": 2.0193083361928714,
            "shoulder_lift_joint": -1.1220246554650708,
            "shoulder_pan_joint": -1.0952077554168747,
            "wrist_1_joint": -0.8559753972642168,
            "wrist_2_joint": 0.4759566250798843,
            "wrist_3_joint": -3.1240929996934557
        }
    },
    "waypoints": [
        {
            "positions": [
                -1.0952077554168747,
                -1.1220246554650708,
                2.0193083361928714,
                -0.8559753972642168,
                0.4759566250798843,
                -3.1240929996934557
            ]
        },
        {
            "positions": [
                -1.1914810003109537,
                -1.1710753967255598,
                2.008660937416774,
                -0.7997028753179414,
                0.6410840419747027,
                -3.1237550645694654
            ]
        },
        {
            "positions": [
                -1.287754245205033,
                -1.220126137986049,
                1.9980135386406765,
                -0.743430353371666,
                0.8062114588695211,
                -3.1234171294454756
            ]
        },
        {
            "positions": [
                -1.384027490099112,
                -1.269176879246538,
                1.9873661398645792,
                -0.6871578314253906,
                0.9713388757643395,
                -3.1230791943214857
            ]
        },
        {
            "positions": [
                -1.4803007349931911,
                -1.3182276205070271,
                1.9767187410884817,
                -0.6308853094791151,
                1.1364662926591578,
                -3.1227412591974955
            ]
        },
        {
            "positions": [
                -1.5765739798872704,
                -1.3672783617675164,
                1.9660713423123841,
                -0.5746127875328396,
                1.3015937095539762,
                -3.122403324073505
            ]
        },
        {
            "positions": [
                -1.6728472247813495,
                -1.4163291030280054,
                1.9554239435362868,
                -0.5183402655865642,
                1.4667211264487947,
                -3.1220653889495154
            ]
        }
    ]
}