{
    "goal": {
        "global_pose": {
            "orientation": {
                "w": 0.5084816262002911,
                "x": -0.4908360881923452,
                "y": 0.5182115481033761,
                "z": -0.48164630358495003
            },
            "position": {
                "x": 0.5540239810943604,
                "y": -0.46912469901144505,
                "z": 0.16403168439865112
            }
        },
        "name": "move_to_storage_B"
    },
    "id": "LazyPRMstar_move_to_storage_B_19",
    "joint_names": [
        "shoulder_pan_joint",
        "shoulder_lift_joint",
        "elbow_joint",
        "wrist_1_joint",
        "wrist_2_joint",
        "wrist_3_joint"
    ],
    "metrics": {
        "cart_traj_len": 0.6631599298303948,
        "distance_elbow_joint": 0.35750223915369483,
        "distance_shoulder_lift_joint": 0.4616240483317271,
        "distance_shoulder_pan_joint": 0.18249160773220574,
        "distance_wrist_1_joint": 3.0174898816725126,
        "distance_wrist_2_joint": 2.7044182585102963,
        "distance_wrist_3_joint": 3.1723641901407436,
        "smoothness": 1.9737298371844314e-16,
        "time": 5.033306882,
        "traj_len": 3.145773390684901,
        "weighted_distance": 4.686419395018491
    },
    "planner": "LazyPRMstar",
    "start": {
        "state": {
            "elbow_joint": 1.664937868594044,
            "shoulder_lift_joint": -0.661644460510453,
            "shoulder_pan_joint": -0.9139846352900073,
            "wrist_1_joint": 2.146753192139373,
            "wrist_2_joint": -2.2341966793290973,
            "wrist_3_joint": 0.005466555786416001
        }
    },
    "waypoints": [
        {
            "positions": [
                -0.9139846352900073,
                -0.661644460510453,
                1.664937868594044,
                2.146753192139373,
                -2.2341966793290973,
                0.005466555786416001
            ]
        },
        {
            "positions": [
                -0.9179273248839371,
                -0.7057984749918279,
                1.7472057899329936,
                2.1272637642828442,
                -2.0970665362108285,
                0.07440082825853409
            ]
        },
        {
            "positions": [
                -0.9218700144778671,
                -0.7499524894732029,
                1.829473711271943,
                2.1077743364263153,
                -1.9599363930925595,
                0.14333510073065217
            ]
        },
        {
            "positions": [
                -0.9258127040717969,
                -0.7941065039545778,
                1.9117416326108927,
                2.0882849085697863,
                -1.8228062499742905,
                0.21226937320277026
            ]
        },
        {
            "positions": [
                -0.9332328579392063,
                -0.8084178954714301,
                1.9165546097907555,
                1.9596317956087896,
                -1.7231093878370953,
                0.3412068241907872
            ]
        },
        {
            "positions": [
                -0.9406530118066158,
                -0.8227292869882824,
                1.9213675869706184,
                1.8309786826477927,
                -1.6234125256999001,
                0.4701442751788041
            ]
        },
        {
            "positions": [
                -0.9480731656740251,
                -0.8370406785051346,
                1.9261805641504812,
                1.702325569686796,
                -1.523715663562705,
                0.599081726166821
            ]
        },
        {
            "positions": [
                -0.9554933195414346,
                -0.8513520700219869,
                1.9309935413303443,
                1.5736724567257991,
                -1.4240188014255097,
                0.728019177154838
            ]
        },
        {
            "positions": [
                -0.9629134734088439,
                -0.8656634615388392,
                1.9358065185102071,
                1.4450193437648025,
                -1.3243219392883145,
                0.8569566281428549
            ]
        },
        {
            "positions": [
                -0.9703336272762533,
                -0.8799748530556915,
                1.94061949569007,
                1.3163662308038058,
                -1.2246250771511193,
                0.9858940791308718
            ]
        },
        {
            "positions": [
                -0.9777537811436627,
                -0.8942862445725437,
                1.9454324728699328,
                1.1877131178428089,
                -1.124928215013924,
                1.1148315301188887
            ]
        },
        {
            "positions": [
                -0.9851739350110721,
                -0.908597636089396,
                1.9502454500497957,
                1.0590600048818122,
                -1.025231352876729,
                1.2437689811069057
            ]
        },
        {
            "positions": [
                -0.9925940888784814,
                -0.9229090276062483,
                1.9550584272296585,
                0.9304068919208153,
                -0.9255344907395335,
                1.3727064320949227
            ]
        },
        {
            "positions": [
                -1.000014242745891,
                -0.9372204191231006,
                1.9598714044095213,
                0.8017537789598186,
                -0.8258376286023384,
                1.5016438830829395
            ]
        },
        {
            "positions": [
                -1.0074343966133004,
                -0.9515318106399528,
                1.9646843815893842,
                0.6731006659988219,
                -0.7261407664651431,
                1.6305813340709565
            ]
        },
        {
            "positions": [
                -1.0148545504807096,
                -0.9658432021568051,
                1.9694973587692473,
                0.544447553037825,
                -0.6264439043279479,
                1.7595187850589733
            ]
        },
        {
            "positions": [
                -1.022274704348119,
                -0.9801545936736573,
                1.97431033594911,
                0.4157944400768283,
                -0.5267470421907527,
                1.88845623604699
            ]
        },
        {
            "positions": [
                -1.0296948582155285,
                -0.9944659851905097,
                1.979123313128973,
                0.2871413271158314,
                -0.4270501800535573,
                2.0173936870350073
            ]
        },
        {
            "positions": [
                -1.0371150120829378,
                -1.008777376707362,
                1.9839362903088358,
                0.15848821415483472,
                -0.32735331791636235,
                2.146331138023024
            ]
        },
        {
            "positions": [
                -1.0445351659503472,
                -1.0230887682242142,
                1.9887492674886986,
                0.02983510119383803,
                -0.22765645577916716,
                2.275268589011041
            ]
        },
        {
            "positions": [
                -1.0519553198177567,
                -1.0374001597410665,
                1.9935622446685615,
                -0.09881801176715888,
                -0.12795959364197196,
                2.4042060399990577
            ]
        },
        {
            "positions": [
                -1.059375473685166,
                -1.0517115512579187,
                1.9983752218484243,
                -0.22747112472815578,
                -0.02826273150477654,
                2.533143490987075
            ]
        },
        {
            "positions": [
                -1.0667956275525754,
                -1.066022942774771,
                2.0031881990282874,
                -0.35612423768915225,
                0.07143413063241866,
                2.6620809419750917
            ]
        },
        {
            "positions": [
                -1.0742157814199849,
                -1.0803343342916234,
                2.00800117620815,
                -0.48477735065014915,
                0.17113099276961363,
                2.7910183929631085
            ]
        },
        {
            "positions": [
                -1.0816359352873943,
                -1.0946457258084754,
                2.012814153388013,
                -0.6134304636111456,
                0.27082785490680905,
                2.9199558439511253
            ]
        },
        {
            "positions": [
                -1.0890560891548036,
                -1.1089571173253279,
                2.0176271305678757,
                -0.7420835765721425,
                0.37052471704400425,
                3.0488932949391425
            ]
        },
        {
            "positions": [
                -1.096476243022213,
                -1.12326850884218,
                2.0224401077477387,
                -0.8707366895331395,
                0.4702215791811993,
                3.1778307459271593
            ]
        }
    ]
}