{
    "goal": {
        "global_pose": {
            "orientation": {
                "w": 0.5084816217422485,
                "x": -0.49083608388900757,
                "y": 0.5182115435600281,
                "z": -0.4816462993621826
            },
            "position": {
                "x": 0.5540239810943604,
                "y": 0.030875300988554955,
                "z": 0.16403168439865112
            }
        },
        "name": "move_to_storage_A"
    },
    "id": "LazyPRM_move_to_storage_A_142",
    "joint_names": [
        "shoulder_pan_joint",
        "shoulder_lift_joint",
        "elbow_joint",
        "wrist_1_joint",
        "wrist_2_joint",
        "wrist_3_joint"
    ],
    "metrics": {
        "cart_traj_len": 0.3537647624151513,
        "distance_elbow_joint": 0.4485938528125841,
        "distance_shoulder_lift_joint": 0.23361363471875096,
        "distance_shoulder_pan_joint": 0.46161777462453163,
        "distance_wrist_1_joint": 0.24083691358429304,
        "distance_wrist_2_joint": 1.103544845065344,
        "distance_wrist_3_joint": 0.100166830527046,
        "smoothness": 4.440892133664971e-16,
        "time": 0.022171400999999997,
        "traj_len": 1.6088423948083137,
        "weighted_distance": 2.033000066659192
    },
    "planner": "LazyPRM",
    "start": {
        "state": {
            "elbow_joint": 1.971548259319323,
            "shoulder_lift_joint": -1.1394851275133948,
            "shoulder_pan_joint": 0.1228115487234821,
            "wrist_1_joint": -0.7804723859257726,
            "wrist_2_joint": 0.12958671773740124,
            "wrist_3_joint": -3.192489227718131
        }
    },
    "waypoints": [
        {
            "positions": [
                0.1228115487234821,
                -1.1394851275133948,
                1.971548259319323,
                -0.7804723859257726,
                0.12958671773740124,
                -3.192489227718131
            ]
        },
        {
            "positions": [
                0.05686615234854901,
                -1.1728585039017878,
                2.0356330954354065,
                -0.8148776592949574,
                0.28723598131816463,
                -3.178179680499982
            ]
        },
        {
            "positions": [
                -0.009079244026384076,
                -1.2062318802901808,
                2.09971793155149,
                -0.849282932664142,
                0.4448852448989281,
                -3.1638701332818324
            ]
        },
        {
            "positions": [
                -0.07502464040131715,
                -1.2396052566785738,
                2.1638027676675735,
                -0.8836882060333268,
                0.6025345084796915,
                -3.149560586063683
            ]
        },
        {
            "positions": [
                -0.14097003677625025,
                -1.2729786330669668,
                2.227887603783657,
                -0.9180934794025115,
                0.760183772060455,
                -3.1352510388455332
            ]
        },
        {
            "positions": [
                -0.20691543315118338,
                -1.3063520094553598,
                2.29197243989974,
                -0.9524987527716962,
                0.9178330356412184,
                -3.120941491627384
            ]
        },
        {
            "positions": [
                -0.2728608295261164,
                -1.3397253858437528,
                2.356057276015824,
                -0.9869040261408809,
                1.0754822992219817,
                -3.1066319444092345
            ]
        },
        {
            "positions": [
                -0.33880622590104953,
                -1.3730987622321458,
                2.420142112131907,
                -1.0213092995100657,
                1.2331315628027453,
                -3.092322397191085
            ]
        }
    ]
}{
    "goal": {
        "global_pose": {
            "orientation": {
                "w": 0.5084816217422485,
                "x": -0.49083608388900757,
                "y": 0.5182115435600281,
                "z": -0.4816462993621826
            },
            "position": {
                "x": 0.5540239810943604,
                "y": 0.030875300988554955,
                "z": 0.16403168439865112
            }
        },
        "name": "move_to_storage_A"
    },
    "id": "LazyPRM_move_to_storage_A_142",
    "joint_names": [
        "shoulder_pan_joint",
        "shoulder_lift_joint",
        "elbow_joint",
        "wrist_1_joint",
        "wrist_2_joint",
        "wrist_3_joint"
    ],
    "metrics": {
        "cart_traj_len": 0.35241993856919407,
        "distance_elbow_joint": 0.45271092356821185,
        "distance_shoulder_lift_joint": 0.2342932794254604,
        "distance_shoulder_pan_joint": 0.45691916752360956,
        "distance_wrist_1_joint": 0.2561188833009689,
        "distance_wrist_2_joint": 1.1145624942756254,
        "distance_wrist_3_joint": 0.09587250369516287,
        "smoothness": 4.440892098500626e-16,
        "time": 0.022067994,
        "traj_len": 1.6156971411093848,
        "weighted_distance": 2.0427686204648725
    },
    "planner": "LazyPRM",
    "start": {
        "state": {
            "elbow_joint": 1.97154746011099,
            "shoulder_lift_joint": -1.13948474672311,
            "shoulder_pan_joint": 0.12281154466712228,
            "wrist_1_joint": -0.7804688027058302,
            "wrist_2_joint": 0.12958655903071145,
            "wrist_3_joint": 3.0906928834467795
        }
    },
    "waypoints": [
        {
            "positions": [
                0.12281154466712228,
                -1.13948474672311,
                1.97154746011099,
                -0.7804688027058302,
                0.12958655903071145,
                3.0906928834467795
            ]
        },
        {
            "positions": [
                0.0575373778780352,
                -1.1729552152124614,
                2.036220449192163,
                -0.8170572146059686,
                0.2888097724986579,
                3.1043889554032313
            ]
        },
        {
            "positions": [
                -0.007736788911051881,
                -1.206425683701813,
                2.100893438273336,
                -0.853645626506107,
                0.44803298596660435,
                3.118085027359683
            ]
        },
        {
            "positions": [
                -0.07301095570013895,
                -1.2398961521911644,
                2.165566427354509,
                -0.8902340384062454,
                0.6072561994345509,
                3.131781099316135
            ]
        },
        {
            "positions": [
                -0.13828512248922603,
                -1.2733666206805159,
                2.2302394164356825,
                -0.9268224503063838,
                0.7664794129024973,
                3.145477171272587
            ]
        },
        {
            "positions": [
                -0.20355928927831313,
                -1.3068370891698673,
                2.2949124055168557,
                -0.9634108622065223,
                0.9257026263704439,
                3.1591732432290387
            ]
        },
        {
            "positions": [
                -0.26883345606740017,
                -1.340307557659219,
                2.3595853945980285,
                -0.9999992741066607,
                1.0849258398383903,
                3.1728693151854905
            ]
        },
        {
            "positions": [
                -0.33410762285648726,
                -1.3737780261485704,
                2.4242583836792018,
                -1.036587686006799,
                1.2441490533063368,
                3.1865653871419424
            ]
        }
    ]
}{
    "goal": {
        "global_pose": {
            "orientation": {
                "w": 0.5084816217422485,
                "x": -0.49083608388900757,
                "y": 0.5182115435600281,
                "z": -0.4816462993621826
            },
            "position": {
                "x": 0.5540239810943604,
                "y": 0.030875300988554955,
                "z": 0.16403168439865112
            }
        },
        "name": "move_to_storage_A"
    },
    "id": "LazyPRM_move_to_storage_A_142",
    "joint_names": [
        "shoulder_pan_joint",
        "shoulder_lift_joint",
        "elbow_joint",
        "wrist_1_joint",
        "wrist_2_joint",
        "wrist_3_joint"
    ],
    "metrics": {
        "cart_traj_len": 0.35301798838582416,
        "distance_elbow_joint": 0.45008716236179147,
        "distance_shoulder_lift_joint": 0.2336120444013412,
        "distance_shoulder_pan_joint": 0.4572153075649303,
        "distance_wrist_1_joint": 0.24958417705621505,
        "distance_wrist_2_joint": 1.1168416015556495,
        "distance_wrist_3_joint": 0.10225702279881377,
        "smoothness": 0.0,
        "time": 0.021843361,
        "traj_len": 1.6154248096828094,
        "weighted_distance": 2.0446361876745294
    },
    "planner": "LazyPRM",
    "start": {
        "state": {
            "elbow_joint": 1.9715472970024885,
            "shoulder_lift_joint": -1.1394870060712896,
            "shoulder_pan_joint": 0.12281152778156021,
            "wrist_1_joint": -0.780463741449964,
            "wrist_2_joint": 0.12958659822042276,
            "wrist_3_joint": 3.090690232415272
        }
    },
    "waypoints": [
        {
            "positions": [
                0.12281152778156021,
                -1.1394870060712896,
                1.9715472970024885,
                -0.780463741449964,
                0.12958659822042276,
                3.090690232415272
            ]
        },
        {
            "positions": [
                0.05749505527228446,
                -1.1728601552714812,
                2.035845463054173,
                -0.8161186238865662,
                0.2891353984426584,
                3.105298378529388
            ]
        },
        {
            "positions": [
                -0.007821417236991285,
                -1.2062333044716729,
                2.1001436291058577,
                -0.8517735063231683,
                0.44868419866489406,
                3.1199065246435045
            ]
        },
        {
            "positions": [
                -0.07313788974626703,
                -1.2396064536718645,
                2.164441795157542,
                -0.8874283887597705,
                0.6082329988871297,
                3.134514670757621
            ]
        },
        {
            "positions": [
                -0.13845436225554278,
                -1.272979602872056,
                2.2287399612092265,
                -0.9230832711963726,
                0.7677817991093653,
                3.1491228168717367
            ]
        },
        {
            "positions": [
                -0.20377083476481853,
                -1.3063527520722475,
                2.2930381272609113,
                -0.9587381536329748,
                0.927330599331601,
                3.163730962985853
            ]
        },
        {
            "positions": [
                -0.26908730727409425,
                -1.3397259012724392,
                2.3573362933125956,
                -0.9943930360695769,
                1.0868793995538366,
                3.1783391090999693
            ]
        },
        {
            "positions": [
                -0.33440377978337005,
                -1.3730990504726308,
                2.42163445936428,
                -1.030047918506179,
                1.2464281997760722,
                3.1929472552140856
            ]
        }
    ]
}