{
    "goal": {
        "global_pose": {
            "orientation": {
                "w": 0.5084816217422485,
                "x": -0.49083608388900757,
                "y": 0.5182115435600281,
                "z": -0.4816462993621826
            },
            "position": {
                "x": 0.5540239810943604,
                "y": 0.030875300988554955,
                "z": 0.16403168439865112
            }
        },
        "name": "move_to_storage_A"
    },
    "id": "LazyPRM_move_to_storage_A_133",
    "joint_names": [
        "shoulder_pan_joint",
        "shoulder_lift_joint",
        "elbow_joint",
        "wrist_1_joint",
        "wrist_2_joint",
        "wrist_3_joint"
    ],
    "metrics": {
        "cart_traj_len": 0.35349862531966286,
        "distance_elbow_joint": 0.44966480434497424,
        "distance_shoulder_lift_joint": 0.23310567243641356,
        "distance_shoulder_pan_joint": 0.46299324174593953,
        "distance_wrist_1_joint": 0.24248325787509584,
        "distance_wrist_2_joint": 1.0958207648882288,
        "distance_wrist_3_joint": 0.08984114490290596,
        "smoothness": 6.661338165333112e-16,
        "time": 0.011762951,
        "traj_len": 1.6043406390768633,
        "weighted_distance": 2.022843345086983
    },
    "planner": "LazyPRM",
    "start": {
        "state": {
            "elbow_joint": 1.971548259319323,
            "shoulder_lift_joint": -1.1394851275133948,
            "shoulder_pan_joint": 0.1228115487234821,
            "wrist_1_joint": -0.7804723859257726,
            "wrist_2_joint": 0.12958671773740124,
            "wrist_3_joint": -3.192489227718131
        }
    },
    "waypoints": [
        {
            "positions": [
                0.1228115487234821,
                -1.1394851275133948,
                1.971548259319323,
                -0.7804723859257726,
                0.12958671773740124,
                -3.192489227718131
            ]
        },
        {
            "positions": [
                0.05666965704549075,
                -1.1727859378614538,
                2.035786088511462,
                -0.8151128513365006,
                0.2861325412928625,
                -3.1796547784462876
            ]
        },
        {
            "positions": [
                -0.009472234632500603,
                -1.206086748209513,
                2.1000239177036013,
                -0.8497533167472285,
                0.4426783648483237,
                -3.1668203291744437
            ]
        },
        {
            "positions": [
                -0.07561412631049197,
                -1.239387558557572,
                2.1642617468957406,
                -0.8843937821579565,
                0.599224188403785,
                -3.1539858799026
            ]
        },
        {
            "positions": [
                -0.1417560179884833,
                -1.2726883689056312,
                2.22849957608788,
                -0.9190342475686846,
                0.7557700119592462,
                -3.141151430630756
            ]
        },
        {
            "positions": [
                -0.2078979096664747,
                -1.3059891792536902,
                2.292737405280019,
                -0.9536747129794125,
                0.9123158355147075,
                -3.1283169813589127
            ]
        },
        {
            "positions": [
                -0.27403980134446604,
                -1.3392899896017494,
                2.356975234472158,
                -0.9883151783901405,
                1.0688616590701687,
                -3.1154825320870687
            ]
        },
        {
            "positions": [
                -0.34018169302245743,
                -1.3725907999498084,
                2.4212130636642972,
                -1.0229556438008685,
                1.22540748262563,
                -3.102648082815225
            ]
        }
    ]
}{
    "goal": {
        "global_pose": {
            "orientation": {
                "w": 0.5084816217422485,
                "x": -0.49083608388900757,
                "y": 0.5182115435600281,
                "z": -0.4816462993621826
            },
            "position": {
                "x": 0.5540239810943604,
                "y": 0.030875300988554955,
                "z": 0.16403168439865112
            }
        },
        "name": "move_to_storage_A"
    },
    "id": "LazyPRM_move_to_storage_A_133",
    "joint_names": [
        "shoulder_pan_joint",
        "shoulder_lift_joint",
        "elbow_joint",
        "wrist_1_joint",
        "wrist_2_joint",
        "wrist_3_joint"
    ],
    "metrics": {
        "cart_traj_len": 0.3526711797453977,
        "distance_elbow_joint": 0.45225753013621395,
        "distance_shoulder_lift_joint": 0.2313237066367666,
        "distance_shoulder_pan_joint": 0.4609773601002418,
        "distance_wrist_1_joint": 0.2592569849204507,
        "distance_wrist_2_joint": 1.097367293407721,
        "distance_wrist_3_joint": 0.09213119871853115,
        "smoothness": 7.771561204992932e-16,
        "time": 0.011889873,
        "traj_len": 1.6103769974511948,
        "weighted_distance": 2.033273407509467
    },
    "planner": "LazyPRM",
    "start": {
        "state": {
            "elbow_joint": 1.97154746011099,
            "shoulder_lift_joint": -1.13948474672311,
            "shoulder_pan_joint": 0.12281154466712228,
            "wrist_1_joint": -0.7804688027058302,
            "wrist_2_joint": 0.12958655903071145,
            "wrist_3_joint": 3.0906928834467795
        }
    },
    "waypoints": [
        {
            "positions": [
                0.12281154466712228,
                -1.13948474672311,
                1.97154746011099,
                -0.7804688027058302,
                0.12958655903071145,
                3.0906928834467795
            ]
        },
        {
            "positions": [
                0.056957636081373456,
                -1.1725309905283623,
                2.0361556787018777,
                -0.8175055148373231,
                0.28635331523181445,
                3.1038544832637127
            ]
        },
        {
            "positions": [
                -0.008896272504375372,
                -1.2055772343336146,
                2.100763897292765,
                -0.8545422269688161,
                0.44312007143291743,
                3.1170160830806455
            ]
        },
        {
            "positions": [
                -0.0747501810901242,
                -1.238623478138867,
                2.165372115883653,
                -0.891578939100309,
                0.5998868276340205,
                3.1301776828975787
            ]
        },
        {
            "positions": [
                -0.140604089675873,
                -1.2716697219441193,
                2.229980334474541,
                -0.928615651231802,
                0.7566535838351235,
                3.1433392827145115
            ]
        },
        {
            "positions": [
                -0.20645799826162187,
                -1.3047159657493719,
                2.2945885530654286,
                -0.965652363363295,
                0.9134203400362265,
                3.1565008825314447
            ]
        },
        {
            "positions": [
                -0.27231190684737067,
                -1.3377622095546242,
                2.359196771656316,
                -1.002689075494788,
                1.0701870962373294,
                3.1696624823483774
            ]
        },
        {
            "positions": [
                -0.3381658154331195,
                -1.3708084533598766,
                2.423804990247204,
                -1.0397257876262809,
                1.2269538524384325,
                3.1828240821653107
            ]
        }
    ]
}{
    "goal": {
        "global_pose": {
            "orientation": {
                "w": 0.5084816217422485,
                "x": -0.49083608388900757,
                "y": 0.5182115435600281,
                "z": -0.4816462993621826
            },
            "position": {
                "x": 0.5540239810943604,
                "y": 0.030875300988554955,
                "z": 0.16403168439865112
            }
        },
        "name": "move_to_storage_A"
    },
    "id": "LazyPRM_move_to_storage_A_133",
    "joint_names": [
        "shoulder_pan_joint",
        "shoulder_lift_joint",
        "elbow_joint",
        "wrist_1_joint",
        "wrist_2_joint",
        "wrist_3_joint"
    ],
    "metrics": {
        "cart_traj_len": 0.3531525984485602,
        "distance_elbow_joint": 0.4502905330826388,
        "distance_shoulder_lift_joint": 0.23589944573580213,
        "distance_shoulder_pan_joint": 0.4626544771985669,
        "distance_wrist_1_joint": 0.23972950412289684,
        "distance_wrist_2_joint": 1.0962465105403094,
        "distance_wrist_3_joint": 0.09622339640047795,
        "smoothness": 2.2204460668324854e-16,
        "time": 0.011899702,
        "traj_len": 1.6065627491886807,
        "weighted_distance": 2.0271819539806617
    },
    "planner": "LazyPRM",
    "start": {
        "state": {
            "elbow_joint": 1.9715472970024885,
            "shoulder_lift_joint": -1.1394870060712896,
            "shoulder_pan_joint": 0.12281152778156021,
            "wrist_1_joint": -0.780463741449964,
            "wrist_2_joint": 0.12958659822042276,
            "wrist_3_joint": 3.090690232415272
        }
    },
    "waypoints": [
        {
            "positions": [
                0.12281152778156021,
                -1.1394870060712896,
                1.9715472970024885,
                -0.780463741449964,
                0.12958659822042276,
                3.090690232415272
            ]
        },
        {
            "positions": [
                0.056718031038907796,
                -1.1731869268906898,
                2.035874516014294,
                -0.8147108134675207,
                0.2861932425833241,
                3.1044364319010542
            ]
        },
        {
            "positions": [
                -0.009375465703744618,
                -1.2068868477100902,
                2.1002017350260997,
                -0.8489578854850773,
                0.4427998869462254,
                3.118182631386837
            ]
        },
        {
            "positions": [
                -0.07546896244639703,
                -1.2405867685294905,
                2.1645289540379054,
                -0.8832049575026341,
                0.5994065313091268,
                3.1319288308726194
            ]
        },
        {
            "positions": [
                -0.14156245918904944,
                -1.2742866893488909,
                2.2288561730497105,
                -0.9174520295201908,
                0.7560131756720281,
                3.1456750303584022
            ]
        },
        {
            "positions": [
                -0.20765595593170186,
                -1.307986610168291,
                2.293183392061516,
                -0.9516991015377474,
                0.9126198200349295,
                3.1594212298441846
            ]
        },
        {
            "positions": [
                -0.27374945267435424,
                -1.3416865309876913,
                2.3575106110733217,
                -0.9859461735553041,
                1.0692264643978309,
                3.1731674293299674
            ]
        },
        {
            "positions": [
                -0.33984294941700666,
                -1.3753864518070917,
                2.4218378300851273,
                -1.0201932455728608,
                1.2258331087607321,
                3.18691362881575
            ]
        }
    ]
}