{
    "goal": {
        "global_pose": {
            "orientation": {
                "w": -0.4816463035849501,
                "x": 0.5182115481033762,
                "y": 0.4908360881923453,
                "z": -0.5084816262002911
            },
            "position": {
                "x": -0.8240239810943604,
                "y": 0.19912469901144506,
                "z": 0.16403168439865112
            }
        },
        "name": "move_to_storage_D"
    },
    "id": "LazyPRMstar_move_to_storage_D_36",
    "joint_names": [
        "shoulder_pan_joint",
        "shoulder_lift_joint",
        "elbow_joint",
        "wrist_1_joint",
        "wrist_2_joint",
        "wrist_3_joint"
    ],
    "metrics": {
        "cart_traj_len": 3.580416866032549,
        "distance_elbow_joint": 4.210873742234616,
        "distance_shoulder_lift_joint": 1.2643753187717208,
        "distance_shoulder_pan_joint": 2.8122926844559943,
        "distance_wrist_1_joint": 2.2753989081838535,
        "distance_wrist_2_joint": 0.8835800739571484,
        "distance_wrist_3_joint": 3.145901454730352,
        "smoothness": 0.0008279331682374275,
        "time": 5.018280092,
        "traj_len": 3.820002903445714,
        "weighted_distance": 4.903387000220908
    },
    "planner": "LazyPRMstar",
    "start": {
        "state": {
            "elbow_joint": -2.384821988534728,
            "shoulder_lift_joint": -2.2788054721415256,
            "shoulder_pan_joint": -0.1854694642142757,
            "wrist_1_joint": 1.4845938289331202,
            "wrist_2_joint": 0.17898776772866878,
            "wrist_3_joint": 0.037105688729662994
        }
    },
    "waypoints": [
        {
            "positions": [
                -0.1854694642142757,
                -2.2788054721415256,
                -2.384821988534728,
                1.4845938289331202,
                0.17898776772866878,
                0.037105688729662994
            ]
        },
        {
            "positions": [
                -0.04480929539456227,
                -2.2402119807351886,
                -2.2432045729756163,
                1.4514528147723733,
                0.17860036886790853,
                0.06946965877734251
            ]
        },
        {
            "positions": [
                0.09585087342515117,
                -2.2016184893288515,
                -2.1015871574165046,
                1.4183118006116264,
                0.17821297000714828,
                0.10183362882502203
            ]
        },
        {
            "positions": [
                0.2365110422448646,
                -2.1630249979225145,
                -1.9599697418573927,
                1.3851707864508793,
                0.17782557114638806,
                0.13419759887270155
            ]
        },
        {
            "positions": [
                0.37717121106457807,
                -2.124431506516177,
                -1.818352326298281,
                1.3520297722901324,
                0.1774381722856278,
                0.16656156892038107
            ]
        },
        {
            "positions": [
                0.5178313798842915,
                -2.08583801510984,
                -1.6767349107391691,
                1.3188887581293856,
                0.17705077342486755,
                0.19892553896806056
            ]
        },
        {
            "positions": [
                0.658491548704005,
                -2.047244523703503,
                -1.5351174951800575,
                1.2857477439686387,
                0.1766633745641073,
                0.23128950901574008
            ]
        },
        {
            "positions": [
                0.7991517175237184,
                -2.008651032297166,
                -1.3935000796209458,
                1.2526067298078918,
                0.17627597570334705,
                0.2636534790634196
            ]
        },
        {
            "positions": [
                0.9398118863434318,
                -1.9700575408908287,
                -1.2518826640618341,
                1.2194657156471447,
                0.17588857684258682,
                0.2960174491110992
            ]
        },
        {
            "positions": [
                1.080472055163145,
                -1.9314640494844915,
                -1.1102652485027222,
                1.1863247014863978,
                0.17550117798182657,
                0.3283814191587786
            ]
        },
        {
            "positions": [
                1.2211322239828586,
                -1.8928705580781544,
                -0.9686478329436106,
                1.153183687325651,
                0.17511377912106632,
                0.36074538920645816
            ]
        },
        {
            "positions": [
                1.3617923928025721,
                -1.8542770666718171,
                -0.8270304173844987,
                1.120042673164904,
                0.17472638026030607,
                0.3931093592541377
            ]
        },
        {
            "positions": [
                1.5024525616222855,
                -1.81568357526548,
                -0.6854130018253872,
                1.0869016590041571,
                0.17433898139954584,
                0.42547332930181714
            ]
        },
        {
            "positions": [
                1.643112730441999,
                -1.777090083859143,
                -0.5437955862662753,
                1.05376064484341,
                0.1739515825387856,
                0.4578372993494967
            ]
        },
        {
            "positions": [
                1.7837728992617123,
                -1.738496592452806,
                -0.40217817070716366,
                1.0206196306826631,
                0.17356418367802534,
                0.49020126939717623
            ]
        },
        {
            "positions": [
                1.924433068081426,
                -1.6999031010464687,
                -0.260560755148052,
                0.9874786165219163,
                0.1731767848172651,
                0.5225652394448558
            ]
        },
        {
            "positions": [
                2.065093236901139,
                -1.6613096096401316,
                -0.11894333958894032,
                0.9543376023611694,
                0.17278938595650484,
                0.5549292094925353
            ]
        },
        {
            "positions": [
                2.205753405720853,
                -1.6227161182337944,
                0.022674075970171792,
                0.9211965882004224,
                0.1724019870957446,
                0.5872931795402149
            ]
        },
        {
            "positions": [
                2.346413574540566,
                -1.5841226268274573,
                0.16429149152928346,
                0.8880555740396755,
                0.17201458823498436,
                0.6196571495878943
            ]
        },
        {
            "positions": [
                2.4870737433602796,
                -1.5455291354211202,
                0.305908907088395,
                0.8549145598789285,
                0.1716271893742241,
                0.6520211196355739
            ]
        },
        {
            "positions": [
                2.4944289789856184,
                -1.5175765574184195,
                0.3859164253311052,
                0.7682977367668411,
                0.21774400493226115,
                0.785230910363176
            ]
        },
        {
            "positions": [
                2.5017842146109572,
                -1.4896239794157187,
                0.4659239435738154,
                0.6816809136547536,
                0.2638608204902982,
                0.9184407010907781
            ]
        },
        {
            "positions": [
                2.5091394502362965,
                -1.4616714014130179,
                0.5459314618165256,
                0.5950640905426661,
                0.3099776360483352,
                1.0516504918183802
            ]
        },
        {
            "positions": [
                2.5164946858616353,
                -1.433718823410317,
                0.6259389800592358,
                0.5084472674305787,
                0.35609445160637226,
                1.1848602825459824
            ]
        },
        {
            "positions": [
                2.523849921486974,
                -1.4057662454076163,
                0.7059464983019459,
                0.4218304443184912,
                0.40221126716440936,
                1.3180700732735846
            ]
        },
        {
            "positions": [
                2.531205157112313,
                -1.3778136674049153,
                0.7859540165446561,
                0.33521362120640374,
                0.44832808272244634,
                1.4512798640011868
            ]
        },
        {
            "positions": [
                2.5385603927376517,
                -1.3498610894022145,
                0.8659615347873664,
                0.24859679809431634,
                0.4944448982804834,
                1.584489654728789
            ]
        },
        {
            "positions": [
                2.545915628362991,
                -1.3219085113995137,
                0.9459690530300765,
                0.16197997498222882,
                0.5405617138385204,
                1.717699445456391
            ]
        },
        {
            "positions": [
                2.5532708639883297,
                -1.293955933396813,
                1.0259765712727869,
                0.07536315187014142,
                0.5866785293965575,
                1.8509092361839932
            ]
        },
        {
            "positions": [
                2.5606260996136685,
                -1.2660033553941121,
                1.1059840895154969,
                -0.011253671241946095,
                0.6327953449545946,
                1.9841190269115954
            ]
        },
        {
            "positions": [
                2.5679813352390073,
                -1.2380507773914113,
                1.1859916077582073,
                -0.09787049435403361,
                0.6789121605126316,
                2.117328817639198
            ]
        },
        {
            "positions": [
                2.575336570864346,
                -1.2100981993887105,
                1.2659991260009171,
                -0.18448731746612101,
                0.7250289760706685,
                2.2505386083667998
            ]
        },
        {
            "positions": [
                2.5826918064896853,
                -1.1821456213860095,
                1.3460066442436274,
                -0.27110414057820864,
                0.7711457916287057,
                2.3837483990944017
            ]
        },
        {
            "positions": [
                2.590047042115024,
                -1.1541930433833087,
                1.4260141624863376,
                -0.3577209636902958,
                0.8172626071867426,
                2.516958189822004
            ]
        },
        {
            "positions": [
                2.597402277740363,
                -1.126240465380608,
                1.5060216807290479,
                -0.44433778680238345,
                0.8633794227447797,
                2.6501679805496066
            ]
        },
        {
            "positions": [
                2.6047575133657017,
                -1.0982878873779072,
                1.586029198971758,
                -0.5309546099144709,
                0.9094962383028167,
                2.783377771277208
            ]
        },
        {
            "positions": [
                2.612112748991041,
                -1.0703353093752064,
                1.6660367172144683,
                -0.6175714330265585,
                0.9556130538608538,
                2.9165875620048105
            ]
        },
        {
            "positions": [
                2.6194679846163798,
                -1.0423827313725056,
                1.7460442354571786,
                -0.7041882561386457,
                1.001729869418891,
                3.0497973527324125
            ]
        },
        {
            "positions": [
                2.6268232202417185,
                -1.0144301533698048,
                1.8260517536998886,
                -0.7908050792507334,
                1.047846684976928,
                3.183007143460015
            ]
        }
    ]
}