{
    "goal": {
        "global_pose": {
            "orientation": {
                "w": 0.5084816217422485,
                "x": -0.49083608388900757,
                "y": 0.5182115435600281,
                "z": -0.4816462993621826
            },
            "position": {
                "x": 0.5540239810943604,
                "y": 0.030875300988554955,
                "z": 0.16403168439865112
            }
        },
        "name": "move_to_storage_A"
    },
    "id": "LazyPRM_move_to_storage_A_36",
    "joint_names": [
        "shoulder_pan_joint",
        "shoulder_lift_joint",
        "elbow_joint",
        "wrist_1_joint",
        "wrist_2_joint",
        "wrist_3_joint"
    ],
    "metrics": {
        "cart_traj_len": 0.352860594619132,
        "distance_elbow_joint": 0.4514883110632495,
        "distance_shoulder_lift_joint": 0.23508387377746853,
        "distance_shoulder_pan_joint": 0.4627134164369088,
        "distance_wrist_1_joint": 0.24761454280605089,
        "distance_wrist_2_joint": 1.0933473296004086,
        "distance_wrist_3_joint": 0.1045129783360017,
        "smoothness": 1.3322676295501878e-15,
        "time": 0.021859917,
        "traj_len": 1.6108260154405527,
        "weighted_distance": 2.0358654869854615
    },
    "planner": "LazyPRM",
    "start": {
        "state": {
            "elbow_joint": 1.971548259319323,
            "shoulder_lift_joint": -1.1394851275133948,
            "shoulder_pan_joint": 0.1228115487234821,
            "wrist_1_joint": -0.7804723859257726,
            "wrist_2_joint": 0.12958671773740124,
            "wrist_3_joint": -3.192489227718131
        }
    },
    "waypoints": [
        {
            "positions": [
                0.1228115487234821,
                -1.1394851275133948,
                1.971548259319323,
                -0.7804723859257726,
                0.12958671773740124,
                -3.192489227718131
            ]
        },
        {
            "positions": [
                0.05670963208963799,
                -1.1730685380530332,
                2.0360465894712156,
                -0.8158458920409227,
                0.28577919339460245,
                -3.1775588022415593
            ]
        },
        {
            "positions": [
                -0.009392284544206125,
                -1.2066519485926714,
                2.1005449196231085,
                -0.8512193981560728,
                0.44197166905180363,
                -3.162628376764988
            ]
        },
        {
            "positions": [
                -0.07549420117805022,
                -1.2402353591323099,
                2.1650432497750014,
                -0.886592904271223,
                0.5981641447090049,
                -3.147697951288416
            ]
        },
        {
            "positions": [
                -0.14159611781189435,
                -1.2738187696719483,
                2.2295415799268943,
                -0.9219664103863732,
                0.7543566203662061,
                -3.1327675258118446
            ]
        },
        {
            "positions": [
                -0.20769803444573848,
                -1.3074021802115867,
                2.294039910078787,
                -0.9573399165015233,
                0.9105490960234074,
                -3.1178371003352727
            ]
        },
        {
            "positions": [
                -0.27379995107958255,
                -1.340985590751225,
                2.3585382402306796,
                -0.9927134226166734,
                1.0667415716806086,
                -3.1029066748587013
            ]
        },
        {
            "positions": [
                -0.3399018677134267,
                -1.3745690012908633,
                2.4230365703825725,
                -1.0280869287318235,
                1.2229340473378099,
                -3.0879762493821294
            ]
        }
    ]
}{
    "goal": {
        "global_pose": {
            "orientation": {
                "w": 0.5084816217422485,
                "x": -0.49083608388900757,
                "y": 0.5182115435600281,
                "z": -0.4816462993621826
            },
            "position": {
                "x": 0.5540239810943604,
                "y": 0.030875300988554955,
                "z": 0.16403168439865112
            }
        },
        "name": "move_to_storage_A"
    },
    "id": "LazyPRM_move_to_storage_A_36",
    "joint_names": [
        "shoulder_pan_joint",
        "shoulder_lift_joint",
        "elbow_joint",
        "wrist_1_joint",
        "wrist_2_joint",
        "wrist_3_joint"
    ],
    "metrics": {
        "cart_traj_len": 0.3528666703772056,
        "distance_elbow_joint": 0.4505254343658027,
        "distance_shoulder_lift_joint": 0.23586830125246405,
        "distance_shoulder_pan_joint": 0.4578721731762663,
        "distance_wrist_1_joint": 0.24614533289390383,
        "distance_wrist_2_joint": 1.1142004796917324,
        "distance_wrist_3_joint": 0.09495742619826508,
        "smoothness": 1.3322676295501878e-15,
        "time": 0.021974806,
        "traj_len": 1.6123179424599958,
        "weighted_distance": 2.0371131074539286
    },
    "planner": "LazyPRM",
    "start": {
        "state": {
            "elbow_joint": 1.97154746011099,
            "shoulder_lift_joint": -1.13948474672311,
            "shoulder_pan_joint": 0.12281154466712228,
            "wrist_1_joint": -0.7804688027058302,
            "wrist_2_joint": 0.12958655903071145,
            "wrist_3_joint": 3.0906928834467795
        }
    },
    "waypoints": [
        {
            "positions": [
                0.12281154466712228,
                -1.13948474672311,
                1.97154746011099,
                -0.7804688027058302,
                0.12958655903071145,
                3.0906928834467795
            ]
        },
        {
            "positions": [
                0.057401234213369956,
                -1.1731802183306048,
                2.035908236448962,
                -0.8156324216906736,
                0.28875805612953037,
                3.104258230046532
            ]
        },
        {
            "positions": [
                -0.00800907624038237,
                -1.2068756899380997,
                2.1002690127869337,
                -0.850796040675517,
                0.44792955322834926,
                3.1178235766462836
            ]
        },
        {
            "positions": [
                -0.07341938669413468,
                -1.2405711615455945,
                2.1646297891249056,
                -0.8859596596603604,
                0.6071010503271682,
                3.131388923246036
            ]
        },
        {
            "positions": [
                -0.138829697147887,
                -1.2742666331530894,
                2.228990565462877,
                -0.9211232786452038,
                0.7662725474259872,
                3.144954269845788
            ]
        },
        {
            "positions": [
                -0.20424000760163935,
                -1.3079621047605843,
                2.293351341800849,
                -0.9562868976300472,
                0.9254440445248061,
                3.1585196164455405
            ]
        },
        {
            "positions": [
                -0.26965031805539164,
                -1.3416575763680791,
                2.3577121181388208,
                -0.9914505166148906,
                1.084615541623625,
                3.1720849630452923
            ]
        },
        {
            "positions": [
                -0.335060628509144,
                -1.375353047975574,
                2.4220728944767926,
                -1.026614135599734,
                1.243787038722444,
                3.1856503096450446
            ]
        }
    ]
}{
    "goal": {
        "global_pose": {
            "orientation": {
                "w": 0.5084816217422485,
                "x": -0.49083608388900757,
                "y": 0.5182115435600281,
                "z": -0.4816462993621826
            },
            "position": {
                "x": 0.5540239810943604,
                "y": 0.030875300988554955,
                "z": 0.16403168439865112
            }
        },
        "name": "move_to_storage_A"
    },
    "id": "LazyPRM_move_to_storage_A_36",
    "joint_names": [
        "shoulder_pan_joint",
        "shoulder_lift_joint",
        "elbow_joint",
        "wrist_1_joint",
        "wrist_2_joint",
        "wrist_3_joint"
    ],
    "metrics": {
        "cart_traj_len": 0.35318285098373653,
        "distance_elbow_joint": 0.44916220510626204,
        "distance_shoulder_lift_joint": 0.23476269636870084,
        "distance_shoulder_pan_joint": 0.4598978016188099,
        "distance_wrist_1_joint": 0.24267900344190974,
        "distance_wrist_2_joint": 1.1071077055829015,
        "distance_wrist_3_joint": 0.08944793029358067,
        "smoothness": 4.440892098500626e-16,
        "time": 0.011673579,
        "traj_len": 1.6071892677628745,
        "weighted_distance": 2.0277425655206183
    },
    "planner": "LazyPRM",
    "start": {
        "state": {
            "elbow_joint": 1.9715472970024885,
            "shoulder_lift_joint": -1.1394870060712896,
            "shoulder_pan_joint": 0.12281152778156021,
            "wrist_1_joint": -0.780463741449964,
            "wrist_2_joint": 0.12958659822042276,
            "wrist_3_joint": 3.090690232415272
        }
    },
    "waypoints": [
        {
            "positions": [
                0.12281152778156021,
                -1.1394870060712896,
                1.9715472970024885,
                -0.780463741449964,
                0.12958659822042276,
                3.090690232415272
            ]
        },
        {
            "positions": [
                0.05711184183601595,
                -1.1730245341239611,
                2.0357133263033833,
                -0.815132170513094,
                0.28774484187512295,
                3.1034685081714977
            ]
        },
        {
            "positions": [
                -0.008587844109528314,
                -1.2065620621766326,
                2.0998793556042776,
                -0.8498005995762239,
                0.44590308552982316,
                3.1162467839277235
            ]
        },
        {
            "positions": [
                -0.07428753005507258,
                -1.2400995902293042,
                2.1640453849051724,
                -0.8844690286393538,
                0.6040613291845234,
                3.1290250596839493
            ]
        },
        {
            "positions": [
                -0.13998721600061684,
                -1.2736371182819757,
                2.2282114142060667,
                -0.9191374577024838,
                0.7622195728392236,
                3.141803335440175
            ]
        },
        {
            "positions": [
                -0.20568690194616115,
                -1.3071746463346474,
                2.2923774435069615,
                -0.9538058867656138,
                0.9203778164939238,
                3.154581611196401
            ]
        },
        {
            "positions": [
                -0.27138658789170533,
                -1.340712174387319,
                2.356543472807856,
                -0.9884743158287438,
                1.078536060148624,
                3.1673598869526267
            ]
        },
        {
            "positions": [
                -0.33708627383724965,
                -1.3742497024399905,
                2.4207095021087506,
                -1.0231427448918737,
                1.2366943038033242,
                3.1801381627088525
            ]
        }
    ]
}