{
    "goal": {
        "global_pose": {
            "orientation": {
                "w": -0.4816463035849501,
                "x": 0.5182115481033762,
                "y": 0.4908360881923453,
                "z": -0.5084816262002911
            },
            "position": {
                "x": -0.8240239810943604,
                "y": 0.19912469901144506,
                "z": 0.16403168439865112
            }
        },
        "name": "move_to_storage_D"
    },
    "id": "LazyPRM_move_to_storage_D_125",
    "joint_names": [
        "shoulder_pan_joint",
        "shoulder_lift_joint",
        "elbow_joint",
        "wrist_1_joint",
        "wrist_2_joint",
        "wrist_3_joint"
    ],
    "metrics": {
        "cart_traj_len": 3.7651767486314673,
        "distance_elbow_joint": 4.208799375045511,
        "distance_shoulder_lift_joint": 1.2649402983890325,
        "distance_shoulder_pan_joint": 2.814914830548387,
        "distance_wrist_1_joint": 2.3020480853998926,
        "distance_wrist_2_joint": 0.9166861329104812,
        "distance_wrist_3_joint": 3.137202758694993,
        "smoothness": 0.1393523754393777,
        "time": 0.12207242199999999,
        "traj_len": 3.826825248295027,
        "weighted_distance": 4.913016508896409
    },
    "planner": "LazyPRM",
    "start": {
        "state": {
            "elbow_joint": -2.384821988534728,
            "shoulder_lift_joint": -2.2788054721415256,
            "shoulder_pan_joint": -0.1854694642142757,
            "wrist_1_joint": 1.4845938289331202,
            "wrist_2_joint": 0.17898776772866878,
            "wrist_3_joint": 0.037105688729662994
        }
    },
    "waypoints": [
        {
            "positions": [
                -0.1854694642142757,
                -2.2788054721415256,
                -2.384821988534728,
                1.4845938289331202,
                0.17898776772866878,
                0.037105688729662994
            ]
        },
        {
            "positions": [
                -0.15406817250966406,
                -2.2506832008454167,
                -2.3820392786616735,
                1.5035927467227694,
                0.16100584557504347,
                0.0937492531107676
            ]
        },
        {
            "positions": [
                -0.07404520743557726,
                -2.2173604693348032,
                -2.2723688434647555,
                1.451253955661263,
                0.18571796122616907,
                0.18227837303209818
            ]
        },
        {
            "positions": [
                0.005977757638509551,
                -2.18403773782419,
                -2.1626984082678375,
                1.3989151645997564,
                0.21043007687729465,
                0.27080749295342876
            ]
        },
        {
            "positions": [
                0.0860007227125964,
                -2.1507150063135767,
                -2.0530279730709196,
                1.3465763735382499,
                0.23514219252842028,
                0.3593366128747594
            ]
        },
        {
            "positions": [
                0.16602368778668317,
                -2.1173922748029637,
                -1.9433575378740016,
                1.2942375824767434,
                0.25985430817954586,
                0.44786573279608993
            ]
        },
        {
            "positions": [
                0.24604665286077002,
                -2.08406954329235,
                -1.8336871026770836,
                1.2418987914152368,
                0.28456642383067143,
                0.5363948527174205
            ]
        },
        {
            "positions": [
                0.3260696179348569,
                -2.050746811781737,
                -1.7240166674801656,
                1.1895600003537303,
                0.30927853948179707,
                0.6249239726387512
            ]
        },
        {
            "positions": [
                0.4060925830089436,
                -2.0174240802711236,
                -1.6143462322832476,
                1.1372212092922238,
                0.33399065513292264,
                0.7134530925600817
            ]
        },
        {
            "positions": [
                0.48611554808303037,
                -1.9841013487605106,
                -1.5046757970863296,
                1.0848824182307173,
                0.3587027707840482,
                0.8019822124814122
            ]
        },
        {
            "positions": [
                0.5661385131571173,
                -1.950778617249897,
                -1.3950053618894116,
                1.0325436271692108,
                0.38341488643517385,
                0.8905113324027427
            ]
        },
        {
            "positions": [
                0.6461614782312041,
                -1.9174558857392838,
                -1.2853349266924936,
                0.9802048361077043,
                0.40812700208629943,
                0.9790404523240734
            ]
        },
        {
            "positions": [
                0.7261844433052909,
                -1.8841331542286706,
                -1.1756644914955756,
                0.9278660450461977,
                0.432839117737425,
                1.067569572245404
            ]
        },
        {
            "positions": [
                0.8062074083793778,
                -1.8508104227180573,
                -1.0659940562986576,
                0.8755272539846912,
                0.45755123338855064,
                1.1560986921667347
            ]
        },
        {
            "positions": [
                0.8862303734534643,
                -1.817487691207444,
                -0.9563236211017396,
                0.8231884629231848,
                0.48226334903967616,
                1.244627812088065
            ]
        },
        {
            "positions": [
                0.9662533385275512,
                -1.7841649596968308,
                -0.8466531859048216,
                0.7708496718616783,
                0.5069754646908018,
                1.3331569320093957
            ]
        },
        {
            "positions": [
                1.0462763036016383,
                -1.7508422281862175,
                -0.7369827507079036,
                0.7185108808001718,
                0.5316875803419274,
                1.4216860519307262
            ]
        },
        {
            "positions": [
                1.126299268675725,
                -1.7175194966756042,
                -0.6273123155109857,
                0.6661720897386653,
                0.5563996959930531,
                1.510215171852057
            ]
        },
        {
            "positions": [
                1.2063222337498118,
                -1.684196765164991,
                -0.5176418803140677,
                0.6138332986771587,
                0.5811118116441786,
                1.5987442917733874
            ]
        },
        {
            "positions": [
                1.2863451988238988,
                -1.6508740336543777,
                -0.40797144511714967,
                0.5614945076156522,
                0.6058239272953042,
                1.687273411694718
            ]
        },
        {
            "positions": [
                1.3663681638979854,
                -1.6175513021437644,
                -0.2983010099202317,
                0.5091557165541457,
                0.6305360429464298,
                1.7758025316160486
            ]
        },
        {
            "positions": [
                1.4463911289720723,
                -1.584228570633151,
                -0.18863057472331368,
                0.4568169254926391,
                0.6552481585975554,
                1.8643316515373791
            ]
        },
        {
            "positions": [
                1.5264140940461592,
                -1.5509058391225379,
                -0.07896013952639569,
                0.40447813443113256,
                0.679960274248681,
                1.9528607714587098
            ]
        },
        {
            "positions": [
                1.606437059120246,
                -1.5175831076119244,
                0.030710295670522303,
                0.35213934336962605,
                0.7046723898998066,
                2.0413898913800406
            ]
        },
        {
            "positions": [
                1.6864600241943328,
                -1.4842603761013113,
                0.1403807308674403,
                0.29980055230811953,
                0.7293845055509323,
                2.129919011301371
            ]
        },
        {
            "positions": [
                1.7664829892684197,
                -1.4509376445906979,
                0.2500511660643583,
                0.247461761246613,
                0.7540966212020579,
                2.218448131222702
            ]
        },
        {
            "positions": [
                1.8465059543425064,
                -1.4176149130800848,
                0.3597216012612763,
                0.1951229701851065,
                0.7788087368531834,
                2.3069772511440325
            ]
        },
        {
            "positions": [
                1.9265289194165929,
                -1.3842921815694713,
                0.4693920364581943,
                0.1427841791236002,
                0.8035208525043089,
                2.3955063710653626
            ]
        },
        {
            "positions": [
                2.00655188449068,
                -1.3509694500588583,
                0.5790624716551123,
                0.09044538806209368,
                0.8282329681554346,
                2.484035490986693
            ]
        },
        {
            "positions": [
                2.0865748495647667,
                -1.3176467185482448,
                0.6887329068520303,
                0.03810659700058716,
                0.8529450838065602,
                2.572564610908024
            ]
        },
        {
            "positions": [
                2.1665978146388536,
                -1.2843239870376317,
                0.7984033420489483,
                -0.014232194060919356,
                0.8776571994576857,
                2.6610937308293545
            ]
        },
        {
            "positions": [
                2.2466207797129405,
                -1.2510012555270182,
                0.9080737772458662,
                -0.06657098512242587,
                0.9023693151088114,
                2.749622850750685
            ]
        },
        {
            "positions": [
                2.326643744787027,
                -1.217678524016405,
                1.0177442124427842,
                -0.11890977618393239,
                0.927081430759937,
                2.8381519706720155
            ]
        },
        {
            "positions": [
                2.406666709861114,
                -1.1843557925057917,
                1.1274146476397022,
                -0.1712485672454389,
                0.9517935464110626,
                2.9266810905933465
            ]
        },
        {
            "positions": [
                2.4866896749352008,
                -1.1510330609951784,
                1.2370850828366202,
                -0.22358735830694543,
                0.9765056620621881,
                3.015210210514677
            ]
        },
        {
            "positions": [
                2.5667126400092877,
                -1.1177103294845652,
                1.346755518033538,
                -0.27592614936845195,
                1.0012177777133138,
                3.1037393304360075
            ]
        },
        {
            "positions": [
                2.5823958215904934,
                -1.091749040551547,
                1.4660609851528492,
                -0.4018087172482072,
                1.01584084736796,
                3.1213816096831697
            ]
        },
        {
            "positions": [
                2.5980790031716996,
                -1.065787751618529,
                1.5853664522721607,
                -0.5276912851279625,
                1.0304639170226064,
                3.139023888930332
            ]
        },
        {
            "positions": [
                2.6137621847529053,
                -1.0398264626855112,
                1.704671919391472,
                -0.6535738530077178,
                1.045086986677253,
                3.1566661681774937
            ]
        },
        {
            "positions": [
                2.629445366334111,
                -1.013865173752493,
                1.8239773865107831,
                -0.779456420887473,
                1.0597100563318993,
                3.174308447424656
            ]
        }
    ]
}