{
    "goal": {
        "global_pose": {
            "orientation": {
                "w": 0.5084816262002911,
                "x": -0.4908360881923452,
                "y": 0.5182115481033761,
                "z": -0.48164630358495003
            },
            "position": {
                "x": 0.5540239810943604,
                "y": -0.46912469901144505,
                "z": 0.16403168439865112
            }
        },
        "name": "move_to_storage_B"
    },
    "id": "LazyPRM_move_to_storage_B_31",
    "joint_names": [
        "shoulder_pan_joint",
        "shoulder_lift_joint",
        "elbow_joint",
        "wrist_1_joint",
        "wrist_2_joint",
        "wrist_3_joint"
    ],
    "metrics": {
        "cart_traj_len": 1.225979463309758,
        "distance_elbow_joint": 0.5289035547180552,
        "distance_shoulder_lift_joint": 0.4604440183894507,
        "distance_shoulder_pan_joint": 1.2114630897503045,
        "distance_wrist_1_joint": 3.1113441012708662,
        "distance_wrist_2_joint": 2.6995288671914994,
        "distance_wrist_3_joint": 3.1534278083573377,
        "smoothness": 0.18904736740900369,
        "time": 0.112354694,
        "traj_len": 3.3414235648414152,
        "weighted_distance": 4.825229530794837
    },
    "planner": "LazyPRM",
    "start": {
        "state": {
            "elbow_joint": 1.664937868594044,
            "shoulder_lift_joint": -0.661644460510453,
            "shoulder_pan_joint": -0.9139846352900073,
            "wrist_1_joint": 2.146753192139373,
            "wrist_2_joint": -2.2341966793290973,
            "wrist_3_joint": 0.005466555786416001
        }
    },
    "waypoints": [
        {
            "positions": [
                -0.9139846352900073,
                -0.661644460510453,
                1.664937868594044,
                2.146753192139373,
                -2.2341966793290973,
                0.005466555786416001
            ]
        },
        {
            "positions": [
                -0.7852902852462904,
                -0.7241569816580514,
                1.6427904047441744,
                2.1616863010783702,
                -2.1805896234076005,
                0.03967266331437134
            ]
        },
        {
            "positions": [
                -0.6565959352025734,
                -0.7866695028056498,
                1.6206429408943046,
                2.1766194100173673,
                -2.1269825674861043,
                0.07387877084232668
            ]
        },
        {
            "positions": [
                -0.5279015851588564,
                -0.8491820239532483,
                1.5984954770444348,
                2.1915525189563643,
                -2.0733755115646075,
                0.10808487837028202
            ]
        },
        {
            "positions": [
                -0.39920723511513956,
                -0.9116945451008467,
                1.5763480131945653,
                2.2064856278953613,
                -2.019768455643111,
                0.14229098589823735
            ]
        },
        {
            "positions": [
                -0.427074662698157,
                -0.920110302452809,
                1.5939605611673084,
                2.0844211612747663,
                -1.9203644299028904,
                0.262955121028058
            ]
        },
        {
            "positions": [
                -0.4549420902811745,
                -0.9285260598047712,
                1.6115731091400514,
                1.962356694654171,
                -1.82096040416267,
                0.3836192561578786
            ]
        },
        {
            "positions": [
                -0.48280951786419196,
                -0.9369418171567335,
                1.6291856571127945,
                1.8402922280335758,
                -1.7215563784224492,
                0.5042833912876993
            ]
        },
        {
            "positions": [
                -0.5106769454472094,
                -0.9453575745086958,
                1.6467982050855376,
                1.7182277614129808,
                -1.6221523526822288,
                0.6249475264175199
            ]
        },
        {
            "positions": [
                -0.5385443730302268,
                -0.953773331860658,
                1.6644107530582806,
                1.5961632947923856,
                -1.5227483269420083,
                0.7456116615473407
            ]
        },
        {
            "positions": [
                -0.5664118006132444,
                -0.9621890892126204,
                1.6820233010310237,
                1.4740988281717906,
                -1.4233443012017877,
                0.8662757966771613
            ]
        },
        {
            "positions": [
                -0.5942792281962619,
                -0.9706048465645827,
                1.6996358490037669,
                1.3520343615511954,
                -1.3239402754615672,
                0.986939931806982
            ]
        },
        {
            "positions": [
                -0.6221466557792793,
                -0.979020603916545,
                1.7172483969765098,
                1.2299698949306004,
                -1.2245362497213468,
                1.1076040669368026
            ]
        },
        {
            "positions": [
                -0.6500140833622967,
                -0.9874363612685072,
                1.734860944949253,
                1.1079054283100052,
                -1.1251322239811263,
                1.2282682020666231
            ]
        },
        {
            "positions": [
                -0.6778815109453142,
                -0.9958521186204695,
                1.7524734929219958,
                0.9858409616894099,
                -1.0257281982409059,
                1.348932337196444
            ]
        },
        {
            "positions": [
                -0.7057489385283318,
                -1.0042678759724317,
                1.770086040894739,
                0.8637764950688149,
                -0.9263241725006852,
                1.4695964723262644
            ]
        },
        {
            "positions": [
                -0.7336163661113491,
                -1.012683633324394,
                1.7876985888674821,
                0.7417120284482199,
                -0.8269201467604648,
                1.590260607456085
            ]
        },
        {
            "positions": [
                -0.7614837936943666,
                -1.0210993906763564,
                1.805311136840225,
                0.6196475618276245,
                -0.7275161210202443,
                1.7109247425859058
            ]
        },
        {
            "positions": [
                -0.7893512212773841,
                -1.0295151480283187,
                1.8229236848129682,
                0.49758309520702926,
                -0.6281120952800237,
                1.8315888777157265
            ]
        },
        {
            "positions": [
                -0.8172186488604015,
                -1.037930905380281,
                1.8405362327857113,
                0.3755186285864345,
                -0.5287080695398034,
                1.9522530128455469
            ]
        },
        {
            "positions": [
                -0.845086076443419,
                -1.046346662732243,
                1.8581487807584542,
                0.25345416196583925,
                -0.42930404379958276,
                2.072917147975368
            ]
        },
        {
            "positions": [
                -0.8729535040264365,
                -1.0547624200842054,
                1.8757613287311974,
                0.13138969534524403,
                -0.3299000180593621,
                2.1935812831051886
            ]
        },
        {
            "positions": [
                -0.9008209316094539,
                -1.0631781774361677,
                1.8933738767039405,
                0.009325228724649026,
                -0.23049599231914186,
                2.314245418235009
            ]
        },
        {
            "positions": [
                -0.9286883591924714,
                -1.07159393478813,
                1.9109864246766834,
                -0.11273923789594598,
                -0.1310919665789212,
                2.4349095533648297
            ]
        },
        {
            "positions": [
                -0.9565557867754889,
                -1.0800096921400923,
                1.9285989726494266,
                -0.23480370451654142,
                -0.031687940838700746,
                2.5555736884946505
            ]
        },
        {
            "positions": [
                -0.9844232143585063,
                -1.0884254494920547,
                1.9462115206221697,
                -0.3568681711371364,
                0.06771608490151948,
                2.676237823624471
            ]
        },
        {
            "positions": [
                -1.0122906419415238,
                -1.096841206844017,
                1.9638240685949127,
                -0.4789326377577314,
                0.16712011064174037,
                2.7969019587542916
            ]
        },
        {
            "positions": [
                -1.0401580695245412,
                -1.105256964195979,
                1.9814366165676558,
                -0.6009971043783269,
                0.2665241363819608,
                2.9175660938841124
            ]
        },
        {
            "positions": [
                -1.0680254971075587,
                -1.1136727215479414,
                1.9990491645403987,
                -0.7230615709989214,
                0.36592816212218127,
                3.0382302290139327
            ]
        },
        {
            "positions": [
                -1.0958929246905762,
                -1.1220884788999037,
                2.016661712513142,
                -0.8451260376195167,
                0.46533218786240177,
                3.1588943641437535
            ]
        }
    ]
}