{
    "goal": {
        "global_pose": {
            "orientation": {
                "w": 0.7047431468963623,
                "x": -0.7094548344612122,
                "y": 0.0024358443915843964,
                "z": -0.0022348060738295317
            },
            "position": {
                "x": 0.6094750761985779,
                "y": 0.3671506643295288,
                "z": 0.19426114857196808
            }
        },
        "name": "move_to_magneteinheit_A"
    },
    "id": "LazyPRMstar_move_to_magneteinheit_A_138",
    "joint_names": [
        "shoulder_pan_joint",
        "shoulder_lift_joint",
        "elbow_joint",
        "wrist_1_joint",
        "wrist_2_joint",
        "wrist_3_joint"
    ],
    "metrics": {
        "cart_traj_len": 3.087725373421122,
        "distance_elbow_joint": 3.9194845782085217,
        "distance_shoulder_lift_joint": 0.6396942620854936,
        "distance_shoulder_pan_joint": 2.6084871013200783,
        "distance_wrist_1_joint": 3.498251807536689,
        "distance_wrist_2_joint": 1.4353138546565314,
        "distance_wrist_3_joint": 0.5309464850159266,
        "smoothness": 0.14911488843220844,
        "time": 5.057889884000001,
        "traj_len": 3.55417755448757,
        "weighted_distance": 4.31597459689562
    },
    "planner": "LazyPRMstar",
    "start": {
        "state": {
            "elbow_joint": -1.9196185241190666,
            "shoulder_lift_joint": -1.2443396400964142,
            "shoulder_pan_joint": 2.6996025414629847,
            "wrist_1_joint": -1.5485510000780065,
            "wrist_2_joint": -1.5709468930060704,
            "wrist_3_joint": 0.4420197071253992
        }
    },
    "waypoints": [
        {
            "positions": [
                2.6996025414629847,
                -1.2443396400964142,
                -1.9196185241190666,
                -1.5485510000780065,
                -1.5709468930060704,
                0.4420197071253992
            ]
        },
        {
            "positions": [
                2.600456445254829,
                -1.2203566882334247,
                -1.8407859714209995,
                -1.413071120389932,
                -1.5302632833075205,
                0.4281154053279928
            ]
        },
        {
            "positions": [
                2.5013103490466735,
                -1.1963737363704352,
                -1.7619534187229322,
                -1.2775912407018575,
                -1.4895796736089706,
                0.4142111035305864
            ]
        },
        {
            "positions": [
                2.4021642528385176,
                -1.1723907845074457,
                -1.6831208660248649,
                -1.1421113610137827,
                -1.4488960639104205,
                0.40030680173318
            ]
        },
        {
            "positions": [
                2.3030181566303622,
                -1.1484078326444562,
                -1.6042883133267978,
                -1.0066314813257082,
                -1.4082124542118706,
                0.3864024999357736
            ]
        },
        {
            "positions": [
                2.2038720604222064,
                -1.1244248807814667,
                -1.5254557606287307,
                -0.8711516016376337,
                -1.3675288445133207,
                0.3724981981383672
            ]
        },
        {
            "positions": [
                2.104725964214051,
                -1.1004419289184773,
                -1.4466232079306633,
                -0.7356717219495592,
                -1.3268452348147708,
                0.35859389634096084
            ]
        },
        {
            "positions": [
                2.005579868005895,
                -1.0764589770554878,
                -1.367790655232596,
                -0.6001918422614846,
                -1.2861616251162207,
                0.3446895945435544
            ]
        },
        {
            "positions": [
                1.9064337717977395,
                -1.0524760251924983,
                -1.288958102534529,
                -0.4647119625734102,
                -1.2454780154176708,
                0.33078529274614804
            ]
        },
        {
            "positions": [
                1.807287675589584,
                -1.0284930733295088,
                -1.2101255498364616,
                -0.32923208288533545,
                -1.2047944057191209,
                0.31688099094874167
            ]
        },
        {
            "positions": [
                1.7081415793814283,
                -1.0045101214665193,
                -1.1312929971383945,
                -0.19375220319726094,
                -1.164110796020571,
                0.30297668915133524
            ]
        },
        {
            "positions": [
                1.6089954831732725,
                -0.9805271696035298,
                -1.0524604444403272,
                -0.05827232350918643,
                -1.1234271863220209,
                0.2890723873539288
            ]
        },
        {
            "positions": [
                1.509849386965117,
                -0.9565442177405403,
                -0.97362789174226,
                0.07720755617888808,
                -1.082743576623471,
                0.2751680855565225
            ]
        },
        {
            "positions": [
                1.4107032907569614,
                -0.9325612658775508,
                -0.894795339044193,
                0.2126874358669626,
                -1.042059966924921,
                0.2612637837591161
            ]
        },
        {
            "positions": [
                1.3115571945488056,
                -0.9085783140145614,
                -0.8159627863461254,
                0.3481673155550373,
                -1.0013763572263712,
                0.24735948196170968
            ]
        },
        {
            "positions": [
                1.21241109834065,
                -0.8845953621515719,
                -0.7371302336480583,
                0.4836471952431116,
                -0.9606927475278212,
                0.23345518016430328
            ]
        },
        {
            "positions": [
                1.1132650021324944,
                -0.8606124102885824,
                -0.6582976809499912,
                0.6191270749311861,
                -0.9200091378292713,
                0.2195508783668969
            ]
        },
        {
            "positions": [
                1.0141189059243387,
                -0.8366294584255929,
                -0.5794651282519241,
                0.7546069546192606,
                -0.8793255281307213,
                0.2056465765694905
            ]
        },
        {
            "positions": [
                0.9149728097161829,
                -0.8126465065626034,
                -0.5006325755538565,
                0.8900868343073356,
                -0.8386419184321713,
                0.1917422747720841
            ]
        },
        {
            "positions": [
                0.8158267135080273,
                -0.7886635546996139,
                -0.42180002285578944,
                1.02556671399541,
                -0.7979583087336214,
                0.17783797297467774
            ]
        },
        {
            "positions": [
                0.7166806172998719,
                -0.7646806028366244,
                -0.34296747015772233,
                1.1610465936834846,
                -0.7572746990350715,
                0.1639336711772713
            ]
        },
        {
            "positions": [
                0.617534521091716,
                -0.7406976509736349,
                -0.264134917459655,
                1.2965264733715587,
                -0.7165910893365215,
                0.15002936937986494
            ]
        },
        {
            "positions": [
                0.5183884248835602,
                -0.7167146991106454,
                -0.18530236476158768,
                1.4320063530596336,
                -0.6759074796379715,
                0.13612506758245851
            ]
        },
        {
            "positions": [
                0.41924232867540495,
                -0.692731747247656,
                -0.10646981206352046,
                1.567486232747708,
                -0.6352238699394216,
                0.12222076578505213
            ]
        },
        {
            "positions": [
                0.3758048332649709,
                -0.7016042315529326,
                0.1310752567973037,
                1.6099473890521272,
                -0.6077081541802328,
                0.09472298970978867
            ]
        },
        {
            "positions": [
                0.33236733785453676,
                -0.7104767158582093,
                0.36862032565812786,
                1.6524085453565465,
                -0.580192438421044,
                0.06722521363452522
            ]
        },
        {
            "positions": [
                0.2889298424441027,
                -0.7193492001634859,
                0.6061653945189519,
                1.6948697016609657,
                -0.5526767226618552,
                0.03972743755926175
            ]
        },
        {
            "positions": [
                0.24549234703366862,
                -0.7282216844687626,
                0.8437104633797762,
                1.737330857965385,
                -0.5251610069026663,
                0.012229661483998289
            ]
        },
        {
            "positions": [
                0.20205485162323455,
                -0.7370941687740392,
                1.0812555322406001,
                1.7797920142698043,
                -0.49764529114347755,
                -0.015268114591265175
            ]
        },
        {
            "positions": [
                0.17824770251571467,
                -0.7478527795883378,
                1.3069747287659634,
                1.8205640619389214,
                -0.4339332355339389,
                -0.02437291537570128
            ]
        },
        {
            "positions": [
                0.1544405534081948,
                -0.7586113904026364,
                1.5326939252913268,
                1.8613361096080383,
                -0.37022117992440035,
                -0.03347771616013739
            ]
        },
        {
            "positions": [
                0.13063340430067488,
                -0.769370001216935,
                1.7584131218166903,
                1.9021081572771554,
                -0.30650912431486177,
                -0.04258251694457349
            ]
        },
        {
            "positions": [
                0.10682625519315501,
                -0.7801286120312336,
                1.9841323183420536,
                1.9428802049462726,
                -0.2427970687053231,
                -0.0516873177290096
            ]
        },
        {
            "positions": [
                0.12253707024340425,
                -0.7794391075780759,
                1.9998660540894555,
                1.9360596024338643,
                -0.13563303834953902,
                -0.014447857567491758
            ]
        }
    ]
}