{
    "goal": {
        "global_pose": {
            "orientation": {
                "w": -0.4816463035849501,
                "x": 0.5182115481033762,
                "y": 0.4908360881923453,
                "z": -0.5084816262002911
            },
            "position": {
                "x": -0.8240239810943604,
                "y": -0.300875300988555,
                "z": 0.16403168439865112
            }
        },
        "name": "move_to_storage_C"
    },
    "id": "LazyPRMstar_move_to_storage_C_140",
    "joint_names": [
        "shoulder_pan_joint",
        "shoulder_lift_joint",
        "elbow_joint",
        "wrist_1_joint",
        "wrist_2_joint",
        "wrist_3_joint"
    ],
    "metrics": {
        "cart_traj_len": 0.5761839499713858,
        "distance_elbow_joint": 0.25939148161082093,
        "distance_shoulder_lift_joint": 0.1896748134001487,
        "distance_shoulder_pan_joint": 0.4945702425646257,
        "distance_wrist_1_joint": 0.08119201709664858,
        "distance_wrist_2_joint": 1.0610759368166929,
        "distance_wrist_3_joint": 0.05829570339815815,
        "smoothness": 2.5376526478085547e-16,
        "time": 5.0001703730000004,
        "traj_len": 1.4643087771665835,
        "weighted_distance": 1.8447383433963616
    },
    "planner": "LazyPRMstar",
    "start": {
        "state": {
            "elbow_joint": 2.010868314990456,
            "shoulder_lift_joint": -1.1634956873337592,
            "shoulder_pan_joint": -2.4736205022346125,
            "wrist_1_joint": -0.8367026794202681,
            "wrist_2_joint": 0.6746043897044499,
            "wrist_3_joint": -3.1496632123970403
        }
    },
    "waypoints": [
        {
            "positions": [
                -2.4736205022346125,
                -1.1634956873337592,
                2.010868314990456,
                -0.8367026794202681,
                0.6746043897044499,
                -3.1496632123970403
            ]
        },
        {
            "positions": [
                -2.5560488759953834,
                -1.1318832184337344,
                1.9676364013886523,
                -0.8231706765708267,
                0.8514503791738988,
                -3.1399472618306805
            ]
        },
        {
            "positions": [
                -2.6384772497561544,
                -1.1002707495337096,
                1.924404487786849,
                -0.8096386737213852,
                1.0282963686433475,
                -3.1302313112643207
            ]
        },
        {
            "positions": [
                -2.7209056235169253,
                -1.0686582806336848,
                1.8811725741850454,
                -0.7961066708719438,
                1.2051423581127962,
                -3.1205153606979614
            ]
        },
        {
            "positions": [
                -2.8033339972776963,
                -1.03704581173366,
                1.8379406605832418,
                -0.7825746680225024,
                1.381988347582245,
                -3.1107994101316017
            ]
        },
        {
            "positions": [
                -2.8857623710384672,
                -1.0054333428336353,
                1.7947087469814385,
                -0.769042665173061,
                1.5588343370516942,
                -3.101083459565242
            ]
        },
        {
            "positions": [
                -2.968190744799238,
                -0.9738208739336105,
                1.751476833379635,
                -0.7555106623236195,
                1.7356803265211427,
                -3.091367508998882
            ]
        }
    ]
}