{
    "goal": {
        "global_pose": {
            "orientation": {
                "w": -0.00223480608172531,
                "x": 0.0024358444001904467,
                "y": 0.7094548369677653,
                "z": -0.704743149386269
            },
            "position": {
                "x": -0.37947507619857795,
                "y": -0.6371506643295288,
                "z": 0.19426114857196808
            }
        },
        "name": "move_to_magneteinheit_C"
    },
    "id": "LazyPRMstar_move_to_magneteinheit_C_96",
    "joint_names": [
        "shoulder_pan_joint",
        "shoulder_lift_joint",
        "elbow_joint",
        "wrist_1_joint",
        "wrist_2_joint",
        "wrist_3_joint"
    ],
    "metrics": {
        "cart_traj_len": 0.8510456243172514,
        "distance_elbow_joint": 0.5634755834252103,
        "distance_shoulder_lift_joint": 0.4261339573066383,
        "distance_shoulder_pan_joint": 1.1205388357091264,
        "distance_wrist_1_joint": 0.31422523563079396,
        "distance_wrist_2_joint": 0.8020644267521608,
        "distance_wrist_3_joint": 0.1041483461846795,
        "smoothness": 1.4222752184318543,
        "time": 5.00512582,
        "traj_len": 1.8249894205196393,
        "weighted_distance": 2.157584932224204
    },
    "planner": "LazyPRMstar",
    "start": {
        "state": {
            "elbow_joint": 1.9565354010623817,
            "shoulder_lift_joint": -1.4165861575791021,
            "shoulder_pan_joint": -1.6717766225146293,
            "wrist_1_joint": -0.5286633292919765,
            "wrist_2_joint": 1.472756589071564,
            "wrist_3_joint": -3.1238370188695823
        }
    },
    "waypoints": [
        {
            "positions": [
                -1.6717766225146293,
                -1.4165861575791021,
                1.9565354010623817,
                -0.5286633292919765,
                1.472756589071564,
                -3.1238370188695823
            ]
        },
        {
            "positions": [
                -1.5920144260546694,
                -1.45972186291953,
                2.0644188904548475,
                -0.5315643158751964,
                1.400049616843478,
                -3.1437467144442595
            ]
        },
        {
            "positions": [
                -1.5122522295947094,
                -1.5028575682599583,
                2.172302379847314,
                -0.5344653024584163,
                1.327342644615392,
                -3.1636564100189366
            ]
        },
        {
            "positions": [
                -1.6311022452366082,
                -1.4688851468020776,
                2.2035724452791126,
                -0.5879940296522288,
                1.177460085598188,
                -3.171906999524182
            ]
        },
        {
            "positions": [
                -1.749952260878507,
                -1.4349127253441967,
                2.2348425107109118,
                -0.6415227568460412,
                1.0275775265809841,
                -3.180157589029428
            ]
        },
        {
            "positions": [
                -1.8688022765204058,
                -1.400940303886316,
                2.2661125761427106,
                -0.6950514840398537,
                0.87769496756378,
                -3.188408178534673
            ]
        },
        {
            "positions": [
                -2.013183510763014,
                -1.3443631082943797,
                2.207101609056969,
                -0.7308560747276627,
                0.8260523778952913,
                -3.1792776432348755
            ]
        },
        {
            "positions": [
                -2.1575647450056215,
                -1.2877859127024431,
                2.148090641971228,
                -0.7666606654154715,
                0.7744097882268027,
                -3.170147107935078
            ]
        },
        {
            "positions": [
                -2.3154157086947684,
                -1.2253904671683098,
                2.0801524048845286,
                -0.804774615169121,
                0.722550975273103,
                -3.159489049975081
            ]
        },
        {
            "positions": [
                -2.473266672383916,
                -1.1629950216341762,
                2.012214167797829,
                -0.8428885649227704,
                0.6706921623194031,
                -3.1488309920150845
            ]
        }
    ]
}