{
    "goal": {
        "global_pose": {
            "orientation": {
                "w": 0.005598929693374612,
                "x": 0.007748599140229565,
                "y": 0.7110244013736278,
                "z": -0.7031023480610252
            },
            "position": {
                "x": 0.1141497679147869,
                "y": -0.7141253447532654,
                "z": 0.3711530566215515
            }
        },
        "name": "move_to_auspresseinheit_B"
    },
    "id": "LazyPRM_move_to_auspresseinheit_B_145",
    "joint_names": [
        "shoulder_pan_joint",
        "shoulder_lift_joint",
        "elbow_joint",
        "wrist_1_joint",
        "wrist_2_joint",
        "wrist_3_joint"
    ],
    "metrics": {
        "cart_traj_len": 0.5650441807954207,
        "distance_elbow_joint": 0.06270815168148225,
        "distance_shoulder_lift_joint": 0.2949408961567508,
        "distance_shoulder_pan_joint": 0.579284191660119,
        "distance_wrist_1_joint": 0.33073774136373946,
        "distance_wrist_2_joint": 0.9867370782400124,
        "distance_wrist_3_joint": 0.0018939068318615249,
        "smoothness": 5.075305295617109e-16,
        "time": 0.011818067,
        "traj_len": 1.502099186450071,
        "weighted_distance": 1.8914451086937314
    },
    "planner": "LazyPRM",
    "start": {
        "state": {
            "elbow_joint": 2.0193083361928714,
            "shoulder_lift_joint": -1.1220246554650708,
            "shoulder_pan_joint": -1.0952077554168747,
            "wrist_1_joint": -0.8559753972642168,
            "wrist_2_joint": 0.4759566250798843,
            "wrist_3_joint": -3.1240929996934557
        }
    },
    "waypoints": [
        {
            "positions": [
                -1.0952077554168747,
                -1.1220246554650708,
                2.0193083361928714,
                -0.8559753972642168,
                0.4759566250798843,
                -3.1240929996934557
            ]
        },
        {
            "positions": [
                -1.191755120693561,
                -1.171181471491196,
                2.008856977579291,
                -0.8008524403702602,
                0.640412804786553,
                -3.123777348554812
            ]
        },
        {
            "positions": [
                -1.2883024859702477,
                -1.220338287517321,
                1.9984056189657107,
                -0.7457294834763036,
                0.8048689844932218,
                -3.1234616974161686
            ]
        },
        {
            "positions": [
                -1.3848498512469343,
                -1.2694951035434463,
                1.9879542603521303,
                -0.6906065265823471,
                0.9693251641998906,
                -3.123146046277525
            ]
        },
        {
            "positions": [
                -1.4813972165236207,
                -1.3186519195695714,
                1.97750290173855,
                -0.6354835696883905,
                1.1337813439065592,
                -3.122830395138881
            ]
        },
        {
            "positions": [
                -1.577944581800307,
                -1.3678087355956965,
                1.9670515431249695,
                -0.5803606127944338,
                1.298237523613228,
                -3.1225147440002377
            ]
        },
        {
            "positions": [
                -1.6744919470769937,
                -1.4169655516218216,
                1.9566001845113892,
                -0.5252376559004773,
                1.4626937033198968,
                -3.122199092861594
            ]
        }
    ]
}