{
    "goal": {
        "global_pose": {
            "orientation": {
                "w": 0.005598929693374612,
                "x": 0.007748599140229565,
                "y": 0.7110244013736278,
                "z": -0.7031023480610252
            },
            "position": {
                "x": -0.8858502320852131,
                "y": -0.7141253447532654,
                "z": 0.3711530566215515
            }
        },
        "name": "move_to_auspresseinheit_C"
    },
    "id": "LazyPRMstar_move_to_auspresseinheit_C_18",
    "joint_names": [
        "shoulder_pan_joint",
        "shoulder_lift_joint",
        "elbow_joint",
        "wrist_1_joint",
        "wrist_2_joint",
        "wrist_3_joint"
    ],
    "metrics": {
        "cart_traj_len": 0.49279707032261233,
        "distance_elbow_joint": 1.0062284065313665,
        "distance_shoulder_lift_joint": 0.32761840174380163,
        "distance_shoulder_pan_joint": 0.2559174304274201,
        "distance_wrist_1_joint": 0.6976795654338981,
        "distance_wrist_2_joint": 1.304628825857995,
        "distance_wrist_3_joint": 0.06890336298869437,
        "smoothness": 3.2297397335745243e-16,
        "time": 5.001188663,
        "traj_len": 1.9133677098203512,
        "weighted_distance": 2.408545434541864
    },
    "planner": "LazyPRMstar",
    "start": {
        "state": {
            "elbow_joint": 1.7527959577737207,
            "shoulder_lift_joint": -0.9740617694225068,
            "shoulder_pan_joint": -2.967991417825858,
            "wrist_1_joint": -0.759517768980727,
            "wrist_2_joint": 1.7443932448377408,
            "wrist_3_joint": -3.0840537646736568
        }
    },
    "waypoints": [
        {
            "positions": [
                -2.967991417825858,
                -0.9740617694225068,
                1.7527959577737207,
                -0.759517768980727,
                1.7443932448377408,
                -3.0840537646736568
            ]
        },
        {
            "positions": [
                -2.942399674783116,
                -0.9412999292481266,
                1.652173117120584,
                -0.6897498124373371,
                1.6139303622519414,
                -3.0909441009725263
            ]
        },
        {
            "positions": [
                -2.916807931740374,
                -0.9085380890737464,
                1.5515502764674474,
                -0.6199818558939474,
                1.4834674796661418,
                -3.0978344372713957
            ]
        },
        {
            "positions": [
                -2.8912161886976318,
                -0.8757762488993663,
                1.4509274358143107,
                -0.5502138993505575,
                1.3530045970803424,
                -3.104724773570265
            ]
        },
        {
            "positions": [
                -2.86562444565489,
                -0.8430144087249861,
                1.350304595161174,
                -0.4804459428071677,
                1.2225417144945427,
                -3.1116151098691347
            ]
        },
        {
            "positions": [
                -2.840032702612148,
                -0.8102525685506059,
                1.2496817545080374,
                -0.4106779862637779,
                1.0920788319087433,
                -3.1185054461680037
            ]
        },
        {
            "positions": [
                -2.814440959569406,
                -0.7774907283762258,
                1.1490589138549008,
                -0.3409100297203881,
                0.9616159493229438,
                -3.125395782466873
            ]
        },
        {
            "positions": [
                -2.788849216526664,
                -0.7447288882018457,
                1.0484360732017641,
                -0.2711420731769983,
                0.8311530667371444,
                -3.1322861187657427
            ]
        },
        {
            "positions": [
                -2.7632574734839217,
                -0.7119670480274655,
                0.9478132325486275,
                -0.20137411663360838,
                0.7006901841513449,
                -3.139176455064612
            ]
        },
        {
            "positions": [
                -2.73766573044118,
                -0.6792052078530852,
                0.8471903918954908,
                -0.13160616009021864,
                0.5702273015655452,
                -3.1460667913634817
            ]
        },
        {
            "positions": [
                -2.712073987398438,
                -0.6464433676787051,
                0.7465675512423541,
                -0.061838203546828834,
                0.4397644189797457,
                -3.152957127662351
            ]
        }
    ]
}