{
    "goal": {
        "global_pose": {
            "orientation": {
                "w": 0.5084816262002911,
                "x": -0.4908360881923452,
                "y": 0.5182115481033761,
                "z": -0.48164630358495003
            },
            "position": {
                "x": 0.5540239810943604,
                "y": -0.46912469901144505,
                "z": 0.16403168439865112
            }
        },
        "name": "move_to_storage_B"
    },
    "id": "LazyPRMstar_move_to_storage_B_138",
    "joint_names": [
        "shoulder_pan_joint",
        "shoulder_lift_joint",
        "elbow_joint",
        "wrist_1_joint",
        "wrist_2_joint",
        "wrist_3_joint"
    ],
    "metrics": {
        "cart_traj_len": 0.8087385533577985,
        "distance_elbow_joint": 0.7288528404686843,
        "distance_shoulder_lift_joint": 0.459849746557923,
        "distance_shoulder_pan_joint": 0.2547858373463062,
        "distance_wrist_1_joint": 3.003668577174471,
        "distance_wrist_2_joint": 2.7053675547312563,
        "distance_wrist_3_joint": 3.124619612649346,
        "smoothness": 0.04220386701356588,
        "time": 5.059912854,
        "traj_len": 3.205798522822042,
        "weighted_distance": 4.715444785609563
    },
    "planner": "LazyPRMstar",
    "start": {
        "state": {
            "elbow_joint": 1.664937868594044,
            "shoulder_lift_joint": -0.661644460510453,
            "shoulder_pan_joint": -0.9139846352900073,
            "wrist_1_joint": 2.146753192139373,
            "wrist_2_joint": -2.2341966793290973,
            "wrist_3_joint": 0.005466555786416001
        }
    },
    "waypoints": [
        {
            "positions": [
                -0.9139846352900073,
                -0.661644460510453,
                1.664937868594044,
                2.146753192139373,
                -2.2341966793290973,
                0.005466555786416001
            ]
        },
        {
            "positions": [
                -0.9338652112112452,
                -0.6949480367141682,
                1.7141188545251713,
                2.0578449050145555,
                -2.156066772961544,
                -0.11091051111159313
            ]
        },
        {
            "positions": [
                -0.9537457871324833,
                -0.7282516129178832,
                1.7632998404562985,
                1.9689366178897378,
                -2.077936866593991,
                -0.22728757800960225
            ]
        },
        {
            "positions": [
                -0.9736263630537212,
                -0.7615551891215984,
                1.812480826387426,
                1.8800283307649204,
                -1.999806960226438,
                -0.34366464490761134
            ]
        },
        {
            "positions": [
                -0.9935069389749592,
                -0.7948587653253134,
                1.861661812318553,
                1.7911200436401027,
                -1.9216770538588848,
                -0.4600417118056205
            ]
        },
        {
            "positions": [
                -1.0133875148961973,
                -0.8281623415290286,
                1.9108427982496805,
                1.702211756515285,
                -1.8435471474913316,
                -0.5764187787036297
            ]
        },
        {
            "positions": [
                -1.0332680908174352,
                -0.8614659177327436,
                1.9600237841808077,
                1.6133034693904675,
                -1.7654172411237785,
                -0.6927958456016388
            ]
        },
        {
            "positions": [
                -1.0531486667386731,
                -0.8947694939364588,
                2.009204770111935,
                1.5243951822656499,
                -1.6872873347562254,
                -0.8091729124996478
            ]
        },
        {
            "positions": [
                -1.073029242659911,
                -0.9280730701401738,
                2.0583857560430623,
                1.4354868951408322,
                -1.6091574283886723,
                -0.925549979397657
            ]
        },
        {
            "positions": [
                -1.0929098185811492,
                -0.961376646343889,
                2.10756674197419,
                1.3465786080160145,
                -1.5310275220211191,
                -1.0419270462956662
            ]
        },
        {
            "positions": [
                -1.1127903945023871,
                -0.9946802225476041,
                2.156747727905317,
                1.2576703208911968,
                -1.452897615653566,
                -1.1583041131936753
            ]
        },
        {
            "positions": [
                -1.132670970423625,
                -1.0279837987513192,
                2.2059287138364443,
                1.168762033766379,
                -1.3747677092860129,
                -1.2746811800916844
            ]
        },
        {
            "positions": [
                -1.130414751535332,
                -1.0338281992711353,
                2.1941873391348015,
                1.042157195091287,
                -1.259396547743002,
                -1.3899606723898872
            ]
        },
        {
            "positions": [
                -1.128158532647039,
                -1.0396725997909513,
                2.1824459644331586,
                0.9155523564161947,
                -1.1440253861999912,
                -1.5052401646880902
            ]
        },
        {
            "positions": [
                -1.125902313758746,
                -1.0455170003107672,
                2.1707045897315163,
                0.7889475177411025,
                -1.0286542246569805,
                -1.620519656986293
            ]
        },
        {
            "positions": [
                -1.123646094870453,
                -1.0513614008305834,
                2.1589632150298734,
                0.6623426790660103,
                -0.9132830631139697,
                -1.735799149284496
            ]
        },
        {
            "positions": [
                -1.12138987598216,
                -1.0572058013503995,
                2.1472218403282306,
                0.5357378403909181,
                -0.7979119015709588,
                -1.8510786415826987
            ]
        },
        {
            "positions": [
                -1.119133657093867,
                -1.0630502018702155,
                2.1354804656265878,
                0.4091330017158259,
                -0.682540740027948,
                -1.9663581338809015
            ]
        },
        {
            "positions": [
                -1.116877438205574,
                -1.0688946023900314,
                2.123739090924945,
                0.2825281630407337,
                -0.5671695784849372,
                -2.0816376261791043
            ]
        },
        {
            "positions": [
                -1.1146212193172809,
                -1.0747390029098476,
                2.1119977162233026,
                0.1559233243656415,
                -0.45179841694192635,
                -2.196917118477307
            ]
        },
        {
            "positions": [
                -1.1123650004289878,
                -1.0805834034296637,
                2.1002563415216597,
                0.02931848569054929,
                -0.3364272553989156,
                -2.3121966107755103
            ]
        },
        {
            "positions": [
                -1.1101087815406947,
                -1.0864278039494797,
                2.088514966820017,
                -0.09728635298454291,
                -0.22105609385590475,
                -2.427476103073713
            ]
        },
        {
            "positions": [
                -1.1078525626524018,
                -1.0922722044692956,
                2.076773592118374,
                -0.2238911916596351,
                -0.10568493231289389,
                -2.542755595371916
            ]
        },
        {
            "positions": [
                -1.1055963437641088,
                -1.0981166049891118,
                2.0650322174167313,
                -0.3504960303347273,
                0.009686229230116972,
                -2.6580350876701186
            ]
        },
        {
            "positions": [
                -1.1033401248758157,
                -1.103961005508928,
                2.0532908427150884,
                -0.4771008690098195,
                0.12505739077312783,
                -2.7733145799683214
            ]
        },
        {
            "positions": [
                -1.1010839059875228,
                -1.109805406028744,
                2.041549468013446,
                -0.6037057076849117,
                0.24042855231613847,
                -2.8885940722665246
            ]
        },
        {
            "positions": [
                -1.0988276870992297,
                -1.1156498065485598,
                2.0298080933118032,
                -0.7303105463600039,
                0.3557997138591493,
                -3.0038735645647274
            ]
        },
        {
            "positions": [
                -1.0965714682109367,
                -1.121494207068376,
                2.0180667186101604,
                -0.8569153850350962,
                0.4711708754021602,
                -3.11915305686293
            ]
        }
    ]
}