{
    "goal": {
        "global_pose": {
            "orientation": {
                "w": 0.005598929693374612,
                "x": 0.007748599140229565,
                "y": 0.7110244013736278,
                "z": -0.7031023480610252
            },
            "position": {
                "x": -0.8858502320852131,
                "y": -0.7141253447532654,
                "z": 0.3711530566215515
            }
        },
        "name": "move_to_auspresseinheit_C"
    },
    "id": "LazyPRM_move_to_auspresseinheit_C_133",
    "joint_names": [
        "shoulder_pan_joint",
        "shoulder_lift_joint",
        "elbow_joint",
        "wrist_1_joint",
        "wrist_2_joint",
        "wrist_3_joint"
    ],
    "metrics": {
        "cart_traj_len": 0.49309846975976074,
        "distance_elbow_joint": 0.9967653982813458,
        "distance_shoulder_lift_joint": 0.32289439906627804,
        "distance_shoulder_pan_joint": 0.25636369577697327,
        "distance_wrist_1_joint": 0.6720717078252877,
        "distance_wrist_2_joint": 1.3083276723781796,
        "distance_wrist_3_joint": 0.059811475462353325,
        "smoothness": 4.844609574787718e-16,
        "time": 0.022777489,
        "traj_len": 1.901639910390613,
        "weighted_distance": 2.3908694401657717
    },
    "planner": "LazyPRM",
    "start": {
        "state": {
            "elbow_joint": 1.7527959577737207,
            "shoulder_lift_joint": -0.9740617694225068,
            "shoulder_pan_joint": -2.967991417825858,
            "wrist_1_joint": -0.759517768980727,
            "wrist_2_joint": 1.7443932448377408,
            "wrist_3_joint": -3.0840537646736568
        }
    },
    "waypoints": [
        {
            "positions": [
                -2.967991417825858,
                -0.9740617694225068,
                1.7527959577737207,
                -0.759517768980727,
                1.7443932448377408,
                -3.0840537646736568
            ]
        },
        {
            "positions": [
                -2.9423550482481606,
                -0.941772329515879,
                1.6531194179455861,
                -0.6923105981981982,
                1.6135604775999228,
                -3.0900349122198922
            ]
        },
        {
            "positions": [
                -2.9167186786704633,
                -0.9094828896092512,
                1.5534428781174514,
                -0.6251034274156695,
                1.4827277103621048,
                -3.0960160597661273
            ]
        },
        {
            "positions": [
                -2.891082309092766,
                -0.8771934497026234,
                1.453766338289317,
                -0.5578962566331407,
                1.351894943124287,
                -3.1019972073123627
            ]
        },
        {
            "positions": [
                -2.8654459395150687,
                -0.8449040097959956,
                1.3540897984611824,
                -0.4906890858506119,
                1.2210621758864688,
                -3.107978354858598
            ]
        },
        {
            "positions": [
                -2.8398095699373713,
                -0.8126145698893678,
                1.2544132586330479,
                -0.42348191506808314,
                1.090229408648651,
                -3.1139595024048337
            ]
        },
        {
            "positions": [
                -2.814173200359674,
                -0.78032512998274,
                1.1547367188049131,
                -0.3562747442855544,
                0.9593966414108331,
                -3.1199406499510687
            ]
        },
        {
            "positions": [
                -2.7885368307819767,
                -0.7480356900761121,
                1.0550601789767786,
                -0.28906757350302564,
                0.8285638741730151,
                -3.125921797497304
            ]
        },
        {
            "positions": [
                -2.7629004612042793,
                -0.7157462501694843,
                0.955383639148644,
                -0.22186040272049679,
                0.697731106935197,
                -3.1319029450435396
            ]
        },
        {
            "positions": [
                -2.737264091626582,
                -0.6834568102628565,
                0.8557070993205094,
                -0.1546532319379681,
                0.5668983396973792,
                -3.1378840925897746
            ]
        },
        {
            "positions": [
                -2.7116277220488847,
                -0.6511673703562287,
                0.7560305594923749,
                -0.08744606115543929,
                0.43606557245956135,
                -3.14386524013601
            ]
        }
    ]
}