{
    "goal": {
        "global_pose": {
            "orientation": {
                "w": 0.7031023502349854,
                "x": -0.7110244035720825,
                "y": 0.007748599164187908,
                "z": 0.005598929710686207
            },
            "position": {
                "x": 0.11585023208521307,
                "y": 0.44412534475326537,
                "z": 0.3711530566215515
            }
        },
        "name": "move_to_auspresseinheit_A"
    },
    "id": "LazyPRMstar_move_to_auspresseinheit_A_111",
    "joint_names": [
        "shoulder_pan_joint",
        "shoulder_lift_joint",
        "elbow_joint",
        "wrist_1_joint",
        "wrist_2_joint",
        "wrist_3_joint"
    ],
    "metrics": {
        "cart_traj_len": 1.623362957253294,
        "distance_elbow_joint": 0.08153275432446883,
        "distance_shoulder_lift_joint": 0.6435723506654889,
        "distance_shoulder_pan_joint": 3.137252508118229,
        "distance_wrist_1_joint": 0.8610111548479811,
        "distance_wrist_2_joint": 0.5172389655859847,
        "distance_wrist_3_joint": 0.15203231000562933,
        "smoothness": 1.365503372434018,
        "time": 5.007711791,
        "traj_len": 2.3222058572718702,
        "weighted_distance": 2.659878716030678
    },
    "planner": "LazyPRMstar",
    "start": {
        "state": {
            "elbow_joint": 2.4225746658250005,
            "shoulder_lift_joint": -1.3736534386056498,
            "shoulder_pan_joint": -0.3378633547517467,
            "wrist_1_joint": -1.0288598680537169,
            "wrist_2_joint": 1.233022673432363,
            "wrist_3_joint": -3.0940220416140027
        }
    },
    "waypoints": [
        {
            "positions": [
                -0.3378633547517467,
                -1.3736534386056498,
                2.4225746658250005,
                -1.0288598680537169,
                1.233022673432363,
                -3.0940220416140027
            ]
        },
        {
            "positions": [
                -0.5120305525177022,
                -1.4717421426118993,
                2.4267250128372537,
                -1.0528846480766396,
                1.1932537108442127,
                -3.0849762570519403
            ]
        },
        {
            "positions": [
                -0.6861977502836578,
                -1.5698308466181488,
                2.4308753598495074,
                -1.0769094280995621,
                1.1534847482560624,
                -3.0759304724898775
            ]
        },
        {
            "positions": [
                -0.8603649480496134,
                -1.6679195506243982,
                2.4350257068617607,
                -1.1009342081224847,
                1.113715785667912,
                -3.066884687927815
            ]
        },
        {
            "positions": [
                -1.034532145815569,
                -1.7660082546306477,
                2.439176053874014,
                -1.1249589881454074,
                1.0739468230797617,
                -3.0578389033657527
            ]
        },
        {
            "positions": [
                -1.2086993435815245,
                -1.8640969586368972,
                2.4433264008862676,
                -1.1489837681683301,
                1.0341778604916114,
                -3.04879311880369
            ]
        },
        {
            "positions": [
                -1.38286654134748,
                -1.9621856626431466,
                2.447476747898521,
                -1.1730085481912527,
                0.9944088979034611,
                -3.0397473342416275
            ]
        },
        {
            "positions": [
                -1.1503943945116473,
                -1.956070093017814,
                2.4411844509817486,
                -1.0933571621123144,
                0.9634505434526741,
                -3.050609290089767
            ]
        },
        {
            "positions": [
                -0.9179222476758144,
                -1.9499545233924818,
                2.434892154064977,
                -1.0137057760333759,
                0.9324921890018871,
                -3.061471245937906
            ]
        },
        {
            "positions": [
                -0.6854501008399816,
                -1.9438389537671492,
                2.4285998571482046,
                -0.9340543899544376,
                0.9015338345511001,
                -3.0723332017860456
            ]
        },
        {
            "positions": [
                -0.45297795400414875,
                -1.9377233841418169,
                2.422307560231433,
                -0.8544030038754993,
                0.8705754801003132,
                -3.0831951576341847
            ]
        },
        {
            "positions": [
                -0.22050580716831591,
                -1.9316078145164843,
                2.4160152633146605,
                -0.7747516177965608,
                0.8396171256495262,
                -3.0940571134823243
            ]
        },
        {
            "positions": [
                0.011966339667516923,
                -1.925492244891152,
                2.4097229663978887,
                -0.6951002317176225,
                0.8086587711987393,
                -3.1049190693304634
            ]
        },
        {
            "positions": [
                0.24443848650334976,
                -1.9193766752658195,
                2.4034306694811165,
                -0.6154488456386841,
                0.7777004167479523,
                -3.115781025178603
            ]
        },
        {
            "positions": [
                0.4769106333391826,
                -1.9132611056404871,
                2.3971383725643447,
                -0.5357974595597458,
                0.7467420622971653,
                -3.126642981026742
            ]
        },
        {
            "positions": [
                0.7093827801750154,
                -1.9071455360151546,
                2.3908460756475725,
                -0.45614607348080743,
                0.7157837078463783,
                -3.1375049368748815
            ]
        }
    ]
}