{
    "goal": {
        "global_pose": {
            "orientation": {
                "w": 0.005598929693374612,
                "x": 0.007748599140229565,
                "y": 0.7110244013736278,
                "z": -0.7031023480610252
            },
            "position": {
                "x": -0.8858502320852131,
                "y": -0.7141253447532654,
                "z": 0.3711530566215515
            }
        },
        "name": "move_to_auspresseinheit_C"
    },
    "id": "LazyPRMstar_move_to_auspresseinheit_C_90",
    "joint_names": [
        "shoulder_pan_joint",
        "shoulder_lift_joint",
        "elbow_joint",
        "wrist_1_joint",
        "wrist_2_joint",
        "wrist_3_joint"
    ],
    "metrics": {
        "cart_traj_len": 0.49338743711917843,
        "distance_elbow_joint": 0.9940617866138362,
        "distance_shoulder_lift_joint": 0.32152033759677157,
        "distance_shoulder_pan_joint": 0.25744279832518435,
        "distance_wrist_1_joint": 0.6717135630964218,
        "distance_wrist_2_joint": 1.3025176048564138,
        "distance_wrist_3_joint": 0.05417206120409945,
        "smoothness": 4.844609574787718e-16,
        "time": 5.001525615,
        "traj_len": 1.8977429097990925,
        "weighted_distance": 2.384114813102289
    },
    "planner": "LazyPRMstar",
    "start": {
        "state": {
            "elbow_joint": 1.7527959577737207,
            "shoulder_lift_joint": -0.9740617694225068,
            "shoulder_pan_joint": -2.967991417825858,
            "wrist_1_joint": -0.759517768980727,
            "wrist_2_joint": 1.7443932448377408,
            "wrist_3_joint": -3.0840537646736568
        }
    },
    "waypoints": [
        {
            "positions": [
                -2.967991417825858,
                -0.9740617694225068,
                1.7527959577737207,
                -0.759517768980727,
                1.7443932448377408,
                -3.0840537646736568
            ]
        },
        {
            "positions": [
                -2.9422471379933395,
                -0.9419097356628297,
                1.653389779112337,
                -0.6923464126710848,
                1.6141414843520994,
                -3.089470970794067
            ]
        },
        {
            "positions": [
                -2.916502858160821,
                -0.9097577019031524,
                1.5539836004509535,
                -0.6251750563614427,
                1.4838897238664581,
                -3.0948881769144765
            ]
        },
        {
            "positions": [
                -2.8907585783283025,
                -0.8776056681434753,
                1.45457742178957,
                -0.5580037000518004,
                1.3536379633808167,
                -3.1003053830348866
            ]
        },
        {
            "positions": [
                -2.865014298495784,
                -0.8454536343837982,
                1.3551712431281862,
                -0.49083234374215823,
                1.2233862028951754,
                -3.1057225891552966
            ]
        },
        {
            "positions": [
                -2.8392700186632656,
                -0.8133016006241209,
                1.2557650644668026,
                -0.42366098743251607,
                1.093134442409534,
                -3.1111397952757063
            ]
        },
        {
            "positions": [
                -2.8135257388307475,
                -0.7811495668644438,
                1.156358885805419,
                -0.3564896311228739,
                0.9628826819238926,
                -3.1165570013961164
            ]
        },
        {
            "positions": [
                -2.787781458998229,
                -0.7489975331047667,
                1.0569527071440354,
                -0.28931827481323175,
                0.8326309214382512,
                -3.1219742075165264
            ]
        },
        {
            "positions": [
                -2.7620371791657106,
                -0.7168454993450895,
                0.9575465284826516,
                -0.22214691850358947,
                0.7023791609526098,
                -3.1273914136369365
            ]
        },
        {
            "positions": [
                -2.736292899333192,
                -0.6846934655854123,
                0.8581403498212681,
                -0.15497556219394737,
                0.5721274004669683,
                -3.132808619757346
            ]
        },
        {
            "positions": [
                -2.7105486195006736,
                -0.6525414318257352,
                0.7587341711598845,
                -0.0878042058843052,
                0.441875639981327,
                -3.1382258258777562
            ]
        }
    ]
}