{
    "goal": {
        "global_pose": {
            "orientation": {
                "w": 0.7031023502349854,
                "x": -0.7110244035720825,
                "y": 0.007748599164187908,
                "z": 0.005598929710686207
            },
            "position": {
                "x": 0.11585023208521307,
                "y": 0.44412534475326537,
                "z": 0.3711530566215515
            }
        },
        "name": "move_to_auspresseinheit_A"
    },
    "id": "LazyPRMstar_move_to_auspresseinheit_A_145",
    "joint_names": [
        "shoulder_pan_joint",
        "shoulder_lift_joint",
        "elbow_joint",
        "wrist_1_joint",
        "wrist_2_joint",
        "wrist_3_joint"
    ],
    "metrics": {
        "cart_traj_len": 0.6774521768267288,
        "distance_elbow_joint": 0.10138647112302124,
        "distance_shoulder_lift_joint": 0.5328655732627539,
        "distance_shoulder_pan_joint": 1.041239075638404,
        "distance_wrist_1_joint": 0.5719847626305765,
        "distance_wrist_2_joint": 0.5351392928970907,
        "distance_wrist_3_joint": 0.2392345159267215,
        "smoothness": 0.30769363953124945,
        "time": 5.031654442,
        "traj_len": 1.7383468271546294,
        "weighted_distance": 2.1464954644395777
    },
    "planner": "LazyPRMstar",
    "start": {
        "state": {
            "elbow_joint": 2.4225746658250005,
            "shoulder_lift_joint": -1.3736534386056498,
            "shoulder_pan_joint": -0.3378633547517467,
            "wrist_1_joint": -1.0288598680537169,
            "wrist_2_joint": 1.233022673432363,
            "wrist_3_joint": -3.0940220416140027
        }
    },
    "waypoints": [
        {
            "positions": [
                -0.3378633547517467,
                -1.3736534386056498,
                2.4225746658250005,
                -1.0288598680537169,
                1.233022673432363,
                -3.0940220416140027
            ]
        },
        {
            "positions": [
                -0.2991677005663469,
                -1.430209449163768,
                2.439662135865621,
                -1.003668315948531,
                1.1413475290159512,
                -3.043874115551345
            ]
        },
        {
            "positions": [
                -0.2604720463809471,
                -1.486765459721886,
                2.4567496059062424,
                -0.9784767638433449,
                1.0496723845995393,
                -2.9937261894886875
            ]
        },
        {
            "positions": [
                -0.1227795081998608,
                -1.5467302528856743,
                2.4471479586145595,
                -0.9039622412118872,
                0.9994168125903583,
                -3.0135745700317456
            ]
        },
        {
            "positions": [
                0.014913029981225512,
                -1.6066950460494624,
                2.437546311322877,
                -0.8294477185804293,
                0.9491612405811773,
                -3.0334229505748036
            ]
        },
        {
            "positions": [
                0.1526055681623118,
                -1.6666598392132508,
                2.427944664031194,
                -0.7549331959489716,
                0.8989056685719963,
                -3.0532713311178616
            ]
        },
        {
            "positions": [
                0.29029810634339814,
                -1.726624632377039,
                2.4183430167395112,
                -0.6804186733175137,
                0.8486500965628153,
                -3.0731197116609197
            ]
        },
        {
            "positions": [
                0.42799064452448454,
                -1.7865894255408272,
                2.4087413694478284,
                -0.605904150686056,
                0.7983945245536344,
                -3.0929680922039777
            ]
        },
        {
            "positions": [
                0.5656831827055707,
                -1.8465542187046153,
                2.399139722156146,
                -0.5313896280545982,
                0.7481389525444533,
                -3.1128164727470358
            ]
        },
        {
            "positions": [
                0.7033757208866571,
                -1.9065190118684037,
                2.389538074864463,
                -0.4568751054231404,
                0.6978833805352723,
                -3.132664853290094
            ]
        }
    ]
}