{
    "goal": {
        "global_pose": {
            "orientation": {
                "w": -0.00223480608172531,
                "x": 0.0024358444001904467,
                "y": 0.7094548369677653,
                "z": -0.704743149386269
            },
            "position": {
                "x": -0.37947507619857795,
                "y": -0.6371506643295288,
                "z": 0.19426114857196808
            }
        },
        "name": "move_to_magneteinheit_C"
    },
    "id": "LazyPRMstar_move_to_magneteinheit_C_84",
    "joint_names": [
        "shoulder_pan_joint",
        "shoulder_lift_joint",
        "elbow_joint",
        "wrist_1_joint",
        "wrist_2_joint",
        "wrist_3_joint"
    ],
    "metrics": {
        "cart_traj_len": 0.646966856054842,
        "distance_elbow_joint": 0.45125833583462116,
        "distance_shoulder_lift_joint": 0.49380003046835164,
        "distance_shoulder_pan_joint": 1.0015484527154241,
        "distance_wrist_1_joint": 0.44693547496651875,
        "distance_wrist_2_joint": 0.9323951998744023,
        "distance_wrist_3_joint": 0.09368501896462655,
        "smoothness": 1.4967428062354173,
        "time": 5.01228851,
        "traj_len": 1.8492221372306639,
        "weighted_distance": 2.2330076635771134
    },
    "planner": "LazyPRMstar",
    "start": {
        "state": {
            "elbow_joint": 1.9565354010623817,
            "shoulder_lift_joint": -1.4165861575791021,
            "shoulder_pan_joint": -1.6717766225146293,
            "wrist_1_joint": -0.5286633292919765,
            "wrist_2_joint": 1.472756589071564,
            "wrist_3_joint": -3.1238370188695823
        }
    },
    "waypoints": [
        {
            "positions": [
                -1.6717766225146293,
                -1.4165861575791021,
                1.9565354010623817,
                -0.5286633292919765,
                1.472756589071564,
                -3.1238370188695823
            ]
        },
        {
            "positions": [
                -1.804483388550808,
                -1.4464711511112514,
                2.0189938155988907,
                -0.508909947886168,
                1.3647810576231567,
                -3.1412964143225803
            ]
        },
        {
            "positions": [
                -1.9371901545869865,
                -1.4763561446434008,
                2.0814522301354,
                -0.4891565664803594,
                1.2568055261747493,
                -3.158755809775579
            ]
        },
        {
            "positions": [
                -2.069896920623165,
                -1.50624113817555,
                2.143910644671909,
                -0.4694031850745508,
                1.1488299947263418,
                -3.1762152052285773
            ]
        },
        {
            "positions": [
                -2.202603686659344,
                -1.5361261317076993,
                2.206369059208418,
                -0.4496498036687423,
                1.0408544632779346,
                -3.1936746006815753
            ]
        },
        {
            "positions": [
                -2.2952334488880344,
                -1.4601056951516131,
                2.186841622847096,
                -0.5136657942326464,
                0.9316833218389207,
                -3.1879052587152508
            ]
        },
        {
            "positions": [
                -2.3878632111167253,
                -1.384085258595527,
                2.1673141864857732,
                -0.5776817847965503,
                0.8225121803999067,
                -3.1821359167489263
            ]
        },
        {
            "positions": [
                -2.4804929733454157,
                -1.3080648220394406,
                2.1477867501244505,
                -0.6416977753604544,
                0.7133410389608928,
                -3.1763665747826013
            ]
        },
        {
            "positions": [
                -2.573122735574106,
                -1.2320443854833545,
                2.1282593137631283,
                -0.7057137659243584,
                0.6041698975218789,
                -3.170597232816277
            ]
        },
        {
            "positions": [
                -2.5230215657461326,
                -1.1969552304256497,
                2.066601847641481,
                -0.7616427594681927,
                0.6360741516842375,
                -3.1702121981726092
            ]
        },
        {
            "positions": [
                -2.472920395918159,
                -1.1618660753679448,
                2.0049443815198336,
                -0.8175717530120269,
                0.6679784058465962,
                -3.1698271635289417
            ]
        }
    ]
}