{
    "goal": {
        "global_pose": {
            "orientation": {
                "w": 0.5084816262002911,
                "x": -0.4908360881923452,
                "y": 0.5182115481033761,
                "z": -0.48164630358495003
            },
            "position": {
                "x": 0.5540239810943604,
                "y": -0.46912469901144505,
                "z": 0.16403168439865112
            }
        },
        "name": "move_to_storage_B"
    },
    "id": "LazyPRM_move_to_storage_B_119",
    "joint_names": [
        "shoulder_pan_joint",
        "shoulder_lift_joint",
        "elbow_joint",
        "wrist_1_joint",
        "wrist_2_joint",
        "wrist_3_joint"
    ],
    "metrics": {
        "cart_traj_len": 0.9679966841681339,
        "distance_elbow_joint": 0.6260609999550883,
        "distance_shoulder_lift_joint": 0.4589339549779319,
        "distance_shoulder_pan_joint": 0.5816547196617529,
        "distance_wrist_1_joint": 2.980032893368149,
        "distance_wrist_2_joint": 2.713801656542358,
        "distance_wrist_3_joint": 5.038203334806511,
        "smoothness": 0.4685120789513937,
        "time": 0.10344611399999999,
        "traj_len": 3.521177013345366,
        "weighted_distance": 5.307440887926621
    },
    "planner": "LazyPRM",
    "start": {
        "state": {
            "elbow_joint": 1.664937868594044,
            "shoulder_lift_joint": -0.661644460510453,
            "shoulder_pan_joint": -0.9139846352900073,
            "wrist_1_joint": 2.146753192139373,
            "wrist_2_joint": -2.2341966793290973,
            "wrist_3_joint": 0.005466555786416001
        }
    },
    "waypoints": [
        {
            "positions": [
                -0.9139846352900073,
                -0.661644460510453,
                1.664937868594044,
                2.146753192139373,
                -2.2341966793290973,
                0.005466555786416001
            ]
        },
        {
            "positions": [
                -0.8853448586899936,
                -0.7060771690530261,
                1.6452302137184094,
                2.0591289755366486,
                -2.177348197672912,
                -0.12982633205129113
            ]
        },
        {
            "positions": [
                -0.8567050820899799,
                -0.7505098775955992,
                1.6255225588427749,
                1.971504758933924,
                -2.120499716016727,
                -0.2651192198889982
            ]
        },
        {
            "positions": [
                -0.8280653054899662,
                -0.7949425861381723,
                1.6058149039671403,
                1.8838805423311995,
                -2.063651234360542,
                -0.4004121077267054
            ]
        },
        {
            "positions": [
                -0.7994255288899523,
                -0.8393752946807452,
                1.5861072490915056,
                1.796256325728475,
                -2.006802752704357,
                -0.5357049955644125
            ]
        },
        {
            "positions": [
                -0.7707857522899386,
                -0.8838080032233183,
                1.566399594215871,
                1.7086321091257504,
                -1.9499542710481719,
                -0.6709978834021197
            ]
        },
        {
            "positions": [
                -0.7421459756899249,
                -0.9282407117658914,
                1.5466919393402365,
                1.6210078925230258,
                -1.893105789391987,
                -0.8062907712398268
            ]
        },
        {
            "positions": [
                -0.7135061990899112,
                -0.9726734203084645,
                1.526984284464602,
                1.5333836759203012,
                -1.8362573077358018,
                -0.941583659077534
            ]
        },
        {
            "positions": [
                -0.7287532504283775,
                -0.9785896201156613,
                1.5465085810976278,
                1.4387171408343382,
                -1.7436228163378393,
                -0.7779375342798316
            ]
        },
        {
            "positions": [
                -0.7440003017668437,
                -0.9845058199228581,
                1.5660328777306538,
                1.3440506057483752,
                -1.6509883249398767,
                -0.6142914094821292
            ]
        },
        {
            "positions": [
                -0.75924735310531,
                -0.990422019730055,
                1.5855571743636796,
                1.249384070662412,
                -1.5583538335419143,
                -0.45064528468442683
            ]
        },
        {
            "positions": [
                -0.7744944044437763,
                -0.9963382195372518,
                1.6050814709967054,
                1.154717535576449,
                -1.4657193421439518,
                -0.2869991598867244
            ]
        },
        {
            "positions": [
                -0.7897414557822425,
                -1.0022544193444485,
                1.6246057676297312,
                1.060051000490486,
                -1.3730848507459892,
                -0.12335303508902196
            ]
        },
        {
            "positions": [
                -0.8049885071207088,
                -1.0081706191516453,
                1.6441300642627572,
                0.9653844654045229,
                -1.280450359348027,
                0.040293089708680396
            ]
        },
        {
            "positions": [
                -0.8202355584591751,
                -1.0140868189588421,
                1.663654360895783,
                0.8707179303185598,
                -1.1878158679500643,
                0.20393921450638286
            ]
        },
        {
            "positions": [
                -0.8354826097976413,
                -1.020003018766039,
                1.6831786575288088,
                0.7760513952325968,
                -1.0951813765521017,
                0.3675853393040852
            ]
        },
        {
            "positions": [
                -0.8507296611361076,
                -1.0259192185732358,
                1.7027029541618348,
                0.6813848601466338,
                -1.0025468851541395,
                0.5312314641017876
            ]
        },
        {
            "positions": [
                -0.8659767124745739,
                -1.0318354183804326,
                1.7222272507948606,
                0.5867183250606707,
                -0.9099123937561768,
                0.6948775888994901
            ]
        },
        {
            "positions": [
                -0.8812237638130402,
                -1.0377516181876294,
                1.7417515474278864,
                0.49205178997470767,
                -0.8172779023582144,
                0.8585237136971925
            ]
        },
        {
            "positions": [
                -0.8964708151515064,
                -1.0436678179948262,
                1.7612758440609122,
                0.39738525488874465,
                -0.724643410960252,
                1.0221698384948947
            ]
        },
        {
            "positions": [
                -0.9117178664899728,
                -1.049584017802023,
                1.7808001406939382,
                0.3027187198027814,
                -0.6320089195622893,
                1.1858159632925975
            ]
        },
        {
            "positions": [
                -0.926964917828439,
                -1.0555002176092199,
                1.800324437326964,
                0.2080521847168184,
                -0.5393744281643269,
                1.3494620880902999
            ]
        },
        {
            "positions": [
                -0.9422119691669053,
                -1.0614164174164167,
                1.8198487339599898,
                0.1133856496308554,
                -0.4467399367663645,
                1.5131082128880022
            ]
        },
        {
            "positions": [
                -0.9574590205053716,
                -1.0673326172236135,
                1.8393730305930158,
                0.01871911454489239,
                -0.35410544536840183,
                1.6767543376857046
            ]
        },
        {
            "positions": [
                -0.9727060718438378,
                -1.0732488170308103,
                1.8588973272260416,
                -0.07594742054107084,
                -0.2614709539704394,
                1.840400462483407
            ]
        },
        {
            "positions": [
                -0.987953123182304,
                -1.0791650168380071,
                1.8784216238590674,
                -0.17061395562703363,
                -0.16883646257247698,
                2.0040465872811093
            ]
        },
        {
            "positions": [
                -1.0032001745207704,
                -1.085081216645204,
                1.8979459204920932,
                -0.26528049071299686,
                -0.07620197117451455,
                2.1676927120788116
            ]
        },
        {
            "positions": [
                -1.0184472258592367,
                -1.0909974164524008,
                1.9174702171251192,
                -0.3599470257989599,
                0.0164325202234481,
                2.3313388368765144
            ]
        },
        {
            "positions": [
                -1.033694277197703,
                -1.0969136162595976,
                1.936994513758145,
                -0.4546135608849229,
                0.10906701162141053,
                2.4949849616742164
            ]
        },
        {
            "positions": [
                -1.048941328536169,
                -1.1028298160667944,
                1.9565188103911708,
                -0.5492800959708859,
                0.20170150301937295,
                2.658631086471919
            ]
        },
        {
            "positions": [
                -1.0641883798746354,
                -1.1087460158739912,
                1.9760431070241968,
                -0.6439466310568491,
                0.2943359944173356,
                2.8222772112696215
            ]
        },
        {
            "positions": [
                -1.0794354312131018,
                -1.114662215681188,
                1.9955674036572226,
                -0.7386131661428119,
                0.3869704858152978,
                2.985923336067324
            ]
        },
        {
            "positions": [
                -1.094682482551568,
                -1.1205784154883849,
                2.0150917002902484,
                -0.8332797012287754,
                0.47960497721326056,
                3.149569460865026
            ]
        }
    ]
}