{
    "goal": {
        "global_pose": {
            "orientation": {
                "w": 0.5084816262002911,
                "x": -0.4908360881923452,
                "y": 0.5182115481033761,
                "z": -0.48164630358495003
            },
            "position": {
                "x": 0.5540239810943604,
                "y": -0.46912469901144505,
                "z": 0.16403168439865112
            }
        },
        "name": "move_to_storage_B"
    },
    "id": "LazyPRMstar_move_to_storage_B_47",
    "joint_names": [
        "shoulder_pan_joint",
        "shoulder_lift_joint",
        "elbow_joint",
        "wrist_1_joint",
        "wrist_2_joint",
        "wrist_3_joint"
    ],
    "metrics": {
        "cart_traj_len": 0.9431829954527263,
        "distance_elbow_joint": 0.4106706283308075,
        "distance_shoulder_lift_joint": 0.4587408340458612,
        "distance_shoulder_pan_joint": 0.8220769360375638,
        "distance_wrist_1_joint": 2.9864020900603796,
        "distance_wrist_2_joint": 2.711718467634463,
        "distance_wrist_3_joint": 3.147436752156309,
        "smoothness": 0.0878149085351135,
        "time": 5.029532625,
        "traj_len": 3.2460815929771982,
        "weighted_distance": 4.746581903883346
    },
    "planner": "LazyPRMstar",
    "start": {
        "state": {
            "elbow_joint": 1.664937868594044,
            "shoulder_lift_joint": -0.661644460510453,
            "shoulder_pan_joint": -0.9139846352900073,
            "wrist_1_joint": 2.146753192139373,
            "wrist_2_joint": -2.2341966793290973,
            "wrist_3_joint": 0.005466555786416001
        }
    },
    "waypoints": [
        {
            "positions": [
                -0.9139846352900073,
                -0.661644460510453,
                1.664937868594044,
                2.146753192139373,
                -2.2341966793290973,
                0.005466555786416001
            ]
        },
        {
            "positions": [
                -0.8339249015726395,
                -0.6864328563800255,
                1.6575609813096337,
                2.1083420898763707,
                -2.0784389801412266,
                0.07664668063926809
            ]
        },
        {
            "positions": [
                -0.7538651678552719,
                -0.711221252249598,
                1.6501840940252235,
                2.0699309876133687,
                -1.9226812809533562,
                0.14782680549212018
            ]
        },
        {
            "positions": [
                -0.6738054341379042,
                -0.7360096481191705,
                1.6428072067408135,
                2.0315198853503666,
                -1.7669235817654858,
                0.2190069303449723
            ]
        },
        {
            "positions": [
                -0.5937457004205364,
                -0.760798043988743,
                1.6354303194564033,
                1.9931087830873642,
                -1.6111658825776152,
                0.2901870551978244
            ]
        },
        {
            "positions": [
                -0.6155647439495839,
                -0.7764322722742896,
                1.6520026272474104,
                1.8699454056522176,
                -1.5203533751479203,
                0.4146529792302114
            ]
        },
        {
            "positions": [
                -0.6373837874786314,
                -0.7920665005598361,
                1.6685749350384178,
                1.746782028217071,
                -1.4295408677182255,
                0.5391189032625984
            ]
        },
        {
            "positions": [
                -0.659202831007679,
                -0.8077007288453827,
                1.685147242829425,
                1.6236186507819246,
                -1.3387283602885307,
                0.6635848272949854
            ]
        },
        {
            "positions": [
                -0.6810218745367265,
                -0.8233349571309293,
                1.7017195506204323,
                1.500455273346778,
                -1.2479158528588359,
                0.7880507513273722
            ]
        },
        {
            "positions": [
                -0.702840918065774,
                -0.8389691854164758,
                1.7182918584114395,
                1.3772918959116316,
                -1.157103345429141,
                0.9125166753597592
            ]
        },
        {
            "positions": [
                -0.7246599615948215,
                -0.8546034137020224,
                1.7348641662024469,
                1.254128518476485,
                -1.0662908379994462,
                1.0369825993921462
            ]
        },
        {
            "positions": [
                -0.7464790051238691,
                -0.870237641987569,
                1.751436473993454,
                1.1309651410413384,
                -0.9754783305697514,
                1.1614485234245333
            ]
        },
        {
            "positions": [
                -0.7682980486529166,
                -0.8858718702731155,
                1.7680087817844612,
                1.0078017636061918,
                -0.8846658231400566,
                1.2859144474569202
            ]
        },
        {
            "positions": [
                -0.7901170921819641,
                -0.9015060985586622,
                1.7845810895754686,
                0.8846383861710452,
                -0.7938533157103618,
                1.4103803714893073
            ]
        },
        {
            "positions": [
                -0.8119361357110116,
                -0.9171403268442087,
                1.8011533973664757,
                0.7614750087358988,
                -0.703040808280667,
                1.5348462955216942
            ]
        },
        {
            "positions": [
                -0.8337551792400592,
                -0.9327745551297553,
                1.817725705157483,
                0.6383116313007522,
                -0.6122283008509721,
                1.659312219554081
            ]
        },
        {
            "positions": [
                -0.8555742227691067,
                -0.9484087834153019,
                1.8342980129484903,
                0.5151482538656056,
                -0.5214157934212773,
                1.783778143586468
            ]
        },
        {
            "positions": [
                -0.8773932662981542,
                -0.9640430117008484,
                1.8508703207394976,
                0.3919848764304592,
                -0.4306032859915825,
                1.9082440676188548
            ]
        },
        {
            "positions": [
                -0.8992123098272018,
                -0.979677239986395,
                1.8674426285305048,
                0.2688214989953124,
                -0.33979077856188766,
                2.032709991651242
            ]
        },
        {
            "positions": [
                -0.9210313533562493,
                -0.9953114682719416,
                1.884014936321512,
                0.145658121560166,
                -0.24897827113219284,
                2.157175915683629
            ]
        },
        {
            "positions": [
                -0.9428503968852968,
                -1.0109456965574881,
                1.9005872441125193,
                0.022494744125019395,
                -0.15816576370249802,
                2.281641839716016
            ]
        },
        {
            "positions": [
                -0.9646694404143443,
                -1.0265799248430347,
                1.9171595519035265,
                -0.10066863331012676,
                -0.0673532562728032,
                2.4061077637484027
            ]
        },
        {
            "positions": [
                -0.9864884839433918,
                -1.0422141531285813,
                1.9337318596945339,
                -0.2238320107452738,
                0.023459251156891625,
                2.53057368778079
            ]
        },
        {
            "positions": [
                -1.0083075274724393,
                -1.057848381414128,
                1.950304167485541,
                -0.3469953881804204,
                0.11427175858658645,
                2.655039611813177
            ]
        },
        {
            "positions": [
                -1.0301265710014869,
                -1.0734826096996746,
                1.9668764752765484,
                -0.4701587656155666,
                0.20508426601628127,
                2.779505535845564
            ]
        },
        {
            "positions": [
                -1.0519456145305344,
                -1.089116837985221,
                1.9834487830675556,
                -0.5933221430507132,
                0.2958967734459761,
                2.9039714598779507
            ]
        },
        {
            "positions": [
                -1.0737646580595819,
                -1.1047510662707676,
                2.0000210908585627,
                -0.7164855204858598,
                0.3867092808756709,
                3.028437383910338
            ]
        },
        {
            "positions": [
                -1.0955837015886294,
                -1.1203852945563142,
                2.01659339864957,
                -0.8396488979210063,
                0.4775217883053658,
                3.152903307942725
            ]
        }
    ]
}