{
    "goal": {
        "global_pose": {
            "orientation": {
                "w": 0.005598929693374612,
                "x": 0.007748599140229565,
                "y": 0.7110244013736278,
                "z": -0.7031023480610252
            },
            "position": {
                "x": -0.8858502320852131,
                "y": -0.7141253447532654,
                "z": 0.3711530566215515
            }
        },
        "name": "move_to_auspresseinheit_C"
    },
    "id": "LazyPRM_move_to_auspresseinheit_C_17",
    "joint_names": [
        "shoulder_pan_joint",
        "shoulder_lift_joint",
        "elbow_joint",
        "wrist_1_joint",
        "wrist_2_joint",
        "wrist_3_joint"
    ],
    "metrics": {
        "cart_traj_len": 0.49370127498294414,
        "distance_elbow_joint": 1.0177393880186463,
        "distance_shoulder_lift_joint": 0.33368531547300273,
        "distance_shoulder_pan_joint": 0.2558740700771156,
        "distance_wrist_1_joint": 0.7150148546684788,
        "distance_wrist_2_joint": 1.3145069558759748,
        "distance_wrist_3_joint": 0.08083601807156082,
        "smoothness": 3.2297397080004555e-16,
        "time": 0.012594479,
        "traj_len": 1.9281225589118496,
        "weighted_distance": 2.4308127136561457
    },
    "planner": "LazyPRM",
    "start": {
        "state": {
            "elbow_joint": 1.7527959577737207,
            "shoulder_lift_joint": -0.9740617694225068,
            "shoulder_pan_joint": -2.967991417825858,
            "wrist_1_joint": -0.759517768980727,
            "wrist_2_joint": 1.7443932448377408,
            "wrist_3_joint": -3.0840537646736568
        }
    },
    "waypoints": [
        {
            "positions": [
                -2.967991417825858,
                -0.9740617694225068,
                1.7527959577737207,
                -0.759517768980727,
                1.7443932448377408,
                -3.0840537646736568
            ]
        },
        {
            "positions": [
                -2.942404010818146,
                -0.9406932378752065,
                1.651022018971856,
                -0.6880162835138791,
                1.6129425492501435,
                -3.092137366480813
            ]
        },
        {
            "positions": [
                -2.916816603810435,
                -0.9073247063279062,
                1.5492480801699915,
                -0.6165147980470312,
                1.4814918536625459,
                -3.100220968287969
            ]
        },
        {
            "positions": [
                -2.8912291968027235,
                -0.8739561747806059,
                1.4474741413681267,
                -0.5450133125801834,
                1.3500411580749483,
                -3.108304570095125
            ]
        },
        {
            "positions": [
                -2.8656417897950117,
                -0.8405876432333057,
                1.345700202566262,
                -0.47351182711333545,
                1.218590462487351,
                -3.116388171902281
            ]
        },
        {
            "positions": [
                -2.8400543827873,
                -0.8072191116860055,
                1.2439262637643975,
                -0.4020103416464876,
                1.0871397668997536,
                -3.124471773709437
            ]
        },
        {
            "positions": [
                -2.8144669757795886,
                -0.7738505801387051,
                1.142152324962533,
                -0.3305088561796397,
                0.955689071312156,
                -3.1325553755165934
            ]
        },
        {
            "positions": [
                -2.7888795687718773,
                -0.7404820485914049,
                1.0403783861606684,
                -0.2590073707127919,
                0.8242383757245586,
                -3.1406389773237495
            ]
        },
        {
            "positions": [
                -2.7632921617641655,
                -0.7071135170441045,
                0.9386044473588036,
                -0.18750588524594392,
                0.692787680136961,
                -3.1487225791309053
            ]
        },
        {
            "positions": [
                -2.7377047547564537,
                -0.6737449854968043,
                0.836830508556939,
                -0.11600439977909605,
                0.5613369845493634,
                -3.1568061809380614
            ]
        },
        {
            "positions": [
                -2.7121173477487424,
                -0.640376453949504,
                0.7350565697550745,
                -0.044502914312248155,
                0.429886288961766,
                -3.1648897827452176
            ]
        }
    ]
}