{
    "goal": {
        "global_pose": {
            "orientation": {
                "w": -0.4816463035849501,
                "x": 0.5182115481033762,
                "y": 0.4908360881923453,
                "z": -0.5084816262002911
            },
            "position": {
                "x": -0.8240239810943604,
                "y": -0.300875300988555,
                "z": 0.16403168439865112
            }
        },
        "name": "move_to_storage_C"
    },
    "id": "LazyPRMstar_move_to_storage_C_106",
    "joint_names": [
        "shoulder_pan_joint",
        "shoulder_lift_joint",
        "elbow_joint",
        "wrist_1_joint",
        "wrist_2_joint",
        "wrist_3_joint"
    ],
    "metrics": {
        "cart_traj_len": 0.5758621865020879,
        "distance_elbow_joint": 0.2571628233536689,
        "distance_shoulder_lift_joint": 0.1897250839031882,
        "distance_shoulder_pan_joint": 0.49381612214572623,
        "distance_wrist_1_joint": 0.0743284476403746,
        "distance_wrist_2_joint": 1.0665442816453465,
        "distance_wrist_3_joint": 0.07295800746021719,
        "smoothness": 0.0,
        "time": 5.001569755,
        "traj_len": 1.4678333577584757,
        "weighted_distance": 1.8550804592671113
    },
    "planner": "LazyPRMstar",
    "start": {
        "state": {
            "elbow_joint": 2.010868314990456,
            "shoulder_lift_joint": -1.1634956873337592,
            "shoulder_pan_joint": -2.4736205022346125,
            "wrist_1_joint": -0.8367026794202681,
            "wrist_2_joint": 0.6746043897044499,
            "wrist_3_joint": -3.1496632123970403
        }
    },
    "waypoints": [
        {
            "positions": [
                -2.4736205022346125,
                -1.1634956873337592,
                2.010868314990456,
                -0.8367026794202681,
                0.6746043897044499,
                -3.1496632123970403
            ]
        },
        {
            "positions": [
                -2.5559231892589,
                -1.1318748400165612,
                1.968007844431511,
                -0.824314604813539,
                0.8523617699786743,
                -3.137503544487004
            ]
        },
        {
            "positions": [
                -2.638225876283188,
                -1.100253992699363,
                1.9251473738725662,
                -0.8119265302068099,
                1.0301191502528988,
                -3.125343876576968
            ]
        },
        {
            "positions": [
                -2.7205285633074756,
                -1.0686331453821651,
                1.8822869033136214,
                -0.7995384556000809,
                1.2078765305271233,
                -3.1131842086669317
            ]
        },
        {
            "positions": [
                -2.802831250331763,
                -1.037012298064967,
                1.8394264327546765,
                -0.7871503809933517,
                1.3856339108013476,
                -3.1010245407568955
            ]
        },
        {
            "positions": [
                -2.885133937356051,
                -1.005391450747769,
                1.7965659621957317,
                -0.7747623063866226,
                1.563391291075572,
                -3.0888648728468593
            ]
        },
        {
            "positions": [
                -2.9674366243803387,
                -0.973770603430571,
                1.753705491636787,
                -0.7623742317798935,
                1.7411486713497963,
                -3.076705204936823
            ]
        }
    ]
}