{
    "goal": {
        "global_pose": {
            "orientation": {
                "w": 0.7047431468963623,
                "x": -0.7094548344612122,
                "y": 0.0024358443915843964,
                "z": -0.0022348060738295317
            },
            "position": {
                "x": 0.6094750761985779,
                "y": 0.3671506643295288,
                "z": 0.19426114857196808
            }
        },
        "name": "move_to_magneteinheit_A"
    },
    "id": "LazyPRMstar_move_to_magneteinheit_A_9",
    "joint_names": [
        "shoulder_pan_joint",
        "shoulder_lift_joint",
        "elbow_joint",
        "wrist_1_joint",
        "wrist_2_joint",
        "wrist_3_joint"
    ],
    "metrics": {
        "cart_traj_len": 3.320733712797141,
        "distance_elbow_joint": 3.9193637386923585,
        "distance_shoulder_lift_joint": 0.46429247491081826,
        "distance_shoulder_pan_joint": 2.9775145156145664,
        "distance_wrist_1_joint": 3.5631238106354166,
        "distance_wrist_2_joint": 1.4441484168173215,
        "distance_wrist_3_joint": 0.47176965908369084,
        "smoothness": 0.09953420803829369,
        "time": 5.016994275,
        "traj_len": 3.583324240946411,
        "weighted_distance": 4.334861492755483
    },
    "planner": "LazyPRMstar",
    "start": {
        "state": {
            "elbow_joint": -1.9196185241190666,
            "shoulder_lift_joint": -1.2443396400964142,
            "shoulder_pan_joint": 2.6996025414629847,
            "wrist_1_joint": -1.5485510000780065,
            "wrist_2_joint": -1.5709468930060704,
            "wrist_3_joint": 0.4420197071253992
        }
    },
    "waypoints": [
        {
            "positions": [
                2.6996025414629847,
                -1.2443396400964142,
                -1.9196185241190666,
                -1.5485510000780065,
                -1.5709468930060704,
                0.4420197071253992
            ]
        },
        {
            "positions": [
                2.600432295426804,
                -1.2296724239845274,
                -1.8330480439329824,
                -1.4223918860410014,
                -1.523825285489015,
                0.42973867859341164
            ]
        },
        {
            "positions": [
                2.501262049390623,
                -1.2150052078726405,
                -1.7464775637468983,
                -1.2962327720039963,
                -1.4767036779719598,
                0.4174576500614241
            ]
        },
        {
            "positions": [
                2.402091803354442,
                -1.2003379917607537,
                -1.659907083560814,
                -1.1700736579669915,
                -1.4295820704549045,
                0.40517662152943656
            ]
        },
        {
            "positions": [
                2.3029215573182613,
                -1.185670775648867,
                -1.57333660337473,
                -1.0439145439299864,
                -1.382460462937849,
                0.39289559299744903
            ]
        },
        {
            "positions": [
                2.20375131128208,
                -1.17100355953698,
                -1.4867661231886458,
                -0.9177554298929812,
                -1.3353388554207937,
                0.38061456446546144
            ]
        },
        {
            "positions": [
                2.1045810652458994,
                -1.1563363434250933,
                -1.4001956430025615,
                -0.7915963158559762,
                -1.2882172479037384,
                0.3683335359334739
            ]
        },
        {
            "positions": [
                2.005410819209718,
                -1.1416691273132065,
                -1.3136251628164775,
                -0.6654372018189711,
                -1.241095640386683,
                0.35605250740148636
            ]
        },
        {
            "positions": [
                1.9062405731735375,
                -1.1270019112013194,
                -1.2270546826303934,
                -0.5392780877819661,
                -1.1939740328696278,
                0.3437714788694988
            ]
        },
        {
            "positions": [
                1.8070703271373567,
                -1.1123346950894326,
                -1.1404842024443091,
                -0.413118973744961,
                -1.1468524253525723,
                0.33149045033751123
            ]
        },
        {
            "positions": [
                1.7079000811011757,
                -1.0976674789775458,
                -1.0539137222582249,
                -0.2869598597079559,
                -1.099730817835517,
                0.3192094218055237
            ]
        },
        {
            "positions": [
                1.6087298350649948,
                -1.083000262865659,
                -0.9673432420721408,
                -0.16080074567095104,
                -1.0526092103184617,
                0.30692839327353616
            ]
        },
        {
            "positions": [
                1.509559589028814,
                -1.0683330467537722,
                -0.8807727618860566,
                -0.03464163163394596,
                -1.0054876028014064,
                0.2946473647415486
            ]
        },
        {
            "positions": [
                1.410389342992633,
                -1.0536658306418853,
                -0.7942022816999723,
                0.09151748240305912,
                -0.958365995284351,
                0.2823663362095611
            ]
        },
        {
            "positions": [
                1.3112190969564521,
                -1.0389986145299985,
                -0.7076318015138883,
                0.2176765964400642,
                -0.9112443877672957,
                0.27008530767757355
            ]
        },
        {
            "positions": [
                1.2120488509202711,
                -1.0243313984181117,
                -0.6210613213278042,
                0.3438357104770693,
                -0.8641227802502404,
                0.257804279145586
            ]
        },
        {
            "positions": [
                1.1128786048840904,
                -1.009664182306225,
                -0.53449084114172,
                0.46999482451407437,
                -0.8170011727331851,
                0.24552325061359848
            ]
        },
        {
            "positions": [
                1.0137083588479094,
                -0.9949969661943381,
                -0.4479203609556359,
                0.596153938551079,
                -0.7698795652161297,
                0.23324222208161094
            ]
        },
        {
            "positions": [
                0.9145381128117285,
                -0.9803297500824513,
                -0.36134988076955143,
                0.7223130525880845,
                -0.7227579576990742,
                0.22096119354962335
            ]
        },
        {
            "positions": [
                0.8153678667755475,
                -0.9656625339705643,
                -0.2747794005834674,
                0.8484721666250896,
                -0.675636350182019,
                0.2086801650176358
            ]
        },
        {
            "positions": [
                0.7161976207393668,
                -0.9509953178586775,
                -0.18820892039738313,
                0.9746312806620947,
                -0.6285147426649637,
                0.19639913648564827
            ]
        },
        {
            "positions": [
                0.6170273747031856,
                -0.9363281017467907,
                -0.10163844021129909,
                1.1007903946990993,
                -0.5813931351479082,
                0.18411810795366074
            ]
        },
        {
            "positions": [
                0.5178571286670048,
                -0.9216608856349039,
                -0.015067960025215044,
                1.2269495087361044,
                -0.534271527630853,
                0.1718370794216732
            ]
        },
        {
            "positions": [
                0.4186868826308241,
                -0.9069936695230171,
                0.07150252016086922,
                1.3531086227731095,
                -0.48714992011379765,
                0.15955605088968566
            ]
        },
        {
            "positions": [
                0.31951663659464336,
                -0.8923264534111301,
                0.15807300034695349,
                1.4792677368101146,
                -0.44002831259674235,
                0.14727502235769813
            ]
        },
        {
            "positions": [
                0.22034639055846217,
                -0.8776592372992433,
                0.24464348053303775,
                1.6054268508471201,
                -0.39290670507968684,
                0.13499399382571053
            ]
        },
        {
            "positions": [
                0.12117614452228143,
                -0.8629920211873565,
                0.331213960719122,
                1.7315859648841248,
                -0.34578509756263154,
                0.122712965293723
            ]
        },
        {
            "positions": [
                0.02200589848610024,
                -0.8483248050754697,
                0.41778444090520583,
                1.8577450789211298,
                -0.29866349004557624,
                0.11043193676173546
            ]
        },
        {
            "positions": [
                -0.07716434755008031,
                -0.8336575889635829,
                0.5043549210912901,
                1.9839041929581347,
                -0.25154188252852094,
                0.09815090822974795
            ]
        },
        {
            "positions": [
                -0.04370640978316337,
                -0.8247225183339184,
                0.7535866366716237,
                1.978792756691589,
                -0.23075131480522557,
                0.07683409819840803
            ]
        },
        {
            "positions": [
                -0.01024847201624643,
                -0.8157874477042539,
                1.0028183522519574,
                1.9736813204250434,
                -0.2099607470819302,
                0.05551728816706809
            ]
        },
        {
            "positions": [
                0.023209465750670524,
                -0.8068523770745895,
                1.2520500678322912,
                1.9685698841584975,
                -0.18917017935863484,
                0.03420047813572816
            ]
        },
        {
            "positions": [
                0.05666740351758745,
                -0.7979173064449249,
                1.5012817834126249,
                1.963458447891952,
                -0.16837961163533946,
                0.012883668104388235
            ]
        },
        {
            "positions": [
                0.09012534128450442,
                -0.7889822358152604,
                1.7505134989929587,
                1.9583470116254063,
                -0.14758904391204408,
                -0.008433141926951715
            ]
        },
        {
            "positions": [
                0.12358327905142136,
                -0.7800471651855959,
                1.9997452145732924,
                1.9532355753588606,
                -0.1267984761887487,
                -0.02974995195829165
            ]
        }
    ]
}