{
    "goal": {
        "global_pose": {
            "orientation": {
                "w": 0.005598929693374612,
                "x": 0.007748599140229565,
                "y": 0.7110244013736278,
                "z": -0.7031023480610252
            },
            "position": {
                "x": 0.1141497679147869,
                "y": -0.7141253447532654,
                "z": 0.3711530566215515
            }
        },
        "name": "move_to_auspresseinheit_B"
    },
    "id": "LazyPRMstar_move_to_auspresseinheit_B_123",
    "joint_names": [
        "shoulder_pan_joint",
        "shoulder_lift_joint",
        "elbow_joint",
        "wrist_1_joint",
        "wrist_2_joint",
        "wrist_3_joint"
    ],
    "metrics": {
        "cart_traj_len": 0.5648059408009802,
        "distance_elbow_joint": 0.0646364376239359,
        "distance_shoulder_lift_joint": 0.2950946913299832,
        "distance_shoulder_pan_joint": 0.5769060856206099,
        "distance_wrist_1_joint": 0.3369589125549124,
        "distance_wrist_2_joint": 0.9962403691385293,
        "distance_wrist_3_joint": 0.01006735160657346,
        "smoothness": 0.0,
        "time": 5.0004414630000005,
        "traj_len": 1.5099350475681212,
        "weighted_distance": 1.9061054096720709
    },
    "planner": "LazyPRMstar",
    "start": {
        "state": {
            "elbow_joint": 2.0193083361928714,
            "shoulder_lift_joint": -1.1220246554650708,
            "shoulder_pan_joint": -1.0952077554168747,
            "wrist_1_joint": -0.8559753972642168,
            "wrist_2_joint": 0.4759566250798843,
            "wrist_3_joint": -3.1240929996934557
        }
    },
    "waypoints": [
        {
            "positions": [
                -1.0952077554168747,
                -1.1220246554650708,
                2.0193083361928714,
                -0.8559753972642168,
                0.4759566250798843,
                -3.1240929996934557
            ]
        },
        {
            "positions": [
                -1.1913587696869763,
                -1.171207104020068,
                2.008535596588882,
                -0.7998155785050647,
                0.6419966866029725,
                -3.1257708916278846
            ]
        },
        {
            "positions": [
                -1.287509783957078,
                -1.2203895525750652,
                1.9977628569848929,
                -0.7436557597459127,
                0.8080367481260606,
                -3.1274487835623135
            ]
        },
        {
            "positions": [
                -1.3836607982271796,
                -1.2695720011300624,
                1.9869901173809035,
                -0.6874959409867606,
                0.974076809649149,
                -3.1291266754967424
            ]
        },
        {
            "positions": [
                -1.4798118124972812,
                -1.3187544496850596,
                1.976217377776914,
                -0.6313361222276086,
                1.1401168711722371,
                -3.1308045674311713
            ]
        },
        {
            "positions": [
                -1.5759628267673829,
                -1.3679368982400568,
                1.965444638172925,
                -0.5751763034684565,
                1.3061569326953255,
                -3.1324824593656
            ]
        },
        {
            "positions": [
                -1.6721138410374845,
                -1.417119346795054,
                1.9546718985689355,
                -0.5190164847093044,
                1.4721969942184137,
                -3.134160351300029
            ]
        }
    ]
}