{
    "goal": {
        "global_pose": {
            "orientation": {
                "w": -0.4816463035849501,
                "x": 0.5182115481033762,
                "y": 0.4908360881923453,
                "z": -0.5084816262002911
            },
            "position": {
                "x": -0.8240239810943604,
                "y": 0.19912469901144506,
                "z": 0.16403168439865112
            }
        },
        "name": "move_to_storage_D"
    },
    "id": "LazyPRM_move_to_storage_D_92",
    "joint_names": [
        "shoulder_pan_joint",
        "shoulder_lift_joint",
        "elbow_joint",
        "wrist_1_joint",
        "wrist_2_joint",
        "wrist_3_joint"
    ],
    "metrics": {
        "cart_traj_len": 4.011695287083117,
        "distance_elbow_joint": 4.223161266840479,
        "distance_shoulder_lift_joint": 1.2634517702099322,
        "distance_shoulder_pan_joint": 2.813276833183853,
        "distance_wrist_1_joint": 2.271028191143748,
        "distance_wrist_2_joint": 1.528015405306144,
        "distance_wrist_3_joint": 3.134128078675329,
        "smoothness": 0.14472634797672546,
        "time": 0.265755372,
        "traj_len": 3.902955488518859,
        "weighted_distance": 5.0299464509237115
    },
    "planner": "LazyPRM",
    "start": {
        "state": {
            "elbow_joint": -2.384821988534728,
            "shoulder_lift_joint": -2.2788054721415256,
            "shoulder_pan_joint": -0.1854694642142757,
            "wrist_1_joint": 1.4845938289331202,
            "wrist_2_joint": 0.17898776772866878,
            "wrist_3_joint": 0.037105688729662994
        }
    },
    "waypoints": [
        {
            "positions": [
                -0.1854694642142757,
                -2.2788054721415256,
                -2.384821988534728,
                1.4845938289331202,
                0.17898776772866878,
                0.037105688729662994
            ]
        },
        {
            "positions": [
                -0.17049212264538016,
                -2.257080856168691,
                -2.390545981772254,
                1.4837591550144884,
                0.18219084719715742,
                0.03823399470842743
            ]
        },
        {
            "positions": [
                -0.08874553521391734,
                -2.2191610409179816,
                -2.285061433122178,
                1.4219791308445269,
                0.21976369945768187,
                -0.03318272872351594
            ]
        },
        {
            "positions": [
                -0.006998947782454523,
                -2.181241225667272,
                -2.1795768844721017,
                1.3601991066745656,
                0.2573365517182063,
                -0.10459945215545932
            ]
        },
        {
            "positions": [
                0.0747476396490083,
                -2.1433214104165628,
                -2.0740923358220256,
                1.298419082504604,
                0.2949094039787308,
                -0.17601617558740268
            ]
        },
        {
            "positions": [
                0.15649422708047112,
                -2.105401595165853,
                -1.9686077871719492,
                1.2366390583346427,
                0.3324822562392552,
                -0.24743289901934606
            ]
        },
        {
            "positions": [
                0.2382408145119339,
                -2.067481779915144,
                -1.8631232385218728,
                1.1748590341646812,
                0.37005510849977963,
                -0.31884962245128945
            ]
        },
        {
            "positions": [
                0.31998740194339675,
                -2.0295619646644343,
                -1.7576386898717966,
                1.1130790099947196,
                0.40762796076030405,
                -0.3902663458832328
            ]
        },
        {
            "positions": [
                0.4017339893748596,
                -1.991642149413725,
                -1.6521541412217204,
                1.0512989858247583,
                0.4452008130208286,
                -0.46168306931517616
            ]
        },
        {
            "positions": [
                0.4834805768063224,
                -1.9537223341630157,
                -1.5466695925716443,
                0.9895189616547969,
                0.482773665281353,
                -0.5330997927471195
            ]
        },
        {
            "positions": [
                0.5652271642377852,
                -1.9158025189123062,
                -1.4411850439215679,
                0.9277389374848355,
                0.5203465175418774,
                -0.6045165161790629
            ]
        },
        {
            "positions": [
                0.646973751669248,
                -1.8778827036615968,
                -1.3357004952714917,
                0.8659589133148741,
                0.5579193698024019,
                -0.6759332396110063
            ]
        },
        {
            "positions": [
                0.7287203391007109,
                -1.8399628884108874,
                -1.2302159466214155,
                0.8041788891449126,
                0.5954922220629263,
                -0.7473499630429496
            ]
        },
        {
            "positions": [
                0.8104669265321737,
                -1.802043073160178,
                -1.1247313979713391,
                0.7423988649749511,
                0.6330650743234507,
                -0.8187666864748929
            ]
        },
        {
            "positions": [
                0.8922135139636365,
                -1.7641232579094686,
                -1.019246849321263,
                0.6806188408049897,
                0.6706379265839753,
                -0.8901834099068363
            ]
        },
        {
            "positions": [
                0.9739601013950994,
                -1.7262034426587594,
                -0.9137623006711868,
                0.6188388166350283,
                0.7082107788444997,
                -0.9616001333387797
            ]
        },
        {
            "positions": [
                1.055706688826562,
                -1.6882836274080497,
                -0.8082777520211104,
                0.5570587924650668,
                0.7457836311050241,
                -1.0330168567707232
            ]
        },
        {
            "positions": [
                1.137453276258025,
                -1.6503638121573405,
                -0.7027932033710342,
                0.4952787682951054,
                0.7833564833655485,
                -1.1044335802026666
            ]
        },
        {
            "positions": [
                1.2191998636894879,
                -1.6124439969066309,
                -0.5973086547209581,
                0.4334987441251439,
                0.820929335626073,
                -1.17585030363461
            ]
        },
        {
            "positions": [
                1.3009464511209505,
                -1.5745241816559217,
                -0.4918241060708817,
                0.3717187199551826,
                0.8585021878865974,
                -1.2472670270665533
            ]
        },
        {
            "positions": [
                1.3826930385524134,
                -1.5366043664052123,
                -0.3863395574208055,
                0.30993869578522104,
                0.8960750401471219,
                -1.3186837504984967
            ]
        },
        {
            "positions": [
                1.4644396259838761,
                -1.4986845511545028,
                -0.28085500877072933,
                0.24815867161525973,
                0.9336478924076463,
                -1.3901004739304401
            ]
        },
        {
            "positions": [
                1.546186213415339,
                -1.4607647359037934,
                -0.17537046012065316,
                0.1863786474452982,
                0.9712207446681708,
                -1.4615171973623835
            ]
        },
        {
            "positions": [
                1.627932800846802,
                -1.422844920653084,
                -0.06988591147057699,
                0.12459862327533688,
                1.0087935969286952,
                -1.5329339207943269
            ]
        },
        {
            "positions": [
                1.7096793882782646,
                -1.3849251054023746,
                0.035598637179499626,
                0.06281859910537535,
                1.0463664491892197,
                -1.6043506442262703
            ]
        },
        {
            "positions": [
                1.7914259757097275,
                -1.3470052901516651,
                0.1410831858295758,
                0.0010385749354138163,
                1.083939301449744,
                -1.6757673676582134
            ]
        },
        {
            "positions": [
                1.8731725631411902,
                -1.309085474900956,
                0.24656773447965197,
                -0.060741449234547495,
                1.1215121537102686,
                -1.7471840910901568
            ]
        },
        {
            "positions": [
                1.954919150572653,
                -1.2711656596502463,
                0.35205228312972814,
                -0.12252147340450903,
                1.1590850059707931,
                -1.8186008145221002
            ]
        },
        {
            "positions": [
                2.0366657380041158,
                -1.233245844399537,
                0.4575368317798043,
                -0.18430149757447034,
                1.1966578582313174,
                -1.8900175379540436
            ]
        },
        {
            "positions": [
                2.118412325435579,
                -1.1953260291488277,
                0.5630213804298805,
                -0.24608152174443187,
                1.234230710491842,
                -1.961434261385987
            ]
        },
        {
            "positions": [
                2.2001589128670416,
                -1.1574062138981183,
                0.6685059290799571,
                -0.3078615459143932,
                1.2718035627523663,
                -2.03285098481793
            ]
        },
        {
            "positions": [
                2.281905500298504,
                -1.1194863986474088,
                0.7739904777300333,
                -0.3696415700843547,
                1.3093764150128908,
                -2.1042677082498735
            ]
        },
        {
            "positions": [
                2.3636520877299674,
                -1.0815665833966994,
                0.8794750263801094,
                -0.43142159425431603,
                1.3469492672734151,
                -2.175684431681817
            ]
        },
        {
            "positions": [
                2.44539867516143,
                -1.04364676814599,
                0.9849595750301856,
                -0.4932016184242777,
                1.3845221195339397,
                -2.2471011551137603
            ]
        },
        {
            "positions": [
                2.471457059991165,
                -1.0396049015439333,
                1.105235534573116,
                -0.5350920103937562,
                1.3384533976052435,
                -2.3681961012386714
            ]
        },
        {
            "positions": [
                2.4975154448209005,
                -1.0355630349418767,
                1.2255114941160463,
                -0.5769824023632348,
                1.2923846756765474,
                -2.4892910473635825
            ]
        },
        {
            "positions": [
                2.5235738296506356,
                -1.03152116833982,
                1.3457874536589767,
                -0.6188727943327134,
                1.2463159537478512,
                -2.610385993488493
            ]
        },
        {
            "positions": [
                2.549632214480371,
                -1.0274793017377635,
                1.466063413201907,
                -0.6607631863021919,
                1.200247231819155,
                -2.7314809396134043
            ]
        },
        {
            "positions": [
                2.5756905993101062,
                -1.0234374351357067,
                1.5863393727448376,
                -0.7026535782716705,
                1.154178509890459,
                -2.8525758857383154
            ]
        },
        {
            "positions": [
                2.601748984139842,
                -1.0193955685336502,
                1.7066153322877677,
                -0.7445439702411489,
                1.1081097879617627,
                -2.9736708318632266
            ]
        },
        {
            "positions": [
                2.627807368969577,
                -1.0153537019315935,
                1.8268912918306983,
                -0.7864343622106276,
                1.0620410660330666,
                -3.0947657779881377
            ]
        }
    ]
}