{
    "goal": {
        "global_pose": {
            "orientation": {
                "w": -0.4816463035849501,
                "x": 0.5182115481033762,
                "y": 0.4908360881923453,
                "z": -0.5084816262002911
            },
            "position": {
                "x": -0.8240239810943604,
                "y": -0.300875300988555,
                "z": 0.16403168439865112
            }
        },
        "name": "move_to_storage_C"
    },
    "id": "LazyPRM_move_to_storage_C_55",
    "joint_names": [
        "shoulder_pan_joint",
        "shoulder_lift_joint",
        "elbow_joint",
        "wrist_1_joint",
        "wrist_2_joint",
        "wrist_3_joint"
    ],
    "metrics": {
        "cart_traj_len": 0.5766227662618867,
        "distance_elbow_joint": 0.2617137509892504,
        "distance_shoulder_lift_joint": 0.1895332541721778,
        "distance_shoulder_pan_joint": 0.49435378154729515,
        "distance_wrist_1_joint": 0.08937467344175543,
        "distance_wrist_2_joint": 1.0663251872890047,
        "distance_wrist_3_joint": 0.06600879887679056,
        "smoothness": 2.5376526478085547e-16,
        "time": 0.011770065000000001,
        "traj_len": 1.4721784695872555,
        "weighted_distance": 1.8587702668163744
    },
    "planner": "LazyPRM",
    "start": {
        "state": {
            "elbow_joint": 2.010868314990456,
            "shoulder_lift_joint": -1.1634956873337592,
            "shoulder_pan_joint": -2.4736205022346125,
            "wrist_1_joint": -0.8367026794202681,
            "wrist_2_joint": 0.6746043897044499,
            "wrist_3_joint": -3.1496632123970403
        }
    },
    "waypoints": [
        {
            "positions": [
                -2.4736205022346125,
                -1.1634956873337592,
                2.010868314990456,
                -0.8367026794202681,
                0.6746043897044499,
                -3.1496632123970403
            ]
        },
        {
            "positions": [
                -2.556012799159162,
                -1.1319068116383961,
                1.9672493564922475,
                -0.8218069005133088,
                0.8523252542526174,
                -3.138661745917575
            ]
        },
        {
            "positions": [
                -2.638405096083711,
                -1.1003179359430333,
                1.923630397994039,
                -0.8069111216063496,
                1.0300461188007848,
                -3.12766027943811
            ]
        },
        {
            "positions": [
                -2.72079739300826,
                -1.0687290602476702,
                1.8800114394958305,
                -0.7920153426993903,
                1.2077669833489524,
                -3.116658812958645
            ]
        },
        {
            "positions": [
                -2.8031896899328093,
                -1.0371401845523074,
                1.8363924809976222,
                -0.7771195637924312,
                1.3854878478971195,
                -3.10565734647918
            ]
        },
        {
            "positions": [
                -2.8855819868573587,
                -1.0055513088569443,
                1.792773522499414,
                -0.7622237848854719,
                1.5632087124452871,
                -3.094655879999715
            ]
        },
        {
            "positions": [
                -2.9679742837819076,
                -0.9739624331615814,
                1.7491545640012054,
                -0.7473280059785127,
                1.7409295769934547,
                -3.0836544135202497
            ]
        }
    ]
}