{
    "goal": {
        "global_pose": {
            "orientation": {
                "w": 0.5084816262002911,
                "x": -0.4908360881923452,
                "y": 0.5182115481033761,
                "z": -0.48164630358495003
            },
            "position": {
                "x": 0.5540239810943604,
                "y": -0.46912469901144505,
                "z": 0.16403168439865112
            }
        },
        "name": "move_to_storage_B"
    },
    "id": "LazyPRMstar_move_to_storage_B_141",
    "joint_names": [
        "shoulder_pan_joint",
        "shoulder_lift_joint",
        "elbow_joint",
        "wrist_1_joint",
        "wrist_2_joint",
        "wrist_3_joint"
    ],
    "metrics": {
        "cart_traj_len": 1.070336795355764,
        "distance_elbow_joint": 0.7814153785574076,
        "distance_shoulder_lift_joint": 0.46291448287576786,
        "distance_shoulder_pan_joint": 0.608094751759718,
        "distance_wrist_1_joint": 3.021764648117518,
        "distance_wrist_2_joint": 2.7093779753628606,
        "distance_wrist_3_joint": 3.2497711368506974,
        "smoothness": 0.33697725636413145,
        "time": 5.036199885,
        "traj_len": 3.2914037086817487,
        "weighted_distance": 4.802501772066902
    },
    "planner": "LazyPRMstar",
    "start": {
        "state": {
            "elbow_joint": 1.664937868594044,
            "shoulder_lift_joint": -0.661644460510453,
            "shoulder_pan_joint": -0.9139846352900073,
            "wrist_1_joint": 2.146753192139373,
            "wrist_2_joint": -2.2341966793290973,
            "wrist_3_joint": 0.005466555786416001
        }
    },
    "waypoints": [
        {
            "positions": [
                -0.9139846352900073,
                -0.661644460510453,
                1.664937868594044,
                2.146753192139373,
                -2.2341966793290973,
                0.005466555786416001
            ]
        },
        {
            "positions": [
                -0.9107216809910618,
                -0.779395083873091,
                1.7306038530650523,
                2.086331761244119,
                -2.183725952964771,
                -0.017061340008842962
            ]
        },
        {
            "positions": [
                -0.9074587266921162,
                -0.8971457072357291,
                1.7962698375360606,
                2.025910330348865,
                -2.1332552266004448,
                -0.039589235804101924
            ]
        },
        {
            "positions": [
                -0.8660920122734758,
                -0.9182795232940583,
                1.7540912284409005,
                1.988877867397429,
                -2.0128046737618956,
                0.024894771195817733
            ]
        },
        {
            "positions": [
                -0.8247252978548353,
                -0.9394133393523875,
                1.7119126193457406,
                1.9518454044459932,
                -1.8923541209233463,
                0.08937877819573739
            ]
        },
        {
            "positions": [
                -0.7833585834361949,
                -0.9605471554107168,
                1.6697340102505804,
                1.9148129414945574,
                -1.771903568084797,
                0.15386278519565702
            ]
        },
        {
            "positions": [
                -0.7419918690175544,
                -0.981680971469046,
                1.6275554011554205,
                1.8777804785431216,
                -1.6514530152462479,
                0.2183467921955767
            ]
        },
        {
            "positions": [
                -0.700625154598914,
                -1.0028147875273752,
                1.5853767920602604,
                1.8407480155916858,
                -1.5310024624076985,
                0.28283079919549636
            ]
        },
        {
            "positions": [
                -0.7185676669202151,
                -1.0083486127936863,
                1.6053399904302417,
                1.7173044032476026,
                -1.4398122915694502,
                0.4138442223891592
            ]
        },
        {
            "positions": [
                -0.7365101792415162,
                -1.0138824380599976,
                1.6253031888002232,
                1.5938607909035194,
                -1.3486221207312021,
                0.544857645582822
            ]
        },
        {
            "positions": [
                -0.7544526915628174,
                -1.0194162633263086,
                1.6452663871702045,
                1.4704171785594362,
                -1.2574319498929538,
                0.6758710687764847
            ]
        },
        {
            "positions": [
                -0.7723952038841184,
                -1.02495008859262,
                1.665229585540186,
                1.346973566215353,
                -1.1662417790547055,
                0.8068844919701476
            ]
        },
        {
            "positions": [
                -0.7903377162054196,
                -1.030483913858931,
                1.6851927839101672,
                1.2235299538712696,
                -1.0750516082164574,
                0.9378979151638104
            ]
        },
        {
            "positions": [
                -0.8082802285267207,
                -1.036017739125242,
                1.7051559822801488,
                1.1000863415271867,
                -0.9838614373782091,
                1.068911338357473
            ]
        },
        {
            "positions": [
                -0.8262227408480218,
                -1.0415515643915534,
                1.7251191806501303,
                0.9766427291831034,
                -0.8926712665399608,
                1.1999247615511361
            ]
        },
        {
            "positions": [
                -0.8441652531693229,
                -1.0470853896578645,
                1.7450823790201115,
                0.85319911683902,
                -0.8014810957017124,
                1.3309381847447987
            ]
        },
        {
            "positions": [
                -0.8621077654906241,
                -1.0526192149241758,
                1.7650455773900928,
                0.7297555044949369,
                -0.7102909248634641,
                1.4619516079384618
            ]
        },
        {
            "positions": [
                -0.8800502778119252,
                -1.0581530401904868,
                1.7850087757600743,
                0.6063118921508537,
                -0.619100754025216,
                1.5929650311321244
            ]
        },
        {
            "positions": [
                -0.8979927901332263,
                -1.063686865456798,
                1.8049719741300558,
                0.4828682798067705,
                -0.5279105831869677,
                1.7239784543257872
            ]
        },
        {
            "positions": [
                -0.9159353024545274,
                -1.0692206907231092,
                1.8249351725000371,
                0.3594246674626873,
                -0.4367204123487196,
                1.8549918775194498
            ]
        },
        {
            "positions": [
                -0.9338778147758285,
                -1.0747545159894203,
                1.8448983708700184,
                0.2359810551186039,
                -0.34553024151047107,
                1.9860053007131129
            ]
        },
        {
            "positions": [
                -0.9518203270971297,
                -1.0802883412557316,
                1.86486156924,
                0.11253744277452093,
                -0.254340070672223,
                2.1170187239067757
            ]
        },
        {
            "positions": [
                -0.9697628394184308,
                -1.0858221665220427,
                1.8848247676099814,
                -0.010906169569562252,
                -0.16314989983397488,
                2.2480321471004383
            ]
        },
        {
            "positions": [
                -0.987705351739732,
                -1.091355991788354,
                1.9047879659799627,
                -0.13434978191364566,
                -0.07195972899572634,
                2.3790455702941014
            ]
        },
        {
            "positions": [
                -1.0056478640610331,
                -1.096889817054665,
                1.924751164349944,
                -0.2577933942577286,
                0.01923044184252176,
                2.510058993487764
            ]
        },
        {
            "positions": [
                -1.0235903763823342,
                -1.1024236423209761,
                1.9447143627199255,
                -0.38123700660181203,
                0.1104206126807703,
                2.6410724166814274
            ]
        },
        {
            "positions": [
                -1.0415328887036353,
                -1.1079574675872874,
                1.964677561089907,
                -0.504680618945895,
                0.2016107835190184,
                2.77208583987509
            ]
        },
        {
            "positions": [
                -1.0594754010249363,
                -1.1134912928535985,
                1.9846407594598883,
                -0.6281242312899784,
                0.2928009543572665,
                2.9030992630687527
            ]
        },
        {
            "positions": [
                -1.0774179133462376,
                -1.1190251181199098,
                2.0046039578298696,
                -0.7515678436340618,
                0.38399112519551504,
                3.0341126862624153
            ]
        },
        {
            "positions": [
                -1.0953604256675387,
                -1.1245589433862209,
                2.024567156199851,
                -0.8750114559781446,
                0.4751812960337629,
                3.165126109456078
            ]
        }
    ]
}