{
    "goal": {
        "global_pose": {
            "orientation": {
                "w": 0.7047431468963623,
                "x": -0.7094548344612122,
                "y": 0.0024358443915843964,
                "z": -0.0022348060738295317
            },
            "position": {
                "x": 0.6094750761985779,
                "y": 0.3671506643295288,
                "z": 0.19426114857196808
            }
        },
        "name": "move_to_magneteinheit_A"
    },
    "id": "LazyPRM_move_to_magneteinheit_A_72",
    "joint_names": [
        "shoulder_pan_joint",
        "shoulder_lift_joint",
        "elbow_joint",
        "wrist_1_joint",
        "wrist_2_joint",
        "wrist_3_joint"
    ],
    "metrics": {
        "cart_traj_len": 3.3254438106693893,
        "distance_elbow_joint": 3.872019970274152,
        "distance_shoulder_lift_joint": 0.9431936083221624,
        "distance_shoulder_pan_joint": 3.581482915280914,
        "distance_wrist_1_joint": 1.316510246601878,
        "distance_wrist_2_joint": 1.699778575349809,
        "distance_wrist_3_joint": 2.566287866279095,
        "smoothness": 0.19531978574983366,
        "time": 0.099405134,
        "traj_len": 3.7388866233289297,
        "weighted_distance": 4.704055456371437
    },
    "planner": "LazyPRM",
    "start": {
        "state": {
            "elbow_joint": -1.9196185241190666,
            "shoulder_lift_joint": -1.2443396400964142,
            "shoulder_pan_joint": 2.6996025414629847,
            "wrist_1_joint": -1.5485510000780065,
            "wrist_2_joint": -1.5709468930060704,
            "wrist_3_joint": 0.4420197071253992
        }
    },
    "waypoints": [
        {
            "positions": [
                2.6996025414629847,
                -1.2443396400964142,
                -1.9196185241190666,
                -1.5485510000780065,
                -1.5709468930060704,
                0.4420197071253992
            ]
        },
        {
            "positions": [
                2.576425835845776,
                -1.2608819623843073,
                -1.788480916879561,
                -1.5051711391065152,
                -1.5136854764010401,
                0.46653254552427814
            ]
        },
        {
            "positions": [
                2.4532491302285675,
                -1.2774242846722004,
                -1.6573433096400556,
                -1.4617912781350242,
                -1.4564240597960099,
                0.4910453839231571
            ]
        },
        {
            "positions": [
                2.330072424611359,
                -1.2939666069600935,
                -1.5262057024005502,
                -1.418411417163533,
                -1.3991626431909794,
                0.5155582223220361
            ]
        },
        {
            "positions": [
                2.2068957189941503,
                -1.3105089292479866,
                -1.3950680951610446,
                -1.3750315561920419,
                -1.3419012265859491,
                0.540071060720915
            ]
        },
        {
            "positions": [
                2.0837190133769417,
                -1.3270512515358797,
                -1.263930487921539,
                -1.3316516952205506,
                -1.2846398099809189,
                0.564583899119794
            ]
        },
        {
            "positions": [
                1.960542307759733,
                -1.3435935738237728,
                -1.1327928806820335,
                -1.2882718342490596,
                -1.2273783933758886,
                0.5890967375186729
            ]
        },
        {
            "positions": [
                1.8373656021425244,
                -1.360135896111666,
                -1.001655273442528,
                -1.2448919732775683,
                -1.1701169767708581,
                0.6136095759175519
            ]
        },
        {
            "positions": [
                1.7141888965253158,
                -1.3766782183995592,
                -0.8705176662030225,
                -1.2015121123060772,
                -1.1128555601658279,
                0.6381224143164308
            ]
        },
        {
            "positions": [
                1.5910121909081072,
                -1.3932205406874523,
                -0.7393800589635171,
                -1.1581322513345862,
                -1.0555941435607976,
                0.6626352527153098
            ]
        },
        {
            "positions": [
                1.4678354852908986,
                -1.4097628629753454,
                -0.6082424517240113,
                -1.114752390363095,
                -0.9983327269557674,
                0.6871480911141887
            ]
        },
        {
            "positions": [
                1.34465877967369,
                -1.4263051852632385,
                -0.47710484448450585,
                -1.0713725293916037,
                -0.9410713103507371,
                0.7116609295130677
            ]
        },
        {
            "positions": [
                1.2214820740564813,
                -1.4428475075511316,
                -0.34596723724500045,
                -1.0279926684201126,
                -0.8838098937457067,
                0.7361737679119467
            ]
        },
        {
            "positions": [
                1.0983053684392727,
                -1.4593898298390247,
                -0.21482963000549482,
                -0.9846128074486213,
                -0.8265484771406765,
                0.7606866063108256
            ]
        },
        {
            "positions": [
                0.9751286628220639,
                -1.4759321521269178,
                -0.0836920227659892,
                -0.9412329464771302,
                -0.7692870605356461,
                0.7851994447097046
            ]
        },
        {
            "positions": [
                0.8519519572048555,
                -1.4924744744148108,
                0.04744558447351599,
                -0.8978530855056391,
                -0.7120256439306158,
                0.8097122831085835
            ]
        },
        {
            "positions": [
                0.7287752515876469,
                -1.509016796702704,
                0.17858319171302162,
                -0.8544732245341479,
                -0.6547642273255855,
                0.8342251215074625
            ]
        },
        {
            "positions": [
                0.6055985459704383,
                -1.5255591189905973,
                0.30972079895252724,
                -0.8110933635626567,
                -0.5975028107205552,
                0.8587379599063415
            ]
        },
        {
            "positions": [
                0.48242184035322966,
                -1.5421014412784904,
                0.4408584061920324,
                -0.7677135025911657,
                -0.5402413941155251,
                0.8832507983052205
            ]
        },
        {
            "positions": [
                0.35924513473602104,
                -1.5586437635663835,
                0.5719960134315385,
                -0.7243336416196744,
                -0.4829799775104946,
                0.9077636367040993
            ]
        },
        {
            "positions": [
                0.23606842911881243,
                -1.5751860858542766,
                0.7031336206710441,
                -0.6809537806481832,
                -0.42571856090546434,
                0.9322764751029784
            ]
        },
        {
            "positions": [
                0.11289172350160381,
                -1.5917284081421696,
                0.8342712279105493,
                -0.6375739196766921,
                -0.3684571443004341,
                0.9567893135018573
            ]
        },
        {
            "positions": [
                -0.010284982115604802,
                -1.6082707304300627,
                0.9654088351500549,
                -0.5941940587052009,
                -0.3111957276954038,
                0.9813021519007362
            ]
        },
        {
            "positions": [
                -0.13346168773281342,
                -1.6248130527179558,
                1.0965464423895606,
                -0.5508141977337098,
                -0.25393431109037334,
                1.0058149902996152
            ]
        },
        {
            "positions": [
                -0.25663839335002203,
                -1.641355375005849,
                1.2276840496290657,
                -0.5074343367622187,
                -0.19667289448534309,
                1.030327828698494
            ]
        },
        {
            "positions": [
                -0.3798150989672305,
                -1.657897697293742,
                1.3588216568685716,
                -0.46405447579072745,
                -0.13941147788031294,
                1.0548406670973731
            ]
        },
        {
            "positions": [
                -0.3341728012535306,
                -1.609749010827848,
                1.4127834558946184,
                -0.48514663236478184,
                -0.1150257360417628,
                1.2324285676707478
            ]
        },
        {
            "positions": [
                -0.28853050353983073,
                -1.5616003243619538,
                1.4667452549206652,
                -0.5062387889388362,
                -0.09063999420321267,
                1.4100164682441225
            ]
        },
        {
            "positions": [
                -0.24288820582613085,
                -1.5134516378960599,
                1.5207070539467118,
                -0.5273309455128906,
                -0.06625425236466255,
                1.5876043688174972
            ]
        },
        {
            "positions": [
                -0.19724590811243098,
                -1.4653029514301659,
                1.5746688529727586,
                -0.548423102086945,
                -0.041868510526112415,
                1.7651922693908717
            ]
        },
        {
            "positions": [
                -0.1516036103987311,
                -1.4171542649642719,
                1.6286306519988054,
                -0.5695152586609993,
                -0.017482768687562295,
                1.9427801699642464
            ]
        },
        {
            "positions": [
                -0.10596131268503123,
                -1.3690055784983777,
                1.6825924510248522,
                -0.5906074152350537,
                0.00690297315098784,
                2.120368070537621
            ]
        },
        {
            "positions": [
                -0.06031901497133135,
                -1.3208568920324837,
                1.736554250050899,
                -0.6116995718091081,
                0.031288714989537975,
                2.297955971110996
            ]
        },
        {
            "positions": [
                -0.014676717257631477,
                -1.2727082055665897,
                1.7905160490769458,
                -0.6327917283831624,
                0.05567445682808811,
                2.4755438716843705
            ]
        },
        {
            "positions": [
                0.030965580456068398,
                -1.2245595191006955,
                1.8444778481029926,
                -0.6538838849572168,
                0.08006019866663824,
                2.653131772257745
            ]
        },
        {
            "positions": [
                0.07660787816976827,
                -1.1764108326348015,
                1.8984396471290392,
                -0.6749760415312712,
                0.10444594050518835,
                2.83071967283112
            ]
        },
        {
            "positions": [
                0.1222501758834682,
                -1.1282621461689075,
                1.952401446155086,
                -0.6960681981053256,
                0.12883168234373849,
                3.0083075734044944
            ]
        }
    ]
}