{
    "goal": {
        "global_pose": {
            "orientation": {
                "w": 0.7047431468963623,
                "x": -0.7094548344612122,
                "y": 0.0024358443915843964,
                "z": -0.0022348060738295317
            },
            "position": {
                "x": 0.6094750761985779,
                "y": 0.3671506643295288,
                "z": 0.19426114857196808
            }
        },
        "name": "move_to_magneteinheit_A"
    },
    "id": "LazyPRM_move_to_magneteinheit_A_16",
    "joint_names": [
        "shoulder_pan_joint",
        "shoulder_lift_joint",
        "elbow_joint",
        "wrist_1_joint",
        "wrist_2_joint",
        "wrist_3_joint"
    ],
    "metrics": {
        "cart_traj_len": 2.875930353737358,
        "distance_elbow_joint": 3.943950033669402,
        "distance_shoulder_lift_joint": 0.9472056642087779,
        "distance_shoulder_pan_joint": 2.9196408706253836,
        "distance_wrist_1_joint": 4.4071446908692025,
        "distance_wrist_2_joint": 2.059631779310801,
        "distance_wrist_3_joint": 0.762857954343485,
        "smoothness": 0.4487406413666341,
        "time": 0.192511914,
        "traj_len": 3.8781994524556174,
        "weighted_distance": 4.79926279462732
    },
    "planner": "LazyPRM",
    "start": {
        "state": {
            "elbow_joint": -1.9196185241190666,
            "shoulder_lift_joint": -1.2443396400964142,
            "shoulder_pan_joint": 2.6996025414629847,
            "wrist_1_joint": -1.5485510000780065,
            "wrist_2_joint": -1.5709468930060704,
            "wrist_3_joint": 0.4420197071253992
        }
    },
    "waypoints": [
        {
            "positions": [
                2.6996025414629847,
                -1.2443396400964142,
                -1.9196185241190666,
                -1.5485510000780065,
                -1.5709468930060704,
                0.4420197071253992
            ]
        },
        {
            "positions": [
                2.6198962424132226,
                -1.2535086907155353,
                -1.810538774835097,
                -1.4205685566070856,
                -1.5219461032978872,
                0.4294556311575689
            ]
        },
        {
            "positions": [
                2.54018994336346,
                -1.2626777413346564,
                -1.7014590255511275,
                -1.2925861131361647,
                -1.4729453135897037,
                0.41689155518973864
            ]
        },
        {
            "positions": [
                2.460483644313698,
                -1.2718467919537775,
                -1.5923792762671578,
                -1.1646036696652438,
                -1.4239445238815205,
                0.40432747922190837
            ]
        },
        {
            "positions": [
                2.3807773452639354,
                -1.2810158425728986,
                -1.4832995269831883,
                -1.0366212261943228,
                -1.3749437341733373,
                0.3917634032540781
            ]
        },
        {
            "positions": [
                2.3010710462141732,
                -1.2901848931920195,
                -1.3742197776992187,
                -0.9086387827234019,
                -1.325942944465154,
                0.37919932728624783
            ]
        },
        {
            "positions": [
                2.2213647471644107,
                -1.2993539438111406,
                -1.265140028415249,
                -0.780656339252481,
                -1.2769421547569708,
                0.36663525131841757
            ]
        },
        {
            "positions": [
                2.1416584481146486,
                -1.3085229944302617,
                -1.1560602791312795,
                -0.6526738957815601,
                -1.2279413650487874,
                0.35407117535058724
            ]
        },
        {
            "positions": [
                2.0619521490648864,
                -1.3176920450493828,
                -1.0469805298473098,
                -0.5246914523106392,
                -1.1789405753406041,
                0.341507099382757
            ]
        },
        {
            "positions": [
                1.9822458500151239,
                -1.3268610956685039,
                -0.9379007805633401,
                -0.39670900883971827,
                -1.129939785632421,
                0.3289430234149267
            ]
        },
        {
            "positions": [
                1.9025395509653618,
                -1.336030146287625,
                -0.8288210312793707,
                -0.26872656536879735,
                -1.0809389959242375,
                0.31637894744709644
            ]
        },
        {
            "positions": [
                1.8228332519155992,
                -1.345199196906746,
                -0.719741281995401,
                -0.14074412189787644,
                -1.0319382062160543,
                0.30381487147926617
            ]
        },
        {
            "positions": [
                1.743126952865837,
                -1.3543682475258672,
                -0.6106615327114313,
                -0.012761678426955525,
                -0.982937416507871,
                0.2912507955114359
            ]
        },
        {
            "positions": [
                1.6634206538160747,
                -1.3635372981449883,
                -0.5015817834274618,
                0.11522076504396539,
                -0.9339366267996878,
                0.2786867195436056
            ]
        },
        {
            "positions": [
                1.5837143547663124,
                -1.3727063487641091,
                -0.39250203414349216,
                0.2432032085148863,
                -0.8849358370915045,
                0.2661226435757753
            ]
        },
        {
            "positions": [
                1.5040080557165498,
                -1.3818753993832302,
                -0.2834222848595225,
                0.37118565198580744,
                -0.8359350473833211,
                0.25355856760794504
            ]
        },
        {
            "positions": [
                1.4243017566667877,
                -1.3910444500023513,
                -0.17434253557555301,
                0.49916809545672813,
                -0.7869342576751379,
                0.2409944916401148
            ]
        },
        {
            "positions": [
                1.3445954576170254,
                -1.4002135006214724,
                -0.06526278629158311,
                0.6271505389276493,
                -0.7379334679669546,
                0.2284304156722845
            ]
        },
        {
            "positions": [
                1.264889158567263,
                -1.4093825512405935,
                0.043816962992386355,
                0.75513298239857,
                -0.6889326782587714,
                0.21586633970445424
            ]
        },
        {
            "positions": [
                1.1851828595175007,
                -1.4185516018597146,
                0.15289671227635582,
                0.8831154258694911,
                -0.639931888550588,
                0.20330226373662397
            ]
        },
        {
            "positions": [
                1.1054765604677386,
                -1.4277206524788357,
                0.2619764615603253,
                1.0110978693404118,
                -0.5909310988424048,
                0.1907381877687937
            ]
        },
        {
            "positions": [
                1.025770261417976,
                -1.4368897030979568,
                0.3710562108442952,
                1.139080312811333,
                -0.5419303091342214,
                0.17817411180096343
            ]
        },
        {
            "positions": [
                0.9460639623682139,
                -1.446058753717078,
                0.48013596012826465,
                1.2670627562822536,
                -0.49292951942603835,
                0.16561003583313316
            ]
        },
        {
            "positions": [
                0.8663576633184513,
                -1.4552278043361988,
                0.5892157094122346,
                1.3950451997531748,
                -0.4439287297178549,
                0.15304595986530284
            ]
        },
        {
            "positions": [
                0.7866513642686892,
                -1.46439685495532,
                0.698295458696204,
                1.5230276432240955,
                -0.3949279400096717,
                0.14048188389747263
            ]
        },
        {
            "positions": [
                0.7069450652189269,
                -1.473565905574441,
                0.8073752079801735,
                1.6510100866950166,
                -0.34592715030148824,
                0.1279178079296423
            ]
        },
        {
            "positions": [
                0.6272387661691647,
                -1.482734956193562,
                0.9164549572641429,
                1.7789925301659373,
                -0.29692636059330524,
                0.11535373196181203
            ]
        },
        {
            "positions": [
                0.5475324671194022,
                -1.4919040068126832,
                1.0255347065481129,
                1.9069749736368584,
                -0.2479255708851218,
                0.10278965599398177
            ]
        },
        {
            "positions": [
                0.4730840012381821,
                -1.4635744650252311,
                1.1234338829195865,
                1.9748432105042966,
                -0.19418672692514047,
                0.06136821496409194
            ]
        },
        {
            "positions": [
                0.39863553535696206,
                -1.435244923237779,
                1.22133305929106,
                2.0427114473717345,
                -0.14044788296515914,
                0.01994677393420212
            ]
        },
        {
            "positions": [
                0.32418706947574194,
                -1.406915381450327,
                1.319232235662534,
                2.1105796842391724,
                -0.08670903900517782,
                -0.02147466709568771
            ]
        },
        {
            "positions": [
                0.24973860359452188,
                -1.378585839662875,
                1.4171314120340075,
                2.178447921106611,
                -0.03297019504519649,
                -0.06289610812557753
            ]
        },
        {
            "positions": [
                0.17529013771330182,
                -1.3502562978754227,
                1.515030588405481,
                2.2463161579740487,
                0.020768648914784804,
                -0.10431754915546734
            ]
        },
        {
            "positions": [
                0.1008416718320817,
                -1.3219267560879706,
                1.612929764776955,
                2.3141843948414866,
                0.07450749287476616,
                -0.1457389901853572
            ]
        },
        {
            "positions": [
                0.026393205950861698,
                -1.2935972143005185,
                1.7108289411484285,
                2.382052631708925,
                0.1282463368347475,
                -0.187160431215247
            ]
        },
        {
            "positions": [
                -0.04805525993035842,
                -1.2652676725130665,
                1.8087281175199021,
                2.449920868576363,
                0.1819851807947288,
                -0.22858187224513682
            ]
        },
        {
            "positions": [
                -0.013658646083950343,
                -1.170666679874488,
                1.8518487959259886,
                2.3681863041333964,
                0.12064523969272833,
                -0.21013059725054709
            ]
        },
        {
            "positions": [
                0.020737967762457732,
                -1.0760656872359096,
                1.8949694743320749,
                2.28645173969043,
                0.059305298590727876,
                -0.19167932225595735
            ]
        },
        {
            "positions": [
                0.05513458160886581,
                -0.9814646945973311,
                1.9380901527381613,
                2.204717175247463,
                -0.002034642511272583,
                -0.1732280472613676
            ]
        },
        {
            "positions": [
                0.08953119545527388,
                -0.8868637019587526,
                1.9812108311442476,
                2.1229826108044962,
                -0.06337458361327306,
                -0.15477677226677786
            ]
        },
        {
            "positions": [
                0.12392780930168196,
                -0.7922627093201743,
                2.024331509550334,
                2.0412480463615297,
                -0.1247145247152735,
                -0.13632549727218812
            ]
        }
    ]
}