{
    "goal": {
        "global_pose": {
            "orientation": {
                "w": -0.00223480608172531,
                "x": 0.0024358444001904467,
                "y": 0.7094548369677653,
                "z": -0.704743149386269
            },
            "position": {
                "x": -0.37947507619857795,
                "y": -0.6371506643295288,
                "z": 0.19426114857196808
            }
        },
        "name": "move_to_magneteinheit_C"
    },
    "id": "LazyPRMstar_move_to_magneteinheit_C_6",
    "joint_names": [
        "shoulder_pan_joint",
        "shoulder_lift_joint",
        "elbow_joint",
        "wrist_1_joint",
        "wrist_2_joint",
        "wrist_3_joint"
    ],
    "metrics": {
        "cart_traj_len": 1.3641804153350414,
        "distance_elbow_joint": 0.20450647451617288,
        "distance_shoulder_lift_joint": 2.2933230369112794,
        "distance_shoulder_pan_joint": 0.8062876524097555,
        "distance_wrist_1_joint": 0.8393484329445777,
        "distance_wrist_2_joint": 0.794431830019631,
        "distance_wrist_3_joint": 0.25156327567520265,
        "smoothness": 1.0695157594291205,
        "time": 5.014408788,
        "traj_len": 2.2780387842345045,
        "weighted_distance": 2.706726346860952
    },
    "planner": "LazyPRMstar",
    "start": {
        "state": {
            "elbow_joint": 1.9565354010623817,
            "shoulder_lift_joint": -1.4165861575791021,
            "shoulder_pan_joint": -1.6717766225146293,
            "wrist_1_joint": -0.5286633292919765,
            "wrist_2_joint": 1.472756589071564,
            "wrist_3_joint": -3.1238370188695823
        }
    },
    "waypoints": [
        {
            "positions": [
                -1.6717766225146293,
                -1.4165861575791021,
                1.9565354010623817,
                -0.5286633292919765,
                1.472756589071564,
                -3.1238370188695823
            ]
        },
        {
            "positions": [
                -1.7265937419779247,
                -1.5848978008803907,
                1.950793082416765,
                -0.4721080531055903,
                1.4022398010367043,
                -3.109848022399457
            ]
        },
        {
            "positions": [
                -1.7814108614412199,
                -1.753209444181679,
                1.9450507637711483,
                -0.4155527769192041,
                1.3317230130018447,
                -3.0958590259293315
            ]
        },
        {
            "positions": [
                -1.8971816679397533,
                -1.8672336298639756,
                1.9665964242655058,
                -0.38962232900318766,
                1.2297745866548273,
                -3.0815036394823014
            ]
        },
        {
            "positions": [
                -2.0129524744382867,
                -1.9812578155462723,
                1.9881420847598632,
                -0.36369188108717126,
                1.12782616030781,
                -3.067148253035272
            ]
        },
        {
            "positions": [
                -2.12872328093682,
                -2.095282001228569,
                2.0096877452542206,
                -0.3377614331711548,
                1.0258777339607927,
                -3.052792866588242
            ]
        },
        {
            "positions": [
                -2.244494087435353,
                -2.2093061869108657,
                2.031233405748578,
                -0.3118309852551384,
                0.9239293076137753,
                -3.0384374801412117
            ]
        },
        {
            "positions": [
                -2.360264893933887,
                -2.323330372593162,
                2.0527790662429357,
                -0.2859005373391219,
                0.821980881266758,
                -3.024082093694182
            ]
        },
        {
            "positions": [
                -2.47603570043242,
                -2.4373545582754588,
                2.0743247267372933,
                -0.2599700894231055,
                0.7200324549197407,
                -3.009726707247152
            ]
        },
        {
            "positions": [
                -2.4756976046837593,
                -2.225262118906305,
                2.0637000810274944,
                -0.35507928826905666,
                0.713081172275106,
                -3.032635534589281
            ]
        },
        {
            "positions": [
                -2.4753595089350986,
                -2.013169679537151,
                2.053075435317695,
                -0.45018848711500775,
                0.7061298896304714,
                -3.0555443619314095
            ]
        },
        {
            "positions": [
                -2.475021413186438,
                -1.8010772401679973,
                2.042450789607896,
                -0.5452976859609588,
                0.6991786069858368,
                -3.0784531892735383
            ]
        },
        {
            "positions": [
                -2.4746833174377767,
                -1.5889848007988436,
                2.031826143898097,
                -0.64040688480691,
                0.6922273243412022,
                -3.101362016615667
            ]
        },
        {
            "positions": [
                -2.474345221689116,
                -1.3768923614296895,
                2.0212014981882978,
                -0.7355160836528611,
                0.6852760416965675,
                -3.1242708439577958
            ]
        },
        {
            "positions": [
                -2.4740071259404552,
                -1.1647999220605358,
                2.010576852478499,
                -0.8306252824988123,
                0.6783247590519329,
                -3.1471796712999245
            ]
        }
    ]
}