{
    "goal": {
        "global_pose": {
            "orientation": {
                "w": -0.00223480608172531,
                "x": 0.0024358444001904467,
                "y": 0.7094548369677653,
                "z": -0.704743149386269
            },
            "position": {
                "x": 0.6205249238014221,
                "y": -0.6371506643295288,
                "z": 0.19426114857196808
            }
        },
        "name": "move_to_magneteinheit_B"
    },
    "id": "LazyPRMstar_move_to_magneteinheit_B_50",
    "joint_names": [
        "shoulder_pan_joint",
        "shoulder_lift_joint",
        "elbow_joint",
        "wrist_1_joint",
        "wrist_2_joint",
        "wrist_3_joint"
    ],
    "metrics": {
        "cart_traj_len": 3.245178396359055,
        "distance_elbow_joint": 5.0517046349924595,
        "distance_shoulder_lift_joint": 1.061339854308529,
        "distance_shoulder_pan_joint": 2.0163385234333813,
        "distance_wrist_1_joint": 1.0437709176339869,
        "distance_wrist_2_joint": 1.1815197129028019,
        "distance_wrist_3_joint": 0.09196066210657147,
        "smoothness": 0.3751846224399007,
        "time": 5.112358897,
        "traj_len": 3.2321253542178288,
        "weighted_distance": 3.5855050216291233
    },
    "planner": "LazyPRMstar",
    "start": {
        "state": {
            "elbow_joint": 2.6216224122426386,
            "shoulder_lift_joint": -1.4174107377796124,
            "shoulder_pan_joint": 0.7066234856936794,
            "wrist_1_joint": 1.9546482284002225,
            "wrist_2_joint": -0.7096286983471962,
            "wrist_3_joint": 0.005740856962016249
        }
    },
    "waypoints": [
        {
            "positions": [
                0.7066234856936794,
                -1.4174107377796124,
                2.6216224122426386,
                1.9546482284002225,
                -0.7096286983471962,
                0.005740856962016249
            ]
        },
        {
            "positions": [
                0.6909799962587011,
                -1.5686110489201157,
                2.6156023479779846,
                1.9673520011902446,
                -0.6945128293291083,
                0.0053756936051213644
            ]
        },
        {
            "positions": [
                0.6753365068237227,
                -1.719811360060619,
                2.6095822837133307,
                1.9800557739802667,
                -0.6793969603110204,
                0.00501053024822648
            ]
        },
        {
            "positions": [
                0.7365524804202237,
                -1.7295128858269602,
                2.36846776697573,
                1.931853087616321,
                -0.6467736875943969,
                0.0039017159863319996
            ]
        },
        {
            "positions": [
                0.7977684540167248,
                -1.7392144115933015,
                2.1273532502381287,
                1.8836504012523752,
                -0.6141504148777734,
                0.002792901724437519
            ]
        },
        {
            "positions": [
                0.8589844276132258,
                -1.7489159373596426,
                1.8862387335005277,
                1.8354477148884294,
                -0.5815271421611499,
                0.0016840874625430385
            ]
        },
        {
            "positions": [
                0.9202004012097269,
                -1.7586174631259837,
                1.6451242167629267,
                1.7872450285244836,
                -0.5489038694445264,
                0.0005752732006485579
            ]
        },
        {
            "positions": [
                0.9814163748062279,
                -1.768318988892325,
                1.4040097000253255,
                1.739042342160538,
                -0.5162805967279029,
                -0.0005335410612459235
            ]
        },
        {
            "positions": [
                1.042632348402729,
                -1.778020514658666,
                1.1628951832877248,
                1.6908396557965923,
                -0.4836573240112795,
                -0.0016423553231404032
            ]
        },
        {
            "positions": [
                1.10384832199923,
                -1.7877220404250072,
                0.9217806665501236,
                1.6426369694326466,
                -0.45103405129465596,
                -0.0027511695850348846
            ]
        },
        {
            "positions": [
                1.165064295595731,
                -1.7974235661913485,
                0.6806661498125228,
                1.5944342830687008,
                -0.4184107785780325,
                -0.0038599838469293643
            ]
        },
        {
            "positions": [
                1.226280269192232,
                -1.8071250919576896,
                0.4395516330749216,
                1.546231596704755,
                -0.385787505861409,
                -0.004968798108823846
            ]
        },
        {
            "positions": [
                1.287496242788733,
                -1.8168266177240306,
                0.19843711633732042,
                1.4980289103408093,
                -0.35316423314478546,
                -0.006077612370718327
            ]
        },
        {
            "positions": [
                1.348712216385234,
                -1.826528143490372,
                -0.042677400400280785,
                1.4498262239768636,
                -0.320540960428162,
                -0.007186426632612809
            ]
        },
        {
            "positions": [
                1.409928189981735,
                -1.836229669256713,
                -0.2837919171378811,
                1.401623537612918,
                -0.28791768771153853,
                -0.008295240894507287
            ]
        },
        {
            "positions": [
                1.4711441635782363,
                -1.8459311950230541,
                -0.5249064338754823,
                1.353420851248972,
                -0.255294414994915,
                -0.009404055156401768
            ]
        },
        {
            "positions": [
                1.5323601371747373,
                -1.8556327207893955,
                -0.7660209506130835,
                1.3052181648850265,
                -0.22267114227829155,
                -0.01051286941829625
            ]
        },
        {
            "positions": [
                1.5935761107712385,
                -1.8653342465557365,
                -1.0071354673506847,
                1.2570154785210805,
                -0.19004786956166803,
                -0.01162168368019073
            ]
        },
        {
            "positions": [
                1.6547920843677395,
                -1.8750357723220776,
                -1.248249984088285,
                1.208812792157135,
                -0.15742459684504462,
                -0.012730497942085209
            ]
        },
        {
            "positions": [
                1.7160080579642405,
                -1.884737298088419,
                -1.4893645008258867,
                1.1606101057931892,
                -0.12480132412842104,
                -0.01383931220397969
            ]
        },
        {
            "positions": [
                1.7772240315607415,
                -1.89443882385476,
                -1.7304790175634874,
                1.1124074194292435,
                -0.09217805141179759,
                -0.014948126465874172
            ]
        },
        {
            "positions": [
                1.866582050775243,
                -1.9503078173969444,
                -1.8366935797629236,
                1.0655212099009508,
                -0.01698108315133752,
                0.0028121438188912946
            ]
        },
        {
            "positions": [
                1.955940069989745,
                -2.0061768109391287,
                -1.94290814196236,
                1.018635000372658,
                0.05821588510912255,
                0.02057241410365676
            ]
        },
        {
            "positions": [
                2.0452980892042465,
                -2.062045804481313,
                -2.049122704161796,
                0.9717487908443654,
                0.13341285336958264,
                0.03833268438842223
            ]
        },
        {
            "positions": [
                2.1683160816408265,
                -2.1453867620026785,
                -1.9729308004441912,
                0.9737600686279736,
                0.20110848560678724,
                0.034734510823545305
            ]
        },
        {
            "positions": [
                2.291334074077407,
                -2.2287277195240445,
                -1.8967388967265864,
                0.9757713464115819,
                0.26880411784399183,
                0.03113633725866838
            ]
        },
        {
            "positions": [
                2.414352066513987,
                -2.31206867704541,
                -1.8205469930089815,
                0.9777826241951901,
                0.33649975008119637,
                0.027538163693791452
            ]
        },
        {
            "positions": [
                2.537370058950567,
                -2.395409634566776,
                -1.7443550892913764,
                0.9797939019787985,
                0.40419538231840096,
                0.023939990128914526
            ]
        },
        {
            "positions": [
                2.660388051387147,
                -2.4787505920881414,
                -1.6681631855737715,
                0.9818051797624067,
                0.4718910145556055,
                0.0203418165640376
            ]
        }
    ]
}