{
    "goal": {
        "global_pose": {
            "orientation": {
                "w": 0.7031023480610252,
                "x": -0.7110244013736278,
                "y": 0.0077485991402295624,
                "z": 0.005598929693374583
            },
            "position": {
                "x": -0.8841497679147869,
                "y": 0.44412534475326537,
                "z": 0.3711530566215515
            }
        },
        "name": "move_to_auspresseinheit_D"
    },
    "id": "LazyPRM_move_to_auspresseinheit_D_71",
    "joint_names": [
        "shoulder_pan_joint",
        "shoulder_lift_joint",
        "elbow_joint",
        "wrist_1_joint",
        "wrist_2_joint",
        "wrist_3_joint"
    ],
    "metrics": {
        "cart_traj_len": 0.3429792663213068,
        "distance_elbow_joint": 0.6293105322517789,
        "distance_shoulder_lift_joint": 0.11595062329289574,
        "distance_shoulder_pan_joint": 0.13392717836842202,
        "distance_wrist_1_joint": 0.5014180686896852,
        "distance_wrist_2_joint": 1.4350339867063353,
        "distance_wrist_3_joint": 0.023310643817330057,
        "smoothness": 9.868649106494575e-16,
        "time": 0.012224688,
        "traj_len": 1.6849187022305994,
        "weighted_distance": 2.195910830647986
    },
    "planner": "LazyPRM",
    "start": {
        "state": {
            "elbow_joint": -1.8275523626775212,
            "shoulder_lift_joint": -2.126789852344167,
            "shoulder_pan_joint": -0.03513704404078235,
            "wrist_1_joint": -2.347782403156801,
            "wrist_2_joint": -1.6058999987535132,
            "wrist_3_joint": -3.0880379163319196
        }
    },
    "waypoints": [
        {
            "positions": [
                -0.03513704404078235,
                -2.126789852344167,
                -1.8275523626775212,
                -2.347782403156801,
                -1.6058999987535132,
                -3.0880379163319196
            ]
        },
        {
            "positions": [
                -0.0518779413368351,
                -2.141283680255779,
                -1.7488885461460488,
                -2.4104596617430114,
                -1.4265207504152213,
                -3.0909517468090857
            ]
        },
        {
            "positions": [
                -0.06861883863288785,
                -2.155777508167391,
                -1.6702247296145765,
                -2.473136920329222,
                -1.2471415020769294,
                -3.0938655772862522
            ]
        },
        {
            "positions": [
                -0.08535973592894061,
                -2.170271336079003,
                -1.591560913083104,
                -2.535814178915433,
                -1.0677622537386373,
                -3.0967794077634183
            ]
        },
        {
            "positions": [
                -0.10210063322499335,
                -2.1847651639906145,
                -1.5128970965516317,
                -2.5984914375016435,
                -0.8883830054003455,
                -3.099693238240585
            ]
        },
        {
            "positions": [
                -0.11884153052104612,
                -2.1992589919022265,
                -1.4342332800201594,
                -2.661168696087854,
                -0.7090037570620537,
                -3.102607068717751
            ]
        },
        {
            "positions": [
                -0.13558242781709887,
                -2.2137528198138385,
                -1.355569463488687,
                -2.723845954674065,
                -0.5296245087237617,
                -3.105520899194917
            ]
        },
        {
            "positions": [
                -0.1523233251131516,
                -2.2282466477254506,
                -1.2769056469572146,
                -2.7865232132602755,
                -0.35024526038546977,
                -3.1084347296720836
            ]
        },
        {
            "positions": [
                -0.16906422240920438,
                -2.2427404756370626,
                -1.1982418304257423,
                -2.849200471846486,
                -0.17086601204717794,
                -3.1113485601492497
            ]
        }
    ]
}