{
    "goal": {
        "global_pose": {
            "orientation": {
                "w": 0.005598929693374612,
                "x": 0.007748599140229565,
                "y": 0.7110244013736278,
                "z": -0.7031023480610252
            },
            "position": {
                "x": 0.1141497679147869,
                "y": -0.7141253447532654,
                "z": 0.3711530566215515
            }
        },
        "name": "move_to_auspresseinheit_B"
    },
    "id": "LazyPRMstar_move_to_auspresseinheit_B_92",
    "joint_names": [
        "shoulder_pan_joint",
        "shoulder_lift_joint",
        "elbow_joint",
        "wrist_1_joint",
        "wrist_2_joint",
        "wrist_3_joint"
    ],
    "metrics": {
        "cart_traj_len": 0.564713076175952,
        "distance_elbow_joint": 0.05961318017640593,
        "distance_shoulder_lift_joint": 0.2951342609095209,
        "distance_shoulder_pan_joint": 0.5768045195922926,
        "distance_wrist_1_joint": 0.3165946479368851,
        "distance_wrist_2_joint": 0.9973670386199809,
        "distance_wrist_3_joint": 0.005814568056928593,
        "smoothness": 0.0,
        "time": 5.000719328000001,
        "traj_len": 1.5004426731108436,
        "weighted_distance": 1.891274448080642
    },
    "planner": "LazyPRMstar",
    "start": {
        "state": {
            "elbow_joint": 2.0193083361928714,
            "shoulder_lift_joint": -1.1220246554650708,
            "shoulder_pan_joint": -1.0952077554168747,
            "wrist_1_joint": -0.8559753972642168,
            "wrist_2_joint": 0.4759566250798843,
            "wrist_3_joint": -3.1240929996934557
        }
    },
    "waypoints": [
        {
            "positions": [
                -1.0952077554168747,
                -1.1220246554650708,
                2.0193083361928714,
                -0.8559753972642168,
                0.4759566250798843,
                -3.1240929996934557
            ]
        },
        {
            "positions": [
                -1.1913418420155901,
                -1.171213698949991,
                2.0093728061634706,
                -0.8032096226080693,
                0.6421844648498811,
                -3.1231239050173007
            ]
        },
        {
            "positions": [
                -1.2874759286143056,
                -1.220402742434911,
                1.9994372761340695,
                -0.7504438479519218,
                0.8084123046198779,
                -3.1221548103411463
            ]
        },
        {
            "positions": [
                -1.383610015213021,
                -1.2695917859198311,
                1.9895017461046685,
                -0.6976780732957742,
                0.9746401443898747,
                -3.1211857156649914
            ]
        },
        {
            "positions": [
                -1.4797441018117363,
                -1.3187808294047514,
                1.9795662160752674,
                -0.6449122986396267,
                1.1408679841598715,
                -3.1202166209888365
            ]
        },
        {
            "positions": [
                -1.5758781884104518,
                -1.3679698728896716,
                1.9696306860458666,
                -0.5921465239834792,
                1.3070958239298685,
                -3.119247526312682
            ]
        },
        {
            "positions": [
                -1.6720122750091673,
                -1.4171589163745917,
                1.9596951560164655,
                -0.5393807493273317,
                1.4733236636998652,
                -3.118278431636527
            ]
        }
    ]
}