{
    "goal": {
        "global_pose": {
            "orientation": {
                "w": 0.7047431468963623,
                "x": -0.7094548344612122,
                "y": 0.0024358443915843964,
                "z": -0.0022348060738295317
            },
            "position": {
                "x": 0.6094750761985779,
                "y": 0.3671506643295288,
                "z": 0.19426114857196808
            }
        },
        "name": "move_to_magneteinheit_A"
    },
    "id": "LazyPRMstar_move_to_magneteinheit_A_106",
    "joint_names": [
        "shoulder_pan_joint",
        "shoulder_lift_joint",
        "elbow_joint",
        "wrist_1_joint",
        "wrist_2_joint",
        "wrist_3_joint"
    ],
    "metrics": {
        "cart_traj_len": 3.307625769847497,
        "distance_elbow_joint": 3.938935951732362,
        "distance_shoulder_lift_joint": 0.6076861613497827,
        "distance_shoulder_pan_joint": 2.797283214051069,
        "distance_wrist_1_joint": 3.5702208199412073,
        "distance_wrist_2_joint": 1.4449219341786432,
        "distance_wrist_3_joint": 0.9134498593192474,
        "smoothness": 0.05242264902736668,
        "time": 5.0546304200000005,
        "traj_len": 3.643143963745095,
        "weighted_distance": 4.484923679766542
    },
    "planner": "LazyPRMstar",
    "start": {
        "state": {
            "elbow_joint": -1.9196185241190666,
            "shoulder_lift_joint": -1.2443396400964142,
            "shoulder_pan_joint": 2.6996025414629847,
            "wrist_1_joint": -1.5485510000780065,
            "wrist_2_joint": -1.5709468930060704,
            "wrist_3_joint": 0.4420197071253992
        }
    },
    "waypoints": [
        {
            "positions": [
                2.6996025414629847,
                -1.2443396400964142,
                -1.9196185241190666,
                -1.5485510000780065,
                -1.5709468930060704,
                0.4420197071253992
            ]
        },
        {
            "positions": [
                2.5876218710828756,
                -1.2221902661677109,
                -1.8294381440590106,
                -1.4498241641553682,
                -1.5374472605538223,
                0.41136668076592264
            ]
        },
        {
            "positions": [
                2.475641200702767,
                -1.2000408922390078,
                -1.7392577639989546,
                -1.35109732823273,
                -1.503947628101574,
                0.38071365440644617
            ]
        },
        {
            "positions": [
                2.3636605303226577,
                -1.1778915183103045,
                -1.6490773839388984,
                -1.2523704923100918,
                -1.470447995649326,
                0.35006062804696964
            ]
        },
        {
            "positions": [
                2.2516798599425485,
                -1.1557421443816014,
                -1.5588970038788423,
                -1.1536436563874537,
                -1.4369483631970776,
                0.31940760168749316
            ]
        },
        {
            "positions": [
                2.1396991895624393,
                -1.133592770452898,
                -1.4687166238187863,
                -1.0549168204648154,
                -1.4034487307448296,
                0.2887545753280166
            ]
        },
        {
            "positions": [
                2.02771851918233,
                -1.1114433965241948,
                -1.37853624375873,
                -0.9561899845421772,
                -1.3699490982925813,
                0.2581015489685401
            ]
        },
        {
            "positions": [
                1.9157378488022214,
                -1.0892940225954917,
                -1.288355863698674,
                -0.8574631486195389,
                -1.3364494658403332,
                0.2274485226090636
            ]
        },
        {
            "positions": [
                1.8037571784221123,
                -1.0671446486667884,
                -1.198175483638618,
                -0.7587363126969008,
                -1.3029498333880851,
                0.19679549624958712
            ]
        },
        {
            "positions": [
                1.691776508042003,
                -1.044995274738085,
                -1.107995103578562,
                -0.6600094767742626,
                -1.2694502009358368,
                0.1661424698901106
            ]
        },
        {
            "positions": [
                1.5797958376618941,
                -1.022845900809382,
                -1.017814723518506,
                -0.5612826408516243,
                -1.2359505684835888,
                0.13548944353063408
            ]
        },
        {
            "positions": [
                1.4678151672817852,
                -1.0006965268806787,
                -0.9276343434584499,
                -0.4625558049289862,
                -1.2024509360313407,
                0.1048364171711576
            ]
        },
        {
            "positions": [
                1.355834496901676,
                -0.9785471529519755,
                -0.8374539633983937,
                -0.36382896900634787,
                -1.1689513035790924,
                0.07418339081168107
            ]
        },
        {
            "positions": [
                1.243853826521567,
                -0.9563977790232723,
                -0.7472735833383377,
                -0.2651021330837098,
                -1.1354516711268443,
                0.043530364452204595
            ]
        },
        {
            "positions": [
                1.131873156141458,
                -0.934248405094569,
                -0.6570932032782815,
                -0.16637529716107125,
                -1.101952038674596,
                0.012877338092728008
            ]
        },
        {
            "positions": [
                1.019892485761349,
                -0.9120990311658658,
                -0.5669128232182254,
                -0.06764846123843316,
                -1.068452406222348,
                -0.01777568826674847
            ]
        },
        {
            "positions": [
                0.9079118153812398,
                -0.8899496572371626,
                -0.47673244315816943,
                0.031078374684204935,
                -1.0349527737700996,
                -0.048428714626224945
            ]
        },
        {
            "positions": [
                0.7959311450011306,
                -0.8678002833084593,
                -0.3865520630981132,
                0.12980521060684325,
                -1.0014531413178516,
                -0.07908174098570153
            ]
        },
        {
            "positions": [
                0.6839504746210214,
                -0.8456509093797562,
                -0.2963716830380574,
                0.22853204652948134,
                -0.9679535088656034,
                -0.10973476734517795
            ]
        },
        {
            "positions": [
                0.5719698042409127,
                -0.8235015354510529,
                -0.20619130297800137,
                0.32725888245211965,
                -0.9344538764133552,
                -0.14038779370465448
            ]
        },
        {
            "positions": [
                0.45998913386080353,
                -0.8013521615223497,
                -0.11601092291794513,
                0.42598571837475796,
                -0.900954243961107,
                -0.17104082006413102
            ]
        },
        {
            "positions": [
                0.34800846348069436,
                -0.7792027875936465,
                -0.025830542857889105,
                0.5247125542973963,
                -0.8674546115088588,
                -0.20169384642360755
            ]
        },
        {
            "positions": [
                0.23602779310058564,
                -0.7570534136649432,
                0.06434983720216692,
                0.6234393902200341,
                -0.8339549790566108,
                -0.23234687278308397
            ]
        },
        {
            "positions": [
                0.12404712272047647,
                -0.73490403973624,
                0.15453021726222316,
                0.7221662261426725,
                -0.8004553466043626,
                -0.2629998991425605
            ]
        },
        {
            "positions": [
                0.01206645234036714,
                -0.7127546658075368,
                0.24471059732227923,
                0.8208930620653108,
                -0.7669557141521144,
                -0.29365292550203703
            ]
        },
        {
            "positions": [
                0.014213080042744627,
                -0.7166443749370168,
                0.40075428740070795,
                0.940389662373159,
                -0.7109260030087978,
                -0.27811949254571955
            ]
        },
        {
            "positions": [
                0.016359707745122114,
                -0.7205340840664968,
                0.5567979774791367,
                1.0598862626810073,
                -0.6548962918654813,
                -0.2625860595894021
            ]
        },
        {
            "positions": [
                0.018506335447499602,
                -0.7244237931959767,
                0.7128416675575655,
                1.1793828629888554,
                -0.5988665807221647,
                -0.24705262663308467
            ]
        },
        {
            "positions": [
                0.020652963149877086,
                -0.7283135023254568,
                0.8688853576359943,
                1.2988794632967036,
                -0.5428368695788481,
                -0.2315191936767672
            ]
        },
        {
            "positions": [
                0.022799590852254574,
                -0.7322032114549368,
                1.024929047714423,
                1.418376063604552,
                -0.48680715843553163,
                -0.21598576072044975
            ]
        },
        {
            "positions": [
                0.02494621855463206,
                -0.7360929205844168,
                1.1809727377928516,
                1.5378726639124,
                -0.43077744729221507,
                -0.2004523277641323
            ]
        },
        {
            "positions": [
                0.02709284625700955,
                -0.7399826297138967,
                1.3370164278712804,
                1.6573692642202484,
                -0.3747477361488985,
                -0.18491889480781484
            ]
        },
        {
            "positions": [
                0.029239473959387034,
                -0.7438723388433768,
                1.4930601179497092,
                1.7768658645280966,
                -0.31871802500558194,
                -0.1693854618514974
            ]
        },
        {
            "positions": [
                0.060097508395864696,
                -0.7588668435183985,
                1.6684792211709052,
                1.8584671829731316,
                -0.25448700294619714,
                -0.1515488741710736
            ]
        },
        {
            "positions": [
                0.09095554283234235,
                -0.7738613481934203,
                1.8438983243921012,
                1.9400685014181664,
                -0.1902559808868123,
                -0.1337122864906498
            ]
        },
        {
            "positions": [
                0.12181357726882001,
                -0.7888558528684421,
                2.0193174276132972,
                2.0216698198632015,
                -0.12602495882742748,
                -0.11587569881022604
            ]
        }
    ]
}