{
    "goal": {
        "global_pose": {
            "orientation": {
                "w": 0.7031023502349854,
                "x": -0.7110244035720825,
                "y": 0.007748599164187908,
                "z": 0.005598929710686207
            },
            "position": {
                "x": 0.11585023208521307,
                "y": 0.44412534475326537,
                "z": 0.3711530566215515
            }
        },
        "name": "move_to_auspresseinheit_A"
    },
    "id": "LazyPRMstar_move_to_auspresseinheit_A_139",
    "joint_names": [
        "shoulder_pan_joint",
        "shoulder_lift_joint",
        "elbow_joint",
        "wrist_1_joint",
        "wrist_2_joint",
        "wrist_3_joint"
    ],
    "metrics": {
        "cart_traj_len": 0.9422139631854399,
        "distance_elbow_joint": 0.499124110107398,
        "distance_shoulder_lift_joint": 0.5336766545619596,
        "distance_shoulder_pan_joint": 2.2665916864470654,
        "distance_wrist_1_joint": 0.5701554580298285,
        "distance_wrist_2_joint": 0.5122790024984016,
        "distance_wrist_3_joint": 0.5805342317425066,
        "smoothness": 1.1503033897577206,
        "time": 5.007252701,
        "traj_len": 2.227635774400106,
        "weighted_distance": 2.68437405504531
    },
    "planner": "LazyPRMstar",
    "start": {
        "state": {
            "elbow_joint": 2.4225746658250005,
            "shoulder_lift_joint": -1.3736534386056498,
            "shoulder_pan_joint": -0.3378633547517467,
            "wrist_1_joint": -1.0288598680537169,
            "wrist_2_joint": 1.233022673432363,
            "wrist_3_joint": -3.0940220416140027
        }
    },
    "waypoints": [
        {
            "positions": [
                -0.3378633547517467,
                -1.3736534386056498,
                2.4225746658250005,
                -1.0288598680537169,
                1.233022673432363,
                -3.0940220416140027
            ]
        },
        {
            "positions": [
                -0.43959467718640466,
                -1.4528006880594406,
                2.4616958775349733,
                -1.0211675593962468,
                1.1502921850398293,
                -3.050272876050262
            ]
        },
        {
            "positions": [
                -0.5413259996210625,
                -1.5319479375132314,
                2.5008170892449457,
                -1.013475250738777,
                1.0675616966472958,
                -3.0065237104865217
            ]
        },
        {
            "positions": [
                -0.6430573220557205,
                -1.6110951869670225,
                2.539938300954918,
                -1.005782942081307,
                0.9848312082547621,
                -2.962774544922781
            ]
        },
        {
            "positions": [
                -0.7447886444903784,
                -1.6902424364208133,
                2.579059512664891,
                -0.998090633423837,
                0.9021007198622284,
                -2.919025379359041
            ]
        },
        {
            "positions": [
                -0.8465199669250363,
                -1.769389685874604,
                2.618180724374864,
                -0.9903983247663669,
                0.8193702314696947,
                -2.8752762137953005
            ]
        },
        {
            "positions": [
                -0.9482512893596943,
                -1.848536935328395,
                2.6573019360848362,
                -0.982706016108897,
                0.7366397430771611,
                -2.83152704823156
            ]
        },
        {
            "positions": [
                -0.7412258203798046,
                -1.8558860800582968,
                2.624252331103891,
                -0.917205815348271,
                0.7346527340592611,
                -2.871281953026568
            ]
        },
        {
            "positions": [
                -0.534200351399915,
                -1.8632352247881985,
                2.5912027261229458,
                -0.8517056145876448,
                0.7326657250413612,
                -2.9110368578215757
            ]
        },
        {
            "positions": [
                -0.32717488242002524,
                -1.8705843695181004,
                2.5581531211420003,
                -0.7862054138270187,
                0.7306787160234612,
                -2.950791762616584
            ]
        },
        {
            "positions": [
                -0.12014941344013552,
                -1.877933514248002,
                2.525103516161055,
                -0.7207052130663927,
                0.7286917070055612,
                -2.990546667411592
            ]
        },
        {
            "positions": [
                0.0868760555397542,
                -1.885282658977904,
                2.49205391118011,
                -0.6552050123057667,
                0.7267046979876612,
                -3.0303015722066
            ]
        },
        {
            "positions": [
                0.2939015245196438,
                -1.8926318037078058,
                2.4590043061991644,
                -0.5897048115451405,
                0.7247176889697613,
                -3.070056477001608
            ]
        },
        {
            "positions": [
                0.5009269934995336,
                -1.8999809484377075,
                2.4259547012182194,
                -0.5242046107845144,
                0.7227306799518614,
                -3.1098113817966158
            ]
        },
        {
            "positions": [
                0.7079524624794232,
                -1.9073300931676094,
                2.392905096237274,
                -0.45870441002388834,
                0.7207436709339614,
                -3.149566286591624
            ]
        }
    ]
}