{
    "goal": {
        "global_pose": {
            "orientation": {
                "w": 0.7047431493862688,
                "x": -0.7094548369677653,
                "y": 0.0024358444001904,
                "z": -0.0022348060817251984
            },
            "position": {
                "x": -0.39052492380142206,
                "y": 0.3671506643295288,
                "z": 0.19426114857196808
            }
        },
        "name": "move_to_magneteinheit_D"
    },
    "id": "LazyPRMstar_move_to_magneteinheit_D_11",
    "joint_names": [
        "shoulder_pan_joint",
        "shoulder_lift_joint",
        "elbow_joint",
        "wrist_1_joint",
        "wrist_2_joint",
        "wrist_3_joint"
    ],
    "metrics": {
        "cart_traj_len": 3.649804093269751,
        "distance_elbow_joint": 3.1342879177320477,
        "distance_shoulder_lift_joint": 1.632881025304154,
        "distance_shoulder_pan_joint": 2.8860613760863494,
        "distance_wrist_1_joint": 1.5572000819085323,
        "distance_wrist_2_joint": 2.260337319099869,
        "distance_wrist_3_joint": 4.115246965599888,
        "smoothness": 0.30096714387394713,
        "time": 5.041952846,
        "traj_len": 3.9479126998618956,
        "weighted_distance": 5.2568094903600056
    },
    "planner": "LazyPRMstar",
    "start": {
        "state": {
            "elbow_joint": 0.749534889911806,
            "shoulder_lift_joint": -0.6476975780787326,
            "shoulder_pan_joint": -2.711696901376241,
            "wrist_1_joint": -0.07506478083263063,
            "wrist_2_joint": 0.43296659715538205,
            "wrist_3_joint": -3.14703540197715
        }
    },
    "waypoints": [
        {
            "positions": [
                -2.711696901376241,
                -0.6476975780787326,
                0.749534889911806,
                -0.07506478083263063,
                0.43296659715538205,
                -3.14703540197715
            ]
        },
        {
            "positions": [
                -2.742761683065224,
                -0.7336579255158574,
                0.5873121144608047,
                -0.04528871479450268,
                0.4112128804201261,
                -3.153959126065572
            ]
        },
        {
            "positions": [
                -2.6955209878587763,
                -0.7855330631077937,
                0.4489406367367833,
                -0.01520245649054372,
                0.3628802716444034,
                -3.0902797090120124
            ]
        },
        {
            "positions": [
                -2.648280292652329,
                -0.83740820069973,
                0.31056915901276194,
                0.01488380181341524,
                0.31454766286868074,
                -3.0266002919584527
            ]
        },
        {
            "positions": [
                -2.6010395974458813,
                -0.8892833382916663,
                0.17219768128874058,
                0.0449700601173742,
                0.26621505409295804,
                -2.962920874904893
            ]
        },
        {
            "positions": [
                -2.5537989022394334,
                -0.9411584758836027,
                0.033826203564719215,
                0.07505631842133316,
                0.21788244531723533,
                -2.8992414578513337
            ]
        },
        {
            "positions": [
                -2.5065582070329855,
                -0.9930336134755389,
                -0.10454527415930215,
                0.1051425767252921,
                0.16954983654151262,
                -2.835562040797774
            ]
        },
        {
            "positions": [
                -2.459317511826538,
                -1.0449087510674753,
                -0.2429167518833235,
                0.1352288350292511,
                0.12121722776578997,
                -2.7718826237442142
            ]
        },
        {
            "positions": [
                -2.4120768166200905,
                -1.0967838886594117,
                -0.3812882296073449,
                0.16531509333321004,
                0.07288461899006726,
                -2.7082032066906545
            ]
        },
        {
            "positions": [
                -2.3648361214136426,
                -1.1486590262513479,
                -0.5196597073313663,
                0.195401351637169,
                0.024552010214344555,
                -2.644523789637095
            ]
        },
        {
            "positions": [
                -2.2612163661230946,
                -1.1676991575085867,
                -0.59784319068884,
                0.21007844185526894,
                -0.020319569723441414,
                -2.523393370413054
            ]
        },
        {
            "positions": [
                -2.157596610832546,
                -1.1867392887658255,
                -0.6760266740463137,
                0.2247555320733689,
                -0.06519114966122738,
                -2.402262951189013
            ]
        },
        {
            "positions": [
                -2.053976855541998,
                -1.2057794200230645,
                -0.7542101574037874,
                0.23943262229146883,
                -0.11006272959901334,
                -2.281132531964972
            ]
        },
        {
            "positions": [
                -1.95035710025145,
                -1.2248195512803033,
                -0.832393640761261,
                0.25410971250956876,
                -0.15493430953679932,
                -2.160002112740931
            ]
        },
        {
            "positions": [
                -1.8467373449609017,
                -1.243859682537542,
                -0.9105771241187346,
                0.26878680272766875,
                -0.19980588947458527,
                -2.03887169351689
            ]
        },
        {
            "positions": [
                -1.7431175896703537,
                -1.262899813794781,
                -0.9887606074762083,
                0.2834638929457687,
                -0.24467746941237123,
                -1.917741274292849
            ]
        },
        {
            "positions": [
                -1.6394978343798052,
                -1.2819399450520197,
                -1.066944090833682,
                0.2981409831638686,
                -0.28954904935015724,
                -1.796610855068808
            ]
        },
        {
            "positions": [
                -1.5358780790892572,
                -1.3009800763092587,
                -1.1451275741911555,
                0.31281807338196854,
                -0.3344206292879432,
                -1.6754804358447672
            ]
        },
        {
            "positions": [
                -1.432258323798709,
                -1.3200202075664975,
                -1.2233110575486292,
                0.3274951636000685,
                -0.37929220922572915,
                -1.5543500166207262
            ]
        },
        {
            "positions": [
                -1.3286385685081608,
                -1.3390603388237363,
                -1.301494540906103,
                0.3421722538181684,
                -0.4241637891635151,
                -1.4332195973966853
            ]
        },
        {
            "positions": [
                -1.2250188132176125,
                -1.3581004700809751,
                -1.3796780242635767,
                0.3568493440362684,
                -0.4690353691013011,
                -1.312089178172644
            ]
        },
        {
            "positions": [
                -1.1213990579270645,
                -1.3771406013382141,
                -1.4578615076210504,
                0.3715264342543683,
                -0.5139069490390871,
                -1.1909587589486033
            ]
        },
        {
            "positions": [
                -1.0177793026365163,
                -1.396180732595453,
                -1.536044990978524,
                0.3862035244724683,
                -0.558778528976873,
                -1.0698283397245623
            ]
        },
        {
            "positions": [
                -0.914159547345968,
                -1.4152208638526917,
                -1.6142284743359978,
                0.4008806146905682,
                -0.6036501089146591,
                -0.9486979205005215
            ]
        },
        {
            "positions": [
                -0.8105397920554198,
                -1.4342609951099305,
                -1.6924119576934715,
                0.41555770490866817,
                -0.648521688852445,
                -0.8275675012764803
            ]
        },
        {
            "positions": [
                -0.7069200367648718,
                -1.4533011263671693,
                -1.7705954410509448,
                0.4302347951267681,
                -0.6933932687902309,
                -0.7064370820524395
            ]
        },
        {
            "positions": [
                -0.6033002814743236,
                -1.4723412576244082,
                -1.8487789244084185,
                0.44491188534486803,
                -0.738264848728017,
                -0.5853066628283985
            ]
        },
        {
            "positions": [
                -0.49968052618377534,
                -1.4913813888816472,
                -1.9269624077658922,
                0.45958897556296796,
                -0.7831364286658029,
                -0.4641762436043577
            ]
        },
        {
            "positions": [
                -0.39606077089322717,
                -1.510421520138886,
                -2.005145891123366,
                0.4742660657810679,
                -0.8280080086035889,
                -0.34304582438031667
            ]
        },
        {
            "positions": [
                -0.34009249130480207,
                -1.5518808046989074,
                -2.040201840176324,
                0.5028824116068885,
                -0.7826742807654354,
                -0.21864966724087137
            ]
        },
        {
            "positions": [
                -0.28412421171637703,
                -1.593340089258929,
                -2.0752577892292825,
                0.5314987574327091,
                -0.7373405529272821,
                -0.09425351010142607
            ]
        },
        {
            "positions": [
                -0.22815593212795193,
                -1.6347993738189506,
                -2.110313738282241,
                0.5601151032585299,
                -0.6920068250891286,
                0.03014264703801922
            ]
        },
        {
            "positions": [
                -0.17218765253952686,
                -1.676258658378972,
                -2.145369687335199,
                0.5887314490843505,
                -0.6466730972509751,
                0.15453880417746452
            ]
        },
        {
            "positions": [
                -0.11621937295110174,
                -1.7177179429389935,
                -2.1804256363881573,
                0.6173477949101711,
                -0.6013393694128217,
                0.2789349613169098
            ]
        },
        {
            "positions": [
                -0.06025109336267672,
                -1.759177227499015,
                -2.2154815854411156,
                0.6459641407359917,
                -0.5560056415746683,
                0.40333111845635505
            ]
        },
        {
            "positions": [
                -0.04841076492872401,
                -1.8254431310938255,
                -2.248491381942584,
                0.7271482100056263,
                -0.4652355179877228,
                0.4490879327526002
            ]
        },
        {
            "positions": [
                -0.036570436494771305,
                -1.891709034688636,
                -2.281501178444052,
                0.8083322792752609,
                -0.37446539440077725,
                0.4948447470488454
            ]
        },
        {
            "positions": [
                -0.061371327799256845,
                -1.9565206294710111,
                -2.29870982000675,
                0.920632782908701,
                -0.2834953778777629,
                0.41825818564933737
            ]
        },
        {
            "positions": [
                -0.08617221910374238,
                -2.021332224253386,
                -2.3159184615694484,
                1.0329332865421412,
                -0.19252536135474857,
                0.3416716242498294
            ]
        },
        {
            "positions": [
                -0.11097311040822792,
                -2.0861438190357613,
                -2.3331271031321466,
                1.1452337901755814,
                -0.10155534483173423,
                0.2650850628503214
            ]
        },
        {
            "positions": [
                -0.13577400171271348,
                -2.1509554138181364,
                -2.350335744694845,
                1.2575342938090215,
                -0.010585328308719888,
                0.18849850145081337
            ]
        },
        {
            "positions": [
                -0.16057489301719902,
                -2.2157670086005115,
                -2.3675443862575434,
                1.3698347974424616,
                0.08038468821429445,
                0.11191194005130534
            ]
        },
        {
            "positions": [
                -0.18537578432168453,
                -2.2805786033828865,
                -2.3847530278202416,
                1.4821353010759017,
                0.1713547047373088,
                0.03532537865179737
            ]
        }
    ]
}