{
    "goal": {
        "global_pose": {
            "orientation": {
                "w": -0.4816463035849501,
                "x": 0.5182115481033762,
                "y": 0.4908360881923453,
                "z": -0.5084816262002911
            },
            "position": {
                "x": -0.8240239810943604,
                "y": 0.19912469901144506,
                "z": 0.16403168439865112
            }
        },
        "name": "move_to_storage_D"
    },
    "id": "LazyPRMstar_move_to_storage_D_22",
    "joint_names": [
        "shoulder_pan_joint",
        "shoulder_lift_joint",
        "elbow_joint",
        "wrist_1_joint",
        "wrist_2_joint",
        "wrist_3_joint"
    ],
    "metrics": {
        "cart_traj_len": 0.7027353413970036,
        "distance_elbow_joint": 0.5553035368457109,
        "distance_shoulder_lift_joint": 0.3585633299903064,
        "distance_shoulder_pan_joint": 0.30152474517547523,
        "distance_wrist_1_joint": 3.82233134550664,
        "distance_wrist_2_joint": 1.7931915227439768,
        "distance_wrist_3_joint": 3.1567062946937234,
        "smoothness": 0.026140838402549917,
        "time": 5.035937054000001,
        "traj_len": 3.160319726697891,
        "weighted_distance": 4.68151217370989
    },
    "planner": "LazyPRMstar",
    "start": {
        "state": {
            "elbow_joint": -2.384821988534728,
            "shoulder_lift_joint": -2.2788054721415256,
            "shoulder_pan_joint": -0.1854694642142757,
            "wrist_1_joint": 1.4845938289331202,
            "wrist_2_joint": 0.17898776772866878,
            "wrist_3_joint": 0.037105688729662994
        }
    },
    "waypoints": [
        {
            "positions": [
                -0.1854694642142757,
                -2.2788054721415256,
                -2.384821988534728,
                1.4845938289331202,
                0.17898776772866878,
                0.037105688729662994
            ]
        },
        {
            "positions": [
                -0.14839653110064255,
                -2.2350201037479698,
                -2.353300954275704,
                1.4828770921746417,
                0.12697644578648457,
                0.18259000568607672
            ]
        },
        {
            "positions": [
                -0.11132359798700936,
                -2.191234735354414,
                -2.321779920016681,
                1.481160355416163,
                0.07496512384430033,
                0.3280743226424905
            ]
        },
        {
            "positions": [
                -0.07425066487337617,
                -2.147449366960858,
                -2.290258885757657,
                1.4794436186576845,
                0.0229538019021161,
                0.4735586395989042
            ]
        },
        {
            "positions": [
                -0.036237477296707746,
                -2.10635924678945,
                -2.2560615594534945,
                1.4177147374618757,
                -0.03969885577850482,
                0.6116612248984088
            ]
        },
        {
            "positions": [
                0.0017757102799606794,
                -2.0652691266180425,
                -2.2218642331493323,
                1.355985856266067,
                -0.10235151345912574,
                0.7497638101979134
            ]
        },
        {
            "positions": [
                0.03978889785662912,
                -2.0241790064466345,
                -2.1876669068451697,
                1.2942569750702582,
                -0.1650041711397467,
                0.887866395497418
            ]
        },
        {
            "positions": [
                0.036157165327840066,
                -2.0291283809368923,
                -2.1706122185044006,
                1.1213048564205546,
                -0.23401367513382104,
                0.9976733282557975
            ]
        },
        {
            "positions": [
                0.03252543279905101,
                -2.03407775542715,
                -2.1535575301636314,
                0.9483527377708507,
                -0.3030231791278954,
                1.107480261014177
            ]
        },
        {
            "positions": [
                0.028893700270261953,
                -2.0390271299174083,
                -2.136502841822862,
                0.7754006191211471,
                -0.37203268312196974,
                1.2172871937725565
            ]
        },
        {
            "positions": [
                0.0252619677414729,
                -2.043976504407666,
                -2.119448153482093,
                0.6024485004714434,
                -0.4410421871160441,
                1.3270941265309357
            ]
        },
        {
            "positions": [
                0.021630235212683844,
                -2.048925878897924,
                -2.102393465141324,
                0.42949638182173966,
                -0.5100516911101185,
                1.4369010592893152
            ]
        },
        {
            "positions": [
                0.01799850268389479,
                -2.0538752533881817,
                -2.0853387768005547,
                0.25654426317203605,
                -0.5790611951041928,
                1.5467079920476947
            ]
        },
        {
            "positions": [
                0.014366770155105735,
                -2.0588246278784395,
                -2.0682840884597855,
                0.08359214452233221,
                -0.6480706990982672,
                1.6565149248060742
            ]
        },
        {
            "positions": [
                0.010735037626316682,
                -2.0637740023686977,
                -2.0512294001190163,
                -0.0893599741273714,
                -0.7170802030923416,
                1.7663218575644537
            ]
        },
        {
            "positions": [
                0.007103305097527629,
                -2.0687233768589555,
                -2.034174711778247,
                -0.262312092777075,
                -0.7860897070864159,
                1.876128790322833
            ]
        },
        {
            "positions": [
                0.0034715725687385693,
                -2.0736727513492133,
                -2.017120023437478,
                -0.43526421142677885,
                -0.8550992110804903,
                1.9859357230812125
            ]
        },
        {
            "positions": [
                -0.00016015996005048355,
                -2.078622125839471,
                -2.000065335096709,
                -0.6082163300764827,
                -0.9241087150745646,
                2.095742655839592
            ]
        },
        {
            "positions": [
                -0.0037918924888395364,
                -2.083571500329729,
                -1.9830106467559396,
                -0.7811684487261861,
                -0.993118219068639,
                2.2055495885979717
            ]
        },
        {
            "positions": [
                -0.007423625017628596,
                -2.0885208748199866,
                -1.9659559584151705,
                -0.9541205673758899,
                -1.0621277230627133,
                2.315356521356351
            ]
        },
        {
            "positions": [
                -0.011055357546417649,
                -2.093470249310245,
                -1.9489012700744013,
                -1.1270726860255937,
                -1.1311372270567877,
                2.42516345411473
            ]
        },
        {
            "positions": [
                -0.014687090075206702,
                -2.0984196238005026,
                -1.931846581733632,
                -1.3000248046752976,
                -1.200146731050862,
                2.53497038687311
            ]
        },
        {
            "positions": [
                -0.018318822603995755,
                -2.1033689982907604,
                -1.914791893392863,
                -1.472976923325001,
                -1.2691562350449364,
                2.644777319631489
            ]
        },
        {
            "positions": [
                -0.021950555132784814,
                -2.108318372781018,
                -1.8977372050520938,
                -1.6459290419747048,
                -1.3381657390390107,
                2.754584252389869
            ]
        },
        {
            "positions": [
                -0.02558228766157386,
                -2.113267747271276,
                -1.8806825167113246,
                -1.8188811606244082,
                -1.407175243033085,
                2.864391185148248
            ]
        },
        {
            "positions": [
                -0.029214020190362927,
                -2.118217121761534,
                -1.8636278283705554,
                -1.9918332792741125,
                -1.4761847470271594,
                2.974198117906628
            ]
        },
        {
            "positions": [
                -0.03284575271915198,
                -2.123166496251792,
                -1.8465731400297862,
                -2.164785397923816,
                -1.5451942510212338,
                3.0840050506650067
            ]
        },
        {
            "positions": [
                -0.03647748524794104,
                -2.1281158707420498,
                -1.829518451689017,
                -2.3377375165735197,
                -1.614203755015308,
                3.1938119834233865
            ]
        }
    ]
}