{
    "goal": {
        "global_pose": {
            "orientation": {
                "w": 0.005598929693374612,
                "x": 0.007748599140229565,
                "y": 0.7110244013736278,
                "z": -0.7031023480610252
            },
            "position": {
                "x": -0.8858502320852131,
                "y": -0.7141253447532654,
                "z": 0.3711530566215515
            }
        },
        "name": "move_to_auspresseinheit_C"
    },
    "id": "LazyPRMstar_move_to_auspresseinheit_C_141",
    "joint_names": [
        "shoulder_pan_joint",
        "shoulder_lift_joint",
        "elbow_joint",
        "wrist_1_joint",
        "wrist_2_joint",
        "wrist_3_joint"
    ],
    "metrics": {
        "cart_traj_len": 0.49416226153389736,
        "distance_elbow_joint": 1.0114261985471513,
        "distance_shoulder_lift_joint": 0.3304580113982626,
        "distance_shoulder_pan_joint": 0.2564163149083569,
        "distance_wrist_1_joint": 0.6972756869830461,
        "distance_wrist_2_joint": 1.3197721737602413,
        "distance_wrist_3_joint": 0.06692565641065817,
        "smoothness": 9.689219149575433e-16,
        "time": 5.00029506,
        "traj_len": 1.918925230958131,
        "weighted_distance": 2.415196309945078
    },
    "planner": "LazyPRMstar",
    "start": {
        "state": {
            "elbow_joint": 1.7527959577737207,
            "shoulder_lift_joint": -0.9740617694225068,
            "shoulder_pan_joint": -2.967991417825858,
            "wrist_1_joint": -0.759517768980727,
            "wrist_2_joint": 1.7443932448377408,
            "wrist_3_joint": -3.0840537646736568
        }
    },
    "waypoints": [
        {
            "positions": [
                -2.967991417825858,
                -0.9740617694225068,
                1.7527959577737207,
                -0.759517768980727,
                1.7443932448377408,
                -3.0840537646736568
            ]
        },
        {
            "positions": [
                -2.942349786335022,
                -0.9410159682826805,
                1.6516533379190055,
                -0.6897902002824223,
                1.6124160274617167,
                -3.0907463303147225
            ]
        },
        {
            "positions": [
                -2.9167081548441867,
                -0.9079701671428543,
                1.5505107180642903,
                -0.6200626315841178,
                1.4804388100856927,
                -3.0974388959557886
            ]
        },
        {
            "positions": [
                -2.891066523353351,
                -0.874924366003028,
                1.4493680982095754,
                -0.5503350628858131,
                1.3484615927096684,
                -3.1041314615968543
            ]
        },
        {
            "positions": [
                -2.8654248918625154,
                -0.8418785648632017,
                1.3482254783548602,
                -0.48060749418750853,
                1.2164843753336443,
                -3.11082402723792
            ]
        },
        {
            "positions": [
                -2.8397832603716795,
                -0.8088327637233754,
                1.247082858500145,
                -0.41087992548920393,
                1.0845071579576202,
                -3.117516592878986
            ]
        },
        {
            "positions": [
                -2.8141416288808436,
                -0.7757869625835492,
                1.14594023864543,
                -0.34115235679089934,
                0.9525299405815961,
                -3.1242091585200518
            ]
        },
        {
            "positions": [
                -2.788499997390008,
                -0.7427411614437229,
                1.0447976187907146,
                -0.27142478809259474,
                0.820552723205572,
                -3.1309017241611174
            ]
        },
        {
            "positions": [
                -2.7628583658991723,
                -0.7096953603038967,
                0.9436549989359996,
                -0.20169721939429008,
                0.6885755058295477,
                -3.137594289802183
            ]
        },
        {
            "positions": [
                -2.737216734408337,
                -0.6766495591640704,
                0.8425123790812844,
                -0.13196965069598543,
                0.5565982884535237,
                -3.1442868554432493
            ]
        },
        {
            "positions": [
                -2.711575102917501,
                -0.6436037580242442,
                0.7413697592265694,
                -0.06224208199768086,
                0.42462107107749947,
                -3.150979421084315
            ]
        }
    ]
}