{
    "goal": {
        "global_pose": {
            "orientation": {
                "w": -0.00223480608172531,
                "x": 0.0024358444001904467,
                "y": 0.7094548369677653,
                "z": -0.704743149386269
            },
            "position": {
                "x": 0.6205249238014221,
                "y": -0.6371506643295288,
                "z": 0.19426114857196808
            }
        },
        "name": "move_to_magneteinheit_B"
    },
    "id": "LazyPRMstar_move_to_magneteinheit_B_47",
    "joint_names": [
        "shoulder_pan_joint",
        "shoulder_lift_joint",
        "elbow_joint",
        "wrist_1_joint",
        "wrist_2_joint",
        "wrist_3_joint"
    ],
    "metrics": {
        "cart_traj_len": 1.505310881684113,
        "distance_elbow_joint": 0.9543592831994814,
        "distance_shoulder_lift_joint": 0.7557444270865746,
        "distance_shoulder_pan_joint": 1.6221147359228727,
        "distance_wrist_1_joint": 0.2775231108950589,
        "distance_wrist_2_joint": 1.513650036897168,
        "distance_wrist_3_joint": 0.79280558476103,
        "smoothness": 0.2374310395541881,
        "time": 5.010490141,
        "traj_len": 2.4323234116297496,
        "weighted_distance": 3.0484391901555905
    },
    "planner": "LazyPRMstar",
    "start": {
        "state": {
            "elbow_joint": 2.6216224122426386,
            "shoulder_lift_joint": -1.4174107377796124,
            "shoulder_pan_joint": 0.7066234856936794,
            "wrist_1_joint": 1.9546482284002225,
            "wrist_2_joint": -0.7096286983471962,
            "wrist_3_joint": 0.005740856962016249
        }
    },
    "waypoints": [
        {
            "positions": [
                0.7066234856936794,
                -1.4174107377796124,
                2.6216224122426386,
                1.9546482284002225,
                -0.7096286983471962,
                0.005740856962016249
            ]
        },
        {
            "positions": [
                0.6068117869995326,
                -1.4048013897865324,
                2.563542437185545,
                1.945608074968662,
                -0.8185643955457969,
                0.08395289629649098
            ]
        },
        {
            "positions": [
                0.507000088305386,
                -1.3921920417934524,
                2.5054624621284516,
                1.9365679215371012,
                -0.9275000927443975,
                0.16216493563096573
            ]
        },
        {
            "positions": [
                0.4071883896112393,
                -1.3795826938003724,
                2.447382487071358,
                1.9275277681055407,
                -1.0364357899429981,
                0.24037697496544042
            ]
        },
        {
            "positions": [
                0.30737669091709263,
                -1.3669733458072924,
                2.3893025120142646,
                1.91848761467398,
                -1.1453714871415988,
                0.3185890142999152
            ]
        },
        {
            "positions": [
                0.20756499222294594,
                -1.3543639978142124,
                2.331222536957171,
                1.9094474612424195,
                -1.2543071843401994,
                0.3968010536343899
            ]
        },
        {
            "positions": [
                0.10546897018184238,
                -1.2913914808031965,
                2.2708625907831697,
                1.9305676743094426,
                -1.342395507149669,
                0.3602787456263302
            ]
        },
        {
            "positions": [
                0.003372948140738824,
                -1.2284189637921805,
                2.2105026446091687,
                1.951687887376466,
                -1.4304838299591385,
                0.32375643761827055
            ]
        },
        {
            "positions": [
                -0.09872307390036472,
                -1.1654464467811647,
                2.1501426984351673,
                1.9728081004434892,
                -1.518572152768608,
                0.28723412961021083
            ]
        },
        {
            "positions": [
                -0.2008190959414683,
                -1.102473929770149,
                2.089782752261166,
                1.9939283135105126,
                -1.6066604755780776,
                0.25071182160215116
            ]
        },
        {
            "positions": [
                -0.3029151179825718,
                -1.039501412759133,
                2.029422806087165,
                2.015048526577536,
                -1.6947487983875469,
                0.21418951359409147
            ]
        },
        {
            "positions": [
                -0.4050111400236754,
                -0.9765288957481171,
                1.9690628599131634,
                2.036168739644559,
                -1.7828371211970166,
                0.1776672055860318
            ]
        },
        {
            "positions": [
                -0.5071071620647789,
                -0.9135563787371013,
                1.9087029137391622,
                2.0572889527115823,
                -1.870925444006486,
                0.1411448975779721
            ]
        },
        {
            "positions": [
                -0.6092031841058825,
                -0.8505838617260854,
                1.848342967565161,
                2.0784091657786057,
                -1.9590137668159557,
                0.10462258956991244
            ]
        },
        {
            "positions": [
                -0.711299206146986,
                -0.7876113447150694,
                1.7879830213911596,
                2.099529378845629,
                -2.047102089625425,
                0.06810028156185272
            ]
        },
        {
            "positions": [
                -0.8133952281880896,
                -0.7246388277040536,
                1.7276230752171586,
                2.120649591912652,
                -2.135190412434895,
                0.03157797355379305
            ]
        },
        {
            "positions": [
                -0.9154912502291932,
                -0.6616663106930377,
                1.6672631290431572,
                2.1417698049796754,
                -2.223278735244364,
                -0.0049443344542666415
            ]
        }
    ]
}