{
    "goal": {
        "global_pose": {
            "orientation": {
                "w": -0.4816463035849501,
                "x": 0.5182115481033762,
                "y": 0.4908360881923453,
                "z": -0.5084816262002911
            },
            "position": {
                "x": -0.8240239810943604,
                "y": -0.300875300988555,
                "z": 0.16403168439865112
            }
        },
        "name": "move_to_storage_C"
    },
    "id": "LazyPRM_move_to_storage_C_5",
    "joint_names": [
        "shoulder_pan_joint",
        "shoulder_lift_joint",
        "elbow_joint",
        "wrist_1_joint",
        "wrist_2_joint",
        "wrist_3_joint"
    ],
    "metrics": {
        "cart_traj_len": 0.5767318169889427,
        "distance_elbow_joint": 0.2561205609189876,
        "distance_shoulder_lift_joint": 0.1887570420026624,
        "distance_shoulder_pan_joint": 0.49597125885434457,
        "distance_wrist_1_joint": 0.07153830702677322,
        "distance_wrist_2_joint": 1.0591949239872522,
        "distance_wrist_3_joint": 0.06877685544094847,
        "smoothness": 0.0,
        "time": 0.011738262000000001,
        "traj_len": 1.4629965646682046,
        "weighted_distance": 1.8462518490517188
    },
    "planner": "LazyPRM",
    "start": {
        "state": {
            "elbow_joint": 2.010868314990456,
            "shoulder_lift_joint": -1.1634956873337592,
            "shoulder_pan_joint": -2.4736205022346125,
            "wrist_1_joint": -0.8367026794202681,
            "wrist_2_joint": 0.6746043897044499,
            "wrist_3_joint": -3.1496632123970403
        }
    },
    "waypoints": [
        {
            "positions": [
                -2.4736205022346125,
                -1.1634956873337592,
                2.010868314990456,
                -0.8367026794202681,
                0.6746043897044499,
                -3.1496632123970403
            ]
        },
        {
            "positions": [
                -2.5562823787103364,
                -1.1320361803333154,
                1.9681815548372912,
                -0.8247796282491392,
                0.8511368770356587,
                -3.1382004031568824
            ]
        },
        {
            "positions": [
                -2.6389442551860607,
                -1.1005766733328717,
                1.9254947946841265,
                -0.8128565770780104,
                1.0276693643668673,
                -3.126737593916724
            ]
        },
        {
            "positions": [
                -2.721606131661785,
                -1.069117166332428,
                1.882808034530962,
                -0.8009335259068815,
                1.204201851698076,
                -3.115274784676566
            ]
        },
        {
            "positions": [
                -2.804268008137509,
                -1.0376576593319842,
                1.8401212743777975,
                -0.7890104747357526,
                1.3807343390292846,
                -3.103811975436408
            ]
        },
        {
            "positions": [
                -2.8869298846132327,
                -1.0061981523315404,
                1.7974345142246329,
                -0.7770874235646238,
                1.5572668263604936,
                -3.09234916619625
            ]
        },
        {
            "positions": [
                -2.969591761088957,
                -0.9747386453310968,
                1.7547477540714682,
                -0.7651643723934949,
                1.733799313691702,
                -3.080886356956092
            ]
        }
    ]
}