{
    "goal": {
        "global_pose": {
            "orientation": {
                "w": 0.7031023480610252,
                "x": -0.7110244013736278,
                "y": 0.0077485991402295624,
                "z": 0.005598929693374583
            },
            "position": {
                "x": -0.8841497679147869,
                "y": 0.44412534475326537,
                "z": 0.3711530566215515
            }
        },
        "name": "move_to_auspresseinheit_D"
    },
    "id": "LazyPRMstar_move_to_auspresseinheit_D_147",
    "joint_names": [
        "shoulder_pan_joint",
        "shoulder_lift_joint",
        "elbow_joint",
        "wrist_1_joint",
        "wrist_2_joint",
        "wrist_3_joint"
    ],
    "metrics": {
        "cart_traj_len": 0.3445589422380065,
        "distance_elbow_joint": 0.6665605068407956,
        "distance_shoulder_lift_joint": 0.1371898064939039,
        "distance_shoulder_pan_joint": 0.13354799120372365,
        "distance_wrist_1_joint": 0.6141739483302833,
        "distance_wrist_2_joint": 1.4475515664019225,
        "distance_wrist_3_joint": 0.0752657319257426,
        "smoothness": 1.9737298371844314e-16,
        "time": 5.001376165,
        "traj_len": 1.7533652075926371,
        "weighted_distance": 2.299249123035619
    },
    "planner": "LazyPRMstar",
    "start": {
        "state": {
            "elbow_joint": -1.8275523626775212,
            "shoulder_lift_joint": -2.126789852344167,
            "shoulder_pan_joint": -0.03513704404078235,
            "wrist_1_joint": -2.347782403156801,
            "wrist_2_joint": -1.6058999987535132,
            "wrist_3_joint": -3.0880379163319196
        }
    },
    "waypoints": [
        {
            "positions": [
                -0.03513704404078235,
                -2.126789852344167,
                -1.8275523626775212,
                -2.347782403156801,
                -1.6058999987535132,
                -3.0880379163319196
            ]
        },
        {
            "positions": [
                -0.05183054294124781,
                -2.143938578155905,
                -1.7442322993224217,
                -2.424554146698086,
                -1.4249560529532728,
                -3.0786296998412017
            ]
        },
        {
            "positions": [
                -0.06852404184171326,
                -2.161087303967643,
                -1.6609122359673223,
                -2.5013258902393716,
                -1.2440121071530326,
                -3.069221483350484
            ]
        },
        {
            "positions": [
                -0.08521754074217872,
                -2.178236029779381,
                -1.5775921726122228,
                -2.578097633780657,
                -1.0630681613527924,
                -3.059813266859766
            ]
        },
        {
            "positions": [
                -0.10191103964264417,
                -2.195384755591119,
                -1.4942721092571234,
                -2.6548693773219423,
                -0.8821242155525519,
                -3.050405050369048
            ]
        },
        {
            "positions": [
                -0.11860453854310962,
                -2.2125334814028568,
                -1.410952045902024,
                -2.731641120863228,
                -0.7011802697523116,
                -3.0409968338783306
            ]
        },
        {
            "positions": [
                -0.1352980374435751,
                -2.2296822072145948,
                -1.3276319825469245,
                -2.8084128644045134,
                -0.5202363239520713,
                -3.0315886173876128
            ]
        },
        {
            "positions": [
                -0.15199153634404056,
                -2.2468309330263327,
                -1.244311919191825,
                -2.885184607945799,
                -0.3392923781518311,
                -3.022180400896895
            ]
        },
        {
            "positions": [
                -0.168685035244506,
                -2.2639796588380707,
                -1.1609918558367256,
                -2.961956351487084,
                -0.1583484323515907,
                -3.012772184406177
            ]
        }
    ]
}