{
    "goal": {
        "global_pose": {
            "orientation": {
                "w": 0.7031023502349854,
                "x": -0.7110244035720825,
                "y": 0.007748599164187908,
                "z": 0.005598929710686207
            },
            "position": {
                "x": 0.11585023208521307,
                "y": 0.44412534475326537,
                "z": 0.3711530566215515
            }
        },
        "name": "move_to_auspresseinheit_A"
    },
    "id": "LazyPRM_move_to_auspresseinheit_A_124",
    "joint_names": [
        "shoulder_pan_joint",
        "shoulder_lift_joint",
        "elbow_joint",
        "wrist_1_joint",
        "wrist_2_joint",
        "wrist_3_joint"
    ],
    "metrics": {
        "cart_traj_len": 0.7969313237449842,
        "distance_elbow_joint": 0.975815568156023,
        "distance_shoulder_lift_joint": 0.5338299022141351,
        "distance_shoulder_pan_joint": 1.9567722557097107,
        "distance_wrist_1_joint": 4.479987790863636,
        "distance_wrist_2_joint": 2.0951640875820967,
        "distance_wrist_3_joint": 7.782861760474855,
        "smoothness": 0.6705003426611555,
        "time": 0.280494485,
        "traj_len": 4.221899023543845,
        "weighted_distance": 6.321811984264947
    },
    "planner": "LazyPRM",
    "start": {
        "state": {
            "elbow_joint": 2.4225746658250005,
            "shoulder_lift_joint": -1.3736534386056498,
            "shoulder_pan_joint": -0.3378633547517467,
            "wrist_1_joint": -1.0288598680537169,
            "wrist_2_joint": 1.233022673432363,
            "wrist_3_joint": -3.0940220416140027
        }
    },
    "waypoints": [
        {
            "positions": [
                -0.3378633547517467,
                -1.3736534386056498,
                2.4225746658250005,
                -1.0288598680537169,
                1.233022673432363,
                -3.0940220416140027
            ]
        },
        {
            "positions": [
                -0.3594979345313026,
                -1.3822352062637835,
                2.4451266470123665,
                -1.1222886213624381,
                1.1709538113002371,
                -2.9094672755361644
            ]
        },
        {
            "positions": [
                -0.38113251431085843,
                -1.3908169739219174,
                2.467678628199733,
                -1.2157173746711591,
                1.1088849491681114,
                -2.724912509458326
            ]
        },
        {
            "positions": [
                -0.4027670940904143,
                -1.399398741580051,
                2.490230609387099,
                -1.3091461279798802,
                1.0468160870359857,
                -2.5403577433804876
            ]
        },
        {
            "positions": [
                -0.4244016738699702,
                -1.4079805092381847,
                2.5127825905744654,
                -1.4025748812886014,
                0.9847472249038598,
                -2.355802977302649
            ]
        },
        {
            "positions": [
                -0.44603625364952604,
                -1.4165622768963186,
                2.5353345717618314,
                -1.4960036345973227,
                0.922678362771734,
                -2.1712482112248113
            ]
        },
        {
            "positions": [
                -0.4676708334290819,
                -1.4251440445544523,
                2.557886552949198,
                -1.5894323879060437,
                0.8606095006396082,
                -1.9866934451469727
            ]
        },
        {
            "positions": [
                -0.48930541320863774,
                -1.4337258122125862,
                2.580438534136564,
                -1.6828611412147647,
                0.7985406385074824,
                -1.8021386790691345
            ]
        },
        {
            "positions": [
                -0.5109399929881936,
                -1.44230757987072,
                2.6029905153239303,
                -1.776289894523486,
                0.7364717763753565,
                -1.6175839129912961
            ]
        },
        {
            "positions": [
                -0.5325745727677494,
                -1.4508893475288536,
                2.6255424965112963,
                -1.8697186478322072,
                0.6744029142432307,
                -1.4330291469134577
            ]
        },
        {
            "positions": [
                -0.5542091525473053,
                -1.4594711151869875,
                2.648094477698663,
                -1.9631474011409282,
                0.6123340521111049,
                -1.2484743808356193
            ]
        },
        {
            "positions": [
                -0.5758437323268613,
                -1.4680528828451211,
                2.670646458886029,
                -2.0565761544496493,
                0.550265189978979,
                -1.063919614757781
            ]
        },
        {
            "positions": [
                -0.597478312106417,
                -1.476634650503255,
                2.6931984400733953,
                -2.1500049077583707,
                0.4881963278468533,
                -0.8793648486799426
            ]
        },
        {
            "positions": [
                -0.619112891885973,
                -1.4852164181613887,
                2.7157504212607613,
                -2.2434336610670917,
                0.42612746571472737,
                -0.6948100826021042
            ]
        },
        {
            "positions": [
                -0.6407474716655288,
                -1.4937981858195224,
                2.7383024024481277,
                -2.3368624143758128,
                0.36405860358260167,
                -0.5102553165242663
            ]
        },
        {
            "positions": [
                -0.6623820514450847,
                -1.5023799534776563,
                2.7608543836354937,
                -2.4302911676845342,
                0.30198974145047575,
                -0.32570055044642743
            ]
        },
        {
            "positions": [
                -0.6840166312246405,
                -1.51096172113579,
                2.78340636482286,
                -2.523719920993255,
                0.23992087931835004,
                -0.1411457843685895
            ]
        },
        {
            "positions": [
                -0.7056512110041964,
                -1.5195434887939236,
                2.805958346010226,
                -2.6171486743019763,
                0.17785201718622412,
                0.043408981709248895
            ]
        },
        {
            "positions": [
                -0.7272857907837522,
                -1.5281252564520575,
                2.828510327197592,
                -2.7105774276106973,
                0.11578315505409842,
                0.22796374778708728
            ]
        },
        {
            "positions": [
                -0.7489203705633081,
                -1.5367070241101912,
                2.8510623083849587,
                -2.8040061809194183,
                0.053714292921972495,
                0.41251851386492566
            ]
        },
        {
            "positions": [
                -0.7705549503428639,
                -1.5452887917683251,
                2.873614289572325,
                -2.89743493422814,
                -0.008354569210153207,
                0.597073279942764
            ]
        },
        {
            "positions": [
                -0.7921895301224198,
                -1.5538705594264588,
                2.896166270759691,
                -2.990863687536861,
                -0.07042343134227913,
                0.7816280460206024
            ]
        },
        {
            "positions": [
                -0.7320916869088583,
                -1.5680150706821918,
                2.8760773122308376,
                -2.8901443286816413,
                -0.038754712029980945,
                0.625339579106992
            ]
        },
        {
            "positions": [
                -0.6719938436952967,
                -1.5821595819379248,
                2.8559883537019846,
                -2.7894249698264213,
                -0.00708599271768276,
                0.4690511121933816
            ]
        },
        {
            "positions": [
                -0.6118960004817352,
                -1.5963040931936578,
                2.835899395173131,
                -2.6887056109712018,
                0.024582726594615426,
                0.31276264527977116
            ]
        },
        {
            "positions": [
                -0.5517981572681737,
                -1.6104486044493909,
                2.815810436644278,
                -2.587986252115982,
                0.05625144590691361,
                0.15647417836616073
            ]
        },
        {
            "positions": [
                -0.4917003140546121,
                -1.624593115705124,
                2.7957214781154245,
                -2.4872668932607627,
                0.08792016521921181,
                0.00018571145255030785
            ]
        },
        {
            "positions": [
                -0.43160247084105063,
                -1.6387376269608571,
                2.7756325195865714,
                -2.386547534405543,
                0.11958888453150998,
                -0.15610275546106012
            ]
        },
        {
            "positions": [
                -0.3715046276274891,
                -1.6528821382165901,
                2.755543561057718,
                -2.285828175550323,
                0.15125760384380818,
                -0.31239122237467054
            ]
        },
        {
            "positions": [
                -0.3114067844139276,
                -1.6670266494723232,
                2.735454602528865,
                -2.1851088166951036,
                0.18292632315610635,
                -0.46867968928828097
            ]
        },
        {
            "positions": [
                -0.25130894120036606,
                -1.6811711607280562,
                2.7153656440000113,
                -2.084389457839884,
                0.21459504246840455,
                -0.6249681562018914
            ]
        },
        {
            "positions": [
                -0.19121109798680447,
                -1.6953156719837892,
                2.6952766854711583,
                -1.9836700989846643,
                0.24626376178070275,
                -0.7812566231155018
            ]
        },
        {
            "positions": [
                -0.13111325477324298,
                -1.7094601832395222,
                2.6751877269423048,
                -1.8829507401294447,
                0.2779324810930009,
                -0.9375450900291122
            ]
        },
        {
            "positions": [
                -0.0710154115596815,
                -1.7236046944952552,
                2.6550987684134517,
                -1.782231381274225,
                0.3096012004052991,
                -1.0938335569427227
            ]
        },
        {
            "positions": [
                -0.01091756834612001,
                -1.7377492057509885,
                2.635009809884598,
                -1.6815120224190054,
                0.3412699197175973,
                -1.250122023856333
            ]
        },
        {
            "positions": [
                0.04918027486744159,
                -1.7518937170067215,
                2.614920851355745,
                -1.5807926635637857,
                0.3729386390298955,
                -1.4064104907699435
            ]
        },
        {
            "positions": [
                0.10927811808100296,
                -1.7660382282624545,
                2.5948318928268916,
                -1.4800733047085661,
                0.40460735834219363,
                -1.562698957683554
            ]
        },
        {
            "positions": [
                0.16937596129456456,
                -1.7801827395181875,
                2.5747429342980386,
                -1.3793539458533464,
                0.43627607765449183,
                -1.7189874245971644
            ]
        },
        {
            "positions": [
                0.22947380450812616,
                -1.7943272507739205,
                2.554653975769185,
                -1.2786345869981266,
                0.46794479696679003,
                -1.8752758915107748
            ]
        },
        {
            "positions": [
                0.28957164772168764,
                -1.8084717620296535,
                2.534565017240332,
                -1.1779152281429073,
                0.49961351627908823,
                -2.031564358424385
            ]
        },
        {
            "positions": [
                0.3496694909352491,
                -1.8226162732853866,
                2.5144760587114785,
                -1.0771958692876875,
                0.5312822355913864,
                -2.1878528253379956
            ]
        },
        {
            "positions": [
                0.40976733414881084,
                -1.8367607845411196,
                2.4943871001826254,
                -0.9764765104324677,
                0.5629509549036846,
                -2.344141292251606
            ]
        },
        {
            "positions": [
                0.4698651773623721,
                -1.8509052957968528,
                2.474298141653772,
                -0.8757571515772482,
                0.5946196742159827,
                -2.5004297591652165
            ]
        },
        {
            "positions": [
                0.5299630205759338,
                -1.8650498070525858,
                2.4542091831249184,
                -0.7750377927220287,
                0.6262883935282809,
                -2.656718226078827
            ]
        },
        {
            "positions": [
                0.5900608637894953,
                -1.8791943183083188,
                2.4341202245960654,
                -0.6743184338668087,
                0.6579571128405792,
                -2.8130066929924373
            ]
        },
        {
            "positions": [
                0.6501587070030568,
                -1.8933388295640519,
                2.4140312660672123,
                -0.5735990750115891,
                0.6896258321528773,
                -2.9692951599060478
            ]
        },
        {
            "positions": [
                0.7102565502166182,
                -1.9074833408197849,
                2.393942307538359,
                -0.47287971615636953,
                0.7212945514651755,
                -3.125583626819658
            ]
        }
    ]
}