{
    "goal": {
        "global_pose": {
            "orientation": {
                "w": 0.5084816217422485,
                "x": -0.49083608388900757,
                "y": 0.5182115435600281,
                "z": -0.4816462993621826
            },
            "position": {
                "x": 0.5540239810943604,
                "y": 0.030875300988554955,
                "z": 0.16403168439865112
            }
        },
        "name": "move_to_storage_A"
    },
    "id": "LazyPRMstar_move_to_storage_A_104",
    "joint_names": [
        "shoulder_pan_joint",
        "shoulder_lift_joint",
        "elbow_joint",
        "wrist_1_joint",
        "wrist_2_joint",
        "wrist_3_joint"
    ],
    "metrics": {
        "cart_traj_len": 0.3526348966831502,
        "distance_elbow_joint": 0.4528748618966556,
        "distance_shoulder_lift_joint": 0.23213751245986303,
        "distance_shoulder_pan_joint": 0.4584544623893351,
        "distance_wrist_1_joint": 0.2587851402347455,
        "distance_wrist_2_joint": 1.108642921890002,
        "distance_wrist_3_joint": 0.09233746051809888,
        "smoothness": 9.992007236661072e-16,
        "time": 5.000360729,
        "traj_len": 1.6134535504279943,
        "weighted_distance": 2.0384639664584814
    },
    "planner": "LazyPRMstar",
    "start": {
        "state": {
            "elbow_joint": 1.971548259319323,
            "shoulder_lift_joint": -1.1394851275133948,
            "shoulder_pan_joint": 0.1228115487234821,
            "wrist_1_joint": -0.7804723859257726,
            "wrist_2_joint": 0.12958671773740124,
            "wrist_3_joint": -3.192489227718131
        }
    },
    "waypoints": [
        {
            "positions": [
                0.1228115487234821,
                -1.1394851275133948,
                1.971548259319323,
                -0.7804723859257726,
                0.12958671773740124,
                -3.192489227718131
            ]
        },
        {
            "positions": [
                0.05731805409643423,
                -1.1726476292933752,
                2.0362446681617024,
                -0.8174416916735934,
                0.28796427800740154,
                -3.1792981619298315
            ]
        },
        {
            "positions": [
                -0.008175440530613642,
                -1.2058101310733558,
                2.100941077004082,
                -0.8544109974214142,
                0.4463418382774018,
                -3.1661070961415314
            ]
        },
        {
            "positions": [
                -0.07366893515766151,
                -1.2389726328533361,
                2.165637485846461,
                -0.891380303169235,
                0.6047193985474021,
                -3.1529160303532318
            ]
        },
        {
            "positions": [
                -0.13916242978470938,
                -1.2721351346333165,
                2.2303338946888402,
                -0.9283496089170558,
                0.7630969588174024,
                -3.1397249645649317
            ]
        },
        {
            "positions": [
                -0.20465592441175728,
                -1.305297636413297,
                2.29503030353122,
                -0.9653189146648766,
                0.9214745190874027,
                -3.126533898776632
            ]
        },
        {
            "positions": [
                -0.2701494190388051,
                -1.3384601381932775,
                2.3597267123735994,
                -1.0022882204126973,
                1.079852079357403,
                -3.113342832988332
            ]
        },
        {
            "positions": [
                -0.335642913665853,
                -1.3716226399732578,
                2.4244231212159786,
                -1.0392575261605181,
                1.2382296396274033,
                -3.1001517672000323
            ]
        }
    ]
}{
    "goal": {
        "global_pose": {
            "orientation": {
                "w": 0.5084816217422485,
                "x": -0.49083608388900757,
                "y": 0.5182115435600281,
                "z": -0.4816462993621826
            },
            "position": {
                "x": 0.5540239810943604,
                "y": 0.030875300988554955,
                "z": 0.16403168439865112
            }
        },
        "name": "move_to_storage_A"
    },
    "id": "LazyPRMstar_move_to_storage_A_104",
    "joint_names": [
        "shoulder_pan_joint",
        "shoulder_lift_joint",
        "elbow_joint",
        "wrist_1_joint",
        "wrist_2_joint",
        "wrist_3_joint"
    ],
    "metrics": {
        "cart_traj_len": 0.3528214659823345,
        "distance_elbow_joint": 0.44756205737922583,
        "distance_shoulder_lift_joint": 0.233302857128318,
        "distance_shoulder_pan_joint": 0.45972688019859015,
        "distance_wrist_1_joint": 0.23754452285079708,
        "distance_wrist_2_joint": 1.1043086204405652,
        "distance_wrist_3_joint": 0.09687146740211938,
        "smoothness": 1.3322676295501878e-15,
        "time": 5.000539692,
        "traj_len": 1.6060250326192351,
        "weighted_distance": 2.0285247061584477
    },
    "planner": "LazyPRMstar",
    "start": {
        "state": {
            "elbow_joint": 1.97154746011099,
            "shoulder_lift_joint": -1.13948474672311,
            "shoulder_pan_joint": 0.12281154466712228,
            "wrist_1_joint": -0.7804688027058302,
            "wrist_2_joint": 0.12958655903071145,
            "wrist_3_joint": 3.0906928834467795
        }
    },
    "waypoints": [
        {
            "positions": [
                0.12281154466712228,
                -1.13948474672311,
                1.97154746011099,
                -0.7804688027058302,
                0.12958655903071145,
                3.0906928834467795
            ]
        },
        {
            "positions": [
                0.05713627606732369,
                -1.1728137263128697,
                2.0354848968794506,
                -0.8144037345416584,
                0.2873449333793636,
                3.104531664504225
            ]
        },
        {
            "positions": [
                -0.008538992532474907,
                -1.2061427059026293,
                2.0994223336479116,
                -0.8483386663774865,
                0.44510330772801576,
                3.1183704455616708
            ]
        },
        {
            "positions": [
                -0.07421426113227349,
                -1.239471685492389,
                2.1633597704163723,
                -0.8822735982133146,
                0.6028616820766679,
                3.1322092266191164
            ]
        },
        {
            "positions": [
                -0.13988952973207208,
                -1.2728006650821488,
                2.2272972071848334,
                -0.9162085300491428,
                0.7606200564253202,
                3.146048007676562
            ]
        },
        {
            "positions": [
                -0.2055647983318707,
                -1.3061296446719086,
                2.291234643953294,
                -0.9501434618849709,
                0.9183784307739724,
                3.1598867887340076
            ]
        },
        {
            "positions": [
                -0.27124006693166924,
                -1.3394586242616682,
                2.355172080721755,
                -0.9840783937207991,
                1.0761368051226243,
                3.1737255697914533
            ]
        },
        {
            "positions": [
                -0.33691533553146785,
                -1.372787603851428,
                2.4191095174902157,
                -1.0180133255566273,
                1.2338951794712767,
                3.187564350848899
            ]
        }
    ]
}{
    "goal": {
        "global_pose": {
            "orientation": {
                "w": 0.5084816217422485,
                "x": -0.49083608388900757,
                "y": 0.5182115435600281,
                "z": -0.4816462993621826
            },
            "position": {
                "x": 0.5540239810943604,
                "y": 0.030875300988554955,
                "z": 0.16403168439865112
            }
        },
        "name": "move_to_storage_A"
    },
    "id": "LazyPRMstar_move_to_storage_A_104",
    "joint_names": [
        "shoulder_pan_joint",
        "shoulder_lift_joint",
        "elbow_joint",
        "wrist_1_joint",
        "wrist_2_joint",
        "wrist_3_joint"
    ],
    "metrics": {
        "cart_traj_len": 0.3538204722843305,
        "distance_elbow_joint": 0.45410332452519553,
        "distance_shoulder_lift_joint": 0.23412888072962157,
        "distance_shoulder_pan_joint": 0.4614717096928234,
        "distance_wrist_1_joint": 0.25932431326168004,
        "distance_wrist_2_joint": 1.1058090746237552,
        "distance_wrist_3_joint": 0.10489546301913455,
        "smoothness": 4.440892098500626e-16,
        "time": 5.000409104,
        "traj_len": 1.6185588546148733,
        "weighted_distance": 2.0480861993031234
    },
    "planner": "LazyPRMstar",
    "start": {
        "state": {
            "elbow_joint": 1.9715472970024885,
            "shoulder_lift_joint": -1.1394870060712896,
            "shoulder_pan_joint": 0.12281152778156021,
            "wrist_1_joint": -0.780463741449964,
            "wrist_2_joint": 0.12958659822042276,
            "wrist_3_joint": 3.090690232415272
        }
    },
    "waypoints": [
        {
            "positions": [
                0.12281152778156021,
                -1.1394870060712896,
                1.9715472970024885,
                -0.780463741449964,
                0.12958659822042276,
                3.090690232415272
            ]
        },
        {
            "positions": [
                0.056886997825442584,
                -1.1729339890326642,
                2.0364192005060877,
                -0.8175100719159183,
                0.2875593231666735,
                3.1056752985608624
            ]
        },
        {
            "positions": [
                -0.009037532130675041,
                -1.2063809719940386,
                2.1012911040096873,
                -0.8545564023818726,
                0.44553204811292424,
                3.120660364706453
            ]
        },
        {
            "positions": [
                -0.07496206208679265,
                -1.2398279549554132,
                2.1661630075132865,
                -0.8916027328478269,
                0.6035047730591749,
                3.1356454308520436
            ]
        },
        {
            "positions": [
                -0.1408865920429103,
                -1.2732749379167876,
                2.231034911016886,
                -0.9286490633137812,
                0.7614774980054256,
                3.1506304969976346
            ]
        },
        {
            "positions": [
                -0.20681112199902793,
                -1.3067219208781622,
                2.2959068145204853,
                -0.9656953937797355,
                0.9194502229516764,
                3.1656155631432252
            ]
        },
        {
            "positions": [
                -0.2727356519551455,
                -1.3401689038395366,
                2.3607787180240845,
                -1.0027417242456897,
                1.0774229478979271,
                3.180600629288816
            ]
        },
        {
            "positions": [
                -0.3386601819112632,
                -1.3736158868009112,
                2.425650621527684,
                -1.039788054711644,
                1.235395672844178,
                3.1955856954344064
            ]
        }
    ]
}