{
    "goal": {
        "global_pose": {
            "orientation": {
                "w": 0.005598929693374612,
                "x": 0.007748599140229565,
                "y": 0.7110244013736278,
                "z": -0.7031023480610252
            },
            "position": {
                "x": 0.1141497679147869,
                "y": -0.7141253447532654,
                "z": 0.3711530566215515
            }
        },
        "name": "move_to_auspresseinheit_B"
    },
    "id": "LazyPRMstar_move_to_auspresseinheit_B_99",
    "joint_names": [
        "shoulder_pan_joint",
        "shoulder_lift_joint",
        "elbow_joint",
        "wrist_1_joint",
        "wrist_2_joint",
        "wrist_3_joint"
    ],
    "metrics": {
        "cart_traj_len": 0.5639772215485873,
        "distance_elbow_joint": 0.06010184373435634,
        "distance_shoulder_lift_joint": 0.29561186200330414,
        "distance_shoulder_pan_joint": 0.5742492869405325,
        "distance_wrist_1_joint": 0.31948094571807384,
        "distance_wrist_2_joint": 1.0058986156597942,
        "distance_wrist_3_joint": 0.0081704775415119,
        "smoothness": 0.0,
        "time": 5.000061366,
        "traj_len": 1.504497601060757,
        "weighted_distance": 1.898745256230668
    },
    "planner": "LazyPRMstar",
    "start": {
        "state": {
            "elbow_joint": 2.0193083361928714,
            "shoulder_lift_joint": -1.1220246554650708,
            "shoulder_pan_joint": -1.0952077554168747,
            "wrist_1_joint": -0.8559753972642168,
            "wrist_2_joint": 0.4759566250798843,
            "wrist_3_joint": -3.1240929996934557
        }
    },
    "waypoints": [
        {
            "positions": [
                -1.0952077554168747,
                -1.1220246554650708,
                2.0193083361928714,
                -0.8559753972642168,
                0.4759566250798843,
                -3.1240929996934557
            ]
        },
        {
            "positions": [
                -1.1909159699069634,
                -1.1712932991322882,
                2.0092913622371453,
                -0.8027285729778711,
                0.6436063943565167,
                -3.1254547459503743
            ]
        },
        {
            "positions": [
                -1.286624184397052,
                -1.2205619427995056,
                1.9992743882814192,
                -0.7494817486915255,
                0.811256163633149,
                -3.126816492207293
            ]
        },
        {
            "positions": [
                -1.382332398887141,
                -1.269830586466723,
                1.9892574143256931,
                -0.6962349244051799,
                0.9789059329097813,
                -3.1281782384642116
            ]
        },
        {
            "positions": [
                -1.4780406133772295,
                -1.3190992301339401,
                1.9792404403699673,
                -0.6429881001188342,
                1.1465557021864137,
                -3.1295399847211303
            ]
        },
        {
            "positions": [
                -1.5737488278673184,
                -1.3683678738011575,
                1.9692234664142412,
                -0.5897412758324886,
                1.3142054714630462,
                -3.130901730978049
            ]
        },
        {
            "positions": [
                -1.669457042357407,
                -1.417636517468375,
                1.959206492458515,
                -0.536494451546143,
                1.4818552407396786,
                -3.1322634772349676
            ]
        }
    ]
}