{
    "goal": {
        "global_pose": {
            "orientation": {
                "w": -0.00223480608172531,
                "x": 0.0024358444001904467,
                "y": 0.7094548369677653,
                "z": -0.704743149386269
            },
            "position": {
                "x": 0.6205249238014221,
                "y": -0.6371506643295288,
                "z": 0.19426114857196808
            }
        },
        "name": "move_to_magneteinheit_B"
    },
    "id": "LazyPRM_move_to_magneteinheit_B_149",
    "joint_names": [
        "shoulder_pan_joint",
        "shoulder_lift_joint",
        "elbow_joint",
        "wrist_1_joint",
        "wrist_2_joint",
        "wrist_3_joint"
    ],
    "metrics": {
        "cart_traj_len": 1.4665643368218104,
        "distance_elbow_joint": 0.9585964267333869,
        "distance_shoulder_lift_joint": 0.8986587003024428,
        "distance_shoulder_pan_joint": 1.6211774559669143,
        "distance_wrist_1_joint": 0.18414222367004252,
        "distance_wrist_2_joint": 1.571465005244333,
        "distance_wrist_3_joint": 0.2738210415711459,
        "smoothness": 0.36225208741241127,
        "time": 0.096766025,
        "traj_len": 2.346883221101609,
        "weighted_distance": 2.7948363396708817
    },
    "planner": "LazyPRM",
    "start": {
        "state": {
            "elbow_joint": 2.6216224122426386,
            "shoulder_lift_joint": -1.4174107377796124,
            "shoulder_pan_joint": 0.7066234856936794,
            "wrist_1_joint": 1.9546482284002225,
            "wrist_2_joint": -0.7096286983471962,
            "wrist_3_joint": 0.005740856962016249
        }
    },
    "waypoints": [
        {
            "positions": [
                0.7066234856936794,
                -1.4174107377796124,
                2.6216224122426386,
                1.9546482284002225,
                -0.7096286983471962,
                0.005740856962016249
            ]
        },
        {
            "positions": [
                0.5532128790058733,
                -1.452536636556432,
                2.6215745297366486,
                1.9784830080920919,
                -0.6968300289619517,
                -0.06441080203727652
            ]
        },
        {
            "positions": [
                0.39980227231806736,
                -1.4876625353332518,
                2.6215266472306586,
                2.0023177877839613,
                -0.6840313595767071,
                -0.13456246103656927
            ]
        },
        {
            "positions": [
                0.29869794596489024,
                -1.4239389274294976,
                2.5477958270982426,
                2.012815685036754,
                -0.802944256997772,
                -0.1242918669156031
            ]
        },
        {
            "positions": [
                0.19759361961171315,
                -1.3602153195257436,
                2.474065006965827,
                2.0233135822895463,
                -0.921857154418837,
                -0.1140212727946369
            ]
        },
        {
            "positions": [
                0.09648929325853606,
                -1.2964917116219894,
                2.400334186833411,
                2.033811479542339,
                -1.040770051839902,
                -0.10375067867367072
            ]
        },
        {
            "positions": [
                -0.004615033094641063,
                -1.2327681037182354,
                2.326603366700995,
                2.0443093767951317,
                -1.1596829492609668,
                -0.09348008455270454
            ]
        },
        {
            "positions": [
                -0.10571935944781813,
                -1.1690444958144812,
                2.252872546568579,
                2.054807274047924,
                -1.2785958466820317,
                -0.08320949043173836
            ]
        },
        {
            "positions": [
                -0.20682368580099525,
                -1.105320887910727,
                2.179141726436163,
                2.0653051713007167,
                -1.3975087441030967,
                -0.07293889631077217
            ]
        },
        {
            "positions": [
                -0.30792801215417226,
                -1.041597280006973,
                2.105410906303747,
                2.0758030685535096,
                -1.5164216415241616,
                -0.062668302189806
            ]
        },
        {
            "positions": [
                -0.4090323385073495,
                -0.977873672103219,
                2.031680086171331,
                2.086300965806302,
                -1.6353345389452265,
                -0.05239770806883981
            ]
        },
        {
            "positions": [
                -0.5101366648605266,
                -0.9141500641994649,
                1.9579492660389155,
                2.0967988630590946,
                -1.7542474363662914,
                -0.042127113947873635
            ]
        },
        {
            "positions": [
                -0.6112409912137036,
                -0.8504264562957107,
                1.8842184459064995,
                2.107296760311887,
                -1.8731603337873564,
                -0.031856519826907445
            ]
        },
        {
            "positions": [
                -0.7123453175668806,
                -0.7867028483919566,
                1.8104876257740836,
                2.11779465756468,
                -1.9920732312084213,
                -0.02158592570594127
            ]
        },
        {
            "positions": [
                -0.8134496439200578,
                -0.7229792404882025,
                1.7367568056416676,
                2.1282925548174725,
                -2.110986128629486,
                -0.01131533158497508
            ]
        },
        {
            "positions": [
                -0.9145539702732348,
                -0.6592556325844484,
                1.6630259855092517,
                2.138790452070265,
                -2.229899026050551,
                -0.0010447374640089133
            ]
        }
    ]
}