{
    "goal": {
        "global_pose": {
            "orientation": {
                "w": -0.4816463035849501,
                "x": 0.5182115481033762,
                "y": 0.4908360881923453,
                "z": -0.5084816262002911
            },
            "position": {
                "x": -0.8240239810943604,
                "y": 0.19912469901144506,
                "z": 0.16403168439865112
            }
        },
        "name": "move_to_storage_D"
    },
    "id": "LazyPRMstar_move_to_storage_D_42",
    "joint_names": [
        "shoulder_pan_joint",
        "shoulder_lift_joint",
        "elbow_joint",
        "wrist_1_joint",
        "wrist_2_joint",
        "wrist_3_joint"
    ],
    "metrics": {
        "cart_traj_len": 0.7899095756485516,
        "distance_elbow_joint": 0.5852724980019006,
        "distance_shoulder_lift_joint": 0.6267370670138068,
        "distance_shoulder_pan_joint": 1.013731308864165,
        "distance_wrist_1_joint": 3.8830243954470967,
        "distance_wrist_2_joint": 1.797325980867466,
        "distance_wrist_3_joint": 3.1310676649502227,
        "smoothness": 0.4434942320274068,
        "time": 5.033052565,
        "traj_len": 3.322221984627857,
        "weighted_distance": 4.793708858635416
    },
    "planner": "LazyPRMstar",
    "start": {
        "state": {
            "elbow_joint": -2.384821988534728,
            "shoulder_lift_joint": -2.2788054721415256,
            "shoulder_pan_joint": -0.1854694642142757,
            "wrist_1_joint": 1.4845938289331202,
            "wrist_2_joint": 0.17898776772866878,
            "wrist_3_joint": 0.037105688729662994
        }
    },
    "waypoints": [
        {
            "positions": [
                -0.1854694642142757,
                -2.2788054721415256,
                -2.384821988534728,
                1.4845938289331202,
                0.17898776772866878,
                0.037105688729662994
            ]
        },
        {
            "positions": [
                -0.1696441055627309,
                -2.2582254275653337,
                -2.4003756997152057,
                1.5140831831383204,
                0.1833498286049269,
                0.04298220029894306
            ]
        },
        {
            "positions": [
                -0.11301287510433888,
                -2.2213040567503457,
                -2.3971948520454593,
                1.4010255101975038,
                0.14346919088693616,
                -0.0667561520850649
            ]
        },
        {
            "positions": [
                -0.05638164464594686,
                -2.184382685935358,
                -2.3940140043757125,
                1.287967837256687,
                0.10358855316894544,
                -0.17649450446907286
            ]
        },
        {
            "positions": [
                0.0002495858124451633,
                -2.14746131512037,
                -2.390833156705966,
                1.1749101643158704,
                0.06370791545095472,
                -0.2862328568530808
            ]
        },
        {
            "positions": [
                0.05688081627083719,
                -2.110539944305382,
                -2.38765230903622,
                1.0618524913750536,
                0.023827277732963975,
                -0.3959712092370888
            ]
        },
        {
            "positions": [
                0.11351204672922921,
                -2.0736185734903945,
                -2.3844714613664735,
                0.948794818434237,
                -0.016053359985026744,
                -0.5057095616210967
            ]
        },
        {
            "positions": [
                0.17014327718762123,
                -2.0366972026754064,
                -2.3812906136967267,
                0.8357371454934203,
                -0.05593399770301746,
                -0.6154479140051047
            ]
        },
        {
            "positions": [
                0.22677450764601326,
                -1.9997758318604184,
                -2.3781097660269803,
                0.7226794725526037,
                -0.09581463542100818,
                -0.7251862663891125
            ]
        },
        {
            "positions": [
                0.2834057381044053,
                -1.9628544610454306,
                -2.374928918357234,
                0.6096217996117869,
                -0.13569527313899896,
                -0.8349246187731206
            ]
        },
        {
            "positions": [
                0.3400369685627973,
                -1.9259330902304426,
                -2.371748070687487,
                0.49656412667097016,
                -0.17557591085698968,
                -0.9446629711571285
            ]
        },
        {
            "positions": [
                0.3966681990211893,
                -1.8890117194154548,
                -2.368567223017741,
                0.3835064537301536,
                -0.2154565485749804,
                -1.0544013235411365
            ]
        },
        {
            "positions": [
                0.37395274398809986,
                -1.901482420167441,
                -2.3402561540638485,
                0.24019285837048365,
                -0.28883326135452253,
                -1.1611280408853923
            ]
        },
        {
            "positions": [
                0.35123728895501033,
                -1.913953120919427,
                -2.3119450851099557,
                0.09687926301081373,
                -0.36220997413406464,
                -1.2678547582296484
            ]
        },
        {
            "positions": [
                0.3285218339219208,
                -1.9264238216714131,
                -2.2836340161560633,
                -0.04643433234885613,
                -0.4355866869136068,
                -1.3745814755739043
            ]
        },
        {
            "positions": [
                0.30580637888883133,
                -1.938894522423399,
                -2.2553229472021705,
                -0.1897479277085261,
                -0.508963399693149,
                -1.4813081929181602
            ]
        },
        {
            "positions": [
                0.28309092385574186,
                -1.9513652231753853,
                -2.227011878248278,
                -0.3330615230681959,
                -0.5823401124726911,
                -1.588034910262416
            ]
        },
        {
            "positions": [
                0.26037546882265233,
                -1.9638359239273713,
                -2.198700809294386,
                -0.47637511842786584,
                -0.6557168252522332,
                -1.6947616276066721
            ]
        },
        {
            "positions": [
                0.23766001378956284,
                -1.9763066246793575,
                -2.170389740340493,
                -0.6196887137875358,
                -0.7290935380317753,
                -1.8014883449509282
            ]
        },
        {
            "positions": [
                0.21494455875647334,
                -1.9887773254313437,
                -2.1420786713866007,
                -0.7630023091472058,
                -0.8024702508113175,
                -1.908215062295184
            ]
        },
        {
            "positions": [
                0.19222910372338384,
                -2.0012480261833296,
                -2.1137676024327083,
                -0.9063159045068756,
                -0.8758469635908597,
                -2.01494177963944
            ]
        },
        {
            "positions": [
                0.16951364869029434,
                -2.013718726935316,
                -2.0854565334788155,
                -1.0496294998665454,
                -0.9492236763704018,
                -2.1216684969836956
            ]
        },
        {
            "positions": [
                0.1467981936572048,
                -2.026189427687302,
                -2.057145464524923,
                -1.1929430952262154,
                -1.022600389149944,
                -2.2283952143279517
            ]
        },
        {
            "positions": [
                0.12408273862411534,
                -2.038660128439288,
                -2.0288343955710304,
                -1.3362566905858853,
                -1.095977101929486,
                -2.335121931672208
            ]
        },
        {
            "positions": [
                0.10136728359102581,
                -2.051130829191274,
                -2.000523326617138,
                -1.4795702859455553,
                -1.169353814709028,
                -2.441848649016464
            ]
        },
        {
            "positions": [
                0.07865182855793634,
                -2.06360152994326,
                -1.9722122576632455,
                -1.622883881305225,
                -1.2427305274885703,
                -2.54857536636072
            ]
        },
        {
            "positions": [
                0.055936373524846816,
                -2.0760722306952464,
                -1.943901188709353,
                -1.7661974766648951,
                -1.3161072402681124,
                -2.655302083704976
            ]
        },
        {
            "positions": [
                0.033220918491757345,
                -2.0885429314472326,
                -1.9155901197554606,
                -1.9095110720245652,
                -1.3894839530476546,
                -2.7620288010492313
            ]
        },
        {
            "positions": [
                0.010505463458667819,
                -2.1010136321992183,
                -1.8872790508015678,
                -2.052824667384235,
                -1.4628606658271968,
                -2.8687555183934874
            ]
        },
        {
            "positions": [
                -0.012209991574421653,
                -2.1134843329512045,
                -1.8589679818476754,
                -2.196138262743905,
                -1.536237378606739,
                -2.9754822357377435
            ]
        },
        {
            "positions": [
                -0.034925446607511165,
                -2.1259550337031907,
                -1.8306569128937829,
                -2.339451858103575,
                -1.609614091386281,
                -3.0822089530819996
            ]
        }
    ]
}