{
    "goal": {
        "global_pose": {
            "orientation": {
                "w": 0.7047431468963623,
                "x": -0.7094548344612122,
                "y": 0.0024358443915843964,
                "z": -0.0022348060738295317
            },
            "position": {
                "x": 0.6094750761985779,
                "y": 0.3671506643295288,
                "z": 0.19426114857196808
            }
        },
        "name": "move_to_magneteinheit_A"
    },
    "id": "LazyPRMstar_move_to_magneteinheit_A_3",
    "joint_names": [
        "shoulder_pan_joint",
        "shoulder_lift_joint",
        "elbow_joint",
        "wrist_1_joint",
        "wrist_2_joint",
        "wrist_3_joint"
    ],
    "metrics": {
        "cart_traj_len": 3.617184441532678,
        "distance_elbow_joint": 3.8788726869630303,
        "distance_shoulder_lift_joint": 0.1762733115216959,
        "distance_shoulder_pan_joint": 2.6796284963621466,
        "distance_wrist_1_joint": 1.2268458278381371,
        "distance_wrist_2_joint": 1.7058321284062352,
        "distance_wrist_3_joint": 3.6905729573881385,
        "smoothness": 0.03744379107104641,
        "time": 5.045204643,
        "traj_len": 3.6548632544158735,
        "weighted_distance": 4.865372470787826
    },
    "planner": "LazyPRMstar",
    "start": {
        "state": {
            "elbow_joint": -1.9196185241190666,
            "shoulder_lift_joint": -1.2443396400964142,
            "shoulder_pan_joint": 2.6996025414629847,
            "wrist_1_joint": -1.5485510000780065,
            "wrist_2_joint": -1.5709468930060704,
            "wrist_3_joint": 0.4420197071253992
        }
    },
    "waypoints": [
        {
            "positions": [
                2.6996025414629847,
                -1.2443396400964142,
                -1.9196185241190666,
                -1.5485510000780065,
                -1.5709468930060704,
                0.4420197071253992
            ]
        },
        {
            "positions": [
                2.590806574090169,
                -1.238128413916485,
                -1.785626261901571,
                -1.55751996809715,
                -1.5274255883646157,
                0.35410081901716334
            ]
        },
        {
            "positions": [
                2.4820106067173535,
                -1.2319171877365558,
                -1.6516339996840754,
                -1.5664889361162937,
                -1.483904283723161,
                0.2661819309089275
            ]
        },
        {
            "positions": [
                2.3732146393445377,
                -1.2257059615566266,
                -1.5176417374665796,
                -1.5754579041354373,
                -1.4403829790817064,
                0.17826304280069172
            ]
        },
        {
            "positions": [
                2.264418671971722,
                -1.2194947353766974,
                -1.383649475249084,
                -1.584426872154581,
                -1.3968616744402518,
                0.09034415469245588
            ]
        },
        {
            "positions": [
                2.1556227045989065,
                -1.2132835091967682,
                -1.2496572130315884,
                -1.5933958401737245,
                -1.3533403697987971,
                0.0024252665842200982
            ]
        },
        {
            "positions": [
                2.0468267372260907,
                -1.2070722830168388,
                -1.1156649508140926,
                -1.6023648081928683,
                -1.3098190651573423,
                -0.08549362152401574
            ]
        },
        {
            "positions": [
                1.9380307698532748,
                -1.2008610568369096,
                -0.981672688596597,
                -1.611333776212012,
                -1.2662977605158878,
                -0.17341250963225152
            ]
        },
        {
            "positions": [
                1.8292348024804592,
                -1.1946498306569804,
                -0.8476804263791013,
                -1.6203027442311555,
                -1.222776455874433,
                -0.2613313977404874
            ]
        },
        {
            "positions": [
                1.7204388351076436,
                -1.1884386044770512,
                -0.7136881641616055,
                -1.629271712250299,
                -1.1792551512329783,
                -0.3492502858487233
            ]
        },
        {
            "positions": [
                1.611642867734828,
                -1.182227378297122,
                -0.5796959019441099,
                -1.6382406802694427,
                -1.1357338465915237,
                -0.437169173956959
            ]
        },
        {
            "positions": [
                1.5028469003620122,
                -1.1760161521171928,
                -0.4457036397266143,
                -1.6472096482885863,
                -1.092212541950069,
                -0.5250880620651949
            ]
        },
        {
            "positions": [
                1.3940509329891966,
                -1.1698049259372636,
                -0.3117113775091187,
                -1.65617861630773,
                -1.0486912373086144,
                -0.6130069501734307
            ]
        },
        {
            "positions": [
                1.2852549656163808,
                -1.1635936997573344,
                -0.17771911529162288,
                -1.6651475843268735,
                -1.0051699326671595,
                -0.7009258382816667
            ]
        },
        {
            "positions": [
                1.1764589982435651,
                -1.1573824735774052,
                -0.04372685307412727,
                -1.674116552346017,
                -0.961648628025705,
                -0.7888447263899022
            ]
        },
        {
            "positions": [
                1.0676630308707495,
                -1.151171247397476,
                0.09026540914336811,
                -1.6830855203651607,
                -0.9181273233842504,
                -0.876763614498138
            ]
        },
        {
            "positions": [
                0.9588670634979337,
                -1.1449600212175468,
                0.22425767136086394,
                -1.6920544883843043,
                -0.8746060187427956,
                -0.964682502606374
            ]
        },
        {
            "positions": [
                0.8500710961251181,
                -1.1387487950376174,
                0.35824993357835977,
                -1.701023456403448,
                -0.831084714101341,
                -1.0526013907146097
            ]
        },
        {
            "positions": [
                0.7412751287523023,
                -1.1325375688576882,
                0.4922421957958556,
                -1.7099924244225917,
                -0.7875634094598862,
                -1.1405202788228457
            ]
        },
        {
            "positions": [
                0.6324791613794867,
                -1.126326342677759,
                0.626234458013351,
                -1.7189613924417353,
                -0.7440421048184316,
                -1.2284391669310817
            ]
        },
        {
            "positions": [
                0.5236831940066713,
                -1.1201151164978298,
                0.7602267202308468,
                -1.7279303604608789,
                -0.700520800176977,
                -1.3163580550393172
            ]
        },
        {
            "positions": [
                0.414887226633855,
                -1.1139038903179006,
                0.8942189824483426,
                -1.7368993284800225,
                -0.6569994955355223,
                -1.4042769431475532
            ]
        },
        {
            "positions": [
                0.30609125926103964,
                -1.1076926641379714,
                1.0282112446658382,
                -1.745868296499166,
                -0.6134781908940676,
                -1.4921958312557888
            ]
        },
        {
            "positions": [
                0.2558430849324361,
                -1.1057975784888958,
                1.104781023584212,
                -1.7058741819456655,
                -0.5710234443465472,
                -1.6187470730359506
            ]
        },
        {
            "positions": [
                0.20559491060383264,
                -1.10390249283982,
                1.1813508025025854,
                -1.6658800673921652,
                -0.5285686977990267,
                -1.7452983148161125
            ]
        },
        {
            "positions": [
                0.15534673627522916,
                -1.1020074071907442,
                1.2579205814209589,
                -1.6258859528386647,
                -0.48611395125150636,
                -1.8718495565962745
            ]
        },
        {
            "positions": [
                0.10509856194662563,
                -1.1001123215416686,
                1.3344903603393325,
                -1.5858918382851641,
                -0.4436592047039859,
                -1.9984007983764362
            ]
        },
        {
            "positions": [
                0.10086638430615388,
                -1.1015211495729267,
                1.4005968425095878,
                -1.5002444608630374,
                -0.3873753074347463,
                -2.1533436568315443
            ]
        },
        {
            "positions": [
                0.09663420666568215,
                -1.1029299776041848,
                1.4667033246798433,
                -1.4145970834409105,
                -0.33109141016550675,
                -2.3082865152866523
            ]
        },
        {
            "positions": [
                0.0924020290252104,
                -1.1043388056354426,
                1.5328098068500986,
                -1.3289497060187836,
                -0.27480751289626715,
                -2.46322937374176
            ]
        },
        {
            "positions": [
                0.08816985138473865,
                -1.1057476336667007,
                1.5989162890203539,
                -1.243302328596657,
                -0.21852361562702757,
                -2.618172232196868
            ]
        },
        {
            "positions": [
                0.08393767374426692,
                -1.1071564616979588,
                1.6650227711906092,
                -1.1576549511745302,
                -0.162239718357788,
                -2.773115090651976
            ]
        },
        {
            "positions": [
                0.07970549610379517,
                -1.1085652897292166,
                1.7311292533608644,
                -1.0720075737524033,
                -0.1059558210885484,
                -2.9280579491070835
            ]
        },
        {
            "positions": [
                0.07547331846332342,
                -1.1099741177604747,
                1.79723573553112,
                -0.9863601963302765,
                -0.04967192381930885,
                -3.0830008075621915
            ]
        },
        {
            "positions": [
                0.07124114082285168,
                -1.1113829457917328,
                1.8633422177013752,
                -0.9007128189081497,
                0.0066119734499307525,
                -3.2379436660172995
            ]
        },
        {
            "positions": [
                0.09687468868385903,
                -1.1217706301501758,
                1.91129819027267,
                -0.8085262919951691,
                0.07074860442504748,
                -3.243248458140019
            ]
        },
        {
            "positions": [
                0.12250823654486637,
                -1.132158314508619,
                1.959254162843965,
                -0.7163397650821886,
                0.1348852354001642,
                -3.248553250262739
            ]
        }
    ]
}