{
    "goal": {
        "global_pose": {
            "orientation": {
                "w": 0.005598929693374612,
                "x": 0.007748599140229565,
                "y": 0.7110244013736278,
                "z": -0.7031023480610252
            },
            "position": {
                "x": -0.8858502320852131,
                "y": -0.7141253447532654,
                "z": 0.3711530566215515
            }
        },
        "name": "move_to_auspresseinheit_C"
    },
    "id": "LazyPRMstar_move_to_auspresseinheit_C_21",
    "joint_names": [
        "shoulder_pan_joint",
        "shoulder_lift_joint",
        "elbow_joint",
        "wrist_1_joint",
        "wrist_2_joint",
        "wrist_3_joint"
    ],
    "metrics": {
        "cart_traj_len": 0.4930964116144378,
        "distance_elbow_joint": 0.9913635447687482,
        "distance_shoulder_lift_joint": 0.32048533113550615,
        "distance_shoulder_pan_joint": 0.2564106970614195,
        "distance_wrist_1_joint": 0.6560656991674803,
        "distance_wrist_2_joint": 1.312783931500372,
        "distance_wrist_3_joint": 0.0367291315471614,
        "smoothness": 4.844609600361787e-16,
        "time": 5.000174913,
        "traj_len": 1.8904598210966261,
        "weighted_distance": 2.3698409712347495
    },
    "planner": "LazyPRMstar",
    "start": {
        "state": {
            "elbow_joint": 1.7527959577737207,
            "shoulder_lift_joint": -0.9740617694225068,
            "shoulder_pan_joint": -2.967991417825858,
            "wrist_1_joint": -0.759517768980727,
            "wrist_2_joint": 1.7443932448377408,
            "wrist_3_joint": -3.0840537646736568
        }
    },
    "waypoints": [
        {
            "positions": [
                -2.967991417825858,
                -0.9740617694225068,
                1.7527959577737207,
                -0.759517768980727,
                1.7443932448377408,
                -3.0840537646736568
            ]
        },
        {
            "positions": [
                -2.942350348119716,
                -0.9420132363089562,
                1.6536596032968458,
                -0.6939111990639789,
                1.6131148516877036,
                -3.087726677828373
            ]
        },
        {
            "positions": [
                -2.916709278413574,
                -0.9099647031954056,
                1.554523248819971,
                -0.628304629147231,
                1.4818364585376664,
                -3.091399590983089
            ]
        },
        {
            "positions": [
                -2.891068208707432,
                -0.877916170081855,
                1.4553868943430963,
                -0.5626980592304829,
                1.3505580653876292,
                -3.0950725041378053
            ]
        },
        {
            "positions": [
                -2.86542713900129,
                -0.8458676369683042,
                1.3562505398662212,
                -0.49709148931373487,
                1.219279672237592,
                -3.0987454172925215
            ]
        },
        {
            "positions": [
                -2.8397860692951484,
                -0.8138191038547538,
                1.2571141853893466,
                -0.43148491939698685,
                1.0880012790875548,
                -3.1024183304472377
            ]
        },
        {
            "positions": [
                -2.8141449995890064,
                -0.781770570741203,
                1.1579778309124718,
                -0.36587834948023884,
                0.9567228859375176,
                -3.1060912436019534
            ]
        },
        {
            "positions": [
                -2.7885039298828644,
                -0.7497220376276525,
                1.058841476435597,
                -0.3002717795634908,
                0.8254444927874806,
                -3.1097641567566696
            ]
        },
        {
            "positions": [
                -2.7628628601767224,
                -0.7176735045141018,
                0.959705121958722,
                -0.23466520964674276,
                0.6941660996374432,
                -3.113437069911386
            ]
        },
        {
            "positions": [
                -2.7372217904705805,
                -0.6856249714005512,
                0.8605687674818473,
                -0.1690586397299947,
                0.562887706487406,
                -3.117109983066102
            ]
        },
        {
            "positions": [
                -2.7115807207644385,
                -0.6535764382870006,
                0.7614324130049724,
                -0.10345206981324671,
                0.43160931333736885,
                -3.120782896220818
            ]
        }
    ]
}