{
    "goal": {
        "global_pose": {
            "orientation": {
                "w": 0.7047431493862688,
                "x": -0.7094548369677653,
                "y": 0.0024358444001904,
                "z": -0.0022348060817251984
            },
            "position": {
                "x": -0.39052492380142206,
                "y": 0.3671506643295288,
                "z": 0.19426114857196808
            }
        },
        "name": "move_to_magneteinheit_D"
    },
    "id": "LazyPRM_move_to_magneteinheit_D_14",
    "joint_names": [
        "shoulder_pan_joint",
        "shoulder_lift_joint",
        "elbow_joint",
        "wrist_1_joint",
        "wrist_2_joint",
        "wrist_3_joint"
    ],
    "metrics": {
        "cart_traj_len": 4.806050067957904,
        "distance_elbow_joint": 3.2807498892117706,
        "distance_shoulder_lift_joint": 1.4274920434574723,
        "distance_shoulder_pan_joint": 3.1248716086678514,
        "distance_wrist_1_joint": 2.7882017626267337,
        "distance_wrist_2_joint": 1.2293959797760035,
        "distance_wrist_3_joint": 1.4815636854402263,
        "smoothness": 0.647879323238711,
        "time": 0.24061723499999998,
        "traj_len": 3.651338791344903,
        "weighted_distance": 4.506994573156622
    },
    "planner": "LazyPRM",
    "start": {
        "state": {
            "elbow_joint": 0.749534889911806,
            "shoulder_lift_joint": -0.6476975780787326,
            "shoulder_pan_joint": -2.711696901376241,
            "wrist_1_joint": -0.07506478083263063,
            "wrist_2_joint": 0.43296659715538205,
            "wrist_3_joint": -3.14703540197715
        }
    },
    "waypoints": [
        {
            "positions": [
                -2.711696901376241,
                -0.6476975780787326,
                0.749534889911806,
                -0.07506478083263063,
                0.43296659715538205,
                -3.14703540197715
            ]
        },
        {
            "positions": [
                -2.7141095337997068,
                -0.7087129265601304,
                0.7957209473521955,
                0.04697223639017242,
                0.43492635433509086,
                -3.1215656428353813
            ]
        },
        {
            "positions": [
                -2.7165221662231724,
                -0.7697282750415283,
                0.841907004792585,
                0.16900925361297547,
                0.43688611151479967,
                -3.0960958836936125
            ]
        },
        {
            "positions": [
                -2.6124501867881618,
                -0.8151952099567457,
                0.7433031475754436,
                0.0988466756659198,
                0.40105932116953946,
                -3.0696186800693304
            ]
        },
        {
            "positions": [
                -2.508378207353151,
                -0.8606621448719631,
                0.6446992903583022,
                0.028684097718864127,
                0.36523253082427926,
                -3.0431414764450486
            ]
        },
        {
            "positions": [
                -2.404306227918141,
                -0.9061290797871806,
                0.5460954331411609,
                -0.041478480228191505,
                0.32940574047901905,
                -3.0166642728207664
            ]
        },
        {
            "positions": [
                -2.30023424848313,
                -0.951596014702398,
                0.44749157592401956,
                -0.11164105817524722,
                0.2935789501337589,
                -2.9901870691964847
            ]
        },
        {
            "positions": [
                -2.1961622690481195,
                -0.9970629496176154,
                0.3488877187068782,
                -0.18180363612230288,
                0.25775215978849864,
                -2.9637098655722025
            ]
        },
        {
            "positions": [
                -2.0920902896131093,
                -1.0425298845328328,
                0.2502838614897369,
                -0.2519662140693585,
                0.22192536944323848,
                -2.9372326619479208
            ]
        },
        {
            "positions": [
                -1.9880183101780984,
                -1.0879968194480503,
                0.15168000427259543,
                -0.32212879201641426,
                0.18609857909797822,
                -2.9107554583236386
            ]
        },
        {
            "positions": [
                -1.883946330743088,
                -1.1334637543632677,
                0.05307614705545416,
                -0.3922913699634699,
                0.15027178875271807,
                -2.884278254699357
            ]
        },
        {
            "positions": [
                -1.7798743513080773,
                -1.178930689278485,
                -0.04552771016168711,
                -0.4624539479105255,
                0.11444499840745787,
                -2.8578010510750746
            ]
        },
        {
            "positions": [
                -1.6758023718730668,
                -1.2243976241937025,
                -0.1441315673788286,
                -0.5326165258575812,
                0.07861820806219766,
                -2.8313238474507925
            ]
        },
        {
            "positions": [
                -1.5717303924380561,
                -1.26986455910892,
                -0.24273542459596986,
                -0.6027791038046368,
                0.04279141771693745,
                -2.8048466438265107
            ]
        },
        {
            "positions": [
                -1.4676584130030457,
                -1.3153314940241372,
                -0.34133928181311113,
                -0.6729416817516924,
                0.006964627371677301,
                -2.7783694402022285
            ]
        },
        {
            "positions": [
                -1.363586433568035,
                -1.3607984289393547,
                -0.4399431390302526,
                -0.7431042596987483,
                -0.02886216297358296,
                -2.751892236577947
            ]
        },
        {
            "positions": [
                -1.2595144541330243,
                -1.4062653638545721,
                -0.5385469962473941,
                -0.813266837645804,
                -0.06468895331884322,
                -2.7254150329536646
            ]
        },
        {
            "positions": [
                -1.1554424746980139,
                -1.4517322987697896,
                -0.6371508534645351,
                -0.8834294155928595,
                -0.10051574366410326,
                -2.698937829329383
            ]
        },
        {
            "positions": [
                -1.0513704952630034,
                -1.497199233685007,
                -0.7357547106816766,
                -0.9535919935399153,
                -0.13634253400936353,
                -2.6724606257051007
            ]
        },
        {
            "positions": [
                -0.9472985158279927,
                -1.5426661686002245,
                -0.8343585678988181,
                -1.023754571486971,
                -0.1721693243546238,
                -2.6459834220808185
            ]
        },
        {
            "positions": [
                -0.8432265363929823,
                -1.5881331035154418,
                -0.9329624251159592,
                -1.0939171494340265,
                -0.20799611469988394,
                -2.6195062184565368
            ]
        },
        {
            "positions": [
                -0.7391545569579716,
                -1.6336000384306593,
                -1.0315662823331007,
                -1.1640797273810821,
                -0.2438229050451441,
                -2.5930290148322546
            ]
        },
        {
            "positions": [
                -0.6350825775229612,
                -1.6790669733458767,
                -1.1301701395502421,
                -1.234242305328138,
                -0.27964969539040435,
                -2.566551811207973
            ]
        },
        {
            "positions": [
                -0.5310105980879505,
                -1.724533908261094,
                -1.2287739967673832,
                -1.3044048832751935,
                -0.3154764857356645,
                -2.5400746075836906
            ]
        },
        {
            "positions": [
                -0.4269386186529398,
                -1.7700008431763115,
                -1.3273778539845247,
                -1.3745674612222492,
                -0.35130327608092476,
                -2.513597403959409
            ]
        },
        {
            "positions": [
                -0.32286663921792913,
                -1.815467778091529,
                -1.4259817112016662,
                -1.444730039169305,
                -0.3871300664261849,
                -2.4871202003351267
            ]
        },
        {
            "positions": [
                -0.2187946597829189,
                -1.8609347130067464,
                -1.5245855684188072,
                -1.5148926171163604,
                -0.42295685677144507,
                -2.4606429967108445
            ]
        },
        {
            "positions": [
                -0.11472268034790828,
                -1.9064016479219636,
                -1.6231894256359487,
                -1.5850551950634162,
                -0.4587836471167053,
                -2.434165793086563
            ]
        },
        {
            "positions": [
                -0.07746805821573322,
                -1.9077122608688117,
                -1.7244506098286292,
                -1.7076067731904492,
                -0.46386278761047667,
                -2.5499607313945236
            ]
        },
        {
            "positions": [
                -0.04021343608355814,
                -1.9090228738156598,
                -1.82571179402131,
                -1.830158351317482,
                -0.468941928104248,
                -2.6657556697024845
            ]
        },
        {
            "positions": [
                -0.0029588139513830602,
                -1.910333486762508,
                -1.9269729782139904,
                -1.952709929444515,
                -0.4740210685980194,
                -2.7815506080104453
            ]
        },
        {
            "positions": [
                0.034295808180792,
                -1.911644099709356,
                -2.028234162406671,
                -2.0752615075715477,
                -0.4791002090917908,
                -2.897345546318406
            ]
        },
        {
            "positions": [
                0.0715504303129671,
                -1.912954712656204,
                -2.1294953465993514,
                -2.1978130856985807,
                -0.48417934958556214,
                -3.013140484626367
            ]
        },
        {
            "positions": [
                0.10880505244514216,
                -1.9142653256030522,
                -2.230756530792032,
                -2.3203646638256137,
                -0.48925849007933353,
                -3.128935422934328
            ]
        },
        {
            "positions": [
                0.01056534406094034,
                -1.8606238936253345,
                -2.26932794370749,
                -2.302113393578101,
                -0.38948120213851595,
                -3.10429394070037
            ]
        },
        {
            "positions": [
                -0.08767436432326148,
                -1.8069824616476171,
                -2.3078993566229484,
                -2.283862123330588,
                -0.28970391419769836,
                -3.079652458466412
            ]
        },
        {
            "positions": [
                -0.18591407270746332,
                -1.7533410296698995,
                -2.3464707695384064,
                -2.2656108530830754,
                -0.18992662625688078,
                -3.0550109762324538
            ]
        }
    ]
}