{
    "goal": {
        "global_pose": {
            "orientation": {
                "w": 0.005598929693374612,
                "x": 0.007748599140229565,
                "y": 0.7110244013736278,
                "z": -0.7031023480610252
            },
            "position": {
                "x": -0.8858502320852131,
                "y": -0.7141253447532654,
                "z": 0.3711530566215515
            }
        },
        "name": "move_to_auspresseinheit_C"
    },
    "id": "LazyPRM_move_to_auspresseinheit_C_47",
    "joint_names": [
        "shoulder_pan_joint",
        "shoulder_lift_joint",
        "elbow_joint",
        "wrist_1_joint",
        "wrist_2_joint",
        "wrist_3_joint"
    ],
    "metrics": {
        "cart_traj_len": 0.4937229073529821,
        "distance_elbow_joint": 0.9969996086941842,
        "distance_shoulder_lift_joint": 0.3232059219498207,
        "distance_shoulder_pan_joint": 0.2563332842216992,
        "distance_wrist_1_joint": 0.6626161721459031,
        "distance_wrist_2_joint": 1.3158193205750672,
        "distance_wrist_3_joint": 0.03844159328078556,
        "smoothness": 3.2297397080004555e-16,
        "time": 0.012470367999999999,
        "traj_len": 1.89563073958708,
        "weighted_distance": 2.3767066668291235
    },
    "planner": "LazyPRM",
    "start": {
        "state": {
            "elbow_joint": 1.7527959577737207,
            "shoulder_lift_joint": -0.9740617694225068,
            "shoulder_pan_joint": -2.967991417825858,
            "wrist_1_joint": -0.759517768980727,
            "wrist_2_joint": 1.7443932448377408,
            "wrist_3_joint": -3.0840537646736568
        }
    },
    "waypoints": [
        {
            "positions": [
                -2.967991417825858,
                -0.9740617694225068,
                1.7527959577737207,
                -0.759517768980727,
                1.7443932448377408,
                -3.0840537646736568
            ]
        },
        {
            "positions": [
                -2.942358089403688,
                -0.9417411772275247,
                1.6530959969043022,
                -0.6932561517661366,
                1.6128113127802342,
                -3.0878979240017355
            ]
        },
        {
            "positions": [
                -2.916724760981518,
                -0.9094205850325426,
                1.5533960360348837,
                -0.6269945345515464,
                1.4812293807227275,
                -3.0917420833298137
            ]
        },
        {
            "positions": [
                -2.891091432559348,
                -0.8770999928375606,
                1.4536960751654653,
                -0.5607329173369561,
                1.3496474486652206,
                -3.0955862426578924
            ]
        },
        {
            "positions": [
                -2.8654581041371783,
                -0.8447794006425785,
                1.3539961142960468,
                -0.49447130012236573,
                1.218065516607714,
                -3.099430401985971
            ]
        },
        {
            "positions": [
                -2.8398247757150084,
                -0.8124588084475964,
                1.2542961534266286,
                -0.42820968290777545,
                1.0864835845502072,
                -3.1032745613140493
            ]
        },
        {
            "positions": [
                -2.8141914472928384,
                -0.7801382162526144,
                1.1545961925572101,
                -0.36194806569318516,
                0.9549016524927005,
                -3.107118720642128
            ]
        },
        {
            "positions": [
                -2.7885581188706685,
                -0.7478176240576323,
                1.0548962316877917,
                -0.2956864484785949,
                0.8233197204351939,
                -3.1109628799702067
            ]
        },
        {
            "positions": [
                -2.7629247904484986,
                -0.7154970318626502,
                0.9551962708183732,
                -0.22942483126400448,
                0.691737788377687,
                -3.1148070392982854
            ]
        },
        {
            "positions": [
                -2.7372914620263287,
                -0.6831764396676682,
                0.8554963099489549,
                -0.16316321404941425,
                0.5601558563201803,
                -3.1186511986263636
            ]
        },
        {
            "positions": [
                -2.7116581336041587,
                -0.6508558474726861,
                0.7557963490795364,
                -0.09690159683482388,
                0.4285739242626735,
                -3.1224953579544423
            ]
        }
    ]
}