{
    "goal": {
        "global_pose": {
            "orientation": {
                "w": 0.005598929693374612,
                "x": 0.007748599140229565,
                "y": 0.7110244013736278,
                "z": -0.7031023480610252
            },
            "position": {
                "x": 0.1141497679147869,
                "y": -0.7141253447532654,
                "z": 0.3711530566215515
            }
        },
        "name": "move_to_auspresseinheit_B"
    },
    "id": "LazyPRMstar_move_to_auspresseinheit_B_16",
    "joint_names": [
        "shoulder_pan_joint",
        "shoulder_lift_joint",
        "elbow_joint",
        "wrist_1_joint",
        "wrist_2_joint",
        "wrist_3_joint"
    ],
    "metrics": {
        "cart_traj_len": 0.5641513110890645,
        "distance_elbow_joint": 0.06597833513477225,
        "distance_shoulder_lift_joint": 0.2932516331733761,
        "distance_shoulder_pan_joint": 0.5764534392216873,
        "distance_wrist_1_joint": 0.3361747951266455,
        "distance_wrist_2_joint": 0.990015119602303,
        "distance_wrist_3_joint": 0.0012482145392982424,
        "smoothness": 5.075305295617109e-16,
        "time": 5.000229774999999,
        "traj_len": 1.5043674872843014,
        "weighted_distance": 1.8952065535465066
    },
    "planner": "LazyPRMstar",
    "start": {
        "state": {
            "elbow_joint": 2.0193083361928714,
            "shoulder_lift_joint": -1.1220246554650708,
            "shoulder_pan_joint": -1.0952077554168747,
            "wrist_1_joint": -0.8559753972642168,
            "wrist_2_joint": 0.4759566250798843,
            "wrist_3_joint": -3.1240929996934557
        }
    },
    "waypoints": [
        {
            "positions": [
                -1.0952077554168747,
                -1.1220246554650708,
                2.0193083361928714,
                -0.8559753972642168,
                0.4759566250798843,
                -3.1240929996934557
            ]
        },
        {
            "positions": [
                -1.1912833286204891,
                -1.1708999276606336,
                2.008311947003743,
                -0.7999462647431093,
                0.6409591450136014,
                -3.1243010354500056
            ]
        },
        {
            "positions": [
                -1.2873589018241038,
                -1.219775199856196,
                1.997315557814614,
                -0.7439171322220016,
                0.8059616649473187,
                -3.124509071206555
            ]
        },
        {
            "positions": [
                -1.3834344750277183,
                -1.2686504720517588,
                1.9863191686254853,
                -0.687887999700894,
                0.9709641848810358,
                -3.1247171069631046
            ]
        },
        {
            "positions": [
                -1.4795100482313328,
                -1.3175257442473216,
                1.9753227794363566,
                -0.6318588671797865,
                1.135966704814753,
                -3.1249251427196545
            ]
        },
        {
            "positions": [
                -1.5755856214349475,
                -1.3664010164428841,
                1.9643263902472279,
                -0.5758297346586789,
                1.30096922474847,
                -3.1251331784762044
            ]
        },
        {
            "positions": [
                -1.671661194638562,
                -1.415276288638447,
                1.9533300010580992,
                -0.5198006021375713,
                1.4659717446821874,
                -3.125341214232754
            ]
        }
    ]
}