{
    "goal": {
        "global_pose": {
            "orientation": {
                "w": 0.7031023480610252,
                "x": -0.7110244013736278,
                "y": 0.0077485991402295624,
                "z": 0.005598929693374583
            },
            "position": {
                "x": -0.8841497679147869,
                "y": 0.44412534475326537,
                "z": 0.3711530566215515
            }
        },
        "name": "move_to_auspresseinheit_D"
    },
    "id": "LazyPRMstar_move_to_auspresseinheit_D_95",
    "joint_names": [
        "shoulder_pan_joint",
        "shoulder_lift_joint",
        "elbow_joint",
        "wrist_1_joint",
        "wrist_2_joint",
        "wrist_3_joint"
    ],
    "metrics": {
        "cart_traj_len": 0.3431978197759056,
        "distance_elbow_joint": 0.6361904140465435,
        "distance_shoulder_lift_joint": 0.11934660429515365,
        "distance_shoulder_pan_joint": 0.134003871950305,
        "distance_wrist_1_joint": 0.5341921474148861,
        "distance_wrist_2_joint": 1.4298787461775804,
        "distance_wrist_3_joint": 0.00798799018651497,
        "smoothness": 3.9474596431116675e-16,
        "time": 5.000452832000001,
        "traj_len": 1.6916263695246014,
        "weighted_distance": 2.2003742063650176
    },
    "planner": "LazyPRMstar",
    "start": {
        "state": {
            "elbow_joint": -1.8275523626775212,
            "shoulder_lift_joint": -2.126789852344167,
            "shoulder_pan_joint": -0.03513704404078235,
            "wrist_1_joint": -2.347782403156801,
            "wrist_2_joint": -1.6058999987535132,
            "wrist_3_joint": -3.0880379163319196
        }
    },
    "waypoints": [
        {
            "positions": [
                -0.03513704404078235,
                -2.126789852344167,
                -1.8275523626775212,
                -2.347782403156801,
                -1.6058999987535132,
                -3.0880379163319196
            ]
        },
        {
            "positions": [
                -0.051887528034570474,
                -2.141708177881061,
                -1.7480285609217032,
                -2.4145564215836615,
                -1.4271651554813156,
                -3.0870394175586053
            ]
        },
        {
            "positions": [
                -0.06863801202835859,
                -2.1566265034179555,
                -1.6685047591658853,
                -2.4813304400105225,
                -1.248430312209118,
                -3.086040918785291
            ]
        },
        {
            "positions": [
                -0.08538849602214672,
                -2.1715448289548496,
                -1.5889809574100673,
                -2.548104458437383,
                -1.0696954689369207,
                -3.0850424200119764
            ]
        },
        {
            "positions": [
                -0.10213898001593485,
                -2.1864631544917437,
                -1.5094571556542493,
                -2.614878476864244,
                -0.890960625664723,
                -3.084043921238662
            ]
        },
        {
            "positions": [
                -0.11888946400972297,
                -2.2013814800286378,
                -1.4299333538984316,
                -2.6816524952911047,
                -0.7122257823925254,
                -3.083045422465348
            ]
        },
        {
            "positions": [
                -0.1356399480035111,
                -2.216299805565532,
                -1.3504095521426136,
                -2.7484265137179653,
                -0.533490939120328,
                -3.082046923692033
            ]
        },
        {
            "positions": [
                -0.15239043199729924,
                -2.2312181311024264,
                -1.2708857503867956,
                -2.8152005321448264,
                -0.3547560958481304,
                -3.081048424918719
            ]
        },
        {
            "positions": [
                -0.16914091599108735,
                -2.2461364566393205,
                -1.1913619486309777,
                -2.881974550571687,
                -0.17602125257593276,
                -3.0800499261454046
            ]
        }
    ]
}