{
    "goal": {
        "global_pose": {
            "orientation": {
                "w": -0.00223480608172531,
                "x": 0.0024358444001904467,
                "y": 0.7094548369677653,
                "z": -0.704743149386269
            },
            "position": {
                "x": 0.6205249238014221,
                "y": -0.6371506643295288,
                "z": 0.19426114857196808
            }
        },
        "name": "move_to_magneteinheit_B"
    },
    "id": "LazyPRMstar_move_to_magneteinheit_B_147",
    "joint_names": [
        "shoulder_pan_joint",
        "shoulder_lift_joint",
        "elbow_joint",
        "wrist_1_joint",
        "wrist_2_joint",
        "wrist_3_joint"
    ],
    "metrics": {
        "cart_traj_len": 1.510721524172824,
        "distance_elbow_joint": 0.9631334289430762,
        "distance_shoulder_lift_joint": 0.8398592730888871,
        "distance_shoulder_pan_joint": 1.7749639676659874,
        "distance_wrist_1_joint": 0.18091501971161383,
        "distance_wrist_2_joint": 1.5200184349852053,
        "distance_wrist_3_joint": 0.22437616279655415,
        "smoothness": 0.4054206681059733,
        "time": 5.014164789,
        "traj_len": 2.345904151322326,
        "weighted_distance": 2.7663969468392007
    },
    "planner": "LazyPRMstar",
    "start": {
        "state": {
            "elbow_joint": 2.6216224122426386,
            "shoulder_lift_joint": -1.4174107377796124,
            "shoulder_pan_joint": 0.7066234856936794,
            "wrist_1_joint": 1.9546482284002225,
            "wrist_2_joint": -0.7096286983471962,
            "wrist_3_joint": 0.005740856962016249
        }
    },
    "waypoints": [
        {
            "positions": [
                0.7066234856936794,
                -1.4174107377796124,
                2.6216224122426386,
                1.9546482284002225,
                -0.7096286983471962,
                0.005740856962016249
            ]
        },
        {
            "positions": [
                0.4655911649204381,
                -1.4588392138713067,
                2.623968307835805,
                1.964955974687812,
                -0.7362595647721576,
                0.06379337529266504
            ]
        },
        {
            "positions": [
                0.3331107696810949,
                -1.4109916443633586,
                2.558833277588133,
                1.9782281575124756,
                -0.8423181731961453,
                0.06800261643280935
            ]
        },
        {
            "positions": [
                0.20063037444175164,
                -1.3631440748554104,
                2.493698247340461,
                1.9915003403371392,
                -0.9483767816201331,
                0.07221185757295365
            ]
        },
        {
            "positions": [
                0.06814997920240845,
                -1.3152965053474623,
                2.428563217092789,
                2.0047725231618028,
                -1.0544353900441208,
                0.07642109871309795
            ]
        },
        {
            "positions": [
                -0.06433041603693485,
                -1.2674489358395142,
                2.3634281868451175,
                2.0180447059864663,
                -1.1604939984681086,
                0.08063033985324225
            ]
        },
        {
            "positions": [
                -0.19681081127627803,
                -1.2196013663315661,
                2.2982931565974454,
                2.03131688881113,
                -1.2665526068920963,
                0.08483958099338654
            ]
        },
        {
            "positions": [
                -0.3292912065156212,
                -1.171753796823618,
                2.2331581263497737,
                2.044589071635794,
                -1.372611215316084,
                0.08904882213353084
            ]
        },
        {
            "positions": [
                -0.4617716017549644,
                -1.1239062273156697,
                2.1680230961021016,
                2.0578612544604575,
                -1.4786698237400717,
                0.09325806327367514
            ]
        },
        {
            "positions": [
                -0.5942519969943079,
                -1.0760586578077216,
                2.1028880658544296,
                2.071133437285121,
                -1.5847284321640596,
                0.09746730441381946
            ]
        },
        {
            "positions": [
                -0.726732392233651,
                -1.0282110882997735,
                2.037753035606758,
                2.0844056201097847,
                -1.6907870405880474,
                0.10167654555396374
            ]
        },
        {
            "positions": [
                -0.8592127874729942,
                -0.9803635187918254,
                1.9726180053590858,
                2.0976778029344483,
                -1.796845649012035,
                0.10588578669410804
            ]
        },
        {
            "positions": [
                -0.9916931827123373,
                -0.9325159492838773,
                1.907482975111414,
                2.110949985759112,
                -1.9029042574360229,
                0.11009502783425235
            ]
        },
        {
            "positions": [
                -0.9661440829590137,
                -0.8418134384806228,
                1.826048908236241,
                2.119154406543353,
                -2.0118185494014824,
                0.07008769719281299
            ]
        },
        {
            "positions": [
                -0.9405949832056899,
                -0.7511109276773684,
                1.744614841361068,
                2.127358827327595,
                -2.1207328413669417,
                0.03008036655137364
            ]
        },
        {
            "positions": [
                -0.9150458834523663,
                -0.6604084168741139,
                1.663180774485895,
                2.1355632481118363,
                -2.2296471333324015,
                -0.009926964090065729
            ]
        }
    ]
}