{
    "goal": {
        "global_pose": {
            "orientation": {
                "w": 0.5084816217422485,
                "x": -0.49083608388900757,
                "y": 0.5182115435600281,
                "z": -0.4816462993621826
            },
            "position": {
                "x": 0.5540239810943604,
                "y": 0.030875300988554955,
                "z": 0.16403168439865112
            }
        },
        "name": "move_to_storage_A"
    },
    "id": "LazyPRM_move_to_storage_A_28",
    "joint_names": [
        "shoulder_pan_joint",
        "shoulder_lift_joint",
        "elbow_joint",
        "wrist_1_joint",
        "wrist_2_joint",
        "wrist_3_joint"
    ],
    "metrics": {
        "cart_traj_len": 0.35282767021400757,
        "distance_elbow_joint": 0.45369449064928324,
        "distance_shoulder_lift_joint": 0.23368316466579175,
        "distance_shoulder_pan_joint": 0.46314402854586106,
        "distance_wrist_1_joint": 0.25534558644532634,
        "distance_wrist_2_joint": 1.0911346464828005,
        "distance_wrist_3_joint": 0.10067416910902738,
        "smoothness": 4.440892098500626e-16,
        "time": 0.011877184999999998,
        "traj_len": 1.6117307733917878,
        "weighted_distance": 2.0360512412619363
    },
    "planner": "LazyPRM",
    "start": {
        "state": {
            "elbow_joint": 1.971548259319323,
            "shoulder_lift_joint": -1.1394851275133948,
            "shoulder_pan_joint": 0.1228115487234821,
            "wrist_1_joint": -0.7804723859257726,
            "wrist_2_joint": 0.12958671773740124,
            "wrist_3_joint": -3.192489227718131
        }
    },
    "waypoints": [
        {
            "positions": [
                0.1228115487234821,
                -1.1394851275133948,
                1.971548259319323,
                -0.7804723859257726,
                0.12958671773740124,
                -3.192489227718131
            ]
        },
        {
            "positions": [
                0.056648116074073385,
                -1.172868436751365,
                2.0363617579835065,
                -0.8169503268465336,
                0.28546309580637275,
                -3.1781072035596987
            ]
        },
        {
            "positions": [
                -0.00951531657533533,
                -1.2062517459893354,
                2.10117525664769,
                -0.8534282677672944,
                0.4413394738753442,
                -3.163725179401266
            ]
        },
        {
            "positions": [
                -0.07567874922474405,
                -1.2396350552273057,
                2.165988755311873,
                -0.8899062086880554,
                0.5972158519443157,
                -3.1493431552428337
            ]
        },
        {
            "positions": [
                -0.14184218187415276,
                -1.2730183644652757,
                2.2308022539760564,
                -0.9263841496088162,
                0.7530922300132872,
                -3.134961131084401
            ]
        },
        {
            "positions": [
                -0.20800561452356153,
                -1.306401673703246,
                2.2956157526402396,
                -0.9628620905295772,
                0.9089686080822588,
                -3.1205791069259687
            ]
        },
        {
            "positions": [
                -0.2741690471729702,
                -1.3397849829412163,
                2.360429251304423,
                -0.999340031450338,
                1.0648449861512301,
                -3.1061970827675363
            ]
        },
        {
            "positions": [
                -0.34033247982237896,
                -1.3731682921791866,
                2.4252427499686062,
                -1.035817972371099,
                1.2207213642202017,
                -3.0918150586091038
            ]
        }
    ]
}{
    "goal": {
        "global_pose": {
            "orientation": {
                "w": 0.5084816217422485,
                "x": -0.49083608388900757,
                "y": 0.5182115435600281,
                "z": -0.4816462993621826
            },
            "position": {
                "x": 0.5540239810943604,
                "y": 0.030875300988554955,
                "z": 0.16403168439865112
            }
        },
        "name": "move_to_storage_A"
    },
    "id": "LazyPRM_move_to_storage_A_28",
    "joint_names": [
        "shoulder_pan_joint",
        "shoulder_lift_joint",
        "elbow_joint",
        "wrist_1_joint",
        "wrist_2_joint",
        "wrist_3_joint"
    ],
    "metrics": {
        "cart_traj_len": 0.35327871723044124,
        "distance_elbow_joint": 0.44801308285036834,
        "distance_shoulder_lift_joint": 0.23360944266757233,
        "distance_shoulder_pan_joint": 0.4629641108981518,
        "distance_wrist_1_joint": 0.2397394507446411,
        "distance_wrist_2_joint": 1.0938597523286302,
        "distance_wrist_3_joint": 0.10587384408351053,
        "smoothness": 6.661338165333112e-16,
        "time": 0.010895872,
        "traj_len": 1.607501067984987,
        "weighted_distance": 2.032094135322763
    },
    "planner": "LazyPRM",
    "start": {
        "state": {
            "elbow_joint": 1.97154746011099,
            "shoulder_lift_joint": -1.13948474672311,
            "shoulder_pan_joint": 0.12281154466712228,
            "wrist_1_joint": -0.7804688027058302,
            "wrist_2_joint": 0.12958655903071145,
            "wrist_3_joint": 3.0906928834467795
        }
    },
    "waypoints": [
        {
            "positions": [
                0.12281154466712228,
                -1.13948474672311,
                1.97154746011099,
                -0.7804688027058302,
                0.12958655903071145,
                3.0906928834467795
            ]
        },
        {
            "positions": [
                0.056673814538814885,
                -1.172857524247049,
                2.035549329089614,
                -0.8147172956693504,
                0.28585223793480147,
                3.1058177183158526
            ]
        },
        {
            "positions": [
                -0.009463915589492514,
                -1.2062303017709877,
                2.099551198068238,
                -0.8489657886328705,
                0.44211791683889146,
                3.1209425531849253
            ]
        },
        {
            "positions": [
                -0.07560164571779991,
                -1.2396030792949266,
                2.163553067046862,
                -0.8832142815963906,
                0.5983835957429815,
                3.1360673880539984
            ]
        },
        {
            "positions": [
                -0.1417393758461073,
                -1.2729758568188656,
                2.227554936025486,
                -0.9174627745599108,
                0.7546492746470715,
                3.151192222923071
            ]
        },
        {
            "positions": [
                -0.20787710597441472,
                -1.3063486343428046,
                2.2915568050041104,
                -0.9517112675234309,
                0.9109149535511616,
                3.1663170577921442
            ]
        },
        {
            "positions": [
                -0.2740148361027221,
                -1.3397214118667433,
                2.3555586739827343,
                -0.9859597604869511,
                1.0671806324552515,
                3.181441892661217
            ]
        },
        {
            "positions": [
                -0.3401525662310295,
                -1.3730941893906823,
                2.4195605429613583,
                -1.0202082534504713,
                1.2234463113593417,
                3.19656672753029
            ]
        }
    ]
}{
    "goal": {
        "global_pose": {
            "orientation": {
                "w": 0.5084816217422485,
                "x": -0.49083608388900757,
                "y": 0.5182115435600281,
                "z": -0.4816462993621826
            },
            "position": {
                "x": 0.5540239810943604,
                "y": 0.030875300988554955,
                "z": 0.16403168439865112
            }
        },
        "name": "move_to_storage_A"
    },
    "id": "LazyPRM_move_to_storage_A_28",
    "joint_names": [
        "shoulder_pan_joint",
        "shoulder_lift_joint",
        "elbow_joint",
        "wrist_1_joint",
        "wrist_2_joint",
        "wrist_3_joint"
    ],
    "metrics": {
        "cart_traj_len": 0.3538306328255136,
        "distance_elbow_joint": 0.450254266173451,
        "distance_shoulder_lift_joint": 0.23548193080795565,
        "distance_shoulder_pan_joint": 0.46135491776992354,
        "distance_wrist_1_joint": 0.24105127882742883,
        "distance_wrist_2_joint": 1.1066645967418625,
        "distance_wrist_3_joint": 0.08685682801666905,
        "smoothness": 1.1102230279970742e-15,
        "time": 0.022128777000000002,
        "traj_len": 1.6067556809724652,
        "weighted_distance": 2.025609377431868
    },
    "planner": "LazyPRM",
    "start": {
        "state": {
            "elbow_joint": 1.9715472970024885,
            "shoulder_lift_joint": -1.1394870060712896,
            "shoulder_pan_joint": 0.12281152778156021,
            "wrist_1_joint": -0.780463741449964,
            "wrist_2_joint": 0.12958659822042276,
            "wrist_3_joint": 3.090690232415272
        }
    },
    "waypoints": [
        {
            "positions": [
                0.12281152778156021,
                -1.1394870060712896,
                1.9715472970024885,
                -0.780463741449964,
                0.12958659822042276,
                3.090690232415272
            ]
        },
        {
            "positions": [
                0.056903682385856844,
                -1.1731272819009975,
                2.035869335027267,
                -0.814899638425311,
                0.28768154061211737,
                3.1030983507033674
            ]
        },
        {
            "positions": [
                -0.009004163009846522,
                -1.2067675577307055,
                2.100191373052046,
                -0.849335535400658,
                0.445776483003812,
                3.115506468991463
            ]
        },
        {
            "positions": [
                -0.07491200840554987,
                -1.2404078335604134,
                2.1645134110768245,
                -0.8837714323760049,
                0.6038714253955066,
                3.1279145872795584
            ]
        },
        {
            "positions": [
                -0.14081985380125325,
                -1.2740481093901215,
                2.228835449101603,
                -0.9182073293513519,
                0.7619663677872013,
                3.1403227055676544
            ]
        },
        {
            "positions": [
                -0.20672769919695663,
                -1.3076883852198293,
                2.2931574871263822,
                -0.9526432263266988,
                0.9200613101788959,
                3.15273082385575
            ]
        },
        {
            "positions": [
                -0.27263554459265993,
                -1.3413286610495372,
                2.357479525151161,
                -0.9870791233020458,
                1.0781562525705906,
                3.1651389421438454
            ]
        },
        {
            "positions": [
                -0.3385433899883633,
                -1.3749689368792453,
                2.4218015631759395,
                -1.0215150202773928,
                1.2362511949622852,
                3.177547060431941
            ]
        }
    ]
}