{
    "goal": {
        "global_pose": {
            "orientation": {
                "w": 0.7047431468963623,
                "x": -0.7094548344612122,
                "y": 0.0024358443915843964,
                "z": -0.0022348060738295317
            },
            "position": {
                "x": 0.6094750761985779,
                "y": 0.3671506643295288,
                "z": 0.19426114857196808
            }
        },
        "name": "move_to_magneteinheit_A"
    },
    "id": "LazyPRM_move_to_magneteinheit_A_133",
    "joint_names": [
        "shoulder_pan_joint",
        "shoulder_lift_joint",
        "elbow_joint",
        "wrist_1_joint",
        "wrist_2_joint",
        "wrist_3_joint"
    ],
    "metrics": {
        "cart_traj_len": 3.6330010133567274,
        "distance_elbow_joint": 3.9275803724272613,
        "distance_shoulder_lift_joint": 1.5143368183341435,
        "distance_shoulder_pan_joint": 2.799544472409416,
        "distance_wrist_1_joint": 3.5289159319620467,
        "distance_wrist_2_joint": 2.1136028471223547,
        "distance_wrist_3_joint": 1.8868815599156357,
        "smoothness": 0.15675128174862868,
        "time": 0.118727319,
        "traj_len": 3.97125446202719,
        "weighted_distance": 5.018679497745052
    },
    "planner": "LazyPRM",
    "start": {
        "state": {
            "elbow_joint": -1.9196185241190666,
            "shoulder_lift_joint": -1.2443396400964142,
            "shoulder_pan_joint": 2.6996025414629847,
            "wrist_1_joint": -1.5485510000780065,
            "wrist_2_joint": -1.5709468930060704,
            "wrist_3_joint": 0.4420197071253992
        }
    },
    "waypoints": [
        {
            "positions": [
                2.6996025414629847,
                -1.2443396400964142,
                -1.9196185241190666,
                -1.5485510000780065,
                -1.5709468930060704,
                0.4420197071253992
            ]
        },
        {
            "positions": [
                2.5991955192521328,
                -1.2662795443138815,
                -1.887693807053273,
                -1.428618001482201,
                -1.5016268440306442,
                0.4051249635930291
            ]
        },
        {
            "positions": [
                2.498788497041281,
                -1.2882194485313487,
                -1.8557690899874792,
                -1.3086850028863954,
                -1.432306795055218,
                0.3682302200606589
            ]
        },
        {
            "positions": [
                2.3983814748304293,
                -1.310159352748816,
                -1.8238443729216856,
                -1.1887520042905897,
                -1.3629867460797915,
                0.3313354765282888
            ]
        },
        {
            "positions": [
                2.2979744526195773,
                -1.332099256966283,
                -1.7919196558558919,
                -1.0688190056947842,
                -1.2936666971043653,
                0.29444073299591866
            ]
        },
        {
            "positions": [
                2.1975674304087254,
                -1.3540391611837503,
                -1.7599949387900982,
                -0.9488860070989786,
                -1.2243466481289391,
                0.25754598946354856
            ]
        },
        {
            "positions": [
                2.0971604081978734,
                -1.3759790654012176,
                -1.7280702217243045,
                -0.8289530085031731,
                -1.155026599153513,
                0.22065124593117844
            ]
        },
        {
            "positions": [
                1.9967533859870215,
                -1.397918969618685,
                -1.6961455046585108,
                -0.7090200099073675,
                -1.0857065501780867,
                0.1837565023988083
            ]
        },
        {
            "positions": [
                1.89634636377617,
                -1.4198588738361522,
                -1.664220787592717,
                -0.589087011311562,
                -1.0163865012026605,
                0.1468617588664382
            ]
        },
        {
            "positions": [
                1.795939341565318,
                -1.4417987780536192,
                -1.6322960705269234,
                -0.4691540127157563,
                -0.9470664522272341,
                0.10996701533406805
            ]
        },
        {
            "positions": [
                1.695532319354466,
                -1.4637386822710865,
                -1.6003713534611297,
                -0.34922101411995077,
                -0.8777464032518079,
                0.07307227180169795
            ]
        },
        {
            "positions": [
                1.5951252971436143,
                -1.4856785864885538,
                -1.568446636395336,
                -0.22928801552414524,
                -0.8084263542763817,
                0.03617752826932785
            ]
        },
        {
            "positions": [
                1.4947182749327623,
                -1.507618490706021,
                -1.5365219193295423,
                -0.10935501692833971,
                -0.7391063053009553,
                -0.0007172152630423034
            ]
        },
        {
            "positions": [
                1.3943112527219106,
                -1.5295583949234883,
                -1.5045972022637486,
                0.010577981667465819,
                -0.6697862563255291,
                -0.037611958795412404
            ]
        },
        {
            "positions": [
                1.2939042305110584,
                -1.5514982991409556,
                -1.472672485197955,
                0.13051098026327157,
                -0.6004662073501028,
                -0.07450670232778256
            ]
        },
        {
            "positions": [
                1.1934972083002067,
                -1.5734382033584229,
                -1.4407477681321612,
                0.2504439788590769,
                -0.5311461583746766,
                -0.11140144586015266
            ]
        },
        {
            "positions": [
                1.093090186089355,
                -1.59537810757589,
                -1.4088230510663675,
                0.3703769774548824,
                -0.4618261093992504,
                -0.14829618939252276
            ]
        },
        {
            "positions": [
                0.992683163878503,
                -1.6173180117933572,
                -1.3768983340005738,
                0.4903099760506884,
                -0.39250606042382397,
                -0.18519093292489297
            ]
        },
        {
            "positions": [
                0.8922761416676512,
                -1.6392579160108245,
                -1.3449736169347801,
                0.6102429746464939,
                -0.32318601144839776,
                -0.22208567645726307
            ]
        },
        {
            "positions": [
                0.7918691194567993,
                -1.6611978202282918,
                -1.3130488998689864,
                0.730175973242299,
                -0.25386596247297155,
                -0.25898041998963317
            ]
        },
        {
            "positions": [
                0.6914620972459473,
                -1.683137724445759,
                -1.2811241828031927,
                0.850108971838105,
                -0.18454591349754534,
                -0.29587516352200327
            ]
        },
        {
            "positions": [
                0.5910550750350954,
                -1.705077628663226,
                -1.249199465737399,
                0.9700419704339105,
                -0.11522586452211914,
                -0.33276990705437337
            ]
        },
        {
            "positions": [
                0.49064805282424384,
                -1.7270175328806934,
                -1.2172747486716053,
                1.089974969029716,
                -0.04590581554669293,
                -0.36966465058674347
            ]
        },
        {
            "positions": [
                0.3902410306133919,
                -1.7489574370981606,
                -1.1853500316058116,
                1.2099079676255216,
                0.0234142334287335,
                -0.4065593941191137
            ]
        },
        {
            "positions": [
                0.28983400840254,
                -1.770897341315628,
                -1.153425314540018,
                1.3298409662213269,
                0.0927342824041597,
                -0.4434541376514838
            ]
        },
        {
            "positions": [
                0.2684575739116517,
                -1.7164102882433534,
                -0.9393132836605058,
                1.3776176852432986,
                0.10176743474068535,
                -0.4673717062450362
            ]
        },
        {
            "positions": [
                0.24708113942076337,
                -1.661923235171079,
                -0.7252012527809937,
                1.4253944042652702,
                0.11080058707721101,
                -0.4912892748385886
            ]
        },
        {
            "positions": [
                0.2257047049298751,
                -1.6074361820988046,
                -0.5110892219014816,
                1.473171123287242,
                0.11983373941373665,
                -0.5152068434321411
            ]
        },
        {
            "positions": [
                0.2043282704389868,
                -1.5529491290265303,
                -0.2969771910219695,
                1.5209478423092135,
                0.1288668917502623,
                -0.5391244120256934
            ]
        },
        {
            "positions": [
                0.1829518359480985,
                -1.4984620759542557,
                -0.08286516014245748,
                1.5687245613311853,
                0.13790004408678797,
                -0.5630419806192458
            ]
        },
        {
            "positions": [
                0.1615754014572102,
                -1.4439750228819814,
                0.13124687073705466,
                1.616501280353157,
                0.1469331964233136,
                -0.5869595492127982
            ]
        },
        {
            "positions": [
                0.14019896696632192,
                -1.389487969809707,
                0.34535890161656657,
                1.6642779993751287,
                0.15596634875983922,
                -0.6108771178063507
            ]
        },
        {
            "positions": [
                0.11882253247543362,
                -1.3350009167374326,
                0.5594709324960789,
                1.7120547183971004,
                0.1649995010963649,
                -0.6347946863999031
            ]
        },
        {
            "positions": [
                0.09744609798454532,
                -1.280513863665158,
                0.7735829633755908,
                1.7598314374190722,
                0.17403265343289054,
                -0.6587122549934554
            ]
        },
        {
            "positions": [
                0.07606966349365701,
                -1.2260268105928835,
                0.987694994255103,
                1.8076081564410438,
                0.1830658057694162,
                -0.6826298235870079
            ]
        },
        {
            "positions": [
                0.05469322900276874,
                -1.1715397575206092,
                1.201807025134615,
                1.8553848754630153,
                0.19209895810594185,
                -0.7065473921805603
            ]
        },
        {
            "positions": [
                0.03331679451188041,
                -1.117052704448335,
                1.4159190560141273,
                1.9031615944849873,
                0.20113211044246748,
                -0.7304649607741127
            ]
        },
        {
            "positions": [
                0.011940360020992115,
                -1.0625656513760604,
                1.6300310868936392,
                1.950938313506959,
                0.21016526277899314,
                -0.7543825293676651
            ]
        },
        {
            "positions": [
                0.034316818214477164,
                -1.006676165940988,
                1.7056172391765503,
                1.9568236371823755,
                0.1436671245115349,
                -0.6162866646831509
            ]
        },
        {
            "positions": [
                0.05669327640796221,
                -0.9507866805059155,
                1.7812033914594616,
                1.9627089608577921,
                0.0771689862440767,
                -0.4781907999986365
            ]
        },
        {
            "positions": [
                0.07906973460144726,
                -0.8948971950708431,
                1.8567895437423727,
                1.9685942845332085,
                0.010670847976618492,
                -0.3400949353141222
            ]
        },
        {
            "positions": [
                0.1014461927949323,
                -0.8390077096357705,
                1.932375696025284,
                1.9744796082086251,
                -0.05582729029083974,
                -0.20199907062960787
            ]
        },
        {
            "positions": [
                0.12382265098841735,
                -0.7831182242006981,
                2.007961848308195,
                1.9803649318840417,
                -0.12232542855829795,
                -0.06390320594509358
            ]
        }
    ]
}