{
    "goal": {
        "global_pose": {
            "orientation": {
                "w": -0.4816463035849501,
                "x": 0.5182115481033762,
                "y": 0.4908360881923453,
                "z": -0.5084816262002911
            },
            "position": {
                "x": -0.8240239810943604,
                "y": -0.300875300988555,
                "z": 0.16403168439865112
            }
        },
        "name": "move_to_storage_C"
    },
    "id": "LazyPRMstar_move_to_storage_C_120",
    "joint_names": [
        "shoulder_pan_joint",
        "shoulder_lift_joint",
        "elbow_joint",
        "wrist_1_joint",
        "wrist_2_joint",
        "wrist_3_joint"
    ],
    "metrics": {
        "cart_traj_len": 0.5765838064673405,
        "distance_elbow_joint": 0.25688377107147753,
        "distance_shoulder_lift_joint": 0.19058403588301187,
        "distance_shoulder_pan_joint": 0.49306191921540377,
        "distance_wrist_1_joint": 0.0694422770721207,
        "distance_wrist_2_joint": 1.0776439221160499,
        "distance_wrist_3_joint": 0.06154688169689981,
        "smoothness": 0.0,
        "time": 5.001044678,
        "traj_len": 1.466002321640373,
        "weighted_distance": 1.8491464976136782
    },
    "planner": "LazyPRMstar",
    "start": {
        "state": {
            "elbow_joint": 2.010868314990456,
            "shoulder_lift_joint": -1.1634956873337592,
            "shoulder_pan_joint": -2.4736205022346125,
            "wrist_1_joint": -0.8367026794202681,
            "wrist_2_joint": 0.6746043897044499,
            "wrist_3_joint": -3.1496632123970403
        }
    },
    "waypoints": [
        {
            "positions": [
                -2.4736205022346125,
                -1.1634956873337592,
                2.010868314990456,
                -0.8367026794202681,
                0.6746043897044499,
                -3.1496632123970403
            ]
        },
        {
            "positions": [
                -2.555797488770513,
                -1.1317316813532572,
                1.9680543531452095,
                -0.8251289665749146,
                0.8542117100571249,
                -3.13940539878089
            ]
        },
        {
            "positions": [
                -2.6379744753064136,
                -1.0999676753727552,
                1.9252403912999634,
                -0.8135552537295612,
                1.0338190304097998,
                -3.1291475851647403
            ]
        },
        {
            "positions": [
                -2.720151461842314,
                -1.0682036693922532,
                1.882426429454717,
                -0.8019815408842077,
                1.2134263507624747,
                -3.1188897715485906
            ]
        },
        {
            "positions": [
                -2.802328448378215,
                -1.0364396634117512,
                1.8396124676094707,
                -0.7904078280388543,
                1.3930336711151496,
                -3.1086319579324404
            ]
        },
        {
            "positions": [
                -2.8845054349141157,
                -1.0046756574312492,
                1.7967985057642246,
                -0.7788341151935009,
                1.572640991467825,
                -3.09837414431629
            ]
        },
        {
            "positions": [
                -2.9666824214500163,
                -0.9729116514507473,
                1.7539845439189783,
                -0.7672604023481474,
                1.7522483118204997,
                -3.0881163307001405
            ]
        }
    ]
}