{
    "goal": {
        "global_pose": {
            "orientation": {
                "w": -0.4816463035849501,
                "x": 0.5182115481033762,
                "y": 0.4908360881923453,
                "z": -0.5084816262002911
            },
            "position": {
                "x": -0.8240239810943604,
                "y": -0.300875300988555,
                "z": 0.16403168439865112
            }
        },
        "name": "move_to_storage_C"
    },
    "id": "LazyPRM_move_to_storage_C_145",
    "joint_names": [
        "shoulder_pan_joint",
        "shoulder_lift_joint",
        "elbow_joint",
        "wrist_1_joint",
        "wrist_2_joint",
        "wrist_3_joint"
    ],
    "metrics": {
        "cart_traj_len": 0.5762148504505211,
        "distance_elbow_joint": 0.25738341773979756,
        "distance_shoulder_lift_joint": 0.18921673002491968,
        "distance_shoulder_pan_joint": 0.49491665795779394,
        "distance_wrist_1_joint": 0.08021820453498685,
        "distance_wrist_2_joint": 1.06536764284433,
        "distance_wrist_3_joint": 0.060572933088307135,
        "smoothness": 2.5376526478085547e-16,
        "time": 0.011928991,
        "traj_len": 1.4654949969857063,
        "weighted_distance": 1.8478114892342417
    },
    "planner": "LazyPRM",
    "start": {
        "state": {
            "elbow_joint": 2.010868314990456,
            "shoulder_lift_joint": -1.1634956873337592,
            "shoulder_pan_joint": -2.4736205022346125,
            "wrist_1_joint": -0.8367026794202681,
            "wrist_2_joint": 0.6746043897044499,
            "wrist_3_joint": -3.1496632123970403
        }
    },
    "waypoints": [
        {
            "positions": [
                -2.4736205022346125,
                -1.1634956873337592,
                2.010868314990456,
                -0.8367026794202681,
                0.6746043897044499,
                -3.1496632123970403
            ]
        },
        {
            "positions": [
                -2.556106611894245,
                -1.1319595656629393,
                1.9679710787004896,
                -0.823332978664437,
                0.8521656635118382,
                -3.139567723548989
            ]
        },
        {
            "positions": [
                -2.638592721553877,
                -1.1004234439921192,
                1.9250738424105234,
                -0.8099632779086058,
                1.0297269373192266,
                -3.129472234700938
            ]
        },
        {
            "positions": [
                -2.7210788312135095,
                -1.0688873223212993,
                1.8821766061205571,
                -0.7965935771527747,
                1.207288211126615,
                -3.119376745852887
            ]
        },
        {
            "positions": [
                -2.803564940873142,
                -1.0373512006504795,
                1.8392793698305907,
                -0.7832238763969436,
                1.3848494849340032,
                -3.1092812570048354
            ]
        },
        {
            "positions": [
                -2.886051050532774,
                -1.0058150789796594,
                1.7963821335406245,
                -0.7698541756411124,
                1.5624107587413916,
                -3.0991857681567843
            ]
        },
        {
            "positions": [
                -2.9685371601924064,
                -0.9742789573088395,
                1.7534848972506583,
                -0.7564844748852813,
                1.73997203254878,
                -3.089090279308733
            ]
        }
    ]
}