{
    "goal": {
        "global_pose": {
            "orientation": {
                "w": -0.4816463035849501,
                "x": 0.5182115481033762,
                "y": 0.4908360881923453,
                "z": -0.5084816262002911
            },
            "position": {
                "x": -0.8240239810943604,
                "y": 0.19912469901144506,
                "z": 0.16403168439865112
            }
        },
        "name": "move_to_storage_D"
    },
    "id": "LazyPRM_move_to_storage_D_146",
    "joint_names": [
        "shoulder_pan_joint",
        "shoulder_lift_joint",
        "elbow_joint",
        "wrist_1_joint",
        "wrist_2_joint",
        "wrist_3_joint"
    ],
    "metrics": {
        "cart_traj_len": 3.6649166326772775,
        "distance_elbow_joint": 4.20965098782645,
        "distance_shoulder_lift_joint": 1.2634968586128137,
        "distance_shoulder_pan_joint": 2.813685826763456,
        "distance_wrist_1_joint": 2.8614065475472246,
        "distance_wrist_2_joint": 2.702472068764358,
        "distance_wrist_3_joint": 3.610151917868128,
        "smoothness": 0.1849810364185576,
        "time": 0.152546551,
        "traj_len": 4.178619892665811,
        "weighted_distance": 5.499549677876386
    },
    "planner": "LazyPRM",
    "start": {
        "state": {
            "elbow_joint": -2.384821988534728,
            "shoulder_lift_joint": -2.2788054721415256,
            "shoulder_pan_joint": -0.1854694642142757,
            "wrist_1_joint": 1.4845938289331202,
            "wrist_2_joint": 0.17898776772866878,
            "wrist_3_joint": 0.037105688729662994
        }
    },
    "waypoints": [
        {
            "positions": [
                -0.1854694642142757,
                -2.2788054721415256,
                -2.384821988534728,
                1.4845938289331202,
                0.17898776772866878,
                0.037105688729662994
            ]
        },
        {
            "positions": [
                -0.15610075246860677,
                -2.263830294943559,
                -2.299631185825965,
                1.534177587294248,
                0.02724485415064279,
                0.07704335297454892
            ]
        },
        {
            "positions": [
                -0.12673204072293784,
                -2.2488551177455918,
                -2.2144403831172026,
                1.5837613456553759,
                -0.1244980594273832,
                0.11698101721943485
            ]
        },
        {
            "positions": [
                -0.0973633289772689,
                -2.233879940547625,
                -2.12924958040844,
                1.6333451040165037,
                -0.2762409730054092,
                0.1569186814643208
            ]
        },
        {
            "positions": [
                -0.06799461723159997,
                -2.2189047633496584,
                -2.0440587776996773,
                1.6829288623776315,
                -0.4279838865834352,
                0.1968563457092067
            ]
        },
        {
            "positions": [
                -0.038625905485931034,
                -2.203929586151691,
                -1.9588679749909146,
                1.7325126207387593,
                -0.5797268001614613,
                0.23679400995409267
            ]
        },
        {
            "positions": [
                -0.009257193740262112,
                -2.1889544089537245,
                -1.873677172282152,
                1.7820963790998872,
                -0.7314697137394872,
                0.2767316741989786
            ]
        },
        {
            "positions": [
                0.08668447272162841,
                -2.1688063245469236,
                -1.775174659138579,
                1.6847303213088103,
                -0.7240289812905,
                0.2198969892356045
            ]
        },
        {
            "positions": [
                0.18262613918351894,
                -2.148658240140123,
                -1.676672145995006,
                1.5873642635177334,
                -0.7165882488415126,
                0.1630623042722304
            ]
        },
        {
            "positions": [
                0.27856780564540945,
                -2.128510155733322,
                -1.578169632851433,
                1.4899982057266568,
                -0.7091475163925254,
                0.1062276193088563
            ]
        },
        {
            "positions": [
                0.37450947210729996,
                -2.108362071326521,
                -1.4796671197078601,
                1.3926321479355799,
                -0.701706783943538,
                0.04939293434548217
            ]
        },
        {
            "positions": [
                0.47045113856919046,
                -2.0882139869197207,
                -1.3811646065642873,
                1.295266090144503,
                -0.6942660514945508,
                -0.007441750617891929
            ]
        },
        {
            "positions": [
                0.566392805031081,
                -2.0680659025129198,
                -1.2826620934207142,
                1.1979000323534263,
                -0.6868253190455634,
                -0.064276435581266
            ]
        },
        {
            "positions": [
                0.6623344714929715,
                -2.047917818106119,
                -1.1841595802771412,
                1.1005339745623495,
                -0.6793845865965762,
                -0.12111112054464013
            ]
        },
        {
            "positions": [
                0.758276137954862,
                -2.0277697336993183,
                -1.0856570671335684,
                1.0031679167712726,
                -0.6719438541475888,
                -0.17794580550801425
            ]
        },
        {
            "positions": [
                0.8542178044167525,
                -2.0076216492925174,
                -0.9871545539899954,
                0.9058018589801957,
                -0.6645031216986016,
                -0.23478049047138838
            ]
        },
        {
            "positions": [
                0.950159470878643,
                -1.9874735648857167,
                -0.8886520408464225,
                0.808435801189119,
                -0.6570623892496142,
                -0.29161517543476245
            ]
        },
        {
            "positions": [
                1.0461011373405338,
                -1.967325480478916,
                -0.7901495277028494,
                0.711069743398042,
                -0.649621656800627,
                -0.34844986039813663
            ]
        },
        {
            "positions": [
                1.1420428038024242,
                -1.947177396072115,
                -0.6916470145592766,
                0.6137036856069653,
                -0.6421809243516396,
                -0.4052845453615106
            ]
        },
        {
            "positions": [
                1.2379844702643148,
                -1.9270293116653143,
                -0.5931445014157035,
                0.5163376278158884,
                -0.6347401919026524,
                -0.4621192303248848
            ]
        },
        {
            "positions": [
                1.3339261367262052,
                -1.9068812272585136,
                -0.4946419882721307,
                0.41897157002481156,
                -0.627299459453665,
                -0.5189539152882588
            ]
        },
        {
            "positions": [
                1.4298678031880958,
                -1.8867331428517127,
                -0.3961394751285576,
                0.3216055122337347,
                -0.6198587270046778,
                -0.575788600251633
            ]
        },
        {
            "positions": [
                1.5258094696499862,
                -1.866585058444912,
                -0.2976369619849848,
                0.22423945444265803,
                -0.6124179945556905,
                -0.6326232852150071
            ]
        },
        {
            "positions": [
                1.6217511361118768,
                -1.8464369740381112,
                -0.19913444884141174,
                0.12687339665158115,
                -0.6049772621067032,
                -0.6894579701783812
            ]
        },
        {
            "positions": [
                1.7176928025737672,
                -1.8262888896313103,
                -0.1006319356978389,
                0.029507338860504273,
                -0.597536529657716,
                -0.7462926551417554
            ]
        },
        {
            "positions": [
                1.8136344690356578,
                -1.8061408052245096,
                -0.0021294225542658474,
                -0.0678587189305726,
                -0.5900957972087286,
                -0.8031273401051293
            ]
        },
        {
            "positions": [
                1.8524240830124923,
                -1.7684821294294717,
                0.08486859753363846,
                -0.10185628556628665,
                -0.5114938605056122,
                -0.9122067171572581
            ]
        },
        {
            "positions": [
                1.8912136969893267,
                -1.7308234536344336,
                0.17186661762154276,
                -0.1358538522020007,
                -0.43289192380249575,
                -1.0212860942093869
            ]
        },
        {
            "positions": [
                1.9300033109661612,
                -1.6931647778393957,
                0.25886463770944707,
                -0.1698514188377147,
                -0.3542899870993793,
                -1.1303654712615157
            ]
        },
        {
            "positions": [
                1.9687929249429954,
                -1.6555061020443578,
                0.34586265779735137,
                -0.20384898547342875,
                -0.27568805039626293,
                -1.2394448483136444
            ]
        },
        {
            "positions": [
                2.00758253891983,
                -1.6178474262493197,
                0.4328606778852557,
                -0.2378465521091428,
                -0.1970861136931465,
                -1.348524225365773
            ]
        },
        {
            "positions": [
                2.0463721528966645,
                -1.5801887504542818,
                0.51985869797316,
                -0.2718441187448568,
                -0.11848417699003005,
                -1.457603602417902
            ]
        },
        {
            "positions": [
                2.0851617668734987,
                -1.5425300746592439,
                0.6068567180610642,
                -0.3058416853805709,
                -0.03988224028691367,
                -1.5666829794700305
            ]
        },
        {
            "positions": [
                2.123951380850333,
                -1.5048713988642057,
                0.6938547381489686,
                -0.3398392520162849,
                0.038719696416202765,
                -1.6757623565221595
            ]
        },
        {
            "positions": [
                2.1627409948271676,
                -1.4672127230691678,
                0.7808527582368728,
                -0.37383681865199897,
                0.1173216331193192,
                -1.784841733574288
            ]
        },
        {
            "positions": [
                2.201530608804002,
                -1.4295540472741297,
                0.8678507783247772,
                -0.407834385287713,
                0.19592356982243564,
                -1.8939211106264169
            ]
        },
        {
            "positions": [
                2.2403202227808365,
                -1.3918953714790918,
                0.9548487984126816,
                -0.44183195192342706,
                0.2745255065255522,
                -2.0030004876785457
            ]
        },
        {
            "positions": [
                2.2791098367576708,
                -1.3542366956840537,
                1.0418468185005858,
                -0.4758295185591411,
                0.3531274432286685,
                -2.112079864730674
            ]
        },
        {
            "positions": [
                2.3178994507345054,
                -1.3165780198890158,
                1.1288448385884902,
                -0.5098270851948552,
                0.43172937993178495,
                -2.2211592417828037
            ]
        },
        {
            "positions": [
                2.3566890647113397,
                -1.278919344093978,
                1.2158428586763943,
                -0.5438246518305692,
                0.5103313166349013,
                -2.330238618834932
            ]
        },
        {
            "positions": [
                2.395478678688174,
                -1.2412606682989398,
                1.3028408787642989,
                -0.5778222184662832,
                0.5889332533380178,
                -2.4393179958870608
            ]
        },
        {
            "positions": [
                2.4342682926650085,
                -1.2036019925039019,
                1.389838898852203,
                -0.6118197851019972,
                0.6675351900411342,
                -2.5483973729391893
            ]
        },
        {
            "positions": [
                2.4730579066418428,
                -1.165943316708864,
                1.4768369189401074,
                -0.6458173517377113,
                0.7461371267442507,
                -2.6574767499913183
            ]
        },
        {
            "positions": [
                2.5118475206186774,
                -1.1282846409138259,
                1.5638349390280115,
                -0.6798149183734253,
                0.824739063447367,
                -2.7665561270434473
            ]
        },
        {
            "positions": [
                2.5506371345955117,
                -1.0906259651187877,
                1.650832959115916,
                -0.7138124850091394,
                0.9033410001504836,
                -2.875635504095576
            ]
        },
        {
            "positions": [
                2.589426748572346,
                -1.05296728932375,
                1.7378309792038202,
                -0.7478100516448534,
                0.9819429368535999,
                -2.9847148811477044
            ]
        },
        {
            "positions": [
                2.6282163625491806,
                -1.015308613528712,
                1.8248289992917246,
                -0.7818076182805674,
                1.0605448735567164,
                -3.0937942581998334
            ]
        }
    ]
}