{
    "goal": {
        "global_pose": {
            "orientation": {
                "w": 0.5084816217422485,
                "x": -0.49083608388900757,
                "y": 0.5182115435600281,
                "z": -0.4816462993621826
            },
            "position": {
                "x": 0.5540239810943604,
                "y": 0.030875300988554955,
                "z": 0.16403168439865112
            }
        },
        "name": "move_to_storage_A"
    },
    "id": "LazyPRM_move_to_storage_A_138",
    "joint_names": [
        "shoulder_pan_joint",
        "shoulder_lift_joint",
        "elbow_joint",
        "wrist_1_joint",
        "wrist_2_joint",
        "wrist_3_joint"
    ],
    "metrics": {
        "cart_traj_len": 0.35312668957815996,
        "distance_elbow_joint": 0.4518288735550102,
        "distance_shoulder_lift_joint": 0.23418041473336904,
        "distance_shoulder_pan_joint": 0.46070804346256883,
        "distance_wrist_1_joint": 0.25015972994368874,
        "distance_wrist_2_joint": 1.1036326781674677,
        "distance_wrist_3_joint": 0.1024317043385019,
        "smoothness": 4.440892098500626e-16,
        "time": 0.011754505,
        "traj_len": 1.6133633949611619,
        "weighted_distance": 2.039999328673607
    },
    "planner": "LazyPRM",
    "start": {
        "state": {
            "elbow_joint": 1.971548259319323,
            "shoulder_lift_joint": -1.1394851275133948,
            "shoulder_pan_joint": 0.1228115487234821,
            "wrist_1_joint": -0.7804723859257726,
            "wrist_2_joint": 0.12958671773740124,
            "wrist_3_joint": -3.192489227718131
        }
    },
    "waypoints": [
        {
            "positions": [
                0.1228115487234821,
                -1.1394851275133948,
                1.971548259319323,
                -0.7804723859257726,
                0.12958671773740124,
                -3.192489227718131
            ]
        },
        {
            "positions": [
                0.05699611394311513,
                -1.1729394724753046,
                2.036095241255753,
                -0.8162094902034425,
                0.28724852890418234,
                -3.177856127098345
            ]
        },
        {
            "positions": [
                -0.008819320837251843,
                -1.2063938174372146,
                2.100642223192183,
                -0.8519465944811122,
                0.4449103400709634,
                -3.1632230264785592
            ]
        },
        {
            "positions": [
                -0.07463475561761881,
                -1.2398481623991244,
                2.165189205128613,
                -0.8876836987587821,
                0.6025721512377445,
                -3.148589925858773
            ]
        },
        {
            "positions": [
                -0.14045019039798579,
                -1.2733025073610342,
                2.229736187065043,
                -0.9234208030364519,
                0.7602339624045257,
                -3.1339568252389873
            ]
        },
        {
            "positions": [
                -0.20626562517835278,
                -1.3067568523229443,
                2.2942831690014733,
                -0.9591579073141216,
                0.9178957735713068,
                -3.119323724619201
            ]
        },
        {
            "positions": [
                -0.27208105995871973,
                -1.340211197284854,
                2.3588301509379033,
                -0.9948950115917915,
                1.0755575847380878,
                -3.1046906239994154
            ]
        },
        {
            "positions": [
                -0.33789649473908673,
                -1.3736655422467638,
                2.423377132874333,
                -1.0306321158694614,
                1.233219395904869,
                -3.0900575233796292
            ]
        }
    ]
}{
    "goal": {
        "global_pose": {
            "orientation": {
                "w": 0.5084816217422485,
                "x": -0.49083608388900757,
                "y": 0.5182115435600281,
                "z": -0.4816462993621826
            },
            "position": {
                "x": 0.5540239810943604,
                "y": 0.030875300988554955,
                "z": 0.16403168439865112
            }
        },
        "name": "move_to_storage_A"
    },
    "id": "LazyPRM_move_to_storage_A_138",
    "joint_names": [
        "shoulder_pan_joint",
        "shoulder_lift_joint",
        "elbow_joint",
        "wrist_1_joint",
        "wrist_2_joint",
        "wrist_3_joint"
    ],
    "metrics": {
        "cart_traj_len": 0.3526875263982509,
        "distance_elbow_joint": 0.44826266608577203,
        "distance_shoulder_lift_joint": 0.23291549666496736,
        "distance_shoulder_pan_joint": 0.4599143509552874,
        "distance_wrist_1_joint": 0.23965960930082053,
        "distance_wrist_2_joint": 1.102511360882121,
        "distance_wrist_3_joint": 0.10203314295889188,
        "smoothness": 0.0,
        "time": 0.021874516,
        "traj_len": 1.6078857629968182,
        "weighted_distance": 2.03261749548423
    },
    "planner": "LazyPRM",
    "start": {
        "state": {
            "elbow_joint": 1.97154746011099,
            "shoulder_lift_joint": -1.13948474672311,
            "shoulder_pan_joint": 0.12281154466712228,
            "wrist_1_joint": -0.7804688027058302,
            "wrist_2_joint": 0.12958655903071145,
            "wrist_3_joint": 3.0906928834467795
        }
    },
    "waypoints": [
        {
            "positions": [
                0.12281154466712228,
                -1.13948474672311,
                1.97154746011099,
                -0.7804688027058302,
                0.12958655903071145,
                3.0906928834467795
            ]
        },
        {
            "positions": [
                0.05710949453065266,
                -1.1727583891038196,
                2.035584983837529,
                -0.8147058897488045,
                0.2870881820138716,
                3.105269046726621
            ]
        },
        {
            "positions": [
                -0.008592555605816968,
                -1.2060320314845292,
                2.0996225075640678,
                -0.8489429767917789,
                0.4445898049970317,
                3.119845210006463
            ]
        },
        {
            "positions": [
                -0.07429460574228659,
                -1.2393056738652388,
                2.1636600312906067,
                -0.8831800638347532,
                0.6020914279801919,
                3.1344213732863047
            ]
        },
        {
            "positions": [
                -0.1399966558787562,
                -1.2725793162459484,
                2.227697555017145,
                -0.9174171508777276,
                0.7595930509633521,
                3.1489975365661462
            ]
        },
        {
            "positions": [
                -0.20569870601522583,
                -1.305852958626658,
                2.291735078743684,
                -0.951654237920702,
                0.9170946739465122,
                3.163573699845988
            ]
        },
        {
            "positions": [
                -0.27140075615169545,
                -1.3391266010073677,
                2.355772602470223,
                -0.9858913249636764,
                1.0745962969296723,
                3.17814986312583
            ]
        },
        {
            "positions": [
                -0.3371028062881651,
                -1.3724002433880773,
                2.419810126196762,
                -1.0201284120066507,
                1.2320979199128326,
                3.1927260264056714
            ]
        }
    ]
}{
    "goal": {
        "global_pose": {
            "orientation": {
                "w": 0.5084816217422485,
                "x": -0.49083608388900757,
                "y": 0.5182115435600281,
                "z": -0.4816462993621826
            },
            "position": {
                "x": 0.5540239810943604,
                "y": 0.030875300988554955,
                "z": 0.16403168439865112
            }
        },
        "name": "move_to_storage_A"
    },
    "id": "LazyPRM_move_to_storage_A_138",
    "joint_names": [
        "shoulder_pan_joint",
        "shoulder_lift_joint",
        "elbow_joint",
        "wrist_1_joint",
        "wrist_2_joint",
        "wrist_3_joint"
    ],
    "metrics": {
        "cart_traj_len": 0.35324881762108984,
        "distance_elbow_joint": 0.4527605576251532,
        "distance_shoulder_lift_joint": 0.23511629038953652,
        "distance_shoulder_pan_joint": 0.46306710753950636,
        "distance_wrist_1_joint": 0.2536131261459116,
        "distance_wrist_2_joint": 1.0948228169474918,
        "distance_wrist_3_joint": 0.09467755153756796,
        "smoothness": 0.0,
        "time": 0.011891028000000001,
        "traj_len": 1.610607789061374,
        "weighted_distance": 2.032694885208724
    },
    "planner": "LazyPRM",
    "start": {
        "state": {
            "elbow_joint": 1.9715472970024885,
            "shoulder_lift_joint": -1.1394870060712896,
            "shoulder_pan_joint": 0.12281152778156021,
            "wrist_1_joint": -0.780463741449964,
            "wrist_2_joint": 0.12958659822042276,
            "wrist_3_joint": 3.090690232415272
        }
    },
    "waypoints": [
        {
            "positions": [
                0.12281152778156021,
                -1.1394870060712896,
                1.9715472970024885,
                -0.780463741449964,
                0.12958659822042276,
                3.090690232415272
            ]
        },
        {
            "positions": [
                0.056659083847345026,
                -1.1730750475555092,
                2.036227376663225,
                -0.816694188042237,
                0.28598985778435015,
                3.1042155969206386
            ]
        },
        {
            "positions": [
                -0.009493360086870156,
                -1.2066630890397285,
                2.1009074563239607,
                -0.8529246346345102,
                0.4423931173482776,
                3.1177409614260054
            ]
        },
        {
            "positions": [
                -0.07564580402108534,
                -1.240251130523948,
                2.165587535984697,
                -0.8891550812267832,
                0.598796376912205,
                3.131266325931372
            ]
        },
        {
            "positions": [
                -0.14179824795530052,
                -1.2738391720081677,
                2.2302676156454333,
                -0.9253855278190564,
                0.7551996364761323,
                3.1447916904367395
            ]
        },
        {
            "positions": [
                -0.20795069188951573,
                -1.3074272134923872,
                2.2949476953061696,
                -0.9616159744113294,
                0.9116028960400597,
                3.1583170549421062
            ]
        },
        {
            "positions": [
                -0.2741031358237309,
                -1.3410152549766066,
                2.3596277749669055,
                -0.9978464210036024,
                1.0680061556039873,
                3.171842419447473
            ]
        },
        {
            "positions": [
                -0.3402555797579461,
                -1.3746032964608261,
                2.4243078546276418,
                -1.0340768675958756,
                1.2244094151679146,
                3.18536778395284
            ]
        }
    ]
}