{
    "goal": {
        "global_pose": {
            "orientation": {
                "w": 0.005598929693374612,
                "x": 0.007748599140229565,
                "y": 0.7110244013736278,
                "z": -0.7031023480610252
            },
            "position": {
                "x": 0.1141497679147869,
                "y": -0.7141253447532654,
                "z": 0.3711530566215515
            }
        },
        "name": "move_to_auspresseinheit_B"
    },
    "id": "LazyPRMstar_move_to_auspresseinheit_B_70",
    "joint_names": [
        "shoulder_pan_joint",
        "shoulder_lift_joint",
        "elbow_joint",
        "wrist_1_joint",
        "wrist_2_joint",
        "wrist_3_joint"
    ],
    "metrics": {
        "cart_traj_len": 0.5649874804246314,
        "distance_elbow_joint": 0.06359629150060675,
        "distance_shoulder_lift_joint": 0.29573902316626,
        "distance_shoulder_pan_joint": 0.5790743221576637,
        "distance_wrist_1_joint": 0.3346651250238537,
        "distance_wrist_2_joint": 0.9863024892729892,
        "distance_wrist_3_joint": 0.002202294699646057,
        "smoothness": 0.0,
        "time": 5.001131056999999,
        "traj_len": 1.5038548952013355,
        "weighted_distance": 1.8939249587872151
    },
    "planner": "LazyPRMstar",
    "start": {
        "state": {
            "elbow_joint": 2.0193083361928714,
            "shoulder_lift_joint": -1.1220246554650708,
            "shoulder_pan_joint": -1.0952077554168747,
            "wrist_1_joint": -0.8559753972642168,
            "wrist_2_joint": 0.4759566250798843,
            "wrist_3_joint": -3.1240929996934557
        }
    },
    "waypoints": [
        {
            "positions": [
                -1.0952077554168747,
                -1.1220246554650708,
                2.0193083361928714,
                -0.8559753972642168,
                0.4759566250798843,
                -3.1240929996934557
            ]
        },
        {
            "positions": [
                -1.191720142443152,
                -1.1713144926594474,
                2.008708954276104,
                -0.8001978764269079,
                0.6403403732920492,
                -3.1237259505768478
            ]
        },
        {
            "positions": [
                -1.2882325294694292,
                -1.220604329853824,
                1.9981095723593358,
                -0.7444203555895988,
                0.804724121504214,
                -3.1233589014602403
            ]
        },
        {
            "positions": [
                -1.3847449164957064,
                -1.269894167048201,
                1.987510190442568,
                -0.6886428347522899,
                0.9691078697163789,
                -3.122991852343633
            ]
        },
        {
            "positions": [
                -1.4812573035219838,
                -1.3191840042425775,
                1.9769108085258003,
                -0.632865313914981,
                1.1334916179285437,
                -3.122624803227025
            ]
        },
        {
            "positions": [
                -1.5777696905482612,
                -1.3684738414369542,
                1.9663114266090325,
                -0.577087793077672,
                1.2978753661407088,
                -3.122257754110417
            ]
        },
        {
            "positions": [
                -1.6742820775745384,
                -1.4177636786313308,
                1.9557120446922647,
                -0.5213102722403631,
                1.4622591143528736,
                -3.1218907049938096
            ]
        }
    ]
}