{
    "goal": {
        "global_pose": {
            "orientation": {
                "w": -0.00223480608172531,
                "x": 0.0024358444001904467,
                "y": 0.7094548369677653,
                "z": -0.704743149386269
            },
            "position": {
                "x": -0.37947507619857795,
                "y": -0.6371506643295288,
                "z": 0.19426114857196808
            }
        },
        "name": "move_to_magneteinheit_C"
    },
    "id": "LazyPRM_move_to_magneteinheit_C_44",
    "joint_names": [
        "shoulder_pan_joint",
        "shoulder_lift_joint",
        "elbow_joint",
        "wrist_1_joint",
        "wrist_2_joint",
        "wrist_3_joint"
    ],
    "metrics": {
        "cart_traj_len": 0.900468187527766,
        "distance_elbow_joint": 1.1369866189305355,
        "distance_shoulder_lift_joint": 0.6424410388688317,
        "distance_shoulder_pan_joint": 1.1262043013740477,
        "distance_wrist_1_joint": 2.219417198961859,
        "distance_wrist_2_joint": 1.2366004794094334,
        "distance_wrist_3_joint": 1.062437011015977,
        "smoothness": 1.2474599353082128,
        "time": 0.070851056,
        "traj_len": 2.724717719060212,
        "weighted_distance": 3.606241582168883
    },
    "planner": "LazyPRM",
    "start": {
        "state": {
            "elbow_joint": 1.9565354010623817,
            "shoulder_lift_joint": -1.4165861575791021,
            "shoulder_pan_joint": -1.6717766225146293,
            "wrist_1_joint": -0.5286633292919765,
            "wrist_2_joint": 1.472756589071564,
            "wrist_3_joint": -3.1238370188695823
        }
    },
    "waypoints": [
        {
            "positions": [
                -1.6717766225146293,
                -1.4165861575791021,
                1.9565354010623817,
                -0.5286633292919765,
                1.472756589071564,
                -3.1238370188695823
            ]
        },
        {
            "positions": [
                -1.702808513357592,
                -1.440939961668174,
                1.9961374757062516,
                -0.39090118928436635,
                1.4210677346821152,
                -3.050150413482086
            ]
        },
        {
            "positions": [
                -1.7338404042005549,
                -1.4652937657572458,
                2.0357395503501214,
                -0.25313904927675623,
                1.3693788802926667,
                -2.976463808094589
            ]
        },
        {
            "positions": [
                -1.7648722950435176,
                -1.4896475698463176,
                2.0753416249939916,
                -0.11537690926914612,
                1.317690025903218,
                -2.9027772027070924
            ]
        },
        {
            "positions": [
                -1.7959041858864804,
                -1.5140013739353897,
                2.114943699637861,
                0.02238523073846399,
                1.2660011715137696,
                -2.8290905973195954
            ]
        },
        {
            "positions": [
                -1.8269360767294431,
                -1.5383551780244615,
                2.1545457742817313,
                0.1601473707460741,
                1.2143123171243209,
                -2.755403991932099
            ]
        },
        {
            "positions": [
                -1.857967967572406,
                -1.5627089821135334,
                2.194147848925601,
                0.2979095107536842,
                1.1626234627348724,
                -2.6817173865446025
            ]
        },
        {
            "positions": [
                -1.8889998584153687,
                -1.5870627862026052,
                2.233749923569471,
                0.4356716507612943,
                1.1109346083454237,
                -2.6080307811571055
            ]
        },
        {
            "positions": [
                -1.9823304145079568,
                -1.590038412346217,
                2.2732604029674803,
                0.32456856472727136,
                1.0290491677242373,
                -2.6622873198485726
            ]
        },
        {
            "positions": [
                -2.075660970600545,
                -1.593014038489829,
                2.3127708823654896,
                0.21346547869324833,
                0.9471637271030506,
                -2.71654385854004
            ]
        },
        {
            "positions": [
                -2.1689915266931328,
                -1.5959896646334408,
                2.352281361763499,
                0.10236239265922531,
                0.8652782864818642,
                -2.7708003972315076
            ]
        },
        {
            "positions": [
                -2.2623220827857207,
                -1.5989652907770529,
                2.391791841161508,
                -0.008740693374797659,
                0.7833928458606777,
                -2.8250569359229747
            ]
        },
        {
            "positions": [
                -2.355652638878309,
                -1.6019409169206646,
                2.4313023205595172,
                -0.11984377940882063,
                0.7015074052394912,
                -2.8793134746144418
            ]
        },
        {
            "positions": [
                -2.448983194970897,
                -1.6049165430642764,
                2.4708127999575265,
                -0.2309468654428437,
                0.6196219646183048,
                -2.9335700133059093
            ]
        },
        {
            "positions": [
                -2.5423137510634852,
                -1.6078921692078885,
                2.5103232793555357,
                -0.3420499514768667,
                0.5377365239971182,
                -2.987826551997377
            ]
        },
        {
            "positions": [
                -2.635644307156073,
                -1.6108677953515003,
                2.549833758753545,
                -0.45315303751088964,
                0.4558510833759317,
                -3.042083090688844
            ]
        },
        {
            "positions": [
                -2.6031769838095524,
                -1.5212359151322135,
                2.4410961065056704,
                -0.5264045436381705,
                0.4997900781186919,
                -3.0645987834431963
            ]
        },
        {
            "positions": [
                -2.5707096604630317,
                -1.4316040349129269,
                2.332358454257796,
                -0.5996560497654512,
                0.5437290728614521,
                -3.0871144761975486
            ]
        },
        {
            "positions": [
                -2.5382423371165106,
                -1.34197215469364,
                2.2236208020099215,
                -0.672907555892732,
                0.5876680676042123,
                -3.109630168951901
            ]
        },
        {
            "positions": [
                -2.50577501376999,
                -1.2523402744743533,
                2.114883149762047,
                -0.7461590620200127,
                0.6316070623469726,
                -3.1321458617062534
            ]
        },
        {
            "positions": [
                -2.473307690423469,
                -1.1627083942550667,
                2.0061454975141726,
                -0.8194105681472935,
                0.6755460570897328,
                -3.154661554460606
            ]
        }
    ]
}