{
    "goal": {
        "global_pose": {
            "orientation": {
                "w": 0.7031023502349854,
                "x": -0.7110244035720825,
                "y": 0.007748599164187908,
                "z": 0.005598929710686207
            },
            "position": {
                "x": 0.11585023208521307,
                "y": 0.44412534475326537,
                "z": 0.3711530566215515
            }
        },
        "name": "move_to_auspresseinheit_A"
    },
    "id": "LazyPRMstar_move_to_auspresseinheit_A_110",
    "joint_names": [
        "shoulder_pan_joint",
        "shoulder_lift_joint",
        "elbow_joint",
        "wrist_1_joint",
        "wrist_2_joint",
        "wrist_3_joint"
    ],
    "metrics": {
        "cart_traj_len": 0.7754042207081389,
        "distance_elbow_joint": 0.3348724051310943,
        "distance_shoulder_lift_joint": 0.5342757832630889,
        "distance_shoulder_pan_joint": 1.0446920643765818,
        "distance_wrist_1_joint": 0.5634962786202449,
        "distance_wrist_2_joint": 0.8174887424080044,
        "distance_wrist_3_joint": 0.10471792931533175,
        "smoothness": 0.6011520035607173,
        "time": 5.0060896139999995,
        "traj_len": 1.843785020850952,
        "weighted_distance": 2.233822750974942
    },
    "planner": "LazyPRMstar",
    "start": {
        "state": {
            "elbow_joint": 2.4225746658250005,
            "shoulder_lift_joint": -1.3736534386056498,
            "shoulder_pan_joint": -0.3378633547517467,
            "wrist_1_joint": -1.0288598680537169,
            "wrist_2_joint": 1.233022673432363,
            "wrist_3_joint": -3.0940220416140027
        }
    },
    "waypoints": [
        {
            "positions": [
                -0.3378633547517467,
                -1.3736534386056498,
                2.4225746658250005,
                -1.0288598680537169,
                1.233022673432363,
                -3.0940220416140027
            ]
        },
        {
            "positions": [
                -0.30724878239965925,
                -1.43960305973344,
                2.3922443129604267,
                -0.9459538889998892,
                1.1217222648760563,
                -3.1068111482178544
            ]
        },
        {
            "positions": [
                -0.2766342100475717,
                -1.50555268086123,
                2.361913960095853,
                -0.8630479099460615,
                1.0104218563197496,
                -3.1196002548217057
            ]
        },
        {
            "positions": [
                -0.2460196376954842,
                -1.5715023019890202,
                2.3315836072312797,
                -0.7801419308922337,
                0.8991214477634428,
                -3.132389361425557
            ]
        },
        {
            "positions": [
                -0.2154050653433967,
                -1.6374519231168105,
                2.301253254366706,
                -0.6972359518384061,
                0.7878210392071361,
                -3.1451784680294086
            ]
        },
        {
            "positions": [
                -0.1847904929913092,
                -1.7034015442446007,
                2.270922901502132,
                -0.6143299727845783,
                0.6765206306508292,
                -3.1579675746332603
            ]
        },
        {
            "positions": [
                -0.1541759206392217,
                -1.7693511653723908,
                2.2405925486375584,
                -0.5314239937307507,
                0.5652202220945225,
                -3.1707566812371115
            ]
        },
        {
            "positions": [
                0.03715844164167975,
                -1.8001462890382458,
                2.274568168180592,
                -0.5167439038869109,
                0.5984838423323366,
                -3.1645381724166177
            ]
        },
        {
            "positions": [
                0.2284928039225812,
                -1.830941412704101,
                2.308543787723626,
                -0.5020638140430712,
                0.6317474625701509,
                -3.1583196635961235
            ]
        },
        {
            "positions": [
                0.41982716620348276,
                -1.861736536369956,
                2.3425194072666597,
                -0.4873837241992315,
                0.6650110828079651,
                -3.1521011547756297
            ]
        },
        {
            "positions": [
                0.5633279379141589,
                -1.8848328791193474,
                2.3680011219239354,
                -0.4763736568163517,
                0.6899587979863258,
                -3.147437273160259
            ]
        },
        {
            "positions": [
                0.706828709624835,
                -1.9079292218687387,
                2.3934828365812106,
                -0.46536358943347195,
                0.7149065131646863,
                -3.1427733915448886
            ]
        }
    ]
}