{
    "goal": {
        "global_pose": {
            "orientation": {
                "w": -0.00223480608172531,
                "x": 0.0024358444001904467,
                "y": 0.7094548369677653,
                "z": -0.704743149386269
            },
            "position": {
                "x": 0.6205249238014221,
                "y": -0.6371506643295288,
                "z": 0.19426114857196808
            }
        },
        "name": "move_to_magneteinheit_B"
    },
    "id": "LazyPRMstar_move_to_magneteinheit_B_65",
    "joint_names": [
        "shoulder_pan_joint",
        "shoulder_lift_joint",
        "elbow_joint",
        "wrist_1_joint",
        "wrist_2_joint",
        "wrist_3_joint"
    ],
    "metrics": {
        "cart_traj_len": 1.460628474830574,
        "distance_elbow_joint": 1.0011249059104121,
        "distance_shoulder_lift_joint": 0.8363559240402216,
        "distance_shoulder_pan_joint": 1.6217416896370014,
        "distance_wrist_1_joint": 0.20211736863223395,
        "distance_wrist_2_joint": 1.5186394609844849,
        "distance_wrist_3_joint": 0.02063075035889376,
        "smoothness": 0.21152692927564096,
        "time": 5.0081265020000005,
        "traj_len": 2.2804846194533406,
        "weighted_distance": 2.638679296522742
    },
    "planner": "LazyPRMstar",
    "start": {
        "state": {
            "elbow_joint": 2.6216224122426386,
            "shoulder_lift_joint": -1.4174107377796124,
            "shoulder_pan_joint": 0.7066234856936794,
            "wrist_1_joint": 1.9546482284002225,
            "wrist_2_joint": -0.7096286983471962,
            "wrist_3_joint": 0.005740856962016249
        }
    },
    "waypoints": [
        {
            "positions": [
                0.7066234856936794,
                -1.4174107377796124,
                2.6216224122426386,
                1.9546482284002225,
                -0.7096286983471962,
                0.005740856962016249
            ]
        },
        {
            "positions": [
                0.6119805296108145,
                -1.438326394946119,
                2.633467325200253,
                1.9618692242166094,
                -0.8860594703031147,
                0.0008388638612051268
            ]
        },
        {
            "positions": [
                0.5173375735279497,
                -1.4592420521126253,
                2.6453122381578673,
                1.969090220032996,
                -1.0624902422590332,
                -0.004063129239605995
            ]
        },
        {
            "positions": [
                0.3979662587386771,
                -1.3930316679703578,
                2.5638593148249353,
                1.9847298347829512,
                -1.1596384020150872,
                -0.003160898893166702
            ]
        },
        {
            "positions": [
                0.27859494394940443,
                -1.3268212838280904,
                2.4824063914920034,
                2.000369449532906,
                -1.2567865617711411,
                -0.002258668546727409
            ]
        },
        {
            "positions": [
                0.15922362916013177,
                -1.260610899685823,
                2.4009534681590714,
                2.016009064282861,
                -1.353934721527195,
                -0.0013564382002881157
            ]
        },
        {
            "positions": [
                0.03985231437085912,
                -1.1944005155435558,
                2.3195005448261394,
                2.0316486790328163,
                -1.451082881283249,
                -0.0004542078538488227
            ]
        },
        {
            "positions": [
                -0.07951900041841353,
                -1.1281901314012883,
                2.2380476214932075,
                2.047288293782771,
                -1.5482310410393032,
                0.0004480224925904712
            ]
        },
        {
            "positions": [
                -0.19889031520768619,
                -1.061979747259021,
                2.1565946981602755,
                2.062927908532726,
                -1.6453792007953572,
                0.0013502528390297638
            ]
        },
        {
            "positions": [
                -0.31826162999695884,
                -0.9957693631167535,
                2.0751417748273435,
                2.0785675232826812,
                -1.7425273605514113,
                0.002252483185469057
            ]
        },
        {
            "positions": [
                -0.4376329447862315,
                -0.9295589789744861,
                1.9936888514944118,
                2.0942071380326364,
                -1.839675520307465,
                0.00315471353190835
            ]
        },
        {
            "positions": [
                -0.557004259575504,
                -0.8633485948322187,
                1.9122359281614798,
                2.1098467527825915,
                -1.9368236800635192,
                0.004056943878347643
            ]
        },
        {
            "positions": [
                -0.6763755743647768,
                -0.7971382106899513,
                1.8307830048285476,
                2.125486367532546,
                -2.033971839819573,
                0.0049591742247869375
            ]
        },
        {
            "positions": [
                -0.7957468891540493,
                -0.730927826547684,
                1.7493300814956159,
                2.1411259822825013,
                -2.131119999575627,
                0.005861404571226228
            ]
        },
        {
            "positions": [
                -0.9151182039433221,
                -0.6647174424054165,
                1.667877158162684,
                2.1567655970324564,
                -2.228268159331681,
                0.006763634917665523
            ]
        }
    ]
}