{
    "goal": {
        "global_pose": {
            "orientation": {
                "w": -0.00223480608172531,
                "x": 0.0024358444001904467,
                "y": 0.7094548369677653,
                "z": -0.704743149386269
            },
            "position": {
                "x": 0.6205249238014221,
                "y": -0.6371506643295288,
                "z": 0.19426114857196808
            }
        },
        "name": "move_to_magneteinheit_B"
    },
    "id": "LazyPRMstar_move_to_magneteinheit_B_3",
    "joint_names": [
        "shoulder_pan_joint",
        "shoulder_lift_joint",
        "elbow_joint",
        "wrist_1_joint",
        "wrist_2_joint",
        "wrist_3_joint"
    ],
    "metrics": {
        "cart_traj_len": 1.4257742208266744,
        "distance_elbow_joint": 0.9550199510570536,
        "distance_shoulder_lift_joint": 0.8022470380930007,
        "distance_shoulder_pan_joint": 1.6197414544043742,
        "distance_wrist_1_joint": 0.20338110339081084,
        "distance_wrist_2_joint": 1.5297104171667992,
        "distance_wrist_3_joint": 1.8868669758626204,
        "smoothness": 0.3342084744272367,
        "time": 5.016797773,
        "traj_len": 2.645178054493621,
        "weighted_distance": 3.5360701933442313
    },
    "planner": "LazyPRMstar",
    "start": {
        "state": {
            "elbow_joint": 2.6216224122426386,
            "shoulder_lift_joint": -1.4174107377796124,
            "shoulder_pan_joint": 0.7066234856936794,
            "wrist_1_joint": 1.9546482284002225,
            "wrist_2_joint": -0.7096286983471962,
            "wrist_3_joint": 0.005740856962016249
        }
    },
    "waypoints": [
        {
            "positions": [
                0.7066234856936794,
                -1.4174107377796124,
                2.6216224122426386,
                1.9546482284002225,
                -0.7096286983471962,
                0.005740856962016249
            ]
        },
        {
            "positions": [
                0.6027072906488631,
                -1.422297697929784,
                2.617053838937566,
                1.9671847400967175,
                -0.7397404261394916,
                -0.18221528516922655
            ]
        },
        {
            "positions": [
                0.4987910956040468,
                -1.4271846580799559,
                2.6124852656324933,
                1.9797212517932126,
                -0.7698521539317871,
                -0.37017142730046937
            ]
        },
        {
            "positions": [
                0.3948749005592305,
                -1.4320716182301276,
                2.60791669232742,
                1.9922577634897074,
                -0.7999638817240825,
                -0.5581275694317122
            ]
        },
        {
            "positions": [
                0.2909587055144142,
                -1.4369585783802994,
                2.6033481190223475,
                2.0047942751862027,
                -0.8300756095163779,
                -0.746083711562955
            ]
        },
        {
            "positions": [
                0.18704251046959797,
                -1.4418455385304711,
                2.598779545717275,
                2.0173307868826975,
                -0.8601873373086734,
                -0.9340398536941978
            ]
        },
        {
            "positions": [
                0.10845961909957703,
                -1.386287521577461,
                2.5321954682507255,
                2.0273806829475784,
                -0.9586981786090535,
                -0.8663908347508832
            ]
        },
        {
            "positions": [
                0.029876727729556102,
                -1.330729504624451,
                2.465611390784176,
                2.03743057901246,
                -1.0572090199094337,
                -0.7987418158075684
            ]
        },
        {
            "positions": [
                -0.04870616364046482,
                -1.2751714876714408,
                2.399027313317627,
                2.0474804750773408,
                -1.1557198612098138,
                -0.7310927968642538
            ]
        },
        {
            "positions": [
                -0.12728905501048576,
                -1.2196134707184307,
                2.332443235851078,
                2.057530371142222,
                -1.254230702510194,
                -0.663443777920939
            ]
        },
        {
            "positions": [
                -0.2058719463805067,
                -1.1640554537654204,
                2.2658591583845284,
                2.067580267207103,
                -1.352741543810574,
                -0.5957947589776244
            ]
        },
        {
            "positions": [
                -0.2844548377505276,
                -1.1084974368124103,
                2.199275080917979,
                2.0776301632719845,
                -1.4512523851109542,
                -0.5281457400343097
            ]
        },
        {
            "positions": [
                -0.36303772912054855,
                -1.0529394198594002,
                2.1326910034514297,
                2.0876800593368654,
                -1.5497632264113346,
                -0.46049672109099493
            ]
        },
        {
            "positions": [
                -0.4416206204905695,
                -0.9973814029063901,
                2.0661069259848808,
                2.0977299554017463,
                -1.6482740677117147,
                -0.3928477021476803
            ]
        },
        {
            "positions": [
                -0.5202035118605904,
                -0.9418233859533799,
                1.9995228485183314,
                2.1077798514666277,
                -1.7467849090120948,
                -0.3251986832043655
            ]
        },
        {
            "positions": [
                -0.5987864032306114,
                -0.8862653690003698,
                1.932938771051782,
                2.1178297475315087,
                -1.845295750312475,
                -0.25754966426105086
            ]
        },
        {
            "positions": [
                -0.6773692946006322,
                -0.8307073520473597,
                1.8663546935852329,
                2.12787964359639,
                -1.943806591612855,
                -0.1899006453177361
            ]
        },
        {
            "positions": [
                -0.7559521859706532,
                -0.7751493350943496,
                1.7997706161186837,
                2.137929539661271,
                -2.042317432913235,
                -0.12225162637442144
            ]
        },
        {
            "positions": [
                -0.8345350773406742,
                -0.7195913181413394,
                1.7331865386521343,
                2.1479794357261524,
                -2.1408282742136153,
                -0.054602607431106676
            ]
        },
        {
            "positions": [
                -0.9131179687106951,
                -0.6640333011883293,
                1.666602461185585,
                2.1580293317910333,
                -2.2393391155139954,
                0.013046411512207976
            ]
        }
    ]
}