{
    "goal": {
        "global_pose": {
            "orientation": {
                "w": 0.7031023502349854,
                "x": -0.7110244035720825,
                "y": 0.007748599164187908,
                "z": 0.005598929710686207
            },
            "position": {
                "x": 0.11585023208521307,
                "y": 0.44412534475326537,
                "z": 0.3711530566215515
            }
        },
        "name": "move_to_auspresseinheit_A"
    },
    "id": "LazyPRM_move_to_auspresseinheit_A_90",
    "joint_names": [
        "shoulder_pan_joint",
        "shoulder_lift_joint",
        "elbow_joint",
        "wrist_1_joint",
        "wrist_2_joint",
        "wrist_3_joint"
    ],
    "metrics": {
        "cart_traj_len": 0.6567203420392951,
        "distance_elbow_joint": 0.1647786518011367,
        "distance_shoulder_lift_joint": 0.5358088482094832,
        "distance_shoulder_pan_joint": 1.041065991261314,
        "distance_wrist_1_joint": 1.422289627440746,
        "distance_wrist_2_joint": 0.5345202446831662,
        "distance_wrist_3_joint": 0.21475520523843006,
        "smoothness": 0.8925238521531439,
        "time": 0.058350244,
        "traj_len": 1.9781856759754066,
        "weighted_distance": 2.5098882148882744
    },
    "planner": "LazyPRM",
    "start": {
        "state": {
            "elbow_joint": 2.4225746658250005,
            "shoulder_lift_joint": -1.3736534386056498,
            "shoulder_pan_joint": -0.3378633547517467,
            "wrist_1_joint": -1.0288598680537169,
            "wrist_2_joint": 1.233022673432363,
            "wrist_3_joint": -3.0940220416140027
        }
    },
    "waypoints": [
        {
            "positions": [
                -0.3378633547517467,
                -1.3736534386056498,
                2.4225746658250005,
                -1.0288598680537169,
                1.233022673432363,
                -3.0940220416140027
            ]
        },
        {
            "positions": [
                -0.32084037305072965,
                -1.4196842110572914,
                2.4339504145074646,
                -0.8635981343053488,
                1.1464365878459315,
                -3.078786696742004
            ]
        },
        {
            "positions": [
                -0.3038173913497126,
                -1.465714983508933,
                2.4453261631899292,
                -0.6983364005569808,
                1.0598505022594997,
                -3.0635513518700055
            ]
        },
        {
            "positions": [
                -0.2867944096486955,
                -1.5117457559605745,
                2.4567019118723934,
                -0.5330746668086127,
                0.9732644166730682,
                -3.048316006998007
            ]
        },
        {
            "positions": [
                -0.2697714279476784,
                -1.5577765284122163,
                2.4680776605548576,
                -0.36781293306024465,
                0.8866783310866366,
                -3.0330806621260082
            ]
        },
        {
            "positions": [
                -0.2527484462466613,
                -1.6038073008638578,
                2.479453409237322,
                -0.2025511993118766,
                0.8000922455002049,
                -3.0178453172540096
            ]
        },
        {
            "positions": [
                -0.23572546454564425,
                -1.6498380733154994,
                2.4908291579197863,
                -0.03728946556350854,
                0.7135061599137733,
                -3.002609972382011
            ]
        },
        {
            "positions": [
                -0.04793984433460188,
                -1.7017629160154262,
                2.4715243259785162,
                -0.1234333105536161,
                0.7105054136808581,
                -3.0272785995832985
            ]
        },
        {
            "positions": [
                0.13984577587644048,
                -1.7536877587153528,
                2.452219494037246,
                -0.20957715554372366,
                0.7075046674479427,
                -3.0519472267845864
            ]
        },
        {
            "positions": [
                0.3276313960874828,
                -1.8056126014152796,
                2.4329146620959756,
                -0.2957210005338312,
                0.7045039212150275,
                -3.076615853985874
            ]
        },
        {
            "positions": [
                0.5154170162985252,
                -1.8575374441152062,
                2.4136098301547055,
                -0.3818648455239388,
                0.7015031749821121,
                -3.101284481187162
            ]
        },
        {
            "positions": [
                0.7032026365095675,
                -1.909462286815133,
                2.3943049982134355,
                -0.4680086905140463,
                0.6985024287491969,
                -3.1259531083884493
            ]
        }
    ]
}