{
    "goal": {
        "global_pose": {
            "orientation": {
                "w": 0.5084816262002911,
                "x": -0.4908360881923452,
                "y": 0.5182115481033761,
                "z": -0.48164630358495003
            },
            "position": {
                "x": 0.5540239810943604,
                "y": -0.46912469901144505,
                "z": 0.16403168439865112
            }
        },
        "name": "move_to_storage_B"
    },
    "id": "LazyPRMstar_move_to_storage_B_77",
    "joint_names": [
        "shoulder_pan_joint",
        "shoulder_lift_joint",
        "elbow_joint",
        "wrist_1_joint",
        "wrist_2_joint",
        "wrist_3_joint"
    ],
    "metrics": {
        "cart_traj_len": 1.2489623268334444,
        "distance_elbow_joint": 0.6416431203088377,
        "distance_shoulder_lift_joint": 0.9960256326845558,
        "distance_shoulder_pan_joint": 0.6012984318302478,
        "distance_wrist_1_joint": 3.028707127275901,
        "distance_wrist_2_joint": 2.7069290872990317,
        "distance_wrist_3_joint": 3.1680002926977053,
        "smoothness": 0.1481501338574455,
        "time": 5.024900653,
        "traj_len": 3.338053877949887,
        "weighted_distance": 4.818115865363413
    },
    "planner": "LazyPRMstar",
    "start": {
        "state": {
            "elbow_joint": 1.664937868594044,
            "shoulder_lift_joint": -0.661644460510453,
            "shoulder_pan_joint": -0.9139846352900073,
            "wrist_1_joint": 2.146753192139373,
            "wrist_2_joint": -2.2341966793290973,
            "wrist_3_joint": 0.005466555786416001
        }
    },
    "waypoints": [
        {
            "positions": [
                -0.9139846352900073,
                -0.661644460510453,
                1.664937868594044,
                2.146753192139373,
                -2.2341966793290973,
                0.005466555786416001
            ]
        },
        {
            "positions": [
                -0.9034917127345883,
                -0.6980408022138256,
                1.6899334053411892,
                2.089820152670145,
                -2.1256941198767616,
                0.14694444556326494
            ]
        },
        {
            "positions": [
                -0.8929987901791693,
                -0.7344371439171982,
                1.7149289420883342,
                2.0328871132009163,
                -2.0171915604244255,
                0.2884223353401139
            ]
        },
        {
            "positions": [
                -0.8825058676237503,
                -0.7708334856205707,
                1.7399244788354795,
                1.975954073731688,
                -1.9086890009720898,
                0.42990022511696285
            ]
        },
        {
            "positions": [
                -0.8720129450683313,
                -0.8072298273239433,
                1.7649200155826248,
                1.9190210342624594,
                -1.800186441519754,
                0.5713781148938117
            ]
        },
        {
            "positions": [
                -0.8615200225129123,
                -0.8436261690273159,
                1.78991555232977,
                1.8620879947932312,
                -1.691683882067418,
                0.7128560046706607
            ]
        },
        {
            "positions": [
                -0.8510270999574933,
                -0.8800225107306884,
                1.8149110890769151,
                1.8051549553240027,
                -1.5831813226150824,
                0.8543338944475096
            ]
        },
        {
            "positions": [
                -0.8405341774020743,
                -0.916418852434061,
                1.8399066258240604,
                1.7482219158547743,
                -1.4746787631627463,
                0.9958117842243585
            ]
        },
        {
            "positions": [
                -0.8300412548466553,
                -0.9528151941374337,
                1.8649021625712057,
                1.6912888763855458,
                -1.3661762037104106,
                1.1372896740012075
            ]
        },
        {
            "positions": [
                -0.8195483322912362,
                -0.9892115358408061,
                1.8898976993183507,
                1.6343558369163174,
                -1.2576736442580745,
                1.2787675637780564
            ]
        },
        {
            "positions": [
                -0.8090554097358172,
                -1.0256078775441786,
                1.914893236065496,
                1.5774227974470891,
                -1.1491710848057388,
                1.4202454535549054
            ]
        },
        {
            "positions": [
                -0.7985624871803982,
                -1.0620042192475512,
                1.9398887728126413,
                1.5204897579778605,
                -1.040668525353403,
                1.5617233433317546
            ]
        },
        {
            "positions": [
                -0.7880695646249792,
                -1.0984005609509238,
                1.9648843095597863,
                1.4635567185086322,
                -0.9321659659010673,
                1.7032012331086033
            ]
        },
        {
            "positions": [
                -0.7775766420695602,
                -1.1347969026542963,
                1.9898798463069316,
                1.4066236790394038,
                -0.8236634064487312,
                1.8446791228854522
            ]
        },
        {
            "positions": [
                -0.7670837195141412,
                -1.171193244357669,
                2.014875383054077,
                1.3496906395701753,
                -0.7151608469963955,
                1.986157012662301
            ]
        },
        {
            "positions": [
                -0.7565907969587222,
                -1.2075895860610415,
                2.039870919801222,
                1.2927576001009469,
                -0.6066582875440596,
                2.1276349024391505
            ]
        },
        {
            "positions": [
                -0.7460978744033032,
                -1.243985927764414,
                2.0648664565483674,
                1.2358245606317184,
                -0.4981557280917237,
                2.2691127922159993
            ]
        },
        {
            "positions": [
                -0.7356049518478842,
                -1.2803822694677867,
                2.0898619932955125,
                1.1788915211624902,
                -0.38965316863938804,
                2.410590681992848
            ]
        },
        {
            "positions": [
                -0.7251120292924652,
                -1.3167786111711592,
                2.1148575300426575,
                1.1219584816932617,
                -0.2811506091870519,
                2.552068571769697
            ]
        },
        {
            "positions": [
                -0.7146191067370462,
                -1.3531749528745318,
                2.139853066789803,
                1.0650254422240333,
                -0.17264804973471648,
                2.693546461546546
            ]
        },
        {
            "positions": [
                -0.7041261841816272,
                -1.3895712945779044,
                2.164848603536948,
                1.0080924027548048,
                -0.06414549028238026,
                2.835024351323395
            ]
        },
        {
            "positions": [
                -0.7432701822538139,
                -1.362761414716194,
                2.150675365000355,
                0.8190877689656715,
                -0.010457700457148632,
                2.8688686010394675
            ]
        },
        {
            "positions": [
                -0.7824141803260007,
                -1.3359515348544835,
                2.1365021264637614,
                0.6300831351765381,
                0.043230089368082994,
                2.9027128507555404
            ]
        },
        {
            "positions": [
                -0.8215581783981876,
                -1.309141654992773,
                2.122328887927168,
                0.4410785013874049,
                0.0969178791933146,
                2.936557100471613
            ]
        },
        {
            "positions": [
                -0.8607021764703743,
                -1.2823317751310626,
                2.1081556493905746,
                0.25207386759827155,
                0.15060566901854625,
                2.970401350187686
            ]
        },
        {
            "positions": [
                -0.899846174542561,
                -1.2555218952693523,
                2.0939824108539815,
                0.06306923380913831,
                0.20429345884377786,
                3.0042455999037583
            ]
        },
        {
            "positions": [
                -0.9389901726147478,
                -1.2287120154076419,
                2.079809172317388,
                -0.12593539997999503,
                0.25798124866900946,
                3.0380898496198308
            ]
        },
        {
            "positions": [
                -0.9781341706869346,
                -1.2019021355459314,
                2.0656359337807944,
                -0.31494003376912816,
                0.3116690384942411,
                3.0719340993359037
            ]
        },
        {
            "positions": [
                -1.0172781687591215,
                -1.175092255684221,
                2.051462695244201,
                -0.5039446675582617,
                0.36535682831947275,
                3.105778349051976
            ]
        },
        {
            "positions": [
                -1.056422166831308,
                -1.1482823758225105,
                2.037289456707608,
                -0.6929493013473949,
                0.4190446181447044,
                3.139622598768049
            ]
        },
        {
            "positions": [
                -1.095566164903495,
                -1.1214724959608,
                2.0231162181710145,
                -0.8819539351365283,
                0.472732407969936,
                3.1734668484841215
            ]
        }
    ]
}