{
    "goal": {
        "global_pose": {
            "orientation": {
                "w": -0.00223480608172531,
                "x": 0.0024358444001904467,
                "y": 0.7094548369677653,
                "z": -0.704743149386269
            },
            "position": {
                "x": -0.37947507619857795,
                "y": -0.6371506643295288,
                "z": 0.19426114857196808
            }
        },
        "name": "move_to_magneteinheit_C"
    },
    "id": "LazyPRM_move_to_magneteinheit_C_136",
    "joint_names": [
        "shoulder_pan_joint",
        "shoulder_lift_joint",
        "elbow_joint",
        "wrist_1_joint",
        "wrist_2_joint",
        "wrist_3_joint"
    ],
    "metrics": {
        "cart_traj_len": 1.0395609035033064,
        "distance_elbow_joint": 0.06433557406649992,
        "distance_shoulder_lift_joint": 1.190947786973264,
        "distance_shoulder_pan_joint": 1.2425655590645033,
        "distance_wrist_1_joint": 2.3895280688737066,
        "distance_wrist_2_joint": 0.7927211202631885,
        "distance_wrist_3_joint": 0.1616661687571339,
        "smoothness": 1.1572995555590104,
        "time": 0.433617352,
        "traj_len": 2.4169741988689695,
        "weighted_distance": 3.0573429321306858
    },
    "planner": "LazyPRM",
    "start": {
        "state": {
            "elbow_joint": 1.9565354010623817,
            "shoulder_lift_joint": -1.4165861575791021,
            "shoulder_pan_joint": -1.6717766225146293,
            "wrist_1_joint": -0.5286633292919765,
            "wrist_2_joint": 1.472756589071564,
            "wrist_3_joint": -3.1238370188695823
        }
    },
    "waypoints": [
        {
            "positions": [
                -1.6717766225146293,
                -1.4165861575791021,
                1.9565354010623817,
                -0.5286633292919765,
                1.472756589071564,
                -3.1238370188695823
            ]
        },
        {
            "positions": [
                -1.7779929530572558,
                -1.4871417951392005,
                1.954337148599968,
                -0.3781408046803712,
                1.4599243517427636,
                -3.1514135345175744
            ]
        },
        {
            "positions": [
                -1.8842092835998825,
                -1.557697432699299,
                1.9521388961375545,
                -0.22761828006876594,
                1.447092114413963,
                -3.178990050165567
            ]
        },
        {
            "positions": [
                -1.990425614142509,
                -1.6282530702593974,
                1.949940643675141,
                -0.07709575545716069,
                1.4342598770851627,
                -3.206566565813559
            ]
        },
        {
            "positions": [
                -2.1310739711161353,
                -1.679661868877794,
                1.9546089695057274,
                0.041784111608682395,
                1.3772052709668892,
                -3.2097360498956964
            ]
        },
        {
            "positions": [
                -2.2717223280897616,
                -1.7310706674961904,
                1.9592772953363138,
                0.16066397867452548,
                1.3201506648486157,
                -3.2129055339778336
            ]
        },
        {
            "positions": [
                -2.4123706850633884,
                -1.782479466114587,
                1.9639456211669,
                0.27954384574036856,
                1.263096058730342,
                -3.216075018059971
            ]
        },
        {
            "positions": [
                -2.5530190420370147,
                -1.8338882647329835,
                1.9686139469974864,
                0.39842371280621164,
                1.2060414526120684,
                -3.219244502142108
            ]
        },
        {
            "positions": [
                -2.693667399010641,
                -1.8852970633513801,
                1.9732822728280728,
                0.5173035798720548,
                1.148986846493795,
                -3.2224139862242454
            ]
        },
        {
            "positions": [
                -2.6660830511895797,
                -1.7950174532012568,
                1.9775821712688637,
                0.3493584349083454,
                1.0903679242831175,
                -3.2145278360489367
            ]
        },
        {
            "positions": [
                -2.6384987033685183,
                -1.7047378430511335,
                1.9818820697096546,
                0.18141328994463596,
                1.03174900207244,
                -3.2066416858736275
            ]
        },
        {
            "positions": [
                -2.6109143555474565,
                -1.6144582329010104,
                1.9861819681504456,
                0.013468144980926522,
                0.9731300798617626,
                -3.198755535698319
            ]
        },
        {
            "positions": [
                -2.583330007726395,
                -1.5241786227508871,
                1.9904818665912365,
                -0.15447699998278286,
                0.9145111576510851,
                -3.19086938552301
            ]
        },
        {
            "positions": [
                -2.555745659905334,
                -1.4338990126007638,
                1.9947817650320274,
                -0.32242214494649224,
                0.8558922354404077,
                -3.182983235347701
            ]
        },
        {
            "positions": [
                -2.528161312084272,
                -1.3436194024506407,
                1.9990816634728183,
                -0.49036728991020173,
                0.7972733132297303,
                -3.1750970851723923
            ]
        },
        {
            "positions": [
                -2.5005769642632107,
                -1.2533397923005174,
                2.003381561913609,
                -0.658312434873911,
                0.7386543910190528,
                -3.167210934997083
            ]
        },
        {
            "positions": [
                -2.4729926164421494,
                -1.163060182150394,
                2.0076814603544,
                -0.8262575798376205,
                0.6800354688083754,
                -3.1593247848217745
            ]
        }
    ]
}