{
    "goal": {
        "global_pose": {
            "orientation": {
                "w": 0.005598929693374612,
                "x": 0.007748599140229565,
                "y": 0.7110244013736278,
                "z": -0.7031023480610252
            },
            "position": {
                "x": 0.1141497679147869,
                "y": -0.7141253447532654,
                "z": 0.3711530566215515
            }
        },
        "name": "move_to_auspresseinheit_B"
    },
    "id": "LazyPRM_move_to_auspresseinheit_B_133",
    "joint_names": [
        "shoulder_pan_joint",
        "shoulder_lift_joint",
        "elbow_joint",
        "wrist_1_joint",
        "wrist_2_joint",
        "wrist_3_joint"
    ],
    "metrics": {
        "cart_traj_len": 0.5647943194260703,
        "distance_elbow_joint": 0.06454331802573332,
        "distance_shoulder_lift_joint": 0.294998493293964,
        "distance_shoulder_pan_joint": 0.5775142613094562,
        "distance_wrist_1_joint": 0.3357693628784242,
        "distance_wrist_2_joint": 0.9920403615442448,
        "distance_wrist_3_joint": 0.0074560621317210085,
        "smoothness": 0.0,
        "time": 0.021962932,
        "traj_len": 1.5074222564310051,
        "weighted_distance": 1.901326828262215
    },
    "planner": "LazyPRM",
    "start": {
        "state": {
            "elbow_joint": 2.0193083361928714,
            "shoulder_lift_joint": -1.1220246554650708,
            "shoulder_pan_joint": -1.0952077554168747,
            "wrist_1_joint": -0.8559753972642168,
            "wrist_2_joint": 0.4759566250798843,
            "wrist_3_joint": -3.1240929996934557
        }
    },
    "waypoints": [
        {
            "positions": [
                -1.0952077554168747,
                -1.1220246554650708,
                2.0193083361928714,
                -0.8559753972642168,
                0.4759566250798843,
                -3.1240929996934557
            ]
        },
        {
            "positions": [
                -1.191460132301784,
                -1.1711910710140647,
                2.008551116521916,
                -0.8000138367844795,
                0.6412966853372584,
                -3.1253356767154092
            ]
        },
        {
            "positions": [
                -1.2877125091866934,
                -1.2203574865630589,
                1.9977938968509603,
                -0.744052276304742,
                0.8066367455946326,
                -3.126578353737363
            ]
        },
        {
            "positions": [
                -1.3839648860716027,
                -1.2695239021120528,
                1.9870366771800048,
                -0.6880907158250047,
                0.9719768058520066,
                -3.127821030759316
            ]
        },
        {
            "positions": [
                -1.480217262956512,
                -1.3186903176610467,
                1.9762794575090492,
                -0.6321291553452674,
                1.1373168661093809,
                -3.1290637077812695
            ]
        },
        {
            "positions": [
                -1.5764696398414215,
                -1.3678567332100409,
                1.9655222378380937,
                -0.5761675948655299,
                1.302656926366755,
                -3.130306384803223
            ]
        },
        {
            "positions": [
                -1.6727220167263308,
                -1.4170231487590348,
                1.954765018167138,
                -0.5202060343857926,
                1.4679969866241291,
                -3.1315490618251767
            ]
        }
    ]
}