{
    "goal": {
        "global_pose": {
            "orientation": {
                "w": 0.7047431493862688,
                "x": -0.7094548369677653,
                "y": 0.0024358444001904,
                "z": -0.0022348060817251984
            },
            "position": {
                "x": -0.39052492380142206,
                "y": 0.3671506643295288,
                "z": 0.19426114857196808
            }
        },
        "name": "move_to_magneteinheit_D"
    },
    "id": "LazyPRM_move_to_magneteinheit_D_15",
    "joint_names": [
        "shoulder_pan_joint",
        "shoulder_lift_joint",
        "elbow_joint",
        "wrist_1_joint",
        "wrist_2_joint",
        "wrist_3_joint"
    ],
    "metrics": {
        "cart_traj_len": 4.722721977332642,
        "distance_elbow_joint": 3.1187869981736527,
        "distance_shoulder_lift_joint": 1.4920903593878927,
        "distance_shoulder_pan_joint": 3.4164249983134387,
        "distance_wrist_1_joint": 2.8484100872193787,
        "distance_wrist_2_joint": 1.0111646248667125,
        "distance_wrist_3_joint": 1.1781885744327907,
        "smoothness": 0.6177542830425243,
        "time": 0.129497032,
        "traj_len": 3.614562994663929,
        "weighted_distance": 4.3910155435099
    },
    "planner": "LazyPRM",
    "start": {
        "state": {
            "elbow_joint": 0.749534889911806,
            "shoulder_lift_joint": -0.6476975780787326,
            "shoulder_pan_joint": -2.711696901376241,
            "wrist_1_joint": -0.07506478083263063,
            "wrist_2_joint": 0.43296659715538205,
            "wrist_3_joint": -3.14703540197715
        }
    },
    "waypoints": [
        {
            "positions": [
                -2.711696901376241,
                -0.6476975780787326,
                0.749534889911806,
                -0.07506478083263063,
                0.43296659715538205,
                -3.14703540197715
            ]
        },
        {
            "positions": [
                -2.743293613050879,
                -0.6510862074471904,
                0.7612303109684213,
                -0.05474124283241854,
                0.359734518559589,
                -3.033584717890494
            ]
        },
        {
            "positions": [
                -2.75000396822159,
                -0.6734107035934742,
                0.7283865734736681,
                0.0076029131179859225,
                0.2176119001977565,
                -2.929764902018499
            ]
        },
        {
            "positions": [
                -2.756714323392301,
                -0.695735199739758,
                0.6955428359789149,
                0.06994706906839038,
                0.07548928183592402,
                -2.8259450861465045
            ]
        },
        {
            "positions": [
                -2.7634246785630125,
                -0.7180596958860418,
                0.6626990984841615,
                0.1322912250187948,
                -0.06663333652590847,
                -2.7221252702745096
            ]
        },
        {
            "positions": [
                -2.7701350337337236,
                -0.7403841920323255,
                0.6298553609894083,
                0.1946353809691993,
                -0.20875595488774096,
                -2.618305454402515
            ]
        },
        {
            "positions": [
                -2.7768453889044347,
                -0.7627086881786094,
                0.5970116234946551,
                0.25697953691960373,
                -0.35087857324957344,
                -2.51448563853052
            ]
        },
        {
            "positions": [
                -2.657964934068582,
                -0.810024783556729,
                0.4918997046474041,
                0.1641985001751998,
                -0.3428780019124889,
                -2.5268964621421564
            ]
        },
        {
            "positions": [
                -2.539084479232729,
                -0.8573408789348488,
                0.38678778580015316,
                0.07141746343079586,
                -0.3348774305754044,
                -2.5393072857537926
            ]
        },
        {
            "positions": [
                -2.4202040243968757,
                -0.9046569743129684,
                0.2816758669529022,
                -0.021363573313608053,
                -0.3268768592383199,
                -2.551718109365429
            ]
        },
        {
            "positions": [
                -2.301323569561023,
                -0.9519730696910882,
                0.17656394810565118,
                -0.11414461005801202,
                -0.3188762879012354,
                -2.564128932977065
            ]
        },
        {
            "positions": [
                -2.18244311472517,
                -0.9992891650692078,
                0.07145202925840022,
                -0.20692564680241593,
                -0.31087571656415086,
                -2.576539756588701
            ]
        },
        {
            "positions": [
                -2.063562659889317,
                -1.0466052604473275,
                -0.03365988958885069,
                -0.29970668354681984,
                -0.3028751452270664,
                -2.588950580200337
            ]
        },
        {
            "positions": [
                -1.9446822050534642,
                -1.0939213558254473,
                -0.13877180843610182,
                -0.3924877202912238,
                -0.29487457388998184,
                -2.6013614038119734
            ]
        },
        {
            "positions": [
                -1.8258017502176114,
                -1.1412374512035668,
                -0.24388372728335272,
                -0.4852687570356278,
                -0.28687400255289736,
                -2.6137722274236097
            ]
        },
        {
            "positions": [
                -1.7069212953817583,
                -1.1885535465816865,
                -0.34899564613060363,
                -0.5780497937800316,
                -0.2788734312158128,
                -2.626183051035246
            ]
        },
        {
            "positions": [
                -1.5880408405459054,
                -1.2358696419598063,
                -0.45410756497785465,
                -0.6708308305244356,
                -0.27087285987872833,
                -2.638593874646882
            ]
        },
        {
            "positions": [
                -1.4691603857100524,
                -1.2831857373379258,
                -0.5592194838251056,
                -0.7636118672688395,
                -0.2628722885416438,
                -2.6510046982585185
            ]
        },
        {
            "positions": [
                -1.3502799308741995,
                -1.3305018327160456,
                -0.6643314026723565,
                -0.8563929040132434,
                -0.2548717172045593,
                -2.6634155218701547
            ]
        },
        {
            "positions": [
                -1.2313994760383467,
                -1.3778179280941654,
                -0.7694433215196076,
                -0.9491739407576474,
                -0.24687114586747477,
                -2.6758263454817905
            ]
        },
        {
            "positions": [
                -1.1125190212024936,
                -1.4251340234722851,
                -0.8745552403668587,
                -1.0419549775020513,
                -0.23887057453039026,
                -2.688237169093427
            ]
        },
        {
            "positions": [
                -0.9936385663666407,
                -1.4724501188504047,
                -0.9796671592141094,
                -1.134736014246455,
                -0.23087000319330575,
                -2.700647992705063
            ]
        },
        {
            "positions": [
                -0.8747581115307879,
                -1.5197662142285244,
                -1.0847790780613606,
                -1.2275170509908593,
                -0.22286943185622124,
                -2.7130588163166993
            ]
        },
        {
            "positions": [
                -0.7558776566949348,
                -1.5670823096066442,
                -1.1898909969086113,
                -1.3202980877352632,
                -0.21486886051913673,
                -2.7254696399283356
            ]
        },
        {
            "positions": [
                -0.6369972018590819,
                -1.6143984049847637,
                -1.2950029157558625,
                -1.413079124479667,
                -0.20686828918205222,
                -2.737880463539972
            ]
        },
        {
            "positions": [
                -0.5181167470232291,
                -1.6617145003628835,
                -1.4001148346031131,
                -1.505860161224071,
                -0.1988677178449677,
                -2.750291287151608
            ]
        },
        {
            "positions": [
                -0.3992362921873762,
                -1.7090305957410032,
                -1.5052267534503643,
                -1.598641197968475,
                -0.1908671465078832,
                -2.7627021107632443
            ]
        },
        {
            "positions": [
                -0.28035583735152336,
                -1.7563466911191228,
                -1.610338672297615,
                -1.6914222347128787,
                -0.18286657517079868,
                -2.7751129343748806
            ]
        },
        {
            "positions": [
                -0.16147538251567006,
                -1.8036627864972425,
                -1.715450591144866,
                -1.7842032714572826,
                -0.17486600383371417,
                -2.7875237579865164
            ]
        },
        {
            "positions": [
                -0.04259492767981721,
                -1.8509788818753623,
                -1.8205625099921172,
                -1.8769843082016866,
                -0.16686543249662966,
                -2.7999345815981527
            ]
        },
        {
            "positions": [
                0.07628552715603565,
                -1.8982949772534818,
                -1.925674428839368,
                -1.9697653449460906,
                -0.15886486115954515,
                -2.812345405209789
            ]
        },
        {
            "positions": [
                0.19516598199188862,
                -1.9456110726316016,
                -2.030786347686619,
                -2.0625463816904945,
                -0.15086428982246064,
                -2.824756228821425
            ]
        },
        {
            "positions": [
                0.11487593077022851,
                -1.8975546527844103,
                -2.1047657541965936,
                -2.1066798228612487,
                -0.15478640177147257,
                -2.878321216843613
            ]
        },
        {
            "positions": [
                0.0345858795485684,
                -1.849498232937219,
                -2.1787451607065687,
                -2.150813264032003,
                -0.15870851372048453,
                -2.9318862048658003
            ]
        },
        {
            "positions": [
                -0.04570417167309171,
                -1.8014418130900276,
                -2.2527245672165437,
                -2.194946705202757,
                -0.1626306256694965,
                -2.985451192887988
            ]
        },
        {
            "positions": [
                -0.12599422289475184,
                -1.7533853932428363,
                -2.3267039737265183,
                -2.239080146373511,
                -0.16655273761850842,
                -3.039016180910176
            ]
        },
        {
            "positions": [
                -0.18409915789703366,
                -1.7553365786890947,
                -2.3458612661486162,
                -2.2593862325475405,
                -0.17816946085710442,
                -3.060124449516681
            ]
        }
    ]
}