{
    "goal": {
        "global_pose": {
            "orientation": {
                "w": 0.005598929693374612,
                "x": 0.007748599140229565,
                "y": 0.7110244013736278,
                "z": -0.7031023480610252
            },
            "position": {
                "x": 0.1141497679147869,
                "y": -0.7141253447532654,
                "z": 0.3711530566215515
            }
        },
        "name": "move_to_auspresseinheit_B"
    },
    "id": "LazyPRM_move_to_auspresseinheit_B_80",
    "joint_names": [
        "shoulder_pan_joint",
        "shoulder_lift_joint",
        "elbow_joint",
        "wrist_1_joint",
        "wrist_2_joint",
        "wrist_3_joint"
    ],
    "metrics": {
        "cart_traj_len": 0.5648692232548901,
        "distance_elbow_joint": 0.061955983804560466,
        "distance_shoulder_lift_joint": 0.29577999298645796,
        "distance_shoulder_pan_joint": 0.5754341276693196,
        "distance_wrist_1_joint": 0.32531152935420504,
        "distance_wrist_2_joint": 1.00427200319218,
        "distance_wrist_3_joint": 0.005546431147620101,
        "smoothness": 5.075305295617109e-16,
        "time": 0.021936920000000002,
        "traj_len": 1.5060876694782224,
        "weighted_distance": 1.8997306290619123
    },
    "planner": "LazyPRM",
    "start": {
        "state": {
            "elbow_joint": 2.0193083361928714,
            "shoulder_lift_joint": -1.1220246554650708,
            "shoulder_pan_joint": -1.0952077554168747,
            "wrist_1_joint": -0.8559753972642168,
            "wrist_2_joint": 0.4759566250798843,
            "wrist_3_joint": -3.1240929996934557
        }
    },
    "waypoints": [
        {
            "positions": [
                -1.0952077554168747,
                -1.1220246554650708,
                2.0193083361928714,
                -0.8559753972642168,
                0.4759566250798843,
                -3.1240929996934557
            ]
        },
        {
            "positions": [
                -1.1911134433617612,
                -1.1713213209628137,
                2.0089823388921113,
                -0.801756809038516,
                0.6433352922785809,
                -3.1250174048847255
            ]
        },
        {
            "positions": [
                -1.287019131306648,
                -1.2206179864605569,
                1.9986563415913512,
                -0.7475382208128151,
                0.8107139594772776,
                -3.1259418100759957
            ]
        },
        {
            "positions": [
                -1.3829248192515344,
                -1.2699146519582998,
                1.988330344290591,
                -0.6933196325871143,
                0.9780926266759742,
                -3.126866215267266
            ]
        },
        {
            "positions": [
                -1.478830507196421,
                -1.3192113174560427,
                1.9780043469898312,
                -0.6391010443614135,
                1.145471293874671,
                -3.1277906204585357
            ]
        },
        {
            "positions": [
                -1.5747361951413077,
                -1.3685079829537858,
                1.967678349689071,
                -0.5848824561357125,
                1.3128499610733675,
                -3.1287150256498055
            ]
        },
        {
            "positions": [
                -1.6706418830861942,
                -1.4178046484515288,
                1.957352352388311,
                -0.5306638679100117,
                1.4802286282720643,
                -3.1296394308410758
            ]
        }
    ]
}