{
    "goal": {
        "global_pose": {
            "orientation": {
                "w": -0.4816463035849501,
                "x": 0.5182115481033762,
                "y": 0.4908360881923453,
                "z": -0.5084816262002911
            },
            "position": {
                "x": -0.8240239810943604,
                "y": 0.19912469901144506,
                "z": 0.16403168439865112
            }
        },
        "name": "move_to_storage_D"
    },
    "id": "LazyPRMstar_move_to_storage_D_74",
    "joint_names": [
        "shoulder_pan_joint",
        "shoulder_lift_joint",
        "elbow_joint",
        "wrist_1_joint",
        "wrist_2_joint",
        "wrist_3_joint"
    ],
    "metrics": {
        "cart_traj_len": 4.006328539677119,
        "distance_elbow_joint": 4.212884871034273,
        "distance_shoulder_lift_joint": 1.2639783704592689,
        "distance_shoulder_pan_joint": 2.8139450612372237,
        "distance_wrist_1_joint": 2.2803611208670547,
        "distance_wrist_2_joint": 0.8825979004796664,
        "distance_wrist_3_joint": 3.1337596419322287,
        "smoothness": 3.0385051374939293e-16,
        "time": 5.054619941,
        "traj_len": 3.819362115067085,
        "weighted_distance": 4.900816796333128
    },
    "planner": "LazyPRMstar",
    "start": {
        "state": {
            "elbow_joint": -2.384821988534728,
            "shoulder_lift_joint": -2.2788054721415256,
            "shoulder_pan_joint": -0.1854694642142757,
            "wrist_1_joint": 1.4845938289331202,
            "wrist_2_joint": 0.17898776772866878,
            "wrist_3_joint": 0.037105688729662994
        }
    },
    "waypoints": [
        {
            "positions": [
                -0.1854694642142757,
                -2.2788054721415256,
                -2.384821988534728,
                1.4845938289331202,
                0.17898776772866878,
                0.037105688729662994
            ]
        },
        {
            "positions": [
                -0.06534295998431074,
                -2.240406054724135,
                -2.2961520203359145,
                1.4667532023889405,
                0.2212412897842281,
                -0.05147756739682162
            ]
        },
        {
            "positions": [
                0.054783544245654237,
                -2.2020066373067446,
                -2.2074820521371015,
                1.4489125758447605,
                0.26349481183978746,
                -0.14006082352330623
            ]
        },
        {
            "positions": [
                0.17491004847561922,
                -2.163607219889354,
                -2.118812083938288,
                1.4310719493005808,
                0.3057483338953468,
                -0.22864407964979086
            ]
        },
        {
            "positions": [
                0.29503655270558415,
                -2.1252078024719636,
                -2.0301421157394746,
                1.4132313227564008,
                0.3480018559509061,
                -0.3172273357762755
            ]
        },
        {
            "positions": [
                0.4151630569355492,
                -2.086808385054573,
                -1.9414721475406616,
                1.3953906962122211,
                0.3902553780064654,
                -0.40581059190276003
            ]
        },
        {
            "positions": [
                0.5352895611655142,
                -2.0484089676371826,
                -1.852802179341848,
                1.3775500696680412,
                0.4325089000620248,
                -0.4943938480292447
            ]
        },
        {
            "positions": [
                0.6554160653954791,
                -2.010009550219792,
                -1.7641322111430349,
                1.3597094431238614,
                0.4747624221175841,
                -0.5829771041557292
            ]
        },
        {
            "positions": [
                0.7755425696254441,
                -1.9716101328024016,
                -1.6754622429442216,
                1.3418688165796815,
                0.5170159441731434,
                -0.6715603602822139
            ]
        },
        {
            "positions": [
                0.8956690738554091,
                -1.933210715385011,
                -1.5867922747454082,
                1.3240281900355018,
                0.5592694662287028,
                -0.7601436164086984
            ]
        },
        {
            "positions": [
                1.015795578085374,
                -1.8948112979676206,
                -1.498122306546595,
                1.3061875634913218,
                0.6015229882842621,
                -0.8487268725351831
            ]
        },
        {
            "positions": [
                1.135922082315339,
                -1.85641188055023,
                -1.4094523383477817,
                1.288346936947142,
                0.6437765103398214,
                -0.9373101286616677
            ]
        },
        {
            "positions": [
                1.256048586545304,
                -1.8180124631328396,
                -1.3207823701489683,
                1.2705063104029621,
                0.6860300323953807,
                -1.0258933847881524
            ]
        },
        {
            "positions": [
                1.3761750907752688,
                -1.779613045715449,
                -1.2321124019501553,
                1.2526656838587824,
                0.72828355445094,
                -1.1144766409146367
            ]
        },
        {
            "positions": [
                1.4963015950052339,
                -1.7412136282980586,
                -1.1434424337513418,
                1.2348250573146027,
                0.7705370765064994,
                -1.2030598970411215
            ]
        },
        {
            "positions": [
                1.616428099235199,
                -1.702814210880668,
                -1.0547724655525286,
                1.2169844307704227,
                0.8127905985620587,
                -1.291643153167606
            ]
        },
        {
            "positions": [
                1.7365546034651638,
                -1.6644147934632776,
                -0.9661024973537151,
                1.1991438042262428,
                0.855044120617618,
                -1.3802264092940908
            ]
        },
        {
            "positions": [
                1.8566811076951288,
                -1.626015376045887,
                -0.8774325291549018,
                1.181303177682063,
                0.8972976426731774,
                -1.4688096654205753
            ]
        },
        {
            "positions": [
                1.8952708321615197,
                -1.5954559623277056,
                -0.7421577585721794,
                1.0824496542012632,
                0.9055120439499352,
                -1.5502018798096748
            ]
        },
        {
            "positions": [
                1.9338605566279108,
                -1.564896548609524,
                -0.606882987989457,
                0.9835961307204633,
                0.9137264452266931,
                -1.6315940941987743
            ]
        },
        {
            "positions": [
                1.9724502810943019,
                -1.5343371348913426,
                -0.47160821740673453,
                0.8847426072396634,
                0.921940846503451,
                -1.7129863085878738
            ]
        },
        {
            "positions": [
                2.0110400055606927,
                -1.503777721173161,
                -0.3363334468240121,
                0.7858890837588635,
                0.9301552477802089,
                -1.7943785229769733
            ]
        },
        {
            "positions": [
                2.0496297300270836,
                -1.4732183074549794,
                -0.2010586762412897,
                0.6870355602780637,
                0.9383696490569668,
                -1.8757707373660728
            ]
        },
        {
            "positions": [
                2.0882194544934745,
                -1.442658893736798,
                -0.06578390565856729,
                0.5881820367972638,
                0.9465840503337247,
                -1.9571629517551723
            ]
        },
        {
            "positions": [
                2.1268091789598658,
                -1.4120994800186164,
                0.06949086492415502,
                0.489328513316464,
                0.9547984516104826,
                -2.038555166144272
            ]
        },
        {
            "positions": [
                2.1653989034262566,
                -1.381540066300435,
                0.20476563550687754,
                0.390474989835664,
                0.9630128528872405,
                -2.1199473805333717
            ]
        },
        {
            "positions": [
                2.2039886278926475,
                -1.3509806525822534,
                0.34004040608959996,
                0.2916214663548642,
                0.9712272541639984,
                -2.201339594922471
            ]
        },
        {
            "positions": [
                2.242578352359039,
                -1.320421238864072,
                0.47531517667232237,
                0.1927679428740643,
                0.9794416554407562,
                -2.2827318093115707
            ]
        },
        {
            "positions": [
                2.2811680768254297,
                -1.2898618251458904,
                0.610589947255045,
                0.09391441939326439,
                0.9876560567175141,
                -2.36412402370067
            ]
        },
        {
            "positions": [
                2.3197578012918205,
                -1.259302411427709,
                0.7458647178377672,
                -0.004939104087535506,
                0.995870457994272,
                -2.4455162380897697
            ]
        },
        {
            "positions": [
                2.3583475257582114,
                -1.2287429977095274,
                0.8811394884204896,
                -0.1037926275683354,
                1.0040848592710299,
                -2.526908452478869
            ]
        },
        {
            "positions": [
                2.3969372502246022,
                -1.198183583991346,
                1.016414259003212,
                -0.20264615104913508,
                1.0122992605477878,
                -2.6083006668679687
            ]
        },
        {
            "positions": [
                2.4355269746909936,
                -1.1676241702731645,
                1.1516890295859343,
                -0.3014996745299352,
                1.0205136618245456,
                -2.689692881257068
            ]
        },
        {
            "positions": [
                2.4741166991573844,
                -1.1370647565549827,
                1.2869638001686567,
                -0.4003531980107351,
                1.0287280631013036,
                -2.7710850956461677
            ]
        },
        {
            "positions": [
                2.5127064236237753,
                -1.1065053428368015,
                1.4222385707513792,
                -0.4992067214915348,
                1.0369424643780614,
                -2.852477310035267
            ]
        },
        {
            "positions": [
                2.5512961480901666,
                -1.0759459291186197,
                1.5575133413341016,
                -0.5980602449723347,
                1.0451568656548194,
                -2.9338695244243667
            ]
        },
        {
            "positions": [
                2.5898858725565574,
                -1.0453865154004383,
                1.692788111916824,
                -0.6969137684531346,
                1.0533712669315771,
                -3.015261738813466
            ]
        },
        {
            "positions": [
                2.6284755970229483,
                -1.0148271016822568,
                1.8280628824995464,
                -0.7957672919339344,
                1.061585668208335,
                -3.0966539532025656
            ]
        }
    ]
}