{
    "goal": {
        "global_pose": {
            "orientation": {
                "w": -0.4816463035849501,
                "x": 0.5182115481033762,
                "y": 0.4908360881923453,
                "z": -0.5084816262002911
            },
            "position": {
                "x": -0.8240239810943604,
                "y": -0.300875300988555,
                "z": 0.16403168439865112
            }
        },
        "name": "move_to_storage_C"
    },
    "id": "LazyPRM_move_to_storage_C_31",
    "joint_names": [
        "shoulder_pan_joint",
        "shoulder_lift_joint",
        "elbow_joint",
        "wrist_1_joint",
        "wrist_2_joint",
        "wrist_3_joint"
    ],
    "metrics": {
        "cart_traj_len": 0.5771169153179597,
        "distance_elbow_joint": 0.2593707857747476,
        "distance_shoulder_lift_joint": 0.19063444178285238,
        "distance_shoulder_pan_joint": 0.49431294091660627,
        "distance_wrist_1_joint": 0.0776454569410302,
        "distance_wrist_2_joint": 1.0702370384473476,
        "distance_wrist_3_joint": 0.05817144498459781,
        "smoothness": 2.5376526478085547e-16,
        "time": 0.011807093000000001,
        "traj_len": 1.4664147124354632,
        "weighted_distance": 1.8478629533070778
    },
    "planner": "LazyPRM",
    "start": {
        "state": {
            "elbow_joint": 2.010868314990456,
            "shoulder_lift_joint": -1.1634956873337592,
            "shoulder_pan_joint": -2.4736205022346125,
            "wrist_1_joint": -0.8367026794202681,
            "wrist_2_joint": 0.6746043897044499,
            "wrist_3_joint": -3.1496632123970403
        }
    },
    "waypoints": [
        {
            "positions": [
                -2.4736205022346125,
                -1.1634956873337592,
                2.010868314990456,
                -0.8367026794202681,
                0.6746043897044499,
                -3.1496632123970403
            ]
        },
        {
            "positions": [
                -2.55600599238738,
                -1.1317232803699504,
                1.9676398506946646,
                -0.8237617699300964,
                0.8529772294456746,
                -3.139967971566274
            ]
        },
        {
            "positions": [
                -2.6383914825401478,
                -1.0999508734061418,
                1.9244113863988732,
                -0.8108208604399247,
                1.031350069186899,
                -3.130272730735508
            ]
        },
        {
            "positions": [
                -2.7207769726929154,
                -1.068178466442333,
                1.881182922103082,
                -0.797879950949753,
                1.2097229089281236,
                -3.1205774899047416
            ]
        },
        {
            "positions": [
                -2.8031624628456835,
                -1.0364060594785243,
                1.8379544578072908,
                -0.7849390414595813,
                1.3880957486693482,
                -3.110882249073975
            ]
        },
        {
            "positions": [
                -2.885547952998451,
                -1.0046336525147155,
                1.7947259935114994,
                -0.7719981319694096,
                1.5664685884105731,
                -3.1011870082432087
            ]
        },
        {
            "positions": [
                -2.9679334431512188,
                -0.9728612455509068,
                1.7514975292157082,
                -0.7590572224792379,
                1.7448414281517974,
                -3.0914917674124425
            ]
        }
    ]
}