{
    "goal": {
        "global_pose": {
            "orientation": {
                "w": -0.00223480608172531,
                "x": 0.0024358444001904467,
                "y": 0.7094548369677653,
                "z": -0.704743149386269
            },
            "position": {
                "x": 0.6205249238014221,
                "y": -0.6371506643295288,
                "z": 0.19426114857196808
            }
        },
        "name": "move_to_magneteinheit_B"
    },
    "id": "LazyPRM_move_to_magneteinheit_B_59",
    "joint_names": [
        "shoulder_pan_joint",
        "shoulder_lift_joint",
        "elbow_joint",
        "wrist_1_joint",
        "wrist_2_joint",
        "wrist_3_joint"
    ],
    "metrics": {
        "cart_traj_len": 4.274813094929583,
        "distance_elbow_joint": 5.921737927310344,
        "distance_shoulder_lift_joint": 1.0769828242255293,
        "distance_shoulder_pan_joint": 3.519482802143121,
        "distance_wrist_1_joint": 4.230167208546735,
        "distance_wrist_2_joint": 6.212099038705784,
        "distance_wrist_3_joint": 8.177672703432286,
        "smoothness": 0.584125771524406,
        "time": 0.224647974,
        "traj_len": 5.397975778415812,
        "weighted_distance": 7.479020935823145
    },
    "planner": "LazyPRM",
    "start": {
        "state": {
            "elbow_joint": 2.6216224122426386,
            "shoulder_lift_joint": -1.4174107377796124,
            "shoulder_pan_joint": 0.7066234856936794,
            "wrist_1_joint": 1.9546482284002225,
            "wrist_2_joint": -0.7096286983471962,
            "wrist_3_joint": 0.005740856962016249
        }
    },
    "waypoints": [
        {
            "positions": [
                0.7066234856936794,
                -1.4174107377796124,
                2.6216224122426386,
                1.9546482284002225,
                -0.7096286983471962,
                0.005740856962016249
            ]
        },
        {
            "positions": [
                0.6138185349726721,
                -1.4140476365761654,
                2.596206085872155,
                1.9990497238616773,
                -0.6719653404345713,
                0.005426950257157202
            ]
        },
        {
            "positions": [
                0.521013584251665,
                -1.4106845353727184,
                2.5707897595016718,
                2.0434512193231322,
                -0.6343019825219465,
                0.0051130435522981545
            ]
        },
        {
            "positions": [
                0.4989007837777565,
                -1.4185915374759552,
                2.3733239493051252,
                2.0379475867638015,
                -0.5718645053223023,
                0.09477584139191345
            ]
        },
        {
            "positions": [
                0.476787983303848,
                -1.426498539579192,
                2.175858139108579,
                2.032443954204471,
                -0.509427028122658,
                0.18443863923152876
            ]
        },
        {
            "positions": [
                0.45467518282993946,
                -1.4344055416824288,
                1.9783923289120326,
                2.0269403216451405,
                -0.44698955092301396,
                0.27410143707114404
            ]
        },
        {
            "positions": [
                0.43256238235603095,
                -1.4423125437856656,
                1.7809265187154864,
                2.0214366890858098,
                -0.38455207372336975,
                0.3637642349107593
            ]
        },
        {
            "positions": [
                0.41044958188212244,
                -1.4502195458889025,
                1.58346070851894,
                2.015933056526479,
                -0.3221145965237256,
                0.4534270327503746
            ]
        },
        {
            "positions": [
                0.3883367814082139,
                -1.4581265479921393,
                1.3859948983223938,
                2.0104294239671487,
                -0.2596771193240814,
                0.5430898305899899
            ]
        },
        {
            "positions": [
                0.3662239809343054,
                -1.466033550095376,
                1.1885290881258475,
                2.004925791407818,
                -0.19723964212443723,
                0.6327526284296052
            ]
        },
        {
            "positions": [
                0.3441111804603969,
                -1.4739405521986129,
                0.9910632779293009,
                1.9994221588484875,
                -0.13480216492479302,
                0.7224154262692205
            ]
        },
        {
            "positions": [
                0.3219983799864884,
                -1.4818475543018497,
                0.7935974677327546,
                1.9939185262891568,
                -0.07236468772514881,
                0.8120782241088358
            ]
        },
        {
            "positions": [
                0.2998855795125799,
                -1.4897545564050865,
                0.5961316575362083,
                1.9884148937298263,
                -0.009927210525504715,
                0.9017410219484511
            ]
        },
        {
            "positions": [
                0.27777277903867126,
                -1.4976615585083235,
                0.3986658473396618,
                1.9829112611704955,
                0.052510266674139605,
                0.9914038197880665
            ]
        },
        {
            "positions": [
                0.2556599785647628,
                -1.5055685606115603,
                0.20120003714311574,
                1.977407628611165,
                0.1149477438737837,
                1.0810666176276817
            ]
        },
        {
            "positions": [
                0.2335471780908543,
                -1.513475562714797,
                0.003734226946569219,
                1.9719039960518343,
                0.1773852210734279,
                1.1707294154672971
            ]
        },
        {
            "positions": [
                0.21143437761694578,
                -1.521382564818034,
                -0.19373158324997686,
                1.9664003634925038,
                0.239822698273072,
                1.2603922133069123
            ]
        },
        {
            "positions": [
                0.1893215771430372,
                -1.5292895669212707,
                -0.3911973934465234,
                1.9608967309331733,
                0.30226017547271633,
                1.3500550111465277
            ]
        },
        {
            "positions": [
                0.16720877666912876,
                -1.5371965690245075,
                -0.5886632036430699,
                1.9553930983738426,
                0.36469765267236043,
                1.4397178089861429
            ]
        },
        {
            "positions": [
                0.1450959761952202,
                -1.5451035711277443,
                -0.7861290138396164,
                1.949889465814512,
                0.42713512987200475,
                1.5293806068257583
            ]
        },
        {
            "positions": [
                0.12298317572131173,
                -1.5530105732309811,
                -0.9835948240361625,
                1.9443858332551813,
                0.48957260707164885,
                1.6190434046653734
            ]
        },
        {
            "positions": [
                0.10087037524740317,
                -1.560917575334218,
                -1.181060634232709,
                1.9388822006958508,
                0.5520100842712929,
                1.7087062025049888
            ]
        },
        {
            "positions": [
                0.07875757477349471,
                -1.5688245774374547,
                -1.378526444429255,
                1.93337856813652,
                0.614447561470937,
                1.798369000344604
            ]
        },
        {
            "positions": [
                0.05664477429958614,
                -1.5767315795406915,
                -1.5759922546258016,
                1.9278749355771896,
                0.6768850386705814,
                1.8880317981842194
            ]
        },
        {
            "positions": [
                0.13714328336979514,
                -1.5934349978135747,
                -1.6026422675447605,
                1.8551409865043418,
                0.603017940509483,
                1.7675482934759676
            ]
        },
        {
            "positions": [
                0.21764179244000412,
                -1.6101384160864578,
                -1.6292922804637193,
                1.782407037431494,
                0.5291508423483846,
                1.6470647887677161
            ]
        },
        {
            "positions": [
                0.29814030151021315,
                -1.626841834359341,
                -1.655942293382678,
                1.7096730883586462,
                0.4552837441872863,
                1.5265812840594644
            ]
        },
        {
            "positions": [
                0.3786388105804221,
                -1.643545252632224,
                -1.6825923063016368,
                1.6369391392857984,
                0.3814166460261879,
                1.4060977793512128
            ]
        },
        {
            "positions": [
                0.4591373196506311,
                -1.6602486709051074,
                -1.7092423192205957,
                1.5642051902129506,
                0.3075495478650896,
                1.285614274642961
            ]
        },
        {
            "positions": [
                0.5396358287208401,
                -1.6769520891779905,
                -1.7358923321395545,
                1.4914712411401028,
                0.2336824497039912,
                1.1651307699347093
            ]
        },
        {
            "positions": [
                0.6201343377910491,
                -1.6936555074508737,
                -1.7625423450585131,
                1.418737292067255,
                0.15981535154289284,
                1.0446472652264576
            ]
        },
        {
            "positions": [
                0.700632846861258,
                -1.7103589257237568,
                -1.789192357977472,
                1.3460033429944072,
                0.08594825338179446,
                0.924163760518206
            ]
        },
        {
            "positions": [
                0.7811313559314671,
                -1.72706234399664,
                -1.8158423708964309,
                1.2732693939215594,
                0.012081155220696194,
                0.8036802558099543
            ]
        },
        {
            "positions": [
                0.861629865001676,
                -1.743765762269523,
                -1.8424923838153897,
                1.2005354448487116,
                -0.06178594294040218,
                0.6831967511017025
            ]
        },
        {
            "positions": [
                0.9421283740718851,
                -1.7604691805424062,
                -1.8691423967343486,
                1.1278014957758637,
                -0.13565304110150056,
                0.562713246393451
            ]
        },
        {
            "positions": [
                1.0226268831420942,
                -1.7771725988152896,
                -1.8957924096533072,
                1.055067546703016,
                -0.20952013926259894,
                0.44222974168519924
            ]
        },
        {
            "positions": [
                1.103125392212303,
                -1.7938760170881727,
                -1.922442422572266,
                0.9823335976301683,
                -0.2833872374236972,
                0.3217462369769477
            ]
        },
        {
            "positions": [
                1.183623901282512,
                -1.8105794353610558,
                -1.949092435491225,
                0.9095996485573203,
                -0.3572543355847957,
                0.20126273226869595
            ]
        },
        {
            "positions": [
                1.2641224103527209,
                -1.827282853633939,
                -1.9757424484101835,
                0.8368656994844725,
                -0.43112143374589396,
                0.08077922756044442
            ]
        },
        {
            "positions": [
                1.34462091942293,
                -1.843986271906822,
                -2.0023924613291424,
                0.7641317504116247,
                -0.5049885319069924,
                -0.03970427714780733
            ]
        },
        {
            "positions": [
                1.425119428493139,
                -1.8606896901797052,
                -2.0290424742481012,
                0.6913978013387769,
                -0.5788556300680907,
                -0.16018778185605909
            ]
        },
        {
            "positions": [
                1.505617937563348,
                -1.8773931084525883,
                -2.05569248716706,
                0.6186638522659291,
                -0.652722728229189,
                -0.28067128656431084
            ]
        },
        {
            "positions": [
                1.586116446633557,
                -1.8940965267254715,
                -2.082342500086019,
                0.5459299031930813,
                -0.7265898263902875,
                -0.4011547912725626
            ]
        },
        {
            "positions": [
                1.666614955703766,
                -1.9107999449983546,
                -2.108992513004978,
                0.4731959541202335,
                -0.8004569245513857,
                -0.5216382959808143
            ]
        },
        {
            "positions": [
                1.747113464773975,
                -1.9275033632712377,
                -2.135642525923936,
                0.4004620050473857,
                -0.8743240227124842,
                -0.6421218006890661
            ]
        },
        {
            "positions": [
                1.827611973844184,
                -1.944206781544121,
                -2.1622925388428955,
                0.3277280559745379,
                -0.9481911208735825,
                -0.7626053053973174
            ]
        },
        {
            "positions": [
                1.9081104829143931,
                -1.9609101998170042,
                -2.188942551761854,
                0.2549941069016901,
                -1.022058219034681,
                -0.8830888101055692
            ]
        },
        {
            "positions": [
                1.9886089919846022,
                -1.9776136180898873,
                -2.215592564680813,
                0.18226015782884208,
                -1.0959253171957792,
                -1.003572314813821
            ]
        },
        {
            "positions": [
                2.0691075010548112,
                -1.9943170363627705,
                -2.2422425775997716,
                0.10952620875599428,
                -1.1697924153568777,
                -1.1240558195220727
            ]
        },
        {
            "positions": [
                2.14960601012502,
                -2.011020454635654,
                -2.2688925905187305,
                0.03679225968314692,
                -1.2436595135179758,
                -1.244539324230324
            ]
        },
        {
            "positions": [
                2.230104519195229,
                -2.0277238729085365,
                -2.2955426034376893,
                -0.03594168938970088,
                -1.3175266116790743,
                -1.3650228289385757
            ]
        },
        {
            "positions": [
                2.310603028265438,
                -2.04442729118142,
                -2.322192616356648,
                -0.1086756384625489,
                -1.3913937098401727,
                -1.4855063336468275
            ]
        },
        {
            "positions": [
                2.391101537335647,
                -2.061130709454303,
                -2.348842629275607,
                -0.1814095875353967,
                -1.465260808001271,
                -1.6059898383550792
            ]
        },
        {
            "positions": [
                2.4716000464058556,
                -2.0778341277271863,
                -2.3754926421945655,
                -0.2541435366082445,
                -1.5391279061623693,
                -1.7264733430633306
            ]
        },
        {
            "positions": [
                2.5520985554760647,
                -2.0945375460000695,
                -2.4021426551135243,
                -0.3268774856810923,
                -1.6129950043234675,
                -1.8469568477715823
            ]
        },
        {
            "positions": [
                2.6325970645462737,
                -2.1112409642729526,
                -2.428792668032483,
                -0.3996114347539401,
                -1.6868621024845663,
                -1.967440352479834
            ]
        },
        {
            "positions": [
                2.713095573616483,
                -2.1279443825458357,
                -2.455442680951442,
                -0.4723453838267879,
                -1.7607292006456645,
                -2.087923857188086
            ]
        },
        {
            "positions": [
                2.793594082686692,
                -2.144647800818719,
                -2.482092693870401,
                -0.5450793328996357,
                -1.8345962988067628,
                -2.208407361896337
            ]
        },
        {
            "positions": [
                2.786617515193959,
                -2.1623474511541207,
                -2.4390388611758054,
                -0.46335124524694854,
                -1.712801353321991,
                -2.092739626353701
            ]
        },
        {
            "positions": [
                2.7796409477012265,
                -2.1800471014895226,
                -2.39598502848121,
                -0.38162315759426135,
                -1.5910064078372192,
                -1.9770718908110647
            ]
        },
        {
            "positions": [
                2.772664380208494,
                -2.1977467518249245,
                -2.3529311957866144,
                -0.29989506994157417,
                -1.4692114623524477,
                -1.8614041552684286
            ]
        },
        {
            "positions": [
                2.765687812715761,
                -2.2154464021603264,
                -2.309877363092019,
                -0.21816698228888698,
                -1.347416516867676,
                -1.7457364197257923
            ]
        },
        {
            "positions": [
                2.758711245223028,
                -2.233146052495728,
                -2.266823530397423,
                -0.1364388946361998,
                -1.2256215713829042,
                -1.6300686841831562
            ]
        },
        {
            "positions": [
                2.7517346777302953,
                -2.2508457028311297,
                -2.2237696977028274,
                -0.054710806983512605,
                -1.1038266258981326,
                -1.51440094864052
            ]
        },
        {
            "positions": [
                2.7447581102375627,
                -2.2685453531665316,
                -2.180715865008232,
                0.027017280669174526,
                -0.9820316804133608,
                -1.3987332130978838
            ]
        },
        {
            "positions": [
                2.73778154274483,
                -2.2862450035019335,
                -2.1376620323136364,
                0.10874536832186177,
                -0.8602367349285891,
                -1.2830654775552475
            ]
        },
        {
            "positions": [
                2.7308049752520973,
                -2.3039446538373354,
                -2.094608199619041,
                0.1904734559745489,
                -0.7384417894438173,
                -1.1673977420126114
            ]
        },
        {
            "positions": [
                2.7238284077593646,
                -2.3216443041727373,
                -2.0515543669244454,
                0.27220154362723614,
                -0.6166468439590456,
                -1.0517300064699753
            ]
        },
        {
            "positions": [
                2.716851840266632,
                -2.339343954508139,
                -2.0085005342298494,
                0.3539296312799234,
                -0.4948518984742738,
                -0.936062270927339
            ]
        },
        {
            "positions": [
                2.7098752727738993,
                -2.357043604843541,
                -1.9654467015352541,
                0.4356577189326105,
                -0.37305695298950226,
                -0.8203945353847029
            ]
        },
        {
            "positions": [
                2.7028987052811666,
                -2.374743255178943,
                -1.9223928688406584,
                0.5173858065852979,
                -0.2512620075047305,
                -0.7047267998420665
            ]
        },
        {
            "positions": [
                2.695922137788434,
                -2.3924429055143444,
                -1.879339036146063,
                0.5991138942379848,
                -0.12946706201995872,
                -0.5890590642994304
            ]
        },
        {
            "positions": [
                2.688945570295701,
                -2.4101425558497462,
                -1.8362852034514674,
                0.6808419818906721,
                -0.007672116535186957,
                -0.4733913287567941
            ]
        },
        {
            "positions": [
                2.681969002802968,
                -2.427842206185148,
                -1.793231370756872,
                0.7625700695433593,
                0.11412282894958459,
                -0.35772359321415803
            ]
        },
        {
            "positions": [
                2.6749924353102355,
                -2.44554185652055,
                -1.7501775380622764,
                0.8442981571960466,
                0.23591777443435635,
                -0.2420558576715217
            ]
        },
        {
            "positions": [
                2.6680158678175028,
                -2.463241506855952,
                -1.7071237053676809,
                0.9260262448487335,
                0.3577127199191281,
                -0.12638812212888562
            ]
        },
        {
            "positions": [
                2.66103930032477,
                -2.4809411571913538,
                -1.6640698726730851,
                1.0077543325014209,
                0.4795076654039001,
                -0.01072038658624924
            ]
        }
    ]
}