{
    "goal": {
        "global_pose": {
            "orientation": {
                "w": 0.7031023480610252,
                "x": -0.7110244013736278,
                "y": 0.0077485991402295624,
                "z": 0.005598929693374583
            },
            "position": {
                "x": -0.8841497679147869,
                "y": 0.44412534475326537,
                "z": 0.3711530566215515
            }
        },
        "name": "move_to_auspresseinheit_D"
    },
    "id": "LazyPRMstar_move_to_auspresseinheit_D_105",
    "joint_names": [
        "shoulder_pan_joint",
        "shoulder_lift_joint",
        "elbow_joint",
        "wrist_1_joint",
        "wrist_2_joint",
        "wrist_3_joint"
    ],
    "metrics": {
        "cart_traj_len": 0.34397981313599024,
        "distance_elbow_joint": 0.6626144844888695,
        "distance_shoulder_lift_joint": 0.13454501231710836,
        "distance_shoulder_pan_joint": 0.13299708897475496,
        "distance_wrist_1_joint": 0.6089411693102393,
        "distance_wrist_2_joint": 1.4365889294530723,
        "distance_wrist_3_joint": 0.06343675710601415,
        "smoothness": 4.934324567253731e-16,
        "time": 5.000254418,
        "traj_len": 1.7433081889471118,
        "weighted_distance": 2.282876924984218
    },
    "planner": "LazyPRMstar",
    "start": {
        "state": {
            "elbow_joint": -1.8275523626775212,
            "shoulder_lift_joint": -2.126789852344167,
            "shoulder_pan_joint": -0.03513704404078235,
            "wrist_1_joint": -2.347782403156801,
            "wrist_2_joint": -1.6058999987535132,
            "wrist_3_joint": -3.0880379163319196
        }
    },
    "waypoints": [
        {
            "positions": [
                -0.03513704404078235,
                -2.126789852344167,
                -1.8275523626775212,
                -2.347782403156801,
                -1.6058999987535132,
                -3.0880379163319196
            ]
        },
        {
            "positions": [
                -0.05176168016262672,
                -2.1436079788838054,
                -1.7447255521164124,
                -2.4239000493205807,
                -1.426326382571879,
                -3.0801083216936678
            ]
        },
        {
            "positions": [
                -0.06838631628447109,
                -2.160426105423444,
                -1.6618987415553037,
                -2.5000176954843605,
                -1.2467527663902451,
                -3.072178727055416
            ]
        },
        {
            "positions": [
                -0.08501095240631545,
                -2.1772442319630825,
                -1.5790719309941952,
                -2.5761353416481407,
                -1.0671791502086112,
                -3.064249132417164
            ]
        },
        {
            "positions": [
                -0.10163558852815982,
                -2.194062358502721,
                -1.4962451204330864,
                -2.6522529878119205,
                -0.8876055340269771,
                -3.0563195377789123
            ]
        },
        {
            "positions": [
                -0.11826022465000419,
                -2.2108804850423596,
                -1.4134183098719777,
                -2.7283706339757003,
                -0.708031917845343,
                -3.048389943140661
            ]
        },
        {
            "positions": [
                -0.13488486077184858,
                -2.227698611581998,
                -1.3305914993108692,
                -2.8044882801394806,
                -0.528458301663709,
                -3.040460348502409
            ]
        },
        {
            "positions": [
                -0.15150949689369295,
                -2.2445167381216367,
                -1.2477646887497604,
                -2.8806059263032604,
                -0.3488846854820751,
                -3.0325307538641573
            ]
        },
        {
            "positions": [
                -0.1681341330155373,
                -2.261334864661275,
                -1.1649378781886517,
                -2.95672357246704,
                -0.16931106930044099,
                -3.0246011592259054
            ]
        }
    ]
}