{
    "goal": {
        "global_pose": {
            "orientation": {
                "w": -0.4816463035849501,
                "x": 0.5182115481033762,
                "y": 0.4908360881923453,
                "z": -0.5084816262002911
            },
            "position": {
                "x": -0.8240239810943604,
                "y": 0.19912469901144506,
                "z": 0.16403168439865112
            }
        },
        "name": "move_to_storage_D"
    },
    "id": "LazyPRM_move_to_storage_D_39",
    "joint_names": [
        "shoulder_pan_joint",
        "shoulder_lift_joint",
        "elbow_joint",
        "wrist_1_joint",
        "wrist_2_joint",
        "wrist_3_joint"
    ],
    "metrics": {
        "cart_traj_len": 0.5848961030525183,
        "distance_elbow_joint": 0.5599672751337588,
        "distance_shoulder_lift_joint": 0.15132961160455993,
        "distance_shoulder_pan_joint": 0.2908110618116179,
        "distance_wrist_1_joint": 3.8762908187740743,
        "distance_wrist_2_joint": 1.7760080464289607,
        "distance_wrist_3_joint": 3.155459409763629,
        "smoothness": 0.07303385253394813,
        "time": 0.682236094,
        "traj_len": 3.1320705968283344,
        "weighted_distance": 4.6661637249722485
    },
    "planner": "LazyPRM",
    "start": {
        "state": {
            "elbow_joint": -2.384821988534728,
            "shoulder_lift_joint": -2.2788054721415256,
            "shoulder_pan_joint": -0.1854694642142757,
            "wrist_1_joint": 1.4845938289331202,
            "wrist_2_joint": 0.17898776772866878,
            "wrist_3_joint": 0.037105688729662994
        }
    },
    "waypoints": [
        {
            "positions": [
                -0.1854694642142757,
                -2.2788054721415256,
                -2.384821988534728,
                1.4845938289331202,
                0.17898776772866878,
                0.037105688729662994
            ]
        },
        {
            "positions": [
                -0.07474991163384885,
                -2.242129689926292,
                -2.345431242761687,
                1.4935125429488512,
                0.04879195774712883,
                0.04706174940438464
            ]
        },
        {
            "positions": [
                0.03596964094657801,
                -2.205453907711058,
                -2.306040496988646,
                1.502431256964582,
                -0.08140385223441116,
                0.05701781007910628
            ]
        },
        {
            "positions": [
                0.03307914275279618,
                -2.2022048224121376,
                -2.2859910893391597,
                1.3416623656836397,
                -0.1445545366704895,
                -0.07362999360481809
            ]
        },
        {
            "positions": [
                0.030188644559014342,
                -2.1989557371132173,
                -2.265941681689673,
                1.1808934744026975,
                -0.20770522110656786,
                -0.20427779728874246
            ]
        },
        {
            "positions": [
                0.02729814636523251,
                -2.1957066518142967,
                -2.2458922740401865,
                1.0201245831217554,
                -0.27085590554264627,
                -0.3349256009726669
            ]
        },
        {
            "positions": [
                0.024407648171450677,
                -2.192457566515376,
                -2.2258428663906997,
                0.8593556918408132,
                -0.33400658997872457,
                -0.4655734046565912
            ]
        },
        {
            "positions": [
                0.021517149977668844,
                -2.1892084812164554,
                -2.2057934587412134,
                0.698586800559871,
                -0.397157274414803,
                -0.5962212083405156
            ]
        },
        {
            "positions": [
                0.018626651783887012,
                -2.185959395917535,
                -2.185744051091727,
                0.5378179092789288,
                -0.4603079588508813,
                -0.7268690120244401
            ]
        },
        {
            "positions": [
                0.01573615359010518,
                -2.1827103106186145,
                -2.16569464344224,
                0.3770490179979866,
                -0.5234586432869597,
                -0.8575168157083646
            ]
        },
        {
            "positions": [
                0.012845655396323347,
                -2.179461225319694,
                -2.145645235792754,
                0.21628012671704444,
                -0.586609327723038,
                -0.9881646193922886
            ]
        },
        {
            "positions": [
                0.009955157202541514,
                -2.1762121400207737,
                -2.1255958281432674,
                0.05551123543610226,
                -0.6497600121591164,
                -1.118812423076213
            ]
        },
        {
            "positions": [
                0.007064659008759681,
                -2.172963054721853,
                -2.1055464204937806,
                -0.10525765584483993,
                -0.7129106965951948,
                -1.2494602267601376
            ]
        },
        {
            "positions": [
                0.004174160814977852,
                -2.1697139694229324,
                -2.0854970128442942,
                -0.2660265471257821,
                -0.7760613810312731,
                -1.3801080304440618
            ]
        },
        {
            "positions": [
                0.0012836626211960162,
                -2.1664648841240117,
                -2.065447605194808,
                -0.4267954384067243,
                -0.8392120654673515,
                -1.5107558341279863
            ]
        },
        {
            "positions": [
                -0.001606835572585813,
                -2.1632157988250915,
                -2.045398197545321,
                -0.5875643296876663,
                -0.9023627499034298,
                -1.6414036378119106
            ]
        },
        {
            "positions": [
                -0.004497333766367649,
                -2.159966713526171,
                -2.0253487898958347,
                -0.7483332209686087,
                -0.9655134343395083,
                -1.7720514414958353
            ]
        },
        {
            "positions": [
                -0.007387831960149485,
                -2.15671762822725,
                -2.005299382246348,
                -0.9091021122495506,
                -1.0286641187755867,
                -1.9026992451797595
            ]
        },
        {
            "positions": [
                -0.010278330153931314,
                -2.15346854292833,
                -1.9852499745968615,
                -1.069871003530493,
                -1.0918148032116648,
                -2.033347048863684
            ]
        },
        {
            "positions": [
                -0.01316882834771315,
                -2.1502194576294094,
                -1.9652005669473749,
                -1.2306398948114354,
                -1.1549654876477433,
                -2.1639948525476087
            ]
        },
        {
            "positions": [
                -0.01605932654149498,
                -2.1469703723304887,
                -1.9451511592978883,
                -1.3914087860923774,
                -1.2181161720838216,
                -2.2946426562315327
            ]
        },
        {
            "positions": [
                -0.01894982473527681,
                -2.1437212870315685,
                -1.925101751648402,
                -1.5521776773733194,
                -1.2812668565199,
                -2.425290459915457
            ]
        },
        {
            "positions": [
                -0.021840322929058645,
                -2.140472201732648,
                -1.9050523439989153,
                -1.7129465686542618,
                -1.3444175409559784,
                -2.5559382635993817
            ]
        },
        {
            "positions": [
                -0.024730821122840474,
                -2.137223116433727,
                -1.8850029363494287,
                -1.8737154599352042,
                -1.4075682253920567,
                -2.686586067283306
            ]
        },
        {
            "positions": [
                -0.027621319316622303,
                -2.1339740311348065,
                -1.8649535286999424,
                -2.034484351216146,
                -1.470718909828135,
                -2.81723387096723
            ]
        },
        {
            "positions": [
                -0.030511817510404146,
                -2.1307249458358863,
                -1.8449041210504558,
                -2.1952532424970883,
                -1.5338695942642135,
                -2.9478816746511547
            ]
        },
        {
            "positions": [
                -0.03340231570418597,
                -2.1274758605369657,
                -1.8248547134009692,
                -2.3560221337780307,
                -1.5970202787002918,
                -3.078529478335079
            ]
        }
    ]
}