{
    "goal": {
        "global_pose": {
            "orientation": {
                "w": 0.005598929693374612,
                "x": 0.007748599140229565,
                "y": 0.7110244013736278,
                "z": -0.7031023480610252
            },
            "position": {
                "x": -0.8858502320852131,
                "y": -0.7141253447532654,
                "z": 0.3711530566215515
            }
        },
        "name": "move_to_auspresseinheit_C"
    },
    "id": "LazyPRM_move_to_auspresseinheit_C_31",
    "joint_names": [
        "shoulder_pan_joint",
        "shoulder_lift_joint",
        "elbow_joint",
        "wrist_1_joint",
        "wrist_2_joint",
        "wrist_3_joint"
    ],
    "metrics": {
        "cart_traj_len": 0.49280597785571434,
        "distance_elbow_joint": 1.004873389544728,
        "distance_shoulder_lift_joint": 0.3265486952069746,
        "distance_shoulder_pan_joint": 0.25623622653892,
        "distance_wrist_1_joint": 0.6997266104522862,
        "distance_wrist_2_joint": 1.305619917509182,
        "distance_wrist_3_joint": 0.08035146376738611,
        "smoothness": 3.2297397080004555e-16,
        "time": 0.012674961,
        "traj_len": 1.9166001938379003,
        "weighted_distance": 2.416486242153205
    },
    "planner": "LazyPRM",
    "start": {
        "state": {
            "elbow_joint": 1.7527959577737207,
            "shoulder_lift_joint": -0.9740617694225068,
            "shoulder_pan_joint": -2.967991417825858,
            "wrist_1_joint": -0.759517768980727,
            "wrist_2_joint": 1.7443932448377408,
            "wrist_3_joint": -3.0840537646736568
        }
    },
    "waypoints": [
        {
            "positions": [
                -2.967991417825858,
                -0.9740617694225068,
                1.7527959577737207,
                -0.759517768980727,
                1.7443932448377408,
                -3.0840537646736568
            ]
        },
        {
            "positions": [
                -2.942367795171966,
                -0.9414068999018093,
                1.652308618819248,
                -0.6895451079354984,
                1.6138312530868226,
                -3.0920889110503955
            ]
        },
        {
            "positions": [
                -2.916744172518074,
                -0.9087520303811119,
                1.551821279864775,
                -0.6195724468902697,
                1.4832692613359044,
                -3.100124057427134
            ]
        },
        {
            "positions": [
                -2.891120549864182,
                -0.8760971608604144,
                1.4513339409103023,
                -0.5495997858450411,
                1.3527072695849862,
                -3.1081592038038726
            ]
        },
        {
            "positions": [
                -2.86549692721029,
                -0.8434422913397169,
                1.3508466019558294,
                -0.47962712479981245,
                1.222145277834068,
                -3.1161943501806113
            ]
        },
        {
            "positions": [
                -2.8398733045563977,
                -0.8107874218190194,
                1.2503592630013567,
                -0.40965446375458386,
                1.0915832860831498,
                -3.1242294965573496
            ]
        },
        {
            "positions": [
                -2.814249681902506,
                -0.778132552298322,
                1.149871924046884,
                -0.3396818027093553,
                0.9610212943322316,
                -3.1322646429340884
            ]
        },
        {
            "positions": [
                -2.788626059248614,
                -0.7454776827776246,
                1.0493845850924113,
                -0.26970914166412663,
                0.8304593025813135,
                -3.140299789310827
            ]
        },
        {
            "positions": [
                -2.763002436594722,
                -0.7128228132569271,
                0.9488972461379382,
                -0.19973648061889793,
                0.6998973108303952,
                -3.148334935687566
            ]
        },
        {
            "positions": [
                -2.73737881394083,
                -0.6801679437362296,
                0.8484099071834655,
                -0.12976381957366934,
                0.569335319079477,
                -3.156370082064304
            ]
        },
        {
            "positions": [
                -2.711755191286938,
                -0.6475130742155322,
                0.7479225682289926,
                -0.05979115852844072,
                0.4387733273285589,
                -3.164405228441043
            ]
        }
    ]
}