{
    "goal": {
        "global_pose": {
            "orientation": {
                "w": 0.005598929693374612,
                "x": 0.007748599140229565,
                "y": 0.7110244013736278,
                "z": -0.7031023480610252
            },
            "position": {
                "x": -0.8858502320852131,
                "y": -0.7141253447532654,
                "z": 0.3711530566215515
            }
        },
        "name": "move_to_auspresseinheit_C"
    },
    "id": "LazyPRM_move_to_auspresseinheit_C_81",
    "joint_names": [
        "shoulder_pan_joint",
        "shoulder_lift_joint",
        "elbow_joint",
        "wrist_1_joint",
        "wrist_2_joint",
        "wrist_3_joint"
    ],
    "metrics": {
        "cart_traj_len": 0.492368231408733,
        "distance_elbow_joint": 0.9999140319641171,
        "distance_shoulder_lift_joint": 0.32505342128072734,
        "distance_shoulder_pan_joint": 0.2555830888492845,
        "distance_wrist_1_joint": 0.67939768395746,
        "distance_wrist_2_joint": 1.3096148145761954,
        "distance_wrist_3_joint": 0.0597595383085161,
        "smoothness": 9.68921913573737e-16,
        "time": 0.012570793,
        "traj_len": 1.9050781031066155,
        "weighted_distance": 2.3953818388906156
    },
    "planner": "LazyPRM",
    "start": {
        "state": {
            "elbow_joint": 1.7527959577737207,
            "shoulder_lift_joint": -0.9740617694225068,
            "shoulder_pan_joint": -2.967991417825858,
            "wrist_1_joint": -0.759517768980727,
            "wrist_2_joint": 1.7443932448377408,
            "wrist_3_joint": -3.0840537646736568
        }
    },
    "waypoints": [
        {
            "positions": [
                -2.967991417825858,
                -0.9740617694225068,
                1.7527959577737207,
                -0.759517768980727,
                1.7443932448377408,
                -3.0840537646736568
            ]
        },
        {
            "positions": [
                -2.9424331089409295,
                -0.941556427294434,
                1.652804554577309,
                -0.691578000584981,
                1.6134317633801212,
                -3.0900297185045082
            ]
        },
        {
            "positions": [
                -2.916874800056001,
                -0.9090510851663614,
                1.5528131513808971,
                -0.623638232189235,
                1.4824702819225017,
                -3.09600567233536
            ]
        },
        {
            "positions": [
                -2.8913164911710725,
                -0.8765457430382886,
                1.4528217481844856,
                -0.555698463793489,
                1.3515088004648823,
                -3.1019816261662116
            ]
        },
        {
            "positions": [
                -2.865758182286144,
                -0.8440404009102158,
                1.3528303449880739,
                -0.48775869539774297,
                1.2205473190072627,
                -3.107957579997063
            ]
        },
        {
            "positions": [
                -2.8401998734012155,
                -0.811535058782143,
                1.252838941791662,
                -0.41981892700199697,
                1.089585837549643,
                -3.1139335338279146
            ]
        },
        {
            "positions": [
                -2.8146415645162874,
                -0.7790297166540704,
                1.1528475385952506,
                -0.35187915860625096,
                0.9586243560920236,
                -3.1199094876587665
            ]
        },
        {
            "positions": [
                -2.789083255631359,
                -0.7465243745259976,
                1.0528561353988386,
                -0.283939390210505,
                0.8276628746344041,
                -3.125885441489618
            ]
        },
        {
            "positions": [
                -2.7635249467464305,
                -0.714019032397925,
                0.952864732202427,
                -0.21599962181475896,
                0.6967013931767845,
                -3.1318613953204695
            ]
        },
        {
            "positions": [
                -2.737966637861502,
                -0.6815136902698522,
                0.8528733290060152,
                -0.14805985341901295,
                0.5657399117191648,
                -3.1378373491513214
            ]
        },
        {
            "positions": [
                -2.7124083289765735,
                -0.6490083481417794,
                0.7528819258096036,
                -0.08012008502326695,
                0.43477843026154533,
                -3.143813302982173
            ]
        }
    ]
}