{
    "goal": {
        "global_pose": {
            "orientation": {
                "w": -0.4816463035849501,
                "x": 0.5182115481033762,
                "y": 0.4908360881923453,
                "z": -0.5084816262002911
            },
            "position": {
                "x": -0.8240239810943604,
                "y": -0.300875300988555,
                "z": 0.16403168439865112
            }
        },
        "name": "move_to_storage_C"
    },
    "id": "LazyPRM_move_to_storage_C_65",
    "joint_names": [
        "shoulder_pan_joint",
        "shoulder_lift_joint",
        "elbow_joint",
        "wrist_1_joint",
        "wrist_2_joint",
        "wrist_3_joint"
    ],
    "metrics": {
        "cart_traj_len": 0.5759889715795492,
        "distance_elbow_joint": 0.2553572540387343,
        "distance_shoulder_lift_joint": 0.18815857447199935,
        "distance_shoulder_pan_joint": 0.49402368289339194,
        "distance_wrist_1_joint": 0.06911031183179717,
        "distance_wrist_2_joint": 1.06909207645519,
        "distance_wrist_3_joint": 0.06207523951736249,
        "smoothness": 0.0,
        "time": 0.011826080999999999,
        "traj_len": 1.462127607019468,
        "weighted_distance": 1.8439549903753585
    },
    "planner": "LazyPRM",
    "start": {
        "state": {
            "elbow_joint": 2.010868314990456,
            "shoulder_lift_joint": -1.1634956873337592,
            "shoulder_pan_joint": -2.4736205022346125,
            "wrist_1_joint": -0.8367026794202681,
            "wrist_2_joint": 0.6746043897044499,
            "wrist_3_joint": -3.1496632123970403
        }
    },
    "waypoints": [
        {
            "positions": [
                -2.4736205022346125,
                -1.1634956873337592,
                2.010868314990456,
                -0.8367026794202681,
                0.6746043897044499,
                -3.1496632123970403
            ]
        },
        {
            "positions": [
                -2.5559577827168445,
                -1.1321359249217593,
                1.9683087726506667,
                -0.8251842941149685,
                0.8527864024469816,
                -3.1393173391441467
            ]
        },
        {
            "positions": [
                -2.6382950631990765,
                -1.1007761625097594,
                1.9257492303108776,
                -0.813665908809669,
                1.0309684151895133,
                -3.1289714658912526
            ]
        },
        {
            "positions": [
                -2.7206323436813085,
                -1.0694164000977595,
                1.8831896879710888,
                -0.8021475235043696,
                1.209150427932045,
                -3.118625592638359
            ]
        },
        {
            "positions": [
                -2.8029696241635405,
                -1.0380566376857596,
                1.8406301456312997,
                -0.79062913819907,
                1.3873324406745766,
                -3.1082797193854654
            ]
        },
        {
            "positions": [
                -2.8853069046457724,
                -1.0066968752737597,
                1.7980706032915106,
                -0.7791107528937704,
                1.5655144534171084,
                -3.0979338461325714
            ]
        },
        {
            "positions": [
                -2.9676441851280044,
                -0.9753371128617598,
                1.7555110609517215,
                -0.7675923675884709,
                1.7436964661596401,
                -3.087587972879678
            ]
        }
    ]
}