{
    "goal": {
        "global_pose": {
            "orientation": {
                "w": 0.7047431493862688,
                "x": -0.7094548369677653,
                "y": 0.0024358444001904,
                "z": -0.0022348060817251984
            },
            "position": {
                "x": -0.39052492380142206,
                "y": 0.3671506643295288,
                "z": 0.19426114857196808
            }
        },
        "name": "move_to_magneteinheit_D"
    },
    "id": "LazyPRMstar_move_to_magneteinheit_D_72",
    "joint_names": [
        "shoulder_pan_joint",
        "shoulder_lift_joint",
        "elbow_joint",
        "wrist_1_joint",
        "wrist_2_joint",
        "wrist_3_joint"
    ],
    "metrics": {
        "cart_traj_len": 4.4203075916911,
        "distance_elbow_joint": 3.130792267017013,
        "distance_shoulder_lift_joint": 1.6398377784982678,
        "distance_shoulder_pan_joint": 2.877580331442627,
        "distance_wrist_1_joint": 1.5691325584722462,
        "distance_wrist_2_joint": 0.25670143355044434,
        "distance_wrist_3_joint": 3.1885264508297886,
        "smoothness": 0.08426897145708964,
        "time": 5.044040363,
        "traj_len": 3.558450620678947,
        "weighted_distance": 4.567872339885678
    },
    "planner": "LazyPRMstar",
    "start": {
        "state": {
            "elbow_joint": 0.749534889911806,
            "shoulder_lift_joint": -0.6476975780787326,
            "shoulder_pan_joint": -2.711696901376241,
            "wrist_1_joint": -0.07506478083263063,
            "wrist_2_joint": 0.43296659715538205,
            "wrist_3_joint": -3.14703540197715
        }
    },
    "waypoints": [
        {
            "positions": [
                -2.711696901376241,
                -0.6476975780787326,
                0.749534889911806,
                -0.07506478083263063,
                0.43296659715538205,
                -3.14703540197715
            ]
        },
        {
            "positions": [
                -2.5712689334078576,
                -0.7463587777590186,
                0.699912603803237,
                -0.04397102828437342,
                0.43316719811246174,
                -3.083293678220462
            ]
        },
        {
            "positions": [
                -2.430840965439474,
                -0.8450199774393046,
                0.650290317694668,
                -0.01287727573611621,
                0.4333677990695415,
                -3.0195519544637737
            ]
        },
        {
            "positions": [
                -2.308246215062194,
                -0.9205581385902172,
                0.5858001534311501,
                0.01981490005086685,
                0.43234569508522197,
                -2.9437834371230025
            ]
        },
        {
            "positions": [
                -2.1856514646849137,
                -0.9960962997411298,
                0.5213099891676322,
                0.05250707583784991,
                0.4313235911009025,
                -2.868014919782231
            ]
        },
        {
            "positions": [
                -2.0630567143076335,
                -1.0716344608920423,
                0.4568198249041142,
                0.08519925162483297,
                0.430301487116583,
                -2.7922464024414593
            ]
        },
        {
            "positions": [
                -1.9404619639303533,
                -1.147172622042955,
                0.3923296606405963,
                0.11789142741181602,
                0.42927938313226355,
                -2.716477885100688
            ]
        },
        {
            "positions": [
                -1.8178672135530731,
                -1.2227107831938675,
                0.32783949637707843,
                0.15058360319879907,
                0.42825727914794404,
                -2.640709367759917
            ]
        },
        {
            "positions": [
                -1.695272463175793,
                -1.2982489443447802,
                0.26334933211356043,
                0.18327577898578215,
                0.4272351751636245,
                -2.5649408504191453
            ]
        },
        {
            "positions": [
                -1.5726777127985128,
                -1.3737871054956927,
                0.19885916785004254,
                0.2159679547727652,
                0.42621307117930507,
                -2.4891723330783737
            ]
        },
        {
            "positions": [
                -1.4500829624212326,
                -1.4493252666466052,
                0.1343690035865246,
                0.24866013055974825,
                0.42519096719498556,
                -2.4134038157376025
            ]
        },
        {
            "positions": [
                -1.3274882120439524,
                -1.524863427797518,
                0.06987883932300665,
                0.2813523063467313,
                0.4241688632106661,
                -2.3376352983968314
            ]
        },
        {
            "positions": [
                -1.2048934616666722,
                -1.6004015889484307,
                0.005388675059488812,
                0.3140444821337144,
                0.4231467592263466,
                -2.2618667810560598
            ]
        },
        {
            "positions": [
                -1.082298711289392,
                -1.6759397500993432,
                -0.059101489204029134,
                0.3467366579206974,
                0.4221246552420271,
                -2.1860982637152886
            ]
        },
        {
            "positions": [
                -0.9597039609121119,
                -1.7514779112502559,
                -0.12359165346754719,
                0.37942883370768055,
                0.4211025512577076,
                -2.110329746374517
            ]
        },
        {
            "positions": [
                -0.8371092105348317,
                -1.8270160724011684,
                -0.18808181773106514,
                0.41212100949466357,
                0.4200804472733881,
                -2.034561229033746
            ]
        },
        {
            "positions": [
                -0.7145144601575515,
                -1.902554233552081,
                -0.252571981994583,
                0.44481318528164665,
                0.41905834328906866,
                -1.9587927116929742
            ]
        },
        {
            "positions": [
                -0.5919197097802713,
                -1.9780923947029936,
                -0.3170621462581009,
                0.4775053610686297,
                0.41803623930474915,
                -1.8830241943522028
            ]
        },
        {
            "positions": [
                -0.5511390331496161,
                -1.986834432076486,
                -0.44584302687198385,
                0.5375267920973085,
                0.408576731328189,
                -1.7610414976889999
            ]
        },
        {
            "positions": [
                -0.510358356518961,
                -1.9955764694499782,
                -0.5746239074858668,
                0.5975482231259873,
                0.39911722335162886,
                -1.639058801025797
            ]
        },
        {
            "positions": [
                -0.4695776798883058,
                -2.0043185068234703,
                -0.7034047880997496,
                0.6575696541546662,
                0.3896577153750687,
                -1.517076104362594
            ]
        },
        {
            "positions": [
                -0.42879700325765063,
                -2.013060544196963,
                -0.8321856687136325,
                0.717591085183345,
                0.3801982073985086,
                -1.395093407699391
            ]
        },
        {
            "positions": [
                -0.3880163266269955,
                -2.021802581570455,
                -0.9609665493275155,
                0.7776125162120239,
                0.3707386994219485,
                -1.2731107110361881
            ]
        },
        {
            "positions": [
                -0.34723564999634027,
                -2.0305446189439476,
                -1.0897474299413983,
                0.8376339472407026,
                0.36127919144538834,
                -1.1511280143729852
            ]
        },
        {
            "positions": [
                -0.3064549733656851,
                -2.0392866563174397,
                -1.218528310555281,
                0.8976553782693815,
                0.3518196834688282,
                -1.0291453177097822
            ]
        },
        {
            "positions": [
                -0.26567429673502996,
                -2.0480286936909318,
                -1.3473091911691641,
                0.9576768092980603,
                0.34236017549226805,
                -0.9071626210465792
            ]
        },
        {
            "positions": [
                -0.22489362010437475,
                -2.0567707310644243,
                -1.4760900717830472,
                1.0176982403267392,
                0.3329006675157079,
                -0.7851799243833761
            ]
        },
        {
            "positions": [
                -0.1841129434737196,
                -2.0655127684379164,
                -1.60487095239693,
                1.077719671355418,
                0.32344115953914776,
                -0.6631972277201732
            ]
        },
        {
            "positions": [
                -0.14333226684306444,
                -2.074254805811409,
                -1.7336518330108128,
                1.1377411023840969,
                0.3139816515625876,
                -0.5412145310569703
            ]
        },
        {
            "positions": [
                -0.10255159021240928,
                -2.082996843184901,
                -1.8624327136246956,
                1.1977625334127757,
                0.3045221435860275,
                -0.41923183439376754
            ]
        },
        {
            "positions": [
                -0.06177091358175402,
                -2.0917388805583936,
                -1.9912135942385787,
                1.2577839644414546,
                0.2950626356094674,
                -0.2972491377305644
            ]
        },
        {
            "positions": [
                -0.020990236951098876,
                -2.1004809179318857,
                -2.1199944748524615,
                1.3178053954701334,
                0.28560312763290724,
                -0.17526644106736142
            ]
        },
        {
            "positions": [
                -0.015632596459207983,
                -2.098134292240017,
                -2.2017140497251444,
                1.3587310275240019,
                0.2782324515751412,
                -0.10164976912670798
            ]
        },
        {
            "positions": [
                -0.010274955967317088,
                -2.0957876665481487,
                -2.2834336245978273,
                1.3996566595778703,
                0.27086177551737517,
                -0.02803309718605454
            ]
        },
        {
            "positions": [
                -0.07290044645397856,
                -2.1632541468937276,
                -2.332311704715818,
                1.4416740800008605,
                0.23561787351175567,
                0.0014771551130358315
            ]
        },
        {
            "positions": [
                -0.13552593694064002,
                -2.230720627239306,
                -2.3811897848338086,
                1.4836915004238507,
                0.2003739715061362,
                0.030987407412126203
            ]
        },
        {
            "positions": [
                -0.18643334200101858,
                -2.2781488538095265,
                -2.3811221925624113,
                1.4940677776396158,
                0.17706756743325658,
                0.020483765971613357
            ]
        }
    ]
}