{
    "goal": {
        "global_pose": {
            "orientation": {
                "w": 0.5084816217422485,
                "x": -0.49083608388900757,
                "y": 0.5182115435600281,
                "z": -0.4816462993621826
            },
            "position": {
                "x": 0.5540239810943604,
                "y": 0.030875300988554955,
                "z": 0.16403168439865112
            }
        },
        "name": "move_to_storage_A"
    },
    "id": "LazyPRM_move_to_storage_A_10",
    "joint_names": [
        "shoulder_pan_joint",
        "shoulder_lift_joint",
        "elbow_joint",
        "wrist_1_joint",
        "wrist_2_joint",
        "wrist_3_joint"
    ],
    "metrics": {
        "cart_traj_len": 0.3537448276082151,
        "distance_elbow_joint": 0.44950648791090964,
        "distance_shoulder_lift_joint": 0.23358995795855653,
        "distance_shoulder_pan_joint": 0.46403876876353206,
        "distance_wrist_1_joint": 0.24293000274604537,
        "distance_wrist_2_joint": 1.093187360878506,
        "distance_wrist_3_joint": 0.09396652394883231,
        "smoothness": 1.1102230263833737e-15,
        "time": 0.022026159,
        "traj_len": 1.6053719513578097,
        "weighted_distance": 2.025159132939582
    },
    "planner": "LazyPRM",
    "start": {
        "state": {
            "elbow_joint": 1.971548259319323,
            "shoulder_lift_joint": -1.1394851275133948,
            "shoulder_pan_joint": 0.1228115487234821,
            "wrist_1_joint": -0.7804723859257726,
            "wrist_2_joint": 0.12958671773740124,
            "wrist_3_joint": -3.192489227718131
        }
    },
    "waypoints": [
        {
            "positions": [
                0.1228115487234821,
                -1.1394851275133948,
                1.971548259319323,
                -0.7804723859257726,
                0.12958671773740124,
                -3.192489227718131
            ]
        },
        {
            "positions": [
                0.05652029604297752,
                -1.1728551215074743,
                2.0357634718780244,
                -0.8151766720323506,
                0.28575634072004497,
                -3.1790654385825836
            ]
        },
        {
            "positions": [
                -0.009770956637527056,
                -1.2062251155015538,
                2.0999786844367256,
                -0.8498809581389284,
                0.44192596370268866,
                -3.165641649447036
            ]
        },
        {
            "positions": [
                -0.07606220931803162,
                -1.2395951094956332,
                2.1641938969954273,
                -0.8845852442455063,
                0.5980955866853324,
                -3.1522178603114885
            ]
        },
        {
            "positions": [
                -0.1423534619985362,
                -1.272965103489713,
                2.2284091095541285,
                -0.9192895303520843,
                0.7542652096679762,
                -3.1387940711759414
            ]
        },
        {
            "positions": [
                -0.20864471467904083,
                -1.3063350974837924,
                2.2926243221128297,
                -0.9539938164586621,
                0.91043483265062,
                -3.125370282040394
            ]
        },
        {
            "positions": [
                -0.27493596735954534,
                -1.3397050914778719,
                2.3568395346715314,
                -0.98869810256524,
                1.0666044556332634,
                -3.1119464929048464
            ]
        },
        {
            "positions": [
                -0.34122722004004996,
                -1.3730750854719513,
                2.4210547472302326,
                -1.023402388671818,
                1.2227740786159074,
                -3.098522703769299
            ]
        }
    ]
}{
    "goal": {
        "global_pose": {
            "orientation": {
                "w": 0.5084816217422485,
                "x": -0.49083608388900757,
                "y": 0.5182115435600281,
                "z": -0.4816462993621826
            },
            "position": {
                "x": 0.5540239810943604,
                "y": 0.030875300988554955,
                "z": 0.16403168439865112
            }
        },
        "name": "move_to_storage_A"
    },
    "id": "LazyPRM_move_to_storage_A_10",
    "joint_names": [
        "shoulder_pan_joint",
        "shoulder_lift_joint",
        "elbow_joint",
        "wrist_1_joint",
        "wrist_2_joint",
        "wrist_3_joint"
    ],
    "metrics": {
        "cart_traj_len": 0.35347833017489777,
        "distance_elbow_joint": 0.45092232845128066,
        "distance_shoulder_lift_joint": 0.234578963860818,
        "distance_shoulder_pan_joint": 0.4597238753801365,
        "distance_wrist_1_joint": 0.24463946215498722,
        "distance_wrist_2_joint": 1.1107290746587397,
        "distance_wrist_3_joint": 0.10570838547154349,
        "smoothness": 8.881784197001252e-16,
        "time": 0.022064676999999998,
        "traj_len": 1.6144045620529899,
        "weighted_distance": 2.0428135983819766
    },
    "planner": "LazyPRM",
    "start": {
        "state": {
            "elbow_joint": 1.97154746011099,
            "shoulder_lift_joint": -1.13948474672311,
            "shoulder_pan_joint": 0.12281154466712228,
            "wrist_1_joint": -0.7804688027058302,
            "wrist_2_joint": 0.12958655903071145,
            "wrist_3_joint": 3.0906928834467795
        }
    },
    "waypoints": [
        {
            "positions": [
                0.12281154466712228,
                -1.13948474672311,
                1.97154746011099,
                -0.7804688027058302,
                0.12958655903071145,
                3.0906928834467795
            ]
        },
        {
            "positions": [
                0.057136705327102785,
                -1.1729960272746554,
                2.03596493560403,
                -0.8154172972993998,
                0.28826214112481713,
                3.1057940813712857
            ]
        },
        {
            "positions": [
                -0.008538134012916712,
                -1.2065073078262007,
                2.10038241109707,
                -0.8503657918929693,
                0.4469377232189228,
                3.120895279295792
            ]
        },
        {
            "positions": [
                -0.07421297335293621,
                -1.2400185883777461,
                2.16479988659011,
                -0.885314286486539,
                0.6056133053130285,
                3.135996477220298
            ]
        },
        {
            "positions": [
                -0.1398878126929557,
                -1.2735298689292915,
                2.2292173620831504,
                -0.9202627810801086,
                0.7642888874071342,
                3.1510976751448045
            ]
        },
        {
            "positions": [
                -0.2055626520329752,
                -1.3070411494808372,
                2.2936348375761906,
                -0.9552112756736781,
                0.9229644695012399,
                3.1661988730693107
            ]
        },
        {
            "positions": [
                -0.2712374913729947,
                -1.3405524300323826,
                2.3580523130692304,
                -0.9901597702672478,
                1.0816400515953455,
                3.181300070993817
            ]
        },
        {
            "positions": [
                -0.3369123307130142,
                -1.374063710583928,
                2.4224697885622706,
                -1.0251082648608174,
                1.2403156336894512,
                3.196401268918323
            ]
        }
    ]
}{
    "goal": {
        "global_pose": {
            "orientation": {
                "w": 0.5084816217422485,
                "x": -0.49083608388900757,
                "y": 0.5182115435600281,
                "z": -0.4816462993621826
            },
            "position": {
                "x": 0.5540239810943604,
                "y": 0.030875300988554955,
                "z": 0.16403168439865112
            }
        },
        "name": "move_to_storage_A"
    },
    "id": "LazyPRM_move_to_storage_A_10",
    "joint_names": [
        "shoulder_pan_joint",
        "shoulder_lift_joint",
        "elbow_joint",
        "wrist_1_joint",
        "wrist_2_joint",
        "wrist_3_joint"
    ],
    "metrics": {
        "cart_traj_len": 0.35381779350296916,
        "distance_elbow_joint": 0.4546889790295503,
        "distance_shoulder_lift_joint": 0.23260547241482277,
        "distance_shoulder_pan_joint": 0.4593467070991253,
        "distance_wrist_1_joint": 0.2634542434770253,
        "distance_wrist_2_joint": 1.1143089173402532,
        "distance_wrist_3_joint": 0.10812051527112132,
        "smoothness": 6.661338200497456e-16,
        "time": 0.021918839,
        "traj_len": 1.6225057271491827,
        "weighted_distance": 2.055852384290132
    },
    "planner": "LazyPRM",
    "start": {
        "state": {
            "elbow_joint": 1.9715472970024885,
            "shoulder_lift_joint": -1.1394870060712896,
            "shoulder_pan_joint": 0.12281152778156021,
            "wrist_1_joint": -0.780463741449964,
            "wrist_2_joint": 0.12958659822042276,
            "wrist_3_joint": 3.090690232415272
        }
    },
    "waypoints": [
        {
            "positions": [
                0.12281152778156021,
                -1.1394870060712896,
                1.9715472970024885,
                -0.780463741449964,
                0.12958659822042276,
                3.090690232415272
            ]
        },
        {
            "positions": [
                0.05719056962454232,
                -1.1727163592734071,
                2.0365028654352813,
                -0.8181000619466819,
                0.2887735864118875,
                3.1061360203111463
            ]
        },
        {
            "positions": [
                -0.008430388532475575,
                -1.2059457124755246,
                2.1014584338680744,
                -0.8557363824433998,
                0.44796057460335226,
                3.121581808207021
            ]
        },
        {
            "positions": [
                -0.07405134668949348,
                -1.2391750656776421,
                2.166414002300867,
                -0.8933727029401177,
                0.607147562794817,
                3.1370275961028953
            ]
        },
        {
            "positions": [
                -0.13967230484651136,
                -1.2724044188797596,
                2.2313695707336603,
                -0.9310090234368356,
                0.7663345509862817,
                3.1524733839987698
            ]
        },
        {
            "positions": [
                -0.20529326300352926,
                -1.3056337720818774,
                2.296325139166453,
                -0.9686453439335535,
                0.9255215391777465,
                3.1679191718946442
            ]
        },
        {
            "positions": [
                -0.2709142211605472,
                -1.3388631252839949,
                2.3612807075992457,
                -1.0062816644302714,
                1.0847085273692112,
                3.1833649597905187
            ]
        },
        {
            "positions": [
                -0.33653517931756505,
                -1.3720924784861124,
                2.426236276032039,
                -1.0439179849269893,
                1.243895515560676,
                3.198810747686393
            ]
        }
    ]
}