{
    "goal": {
        "global_pose": {
            "orientation": {
                "w": 0.7031023480610252,
                "x": -0.7110244013736278,
                "y": 0.0077485991402295624,
                "z": 0.005598929693374583
            },
            "position": {
                "x": -0.8841497679147869,
                "y": 0.44412534475326537,
                "z": 0.3711530566215515
            }
        },
        "name": "move_to_auspresseinheit_D"
    },
    "id": "LazyPRM_move_to_auspresseinheit_D_21",
    "joint_names": [
        "shoulder_pan_joint",
        "shoulder_lift_joint",
        "elbow_joint",
        "wrist_1_joint",
        "wrist_2_joint",
        "wrist_3_joint"
    ],
    "metrics": {
        "cart_traj_len": 0.34364773972356144,
        "distance_elbow_joint": 0.6608163981132387,
        "distance_shoulder_lift_joint": 0.13428133662897457,
        "distance_shoulder_pan_joint": 0.13347067120266076,
        "distance_wrist_1_joint": 0.6055646944178874,
        "distance_wrist_2_joint": 1.433430636077527,
        "distance_wrist_3_joint": 0.06230779303599743,
        "smoothness": 2.9605947279411004e-16,
        "time": 0.012468775,
        "traj_len": 1.7406526159680127,
        "weighted_distance": 2.278921333886647
    },
    "planner": "LazyPRM",
    "start": {
        "state": {
            "elbow_joint": -1.8275523626775212,
            "shoulder_lift_joint": -2.126789852344167,
            "shoulder_pan_joint": -0.03513704404078235,
            "wrist_1_joint": -2.347782403156801,
            "wrist_2_joint": -1.6058999987535132,
            "wrist_3_joint": -3.0880379163319196
        }
    },
    "waypoints": [
        {
            "positions": [
                -0.03513704404078235,
                -2.126789852344167,
                -1.8275523626775212,
                -2.347782403156801,
                -1.6058999987535132,
                -3.0880379163319196
            ]
        },
        {
            "positions": [
                -0.051820877941114944,
                -2.1435750194227885,
                -1.7449503129133663,
                -2.4234779899590366,
                -1.4267211692438222,
                -3.08024944220242
            ]
        },
        {
            "positions": [
                -0.06850471184144755,
                -2.1603601865014106,
                -1.6623482631492115,
                -2.499173576761273,
                -1.2475423397341314,
                -3.07246096807292
            ]
        },
        {
            "positions": [
                -0.08518854574178014,
                -2.1771453535800322,
                -1.5797462133850566,
                -2.5748691635635086,
                -1.0683635102244406,
                -3.0646724939434207
            ]
        },
        {
            "positions": [
                -0.10187237964211274,
                -2.193930520658654,
                -1.4971441636209017,
                -2.650564750365745,
                -0.8891846807147497,
                -3.056884019813921
            ]
        },
        {
            "positions": [
                -0.11855621354244533,
                -2.210715687737276,
                -1.414542113856747,
                -2.7262603371679806,
                -0.7100058512050588,
                -3.049095545684421
            ]
        },
        {
            "positions": [
                -0.13524004744277793,
                -2.2275008548158977,
                -1.3319400640925922,
                -2.8019559239702163,
                -0.5308270216953679,
                -3.0413070715549217
            ]
        },
        {
            "positions": [
                -0.15192388134311052,
                -2.2442860218945198,
                -1.2493380143284374,
                -2.877651510772452,
                -0.3516481921856771,
                -3.033518597425422
            ]
        },
        {
            "positions": [
                -0.16860771524344312,
                -2.2610711889731414,
                -1.1667359645642825,
                -2.9533470975746883,
                -0.1724693626759861,
                -3.025730123295922
            ]
        }
    ]
}