{
    "goal": {
        "global_pose": {
            "orientation": {
                "w": 0.7047431493862688,
                "x": -0.7094548369677653,
                "y": 0.0024358444001904,
                "z": -0.0022348060817251984
            },
            "position": {
                "x": -0.39052492380142206,
                "y": 0.3671506643295288,
                "z": 0.19426114857196808
            }
        },
        "name": "move_to_magneteinheit_D"
    },
    "id": "LazyPRMstar_move_to_magneteinheit_D_149",
    "joint_names": [
        "shoulder_pan_joint",
        "shoulder_lift_joint",
        "elbow_joint",
        "wrist_1_joint",
        "wrist_2_joint",
        "wrist_3_joint"
    ],
    "metrics": {
        "cart_traj_len": 4.801669312231478,
        "distance_elbow_joint": 3.1084492051223744,
        "distance_shoulder_lift_joint": 1.097544565328174,
        "distance_shoulder_pan_joint": 4.129034482742402,
        "distance_wrist_1_joint": 2.1235900057115926,
        "distance_wrist_2_joint": 0.6872223408775736,
        "distance_wrist_3_joint": 6.345882396538798,
        "smoothness": 0.2024464746346162,
        "time": 5.0471607359999995,
        "traj_len": 4.18231072450636,
        "weighted_distance": 5.744066515630515
    },
    "planner": "LazyPRMstar",
    "start": {
        "state": {
            "elbow_joint": 0.749534889911806,
            "shoulder_lift_joint": -0.6476975780787326,
            "shoulder_pan_joint": -2.711696901376241,
            "wrist_1_joint": -0.07506478083263063,
            "wrist_2_joint": 0.43296659715538205,
            "wrist_3_joint": -3.14703540197715
        }
    },
    "waypoints": [
        {
            "positions": [
                -2.711696901376241,
                -0.6476975780787326,
                0.749534889911806,
                -0.07506478083263063,
                0.43296659715538205,
                -3.14703540197715
            ]
        },
        {
            "positions": [
                -2.7224038519148595,
                -0.7484118627470397,
                0.6609026642696378,
                -0.17535181894063323,
                0.40872748241553825,
                -3.1628261923648235
            ]
        },
        {
            "positions": [
                -2.7259728354277324,
                -0.7819832909698088,
                0.6313585890555818,
                -0.20878083164330075,
                0.400647777502257,
                -3.1680897891607147
            ]
        },
        {
            "positions": [
                -2.6332412021491765,
                -0.8304176225423687,
                0.5594054511923081,
                -0.27425526677024425,
                0.37839917328424555,
                -3.074611962214756
            ]
        },
        {
            "positions": [
                -2.54050956887062,
                -0.8788519541149288,
                0.48745231332903427,
                -0.33972970189718776,
                0.35615056906623405,
                -2.9811341352687966
            ]
        },
        {
            "positions": [
                -2.447777935592064,
                -0.9272862856874887,
                0.4154991754657605,
                -0.4052041370241312,
                0.3339019648482226,
                -2.8876563083228377
            ]
        },
        {
            "positions": [
                -2.355046302313508,
                -0.9757206172600488,
                0.3435460376024867,
                -0.4706785721510747,
                0.3116533606302111,
                -2.7941784813768784
            ]
        },
        {
            "positions": [
                -2.262314669034952,
                -1.0241549488326087,
                0.27159289973921286,
                -0.5361530072780183,
                0.28940475641219965,
                -2.7007006544309196
            ]
        },
        {
            "positions": [
                -2.169583035756396,
                -1.0725892804051687,
                0.19963976187593913,
                -0.6016274424049617,
                0.2671561521941882,
                -2.6072228274849607
            ]
        },
        {
            "positions": [
                -2.07685140247784,
                -1.1210236119777286,
                0.12768662401266528,
                -0.6671018775319053,
                0.2449075479761767,
                -2.5137450005390014
            ]
        },
        {
            "positions": [
                -1.9841197691992838,
                -1.1694579435502888,
                0.05573348614939155,
                -0.7325763126588487,
                0.22265894375816525,
                -2.420267173593042
            ]
        },
        {
            "positions": [
                -1.8913881359207276,
                -1.2178922751228487,
                -0.016219651713882233,
                -0.7980507477857922,
                0.20041033954015378,
                -2.3267893466470833
            ]
        },
        {
            "positions": [
                -1.8054460635411211,
                -1.2285973905505652,
                -0.08403346957963219,
                -0.8429750441545947,
                0.18597713160259954,
                -2.1671064907225834
            ]
        },
        {
            "positions": [
                -1.7195039911615146,
                -1.2393025059782816,
                -0.15184728744538215,
                -0.8878993405233971,
                0.1715439236650453,
                -2.007423634798084
            ]
        },
        {
            "positions": [
                -1.633561918781908,
                -1.250007621405998,
                -0.2196611053111321,
                -0.9328236368921996,
                0.15711071572749108,
                -1.8477407788735845
            ]
        },
        {
            "positions": [
                -1.5476198464023014,
                -1.2607127368337145,
                -0.28747492317688206,
                -0.9777479332610021,
                0.14267750778993682,
                -1.6880579229490849
            ]
        },
        {
            "positions": [
                -1.4616777740226947,
                -1.2714178522614308,
                -0.35528874104263203,
                -1.0226722296298045,
                0.12824429985238261,
                -1.528375067024585
            ]
        },
        {
            "positions": [
                -1.3757357016430882,
                -1.2821229676891472,
                -0.42310255890838194,
                -1.0675965259986069,
                0.11381109191482837,
                -1.3686922111000857
            ]
        },
        {
            "positions": [
                -1.2897936292634817,
                -1.2928280831168637,
                -0.4909163767741319,
                -1.1125208223674095,
                0.09937788397727412,
                -1.2090093551755858
            ]
        },
        {
            "positions": [
                -1.2038515568838752,
                -1.3035331985445802,
                -0.5587301946398819,
                -1.1574451187362118,
                0.08494467603971989,
                -1.0493264992510862
            ]
        },
        {
            "positions": [
                -1.1179094845042687,
                -1.3142383139722966,
                -0.6265440125056319,
                -1.2023694151050144,
                0.07051146810216566,
                -0.8896436433265866
            ]
        },
        {
            "positions": [
                -1.031967412124662,
                -1.324943429400013,
                -0.6943578303713818,
                -1.2472937114738167,
                0.056078260164611426,
                -0.7299607874020868
            ]
        },
        {
            "positions": [
                -0.9460253397450555,
                -1.3356485448277295,
                -0.7621716482371317,
                -1.2922180078426193,
                0.041645052227057194,
                -0.5702779314775874
            ]
        },
        {
            "positions": [
                -0.860083267365449,
                -1.346353660255446,
                -0.8299854661028816,
                -1.3371423042114219,
                0.027211844289502962,
                -0.41059507555308783
            ]
        },
        {
            "positions": [
                -0.7741411949858423,
                -1.3570587756831625,
                -0.8977992839686317,
                -1.3820666005802242,
                0.01277863635194873,
                -0.25091221962858823
            ]
        },
        {
            "positions": [
                -0.6881991226062358,
                -1.367763891110879,
                -0.9656131018343816,
                -1.4269908969490266,
                -0.0016545715856055299,
                -0.0912293637040884
            ]
        },
        {
            "positions": [
                -0.6022570502266291,
                -1.3784690065385954,
                -1.0334269197001316,
                -1.4719151933178292,
                -0.016087779523159762,
                0.06845349222041142
            ]
        },
        {
            "positions": [
                -0.5163149778470228,
                -1.3891741219663116,
                -1.1012407375658815,
                -1.5168394896866315,
                -0.030520987460713994,
                0.2281363481449108
            ]
        },
        {
            "positions": [
                -0.43037290546741636,
                -1.399879237394028,
                -1.1690545554316312,
                -1.561763786055434,
                -0.0449541953982682,
                0.3878192040694102
            ]
        },
        {
            "positions": [
                -0.34443083308780964,
                -1.4105843528217445,
                -1.2368683732973813,
                -1.6066880824242364,
                -0.05938740333582246,
                0.54750205999391
            ]
        },
        {
            "positions": [
                -0.25848876070820315,
                -1.421289468249461,
                -1.3046821911631312,
                -1.6516123787930388,
                -0.07382061127337666,
                0.7071849159184094
            ]
        },
        {
            "positions": [
                -0.17254668832859643,
                -1.4319945836771775,
                -1.3724960090288814,
                -1.6965366751618416,
                -0.08825381921093092,
                0.8668677718429096
            ]
        },
        {
            "positions": [
                -0.08660461594898994,
                -1.442699699104894,
                -1.4403098268946313,
                -1.741460971530644,
                -0.10268702714848518,
                1.026550627767409
            ]
        },
        {
            "positions": [
                -0.0006625435693834447,
                -1.4534048145326104,
                -1.508123644760381,
                -1.7863852678994463,
                -0.11712023508603939,
                1.1862334836919084
            ]
        },
        {
            "positions": [
                0.08527952881022327,
                -1.4641099299603269,
                -1.575937462626131,
                -1.8313095642682486,
                -0.13155344302359365,
                1.3459163396164082
            ]
        },
        {
            "positions": [
                0.17122160118982954,
                -1.474815045388043,
                -1.643751280491881,
                -1.8762338606370514,
                -0.14598665096114785,
                1.5055991955409076
            ]
        },
        {
            "positions": [
                0.25716367356943604,
                -1.4855201608157595,
                -1.711565098357631,
                -1.9211581570058538,
                -0.16041985889870206,
                1.665282051465407
            ]
        },
        {
            "positions": [
                0.343105745949043,
                -1.496225276243476,
                -1.779378916223381,
                -1.9660824533746561,
                -0.17485306683625632,
                1.8249649073899068
            ]
        },
        {
            "positions": [
                0.42904781832864947,
                -1.5069303916711925,
                -1.8471927340891308,
                -2.0110067497434585,
                -0.18928627477381058,
                1.9846477633144062
            ]
        },
        {
            "positions": [
                0.514989890708256,
                -1.517635507098909,
                -1.915006551954881,
                -2.0559310461122613,
                -0.20371948271136484,
                2.1443306192389064
            ]
        },
        {
            "positions": [
                0.6009319630878627,
                -1.5283406225266254,
                -1.9828203698206308,
                -2.1008553424810636,
                -0.218152690648919,
                2.304013475163406
            ]
        },
        {
            "positions": [
                0.46962300472531004,
                -1.5644908760066722,
                -2.045502694052287,
                -2.1171552498249238,
                -0.21213551513670684,
                2.4461342660019247
            ]
        },
        {
            "positions": [
                0.3383140463627574,
                -1.600641129486719,
                -2.1081850182839434,
                -2.1334551571687834,
                -0.20611833962449463,
                2.5882550568404437
            ]
        },
        {
            "positions": [
                0.20700508800020473,
                -1.636791382966766,
                -2.1708673425155993,
                -2.149755064512643,
                -0.20010116411228246,
                2.730375847678963
            ]
        },
        {
            "positions": [
                0.07569612963765215,
                -1.6729416364468128,
                -2.2335496667472556,
                -2.166054971856503,
                -0.19408398860007028,
                2.8724966385174815
            ]
        },
        {
            "positions": [
                -0.05561282872490059,
                -1.7090918899268597,
                -2.296231990978912,
                -2.1823548792003633,
                -0.18806681308785808,
                3.014617429356001
            ]
        },
        {
            "positions": [
                -0.18692178708745325,
                -1.7452421434069065,
                -2.3589143152105683,
                -2.198654786544223,
                -0.1820496375756459,
                3.1567382201945198
            ]
        }
    ]
}