{
    "goal": {
        "global_pose": {
            "orientation": {
                "w": 0.7047431493862688,
                "x": -0.7094548369677653,
                "y": 0.0024358444001904,
                "z": -0.0022348060817251984
            },
            "position": {
                "x": -0.39052492380142206,
                "y": 0.3671506643295288,
                "z": 0.19426114857196808
            }
        },
        "name": "move_to_magneteinheit_D"
    },
    "id": "LazyPRMstar_move_to_magneteinheit_D_36",
    "joint_names": [
        "shoulder_pan_joint",
        "shoulder_lift_joint",
        "elbow_joint",
        "wrist_1_joint",
        "wrist_2_joint",
        "wrist_3_joint"
    ],
    "metrics": {
        "cart_traj_len": 7.167229731945947,
        "distance_elbow_joint": 3.5037843732439446,
        "distance_shoulder_lift_joint": 3.3130573258046336,
        "distance_shoulder_pan_joint": 8.755741907701259,
        "distance_wrist_1_joint": 5.0846715396708655,
        "distance_wrist_2_joint": 5.797526422198062,
        "distance_wrist_3_joint": 5.8535559584336845,
        "smoothness": 0.5920265536082533,
        "time": 5.091366587,
        "traj_len": 5.684042357957272,
        "weighted_distance": 7.409294663177375
    },
    "planner": "LazyPRMstar",
    "start": {
        "state": {
            "elbow_joint": 0.749534889911806,
            "shoulder_lift_joint": -0.6476975780787326,
            "shoulder_pan_joint": -2.711696901376241,
            "wrist_1_joint": -0.07506478083263063,
            "wrist_2_joint": 0.43296659715538205,
            "wrist_3_joint": -3.14703540197715
        }
    },
    "waypoints": [
        {
            "positions": [
                -2.711696901376241,
                -0.6476975780787326,
                0.749534889911806,
                -0.07506478083263063,
                0.43296659715538205,
                -3.14703540197715
            ]
        },
        {
            "positions": [
                -2.707757354833915,
                -0.670071118281634,
                0.7676333580690688,
                0.02016217677456733,
                0.4964049929073703,
                -3.045272884514749
            ]
        },
        {
            "positions": [
                -2.7038178082915896,
                -0.6924446584845354,
                0.7857318262263318,
                0.11538913438176529,
                0.5598433886593586,
                -2.9435103670523484
            ]
        },
        {
            "positions": [
                -2.699878261749264,
                -0.7148181986874367,
                0.8038302943835947,
                0.21061609198896325,
                0.6232817844113467,
                -2.841747849589947
            ]
        },
        {
            "positions": [
                -2.695938715206938,
                -0.7371917388903381,
                0.8219287625408576,
                0.3058430495961612,
                0.686720180163335,
                -2.7399853321275462
            ]
        },
        {
            "positions": [
                -2.5942963875865876,
                -0.7782900096314944,
                0.7176503731387978,
                0.33834330862217116,
                0.673619746511879,
                -2.6372419280842068
            ]
        },
        {
            "positions": [
                -2.492654059966237,
                -0.8193882803726509,
                0.613371983736738,
                0.3708435676481811,
                0.660519312860423,
                -2.534498524040867
            ]
        },
        {
            "positions": [
                -2.3910117323458864,
                -0.8604865511138072,
                0.5090935943346782,
                0.403343826674191,
                0.6474188792089669,
                -2.4317551199975274
            ]
        },
        {
            "positions": [
                -2.2893694047255355,
                -0.9015848218549636,
                0.40481520493261836,
                0.43584408570020094,
                0.6343184455575108,
                -2.3290117159541874
            ]
        },
        {
            "positions": [
                -2.187727077105185,
                -0.94268309259612,
                0.30053681553055855,
                0.4683443447262109,
                0.6212180119060549,
                -2.226268311910848
            ]
        },
        {
            "positions": [
                -2.0860847494848347,
                -0.9837813633372764,
                0.19625842612849875,
                0.5008446037522208,
                0.6081175782545988,
                -2.123524907867508
            ]
        },
        {
            "positions": [
                -1.9844424218644838,
                -1.0248796340784327,
                0.09198003672643884,
                0.5333448627782308,
                0.5950171446031427,
                -2.0207815038241685
            ]
        },
        {
            "positions": [
                -1.8828000942441334,
                -1.0659779048195892,
                -0.01229835267562085,
                0.5658451218042407,
                0.5819167109516866,
                -1.9180380997808288
            ]
        },
        {
            "positions": [
                -1.7811577666237828,
                -1.1070761755607457,
                -0.11657674207768065,
                0.5983453808302506,
                0.5688162773002307,
                -1.8152946957374891
            ]
        },
        {
            "positions": [
                -1.6795154390034321,
                -1.1481744463019021,
                -0.22085513147974045,
                0.6308456398562606,
                0.5557158436487746,
                -1.7125512916941494
            ]
        },
        {
            "positions": [
                -1.5778731113830815,
                -1.1892727170430584,
                -0.32513352088180025,
                0.6633458988822705,
                0.5426154099973185,
                -1.6098078876508097
            ]
        },
        {
            "positions": [
                -1.476230783762731,
                -1.2303709877842146,
                -0.42941191028386005,
                0.6958461579082804,
                0.5295149763458625,
                -1.5070644836074703
            ]
        },
        {
            "positions": [
                -1.3745884561423802,
                -1.271469258525371,
                -0.5336902996859199,
                0.7283464169342904,
                0.5164145426944065,
                -1.4043210795641303
            ]
        },
        {
            "positions": [
                -1.2729461285220296,
                -1.3125675292665275,
                -0.6379686890879799,
                0.7608466759603004,
                0.5033141090429504,
                -1.3015776755207906
            ]
        },
        {
            "positions": [
                -1.1713038009016792,
                -1.353665800007684,
                -0.7422470784900395,
                0.7933469349863103,
                0.49021367539149435,
                -1.1988342714774511
            ]
        },
        {
            "positions": [
                -1.0696614732813285,
                -1.3947640707488405,
                -0.8465254678920993,
                0.8258471940123202,
                0.47711324174003833,
                -1.0960908674341114
            ]
        },
        {
            "positions": [
                -0.9680191456609779,
                -1.435862341489997,
                -0.9508038572941593,
                0.8583474530383302,
                0.46401280808858225,
                -0.9933474633907715
            ]
        },
        {
            "positions": [
                -0.8663768180406275,
                -1.476960612231153,
                -1.0550822466962189,
                0.8908477120643401,
                0.45091237443712623,
                -0.890604059347432
            ]
        },
        {
            "positions": [
                -0.7647344904202769,
                -1.5180588829723094,
                -1.1593606360982787,
                0.92334797109035,
                0.4378119407856702,
                -0.7878606553040923
            ]
        },
        {
            "positions": [
                -0.6630921627999262,
                -1.5591571537134659,
                -1.2636390255003385,
                0.95584823011636,
                0.42471150713421413,
                -0.6851172512607526
            ]
        },
        {
            "positions": [
                -0.5614498351795758,
                -1.6002554244546223,
                -1.3679174149023983,
                0.98834848914237,
                0.4116110734827581,
                -0.5823738472174131
            ]
        },
        {
            "positions": [
                -0.45980750755922495,
                -1.6413536951957788,
                -1.472195804304458,
                1.02084874816838,
                0.398510639831302,
                -0.4796304431740732
            ]
        },
        {
            "positions": [
                -0.35816517993887453,
                -1.6824519659369352,
                -1.5764741937065179,
                1.0533490071943898,
                0.385410206179846,
                -0.37688703913073374
            ]
        },
        {
            "positions": [
                -0.2565228523185241,
                -1.7235502366780913,
                -1.6807525831085777,
                1.0858492662203998,
                0.37230977252839,
                -0.27414363508739426
            ]
        },
        {
            "positions": [
                -0.1548805246981734,
                -1.7646485074192477,
                -1.7850309725106377,
                1.1183495252464097,
                0.3592093388769339,
                -0.17140023104405452
            ]
        },
        {
            "positions": [
                -0.036233481541136855,
                -1.7322781857831084,
                -1.812570971330202,
                1.0498427246997388,
                0.45586982761299444,
                -0.22182145449249285
            ]
        },
        {
            "positions": [
                0.08241356161589969,
                -1.6999078641469691,
                -1.8401109701497667,
                0.9813359241530678,
                0.552530316349055,
                -0.27224267794093115
            ]
        },
        {
            "positions": [
                0.20106060477293622,
                -1.6675375425108299,
                -1.867650968969331,
                0.9128291236063969,
                0.6491908050851156,
                -0.3226639013893695
            ]
        },
        {
            "positions": [
                0.31970764792997275,
                -1.6351672208746906,
                -1.8951909677888956,
                0.8443223230597259,
                0.7458512938211761,
                -0.3730851248378078
            ]
        },
        {
            "positions": [
                0.4383546910870094,
                -1.6027968992385513,
                -1.92273096660846,
                0.775815522513055,
                0.8425117825572367,
                -0.4235063482862461
            ]
        },
        {
            "positions": [
                0.5570017342440459,
                -1.570426577602412,
                -1.9502709654280244,
                0.7073087219663841,
                0.9391722712932973,
                -0.47392757173468447
            ]
        },
        {
            "positions": [
                0.6756487774010824,
                -1.5380562559662727,
                -1.977810964247589,
                0.6388019214197131,
                1.0358327600293578,
                -0.5243487951831227
            ]
        },
        {
            "positions": [
                0.794295820558119,
                -1.5056859343301334,
                -2.0053509630671535,
                0.5702951208730421,
                1.1324932487654182,
                -0.5747700186315611
            ]
        },
        {
            "positions": [
                0.9129428637151554,
                -1.4733156126939941,
                -2.032890961886718,
                0.5017883203263712,
                1.2291537375014787,
                -0.6251912420799994
            ]
        },
        {
            "positions": [
                1.031589906872192,
                -1.4409452910578548,
                -2.0604309607062823,
                0.4332815197797003,
                1.3258142262375394,
                -0.6756124655284378
            ]
        },
        {
            "positions": [
                1.1502369500292284,
                -1.4085749694217156,
                -2.0879709595258467,
                0.3647747192330294,
                1.4224747149736,
                -0.7260336889768761
            ]
        },
        {
            "positions": [
                1.268883993186265,
                -1.3762046477855763,
                -2.115510958345411,
                0.2962679186863584,
                1.5191352037096606,
                -0.7764549124253145
            ]
        },
        {
            "positions": [
                1.3875310363433015,
                -1.343834326149437,
                -2.1430509571649754,
                0.22776111813968747,
                1.615795692445721,
                -0.8268761358737527
            ]
        },
        {
            "positions": [
                1.506178079500338,
                -1.3114640045132977,
                -2.17059095598454,
                0.15925431759301656,
                1.7124561811817816,
                -0.877297359322191
            ]
        },
        {
            "positions": [
                1.6248251226573744,
                -1.2790936828771584,
                -2.1981309548041046,
                0.09074751704634565,
                1.809116669917842,
                -0.9277185827706294
            ]
        },
        {
            "positions": [
                1.7434721658144112,
                -1.2467233612410191,
                -2.225670953623669,
                0.022240716499674518,
                1.9057771586539027,
                -0.9781398062190677
            ]
        },
        {
            "positions": [
                1.8621192089714478,
                -1.2143530396048798,
                -2.2532109524432333,
                -0.04626608404699639,
                2.002437647389963,
                -1.028561029667506
            ]
        },
        {
            "positions": [
                1.9807662521284841,
                -1.1819827179687405,
                -2.2807509512627977,
                -0.1147728845936673,
                2.0990981361260235,
                -1.0789822531159443
            ]
        },
        {
            "positions": [
                2.0994132952855207,
                -1.1496123963326013,
                -2.3082909500823625,
                -0.1832796851403382,
                2.195758624862084,
                -1.1294034765643826
            ]
        },
        {
            "positions": [
                2.218060338442558,
                -1.117242074696462,
                -2.335830948901927,
                -0.2517864856870091,
                2.292419113598145,
                -1.179824700012821
            ]
        },
        {
            "positions": [
                2.3367073815995942,
                -1.0848717530603227,
                -2.3633709477214913,
                -0.32029328623368003,
                2.3890796023342054,
                -1.2302459234612593
            ]
        },
        {
            "positions": [
                2.4553544247566306,
                -1.0525014314241834,
                -2.3909109465410556,
                -0.38880008678035094,
                2.485740091070266,
                -1.2806671469096977
            ]
        },
        {
            "positions": [
                2.574001467913667,
                -1.020131109788044,
                -2.41845094536062,
                -0.45730688732702185,
                2.5824005798063263,
                -1.331088370358136
            ]
        },
        {
            "positions": [
                2.6926485110707037,
                -0.9877607881519048,
                -2.445990944180185,
                -0.525813687873693,
                2.6790610685423872,
                -1.3815095938065745
            ]
        },
        {
            "positions": [
                2.8112955542277405,
                -0.9553904665157655,
                -2.473530942999749,
                -0.5943204884203639,
                2.7757215572784477,
                -1.4319308172550127
            ]
        },
        {
            "positions": [
                2.929942597384777,
                -0.9230201448796262,
                -2.5010709418193136,
                -0.6628272889670348,
                2.872382046014508,
                -1.482352040703451
            ]
        },
        {
            "positions": [
                2.8187246542083395,
                -0.9713943603769297,
                -2.4971998419530737,
                -0.5874672739892355,
                2.7758431427728603,
                -1.4263888629234085
            ]
        },
        {
            "positions": [
                2.707506711031902,
                -1.0197685758742332,
                -2.4933287420868333,
                -0.5121072590114363,
                2.6793042395312128,
                -1.3704256851433658
            ]
        },
        {
            "positions": [
                2.596288767855465,
                -1.0681427913715367,
                -2.4894576422205934,
                -0.43674724403363696,
                2.582765336289565,
                -1.3144625073633234
            ]
        },
        {
            "positions": [
                2.4850708246790276,
                -1.1165170068688401,
                -2.485586542354353,
                -0.3613872290558377,
                2.4862264330479174,
                -1.258499329583281
            ]
        },
        {
            "positions": [
                2.3738528815025903,
                -1.1648912223661436,
                -2.481715442488113,
                -0.2860272140780384,
                2.3896875298062694,
                -1.2025361518032383
            ]
        },
        {
            "positions": [
                2.2626349383261535,
                -1.213265437863447,
                -2.4778443426218733,
                -0.21066719910023912,
                2.293148626564622,
                -1.1465729740231958
            ]
        },
        {
            "positions": [
                2.151416995149716,
                -1.2616396533607506,
                -2.473973242755633,
                -0.1353071841224398,
                2.196609723322974,
                -1.0906097962431534
            ]
        },
        {
            "positions": [
                2.040199051973279,
                -1.310013868858054,
                -2.470102142889393,
                -0.0599471691446406,
                2.100070820081326,
                -1.034646618463111
            ]
        },
        {
            "positions": [
                1.9289811087968416,
                -1.3583880843553577,
                -2.4662310430231527,
                0.015412845833158828,
                2.0035319168396786,
                -0.9786834406830683
            ]
        },
        {
            "positions": [
                1.8177631656204043,
                -1.4067622998526612,
                -2.4623599431569128,
                0.09077286081095803,
                1.9069930135980306,
                -0.9227202629030258
            ]
        },
        {
            "positions": [
                1.706545222443967,
                -1.4551365153499645,
                -2.458488843290673,
                0.16613287578875735,
                1.810454110356383,
                -0.8667570851229833
            ]
        },
        {
            "positions": [
                1.59532727926753,
                -1.503510730847268,
                -2.4546177434244325,
                0.24149289076655656,
                1.7139152071147352,
                -0.8107939073429408
            ]
        },
        {
            "positions": [
                1.4841093360910926,
                -1.5518849463445716,
                -2.4507466435581926,
                0.316852905744356,
                1.6173763038730873,
                -0.7548307295628982
            ]
        },
        {
            "positions": [
                1.3728913929146553,
                -1.600259161841875,
                -2.4468755436919523,
                0.3922129207221552,
                1.5208374006314396,
                -0.6988675517828558
            ]
        },
        {
            "positions": [
                1.261673449738218,
                -1.6486333773391786,
                -2.4430044438257124,
                0.4675729356999545,
                1.4242984973897919,
                -0.6429043740028133
            ]
        },
        {
            "positions": [
                1.150455506561781,
                -1.697007592836482,
                -2.4391333439594725,
                0.5429329506777536,
                1.3277595941481442,
                -0.5869411962227707
            ]
        },
        {
            "positions": [
                1.0392375633853437,
                -1.7453818083337855,
                -2.435262244093232,
                0.6182929656555529,
                1.2312206909064964,
                -0.5309780184427283
            ]
        },
        {
            "positions": [
                0.9280196202089064,
                -1.7937560238310892,
                -2.431391144226992,
                0.6936529806333525,
                1.1346817876648485,
                -0.47501484066268573
            ]
        },
        {
            "positions": [
                0.8168016770324691,
                -1.8421302393283927,
                -2.4275200443607523,
                0.7690129956111518,
                1.0381428844232008,
                -0.41905166288264306
            ]
        },
        {
            "positions": [
                0.7055837338560318,
                -1.8905044548256962,
                -2.423648944494512,
                0.8443730105889509,
                0.9416039811815531,
                -0.3630884851026006
            ]
        },
        {
            "positions": [
                0.5943657906795945,
                -1.9388786703229997,
                -2.419777844628272,
                0.9197330255667502,
                0.8450650779399052,
                -0.30712530732255816
            ]
        },
        {
            "positions": [
                0.4831478475031572,
                -1.987252885820303,
                -2.4159067447620317,
                0.9950930405445495,
                0.7485261746982577,
                -0.2511621295425157
            ]
        },
        {
            "positions": [
                0.37192990432672035,
                -2.0356271013176066,
                -2.412035644895792,
                1.0704530555223486,
                0.6519872714566097,
                -0.19519895176247326
            ]
        },
        {
            "positions": [
                0.26071196115028306,
                -2.08400131681491,
                -2.408164545029552,
                1.145813070500148,
                0.5554483682149622,
                -0.1392357739824306
            ]
        },
        {
            "positions": [
                0.14949401797384532,
                -2.1323755323122136,
                -2.4042934451633116,
                1.2211730854779475,
                0.4589094649733143,
                -0.08327259620238814
            ]
        },
        {
            "positions": [
                0.038276074797408466,
                -2.180749747809517,
                -2.4004223452970717,
                1.2965331004557468,
                0.3623705617316664,
                -0.027309418422345466
            ]
        },
        {
            "positions": [
                -0.07294186837902883,
                -2.2291239633068205,
                -2.3965512454308313,
                1.3718931154335459,
                0.2658316584900189,
                0.028653759357696984
            ]
        },
        {
            "positions": [
                -0.18415981155546596,
                -2.277498178804124,
                -2.3926801455645914,
                1.4472531304113454,
                0.1692927552483708,
                0.08461693713773955
            ]
        }
    ]
}