{
    "goal": {
        "global_pose": {
            "orientation": {
                "w": 0.7047431468963623,
                "x": -0.7094548344612122,
                "y": 0.0024358443915843964,
                "z": -0.0022348060738295317
            },
            "position": {
                "x": 0.6094750761985779,
                "y": 0.3671506643295288,
                "z": 0.19426114857196808
            }
        },
        "name": "move_to_magneteinheit_A"
    },
    "id": "LazyPRM_move_to_magneteinheit_A_33",
    "joint_names": [
        "shoulder_pan_joint",
        "shoulder_lift_joint",
        "elbow_joint",
        "wrist_1_joint",
        "wrist_2_joint",
        "wrist_3_joint"
    ],
    "metrics": {
        "cart_traj_len": 3.4828361793490608,
        "distance_elbow_joint": 3.88112307017005,
        "distance_shoulder_lift_joint": 0.1501768380735682,
        "distance_shoulder_pan_joint": 3.18400739014573,
        "distance_wrist_1_joint": 1.1116615608413174,
        "distance_wrist_2_joint": 1.6920408052730507,
        "distance_wrist_3_joint": 2.7093921123798768,
        "smoothness": 0.3559723325656505,
        "time": 0.14609752,
        "traj_len": 3.567688576219005,
        "weighted_distance": 4.577214039976471
    },
    "planner": "LazyPRM",
    "start": {
        "state": {
            "elbow_joint": -1.9196185241190666,
            "shoulder_lift_joint": -1.2443396400964142,
            "shoulder_pan_joint": 2.6996025414629847,
            "wrist_1_joint": -1.5485510000780065,
            "wrist_2_joint": -1.5709468930060704,
            "wrist_3_joint": 0.4420197071253992
        }
    },
    "waypoints": [
        {
            "positions": [
                2.6996025414629847,
                -1.2443396400964142,
                -1.9196185241190666,
                -1.5485510000780065,
                -1.5709468930060704,
                0.4420197071253992
            ]
        },
        {
            "positions": [
                2.5919978590592634,
                -1.2416952260163958,
                -1.8266222906286445,
                -1.5165433917267013,
                -1.5430825235170438,
                0.5570782525252043
            ]
        },
        {
            "positions": [
                2.4843931766555425,
                -1.2390508119363774,
                -1.7336260571382223,
                -1.484535783375396,
                -1.515218154028017,
                0.6721367979250095
            ]
        },
        {
            "positions": [
                2.376788494251821,
                -1.2364063978563589,
                -1.6406298236478,
                -1.4525281750240908,
                -1.4873537845389904,
                0.7871953433248147
            ]
        },
        {
            "positions": [
                2.2691838118481,
                -1.2337619837763405,
                -1.547633590157378,
                -1.4205205666727856,
                -1.4594894150499635,
                0.9022538887246198
            ]
        },
        {
            "positions": [
                2.161579129444379,
                -1.2311175696963221,
                -1.454637356666956,
                -1.3885129583214804,
                -1.431625045560937,
                1.0173124341244248
            ]
        },
        {
            "positions": [
                2.0539744470406576,
                -1.2284731556163038,
                -1.3616411231765335,
                -1.356505349970175,
                -1.4037606760719101,
                1.13237097952423
            ]
        },
        {
            "positions": [
                1.9463697646369362,
                -1.2258287415362854,
                -1.2686448896861116,
                -1.32449774161887,
                -1.3758963065828835,
                1.2474295249240352
            ]
        },
        {
            "positions": [
                1.8387650822332153,
                -1.2231843274562668,
                -1.1756486561956894,
                -1.2924901332675645,
                -1.3480319370938567,
                1.3624880703238405
            ]
        },
        {
            "positions": [
                1.731160399829494,
                -1.2205399133762485,
                -1.0826524227052672,
                -1.2604825249162595,
                -1.3201675676048301,
                1.4775466157236452
            ]
        },
        {
            "positions": [
                1.6235557174257729,
                -1.21789549929623,
                -0.9896561892148451,
                -1.228474916564954,
                -1.2923031981158033,
                1.5926051611234504
            ]
        },
        {
            "positions": [
                1.5159510350220518,
                -1.2152510852162117,
                -0.896659955724423,
                -1.196467308213649,
                -1.2644388286267767,
                1.7076637065232556
            ]
        },
        {
            "positions": [
                1.4083463526183304,
                -1.2126066711361934,
                -0.8036637222340006,
                -1.1644596998623435,
                -1.2365744591377499,
                1.8227222519230608
            ]
        },
        {
            "positions": [
                1.300741670214609,
                -1.2099622570561748,
                -0.7106674887435787,
                -1.1324520915110383,
                -1.2087100896487233,
                1.937780797322866
            ]
        },
        {
            "positions": [
                1.193136987810888,
                -1.2073178429761564,
                -0.6176712552531565,
                -1.100444483159733,
                -1.1808457201596965,
                2.052839342722671
            ]
        },
        {
            "positions": [
                1.0855323054071668,
                -1.204673428896138,
                -0.5246750217627343,
                -1.0684368748084279,
                -1.1529813506706699,
                2.1678978881224764
            ]
        },
        {
            "positions": [
                1.0063669935044912,
                -1.1990135841101546,
                -0.3888790292869205,
                -1.038680478139333,
                -1.0836197976821897,
                2.2266367719630273
            ]
        },
        {
            "positions": [
                0.9272016816018156,
                -1.193353739324171,
                -0.25308303681110667,
                -1.0089240814702385,
                -1.0142582446937096,
                2.2853756558035783
            ]
        },
        {
            "positions": [
                0.8480363696991401,
                -1.1876938945381876,
                -0.11728704433529286,
                -0.9791676848011437,
                -0.9448966917052294,
                2.344114539644129
            ]
        },
        {
            "positions": [
                0.7688710577964645,
                -1.1820340497522042,
                0.018508948140520953,
                -0.9494112881320489,
                -0.8755351387167493,
                2.40285342348468
            ]
        },
        {
            "positions": [
                0.6897057458937889,
                -1.1763742049662207,
                0.15430494061633482,
                -0.9196548914629542,
                -0.8061735857282691,
                2.461592307325231
            ]
        },
        {
            "positions": [
                0.6105404339911134,
                -1.1707143601802372,
                0.29010093309214857,
                -0.8898984947938595,
                -0.7368120327397889,
                2.520331191165782
            ]
        },
        {
            "positions": [
                0.5313751220884377,
                -1.1650545153942538,
                0.4258969255679623,
                -0.8601420981247647,
                -0.6674504797513088,
                2.5790700750063333
            ]
        },
        {
            "positions": [
                0.4522098101857621,
                -1.15939467060827,
                0.5616929180437762,
                -0.83038570145567,
                -0.5980889267628287,
                2.6378089588468843
            ]
        },
        {
            "positions": [
                0.3730444982830865,
                -1.1537348258222866,
                0.69748891051959,
                -0.8006293047865753,
                -0.5287273737743485,
                2.696547842687435
            ]
        },
        {
            "positions": [
                0.2938791863804109,
                -1.1480749810363031,
                0.8332849029954039,
                -0.7708729081174805,
                -0.4593658207858684,
                2.755286726527986
            ]
        },
        {
            "positions": [
                0.21471387447773538,
                -1.1424151362503197,
                0.9690808954712176,
                -0.7411165114483859,
                -0.39000426779738817,
                2.814025610368537
            ]
        },
        {
            "positions": [
                0.13554856257505976,
                -1.1367552914643362,
                1.1048768879470314,
                -0.7113601147792912,
                -0.32064271480890805,
                2.872764494209088
            ]
        },
        {
            "positions": [
                0.056383250672384255,
                -1.1310954466783527,
                1.2406728804228453,
                -0.6816037181101964,
                -0.2512811618204279,
                2.931503378049639
            ]
        },
        {
            "positions": [
                -0.02278206123029136,
                -1.1254356018923692,
                1.376468872898659,
                -0.6518473214411017,
                -0.1819196088319477,
                2.99024226189019
            ]
        },
        {
            "positions": [
                -0.10194737313296698,
                -1.1197757571063858,
                1.5122648653744728,
                -0.622090924772007,
                -0.11255805584346756,
                3.0489811457307407
            ]
        },
        {
            "positions": [
                -0.18111268503564248,
                -1.1141159123204023,
                1.6480608578502864,
                -0.5923345281029122,
                -0.04319650285498747,
                3.1077200295712917
            ]
        },
        {
            "positions": [
                -0.08001529715327463,
                -1.1207669490862544,
                1.7525420872505182,
                -0.6441495577249865,
                0.011566968852335137,
                3.0931560995932967
            ]
        },
        {
            "positions": [
                0.021082090729093228,
                -1.1274179858521065,
                1.85702331665075,
                -0.6959645873470609,
                0.06633044055965774,
                3.0785921696153022
            ]
        },
        {
            "positions": [
                0.1221794786114611,
                -1.1340690226179586,
                1.9615045460509817,
                -0.7477796169691352,
                0.12109391226698035,
                3.0640282396373073
            ]
        }
    ]
}