{
    "goal": {
        "global_pose": {
            "orientation": {
                "w": 0.7047431468963623,
                "x": -0.7094548344612122,
                "y": 0.0024358443915843964,
                "z": -0.0022348060738295317
            },
            "position": {
                "x": 0.6094750761985779,
                "y": 0.3671506643295288,
                "z": 0.19426114857196808
            }
        },
        "name": "move_to_magneteinheit_A"
    },
    "id": "LazyPRM_move_to_magneteinheit_A_104",
    "joint_names": [
        "shoulder_pan_joint",
        "shoulder_lift_joint",
        "elbow_joint",
        "wrist_1_joint",
        "wrist_2_joint",
        "wrist_3_joint"
    ],
    "metrics": {
        "cart_traj_len": 3.442016364044211,
        "distance_elbow_joint": 3.900464032198631,
        "distance_shoulder_lift_joint": 0.7832285641116201,
        "distance_shoulder_pan_joint": 3.4828103910539068,
        "distance_wrist_1_joint": 1.181900797745468,
        "distance_wrist_2_joint": 1.7090287800518356,
        "distance_wrist_3_joint": 3.5914401987112856,
        "smoothness": 0.1170777711889625,
        "time": 0.117860419,
        "traj_len": 3.8273845853105417,
        "weighted_distance": 4.972190939524811
    },
    "planner": "LazyPRM",
    "start": {
        "state": {
            "elbow_joint": -1.9196185241190666,
            "shoulder_lift_joint": -1.2443396400964142,
            "shoulder_pan_joint": 2.6996025414629847,
            "wrist_1_joint": -1.5485510000780065,
            "wrist_2_joint": -1.5709468930060704,
            "wrist_3_joint": 0.4420197071253992
        }
    },
    "waypoints": [
        {
            "positions": [
                2.6996025414629847,
                -1.2443396400964142,
                -1.9196185241190666,
                -1.5485510000780065,
                -1.5709468930060704,
                0.4420197071253992
            ]
        },
        {
            "positions": [
                2.555328850464391,
                -1.2606069598422251,
                -1.7948921714979036,
                -1.5593663529995225,
                -1.5511292299942223,
                0.37390523290732547
            ]
        },
        {
            "positions": [
                2.411055159465797,
                -1.2768742795880361,
                -1.6701658188767405,
                -1.5701817059210386,
                -1.5313115669823745,
                0.30579075868925176
            ]
        },
        {
            "positions": [
                2.2667814684672036,
                -1.293141599333847,
                -1.5454394662555773,
                -1.5809970588425544,
                -1.5114939039705264,
                0.23767628447117803
            ]
        },
        {
            "positions": [
                2.12250777746861,
                -1.309408919079658,
                -1.4207131136344142,
                -1.5918124117640704,
                -1.4916762409586786,
                0.16956181025310435
            ]
        },
        {
            "positions": [
                1.9782340864700163,
                -1.325676238825469,
                -1.2959867610132512,
                -1.6026277646855864,
                -1.4718585779468305,
                0.10144733603503059
            ]
        },
        {
            "positions": [
                1.8339603954714225,
                -1.34194355857128,
                -1.1712604083920881,
                -1.6134431176071025,
                -1.4520409149349827,
                0.03333286181695688
            ]
        },
        {
            "positions": [
                1.689686704472829,
                -1.358210878317091,
                -1.046534055770925,
                -1.6242584705286183,
                -1.4322232519231346,
                -0.034781612401116824
            ]
        },
        {
            "positions": [
                1.5454130134742352,
                -1.374478198062902,
                -0.9218077031497619,
                -1.6350738234501343,
                -1.4124055889112865,
                -0.10289608661919047
            ]
        },
        {
            "positions": [
                1.4011393224756414,
                -1.390745517808713,
                -0.7970813505285987,
                -1.6458891763716503,
                -1.3925879258994387,
                -0.1710105608372643
            ]
        },
        {
            "positions": [
                1.2568656314770479,
                -1.4070128375545239,
                -0.6723549979074357,
                -1.6567045292931664,
                -1.3727702628875906,
                -0.239125035055338
            ]
        },
        {
            "positions": [
                1.1125919404784539,
                -1.423280157300335,
                -0.5476286452862724,
                -1.6675198822146822,
                -1.3529525998757428,
                -0.3072395092734117
            ]
        },
        {
            "positions": [
                0.9683182494798603,
                -1.4395474770461458,
                -0.4229022926651096,
                -1.6783352351361982,
                -1.3331349368638947,
                -0.3753539834914854
            ]
        },
        {
            "positions": [
                0.8240445584812666,
                -1.455814796791957,
                -0.2981759400439463,
                -1.6891505880577142,
                -1.3133172738520469,
                -0.4434684577095592
            ]
        },
        {
            "positions": [
                0.6797708674826732,
                -1.472082116537768,
                -0.17344958742278327,
                -1.6999659409792303,
                -1.2934996108401988,
                -0.5115829319276328
            ]
        },
        {
            "positions": [
                0.5354971764840792,
                -1.488349436283579,
                -0.04872323480162,
                -1.7107812939007463,
                -1.2736819478283508,
                -0.5796974061457066
            ]
        },
        {
            "positions": [
                0.3912234854854857,
                -1.50461675602939,
                0.07600311781954283,
                -1.721596646822262,
                -1.253864284816503,
                -0.6478118803637801
            ]
        },
        {
            "positions": [
                0.2469497944868917,
                -1.520884075775201,
                0.20072947044070633,
                -1.7324119997437781,
                -1.2340466218046549,
                -0.715926354581854
            ]
        },
        {
            "positions": [
                0.10267610348829814,
                -1.5371513955210119,
                0.32545582306186915,
                -1.7432273526652942,
                -1.214228958792807,
                -0.7840408287999278
            ]
        },
        {
            "positions": [
                -0.04159758751029541,
                -1.5534187152668228,
                0.4501821756830324,
                -1.75404270558681,
                -1.194411295780959,
                -0.8521553030180015
            ]
        },
        {
            "positions": [
                -0.18587127850888896,
                -1.5696860350126338,
                0.5749085283041953,
                -1.764858058508326,
                -1.174593632769111,
                -0.9202697772360752
            ]
        },
        {
            "positions": [
                -0.33014496950748284,
                -1.5859533547584448,
                0.6996348809253583,
                -1.775673411429842,
                -1.154775969757263,
                -0.9883842514541489
            ]
        },
        {
            "positions": [
                -0.30349421185551595,
                -1.5599760106731748,
                0.7750002119344293,
                -1.7195099769360989,
                -1.0787255075923792,
                -1.1155040302854276
            ]
        },
        {
            "positions": [
                -0.276843454203549,
                -1.5339986665879048,
                0.8503655429435002,
                -1.663346542442356,
                -1.002675045427495,
                -1.2426238091167061
            ]
        },
        {
            "positions": [
                -0.2501926965515821,
                -1.5080213225026349,
                0.9257308739525711,
                -1.6071831079486127,
                -0.9266245832626111,
                -1.369743587947985
            ]
        },
        {
            "positions": [
                -0.22354193889961518,
                -1.482043978417365,
                1.001096204961642,
                -1.5510196734548696,
                -0.8505741210977271,
                -1.4968633667792637
            ]
        },
        {
            "positions": [
                -0.19689118124764826,
                -1.456066634332095,
                1.076461535970713,
                -1.4948562389611264,
                -0.774523658932843,
                -1.6239831456105422
            ]
        },
        {
            "positions": [
                -0.17024042359568134,
                -1.430089290246825,
                1.151826866979784,
                -1.4386928044673835,
                -0.6984731967679592,
                -1.7511029244418208
            ]
        },
        {
            "positions": [
                -0.14358966594371445,
                -1.404111946161555,
                1.2271921979888547,
                -1.3825293699736403,
                -0.6224227346030752,
                -1.8782227032730994
            ]
        },
        {
            "positions": [
                -0.11693890829174752,
                -1.378134602076285,
                1.3025575289979257,
                -1.3263659354798971,
                -0.5463722724381912,
                -2.0053424821043784
            ]
        },
        {
            "positions": [
                -0.09028815063978063,
                -1.352157257991015,
                1.3779228600069966,
                -1.2702025009861542,
                -0.4703218102733071,
                -2.132462260935657
            ]
        },
        {
            "positions": [
                -0.06363739298781368,
                -1.326179913905745,
                1.4532881910160675,
                -1.214039066492411,
                -0.3942713481084231,
                -2.2595820397669355
            ]
        },
        {
            "positions": [
                -0.036986635335846785,
                -1.300202569820475,
                1.5286535220251385,
                -1.1578756319986678,
                -0.31822088594353914,
                -2.386701818598214
            ]
        },
        {
            "positions": [
                -0.010335877683879835,
                -1.2742252257352051,
                1.6040188530342094,
                -1.1017121975049249,
                -0.24217042377865516,
                -2.513821597429493
            ]
        },
        {
            "positions": [
                0.016314879968087004,
                -1.2482478816499352,
                1.6793841840432804,
                -1.045548763011182,
                -0.1661199616137713,
                -2.6409413762607716
            ]
        },
        {
            "positions": [
                0.042965637620053954,
                -1.2222705375646652,
                1.7547495150523513,
                -0.9893853285174387,
                -0.09006949944888731,
                -2.76806115509205
            ]
        },
        {
            "positions": [
                0.06961639527202085,
                -1.1962931934793952,
                1.8301148460614223,
                -0.9332218940236956,
                -0.014019037284003222,
                -2.8951809339233288
            ]
        },
        {
            "positions": [
                0.0962671529239878,
                -1.1703158493941253,
                1.9054801770704932,
                -0.8770584595299524,
                0.06203142488088065,
                -3.0223007127546078
            ]
        },
        {
            "positions": [
                0.12291791057595466,
                -1.1443385053088553,
                1.9808455080795642,
                -0.8208950250362094,
                0.13808188704576485,
                -3.1494204915858863
            ]
        }
    ]
}