{
    "goal": {
        "global_pose": {
            "orientation": {
                "w": 0.7031023502349854,
                "x": -0.7110244035720825,
                "y": 0.007748599164187908,
                "z": 0.005598929710686207
            },
            "position": {
                "x": 0.11585023208521307,
                "y": 0.44412534475326537,
                "z": 0.3711530566215515
            }
        },
        "name": "move_to_auspresseinheit_A"
    },
    "id": "LazyPRM_move_to_auspresseinheit_A_97",
    "joint_names": [
        "shoulder_pan_joint",
        "shoulder_lift_joint",
        "elbow_joint",
        "wrist_1_joint",
        "wrist_2_joint",
        "wrist_3_joint"
    ],
    "metrics": {
        "cart_traj_len": 0.809361597081851,
        "distance_elbow_joint": 1.1381325206948039,
        "distance_shoulder_lift_joint": 0.5340783074928317,
        "distance_shoulder_pan_joint": 1.0472899415715973,
        "distance_wrist_1_joint": 3.478878868229085,
        "distance_wrist_2_joint": 0.9975580198265533,
        "distance_wrist_3_joint": 0.9623963627547094,
        "smoothness": 1.0716354786634696,
        "time": 0.062465219,
        "traj_len": 2.8562797518047103,
        "weighted_distance": 3.8156996257743656
    },
    "planner": "LazyPRM",
    "start": {
        "state": {
            "elbow_joint": 2.4225746658250005,
            "shoulder_lift_joint": -1.3736534386056498,
            "shoulder_pan_joint": -0.3378633547517467,
            "wrist_1_joint": -1.0288598680537169,
            "wrist_2_joint": 1.233022673432363,
            "wrist_3_joint": -3.0940220416140027
        }
    },
    "waypoints": [
        {
            "positions": [
                -0.3378633547517467,
                -1.3736534386056498,
                2.4225746658250005,
                -1.0288598680537169,
                1.233022673432363,
                -3.0940220416140027
            ]
        },
        {
            "positions": [
                -0.28347741720065905,
                -1.3835459425335261,
                2.364146206461344,
                -0.8267650136037519,
                1.2572621323399418,
                -3.048323258267223
            ]
        },
        {
            "positions": [
                -0.22909147964957136,
                -1.3934384464614025,
                2.3057177470976873,
                -0.6246701591537869,
                1.2815015912475207,
                -3.002624474920444
            ]
        },
        {
            "positions": [
                -0.17470554209848368,
                -1.4033309503892788,
                2.247289287734031,
                -0.422575304703822,
                1.3057410501550994,
                -2.956925691573664
            ]
        },
        {
            "positions": [
                -0.12031960454739599,
                -1.4132234543171551,
                2.1888608283703745,
                -0.22048045025385699,
                1.3299805090626782,
                -2.911226908226885
            ]
        },
        {
            "positions": [
                -0.06593366699630832,
                -1.4231159582450315,
                2.130432369006718,
                -0.018385595803892096,
                1.354219967970257,
                -2.865528124880105
            ]
        },
        {
            "positions": [
                -0.011547729445220645,
                -1.4330084621729076,
                2.072003909643062,
                0.1837092586460729,
                1.3784594268778358,
                -2.8198293415333255
            ]
        },
        {
            "positions": [
                0.042838208105867026,
                -1.4429009661007839,
                2.013575450279405,
                0.3858041130960377,
                1.4026988857854146,
                -2.7741305581865463
            ]
        },
        {
            "positions": [
                0.09722414565695475,
                -1.4527934700286602,
                1.9551469909157486,
                0.5878989675460029,
                1.4269383446929935,
                -2.7284317748397666
            ]
        },
        {
            "positions": [
                0.15161008320804242,
                -1.4626859739565365,
                1.896718531552092,
                0.7899938219959677,
                1.4511778036005722,
                -2.6827329914929874
            ]
        },
        {
            "positions": [
                0.20599602075913007,
                -1.4725784778844129,
                1.8382900721884357,
                0.9920886764459326,
                1.475417262508151,
                -2.6370342081462077
            ]
        },
        {
            "positions": [
                0.2517624358555592,
                -1.5121378659038736,
                1.8886398837391847,
                0.8595495561068932,
                1.4067660415308088,
                -2.6829804380813815
            ]
        },
        {
            "positions": [
                0.29752885095198833,
                -1.5516972539233345,
                1.9389896952899337,
                0.7270104357678537,
                1.3381148205534663,
                -2.728926668016556
            ]
        },
        {
            "positions": [
                0.3432952660484174,
                -1.5912566419427951,
                1.9893395068406827,
                0.5944713154288144,
                1.269463599576124,
                -2.7748728979517296
            ]
        },
        {
            "positions": [
                0.3890616811448466,
                -1.630816029962256,
                2.0396893183914315,
                0.461932195089775,
                1.2008123785987816,
                -2.820819127886904
            ]
        },
        {
            "positions": [
                0.4348280962412757,
                -1.6703754179817167,
                2.0900391299421806,
                0.32939307475073565,
                1.1321611576214394,
                -2.8667653578220778
            ]
        },
        {
            "positions": [
                0.4805945113377048,
                -1.7099348060011776,
                2.1403889414929296,
                0.19685395441169629,
                1.0635099366440972,
                -2.912711587757252
            ]
        },
        {
            "positions": [
                0.526360926434134,
                -1.7494941940206383,
                2.1907387530436786,
                0.06431483407265692,
                0.9948587156667548,
                -2.958657817692426
            ]
        },
        {
            "positions": [
                0.5721273415305631,
                -1.7890535820400992,
                2.2410885645944276,
                -0.06822428626638255,
                0.9262074946894124,
                -3.0046040476276
            ]
        },
        {
            "positions": [
                0.6178937566269923,
                -1.82861297005956,
                2.2914383761451766,
                -0.2007634066054219,
                0.8575562737120701,
                -3.050550277562774
            ]
        },
        {
            "positions": [
                0.6636601717234214,
                -1.8681723580790206,
                2.3417881876959257,
                -0.3333025269444613,
                0.7889050527347279,
                -3.096496507497948
            ]
        },
        {
            "positions": [
                0.7094265868198505,
                -1.9077317460984815,
                2.3921379992466747,
                -0.4658416472835007,
                0.7202538317573856,
                -3.142442737433122
            ]
        }
    ]
}