{
    "goal": {
        "global_pose": {
            "orientation": {
                "w": -0.00223480608172531,
                "x": 0.0024358444001904467,
                "y": 0.7094548369677653,
                "z": -0.704743149386269
            },
            "position": {
                "x": 0.6205249238014221,
                "y": -0.6371506643295288,
                "z": 0.19426114857196808
            }
        },
        "name": "move_to_magneteinheit_B"
    },
    "id": "LazyPRMstar_move_to_magneteinheit_B_102",
    "joint_names": [
        "shoulder_pan_joint",
        "shoulder_lift_joint",
        "elbow_joint",
        "wrist_1_joint",
        "wrist_2_joint",
        "wrist_3_joint"
    ],
    "metrics": {
        "cart_traj_len": 3.1665109328335888,
        "distance_elbow_joint": 4.2888146850590205,
        "distance_shoulder_lift_joint": 1.062596211574438,
        "distance_shoulder_pan_joint": 2.2828453107265343,
        "distance_wrist_1_joint": 0.9655648686837572,
        "distance_wrist_2_joint": 1.179312095328245,
        "distance_wrist_3_joint": 0.15068111335627385,
        "smoothness": 0.09272277907063044,
        "time": 5.053901184,
        "traj_len": 3.151160783699916,
        "weighted_distance": 3.5179615511618114
    },
    "planner": "LazyPRMstar",
    "start": {
        "state": {
            "elbow_joint": 2.6216224122426386,
            "shoulder_lift_joint": -1.4174107377796124,
            "shoulder_pan_joint": 0.7066234856936794,
            "wrist_1_joint": 1.9546482284002225,
            "wrist_2_joint": -0.7096286983471962,
            "wrist_3_joint": 0.005740856962016249
        }
    },
    "waypoints": [
        {
            "positions": [
                0.7066234856936794,
                -1.4174107377796124,
                2.6216224122426386,
                1.9546482284002225,
                -0.7096286983471962,
                0.005740856962016249
            ]
        },
        {
            "positions": [
                0.877613852030096,
                -1.4874446928596452,
                2.6025806732629744,
                1.9325456321728607,
                -0.6388772421871418,
                -0.01947415252049873
            ]
        },
        {
            "positions": [
                1.0486042183665127,
                -1.557478647939678,
                2.58353893428331,
                1.910443035945499,
                -0.5681257860270874,
                -0.04468916200301371
            ]
        },
        {
            "positions": [
                1.1421148636573428,
                -1.5828624934254876,
                2.385109820168006,
                1.8873175893409224,
                -0.5193265980577513,
                -0.04566514285515353
            ]
        },
        {
            "positions": [
                1.2356255089481731,
                -1.608246338911297,
                2.1866807060527016,
                1.864192142736346,
                -0.47052741008841514,
                -0.04664112370729334
            ]
        },
        {
            "positions": [
                1.3291361542390032,
                -1.6336301843971066,
                1.9882515919373975,
                1.8410666961317694,
                -0.421728222119079,
                -0.04761710455943316
            ]
        },
        {
            "positions": [
                1.4226467995298333,
                -1.6590140298829161,
                1.7898224778220935,
                1.817941249527193,
                -0.3729290341497429,
                -0.04859308541157297
            ]
        },
        {
            "positions": [
                1.5161574448206636,
                -1.6843978753687256,
                1.5913933637067892,
                1.7948158029226164,
                -0.32412984618040674,
                -0.04956906626371279
            ]
        },
        {
            "positions": [
                1.609668090111494,
                -1.7097817208545352,
                1.392964249591485,
                1.77169035631804,
                -0.2753306582110706,
                -0.0505450471158526
            ]
        },
        {
            "positions": [
                1.703178735402324,
                -1.7351655663403447,
                1.1945351354761808,
                1.7485649097134635,
                -0.22653147024173448,
                -0.05152102796799242
            ]
        },
        {
            "positions": [
                1.796689380693154,
                -1.7605494118261542,
                0.9961060213608766,
                1.725439463108887,
                -0.17773228227239835,
                -0.05249700882013223
            ]
        },
        {
            "positions": [
                1.8902000259839844,
                -1.7859332573119637,
                0.7976769072455723,
                1.7023140165043105,
                -0.12893309430306216,
                -0.05347298967227205
            ]
        },
        {
            "positions": [
                1.9837106712748145,
                -1.8113171027977732,
                0.5992477931302682,
                1.679188569899734,
                -0.08013390633372602,
                -0.05444897052441186
            ]
        },
        {
            "positions": [
                2.0772213165656446,
                -1.8367009482835828,
                0.40081867901496393,
                1.6560631232951575,
                -0.031334718364389835,
                -0.05542495137655168
            ]
        },
        {
            "positions": [
                2.170731961856475,
                -1.8620847937693923,
                0.20238956489965965,
                1.632937676690581,
                0.017464469604946187,
                -0.05640093222869149
            ]
        },
        {
            "positions": [
                2.264242607147305,
                -1.8874686392552018,
                0.003960450784355363,
                1.6098122300860045,
                0.06626365757428243,
                -0.05737691308083131
            ]
        },
        {
            "positions": [
                2.357753252438135,
                -1.9128524847410113,
                -0.19446866333094848,
                1.586686783481428,
                0.11506284554361845,
                -0.05835289393297112
            ]
        },
        {
            "positions": [
                2.4512638977289654,
                -1.9382363302268208,
                -0.3928977774462532,
                1.5635613368768515,
                0.1638620335129547,
                -0.05932887478511094
            ]
        },
        {
            "positions": [
                2.5447745430197957,
                -1.9636201757126304,
                -0.591326891561557,
                1.540435890272275,
                0.21266122148229072,
                -0.06030485563725075
            ]
        },
        {
            "positions": [
                2.6382851883106255,
                -1.9890040211984399,
                -0.7897560056768613,
                1.5173104436676985,
                0.26146040945162696,
                -0.06128083648939057
            ]
        },
        {
            "positions": [
                2.731795833601456,
                -2.0143878666842494,
                -0.9881851197921656,
                1.494184997063122,
                0.3102595974209631,
                -0.06225681734153038
            ]
        },
        {
            "positions": [
                2.825306478892286,
                -2.039771712170059,
                -1.1866142339074701,
                1.4710595504585455,
                0.35905878539029923,
                -0.0632327981936702
            ]
        },
        {
            "positions": [
                2.797761460293411,
                -2.1211094228868843,
                -1.3005690005001171,
                1.3814889480373715,
                0.38044052046552657,
                -0.04635278086921358
            ]
        },
        {
            "positions": [
                2.770216441694536,
                -2.2024471336037093,
                -1.414523767092764,
                1.2919183456161973,
                0.40182225554075396,
                -0.02947276354475696
            ]
        },
        {
            "positions": [
                2.7426714230956613,
                -2.283784844320534,
                -1.528478533685411,
                1.2023477431950234,
                0.42320399061598135,
                -0.012592746220300342
            ]
        },
        {
            "positions": [
                2.715126404496786,
                -2.3651225550373596,
                -1.642433300278058,
                1.1127771407738494,
                0.4445857256912087,
                0.004287271104156271
            ]
        },
        {
            "positions": [
                2.6611441613643585,
                -2.4800069493540504,
                -1.6671922728163828,
                0.9890833597164652,
                0.4696833969810488,
                0.0184746600069172
            ]
        }
    ]
}