{
    "goal": {
        "global_pose": {
            "orientation": {
                "w": 0.5084816217422485,
                "x": -0.49083608388900757,
                "y": 0.5182115435600281,
                "z": -0.4816462993621826
            },
            "position": {
                "x": 0.5540239810943604,
                "y": 0.030875300988554955,
                "z": 0.16403168439865112
            }
        },
        "name": "move_to_storage_A"
    },
    "id": "LazyPRMstar_move_to_storage_A_114",
    "joint_names": [
        "shoulder_pan_joint",
        "shoulder_lift_joint",
        "elbow_joint",
        "wrist_1_joint",
        "wrist_2_joint",
        "wrist_3_joint"
    ],
    "metrics": {
        "cart_traj_len": 0.35227995436804005,
        "distance_elbow_joint": 0.45003557675525285,
        "distance_shoulder_lift_joint": 0.2329955272352433,
        "distance_shoulder_pan_joint": 0.46007738554048094,
        "distance_wrist_1_joint": 0.2464293320460741,
        "distance_wrist_2_joint": 1.09901513544813,
        "distance_wrist_3_joint": 0.10486277124454446,
        "smoothness": 2.2204460668324854e-16,
        "time": 5.000140178,
        "traj_len": 1.610408559425131,
        "weighted_distance": 2.0368077322744575
    },
    "planner": "LazyPRMstar",
    "start": {
        "state": {
            "elbow_joint": 1.971548259319323,
            "shoulder_lift_joint": -1.1394851275133948,
            "shoulder_pan_joint": 0.1228115487234821,
            "wrist_1_joint": -0.7804723859257726,
            "wrist_2_joint": 0.12958671773740124,
            "wrist_3_joint": -3.192489227718131
        }
    },
    "waypoints": [
        {
            "positions": [
                0.1228115487234821,
                -1.1394851275133948,
                1.971548259319323,
                -0.7804723859257726,
                0.12958671773740124,
                -3.192489227718131
            ]
        },
        {
            "positions": [
                0.05708620793198482,
                -1.1727702028327154,
                2.035839055998645,
                -0.8156765762180689,
                0.28658887994427695,
                -3.1775088318260534
            ]
        },
        {
            "positions": [
                -0.008639132859512455,
                -1.2060552781520357,
                2.100129852677967,
                -0.8508807665103653,
                0.44359104215115264,
                -3.1625284359339756
            ]
        },
        {
            "positions": [
                -0.07436447365100973,
                -1.2393403534713563,
                2.1644206493572886,
                -0.8860849568026615,
                0.6005932043580283,
                -3.147548040041898
            ]
        },
        {
            "positions": [
                -0.140089814442507,
                -1.2726254287906766,
                2.2287114460366104,
                -0.9212891470949578,
                0.757595366564904,
                -3.13256764414982
            ]
        },
        {
            "positions": [
                -0.2058151552340043,
                -1.3059105041099972,
                2.2930022427159322,
                -0.9564933373872542,
                0.9145975287717798,
                -3.1175872482577422
            ]
        },
        {
            "positions": [
                -0.27154049602550157,
                -1.3391955794293176,
                2.357293039395254,
                -0.9916975276795503,
                1.0715996909786554,
                -3.1026068523656645
            ]
        },
        {
            "positions": [
                -0.33726583681699884,
                -1.3724806547486381,
                2.421583836074576,
                -1.0269017179718467,
                1.2286018531855312,
                -3.0876264564735867
            ]
        }
    ]
}{
    "goal": {
        "global_pose": {
            "orientation": {
                "w": 0.5084816217422485,
                "x": -0.49083608388900757,
                "y": 0.5182115435600281,
                "z": -0.4816462993621826
            },
            "position": {
                "x": 0.5540239810943604,
                "y": 0.030875300988554955,
                "z": 0.16403168439865112
            }
        },
        "name": "move_to_storage_A"
    },
    "id": "LazyPRMstar_move_to_storage_A_114",
    "joint_names": [
        "shoulder_pan_joint",
        "shoulder_lift_joint",
        "elbow_joint",
        "wrist_1_joint",
        "wrist_2_joint",
        "wrist_3_joint"
    ],
    "metrics": {
        "cart_traj_len": 0.353487855872438,
        "distance_elbow_joint": 0.44685499527664296,
        "distance_shoulder_lift_joint": 0.23450235195472469,
        "distance_shoulder_pan_joint": 0.46019753065965924,
        "distance_wrist_1_joint": 0.2340898005041765,
        "distance_wrist_2_joint": 1.1076663136253146,
        "distance_wrist_3_joint": 0.08868259532173406,
        "smoothness": 8.881784213138256e-16,
        "time": 5.000112747,
        "traj_len": 1.6037436164618872,
        "weighted_distance": 2.0226504621696777
    },
    "planner": "LazyPRMstar",
    "start": {
        "state": {
            "elbow_joint": 1.97154746011099,
            "shoulder_lift_joint": -1.13948474672311,
            "shoulder_pan_joint": 0.12281154466712228,
            "wrist_1_joint": -0.7804688027058302,
            "wrist_2_joint": 0.12958655903071145,
            "wrist_3_joint": 3.0906928834467795
        }
    },
    "waypoints": [
        {
            "positions": [
                0.12281154466712228,
                -1.13948474672311,
                1.97154746011099,
                -0.7804688027058302,
                0.12958655903071145,
                3.0906928834467795
            ]
        },
        {
            "positions": [
                0.05706904028717097,
                -1.1729850827166421,
                2.035383888007653,
                -0.8139102027778554,
                0.28782460383432784,
                3.1033618256355986
            ]
        },
        {
            "positions": [
                -0.008673464092780345,
                -1.2064854187101741,
                2.0992203159043163,
                -0.8473516028498806,
                0.4460626486379442,
                3.1160307678244177
            ]
        },
        {
            "positions": [
                -0.07441596847273167,
                -1.2399857547037063,
                2.1630567438009796,
                -0.8807930029219058,
                0.6043006934415606,
                3.1286997100132368
            ]
        },
        {
            "positions": [
                -0.14015847285268296,
                -1.2734860906972383,
                2.2268931716976432,
                -0.914234402993931,
                0.7625387382451769,
                3.1413686522020563
            ]
        },
        {
            "positions": [
                -0.20590097723263429,
                -1.3069864266907705,
                2.2907295995943064,
                -0.9476758030659562,
                0.9207767830487934,
                3.1540375943908754
            ]
        },
        {
            "positions": [
                -0.2716434816125856,
                -1.3404867626843024,
                2.3545660274909697,
                -0.9811172031379815,
                1.0790148278524097,
                3.1667065365796945
            ]
        },
        {
            "positions": [
                -0.33738598599253694,
                -1.3739870986778346,
                2.418402455387633,
                -1.0145586032100067,
                1.2372528726560261,
                3.1793754787685136
            ]
        }
    ]
}{
    "goal": {
        "global_pose": {
            "orientation": {
                "w": 0.5084816217422485,
                "x": -0.49083608388900757,
                "y": 0.5182115435600281,
                "z": -0.4816462993621826
            },
            "position": {
                "x": 0.5540239810943604,
                "y": 0.030875300988554955,
                "z": 0.16403168439865112
            }
        },
        "name": "move_to_storage_A"
    },
    "id": "LazyPRMstar_move_to_storage_A_114",
    "joint_names": [
        "shoulder_pan_joint",
        "shoulder_lift_joint",
        "elbow_joint",
        "wrist_1_joint",
        "wrist_2_joint",
        "wrist_3_joint"
    ],
    "metrics": {
        "cart_traj_len": 0.3532575734348986,
        "distance_elbow_joint": 0.4516519080743482,
        "distance_shoulder_lift_joint": 0.2313572141169622,
        "distance_shoulder_pan_joint": 0.45820931559681666,
        "distance_wrist_1_joint": 0.2575237994585007,
        "distance_wrist_2_joint": 1.1136001527089359,
        "distance_wrist_3_joint": 0.10149444647847172,
        "smoothness": 6.661338165333112e-16,
        "time": 5.000071135,
        "traj_len": 1.6167364771149428,
        "weighted_distance": 2.04644806471076
    },
    "planner": "LazyPRMstar",
    "start": {
        "state": {
            "elbow_joint": 1.9715472970024885,
            "shoulder_lift_joint": -1.1394870060712896,
            "shoulder_pan_joint": 0.12281152778156021,
            "wrist_1_joint": -0.780463741449964,
            "wrist_2_joint": 0.12958659822042276,
            "wrist_3_joint": 3.090690232415272
        }
    },
    "waypoints": [
        {
            "positions": [
                0.12281152778156021,
                -1.1394870060712896,
                1.9715472970024885,
                -0.780463741449964,
                0.12958659822042276,
                3.090690232415272
            ]
        },
        {
            "positions": [
                0.05735305412487211,
                -1.1725380366594271,
                2.036068998155967,
                -0.8172528556583213,
                0.2886723343216993,
                3.1051894390550534
            ]
        },
        {
            "positions": [
                -0.008105419531815983,
                -1.2055890672475644,
                2.100590699309445,
                -0.8540419698666785,
                0.4477580704229759,
                3.1196886456948354
            ]
        },
        {
            "positions": [
                -0.07356389318850406,
                -1.238640097835702,
                2.1651124004629234,
                -0.8908310840750358,
                0.6068438065242524,
                3.134187852334617
            ]
        },
        {
            "positions": [
                -0.13902236684519217,
                -1.2716911284238395,
                2.229634101616402,
                -0.9276201982833929,
                0.7659295426255289,
                3.1486870589743985
            ]
        },
        {
            "positions": [
                -0.20448084050188028,
                -1.304742159011977,
                2.2941558027698803,
                -0.9644093124917502,
                0.9250152787268056,
                3.16318626561418
            ]
        },
        {
            "positions": [
                -0.2699393141585683,
                -1.3377931896001143,
                2.3586775039233583,
                -1.0011984267001075,
                1.084101014828082,
                3.177685472253962
            ]
        },
        {
            "positions": [
                -0.3353977878152564,
                -1.3708442201882518,
                2.4231992050768367,
                -1.0379875409084647,
                1.2431867509293586,
                3.1921846788937436
            ]
        }
    ]
}