{
    "goal": {
        "global_pose": {
            "orientation": {
                "w": -0.4816463035849501,
                "x": 0.5182115481033762,
                "y": 0.4908360881923453,
                "z": -0.5084816262002911
            },
            "position": {
                "x": -0.8240239810943604,
                "y": -0.300875300988555,
                "z": 0.16403168439865112
            }
        },
        "name": "move_to_storage_C"
    },
    "id": "LazyPRM_move_to_storage_C_3",
    "joint_names": [
        "shoulder_pan_joint",
        "shoulder_lift_joint",
        "elbow_joint",
        "wrist_1_joint",
        "wrist_2_joint",
        "wrist_3_joint"
    ],
    "metrics": {
        "cart_traj_len": 0.5757653506541528,
        "distance_elbow_joint": 0.25417214383742115,
        "distance_shoulder_lift_joint": 0.18786181536618296,
        "distance_shoulder_pan_joint": 0.49463288903033176,
        "distance_wrist_1_joint": 0.06726507248903513,
        "distance_wrist_2_joint": 1.06427761200441,
        "distance_wrist_3_joint": 0.05693636791514667,
        "smoothness": 5.075305295617109e-16,
        "time": 0.011751367,
        "traj_len": 1.4577880163598984,
        "weighted_distance": 1.8359088542098885
    },
    "planner": "LazyPRM",
    "start": {
        "state": {
            "elbow_joint": 2.010868314990456,
            "shoulder_lift_joint": -1.1634956873337592,
            "shoulder_pan_joint": -2.4736205022346125,
            "wrist_1_joint": -0.8367026794202681,
            "wrist_2_joint": 0.6746043897044499,
            "wrist_3_joint": -3.1496632123970403
        }
    },
    "waypoints": [
        {
            "positions": [
                -2.4736205022346125,
                -1.1634956873337592,
                2.010868314990456,
                -0.8367026794202681,
                0.6746043897044499,
                -3.1496632123970403
            ]
        },
        {
            "positions": [
                -2.556059317073001,
                -1.1321853847727288,
                1.9685062910175524,
                -0.8254918340054289,
                0.8519839917051849,
                -3.140173817744516
            ]
        },
        {
            "positions": [
                -2.6384981319113896,
                -1.1008750822116982,
                1.9261442670446487,
                -0.8142809885905897,
                1.02936359370592,
                -3.1306844230919912
            ]
        },
        {
            "positions": [
                -2.720936946749778,
                -1.0695647796506678,
                1.8837822430717452,
                -0.8030701431757505,
                1.2067431957066548,
                -3.121195028439467
            ]
        },
        {
            "positions": [
                -2.803375761588167,
                -1.0382544770896371,
                1.8414202190988418,
                -0.7918592977609114,
                1.38412279770739,
                -3.1117056337869426
            ]
        },
        {
            "positions": [
                -2.8858145764265557,
                -1.0069441745286067,
                1.7990581951259381,
                -0.7806484523460722,
                1.5615023997081248,
                -3.102216239134418
            ]
        },
        {
            "positions": [
                -2.9682533912649443,
                -0.9756338719675762,
                1.7566961711530347,
                -0.769437606931233,
                1.73888200170886,
                -3.0927268444818936
            ]
        }
    ]
}