{
    "goal": {
        "global_pose": {
            "orientation": {
                "w": 0.005598929693374612,
                "x": 0.007748599140229565,
                "y": 0.7110244013736278,
                "z": -0.7031023480610252
            },
            "position": {
                "x": -0.8858502320852131,
                "y": -0.7141253447532654,
                "z": 0.3711530566215515
            }
        },
        "name": "move_to_auspresseinheit_C"
    },
    "id": "LazyPRM_move_to_auspresseinheit_C_65",
    "joint_names": [
        "shoulder_pan_joint",
        "shoulder_lift_joint",
        "elbow_joint",
        "wrist_1_joint",
        "wrist_2_joint",
        "wrist_3_joint"
    ],
    "metrics": {
        "cart_traj_len": 0.49370948024651523,
        "distance_elbow_joint": 1.011117239025171,
        "distance_shoulder_lift_joint": 0.33053716262686417,
        "distance_shoulder_pan_joint": 0.25622307942593947,
        "distance_wrist_1_joint": 0.6992709059484962,
        "distance_wrist_2_joint": 1.3168391696140522,
        "distance_wrist_3_joint": 0.06458060352490103,
        "smoothness": 9.689219124001365e-16,
        "time": 0.012494207,
        "traj_len": 1.917959373961144,
        "weighted_distance": 2.4132632352849064
    },
    "planner": "LazyPRM",
    "start": {
        "state": {
            "elbow_joint": 1.7527959577737207,
            "shoulder_lift_joint": -0.9740617694225068,
            "shoulder_pan_joint": -2.967991417825858,
            "wrist_1_joint": -0.759517768980727,
            "wrist_2_joint": 1.7443932448377408,
            "wrist_3_joint": -3.0840537646736568
        }
    },
    "waypoints": [
        {
            "positions": [
                -2.967991417825858,
                -0.9740617694225068,
                1.7527959577737207,
                -0.759517768980727,
                1.7443932448377408,
                -3.0840537646736568
            ]
        },
        {
            "positions": [
                -2.942369109883264,
                -0.9410080531598204,
                1.6516842338712037,
                -0.6895906783858774,
                1.6127093278763356,
                -3.0905118250261467
            ]
        },
        {
            "positions": [
                -2.91674680194067,
                -0.9079543368971339,
                1.5505725099686865,
                -0.6196635877910277,
                1.4810254109149303,
                -3.096969885378637
            ]
        },
        {
            "positions": [
                -2.8911244939980763,
                -0.8749006206344475,
                1.4494607860661692,
                -0.5497364971961781,
                1.349341493953525,
                -3.103427945731127
            ]
        },
        {
            "positions": [
                -2.8655021860554823,
                -0.8418469043717611,
                1.3483490621636522,
                -0.4798094066013285,
                1.2176575769921198,
                -3.109886006083617
            ]
        },
        {
            "positions": [
                -2.839879878112888,
                -0.8087931881090746,
                1.2472373382611353,
                -0.4098823160064789,
                1.0859736600307146,
                -3.116344066436107
            ]
        },
        {
            "positions": [
                -2.814257570170294,
                -0.7757394718463883,
                1.146125614358618,
                -0.3399552254116293,
                0.9542897430693095,
                -3.1228021267885975
            ]
        },
        {
            "positions": [
                -2.7886352622277,
                -0.7426857555837019,
                1.0450138904561008,
                -0.2700281348167797,
                0.8226058261079043,
                -3.1292601871410874
            ]
        },
        {
            "positions": [
                -2.7630129542851063,
                -0.7096320393210154,
                0.9439021665535838,
                -0.20010104422192998,
                0.6909219091464991,
                -3.1357182474935774
            ]
        },
        {
            "positions": [
                -2.7373906463425124,
                -0.676578323058329,
                0.8427904426510667,
                -0.1301739536270804,
                0.5592379921850938,
                -3.142176307846068
            ]
        },
        {
            "positions": [
                -2.7117683383999185,
                -0.6435246067956426,
                0.7416787187485496,
                -0.06024686303223083,
                0.42755407522368855,
                -3.148634368198558
            ]
        }
    ]
}