{
    "goal": {
        "global_pose": {
            "orientation": {
                "w": 0.7047431468963623,
                "x": -0.7094548344612122,
                "y": 0.0024358443915843964,
                "z": -0.0022348060738295317
            },
            "position": {
                "x": 0.6094750761985779,
                "y": 0.3671506643295288,
                "z": 0.19426114857196808
            }
        },
        "name": "move_to_magneteinheit_A"
    },
    "id": "LazyPRMstar_move_to_magneteinheit_A_62",
    "joint_names": [
        "shoulder_pan_joint",
        "shoulder_lift_joint",
        "elbow_joint",
        "wrist_1_joint",
        "wrist_2_joint",
        "wrist_3_joint"
    ],
    "metrics": {
        "cart_traj_len": 3.436286265867556,
        "distance_elbow_joint": 3.902257376122778,
        "distance_shoulder_lift_joint": 0.26248328321041026,
        "distance_shoulder_pan_joint": 2.697892825090088,
        "distance_wrist_1_joint": 0.8476200639840444,
        "distance_wrist_2_joint": 2.0175790438656866,
        "distance_wrist_3_joint": 2.6760554392803773,
        "smoothness": 0.29832767798895415,
        "time": 5.030499369,
        "traj_len": 3.5219153924467554,
        "weighted_distance": 4.541056927408406
    },
    "planner": "LazyPRMstar",
    "start": {
        "state": {
            "elbow_joint": -1.9196185241190666,
            "shoulder_lift_joint": -1.2443396400964142,
            "shoulder_pan_joint": 2.6996025414629847,
            "wrist_1_joint": -1.5485510000780065,
            "wrist_2_joint": -1.5709468930060704,
            "wrist_3_joint": 0.4420197071253992
        }
    },
    "waypoints": [
        {
            "positions": [
                2.6996025414629847,
                -1.2443396400964142,
                -1.9196185241190666,
                -1.5485510000780065,
                -1.5709468930060704,
                0.4420197071253992
            ]
        },
        {
            "positions": [
                2.5985509751221296,
                -1.2473752365473139,
                -1.8032691095196736,
                -1.5256824660650614,
                -1.493184708782309,
                0.5090778614353988
            ]
        },
        {
            "positions": [
                2.497499408781274,
                -1.2504108329982133,
                -1.6869196949202805,
                -1.5028139320521163,
                -1.4154225245585477,
                0.5761360157453983
            ]
        },
        {
            "positions": [
                2.396447842440419,
                -1.253446429449113,
                -1.5705702803208872,
                -1.4799453980391712,
                -1.3376603403347862,
                0.6431941700553979
            ]
        },
        {
            "positions": [
                2.2953962760995634,
                -1.2564820259000125,
                -1.4542208657214941,
                -1.4570768640262262,
                -1.2598981561110247,
                0.7102523243653975
            ]
        },
        {
            "positions": [
                2.1943447097587083,
                -1.2595176223509121,
                -1.337871451122101,
                -1.434208330013281,
                -1.1821359718872635,
                0.7773104786753972
            ]
        },
        {
            "positions": [
                2.0932931434178528,
                -1.2625532188018118,
                -1.2215220365227077,
                -1.4113397960003358,
                -1.1043737876635022,
                0.8443686329853968
            ]
        },
        {
            "positions": [
                1.9922415770769977,
                -1.2655888152527113,
                -1.1051726219233147,
                -1.3884712619873907,
                -1.0266116034397408,
                0.9114267872953963
            ]
        },
        {
            "positions": [
                1.8911900107361423,
                -1.268624411703611,
                -0.9888232073239216,
                -1.3656027279744456,
                -0.9488494192159793,
                0.9784849416053959
            ]
        },
        {
            "positions": [
                1.790138444395287,
                -1.2716600081545104,
                -0.8724737927245283,
                -1.3427341939615005,
                -0.871087234992218,
                1.0455430959153955
            ]
        },
        {
            "positions": [
                1.6890868780544317,
                -1.27469560460541,
                -0.7561243781251354,
                -1.3198656599485554,
                -0.7933250507684566,
                1.1126012502253952
            ]
        },
        {
            "positions": [
                1.5880353117135764,
                -1.2777312010563098,
                -0.6397749635257421,
                -1.2969971259356103,
                -0.7155628665446951,
                1.1796594045353948
            ]
        },
        {
            "positions": [
                1.4869837453727213,
                -1.2807667975072092,
                -0.5234255489263491,
                -1.2741285919226653,
                -0.6378006823209339,
                1.2467175588453943
            ]
        },
        {
            "positions": [
                1.385932179031866,
                -1.283802393958109,
                -0.407076134326956,
                -1.2512600579097202,
                -0.5600384980971724,
                1.313775713155394
            ]
        },
        {
            "positions": [
                1.2848806126910104,
                -1.2868379904090086,
                -0.2907267197275627,
                -1.228391523896775,
                -0.48227631387341097,
                1.3808338674653935
            ]
        },
        {
            "positions": [
                1.1838290463501553,
                -1.289873586859908,
                -0.17437730512816962,
                -1.20552298988383,
                -0.4045141296496497,
                1.447892021775393
            ]
        },
        {
            "positions": [
                1.0827774800093,
                -1.2929091833108077,
                -0.05802789052877655,
                -1.182654455870885,
                -0.32675194542588826,
                1.5149501760853927
            ]
        },
        {
            "positions": [
                0.9817259136684449,
                -1.2959447797617072,
                0.058321524070616526,
                -1.1597859218579398,
                -0.248989761202127,
                1.582008330395392
            ]
        },
        {
            "positions": [
                0.8806743473275893,
                -1.2989803762126069,
                0.17467093867001005,
                -1.1369173878449945,
                -0.17122757697836555,
                1.6490664847053917
            ]
        },
        {
            "positions": [
                0.779622780986734,
                -1.3020159726635065,
                0.2910203532694031,
                -1.1140488538320494,
                -0.09346539275460408,
                1.7161246390153915
            ]
        },
        {
            "positions": [
                0.6785712146458787,
                -1.305051569114406,
                0.40736976786879575,
                -1.0911803198191043,
                -0.015703208530842838,
                1.7831827933253912
            ]
        },
        {
            "positions": [
                0.5775196483050236,
                -1.3080871655653057,
                0.5237191824681888,
                -1.0683117858061593,
                0.062058975692918406,
                1.8502409476353905
            ]
        },
        {
            "positions": [
                0.476468081964168,
                -1.3111227620162051,
                0.6400685970675823,
                -1.0454432517932142,
                0.1398211599166801,
                1.9172991019453902
            ]
        },
        {
            "positions": [
                0.3754165156233128,
                -1.3141583584671048,
                0.7564180116669752,
                -1.022574717780269,
                0.21758334414044128,
                1.98435725625539
            ]
        },
        {
            "positions": [
                0.3306955438270888,
                -1.2884354973204457,
                0.9081101174989347,
                -0.9851773848907048,
                0.1955919818865087,
                2.0939724540959412
            ]
        },
        {
            "positions": [
                0.28597457203086485,
                -1.2627126361737864,
                1.0598022233308941,
                -0.9477800520011407,
                0.17360061963257614,
                2.203587651936492
            ]
        },
        {
            "positions": [
                0.24125360023464085,
                -1.2369897750271273,
                1.2114943291628535,
                -0.9103827191115764,
                0.15160925737864356,
                2.3132028497770434
            ]
        },
        {
            "positions": [
                0.19653262843841687,
                -1.211266913880468,
                1.3631864349948128,
                -0.8729853862220122,
                0.129617895124711,
                2.4228180476175947
            ]
        },
        {
            "positions": [
                0.15181165664219287,
                -1.1855440527338088,
                1.5148785408267724,
                -0.835588053332448,
                0.1076265328707784,
                2.5324332454581455
            ]
        },
        {
            "positions": [
                0.1070906848459689,
                -1.1598211915871497,
                1.666570646658732,
                -0.7981907204428837,
                0.08563517061684583,
                2.642048443298697
            ]
        },
        {
            "positions": [
                0.062369713049744896,
                -1.1340983304404904,
                1.8182627524906914,
                -0.7607933875533195,
                0.06364380836291325,
                2.751663641139248
            ]
        },
        {
            "positions": [
                0.0926997113881699,
                -1.140400598847043,
                1.9004508022472009,
                -0.7907246132829981,
                0.10119844383373693,
                2.9348693937725123
            ]
        },
        {
            "positions": [
                0.12302970972659491,
                -1.1467028672535955,
                1.9826388520037106,
                -0.8206558390126769,
                0.1387530793045606,
                3.1180751464057765
            ]
        }
    ]
}