{
    "goal": {
        "global_pose": {
            "orientation": {
                "w": 0.5084816217422485,
                "x": -0.49083608388900757,
                "y": 0.5182115435600281,
                "z": -0.4816462993621826
            },
            "position": {
                "x": 0.5540239810943604,
                "y": 0.030875300988554955,
                "z": 0.16403168439865112
            }
        },
        "name": "move_to_storage_A"
    },
    "id": "LazyPRM_move_to_storage_A_106",
    "joint_names": [
        "shoulder_pan_joint",
        "shoulder_lift_joint",
        "elbow_joint",
        "wrist_1_joint",
        "wrist_2_joint",
        "wrist_3_joint"
    ],
    "metrics": {
        "cart_traj_len": 0.3532202529225155,
        "distance_elbow_joint": 0.44823327977461935,
        "distance_shoulder_lift_joint": 0.23257517697201746,
        "distance_shoulder_pan_joint": 0.46034120498899445,
        "distance_wrist_1_joint": 0.24200330550858495,
        "distance_wrist_2_joint": 1.1043035900562037,
        "distance_wrist_3_joint": 0.0965314211529611,
        "smoothness": 0.0,
        "time": 0.021896323999999998,
        "traj_len": 1.6074787645419708,
        "weighted_distance": 2.0306052586172654
    },
    "planner": "LazyPRM",
    "start": {
        "state": {
            "elbow_joint": 1.971548259319323,
            "shoulder_lift_joint": -1.1394851275133948,
            "shoulder_pan_joint": 0.1228115487234821,
            "wrist_1_joint": -0.7804723859257726,
            "wrist_2_joint": 0.12958671773740124,
            "wrist_3_joint": -3.192489227718131
        }
    },
    "waypoints": [
        {
            "positions": [
                0.1228115487234821,
                -1.1394851275133948,
                1.971548259319323,
                -0.7804723859257726,
                0.12958671773740124,
                -3.192489227718131
            ]
        },
        {
            "positions": [
                0.05704851943934004,
                -1.1727101527951116,
                2.0355815850014114,
                -0.8150442867127133,
                0.2873443734597161,
                -3.1786990246962796
            ]
        },
        {
            "positions": [
                -0.008714509844802015,
                -1.2059351780768284,
                2.0996149106835,
                -0.8496161874996541,
                0.4451020291820309,
                -3.164908821674428
            ]
        },
        {
            "positions": [
                -0.07447753912894409,
                -1.2391602033585452,
                2.1636482363655882,
                -0.8841880882865947,
                0.6028596849043457,
                -3.1511186186525766
            ]
        },
        {
            "positions": [
                -0.14024056841308613,
                -1.272385228640262,
                2.227681562047677,
                -0.9187599890735354,
                0.7606173406266605,
                -3.1373284156307246
            ]
        },
        {
            "positions": [
                -0.2060035976972282,
                -1.3056102539219787,
                2.2917148877297655,
                -0.9533318898604761,
                0.9183749963489753,
                -3.123538212608873
            ]
        },
        {
            "positions": [
                -0.2717666269813703,
                -1.3388352792036955,
                2.3557482134118537,
                -0.9879037906474168,
                1.0761326520712902,
                -3.1097480095870216
            ]
        },
        {
            "positions": [
                -0.33752965626551235,
                -1.3720603044854123,
                2.4197815390939423,
                -1.0224756914343576,
                1.233890307793605,
                -3.09595780656517
            ]
        }
    ]
}{
    "goal": {
        "global_pose": {
            "orientation": {
                "w": 0.5084816217422485,
                "x": -0.49083608388900757,
                "y": 0.5182115435600281,
                "z": -0.4816462993621826
            },
            "position": {
                "x": 0.5540239810943604,
                "y": 0.030875300988554955,
                "z": 0.16403168439865112
            }
        },
        "name": "move_to_storage_A"
    },
    "id": "LazyPRM_move_to_storage_A_106",
    "joint_names": [
        "shoulder_pan_joint",
        "shoulder_lift_joint",
        "elbow_joint",
        "wrist_1_joint",
        "wrist_2_joint",
        "wrist_3_joint"
    ],
    "metrics": {
        "cart_traj_len": 0.3523155128085669,
        "distance_elbow_joint": 0.4539010316566223,
        "distance_shoulder_lift_joint": 0.23453914569522327,
        "distance_shoulder_pan_joint": 0.460593518820229,
        "distance_wrist_1_joint": 0.26045012336220275,
        "distance_wrist_2_joint": 1.0981976632706654,
        "distance_wrist_3_joint": 0.09765308127084849,
        "smoothness": 6.661338165333112e-16,
        "time": 0.021285876999999998,
        "traj_len": 1.6141048801350524,
        "weighted_distance": 2.03943338043937
    },
    "planner": "LazyPRM",
    "start": {
        "state": {
            "elbow_joint": 1.97154746011099,
            "shoulder_lift_joint": -1.13948474672311,
            "shoulder_pan_joint": 0.12281154466712228,
            "wrist_1_joint": -0.7804688027058302,
            "wrist_2_joint": 0.12958655903071145,
            "wrist_3_joint": 3.0906928834467795
        }
    },
    "waypoints": [
        {
            "positions": [
                0.12281154466712228,
                -1.13948474672311,
                1.97154746011099,
                -0.7804688027058302,
                0.12958655903071145,
                3.0906928834467795
            ]
        },
        {
            "positions": [
                0.05701247054994672,
                -1.1729903389652847,
                2.0363904646333646,
                -0.8176759631861449,
                0.28647193949794936,
                3.1046433236283293
            ]
        },
        {
            "positions": [
                -0.008786603567228837,
                -1.2064959312074595,
                2.1012334691557393,
                -0.8548831236664596,
                0.44335731996518724,
                3.118593763809879
            ]
        },
        {
            "positions": [
                -0.0745856776844044,
                -1.2400015234496342,
                2.166076473678114,
                -0.8920902841467742,
                0.6002427004324251,
                3.132544203991429
            ]
        },
        {
            "positions": [
                -0.14038475180157994,
                -1.273507115691809,
                2.230919478200488,
                -0.9292974446270889,
                0.7571280808996631,
                3.1464946441729786
            ]
        },
        {
            "positions": [
                -0.20618382591875556,
                -1.3070127079339837,
                2.295762482722863,
                -0.9665046051074035,
                0.9140134613669011,
                3.1604450843545284
            ]
        },
        {
            "positions": [
                -0.27198290003593106,
                -1.3405183001761585,
                2.3606054872452376,
                -1.0037117655877181,
                1.0708988418341387,
                3.174395524536078
            ]
        },
        {
            "positions": [
                -0.3377819741531067,
                -1.3740238924183332,
                2.4254484917676122,
                -1.040918926068033,
                1.2277842223013768,
                3.188345964717628
            ]
        }
    ]
}{
    "goal": {
        "global_pose": {
            "orientation": {
                "w": 0.5084816217422485,
                "x": -0.49083608388900757,
                "y": 0.5182115435600281,
                "z": -0.4816462993621826
            },
            "position": {
                "x": 0.5540239810943604,
                "y": 0.030875300988554955,
                "z": 0.16403168439865112
            }
        },
        "name": "move_to_storage_A"
    },
    "id": "LazyPRM_move_to_storage_A_106",
    "joint_names": [
        "shoulder_pan_joint",
        "shoulder_lift_joint",
        "elbow_joint",
        "wrist_1_joint",
        "wrist_2_joint",
        "wrist_3_joint"
    ],
    "metrics": {
        "cart_traj_len": 0.3534694136042133,
        "distance_elbow_joint": 0.45020547023594926,
        "distance_shoulder_lift_joint": 0.23365295940568376,
        "distance_shoulder_pan_joint": 0.4628230781044539,
        "distance_wrist_1_joint": 0.24661430264485662,
        "distance_wrist_2_joint": 1.0963948871177511,
        "distance_wrist_3_joint": 0.0931781125258655,
        "smoothness": 8.881784197001252e-16,
        "time": 0.021863569000000003,
        "traj_len": 1.607130613868879,
        "weighted_distance": 2.027864449328135
    },
    "planner": "LazyPRM",
    "start": {
        "state": {
            "elbow_joint": 1.9715472970024885,
            "shoulder_lift_joint": -1.1394870060712896,
            "shoulder_pan_joint": 0.12281152778156021,
            "wrist_1_joint": -0.780463741449964,
            "wrist_2_joint": 0.12958659822042276,
            "wrist_3_joint": 3.090690232415272
        }
    },
    "waypoints": [
        {
            "positions": [
                0.12281152778156021,
                -1.1394870060712896,
                1.9715472970024885,
                -0.780463741449964,
                0.12958659822042276,
                3.090690232415272
            ]
        },
        {
            "positions": [
                0.056693945195209663,
                -1.1728660002721016,
                2.0358623641790525,
                -0.8156943561135149,
                0.2862144392372443,
                3.104001391347538
            ]
        },
        {
            "positions": [
                -0.009423637391140882,
                -1.2062449944729134,
                2.100177431355617,
                -0.8509249707770659,
                0.4428422802540659,
                3.117312550279805
            ]
        },
        {
            "positions": [
                -0.07554121997749144,
                -1.2396239886737255,
                2.164492498532181,
                -0.8861555854406168,
                0.5994701212708875,
                3.1306237092120712
            ]
        },
        {
            "positions": [
                -0.14165880256384197,
                -1.2730029828745375,
                2.2288075657087454,
                -0.9213862001041677,
                0.7560979622877091,
                3.143934868144338
            ]
        },
        {
            "positions": [
                -0.20777638515019256,
                -1.3063819770753495,
                2.2931226328853094,
                -0.9566168147677188,
                0.9127258033045307,
                3.1572460270766043
            ]
        },
        {
            "positions": [
                -0.27389396773654306,
                -1.3397609712761613,
                2.3574377000618734,
                -0.9918474294312697,
                1.0693536443213523,
                3.170557186008871
            ]
        },
        {
            "positions": [
                -0.34001155032289365,
                -1.3731399654769734,
                2.421752767238438,
                -1.0270780440948206,
                1.2259814853381739,
                3.1838683449411374
            ]
        }
    ]
}