{
    "goal": {
        "global_pose": {
            "orientation": {
                "w": 0.7031023480610252,
                "x": -0.7110244013736278,
                "y": 0.0077485991402295624,
                "z": 0.005598929693374583
            },
            "position": {
                "x": -0.8841497679147869,
                "y": 0.44412534475326537,
                "z": 0.3711530566215515
            }
        },
        "name": "move_to_auspresseinheit_D"
    },
    "id": "LazyPRM_move_to_auspresseinheit_D_13",
    "joint_names": [
        "shoulder_pan_joint",
        "shoulder_lift_joint",
        "elbow_joint",
        "wrist_1_joint",
        "wrist_2_joint",
        "wrist_3_joint"
    ],
    "metrics": {
        "cart_traj_len": 0.34373971138050025,
        "distance_elbow_joint": 0.6430965658827648,
        "distance_shoulder_lift_joint": 0.12361045892656941,
        "distance_shoulder_pan_joint": 0.13429464493419324,
        "distance_wrist_1_joint": 0.5474738196906221,
        "distance_wrist_2_joint": 1.43678751824194,
        "distance_wrist_3_joint": 0.00937890693451715,
        "smoothness": 3.9474596431116675e-16,
        "time": 0.012346239,
        "traj_len": 1.701364721219588,
        "weighted_distance": 2.213065987812429
    },
    "planner": "LazyPRM",
    "start": {
        "state": {
            "elbow_joint": -1.8275523626775212,
            "shoulder_lift_joint": -2.126789852344167,
            "shoulder_pan_joint": -0.03513704404078235,
            "wrist_1_joint": -2.347782403156801,
            "wrist_2_joint": -1.6058999987535132,
            "wrist_3_joint": -3.0880379163319196
        }
    },
    "waypoints": [
        {
            "positions": [
                -0.03513704404078235,
                -2.126789852344167,
                -1.8275523626775212,
                -2.347782403156801,
                -1.6058999987535132,
                -3.0880379163319196
            ]
        },
        {
            "positions": [
                -0.051923874657556504,
                -2.142241159709988,
                -1.7471652919421756,
                -2.4162166306181287,
                -1.4263015589732706,
                -3.086865552965105
            ]
        },
        {
            "positions": [
                -0.06871070527433065,
                -2.157692467075809,
                -1.66677822120683,
                -2.4846508580794566,
                -1.2467031191930282,
                -3.0856931895982904
            ]
        },
        {
            "positions": [
                -0.08549753589110481,
                -2.1731437744416304,
                -1.5863911504714845,
                -2.553085085540784,
                -1.0671046794127856,
                -3.0845208262314756
            ]
        },
        {
            "positions": [
                -0.10228436650787898,
                -2.1885950818074518,
                -1.506004079736139,
                -2.621519313002112,
                -0.8875062396325432,
                -3.0833484628646612
            ]
        },
        {
            "positions": [
                -0.11907119712465314,
                -2.2040463891732727,
                -1.4256170090007934,
                -2.68995354046344,
                -0.7079077998523007,
                -3.0821760994978464
            ]
        },
        {
            "positions": [
                -0.13585802774142727,
                -2.219497696539094,
                -1.3452299382654476,
                -2.7583877679247673,
                -0.5283093600720581,
                -3.0810037361310316
            ]
        },
        {
            "positions": [
                -0.15264485835820144,
                -2.234949003904915,
                -1.264842867530102,
                -2.826821995386095,
                -0.3487109202918157,
                -3.0798313727642173
            ]
        },
        {
            "positions": [
                -0.1694316889749756,
                -2.2504003112707363,
                -1.1844557967947564,
                -2.895256222847423,
                -0.1691124805115732,
                -3.0786590093974024
            ]
        }
    ]
}