{
    "goal": {
        "global_pose": {
            "orientation": {
                "w": -0.00223480608172531,
                "x": 0.0024358444001904467,
                "y": 0.7094548369677653,
                "z": -0.704743149386269
            },
            "position": {
                "x": 0.6205249238014221,
                "y": -0.6371506643295288,
                "z": 0.19426114857196808
            }
        },
        "name": "move_to_magneteinheit_B"
    },
    "id": "LazyPRMstar_move_to_magneteinheit_B_12",
    "joint_names": [
        "shoulder_pan_joint",
        "shoulder_lift_joint",
        "elbow_joint",
        "wrist_1_joint",
        "wrist_2_joint",
        "wrist_3_joint"
    ],
    "metrics": {
        "cart_traj_len": 3.078378718452662,
        "distance_elbow_joint": 4.295920471392364,
        "distance_shoulder_lift_joint": 1.0566059327544846,
        "distance_shoulder_pan_joint": 2.452187910139364,
        "distance_wrist_1_joint": 0.9805913033217148,
        "distance_wrist_2_joint": 1.2287809294470322,
        "distance_wrist_3_joint": 0.2777421266733029,
        "smoothness": 0.14641156464544122,
        "time": 5.043168884,
        "traj_len": 3.2080880090371995,
        "weighted_distance": 3.613403542346691
    },
    "planner": "LazyPRMstar",
    "start": {
        "state": {
            "elbow_joint": 2.6216224122426386,
            "shoulder_lift_joint": -1.4174107377796124,
            "shoulder_pan_joint": 0.7066234856936794,
            "wrist_1_joint": 1.9546482284002225,
            "wrist_2_joint": -0.7096286983471962,
            "wrist_3_joint": 0.005740856962016249
        }
    },
    "waypoints": [
        {
            "positions": [
                0.7066234856936794,
                -1.4174107377796124,
                2.6216224122426386,
                1.9546482284002225,
                -0.7096286983471962,
                0.005740856962016249
            ]
        },
        {
            "positions": [
                0.6840816461723037,
                -1.5634939492700863,
                2.563879674976497,
                1.8843317137686502,
                -0.7141231005879202,
                -0.02047659693934733
            ]
        },
        {
            "positions": [
                0.6615398066509279,
                -1.7095771607605605,
                2.5061369377103553,
                1.8140151991370779,
                -0.7186175028286441,
                -0.04669405084071091
            ]
        },
        {
            "positions": [
                0.6389979671295523,
                -1.8556603722510348,
                2.448394200444213,
                1.7436986845055056,
                -0.7231119050693681,
                -0.07291150474207449
            ]
        },
        {
            "positions": [
                0.6164561276081766,
                -2.0017435837415087,
                2.3906514631780715,
                1.6733821698739333,
                -0.727606307310092,
                -0.09912895864343807
            ]
        },
        {
            "positions": [
                0.7633178437801138,
                -2.015837904944234,
                2.1925439479740096,
                1.6656495991795948,
                -0.7132333139345325,
                -0.09519553558297472
            ]
        },
        {
            "positions": [
                0.9101795599520511,
                -2.0299322261469595,
                1.9944364327699475,
                1.657917028485256,
                -0.698860320558973,
                -0.09126211252251136
            ]
        },
        {
            "positions": [
                1.0570412761239885,
                -2.0440265473496844,
                1.7963289175658854,
                1.6501844577909175,
                -0.6844873271834135,
                -0.087328689462048
            ]
        },
        {
            "positions": [
                1.2039029922959257,
                -2.0581208685524097,
                1.5982214023618235,
                1.6424518870965787,
                -0.670114333807854,
                -0.08339526640158465
            ]
        },
        {
            "positions": [
                1.350764708467863,
                -2.072215189755135,
                1.4001138871577614,
                1.6347193164022402,
                -0.6557413404322945,
                -0.0794618433411213
            ]
        },
        {
            "positions": [
                1.4976264246398003,
                -2.0863095109578604,
                1.2020063719536993,
                1.6269867457079015,
                -0.641368347056735,
                -0.07552842028065794
            ]
        },
        {
            "positions": [
                1.6444881408117376,
                -2.100403832160586,
                1.0038988567496372,
                1.619254175013563,
                -0.6269953536811754,
                -0.07159499722019458
            ]
        },
        {
            "positions": [
                1.7913498569836748,
                -2.1144981533633107,
                0.8057913415455753,
                1.6115216043192242,
                -0.612622360305616,
                -0.06766157415973123
            ]
        },
        {
            "positions": [
                1.938211573155612,
                -2.128592474566036,
                0.6076838263415132,
                1.6037890336248857,
                -0.5982493669300565,
                -0.06372815109926788
            ]
        },
        {
            "positions": [
                2.085073289327549,
                -2.1426867957687614,
                0.4095763111374513,
                1.596056462930547,
                -0.583876373554497,
                -0.05979472803880452
            ]
        },
        {
            "positions": [
                2.231935005499486,
                -2.1567811169714868,
                0.2114687959333894,
                1.5883238922362084,
                -0.5695033801789374,
                -0.055861304978341166
            ]
        },
        {
            "positions": [
                2.3787967216714243,
                -2.170875438174212,
                0.013361280729327074,
                1.5805913215418697,
                -0.5551303868033779,
                -0.051927881917877804
            ]
        },
        {
            "positions": [
                2.5256584378433615,
                -2.184969759376937,
                -0.18474623447473526,
                1.5728587508475311,
                -0.5407573934278185,
                -0.04799445885741445
            ]
        },
        {
            "positions": [
                2.6725201540152987,
                -2.1990640805796624,
                -0.38285374967879715,
                1.5651261801531924,
                -0.526384400052259,
                -0.044061035796951094
            ]
        },
        {
            "positions": [
                2.819381870187236,
                -2.2131584017823878,
                -0.580961264882859,
                1.5573936094588539,
                -0.5120114066766994,
                -0.04012761273648774
            ]
        },
        {
            "positions": [
                2.8097095100412193,
                -2.2405931038750455,
                -0.7267736309855402,
                1.507466587701826,
                -0.4065148470456281,
                -0.04366418639364381
            ]
        },
        {
            "positions": [
                2.8000371498952026,
                -2.2680278059677033,
                -0.8725859970882214,
                1.457539565944798,
                -0.3010182874145569,
                -0.04720076005079988
            ]
        },
        {
            "positions": [
                2.790364789749186,
                -2.295462508060361,
                -1.0183983631909026,
                1.4076125441877703,
                -0.1955217277834856,
                -0.05073733370795595
            ]
        },
        {
            "positions": [
                2.7806924296031688,
                -2.3228972101530183,
                -1.1642107292935837,
                1.3576855224307425,
                -0.09002516815241435,
                -0.05427390736511202
            ]
        },
        {
            "positions": [
                2.771020069457152,
                -2.350331912245676,
                -1.3100230953962648,
                1.3077585006737147,
                0.015471391478656948,
                -0.057810481022268094
            ]
        },
        {
            "positions": [
                2.7613477093111354,
                -2.377766614338334,
                -1.4558354614989462,
                1.2578314789166867,
                0.12096795110972824,
                -0.06134705467942417
            ]
        },
        {
            "positions": [
                2.7516753491651187,
                -2.4052013164309916,
                -1.6016478276016273,
                1.2079044571596589,
                0.22646451074079954,
                -0.06488362833658023
            ]
        },
        {
            "positions": [
                2.721212586347557,
                -2.4281397677986933,
                -1.6258645714509934,
                1.1299552797992751,
                0.3120420115518811,
                -0.03517864514964497
            ]
        },
        {
            "positions": [
                2.690749823529995,
                -2.451078219166395,
                -1.6500813153003593,
                1.0520061024388914,
                0.39761951236296267,
                -0.005473661962709701
            ]
        },
        {
            "positions": [
                2.6602870607124336,
                -2.474016670534097,
                -1.6742980591497254,
                0.9740569250785076,
                0.4831970131740443,
                0.024231321224225565
            ]
        }
    ]
}