{
    "goal": {
        "global_pose": {
            "orientation": {
                "w": -0.4816463035849501,
                "x": 0.5182115481033762,
                "y": 0.4908360881923453,
                "z": -0.5084816262002911
            },
            "position": {
                "x": -0.8240239810943604,
                "y": 0.19912469901144506,
                "z": 0.16403168439865112
            }
        },
        "name": "move_to_storage_D"
    },
    "id": "LazyPRM_move_to_storage_D_25",
    "joint_names": [
        "shoulder_pan_joint",
        "shoulder_lift_joint",
        "elbow_joint",
        "wrist_1_joint",
        "wrist_2_joint",
        "wrist_3_joint"
    ],
    "metrics": {
        "cart_traj_len": 0.5591272504963416,
        "distance_elbow_joint": 0.6471713088266349,
        "distance_shoulder_lift_joint": 0.15668575236825166,
        "distance_shoulder_pan_joint": 0.15083065581398755,
        "distance_wrist_1_joint": 3.822848125043595,
        "distance_wrist_2_joint": 1.7807172446616346,
        "distance_wrist_3_joint": 3.53415182626043,
        "smoothness": 0.46263213917152696,
        "time": 0.108024885,
        "traj_len": 3.176854562767162,
        "weighted_distance": 4.771192087434819
    },
    "planner": "LazyPRM",
    "start": {
        "state": {
            "elbow_joint": -2.384821988534728,
            "shoulder_lift_joint": -2.2788054721415256,
            "shoulder_pan_joint": -0.1854694642142757,
            "wrist_1_joint": 1.4845938289331202,
            "wrist_2_joint": 0.17898776772866878,
            "wrist_3_joint": 0.037105688729662994
        }
    },
    "waypoints": [
        {
            "positions": [
                -0.1854694642142757,
                -2.2788054721415256,
                -2.384821988534728,
                1.4845938289331202,
                0.17898776772866878,
                0.037105688729662994
            ]
        },
        {
            "positions": [
                -0.18290161977972713,
                -2.279845102180697,
                -2.4081615581742435,
                1.401843123566184,
                0.07351214001545125,
                0.14128274986983122
            ]
        },
        {
            "positions": [
                -0.18033377534517858,
                -2.2808847322198686,
                -2.4315011278137586,
                1.3190924181992474,
                -0.031963487697766274,
                0.24545981100999945
            ]
        },
        {
            "positions": [
                -0.1742631517224748,
                -2.2744427950411223,
                -2.4064806207492753,
                1.1667029717696755,
                -0.09737040391589957,
                0.10688490667749556
            ]
        },
        {
            "positions": [
                -0.16819252809977106,
                -2.2680008578623765,
                -2.3814601136847915,
                1.0143135253401039,
                -0.16277732013403287,
                -0.03168999765500832
            ]
        },
        {
            "positions": [
                -0.16212190447706729,
                -2.26155892068363,
                -2.356439606620308,
                0.861924078910532,
                -0.2281842363521662,
                -0.17026490198751223
            ]
        },
        {
            "positions": [
                -0.1560512808543635,
                -2.255116983504884,
                -2.3314190995558244,
                0.7095346324809603,
                -0.29359115257029944,
                -0.30883980632001606
            ]
        },
        {
            "positions": [
                -0.14998065723165974,
                -2.2486750463261376,
                -2.306398592491341,
                0.5571451860513884,
                -0.3589980687884329,
                -0.44741471065252003
            ]
        },
        {
            "positions": [
                -0.143910033608956,
                -2.2422331091473913,
                -2.2813780854268577,
                0.40475573962181666,
                -0.4244049850065661,
                -0.5859896149850239
            ]
        },
        {
            "positions": [
                -0.13783940998625221,
                -2.2357911719686454,
                -2.256357578362374,
                0.2523662931922448,
                -0.4898119012246994,
                -0.7245645193175279
            ]
        },
        {
            "positions": [
                -0.13176878636354844,
                -2.229349234789899,
                -2.2313370712978906,
                0.09997684676267315,
                -0.5552188174428326,
                -0.8631394236500316
            ]
        },
        {
            "positions": [
                -0.12569816274084467,
                -2.222907297611153,
                -2.206316564233407,
                -0.05241259966689871,
                -0.6206257336609661,
                -1.0017143279825356
            ]
        },
        {
            "positions": [
                -0.11962753911814092,
                -2.216465360432407,
                -2.1812960571689235,
                -0.20480204609647057,
                -0.6860326498790994,
                -1.1402892323150395
            ]
        },
        {
            "positions": [
                -0.11355691549543716,
                -2.2100234232536606,
                -2.15627555010444,
                -0.3571914925260422,
                -0.7514395660972326,
                -1.2788641366475433
            ]
        },
        {
            "positions": [
                -0.10748629187273338,
                -2.2035814860749143,
                -2.1312550430399564,
                -0.5095809389556141,
                -0.8168464823153659,
                -1.4174390409800472
            ]
        },
        {
            "positions": [
                -0.10141566825002962,
                -2.197139548896168,
                -2.106234535975473,
                -0.6619703853851857,
                -0.8822533985334992,
                -1.556013945312551
            ]
        },
        {
            "positions": [
                -0.09534504462732585,
                -2.1906976117174217,
                -2.0812140289109893,
                -0.8143598318147578,
                -0.9476603147516326,
                -1.6945888496450552
            ]
        },
        {
            "positions": [
                -0.08927442100462209,
                -2.184255674538676,
                -2.056193521846506,
                -0.9667492782443297,
                -1.013067230969766,
                -1.833163753977559
            ]
        },
        {
            "positions": [
                -0.08320379738191833,
                -2.1778137373599296,
                -2.0311730147820226,
                -1.119138724673901,
                -1.0784741471878991,
                -1.9717386583100627
            ]
        },
        {
            "positions": [
                -0.07713317375921455,
                -2.1713718001811833,
                -2.006152507717539,
                -1.271528171103473,
                -1.1438810634060326,
                -2.110313562642567
            ]
        },
        {
            "positions": [
                -0.07106255013651078,
                -2.1649298630024374,
                -1.9811320006530555,
                -1.4239176175330448,
                -1.209287979624166,
                -2.2488884669750706
            ]
        },
        {
            "positions": [
                -0.06499192651380702,
                -2.158487925823691,
                -1.956111493588572,
                -1.5763070639626167,
                -1.2746948958422992,
                -2.3874633713075744
            ]
        },
        {
            "positions": [
                -0.05892130289110324,
                -2.152045988644945,
                -1.9310909865240884,
                -1.7286965103921885,
                -1.3401018120604327,
                -2.5260382756400785
            ]
        },
        {
            "positions": [
                -0.05285067926839948,
                -2.1456040514661985,
                -1.906070479459605,
                -1.88108595682176,
                -1.4055087282785659,
                -2.6646131799725823
            ]
        },
        {
            "positions": [
                -0.046780055645695734,
                -2.139162114287452,
                -1.8810499723951213,
                -2.033475403251332,
                -1.470915644496699,
                -2.803188084305086
            ]
        },
        {
            "positions": [
                -0.04070943202299196,
                -2.1327201771087063,
                -1.856029465330638,
                -2.185864849680904,
                -1.5363225607148325,
                -2.9417629886375902
            ]
        },
        {
            "positions": [
                -0.03463880840028818,
                -2.12627823992996,
                -1.8310089582661544,
                -2.3382542961104753,
                -1.6017294769329657,
                -3.080337892970094
            ]
        }
    ]
}