{
    "goal": {
        "global_pose": {
            "orientation": {
                "w": 0.7031023502349854,
                "x": -0.7110244035720825,
                "y": 0.007748599164187908,
                "z": 0.005598929710686207
            },
            "position": {
                "x": 0.11585023208521307,
                "y": 0.44412534475326537,
                "z": 0.3711530566215515
            }
        },
        "name": "move_to_auspresseinheit_A"
    },
    "id": "LazyPRM_move_to_auspresseinheit_A_88",
    "joint_names": [
        "shoulder_pan_joint",
        "shoulder_lift_joint",
        "elbow_joint",
        "wrist_1_joint",
        "wrist_2_joint",
        "wrist_3_joint"
    ],
    "metrics": {
        "cart_traj_len": 1.46390481618487,
        "distance_elbow_joint": 0.7259976654072342,
        "distance_shoulder_lift_joint": 1.2749958891472508,
        "distance_shoulder_pan_joint": 1.6672593535326392,
        "distance_wrist_1_joint": 0.8232177922973625,
        "distance_wrist_2_joint": 1.5671828380705128,
        "distance_wrist_3_joint": 1.3985326014543822,
        "smoothness": 0.954293658132467,
        "time": 0.201283132,
        "traj_len": 2.7307848944780293,
        "weighted_distance": 3.555931941585218
    },
    "planner": "LazyPRM",
    "start": {
        "state": {
            "elbow_joint": 2.4225746658250005,
            "shoulder_lift_joint": -1.3736534386056498,
            "shoulder_pan_joint": -0.3378633547517467,
            "wrist_1_joint": -1.0288598680537169,
            "wrist_2_joint": 1.233022673432363,
            "wrist_3_joint": -3.0940220416140027
        }
    },
    "waypoints": [
        {
            "positions": [
                -0.3378633547517467,
                -1.3736534386056498,
                2.4225746658250005,
                -1.0288598680537169,
                1.233022673432363,
                -3.0940220416140027
            ]
        },
        {
            "positions": [
                -0.3153475646343087,
                -1.4540688401011872,
                2.402455836772778,
                -1.006248870565798,
                1.1153976247105581,
                -3.00282087582956
            ]
        },
        {
            "positions": [
                -0.29283177451687065,
                -1.5344842415967244,
                2.382337007720555,
                -0.9836378730778788,
                0.9977725759887532,
                -2.911619710045117
            ]
        },
        {
            "positions": [
                -0.2703159843994326,
                -1.6148996430922615,
                2.3622181786683325,
                -0.9610268755899597,
                0.8801475272669483,
                -2.820418544260674
            ]
        },
        {
            "positions": [
                -0.24780019428199462,
                -1.695315044587799,
                2.34209934961611,
                -0.9384158781020406,
                0.7625224785451434,
                -2.729217378476231
            ]
        },
        {
            "positions": [
                -0.22528440416455658,
                -1.7757304460833363,
                2.321980520563887,
                -0.9158048806141216,
                0.6448974298233385,
                -2.638016212691788
            ]
        },
        {
            "positions": [
                -0.20276861404711854,
                -1.8561458475788735,
                2.3018616915116645,
                -0.8931938831262025,
                0.5272723811015336,
                -2.546815046907345
            ]
        },
        {
            "positions": [
                -0.05162012241769859,
                -1.916349705913497,
                2.2649068380611554,
                -0.8225726528650515,
                0.4909286590292372,
                -2.5281447472260163
            ]
        },
        {
            "positions": [
                0.09952836921172137,
                -1.9765535642481205,
                2.227951984610647,
                -0.7519514226039006,
                0.45458493695694085,
                -2.509474447544687
            ]
        },
        {
            "positions": [
                0.2506768608411413,
                -2.036757422582744,
                2.1909971311601377,
                -0.6813301923427496,
                0.41824121488464444,
                -2.4908041478633582
            ]
        },
        {
            "positions": [
                0.4018253524705613,
                -2.0969612809173674,
                2.154042277709629,
                -0.6107089620815986,
                0.3818974928123481,
                -2.4721338481820294
            ]
        },
        {
            "positions": [
                0.5529738440999813,
                -2.1571651392519913,
                2.11708742425912,
                -0.5400877318204476,
                0.34555377074005167,
                -2.4534635485007006
            ]
        },
        {
            "positions": [
                0.7041223357294012,
                -2.2173689975866147,
                2.0801325708086114,
                -0.46946650155929665,
                0.30921004866775526,
                -2.4347932488193713
            ]
        },
        {
            "positions": [
                0.8552708273588212,
                -2.277572855921238,
                2.0431777173581023,
                -0.3988452712981456,
                0.27286632659545884,
                -2.4161229491380425
            ]
        },
        {
            "positions": [
                0.8881209306742888,
                -2.2221462668125893,
                2.10468513027977,
                -0.38534767469268266,
                0.3782104742101725,
                -2.542458295470716
            ]
        },
        {
            "positions": [
                0.9209710339897562,
                -2.166719677703941,
                2.1661925432014377,
                -0.3718500780872197,
                0.4835546218248862,
                -2.668793641803389
            ]
        },
        {
            "positions": [
                0.9538211373052238,
                -2.1112930885952923,
                2.2276999561231055,
                -0.3583524814817568,
                0.5888987694395998,
                -2.795128988136062
            ]
        },
        {
            "positions": [
                0.9866712406206912,
                -2.055866499486644,
                2.289207369044773,
                -0.34485488487629384,
                0.6942429170543135,
                -2.921464334468735
            ]
        },
        {
            "positions": [
                1.0195213439361588,
                -2.0004399103779953,
                2.350714781966441,
                -0.3313572882708309,
                0.7995870646690272,
                -3.0477996808014085
            ]
        },
        {
            "positions": [
                0.8933441643588478,
                -1.962463336508657,
                2.3697165489974275,
                -0.3857804623982213,
                0.7639609399041825,
                -3.087934966802149
            ]
        },
        {
            "positions": [
                0.7671669847815368,
                -1.9244867626393185,
                2.388718316028414,
                -0.4402036365256117,
                0.7283348151393376,
                -3.1280702528028903
            ]
        },
        {
            "positions": [
                0.7096466890914251,
                -1.9064963840895754,
                2.3897784342984383,
                -0.4570725007853076,
                0.719281311508987,
                -3.1367564581164644
            ]
        }
    ]
}