{
    "goal": {
        "global_pose": {
            "orientation": {
                "w": 0.7047431468963623,
                "x": -0.7094548344612122,
                "y": 0.0024358443915843964,
                "z": -0.0022348060738295317
            },
            "position": {
                "x": 0.6094750761985779,
                "y": 0.3671506643295288,
                "z": 0.19426114857196808
            }
        },
        "name": "move_to_magneteinheit_A"
    },
    "id": "LazyPRM_move_to_magneteinheit_A_96",
    "joint_names": [
        "shoulder_pan_joint",
        "shoulder_lift_joint",
        "elbow_joint",
        "wrist_1_joint",
        "wrist_2_joint",
        "wrist_3_joint"
    ],
    "metrics": {
        "cart_traj_len": 3.086956519310265,
        "distance_elbow_joint": 3.90624459225349,
        "distance_shoulder_lift_joint": 1.7257065995245053,
        "distance_shoulder_pan_joint": 4.815691112155892,
        "distance_wrist_1_joint": 3.451964280943951,
        "distance_wrist_2_joint": 1.4482393820935524,
        "distance_wrist_3_joint": 0.42999768359170243,
        "smoothness": 0.2418988670573915,
        "time": 0.101746754,
        "traj_len": 3.972133387811026,
        "weighted_distance": 4.640909682463558
    },
    "planner": "LazyPRM",
    "start": {
        "state": {
            "elbow_joint": -1.9196185241190666,
            "shoulder_lift_joint": -1.2443396400964142,
            "shoulder_pan_joint": 2.6996025414629847,
            "wrist_1_joint": -1.5485510000780065,
            "wrist_2_joint": -1.5709468930060704,
            "wrist_3_joint": 0.4420197071253992
        }
    },
    "waypoints": [
        {
            "positions": [
                2.6996025414629847,
                -1.2443396400964142,
                -1.9196185241190666,
                -1.5485510000780065,
                -1.5709468930060704,
                0.4420197071253992
            ]
        },
        {
            "positions": [
                2.5721222916322994,
                -1.2660062408838613,
                -1.7948172702610474,
                -1.4692040129952157,
                -1.5524922762636693,
                0.4274520655592167
            ]
        },
        {
            "positions": [
                2.4446420418016146,
                -1.2876728416713084,
                -1.6700160164030284,
                -1.3898570259124248,
                -1.5340376595212681,
                0.41288442399303427
            ]
        },
        {
            "positions": [
                2.3171617919709293,
                -1.3093394424587552,
                -1.5452147625450092,
                -1.310510038829634,
                -1.5155830427788668,
                0.3983167824268518
            ]
        },
        {
            "positions": [
                2.189681542140244,
                -1.3310060432462023,
                -1.42041350868699,
                -1.2311630517468433,
                -1.4971284260364657,
                0.38374914086066936
            ]
        },
        {
            "positions": [
                2.0622012923095587,
                -1.3526726440336494,
                -1.2956122548289708,
                -1.1518160646640525,
                -1.4786738092940646,
                0.36918149929448696
            ]
        },
        {
            "positions": [
                1.9347210424788739,
                -1.3743392448210965,
                -1.1708110009709518,
                -1.0724690775812615,
                -1.4602191925516634,
                0.3546138577283045
            ]
        },
        {
            "positions": [
                1.8072407926481886,
                -1.3960058456085436,
                -1.0460097471129326,
                -0.9931220904984708,
                -1.441764575809262,
                0.34004621616212205
            ]
        },
        {
            "positions": [
                1.6797605428175035,
                -1.4176724463959904,
                -0.9212084932549135,
                -0.91377510341568,
                -1.423309959066861,
                0.3254785745959396
            ]
        },
        {
            "positions": [
                1.5522802929868182,
                -1.4393390471834375,
                -0.7964072393968942,
                -0.8344281163328892,
                -1.4048553423244599,
                0.31091093302975714
            ]
        },
        {
            "positions": [
                1.4248000431561332,
                -1.4610056479708846,
                -0.671605985538875,
                -0.7550811292500983,
                -1.3864007255820585,
                0.2963432914635747
            ]
        },
        {
            "positions": [
                1.2973197933254481,
                -1.4826722487583317,
                -0.546804731680856,
                -0.6757341421673075,
                -1.3679461088396574,
                0.28177564989739223
            ]
        },
        {
            "positions": [
                1.169839543494763,
                -1.5043388495457788,
                -0.42200347782283676,
                -0.5963871550845167,
                -1.3494914920972563,
                0.26720800833120983
            ]
        },
        {
            "positions": [
                1.0423592936640778,
                -1.5260054503332257,
                -0.29720222396481755,
                -0.5170401680017258,
                -1.3310368753548552,
                0.2526403667650273
            ]
        },
        {
            "positions": [
                0.9148790438333925,
                -1.5476720511206727,
                -0.17240097010679856,
                -0.43769318091893505,
                -1.312582258612454,
                0.2380727251988449
            ]
        },
        {
            "positions": [
                0.7873987940027074,
                -1.5693386519081198,
                -0.047599716248779345,
                -0.3583461938361443,
                -1.2941276418700527,
                0.22350508363266244
            ]
        },
        {
            "positions": [
                0.6599185441720223,
                -1.591005252695567,
                0.07720153760923965,
                -0.27899920675335355,
                -1.2756730251276516,
                0.20893744206648
            ]
        },
        {
            "positions": [
                0.5324382943413375,
                -1.6126718534830138,
                0.20200279146725864,
                -0.1996522196705628,
                -1.2572184083852505,
                0.19436980050029756
            ]
        },
        {
            "positions": [
                0.40495804451065176,
                -1.6343384542704609,
                0.3268040453252783,
                -0.12030523258777182,
                -1.238763791642849,
                0.1798021589341151
            ]
        },
        {
            "positions": [
                0.2774777946799669,
                -1.656005055057908,
                0.45160529918329706,
                -0.04095824550498106,
                -1.2203091749004482,
                0.16523451736793265
            ]
        },
        {
            "positions": [
                0.14999754484928163,
                -1.677671655845355,
                0.5764065530413167,
                0.038388741577809915,
                -1.2018545581580469,
                0.1506668758017502
            ]
        },
        {
            "positions": [
                0.02251729501859634,
                -1.6993382566328021,
                0.7012078068993355,
                0.11773572866060067,
                -1.1833999414156458,
                0.13609923423556775
            ]
        },
        {
            "positions": [
                -0.1049629548120885,
                -1.721004857420249,
                0.8260090607573547,
                0.19708271574339142,
                -1.1649453246732446,
                0.12153159266938535
            ]
        },
        {
            "positions": [
                -0.2324432046427738,
                -1.742671458207696,
                0.9508103146153739,
                0.2764297028261824,
                -1.1464907079308433,
                0.10696395110320284
            ]
        },
        {
            "positions": [
                -0.35992345447345864,
                -1.7643380589951432,
                1.0756115684733931,
                0.35577668990897315,
                -1.1280360911884422,
                0.09239630953702044
            ]
        },
        {
            "positions": [
                -0.4874037043041439,
                -1.78600465978259,
                1.2004128223314119,
                0.4351236769917637,
                -1.109581474446041,
                0.07782866797083798
            ]
        },
        {
            "positions": [
                -0.6148839541348292,
                -1.8076712605700371,
                1.3252140761894315,
                0.5144706640745549,
                -1.09112685770364,
                0.06326102640465553
            ]
        },
        {
            "positions": [
                -0.7423642039655141,
                -1.8293378613574842,
                1.4500153300474503,
                0.5938176511573456,
                -1.0726722409612388,
                0.048693384838473075
            ]
        },
        {
            "positions": [
                -0.8698444537961998,
                -1.8510044621449313,
                1.5748165839054695,
                0.6731646382401364,
                -1.0542176242188375,
                0.03412574327229062
            ]
        },
        {
            "positions": [
                -0.9973247036268845,
                -1.8726710629323784,
                1.6996178377634887,
                0.7525116253229273,
                -1.0357630074764363,
                0.019558101706108166
            ]
        },
        {
            "positions": [
                -0.9040943813713826,
                -1.7812231315416667,
                1.7235351902944,
                0.8484200966181787,
                -0.9596750494294431,
                0.020186108220475767
            ]
        },
        {
            "positions": [
                -0.8108640591158808,
                -1.689775200150955,
                1.7474525428253114,
                0.9443285679134303,
                -0.88358709138245,
                0.020814114734843372
            ]
        },
        {
            "positions": [
                -0.7176337368603789,
                -1.5983272687602432,
                1.7713698953562227,
                1.040237039208682,
                -0.8074991333354566,
                0.021442121249210973
            ]
        },
        {
            "positions": [
                -0.6244034146048769,
                -1.5068793373695315,
                1.795287247887134,
                1.1361455105039333,
                -0.7314111752884634,
                0.022070127763578574
            ]
        },
        {
            "positions": [
                -0.531173092349375,
                -1.4154314059788196,
                1.8192046004180453,
                1.232053981799185,
                -0.6553232172414702,
                0.022698134277946178
            ]
        },
        {
            "positions": [
                -0.43794277009387317,
                -1.3239834745881078,
                1.8431219529489566,
                1.3279624530944365,
                -0.5792352591944769,
                0.02332614079231378
            ]
        },
        {
            "positions": [
                -0.3447124478383712,
                -1.2325355431973959,
                1.8670393054798682,
                1.4238709243896879,
                -0.5031473011474837,
                0.023954147306681384
            ]
        },
        {
            "positions": [
                -0.2514821255828694,
                -1.1410876118066844,
                1.8909566580107795,
                1.5197793956849392,
                -0.42705934310049054,
                0.02458215382104898
            ]
        },
        {
            "positions": [
                -0.15825180332736755,
                -1.0496396804159724,
                1.9148740105416908,
                1.615687866980191,
                -0.35097138505349734,
                0.025210160335416586
            ]
        },
        {
            "positions": [
                -0.06502148107186556,
                -0.9581917490252607,
                1.9387913630726021,
                1.7115963382754424,
                -0.27488342700650403,
                0.02583816684978419
            ]
        },
        {
            "positions": [
                0.028208841183636202,
                -0.866743817634549,
                1.9627087156035135,
                1.8075048095706938,
                -0.19879546895951095,
                0.026466173364151788
            ]
        },
        {
            "positions": [
                0.12143916343913823,
                -0.7752958862438373,
                1.9866260681344248,
                1.9034132808659454,
                -0.1227075109125176,
                0.027094179878519392
            ]
        }
    ]
}