{
    "goal": {
        "global_pose": {
            "orientation": {
                "w": 0.005598929693374612,
                "x": 0.007748599140229565,
                "y": 0.7110244013736278,
                "z": -0.7031023480610252
            },
            "position": {
                "x": 0.1141497679147869,
                "y": -0.7141253447532654,
                "z": 0.3711530566215515
            }
        },
        "name": "move_to_auspresseinheit_B"
    },
    "id": "LazyPRM_move_to_auspresseinheit_B_98",
    "joint_names": [
        "shoulder_pan_joint",
        "shoulder_lift_joint",
        "elbow_joint",
        "wrist_1_joint",
        "wrist_2_joint",
        "wrist_3_joint"
    ],
    "metrics": {
        "cart_traj_len": 0.5648081653915088,
        "distance_elbow_joint": 0.05880961472712287,
        "distance_shoulder_lift_joint": 0.29575797125058534,
        "distance_shoulder_pan_joint": 0.5768608653296292,
        "distance_wrist_1_joint": 0.31482656425984157,
        "distance_wrist_2_joint": 0.9984878585511094,
        "distance_wrist_3_joint": 0.010436286509759807,
        "smoothness": 0.0,
        "time": 0.011707025,
        "traj_len": 1.501725394547235,
        "weighted_distance": 1.8945622598527923
    },
    "planner": "LazyPRM",
    "start": {
        "state": {
            "elbow_joint": 2.0193083361928714,
            "shoulder_lift_joint": -1.1220246554650708,
            "shoulder_pan_joint": -1.0952077554168747,
            "wrist_1_joint": -0.8559753972642168,
            "wrist_2_joint": 0.4759566250798843,
            "wrist_3_joint": -3.1240929996934557
        }
    },
    "waypoints": [
        {
            "positions": [
                -1.0952077554168747,
                -1.1220246554650708,
                2.0193083361928714,
                -0.8559753972642168,
                0.4759566250798843,
                -3.1240929996934557
            ]
        },
        {
            "positions": [
                -1.1913512329718128,
                -1.1713176506735017,
                2.009506733738351,
                -0.8035043032209098,
                0.6423712681717358,
                -3.1223536186084955
            ]
        },
        {
            "positions": [
                -1.2874947105267511,
                -1.2206106458819326,
                1.9997051312838305,
                -0.751033209177603,
                0.8087859112635873,
                -3.1206142375235357
            ]
        },
        {
            "positions": [
                -1.3836381880816893,
                -1.2699036410903635,
                1.98990352882931,
                -0.698562115134296,
                0.975200554355439,
                -3.118874856438576
            ]
        },
        {
            "positions": [
                -1.4797816656366274,
                -1.3191966362987944,
                1.9801019263747894,
                -0.6460910210909891,
                1.1416151974472906,
                -3.117135475353616
            ]
        },
        {
            "positions": [
                -1.5759251431915657,
                -1.3684896315072252,
                1.970300323920269,
                -0.5936199270476821,
                1.3080298405391422,
                -3.1153960942686556
            ]
        },
        {
            "positions": [
                -1.6720686207465039,
                -1.4177826267156561,
                1.9604987214657486,
                -0.5411488330043752,
                1.4744444836309938,
                -3.113656713183696
            ]
        }
    ]
}