{
    "goal": {
        "global_pose": {
            "orientation": {
                "w": 0.5084816262002911,
                "x": -0.4908360881923452,
                "y": 0.5182115481033761,
                "z": -0.48164630358495003
            },
            "position": {
                "x": 0.5540239810943604,
                "y": -0.46912469901144505,
                "z": 0.16403168439865112
            }
        },
        "name": "move_to_storage_B"
    },
    "id": "LazyPRMstar_move_to_storage_B_44",
    "joint_names": [
        "shoulder_pan_joint",
        "shoulder_lift_joint",
        "elbow_joint",
        "wrist_1_joint",
        "wrist_2_joint",
        "wrist_3_joint"
    ],
    "metrics": {
        "cart_traj_len": 1.9590427633111134,
        "distance_elbow_joint": 0.35906280251204725,
        "distance_shoulder_lift_joint": 1.943814818177164,
        "distance_shoulder_pan_joint": 0.18254965089461328,
        "distance_wrist_1_joint": 3.023915396395344,
        "distance_wrist_2_joint": 2.7094405750657904,
        "distance_wrist_3_joint": 3.106466205054827,
        "smoothness": 0.098102813528602,
        "time": 5.064001774,
        "traj_len": 3.365300796080461,
        "weighted_distance": 4.824058232408744
    },
    "planner": "LazyPRMstar",
    "start": {
        "state": {
            "elbow_joint": 1.664937868594044,
            "shoulder_lift_joint": -0.661644460510453,
            "shoulder_pan_joint": -0.9139846352900073,
            "wrist_1_joint": 2.146753192139373,
            "wrist_2_joint": -2.2341966793290973,
            "wrist_3_joint": 0.005466555786416001
        }
    },
    "waypoints": [
        {
            "positions": [
                -0.9139846352900073,
                -0.661644460510453,
                1.664937868594044,
                2.146753192139373,
                -2.2341966793290973,
                0.005466555786416001
            ]
        },
        {
            "positions": [
                -0.9319195859433991,
                -0.8119717754400338,
                1.6719780130231892,
                2.101104987579782,
                -2.1283776023222396,
                -0.05564513331589263
            ]
        },
        {
            "positions": [
                -0.949854536596791,
                -0.9622990903696147,
                1.6790181574523344,
                2.055456783020191,
                -2.022558525315382,
                -0.11675682241820126
            ]
        },
        {
            "positions": [
                -0.9677894872501828,
                -1.1126264052991957,
                1.6860583018814796,
                2.0098085784605995,
                -1.9167394483085245,
                -0.1778685115205099
            ]
        },
        {
            "positions": [
                -0.9857244379035746,
                -1.2629537202287764,
                1.693098446310625,
                1.9641603739010085,
                -1.8109203713016668,
                -0.23898020062281852
            ]
        },
        {
            "positions": [
                -1.0036593885569665,
                -1.4132810351583571,
                1.7001385907397704,
                1.918512169341417,
                -1.7051012942948092,
                -0.3000918897251271
            ]
        },
        {
            "positions": [
                -1.0215943392103584,
                -1.563608350087938,
                1.7071787351689156,
                1.872863964781826,
                -1.5992822172879517,
                -0.36120357882743576
            ]
        },
        {
            "positions": [
                -1.03952928986375,
                -1.7139356650175188,
                1.7142188795980609,
                1.8272157602222348,
                -1.493463140281094,
                -0.4223152679297444
            ]
        },
        {
            "positions": [
                -1.057464240517142,
                -1.8642629799470998,
                1.721259024027206,
                1.7815675556626436,
                -1.3876440632742364,
                -0.483426957032053
            ]
        },
        {
            "positions": [
                -1.0593247188822599,
                -1.8289679181023133,
                1.7356752929357244,
                1.6549613766189,
                -1.2989351128451445,
                -0.6080732757099748
            ]
        },
        {
            "positions": [
                -1.061185197247378,
                -1.7936728562575268,
                1.7500915618442427,
                1.5283551975751566,
                -1.2102261624160526,
                -0.7327195943878966
            ]
        },
        {
            "positions": [
                -1.063045675612496,
                -1.7583777944127401,
                1.764507830752761,
                1.401749018531413,
                -1.1215172119869607,
                -0.8573659130658184
            ]
        },
        {
            "positions": [
                -1.0649061539776141,
                -1.7230827325679536,
                1.7789240996612794,
                1.2751428394876694,
                -1.0328082615578689,
                -0.9820122317437403
            ]
        },
        {
            "positions": [
                -1.066766632342732,
                -1.6877876707231672,
                1.7933403685697977,
                1.1485366604439258,
                -0.944099311128777,
                -1.106658550421662
            ]
        },
        {
            "positions": [
                -1.0686271107078502,
                -1.6524926088783807,
                1.807756637478316,
                1.0219304814001824,
                -0.8553903606996851,
                -1.2313048690995838
            ]
        },
        {
            "positions": [
                -1.0704875890729681,
                -1.617197547033594,
                1.8221729063868344,
                0.8953243023564388,
                -0.7666814102705932,
                -1.3559511877775057
            ]
        },
        {
            "positions": [
                -1.072348067438086,
                -1.5819024851888075,
                1.8365891752953527,
                0.7687181233126954,
                -0.6779724598415013,
                -1.4805975064554275
            ]
        },
        {
            "positions": [
                -1.0742085458032042,
                -1.546607423344021,
                1.851005444203871,
                0.6421119442689518,
                -0.5892635094124095,
                -1.6052438251333494
            ]
        },
        {
            "positions": [
                -1.0760690241683222,
                -1.5113123614992345,
                1.8654217131123896,
                0.5155057652252082,
                -0.5005545589833176,
                -1.729890143811271
            ]
        },
        {
            "positions": [
                -1.0779295025334403,
                -1.4760172996544478,
                1.879837982020908,
                0.3888995861814646,
                -0.4118456085542257,
                -1.8545364624891931
            ]
        },
        {
            "positions": [
                -1.0797899808985583,
                -1.4407222378096614,
                1.8942542509294262,
                0.2622934071377212,
                -0.3231366581251338,
                -1.9791827811671148
            ]
        },
        {
            "positions": [
                -1.0816504592636764,
                -1.4054271759648749,
                1.9086705198379446,
                0.13568722809397737,
                -0.23442770769604193,
                -2.1038290998450364
            ]
        },
        {
            "positions": [
                -1.0835109376287944,
                -1.3701321141200884,
                1.9230867887464629,
                0.009081049050233991,
                -0.14571875726695005,
                -2.228475418522958
            ]
        },
        {
            "positions": [
                -1.0853714159939123,
                -1.3348370522753017,
                1.9375030576549812,
                -0.11752512999350961,
                -0.05700980683785817,
                -2.35312173720088
            ]
        },
        {
            "positions": [
                -1.0872318943590304,
                -1.2995419904305154,
                1.9519193265634995,
                -0.24413130903725277,
                0.031699143591233714,
                -2.477768055878802
            ]
        },
        {
            "positions": [
                -1.0890923727241484,
                -1.2642469285857287,
                1.9663355954720179,
                -0.3707374880809968,
                0.1204080940203256,
                -2.602414374556724
            ]
        },
        {
            "positions": [
                -1.0909528510892665,
                -1.2289518667409423,
                1.9807518643805362,
                -0.49734366712474,
                0.20911704444941748,
                -2.7270606932346455
            ]
        },
        {
            "positions": [
                -1.0928133294543845,
                -1.1936568048961558,
                1.9951681332890545,
                -0.6239498461684836,
                0.29782599487850936,
                -2.851707011912567
            ]
        },
        {
            "positions": [
                -1.0946738078195026,
                -1.158361743051369,
                2.009584402197573,
                -0.7505560252122272,
                0.38653494530760124,
                -2.976353330590489
            ]
        },
        {
            "positions": [
                -1.0965342861846206,
                -1.1230666812065826,
                2.024000671106091,
                -0.8771622042559706,
                0.475243895736693,
                -3.100999649268411
            ]
        }
    ]
}