{
    "goal": {
        "global_pose": {
            "orientation": {
                "w": 0.7031023480610252,
                "x": -0.7110244013736278,
                "y": 0.0077485991402295624,
                "z": 0.005598929693374583
            },
            "position": {
                "x": -0.8841497679147869,
                "y": 0.44412534475326537,
                "z": 0.3711530566215515
            }
        },
        "name": "move_to_auspresseinheit_D"
    },
    "id": "LazyPRM_move_to_auspresseinheit_D_124",
    "joint_names": [
        "shoulder_pan_joint",
        "shoulder_lift_joint",
        "elbow_joint",
        "wrist_1_joint",
        "wrist_2_joint",
        "wrist_3_joint"
    ],
    "metrics": {
        "cart_traj_len": 0.34464487351265677,
        "distance_elbow_joint": 0.6512465499367335,
        "distance_shoulder_lift_joint": 0.12753826116773315,
        "distance_shoulder_pan_joint": 0.1340930054715676,
        "distance_wrist_1_joint": 0.5649405145196473,
        "distance_wrist_2_joint": 1.4423969206356677,
        "distance_wrist_3_joint": 0.015238035427156404,
        "smoothness": 0.0,
        "time": 0.012366668,
        "traj_len": 1.7133164585558927,
        "weighted_distance": 2.2300822391042296
    },
    "planner": "LazyPRM",
    "start": {
        "state": {
            "elbow_joint": -1.8275523626775212,
            "shoulder_lift_joint": -2.126789852344167,
            "shoulder_pan_joint": -0.03513704404078235,
            "wrist_1_joint": -2.347782403156801,
            "wrist_2_joint": -1.6058999987535132,
            "wrist_3_joint": -3.0880379163319196
        }
    },
    "waypoints": [
        {
            "positions": [
                -0.03513704404078235,
                -2.126789852344167,
                -1.8275523626775212,
                -2.347782403156801,
                -1.6058999987535132,
                -3.0880379163319196
            ]
        },
        {
            "positions": [
                -0.0518986697247283,
                -2.1427321349901334,
                -1.7461465439354296,
                -2.418399967471757,
                -1.4256003836740547,
                -3.086133161903525
            ]
        },
        {
            "positions": [
                -0.06866029540867424,
                -2.1586744176361004,
                -1.664740725193338,
                -2.489017531786713,
                -1.2453007685945963,
                -3.0842284074751305
            ]
        },
        {
            "positions": [
                -0.0854219210926202,
                -2.174616700282067,
                -1.583334906451246,
                -2.5596350961016685,
                -1.0650011535151378,
                -3.082323653046736
            ]
        },
        {
            "positions": [
                -0.10218354677656616,
                -2.1905589829280334,
                -1.5019290877091545,
                -2.6302526604166245,
                -0.8847015384356793,
                -3.0804188986183414
            ]
        },
        {
            "positions": [
                -0.11894517246051212,
                -2.206501265574,
                -1.4205232689670628,
                -2.7008702247315806,
                -0.7044019233562209,
                -3.078514144189947
            ]
        },
        {
            "positions": [
                -0.13570679814445805,
                -2.2224435482199665,
                -1.339117450224971,
                -2.771487789046536,
                -0.5241023082767624,
                -3.0766093897615523
            ]
        },
        {
            "positions": [
                -0.152468423828404,
                -2.2383858308659335,
                -1.2577116314828793,
                -2.842105353361492,
                -0.34380269319730394,
                -3.0747046353331577
            ]
        },
        {
            "positions": [
                -0.16923004951234996,
                -2.2543281135119,
                -1.1763058127407877,
                -2.912722917676448,
                -0.16350307811784548,
                -3.072799880904763
            ]
        }
    ]
}