{
    "goal": {
        "global_pose": {
            "orientation": {
                "w": -0.00223480608172531,
                "x": 0.0024358444001904467,
                "y": 0.7094548369677653,
                "z": -0.704743149386269
            },
            "position": {
                "x": -0.37947507619857795,
                "y": -0.6371506643295288,
                "z": 0.19426114857196808
            }
        },
        "name": "move_to_magneteinheit_C"
    },
    "id": "LazyPRM_move_to_magneteinheit_C_149",
    "joint_names": [
        "shoulder_pan_joint",
        "shoulder_lift_joint",
        "elbow_joint",
        "wrist_1_joint",
        "wrist_2_joint",
        "wrist_3_joint"
    ],
    "metrics": {
        "cart_traj_len": 2.990742674144738,
        "distance_elbow_joint": 0.7281361293070621,
        "distance_shoulder_lift_joint": 2.030566264721178,
        "distance_shoulder_pan_joint": 3.5730251940554347,
        "distance_wrist_1_joint": 2.331428777869099,
        "distance_wrist_2_joint": 1.185399397689577,
        "distance_wrist_3_joint": 1.0296941541198836,
        "smoothness": 1.1261852810501083,
        "time": 0.12387485,
        "traj_len": 3.29821920401938,
        "weighted_distance": 4.056410531684469
    },
    "planner": "LazyPRM",
    "start": {
        "state": {
            "elbow_joint": 1.9565354010623817,
            "shoulder_lift_joint": -1.4165861575791021,
            "shoulder_pan_joint": -1.6717766225146293,
            "wrist_1_joint": -0.5286633292919765,
            "wrist_2_joint": 1.472756589071564,
            "wrist_3_joint": -3.1238370188695823
        }
    },
    "waypoints": [
        {
            "positions": [
                -1.6717766225146293,
                -1.4165861575791021,
                1.9565354010623817,
                -0.5286633292919765,
                1.472756589071564,
                -3.1238370188695823
            ]
        },
        {
            "positions": [
                -1.5610821785631102,
                -1.5108169401246299,
                1.919060125861266,
                -0.44878417058482717,
                1.4293941801756032,
                -3.1269931623138034
            ]
        },
        {
            "positions": [
                -1.4503877346115912,
                -1.6050477226701574,
                1.8815848506601502,
                -0.3689050118776779,
                1.3860317712796422,
                -3.130149305758025
            ]
        },
        {
            "positions": [
                -1.339693290660072,
                -1.699278505215685,
                1.8441095754590346,
                -0.28902585317052865,
                1.3426693623836814,
                -3.133305449202246
            ]
        },
        {
            "positions": [
                -1.2289988467085529,
                -1.7935092877612127,
                1.8066343002579188,
                -0.20914669446337936,
                1.2993069534877206,
                -3.136461592646467
            ]
        },
        {
            "positions": [
                -1.1183044027570337,
                -1.8877400703067404,
                1.7691590250568032,
                -0.12926753575623,
                1.2559445445917596,
                -3.1396177360906887
            ]
        },
        {
            "positions": [
                -1.0076099588055147,
                -1.981970852852268,
                1.7316837498556874,
                -0.04938837704908078,
                1.2125821356957989,
                -3.14277387953491
            ]
        },
        {
            "positions": [
                -0.8969155148539957,
                -2.076201635397796,
                1.6942084746545718,
                0.03049078165806851,
                1.169219726799838,
                -3.145930022979131
            ]
        },
        {
            "positions": [
                -0.7862210709024766,
                -2.1704324179433234,
                1.656733199453456,
                0.11036994036521774,
                1.1258573179038773,
                -3.1490861664233525
            ]
        },
        {
            "positions": [
                -0.6755266269509574,
                -2.264663200488851,
                1.6192579242523404,
                0.1902490990723671,
                1.0824949090079163,
                -3.1522423098675736
            ]
        },
        {
            "positions": [
                -0.8510605205138899,
                -2.1897825915564186,
                1.626521332816823,
                0.21697206418476922,
                1.0468866783028208,
                -3.106586404525162
            ]
        },
        {
            "positions": [
                -1.0265944140768224,
                -2.1149019826239863,
                1.6337847413813056,
                0.24369502929717132,
                1.0112784475977252,
                -3.0609304991827497
            ]
        },
        {
            "positions": [
                -1.2021283076397546,
                -2.040021373691554,
                1.6410481499457883,
                0.2704179944095734,
                0.9756702168926298,
                -3.015274593840338
            ]
        },
        {
            "positions": [
                -1.3776622012026873,
                -1.965140764759122,
                1.648311558510271,
                0.29714095952197556,
                0.9400619861875342,
                -2.9696186884979263
            ]
        },
        {
            "positions": [
                -1.5531960947656196,
                -1.8902601558266898,
                1.6555749670747537,
                0.3238639246343777,
                0.9044537554824387,
                -2.9239627831555146
            ]
        },
        {
            "positions": [
                -1.728729988328552,
                -1.8153795468942575,
                1.6628383756392362,
                0.35058688974677976,
                0.8688455247773431,
                -2.8783068778131025
            ]
        },
        {
            "positions": [
                -1.9042638818914845,
                -1.7404989379618252,
                1.670101784203719,
                0.3773098548591819,
                0.8332372940722476,
                -2.8326509724706908
            ]
        },
        {
            "positions": [
                -2.0797977754544172,
                -1.6656183290293929,
                1.6773651927682016,
                0.404032819971584,
                0.7976290633671521,
                -2.786995067128279
            ]
        },
        {
            "positions": [
                -2.25533166901735,
                -1.5907377200969606,
                1.6846286013326843,
                0.43075578508398615,
                0.7620208326620566,
                -2.7413391617858673
            ]
        },
        {
            "positions": [
                -2.4308655625802817,
                -1.5158571111645285,
                1.6918920098971668,
                0.4574787501963883,
                0.726412601956961,
                -2.695683256443455
            ]
        },
        {
            "positions": [
                -2.6063994561432144,
                -1.4409765022320962,
                1.6991554184616495,
                0.4842017153087904,
                0.6908043712518654,
                -2.6500273511010435
            ]
        },
        {
            "positions": [
                -2.6575910752107266,
                -1.3773925976812564,
                1.7306659068488297,
                0.3766682775024417,
                0.6493642857113641,
                -2.7074828078436894
            ]
        },
        {
            "positions": [
                -2.7087826942782387,
                -1.313808693130417,
                1.7621763952360099,
                0.269134839696093,
                0.6079242001708627,
                -2.7649382645863354
            ]
        },
        {
            "positions": [
                -2.759974313345751,
                -1.2502247885795772,
                1.7936868836231903,
                0.16160140188974426,
                0.5664841146303613,
                -2.822393721328982
            ]
        },
        {
            "positions": [
                -2.811165932413263,
                -1.1866408840287375,
                1.8251973720103705,
                0.05406796408339554,
                0.5250440290898599,
                -2.8798491780716278
            ]
        },
        {
            "positions": [
                -2.862357551480775,
                -1.123056979477898,
                1.8567078603975506,
                -0.05346547372295318,
                0.4836039435493586,
                -2.9373046348142737
            ]
        },
        {
            "positions": [
                -2.7843686966883863,
                -1.131233579637993,
                1.8873896036679128,
                -0.20964478257027103,
                0.522853293982833,
                -2.9796639589427003
            ]
        },
        {
            "positions": [
                -2.706379841895997,
                -1.1394101797980885,
                1.9180713469382749,
                -0.36582409141758887,
                0.5621026444163073,
                -3.0220232830711264
            ]
        },
        {
            "positions": [
                -2.628390987103608,
                -1.1475867799581836,
                1.948753090208637,
                -0.5220034002649067,
                0.6013519948497816,
                -3.064382607199553
            ]
        },
        {
            "positions": [
                -2.550402132311219,
                -1.155763380118279,
                1.979434833478999,
                -0.6781827091122246,
                0.640601345283256,
                -3.106741931327979
            ]
        },
        {
            "positions": [
                -2.47241327751883,
                -1.163939980278374,
                2.010116576749361,
                -0.8343620179595423,
                0.6798506957167303,
                -3.1491012554564057
            ]
        }
    ]
}