{
    "goal": {
        "global_pose": {
            "orientation": {
                "w": 0.5084816262002911,
                "x": -0.4908360881923452,
                "y": 0.5182115481033761,
                "z": -0.48164630358495003
            },
            "position": {
                "x": 0.5540239810943604,
                "y": -0.46912469901144505,
                "z": 0.16403168439865112
            }
        },
        "name": "move_to_storage_B"
    },
    "id": "LazyPRM_move_to_storage_B_14",
    "joint_names": [
        "shoulder_pan_joint",
        "shoulder_lift_joint",
        "elbow_joint",
        "wrist_1_joint",
        "wrist_2_joint",
        "wrist_3_joint"
    ],
    "metrics": {
        "cart_traj_len": 0.9577997284260952,
        "distance_elbow_joint": 0.35129637252904367,
        "distance_shoulder_lift_joint": 1.4435911563810446,
        "distance_shoulder_pan_joint": 0.25338790209665396,
        "distance_wrist_1_joint": 3.0449015247272593,
        "distance_wrist_2_joint": 2.706087204298489,
        "distance_wrist_3_joint": 3.137388278467694,
        "smoothness": 0.24040030225233927,
        "time": 1.270216038,
        "traj_len": 3.3070609970939726,
        "weighted_distance": 4.791911698316374
    },
    "planner": "LazyPRM",
    "start": {
        "state": {
            "elbow_joint": 1.664937868594044,
            "shoulder_lift_joint": -0.661644460510453,
            "shoulder_pan_joint": -0.9139846352900073,
            "wrist_1_joint": 2.146753192139373,
            "wrist_2_joint": -2.2341966793290973,
            "wrist_3_joint": 0.005466555786416001
        }
    },
    "waypoints": [
        {
            "positions": [
                -0.9139846352900073,
                -0.661644460510453,
                1.664937868594044,
                2.146753192139373,
                -2.2341966793290973,
                0.005466555786416001
            ]
        },
        {
            "positions": [
                -0.8784899769614157,
                -0.7024801880735068,
                1.7485669428704589,
                2.1741894228080643,
                -2.102029253340451,
                0.02946000905062297
            ]
        },
        {
            "positions": [
                -0.8887571234717775,
                -0.745855712995191,
                1.7602601361712644,
                2.0629913136235816,
                -1.9891773036345395,
                0.13418058420033246
            ]
        },
        {
            "positions": [
                -0.8990242699821394,
                -0.7892312379168753,
                1.7719533294720702,
                1.9517932044390987,
                -1.8763253539286278,
                0.23890115935004194
            ]
        },
        {
            "positions": [
                -0.9092914164925011,
                -0.8326067628385597,
                1.7836465227728757,
                1.8405950952546157,
                -1.763473404222716,
                0.3436217344997514
            ]
        },
        {
            "positions": [
                -0.9195585630028629,
                -0.875982287760244,
                1.7953397160736813,
                1.729396986070133,
                -1.6506214545168043,
                0.4483423096494609
            ]
        },
        {
            "positions": [
                -0.9298257095132246,
                -0.9193578126819283,
                1.807032909374487,
                1.6181988768856503,
                -1.5377695048108926,
                0.5530628847991704
            ]
        },
        {
            "positions": [
                -0.9400928560235865,
                -0.9627333376036127,
                1.8187261026752926,
                1.5070007677011672,
                -1.4249175551049809,
                0.6577834599488799
            ]
        },
        {
            "positions": [
                -0.9503600025339483,
                -1.006108862525297,
                1.830419295976098,
                1.3958026585166845,
                -1.3120656053990691,
                0.7625040350985894
            ]
        },
        {
            "positions": [
                -0.96062714904431,
                -1.0494843874469812,
                1.8421124892769039,
                1.2846045493322018,
                -1.1992136556931574,
                0.8672246102482989
            ]
        },
        {
            "positions": [
                -0.9708942955546718,
                -1.0928599123686655,
                1.8538056825777094,
                1.1734064401477189,
                -1.0863617059872457,
                0.9719451853980083
            ]
        },
        {
            "positions": [
                -0.9811614420650336,
                -1.1362354372903498,
                1.865498875878515,
                1.0622083309632362,
                -0.973509756281334,
                1.076665760547718
            ]
        },
        {
            "positions": [
                -0.9914285885753954,
                -1.1796109622120343,
                1.8771920691793207,
                0.951010221778753,
                -0.8606578065754222,
                1.1813863356974275
            ]
        },
        {
            "positions": [
                -1.0016957350857572,
                -1.2229864871337184,
                1.8888852624801262,
                0.8398121125942704,
                -0.7478058568695105,
                1.2861069108471368
            ]
        },
        {
            "positions": [
                -1.011962881596119,
                -1.2663620120554029,
                1.9005784557809318,
                0.7286140034097874,
                -0.6349539071635988,
                1.3908274859968464
            ]
        },
        {
            "positions": [
                -1.0222300281064807,
                -1.3097375369770872,
                1.9122716490817375,
                0.6174158942253047,
                -0.5221019574576871,
                1.495548061146556
            ]
        },
        {
            "positions": [
                -1.0324971746168425,
                -1.3531130618987715,
                1.923964842382543,
                0.5062177850408218,
                -0.40925000775177534,
                1.6002686362962655
            ]
        },
        {
            "positions": [
                -1.0427643211272044,
                -1.3964885868204557,
                1.9356580356833486,
                0.3950196758563391,
                -0.2963980580458636,
                1.7049892114459748
            ]
        },
        {
            "positions": [
                -1.0530314676375663,
                -1.43986411174214,
                1.9473512289841544,
                0.2838215666718562,
                -0.18354610833995189,
                1.8097097865956844
            ]
        },
        {
            "positions": [
                -1.063298614147928,
                -1.4832396366638245,
                1.95904442228496,
                0.1726234574873735,
                -0.07069415863404016,
                1.9144303617453937
            ]
        },
        {
            "positions": [
                -1.0735657606582898,
                -1.5266151615855086,
                1.9707376155857654,
                0.061425348302890814,
                0.042157791071871564,
                2.0191509368951035
            ]
        },
        {
            "positions": [
                -1.0838329071686514,
                -1.569990686507193,
                1.9824308088865712,
                -0.04977276088159188,
                0.1550097407777833,
                2.123871512044813
            ]
        },
        {
            "positions": [
                -1.0941000536790133,
                -1.6133662114288774,
                1.9941240021873767,
                -0.16097087006607524,
                0.267861690483695,
                2.2285920871945226
            ]
        },
        {
            "positions": [
                -1.0944805815207574,
                -1.5313879771851073,
                1.9978090420099952,
                -0.27468837026348014,
                0.30186649623131107,
                2.380969211704454
            ]
        },
        {
            "positions": [
                -1.0948611093625016,
                -1.4494097429413373,
                2.0014940818326137,
                -0.38840587046088504,
                0.3358713019789271,
                2.533346336214385
            ]
        },
        {
            "positions": [
                -1.0952416372042457,
                -1.3674315086975672,
                2.005179121655232,
                -0.5021233706582899,
                0.3698761077265431,
                2.6857234607243163
            ]
        },
        {
            "positions": [
                -1.0956221650459899,
                -1.2854532744537972,
                2.0088641614778506,
                -0.6158408708556948,
                0.40388091347415916,
                2.8381005852342476
            ]
        },
        {
            "positions": [
                -1.096002692887734,
                -1.2034750402100272,
                2.012549201300469,
                -0.7295583710530998,
                0.4378857192217752,
                2.990477709744179
            ]
        },
        {
            "positions": [
                -1.0963832207294781,
                -1.1214968059662571,
                2.0162342411230876,
                -0.8432758712505047,
                0.47189052496939127,
                3.14285483425411
            ]
        }
    ]
}