{
    "goal": {
        "global_pose": {
            "orientation": {
                "w": -0.4816463035849501,
                "x": 0.5182115481033762,
                "y": 0.4908360881923453,
                "z": -0.5084816262002911
            },
            "position": {
                "x": -0.8240239810943604,
                "y": -0.300875300988555,
                "z": 0.16403168439865112
            }
        },
        "name": "move_to_storage_C"
    },
    "id": "LazyPRM_move_to_storage_C_125",
    "joint_names": [
        "shoulder_pan_joint",
        "shoulder_lift_joint",
        "elbow_joint",
        "wrist_1_joint",
        "wrist_2_joint",
        "wrist_3_joint"
    ],
    "metrics": {
        "cart_traj_len": 0.5767863422979931,
        "distance_elbow_joint": 0.2570074185015403,
        "distance_shoulder_lift_joint": 0.189186121621009,
        "distance_shoulder_pan_joint": 0.494277051427348,
        "distance_wrist_1_joint": 0.07131423078706534,
        "distance_wrist_2_joint": 1.070932865324635,
        "distance_wrist_3_joint": 0.055514153572392644,
        "smoothness": 0.0,
        "time": 0.011760865,
        "traj_len": 1.4622694147228787,
        "weighted_distance": 1.8416045298843278
    },
    "planner": "LazyPRM",
    "start": {
        "state": {
            "elbow_joint": 2.010868314990456,
            "shoulder_lift_joint": -1.1634956873337592,
            "shoulder_pan_joint": -2.4736205022346125,
            "wrist_1_joint": -0.8367026794202681,
            "wrist_2_joint": 0.6746043897044499,
            "wrist_3_joint": -3.1496632123970403
        }
    },
    "waypoints": [
        {
            "positions": [
                -2.4736205022346125,
                -1.1634956873337592,
                2.010868314990456,
                -0.8367026794202681,
                0.6746043897044499,
                -3.1496632123970403
            ]
        },
        {
            "positions": [
                -2.556000010805837,
                -1.131964667063591,
                1.968033745240199,
                -0.8248169742890905,
                0.8530932005918891,
                -3.140410853468308
            ]
        },
        {
            "positions": [
                -2.638379519377062,
                -1.1004336467934228,
                1.9251991754899425,
                -0.812931269157913,
                1.0315820114793284,
                -3.131158494539576
            ]
        },
        {
            "positions": [
                -2.7207590279482865,
                -1.0689026265232546,
                1.8823646057396857,
                -0.8010455640267354,
                1.2100708223667676,
                -3.121906135610844
            ]
        },
        {
            "positions": [
                -2.803138536519511,
                -1.0373716062530864,
                1.8395300359894289,
                -0.7891598588955578,
                1.3885596332542067,
                -3.112653776682112
            ]
        },
        {
            "positions": [
                -2.885518045090736,
                -1.0058405859829183,
                1.7966954662391723,
                -0.7772741537643804,
                1.567048444141646,
                -3.1034014177533797
            ]
        },
        {
            "positions": [
                -2.9678975536619605,
                -0.9743095657127502,
                1.7538608964889155,
                -0.7653884486332028,
                1.7455372550290849,
                -3.0941490588246476
            ]
        }
    ]
}