{
    "goal": {
        "global_pose": {
            "orientation": {
                "w": 0.7031023480610252,
                "x": -0.7110244013736278,
                "y": 0.0077485991402295624,
                "z": 0.005598929693374583
            },
            "position": {
                "x": -0.8841497679147869,
                "y": 0.44412534475326537,
                "z": 0.3711530566215515
            }
        },
        "name": "move_to_auspresseinheit_D"
    },
    "id": "LazyPRMstar_move_to_auspresseinheit_D_76",
    "joint_names": [
        "shoulder_pan_joint",
        "shoulder_lift_joint",
        "elbow_joint",
        "wrist_1_joint",
        "wrist_2_joint",
        "wrist_3_joint"
    ],
    "metrics": {
        "cart_traj_len": 0.3440729137614442,
        "distance_elbow_joint": 0.6545788135579895,
        "distance_shoulder_lift_joint": 0.1305632667115617,
        "distance_shoulder_pan_joint": 0.13465037013929038,
        "distance_wrist_1_joint": 0.5889321905999307,
        "distance_wrist_2_joint": 1.435983557234808,
        "distance_wrist_3_joint": 0.05727156283337331,
        "smoothness": 5.921189511553294e-16,
        "time": 5.000885953,
        "traj_len": 1.7326222211079234,
        "weighted_distance": 2.2674740648083365
    },
    "planner": "LazyPRMstar",
    "start": {
        "state": {
            "elbow_joint": -1.8275523626775212,
            "shoulder_lift_joint": -2.126789852344167,
            "shoulder_pan_joint": -0.03513704404078235,
            "wrist_1_joint": -2.347782403156801,
            "wrist_2_joint": -1.6058999987535132,
            "wrist_3_joint": -3.0880379163319196
        }
    },
    "waypoints": [
        {
            "positions": [
                -0.03513704404078235,
                -2.126789852344167,
                -1.8275523626775212,
                -2.347782403156801,
                -1.6058999987535132,
                -3.0880379163319196
            ]
        },
        {
            "positions": [
                -0.051968340308193646,
                -2.143110260683112,
                -1.7457300109827725,
                -2.421398926981792,
                -1.4264020540991622,
                -3.0808789709777478
            ]
        },
        {
            "positions": [
                -0.06879963657560495,
                -2.1594306690220573,
                -1.6639076592880238,
                -2.4950154508067834,
                -1.2469041094448112,
                -3.0737200256235764
            ]
        },
        {
            "positions": [
                -0.08563093284301623,
                -2.1757510773610025,
                -1.582085307593275,
                -2.5686319746317747,
                -1.06740616479046,
                -3.0665610802694045
            ]
        },
        {
            "positions": [
                -0.10246222911042754,
                -2.1920714856999477,
                -1.5002629558985263,
                -2.642248498456766,
                -0.8879082201361091,
                -3.059402134915233
            ]
        },
        {
            "positions": [
                -0.11929352537783883,
                -2.208391894038893,
                -1.4184406042037776,
                -2.7158650222817577,
                -0.7084102754817582,
                -3.0522431895610613
            ]
        },
        {
            "positions": [
                -0.13612482164525014,
                -2.224712302377838,
                -1.336618252509029,
                -2.789481546106749,
                -0.5289123308274071,
                -3.0450842442068895
            ]
        },
        {
            "positions": [
                -0.15295611791266142,
                -2.2410327107167833,
                -1.2547959008142804,
                -2.8630980699317403,
                -0.3494143861730561,
                -3.037925298852718
            ]
        },
        {
            "positions": [
                -0.16978741418007273,
                -2.2573531190557286,
                -1.1729735491195317,
                -2.9367145937567316,
                -0.16991644151870516,
                -3.0307663534985463
            ]
        }
    ]
}