{
    "goal": {
        "global_pose": {
            "orientation": {
                "w": -0.00223480608172531,
                "x": 0.0024358444001904467,
                "y": 0.7094548369677653,
                "z": -0.704743149386269
            },
            "position": {
                "x": -0.37947507619857795,
                "y": -0.6371506643295288,
                "z": 0.19426114857196808
            }
        },
        "name": "move_to_magneteinheit_C"
    },
    "id": "LazyPRM_move_to_magneteinheit_C_125",
    "joint_names": [
        "shoulder_pan_joint",
        "shoulder_lift_joint",
        "elbow_joint",
        "wrist_1_joint",
        "wrist_2_joint",
        "wrist_3_joint"
    ],
    "metrics": {
        "cart_traj_len": 3.0790055327681234,
        "distance_elbow_joint": 0.9533689313516889,
        "distance_shoulder_lift_joint": 0.4494228080640219,
        "distance_shoulder_pan_joint": 4.549237433802667,
        "distance_wrist_1_joint": 0.9988850667526652,
        "distance_wrist_2_joint": 3.355958507092906,
        "distance_wrist_3_joint": 1.4942621075158273,
        "smoothness": 1.223013735080763,
        "time": 1.6144348709999998,
        "traj_len": 3.435277987962514,
        "weighted_distance": 4.375443136809917
    },
    "planner": "LazyPRM",
    "start": {
        "state": {
            "elbow_joint": 1.9565354010623817,
            "shoulder_lift_joint": -1.4165861575791021,
            "shoulder_pan_joint": -1.6717766225146293,
            "wrist_1_joint": -0.5286633292919765,
            "wrist_2_joint": 1.472756589071564,
            "wrist_3_joint": -3.1238370188695823
        }
    },
    "waypoints": [
        {
            "positions": [
                -1.6717766225146293,
                -1.4165861575791021,
                1.9565354010623817,
                -0.5286633292919765,
                1.472756589071564,
                -3.1238370188695823
            ]
        },
        {
            "positions": [
                -1.7396747524886533,
                -1.4194649590927115,
                1.969801398291073,
                -0.5631172643205038,
                1.2603461280041166,
                -3.072662986601253
            ]
        },
        {
            "positions": [
                -1.8075728824626773,
                -1.422343760606321,
                1.9830673955197642,
                -0.5975711993490311,
                1.0479356669366693,
                -3.021488954332923
            ]
        },
        {
            "positions": [
                -1.8754710124367013,
                -1.4252225621199304,
                1.9963333927484552,
                -0.6320251343775584,
                0.8355252058692217,
                -2.9703149220645937
            ]
        },
        {
            "positions": [
                -1.9433691424107256,
                -1.4281013636335396,
                2.0095993899771463,
                -0.6664790694060857,
                0.6231147448017744,
                -2.919140889796264
            ]
        },
        {
            "positions": [
                -2.0112672723847496,
                -1.430980165147149,
                2.0228653872058375,
                -0.700933004434613,
                0.4107042837343271,
                -2.8679668575279345
            ]
        },
        {
            "positions": [
                -2.0791654023587736,
                -1.4338589666607584,
                2.036131384434529,
                -0.7353869394631403,
                0.19829382266687956,
                -2.816792825259605
            ]
        },
        {
            "positions": [
                -2.1470635323327976,
                -1.4367377681743678,
                2.04939738166322,
                -0.7698408744916676,
                -0.01411663840056776,
                -2.765618792991275
            ]
        },
        {
            "positions": [
                -2.2149616623068216,
                -1.4396165696879772,
                2.0626633788919113,
                -0.8042948095201949,
                -0.22652709946801503,
                -2.714444760722946
            ]
        },
        {
            "positions": [
                -2.0068047231052697,
                -1.4479847660892229,
                2.0127563967218123,
                -0.7665622862141657,
                -0.26886426135367775,
                -2.6779822200644468
            ]
        },
        {
            "positions": [
                -1.7986477839037183,
                -1.4563529624904687,
                1.9628494145517137,
                -0.7288297629081365,
                -0.3112014232393404,
                -2.641519679405948
            ]
        },
        {
            "positions": [
                -1.5904908447021666,
                -1.4647211588917144,
                1.9129424323816149,
                -0.6910972396021072,
                -0.35353858512500314,
                -2.605057138747449
            ]
        },
        {
            "positions": [
                -1.382333905500615,
                -1.4730893552929603,
                1.863035450211516,
                -0.6533647162960781,
                -0.39587574701066586,
                -2.5685945980889504
            ]
        },
        {
            "positions": [
                -1.174176966299063,
                -1.481457551694206,
                1.813128468041417,
                -0.6156321929900488,
                -0.4382129088963286,
                -2.5321320574304513
            ]
        },
        {
            "positions": [
                -0.9660200270975117,
                -1.4898257480954518,
                1.7632214858713184,
                -0.5778996696840196,
                -0.48055007078199125,
                -2.4956695167719527
            ]
        },
        {
            "positions": [
                -0.7578630878959598,
                -1.4981939444966974,
                1.7133145037012194,
                -0.5401671463779903,
                -0.5228872326676539,
                -2.4592069761134536
            ]
        },
        {
            "positions": [
                -0.5497061486944084,
                -1.5065621408979433,
                1.6634075215311206,
                -0.5024346230719612,
                -0.5652243945533166,
                -2.422744435454955
            ]
        },
        {
            "positions": [
                -0.3415492094928565,
                -1.514930337299189,
                1.6135005393610218,
                -0.4647020997659319,
                -0.6075615564389794,
                -2.386281894796456
            ]
        },
        {
            "positions": [
                -0.4938806338640358,
                -1.4898532924174792,
                1.6419346903603982,
                -0.4921064481066593,
                -0.516444387754525,
                -2.4403323936137915
            ]
        },
        {
            "positions": [
                -0.6462120582352151,
                -1.4647762475357695,
                1.6703688413597746,
                -0.5195107964473867,
                -0.42532721907007054,
                -2.4943828924311275
            ]
        },
        {
            "positions": [
                -0.7985434826063944,
                -1.43969920265406,
                1.698802992359151,
                -0.5469151447881142,
                -0.3342100503856161,
                -2.548433391248463
            ]
        },
        {
            "positions": [
                -0.9508749069775737,
                -1.4146221577723503,
                1.7272371433585274,
                -0.5743194931288416,
                -0.24309288170116167,
                -2.602483890065799
            ]
        },
        {
            "positions": [
                -1.103206331348753,
                -1.3895451128906406,
                1.7556712943579038,
                -0.6017238414695689,
                -0.1519757130167072,
                -2.6565343888831348
            ]
        },
        {
            "positions": [
                -1.2555377557199323,
                -1.364468068008931,
                1.7841054453572802,
                -0.6291281898102964,
                -0.060858544332252795,
                -2.7105848877004703
            ]
        },
        {
            "positions": [
                -1.4078691800911116,
                -1.3393910231272215,
                1.8125395963566566,
                -0.6565325381510239,
                0.030258624352201613,
                -2.7646353865178064
            ]
        },
        {
            "positions": [
                -1.560200604462291,
                -1.3143139782455118,
                1.840973747356033,
                -0.6839368864917512,
                0.12137579303665602,
                -2.818685885335142
            ]
        },
        {
            "positions": [
                -1.7125320288334702,
                -1.289236933363802,
                1.8694078983554094,
                -0.7113412348324787,
                0.21249296172111054,
                -2.872736384152478
            ]
        },
        {
            "positions": [
                -1.8648634532046495,
                -1.2641598884820924,
                1.8978420493547858,
                -0.738745583173206,
                0.30361013040556495,
                -2.9267868829698136
            ]
        },
        {
            "positions": [
                -2.017194877575829,
                -1.2390828436003827,
                1.9262762003541622,
                -0.7661499315139335,
                0.39472729909001925,
                -2.9808373817871496
            ]
        },
        {
            "positions": [
                -2.169526301947008,
                -1.2140057987186732,
                1.9547103513535387,
                -0.7935542798546609,
                0.48584446777447376,
                -3.0348878806044852
            ]
        },
        {
            "positions": [
                -2.3218577263181874,
                -1.1889287538369635,
                1.983144502352915,
                -0.8209586281953882,
                0.5769616364589283,
                -3.0889383794218213
            ]
        },
        {
            "positions": [
                -2.4741891506893667,
                -1.1638517089552538,
                2.0115786533522915,
                -0.8483629765361157,
                0.6680788051433825,
                -3.142988878239157
            ]
        }
    ]
}