{
    "goal": {
        "global_pose": {
            "orientation": {
                "w": 0.5084816217422485,
                "x": -0.49083608388900757,
                "y": 0.5182115435600281,
                "z": -0.4816462993621826
            },
            "position": {
                "x": 0.5540239810943604,
                "y": 0.030875300988554955,
                "z": 0.16403168439865112
            }
        },
        "name": "move_to_storage_A"
    },
    "id": "LazyPRMstar_move_to_storage_A_40",
    "joint_names": [
        "shoulder_pan_joint",
        "shoulder_lift_joint",
        "elbow_joint",
        "wrist_1_joint",
        "wrist_2_joint",
        "wrist_3_joint"
    ],
    "metrics": {
        "cart_traj_len": 0.3527635600169421,
        "distance_elbow_joint": 0.4477944704378334,
        "distance_shoulder_lift_joint": 0.23423941297021478,
        "distance_shoulder_pan_joint": 0.4579660806267942,
        "distance_wrist_1_joint": 0.23677604610039016,
        "distance_wrist_2_joint": 1.1119933034889349,
        "distance_wrist_3_joint": 0.08722040830565314,
        "smoothness": 6.661338165333112e-16,
        "time": 5.000194827,
        "traj_len": 1.6049890099093578,
        "weighted_distance": 2.0246480899480908
    },
    "planner": "LazyPRMstar",
    "start": {
        "state": {
            "elbow_joint": 1.971548259319323,
            "shoulder_lift_joint": -1.1394851275133948,
            "shoulder_pan_joint": 0.1228115487234821,
            "wrist_1_joint": -0.7804723859257726,
            "wrist_2_joint": 0.12958671773740124,
            "wrist_3_joint": -3.192489227718131
        }
    },
    "waypoints": [
        {
            "positions": [
                0.1228115487234821,
                -1.1394851275133948,
                1.971548259319323,
                -0.7804723859257726,
                0.12958671773740124,
                -3.192489227718131
            ]
        },
        {
            "positions": [
                0.05738782291965436,
                -1.172947900794854,
                2.035518897953299,
                -0.8142975353686855,
                0.2884429039501062,
                -3.180029169388752
            ]
        },
        {
            "positions": [
                -0.008035902884173385,
                -1.2064106740763134,
                2.099489536587275,
                -0.8481226848115984,
                0.4472990901628112,
                -3.167569111059373
            ]
        },
        {
            "positions": [
                -0.07345962868800113,
                -1.2398734473577726,
                2.1634601752212514,
                -0.8819478342545113,
                0.6061552763755161,
                -3.155109052729994
            ]
        },
        {
            "positions": [
                -0.13888335449182887,
                -1.2733362206392318,
                2.2274308138552277,
                -0.9157729836974241,
                0.7650114625882212,
                -3.142648994400615
            ]
        },
        {
            "positions": [
                -0.20430708029565664,
                -1.3067989939206912,
                2.291401452489204,
                -0.949598133140337,
                0.9238676488009262,
                -3.130188936071236
            ]
        },
        {
            "positions": [
                -0.26973080609948435,
                -1.3402617672021504,
                2.35537209112318,
                -0.9834232825832498,
                1.082723835013631,
                -3.117728877741857
            ]
        },
        {
            "positions": [
                -0.3351545319033121,
                -1.3737245404836096,
                2.4193427297571564,
                -1.0172484320261628,
                1.2415800212263362,
                -3.105268819412478
            ]
        }
    ]
}{
    "goal": {
        "global_pose": {
            "orientation": {
                "w": 0.5084816217422485,
                "x": -0.49083608388900757,
                "y": 0.5182115435600281,
                "z": -0.4816462993621826
            },
            "position": {
                "x": 0.5540239810943604,
                "y": 0.030875300988554955,
                "z": 0.16403168439865112
            }
        },
        "name": "move_to_storage_A"
    },
    "id": "LazyPRMstar_move_to_storage_A_40",
    "joint_names": [
        "shoulder_pan_joint",
        "shoulder_lift_joint",
        "elbow_joint",
        "wrist_1_joint",
        "wrist_2_joint",
        "wrist_3_joint"
    ],
    "metrics": {
        "cart_traj_len": 0.3525907953917357,
        "distance_elbow_joint": 0.4481832053783803,
        "distance_shoulder_lift_joint": 0.23532925998441945,
        "distance_shoulder_pan_joint": 0.4622189937138492,
        "distance_wrist_1_joint": 0.2341849276492345,
        "distance_wrist_2_joint": 1.0931485610146259,
        "distance_wrist_3_joint": 0.09151961046690671,
        "smoothness": 1.2212453191034883e-15,
        "time": 5.001338155,
        "traj_len": 1.6014320335897543,
        "weighted_distance": 2.0186523395089826
    },
    "planner": "LazyPRMstar",
    "start": {
        "state": {
            "elbow_joint": 1.97154746011099,
            "shoulder_lift_joint": -1.13948474672311,
            "shoulder_pan_joint": 0.12281154466712228,
            "wrist_1_joint": -0.7804688027058302,
            "wrist_2_joint": 0.12958655903071145,
            "wrist_3_joint": 3.0906928834467795
        }
    },
    "waypoints": [
        {
            "positions": [
                0.12281154466712228,
                -1.13948474672311,
                1.97154746011099,
                -0.7804688027058302,
                0.12958655903071145,
                3.0906928834467795
            ]
        },
        {
            "positions": [
                0.056780259850858106,
                -1.17310321243517,
                2.0355736323079014,
                -0.8139237923700066,
                0.285750639175658,
                3.1037671135134803
            ]
        },
        {
            "positions": [
                -0.009251024965406071,
                -1.2067216781472299,
                2.099599804504813,
                -0.8473787820341829,
                0.44191471932060455,
                3.1168413435801816
            ]
        },
        {
            "positions": [
                -0.07528230978167023,
                -1.2403401438592898,
                2.1636259767017245,
                -0.8808337716983592,
                0.5980787994655511,
                3.1299155736468824
            ]
        },
        {
            "positions": [
                -0.1413135945979344,
                -1.2739586095713495,
                2.2276521488986356,
                -0.9142887613625356,
                0.7542428796104976,
                3.1429898037135833
            ]
        },
        {
            "positions": [
                -0.2073448794141986,
                -1.3075770752834095,
                2.291678321095547,
                -0.9477437510267119,
                0.9104069597554443,
                3.156064033780284
            ]
        },
        {
            "positions": [
                -0.27337616423046274,
                -1.3411955409954694,
                2.3557044932924587,
                -0.9811987406908883,
                1.0665710399003907,
                3.1691382638469854
            ]
        },
        {
            "positions": [
                -0.33940744904672693,
                -1.3748140067075294,
                2.41973066548937,
                -1.0146537303550647,
                1.2227351200453374,
                3.182212493913686
            ]
        }
    ]
}{
    "goal": {
        "global_pose": {
            "orientation": {
                "w": 0.5084816217422485,
                "x": -0.49083608388900757,
                "y": 0.5182115435600281,
                "z": -0.4816462993621826
            },
            "position": {
                "x": 0.5540239810943604,
                "y": 0.030875300988554955,
                "z": 0.16403168439865112
            }
        },
        "name": "move_to_storage_A"
    },
    "id": "LazyPRMstar_move_to_storage_A_40",
    "joint_names": [
        "shoulder_pan_joint",
        "shoulder_lift_joint",
        "elbow_joint",
        "wrist_1_joint",
        "wrist_2_joint",
        "wrist_3_joint"
    ],
    "metrics": {
        "cart_traj_len": 0.3536222680268543,
        "distance_elbow_joint": 0.4485370635474979,
        "distance_shoulder_lift_joint": 0.23437799227785927,
        "distance_shoulder_pan_joint": 0.4642727243308363,
        "distance_wrist_1_joint": 0.2385708940671345,
        "distance_wrist_2_joint": 1.091447957379057,
        "distance_wrist_3_joint": 0.09005764298778685,
        "smoothness": 0.0,
        "time": 5.000285593,
        "traj_len": 1.6022684776872358,
        "weighted_distance": 2.019256895992171
    },
    "planner": "LazyPRMstar",
    "start": {
        "state": {
            "elbow_joint": 1.9715472970024885,
            "shoulder_lift_joint": -1.1394870060712896,
            "shoulder_pan_joint": 0.12281152778156021,
            "wrist_1_joint": -0.780463741449964,
            "wrist_2_joint": 0.12958659822042276,
            "wrist_3_joint": 3.090690232415272
        }
    },
    "waypoints": [
        {
            "positions": [
                0.12281152778156021,
                -1.1394870060712896,
                1.9715472970024885,
                -0.780463741449964,
                0.12958659822042276,
                3.090690232415272
            ]
        },
        {
            "positions": [
                0.05648685287715503,
                -1.172969576396698,
                2.035624020366417,
                -0.814545297745269,
                0.28550773498885945,
                3.1035556099849555
            ]
        },
        {
            "positions": [
                -0.009837822027250143,
                -1.2064521467221065,
                2.099700743730345,
                -0.8486268540405738,
                0.44142887175729617,
                3.1164209875546396
            ]
        },
        {
            "positions": [
                -0.0761624969316553,
                -1.239934717047515,
                2.1637774670942735,
                -0.8827084103358788,
                0.5973500085257328,
                3.1292863651243232
            ]
        },
        {
            "positions": [
                -0.1424871718360605,
                -1.2734172873729235,
                2.2278541904582014,
                -0.9167899666311837,
                0.7532711452941695,
                3.1421517426940073
            ]
        },
        {
            "positions": [
                -0.20881184674046568,
                -1.306899857698332,
                2.2919309138221298,
                -0.9508715229264886,
                0.9091922820626063,
                3.155017120263691
            ]
        },
        {
            "positions": [
                -0.2751365216448708,
                -1.3403824280237404,
                2.356007637186058,
                -0.9849530792217935,
                1.065113418831043,
                3.167882497833375
            ]
        },
        {
            "positions": [
                -0.34146119654927604,
                -1.3738649983491489,
                2.4200843605499864,
                -1.0190346355170985,
                1.2210345555994797,
                3.1807478754030587
            ]
        }
    ]
}