{
    "goal": {
        "global_pose": {
            "orientation": {
                "w": -0.4816463035849501,
                "x": 0.5182115481033762,
                "y": 0.4908360881923453,
                "z": -0.5084816262002911
            },
            "position": {
                "x": -0.8240239810943604,
                "y": -0.300875300988555,
                "z": 0.16403168439865112
            }
        },
        "name": "move_to_storage_C"
    },
    "id": "LazyPRM_move_to_storage_C_4",
    "joint_names": [
        "shoulder_pan_joint",
        "shoulder_lift_joint",
        "elbow_joint",
        "wrist_1_joint",
        "wrist_2_joint",
        "wrist_3_joint"
    ],
    "metrics": {
        "cart_traj_len": 0.5770502636991803,
        "distance_elbow_joint": 0.25965590390460047,
        "distance_shoulder_lift_joint": 0.18990414235134934,
        "distance_shoulder_pan_joint": 0.49435795693258155,
        "distance_wrist_1_joint": 0.08425289106794853,
        "distance_wrist_2_joint": 1.074203559739967,
        "distance_wrist_3_joint": 0.06707153797636867,
        "smoothness": 0.0,
        "time": 0.011729903,
        "traj_len": 1.4729039316848929,
        "weighted_distance": 1.8606572813749094
    },
    "planner": "LazyPRM",
    "start": {
        "state": {
            "elbow_joint": 2.010868314990456,
            "shoulder_lift_joint": -1.1634956873337592,
            "shoulder_pan_joint": -2.4736205022346125,
            "wrist_1_joint": -0.8367026794202681,
            "wrist_2_joint": 0.6746043897044499,
            "wrist_3_joint": -3.1496632123970403
        }
    },
    "waypoints": [
        {
            "positions": [
                -2.4736205022346125,
                -1.1634956873337592,
                2.010868314990456,
                -0.8367026794202681,
                0.6746043897044499,
                -3.1496632123970403
            ]
        },
        {
            "positions": [
                -2.5560134950567095,
                -1.1318449969418676,
                1.9675923310063557,
                -0.8226605309089433,
                0.8536383163277778,
                -3.138484622734312
            ]
        },
        {
            "positions": [
                -2.6384064878788065,
                -1.1001943065499762,
                1.9243163470222557,
                -0.8086183823976186,
                1.0326722429511057,
                -3.127306033071584
            ]
        },
        {
            "positions": [
                -2.7207994807009035,
                -1.0685436161580846,
                1.8810403630381556,
                -0.7945762338862938,
                1.2117061695744336,
                -3.116127443408856
            ]
        },
        {
            "positions": [
                -2.803192473523,
                -1.036892925766193,
                1.8377643790540554,
                -0.780534085374969,
                1.3907400961977614,
                -3.104948853746128
            ]
        },
        {
            "positions": [
                -2.885585466345097,
                -1.0052422353743014,
                1.7944883950699555,
                -0.7664919368636444,
                1.5697740228210892,
                -3.0937702640833997
            ]
        },
        {
            "positions": [
                -2.967978459167194,
                -0.9735915449824099,
                1.7512124110858553,
                -0.7524497883523196,
                1.748807949444417,
                -3.0825916744206716
            ]
        }
    ]
}