{
    "goal": {
        "global_pose": {
            "orientation": {
                "w": -0.00223480608172531,
                "x": 0.0024358444001904467,
                "y": 0.7094548369677653,
                "z": -0.704743149386269
            },
            "position": {
                "x": -0.37947507619857795,
                "y": -0.6371506643295288,
                "z": 0.19426114857196808
            }
        },
        "name": "move_to_magneteinheit_C"
    },
    "id": "LazyPRMstar_move_to_magneteinheit_C_17",
    "joint_names": [
        "shoulder_pan_joint",
        "shoulder_lift_joint",
        "elbow_joint",
        "wrist_1_joint",
        "wrist_2_joint",
        "wrist_3_joint"
    ],
    "metrics": {
        "cart_traj_len": 0.641338622733493,
        "distance_elbow_joint": 1.0620290187409052,
        "distance_shoulder_lift_joint": 0.46574165145550617,
        "distance_shoulder_pan_joint": 0.8018052948216876,
        "distance_wrist_1_joint": 1.3485309880130056,
        "distance_wrist_2_joint": 0.7900997356750422,
        "distance_wrist_3_joint": 0.1339624438919964,
        "smoothness": 1.25356436658477,
        "time": 5.012126624,
        "traj_len": 2.1452666809975263,
        "weighted_distance": 2.6473996192623024
    },
    "planner": "LazyPRMstar",
    "start": {
        "state": {
            "elbow_joint": 1.9565354010623817,
            "shoulder_lift_joint": -1.4165861575791021,
            "shoulder_pan_joint": -1.6717766225146293,
            "wrist_1_joint": -0.5286633292919765,
            "wrist_2_joint": 1.472756589071564,
            "wrist_3_joint": -3.1238370188695823
        }
    },
    "waypoints": [
        {
            "positions": [
                -1.6717766225146293,
                -1.4165861575791021,
                1.9565354010623817,
                -0.5286633292919765,
                1.472756589071564,
                -3.1238370188695823
            ]
        },
        {
            "positions": [
                -1.7631955578093585,
                -1.4318787947318348,
                2.0366271288165754,
                -0.6482410325157377,
                1.4244033293130276,
                -3.1155178563250616
            ]
        },
        {
            "positions": [
                -1.8546144931040875,
                -1.4471714318845672,
                2.1167188565707695,
                -0.767818735739499,
                1.3760500695544915,
                -3.107198693780541
            ]
        },
        {
            "positions": [
                -1.9460334283988168,
                -1.4624640690372999,
                2.1968105843249632,
                -0.8873964389632603,
                1.3276968097959552,
                -3.0988795312360202
            ]
        },
        {
            "positions": [
                -2.037452363693546,
                -1.4777567061900325,
                2.276902312079157,
                -1.0069741421870217,
                1.279343550037419,
                -3.090560368691499
            ]
        },
        {
            "positions": [
                -2.128871298988275,
                -1.4930493433427652,
                2.356994039833351,
                -1.126551845410783,
                1.2309902902788827,
                -3.0822412061469784
            ]
        },
        {
            "positions": [
                -2.220290234283004,
                -1.5083419804954976,
                2.437085767587545,
                -1.2461295486345443,
                1.1826370305203466,
                -3.0739220436024577
            ]
        },
        {
            "positions": [
                -2.311709169577733,
                -1.5236346176482303,
                2.5171774953417385,
                -1.3657072518583055,
                1.1342837707618103,
                -3.065602881057937
            ]
        },
        {
            "positions": [
                -2.346626286008462,
                -1.4655001589414227,
                2.4411009642765693,
                -1.2914424472406014,
                1.055117309696365,
                -3.0774268827397027
            ]
        },
        {
            "positions": [
                -2.381543402439191,
                -1.4073657002346154,
                2.3650244332113997,
                -1.217177642622897,
                0.9759508486309199,
                -3.089250884421468
            ]
        },
        {
            "positions": [
                -2.4164605188699197,
                -1.349231241527808,
                2.28894790214623,
                -1.142912838005193,
                0.8967843875654746,
                -3.101074886103233
            ]
        },
        {
            "positions": [
                -2.4513776353006484,
                -1.2910967828210005,
                2.212871371081061,
                -1.0686480333874888,
                0.8176179265000294,
                -3.112898887784999
            ]
        },
        {
            "positions": [
                -2.4624797763184825,
                -1.2280191045414264,
                2.1143309709806255,
                -0.9614341098995589,
                0.7501373899482755,
                -3.1271150374616434
            ]
        },
        {
            "positions": [
                -2.473581917336317,
                -1.1649414262618523,
                2.01579057088019,
                -0.854220186411629,
                0.6826568533965217,
                -3.141331187138288
            ]
        }
    ]
}