{
    "goal": {
        "global_pose": {
            "orientation": {
                "w": 0.005598929693374612,
                "x": 0.007748599140229565,
                "y": 0.7110244013736278,
                "z": -0.7031023480610252
            },
            "position": {
                "x": -0.8858502320852131,
                "y": -0.7141253447532654,
                "z": 0.3711530566215515
            }
        },
        "name": "move_to_auspresseinheit_C"
    },
    "id": "LazyPRMstar_move_to_auspresseinheit_C_67",
    "joint_names": [
        "shoulder_pan_joint",
        "shoulder_lift_joint",
        "elbow_joint",
        "wrist_1_joint",
        "wrist_2_joint",
        "wrist_3_joint"
    ],
    "metrics": {
        "cart_traj_len": 0.49365307560069643,
        "distance_elbow_joint": 0.9963916628499606,
        "distance_shoulder_lift_joint": 0.3228479749455123,
        "distance_shoulder_pan_joint": 0.2568409883574154,
        "distance_wrist_1_joint": 0.6675430588240577,
        "distance_wrist_2_joint": 1.3128926472262628,
        "distance_wrist_3_joint": 0.05243381344622433,
        "smoothness": 1.1304089002524633e-15,
        "time": 5.000129879999999,
        "traj_len": 1.8997237024497624,
        "weighted_distance": 2.3862634973095918
    },
    "planner": "LazyPRMstar",
    "start": {
        "state": {
            "elbow_joint": 1.7527959577737207,
            "shoulder_lift_joint": -0.9740617694225068,
            "shoulder_pan_joint": -2.967991417825858,
            "wrist_1_joint": -0.759517768980727,
            "wrist_2_joint": 1.7443932448377408,
            "wrist_3_joint": -3.0840537646736568
        }
    },
    "waypoints": [
        {
            "positions": [
                -2.967991417825858,
                -0.9740617694225068,
                1.7527959577737207,
                -0.759517768980727,
                1.7443932448377408,
                -3.0840537646736568
            ]
        },
        {
            "positions": [
                -2.9423073189901165,
                -0.9417769719279555,
                1.6531567914887246,
                -0.6927634630983213,
                1.6131039801151146,
                -3.0892971460182794
            ]
        },
        {
            "positions": [
                -2.9166232201543747,
                -0.9094921744334044,
                1.5535176252037286,
                -0.6260091572159154,
                1.4818147153924883,
                -3.0945405273629016
            ]
        },
        {
            "positions": [
                -2.8909391213186333,
                -0.8772073769388531,
                1.4538784589187324,
                -0.5592548513335096,
                1.350525450669862,
                -3.099783908707524
            ]
        },
        {
            "positions": [
                -2.865255022482892,
                -0.8449225794443018,
                1.3542392926337363,
                -0.4925005454511039,
                1.2192361859472358,
                -3.1050272900521465
            ]
        },
        {
            "positions": [
                -2.83957092364715,
                -0.8126377819497506,
                1.2546001263487403,
                -0.4257462395686981,
                1.0879469212246096,
                -3.110270671396769
            ]
        },
        {
            "positions": [
                -2.8138868248114086,
                -0.7803529844551994,
                1.1549609600637443,
                -0.35899193368629234,
                0.9566576565019832,
                -3.1155140527413914
            ]
        },
        {
            "positions": [
                -2.788202725975667,
                -0.7480681869606481,
                1.0553217937787482,
                -0.2922376278038866,
                0.825368391779357,
                -3.1207574340860136
            ]
        },
        {
            "positions": [
                -2.762518627139926,
                -0.715783389466097,
                0.9556826274937521,
                -0.2254833219214808,
                0.6940791270567306,
                -3.1260008154306362
            ]
        },
        {
            "positions": [
                -2.736834528304184,
                -0.6834985919715457,
                0.8560434612087561,
                -0.15872901603907497,
                0.5627898623341043,
                -3.131244196775259
            ]
        },
        {
            "positions": [
                -2.7111504294684425,
                -0.6512137944769945,
                0.75640429492376,
                -0.09197471015666922,
                0.4315005976114781,
                -3.136487578119881
            ]
        }
    ]
}