{
    "goal": {
        "global_pose": {
            "orientation": {
                "w": 0.7047431468963623,
                "x": -0.7094548344612122,
                "y": 0.0024358443915843964,
                "z": -0.0022348060738295317
            },
            "position": {
                "x": 0.6094750761985779,
                "y": 0.3671506643295288,
                "z": 0.19426114857196808
            }
        },
        "name": "move_to_magneteinheit_A"
    },
    "id": "LazyPRM_move_to_magneteinheit_A_32",
    "joint_names": [
        "shoulder_pan_joint",
        "shoulder_lift_joint",
        "elbow_joint",
        "wrist_1_joint",
        "wrist_2_joint",
        "wrist_3_joint"
    ],
    "metrics": {
        "cart_traj_len": 2.957961686097705,
        "distance_elbow_joint": 3.8918976470437023,
        "distance_shoulder_lift_joint": 1.170914492660675,
        "distance_shoulder_pan_joint": 2.765003392108611,
        "distance_wrist_1_joint": 0.8265553152359736,
        "distance_wrist_2_joint": 1.7026677523503564,
        "distance_wrist_3_joint": 3.631376688153953,
        "smoothness": 0.07386950059506943,
        "time": 0.10938911300000001,
        "traj_len": 3.7401089940740064,
        "weighted_distance": 4.87651430136809
    },
    "planner": "LazyPRM",
    "start": {
        "state": {
            "elbow_joint": -1.9196185241190666,
            "shoulder_lift_joint": -1.2443396400964142,
            "shoulder_pan_joint": 2.6996025414629847,
            "wrist_1_joint": -1.5485510000780065,
            "wrist_2_joint": -1.5709468930060704,
            "wrist_3_joint": 0.4420197071253992
        }
    },
    "waypoints": [
        {
            "positions": [
                2.6996025414629847,
                -1.2443396400964142,
                -1.9196185241190666,
                -1.5485510000780065,
                -1.5709468930060704,
                0.4420197071253992
            ]
        },
        {
            "positions": [
                2.60605820477827,
                -1.2648337942965189,
                -1.7996894383813373,
                -1.5225788971462753,
                -1.5502816882495727,
                0.3347982999270135
            ]
        },
        {
            "positions": [
                2.512513868093555,
                -1.2853279484966238,
                -1.6797603526436078,
                -1.496606794214544,
                -1.529616483493075,
                0.2275768927286278
            ]
        },
        {
            "positions": [
                2.4189695314088397,
                -1.3058221026967285,
                -1.5598312669058785,
                -1.4706346912828128,
                -1.5089512787365773,
                0.12035548553024211
            ]
        },
        {
            "positions": [
                2.325425194724125,
                -1.3263162568968334,
                -1.4399021811681492,
                -1.4446625883510817,
                -1.4882860739800796,
                0.013134078331856425
            ]
        },
        {
            "positions": [
                2.23188085803941,
                -1.346810411096938,
                -1.3199730954304196,
                -1.4186904854193505,
                -1.4676208692235821,
                -0.09408732886652926
            ]
        },
        {
            "positions": [
                2.138336521354695,
                -1.367304565297043,
                -1.2000440096926903,
                -1.3927183824876193,
                -1.4469556644670845,
                -0.20130873606491495
            ]
        },
        {
            "positions": [
                2.0447921846699804,
                -1.3877987194971477,
                -1.080114923954961,
                -1.366746279555888,
                -1.4262904597105868,
                -0.30853014326330064
            ]
        },
        {
            "positions": [
                1.951247847985265,
                -1.4082928736972524,
                -0.9601858382172316,
                -1.3407741766241568,
                -1.405625254954089,
                -0.4157515504616863
            ]
        },
        {
            "positions": [
                1.8577035113005502,
                -1.4287870278973573,
                -0.8402567524795022,
                -1.3148020736924255,
                -1.3849600501975914,
                -0.522972957660072
            ]
        },
        {
            "positions": [
                1.7641591746158354,
                -1.449281182097462,
                -0.7203276667417728,
                -1.2888299707606943,
                -1.3642948454410937,
                -0.6301943648584577
            ]
        },
        {
            "positions": [
                1.6706148379311205,
                -1.469775336297567,
                -0.6003985810040435,
                -1.2628578678289633,
                -1.343629640684596,
                -0.7374157720568434
            ]
        },
        {
            "positions": [
                1.5770705012464055,
                -1.4902694904976717,
                -0.480469495266314,
                -1.236885764897232,
                -1.3229644359280983,
                -0.8446371792552291
            ]
        },
        {
            "positions": [
                1.4835261645616906,
                -1.5107636446977764,
                -0.3605404095285847,
                -1.2109136619655008,
                -1.3022992311716006,
                -0.9518585864536148
            ]
        },
        {
            "positions": [
                1.3899818278769758,
                -1.5312577988978813,
                -0.24061132379085537,
                -1.1849415590337695,
                -1.2816340264151032,
                -1.0590799936520003
            ]
        },
        {
            "positions": [
                1.296437491192261,
                -1.551751953097986,
                -0.12068223805312606,
                -1.1589694561020383,
                -1.2609688216586055,
                -1.166301400850386
            ]
        },
        {
            "positions": [
                1.2028931545075456,
                -1.572246107298091,
                -0.0007531523153965214,
                -1.132997353170307,
                -1.2403036169021078,
                -1.2735228080487717
            ]
        },
        {
            "positions": [
                1.1093488178228308,
                -1.5927402614981956,
                0.11917593342233301,
                -1.1070252502385758,
                -1.21963841214561,
                -1.3807442152471574
            ]
        },
        {
            "positions": [
                1.015804481138116,
                -1.6132344156983005,
                0.23910501916006233,
                -1.0810531473068448,
                -1.1989732073891124,
                -1.487965622445543
            ]
        },
        {
            "positions": [
                0.9222601444534011,
                -1.6337285698984052,
                0.35903410489779164,
                -1.0550810443751135,
                -1.1783080026326147,
                -1.5951870296439288
            ]
        },
        {
            "positions": [
                0.828715807768686,
                -1.65422272409851,
                0.47896319063552095,
                -1.0291089414433823,
                -1.157642797876117,
                -1.7024084368423145
            ]
        },
        {
            "positions": [
                0.7351714710839712,
                -1.6747168782986148,
                0.5988922763732503,
                -1.003136838511651,
                -1.1369775931196195,
                -1.8096298440407002
            ]
        },
        {
            "positions": [
                0.6416271343992563,
                -1.6952110324987195,
                0.7188213621109796,
                -0.9771647355799199,
                -1.1163123883631219,
                -1.9168512512390858
            ]
        },
        {
            "positions": [
                0.5480827977145415,
                -1.7157051866988244,
                0.8387504478487089,
                -0.9511926326481887,
                -1.0956471836066242,
                -2.0240726584374715
            ]
        },
        {
            "positions": [
                0.4545384610298262,
                -1.7361993408989291,
                0.9586795335864386,
                -0.9252205297164574,
                -1.0749819788501265,
                -2.131294065635857
            ]
        },
        {
            "positions": [
                0.36099412434511136,
                -1.756693495099034,
                1.078608619324168,
                -0.8992484267847263,
                -1.0543167740936288,
                -2.238515472834243
            ]
        },
        {
            "positions": [
                0.26744978766039634,
                -1.7771876492991387,
                1.1985377050618975,
                -0.873276323852995,
                -1.033651569337131,
                -2.3457368800326286
            ]
        },
        {
            "positions": [
                0.22991197376541062,
                -1.7181642902242815,
                1.284006791838781,
                -0.8540830548812177,
                -0.9517652840288702,
                -2.4273490137851237
            ]
        },
        {
            "positions": [
                0.1923741598704249,
                -1.6591409311494243,
                1.3694758786156647,
                -0.8348897859094404,
                -0.8698789987206093,
                -2.508961147537619
            ]
        },
        {
            "positions": [
                0.15483634597543916,
                -1.6001175720745673,
                1.4549449653925484,
                -0.8156965169376631,
                -0.7879927134123482,
                -2.590573281290114
            ]
        },
        {
            "positions": [
                0.11729853208045343,
                -1.54109421299971,
                1.5404140521694318,
                -0.7965032479658858,
                -0.7061064281040873,
                -2.672185415042609
            ]
        },
        {
            "positions": [
                0.0797607181854677,
                -1.4820708539248528,
                1.6258831389463153,
                -0.7773099789941085,
                -0.6242201427958263,
                -2.753797548795104
            ]
        },
        {
            "positions": [
                0.042222904290481963,
                -1.4230474948499956,
                1.711352225723199,
                -0.7581167100223312,
                -0.5423338574875654,
                -2.835409682547599
            ]
        },
        {
            "positions": [
                0.03520004802573981,
                -1.3481690881862942,
                1.788858504916821,
                -0.7538719406452279,
                -0.4116056614933509,
                -2.9139363379650196
            ]
        },
        {
            "positions": [
                0.028177191760997658,
                -1.273290681522593,
                1.8663647841104434,
                -0.7496271712681246,
                -0.2808774654991365,
                -2.99246299338244
            ]
        },
        {
            "positions": [
                0.059369872563206035,
                -1.2285675096287916,
                1.9016695637151741,
                -0.7588376667434885,
                -0.14334469055132892,
                -3.058094322597811
            ]
        },
        {
            "positions": [
                0.09056255336541441,
                -1.1838443377349899,
                1.936974343319905,
                -0.7680481622188524,
                -0.005811915603521345,
                -3.1237256518131824
            ]
        },
        {
            "positions": [
                0.1217552341676228,
                -1.1391211658411884,
                1.9722791229246357,
                -0.7772586576942163,
                0.13172085934428626,
                -3.1893569810285536
            ]
        }
    ]
}