{
    "goal": {
        "global_pose": {
            "orientation": {
                "w": 0.005598929693374612,
                "x": 0.007748599140229565,
                "y": 0.7110244013736278,
                "z": -0.7031023480610252
            },
            "position": {
                "x": -0.8858502320852131,
                "y": -0.7141253447532654,
                "z": 0.3711530566215515
            }
        },
        "name": "move_to_auspresseinheit_C"
    },
    "id": "LazyPRMstar_move_to_auspresseinheit_C_79",
    "joint_names": [
        "shoulder_pan_joint",
        "shoulder_lift_joint",
        "elbow_joint",
        "wrist_1_joint",
        "wrist_2_joint",
        "wrist_3_joint"
    ],
    "metrics": {
        "cart_traj_len": 0.4936322293386374,
        "distance_elbow_joint": 1.0028936315917596,
        "distance_shoulder_lift_joint": 0.3257728917412951,
        "distance_shoulder_pan_joint": 0.25640999271022125,
        "distance_wrist_1_joint": 0.6833734196922894,
        "distance_wrist_2_joint": 1.3139810378588048,
        "distance_wrist_3_joint": 0.05966133813777308,
        "smoothness": 3.2297397335745243e-16,
        "time": 5.000362644999999,
        "traj_len": 1.9084266587249674,
        "weighted_distance": 2.3997436207976017
    },
    "planner": "LazyPRMstar",
    "start": {
        "state": {
            "elbow_joint": 1.7527959577737207,
            "shoulder_lift_joint": -0.9740617694225068,
            "shoulder_pan_joint": -2.967991417825858,
            "wrist_1_joint": -0.759517768980727,
            "wrist_2_joint": 1.7443932448377408,
            "wrist_3_joint": -3.0840537646736568
        }
    },
    "waypoints": [
        {
            "positions": [
                -2.967991417825858,
                -0.9740617694225068,
                1.7527959577737207,
                -0.759517768980727,
                1.7443932448377408,
                -3.0840537646736568
            ]
        },
        {
            "positions": [
                -2.942350418554836,
                -0.9414844802483773,
                1.6525065946145447,
                -0.6911804270114981,
                1.6129951410518604,
                -3.090019898487434
            ]
        },
        {
            "positions": [
                -2.916709419283814,
                -0.9089071910742478,
                1.5522172314553688,
                -0.622843085042269,
                1.48159703726598,
                -3.0959860323012114
            ]
        },
        {
            "positions": [
                -2.8910684200127914,
                -0.8763299019001183,
                1.4519278682961927,
                -0.5545057430730402,
                1.3501989334800995,
                -3.1019521661149887
            ]
        },
        {
            "positions": [
                -2.8654274207417694,
                -0.8437526127259887,
                1.3516385051370168,
                -0.4861684011038112,
                1.218800829694219,
                -3.107918299928766
            ]
        },
        {
            "positions": [
                -2.8397864214707473,
                -0.8111753235518593,
                1.2513491419778409,
                -0.4178310591345823,
                1.0874027259083383,
                -3.1138844337425433
            ]
        },
        {
            "positions": [
                -2.8141454221997253,
                -0.7785980343777297,
                1.151059778818665,
                -0.3494937171653534,
                0.956004622122458,
                -3.1198505675563206
            ]
        },
        {
            "positions": [
                -2.7885044229287033,
                -0.7460207452036003,
                1.050770415659489,
                -0.28115637519612446,
                0.8246065183365775,
                -3.125816701370098
            ]
        },
        {
            "positions": [
                -2.762863423657681,
                -0.7134434560294707,
                0.9504810525003129,
                -0.21281903322689544,
                0.6932084145506969,
                -3.1317828351838752
            ]
        },
        {
            "positions": [
                -2.7372224243866587,
                -0.6808661668553412,
                0.850191689341137,
                -0.14448169125766652,
                0.5618103107648165,
                -3.1377489689976525
            ]
        },
        {
            "positions": [
                -2.7115814251156367,
                -0.6482888776812117,
                0.7499023261819612,
                -0.07614434928843755,
                0.430412206978936,
                -3.14371510281143
            ]
        }
    ]
}