{
    "goal": {
        "global_pose": {
            "orientation": {
                "w": 0.005598929693374612,
                "x": 0.007748599140229565,
                "y": 0.7110244013736278,
                "z": -0.7031023480610252
            },
            "position": {
                "x": -0.8858502320852131,
                "y": -0.7141253447532654,
                "z": 0.3711530566215515
            }
        },
        "name": "move_to_auspresseinheit_C"
    },
    "id": "LazyPRMstar_move_to_auspresseinheit_C_15",
    "joint_names": [
        "shoulder_pan_joint",
        "shoulder_lift_joint",
        "elbow_joint",
        "wrist_1_joint",
        "wrist_2_joint",
        "wrist_3_joint"
    ],
    "metrics": {
        "cart_traj_len": 0.49372940752630906,
        "distance_elbow_joint": 1.0060829888069587,
        "distance_shoulder_lift_joint": 0.32758346587926457,
        "distance_shoulder_pan_joint": 0.25616963596600506,
        "distance_wrist_1_joint": 0.6867721811145205,
        "distance_wrist_2_joint": 1.3113613094148513,
        "distance_wrist_3_joint": 0.07134800323119261,
        "smoothness": 0.0,
        "time": 5.000800873,
        "traj_len": 1.9129342864857624,
        "weighted_distance": 2.4083494516794173
    },
    "planner": "LazyPRMstar",
    "start": {
        "state": {
            "elbow_joint": 1.7527959577737207,
            "shoulder_lift_joint": -0.9740617694225068,
            "shoulder_pan_joint": -2.967991417825858,
            "wrist_1_joint": -0.759517768980727,
            "wrist_2_joint": 1.7443932448377408,
            "wrist_3_joint": -3.0840537646736568
        }
    },
    "waypoints": [
        {
            "positions": [
                -2.967991417825858,
                -0.9740617694225068,
                1.7527959577737207,
                -0.759517768980727,
                1.7443932448377408,
                -3.0840537646736568
            ]
        },
        {
            "positions": [
                -2.9423744542292574,
                -0.9413034228345804,
                1.6521876588930249,
                -0.690840550869275,
                1.6132571138962557,
                -3.091188564996776
            ]
        },
        {
            "positions": [
                -2.9167574906326568,
                -0.9085450762466538,
                1.5515793600123289,
                -0.6221633327578229,
                1.4821209829547706,
                -3.0983233653198954
            ]
        },
        {
            "positions": [
                -2.8911405270360566,
                -0.8757867296587274,
                1.450971061131633,
                -0.5534861146463708,
                1.3509848520132854,
                -3.1054581656430145
            ]
        },
        {
            "positions": [
                -2.865523563439456,
                -0.843028383070801,
                1.350362762250937,
                -0.48480889653491877,
                1.2198487210718003,
                -3.112592965966134
            ]
        },
        {
            "positions": [
                -2.8399065998428554,
                -0.8102700364828745,
                1.2497544633702413,
                -0.4161316784234667,
                1.0887125901303152,
                -3.119727766289253
            ]
        },
        {
            "positions": [
                -2.814289636246255,
                -0.777511689894948,
                1.1491461644895455,
                -0.34745446031201466,
                0.95757645918883,
                -3.126862566612372
            ]
        },
        {
            "positions": [
                -2.7886726726496542,
                -0.7447533433070216,
                1.0485378656088495,
                -0.27877724220056266,
                0.826440328247345,
                -3.1339973669354917
            ]
        },
        {
            "positions": [
                -2.763055709053054,
                -0.711994996719095,
                0.9479295667281536,
                -0.21010002408911055,
                0.6953041973058598,
                -3.1411321672586108
            ]
        },
        {
            "positions": [
                -2.7374387454564535,
                -0.6792366501311686,
                0.8473212678474579,
                -0.14142280597765844,
                0.5641680663643747,
                -3.1482669675817303
            ]
        },
        {
            "positions": [
                -2.711821781859853,
                -0.6464783035432422,
                0.7467129689667621,
                -0.07274558786620648,
                0.43303193542288954,
                -3.1554017679048494
            ]
        }
    ]
}