{
    "goal": {
        "global_pose": {
            "orientation": {
                "w": 0.005598929693374612,
                "x": 0.007748599140229565,
                "y": 0.7110244013736278,
                "z": -0.7031023480610252
            },
            "position": {
                "x": -0.8858502320852131,
                "y": -0.7141253447532654,
                "z": 0.3711530566215515
            }
        },
        "name": "move_to_auspresseinheit_C"
    },
    "id": "LazyPRMstar_move_to_auspresseinheit_C_55",
    "joint_names": [
        "shoulder_pan_joint",
        "shoulder_lift_joint",
        "elbow_joint",
        "wrist_1_joint",
        "wrist_2_joint",
        "wrist_3_joint"
    ],
    "metrics": {
        "cart_traj_len": 0.49250465460193177,
        "distance_elbow_joint": 0.9893032592380896,
        "distance_shoulder_lift_joint": 0.3192952357455595,
        "distance_shoulder_pan_joint": 0.2561340384919131,
        "distance_wrist_1_joint": 0.6569102465554745,
        "distance_wrist_2_joint": 1.3146714236897106,
        "distance_wrist_3_joint": 0.05227260209535345,
        "smoothness": 8.074349282788172e-16,
        "time": 5.000109074,
        "traj_len": 1.8943565677601721,
        "weighted_distance": 2.3800658983002956
    },
    "planner": "LazyPRMstar",
    "start": {
        "state": {
            "elbow_joint": 1.7527959577737207,
            "shoulder_lift_joint": -0.9740617694225068,
            "shoulder_pan_joint": -2.967991417825858,
            "wrist_1_joint": -0.759517768980727,
            "wrist_2_joint": 1.7443932448377408,
            "wrist_3_joint": -3.0840537646736568
        }
    },
    "waypoints": [
        {
            "positions": [
                -2.967991417825858,
                -0.9740617694225068,
                1.7527959577737207,
                -0.759517768980727,
                1.7443932448377408,
                -3.0840537646736568
            ]
        },
        {
            "positions": [
                -2.9423780139766667,
                -0.9421322458479509,
                1.6538656318499116,
                -0.6938267443251795,
                1.6129261024687698,
                -3.089281024883192
            ]
        },
        {
            "positions": [
                -2.9167646101274753,
                -0.9102027222733948,
                1.5549353059261026,
                -0.6281357196696321,
                1.4814589600997987,
                -3.0945082850927275
            ]
        },
        {
            "positions": [
                -2.891151206278284,
                -0.8782731986988389,
                1.4560049800022938,
                -0.5624446950140847,
                1.3499918177308277,
                -3.099735545302263
            ]
        },
        {
            "positions": [
                -2.8655378024290927,
                -0.846343675124283,
                1.3570746540784848,
                -0.4967536703585372,
                1.2185246753618566,
                -3.104962805511798
            ]
        },
        {
            "positions": [
                -2.8399243985799014,
                -0.814414151549727,
                1.2581443281546758,
                -0.43106264570298974,
                1.0870575329928855,
                -3.1101900657213335
            ]
        },
        {
            "positions": [
                -2.81431099473071,
                -0.782484627975171,
                1.159214002230867,
                -0.3653716210474423,
                0.9555903906239145,
                -3.115417325930869
            ]
        },
        {
            "positions": [
                -2.788697590881519,
                -0.7505551044006151,
                1.060283676307058,
                -0.29968059639189487,
                0.8241232482549435,
                -3.120644586140404
            ]
        },
        {
            "positions": [
                -2.7630841870323275,
                -0.7186255808260591,
                0.961353350383249,
                -0.23398957173634738,
                0.6926561058859724,
                -3.1258718463499395
            ]
        },
        {
            "positions": [
                -2.737470783183136,
                -0.6866960572515032,
                0.86242302445944,
                -0.16829854708079994,
                0.5611889635170013,
                -3.131099106559475
            ]
        },
        {
            "positions": [
                -2.711857379333945,
                -0.6547665336769473,
                0.7634926985356311,
                -0.10260752242525253,
                0.42972182114803037,
                -3.13632636676901
            ]
        }
    ]
}