{
    "goal": {
        "global_pose": {
            "orientation": {
                "w": 0.5084816262002911,
                "x": -0.4908360881923452,
                "y": 0.5182115481033761,
                "z": -0.48164630358495003
            },
            "position": {
                "x": 0.5540239810943604,
                "y": -0.46912469901144505,
                "z": 0.16403168439865112
            }
        },
        "name": "move_to_storage_B"
    },
    "id": "LazyPRMstar_move_to_storage_B_131",
    "joint_names": [
        "shoulder_pan_joint",
        "shoulder_lift_joint",
        "elbow_joint",
        "wrist_1_joint",
        "wrist_2_joint",
        "wrist_3_joint"
    ],
    "metrics": {
        "cart_traj_len": 0.8684761330718792,
        "distance_elbow_joint": 0.6574504851782641,
        "distance_shoulder_lift_joint": 0.4604972616851628,
        "distance_shoulder_pan_joint": 0.18082973834170668,
        "distance_wrist_1_joint": 3.0105732967970757,
        "distance_wrist_2_joint": 2.703971495009634,
        "distance_wrist_3_joint": 3.155154697908241,
        "smoothness": 0.038087137223342685,
        "time": 5.011916608,
        "traj_len": 3.1888049446336604,
        "weighted_distance": 4.710979851638434
    },
    "planner": "LazyPRMstar",
    "start": {
        "state": {
            "elbow_joint": 1.664937868594044,
            "shoulder_lift_joint": -0.661644460510453,
            "shoulder_pan_joint": -0.9139846352900073,
            "wrist_1_joint": 2.146753192139373,
            "wrist_2_joint": -2.2341966793290973,
            "wrist_3_joint": 0.005466555786416001
        }
    },
    "waypoints": [
        {
            "positions": [
                -0.9139846352900073,
                -0.661644460510453,
                1.664937868594044,
                2.146753192139373,
                -2.2341966793290973,
                0.005466555786416001
            ]
        },
        {
            "positions": [
                -0.9148687543905143,
                -0.6930840091684284,
                1.7034360667242008,
                2.065943489370312,
                -2.1319147887242895,
                0.10518966861533059
            ]
        },
        {
            "positions": [
                -0.9157528734910212,
                -0.7245235578264038,
                1.7419342648543577,
                1.985133786601251,
                -2.0296328981194818,
                0.20491278144424518
            ]
        },
        {
            "positions": [
                -0.9166369925915282,
                -0.7559631064843791,
                1.7804324629845143,
                1.90432408383219,
                -1.927351007514674,
                0.3046358942731598
            ]
        },
        {
            "positions": [
                -0.9175211116920352,
                -0.7874026551423545,
                1.8189306611146712,
                1.823514381063129,
                -1.8250691169098663,
                0.4043590071020744
            ]
        },
        {
            "positions": [
                -0.9202189907917415,
                -0.8155007048673043,
                1.8509673244509293,
                1.7305326279492994,
                -1.7199553385721693,
                0.5127389379993332
            ]
        },
        {
            "positions": [
                -0.9229168698914477,
                -0.8435987545922542,
                1.8830039877871871,
                1.6375508748354701,
                -1.6148415602344723,
                0.621118868896592
            ]
        },
        {
            "positions": [
                -0.925614748991154,
                -0.871696804317204,
                1.9150406511234452,
                1.5445691217216408,
                -1.5097277818967756,
                0.7294987997938507
            ]
        },
        {
            "positions": [
                -0.9283126280908603,
                -0.8997948540421539,
                1.9470773144597031,
                1.4515873686078113,
                -1.4046140035590786,
                0.8378787306911095
            ]
        },
        {
            "positions": [
                -0.9310105071905665,
                -0.9278929037671036,
                1.9791139777959612,
                1.3586056154939818,
                -1.2995002252213816,
                0.9462586615883684
            ]
        },
        {
            "positions": [
                -0.9337083862902729,
                -0.9559909534920534,
                2.011150641132219,
                1.2656238623801526,
                -1.194386446883685,
                1.054638592485627
            ]
        },
        {
            "positions": [
                -0.9364062653899791,
                -0.9840890032170033,
                2.043187304468477,
                1.172642109266323,
                -1.089272668545988,
                1.163018523382886
            ]
        },
        {
            "positions": [
                -0.9391041444896854,
                -1.0121870529419532,
                2.0752239678047353,
                1.0796603561524938,
                -0.984158890208291,
                1.2713984542801446
            ]
        },
        {
            "positions": [
                -0.9418020235893917,
                -1.0402851026669029,
                2.107260631140993,
                0.9866786030386643,
                -0.879045111870594,
                1.3797783851774037
            ]
        },
        {
            "positions": [
                -0.9444999026890979,
                -1.0683831523918528,
                2.139297294477251,
                0.8936968499248349,
                -0.7739313335328972,
                1.4881583160746623
            ]
        },
        {
            "positions": [
                -0.9471977817888042,
                -1.0964812021168027,
                2.171333957813509,
                0.8007150968110055,
                -0.6688175551952001,
                1.5965382469719211
            ]
        },
        {
            "positions": [
                -0.95949916444238,
                -1.098619578790037,
                2.1587460914836094,
                0.6620038300219465,
                -0.5739348576222221,
                1.7268784975321492
            ]
        },
        {
            "positions": [
                -0.9718005470959559,
                -1.1007579554632716,
                2.1461582251537092,
                0.5232925632328875,
                -0.4790521600492441,
                1.8572187480923772
            ]
        },
        {
            "positions": [
                -0.9841019297495317,
                -1.102896332136506,
                2.1335703588238095,
                0.3845812964438285,
                -0.38416946247626604,
                1.9875589986526052
            ]
        },
        {
            "positions": [
                -0.9964033124031074,
                -1.1050347088097403,
                2.1209824924939094,
                0.24587002965476956,
                -0.28928676490328803,
                2.117899249212833
            ]
        },
        {
            "positions": [
                -1.0087046950566834,
                -1.1071730854829749,
                2.1083946261640096,
                0.10715876286571047,
                -0.19440406733030996,
                2.248239499773061
            ]
        },
        {
            "positions": [
                -1.021006077710259,
                -1.1093114621562092,
                2.09580675983411,
                -0.03155250392334852,
                -0.09952136975733195,
                2.378579750333289
            ]
        },
        {
            "positions": [
                -1.0333074603638348,
                -1.1114498388294436,
                2.0832188935042097,
                -0.1702637707124076,
                -0.004638672184353876,
                2.508920000893517
            ]
        },
        {
            "positions": [
                -1.0456088430174106,
                -1.1135882155026782,
                2.07063102717431,
                -0.3089750375014664,
                0.09024402538862408,
                2.639260251453745
            ]
        },
        {
            "positions": [
                -1.0579102256709865,
                -1.1157265921759125,
                2.05804316084441,
                -0.44768630429052547,
                0.18512672296160215,
                2.769600502013973
            ]
        },
        {
            "positions": [
                -1.0702116083245623,
                -1.1178649688491469,
                2.04545529451451,
                -0.5863975710795846,
                0.2800094205345802,
                2.899940752574201
            ]
        },
        {
            "positions": [
                -1.0825129909781381,
                -1.1200033455223815,
                2.03286742818461,
                -0.7251088378686434,
                0.37489211810755807,
                3.030281003134429
            ]
        },
        {
            "positions": [
                -1.094814373631714,
                -1.1221417221956158,
                2.0202795618547102,
                -0.8638201046577025,
                0.4697748156805362,
                3.160621253694657
            ]
        }
    ]
}