{
    "goal": {
        "global_pose": {
            "orientation": {
                "w": -0.00223480608172531,
                "x": 0.0024358444001904467,
                "y": 0.7094548369677653,
                "z": -0.704743149386269
            },
            "position": {
                "x": 0.6205249238014221,
                "y": -0.6371506643295288,
                "z": 0.19426114857196808
            }
        },
        "name": "move_to_magneteinheit_B"
    },
    "id": "LazyPRMstar_move_to_magneteinheit_B_90",
    "joint_names": [
        "shoulder_pan_joint",
        "shoulder_lift_joint",
        "elbow_joint",
        "wrist_1_joint",
        "wrist_2_joint",
        "wrist_3_joint"
    ],
    "metrics": {
        "cart_traj_len": 3.527520323574749,
        "distance_elbow_joint": 4.2817467027891425,
        "distance_shoulder_lift_joint": 1.1878948006298526,
        "distance_shoulder_pan_joint": 2.71392972189054,
        "distance_wrist_1_joint": 1.0496716319187362,
        "distance_wrist_2_joint": 1.759777849854571,
        "distance_wrist_3_joint": 1.4895504863979823,
        "smoothness": 0.41960738867890107,
        "time": 5.060178585,
        "traj_len": 3.533068240705354,
        "weighted_distance": 4.274473259718686
    },
    "planner": "LazyPRMstar",
    "start": {
        "state": {
            "elbow_joint": 2.6216224122426386,
            "shoulder_lift_joint": -1.4174107377796124,
            "shoulder_pan_joint": 0.7066234856936794,
            "wrist_1_joint": 1.9546482284002225,
            "wrist_2_joint": -0.7096286983471962,
            "wrist_3_joint": 0.005740856962016249
        }
    },
    "waypoints": [
        {
            "positions": [
                0.7066234856936794,
                -1.4174107377796124,
                2.6216224122426386,
                1.9546482284002225,
                -0.7096286983471962,
                0.005740856962016249
            ]
        },
        {
            "positions": [
                0.8533623238223148,
                -1.4623809040940354,
                2.599046059684487,
                1.9456165062918431,
                -0.6054375398287729,
                0.037114663748957735
            ]
        },
        {
            "positions": [
                1.0001011619509503,
                -1.5073510704084587,
                2.576469707126335,
                1.936584784183464,
                -0.5012463813103496,
                0.06848847053589922
            ]
        },
        {
            "positions": [
                1.1468400000795858,
                -1.5523212367228818,
                2.5538933545681837,
                1.9275530620750847,
                -0.3970552227919262,
                0.09986227732284073
            ]
        },
        {
            "positions": [
                1.2354894784971773,
                -1.6045229616454737,
                2.394634348094537,
                1.9174412439454316,
                -0.34933310149052377,
                0.13373817234386423
            ]
        },
        {
            "positions": [
                1.3241389569147686,
                -1.6567246865680656,
                2.2353753416208906,
                1.9073294258157785,
                -0.30161098018912136,
                0.16761406736488776
            ]
        },
        {
            "positions": [
                1.41278843533236,
                -1.7089264114906575,
                2.076116335147244,
                1.8972176076861256,
                -0.253888858887719,
                0.20148996238591127
            ]
        },
        {
            "positions": [
                1.5014379137499516,
                -1.7611281364132494,
                1.9168573286735975,
                1.8871057895564725,
                -0.2061667375863166,
                0.23536585740693478
            ]
        },
        {
            "positions": [
                1.590087392167543,
                -1.8133298613358413,
                1.757598322199951,
                1.8769939714268193,
                -0.1584446162849142,
                0.2692417524279583
            ]
        },
        {
            "positions": [
                1.6787368705851344,
                -1.865531586258433,
                1.5983393157263046,
                1.8668821532971662,
                -0.11072249498351183,
                0.3031176474489818
            ]
        },
        {
            "positions": [
                1.767386349002726,
                -1.9177333111810249,
                1.439080309252658,
                1.8567703351675133,
                -0.06300037368210942,
                0.3369935424700053
            ]
        },
        {
            "positions": [
                1.8560358274203175,
                -1.9699350361036168,
                1.2798213027790115,
                1.8466585170378602,
                -0.015278252380707014,
                0.37086943749102885
            ]
        },
        {
            "positions": [
                1.9446853058379088,
                -2.022136761026209,
                1.120562296305365,
                1.836546698908207,
                0.032443868920695396,
                0.40474533251205236
            ]
        },
        {
            "positions": [
                2.0333347842555,
                -2.0743384859488003,
                0.9613032898317184,
                1.826434880778554,
                0.08016599022209775,
                0.43862122753307586
            ]
        },
        {
            "positions": [
                2.1219842626730916,
                -2.1265402108713927,
                0.8020442833580719,
                1.8163230626489009,
                0.12788811152350021,
                0.47249712255409937
            ]
        },
        {
            "positions": [
                2.210633741090683,
                -2.178741935793984,
                0.6427852768844255,
                1.806211244519248,
                0.1756102328249025,
                0.5063730175751229
            ]
        },
        {
            "positions": [
                2.2992832195082746,
                -2.230943660716576,
                0.483526270410779,
                1.7960994263895949,
                0.22333235412630503,
                0.5402489125961464
            ]
        },
        {
            "positions": [
                2.3879326979258657,
                -2.283145385639168,
                0.32426726393713245,
                1.7859876082599417,
                0.27105447542770733,
                0.5741248076171699
            ]
        },
        {
            "positions": [
                2.4765821763434577,
                -2.33534711056176,
                0.1650082574634859,
                1.7758757901302886,
                0.31877659672910985,
                0.6080007026381934
            ]
        },
        {
            "positions": [
                2.5652316547610488,
                -2.3875488354843517,
                0.005749250989839361,
                1.7657639720006355,
                0.36649871803051215,
                0.6418765976592169
            ]
        },
        {
            "positions": [
                2.6538811331786407,
                -2.4397505604069436,
                -0.1535097554838072,
                1.7556521538709826,
                0.41422083933191456,
                0.6757524926802404
            ]
        },
        {
            "positions": [
                2.742530611596232,
                -2.4919522853295355,
                -0.31276876195745373,
                1.7455403357413295,
                0.46194296063331697,
                0.7096283877012639
            ]
        },
        {
            "positions": [
                2.8311800900138233,
                -2.5441540102521274,
                -0.4720277684311005,
                1.7354285176116764,
                0.5096650819347194,
                0.7435042827222874
            ]
        },
        {
            "positions": [
                2.857477182617156,
                -2.537039634371411,
                -0.6185226718551885,
                1.6378800858745264,
                0.47293716432370586,
                0.6934716234275666
            ]
        },
        {
            "positions": [
                2.883774275220488,
                -2.529925258490695,
                -0.7650175752792765,
                1.5403316541373764,
                0.43620924671269234,
                0.643438964132846
            ]
        },
        {
            "positions": [
                2.9100713678238206,
                -2.5228108826099787,
                -0.9115124787033646,
                1.4427832224002262,
                0.39948132910167883,
                0.5934063048381252
            ]
        },
        {
            "positions": [
                2.936368460427153,
                -2.5156965067292623,
                -1.0580073821274527,
                1.3452347906630762,
                0.3627534114906653,
                0.5433736455434044
            ]
        },
        {
            "positions": [
                2.9626655530304857,
                -2.5085821308485463,
                -1.2045022855515406,
                1.2476863589259262,
                0.3260254938796518,
                0.4933409862486837
            ]
        },
        {
            "positions": [
                2.9889626456338183,
                -2.50146775496783,
                -1.3509971889756287,
                1.1501379271887762,
                0.2892975762686383,
                0.44330832695396294
            ]
        },
        {
            "positions": [
                3.0152597382371504,
                -2.494353379087114,
                -1.4974920923997166,
                1.0525894954516262,
                0.25256965865762476,
                0.3932756676592422
            ]
        },
        {
            "positions": [
                3.041556830840483,
                -2.4872390032063976,
                -1.6439869958238047,
                0.9550410637144761,
                0.21584174104661125,
                0.3432430083645215
            ]
        },
        {
            "positions": [
                2.9152247052592375,
                -2.4858268295025283,
                -1.6493660940647044,
                0.971729219458806,
                0.2980619839414601,
                0.22606774627120635
            ]
        },
        {
            "positions": [
                2.788892579677992,
                -2.484414655798659,
                -1.654745192305604,
                0.988417375203136,
                0.38028222683630897,
                0.10889248417789119
            ]
        },
        {
            "positions": [
                2.6625604540967465,
                -2.48300248209479,
                -1.6601242905465037,
                1.005105530947466,
                0.46250246973115783,
                -0.008282777915423974
            ]
        }
    ]
}