{
    "goal": {
        "global_pose": {
            "orientation": {
                "w": 0.5084816217422485,
                "x": -0.49083608388900757,
                "y": 0.5182115435600281,
                "z": -0.4816462993621826
            },
            "position": {
                "x": 0.5540239810943604,
                "y": 0.030875300988554955,
                "z": 0.16403168439865112
            }
        },
        "name": "move_to_storage_A"
    },
    "id": "LazyPRMstar_move_to_storage_A_96",
    "joint_names": [
        "shoulder_pan_joint",
        "shoulder_lift_joint",
        "elbow_joint",
        "wrist_1_joint",
        "wrist_2_joint",
        "wrist_3_joint"
    ],
    "metrics": {
        "cart_traj_len": 0.35258988836318506,
        "distance_elbow_joint": 0.44889439755173544,
        "distance_shoulder_lift_joint": 0.23447537346468916,
        "distance_shoulder_pan_joint": 0.46073411813696263,
        "distance_wrist_1_joint": 0.24231657872395307,
        "distance_wrist_2_joint": 1.0988309916948809,
        "distance_wrist_3_joint": 0.10041703127081236,
        "smoothness": 4.440892098500626e-16,
        "time": 5.000109382000001,
        "traj_len": 1.6080013964058095,
        "weighted_distance": 2.0316619117863812
    },
    "planner": "LazyPRMstar",
    "start": {
        "state": {
            "elbow_joint": 1.971548259319323,
            "shoulder_lift_joint": -1.1394851275133948,
            "shoulder_pan_joint": 0.1228115487234821,
            "wrist_1_joint": -0.7804723859257726,
            "wrist_2_joint": 0.12958671773740124,
            "wrist_3_joint": -3.192489227718131
        }
    },
    "waypoints": [
        {
            "positions": [
                0.1228115487234821,
                -1.1394851275133948,
                1.971548259319323,
                -0.7804723859257726,
                0.12958671773740124,
                -3.192489227718131
            ]
        },
        {
            "positions": [
                0.0569923889896303,
                -1.1729816094369219,
                2.0356760303981423,
                -0.8150890400291945,
                0.28656257369381277,
                -3.1781439375365865
            ]
        },
        {
            "positions": [
                -0.008826770744221502,
                -1.206478091360449,
                2.0998038014769618,
                -0.8497056941326163,
                0.4435384296502243,
                -3.163798647355042
            ]
        },
        {
            "positions": [
                -0.0746459304780733,
                -1.239974573283976,
                2.163931572555781,
                -0.8843223482360382,
                0.6005142856066359,
                -3.1494533571734973
            ]
        },
        {
            "positions": [
                -0.1404650902119251,
                -1.2734710552075028,
                2.2280593436346003,
                -0.9189390023394601,
                0.7574901415630474,
                -3.1351080669919527
            ]
        },
        {
            "positions": [
                -0.20628424994577693,
                -1.3069675371310299,
                2.29218711471342,
                -0.953555656442882,
                0.914465997519459,
                -3.120762776810408
            ]
        },
        {
            "positions": [
                -0.2721034096796287,
                -1.340464019054557,
                2.356314885792239,
                -0.9881723105463038,
                1.0714418534758705,
                -3.1064174866288634
            ]
        },
        {
            "positions": [
                -0.33792256941348053,
                -1.373960500978084,
                2.4204426568710584,
                -1.0227889646497257,
                1.2284177094322821,
                -3.092072196447319
            ]
        }
    ]
}{
    "goal": {
        "global_pose": {
            "orientation": {
                "w": 0.5084816217422485,
                "x": -0.49083608388900757,
                "y": 0.5182115435600281,
                "z": -0.4816462993621826
            },
            "position": {
                "x": 0.5540239810943604,
                "y": 0.030875300988554955,
                "z": 0.16403168439865112
            }
        },
        "name": "move_to_storage_A"
    },
    "id": "LazyPRMstar_move_to_storage_A_96",
    "joint_names": [
        "shoulder_pan_joint",
        "shoulder_lift_joint",
        "elbow_joint",
        "wrist_1_joint",
        "wrist_2_joint",
        "wrist_3_joint"
    ],
    "metrics": {
        "cart_traj_len": 0.35307319312427754,
        "distance_elbow_joint": 0.45039821361432075,
        "distance_shoulder_lift_joint": 0.23299907627932037,
        "distance_shoulder_pan_joint": 0.4624587200523852,
        "distance_wrist_1_joint": 0.2497823088120248,
        "distance_wrist_2_joint": 1.0945395741428499,
        "distance_wrist_3_joint": 0.10774455984201259,
        "smoothness": 6.661338165333112e-16,
        "time": 5.000143503,
        "traj_len": 1.611807200859617,
        "weighted_distance": 2.039052097270154
    },
    "planner": "LazyPRMstar",
    "start": {
        "state": {
            "elbow_joint": 1.97154746011099,
            "shoulder_lift_joint": -1.13948474672311,
            "shoulder_pan_joint": 0.12281154466712228,
            "wrist_1_joint": -0.7804688027058302,
            "wrist_2_joint": 0.12958655903071145,
            "wrist_3_joint": 3.0906928834467795
        }
    },
    "waypoints": [
        {
            "positions": [
                0.12281154466712228,
                -1.13948474672311,
                1.97154746011099,
                -0.7804688027058302,
                0.12958655903071145,
                3.0906928834467795
            ]
        },
        {
            "positions": [
                0.05674601323106726,
                -1.1727703290487272,
                2.035890062055893,
                -0.8161519896789766,
                0.28594935533683286,
                3.10608496342421
            ]
        },
        {
            "positions": [
                -0.009319518204987762,
                -1.2060559113743443,
                2.100232664000796,
                -0.8518351766521229,
                0.44231215164295423,
                3.12147704340164
            ]
        },
        {
            "positions": [
                -0.0753850496410428,
                -1.2393414936999616,
                2.164575265945699,
                -0.8875183636252694,
                0.5986749479490756,
                3.1368691233790704
            ]
        },
        {
            "positions": [
                -0.1414505810770978,
                -1.2726270760255787,
                2.2289178678906016,
                -0.9232015505984158,
                0.7550377442551971,
                3.152261203356501
            ]
        },
        {
            "positions": [
                -0.20751611251315283,
                -1.305912658351196,
                2.293260469835505,
                -0.9588847375715621,
                0.9114005405613186,
                3.1676532833339315
            ]
        },
        {
            "positions": [
                -0.27358164394920786,
                -1.339198240676813,
                2.3576030717804075,
                -0.9945679245447085,
                1.0677633368674397,
                3.183045363311362
            ]
        },
        {
            "positions": [
                -0.3396471753852629,
                -1.3724838230024303,
                2.4219456737253107,
                -1.030251111517855,
                1.2241261331735613,
                3.198437443288792
            ]
        }
    ]
}{
    "goal": {
        "global_pose": {
            "orientation": {
                "w": 0.5084816217422485,
                "x": -0.49083608388900757,
                "y": 0.5182115435600281,
                "z": -0.4816462993621826
            },
            "position": {
                "x": 0.5540239810943604,
                "y": 0.030875300988554955,
                "z": 0.16403168439865112
            }
        },
        "name": "move_to_storage_A"
    },
    "id": "LazyPRMstar_move_to_storage_A_96",
    "joint_names": [
        "shoulder_pan_joint",
        "shoulder_lift_joint",
        "elbow_joint",
        "wrist_1_joint",
        "wrist_2_joint",
        "wrist_3_joint"
    ],
    "metrics": {
        "cart_traj_len": 0.35332189047189644,
        "distance_elbow_joint": 0.4491337060289555,
        "distance_shoulder_lift_joint": 0.23542193823420154,
        "distance_shoulder_pan_joint": 0.45913947740121086,
        "distance_wrist_1_joint": 0.24282817396548984,
        "distance_wrist_2_joint": 1.1116135297528806,
        "distance_wrist_3_joint": 0.09672015727325789,
        "smoothness": 0.0,
        "time": 5.001333644,
        "traj_len": 1.6108559782475889,
        "weighted_distance": 2.0353719564052373
    },
    "planner": "LazyPRMstar",
    "start": {
        "state": {
            "elbow_joint": 1.9715472970024885,
            "shoulder_lift_joint": -1.1394870060712896,
            "shoulder_pan_joint": 0.12281152778156021,
            "wrist_1_joint": -0.780463741449964,
            "wrist_2_joint": 0.12958659822042276,
            "wrist_3_joint": 3.090690232415272
        }
    },
    "waypoints": [
        {
            "positions": [
                0.12281152778156021,
                -1.1394870060712896,
                1.9715472970024885,
                -0.780463741449964,
                0.12958659822042276,
                3.090690232415272
            ]
        },
        {
            "positions": [
                0.057220173867101515,
                -1.1731187115333184,
                2.035709255006625,
                -0.8151534805878912,
                0.2883885310422628,
                3.104507397740023
            ]
        },
        {
            "positions": [
                -0.00837118004735718,
                -1.2067504169953471,
                2.0998712130107617,
                -0.8498432197258182,
                0.4471904638641029,
                3.1183245630647742
            ]
        },
        {
            "positions": [
                -0.07396253396181587,
                -1.240382122457376,
                2.164033171014898,
                -0.8845329588637454,
                0.605992396685943,
                3.1321417283895254
            ]
        },
        {
            "positions": [
                -0.13955388787627457,
                -1.2740138279194047,
                2.2281951290190345,
                -0.9192226980016724,
                0.764794329507783,
                3.145958893714276
            ]
        },
        {
            "positions": [
                -0.20514524179073326,
                -1.3076455333814336,
                2.292357087023171,
                -0.9539124371395996,
                0.9235962623296232,
                3.1597760590390274
            ]
        },
        {
            "positions": [
                -0.27073659570519193,
                -1.3412772388434624,
                2.3565190450273077,
                -0.9886021762775267,
                1.0823981951514632,
                3.1735932243637786
            ]
        },
        {
            "positions": [
                -0.3363279496196506,
                -1.3749089443054912,
                2.420681003031444,
                -1.0232919154154538,
                1.2412001279733034,
                3.1874103896885297
            ]
        }
    ]
}