{
    "goal": {
        "global_pose": {
            "orientation": {
                "w": -0.4816463035849501,
                "x": 0.5182115481033762,
                "y": 0.4908360881923453,
                "z": -0.5084816262002911
            },
            "position": {
                "x": -0.8240239810943604,
                "y": -0.300875300988555,
                "z": 0.16403168439865112
            }
        },
        "name": "move_to_storage_C"
    },
    "id": "LazyPRM_move_to_storage_C_17",
    "joint_names": [
        "shoulder_pan_joint",
        "shoulder_lift_joint",
        "elbow_joint",
        "wrist_1_joint",
        "wrist_2_joint",
        "wrist_3_joint"
    ],
    "metrics": {
        "cart_traj_len": 0.5762903583722955,
        "distance_elbow_joint": 0.2628238750700733,
        "distance_shoulder_lift_joint": 0.18969446477736462,
        "distance_shoulder_pan_joint": 0.4921606763439259,
        "distance_wrist_1_joint": 0.09183116663551938,
        "distance_wrist_2_joint": 1.0799047470576832,
        "distance_wrist_3_joint": 0.066462403066887,
        "smoothness": 2.5376526478085547e-16,
        "time": 0.011674866,
        "traj_len": 1.4774563726051113,
        "weighted_distance": 1.867495127912903
    },
    "planner": "LazyPRM",
    "start": {
        "state": {
            "elbow_joint": 2.010868314990456,
            "shoulder_lift_joint": -1.1634956873337592,
            "shoulder_pan_joint": -2.4736205022346125,
            "wrist_1_joint": -0.8367026794202681,
            "wrist_2_joint": 0.6746043897044499,
            "wrist_3_joint": -3.1496632123970403
        }
    },
    "waypoints": [
        {
            "positions": [
                -2.4736205022346125,
                -1.1634956873337592,
                2.010868314990456,
                -0.8367026794202681,
                0.6746043897044499,
                -3.1496632123970403
            ]
        },
        {
            "positions": [
                -2.5556472816252667,
                -1.1318799432041984,
                1.9670643358121103,
                -0.8213974849810148,
                0.8545885142140638,
                -3.1385861452192256
            ]
        },
        {
            "positions": [
                -2.6376740610159213,
                -1.1002641990746376,
                1.9232603566337647,
                -0.8060922905417617,
                1.0345726387236778,
                -3.1275090780414114
            ]
        },
        {
            "positions": [
                -2.7197008404065754,
                -1.0686484549450768,
                1.8794563774554192,
                -0.7907870961025084,
                1.2145567632332916,
                -3.116432010863597
            ]
        },
        {
            "positions": [
                -2.8017276197972296,
                -1.0370327108155162,
                1.8356523982770736,
                -0.7754819016632551,
                1.3945408877429055,
                -3.105354943685782
            ]
        },
        {
            "positions": [
                -2.8837543991878842,
                -1.0054169666859554,
                1.791848419098728,
                -0.760176707224002,
                1.5745250122525194,
                -3.094277876507968
            ]
        },
        {
            "positions": [
                -2.9657811785785384,
                -0.9738012225563946,
                1.7480444399203825,
                -0.7448715127847487,
                1.7545091367621333,
                -3.0832008093301533
            ]
        }
    ]
}