{
    "goal": {
        "global_pose": {
            "orientation": {
                "w": 0.7031023502349854,
                "x": -0.7110244035720825,
                "y": 0.007748599164187908,
                "z": 0.005598929710686207
            },
            "position": {
                "x": 0.11585023208521307,
                "y": 0.44412534475326537,
                "z": 0.3711530566215515
            }
        },
        "name": "move_to_auspresseinheit_A"
    },
    "id": "LazyPRM_move_to_auspresseinheit_A_139",
    "joint_names": [
        "shoulder_pan_joint",
        "shoulder_lift_joint",
        "elbow_joint",
        "wrist_1_joint",
        "wrist_2_joint",
        "wrist_3_joint"
    ],
    "metrics": {
        "cart_traj_len": 2.022019973344186,
        "distance_elbow_joint": 2.2164070904158457,
        "distance_shoulder_lift_joint": 0.7620188938291961,
        "distance_shoulder_pan_joint": 1.2207350178116667,
        "distance_wrist_1_joint": 2.066598856742752,
        "distance_wrist_2_joint": 2.0878923070628415,
        "distance_wrist_3_joint": 0.924266069729085,
        "smoothness": 1.2111409185108681,
        "time": 0.134000688,
        "traj_len": 3.0459675368577694,
        "weighted_distance": 3.9090844885797935
    },
    "planner": "LazyPRM",
    "start": {
        "state": {
            "elbow_joint": 2.4225746658250005,
            "shoulder_lift_joint": -1.3736534386056498,
            "shoulder_pan_joint": -0.3378633547517467,
            "wrist_1_joint": -1.0288598680537169,
            "wrist_2_joint": 1.233022673432363,
            "wrist_3_joint": -3.0940220416140027
        }
    },
    "waypoints": [
        {
            "positions": [
                -0.3378633547517467,
                -1.3736534386056498,
                2.4225746658250005,
                -1.0288598680537169,
                1.233022673432363,
                -3.0940220416140027
            ]
        },
        {
            "positions": [
                -0.27925734296367993,
                -1.4168480744476697,
                2.3477369752188433,
                -0.9411987622789837,
                1.1486366500223466,
                -3.0644342791492147
            ]
        },
        {
            "positions": [
                -0.22065133117561309,
                -1.4600427102896893,
                2.2728992846126865,
                -0.8535376565042505,
                1.0642506266123304,
                -3.034846516684427
            ]
        },
        {
            "positions": [
                -0.16204531938754627,
                -1.5032373461317092,
                2.1980615940065293,
                -0.7658765507295173,
                0.9798646032023139,
                -3.005258754219639
            ]
        },
        {
            "positions": [
                -0.10343930759947947,
                -1.546431981973729,
                2.1232239034003726,
                -0.6782154449547841,
                0.8954785797922975,
                -2.975670991754851
            ]
        },
        {
            "positions": [
                -0.044833295811412655,
                -1.589626617815749,
                2.0483862127942154,
                -0.590554339180051,
                0.8110925563822812,
                -2.946083229290063
            ]
        },
        {
            "positions": [
                0.013772715976654193,
                -1.6328212536577689,
                1.9735485221880584,
                -0.5028932334053177,
                0.7267065329722647,
                -2.9164954668252756
            ]
        },
        {
            "positions": [
                0.07237872776472098,
                -1.6760158894997885,
                1.8987108315819015,
                -0.4152321276305845,
                0.6423205095622484,
                -2.8869077043604876
            ]
        },
        {
            "positions": [
                0.13098473955278778,
                -1.7192105253418084,
                1.8238731409757443,
                -0.3275710218558513,
                0.557934486152232,
                -2.8573199418956996
            ]
        },
        {
            "positions": [
                0.18959075134085462,
                -1.7624051611838283,
                1.7490354503695875,
                -0.2399099160811181,
                0.4735484627422156,
                -2.8277321794309116
            ]
        },
        {
            "positions": [
                0.24819676312892142,
                -1.805599797025848,
                1.6741977597634303,
                -0.15224881030638493,
                0.3891624393321993,
                -2.798144416966124
            ]
        },
        {
            "positions": [
                0.3068027749169882,
                -1.8487944328678678,
                1.5993600691572734,
                -0.06458770453165175,
                0.30477641592218285,
                -2.768556654501336
            ]
        },
        {
            "positions": [
                0.3654087867050551,
                -1.8919890687098877,
                1.5245223785511164,
                0.02307340124308155,
                0.2203903925121664,
                -2.738968892036548
            ]
        },
        {
            "positions": [
                0.4240147984931219,
                -1.9351837045519074,
                1.4496846879449592,
                0.11073450701781473,
                0.13600436910214997,
                -2.70938112957176
            ]
        },
        {
            "positions": [
                0.4826208102811887,
                -1.9783783403939275,
                1.3748469973388022,
                0.19839561279254792,
                0.05161834569213375,
                -2.6797933671069725
            ]
        },
        {
            "positions": [
                0.5412268220692554,
                -2.021572976235947,
                1.3000093067326453,
                0.2860567185672811,
                -0.03276767771788264,
                -2.6502056046421845
            ]
        },
        {
            "positions": [
                0.5304492825838065,
                -2.011137557811898,
                1.430196737643768,
                0.20418488090625003,
                0.06579190512217356,
                -2.696430446055283
            ]
        },
        {
            "positions": [
                0.5196717430983575,
                -2.0007021393878492,
                1.560384168554891,
                0.12231304324521897,
                0.16435148796222976,
                -2.742655287468381
            ]
        },
        {
            "positions": [
                0.5088942036129086,
                -1.9902667209638,
                1.690571599466014,
                0.0404412055841879,
                0.262911070802286,
                -2.7888801288814795
            ]
        },
        {
            "positions": [
                0.4981166641274597,
                -1.979831302539751,
                1.8207590303771368,
                -0.041430632076843166,
                0.36147065364234215,
                -2.835104970294578
            ]
        },
        {
            "positions": [
                0.4873391246420108,
                -1.969395884115702,
                1.9509464612882597,
                -0.12330246973787423,
                0.4600302364823983,
                -2.881329811707676
            ]
        },
        {
            "positions": [
                0.47656158515656183,
                -1.958960465691653,
                2.0811338921993827,
                -0.2051743073989053,
                0.5585898193224546,
                -2.9275546531207746
            ]
        },
        {
            "positions": [
                0.46578404567111287,
                -1.948525047267604,
                2.2113213231105053,
                -0.2870461450599364,
                0.6571494021625108,
                -2.973779494533873
            ]
        },
        {
            "positions": [
                0.45500650618566396,
                -1.938089628843555,
                2.3415087540216284,
                -0.36891798272096743,
                0.7557089850025669,
                -3.0200043359469713
            ]
        },
        {
            "positions": [
                0.5827187687392004,
                -1.9227816244403018,
                2.367679896038882,
                -0.4172717671377203,
                0.7388963384064942,
                -3.075329786673211
            ]
        },
        {
            "positions": [
                0.7104310312927368,
                -1.9074736200370483,
                2.3938510380561357,
                -0.46562555155447316,
                0.7220836918104213,
                -3.130655237399451
            ]
        }
    ]
}