{
    "goal": {
        "global_pose": {
            "orientation": {
                "w": 0.7047431468963623,
                "x": -0.7094548344612122,
                "y": 0.0024358443915843964,
                "z": -0.0022348060738295317
            },
            "position": {
                "x": 0.6094750761985779,
                "y": 0.3671506643295288,
                "z": 0.19426114857196808
            }
        },
        "name": "move_to_magneteinheit_A"
    },
    "id": "LazyPRMstar_move_to_magneteinheit_A_89",
    "joint_names": [
        "shoulder_pan_joint",
        "shoulder_lift_joint",
        "elbow_joint",
        "wrist_1_joint",
        "wrist_2_joint",
        "wrist_3_joint"
    ],
    "metrics": {
        "cart_traj_len": 2.9823159410148072,
        "distance_elbow_joint": 4.143444883713704,
        "distance_shoulder_lift_joint": 0.5329031581797226,
        "distance_shoulder_pan_joint": 2.9292222748624934,
        "distance_wrist_1_joint": 3.920208634943026,
        "distance_wrist_2_joint": 1.5358279304694276,
        "distance_wrist_3_joint": 0.8450596092931428,
        "smoothness": 0.44920422347395034,
        "time": 5.037453578,
        "traj_len": 3.729164315427991,
        "weighted_distance": 4.588335458034892
    },
    "planner": "LazyPRMstar",
    "start": {
        "state": {
            "elbow_joint": -1.9196185241190666,
            "shoulder_lift_joint": -1.2443396400964142,
            "shoulder_pan_joint": 2.6996025414629847,
            "wrist_1_joint": -1.5485510000780065,
            "wrist_2_joint": -1.5709468930060704,
            "wrist_3_joint": 0.4420197071253992
        }
    },
    "waypoints": [
        {
            "positions": [
                2.6996025414629847,
                -1.2443396400964142,
                -1.9196185241190666,
                -1.5485510000780065,
                -1.5709468930060704,
                0.4420197071253992
            ]
        },
        {
            "positions": [
                2.5719031502443457,
                -1.2301577233222059,
                -1.8243483658913824,
                -1.437711734298505,
                -1.5428291520970847,
                0.4235144642314077
            ]
        },
        {
            "positions": [
                2.444203759025707,
                -1.2159758065479978,
                -1.7290782076636984,
                -1.3268724685190034,
                -1.514711411188099,
                0.4050092213374162
            ]
        },
        {
            "positions": [
                2.316504367807068,
                -1.2017938897737894,
                -1.633808049436014,
                -1.216033202739502,
                -1.4865936702791134,
                0.3865039784434247
            ]
        },
        {
            "positions": [
                2.188804976588429,
                -1.1876119729995813,
                -1.5385378912083298,
                -1.1051939369600006,
                -1.4584759293701277,
                0.36799873554943324
            ]
        },
        {
            "positions": [
                2.06110558536979,
                -1.173430056225373,
                -1.4432677329806456,
                -0.994354671180499,
                -1.430358188461142,
                0.3494934926554417
            ]
        },
        {
            "positions": [
                1.933406194151151,
                -1.159248139451165,
                -1.3479975747529616,
                -0.8835154054009976,
                -1.4022404475521564,
                0.33098824976145025
            ]
        },
        {
            "positions": [
                1.805706802932512,
                -1.1450662226769566,
                -1.2527274165252773,
                -0.7726761396214961,
                -1.3741227066431707,
                0.3124830068674588
            ]
        },
        {
            "positions": [
                1.6780074117138732,
                -1.1308843059027482,
                -1.157457258297593,
                -0.6618368738419945,
                -1.3460049657341853,
                0.2939777639734673
            ]
        },
        {
            "positions": [
                1.5503080204952342,
                -1.1167023891285401,
                -1.062187100069909,
                -0.5509976080624931,
                -1.3178872248251996,
                0.27547252107947584
            ]
        },
        {
            "positions": [
                1.4226086292765954,
                -1.1025204723543318,
                -0.9669169418422248,
                -0.44015834228299155,
                -1.289769483916214,
                0.2569672781854843
            ]
        },
        {
            "positions": [
                1.294909238057956,
                -1.0883385555801237,
                -0.8716467836145405,
                -0.3293190765034899,
                -1.2616517430072283,
                0.23846203529149282
            ]
        },
        {
            "positions": [
                1.1672098468393173,
                -1.0741566388059154,
                -0.7763766253868563,
                -0.2184798107239887,
                -1.2335340020982426,
                0.21995679239750135
            ]
        },
        {
            "positions": [
                1.0395104556206782,
                -1.0599747220317073,
                -0.681106467159172,
                -0.10764054494448705,
                -1.205416261189257,
                0.20145154950350985
            ]
        },
        {
            "positions": [
                0.9118110644020394,
                -1.045792805257499,
                -0.585836308931488,
                0.003198720835014379,
                -1.1772985202802713,
                0.18294630660951838
            ]
        },
        {
            "positions": [
                0.7841116731834004,
                -1.0316108884832906,
                -0.4905661507038037,
                0.11403798661451603,
                -1.1491807793712856,
                0.16444106371552686
            ]
        },
        {
            "positions": [
                0.6564122819647618,
                -1.0174289717090825,
                -0.3952959924761197,
                0.22487725239401746,
                -1.1210630384623,
                0.1459358208215354
            ]
        },
        {
            "positions": [
                0.5287128907461227,
                -1.0032470549348742,
                -0.3000258342484352,
                0.3357165181735189,
                -1.0929452975533143,
                0.12743057792754392
            ]
        },
        {
            "positions": [
                0.40101349952748366,
                -0.9890651381606661,
                -0.20475567602075118,
                0.4465557839530203,
                -1.0648275566443286,
                0.10892533503355245
            ]
        },
        {
            "positions": [
                0.2733141083088445,
                -0.9748832213864578,
                -0.10948551779306681,
                0.5573950497325219,
                -1.036709815735343,
                0.09042009213956093
            ]
        },
        {
            "positions": [
                0.24998313558222354,
                -0.9774044535656362,
                0.04927810878585678,
                0.6718343554147026,
                -0.9687528401382286,
                0.1037560451265238
            ]
        },
        {
            "positions": [
                0.22665216285560258,
                -0.9799256857448148,
                0.20804173536478038,
                0.7862736610968832,
                -0.9007958645411144,
                0.11709199811348667
            ]
        },
        {
            "positions": [
                0.2033211901289816,
                -0.9824469179239932,
                0.36680536194370394,
                0.9007129667790641,
                -0.832838888944,
                0.13042795110044952
            ]
        },
        {
            "positions": [
                0.17999021740236065,
                -0.9849681501031717,
                0.5255689885226276,
                1.0151522724612447,
                -0.7648819133468858,
                0.1437639040874124
            ]
        },
        {
            "positions": [
                0.15665924467573966,
                -0.9874893822823502,
                0.6843326151015512,
                1.1295915781434256,
                -0.6969249377497715,
                0.15709985707437527
            ]
        },
        {
            "positions": [
                0.1333282719491187,
                -0.9900106144615287,
                0.8430962416804747,
                1.2440308838256062,
                -0.6289679621526572,
                0.17043581006133812
            ]
        },
        {
            "positions": [
                0.10999729922249774,
                -0.9925318466407071,
                1.0018598682593982,
                1.3584701895077869,
                -0.5610109865555428,
                0.183771763048301
            ]
        },
        {
            "positions": [
                0.08666632649587677,
                -0.9950530788198856,
                1.160623494838322,
                1.4729094951899677,
                -0.4930540109584286,
                0.19710771603526386
            ]
        },
        {
            "positions": [
                0.06333535376925578,
                -0.9975743109990641,
                1.3193871214172455,
                1.5873488008721486,
                -0.42509703536131427,
                0.21044366902222675
            ]
        },
        {
            "positions": [
                0.04000438104263482,
                -1.0000955431782426,
                1.4781507479961693,
                1.701788106554329,
                -0.35714005976419994,
                0.2237796220091896
            ]
        },
        {
            "positions": [
                0.016673408316013882,
                -1.002616775357421,
                1.6369143745750927,
                1.8162274122365099,
                -0.2891830841670857,
                0.2371155749961525
            ]
        },
        {
            "positions": [
                -0.006657564410607109,
                -1.0051380075365997,
                1.795678001154016,
                1.9306667179186907,
                -0.2212261085699715,
                0.2504515279831153
            ]
        },
        {
            "positions": [
                -0.0299885371372281,
                -1.007659239715778,
                1.95444162773294,
                2.0451060236008716,
                -0.15326913297285705,
                0.2637874809700782
            ]
        },
        {
            "positions": [
                -0.05331950986384906,
                -1.0101804718949565,
                2.1132052543118633,
                2.159545329283052,
                -0.08531215737574283,
                0.2771234339570411
            ]
        },
        {
            "positions": [
                0.005447231314703677,
                -0.9341306422412007,
                2.0763315525509385,
                2.0888412274223964,
                -0.1020432223221095,
                0.17487121646043305
            ]
        },
        {
            "positions": [
                0.06421397249325642,
                -0.858080812587445,
                2.039457850790013,
                2.018137125561741,
                -0.11877428726847616,
                0.07261899896382501
            ]
        },
        {
            "positions": [
                0.12298071367180917,
                -0.7820309829336891,
                2.0025841490290883,
                1.9474330237010855,
                -0.13550535221484283,
                -0.029633218532783074
            ]
        }
    ]
}