{
    "goal": {
        "global_pose": {
            "orientation": {
                "w": 0.7031023502349854,
                "x": -0.7110244035720825,
                "y": 0.007748599164187908,
                "z": 0.005598929710686207
            },
            "position": {
                "x": 0.11585023208521307,
                "y": 0.44412534475326537,
                "z": 0.3711530566215515
            }
        },
        "name": "move_to_auspresseinheit_A"
    },
    "id": "LazyPRMstar_move_to_auspresseinheit_A_120",
    "joint_names": [
        "shoulder_pan_joint",
        "shoulder_lift_joint",
        "elbow_joint",
        "wrist_1_joint",
        "wrist_2_joint",
        "wrist_3_joint"
    ],
    "metrics": {
        "cart_traj_len": 0.6936705101896805,
        "distance_elbow_joint": 0.15741823333940186,
        "distance_shoulder_lift_joint": 0.5342750240786855,
        "distance_shoulder_pan_joint": 1.0443857636801375,
        "distance_wrist_1_joint": 0.7072086897414939,
        "distance_wrist_2_joint": 0.5195201700627792,
        "distance_wrist_3_joint": 0.04699284309829821,
        "smoothness": 0.4929832434938439,
        "time": 5.006223095,
        "traj_len": 1.7348777259509665,
        "weighted_distance": 2.0809890124653867
    },
    "planner": "LazyPRMstar",
    "start": {
        "state": {
            "elbow_joint": 2.4225746658250005,
            "shoulder_lift_joint": -1.3736534386056498,
            "shoulder_pan_joint": -0.3378633547517467,
            "wrist_1_joint": -1.0288598680537169,
            "wrist_2_joint": 1.233022673432363,
            "wrist_3_joint": -3.0940220416140027
        }
    },
    "waypoints": [
        {
            "positions": [
                -0.3378633547517467,
                -1.3736534386056498,
                2.4225746658250005,
                -1.0288598680537169,
                1.233022673432363,
                -3.0940220416140027
            ]
        },
        {
            "positions": [
                -0.27319061365910025,
                -1.498707958094451,
                2.4545521506876056,
                -1.064142676503082,
                1.2024745332459577,
                -3.114265690431977
            ]
        },
        {
            "positions": [
                -0.2085178725664537,
                -1.6237624775832522,
                2.4865296355502107,
                -1.0994254849524472,
                1.1719263930595525,
                -3.1345093392499512
            ]
        },
        {
            "positions": [
                -0.07779783235290452,
                -1.6643576183119784,
                2.4731777407481834,
                -1.0084764745463382,
                1.1064372659609856,
                -3.1354387028874298
            ]
        },
        {
            "positions": [
                0.052922207860644666,
                -1.7049527590407045,
                2.4598258459461557,
                -0.917527464140229,
                1.0409481388624187,
                -3.1363680665249083
            ]
        },
        {
            "positions": [
                0.18364224807419388,
                -1.7455478997694307,
                2.4464739511441285,
                -0.82657845373412,
                0.9754590117638516,
                -3.137297430162387
            ]
        },
        {
            "positions": [
                0.31436228828774304,
                -1.7861430404981569,
                2.433122056342101,
                -0.7356294433280108,
                0.9099698846652847,
                -3.1382267937998654
            ]
        },
        {
            "positions": [
                0.44508232850129226,
                -1.826738181226883,
                2.419770161540074,
                -0.6446804329219018,
                0.8444807575667177,
                -3.139156157437344
            ]
        },
        {
            "positions": [
                0.5758023687148415,
                -1.8673333219556092,
                2.4064182667380463,
                -0.5537314225157928,
                0.7789916304681508,
                -3.1400855210748224
            ]
        },
        {
            "positions": [
                0.7065224089283907,
                -1.9079284626843354,
                2.393066371936019,
                -0.4627824121096836,
                0.7135025033695839,
                -3.141014884712301
            ]
        }
    ]
}