{
    "goal": {
        "global_pose": {
            "orientation": {
                "w": -0.4816463035849501,
                "x": 0.5182115481033762,
                "y": 0.4908360881923453,
                "z": -0.5084816262002911
            },
            "position": {
                "x": -0.8240239810943604,
                "y": -0.300875300988555,
                "z": 0.16403168439865112
            }
        },
        "name": "move_to_storage_C"
    },
    "id": "LazyPRM_move_to_storage_C_21",
    "joint_names": [
        "shoulder_pan_joint",
        "shoulder_lift_joint",
        "elbow_joint",
        "wrist_1_joint",
        "wrist_2_joint",
        "wrist_3_joint"
    ],
    "metrics": {
        "cart_traj_len": 0.5761268449918857,
        "distance_elbow_joint": 0.2586419356600118,
        "distance_shoulder_lift_joint": 0.1903477113824703,
        "distance_shoulder_pan_joint": 0.4926744619083223,
        "distance_wrist_1_joint": 0.07816468011127253,
        "distance_wrist_2_joint": 1.0770580585438148,
        "distance_wrist_3_joint": 0.07461051166750687,
        "smoothness": 0.0,
        "time": 0.011747299,
        "traj_len": 1.4736001354754955,
        "weighted_distance": 1.8643875995252435
    },
    "planner": "LazyPRM",
    "start": {
        "state": {
            "elbow_joint": 2.010868314990456,
            "shoulder_lift_joint": -1.1634956873337592,
            "shoulder_pan_joint": -2.4736205022346125,
            "wrist_1_joint": -0.8367026794202681,
            "wrist_2_joint": 0.6746043897044499,
            "wrist_3_joint": -3.1496632123970403
        }
    },
    "waypoints": [
        {
            "positions": [
                -2.4736205022346125,
                -1.1634956873337592,
                2.010868314990456,
                -0.8367026794202681,
                0.6746043897044499,
                -3.1496632123970403
            ]
        },
        {
            "positions": [
                -2.555732912552666,
                -1.1317710687700142,
                1.9677613257137871,
                -0.823675232735056,
                0.854114066128419,
                -3.1372281271191227
            ]
        },
        {
            "positions": [
                -2.63784532287072,
                -1.100046450206269,
                1.9246543364371185,
                -0.8106477860498439,
                1.0336237425523882,
                -3.1247930418412047
            ]
        },
        {
            "positions": [
                -2.7199577331887737,
                -1.068321831642524,
                1.88154734716045,
                -0.7976203393646318,
                1.2131334189763572,
                -3.1123579565632866
            ]
        },
        {
            "positions": [
                -2.8020701435068274,
                -1.036597213078779,
                1.8384403578837814,
                -0.7845928926794198,
                1.3926430954003264,
                -3.099922871285369
            ]
        },
        {
            "positions": [
                -2.884182553824881,
                -1.0048725945150339,
                1.7953333686071127,
                -0.7715654459942076,
                1.5721527718242956,
                -3.0874877860074514
            ]
        },
        {
            "positions": [
                -2.966294964142935,
                -0.9731479759512889,
                1.752226379330444,
                -0.7585379993089956,
                1.7516624482482648,
                -3.0750527007295334
            ]
        }
    ]
}