{
    "goal": {
        "global_pose": {
            "orientation": {
                "w": 0.5084816217422485,
                "x": -0.49083608388900757,
                "y": 0.5182115435600281,
                "z": -0.4816462993621826
            },
            "position": {
                "x": 0.5540239810943604,
                "y": 0.030875300988554955,
                "z": 0.16403168439865112
            }
        },
        "name": "move_to_storage_A"
    },
    "id": "LazyPRM_move_to_storage_A_81",
    "joint_names": [
        "shoulder_pan_joint",
        "shoulder_lift_joint",
        "elbow_joint",
        "wrist_1_joint",
        "wrist_2_joint",
        "wrist_3_joint"
    ],
    "metrics": {
        "cart_traj_len": 0.3531556260837253,
        "distance_elbow_joint": 0.45197745299445935,
        "distance_shoulder_lift_joint": 0.2352686392285246,
        "distance_shoulder_pan_joint": 0.4595771861830196,
        "distance_wrist_1_joint": 0.24917381550043805,
        "distance_wrist_2_joint": 1.1092702809923518,
        "distance_wrist_3_joint": 0.0896860634605603,
        "smoothness": 4.440892133664971e-16,
        "time": 0.021833283,
        "traj_len": 1.61088591723913,
        "weighted_distance": 2.032921459814241
    },
    "planner": "LazyPRM",
    "start": {
        "state": {
            "elbow_joint": 1.971548259319323,
            "shoulder_lift_joint": -1.1394851275133948,
            "shoulder_pan_joint": 0.1228115487234821,
            "wrist_1_joint": -0.7804723859257726,
            "wrist_2_joint": 0.12958671773740124,
            "wrist_3_joint": -3.192489227718131
        }
    },
    "waypoints": [
        {
            "positions": [
                0.1228115487234821,
                -1.1394851275133948,
                1.971548259319323,
                -0.7804723859257726,
                0.12958671773740124,
                -3.192489227718131
            ]
        },
        {
            "positions": [
                0.057157664983050735,
                -1.1730949331174698,
                2.03611646688996,
                -0.8160686452829781,
                0.28805390073630865,
                -3.179676932938051
            ]
        },
        {
            "positions": [
                -0.00849621875738063,
                -1.2067047387215446,
                2.100684674460597,
                -0.8516649046401835,
                0.44652108373521604,
                -3.1668646381579713
            ]
        },
        {
            "positions": [
                -0.07415010249781201,
                -1.2403145443256196,
                2.165252882031234,
                -0.8872611639973889,
                0.6049882667341234,
                -3.154052343377891
            ]
        },
        {
            "positions": [
                -0.13980398623824336,
                -1.2739243499296946,
                2.229821089601871,
                -0.9228574233545943,
                0.7634554497330308,
                -3.141240048597811
            ]
        },
        {
            "positions": [
                -0.20545786997867477,
                -1.3075341555337696,
                2.294389297172508,
                -0.9584536827117998,
                0.9219226327319383,
                -3.1284277538177307
            ]
        },
        {
            "positions": [
                -0.2711117537191061,
                -1.3411439611378444,
                2.3589575047431453,
                -0.9940499420690052,
                1.0803898157308456,
                -3.115615459037651
            ]
        },
        {
            "positions": [
                -0.3367656374595375,
                -1.3747537667419194,
                2.4235257123137823,
                -1.0296462014262107,
                1.238856998729753,
                -3.102803164257571
            ]
        }
    ]
}{
    "goal": {
        "global_pose": {
            "orientation": {
                "w": 0.5084816217422485,
                "x": -0.49083608388900757,
                "y": 0.5182115435600281,
                "z": -0.4816462993621826
            },
            "position": {
                "x": 0.5540239810943604,
                "y": 0.030875300988554955,
                "z": 0.16403168439865112
            }
        },
        "name": "move_to_storage_A"
    },
    "id": "LazyPRM_move_to_storage_A_81",
    "joint_names": [
        "shoulder_pan_joint",
        "shoulder_lift_joint",
        "elbow_joint",
        "wrist_1_joint",
        "wrist_2_joint",
        "wrist_3_joint"
    ],
    "metrics": {
        "cart_traj_len": 0.35345292325561384,
        "distance_elbow_joint": 0.45011331854326464,
        "distance_shoulder_lift_joint": 0.2362361310529444,
        "distance_shoulder_pan_joint": 0.4610520149794455,
        "distance_wrist_1_joint": 0.23539763491988452,
        "distance_wrist_2_joint": 1.1058720182872412,
        "distance_wrist_3_joint": 0.09141012871987275,
        "smoothness": 8.881784197001252e-16,
        "time": 0.021946525,
        "traj_len": 1.6062631311533777,
        "weighted_distance": 2.0258754051395966
    },
    "planner": "LazyPRM",
    "start": {
        "state": {
            "elbow_joint": 1.97154746011099,
            "shoulder_lift_joint": -1.13948474672311,
            "shoulder_pan_joint": 0.12281154466712228,
            "wrist_1_joint": -0.7804688027058302,
            "wrist_2_joint": 0.12958655903071145,
            "wrist_3_joint": 3.0906928834467795
        }
    },
    "waypoints": [
        {
            "positions": [
                0.12281154466712228,
                -1.13948474672311,
                1.97154746011099,
                -0.7804688027058302,
                0.12958655903071145,
                3.0906928834467795
            ]
        },
        {
            "positions": [
                0.056946971098630075,
                -1.1732327654449592,
                2.0358493627600276,
                -0.8140970362658136,
                0.2875682759288888,
                3.103751473263904
            ]
        },
        {
            "positions": [
                -0.008917602469862132,
                -1.2069807841668083,
                2.1001512654090657,
                -0.8477252698257972,
                0.4455499928270661,
                3.116810063081029
            ]
        },
        {
            "positions": [
                -0.07478217603835434,
                -1.2407288028886576,
                2.1644531680581034,
                -0.8813535033857807,
                0.6035317097252434,
                3.1298686528981534
            ]
        },
        {
            "positions": [
                -0.14064674960684653,
                -1.2744768216105067,
                2.228755070707141,
                -0.9149817369457642,
                0.7615134266234207,
                3.1429272427152783
            ]
        },
        {
            "positions": [
                -0.20651132317533877,
                -1.308224840332356,
                2.2930569733561788,
                -0.9486099705057477,
                0.9194951435215981,
                3.155985832532403
            ]
        },
        {
            "positions": [
                -0.27237589674383095,
                -1.341972859054205,
                2.357358876005217,
                -0.9822382040657311,
                1.0774768604197753,
                3.1690444223495278
            ]
        },
        {
            "positions": [
                -0.3382404703123232,
                -1.3757208777760543,
                2.4216607786542546,
                -1.0158664376257147,
                1.2354585773179527,
                3.1821030121666523
            ]
        }
    ]
}{
    "goal": {
        "global_pose": {
            "orientation": {
                "w": 0.5084816217422485,
                "x": -0.49083608388900757,
                "y": 0.5182115435600281,
                "z": -0.4816462993621826
            },
            "position": {
                "x": 0.5540239810943604,
                "y": 0.030875300988554955,
                "z": 0.16403168439865112
            }
        },
        "name": "move_to_storage_A"
    },
    "id": "LazyPRM_move_to_storage_A_81",
    "joint_names": [
        "shoulder_pan_joint",
        "shoulder_lift_joint",
        "elbow_joint",
        "wrist_1_joint",
        "wrist_2_joint",
        "wrist_3_joint"
    ],
    "metrics": {
        "cart_traj_len": 0.35278080704696135,
        "distance_elbow_joint": 0.4485729968208507,
        "distance_shoulder_lift_joint": 0.23254745659497944,
        "distance_shoulder_pan_joint": 0.4570499943770658,
        "distance_wrist_1_joint": 0.24042427358108287,
        "distance_wrist_2_joint": 1.1155280387493935,
        "distance_wrist_3_joint": 0.09443718308266069,
        "smoothness": 6.661338165333112e-16,
        "time": 0.011851706,
        "traj_len": 1.6089002278594011,
        "weighted_distance": 2.0330731963463173
    },
    "planner": "LazyPRM",
    "start": {
        "state": {
            "elbow_joint": 1.9715472970024885,
            "shoulder_lift_joint": -1.1394870060712896,
            "shoulder_pan_joint": 0.12281152778156021,
            "wrist_1_joint": -0.780463741449964,
            "wrist_2_joint": 0.12958659822042276,
            "wrist_3_joint": 3.090690232415272
        }
    },
    "waypoints": [
        {
            "positions": [
                0.12281152778156021,
                -1.1394870060712896,
                1.9715472970024885,
                -0.780463741449964,
                0.12958659822042276,
                3.090690232415272
            ]
        },
        {
            "positions": [
                0.05751867144197939,
                -1.1727080712991438,
                2.0356291536911817,
                -0.8148100662472616,
                0.2889477466131932,
                3.1041812585699375
            ]
        },
        {
            "positions": [
                -0.007774184897601427,
                -1.205929136526998,
                2.0997110103798744,
                -0.8491563910445591,
                0.4483088950059637,
                3.1176722847246037
            ]
        },
        {
            "positions": [
                -0.07306704123718225,
                -1.2391502017548521,
                2.1637928670685675,
                -0.8835027158418567,
                0.6076700433987342,
                3.1311633108792694
            ]
        },
        {
            "positions": [
                -0.13835989757676306,
                -1.2723712669827063,
                2.2278747237572603,
                -0.9178490406391542,
                0.7670311917915047,
                3.144654337033935
            ]
        },
        {
            "positions": [
                -0.20365275391634388,
                -1.3055923322105607,
                2.2919565804459534,
                -0.9521953654364518,
                0.9263923401842753,
                3.1581453631886007
            ]
        },
        {
            "positions": [
                -0.26894561025592467,
                -1.3388133974384149,
                2.356038437134646,
                -0.9865416902337493,
                1.0857534885770457,
                3.171636389343267
            ]
        },
        {
            "positions": [
                -0.33423846659550555,
                -1.372034462666269,
                2.4201202938233393,
                -1.0208880150310469,
                1.2451146369698163,
                3.1851274154979325
            ]
        }
    ]
}