{
    "goal": {
        "global_pose": {
            "orientation": {
                "w": 0.7047431468963623,
                "x": -0.7094548344612122,
                "y": 0.0024358443915843964,
                "z": -0.0022348060738295317
            },
            "position": {
                "x": 0.6094750761985779,
                "y": 0.3671506643295288,
                "z": 0.19426114857196808
            }
        },
        "name": "move_to_magneteinheit_A"
    },
    "id": "LazyPRMstar_move_to_magneteinheit_A_84",
    "joint_names": [
        "shoulder_pan_joint",
        "shoulder_lift_joint",
        "elbow_joint",
        "wrist_1_joint",
        "wrist_2_joint",
        "wrist_3_joint"
    ],
    "metrics": {
        "cart_traj_len": 3.1124318647109304,
        "distance_elbow_joint": 3.9308415844390794,
        "distance_shoulder_lift_joint": 0.46009198921094463,
        "distance_shoulder_pan_joint": 2.6521505456041883,
        "distance_wrist_1_joint": 3.5809338556113453,
        "distance_wrist_2_joint": 1.4335662325559724,
        "distance_wrist_3_joint": 1.4730203777633861,
        "smoothness": 0.1812167070392307,
        "time": 5.0493969970000006,
        "traj_len": 3.6783970129915176,
        "weighted_distance": 4.635854336460433
    },
    "planner": "LazyPRMstar",
    "start": {
        "state": {
            "elbow_joint": -1.9196185241190666,
            "shoulder_lift_joint": -1.2443396400964142,
            "shoulder_pan_joint": 2.6996025414629847,
            "wrist_1_joint": -1.5485510000780065,
            "wrist_2_joint": -1.5709468930060704,
            "wrist_3_joint": 0.4420197071253992
        }
    },
    "waypoints": [
        {
            "positions": [
                2.6996025414629847,
                -1.2443396400964142,
                -1.9196185241190666,
                -1.5485510000780065,
                -1.5709468930060704,
                0.4420197071253992
            ]
        },
        {
            "positions": [
                2.6094329867390176,
                -1.2353156887798633,
                -1.8196613498646812,
                -1.4273717644951054,
                -1.5403618880384002,
                0.4067802718032431
            ]
        },
        {
            "positions": [
                2.5192634320150504,
                -1.2262917374633124,
                -1.719704175610296,
                -1.306192528912204,
                -1.50977688307073,
                0.371540836481087
            ]
        },
        {
            "positions": [
                2.4290938772910837,
                -1.2172677861467616,
                -1.6197470013559105,
                -1.185013293329303,
                -1.47919187810306,
                0.3363014011589309
            ]
        },
        {
            "positions": [
                2.3389243225671166,
                -1.2082438348302107,
                -1.5197898271015253,
                -1.0638340577464018,
                -1.44860687313539,
                0.3010619658367748
            ]
        },
        {
            "positions": [
                2.2487547678431494,
                -1.1992198835136598,
                -1.4198326528471399,
                -0.9426548221635005,
                -1.41802186816772,
                0.26582253051461874
            ]
        },
        {
            "positions": [
                2.1585852131191823,
                -1.190195932197109,
                -1.3198754785927544,
                -0.8214755865805994,
                -1.3874368632000498,
                0.23058309519246267
            ]
        },
        {
            "positions": [
                2.0684156583952156,
                -1.181171980880558,
                -1.2199183043383692,
                -0.7002963509976982,
                -1.3568518582323796,
                0.19534365987030658
            ]
        },
        {
            "positions": [
                1.9782461036712484,
                -1.1721480295640072,
                -1.119961130083984,
                -0.579117115414797,
                -1.3262668532647095,
                0.1601042245481505
            ]
        },
        {
            "positions": [
                1.8880765489472813,
                -1.1631240782474563,
                -1.0200039558295986,
                -0.4579378798318956,
                -1.2956818482970394,
                0.12486478922599437
            ]
        },
        {
            "positions": [
                1.7979069942233141,
                -1.1541001269309055,
                -0.9200467815752131,
                -0.3367586442489945,
                -1.2650968433293692,
                0.0896253539038383
            ]
        },
        {
            "positions": [
                1.7077374394993472,
                -1.1450761756143546,
                -0.8200896073208279,
                -0.21557940866609338,
                -1.234511838361699,
                0.054385918581682235
            ]
        },
        {
            "positions": [
                1.61756788477538,
                -1.1360522242978037,
                -0.7201324330664425,
                -0.09440017308319226,
                -1.2039268333940292,
                0.01914648325952617
            ]
        },
        {
            "positions": [
                1.527398330051413,
                -1.1270282729812529,
                -0.620175258812057,
                0.026779062499709072,
                -1.173341828426359,
                -0.01609295206262995
            ]
        },
        {
            "positions": [
                1.437228775327446,
                -1.118004321664702,
                -0.5202180845576718,
                0.14795829808261018,
                -1.142756823458689,
                -0.051332387384786016
            ]
        },
        {
            "positions": [
                1.347059220603479,
                -1.1089803703481511,
                -0.4202609103032866,
                0.2691375336655113,
                -1.1121718184910188,
                -0.08657182270694208
            ]
        },
        {
            "positions": [
                1.256889665879512,
                -1.0999564190316002,
                -0.32030373604890117,
                0.3903167692484124,
                -1.0815868135233488,
                -0.1218112580290982
            ]
        },
        {
            "positions": [
                1.166720111155545,
                -1.0909324677150494,
                -0.22034656179451595,
                0.5114960048313135,
                -1.0510018085556787,
                -0.1570506933512542
            ]
        },
        {
            "positions": [
                1.0765505564315776,
                -1.0819085163984985,
                -0.12038938754013029,
                0.6326752404142153,
                -1.0204168035880086,
                -0.19229012867341044
            ]
        },
        {
            "positions": [
                0.9863810017076107,
                -1.0728845650819476,
                -0.02043221328574507,
                0.7538544759971162,
                -0.9898317986203383,
                -0.22752956399556645
            ]
        },
        {
            "positions": [
                0.8962114469836435,
                -1.0638606137653968,
                0.07952496096864037,
                0.8750337115800175,
                -0.9592467936526683,
                -0.2627689993177226
            ]
        },
        {
            "positions": [
                0.8060418922596766,
                -1.0548366624488459,
                0.17948213522302536,
                0.9962129471629184,
                -0.9286617886849982,
                -0.2980084346398786
            ]
        },
        {
            "positions": [
                0.7158723375357097,
                -1.045812711132295,
                0.2794393094774108,
                1.1173921827458198,
                -0.898076783717328,
                -0.3332478699620347
            ]
        },
        {
            "positions": [
                0.6257027828117425,
                -1.0367887598157441,
                0.37939648373179624,
                1.2385714183287206,
                -0.867491778749658,
                -0.3684873052841907
            ]
        },
        {
            "positions": [
                0.5355332280877754,
                -1.0277648084991933,
                0.4793536579861817,
                1.359750653911622,
                -0.8369067737819879,
                -0.40372674060634683
            ]
        },
        {
            "positions": [
                0.4453636733638082,
                -1.0187408571826424,
                0.5793108322405671,
                1.4809298894945233,
                -0.8063217688143177,
                -0.43896617592850296
            ]
        },
        {
            "positions": [
                0.35519411863984107,
                -1.0097169058660915,
                0.6792680064949526,
                1.6021091250774246,
                -0.7757367638466476,
                -0.4742056112506591
            ]
        },
        {
            "positions": [
                0.26502456391587437,
                -1.0006929545495407,
                0.7792251807493376,
                1.7232883606603255,
                -0.7451517588789776,
                -0.5094450465728151
            ]
        },
        {
            "positions": [
                0.17485500919190705,
                -0.9916690032329897,
                0.8791823550037228,
                1.8444675962432269,
                -0.7145667539113074,
                -0.5446844818949712
            ]
        },
        {
            "positions": [
                0.1598363536527446,
                -0.9609020350357049,
                1.0438521865109291,
                1.8712414911993664,
                -0.6305214828876616,
                -0.474765603224394
            ]
        },
        {
            "positions": [
                0.1448176981135821,
                -0.9301350668384202,
                1.2085220180181357,
                1.8980153861555062,
                -0.5464762118640158,
                -0.4048467245538167
            ]
        },
        {
            "positions": [
                0.12979904257441965,
                -0.8993680986411354,
                1.3731918495253421,
                1.924789281111646,
                -0.46243094084037006,
                -0.33492784588323943
            ]
        },
        {
            "positions": [
                0.1147803870352572,
                -0.8686011304438508,
                1.5378616810325485,
                1.9515631760677856,
                -0.3783856698167243,
                -0.2650089672126622
            ]
        },
        {
            "positions": [
                0.09976173149609471,
                -0.837834162246566,
                1.702531512539755,
                1.9783370710239252,
                -0.2943403987930785,
                -0.19509008854208487
            ]
        },
        {
            "positions": [
                0.08474307595693226,
                -0.8070671940492813,
                1.8672013440469615,
                2.005110965980065,
                -0.21029512776943265,
                -0.12517120987150765
            ]
        },
        {
            "positions": [
                0.1220341560550682,
                -0.7842476508854695,
                2.0112230603200123,
                1.9778390764267915,
                -0.13738066045009817,
                -0.05836829315195566
            ]
        }
    ]
}