{
    "goal": {
        "global_pose": {
            "orientation": {
                "w": 0.7031023480610252,
                "x": -0.7110244013736278,
                "y": 0.0077485991402295624,
                "z": 0.005598929693374583
            },
            "position": {
                "x": -0.8841497679147869,
                "y": 0.44412534475326537,
                "z": 0.3711530566215515
            }
        },
        "name": "move_to_auspresseinheit_D"
    },
    "id": "LazyPRM_move_to_auspresseinheit_D_66",
    "joint_names": [
        "shoulder_pan_joint",
        "shoulder_lift_joint",
        "elbow_joint",
        "wrist_1_joint",
        "wrist_2_joint",
        "wrist_3_joint"
    ],
    "metrics": {
        "cart_traj_len": 0.34265053013581037,
        "distance_elbow_joint": 0.6363309569963755,
        "distance_shoulder_lift_joint": 0.12028250889966952,
        "distance_shoulder_pan_joint": 0.13334952743677414,
        "distance_wrist_1_joint": 0.525085339921139,
        "distance_wrist_2_joint": 1.4423257388530981,
        "distance_wrist_3_joint": 0.012176976486913738,
        "smoothness": 1.9737298371844314e-16,
        "time": 0.012396398000000001,
        "traj_len": 1.6939749256095764,
        "weighted_distance": 2.2048392413829254
    },
    "planner": "LazyPRM",
    "start": {
        "state": {
            "elbow_joint": -1.8275523626775212,
            "shoulder_lift_joint": -2.126789852344167,
            "shoulder_pan_joint": -0.03513704404078235,
            "wrist_1_joint": -2.347782403156801,
            "wrist_2_joint": -1.6058999987535132,
            "wrist_3_joint": -3.0880379163319196
        }
    },
    "waypoints": [
        {
            "positions": [
                -0.03513704404078235,
                -2.126789852344167,
                -1.8275523626775212,
                -2.347782403156801,
                -1.6058999987535132,
                -3.0880379163319196
            ]
        },
        {
            "positions": [
                -0.051805734970379116,
                -2.1418251659566256,
                -1.7480109930529744,
                -2.4134180706469435,
                -1.425609281396876,
                -3.0895600383927837
            ]
        },
        {
            "positions": [
                -0.06847442589997588,
                -2.156860479569084,
                -1.6684696234284273,
                -2.4790537381370856,
                -1.2453185640402387,
                -3.091082160453648
            ]
        },
        {
            "positions": [
                -0.08514311682957265,
                -2.171895793181543,
                -1.5889282538038803,
                -2.544689405627228,
                -1.0650278466836014,
                -3.0926042825145124
            ]
        },
        {
            "positions": [
                -0.10181180775916943,
                -2.1869311067940016,
                -1.5093868841793334,
                -2.6103250731173704,
                -0.8847371293269641,
                -3.0941264045753765
            ]
        },
        {
            "positions": [
                -0.1184804986887662,
                -2.2019664204064604,
                -1.4298455145547866,
                -2.675960740607513,
                -0.7044464119703269,
                -3.0956485266362406
            ]
        },
        {
            "positions": [
                -0.13514918961836295,
                -2.217001734018919,
                -1.3503041449302395,
                -2.741596408097655,
                -0.5241556946136896,
                -3.097170648697105
            ]
        },
        {
            "positions": [
                -0.15181788054795972,
                -2.2320370476313776,
                -1.2707627753056925,
                -2.8072320755877973,
                -0.34386497725705234,
                -3.0986927707579692
            ]
        },
        {
            "positions": [
                -0.1684865714775565,
                -2.2470723612438364,
                -1.1912214056811457,
                -2.87286774307794,
                -0.16357425990041496,
                -3.1002148928188333
            ]
        }
    ]
}