{
    "goal": {
        "global_pose": {
            "orientation": {
                "w": 0.7031023502349854,
                "x": -0.7110244035720825,
                "y": 0.007748599164187908,
                "z": 0.005598929710686207
            },
            "position": {
                "x": 0.11585023208521307,
                "y": 0.44412534475326537,
                "z": 0.3711530566215515
            }
        },
        "name": "move_to_auspresseinheit_A"
    },
    "id": "LazyPRM_move_to_auspresseinheit_A_72",
    "joint_names": [
        "shoulder_pan_joint",
        "shoulder_lift_joint",
        "elbow_joint",
        "wrist_1_joint",
        "wrist_2_joint",
        "wrist_3_joint"
    ],
    "metrics": {
        "cart_traj_len": 4.800496286885905,
        "distance_elbow_joint": 5.465078323350738,
        "distance_shoulder_lift_joint": 2.411923446248824,
        "distance_shoulder_pan_joint": 4.8155430274649005,
        "distance_wrist_1_joint": 7.079599559130273,
        "distance_wrist_2_joint": 5.250741937208147,
        "distance_wrist_3_joint": 3.837491798692255,
        "smoothness": 0.6648842317408311,
        "time": 0.37158103,
        "traj_len": 5.372185597323973,
        "weighted_distance": 6.990400788639954
    },
    "planner": "LazyPRM",
    "start": {
        "state": {
            "elbow_joint": 2.4225746658250005,
            "shoulder_lift_joint": -1.3736534386056498,
            "shoulder_pan_joint": -0.3378633547517467,
            "wrist_1_joint": -1.0288598680537169,
            "wrist_2_joint": 1.233022673432363,
            "wrist_3_joint": -3.0940220416140027
        }
    },
    "waypoints": [
        {
            "positions": [
                -0.3378633547517467,
                -1.3736534386056498,
                2.4225746658250005,
                -1.0288598680537169,
                1.233022673432363,
                -3.0940220416140027
            ]
        },
        {
            "positions": [
                -0.38167591390861877,
                -1.4014941932920508,
                2.3441195149106067,
                -1.0496641875569632,
                1.2513151204320403,
                -3.08051112351474
            ]
        },
        {
            "positions": [
                -0.42548847306549087,
                -1.4293349479784516,
                2.2656643639962124,
                -1.0704685070602094,
                1.2696075674317173,
                -3.0670002054154777
            ]
        },
        {
            "positions": [
                -0.31651089093316603,
                -1.424897314923321,
                2.162047812461388,
                -1.137830888729143,
                1.2004889893445911,
                -3.0396673255725397
            ]
        },
        {
            "positions": [
                -0.2075333088008412,
                -1.4204596818681905,
                2.0584312609265645,
                -1.2051932703980766,
                1.131370411257465,
                -3.012334445729602
            ]
        },
        {
            "positions": [
                -0.09855572666851636,
                -1.41602204881306,
                1.9548147093917403,
                -1.2725556520670103,
                1.0622518331703388,
                -2.985001565886664
            ]
        },
        {
            "positions": [
                0.010421855463808471,
                -1.4115844157579294,
                1.851198157856916,
                -1.3399180337359438,
                0.9931332550832124,
                -2.9576686860437267
            ]
        },
        {
            "positions": [
                0.11939943759613336,
                -1.407146782702799,
                1.747581606322092,
                -1.4072804154048775,
                0.9240146769960862,
                -2.9303358062007887
            ]
        },
        {
            "positions": [
                0.22837701972845814,
                -1.4027091496476685,
                1.643965054787268,
                -1.4746427970738112,
                0.85489609890896,
                -2.903002926357851
            ]
        },
        {
            "positions": [
                0.33735460186078303,
                -1.398271516592538,
                1.5403485032524438,
                -1.542005178742745,
                0.7857775208218338,
                -2.875670046514913
            ]
        },
        {
            "positions": [
                0.4463321839931078,
                -1.3938338835374073,
                1.4367319517176198,
                -1.6093675604116784,
                0.7166589427347075,
                -2.8483371666719757
            ]
        },
        {
            "positions": [
                0.5553097661254326,
                -1.3893962504822768,
                1.3331154001827956,
                -1.676729942080612,
                0.6475403646475814,
                -2.8210042868290377
            ]
        },
        {
            "positions": [
                0.6642873482577576,
                -1.3849586174271462,
                1.2294988486479717,
                -1.7440923237495456,
                0.5784217865604551,
                -2.7936714069860997
            ]
        },
        {
            "positions": [
                0.7732649303900823,
                -1.3805209843720156,
                1.1258822971131475,
                -1.8114547054184793,
                0.5093032084733289,
                -2.766338527143162
            ]
        },
        {
            "positions": [
                0.8822425125224072,
                -1.376083351316885,
                1.0222657455783235,
                -1.878817087087413,
                0.4401846303862027,
                -2.7390056473002242
            ]
        },
        {
            "positions": [
                0.991220094654732,
                -1.3716457182617547,
                0.9186491940434993,
                -1.9461794687563465,
                0.3710660522990765,
                -2.7116727674572867
            ]
        },
        {
            "positions": [
                1.100197676787057,
                -1.3672080852066242,
                0.8150326425086751,
                -2.0135418504252804,
                0.30194747421195023,
                -2.6843398876143487
            ]
        },
        {
            "positions": [
                1.2091752589193816,
                -1.3627704521514936,
                0.7114160909738512,
                -2.0809042320942135,
                0.23282889612482416,
                -2.657007007771411
            ]
        },
        {
            "positions": [
                1.3181528410517065,
                -1.358332819096363,
                0.6077995394390272,
                -2.1482666137631474,
                0.16371031803769776,
                -2.629674127928473
            ]
        },
        {
            "positions": [
                1.4271304231840316,
                -1.3538951860412325,
                0.504182987904203,
                -2.2156289954320814,
                0.09459173995057157,
                -2.6023412480855352
            ]
        },
        {
            "positions": [
                1.536108005316356,
                -1.349457552986102,
                0.40056643636937905,
                -2.2829913771010144,
                0.025473161863445393,
                -2.5750083682425977
            ]
        },
        {
            "positions": [
                1.6450855874486812,
                -1.3450199199309714,
                0.29694988483455487,
                -2.3503537587699483,
                -0.04364541622368079,
                -2.5476754883996597
            ]
        },
        {
            "positions": [
                1.754063169581006,
                -1.3405822868758408,
                0.1933333332997309,
                -2.4177161404388823,
                -0.11276399431080719,
                -2.520342608556722
            ]
        },
        {
            "positions": [
                1.8630407517133305,
                -1.3361446538207105,
                0.08971678176490672,
                -2.4850785221078153,
                -0.18188257239793315,
                -2.4930097287137842
            ]
        },
        {
            "positions": [
                1.9720183338456554,
                -1.33170702076558,
                -0.01389976976991747,
                -2.5524409037767493,
                -0.25100115048505955,
                -2.4656768488708467
            ]
        },
        {
            "positions": [
                2.0809959159779803,
                -1.3272693877104493,
                -0.11751632130474166,
                -2.619803285445683,
                -0.32011972857218574,
                -2.4383439690279087
            ]
        },
        {
            "positions": [
                2.189973498110305,
                -1.3228317546553188,
                -0.2211328728395654,
                -2.6871656671146162,
                -0.3892383066593119,
                -2.4110110891849708
            ]
        },
        {
            "positions": [
                2.29895108024263,
                -1.3183941216001882,
                -0.3247494243743896,
                -2.75452804878355,
                -0.4583568847464381,
                -2.3836782093420332
            ]
        },
        {
            "positions": [
                2.3060686214755757,
                -1.3672956329537678,
                -0.23951400473379514,
                -2.6227254556763637,
                -0.3779617482583301,
                -2.3426040819344314
            ]
        },
        {
            "positions": [
                2.3131861627085213,
                -1.4161971443073476,
                -0.15427858509320072,
                -2.490922862569177,
                -0.29756661177022214,
                -2.3015299545268295
            ]
        },
        {
            "positions": [
                2.320303703941467,
                -1.4650986556609271,
                -0.06904316545260625,
                -2.3591202694619904,
                -0.21717147528211417,
                -2.260455827119228
            ]
        },
        {
            "positions": [
                2.3274212451744125,
                -1.5140001670145067,
                0.016192254187988142,
                -2.2273176763548035,
                -0.1367763387940062,
                -2.2193816997116262
            ]
        },
        {
            "positions": [
                2.334538786407358,
                -1.5629016783680865,
                0.10142767382858264,
                -2.095515083247617,
                -0.056381202305898215,
                -2.1783075723040244
            ]
        },
        {
            "positions": [
                2.3416563276403037,
                -1.611803189721666,
                0.1866630934691771,
                -1.9637124901404304,
                0.024013934182209762,
                -2.1372334448964225
            ]
        },
        {
            "positions": [
                2.3487738688732493,
                -1.6607047010752456,
                0.27189851310977153,
                -1.8319098970332437,
                0.1044090706703178,
                -2.0961593174888207
            ]
        },
        {
            "positions": [
                2.355891410106195,
                -1.7096062124288252,
                0.35713393275036587,
                -1.700107303926057,
                0.18480420715842572,
                -2.055085190081219
            ]
        },
        {
            "positions": [
                2.3630089513391406,
                -1.758507723782405,
                0.4423693523909604,
                -1.5683047108188704,
                0.26519934364653375,
                -2.0140110626736174
            ]
        },
        {
            "positions": [
                2.370126492572086,
                -1.8074092351359845,
                0.5276047720315549,
                -1.4365021177116837,
                0.34559448013464167,
                -1.9729369352660153
            ]
        },
        {
            "positions": [
                2.377244033805032,
                -1.856310746489564,
                0.6128401916721492,
                -1.3046995246044972,
                0.4259896166227496,
                -1.9318628078584137
            ]
        },
        {
            "positions": [
                2.3843615750379774,
                -1.9052122578431439,
                0.6980756113127438,
                -1.1728969314973106,
                0.5063847531108576,
                -1.8907886804508118
            ]
        },
        {
            "positions": [
                2.391479116270923,
                -1.9541137691967234,
                0.7833110309533382,
                -1.0410943383901239,
                0.5867798895989655,
                -1.84971455304321
            ]
        },
        {
            "positions": [
                2.3985966575038686,
                -2.003015280550303,
                0.8685464505939327,
                -0.9092917452829372,
                0.6671750260870737,
                -1.8086404256356081
            ]
        },
        {
            "positions": [
                2.4057141987368142,
                -2.0519167919038828,
                0.9537818702345271,
                -0.7774891521757505,
                0.7475701625751816,
                -1.7675662982280065
            ]
        },
        {
            "positions": [
                2.41283173996976,
                -2.100818303257462,
                1.0390172898751213,
                -0.6456865590685639,
                0.8279652990632895,
                -1.7264921708204048
            ]
        },
        {
            "positions": [
                2.4199492812027055,
                -2.149719814611042,
                1.1242527095157158,
                -0.5138839659613774,
                0.9083604355513974,
                -1.685418043412803
            ]
        },
        {
            "positions": [
                2.427066822435651,
                -2.1986213259646217,
                1.2094881291563104,
                -0.3820813728541905,
                0.9887555720395056,
                -1.6443439160052011
            ]
        },
        {
            "positions": [
                2.4341843636685967,
                -2.247522837318201,
                1.2947235487969047,
                -0.2502787797470041,
                1.0691507085276133,
                -1.6032697885975993
            ]
        },
        {
            "positions": [
                2.4413019049015423,
                -2.296424348671781,
                1.3799589684374993,
                -0.11847618663981718,
                1.1495458450157214,
                -1.5621956611899974
            ]
        },
        {
            "positions": [
                2.448419446134488,
                -2.3453258600253606,
                1.4651943880780935,
                0.013326406467369267,
                1.2299409815038294,
                -1.5211215337823958
            ]
        },
        {
            "positions": [
                2.4555369873674335,
                -2.39422737137894,
                1.550429807718688,
                0.14512899957455572,
                1.3103361179919373,
                -1.4800474063747941
            ]
        },
        {
            "positions": [
                2.462654528600379,
                -2.4431288827325197,
                1.6356652273592827,
                0.2769315926817426,
                1.3907312544800454,
                -1.4389732789671923
            ]
        },
        {
            "positions": [
                2.4697720698333248,
                -2.4920303940860995,
                1.720900646999877,
                0.40873418578892906,
                1.4711263909681533,
                -1.3978991515595904
            ]
        },
        {
            "positions": [
                2.4768896110662704,
                -2.540931905439679,
                1.8061360666404713,
                0.5405367788961155,
                1.551521527456261,
                -1.3568250241519888
            ]
        },
        {
            "positions": [
                2.484007152299216,
                -2.5898334167932586,
                1.891371486281066,
                0.6723393720033024,
                1.6319166639443692,
                -1.315750896744387
            ]
        },
        {
            "positions": [
                2.4911246935321616,
                -2.638734928146838,
                1.9766069059216602,
                0.8041419651104889,
                1.7123118004324773,
                -1.274676769336785
            ]
        },
        {
            "positions": [
                2.498242234765107,
                -2.6876364395004178,
                2.061842325562255,
                0.9359445582176757,
                1.7927069369205855,
                -1.2336026419291832
            ]
        },
        {
            "positions": [
                2.505359775998053,
                -2.7365379508539975,
                2.147077745202849,
                1.0677471513248622,
                1.8731020734086932,
                -1.1925285145215816
            ]
        },
        {
            "positions": [
                2.410777162309231,
                -2.693003357104316,
                2.1600212748646443,
                0.987133668256861,
                1.8123266190468246,
                -1.2944231603952572
            ]
        },
        {
            "positions": [
                2.316194548620409,
                -2.6494687633546343,
                2.17296480452644,
                0.9065201851888598,
                1.751551164684956,
                -1.3963178062689325
            ]
        },
        {
            "positions": [
                2.2216119349315875,
                -2.6059341696049527,
                2.1859083341882353,
                0.8259067021208585,
                1.6907757103230876,
                -1.4982124521426081
            ]
        },
        {
            "positions": [
                2.1270293212427656,
                -2.562399575855271,
                2.1988518638500305,
                0.7452932190528573,
                1.630000255961219,
                -1.6001070980162835
            ]
        },
        {
            "positions": [
                2.0324467075539436,
                -2.51886498210559,
                2.2117953935118257,
                0.664679735984856,
                1.5692248015993504,
                -1.702001743889959
            ]
        },
        {
            "positions": [
                1.9378640938651217,
                -2.4753303883559084,
                2.2247389231736214,
                0.5840662529168548,
                1.5084493472374818,
                -1.8038963897636346
            ]
        },
        {
            "positions": [
                1.8432814801762998,
                -2.4317957946062267,
                2.2376824528354167,
                0.5034527698488536,
                1.4476738928756134,
                -1.90579103563731
            ]
        },
        {
            "positions": [
                1.7486988664874779,
                -2.388261200856545,
                2.250625982497212,
                0.42283928678085236,
                1.3868984385137448,
                -2.0076856815109854
            ]
        },
        {
            "positions": [
                1.6541162527986562,
                -2.3447266071068635,
                2.263569512159007,
                0.34222580371285116,
                1.3261229841518762,
                -2.109580327384661
            ]
        },
        {
            "positions": [
                1.5595336391098344,
                -2.301192013357182,
                2.276513041820803,
                0.26161232064484985,
                1.2653475297900076,
                -2.2114749732583365
            ]
        },
        {
            "positions": [
                1.4649510254210123,
                -2.2576574196075003,
                2.289456571482598,
                0.18099883757684854,
                1.204572075428139,
                -2.313369619132012
            ]
        },
        {
            "positions": [
                1.3703684117321906,
                -2.2141228258578187,
                2.3024001011443933,
                0.10038535450884745,
                1.1437966210662704,
                -2.4152642650056872
            ]
        },
        {
            "positions": [
                1.2757857980433687,
                -2.170588232108137,
                2.3153436308061885,
                0.019771871440846134,
                1.0830211667044018,
                -2.5171589108793633
            ]
        },
        {
            "positions": [
                1.181203184354547,
                -2.127053638358456,
                2.3282871604679842,
                -0.06084161162715507,
                1.0222457123425335,
                -2.6190535567530384
            ]
        },
        {
            "positions": [
                1.086620570665725,
                -2.0835190446087744,
                2.3412306901297795,
                -0.14145509469515627,
                0.9614702579806649,
                -2.720948202626714
            ]
        },
        {
            "positions": [
                0.9920379569769031,
                -2.0399844508590927,
                2.3541742197915747,
                -0.22206857776315747,
                0.9006948036187964,
                -2.8228428485003896
            ]
        },
        {
            "positions": [
                0.8974553432880812,
                -1.9964498571094111,
                2.36711774945337,
                -0.3026820608311589,
                0.8399193492569279,
                -2.9247374943740647
            ]
        },
        {
            "positions": [
                0.8028727295992595,
                -1.9529152633597295,
                2.3800612791151656,
                -0.3832955438991599,
                0.7791438948950593,
                -3.0266321402477403
            ]
        },
        {
            "positions": [
                0.7082901159104374,
                -1.909380669610048,
                2.393004808776961,
                -0.46390902696716124,
                0.7183684405331907,
                -3.128526786121416
            ]
        }
    ]
}