{
    "goal": {
        "global_pose": {
            "orientation": {
                "w": 0.005598929693374612,
                "x": 0.007748599140229565,
                "y": 0.7110244013736278,
                "z": -0.7031023480610252
            },
            "position": {
                "x": 0.1141497679147869,
                "y": -0.7141253447532654,
                "z": 0.3711530566215515
            }
        },
        "name": "move_to_auspresseinheit_B"
    },
    "id": "LazyPRM_move_to_auspresseinheit_B_101",
    "joint_names": [
        "shoulder_pan_joint",
        "shoulder_lift_joint",
        "elbow_joint",
        "wrist_1_joint",
        "wrist_2_joint",
        "wrist_3_joint"
    ],
    "metrics": {
        "cart_traj_len": 0.5644677407213674,
        "distance_elbow_joint": 0.06243330577954298,
        "distance_shoulder_lift_joint": 0.29398620557070343,
        "distance_shoulder_pan_joint": 0.5778915255197277,
        "distance_wrist_1_joint": 0.3292142982836309,
        "distance_wrist_2_joint": 0.9910714499607223,
        "distance_wrist_3_joint": 0.003086280961257515,
        "smoothness": 5.075305255429287e-16,
        "time": 0.011664516,
        "traj_len": 1.502558839472047,
        "weighted_distance": 1.8931828692026698
    },
    "planner": "LazyPRM",
    "start": {
        "state": {
            "elbow_joint": 2.0193083361928714,
            "shoulder_lift_joint": -1.1220246554650708,
            "shoulder_pan_joint": -1.0952077554168747,
            "wrist_1_joint": -0.8559753972642168,
            "wrist_2_joint": 0.4759566250798843,
            "wrist_3_joint": -3.1240929996934557
        }
    },
    "waypoints": [
        {
            "positions": [
                -1.0952077554168747,
                -1.1220246554650708,
                2.0193083361928714,
                -0.8559753972642168,
                0.4759566250798843,
                -3.1240929996934557
            ]
        },
        {
            "positions": [
                -1.1915230096701626,
                -1.1710223563935214,
                2.008902785229614,
                -0.8011063475502783,
                0.641135200073338,
                -3.1235786195332462
            ]
        },
        {
            "positions": [
                -1.2878382639234505,
                -1.220020057321972,
                1.9984972342663572,
                -0.7462372978363399,
                0.8063137750667917,
                -3.1230642393730363
            ]
        },
        {
            "positions": [
                -1.3841535181767384,
                -1.2690177582504225,
                1.9880916833031,
                -0.6913682481224013,
                0.9714923500602455,
                -3.122549859212827
            ]
        },
        {
            "positions": [
                -1.4804687724300263,
                -1.318015459178873,
                1.9776861323398427,
                -0.6364991984084629,
                1.136670925053699,
                -3.1220354790526175
            ]
        },
        {
            "positions": [
                -1.5767840266833144,
                -1.3670131601073237,
                1.9672805813765857,
                -0.5816301486945243,
                1.3018495000471528,
                -3.1215210988924076
            ]
        },
        {
            "positions": [
                -1.6730992809366023,
                -1.4160108610357742,
                1.9568750304133284,
                -0.5267610989805859,
                1.4670280750406066,
                -3.121006718732198
            ]
        }
    ]
}