{
    "goal": {
        "global_pose": {
            "orientation": {
                "w": 0.005598929693374612,
                "x": 0.007748599140229565,
                "y": 0.7110244013736278,
                "z": -0.7031023480610252
            },
            "position": {
                "x": 0.1141497679147869,
                "y": -0.7141253447532654,
                "z": 0.3711530566215515
            }
        },
        "name": "move_to_auspresseinheit_B"
    },
    "id": "LazyPRMstar_move_to_auspresseinheit_B_41",
    "joint_names": [
        "shoulder_pan_joint",
        "shoulder_lift_joint",
        "elbow_joint",
        "wrist_1_joint",
        "wrist_2_joint",
        "wrist_3_joint"
    ],
    "metrics": {
        "cart_traj_len": 0.564282530344316,
        "distance_elbow_joint": 0.06354883684476476,
        "distance_shoulder_lift_joint": 0.29405622885702254,
        "distance_shoulder_pan_joint": 0.5730157640774207,
        "distance_wrist_1_joint": 0.32583464445543653,
        "distance_wrist_2_joint": 1.0100641967011605,
        "distance_wrist_3_joint": 0.0008346203250506612,
        "smoothness": 5.075305255429287e-16,
        "time": 5.000127227,
        "traj_len": 1.5057736520675529,
        "weighted_distance": 1.8986633121929632
    },
    "planner": "LazyPRMstar",
    "start": {
        "state": {
            "elbow_joint": 2.0193083361928714,
            "shoulder_lift_joint": -1.1220246554650708,
            "shoulder_pan_joint": -1.0952077554168747,
            "wrist_1_joint": -0.8559753972642168,
            "wrist_2_joint": 0.4759566250798843,
            "wrist_3_joint": -3.1240929996934557
        }
    },
    "waypoints": [
        {
            "positions": [
                -1.0952077554168747,
                -1.1220246554650708,
                2.0193083361928714,
                -0.8559753972642168,
                0.4759566250798843,
                -3.1240929996934557
            ]
        },
        {
            "positions": [
                -1.1907103827631114,
                -1.1710340269412411,
                2.0087168633854104,
                -0.8016696231883107,
                0.6443006578634111,
                -3.1242321030809643
            ]
        },
        {
            "positions": [
                -1.2862130101093483,
                -1.2200433984174117,
                1.99812539057795,
                -0.7473638491124046,
                0.8126446906469378,
                -3.1243712064684726
            ]
        },
        {
            "positions": [
                -1.381715637455585,
                -1.269052769893582,
                1.987533917770489,
                -0.6930580750364985,
                0.9809887234304646,
                -3.1245103098559808
            ]
        },
        {
            "positions": [
                -1.4772182648018217,
                -1.3180621413697524,
                1.9769424449630282,
                -0.6387523009605924,
                1.1493327562139912,
                -3.1246494132434894
            ]
        },
        {
            "positions": [
                -1.5727208921480587,
                -1.367071512845923,
                1.9663509721555674,
                -0.5844465268846863,
                1.317676788997518,
                -3.124788516630998
            ]
        },
        {
            "positions": [
                -1.6682235194942954,
                -1.4160808843220933,
                1.9557594993481067,
                -0.5301407528087803,
                1.4860208217810449,
                -3.1249276200185063
            ]
        }
    ]
}