{
    "goal": {
        "global_pose": {
            "orientation": {
                "w": 0.5084816217422485,
                "x": -0.49083608388900757,
                "y": 0.5182115435600281,
                "z": -0.4816462993621826
            },
            "position": {
                "x": 0.5540239810943604,
                "y": 0.030875300988554955,
                "z": 0.16403168439865112
            }
        },
        "name": "move_to_storage_A"
    },
    "id": "LazyPRMstar_move_to_storage_A_11",
    "joint_names": [
        "shoulder_pan_joint",
        "shoulder_lift_joint",
        "elbow_joint",
        "wrist_1_joint",
        "wrist_2_joint",
        "wrist_3_joint"
    ],
    "metrics": {
        "cart_traj_len": 0.3537474377475634,
        "distance_elbow_joint": 0.4499139204299103,
        "distance_shoulder_lift_joint": 0.23608055517788817,
        "distance_shoulder_pan_joint": 0.4606204501884251,
        "distance_wrist_1_joint": 0.2376424260308284,
        "distance_wrist_2_joint": 1.1095675473736557,
        "distance_wrist_3_joint": 0.09410913292393319,
        "smoothness": 8.881784197001252e-16,
        "time": 5.0003284,
        "traj_len": 1.6087057009051224,
        "weighted_distance": 2.030606380216755
    },
    "planner": "LazyPRMstar",
    "start": {
        "state": {
            "elbow_joint": 1.971548259319323,
            "shoulder_lift_joint": -1.1394851275133948,
            "shoulder_pan_joint": 0.1228115487234821,
            "wrist_1_joint": -0.7804723859257726,
            "wrist_2_joint": 0.12958671773740124,
            "wrist_3_joint": -3.192489227718131
        }
    },
    "waypoints": [
        {
            "positions": [
                0.1228115487234821,
                -1.1394851275133948,
                1.971548259319323,
                -0.7804723859257726,
                0.12958671773740124,
                -3.192489227718131
            ]
        },
        {
            "positions": [
                0.0570086272679928,
                -1.173210921110236,
                2.0358216765235957,
                -0.8144213039301766,
                0.2880963673622092,
                -3.179045065871855
            ]
        },
        {
            "positions": [
                -0.008794294187496499,
                -1.206936714707077,
                2.1000950937278686,
                -0.8483702219345808,
                0.4466060169870172,
                -3.165600904025579
            ]
        },
        {
            "positions": [
                -0.0745972156429858,
                -1.2406625083039182,
                2.1643685109321416,
                -0.8823191399389848,
                0.6051156666118251,
                -3.1521567421793026
            ]
        },
        {
            "positions": [
                -0.1404001370984751,
                -1.2743883019007596,
                2.2286419281364145,
                -0.9162680579433888,
                0.7636253162366331,
                -3.1387125803330265
            ]
        },
        {
            "positions": [
                -0.20620305855396442,
                -1.3081140954976007,
                2.2929153453406874,
                -0.950216975947793,
                0.9221349658614411,
                -3.1252684184867503
            ]
        },
        {
            "positions": [
                -0.2720059800094537,
                -1.3418398890944419,
                2.3571887625449603,
                -0.9841658939521969,
                1.080644615486249,
                -3.111824256640474
            ]
        },
        {
            "positions": [
                -0.337808901464943,
                -1.375565682691283,
                2.4214621797492333,
                -1.018114811956601,
                1.239154265111057,
                -3.098380094794198
            ]
        }
    ]
}{
    "goal": {
        "global_pose": {
            "orientation": {
                "w": 0.5084816217422485,
                "x": -0.49083608388900757,
                "y": 0.5182115435600281,
                "z": -0.4816462993621826
            },
            "position": {
                "x": 0.5540239810943604,
                "y": 0.030875300988554955,
                "z": 0.16403168439865112
            }
        },
        "name": "move_to_storage_A"
    },
    "id": "LazyPRMstar_move_to_storage_A_11",
    "joint_names": [
        "shoulder_pan_joint",
        "shoulder_lift_joint",
        "elbow_joint",
        "wrist_1_joint",
        "wrist_2_joint",
        "wrist_3_joint"
    ],
    "metrics": {
        "cart_traj_len": 0.3530212502437246,
        "distance_elbow_joint": 0.45026437889827475,
        "distance_shoulder_lift_joint": 0.23433514649010778,
        "distance_shoulder_pan_joint": 0.46145918257626056,
        "distance_wrist_1_joint": 0.25013303478481363,
        "distance_wrist_2_joint": 1.098823751245718,
        "distance_wrist_3_joint": 0.10913604225726425,
        "smoothness": 1.8873791468826667e-15,
        "time": 5.000395006,
        "traj_len": 1.6137383729255617,
        "weighted_distance": 2.0423957517576015
    },
    "planner": "LazyPRMstar",
    "start": {
        "state": {
            "elbow_joint": 1.97154746011099,
            "shoulder_lift_joint": -1.13948474672311,
            "shoulder_pan_joint": 0.12281154466712228,
            "wrist_1_joint": -0.7804688027058302,
            "wrist_2_joint": 0.12958655903071145,
            "wrist_3_joint": 3.0906928834467795
        }
    },
    "waypoints": [
        {
            "positions": [
                0.12281154466712228,
                -1.13948474672311,
                1.97154746011099,
                -0.7804688027058302,
                0.12958655903071145,
                3.0906928834467795
            ]
        },
        {
            "positions": [
                0.05688880429908506,
                -1.1729611962216968,
                2.0358709428107433,
                -0.816202093389375,
                0.28656138063724257,
                3.1062837466263886
            ]
        },
        {
            "positions": [
                -0.009033936068952156,
                -1.2064376457202837,
                2.100194425510497,
                -0.8519353840729198,
                0.44353620224377366,
                3.1218746098059977
            ]
        },
        {
            "positions": [
                -0.07495667643698938,
                -1.2399140952188705,
                2.1645179082102506,
                -0.8876686747564646,
                0.6005110238503049,
                3.137465472985607
            ]
        },
        {
            "positions": [
                -0.14087941680502658,
                -1.2733905447174572,
                2.228841390910004,
                -0.9234019654400094,
                0.757485845456836,
                3.1530563361652164
            ]
        },
        {
            "positions": [
                -0.20680215717306383,
                -1.306866994216044,
                2.293164873609758,
                -0.9591352561235542,
                0.9144606670633671,
                3.1686471993448255
            ]
        },
        {
            "positions": [
                -0.272724897541101,
                -1.3403434437146309,
                2.3574883563095113,
                -0.994868546807099,
                1.0714354886698982,
                3.1842380625244346
            ]
        },
        {
            "positions": [
                -0.33864763790913827,
                -1.3738198932132177,
                2.4218118390092647,
                -1.0306018374906438,
                1.2284103102764294,
                3.1998289257040438
            ]
        }
    ]
}{
    "goal": {
        "global_pose": {
            "orientation": {
                "w": 0.5084816217422485,
                "x": -0.49083608388900757,
                "y": 0.5182115435600281,
                "z": -0.4816462993621826
            },
            "position": {
                "x": 0.5540239810943604,
                "y": 0.030875300988554955,
                "z": 0.16403168439865112
            }
        },
        "name": "move_to_storage_A"
    },
    "id": "LazyPRMstar_move_to_storage_A_11",
    "joint_names": [
        "shoulder_pan_joint",
        "shoulder_lift_joint",
        "elbow_joint",
        "wrist_1_joint",
        "wrist_2_joint",
        "wrist_3_joint"
    ],
    "metrics": {
        "cart_traj_len": 0.35365022552978803,
        "distance_elbow_joint": 0.45392327235223817,
        "distance_shoulder_lift_joint": 0.23295316034758717,
        "distance_shoulder_pan_joint": 0.46460284543921115,
        "distance_wrist_1_joint": 0.25938793468388743,
        "distance_wrist_2_joint": 1.0904938696957125,
        "distance_wrist_3_joint": 0.10332228253000242,
        "smoothness": 4.440892098500626e-16,
        "time": 5.000364499,
        "traj_len": 1.613903146117709,
        "weighted_distance": 2.0399043444456515
    },
    "planner": "LazyPRMstar",
    "start": {
        "state": {
            "elbow_joint": 1.9715472970024885,
            "shoulder_lift_joint": -1.1394870060712896,
            "shoulder_pan_joint": 0.12281152778156021,
            "wrist_1_joint": -0.780463741449964,
            "wrist_2_joint": 0.12958659822042276,
            "wrist_3_joint": 3.090690232415272
        }
    },
    "waypoints": [
        {
            "positions": [
                0.12281152778156021,
                -1.1394870060712896,
                1.9715472970024885,
                -0.780463741449964,
                0.12958659822042276,
                3.090690232415272
            ]
        },
        {
            "positions": [
                0.05643969271881576,
                -1.1727660289780877,
                2.036393478767094,
                -0.8175191606905193,
                0.28537143674838167,
                3.1054505584909866
            ]
        },
        {
            "positions": [
                -0.009932142343928696,
                -1.206045051884886,
                2.1012396605316996,
                -0.8545745799310747,
                0.4411562752763406,
                3.120210884566701
            ]
        },
        {
            "positions": [
                -0.07630397740667313,
                -1.239324074791684,
                2.166085842296305,
                -0.89162999917163,
                0.5969411138042995,
                3.1349712106424157
            ]
        },
        {
            "positions": [
                -0.1426758124694176,
                -1.2726030976984823,
                2.2309320240609103,
                -0.9286854184121853,
                0.7527259523322584,
                3.1497315367181304
            ]
        },
        {
            "positions": [
                -0.20904764753216207,
                -1.3058821206052804,
                2.295778205825516,
                -0.9657408376527408,
                0.9085107908602174,
                3.164491862793845
            ]
        },
        {
            "positions": [
                -0.27541948259490645,
                -1.3391611435120785,
                2.3606243875901214,
                -1.002796256893296,
                1.0642956293881762,
                3.1792521888695595
            ]
        },
        {
            "positions": [
                -0.3417913176576509,
                -1.3724401664188768,
                2.4254705693547267,
                -1.0398516761338514,
                1.2200804679161352,
                3.1940125149452743
            ]
        }
    ]
}