{
    "goal": {
        "global_pose": {
            "orientation": {
                "w": -0.4816463035849501,
                "x": 0.5182115481033762,
                "y": 0.4908360881923453,
                "z": -0.5084816262002911
            },
            "position": {
                "x": -0.8240239810943604,
                "y": 0.19912469901144506,
                "z": 0.16403168439865112
            }
        },
        "name": "move_to_storage_D"
    },
    "id": "LazyPRMstar_move_to_storage_D_60",
    "joint_names": [
        "shoulder_pan_joint",
        "shoulder_lift_joint",
        "elbow_joint",
        "wrist_1_joint",
        "wrist_2_joint",
        "wrist_3_joint"
    ],
    "metrics": {
        "cart_traj_len": 4.027789220901655,
        "distance_elbow_joint": 4.213875076772339,
        "distance_shoulder_lift_joint": 1.2649997532052826,
        "distance_shoulder_pan_joint": 2.8120372386928425,
        "distance_wrist_1_joint": 2.288505110794582,
        "distance_wrist_2_joint": 0.8719807940091556,
        "distance_wrist_3_joint": 3.152011194762265,
        "smoothness": 4.3270230853258746e-16,
        "time": 5.048276765000001,
        "traj_len": 3.82144071892218,
        "weighted_distance": 4.905906385426115
    },
    "planner": "LazyPRMstar",
    "start": {
        "state": {
            "elbow_joint": -2.384821988534728,
            "shoulder_lift_joint": -2.2788054721415256,
            "shoulder_pan_joint": -0.1854694642142757,
            "wrist_1_joint": 1.4845938289331202,
            "wrist_2_joint": 0.17898776772866878,
            "wrist_3_joint": 0.037105688729662994
        }
    },
    "waypoints": [
        {
            "positions": [
                -0.1854694642142757,
                -2.2788054721415256,
                -2.384821988534728,
                1.4845938289331202,
                0.17898776772866878,
                0.037105688729662994
            ]
        },
        {
            "positions": [
                -0.061287125054546004,
                -2.223241872750833,
                -2.3745405194145017,
                1.4379734015591816,
                0.19949678093191658,
                0.16473778545308057
            ]
        },
        {
            "positions": [
                0.0628952141051837,
                -2.1676782733601403,
                -2.364259050294276,
                1.3913529741852433,
                0.2200057941351644,
                0.2923698821764982
            ]
        },
        {
            "positions": [
                0.1870775532649134,
                -2.1121146739694474,
                -2.3539775811740498,
                1.3447325468113047,
                0.24051480733841224,
                0.42000197889991575
            ]
        },
        {
            "positions": [
                0.31125989242464314,
                -2.056551074578755,
                -2.3436961120538236,
                1.2981121194373664,
                0.26102382054166007,
                0.5476340756233333
            ]
        },
        {
            "positions": [
                0.4354422315843728,
                -2.0009874751880625,
                -2.333414642933598,
                1.2514916920634278,
                0.28153283374490784,
                0.6752661723467509
            ]
        },
        {
            "positions": [
                0.5596245707441025,
                -1.9454238757973696,
                -2.3231331738133716,
                1.2048712646894892,
                0.30204184694815567,
                0.8028982690701685
            ]
        },
        {
            "positions": [
                0.6838069099038323,
                -1.889860276406677,
                -2.3128517046931454,
                1.158250837315551,
                0.32255086015140344,
                0.9305303657935861
            ]
        },
        {
            "positions": [
                0.807989249063562,
                -1.8342966770159843,
                -2.3025702355729196,
                1.1116304099416123,
                0.34305987335465127,
                1.0581624625170036
            ]
        },
        {
            "positions": [
                0.9321715882232916,
                -1.7787330776252916,
                -2.2922887664526934,
                1.0650099825676738,
                0.3635688865578991,
                1.185794559240421
            ]
        },
        {
            "positions": [
                1.0563539273830211,
                -1.723169478234599,
                -2.282007297332467,
                1.0183895551937354,
                0.3840778997611469,
                1.3134266559638388
            ]
        },
        {
            "positions": [
                1.180536266542751,
                -1.6676058788439063,
                -2.271725828212241,
                0.9717691278197969,
                0.40458691296439475,
                1.4410587526872565
            ]
        },
        {
            "positions": [
                1.3047186057024807,
                -1.6120422794532137,
                -2.2614443590920152,
                0.9251487004458584,
                0.4250959261676426,
                1.568690849410674
            ]
        },
        {
            "positions": [
                1.4289009448622103,
                -1.556478680062521,
                -2.251162889971789,
                0.8785282730719199,
                0.4456049393708904,
                1.6963229461340914
            ]
        },
        {
            "positions": [
                1.5530832840219402,
                -1.5009150806718283,
                -2.240881420851563,
                0.8319078456979814,
                0.4661139525741381,
                1.823955042857509
            ]
        },
        {
            "positions": [
                1.6772656231816698,
                -1.4453514812811357,
                -2.230599951731337,
                0.7852874183240429,
                0.48662296577738595,
                1.9515871395809268
            ]
        },
        {
            "positions": [
                1.8014479623413995,
                -1.389787881890443,
                -2.220318482611111,
                0.7386669909501045,
                0.5071319789806338,
                2.0792192363043442
            ]
        },
        {
            "positions": [
                1.8389534083476344,
                -1.372697783574343,
                -2.0362561384816233,
                0.6685497967313969,
                0.5318518236514151,
                2.129669129358325
            ]
        },
        {
            "positions": [
                1.8764588543538692,
                -1.355607685258243,
                -1.8521937943521363,
                0.5984326025126894,
                0.5565716683221965,
                2.1801190224123066
            ]
        },
        {
            "positions": [
                1.9139643003601041,
                -1.338517586942143,
                -1.6681314502226487,
                0.5283154082939818,
                0.581291512992978,
                2.2305689154662875
            ]
        },
        {
            "positions": [
                1.9514697463663389,
                -1.321427488626043,
                -1.4840691060931614,
                0.45819821407527433,
                0.6060113576637594,
                2.2810188085202685
            ]
        },
        {
            "positions": [
                1.9889751923725738,
                -1.3043373903099431,
                -1.3000067619636742,
                0.3880810198565668,
                0.6307312023345407,
                2.3314687015742495
            ]
        },
        {
            "positions": [
                2.0264806383788088,
                -1.2872472919938431,
                -1.1159444178341869,
                0.3179638256378593,
                0.6554510470053221,
                2.381918594628231
            ]
        },
        {
            "positions": [
                2.0639860843850433,
                -1.270157193677743,
                -0.9318820737046993,
                0.2478466314191517,
                0.6801708916761036,
                2.432368487682212
            ]
        },
        {
            "positions": [
                2.1014915303912782,
                -1.253067095361643,
                -0.747819729575212,
                0.1777294372004442,
                0.7048907363468849,
                2.4828183807361928
            ]
        },
        {
            "positions": [
                2.138996976397513,
                -1.235976997045543,
                -0.5637573854457245,
                0.10761224298173655,
                0.7296105810176663,
                2.533268273790174
            ]
        },
        {
            "positions": [
                2.176502422403748,
                -1.218886898729443,
                -0.37969504131623744,
                0.037495048763029115,
                0.7543304256884477,
                2.583718166844155
            ]
        },
        {
            "positions": [
                2.2140078684099826,
                -1.201796800413343,
                -0.19563269718674992,
                -0.03262214545567843,
                0.779050270359229,
                2.634168059898136
            ]
        },
        {
            "positions": [
                2.2515133144162176,
                -1.184706702097243,
                -0.011570353057262839,
                -0.10273933967438587,
                0.8037701150300105,
                2.684617952952117
            ]
        },
        {
            "positions": [
                2.2890187604224526,
                -1.167616603781143,
                0.17249199107222513,
                -0.17285653389309352,
                0.8284899597007919,
                2.735067846006098
            ]
        },
        {
            "positions": [
                2.3265242064286875,
                -1.150526505465043,
                0.3565543352017122,
                -0.24297372811180107,
                0.8532098043715732,
                2.7855177390600794
            ]
        },
        {
            "positions": [
                2.3640296524349225,
                -1.1334364071489431,
                0.5406166793311993,
                -0.3130909223305085,
                0.8779296490423546,
                2.8359676321140603
            ]
        },
        {
            "positions": [
                2.4015350984411574,
                -1.116346308832843,
                0.7246790234606868,
                -0.38320811654921605,
                0.902649493713136,
                2.8864175251680413
            ]
        },
        {
            "positions": [
                2.439040544447392,
                -1.0992562105167432,
                0.9087413675901743,
                -0.4533253107679236,
                0.9273693383839174,
                2.9368674182220227
            ]
        },
        {
            "positions": [
                2.476545990453627,
                -1.082166112200643,
                1.0928037117196618,
                -0.5234425049866314,
                0.9520891830546989,
                2.9873173112760036
            ]
        },
        {
            "positions": [
                2.514051436459862,
                -1.065076013884543,
                1.276866055849149,
                -0.5935596992053387,
                0.9768090277254802,
                3.0377672043299846
            ]
        },
        {
            "positions": [
                2.5515568824660964,
                -1.047985915568443,
                1.460928399978636,
                -0.6636768934240462,
                1.0015288723962616,
                3.088217097383966
            ]
        },
        {
            "positions": [
                2.5890623284723313,
                -1.030895817252343,
                1.644990744108124,
                -0.7337940876427538,
                1.026248717067043,
                3.138666990437947
            ]
        },
        {
            "positions": [
                2.6265677744785663,
                -1.013805718936243,
                1.8290530882376113,
                -0.8039112818614613,
                1.0509685617378244,
                3.189116883491928
            ]
        }
    ]
}