{
    "goal": {
        "global_pose": {
            "orientation": {
                "w": 0.005598929693374612,
                "x": 0.007748599140229565,
                "y": 0.7110244013736278,
                "z": -0.7031023480610252
            },
            "position": {
                "x": -0.8858502320852131,
                "y": -0.7141253447532654,
                "z": 0.3711530566215515
            }
        },
        "name": "move_to_auspresseinheit_C"
    },
    "id": "LazyPRMstar_move_to_auspresseinheit_C_129",
    "joint_names": [
        "shoulder_pan_joint",
        "shoulder_lift_joint",
        "elbow_joint",
        "wrist_1_joint",
        "wrist_2_joint",
        "wrist_3_joint"
    ],
    "metrics": {
        "cart_traj_len": 0.4935789350100245,
        "distance_elbow_joint": 1.005288835865668,
        "distance_shoulder_lift_joint": 0.3279738172965223,
        "distance_shoulder_pan_joint": 0.25576588276060885,
        "distance_wrist_1_joint": 0.6778417488626335,
        "distance_wrist_2_joint": 1.3180021183961017,
        "distance_wrist_3_joint": 0.04714936877639797,
        "smoothness": 1.6148698667872622e-16,
        "time": 5.000082937,
        "traj_len": 1.9057863920067046,
        "weighted_distance": 2.392104591519665
    },
    "planner": "LazyPRMstar",
    "start": {
        "state": {
            "elbow_joint": 1.7527959577737207,
            "shoulder_lift_joint": -0.9740617694225068,
            "shoulder_pan_joint": -2.967991417825858,
            "wrist_1_joint": -0.759517768980727,
            "wrist_2_joint": 1.7443932448377408,
            "wrist_3_joint": -3.0840537646736568
        }
    },
    "waypoints": [
        {
            "positions": [
                -2.967991417825858,
                -0.9740617694225068,
                1.7527959577737207,
                -0.759517768980727,
                1.7443932448377408,
                -3.0840537646736568
            ]
        },
        {
            "positions": [
                -2.942414829549797,
                -0.9412643876928546,
                1.652267074187154,
                -0.6917335940944637,
                1.6125930329981306,
                -3.0887687015512966
            ]
        },
        {
            "positions": [
                -2.9168382412737364,
                -0.9084670059632023,
                1.5517381906005872,
                -0.6239494192082002,
                1.4807928211585204,
                -3.0934836384289364
            ]
        },
        {
            "positions": [
                -2.891261652997675,
                -0.8756696242335501,
                1.4512093070140204,
                -0.5561652443219369,
                1.3489926093189104,
                -3.098198575306576
            ]
        },
        {
            "positions": [
                -2.8656850647216143,
                -0.8428722425038978,
                1.3506804234274534,
                -0.48838106943567355,
                1.2171923974793,
                -3.102913512184216
            ]
        },
        {
            "positions": [
                -2.8401084764455535,
                -0.8100748607742456,
                1.2501515398408867,
                -0.42059689454941024,
                1.08539218563969,
                -3.1076284490618558
            ]
        },
        {
            "positions": [
                -2.8145318881694927,
                -0.7772774790445934,
                1.14962265625432,
                -0.3528127196631469,
                0.9535919738000799,
                -3.1123433859394956
            ]
        },
        {
            "positions": [
                -2.788955299893432,
                -0.7444800973149411,
                1.0490937726677532,
                -0.28502854477688355,
                0.8217917619604697,
                -3.1170583228171354
            ]
        },
        {
            "positions": [
                -2.7633787116173707,
                -0.711682715585289,
                0.9485648890811862,
                -0.21724436989062013,
                0.6899915501208593,
                -3.121773259694775
            ]
        },
        {
            "positions": [
                -2.73780212334131,
                -0.6788853338556367,
                0.8480360054946194,
                -0.1494601950043568,
                0.5581913382812493,
                -3.126488196572415
            ]
        },
        {
            "positions": [
                -2.712225535065249,
                -0.6460879521259845,
                0.7475071219080527,
                -0.08167602011809345,
                0.426391126441639,
                -3.1312031334500547
            ]
        }
    ]
}