{
    "goal": {
        "global_pose": {
            "orientation": {
                "w": -0.00223480608172531,
                "x": 0.0024358444001904467,
                "y": 0.7094548369677653,
                "z": -0.704743149386269
            },
            "position": {
                "x": 0.6205249238014221,
                "y": -0.6371506643295288,
                "z": 0.19426114857196808
            }
        },
        "name": "move_to_magneteinheit_B"
    },
    "id": "LazyPRMstar_move_to_magneteinheit_B_123",
    "joint_names": [
        "shoulder_pan_joint",
        "shoulder_lift_joint",
        "elbow_joint",
        "wrist_1_joint",
        "wrist_2_joint",
        "wrist_3_joint"
    ],
    "metrics": {
        "cart_traj_len": 1.5982313475617054,
        "distance_elbow_joint": 0.986913307075437,
        "distance_shoulder_lift_joint": 0.7727871536320026,
        "distance_shoulder_pan_joint": 1.6220978826394385,
        "distance_wrist_1_joint": 0.3753296331619054,
        "distance_wrist_2_joint": 1.514429687892737,
        "distance_wrist_3_joint": 1.6907302092076184,
        "smoothness": 0.5052700405825326,
        "time": 5.016167642,
        "traj_len": 2.6386147641535582,
        "weighted_distance": 3.497643151191816
    },
    "planner": "LazyPRMstar",
    "start": {
        "state": {
            "elbow_joint": 2.6216224122426386,
            "shoulder_lift_joint": -1.4174107377796124,
            "shoulder_pan_joint": 0.7066234856936794,
            "wrist_1_joint": 1.9546482284002225,
            "wrist_2_joint": -0.7096286983471962,
            "wrist_3_joint": 0.005740856962016249
        }
    },
    "waypoints": [
        {
            "positions": [
                0.7066234856936794,
                -1.4174107377796124,
                2.6216224122426386,
                1.9546482284002225,
                -0.7096286983471962,
                0.005740856962016249
            ]
        },
        {
            "positions": [
                0.6081442712260583,
                -1.399102244178634,
                2.6267504542724214,
                2.004791902585016,
                -0.7505661950754953,
                -0.1337567682156514
            ]
        },
        {
            "positions": [
                0.5096650567584372,
                -1.380793750577656,
                2.6318784963022046,
                2.05493557676981,
                -0.7915036918037942,
                -0.2732543933933191
            ]
        },
        {
            "positions": [
                0.4111858422908161,
                -1.3624852569766777,
                2.6370065383319874,
                2.1050792509546037,
                -0.8324411885320933,
                -0.41275201857098676
            ]
        },
        {
            "positions": [
                0.3230584323536057,
                -1.3639110331457178,
                2.544917982322171,
                2.0890757601420633,
                -0.89635707793205,
                -0.48429995276534676
            ]
        },
        {
            "positions": [
                0.23493102241639527,
                -1.3653368093147578,
                2.4528294263123542,
                2.073072269329523,
                -0.9602729673320067,
                -0.5558478869597068
            ]
        },
        {
            "positions": [
                0.14680361247918483,
                -1.366762585483798,
                2.3607408703025374,
                2.0570687785169826,
                -1.0241888567319637,
                -0.6273958211540668
            ]
        },
        {
            "positions": [
                0.05867620254197442,
                -1.368188361652838,
                2.268652314292721,
                2.0410652877044426,
                -1.0881047461319202,
                -0.6989437553484268
            ]
        },
        {
            "positions": [
                -0.029451207395236045,
                -1.369614137821878,
                2.1765637582829047,
                2.0250617968919022,
                -1.1520206355318772,
                -0.7704916895427868
            ]
        },
        {
            "positions": [
                -0.11757861733244646,
                -1.3710399139909182,
                2.084475202273088,
                2.009058306079362,
                -1.215936524931834,
                -0.8420396237371468
            ]
        },
        {
            "positions": [
                -0.19736819529377775,
                -1.3001092124094353,
                2.042575417780369,
                2.02194607265259,
                -1.316748711062644,
                -0.7577446508863013
            ]
        },
        {
            "positions": [
                -0.27715777325510904,
                -1.2291785108279527,
                2.00067563328765,
                2.0348338392258185,
                -1.4175608971934537,
                -0.6734496780354557
            ]
        },
        {
            "positions": [
                -0.3569473512164403,
                -1.15824780924647,
                1.9587758487949314,
                2.0477216057990466,
                -1.5183730833242637,
                -0.5891547051846102
            ]
        },
        {
            "positions": [
                -0.4367369291777716,
                -1.0873171076649872,
                1.9168760643022125,
                2.0606093723722747,
                -1.6191852694550737,
                -0.5048597323337647
            ]
        },
        {
            "positions": [
                -0.5165265071391029,
                -1.0163864060835044,
                1.8749762798094936,
                2.073497138945503,
                -1.7199974555858835,
                -0.42056475948291916
            ]
        },
        {
            "positions": [
                -0.5963160851004341,
                -0.9454557045020218,
                1.8330764953167746,
                2.0863849055187313,
                -1.8208096417166935,
                -0.33626978663207363
            ]
        },
        {
            "positions": [
                -0.6761056630617653,
                -0.8745250029205391,
                1.7911767108240557,
                2.0992726720919594,
                -1.9216218278475035,
                -0.2519748137812281
            ]
        },
        {
            "positions": [
                -0.7558952410230968,
                -0.8035943013390563,
                1.749276926331337,
                2.1121604386651875,
                -2.0224340139783132,
                -0.16767984093038257
            ]
        },
        {
            "positions": [
                -0.835684818984428,
                -0.7326635997575736,
                1.707377141838618,
                2.125048205238416,
                -2.1232462001091235,
                -0.08338486807953704
            ]
        },
        {
            "positions": [
                -0.9154743969457593,
                -0.6617328981760908,
                1.6654773573458992,
                2.137935971811644,
                -2.2240583862399332,
                0.0009101047713084406
            ]
        }
    ]
}