{
    "goal": {
        "global_pose": {
            "orientation": {
                "w": 0.005598929693374612,
                "x": 0.007748599140229565,
                "y": 0.7110244013736278,
                "z": -0.7031023480610252
            },
            "position": {
                "x": -0.8858502320852131,
                "y": -0.7141253447532654,
                "z": 0.3711530566215515
            }
        },
        "name": "move_to_auspresseinheit_C"
    },
    "id": "LazyPRMstar_move_to_auspresseinheit_C_126",
    "joint_names": [
        "shoulder_pan_joint",
        "shoulder_lift_joint",
        "elbow_joint",
        "wrist_1_joint",
        "wrist_2_joint",
        "wrist_3_joint"
    ],
    "metrics": {
        "cart_traj_len": 0.49265686977065165,
        "distance_elbow_joint": 0.9984181782705204,
        "distance_shoulder_lift_joint": 0.3243908677131262,
        "distance_shoulder_pan_joint": 0.25654144034428317,
        "distance_wrist_1_joint": 0.6806111867803271,
        "distance_wrist_2_joint": 1.306499480620269,
        "distance_wrist_3_joint": 0.059454297743097406,
        "smoothness": 1.1304088990788627e-15,
        "time": 5.0013832869999995,
        "traj_len": 1.9041836706241402,
        "weighted_distance": 2.3941459258696858
    },
    "planner": "LazyPRMstar",
    "start": {
        "state": {
            "elbow_joint": 1.7527959577737207,
            "shoulder_lift_joint": -0.9740617694225068,
            "shoulder_pan_joint": -2.967991417825858,
            "wrist_1_joint": -0.759517768980727,
            "wrist_2_joint": 1.7443932448377408,
            "wrist_3_joint": -3.0840537646736568
        }
    },
    "waypoints": [
        {
            "positions": [
                -2.967991417825858,
                -0.9740617694225068,
                1.7527959577737207,
                -0.759517768980727,
                1.7443932448377408,
                -3.0840537646736568
            ]
        },
        {
            "positions": [
                -2.9423372737914297,
                -0.9416226826511942,
                1.6529541399466687,
                -0.6914566503026943,
                1.613743296775714,
                -3.0899991944479663
            ]
        },
        {
            "positions": [
                -2.9166831297570015,
                -0.9091835958798815,
                1.5531123221196166,
                -0.6233955316246615,
                1.483093348713687,
                -3.0959446242222763
            ]
        },
        {
            "positions": [
                -2.891028985722573,
                -0.8767445091085689,
                1.4532705042925644,
                -0.5553344129466289,
                1.3524434006516601,
                -3.101890053996586
            ]
        },
        {
            "positions": [
                -2.8653748416881446,
                -0.8443054223372563,
                1.3534286864655125,
                -0.48727329426859617,
                1.2217934525896332,
                -3.107835483770896
            ]
        },
        {
            "positions": [
                -2.8397206976537164,
                -0.8118663355659437,
                1.2535868686384606,
                -0.41921217559056345,
                1.0911435045276063,
                -3.1137809135452055
            ]
        },
        {
            "positions": [
                -2.814066553619288,
                -0.7794272487946311,
                1.1537450508114084,
                -0.35115105691253073,
                0.9604935564655794,
                -3.119726343319515
            ]
        },
        {
            "positions": [
                -2.78841240958486,
                -0.7469881620233184,
                1.0539032329843563,
                -0.2830899382344981,
                0.8298436084035526,
                -3.125671773093825
            ]
        },
        {
            "positions": [
                -2.7627582655504312,
                -0.7145490752520058,
                0.9540614151573044,
                -0.21502881955646536,
                0.6991936603415256,
                -3.1316172028681346
            ]
        },
        {
            "positions": [
                -2.737104121516003,
                -0.6821099884806932,
                0.8542195973302523,
                -0.14696770087843258,
                0.5685437122794987,
                -3.1375626326424446
            ]
        },
        {
            "positions": [
                -2.711449977481575,
                -0.6496709017093806,
                0.7543777795032003,
                -0.07890658220039991,
                0.4378937642174718,
                -3.143508062416754
            ]
        }
    ]
}