{
    "goal": {
        "global_pose": {
            "orientation": {
                "w": 0.5084816262002911,
                "x": -0.4908360881923452,
                "y": 0.5182115481033761,
                "z": -0.48164630358495003
            },
            "position": {
                "x": 0.5540239810943604,
                "y": -0.46912469901144505,
                "z": 0.16403168439865112
            }
        },
        "name": "move_to_storage_B"
    },
    "id": "LazyPRM_move_to_storage_B_96",
    "joint_names": [
        "shoulder_pan_joint",
        "shoulder_lift_joint",
        "elbow_joint",
        "wrist_1_joint",
        "wrist_2_joint",
        "wrist_3_joint"
    ],
    "metrics": {
        "cart_traj_len": 1.2385641959740201,
        "distance_elbow_joint": 1.3307416691669172,
        "distance_shoulder_lift_joint": 0.672184174898639,
        "distance_shoulder_pan_joint": 0.41249765771197844,
        "distance_wrist_1_joint": 3.0053105042810175,
        "distance_wrist_2_joint": 2.751728554327917,
        "distance_wrist_3_joint": 3.2557381601314703,
        "smoothness": 0.5577775064040493,
        "time": 0.186700895,
        "traj_len": 3.380562190008925,
        "weighted_distance": 4.8679272898626795
    },
    "planner": "LazyPRM",
    "start": {
        "state": {
            "elbow_joint": 1.664937868594044,
            "shoulder_lift_joint": -0.661644460510453,
            "shoulder_pan_joint": -0.9139846352900073,
            "wrist_1_joint": 2.146753192139373,
            "wrist_2_joint": -2.2341966793290973,
            "wrist_3_joint": 0.005466555786416001
        }
    },
    "waypoints": [
        {
            "positions": [
                -0.9139846352900073,
                -0.661644460510453,
                1.664937868594044,
                2.146753192139373,
                -2.2341966793290973,
                0.005466555786416001
            ]
        },
        {
            "positions": [
                -0.7981074830593874,
                -0.7278390685452826,
                1.7450452219258856,
                2.1600323452715062,
                -2.256119829693973,
                -0.051067351587223336
            ]
        },
        {
            "positions": [
                -0.8158740558821855,
                -0.763458307146176,
                1.7099830023326186,
                2.0725809935308512,
                -2.137504595824597,
                0.027757812179058455
            ]
        },
        {
            "positions": [
                -0.8336406287049837,
                -0.7990775457470695,
                1.6749207827393515,
                1.9851296417901962,
                -2.0188893619552215,
                0.10658297594534025
            ]
        },
        {
            "positions": [
                -0.8514072015277819,
                -0.834696784347963,
                1.6398585631460842,
                1.8976782900495412,
                -1.9002741280858455,
                0.18540813971162204
            ]
        },
        {
            "positions": [
                -0.8691737743505801,
                -0.8703160229488565,
                1.6047963435528172,
                1.8102269383088863,
                -1.7816588942164697,
                0.26423330347790386
            ]
        },
        {
            "positions": [
                -0.8869403471733782,
                -0.9059352615497499,
                1.5697341239595501,
                1.722775586568231,
                -1.663043660347094,
                0.34305846724418565
            ]
        },
        {
            "positions": [
                -0.9047069199961764,
                -0.9415545001506433,
                1.534671904366283,
                1.6353242348275763,
                -1.544428426477718,
                0.42188363101046744
            ]
        },
        {
            "positions": [
                -0.9224734928189746,
                -0.9771737387515369,
                1.499609684773016,
                1.547872883086921,
                -1.4258131926083422,
                0.5007087947767492
            ]
        },
        {
            "positions": [
                -0.9402400656417728,
                -1.0127929773524302,
                1.4645474651797488,
                1.460421531346266,
                -1.3071979587389664,
                0.579533958543031
            ]
        },
        {
            "positions": [
                -0.9580066384645709,
                -1.0484122159533238,
                1.4294852455864817,
                1.3729701796056109,
                -1.1885827248695904,
                0.6583591223093128
            ]
        },
        {
            "positions": [
                -0.975773211287369,
                -1.0840314545542173,
                1.3944230259932147,
                1.2855188278649559,
                -1.0699674910002146,
                0.7371842860755946
            ]
        },
        {
            "positions": [
                -0.9935397841101672,
                -1.1196506931551107,
                1.3593608063999476,
                1.1980674761243009,
                -0.9513522571308388,
                0.8160094498418764
            ]
        },
        {
            "positions": [
                -1.0113063569329654,
                -1.1552699317560042,
                1.3242985868066803,
                1.110616124383646,
                -0.832737023261463,
                0.8948346136081582
            ]
        },
        {
            "positions": [
                -1.0290729297557635,
                -1.1908891703568978,
                1.2892363672134133,
                1.0231647726429909,
                -0.714121789392087,
                0.97365977737444
            ]
        },
        {
            "positions": [
                -1.0468395025785617,
                -1.2265084089577911,
                1.2541741476201462,
                0.9357134209023359,
                -0.5955065555227114,
                1.0524849411407218
            ]
        },
        {
            "positions": [
                -1.050032068309374,
                -1.219353727194371,
                1.3048250303887687,
                0.8178659257836884,
                -0.5242270802032594,
                1.1921950718093808
            ]
        },
        {
            "positions": [
                -1.0532246340401863,
                -1.212199045430951,
                1.355475913157391,
                0.7000184306650409,
                -0.45294760488380725,
                1.33190520247804
            ]
        },
        {
            "positions": [
                -1.0564171997709986,
                -1.205044363667531,
                1.4061267959260135,
                0.5821709355463933,
                -0.38166812956435525,
                1.471615333146699
            ]
        },
        {
            "positions": [
                -1.0596097655018109,
                -1.197889681904111,
                1.4567776786946358,
                0.46432344042774587,
                -0.3103886542449032,
                1.611325463815358
            ]
        },
        {
            "positions": [
                -1.0628023312326231,
                -1.190735000140691,
                1.507428561463258,
                0.3464759453090984,
                -0.2391091789254512,
                1.751035594484017
            ]
        },
        {
            "positions": [
                -1.0659948969634354,
                -1.1835803183772708,
                1.5580794442318806,
                0.22862845019045075,
                -0.16782970360599914,
                1.8907457251526762
            ]
        },
        {
            "positions": [
                -1.0691874626942477,
                -1.1764256366138508,
                1.6087303270005031,
                0.1107809550718033,
                -0.09655022828654708,
                2.0304558558213355
            ]
        },
        {
            "positions": [
                -1.07238002842506,
                -1.1692709548504305,
                1.6593812097691254,
                -0.00706654004684415,
                -0.025270752967095023,
                2.1701659864899945
            ]
        },
        {
            "positions": [
                -1.0755725941558723,
                -1.1621162730870105,
                1.710032092537748,
                -0.1249140351654916,
                0.04600872235235698,
                2.3098761171586535
            ]
        },
        {
            "positions": [
                -1.0787651598866845,
                -1.1549615913235904,
                1.7606829753063702,
                -0.24276153028413905,
                0.11728819767180898,
                2.4495862478273125
            ]
        },
        {
            "positions": [
                -1.0819577256174968,
                -1.1478069095601704,
                1.8113338580749927,
                -0.3606090254027867,
                0.18856767299126098,
                2.5892963784959715
            ]
        },
        {
            "positions": [
                -1.085150291348309,
                -1.1406522277967504,
                1.861984740843615,
                -0.4784565205214344,
                0.2598471483107131,
                2.7290065091646305
            ]
        },
        {
            "positions": [
                -1.0883428570791214,
                -1.1334975460333303,
                1.9126356236122375,
                -0.5963040156400818,
                0.3311266236301652,
                2.8687166398332895
            ]
        },
        {
            "positions": [
                -1.0915354228099337,
                -1.1263428642699103,
                1.96328650638086,
                -0.7141515107587293,
                0.4024060989496172,
                3.0084267705019485
            ]
        },
        {
            "positions": [
                -1.094727988540746,
                -1.1191881825064902,
                2.0139373891494823,
                -0.8319990058773767,
                0.4736855742690691,
                3.148136901170608
            ]
        }
    ]
}