{
    "goal": {
        "global_pose": {
            "orientation": {
                "w": -0.00223480608172531,
                "x": 0.0024358444001904467,
                "y": 0.7094548369677653,
                "z": -0.704743149386269
            },
            "position": {
                "x": -0.37947507619857795,
                "y": -0.6371506643295288,
                "z": 0.19426114857196808
            }
        },
        "name": "move_to_magneteinheit_C"
    },
    "id": "LazyPRMstar_move_to_magneteinheit_C_19",
    "joint_names": [
        "shoulder_pan_joint",
        "shoulder_lift_joint",
        "elbow_joint",
        "wrist_1_joint",
        "wrist_2_joint",
        "wrist_3_joint"
    ],
    "metrics": {
        "cart_traj_len": 1.260499073908328,
        "distance_elbow_joint": 0.4472595874441936,
        "distance_shoulder_lift_joint": 1.4322790565419348,
        "distance_shoulder_pan_joint": 1.6738735720312985,
        "distance_wrist_1_joint": 1.0962534326455244,
        "distance_wrist_2_joint": 0.8084671019347833,
        "distance_wrist_3_joint": 0.6737911694373473,
        "smoothness": 1.7041075390167064,
        "time": 5.013987343,
        "traj_len": 2.476272182138927,
        "weighted_distance": 3.0633685370013977
    },
    "planner": "LazyPRMstar",
    "start": {
        "state": {
            "elbow_joint": 1.9565354010623817,
            "shoulder_lift_joint": -1.4165861575791021,
            "shoulder_pan_joint": -1.6717766225146293,
            "wrist_1_joint": -0.5286633292919765,
            "wrist_2_joint": 1.472756589071564,
            "wrist_3_joint": -3.1238370188695823
        }
    },
    "waypoints": [
        {
            "positions": [
                -1.6717766225146293,
                -1.4165861575791021,
                1.9565354010623817,
                -0.5286633292919765,
                1.472756589071564,
                -3.1238370188695823
            ]
        },
        {
            "positions": [
                -1.6773691353724733,
                -1.434908583696545,
                1.965273960011456,
                -0.5200506982112204,
                1.4782609712075376,
                -3.1234105316339225
            ]
        },
        {
            "positions": [
                -1.8002896855478814,
                -1.5779647096744345,
                2.0129202345021024,
                -0.45059779801526745,
                1.4767206923505896,
                -3.1166478331307363
            ]
        },
        {
            "positions": [
                -1.9232102357232892,
                -1.7210208356523242,
                2.0605665089927494,
                -0.38114489781931454,
                1.4751804134936413,
                -3.1098851346275502
            ]
        },
        {
            "positions": [
                -2.046130785898697,
                -1.864076961630214,
                2.1082127834833964,
                -0.31169199762336164,
                1.473640134636693,
                -3.103122436124364
            ]
        },
        {
            "positions": [
                -2.169051336074105,
                -2.0071330876081035,
                2.155859057974043,
                -0.24223909742740868,
                1.472099855779745,
                -3.096359737621178
            ]
        },
        {
            "positions": [
                -2.261674176212776,
                -1.922620254280845,
                2.1625466875356443,
                -0.33068680466919476,
                1.39769962454119,
                -3.139844071239746
            ]
        },
        {
            "positions": [
                -2.3542970163514467,
                -1.8381074209535866,
                2.1692343170972457,
                -0.4191345119109809,
                1.323299393302635,
                -3.1833284048583144
            ]
        },
        {
            "positions": [
                -2.446919856490118,
                -1.7535945876263284,
                2.1759219466588475,
                -0.507582219152767,
                1.2488991620640801,
                -3.2268127384768825
            ]
        },
        {
            "positions": [
                -2.5395426966287884,
                -1.66908175429907,
                2.182609576220449,
                -0.5960299263945531,
                1.1744989308255251,
                -3.2702970720954507
            ]
        },
        {
            "positions": [
                -2.6321655367674595,
                -1.5845689209718115,
                2.1892972057820503,
                -0.6844776336363392,
                1.1000986995869702,
                -3.3137814057140194
            ]
        },
        {
            "positions": [
                -2.7247883769061305,
                -1.5000560876445532,
                2.195984835343652,
                -0.7729253408781254,
                1.0256984683484152,
                -3.3572657393325875
            ]
        },
        {
            "positions": [
                -2.8174112170448016,
                -1.4155432543172948,
                2.2026724649052536,
                -0.8613730481199114,
                0.9512982371098603,
                -3.4007500729511557
            ]
        },
        {
            "positions": [
                -2.910034057183472,
                -1.3310304209900363,
                2.209360094466855,
                -0.9498207553616975,
                0.8768980058713053,
                -3.444234406569724
            ]
        },
        {
            "positions": [
                -2.8011300228428584,
                -1.2896230560163198,
                2.160751370956925,
                -0.9242588696500305,
                0.826498067255661,
                -3.3696246017596247
            ]
        },
        {
            "positions": [
                -2.692225988502244,
                -1.2482156910426032,
                2.112142647446995,
                -0.8986969839383635,
                0.7760981286400166,
                -3.295014796949525
            ]
        },
        {
            "positions": [
                -2.5833219541616304,
                -1.2068083260688867,
                2.0635339239370647,
                -0.8731350982266965,
                0.7256981900243723,
                -3.220404992139426
            ]
        },
        {
            "positions": [
                -2.4744179198210166,
                -1.16540096109517,
                2.0149252004271347,
                -0.8475732125150295,
                0.675298251408728,
                -3.145795187329327
            ]
        }
    ]
}