{
    "goal": {
        "global_pose": {
            "orientation": {
                "w": 0.7047431493862688,
                "x": -0.7094548369677653,
                "y": 0.0024358444001904,
                "z": -0.0022348060817251984
            },
            "position": {
                "x": -0.39052492380142206,
                "y": 0.3671506643295288,
                "z": 0.19426114857196808
            }
        },
        "name": "move_to_magneteinheit_D"
    },
    "id": "LazyPRM_move_to_magneteinheit_D_9",
    "joint_names": [
        "shoulder_pan_joint",
        "shoulder_lift_joint",
        "elbow_joint",
        "wrist_1_joint",
        "wrist_2_joint",
        "wrist_3_joint"
    ],
    "metrics": {
        "cart_traj_len": 4.343972647051173,
        "distance_elbow_joint": 3.3307047881249323,
        "distance_shoulder_lift_joint": 1.1121393347968789,
        "distance_shoulder_pan_joint": 2.9910323698780155,
        "distance_wrist_1_joint": 2.782322302189232,
        "distance_wrist_2_joint": 0.7197866842354894,
        "distance_wrist_3_joint": 6.278947466995184,
        "smoothness": 0.2649665083392271,
        "time": 0.8901205189999999,
        "traj_len": 4.14908820660874,
        "weighted_distance": 5.768443192633073
    },
    "planner": "LazyPRM",
    "start": {
        "state": {
            "elbow_joint": 0.749534889911806,
            "shoulder_lift_joint": -0.6476975780787326,
            "shoulder_pan_joint": -2.711696901376241,
            "wrist_1_joint": -0.07506478083263063,
            "wrist_2_joint": 0.43296659715538205,
            "wrist_3_joint": -3.14703540197715
        }
    },
    "waypoints": [
        {
            "positions": [
                -2.711696901376241,
                -0.6476975780787326,
                0.749534889911806,
                -0.07506478083263063,
                0.43296659715538205,
                -3.14703540197715
            ]
        },
        {
            "positions": [
                -2.7319908458503877,
                -0.6980611420645193,
                0.7564946581114631,
                0.004924360711117612,
                0.4019731384029811,
                -3.0838473470084646
            ]
        },
        {
            "positions": [
                -2.752284790324534,
                -0.748424706050306,
                0.7634544263111203,
                0.08491350225486585,
                0.3709796796505801,
                -3.0206592920397792
            ]
        },
        {
            "positions": [
                -2.760640564770634,
                -0.8367109615085075,
                0.7677007083583713,
                0.17922851745405138,
                0.32702656456474655,
                -2.9218585913083626
            ]
        },
        {
            "positions": [
                -2.7689963392167334,
                -0.924997216966709,
                0.7719469904056223,
                0.27354353265323694,
                0.283073449478913,
                -2.823057890576946
            ]
        },
        {
            "positions": [
                -2.689964200323533,
                -0.9449715472735097,
                0.6950895539699853,
                0.22034641943052818,
                0.2697364468252908,
                -2.677553812881405
            ]
        },
        {
            "positions": [
                -2.610932061430333,
                -0.9649458775803106,
                0.6182321175343481,
                0.1671493062078194,
                0.2563994441716686,
                -2.5320497351858635
            ]
        },
        {
            "positions": [
                -2.531899922537132,
                -0.9849202078871113,
                0.5413746810987111,
                0.11395219298511061,
                0.2430624415180464,
                -2.3865456574903225
            ]
        },
        {
            "positions": [
                -2.452867783643932,
                -1.004894538193912,
                0.4645172446630741,
                0.060755079762401853,
                0.2297254388644242,
                -2.2410415797947816
            ]
        },
        {
            "positions": [
                -2.3738356447507316,
                -1.0248688685007128,
                0.387659808227437,
                0.0075579665396930396,
                0.216388436210802,
                -2.0955375020992406
            ]
        },
        {
            "positions": [
                -2.2948035058575313,
                -1.0448431988075138,
                0.3108023717917999,
                -0.04563914668301572,
                0.20305143355717978,
                -1.9500334244036992
            ]
        },
        {
            "positions": [
                -2.215771366964331,
                -1.0648175291143145,
                0.2339449353561629,
                -0.09883625990572448,
                0.1897144309035576,
                -1.8045293467081582
            ]
        },
        {
            "positions": [
                -2.136739228071131,
                -1.0847918594211152,
                0.15708749892052587,
                -0.15203337312843324,
                0.17637742824993538,
                -1.659025269012617
            ]
        },
        {
            "positions": [
                -2.0577070891779305,
                -1.104766189727916,
                0.08023006248488873,
                -0.20523048635114205,
                0.16304042559631318,
                -1.513521191317076
            ]
        },
        {
            "positions": [
                -1.97867495028473,
                -1.1247405200347167,
                0.0033726260492517035,
                -0.25842759957385086,
                0.14970342294269098,
                -1.3680171136215349
            ]
        },
        {
            "positions": [
                -1.8996428113915296,
                -1.1447148503415174,
                -0.07348481038638544,
                -0.31162471279655957,
                0.13636642028906876,
                -1.2225130359259937
            ]
        },
        {
            "positions": [
                -1.8206106724983293,
                -1.1646891806483182,
                -0.15034224682202246,
                -0.3648218260192684,
                0.12302941763544656,
                -1.0770089582304525
            ]
        },
        {
            "positions": [
                -1.741578533605129,
                -1.1846635109551191,
                -0.22719968325765938,
                -0.4180189392419771,
                0.10969241498182439,
                -0.9315048805349118
            ]
        },
        {
            "positions": [
                -1.6625463947119288,
                -1.2046378412619199,
                -0.3040571196932965,
                -0.4712160524646859,
                0.09635541232820219,
                -0.7860008028393706
            ]
        },
        {
            "positions": [
                -1.5835142558187285,
                -1.2246121715687206,
                -0.38091455612893366,
                -0.5244131656873946,
                0.08301840967457996,
                -0.6404967251438296
            ]
        },
        {
            "positions": [
                -1.504482116925528,
                -1.2445865018755213,
                -0.4577719925645706,
                -0.5776102789101034,
                0.06968140702095776,
                -0.4949926474482882
            ]
        },
        {
            "positions": [
                -1.4254499780323278,
                -1.264560832182322,
                -0.5346294290002077,
                -0.6308073921328122,
                0.056344404367335565,
                -0.3494885697527472
            ]
        },
        {
            "positions": [
                -1.3464178391391275,
                -1.284535162489123,
                -0.6114868654358449,
                -0.684004505355521,
                0.04300740171371337,
                -0.20398449205720626
            ]
        },
        {
            "positions": [
                -1.267385700245927,
                -1.3045094927959235,
                -0.6883443018714818,
                -0.7372016185782297,
                0.029670399060091168,
                -0.058480414361664845
            ]
        },
        {
            "positions": [
                -1.1883535613527267,
                -1.3244838231027245,
                -0.7652017383071189,
                -0.7903987318009387,
                0.01633339640646897,
                0.08702366333387612
            ]
        },
        {
            "positions": [
                -1.1093214224595265,
                -1.3444581534095252,
                -0.842059174742756,
                -0.8435958450236474,
                0.002996393752846771,
                0.2325277410294171
            ]
        },
        {
            "positions": [
                -1.030289283566326,
                -1.364432483716326,
                -0.9189166111783932,
                -0.8967929582463561,
                -0.010340608900775483,
                0.3780318187249585
            ]
        },
        {
            "positions": [
                -0.9512571446731257,
                -1.3844068140231267,
                -0.9957740476140301,
                -0.949990071469065,
                -0.02367761155439768,
                0.5235358964204995
            ]
        },
        {
            "positions": [
                -0.8722250057799252,
                -1.4043811443299274,
                -1.0726314840496673,
                -1.0031871846917737,
                -0.03701461420801988,
                0.6690399741160409
            ]
        },
        {
            "positions": [
                -0.793192866886725,
                -1.4243554746367284,
                -1.1494889204853043,
                -1.0563842979144826,
                -0.05035161686164208,
                0.8145440518115818
            ]
        },
        {
            "positions": [
                -0.7141607279935247,
                -1.444329804943529,
                -1.2263463569209412,
                -1.109581411137191,
                -0.06368861951526422,
                0.9600481295071224
            ]
        },
        {
            "positions": [
                -0.6351285891003244,
                -1.4643041352503299,
                -1.303203793356578,
                -1.1627785243598998,
                -0.07702562216888642,
                1.1055522072026633
            ]
        },
        {
            "positions": [
                -0.5560964502071242,
                -1.4842784655571306,
                -1.3800612297922155,
                -1.2159756375826087,
                -0.09036262482250862,
                1.2510562848982048
            ]
        },
        {
            "positions": [
                -0.4770643113139239,
                -1.5042527958639313,
                -1.4569186662278524,
                -1.2691727508053174,
                -0.10369962747613082,
                1.3965603625937462
            ]
        },
        {
            "positions": [
                -0.39803217242072364,
                -1.5242271261707323,
                -1.5337761026634897,
                -1.3223698640280261,
                -0.11703663012975307,
                1.5420644402892867
            ]
        },
        {
            "positions": [
                -0.3190000335275234,
                -1.5442014564775328,
                -1.6106335390991267,
                -1.375566977250735,
                -0.13037363278337527,
                1.687568517984828
            ]
        },
        {
            "positions": [
                -0.23996789463432266,
                -1.5641757867843338,
                -1.6874909755347636,
                -1.4287640904734438,
                -0.14371063543699747,
                1.8330725956803695
            ]
        },
        {
            "positions": [
                -0.1609357557411224,
                -1.5841501170911345,
                -1.764348411970401,
                -1.4819612036961527,
                -0.15704763809061967,
                1.97857667337591
            ]
        },
        {
            "positions": [
                -0.08190361684792212,
                -1.6041244473979352,
                -1.8412058484060376,
                -1.5351583169188614,
                -0.17038464074424187,
                2.124080751071451
            ]
        },
        {
            "positions": [
                -0.06414354319289357,
                -1.6021510056753987,
                -1.9530833456963828,
                -1.5533530693844382,
                -0.1860952202879118,
                2.2674380859587084
            ]
        },
        {
            "positions": [
                -0.04638346953786503,
                -1.6001775639528621,
                -2.0649608429867277,
                -1.571547821850015,
                -0.20180579983158176,
                2.410795420845966
            ]
        },
        {
            "positions": [
                -0.02862339588283648,
                -1.5982041222303254,
                -2.176838340277073,
                -1.5897425743155915,
                -0.21751637937525167,
                2.5541527557332233
            ]
        },
        {
            "positions": [
                -0.010863322227807937,
                -1.5962306805077888,
                -2.288715837567418,
                -1.6079373267811683,
                -0.23322695891892162,
                2.6975100906204807
            ]
        },
        {
            "positions": [
                -0.032575772707503024,
                -1.6188524969505826,
                -2.3428573605632805,
                -1.7066457076425274,
                -0.2316400215432312,
                2.824090755026199
            ]
        },
        {
            "positions": [
                -0.054288223187198115,
                -1.6414743133933762,
                -2.396998883559143,
                -1.8053540885038866,
                -0.2300530841675408,
                2.950671419431917
            ]
        },
        {
            "positions": [
                -0.0760006736668932,
                -1.66409612983617,
                -2.4511404065550058,
                -1.9040624693652457,
                -0.2284661467918504,
                3.077252083837635
            ]
        },
        {
            "positions": [
                -0.13123195547164862,
                -1.7040727544657444,
                -2.408537761219762,
                -2.0321164627076866,
                -0.20404998877479302,
                3.104582074427834
            ]
        },
        {
            "positions": [
                -0.18646323727640407,
                -1.7440493790953187,
                -2.3659351158845183,
                -2.160170456050128,
                -0.17963383075773562,
                3.1319120650180325
            ]
        }
    ]
}