{
    "goal": {
        "global_pose": {
            "orientation": {
                "w": 0.7031023502349854,
                "x": -0.7110244035720825,
                "y": 0.007748599164187908,
                "z": 0.005598929710686207
            },
            "position": {
                "x": 0.11585023208521307,
                "y": 0.44412534475326537,
                "z": 0.3711530566215515
            }
        },
        "name": "move_to_auspresseinheit_A"
    },
    "id": "LazyPRM_move_to_auspresseinheit_A_129",
    "joint_names": [
        "shoulder_pan_joint",
        "shoulder_lift_joint",
        "elbow_joint",
        "wrist_1_joint",
        "wrist_2_joint",
        "wrist_3_joint"
    ],
    "metrics": {
        "cart_traj_len": 0.6589171922017067,
        "distance_elbow_joint": 0.24499624857629687,
        "distance_shoulder_lift_joint": 0.5373233639882549,
        "distance_shoulder_pan_joint": 1.0428376250619529,
        "distance_wrist_1_joint": 0.5483169478026019,
        "distance_wrist_2_joint": 0.9432764451802997,
        "distance_wrist_3_joint": 0.8542666689174658,
        "smoothness": 0.9171497809564233,
        "time": 0.06818077,
        "traj_len": 2.042306857337279,
        "weighted_distance": 2.714985088420322
    },
    "planner": "LazyPRM",
    "start": {
        "state": {
            "elbow_joint": 2.4225746658250005,
            "shoulder_lift_joint": -1.3736534386056498,
            "shoulder_pan_joint": -0.3378633547517467,
            "wrist_1_joint": -1.0288598680537169,
            "wrist_2_joint": 1.233022673432363,
            "wrist_3_joint": -3.0940220416140027
        }
    },
    "waypoints": [
        {
            "positions": [
                -0.3378633547517467,
                -1.3736534386056498,
                2.4225746658250005,
                -1.0288598680537169,
                1.233022673432363,
                -3.0940220416140027
            ]
        },
        {
            "positions": [
                -0.30372727242030184,
                -1.415774747928646,
                2.440791190831974,
                -0.9805997808851071,
                1.1103527355452292,
                -3.025352343575987
            ]
        },
        {
            "positions": [
                -0.26959119008885696,
                -1.457896057251642,
                2.459007715838948,
                -0.9323396937164973,
                0.9876827976580954,
                -2.9566826455379713
            ]
        },
        {
            "positions": [
                -0.23545510775741207,
                -1.5000173665746381,
                2.4772242408459215,
                -0.8840796065478875,
                0.8650128597709615,
                -2.8880129474999556
            ]
        },
        {
            "positions": [
                -0.20131902542596722,
                -1.5421386758976343,
                2.4954407658528956,
                -0.8358195193792778,
                0.7423429218838278,
                -2.81934324946194
            ]
        },
        {
            "positions": [
                -0.16718294309452233,
                -1.5842599852206303,
                2.5136572908598693,
                -0.7875594322106679,
                0.6196729839966938,
                -2.7506735514239242
            ]
        },
        {
            "positions": [
                -0.13304686076307745,
                -1.6263812945436265,
                2.531873815866843,
                -0.7392993450420582,
                0.49700304610956003,
                -2.6820038533859085
            ]
        },
        {
            "positions": [
                0.006623327749136487,
                -1.6738138792186728,
                2.5092576327777674,
                -0.6961732742435677,
                0.5315458490858095,
                -2.7557119335008036
            ]
        },
        {
            "positions": [
                0.14629351626135043,
                -1.7212464638937193,
                2.4866414496886917,
                -0.6530472034450772,
                0.5660886520620589,
                -2.829420013615699
            ]
        },
        {
            "positions": [
                0.28596370477356436,
                -1.7686790485687656,
                2.4640252665996156,
                -0.6099211326465865,
                0.6006314550383084,
                -2.9031280937305945
            ]
        },
        {
            "positions": [
                0.4256338932857783,
                -1.8161116332438119,
                2.44140908351054,
                -0.5667950618480961,
                0.6351742580145578,
                -2.9768361738454896
            ]
        },
        {
            "positions": [
                0.5653040817979923,
                -1.8635442179188584,
                2.4187929004214643,
                -0.5236689910496055,
                0.6697170609908073,
                -3.0505442539603846
            ]
        },
        {
            "positions": [
                0.7049742703102062,
                -1.9109768025939047,
                2.3961767173323887,
                -0.480542920251115,
                0.7042598639670568,
                -3.12425233407528
            ]
        }
    ]
}