{
    "goal": {
        "global_pose": {
            "orientation": {
                "w": 0.7047431493862688,
                "x": -0.7094548369677653,
                "y": 0.0024358444001904,
                "z": -0.0022348060817251984
            },
            "position": {
                "x": -0.39052492380142206,
                "y": 0.3671506643295288,
                "z": 0.19426114857196808
            }
        },
        "name": "move_to_magneteinheit_D"
    },
    "id": "LazyPRMstar_move_to_magneteinheit_D_53",
    "joint_names": [
        "shoulder_pan_joint",
        "shoulder_lift_joint",
        "elbow_joint",
        "wrist_1_joint",
        "wrist_2_joint",
        "wrist_3_joint"
    ],
    "metrics": {
        "cart_traj_len": 3.5339534764675404,
        "distance_elbow_joint": 3.1245309561719927,
        "distance_shoulder_lift_joint": 1.6336703239660528,
        "distance_shoulder_pan_joint": 2.6869759297846216,
        "distance_wrist_1_joint": 3.8009783706398323,
        "distance_wrist_2_joint": 0.7620577016163215,
        "distance_wrist_3_joint": 3.1479392488163063,
        "smoothness": 0.25942450677811485,
        "time": 5.061316624,
        "traj_len": 3.893090357414676,
        "weighted_distance": 5.100496750404207
    },
    "planner": "LazyPRMstar",
    "start": {
        "state": {
            "elbow_joint": 0.749534889911806,
            "shoulder_lift_joint": -0.6476975780787326,
            "shoulder_pan_joint": -2.711696901376241,
            "wrist_1_joint": -0.07506478083263063,
            "wrist_2_joint": 0.43296659715538205,
            "wrist_3_joint": -3.14703540197715
        }
    },
    "waypoints": [
        {
            "positions": [
                -2.711696901376241,
                -0.6476975780787326,
                0.749534889911806,
                -0.07506478083263063,
                0.43296659715538205,
                -3.14703540197715
            ]
        },
        {
            "positions": [
                -2.7024841280518936,
                -0.6911595527360461,
                0.4568653664480084,
                -0.07907313064577298,
                0.4259215961030905,
                -3.1243671713952708
            ]
        },
        {
            "positions": [
                -2.60521857223025,
                -0.7180055557455728,
                0.3349079856128717,
                0.0036404793182740897,
                0.4398582263848615,
                -3.0731934713736435
            ]
        },
        {
            "positions": [
                -2.5079530164086066,
                -0.7448515587550995,
                0.21295060477773506,
                0.08635408928232116,
                0.45379485666663255,
                -3.022019771352016
            ]
        },
        {
            "positions": [
                -2.4106874605869635,
                -0.7716975617646261,
                0.0909932239425984,
                0.16906769924636822,
                0.46773148694840355,
                -2.9708460713303886
            ]
        },
        {
            "positions": [
                -2.31342190476532,
                -0.7985435647741528,
                -0.030964156892538286,
                0.2517813092104153,
                0.48166811723017455,
                -2.9196723713087613
            ]
        },
        {
            "positions": [
                -2.2161563489436764,
                -0.8253895677836796,
                -0.15292153772767497,
                0.3344949191744624,
                0.4956047475119456,
                -2.8684986712871337
            ]
        },
        {
            "positions": [
                -2.118890793122033,
                -0.8522355707932061,
                -0.2748789185628116,
                0.4172085291385094,
                0.5095413777937166,
                -2.8173249712655064
            ]
        },
        {
            "positions": [
                -2.0216252373003893,
                -0.8790815738027329,
                -0.39683629939794834,
                0.4999221391025565,
                0.5234780080754876,
                -2.766151271243879
            ]
        },
        {
            "positions": [
                -1.9243596814787463,
                -0.9059275768122595,
                -0.518793680233085,
                0.5826357490666036,
                0.5374146383572587,
                -2.7149775712222515
            ]
        },
        {
            "positions": [
                -1.8270941256571027,
                -0.9327735798217862,
                -0.6407510610682217,
                0.6653493590306507,
                0.5513512686390296,
                -2.6638038712006242
            ]
        },
        {
            "positions": [
                -1.7298285698354592,
                -0.9596195828313129,
                -0.7627084419033583,
                0.7480629689946978,
                0.5652878989208007,
                -2.6126301711789965
            ]
        },
        {
            "positions": [
                -1.6325630140138156,
                -0.9864655858408395,
                -0.8846658227384951,
                0.8307765789587449,
                0.5792245292025717,
                -2.5614564711573693
            ]
        },
        {
            "positions": [
                -1.5352974581921723,
                -1.013311588850366,
                -1.0066232035736316,
                0.9134901889227918,
                0.5931611594843427,
                -2.510282771135742
            ]
        },
        {
            "positions": [
                -1.4380319023705288,
                -1.0401575918598929,
                -1.1285805844087684,
                0.9962037988868389,
                0.6070977897661137,
                -2.459109071114115
            ]
        },
        {
            "positions": [
                -1.3407663465488853,
                -1.0670035948694196,
                -1.250537965243905,
                1.078917408850886,
                0.6210344200478848,
                -2.407935371092487
            ]
        },
        {
            "positions": [
                -1.243500790727242,
                -1.0938495978789464,
                -1.3724953460790419,
                1.161631018814933,
                0.6349710503296557,
                -2.35676167107086
            ]
        },
        {
            "positions": [
                -1.1462352349055986,
                -1.120695600888473,
                -1.4944527269141783,
                1.24434462877898,
                0.6489076806114267,
                -2.3055879710492326
            ]
        },
        {
            "positions": [
                -1.048969679083955,
                -1.1475416038979995,
                -1.616410107749315,
                1.3270582387430272,
                0.6628443108931977,
                -2.2544142710276054
            ]
        },
        {
            "positions": [
                -0.9517041232623116,
                -1.1743876069075263,
                -1.7383674885844518,
                1.4097718487070743,
                0.6767809411749688,
                -2.2032405710059777
            ]
        },
        {
            "positions": [
                -0.8670866989713848,
                -1.2122262534112345,
                -1.8000089229950307,
                1.5306908719042258,
                0.6720673838926859,
                -2.144986684555154
            ]
        },
        {
            "positions": [
                -0.782469274680458,
                -1.2500648999149426,
                -1.8616503574056096,
                1.6516098951013773,
                0.6673538266104032,
                -2.0867327981043307
            ]
        },
        {
            "positions": [
                -0.6978518503895312,
                -1.287903546418651,
                -1.9232917918161883,
                1.7725289182985289,
                0.6626402693281204,
                -2.0284789116535076
            ]
        },
        {
            "positions": [
                -0.6132344260986045,
                -1.3257421929223592,
                -1.9849332262267672,
                1.8934479414956806,
                0.6579267120458376,
                -1.970225025202684
            ]
        },
        {
            "positions": [
                -0.5286170018076777,
                -1.3635808394260673,
                -2.0465746606373463,
                2.014366964692832,
                0.6532131547635548,
                -1.9119711387518605
            ]
        },
        {
            "positions": [
                -0.4439995775167509,
                -1.4014194859297755,
                -2.1082160950479247,
                2.1352859878899837,
                0.648499597481272,
                -1.8537172523010372
            ]
        },
        {
            "positions": [
                -0.3593821532258241,
                -1.4392581324334837,
                -2.1698575294585036,
                2.2562050110871352,
                0.6437860401989892,
                -1.795463365850214
            ]
        },
        {
            "positions": [
                -0.27476472893489734,
                -1.477096778937192,
                -2.2314989638690825,
                2.3771240342842868,
                0.6390724829167064,
                -1.7372094793993904
            ]
        },
        {
            "positions": [
                -0.19014730464397056,
                -1.5149354254409002,
                -2.2931403982796614,
                2.4980430574814383,
                0.6343589256344236,
                -1.6789555929485669
            ]
        },
        {
            "positions": [
                -0.10552988035304384,
                -1.5527740719446084,
                -2.3547818326902403,
                2.61896208067859,
                0.6296453683521408,
                -1.6207017064977436
            ]
        },
        {
            "positions": [
                -0.11202931166522156,
                -1.6182980271908025,
                -2.3567690423525725,
                2.5225278612659867,
                0.5886267831492265,
                -1.4753781537778272
            ]
        },
        {
            "positions": [
                -0.1185287429773993,
                -1.6838219824369964,
                -2.358756252014905,
                2.4260936418533836,
                0.5476081979463122,
                -1.330054601057911
            ]
        },
        {
            "positions": [
                -0.12502817428957705,
                -1.7493459376831906,
                -2.360743461677237,
                2.3296594224407805,
                0.506589612743398,
                -1.1847310483379947
            ]
        },
        {
            "positions": [
                -0.13152760560175478,
                -1.8148698929293845,
                -2.3627306713395693,
                2.2332252030281774,
                0.46557102754048363,
                -1.0394074956180783
            ]
        },
        {
            "positions": [
                -0.1380270369139325,
                -1.8803938481755786,
                -2.3647178810019014,
                2.1367909836155743,
                0.42455244233756934,
                -0.8940839428981621
            ]
        },
        {
            "positions": [
                -0.14452646822611023,
                -1.9459178034217728,
                -2.366705090664234,
                2.040356764202971,
                0.38353385713465504,
                -0.7487603901782458
            ]
        },
        {
            "positions": [
                -0.15102589953828796,
                -2.0114417586679667,
                -2.368692300326566,
                1.943922544790368,
                0.34251527193174075,
                -0.6034368374583294
            ]
        },
        {
            "positions": [
                -0.15752533085046572,
                -2.076965713914161,
                -2.370679509988898,
                1.847488325377765,
                0.30149668672882646,
                -0.45811328473841306
            ]
        },
        {
            "positions": [
                -0.16402476216264344,
                -2.142489669160355,
                -2.3726667196512308,
                1.7510541059651619,
                0.26047810152591216,
                -0.3127897320184969
            ]
        },
        {
            "positions": [
                -0.17052419347482117,
                -2.208013624406549,
                -2.374653929313563,
                1.6546198865525588,
                0.21945951632299784,
                -0.1674661792985806
            ]
        },
        {
            "positions": [
                -0.1784314912946452,
                -2.244690763225667,
                -2.3744828608402506,
                1.5873235788644107,
                0.19604355100290757,
                -0.08328116622971235
            ]
        },
        {
            "positions": [
                -0.1863387891144692,
                -2.2813679020447855,
                -2.3743117923669383,
                1.5200272711762628,
                0.1726275856828173,
                0.0009038468391559064
            ]
        }
    ]
}