{
    "goal": {
        "global_pose": {
            "orientation": {
                "w": 0.005598929693374612,
                "x": 0.007748599140229565,
                "y": 0.7110244013736278,
                "z": -0.7031023480610252
            },
            "position": {
                "x": -0.8858502320852131,
                "y": -0.7141253447532654,
                "z": 0.3711530566215515
            }
        },
        "name": "move_to_auspresseinheit_C"
    },
    "id": "LazyPRMstar_move_to_auspresseinheit_C_65",
    "joint_names": [
        "shoulder_pan_joint",
        "shoulder_lift_joint",
        "elbow_joint",
        "wrist_1_joint",
        "wrist_2_joint",
        "wrist_3_joint"
    ],
    "metrics": {
        "cart_traj_len": 0.4941328143855138,
        "distance_elbow_joint": 1.020344124377826,
        "distance_shoulder_lift_joint": 0.334053466825753,
        "distance_shoulder_pan_joint": 0.25542432640438006,
        "distance_wrist_1_joint": 0.7175014033393347,
        "distance_wrist_2_joint": 1.3209618630582203,
        "distance_wrist_3_joint": 0.07884428573132807,
        "smoothness": 6.459479416000911e-16,
        "time": 5.0013714910000004,
        "traj_len": 1.9305774964338627,
        "weighted_distance": 2.433779223265137
    },
    "planner": "LazyPRMstar",
    "start": {
        "state": {
            "elbow_joint": 1.7527959577737207,
            "shoulder_lift_joint": -0.9740617694225068,
            "shoulder_pan_joint": -2.967991417825858,
            "wrist_1_joint": -0.759517768980727,
            "wrist_2_joint": 1.7443932448377408,
            "wrist_3_joint": -3.0840537646736568
        }
    },
    "waypoints": [
        {
            "positions": [
                -2.967991417825858,
                -0.9740617694225068,
                1.7527959577737207,
                -0.759517768980727,
                1.7443932448377408,
                -3.0840537646736568
            ]
        },
        {
            "positions": [
                -2.94244898518542,
                -0.9406564227399314,
                1.650761545335938,
                -0.6877676286467935,
                1.6122970585319187,
                -3.0919381932467895
            ]
        },
        {
            "positions": [
                -2.9169065525449818,
                -0.9072510760573562,
                1.5487271328981556,
                -0.6160174883128601,
                1.4802008722260966,
                -3.0998226218199223
            ]
        },
        {
            "positions": [
                -2.891364119904544,
                -0.8738457293747809,
                1.4466927204603728,
                -0.5442673479789266,
                1.3481046859202748,
                -3.107707050393055
            ]
        },
        {
            "positions": [
                -2.865821687264106,
                -0.8404403826922056,
                1.3446583080225902,
                -0.4725172076449931,
                1.2160084996144527,
                -3.115591478966188
            ]
        },
        {
            "positions": [
                -2.8402792546236677,
                -0.8070350360096303,
                1.2426238955848077,
                -0.40076706731105965,
                1.0839123133086308,
                -3.123475907539321
            ]
        },
        {
            "positions": [
                -2.81473682198323,
                -0.773629689327055,
                1.1405894831470251,
                -0.3290169269771262,
                0.9518161270028087,
                -3.131360336112454
            ]
        },
        {
            "positions": [
                -2.789194389342792,
                -0.7402243426444797,
                1.0385550707092426,
                -0.2572667866431928,
                0.8197199406969867,
                -3.1392447646855866
            ]
        },
        {
            "positions": [
                -2.763651956702354,
                -0.7068189959619045,
                0.9365206582714598,
                -0.18551664630925924,
                0.6876237543911645,
                -3.1471291932587193
            ]
        },
        {
            "positions": [
                -2.7381095240619158,
                -0.673413649279329,
                0.8344862458336773,
                -0.11376650597532578,
                0.5555275680853426,
                -3.155013621831852
            ]
        },
        {
            "positions": [
                -2.712567091421478,
                -0.6400083025967538,
                0.7324518333958947,
                -0.04201636564139234,
                0.42343138177952055,
                -3.162898050404985
            ]
        }
    ]
}