{
    "goal": {
        "global_pose": {
            "orientation": {
                "w": -0.00223480608172531,
                "x": 0.0024358444001904467,
                "y": 0.7094548369677653,
                "z": -0.704743149386269
            },
            "position": {
                "x": -0.37947507619857795,
                "y": -0.6371506643295288,
                "z": 0.19426114857196808
            }
        },
        "name": "move_to_magneteinheit_C"
    },
    "id": "LazyPRM_move_to_magneteinheit_C_75",
    "joint_names": [
        "shoulder_pan_joint",
        "shoulder_lift_joint",
        "elbow_joint",
        "wrist_1_joint",
        "wrist_2_joint",
        "wrist_3_joint"
    ],
    "metrics": {
        "cart_traj_len": 1.1324198924751925,
        "distance_elbow_joint": 0.2809896832601484,
        "distance_shoulder_lift_joint": 0.9311225958685085,
        "distance_shoulder_pan_joint": 1.1690546618033777,
        "distance_wrist_1_joint": 1.1369366675512511,
        "distance_wrist_2_joint": 1.1853179084406769,
        "distance_wrist_3_joint": 1.6627087120460136,
        "smoothness": 0.6395106205967617,
        "time": 0.072772558,
        "traj_len": 2.5231191468042047,
        "weighted_distance": 3.4660932227875714
    },
    "planner": "LazyPRM",
    "start": {
        "state": {
            "elbow_joint": 1.9565354010623817,
            "shoulder_lift_joint": -1.4165861575791021,
            "shoulder_pan_joint": -1.6717766225146293,
            "wrist_1_joint": -0.5286633292919765,
            "wrist_2_joint": 1.472756589071564,
            "wrist_3_joint": -3.1238370188695823
        }
    },
    "waypoints": [
        {
            "positions": [
                -1.6717766225146293,
                -1.4165861575791021,
                1.9565354010623817,
                -0.5286633292919765,
                1.472756589071564,
                -3.1238370188695823
            ]
        },
        {
            "positions": [
                -1.6255041943826751,
                -1.4549806875208824,
                2.021434267042028,
                -0.6226600393533028,
                1.419302838115966,
                -3.0852671315723734
            ]
        },
        {
            "positions": [
                -1.5792317662507207,
                -1.4933752174626627,
                2.086333133021675,
                -0.7166567494146292,
                1.3658490871603681,
                -3.0466972442751645
            ]
        },
        {
            "positions": [
                -1.6358808752824876,
                -1.5370476789545129,
                2.092626306707108,
                -0.8059615125697762,
                1.2873183827081798,
                -2.945491951281041
            ]
        },
        {
            "positions": [
                -1.6925299843142543,
                -1.580720140446363,
                2.0989194803925413,
                -0.8952662757249232,
                1.2087876782559914,
                -2.8442866582869173
            ]
        },
        {
            "positions": [
                -1.7491790933460212,
                -1.6243926019382133,
                2.1052126540779743,
                -0.9845710388800702,
                1.1302569738038029,
                -2.7430813652927934
            ]
        },
        {
            "positions": [
                -1.805828202377788,
                -1.6680650634300636,
                2.1115058277634073,
                -1.0738758020352173,
                1.0517262693516145,
                -2.64187607229867
            ]
        },
        {
            "positions": [
                -1.8624773114095547,
                -1.7117375249219138,
                2.117799001448841,
                -1.1631805651903644,
                0.9731955648994262,
                -2.5406707793045467
            ]
        },
        {
            "positions": [
                -1.9191264204413216,
                -1.755409986413764,
                2.124092175134274,
                -1.2524853283455113,
                0.8946648604472377,
                -2.439465486310423
            ]
        },
        {
            "positions": [
                -2.080582826002842,
                -1.7420360145947391,
                2.1083221931897973,
                -1.2533094143034438,
                0.790006896556338,
                -2.40393787477947
            ]
        },
        {
            "positions": [
                -2.2420392315643625,
                -1.7286620427757142,
                2.092552211245321,
                -1.2541335002613763,
                0.6853489326654384,
                -2.368410263248517
            ]
        },
        {
            "positions": [
                -2.403495637125883,
                -1.7152880709566893,
                2.0767822293008447,
                -1.254957586219309,
                0.5806909687745387,
                -2.3328826517175645
            ]
        },
        {
            "positions": [
                -2.5649520426874033,
                -1.7019140991376644,
                2.061012247356368,
                -1.2557816721772415,
                0.47603300488363903,
                -2.297355040186612
            ]
        },
        {
            "positions": [
                -2.5600985845899182,
                -1.6220518066375633,
                2.0529666910507096,
                -1.1933986383662156,
                0.49857819112354523,
                -2.4192507257694955
            ]
        },
        {
            "positions": [
                -2.555245126492433,
                -1.5421895141374624,
                2.044921134745051,
                -1.13101560455519,
                0.5211233773634515,
                -2.541146411352379
            ]
        },
        {
            "positions": [
                -2.550391668394948,
                -1.4623272216373613,
                2.0368755784393926,
                -1.0686325707441644,
                0.5436685636033577,
                -2.663042096935263
            ]
        },
        {
            "positions": [
                -2.545538210297463,
                -1.3824649291372602,
                2.028830022133734,
                -1.0062495369331386,
                0.5662137498432639,
                -2.7849377825181465
            ]
        },
        {
            "positions": [
                -2.521746311393181,
                -1.3093470258848126,
                2.022773103404495,
                -0.952820807125844,
                0.5990182762743064,
                -2.901152446195316
            ]
        },
        {
            "positions": [
                -2.497954412488899,
                -1.236229122632365,
                2.0167161846752566,
                -0.8993920773185495,
                0.6318228027053487,
                -3.0173671098724855
            ]
        },
        {
            "positions": [
                -2.474162513584617,
                -1.1631112193799173,
                2.0106592659460176,
                -0.845963347511255,
                0.6646273291363912,
                -3.133581773549655
            ]
        }
    ]
}