{
    "goal": {
        "global_pose": {
            "orientation": {
                "w": 0.005598929693374612,
                "x": 0.007748599140229565,
                "y": 0.7110244013736278,
                "z": -0.7031023480610252
            },
            "position": {
                "x": -0.8858502320852131,
                "y": -0.7141253447532654,
                "z": 0.3711530566215515
            }
        },
        "name": "move_to_auspresseinheit_C"
    },
    "id": "LazyPRM_move_to_auspresseinheit_C_41",
    "joint_names": [
        "shoulder_pan_joint",
        "shoulder_lift_joint",
        "elbow_joint",
        "wrist_1_joint",
        "wrist_2_joint",
        "wrist_3_joint"
    ],
    "metrics": {
        "cart_traj_len": 0.49301637191311587,
        "distance_elbow_joint": 0.997430200615185,
        "distance_shoulder_lift_joint": 0.3243282381895951,
        "distance_shoulder_pan_joint": 0.25562693409660975,
        "distance_wrist_1_joint": 0.6609655153585025,
        "distance_wrist_2_joint": 1.3215419058737634,
        "distance_wrist_3_joint": 0.037825151830332526,
        "smoothness": 9.689219149575435e-16,
        "time": 0.022633108,
        "traj_len": 1.8967651267260235,
        "weighted_distance": 2.3782085002911164
    },
    "planner": "LazyPRM",
    "start": {
        "state": {
            "elbow_joint": 1.7527959577737207,
            "shoulder_lift_joint": -0.9740617694225068,
            "shoulder_pan_joint": -2.967991417825858,
            "wrist_1_joint": -0.759517768980727,
            "wrist_2_joint": 1.7443932448377408,
            "wrist_3_joint": -3.0840537646736568
        }
    },
    "waypoints": [
        {
            "positions": [
                -2.967991417825858,
                -0.9740617694225068,
                1.7527959577737207,
                -0.759517768980727,
                1.7443932448377408,
                -3.0840537646736568
            ]
        },
        {
            "positions": [
                -2.942428724416197,
                -0.9416289456035473,
                1.653052937712202,
                -0.6934212174448767,
                1.6122390542503644,
                -3.08783627985669
            ]
        },
        {
            "positions": [
                -2.916866031006536,
                -0.9091961217845878,
                1.5533099176506837,
                -0.6273246659090265,
                1.4800848636629882,
                -3.0916187950397234
            ]
        },
        {
            "positions": [
                -2.891303337596875,
                -0.8767632979656282,
                1.4535668975891651,
                -0.5612281143731762,
                1.3479306730756118,
                -3.0954013102227567
            ]
        },
        {
            "positions": [
                -2.865740644187214,
                -0.8443304741466687,
                1.3538238775276468,
                -0.495131562837326,
                1.2157764824882356,
                -3.09918382540579
            ]
        },
        {
            "positions": [
                -2.8401779507775533,
                -0.8118976503277092,
                1.2540808574661282,
                -0.42903501130147575,
                1.0836222919008591,
                -3.1029663405888233
            ]
        },
        {
            "positions": [
                -2.814615257367892,
                -0.7794648265087497,
                1.1543378374046096,
                -0.3629384597656255,
                0.9514681013134828,
                -3.106748855771856
            ]
        },
        {
            "positions": [
                -2.789052563958231,
                -0.7470320026897902,
                1.0545948173430912,
                -0.2968419082297753,
                0.8193139107261065,
                -3.1105313709548894
            ]
        },
        {
            "positions": [
                -2.76348987054857,
                -0.7145991788708307,
                0.9548517972815727,
                -0.23074535669392504,
                0.6871597201387301,
                -3.1143138861379227
            ]
        },
        {
            "positions": [
                -2.7379271771389093,
                -0.6821663550518712,
                0.8551087772200542,
                -0.16464880515807478,
                0.5550055295513536,
                -3.118096401320956
            ]
        },
        {
            "positions": [
                -2.712364483729248,
                -0.6497335312329117,
                0.7553657571585357,
                -0.09855225362222454,
                0.42285133896397736,
                -3.1218789165039893
            ]
        }
    ]
}