{
    "goal": {
        "global_pose": {
            "orientation": {
                "w": 0.7031023502349854,
                "x": -0.7110244035720825,
                "y": 0.007748599164187908,
                "z": 0.005598929710686207
            },
            "position": {
                "x": 0.11585023208521307,
                "y": 0.44412534475326537,
                "z": 0.3711530566215515
            }
        },
        "name": "move_to_auspresseinheit_A"
    },
    "id": "LazyPRMstar_move_to_auspresseinheit_A_142",
    "joint_names": [
        "shoulder_pan_joint",
        "shoulder_lift_joint",
        "elbow_joint",
        "wrist_1_joint",
        "wrist_2_joint",
        "wrist_3_joint"
    ],
    "metrics": {
        "cart_traj_len": 0.6695108048008417,
        "distance_elbow_joint": 0.11576783923609746,
        "distance_shoulder_lift_joint": 0.5368121983271081,
        "distance_shoulder_pan_joint": 1.0451478189008987,
        "distance_wrist_1_joint": 2.036950445152133,
        "distance_wrist_2_joint": 1.0433354626915698,
        "distance_wrist_3_joint": 0.046436057270911046,
        "smoothness": 1.442613848362081,
        "time": 5.0084855589999995,
        "traj_len": 2.1964630253156363,
        "weighted_distance": 2.8280042156906773
    },
    "planner": "LazyPRMstar",
    "start": {
        "state": {
            "elbow_joint": 2.4225746658250005,
            "shoulder_lift_joint": -1.3736534386056498,
            "shoulder_pan_joint": -0.3378633547517467,
            "wrist_1_joint": -1.0288598680537169,
            "wrist_2_joint": 1.233022673432363,
            "wrist_3_joint": -3.0940220416140027
        }
    },
    "waypoints": [
        {
            "positions": [
                -0.3378633547517467,
                -1.3736534386056498,
                2.4225746658250005,
                -1.0288598680537169,
                1.233022673432363,
                -3.0940220416140027
            ]
        },
        {
            "positions": [
                -0.2721489735520823,
                -1.4204540174054239,
                2.4146152008838713,
                -0.8847593622086851,
                1.146522242212619,
                -3.097197262111476
            ]
        },
        {
            "positions": [
                -0.20643459235241787,
                -1.467254596205198,
                2.4066557359427425,
                -0.7406588563636534,
                1.0600218109928747,
                -3.1003724826089494
            ]
        },
        {
            "positions": [
                -0.14072021115275346,
                -1.514055175004972,
                2.3986962710016133,
                -0.5965583505186216,
                0.9735213797731306,
                -3.1035477031064227
            ]
        },
        {
            "positions": [
                -0.07500582995308902,
                -1.560855753804746,
                2.390736806060484,
                -0.45245784467358974,
                0.8870209485533864,
                -3.106722923603896
            ]
        },
        {
            "positions": [
                -0.00929144875342458,
                -1.6076563326045201,
                2.3827773411193554,
                -0.308357338828558,
                0.8005205173336423,
                -3.1098981441013698
            ]
        },
        {
            "positions": [
                0.056422932446239804,
                -1.6544569114042942,
                2.374817876178226,
                -0.16425683298352622,
                0.7140200861138982,
                -3.113073364598843
            ]
        },
        {
            "positions": [
                0.1221373136459043,
                -1.7012574902040682,
                2.366858411237097,
                -0.020156327138494357,
                0.6275196548941541,
                -3.1162485850963164
            ]
        },
        {
            "positions": [
                0.18785169484556868,
                -1.7480580690038423,
                2.358898946295968,
                0.1239441787065374,
                0.5410192236744099,
                -3.1194238055937897
            ]
        },
        {
            "positions": [
                0.2535660760452332,
                -1.7948586478036164,
                2.350939481354839,
                0.26804468455156905,
                0.45451879245466575,
                -3.122599026091263
            ]
        },
        {
            "positions": [
                0.34430975366601696,
                -1.8179800456294446,
                2.359766012308026,
                0.1200355060421997,
                0.5074851087974402,
                -3.1261708406499933
            ]
        },
        {
            "positions": [
                0.43505343128680074,
                -1.841101443455273,
                2.3685925432612134,
                -0.02797367246716964,
                0.5604514251402147,
                -3.1297426552087235
            ]
        },
        {
            "positions": [
                0.5257971089075846,
                -1.8642228412811013,
                2.3774190742144006,
                -0.17598285097653898,
                0.6134177414829892,
                -3.1333144697674533
            ]
        },
        {
            "positions": [
                0.6165407865283683,
                -1.8873442391069297,
                2.3862456051675878,
                -0.32399202948590833,
                0.6663840578257637,
                -3.1368862843261835
            ]
        },
        {
            "positions": [
                0.7072844641491521,
                -1.910465636932758,
                2.395072136120775,
                -0.4720012079952777,
                0.7193503741685382,
                -3.140458098884914
            ]
        }
    ]
}