{
    "goal": {
        "global_pose": {
            "orientation": {
                "w": -0.00223480608172531,
                "x": 0.0024358444001904467,
                "y": 0.7094548369677653,
                "z": -0.704743149386269
            },
            "position": {
                "x": -0.37947507619857795,
                "y": -0.6371506643295288,
                "z": 0.19426114857196808
            }
        },
        "name": "move_to_magneteinheit_C"
    },
    "id": "LazyPRMstar_move_to_magneteinheit_C_81",
    "joint_names": [
        "shoulder_pan_joint",
        "shoulder_lift_joint",
        "elbow_joint",
        "wrist_1_joint",
        "wrist_2_joint",
        "wrist_3_joint"
    ],
    "metrics": {
        "cart_traj_len": 0.7467402342118618,
        "distance_elbow_joint": 0.9871033214111442,
        "distance_shoulder_lift_joint": 0.6128827772600798,
        "distance_shoulder_pan_joint": 0.9242102294826788,
        "distance_wrist_1_joint": 0.32535837881263785,
        "distance_wrist_2_joint": 0.8012493669472718,
        "distance_wrist_3_joint": 0.390732859958987,
        "smoothness": 1.3054659152922532,
        "time": 5.004428778,
        "traj_len": 2.010357414459628,
        "weighted_distance": 2.4391823219166464
    },
    "planner": "LazyPRMstar",
    "start": {
        "state": {
            "elbow_joint": 1.9565354010623817,
            "shoulder_lift_joint": -1.4165861575791021,
            "shoulder_pan_joint": -1.6717766225146293,
            "wrist_1_joint": -0.5286633292919765,
            "wrist_2_joint": 1.472756589071564,
            "wrist_3_joint": -3.1238370188695823
        }
    },
    "waypoints": [
        {
            "positions": [
                -1.6717766225146293,
                -1.4165861575791021,
                1.9565354010623817,
                -0.5286633292919765,
                1.472756589071564,
                -3.1238370188695823
            ]
        },
        {
            "positions": [
                -1.815677149909521,
                -1.4465444126430305,
                2.0435779754068606,
                -0.5585246164930271,
                1.408947304596684,
                -3.1583694573625976
            ]
        },
        {
            "positions": [
                -1.9595776773044127,
                -1.4765026677069588,
                2.1306205497513395,
                -0.5883859036940777,
                1.3451380201218044,
                -3.1929018958556132
            ]
        },
        {
            "positions": [
                -2.1034782046993046,
                -1.5064609227708874,
                2.2176631240958184,
                -0.6182471908951284,
                1.2813287356469245,
                -3.2274343343486285
            ]
        },
        {
            "positions": [
                -2.2473787320941963,
                -1.5364191778348157,
                2.3047056984402974,
                -0.648108478096179,
                1.2175194511720449,
                -3.2619667728416437
            ]
        },
        {
            "positions": [
                -2.391279259489088,
                -1.566377432898744,
                2.3917482727847763,
                -0.6779697652972296,
                1.1537101666971648,
                -3.2964992113346594
            ]
        },
        {
            "positions": [
                -2.5351797868839796,
                -1.5963356879626724,
                2.4787908471292552,
                -0.7078310524982803,
                1.089900882222285,
                -3.3310316498276746
            ]
        },
        {
            "positions": [
                -2.523018373861314,
                -1.5097090385873706,
                2.3858212720604013,
                -0.7370691836195471,
                1.0062221502026865,
                -3.2943240040274957
            ]
        },
        {
            "positions": [
                -2.510856960838648,
                -1.4230823892120688,
                2.292851696991547,
                -0.7663073147408139,
                0.9225434181830879,
                -3.2576163582273168
            ]
        },
        {
            "positions": [
                -2.4986955478159825,
                -1.336455739836767,
                2.199882121922693,
                -0.7955454458620806,
                0.8388646861634894,
                -3.220908712427138
            ]
        },
        {
            "positions": [
                -2.4865341347933168,
                -1.2498290904614648,
                2.1069125468538386,
                -0.8247835769833475,
                0.7551859541438908,
                -3.184201066626959
            ]
        },
        {
            "positions": [
                -2.474372721770651,
                -1.163202441086163,
                2.0139429717849846,
                -0.8540217081046143,
                0.6715072221242921,
                -3.14749342082678
            ]
        }
    ]
}