{
    "goal": {
        "global_pose": {
            "orientation": {
                "w": 0.005598929693374612,
                "x": 0.007748599140229565,
                "y": 0.7110244013736278,
                "z": -0.7031023480610252
            },
            "position": {
                "x": -0.8858502320852131,
                "y": -0.7141253447532654,
                "z": 0.3711530566215515
            }
        },
        "name": "move_to_auspresseinheit_C"
    },
    "id": "LazyPRM_move_to_auspresseinheit_C_55",
    "joint_names": [
        "shoulder_pan_joint",
        "shoulder_lift_joint",
        "elbow_joint",
        "wrist_1_joint",
        "wrist_2_joint",
        "wrist_3_joint"
    ],
    "metrics": {
        "cart_traj_len": 0.4934603538213791,
        "distance_elbow_joint": 1.0052739640800996,
        "distance_shoulder_lift_joint": 0.327735387301608,
        "distance_shoulder_pan_joint": 0.2572425905353648,
        "distance_wrist_1_joint": 0.6957108786414187,
        "distance_wrist_2_joint": 1.3011743808479892,
        "distance_wrist_3_joint": 0.07159751828444394,
        "smoothness": 9.689219135737367e-16,
        "time": 0.012609486000000001,
        "traj_len": 1.9127819320797979,
        "weighted_distance": 2.4080728842269745
    },
    "planner": "LazyPRM",
    "start": {
        "state": {
            "elbow_joint": 1.7527959577737207,
            "shoulder_lift_joint": -0.9740617694225068,
            "shoulder_pan_joint": -2.967991417825858,
            "wrist_1_joint": -0.759517768980727,
            "wrist_2_joint": 1.7443932448377408,
            "wrist_3_joint": -3.0840537646736568
        }
    },
    "waypoints": [
        {
            "positions": [
                -2.967991417825858,
                -0.9740617694225068,
                1.7527959577737207,
                -0.759517768980727,
                1.7443932448377408,
                -3.0840537646736568
            ]
        },
        {
            "positions": [
                -2.9422671587723217,
                -0.941288230692346,
                1.6522685613657107,
                -0.6899466811165851,
                1.614275806752942,
                -3.0912135165021013
            ]
        },
        {
            "positions": [
                -2.916542899718785,
                -0.9085146919621852,
                1.5517411649577006,
                -0.6203755932524433,
                1.484158368668143,
                -3.0983732683305454
            ]
        },
        {
            "positions": [
                -2.8908186406652483,
                -0.8757411532320244,
                1.4512137685496909,
                -0.5508045053883014,
                1.354040930583344,
                -3.10553302015899
            ]
        },
        {
            "positions": [
                -2.865094381611712,
                -0.8429676145018635,
                1.3506863721416809,
                -0.4812334175241595,
                1.2239234924985452,
                -3.1126927719874344
            ]
        },
        {
            "positions": [
                -2.839370122558176,
                -0.8101940757717028,
                1.2501589757336709,
                -0.41166232966001765,
                1.0938060544137462,
                -3.1198525238158785
            ]
        },
        {
            "positions": [
                -2.813645863504639,
                -0.777420537041542,
                1.149631579325661,
                -0.3420912417958758,
                0.9636886163289473,
                -3.127012275644323
            ]
        },
        {
            "positions": [
                -2.7879216044511024,
                -0.7446469983113811,
                1.049104182917651,
                -0.27252015393173395,
                0.8335711782441485,
                -3.1341720274727676
            ]
        },
        {
            "positions": [
                -2.762197345397566,
                -0.7118734595812204,
                0.948576786509641,
                -0.202949066067592,
                0.7034537401593495,
                -3.141331779301212
            ]
        },
        {
            "positions": [
                -2.73647308634403,
                -0.6790999208510595,
                0.8480493901016309,
                -0.1333779782034502,
                0.5733363020745506,
                -3.148491531129656
            ]
        },
        {
            "positions": [
                -2.710748827290493,
                -0.6463263821208988,
                0.747521993693621,
                -0.06380689033930828,
                0.4432188639897516,
                -3.1556512829581007
            ]
        }
    ]
}