{
    "goal": {
        "global_pose": {
            "orientation": {
                "w": 0.005598929693374612,
                "x": 0.007748599140229565,
                "y": 0.7110244013736278,
                "z": -0.7031023480610252
            },
            "position": {
                "x": 0.1141497679147869,
                "y": -0.7141253447532654,
                "z": 0.3711530566215515
            }
        },
        "name": "move_to_auspresseinheit_B"
    },
    "id": "LazyPRMstar_move_to_auspresseinheit_B_110",
    "joint_names": [
        "shoulder_pan_joint",
        "shoulder_lift_joint",
        "elbow_joint",
        "wrist_1_joint",
        "wrist_2_joint",
        "wrist_3_joint"
    ],
    "metrics": {
        "cart_traj_len": 0.5640720940935088,
        "distance_elbow_joint": 0.060883032613973764,
        "distance_shoulder_lift_joint": 0.2963239690823356,
        "distance_shoulder_pan_joint": 0.5780423785830087,
        "distance_wrist_1_joint": 0.32683056855937387,
        "distance_wrist_2_joint": 0.9872829529030163,
        "distance_wrist_3_joint": 0.002823951540447567,
        "smoothness": 7.612957903237841e-16,
        "time": 5.0002817639999995,
        "traj_len": 1.5007287740568431,
        "weighted_distance": 1.8899598614323643
    },
    "planner": "LazyPRMstar",
    "start": {
        "state": {
            "elbow_joint": 2.0193083361928714,
            "shoulder_lift_joint": -1.1220246554650708,
            "shoulder_pan_joint": -1.0952077554168747,
            "wrist_1_joint": -0.8559753972642168,
            "wrist_2_joint": 0.4759566250798843,
            "wrist_3_joint": -3.1240929996934557
        }
    },
    "waypoints": [
        {
            "positions": [
                -1.0952077554168747,
                -1.1220246554650708,
                2.0193083361928714,
                -0.8559753972642168,
                0.4759566250798843,
                -3.1240929996934557
            ]
        },
        {
            "positions": [
                -1.191548151847376,
                -1.1714119836454602,
                2.0091611640905427,
                -0.8015036358376545,
                0.6405037838970536,
                -3.123622341103381
            ]
        },
        {
            "positions": [
                -1.2878885482778775,
                -1.2207993118258493,
                1.9990139919882135,
                -0.7470318744110922,
                0.805050942714223,
                -3.1231516825133063
            ]
        },
        {
            "positions": [
                -1.3842289447083789,
                -1.2701866400062385,
                1.9888668198858845,
                -0.6925601129845298,
                0.9695981015313924,
                -3.122681023923232
            ]
        },
        {
            "positions": [
                -1.4805693411388803,
                -1.3195739681866279,
                1.9787196477835556,
                -0.6380883515579676,
                1.1341452603485618,
                -3.1222103653331574
            ]
        },
        {
            "positions": [
                -1.576909737569382,
                -1.3689612963670172,
                1.9685724756812266,
                -0.5836165901314052,
                1.2986924191657312,
                -3.1217397067430825
            ]
        },
        {
            "positions": [
                -1.6732501339998833,
                -1.4183486245474064,
                1.9584253035788977,
                -0.5291448287048429,
                1.4632395779829006,
                -3.121269048153008
            ]
        }
    ]
}