{
    "goal": {
        "global_pose": {
            "orientation": {
                "w": 0.5084816262002911,
                "x": -0.4908360881923452,
                "y": 0.5182115481033761,
                "z": -0.48164630358495003
            },
            "position": {
                "x": 0.5540239810943604,
                "y": -0.46912469901144505,
                "z": 0.16403168439865112
            }
        },
        "name": "move_to_storage_B"
    },
    "id": "LazyPRM_move_to_storage_B_16",
    "joint_names": [
        "shoulder_pan_joint",
        "shoulder_lift_joint",
        "elbow_joint",
        "wrist_1_joint",
        "wrist_2_joint",
        "wrist_3_joint"
    ],
    "metrics": {
        "cart_traj_len": 0.6521638569954685,
        "distance_elbow_joint": 0.34990370682117433,
        "distance_shoulder_lift_joint": 0.45864791060545373,
        "distance_shoulder_pan_joint": 0.31280279767466046,
        "distance_wrist_1_joint": 3.020318588208794,
        "distance_wrist_2_joint": 2.703726235250751,
        "distance_wrist_3_joint": 3.20827958247327,
        "smoothness": 0.3029633124435013,
        "time": 0.858035984,
        "traj_len": 3.1707536676686354,
        "weighted_distance": 4.711080853630108
    },
    "planner": "LazyPRM",
    "start": {
        "state": {
            "elbow_joint": 1.664937868594044,
            "shoulder_lift_joint": -0.661644460510453,
            "shoulder_pan_joint": -0.9139846352900073,
            "wrist_1_joint": 2.146753192139373,
            "wrist_2_joint": -2.2341966793290973,
            "wrist_3_joint": 0.005466555786416001
        }
    },
    "waypoints": [
        {
            "positions": [
                -0.9139846352900073,
                -0.661644460510453,
                1.664937868594044,
                2.146753192139373,
                -2.2341966793290973,
                0.005466555786416001
            ]
        },
        {
            "positions": [
                -0.8484302978873071,
                -0.7149977143761199,
                1.6921385891053147,
                2.16449841169979,
                -2.2330045039792608,
                0.04211513837245535
            ]
        },
        {
            "positions": [
                -0.8583202362981854,
                -0.7312095006457114,
                1.7050467085577108,
                2.044395476953855,
                -2.124903141583224,
                -0.0847501016230339
            ]
        },
        {
            "positions": [
                -0.8682101747090639,
                -0.7474212869153029,
                1.717954828010107,
                1.9242925422079196,
                -2.0168017791871877,
                -0.21161534161852313
            ]
        },
        {
            "positions": [
                -0.8781001131199423,
                -0.7636330731848944,
                1.730862947462503,
                1.8041896074619845,
                -1.908700416791151,
                -0.3384805816140124
            ]
        },
        {
            "positions": [
                -0.8879900515308207,
                -0.7798448594544858,
                1.7437710669148991,
                1.6840866727160495,
                -1.8005990543951145,
                -0.4653458216095016
            ]
        },
        {
            "positions": [
                -0.8978799899416992,
                -0.7960566457240773,
                1.7566791863672955,
                1.5639837379701143,
                -1.692497691999078,
                -0.5922110616049909
            ]
        },
        {
            "positions": [
                -0.9077699283525775,
                -0.8122684319936687,
                1.7695873058196916,
                1.4438808032241792,
                -1.5843963296030412,
                -0.7190763016004801
            ]
        },
        {
            "positions": [
                -0.9176598667634559,
                -0.8284802182632602,
                1.7824954252720877,
                1.3237778684782442,
                -1.4762949672070045,
                -0.8459415415959695
            ]
        },
        {
            "positions": [
                -0.9275498051743344,
                -0.8446920045328516,
                1.7954035447244838,
                1.2036749337323092,
                -1.3681936048109682,
                -0.9728067815914585
            ]
        },
        {
            "positions": [
                -0.9374397435852128,
                -0.8609037908024432,
                1.80831166417688,
                1.083571998986374,
                -1.2600922424149315,
                -1.0996720215869478
            ]
        },
        {
            "positions": [
                -0.9473296819960911,
                -0.8771155770720347,
                1.821219783629276,
                0.9634690642404387,
                -1.151990880018895,
                -1.2265372615824373
            ]
        },
        {
            "positions": [
                -0.9572196204069696,
                -0.8933273633416261,
                1.8341279030816722,
                0.8433661294945036,
                -1.0438895176228584,
                -1.3534025015779263
            ]
        },
        {
            "positions": [
                -0.967109558817848,
                -0.9095391496112176,
                1.8470360225340683,
                0.7232631947485686,
                -0.9357881552268219,
                -1.4802677415734156
            ]
        },
        {
            "positions": [
                -0.9769994972287264,
                -0.925750935880809,
                1.8599441419864646,
                0.6031602600026336,
                -0.8276867928307852,
                -1.6071329815689048
            ]
        },
        {
            "positions": [
                -0.9868894356396047,
                -0.9419627221504006,
                1.8728522614388607,
                0.4830573252566983,
                -0.7195854304347484,
                -1.7339982215643943
            ]
        },
        {
            "positions": [
                -0.9967793740504832,
                -0.958174508419992,
                1.8857603808912569,
                0.3629543905107635,
                -0.6114840680387121,
                -1.8608634615598831
            ]
        },
        {
            "positions": [
                -1.0066693124613617,
                -0.9743862946895835,
                1.898668500343653,
                0.24285145576482825,
                -0.5033827056426754,
                -1.9877287015553724
            ]
        },
        {
            "positions": [
                -1.01655925087224,
                -0.990598080959175,
                1.911576619796049,
                0.122748521018893,
                -0.3952813432466389,
                -2.1145939415508623
            ]
        },
        {
            "positions": [
                -1.0264491892831185,
                -1.0068098672287664,
                1.9244847392484452,
                0.002645586272957967,
                -0.28717998085060237,
                -2.241459181546351
            ]
        },
        {
            "positions": [
                -1.0363391276939968,
                -1.0230216534983578,
                1.9373928587008413,
                -0.11745734847297706,
                -0.17907861845456585,
                -2.3683244215418404
            ]
        },
        {
            "positions": [
                -1.0462290661048752,
                -1.0392334397679495,
                1.9503009781532374,
                -0.23756028321891254,
                -0.07097725605852911,
                -2.49518966153733
            ]
        },
        {
            "positions": [
                -1.0561190045157536,
                -1.0554452260375409,
                1.9632090976056338,
                -0.3576632179648471,
                0.03712410633750718,
                -2.622054901532819
            ]
        },
        {
            "positions": [
                -1.066008942926632,
                -1.0716570123071323,
                1.97611721705803,
                -0.4777661527107826,
                0.14522546873354392,
                -2.748920141528308
            ]
        },
        {
            "positions": [
                -1.0758988813375105,
                -1.0878687985767237,
                1.989025336510426,
                -0.5978690874567176,
                0.25332683112958065,
                -2.8757853815237975
            ]
        },
        {
            "positions": [
                -1.085788819748389,
                -1.1040805848463153,
                2.001933455962822,
                -0.7179720222026527,
                0.36142819352561695,
                -3.0026506215192867
            ]
        },
        {
            "positions": [
                -1.0956787581592673,
                -1.1202923711159067,
                2.0148415754152182,
                -0.8380749569485877,
                0.4695295559216535,
                -3.129515861514776
            ]
        }
    ]
}