{
    "goal": {
        "global_pose": {
            "orientation": {
                "w": -0.00223480608172531,
                "x": 0.0024358444001904467,
                "y": 0.7094548369677653,
                "z": -0.704743149386269
            },
            "position": {
                "x": -0.37947507619857795,
                "y": -0.6371506643295288,
                "z": 0.19426114857196808
            }
        },
        "name": "move_to_magneteinheit_C"
    },
    "id": "LazyPRM_move_to_magneteinheit_C_57",
    "joint_names": [
        "shoulder_pan_joint",
        "shoulder_lift_joint",
        "elbow_joint",
        "wrist_1_joint",
        "wrist_2_joint",
        "wrist_3_joint"
    ],
    "metrics": {
        "cart_traj_len": 1.1069681330810834,
        "distance_elbow_joint": 0.621702121880928,
        "distance_shoulder_lift_joint": 0.5992968276063875,
        "distance_shoulder_pan_joint": 0.8128208895214388,
        "distance_wrist_1_joint": 3.547924500837931,
        "distance_wrist_2_joint": 0.7949234507932241,
        "distance_wrist_3_joint": 0.41731200944946556,
        "smoothness": 0.9820991576088851,
        "time": 0.05816022,
        "traj_len": 2.606526385841773,
        "weighted_distance": 3.4599785795029803
    },
    "planner": "LazyPRM",
    "start": {
        "state": {
            "elbow_joint": 1.9565354010623817,
            "shoulder_lift_joint": -1.4165861575791021,
            "shoulder_pan_joint": -1.6717766225146293,
            "wrist_1_joint": -0.5286633292919765,
            "wrist_2_joint": 1.472756589071564,
            "wrist_3_joint": -3.1238370188695823
        }
    },
    "waypoints": [
        {
            "positions": [
                -1.6717766225146293,
                -1.4165861575791021,
                1.9565354010623817,
                -0.5286633292919765,
                1.472756589071564,
                -3.1238370188695823
            ]
        },
        {
            "positions": [
                -1.6720657506969134,
                -1.4381994691021007,
                1.9209022114967738,
                -0.3252135113125645,
                1.4005015352123136,
                -3.0995680104495116
            ]
        },
        {
            "positions": [
                -1.6723548788791978,
                -1.4598127806250993,
                1.8852690219311656,
                -0.12176369333315257,
                1.3282464813530632,
                -3.075299002029441
            ]
        },
        {
            "positions": [
                -1.6726440070614819,
                -1.481426092148098,
                1.8496358323655575,
                0.08168612464625935,
                1.2559914274938129,
                -3.0510299936093705
            ]
        },
        {
            "positions": [
                -1.672933135243766,
                -1.5030394036710966,
                1.8140026427999496,
                0.2851359426256713,
                1.1837363736345625,
                -3.0267609851893
            ]
        },
        {
            "positions": [
                -1.6732222634260503,
                -1.5246527151940952,
                1.7783694532343417,
                0.4885857606050832,
                1.1114813197753124,
                -3.002491976769229
            ]
        },
        {
            "positions": [
                -1.6735113916083344,
                -1.5462660267170938,
                1.7427362636687336,
                0.6920355785844952,
                1.039226265916062,
                -2.978222968349159
            ]
        },
        {
            "positions": [
                -1.6738005197906187,
                -1.5678793382400924,
                1.7071030741031255,
                0.8954853965639071,
                0.9669712120568117,
                -2.953953959929088
            ]
        },
        {
            "positions": [
                -1.6740896479729028,
                -1.589492649763091,
                1.6714698845375175,
                1.098935214543319,
                0.8947161581975613,
                -2.9296849515090173
            ]
        },
        {
            "positions": [
                -1.8082364729391964,
                -1.5584497825116237,
                1.7168739998866465,
                0.9523103855610175,
                0.8633924536111632,
                -2.931236617632926
            ]
        },
        {
            "positions": [
                -1.94238329790549,
                -1.5274069152601564,
                1.7622781152357754,
                0.805685556578716,
                0.8320687490247651,
                -2.9327882837568344
            ]
        },
        {
            "positions": [
                -2.076530122871784,
                -1.4963640480086893,
                1.8076822305849043,
                0.6590607275964144,
                0.800745044438367,
                -2.934339949880743
            ]
        },
        {
            "positions": [
                -2.2106769478380772,
                -1.465321180757222,
                1.8530863459340334,
                0.5124358986141129,
                0.7694213398519689,
                -2.9358916160046515
            ]
        },
        {
            "positions": [
                -2.3448237728043706,
                -1.4342783135057546,
                1.8984904612831623,
                0.3658110696318113,
                0.7380976352655707,
                -2.93744328212856
            ]
        },
        {
            "positions": [
                -2.4789705977706644,
                -1.4032354462542873,
                1.9438945766322913,
                0.2191862406495098,
                0.7067739306791726,
                -2.9389949482524687
            ]
        },
        {
            "positions": [
                -2.478127380983949,
                -1.3671136040499032,
                1.9535973231193293,
                0.06245064130515174,
                0.7023721474036282,
                -2.9711867194116124
            ]
        },
        {
            "positions": [
                -2.4772841641972336,
                -1.330991761845519,
                1.9633000696063672,
                -0.09428495803920633,
                0.6979703641280837,
                -3.003378490570756
            ]
        },
        {
            "positions": [
                -2.4759706706332425,
                -1.2750286126772434,
                1.9782355430354386,
                -0.33665355284590975,
                0.6912579555115024,
                -3.0532006249131434
            ]
        },
        {
            "positions": [
                -2.474657177069252,
                -1.219065463508968,
                1.99317101646451,
                -0.5790221476526132,
                0.6845455468949211,
                -3.1030227592555306
            ]
        },
        {
            "positions": [
                -2.4733436835052607,
                -1.1631023143406924,
                2.0081064898935814,
                -0.8213907424593166,
                0.6778331382783398,
                -3.152844893597918
            ]
        }
    ]
}