{
    "goal": {
        "global_pose": {
            "orientation": {
                "w": 0.5084816217422485,
                "x": -0.49083608388900757,
                "y": 0.5182115435600281,
                "z": -0.4816462993621826
            },
            "position": {
                "x": 0.5540239810943604,
                "y": 0.030875300988554955,
                "z": 0.16403168439865112
            }
        },
        "name": "move_to_storage_A"
    },
    "id": "LazyPRM_move_to_storage_A_119",
    "joint_names": [
        "shoulder_pan_joint",
        "shoulder_lift_joint",
        "elbow_joint",
        "wrist_1_joint",
        "wrist_2_joint",
        "wrist_3_joint"
    ],
    "metrics": {
        "cart_traj_len": 0.35252578694739717,
        "distance_elbow_joint": 0.45226420285319846,
        "distance_shoulder_lift_joint": 0.2351782732421659,
        "distance_shoulder_pan_joint": 0.46144361048379845,
        "distance_wrist_1_joint": 0.25098687638644857,
        "distance_wrist_2_joint": 1.0964150902331284,
        "distance_wrist_3_joint": 0.09130299041910916,
        "smoothness": 7.771561204992932e-16,
        "time": 0.021959238,
        "traj_len": 1.6085990935027439,
        "weighted_distance": 2.029186780726615
    },
    "planner": "LazyPRM",
    "start": {
        "state": {
            "elbow_joint": 1.971548259319323,
            "shoulder_lift_joint": -1.1394851275133948,
            "shoulder_pan_joint": 0.1228115487234821,
            "wrist_1_joint": -0.7804723859257726,
            "wrist_2_joint": 0.12958671773740124,
            "wrist_3_joint": -3.192489227718131
        }
    },
    "waypoints": [
        {
            "positions": [
                0.1228115487234821,
                -1.1394851275133948,
                1.971548259319323,
                -0.7804723859257726,
                0.12958671773740124,
                -3.192489227718131
            ]
        },
        {
            "positions": [
                0.056891032940082326,
                -1.173082023690847,
                2.036157431155494,
                -0.8163276539809795,
                0.28621744491356244,
                -3.179445943372544
            ]
        },
        {
            "positions": [
                -0.009029482843317449,
                -1.2066789198682994,
                2.1007666029916656,
                -0.8521829220361865,
                0.4428481720897236,
                -3.166402659026957
            ]
        },
        {
            "positions": [
                -0.07494999862671722,
                -1.2402758160457517,
                2.1653757748278366,
                -0.8880381900913934,
                0.5994788992658848,
                -3.15335937468137
            ]
        },
        {
            "positions": [
                -0.140870514410117,
                -1.2738727122232039,
                2.2299849466640076,
                -0.9238934581466004,
                0.756109626442046,
                -3.140316090335783
            ]
        },
        {
            "positions": [
                -0.2067910301935168,
                -1.3074696084006563,
                2.294594118500179,
                -0.9597487262018073,
                0.9127403536182073,
                -3.127272805990196
            ]
        },
        {
            "positions": [
                -0.27271154597691655,
                -1.3410665045781085,
                2.3592032903363505,
                -0.9956039942570143,
                1.0693710807943684,
                -3.114229521644609
            ]
        },
        {
            "positions": [
                -0.33863206176031635,
                -1.3746634007555607,
                2.4238124621725214,
                -1.0314592623122212,
                1.2260018079705297,
                -3.101186237299022
            ]
        }
    ]
}{
    "goal": {
        "global_pose": {
            "orientation": {
                "w": 0.5084816217422485,
                "x": -0.49083608388900757,
                "y": 0.5182115435600281,
                "z": -0.4816462993621826
            },
            "position": {
                "x": 0.5540239810943604,
                "y": 0.030875300988554955,
                "z": 0.16403168439865112
            }
        },
        "name": "move_to_storage_A"
    },
    "id": "LazyPRM_move_to_storage_A_119",
    "joint_names": [
        "shoulder_pan_joint",
        "shoulder_lift_joint",
        "elbow_joint",
        "wrist_1_joint",
        "wrist_2_joint",
        "wrist_3_joint"
    ],
    "metrics": {
        "cart_traj_len": 0.3529890342031067,
        "distance_elbow_joint": 0.4501868332724617,
        "distance_shoulder_lift_joint": 0.2329959526282026,
        "distance_shoulder_pan_joint": 0.4582138769065041,
        "distance_wrist_1_joint": 0.24741831506412804,
        "distance_wrist_2_joint": 1.1123721401508244,
        "distance_wrist_3_joint": 0.10388318358935678,
        "smoothness": 1.3322676295501878e-15,
        "time": 0.012086266,
        "traj_len": 1.614023017683291,
        "weighted_distance": 2.0427009384648414
    },
    "planner": "LazyPRM",
    "start": {
        "state": {
            "elbow_joint": 1.97154746011099,
            "shoulder_lift_joint": -1.13948474672311,
            "shoulder_pan_joint": 0.12281154466712228,
            "wrist_1_joint": -0.7804688027058302,
            "wrist_2_joint": 0.12958655903071145,
            "wrist_3_joint": 3.0906928834467795
        }
    },
    "waypoints": [
        {
            "positions": [
                0.12281154466712228,
                -1.13948474672311,
                1.97154746011099,
                -0.7804688027058302,
                0.12958655903071145,
                3.0906928834467795
            ]
        },
        {
            "positions": [
                0.057352419394764556,
                -1.1727698828128532,
                2.035859864864199,
                -0.8158142762864199,
                0.2884968647665435,
                3.1055333382452592
            ]
        },
        {
            "positions": [
                -0.00810670587759317,
                -1.2060550189025965,
                2.1001722696174077,
                -0.8511597498670096,
                0.44740717050237555,
                3.1203737930437385
            ]
        },
        {
            "positions": [
                -0.0735658311499509,
                -1.2393401549923397,
                2.1644846743706165,
                -0.8865052234475993,
                0.6063174762382076,
                3.1352142478422182
            ]
        },
        {
            "positions": [
                -0.1390249564223086,
                -1.2726252910820828,
                2.228797079123825,
                -0.921850697028189,
                0.7652277819740397,
                3.1500547026406975
            ]
        },
        {
            "positions": [
                -0.20448408169466636,
                -1.305910427171826,
                2.293109483877034,
                -0.9571961706087788,
                0.9241380877098718,
                3.1648951574391773
            ]
        },
        {
            "positions": [
                -0.26994320696702406,
                -1.3391955632615693,
                2.3574218886302427,
                -0.9925416441893685,
                1.0830483934457038,
                3.1797356122376566
            ]
        },
        {
            "positions": [
                -0.3354023322393818,
                -1.3724806993513126,
                2.4217342933834516,
                -1.0278871177699582,
                1.241958699181536,
                3.1945760670361363
            ]
        }
    ]
}{
    "goal": {
        "global_pose": {
            "orientation": {
                "w": 0.5084816217422485,
                "x": -0.49083608388900757,
                "y": 0.5182115435600281,
                "z": -0.4816462993621826
            },
            "position": {
                "x": 0.5540239810943604,
                "y": 0.030875300988554955,
                "z": 0.16403168439865112
            }
        },
        "name": "move_to_storage_A"
    },
    "id": "LazyPRM_move_to_storage_A_119",
    "joint_names": [
        "shoulder_pan_joint",
        "shoulder_lift_joint",
        "elbow_joint",
        "wrist_1_joint",
        "wrist_2_joint",
        "wrist_3_joint"
    ],
    "metrics": {
        "cart_traj_len": 0.35257891033322697,
        "distance_elbow_joint": 0.44835779179220525,
        "distance_shoulder_lift_joint": 0.23380346844971478,
        "distance_shoulder_pan_joint": 0.4598439323148899,
        "distance_wrist_1_joint": 0.2400594190872234,
        "distance_wrist_2_joint": 1.1023163171523072,
        "distance_wrist_3_joint": 0.09017484806545628,
        "smoothness": 0.0,
        "time": 0.021802992,
        "traj_len": 1.6045422328071632,
        "weighted_distance": 2.0241742042700372
    },
    "planner": "LazyPRM",
    "start": {
        "state": {
            "elbow_joint": 1.9715472970024885,
            "shoulder_lift_joint": -1.1394870060712896,
            "shoulder_pan_joint": 0.12281152778156021,
            "wrist_1_joint": -0.780463741449964,
            "wrist_2_joint": 0.12958659822042276,
            "wrist_3_joint": 3.090690232415272
        }
    },
    "waypoints": [
        {
            "positions": [
                0.12281152778156021,
                -1.1394870060712896,
                1.9715472970024885,
                -0.780463741449964,
                0.12958659822042276,
                3.090690232415272
            ]
        },
        {
            "positions": [
                0.057119537450861665,
                -1.172887501564106,
                2.035598410115661,
                -0.8147579441767102,
                0.2870603578136095,
                3.10357235356748
            ]
        },
        {
            "positions": [
                -0.008572452879836878,
                -1.2062879970569225,
                2.099649523228833,
                -0.8490521469034564,
                0.44453411740679627,
                3.116454474719688
            ]
        },
        {
            "positions": [
                -0.07426444321053544,
                -1.239688492549739,
                2.1637006363420053,
                -0.8833463496302025,
                0.6020078769999829,
                3.129336595871896
            ]
        },
        {
            "positions": [
                -0.13995643354123397,
                -1.273088988042555,
                2.227751749455177,
                -0.9176405523569487,
                0.7594816365931697,
                3.142218717024104
            ]
        },
        {
            "positions": [
                -0.20564842387193252,
                -1.3064894835353715,
                2.2918028625683493,
                -0.951934755083695,
                0.9169553961863565,
                3.155100838176312
            ]
        },
        {
            "positions": [
                -0.2713404142026311,
                -1.339889979028188,
                2.3558539756815216,
                -0.9862289578104412,
                1.0744291557795431,
                3.16798295932852
            ]
        },
        {
            "positions": [
                -0.33703240453332967,
                -1.3732904745210044,
                2.419905088794694,
                -1.0205231605371874,
                1.23190291537273,
                3.180865080480728
            ]
        }
    ]
}