{
    "goal": {
        "global_pose": {
            "orientation": {
                "w": 0.005598929693374612,
                "x": 0.007748599140229565,
                "y": 0.7110244013736278,
                "z": -0.7031023480610252
            },
            "position": {
                "x": -0.8858502320852131,
                "y": -0.7141253447532654,
                "z": 0.3711530566215515
            }
        },
        "name": "move_to_auspresseinheit_C"
    },
    "id": "LazyPRMstar_move_to_auspresseinheit_C_12",
    "joint_names": [
        "shoulder_pan_joint",
        "shoulder_lift_joint",
        "elbow_joint",
        "wrist_1_joint",
        "wrist_2_joint",
        "wrist_3_joint"
    ],
    "metrics": {
        "cart_traj_len": 0.49329244111606424,
        "distance_elbow_joint": 1.0012634147994544,
        "distance_shoulder_lift_joint": 0.32507530591526845,
        "distance_shoulder_pan_joint": 0.2565260969597518,
        "distance_wrist_1_joint": 0.6835592016474256,
        "distance_wrist_2_joint": 1.3029365019106924,
        "distance_wrist_3_joint": 0.06346567890618271,
        "smoothness": 1.1304088990788627e-15,
        "time": 5.000364493,
        "traj_len": 1.90599742920571,
        "weighted_distance": 2.3971343853670906
    },
    "planner": "LazyPRMstar",
    "start": {
        "state": {
            "elbow_joint": 1.7527959577737207,
            "shoulder_lift_joint": -0.9740617694225068,
            "shoulder_pan_joint": -2.967991417825858,
            "wrist_1_joint": -0.759517768980727,
            "wrist_2_joint": 1.7443932448377408,
            "wrist_3_joint": -3.0840537646736568
        }
    },
    "waypoints": [
        {
            "positions": [
                -2.967991417825858,
                -0.9740617694225068,
                1.7527959577737207,
                -0.759517768980727,
                1.7443932448377408,
                -3.0840537646736568
            ]
        },
        {
            "positions": [
                -2.942338808129883,
                -0.9415542388309799,
                1.6526696162937753,
                -0.6911618488159844,
                1.6140995946466716,
                -3.090400332564275
            ]
        },
        {
            "positions": [
                -2.9166861984339074,
                -0.9090467082394531,
                1.5525432748138297,
                -0.6228059286512418,
                1.4838059444556024,
                -3.0967469004548933
            ]
        },
        {
            "positions": [
                -2.8910335887379324,
                -0.8765391776479262,
                1.4524169333338843,
                -0.5544500084864993,
                1.353512294264533,
                -3.1030934683455116
            ]
        },
        {
            "positions": [
                -2.8653809790419573,
                -0.8440316470563993,
                1.352290591853939,
                -0.48609408832175677,
                1.2232186440734638,
                -3.10944003623613
            ]
        },
        {
            "positions": [
                -2.8397283693459823,
                -0.8115241164648725,
                1.2521642503739936,
                -0.4177381681570142,
                1.0929249938823946,
                -3.115786604126748
            ]
        },
        {
            "positions": [
                -2.814075759650007,
                -0.7790165858733458,
                1.152037908894048,
                -0.34938224799227163,
                0.9626313436913254,
                -3.1221331720173664
            ]
        },
        {
            "positions": [
                -2.7884231499540317,
                -0.7465090552818189,
                1.0519115674141026,
                -0.2810263278275291,
                0.8323376935002562,
                -3.1284797399079847
            ]
        },
        {
            "positions": [
                -2.7627705402580567,
                -0.714001524690292,
                0.9517852259341572,
                -0.21267040766278655,
                0.7020440433091868,
                -3.134826307798603
            ]
        },
        {
            "positions": [
                -2.737117930562081,
                -0.6814939940987652,
                0.8516588844542117,
                -0.144314487498044,
                0.5717503931181176,
                -3.141172875689221
            ]
        },
        {
            "positions": [
                -2.711465320866106,
                -0.6489864635072383,
                0.7515325429742663,
                -0.07595856733330142,
                0.44145674292704845,
                -3.1475194435798395
            ]
        }
    ]
}