{
    "goal": {
        "global_pose": {
            "orientation": {
                "w": 0.7047431493862688,
                "x": -0.7094548369677653,
                "y": 0.0024358444001904,
                "z": -0.0022348060817251984
            },
            "position": {
                "x": -0.39052492380142206,
                "y": 0.3671506643295288,
                "z": 0.19426114857196808
            }
        },
        "name": "move_to_magneteinheit_D"
    },
    "id": "LazyPRMstar_move_to_magneteinheit_D_90",
    "joint_names": [
        "shoulder_pan_joint",
        "shoulder_lift_joint",
        "elbow_joint",
        "wrist_1_joint",
        "wrist_2_joint",
        "wrist_3_joint"
    ],
    "metrics": {
        "cart_traj_len": 6.1571140767316646,
        "distance_elbow_joint": 4.190680540857986,
        "distance_shoulder_lift_joint": 1.7835076590603478,
        "distance_shoulder_pan_joint": 8.477493683082395,
        "distance_wrist_1_joint": 2.1667729107423277,
        "distance_wrist_2_joint": 6.256150198519026,
        "distance_wrist_3_joint": 4.1053470361870845,
        "smoothness": 0.5636416693971643,
        "time": 5.085469677,
        "traj_len": 5.1942229475109345,
        "weighted_distance": 6.60405702656213
    },
    "planner": "LazyPRMstar",
    "start": {
        "state": {
            "elbow_joint": 0.749534889911806,
            "shoulder_lift_joint": -0.6476975780787326,
            "shoulder_pan_joint": -2.711696901376241,
            "wrist_1_joint": -0.07506478083263063,
            "wrist_2_joint": 0.43296659715538205,
            "wrist_3_joint": -3.14703540197715
        }
    },
    "waypoints": [
        {
            "positions": [
                -2.711696901376241,
                -0.6476975780787326,
                0.749534889911806,
                -0.07506478083263063,
                0.43296659715538205,
                -3.14703540197715
            ]
        },
        {
            "positions": [
                -2.732237979193238,
                -0.6727164995617985,
                0.8077196437931518,
                -0.1416958736712451,
                0.34368884953858214,
                -3.1440779604848474
            ]
        },
        {
            "positions": [
                -2.7527790570102346,
                -0.6977354210448642,
                0.8659043976744975,
                -0.20832696650985955,
                0.2544111019217823,
                -3.141120518992545
            ]
        },
        {
            "positions": [
                -2.7271177871771215,
                -0.8010373438732751,
                0.9374173991083969,
                -0.2173798995248863,
                0.10724835696260812,
                -3.1397228584410066
            ]
        },
        {
            "positions": [
                -2.701456517344008,
                -0.904339266701686,
                1.0089304005422965,
                -0.22643283253991306,
                -0.03991438799656605,
                -3.138325197889469
            ]
        },
        {
            "positions": [
                -2.675795247510895,
                -1.007641189530097,
                1.0804434019761961,
                -0.2354857655549398,
                -0.18707713295574024,
                -3.1369275373379306
            ]
        },
        {
            "positions": [
                -2.6501339776777817,
                -1.1109431123585078,
                1.1519564034100958,
                -0.24453869856996654,
                -0.3342398779149144,
                -3.1355298767863924
            ]
        },
        {
            "positions": [
                -2.624472707844668,
                -1.2142450351869187,
                1.2234694048439951,
                -0.2535916315849933,
                -0.48140262287408864,
                -3.1341322162348546
            ]
        },
        {
            "positions": [
                -2.598811438011555,
                -1.3175469580153296,
                1.2949824062778947,
                -0.26264456460002006,
                -0.6285653678332628,
                -3.1327345556833164
            ]
        },
        {
            "positions": [
                -2.4650976197300576,
                -1.3090627101158008,
                1.2089807119130092,
                -0.3003480377056814,
                -0.5579186033332673,
                -3.0809029774954393
            ]
        },
        {
            "positions": [
                -2.33138380144856,
                -1.300578462216272,
                1.1229790175481233,
                -0.33805151081134277,
                -0.4872718388332717,
                -3.029071399307562
            ]
        },
        {
            "positions": [
                -2.1976699831670627,
                -1.292094214316743,
                1.0369773231832378,
                -0.37575498391700407,
                -0.41662507433327617,
                -2.977239821119685
            ]
        },
        {
            "positions": [
                -2.0639561648855653,
                -1.2836099664172145,
                0.9509756288183522,
                -0.4134584570226655,
                -0.3459783098332806,
                -2.925408242931808
            ]
        },
        {
            "positions": [
                -1.930242346604068,
                -1.2751257185176856,
                0.8649739344534665,
                -0.4511619301283268,
                -0.2753315453332851,
                -2.873576664743931
            ]
        },
        {
            "positions": [
                -1.7965285283225705,
                -1.2666414706181568,
                0.7789722400885809,
                -0.4888654032339881,
                -0.20468478083328956,
                -2.821745086556054
            ]
        },
        {
            "positions": [
                -1.662814710041073,
                -1.258157222718628,
                0.6929705457236952,
                -0.5265688763396494,
                -0.13403801633329404,
                -2.7699135083681767
            ]
        },
        {
            "positions": [
                -1.5291008917595756,
                -1.2496729748190991,
                0.6069688513588095,
                -0.5642723494453108,
                -0.06339125183329841,
                -2.7180819301802996
            ]
        },
        {
            "positions": [
                -1.3953870734780782,
                -1.2411887269195703,
                0.5209671569939238,
                -0.6019758225509722,
                0.007255512666697106,
                -2.6662503519924226
            ]
        },
        {
            "positions": [
                -1.2616732551965808,
                -1.2327044790200414,
                0.43496546262903824,
                -0.6396792956566335,
                0.07790227716669262,
                -2.6144187738045455
            ]
        },
        {
            "positions": [
                -1.1279594369150832,
                -1.2242202311205126,
                0.34896376826415254,
                -0.6773827687622949,
                0.14854904166668825,
                -2.5625871956166684
            ]
        },
        {
            "positions": [
                -0.994245618633586,
                -1.2157359832209838,
                0.26296207389926707,
                -0.7150862418679562,
                0.21919580616668366,
                -2.5107556174287913
            ]
        },
        {
            "positions": [
                -0.8605318003520885,
                -1.2072517353214551,
                0.17696037953438126,
                -0.7527897149736176,
                0.2898425706666793,
                -2.458924039240914
            ]
        },
        {
            "positions": [
                -0.7268179820705913,
                -1.1987674874219263,
                0.09095868516949568,
                -0.7904931880792788,
                0.3604893351666747,
                -2.407092461053037
            ]
        },
        {
            "positions": [
                -0.5931041637890937,
                -1.1902832395223975,
                0.004956990804610095,
                -0.8281966611849402,
                0.4311360996666702,
                -2.35526088286516
            ]
        },
        {
            "positions": [
                -0.4593903455075963,
                -1.1817989916228686,
                -0.08104470356027571,
                -0.8659001342906016,
                0.501782864166666,
                -2.303429304677283
            ]
        },
        {
            "positions": [
                -0.32567652722609886,
                -1.1733147437233398,
                -0.1670463979251613,
                -0.9036036073962629,
                0.5724296286666615,
                -2.251597726489406
            ]
        },
        {
            "positions": [
                -0.19196270894460143,
                -1.164830495823811,
                -0.2530480922900471,
                -0.9413070805019242,
                0.643076393166657,
                -2.1997661483015287
            ]
        },
        {
            "positions": [
                -0.058248890663104014,
                -1.156346247924282,
                -0.33904978665493246,
                -0.9790105536075856,
                0.7137231576666525,
                -2.1479345701136516
            ]
        },
        {
            "positions": [
                0.07546492761839341,
                -1.1478620000247535,
                -0.42505148101981827,
                -1.016714026713247,
                0.784369922166648,
                -2.0961029919257745
            ]
        },
        {
            "positions": [
                0.20917874589989083,
                -1.1393777521252246,
                -0.5110531753847041,
                -1.0544174998189084,
                0.8550166866666435,
                -2.0442714137378974
            ]
        },
        {
            "positions": [
                0.3428925641813887,
                -1.1308935042256958,
                -0.5970548697495897,
                -1.0921209729245698,
                0.9256634511666393,
                -1.9924398355500206
            ]
        },
        {
            "positions": [
                0.4766063824628852,
                -1.122409256326167,
                -0.683056564114475,
                -1.129824446030231,
                0.9963102156666346,
                -1.9406082573621437
            ]
        },
        {
            "positions": [
                0.6103202007443831,
                -1.113925008426638,
                -0.7690582584793606,
                -1.1675279191358923,
                1.06695698016663,
                -1.8887766791742664
            ]
        },
        {
            "positions": [
                0.7440340190258805,
                -1.1054407605271093,
                -0.8550599528442466,
                -1.2052313922415538,
                1.1376037446666258,
                -1.8369451009863893
            ]
        },
        {
            "positions": [
                0.8777478373073779,
                -1.0969565126275804,
                -0.9410616472091322,
                -1.2429348653472152,
                1.2082505091666214,
                -1.7851135227985122
            ]
        },
        {
            "positions": [
                1.0114616555888758,
                -1.0884722647280516,
                -1.0270633415740178,
                -1.2806383384528766,
                1.2788972736666169,
                -1.7332819446106351
            ]
        },
        {
            "positions": [
                1.1451754738703723,
                -1.079988016828523,
                -1.1130650359389034,
                -1.3183418115585375,
                1.3495440381666122,
                -1.6814503664227582
            ]
        },
        {
            "positions": [
                1.2788892921518702,
                -1.0715037689289941,
                -1.199066730303789,
                -1.3560452846641988,
                1.420190802666608,
                -1.6296187882348812
            ]
        },
        {
            "positions": [
                1.4126031104333676,
                -1.0630195210294653,
                -1.2850684246686745,
                -1.3937487577698602,
                1.4908375671666032,
                -1.577787210047004
            ]
        },
        {
            "positions": [
                1.5463169287148655,
                -1.0545352731299364,
                -1.3710701190335606,
                -1.431452230875522,
                1.561484331666599,
                -1.5259556318591267
            ]
        },
        {
            "positions": [
                1.6800307469963625,
                -1.0460510252304076,
                -1.4570718133984462,
                -1.4691557039811833,
                1.6321310961665947,
                -1.4741240536712497
            ]
        },
        {
            "positions": [
                1.8137445652778594,
                -1.0375667773308788,
                -1.5430735077633317,
                -1.5068591770868442,
                1.70277786066659,
                -1.4222924754833728
            ]
        },
        {
            "positions": [
                1.9474583835593573,
                -1.02908252943135,
                -1.6290752021282173,
                -1.5445626501925056,
                1.7734246251665857,
                -1.3704608972954957
            ]
        },
        {
            "positions": [
                2.0811722018408543,
                -1.020598281531821,
                -1.715076896493103,
                -1.582266123298167,
                1.844071389666581,
                -1.3186293191076186
            ]
        },
        {
            "positions": [
                2.214886020122352,
                -1.0121140336322925,
                -1.801078590857989,
                -1.6199695964038283,
                1.9147181541665768,
                -1.2667977409197415
            ]
        },
        {
            "positions": [
                2.34859983840385,
                -1.0036297857327634,
                -1.8870802852228745,
                -1.6576730695094897,
                1.9853649186665725,
                -1.2149661627318642
            ]
        },
        {
            "positions": [
                2.482313656685347,
                -0.9951455378332348,
                -1.9730819795877597,
                -1.695376542615151,
                2.0560116831665676,
                -1.1631345845439873
            ]
        },
        {
            "positions": [
                2.616027474966844,
                -0.9866612899337059,
                -2.059083673952646,
                -1.7330800157208124,
                2.1266584476665633,
                -1.1113030063561102
            ]
        },
        {
            "positions": [
                2.7497412932483423,
                -0.9781770420341771,
                -2.145085368317531,
                -1.7707834888264737,
                2.1973052121665586,
                -1.0594714281682331
            ]
        },
        {
            "positions": [
                2.6221808072835673,
                -1.0118417534751596,
                -2.1540055965738993,
                -1.7912641063372774,
                2.094316183752187,
                -1.1472011265325013
            ]
        },
        {
            "positions": [
                2.494620321318792,
                -1.045506464916142,
                -2.162925824830268,
                -1.811744723848081,
                1.9913271553378147,
                -1.2349308248967694
            ]
        },
        {
            "positions": [
                2.367059835354017,
                -1.0791711763571248,
                -2.1718460530866364,
                -1.8322253413588847,
                1.888338126923443,
                -1.3226605232610376
            ]
        },
        {
            "positions": [
                2.239499349389242,
                -1.1128358877981073,
                -2.1807662813430047,
                -1.8527059588696884,
                1.7853490985090708,
                -1.4103902216253057
            ]
        },
        {
            "positions": [
                2.1119388634244665,
                -1.1465005992390898,
                -2.1896865095993734,
                -1.8731865763804922,
                1.682360070094699,
                -1.4981199199895738
            ]
        },
        {
            "positions": [
                1.9843783774596915,
                -1.1801653106800722,
                -2.1986067378557417,
                -1.893667193891296,
                1.579371041680327,
                -1.585849618353842
            ]
        },
        {
            "positions": [
                1.8568178914949165,
                -1.213830022121055,
                -2.20752696611211,
                -1.9141478114020996,
                1.476382013265955,
                -1.67357931671811
            ]
        },
        {
            "positions": [
                1.7292574055301413,
                -1.2474947335620374,
                -2.2164471943684787,
                -1.9346284289129032,
                1.3733929848515831,
                -1.7613090150823782
            ]
        },
        {
            "positions": [
                1.601696919565366,
                -1.28115944500302,
                -2.225367422624847,
                -1.9551090464237069,
                1.2704039564372112,
                -1.8490387134466464
            ]
        },
        {
            "positions": [
                1.474136433600591,
                -1.3148241564440024,
                -2.2342876508812153,
                -1.9755896639345105,
                1.1674149280228392,
                -1.9367684118109145
            ]
        },
        {
            "positions": [
                1.346575947635816,
                -1.348488867884985,
                -2.243207879137584,
                -1.9960702814453142,
                1.0644258996084672,
                -2.0244981101751827
            ]
        },
        {
            "positions": [
                1.219015461671041,
                -1.3821535793259674,
                -2.2521281073939523,
                -2.016550898956118,
                0.9614368711940955,
                -2.112227808539451
            ]
        },
        {
            "positions": [
                1.091454975706266,
                -1.41581829076695,
                -2.2610483356503206,
                -2.0370315164669215,
                0.8584478427797235,
                -2.199957506903719
            ]
        },
        {
            "positions": [
                0.9638944897414905,
                -1.4494830022079326,
                -2.2699685639066893,
                -2.0575121339777254,
                0.7554588143653513,
                -2.287687205267987
            ]
        },
        {
            "positions": [
                0.8363340037767155,
                -1.4831477136489153,
                -2.2788887921630576,
                -2.0779927514885292,
                0.6524697859509796,
                -2.375416903632255
            ]
        },
        {
            "positions": [
                0.7087735178119403,
                -1.5168124250898978,
                -2.2878090204194264,
                -2.0984733689993327,
                0.5494807575366076,
                -2.4631466019965234
            ]
        },
        {
            "positions": [
                0.5812130318471653,
                -1.5504771365308803,
                -2.2967292486757946,
                -2.118953986510136,
                0.4464917291222359,
                -2.5508763003607915
            ]
        },
        {
            "positions": [
                0.4536525458823899,
                -1.5841418479718627,
                -2.305649476932163,
                -2.13943460402094,
                0.3435027007078637,
                -2.6386059987250596
            ]
        },
        {
            "positions": [
                0.3260920599176149,
                -1.6178065594128452,
                -2.3145697051885317,
                -2.159915221531744,
                0.24051367229349174,
                -2.7263356970893278
            ]
        },
        {
            "positions": [
                0.19853157395283993,
                -1.6514712708538277,
                -2.3234899334449,
                -2.1803958390425473,
                0.13752464387911978,
                -2.814065395453596
            ]
        },
        {
            "positions": [
                0.07097108798806495,
                -1.6851359822948102,
                -2.3324101617012682,
                -2.200876456553351,
                0.03453561546474804,
                -2.901795093817864
            ]
        },
        {
            "positions": [
                -0.056589397976710476,
                -1.718800693735793,
                -2.341330389957637,
                -2.221357074064155,
                -0.06845341294962415,
                -2.989524792182132
            ]
        },
        {
            "positions": [
                -0.18414988394148546,
                -1.7524654051767754,
                -2.3502506182140053,
                -2.2418376915749585,
                -0.17144244136399572,
                -3.0772544905464003
            ]
        }
    ]
}