{
    "goal": {
        "global_pose": {
            "orientation": {
                "w": -0.4816463035849501,
                "x": 0.5182115481033762,
                "y": 0.4908360881923453,
                "z": -0.5084816262002911
            },
            "position": {
                "x": -0.8240239810943604,
                "y": -0.300875300988555,
                "z": 0.16403168439865112
            }
        },
        "name": "move_to_storage_C"
    },
    "id": "LazyPRM_move_to_storage_C_92",
    "joint_names": [
        "shoulder_pan_joint",
        "shoulder_lift_joint",
        "elbow_joint",
        "wrist_1_joint",
        "wrist_2_joint",
        "wrist_3_joint"
    ],
    "metrics": {
        "cart_traj_len": 0.5768415671120257,
        "distance_elbow_joint": 0.256940439691149,
        "distance_shoulder_lift_joint": 0.19081587029920988,
        "distance_shoulder_pan_joint": 0.49415759577263296,
        "distance_wrist_1_joint": 0.06697093916430774,
        "distance_wrist_2_joint": 1.0683250314241777,
        "distance_wrist_3_joint": 0.06535210293429783,
        "smoothness": 0.0,
        "time": 0.011771012,
        "traj_len": 1.463749288398042,
        "weighted_distance": 1.8462291720539075
    },
    "planner": "LazyPRM",
    "start": {
        "state": {
            "elbow_joint": 2.010868314990456,
            "shoulder_lift_joint": -1.1634956873337592,
            "shoulder_pan_joint": -2.4736205022346125,
            "wrist_1_joint": -0.8367026794202681,
            "wrist_2_joint": 0.6746043897044499,
            "wrist_3_joint": -3.1496632123970403
        }
    },
    "waypoints": [
        {
            "positions": [
                -2.4736205022346125,
                -1.1634956873337592,
                2.010868314990456,
                -0.8367026794202681,
                0.6746043897044499,
                -3.1496632123970403
            ]
        },
        {
            "positions": [
                -2.5559801015300514,
                -1.131693042283891,
                1.9680449083752642,
                -0.8255408562262168,
                0.8526585616084795,
                -3.1387711952413238
            ]
        },
        {
            "positions": [
                -2.6383397008254903,
                -1.0998903972340226,
                1.925221501760073,
                -0.8143790330321655,
                1.0307127335125092,
                -3.1278791780856077
            ]
        },
        {
            "positions": [
                -2.7206993001209288,
                -1.0680877521841543,
                1.8823980951448813,
                -0.8032172098381143,
                1.2087669054165389,
                -3.1169871609298916
            ]
        },
        {
            "positions": [
                -2.8030588994163677,
                -1.036285107134286,
                1.8395746885296897,
                -0.7920553866440629,
                1.3868210773205685,
                -3.106095143774175
            ]
        },
        {
            "positions": [
                -2.8854184987118066,
                -1.0044824620844177,
                1.7967512819144984,
                -0.7808935634500116,
                1.564875249224598,
                -3.0952031266184585
            ]
        },
        {
            "positions": [
                -2.9677780980072455,
                -0.9726798170345493,
                1.7539278752993068,
                -0.7697317402559604,
                1.7429294211286277,
                -3.0843111094627425
            ]
        }
    ]
}