{
    "goal": {
        "global_pose": {
            "orientation": {
                "w": -0.00223480608172531,
                "x": 0.0024358444001904467,
                "y": 0.7094548369677653,
                "z": -0.704743149386269
            },
            "position": {
                "x": 0.6205249238014221,
                "y": -0.6371506643295288,
                "z": 0.19426114857196808
            }
        },
        "name": "move_to_magneteinheit_B"
    },
    "id": "LazyPRM_move_to_magneteinheit_B_38",
    "joint_names": [
        "shoulder_pan_joint",
        "shoulder_lift_joint",
        "elbow_joint",
        "wrist_1_joint",
        "wrist_2_joint",
        "wrist_3_joint"
    ],
    "metrics": {
        "cart_traj_len": 3.533895872061987,
        "distance_elbow_joint": 4.26899929993393,
        "distance_shoulder_lift_joint": 0.7701387358028917,
        "distance_shoulder_pan_joint": 2.8166984966848054,
        "distance_wrist_1_joint": 5.349388076629171,
        "distance_wrist_2_joint": 1.2924241689896017,
        "distance_wrist_3_joint": 3.151453794489776,
        "smoothness": 0.3043069348733091,
        "time": 0.20903062,
        "traj_len": 4.201083499828369,
        "weighted_distance": 5.531168267837139
    },
    "planner": "LazyPRM",
    "start": {
        "state": {
            "elbow_joint": 2.6216224122426386,
            "shoulder_lift_joint": -1.4174107377796124,
            "shoulder_pan_joint": 0.7066234856936794,
            "wrist_1_joint": 1.9546482284002225,
            "wrist_2_joint": -0.7096286983471962,
            "wrist_3_joint": 0.005740856962016249
        }
    },
    "waypoints": [
        {
            "positions": [
                0.7066234856936794,
                -1.4174107377796124,
                2.6216224122426386,
                1.9546482284002225,
                -0.7096286983471962,
                0.005740856962016249
            ]
        },
        {
            "positions": [
                0.6443620831777215,
                -1.4959842798043637,
                2.584672403626425,
                1.9835321417864453,
                -0.6019763684525629,
                0.0657744325858567
            ]
        },
        {
            "positions": [
                0.5821006806617637,
                -1.574557821829115,
                2.5477223950102115,
                2.012416055172668,
                -0.4943240385579295,
                0.12580800820969715
            ]
        },
        {
            "positions": [
                0.5245735476981082,
                -1.66252403476252,
                2.4889091387915396,
                2.019672448035955,
                -0.38993190812347023,
                0.18597444021471654
            ]
        },
        {
            "positions": [
                0.46704641473445274,
                -1.7504902476959252,
                2.430095882572868,
                2.0269288408992416,
                -0.2855397776890109,
                0.24614087221973593
            ]
        },
        {
            "positions": [
                0.5380612945323685,
                -1.7554004760712574,
                2.3013988603453317,
                1.8916705465839891,
                -0.3119862584841159,
                0.2583800965718555
            ]
        },
        {
            "positions": [
                0.6090761743302844,
                -1.7603107044465895,
                2.1727018381177956,
                1.7564122522687367,
                -0.3384327392792209,
                0.2706193209239751
            ]
        },
        {
            "positions": [
                0.6800910541282001,
                -1.765220932821922,
                2.0440048158902595,
                1.6211539579534842,
                -0.3648792200743258,
                0.28285854527609466
            ]
        },
        {
            "positions": [
                0.7511059339261159,
                -1.770131161197254,
                1.915307793662723,
                1.4858956636382317,
                -0.39132570086943086,
                0.29509776962821427
            ]
        },
        {
            "positions": [
                0.8221208137240317,
                -1.7750413895725863,
                1.7866107714351869,
                1.3506373693229792,
                -0.41777218166453584,
                0.3073369939803338
            ]
        },
        {
            "positions": [
                0.8931356935219474,
                -1.7799516179479185,
                1.6579137492076508,
                1.2153790750077267,
                -0.4442186624596408,
                0.3195762183324534
            ]
        },
        {
            "positions": [
                0.9641505733198632,
                -1.7848618463232506,
                1.5292167269801147,
                1.0801207806924742,
                -0.4706651432547458,
                0.33181544268457297
            ]
        },
        {
            "positions": [
                1.035165453117779,
                -1.789772074698583,
                1.4005197047525784,
                0.9448624863772217,
                -0.4971116240498508,
                0.3440546670366926
            ]
        },
        {
            "positions": [
                1.1061803329156947,
                -1.7946823030739152,
                1.2718226825250423,
                0.8096041920619692,
                -0.5235581048449558,
                0.3562938913888122
            ]
        },
        {
            "positions": [
                1.1771952127136105,
                -1.7995925314492474,
                1.1431256602975062,
                0.6743458977467167,
                -0.5500045856400608,
                0.3685331157409317
            ]
        },
        {
            "positions": [
                1.2482100925115265,
                -1.8045027598245795,
                1.0144286380699699,
                0.539087603431464,
                -0.5764510664351659,
                0.38077234009305133
            ]
        },
        {
            "positions": [
                1.319224972309442,
                -1.8094129881999117,
                0.885731615842434,
                0.40382930911621173,
                -0.6028975472302707,
                0.39301156444517094
            ]
        },
        {
            "positions": [
                1.390239852107358,
                -1.814323216575244,
                0.7570345936148977,
                0.26857101480095924,
                -0.6293440280253757,
                0.4052507887972905
            ]
        },
        {
            "positions": [
                1.4612547319052736,
                -1.8192334449505763,
                0.6283375713873616,
                0.13331272048570697,
                -0.6557905088204807,
                0.41749001314941003
            ]
        },
        {
            "positions": [
                1.5322696117031898,
                -1.8241436733259084,
                0.4996405491598255,
                -0.0019455738295457436,
                -0.6822369896155858,
                0.42972923750152964
            ]
        },
        {
            "positions": [
                1.6032844915011055,
                -1.8290539017012406,
                0.37094352693228894,
                -0.13720386814479824,
                -0.7086834704106908,
                0.44196846185364924
            ]
        },
        {
            "positions": [
                1.6742993712990213,
                -1.8339641300765728,
                0.24224650470475328,
                -0.2724621624600507,
                -0.7351299512057956,
                0.4542076862057688
            ]
        },
        {
            "positions": [
                1.745314251096937,
                -1.8388743584519052,
                0.11354948247721675,
                -0.4077204567753032,
                -0.7615764320009006,
                0.4664469105578884
            ]
        },
        {
            "positions": [
                1.8163291308948528,
                -1.8437845868272373,
                -0.01514753975031935,
                -0.5429787510905557,
                -0.7880229127960057,
                0.47868613491000794
            ]
        },
        {
            "positions": [
                1.8873440106927686,
                -1.8486948152025695,
                -0.14384456197785533,
                -0.6782370454058082,
                -0.8144693935911107,
                0.49092535926212755
            ]
        },
        {
            "positions": [
                1.9476935650542115,
                -1.8573462604993793,
                -0.23369917076755403,
                -0.8146616889666551,
                -0.8069255083411623,
                0.578205029723959
            ]
        },
        {
            "positions": [
                2.008043119415655,
                -1.8659977057961892,
                -0.32355377955725273,
                -0.9510863325275021,
                -0.7993816230912139,
                0.6654847001857905
            ]
        },
        {
            "positions": [
                2.068392673777098,
                -1.8746491510929988,
                -0.4134083883469514,
                -1.0875109760883492,
                -0.7918377378412654,
                0.752764370647622
            ]
        },
        {
            "positions": [
                2.128742228138541,
                -1.8833005963898086,
                -0.5032629971366501,
                -1.223935619649196,
                -0.784293852591317,
                0.8400440411094535
            ]
        },
        {
            "positions": [
                2.189091782499984,
                -1.8919520416866185,
                -0.5931176059263488,
                -1.360360263210043,
                -0.7767499673413685,
                0.927323711571285
            ]
        },
        {
            "positions": [
                2.2494413368614268,
                -1.900603486983428,
                -0.6829722147160475,
                -1.49678490677089,
                -0.76920608209142,
                1.0146033820331164
            ]
        },
        {
            "positions": [
                2.30979089122287,
                -1.909254932280238,
                -0.7728268235057462,
                -1.633209550331737,
                -0.7616621968414716,
                1.101883052494948
            ]
        },
        {
            "positions": [
                2.370140445584313,
                -1.9179063775770477,
                -0.8626814322954449,
                -1.769634193892584,
                -0.7541183115915232,
                1.1891627229567794
            ]
        },
        {
            "positions": [
                2.430489999945756,
                -1.9265578228738576,
                -0.9525360410851437,
                -1.9060588374534309,
                -0.7465744263415748,
                1.2764423934186109
            ]
        },
        {
            "positions": [
                2.4908395543071995,
                -1.9352092681706674,
                -1.0423906498748423,
                -2.042483481014278,
                -0.7390305410916264,
                1.3637220638804424
            ]
        },
        {
            "positions": [
                2.5511891086686425,
                -1.943860713467477,
                -1.132245258664541,
                -2.1789081245751247,
                -0.7314866558416779,
                1.4510017343422739
            ]
        },
        {
            "positions": [
                2.6115386630300854,
                -1.9525121587642869,
                -1.2220998674542396,
                -2.315332768135972,
                -0.7239427705917294,
                1.5382814048041054
            ]
        },
        {
            "positions": [
                2.6718882173915284,
                -1.9611636040610967,
                -1.3119544762439386,
                -2.4517574116968186,
                -0.716398885341781,
                1.6255610752659369
            ]
        },
        {
            "positions": [
                2.7322377717529713,
                -1.9698150493579063,
                -1.401809085033637,
                -2.5881820552576658,
                -0.7088550000918326,
                1.7128407457277683
            ]
        },
        {
            "positions": [
                2.7925873261144147,
                -1.9784664946547161,
                -1.4916636938233356,
                -2.7246066988185125,
                -0.7013111148418841,
                1.8001204161895998
            ]
        },
        {
            "positions": [
                2.8529368804758577,
                -1.987117939951526,
                -1.5815183026130346,
                -2.8610313423793596,
                -0.6937672295919357,
                1.8874000866514316
            ]
        },
        {
            "positions": [
                2.8302455812998053,
                -2.023651672168938,
                -1.5914519749677483,
                -2.8220490670276606,
                -0.6606630937012888,
                2.0555965850956044
            ]
        },
        {
            "positions": [
                2.8075542821237534,
                -2.0601854043863495,
                -1.6013856473224617,
                -2.7830667916759615,
                -0.6275589578106419,
                2.2237930835397774
            ]
        },
        {
            "positions": [
                2.784862982947701,
                -2.0967191366037614,
                -1.6113193196771753,
                -2.7440845163242624,
                -0.594454821919995,
                2.3919895819839505
            ]
        },
        {
            "positions": [
                2.7540737173336964,
                -2.119426720848447,
                -1.620333711680705,
                -2.6760344026251497,
                -0.5646070567304451,
                2.583290849350911
            ]
        },
        {
            "positions": [
                2.7232844517196924,
                -2.1421343050931325,
                -1.6293481036842348,
                -2.6079842889260374,
                -0.5347592915408952,
                2.774592116717871
            ]
        },
        {
            "positions": [
                2.6924951861056883,
                -2.1648418893378185,
                -1.6383624956877645,
                -2.539934175226925,
                -0.5049115263513452,
                2.965893384084832
            ]
        },
        {
            "positions": [
                2.6617059204916838,
                -2.187549473582504,
                -1.6473768876912942,
                -2.4718840615278124,
                -0.4750637611617953,
                3.157194651451792
            ]
        }
    ]
}