{
    "goal": {
        "global_pose": {
            "orientation": {
                "w": -0.4816463035849501,
                "x": 0.5182115481033762,
                "y": 0.4908360881923453,
                "z": -0.5084816262002911
            },
            "position": {
                "x": -0.8240239810943604,
                "y": -0.300875300988555,
                "z": 0.16403168439865112
            }
        },
        "name": "move_to_storage_C"
    },
    "id": "LazyPRM_move_to_storage_C_121",
    "joint_names": [
        "shoulder_pan_joint",
        "shoulder_lift_joint",
        "elbow_joint",
        "wrist_1_joint",
        "wrist_2_joint",
        "wrist_3_joint"
    ],
    "metrics": {
        "cart_traj_len": 0.5758413608060031,
        "distance_elbow_joint": 0.2589413835819958,
        "distance_shoulder_lift_joint": 0.18881852426619505,
        "distance_shoulder_pan_joint": 0.49446200543904695,
        "distance_wrist_1_joint": 0.08811723478835409,
        "distance_wrist_2_joint": 1.0664617594079107,
        "distance_wrist_3_joint": 0.059923392010416965,
        "smoothness": 0.0,
        "time": 0.011674259000000001,
        "traj_len": 1.4685790068954134,
        "weighted_distance": 1.8523363835197477
    },
    "planner": "LazyPRM",
    "start": {
        "state": {
            "elbow_joint": 2.010868314990456,
            "shoulder_lift_joint": -1.1634956873337592,
            "shoulder_pan_joint": -2.4736205022346125,
            "wrist_1_joint": -0.8367026794202681,
            "wrist_2_joint": 0.6746043897044499,
            "wrist_3_joint": -3.1496632123970403
        }
    },
    "waypoints": [
        {
            "positions": [
                -2.4736205022346125,
                -1.1634956873337592,
                2.010868314990456,
                -0.8367026794202681,
                0.6746043897044499,
                -3.1496632123970403
            ]
        },
        {
            "positions": [
                -2.5560308364744535,
                -1.1320259332893934,
                1.9677114177267898,
                -0.8220164736222091,
                0.8523480162724351,
                -3.139675980395304
            ]
        },
        {
            "positions": [
                -2.638441170714295,
                -1.1005561792450276,
                1.9245545204631238,
                -0.8073302678241501,
                1.03009164284042,
                -3.129688748393568
            ]
        },
        {
            "positions": [
                -2.720851504954136,
                -1.0690864252006618,
                1.881397623199458,
                -0.7926440620260911,
                1.2078352694084051,
                -3.1197015163918316
            ]
        },
        {
            "positions": [
                -2.803261839193977,
                -1.0376166711562957,
                1.838240725935792,
                -0.777957856228032,
                1.3855788959763902,
                -3.109714284390096
            ]
        },
        {
            "positions": [
                -2.8856721734338184,
                -1.00614691711193,
                1.795083828672126,
                -0.763271650429973,
                1.5633225225443756,
                -3.0997270523883595
            ]
        },
        {
            "positions": [
                -2.9680825076736594,
                -0.9746771630675641,
                1.75192693140846,
                -0.748585444631914,
                1.7410661491123605,
                -3.0897398203866233
            ]
        }
    ]
}