{
    "goal": {
        "global_pose": {
            "orientation": {
                "w": 0.7047431493862688,
                "x": -0.7094548369677653,
                "y": 0.0024358444001904,
                "z": -0.0022348060817251984
            },
            "position": {
                "x": -0.39052492380142206,
                "y": 0.3671506643295288,
                "z": 0.19426114857196808
            }
        },
        "name": "move_to_magneteinheit_D"
    },
    "id": "LazyPRM_move_to_magneteinheit_D_127",
    "joint_names": [
        "shoulder_pan_joint",
        "shoulder_lift_joint",
        "elbow_joint",
        "wrist_1_joint",
        "wrist_2_joint",
        "wrist_3_joint"
    ],
    "metrics": {
        "cart_traj_len": 4.592209595198736,
        "distance_elbow_joint": 3.1118367743417292,
        "distance_shoulder_lift_joint": 1.0965706124496126,
        "distance_shoulder_pan_joint": 3.2695398061164145,
        "distance_wrist_1_joint": 2.6140272501965356,
        "distance_wrist_2_joint": 1.8719946489722363,
        "distance_wrist_3_joint": 6.7014481133005095,
        "smoothness": 0.3909844839698147,
        "time": 0.726121322,
        "traj_len": 4.320349199471848,
        "weighted_distance": 6.046018138506271
    },
    "planner": "LazyPRM",
    "start": {
        "state": {
            "elbow_joint": 0.749534889911806,
            "shoulder_lift_joint": -0.6476975780787326,
            "shoulder_pan_joint": -2.711696901376241,
            "wrist_1_joint": -0.07506478083263063,
            "wrist_2_joint": 0.43296659715538205,
            "wrist_3_joint": -3.14703540197715
        }
    },
    "waypoints": [
        {
            "positions": [
                -2.711696901376241,
                -0.6476975780787326,
                0.749534889911806,
                -0.07506478083263063,
                0.43296659715538205,
                -3.14703540197715
            ]
        },
        {
            "positions": [
                -2.7708556141199683,
                -0.6653573077274608,
                0.6492206998855597,
                -0.014388053427849476,
                0.34253888671305943,
                -3.1983137919457105
            ]
        },
        {
            "positions": [
                -2.8300143268636955,
                -0.6830170373761891,
                0.5489065098593136,
                0.04628867397693168,
                0.25211117627073676,
                -3.2495921819142706
            ]
        },
        {
            "positions": [
                -2.8891730396074227,
                -0.7006767670249174,
                0.44859231983306747,
                0.10696540138171284,
                0.16168346582841414,
                -3.3008705718828306
            ]
        },
        {
            "positions": [
                -2.94833175235115,
                -0.7183364966736456,
                0.34827812980682127,
                0.16764212878649398,
                0.07125575538609147,
                -3.352148961851391
            ]
        },
        {
            "positions": [
                -2.875863236123922,
                -0.7427745259027942,
                0.2934352067759123,
                0.10923822609374556,
                0.0492266059606303,
                -3.194320207304173
            ]
        },
        {
            "positions": [
                -2.8033947198966946,
                -0.7672125551319428,
                0.23859228374500335,
                0.05083432340099714,
                0.027197456535169126,
                -3.0364914527569553
            ]
        },
        {
            "positions": [
                -2.730926203669467,
                -0.7916505843610913,
                0.18374936071409442,
                -0.007569579291751283,
                0.005168307109707962,
                -2.8786626982097374
            ]
        },
        {
            "positions": [
                -2.6584576874422394,
                -0.8160886135902399,
                0.12890643768318544,
                -0.0659734819844997,
                -0.016860842315753216,
                -2.7208339436625195
            ]
        },
        {
            "positions": [
                -2.5859891712150116,
                -0.8405266428193885,
                0.07406351465227651,
                -0.12437738467724813,
                -0.03888999174121438,
                -2.5630051891153016
            ]
        },
        {
            "positions": [
                -2.5135206549877838,
                -0.864964672048537,
                0.019220591621367578,
                -0.18278128736999655,
                -0.060919141166675544,
                -2.4051764345680837
            ]
        },
        {
            "positions": [
                -2.4410521387605564,
                -0.8894027012776855,
                -0.03562233140954135,
                -0.24118519006274497,
                -0.08294829059213671,
                -2.247347680020866
            ]
        },
        {
            "positions": [
                -2.3685836225333285,
                -0.9138407305068341,
                -0.0904652544404504,
                -0.2995890927554934,
                -0.1049774400175979,
                -2.089518925473648
            ]
        },
        {
            "positions": [
                -2.2961151063061007,
                -0.9382787597359827,
                -0.14530817747135932,
                -0.3579929954482418,
                -0.12700658944305906,
                -1.93169017092643
            ]
        },
        {
            "positions": [
                -2.2236465900788733,
                -0.9627167889651312,
                -0.20015110050226825,
                -0.41639689814099023,
                -0.14903573886852023,
                -1.7738614163792121
            ]
        },
        {
            "positions": [
                -2.1511780738516455,
                -0.9871548181942797,
                -0.25499402353317724,
                -0.47480080083373866,
                -0.17106488829398142,
                -1.616032661831994
            ]
        },
        {
            "positions": [
                -2.0787095576244177,
                -1.0115928474234284,
                -0.3098369465640861,
                -0.5332047035264871,
                -0.19309403771944256,
                -1.4582039072847763
            ]
        },
        {
            "positions": [
                -2.0062410413971903,
                -1.036030876652577,
                -0.3646798695949951,
                -0.5916086062192355,
                -0.21512318714490375,
                -1.3003751527375584
            ]
        },
        {
            "positions": [
                -1.9337725251699627,
                -1.0604689058817254,
                -0.419522792625904,
                -0.6500125089119839,
                -0.23715233657036489,
                -1.1425463981903405
            ]
        },
        {
            "positions": [
                -1.8613040089427348,
                -1.084906935110874,
                -0.47436571565681296,
                -0.7084164116047323,
                -0.2591814859958261,
                -0.9847176436431226
            ]
        },
        {
            "positions": [
                -1.7888354927155072,
                -1.1093449643400226,
                -0.529208638687722,
                -0.7668203142974808,
                -0.28121063542128727,
                -0.8268888890959047
            ]
        },
        {
            "positions": [
                -1.7163669764882796,
                -1.1337829935691712,
                -0.5840515617186309,
                -0.8252242169902292,
                -0.3032397848467484,
                -0.6690601345486868
            ]
        },
        {
            "positions": [
                -1.6438984602610518,
                -1.1582210227983198,
                -0.6388944847495399,
                -0.8836281196829776,
                -0.3252689342722096,
                -0.511231380001469
            ]
        },
        {
            "positions": [
                -1.5714299440338244,
                -1.1826590520274682,
                -0.6937374077804487,
                -0.9420320223757259,
                -0.34729808369767073,
                -0.35340262545425105
            ]
        },
        {
            "positions": [
                -1.4989614278065966,
                -1.2070970812566169,
                -0.7485803308113578,
                -1.0004359250684745,
                -0.3693272331231319,
                -0.19557387090703315
            ]
        },
        {
            "positions": [
                -1.4264929115793687,
                -1.2315351104857655,
                -0.8034232538422669,
                -1.058839827761223,
                -0.3913563825485931,
                -0.037745116359815256
            ]
        },
        {
            "positions": [
                -1.3540243953521411,
                -1.2559731397149139,
                -0.8582661768731757,
                -1.1172437304539713,
                -0.4133855319740543,
                0.12008363818740309
            ]
        },
        {
            "positions": [
                -1.2815558791249138,
                -1.2804111689440625,
                -0.9131090999040846,
                -1.1756476331467196,
                -0.4354146813995154,
                0.2779123927346201
            ]
        },
        {
            "positions": [
                -1.209087362897686,
                -1.304849198173211,
                -0.9679520229349935,
                -1.2340515358394681,
                -0.4574438308249766,
                0.43574114728183844
            ]
        },
        {
            "positions": [
                -1.1366188466704583,
                -1.3292872274023597,
                -1.0227949459659027,
                -1.2924554385322164,
                -0.4794729802504378,
                0.5935699018290563
            ]
        },
        {
            "positions": [
                -1.0641503304432305,
                -1.3537252566315083,
                -1.0776378689968116,
                -1.350859341224965,
                -0.501502129675899,
                0.7513986563762742
            ]
        },
        {
            "positions": [
                -0.9916818142160029,
                -1.3781632858606567,
                -1.1324807920277205,
                -1.4092632439177135,
                -0.5235312791013602,
                0.9092274109234921
            ]
        },
        {
            "positions": [
                -0.9192132979887755,
                -1.4026013150898053,
                -1.1873237150586293,
                -1.4676671466104618,
                -0.5455604285268212,
                1.06705616547071
            ]
        },
        {
            "positions": [
                -0.8467447817615477,
                -1.427039344318954,
                -1.2421666380895382,
                -1.5260710493032101,
                -0.5675895779522824,
                1.224884920017928
            ]
        },
        {
            "positions": [
                -0.7742762655343198,
                -1.4514773735481024,
                -1.297009561120447,
                -1.5844749519959587,
                -0.5896187273777436,
                1.3827136745651458
            ]
        },
        {
            "positions": [
                -0.701807749307092,
                -1.4759154027772512,
                -1.3518524841513564,
                -1.6428788546887072,
                -0.6116478768032048,
                1.5405424291123637
            ]
        },
        {
            "positions": [
                -0.6293392330798646,
                -1.5003534320063996,
                -1.4066954071822653,
                -1.7012827573814555,
                -0.633677026228666,
                1.6983711836595816
            ]
        },
        {
            "positions": [
                -0.5568707168526372,
                -1.524791461235548,
                -1.4615383302131741,
                -1.7596866600742038,
                -0.6557061756541271,
                1.8561999382067995
            ]
        },
        {
            "positions": [
                -0.4844022006254094,
                -1.5492294904646968,
                -1.516381253244083,
                -1.8180905627669524,
                -0.6777353250795883,
                2.0140286927540174
            ]
        },
        {
            "positions": [
                -0.41193368439818157,
                -1.5736675196938452,
                -1.571224176274992,
                -1.8764944654597009,
                -0.6997644745050495,
                2.1718574473012353
            ]
        },
        {
            "positions": [
                -0.33946516817095373,
                -1.5981055489229938,
                -1.6260670993059012,
                -1.9348983681524492,
                -0.7217936239305107,
                2.329686201848453
            ]
        },
        {
            "positions": [
                -0.26699665194372635,
                -1.6225435781521425,
                -1.68091002233681,
                -1.9933022708451975,
                -0.7438227733559719,
                2.487514956395671
            ]
        },
        {
            "positions": [
                -0.19452813571649896,
                -1.6469816073812908,
                -1.7357529453677185,
                -2.051706173537946,
                -0.7658519227814329,
                2.645343710942889
            ]
        },
        {
            "positions": [
                -0.12205961948927113,
                -1.6714196366104395,
                -1.7905958683986278,
                -2.1101100762306944,
                -0.7878810722068941,
                2.803172465490107
            ]
        },
        {
            "positions": [
                -0.04959110326204334,
                -1.695857665839588,
                -1.8454387914295367,
                -2.1685139789234427,
                -0.8099102216323554,
                2.9610012200373252
            ]
        },
        {
            "positions": [
                -0.06617570490814202,
                -1.705037769560895,
                -1.940429548253176,
                -2.1774170687536007,
                -0.7025152635720665,
                3.0008574483080457
            ]
        },
        {
            "positions": [
                -0.0827603065542407,
                -1.7142178732822018,
                -2.035420305076815,
                -2.186320158583759,
                -0.5951203055117777,
                3.040713676578766
            ]
        },
        {
            "positions": [
                -0.09934490820033938,
                -1.7233979770035086,
                -2.130411061900454,
                -2.195223248413917,
                -0.4877253474514889,
                3.0805699048494866
            ]
        },
        {
            "positions": [
                -0.14155015875739077,
                -1.7338330837659268,
                -2.246356473165189,
                -2.1909957667254165,
                -0.334258869449673,
                3.112377748212182
            ]
        },
        {
            "positions": [
                -0.18375540931444215,
                -1.7442681905283453,
                -2.3623018844299235,
                -2.1867682850369157,
                -0.18079239144785708,
                3.1441855915748773
            ]
        }
    ]
}