{
    "goal": {
        "global_pose": {
            "orientation": {
                "w": 0.005598929693374612,
                "x": 0.007748599140229565,
                "y": 0.7110244013736278,
                "z": -0.7031023480610252
            },
            "position": {
                "x": -0.8858502320852131,
                "y": -0.7141253447532654,
                "z": 0.3711530566215515
            }
        },
        "name": "move_to_auspresseinheit_C"
    },
    "id": "LazyPRM_move_to_auspresseinheit_C_49",
    "joint_names": [
        "shoulder_pan_joint",
        "shoulder_lift_joint",
        "elbow_joint",
        "wrist_1_joint",
        "wrist_2_joint",
        "wrist_3_joint"
    ],
    "metrics": {
        "cart_traj_len": 0.4939356134417507,
        "distance_elbow_joint": 1.0174952096842282,
        "distance_shoulder_lift_joint": 0.33324909947835624,
        "distance_shoulder_pan_joint": 0.2555999362157002,
        "distance_wrist_1_joint": 0.7104001043236953,
        "distance_wrist_2_joint": 1.3217742463749627,
        "distance_wrist_3_joint": 0.07569417433451608,
        "smoothness": 6.459479416000911e-16,
        "time": 0.012722706,
        "traj_len": 1.9272292988670183,
        "weighted_distance": 2.4285336048280555
    },
    "planner": "LazyPRM",
    "start": {
        "state": {
            "elbow_joint": 1.7527959577737207,
            "shoulder_lift_joint": -0.9740617694225068,
            "shoulder_pan_joint": -2.967991417825858,
            "wrist_1_joint": -0.759517768980727,
            "wrist_2_joint": 1.7443932448377408,
            "wrist_3_joint": -3.0840537646736568
        }
    },
    "waypoints": [
        {
            "positions": [
                -2.967991417825858,
                -0.9740617694225068,
                1.7527959577737207,
                -0.759517768980727,
                1.7443932448377408,
                -3.0840537646736568
            ]
        },
        {
            "positions": [
                -2.9424314242042877,
                -0.9407368594746711,
                1.6510464368052977,
                -0.6884777585483575,
                1.6122158202002446,
                -3.0916231821071083
            ]
        },
        {
            "positions": [
                -2.916871430582718,
                -0.9074119495268356,
                1.549296915836875,
                -0.617437748115988,
                1.4800383955627483,
                -3.09919259954056
            ]
        },
        {
            "positions": [
                -2.891311436961148,
                -0.8740870395789999,
                1.4475473948684523,
                -0.5463977376836184,
                1.347860970925252,
                -3.1067620169740118
            ]
        },
        {
            "positions": [
                -2.865751443339578,
                -0.8407621296311643,
                1.3457978739000294,
                -0.47535772725124886,
                1.2156835462877558,
                -3.1143314344074633
            ]
        },
        {
            "positions": [
                -2.8401914497180076,
                -0.8074372196833286,
                1.2440483529316064,
                -0.40431771681887935,
                1.0835061216502595,
                -3.121900851840915
            ]
        },
        {
            "positions": [
                -2.814631456096438,
                -0.774112309735493,
                1.1422988319631837,
                -0.33327770638650983,
                0.9513286970127632,
                -3.1294702692743663
            ]
        },
        {
            "positions": [
                -2.789071462474868,
                -0.7407873997876574,
                1.040549310994761,
                -0.2622376959541403,
                0.8191512723752671,
                -3.137039686707818
            ]
        },
        {
            "positions": [
                -2.763511468853298,
                -0.7074624898398219,
                0.9387997900263381,
                -0.19119768552177074,
                0.6869738477377707,
                -3.14460910414127
            ]
        },
        {
            "positions": [
                -2.7379514752317275,
                -0.6741375798919862,
                0.8370502690579152,
                -0.12015767508940123,
                0.5547964231002744,
                -3.1521785215747213
            ]
        },
        {
            "positions": [
                -2.7123914816101578,
                -0.6408126699441505,
                0.7353007480894924,
                -0.049117664657031754,
                0.42261899846277823,
                -3.159747939008173
            ]
        }
    ]
}