{
    "goal": {
        "global_pose": {
            "orientation": {
                "w": 0.7047431468963623,
                "x": -0.7094548344612122,
                "y": 0.0024358443915843964,
                "z": -0.0022348060738295317
            },
            "position": {
                "x": 0.6094750761985779,
                "y": 0.3671506643295288,
                "z": 0.19426114857196808
            }
        },
        "name": "move_to_magneteinheit_A"
    },
    "id": "LazyPRM_move_to_magneteinheit_A_124",
    "joint_names": [
        "shoulder_pan_joint",
        "shoulder_lift_joint",
        "elbow_joint",
        "wrist_1_joint",
        "wrist_2_joint",
        "wrist_3_joint"
    ],
    "metrics": {
        "cart_traj_len": 3.7186137236105945,
        "distance_elbow_joint": 3.8999966797975407,
        "distance_shoulder_lift_joint": 0.1005655238897818,
        "distance_shoulder_pan_joint": 3.234310595046869,
        "distance_wrist_1_joint": 0.7302618822810637,
        "distance_wrist_2_joint": 3.733287251898366,
        "distance_wrist_3_joint": 2.6766443036317056,
        "smoothness": 0.21724762171368361,
        "time": 0.07355779500000001,
        "traj_len": 3.7914464570326367,
        "weighted_distance": 4.91852660641255
    },
    "planner": "LazyPRM",
    "start": {
        "state": {
            "elbow_joint": -1.9196185241190666,
            "shoulder_lift_joint": -1.2443396400964142,
            "shoulder_pan_joint": 2.6996025414629847,
            "wrist_1_joint": -1.5485510000780065,
            "wrist_2_joint": -1.5709468930060704,
            "wrist_3_joint": 0.4420197071253992
        }
    },
    "waypoints": [
        {
            "positions": [
                2.6996025414629847,
                -1.2443396400964142,
                -1.9196185241190666,
                -1.5485510000780065,
                -1.5709468930060704,
                0.4420197071253992
            ]
        },
        {
            "positions": [
                2.5732690911646965,
                -1.2435205708987902,
                -1.8492604464899367,
                -1.536423186576444,
                -1.4526262036337703,
                0.5054607162292135
            ]
        },
        {
            "positions": [
                2.4469356408664087,
                -1.2427015017011664,
                -1.7789023688608068,
                -1.5242953730748814,
                -1.3343055142614704,
                0.5689017253330277
            ]
        },
        {
            "positions": [
                2.3206021905681204,
                -1.2418824325035425,
                -1.7085442912316766,
                -1.5121675595733188,
                -1.2159848248891703,
                0.632342734436842
            ]
        },
        {
            "positions": [
                2.194268740269832,
                -1.2410633633059185,
                -1.6381862136025467,
                -1.5000397460717563,
                -1.0976641355168701,
                0.6957837435406563
            ]
        },
        {
            "positions": [
                2.067935289971544,
                -1.2402442941082945,
                -1.5678281359734167,
                -1.4879119325701937,
                -0.9793434461445703,
                0.7592247526444706
            ]
        },
        {
            "positions": [
                1.9416018396732557,
                -1.2394252249106708,
                -1.4974700583442866,
                -1.4757841190686312,
                -0.8610227567722702,
                0.8226657617482849
            ]
        },
        {
            "positions": [
                1.8152683893749677,
                -1.2386061557130468,
                -1.4271119807151567,
                -1.4636563055670686,
                -0.7427020673999701,
                0.8861067708520992
            ]
        },
        {
            "positions": [
                1.6889349390766797,
                -1.2377870865154228,
                -1.3567539030860267,
                -1.451528492065506,
                -0.6243813780276701,
                0.9495477799559134
            ]
        },
        {
            "positions": [
                1.5626014887783914,
                -1.2369680173177988,
                -1.2863958254568968,
                -1.4394006785639435,
                -0.50606068865537,
                1.0129887890597278
            ]
        },
        {
            "positions": [
                1.4362680384801034,
                -1.236148948120175,
                -1.2160377478277669,
                -1.427272865062381,
                -0.3877399992830701,
                1.076429798163542
            ]
        },
        {
            "positions": [
                1.3099345881818152,
                -1.235329878922551,
                -1.1456796701986367,
                -1.4151450515608182,
                -0.26941930991077,
                1.1398708072673562
            ]
        },
        {
            "positions": [
                1.183601137883527,
                -1.234510809724927,
                -1.0753215925695068,
                -1.4030172380592556,
                -0.15109862053847012,
                1.2033118163711705
            ]
        },
        {
            "positions": [
                1.057267687585239,
                -1.2336917405273031,
                -1.0049635149403768,
                -1.390889424557693,
                -0.03277793116617023,
                1.2667528254749847
            ]
        },
        {
            "positions": [
                0.9309342372869507,
                -1.2328726713296794,
                -0.9346054373112467,
                -1.3787616110561305,
                0.08554275820613011,
                1.3301938345787994
            ]
        },
        {
            "positions": [
                0.8046007869886624,
                -1.2320536021320554,
                -0.8642473596821167,
                -1.366633797554568,
                0.20386344757843,
                1.3936348436826136
            ]
        },
        {
            "positions": [
                0.6782673366903746,
                -1.2312345329344314,
                -0.7938892820529868,
                -1.3545059840530054,
                0.3221841369507301,
                1.4570758527864278
            ]
        },
        {
            "positions": [
                0.5519338863920864,
                -1.2304154637368074,
                -0.7235312044238569,
                -1.3423781705514428,
                0.44050482632303,
                1.520516861890242
            ]
        },
        {
            "positions": [
                0.42560043609379816,
                -1.2295963945391837,
                -0.6531731267947267,
                -1.3302503570498803,
                0.5588255156953303,
                1.5839578709940563
            ]
        },
        {
            "positions": [
                0.2992669857955099,
                -1.2287773253415597,
                -0.5828150491655968,
                -1.3181225435483177,
                0.6771462050676302,
                1.6473988800978705
            ]
        },
        {
            "positions": [
                0.17293353549722212,
                -1.2279582561439357,
                -0.5124569715364669,
                -1.3059947300467551,
                0.7954668944399301,
                1.7108398892016847
            ]
        },
        {
            "positions": [
                0.04660008519893388,
                -1.2271391869463117,
                -0.4420988939073369,
                -1.2938669165451926,
                0.91378758381223,
                1.774280898305499
            ]
        },
        {
            "positions": [
                -0.07973336509935436,
                -1.226320117748688,
                -0.37174081627820676,
                -1.28173910304363,
                1.0321082731845304,
                1.8377219074093136
            ]
        },
        {
            "positions": [
                -0.20606681539764266,
                -1.225501048551064,
                -0.30138273864907694,
                -1.2696112895420675,
                1.1504289625568305,
                1.9011629165131279
            ]
        },
        {
            "positions": [
                -0.1825924412414824,
                -1.2196634105264617,
                -0.1383998176256805,
                -1.2373739915602728,
                1.0781495771042973,
                1.9881272803876977
            ]
        },
        {
            "positions": [
                -0.15911806708532217,
                -1.2138257725018595,
                0.024583103397715966,
                -1.2051366935784782,
                1.005870191651764,
                2.0750916442622676
            ]
        },
        {
            "positions": [
                -0.1356436929291619,
                -1.2079881344772572,
                0.18756602442111242,
                -1.1728993955966835,
                0.9335908061992307,
                2.162056008136837
            ]
        },
        {
            "positions": [
                -0.11216931877300167,
                -1.202150496452655,
                0.3505489454445089,
                -1.140662097614889,
                0.8613114207466975,
                2.249020372011407
            ]
        },
        {
            "positions": [
                -0.08869494461684141,
                -1.1963128584280527,
                0.5135318664679054,
                -1.1084247996330943,
                0.7890320352941642,
                2.335984735885977
            ]
        },
        {
            "positions": [
                -0.06522057046068117,
                -1.1904752204034506,
                0.6765147874913018,
                -1.0761875016512998,
                0.716752649841631,
                2.4229490997605465
            ]
        },
        {
            "positions": [
                -0.04174619630452092,
                -1.1846375823788482,
                0.8394977085146983,
                -1.0439502036695052,
                0.6444732643890978,
                2.509913463635116
            ]
        },
        {
            "positions": [
                -0.018271822148360678,
                -1.1787999443542458,
                1.0024806295380948,
                -1.0117129056877106,
                0.5721938789365646,
                2.596877827509686
            ]
        },
        {
            "positions": [
                0.0052025520077995935,
                -1.1729623063296437,
                1.1654635505614914,
                -0.9794756077059159,
                0.4999144934840313,
                2.683842191384256
            ]
        },
        {
            "positions": [
                0.028676926163959837,
                -1.1671246683050414,
                1.3284464715848876,
                -0.9472383097241213,
                0.42763510803149807,
                2.770806555258826
            ]
        },
        {
            "positions": [
                0.05215130032012005,
                -1.1612870302804392,
                1.4914293926082842,
                -0.9150010117423266,
                0.35535572257896486,
                2.8577709191333955
            ]
        },
        {
            "positions": [
                0.07562567447628032,
                -1.1554493922558369,
                1.6544123136316804,
                -0.8827637137605321,
                0.28307633712643165,
                2.944735283007965
            ]
        },
        {
            "positions": [
                0.0991000486324406,
                -1.1496117542312347,
                1.8173952346550775,
                -0.8505264157787373,
                0.21079695167389834,
                3.031699646882535
            ]
        },
        {
            "positions": [
                0.12257442278860083,
                -1.1437741162066324,
                1.9803781556784736,
                -0.8182891177969428,
                0.1385175662213651,
                3.118664010757105
            ]
        }
    ]
}