{
    "goal": {
        "global_pose": {
            "orientation": {
                "w": 0.5084816217422485,
                "x": -0.49083608388900757,
                "y": 0.5182115435600281,
                "z": -0.4816462993621826
            },
            "position": {
                "x": 0.5540239810943604,
                "y": 0.030875300988554955,
                "z": 0.16403168439865112
            }
        },
        "name": "move_to_storage_A"
    },
    "id": "LazyPRM_move_to_storage_A_126",
    "joint_names": [
        "shoulder_pan_joint",
        "shoulder_lift_joint",
        "elbow_joint",
        "wrist_1_joint",
        "wrist_2_joint",
        "wrist_3_joint"
    ],
    "metrics": {
        "cart_traj_len": 0.353702790627872,
        "distance_elbow_joint": 0.4520484332872987,
        "distance_shoulder_lift_joint": 0.23464388575629558,
        "distance_shoulder_pan_joint": 0.46235338480994387,
        "distance_wrist_1_joint": 0.25529907901628446,
        "distance_wrist_2_joint": 1.100613872777025,
        "distance_wrist_3_joint": 0.09109584597400078,
        "smoothness": 8.881784197001252e-16,
        "time": 0.021846813000000003,
        "traj_len": 1.611227638051448,
        "weighted_distance": 2.0332631766109763
    },
    "planner": "LazyPRM",
    "start": {
        "state": {
            "elbow_joint": 1.971548259319323,
            "shoulder_lift_joint": -1.1394851275133948,
            "shoulder_pan_joint": 0.1228115487234821,
            "wrist_1_joint": -0.7804723859257726,
            "wrist_2_joint": 0.12958671773740124,
            "wrist_3_joint": -3.192489227718131
        }
    },
    "waypoints": [
        {
            "positions": [
                0.1228115487234821,
                -1.1394851275133948,
                1.971548259319323,
                -0.7804723859257726,
                0.12958671773740124,
                -3.192489227718131
            ]
        },
        {
            "positions": [
                0.056761065179204415,
                -1.173005682621437,
                2.036126606931794,
                -0.8169436829280989,
                0.286817270991262,
                -3.179475535436131
            ]
        },
        {
            "positions": [
                -0.009289418365073271,
                -1.2065262377294792,
                2.1007049545442653,
                -0.8534149799304254,
                0.4440478242451227,
                -3.166461843154131
            ]
        },
        {
            "positions": [
                -0.07533990190935097,
                -1.2400467928375214,
                2.1652833021567366,
                -0.8898862769327517,
                0.6012783774989834,
                -3.153448150872131
            ]
        },
        {
            "positions": [
                -0.14139038545362864,
                -1.2735673479455638,
                2.229861649769208,
                -0.926357573935078,
                0.7585089307528441,
                -3.1404344585901307
            ]
        },
        {
            "positions": [
                -0.20744086899790637,
                -1.307087903053606,
                2.294439997381679,
                -0.9628288709374044,
                0.9157394840067048,
                -3.1274207663081306
            ]
        },
        {
            "positions": [
                -0.27349135254218404,
                -1.3406084581616482,
                2.3590183449941504,
                -0.9993001679397306,
                1.0729700372605655,
                -3.1144070740261305
            ]
        },
        {
            "positions": [
                -0.33954183608646177,
                -1.3741290132696904,
                2.4235966926066217,
                -1.035771464942057,
                1.2302005905144262,
                -3.1013933817441304
            ]
        }
    ]
}{
    "goal": {
        "global_pose": {
            "orientation": {
                "w": 0.5084816217422485,
                "x": -0.49083608388900757,
                "y": 0.5182115435600281,
                "z": -0.4816462993621826
            },
            "position": {
                "x": 0.5540239810943604,
                "y": 0.030875300988554955,
                "z": 0.16403168439865112
            }
        },
        "name": "move_to_storage_A"
    },
    "id": "LazyPRM_move_to_storage_A_126",
    "joint_names": [
        "shoulder_pan_joint",
        "shoulder_lift_joint",
        "elbow_joint",
        "wrist_1_joint",
        "wrist_2_joint",
        "wrist_3_joint"
    ],
    "metrics": {
        "cart_traj_len": 0.35369541054240783,
        "distance_elbow_joint": 0.45075075509155615,
        "distance_shoulder_lift_joint": 0.23538717031650158,
        "distance_shoulder_pan_joint": 0.46184678915726535,
        "distance_wrist_1_joint": 0.2463258914584896,
        "distance_wrist_2_joint": 1.103222729054854,
        "distance_wrist_3_joint": 0.09988721088017538,
        "smoothness": 6.661338165333112e-16,
        "time": 0.022009578999999998,
        "traj_len": 1.6116514964342763,
        "weighted_distance": 2.0363554670618136
    },
    "planner": "LazyPRM",
    "start": {
        "state": {
            "elbow_joint": 1.97154746011099,
            "shoulder_lift_joint": -1.13948474672311,
            "shoulder_pan_joint": 0.12281154466712228,
            "wrist_1_joint": -0.7804688027058302,
            "wrist_2_joint": 0.12958655903071145,
            "wrist_3_joint": 3.0906928834467795
        }
    },
    "waypoints": [
        {
            "positions": [
                0.12281154466712228,
                -1.13948474672311,
                1.97154746011099,
                -0.7804688027058302,
                0.12958655903071145,
                3.0906928834467795
            ]
        },
        {
            "positions": [
                0.05683343193037009,
                -1.173111485339753,
                2.0359404251240694,
                -0.8156582157713287,
                0.2871898060385477,
                3.1049624850010904
            ]
        },
        {
            "positions": [
                -0.009144680806382102,
                -1.2067382239563962,
                2.100333390137149,
                -0.8508476288368272,
                0.44479305304638395,
                3.119232086555401
            ]
        },
        {
            "positions": [
                -0.0751227935431343,
                -1.2403649625730393,
                2.1647263551502283,
                -0.8860370419023257,
                0.6023963000542203,
                3.1335016881097117
            ]
        },
        {
            "positions": [
                -0.14110090627988647,
                -1.2739917011896822,
                2.2291193201633077,
                -0.9212264549678242,
                0.7599995470620565,
                3.1477712896640226
            ]
        },
        {
            "positions": [
                -0.20707901901663867,
                -1.3076184398063253,
                2.293512285176387,
                -0.9564158680333228,
                0.9176027940698929,
                3.1620408912183335
            ]
        },
        {
            "positions": [
                -0.27305713175339086,
                -1.3412451784229684,
                2.3579052501894666,
                -0.9916052810988213,
                1.075206041077729,
                3.176310492772644
            ]
        },
        {
            "positions": [
                -0.33903524449014305,
                -1.3748719170396115,
                2.422298215202546,
                -1.0267946941643198,
                1.2328092880855654,
                3.190580094326955
            ]
        }
    ]
}{
    "goal": {
        "global_pose": {
            "orientation": {
                "w": 0.5084816217422485,
                "x": -0.49083608388900757,
                "y": 0.5182115435600281,
                "z": -0.4816462993621826
            },
            "position": {
                "x": 0.5540239810943604,
                "y": 0.030875300988554955,
                "z": 0.16403168439865112
            }
        },
        "name": "move_to_storage_A"
    },
    "id": "LazyPRM_move_to_storage_A_126",
    "joint_names": [
        "shoulder_pan_joint",
        "shoulder_lift_joint",
        "elbow_joint",
        "wrist_1_joint",
        "wrist_2_joint",
        "wrist_3_joint"
    ],
    "metrics": {
        "cart_traj_len": 0.3530850840418688,
        "distance_elbow_joint": 0.44898898093856543,
        "distance_shoulder_lift_joint": 0.2348818940697781,
        "distance_shoulder_pan_joint": 0.4605500630288866,
        "distance_wrist_1_joint": 0.2396327180511486,
        "distance_wrist_2_joint": 1.103812720307176,
        "distance_wrist_3_joint": 0.10543874019099109,
        "smoothness": 0.0,
        "time": 0.021889516,
        "traj_len": 1.6103742163194696,
        "weighted_distance": 2.036572619703715
    },
    "planner": "LazyPRM",
    "start": {
        "state": {
            "elbow_joint": 1.9715472970024885,
            "shoulder_lift_joint": -1.1394870060712896,
            "shoulder_pan_joint": 0.12281152778156021,
            "wrist_1_joint": -0.780463741449964,
            "wrist_2_joint": 0.12958659822042276,
            "wrist_3_joint": 3.090690232415272
        }
    },
    "waypoints": [
        {
            "positions": [
                0.12281152778156021,
                -1.1394870060712896,
                1.9715472970024885,
                -0.780463741449964,
                0.12958659822042276,
                3.090690232415272
            ]
        },
        {
            "positions": [
                0.05701866163457642,
                -1.173041562366972,
                2.035688579993712,
                -0.8146969868858424,
                0.28727412969287647,
                3.1057529095854135
            ]
        },
        {
            "positions": [
                -0.008774204512407374,
                -1.2065961186626548,
                2.0998298629849357,
                -0.8489302323217207,
                0.4449616611653302,
                3.120815586755555
            ]
        },
        {
            "positions": [
                -0.07456707065939117,
                -1.2401506749583373,
                2.1639711459761592,
                -0.8831634777575991,
                0.6026491926377838,
                3.135878263925697
            ]
        },
        {
            "positions": [
                -0.14035993680637496,
                -1.27370523125402,
                2.228112428967383,
                -0.9173967231934774,
                0.7603367241102376,
                3.150940941095838
            ]
        },
        {
            "positions": [
                -0.20615280295335878,
                -1.3072597875497025,
                2.292253711958607,
                -0.9516299686293559,
                0.9180242555826913,
                3.1660036182659796
            ]
        },
        {
            "positions": [
                -0.27194566910034257,
                -1.340814343845385,
                2.3563949949498304,
                -0.9858632140652343,
                1.075711787055145,
                3.1810662954361213
            ]
        },
        {
            "positions": [
                -0.3377385352473264,
                -1.3743689001410677,
                2.420536277941054,
                -1.0200964595011126,
                1.2333993185275987,
                3.196128972606263
            ]
        }
    ]
}