{
    "goal": {
        "global_pose": {
            "orientation": {
                "w": -0.00223480608172531,
                "x": 0.0024358444001904467,
                "y": 0.7094548369677653,
                "z": -0.704743149386269
            },
            "position": {
                "x": 0.6205249238014221,
                "y": -0.6371506643295288,
                "z": 0.19426114857196808
            }
        },
        "name": "move_to_magneteinheit_B"
    },
    "id": "LazyPRMstar_move_to_magneteinheit_B_118",
    "joint_names": [
        "shoulder_pan_joint",
        "shoulder_lift_joint",
        "elbow_joint",
        "wrist_1_joint",
        "wrist_2_joint",
        "wrist_3_joint"
    ],
    "metrics": {
        "cart_traj_len": 3.91150471385097,
        "distance_elbow_joint": 4.816428673521332,
        "distance_shoulder_lift_joint": 0.7702392453136442,
        "distance_shoulder_pan_joint": 2.983873912930357,
        "distance_wrist_1_joint": 4.862650599052531,
        "distance_wrist_2_joint": 0.5337736178587691,
        "distance_wrist_3_joint": 3.282724686363351,
        "smoothness": 0.43179822228149334,
        "time": 5.062182212,
        "traj_len": 4.153274700166121,
        "weighted_distance": 5.4047723656670295
    },
    "planner": "LazyPRMstar",
    "start": {
        "state": {
            "elbow_joint": 2.6216224122426386,
            "shoulder_lift_joint": -1.4174107377796124,
            "shoulder_pan_joint": 0.7066234856936794,
            "wrist_1_joint": 1.9546482284002225,
            "wrist_2_joint": -0.7096286983471962,
            "wrist_3_joint": 0.005740856962016249
        }
    },
    "waypoints": [
        {
            "positions": [
                0.7066234856936794,
                -1.4174107377796124,
                2.6216224122426386,
                1.9546482284002225,
                -0.7096286983471962,
                0.005740856962016249
            ]
        },
        {
            "positions": [
                0.7477612003059675,
                -1.4544084350024147,
                2.6282537527291425,
                1.9394556865854509,
                -0.6951321021282706,
                0.11408332614387048
            ]
        },
        {
            "positions": [
                0.7888989149182557,
                -1.491406132225217,
                2.6348850932156465,
                1.924263144770679,
                -0.680635505909345,
                0.22242579532572473
            ]
        },
        {
            "positions": [
                0.8645332101013283,
                -1.5304071202437,
                2.592211281660121,
                1.8864347759604017,
                -0.6549506799260217,
                0.3937390443045023
            ]
        },
        {
            "positions": [
                0.940167505284401,
                -1.5694081082621827,
                2.5495374701045956,
                1.8486064071501243,
                -0.6292658539426986,
                0.5650522932832799
            ]
        },
        {
            "positions": [
                1.0158018004674736,
                -1.6084090962806656,
                2.50686365854907,
                1.8107780383398469,
                -0.6035810279593754,
                0.7363655422620574
            ]
        },
        {
            "positions": [
                1.0757754942925046,
                -1.6184796103911316,
                2.3842619471734086,
                1.6856240389031045,
                -0.5959653652645683,
                0.805538286086183
            ]
        },
        {
            "positions": [
                1.1357491881175357,
                -1.6285501245015976,
                2.2616602357977476,
                1.5604700394663622,
                -0.5883497025697613,
                0.8747110299103086
            ]
        },
        {
            "positions": [
                1.1957228819425667,
                -1.6386206386120639,
                2.139058524422086,
                1.4353160400296199,
                -0.5807340398749542,
                0.9438837737344341
            ]
        },
        {
            "positions": [
                1.2556965757675975,
                -1.6486911527225299,
                2.016456813046425,
                1.3101620405928776,
                -0.5731183771801471,
                1.0130565175585597
            ]
        },
        {
            "positions": [
                1.3156702695926286,
                -1.6587616668329959,
                1.8938551016707637,
                1.1850080411561352,
                -0.56550271448534,
                1.0822292613826854
            ]
        },
        {
            "positions": [
                1.3756439634176596,
                -1.668832180943462,
                1.7712533902951024,
                1.0598540417193931,
                -0.5578870517905329,
                1.151402005206811
            ]
        },
        {
            "positions": [
                1.4356176572426906,
                -1.678902695053928,
                1.6486516789194412,
                0.9347000422826507,
                -0.5502713890957258,
                1.2205747490309364
            ]
        },
        {
            "positions": [
                1.4955913510677217,
                -1.688973209164394,
                1.5260499675437798,
                0.8095460428459085,
                -0.5426557264009187,
                1.289747492855062
            ]
        },
        {
            "positions": [
                1.5555650448927527,
                -1.69904372327486,
                1.4034482561681185,
                0.6843920434091662,
                -0.5350400637061117,
                1.3589202366791877
            ]
        },
        {
            "positions": [
                1.6155387387177838,
                -1.709114237385326,
                1.2808465447924573,
                0.5592380439724238,
                -0.5274244010113046,
                1.4280929805033133
            ]
        },
        {
            "positions": [
                1.6755124325428148,
                -1.7191847514957923,
                1.1582448334167958,
                0.4340840445356815,
                -0.5198087383164975,
                1.497265724327439
            ]
        },
        {
            "positions": [
                1.7354861263678458,
                -1.7292552656062583,
                1.0356431220411348,
                0.3089300450989394,
                -0.5121930756216905,
                1.5664384681515644
            ]
        },
        {
            "positions": [
                1.7954598201928769,
                -1.7393257797167243,
                0.9130414106654734,
                0.18377604566219707,
                -0.5045774129268834,
                1.63561121197569
            ]
        },
        {
            "positions": [
                1.855433514017908,
                -1.7493962938271905,
                0.7904396992898122,
                0.05862204622545453,
                -0.4969617502320763,
                1.7047839557998157
            ]
        },
        {
            "positions": [
                1.915407207842939,
                -1.7594668079376565,
                0.6678379879141507,
                -0.0665319532112878,
                -0.48934608753726916,
                1.7739566996239413
            ]
        },
        {
            "positions": [
                1.9753809016679698,
                -1.7695373220481225,
                0.5452362765384897,
                -0.1916859526480299,
                -0.4817304248424621,
                1.8431294434480667
            ]
        },
        {
            "positions": [
                2.0353545954930006,
                -1.7796078361585885,
                0.4226345651628285,
                -0.3168399520847722,
                -0.474114762147655,
                1.9123021872721924
            ]
        },
        {
            "positions": [
                2.095328289318032,
                -1.7896783502690545,
                0.30003285378716704,
                -0.44199395152151455,
                -0.46649909945284795,
                1.981474931096318
            ]
        },
        {
            "positions": [
                2.1553019831430626,
                -1.7997488643795208,
                0.1774311424115056,
                -0.5671479509582569,
                -0.4588834367580409,
                2.0506476749204436
            ]
        },
        {
            "positions": [
                2.215275676968094,
                -1.8098193784899868,
                0.05482943103584459,
                -0.6923019503949992,
                -0.4512677740632338,
                2.1198204187445695
            ]
        },
        {
            "positions": [
                2.2752493707931247,
                -1.8198898926004528,
                -0.06777228033981686,
                -0.8174559498317415,
                -0.4436521113684267,
                2.188993162568695
            ]
        },
        {
            "positions": [
                2.335223064618156,
                -1.829960406710919,
                -0.1903739917154783,
                -0.9426099492684838,
                -0.4360364486736196,
                2.2581659063928203
            ]
        },
        {
            "positions": [
                2.395196758443187,
                -1.840030920821385,
                -0.3129757030911393,
                -1.0677639487052257,
                -0.42842078597881256,
                2.3273386502169457
            ]
        },
        {
            "positions": [
                2.455170452268218,
                -1.850101434931851,
                -0.4355774144668003,
                -1.192917948141968,
                -0.4208051232840055,
                2.396511394041071
            ]
        },
        {
            "positions": [
                2.515144146093249,
                -1.860171949042317,
                -0.5581791258424618,
                -1.3180719475787104,
                -0.41318946058919837,
                2.465684137865197
            ]
        },
        {
            "positions": [
                2.57511783991828,
                -1.870242463152783,
                -0.6807808372181232,
                -1.4432259470154527,
                -0.4055737978943913,
                2.534856881689323
            ]
        },
        {
            "positions": [
                2.635091533743311,
                -1.8803129772632492,
                -0.8033825485937842,
                -1.568379946452195,
                -0.39795813519958423,
                2.6040296255134483
            ]
        },
        {
            "positions": [
                2.695065227568342,
                -1.8903834913737152,
                -0.9259842599694457,
                -1.6935339458889378,
                -0.39034247250477716,
                2.6732023693375737
            ]
        },
        {
            "positions": [
                2.755038921393373,
                -1.9004540054841812,
                -1.0485859713451071,
                -1.8186879453256801,
                -0.3827268098099701,
                2.7423751131616996
            ]
        },
        {
            "positions": [
                2.815012615218404,
                -1.9105245195946474,
                -1.1711876827207686,
                -1.9438419447624224,
                -0.37511114711516297,
                2.8115478569858254
            ]
        },
        {
            "positions": [
                2.874986309043435,
                -1.9205950337051134,
                -1.2937893940964296,
                -2.0689959441991648,
                -0.3674954844203559,
                2.8807206008099504
            ]
        },
        {
            "positions": [
                2.9349600028684657,
                -1.9306655478155794,
                -1.4163911054720906,
                -2.1941499436359067,
                -0.35987982172554883,
                2.9498933446340763
            ]
        },
        {
            "positions": [
                2.994933696693497,
                -1.9407360619260454,
                -1.538992816847752,
                -2.319303943072649,
                -0.35226415903074176,
                3.019066088458202
            ]
        },
        {
            "positions": [
                3.0549073905185278,
                -1.9508065760365114,
                -1.661594528223413,
                -2.4444579425093913,
                -0.3446484963359347,
                3.088238832282327
            ]
        },
        {
            "positions": [
                3.1148810843435593,
                -1.9608770901469776,
                -1.784196239599075,
                -2.5696119419461336,
                -0.33703283364112757,
                3.157411576106453
            ]
        },
        {
            "positions": [
                3.1748547781685903,
                -1.9709476042574436,
                -1.9067979509747361,
                -2.694765941382876,
                -0.3294171709463205,
                3.226584319930579
            ]
        },
        {
            "positions": [
                3.0459441230547286,
                -2.025123198966397,
                -1.8414272138852508,
                -2.641456834065518,
                -0.36780769356079385,
                3.2111140140818817
            ]
        },
        {
            "positions": [
                2.9170334679408674,
                -2.07929879367535,
                -1.7760564767957652,
                -2.5881477267481596,
                -0.4061982161752672,
                3.1956437082331846
            ]
        },
        {
            "positions": [
                2.7881228128270057,
                -2.1334743883843035,
                -1.7106857397062796,
                -2.5348386194308015,
                -0.4445887387897406,
                3.1801734023844874
            ]
        },
        {
            "positions": [
                2.659212157713144,
                -2.1876499830932565,
                -1.6453150026167942,
                -2.4815295121134433,
                -0.48297926140421393,
                3.1647030965357903
            ]
        }
    ]
}