{
    "goal": {
        "global_pose": {
            "orientation": {
                "w": 0.7047431493862688,
                "x": -0.7094548369677653,
                "y": 0.0024358444001904,
                "z": -0.0022348060817251984
            },
            "position": {
                "x": -0.39052492380142206,
                "y": 0.3671506643295288,
                "z": 0.19426114857196808
            }
        },
        "name": "move_to_magneteinheit_D"
    },
    "id": "LazyPRMstar_move_to_magneteinheit_D_47",
    "joint_names": [
        "shoulder_pan_joint",
        "shoulder_lift_joint",
        "elbow_joint",
        "wrist_1_joint",
        "wrist_2_joint",
        "wrist_3_joint"
    ],
    "metrics": {
        "cart_traj_len": 3.6657194216832316,
        "distance_elbow_joint": 3.5455433479717797,
        "distance_shoulder_lift_joint": 1.633069837557729,
        "distance_shoulder_pan_joint": 2.665886801922539,
        "distance_wrist_1_joint": 1.580963181808802,
        "distance_wrist_2_joint": 0.2940330421766387,
        "distance_wrist_3_joint": 3.156680543642271,
        "smoothness": 0.08229047164771004,
        "time": 5.045782178,
        "traj_len": 3.5883389966779555,
        "weighted_distance": 4.589611537630362
    },
    "planner": "LazyPRMstar",
    "start": {
        "state": {
            "elbow_joint": 0.749534889911806,
            "shoulder_lift_joint": -0.6476975780787326,
            "shoulder_pan_joint": -2.711696901376241,
            "wrist_1_joint": -0.07506478083263063,
            "wrist_2_joint": 0.43296659715538205,
            "wrist_3_joint": -3.14703540197715
        }
    },
    "waypoints": [
        {
            "positions": [
                -2.711696901376241,
                -0.6476975780787326,
                0.749534889911806,
                -0.07506478083263063,
                0.43296659715538205,
                -3.14703540197715
            ]
        },
        {
            "positions": [
                -2.711297520783049,
                -0.6579555988119741,
                0.7035561440882799,
                -0.07716968711157954,
                0.42985657294449886,
                -3.1385301249034994
            ]
        },
        {
            "positions": [
                -2.7018307411847293,
                -0.7111665922972762,
                0.46410715886108883,
                -0.06413363032238459,
                0.424427284623593,
                -3.0884403136598904
            ]
        },
        {
            "positions": [
                -2.6000617902758627,
                -0.7454402210229745,
                0.34199435053127314,
                -0.0020947286641525703,
                0.4252975699180838,
                -3.0192146602007925
            ]
        },
        {
            "positions": [
                -2.498292839366996,
                -0.7797138497486727,
                0.21988154220145745,
                0.05994417299407945,
                0.4261678552125746,
                -2.9499890067416947
            ]
        },
        {
            "positions": [
                -2.3965238884581295,
                -0.813987478474371,
                0.09776873387164181,
                0.12198307465231145,
                0.42703814050706546,
                -2.880763353282597
            ]
        },
        {
            "positions": [
                -2.2947549375492624,
                -0.8482611072000693,
                -0.024344074458173937,
                0.18402197631054348,
                0.42790842580155625,
                -2.811537699823499
            ]
        },
        {
            "positions": [
                -2.192985986640396,
                -0.8825347359257676,
                -0.14645688278798968,
                0.24606087796877554,
                0.42877871109604704,
                -2.7423120463644013
            ]
        },
        {
            "positions": [
                -2.091217035731529,
                -0.9168083646514659,
                -0.2685696911178052,
                0.3080997796270075,
                0.42964899639053783,
                -2.673086392905304
            ]
        },
        {
            "positions": [
                -1.9894480848226626,
                -0.9510819933771641,
                -0.39068249944762107,
                0.3701386812852395,
                0.4305192816850286,
                -2.603860739446206
            ]
        },
        {
            "positions": [
                -1.887679133913796,
                -0.9853556221028624,
                -0.5127953077774368,
                0.4321775829434715,
                0.43138956697951947,
                -2.5346350859871083
            ]
        },
        {
            "positions": [
                -1.7859101830049293,
                -1.0196292508285607,
                -0.6349081161072523,
                0.49421648460170353,
                0.43225985227401026,
                -2.4654094325280105
            ]
        },
        {
            "positions": [
                -1.6841412320960625,
                -1.053902879554259,
                -0.7570209244370683,
                0.5562553862599356,
                0.43313013756850105,
                -2.3961837790689127
            ]
        },
        {
            "positions": [
                -1.5823722811871959,
                -1.0881765082799573,
                -0.8791337327668838,
                0.6182942879181675,
                0.43400042286299184,
                -2.326958125609815
            ]
        },
        {
            "positions": [
                -1.4806033302783292,
                -1.1224501370056554,
                -1.0012465410966993,
                0.6803331895763995,
                0.43487070815748263,
                -2.2577324721507175
            ]
        },
        {
            "positions": [
                -1.3788343793694626,
                -1.1567237657313538,
                -1.1233593494265153,
                0.7423720912346317,
                0.4357409934519735,
                -2.1885068186916197
            ]
        },
        {
            "positions": [
                -1.2770654284605958,
                -1.1909973944570522,
                -1.245472157756331,
                0.8044109928928637,
                0.43661127874646427,
                -2.119281165232522
            ]
        },
        {
            "positions": [
                -1.1752964775517294,
                -1.2252710231827504,
                -1.3675849660861463,
                0.8664498945510956,
                0.43748156404095506,
                -2.050055511773424
            ]
        },
        {
            "positions": [
                -1.0735275266428626,
                -1.2595446519084486,
                -1.4896977744159623,
                0.9284887962093277,
                0.43835184933544585,
                -1.9808298583143262
            ]
        },
        {
            "positions": [
                -0.9717585757339957,
                -1.293818280634147,
                -1.6118105827457778,
                0.9905276978675598,
                0.43922213462993664,
                -1.9116042048552284
            ]
        },
        {
            "positions": [
                -0.8699896248251293,
                -1.3280919093598453,
                -1.7339233910755933,
                1.0525665995257918,
                0.4400924199244275,
                -1.8423785513961308
            ]
        },
        {
            "positions": [
                -0.7682206739162625,
                -1.3623655380855435,
                -1.8560361994054093,
                1.114605501184024,
                0.4409627052189183,
                -1.7731528979370328
            ]
        },
        {
            "positions": [
                -0.6664517230073956,
                -1.3966391668112417,
                -1.9781490077352253,
                1.176644402842256,
                0.4418329905134091,
                -1.703927244477935
            ]
        },
        {
            "positions": [
                -0.5646827720985295,
                -1.43091279553694,
                -2.10026181606504,
                1.238683304500488,
                0.44270327580789987,
                -1.6347015910188374
            ]
        },
        {
            "positions": [
                -0.4629138211896624,
                -1.4651864242626385,
                -2.222374624394856,
                1.3007222061587198,
                0.44357356110239066,
                -1.5654759375597396
            ]
        },
        {
            "positions": [
                -0.3611448702807958,
                -1.4994600529883366,
                -2.344487432724672,
                1.362761107816952,
                0.4444438463968815,
                -1.4962502841006418
            ]
        },
        {
            "positions": [
                -0.25937591937192916,
                -1.5337336817140348,
                -2.466600241054487,
                1.4248000094751838,
                0.4453141316913723,
                -1.4270246306415442
            ]
        },
        {
            "positions": [
                -0.15760696846306244,
                -1.5680073104397332,
                -2.588713049384303,
                1.486838911133416,
                0.4461844169858631,
                -1.3577989771824464
            ]
        },
        {
            "positions": [
                -0.14373655114405892,
                -1.6463811203662322,
                -2.5801217004612416,
                1.488278407101117,
                0.41148505861570256,
                -1.2080345680014397
            ]
        },
        {
            "positions": [
                -0.12986613382505538,
                -1.7247549302927312,
                -2.57153035153818,
                1.489717903068818,
                0.37678570024554203,
                -1.0582701588204333
            ]
        },
        {
            "positions": [
                -0.11599571650605185,
                -1.8031287402192302,
                -2.5629390026151184,
                1.491157399036519,
                0.34208634187538145,
                -0.9085057496394267
            ]
        },
        {
            "positions": [
                -0.1300328399165217,
                -1.8986564753026764,
                -2.5266347302338215,
                1.4932636369128698,
                0.31015863744096184,
                -0.7248755713785172
            ]
        },
        {
            "positions": [
                -0.14406996332699157,
                -1.994184210386123,
                -2.490330457852524,
                1.4953698747892208,
                0.2782309330065423,
                -0.5412453931176078
            ]
        },
        {
            "positions": [
                -0.15810708673746143,
                -2.089711945469569,
                -2.454026185471227,
                1.4974761126655716,
                0.24630322857212267,
                -0.35761521485669834
            ]
        },
        {
            "positions": [
                -0.1721442101479313,
                -2.1852396805530154,
                -2.4177219130899297,
                1.4995823505419226,
                0.21437552413770308,
                -0.1739850365957888
            ]
        },
        {
            "positions": [
                -0.18618133355840114,
                -2.2807674156364617,
                -2.3814176407086327,
                1.5016885884182734,
                0.1824478197032835,
                0.009645141665120604
            ]
        }
    ]
}