{
    "goal": {
        "global_pose": {
            "orientation": {
                "w": 0.005598929693374612,
                "x": 0.007748599140229565,
                "y": 0.7110244013736278,
                "z": -0.7031023480610252
            },
            "position": {
                "x": -0.8858502320852131,
                "y": -0.7141253447532654,
                "z": 0.3711530566215515
            }
        },
        "name": "move_to_auspresseinheit_C"
    },
    "id": "LazyPRM_move_to_auspresseinheit_C_62",
    "joint_names": [
        "shoulder_pan_joint",
        "shoulder_lift_joint",
        "elbow_joint",
        "wrist_1_joint",
        "wrist_2_joint",
        "wrist_3_joint"
    ],
    "metrics": {
        "cart_traj_len": 0.49354493491095647,
        "distance_elbow_joint": 1.0112577793628499,
        "distance_shoulder_lift_joint": 0.3304318756409278,
        "distance_shoulder_pan_joint": 0.25616501824216087,
        "distance_wrist_1_joint": 0.7025759520483967,
        "distance_wrist_2_joint": 1.3172945869800055,
        "distance_wrist_3_joint": 0.07426691672377972,
        "smoothness": 6.45947944157498e-16,
        "time": 0.012656503999999999,
        "traj_len": 1.9214557317300132,
        "weighted_distance": 2.4208255826213674
    },
    "planner": "LazyPRM",
    "start": {
        "state": {
            "elbow_joint": 1.7527959577737207,
            "shoulder_lift_joint": -0.9740617694225068,
            "shoulder_pan_joint": -2.967991417825858,
            "wrist_1_joint": -0.759517768980727,
            "wrist_2_joint": 1.7443932448377408,
            "wrist_3_joint": -3.0840537646736568
        }
    },
    "waypoints": [
        {
            "positions": [
                -2.967991417825858,
                -0.9740617694225068,
                1.7527959577737207,
                -0.759517768980727,
                1.7443932448377408,
                -3.0840537646736568
            ]
        },
        {
            "positions": [
                -2.9423749160016417,
                -0.941018581858414,
                1.6516701798374356,
                -0.6892601737758873,
                1.6126637861397404,
                -3.0914804563460345
            ]
        },
        {
            "positions": [
                -2.916758414177426,
                -0.9079753942943212,
                1.5505444019011507,
                -0.6190025785710476,
                1.4809343274417397,
                -3.0989071480184127
            ]
        },
        {
            "positions": [
                -2.8911419123532096,
                -0.8749322067302284,
                1.4494186239648656,
                -0.5487449833662079,
                1.3492048687437392,
                -3.106333839690791
            ]
        },
        {
            "positions": [
                -2.865525410528994,
                -0.8418890191661357,
                1.3482928460285808,
                -0.47848738816136827,
                1.2174754100457386,
                -3.1137605313631687
            ]
        },
        {
            "positions": [
                -2.8399089087047775,
                -0.8088458316020428,
                1.2471670680922957,
                -0.4082297929565286,
                1.085745951347738,
                -3.1211872230355464
            ]
        },
        {
            "positions": [
                -2.8142924068805613,
                -0.7758026440379501,
                1.1460412901560106,
                -0.33797219775168896,
                0.9540164926497375,
                -3.1286139147079246
            ]
        },
        {
            "positions": [
                -2.7886759050563454,
                -0.7427594564738573,
                1.0449155122197258,
                -0.2677146025468493,
                0.8222870339517371,
                -3.136040606380303
            ]
        },
        {
            "positions": [
                -2.763059403232129,
                -0.7097162689097645,
                0.9437897342834407,
                -0.19745700734200955,
                0.6905575752537365,
                -3.1434672980526805
            ]
        },
        {
            "positions": [
                -2.7374429014079134,
                -0.6766730813456717,
                0.8426639563471557,
                -0.1271994121371699,
                0.5588281165557358,
                -3.1508939897250583
            ]
        },
        {
            "positions": [
                -2.711826399583697,
                -0.643629893781579,
                0.7415381784108708,
                -0.05694181693233023,
                0.4270986578577353,
                -3.1583206813974365
            ]
        }
    ]
}