{
    "goal": {
        "global_pose": {
            "orientation": {
                "w": 0.5084816217422485,
                "x": -0.49083608388900757,
                "y": 0.5182115435600281,
                "z": -0.4816462993621826
            },
            "position": {
                "x": 0.5540239810943604,
                "y": 0.030875300988554955,
                "z": 0.16403168439865112
            }
        },
        "name": "move_to_storage_A"
    },
    "id": "LazyPRMstar_move_to_storage_A_25",
    "joint_names": [
        "shoulder_pan_joint",
        "shoulder_lift_joint",
        "elbow_joint",
        "wrist_1_joint",
        "wrist_2_joint",
        "wrist_3_joint"
    ],
    "metrics": {
        "cart_traj_len": 0.35228929626710326,
        "distance_elbow_joint": 0.4525798928565987,
        "distance_shoulder_lift_joint": 0.23293631130268877,
        "distance_shoulder_pan_joint": 0.4569541469703571,
        "distance_wrist_1_joint": 0.2607646419741477,
        "distance_wrist_2_joint": 1.1124540397874414,
        "distance_wrist_3_joint": 0.10252750611312278,
        "smoothness": 4.440892098500626e-16,
        "time": 5.000290867,
        "traj_len": 1.6180903988975266,
        "weighted_distance": 2.048533678754682
    },
    "planner": "LazyPRMstar",
    "start": {
        "state": {
            "elbow_joint": 1.971548259319323,
            "shoulder_lift_joint": -1.1394851275133948,
            "shoulder_pan_joint": 0.1228115487234821,
            "wrist_1_joint": -0.7804723859257726,
            "wrist_2_joint": 0.12958671773740124,
            "wrist_3_joint": -3.192489227718131
        }
    },
    "waypoints": [
        {
            "positions": [
                0.1228115487234821,
                -1.1394851275133948,
                1.971548259319323,
                -0.7804723859257726,
                0.12958671773740124,
                -3.192489227718131
            ]
        },
        {
            "positions": [
                0.05753238487057395,
                -1.172761743413779,
                2.0362025297274085,
                -0.8177244776363651,
                0.28850872342132144,
                -3.1778424411305424
            ]
        },
        {
            "positions": [
                -0.007746778982334196,
                -1.206038359314163,
                2.100856800135494,
                -0.8549765693469576,
                0.4474307291052416,
                -3.163195654542953
            ]
        },
        {
            "positions": [
                -0.07302594283524236,
                -1.2393149752145471,
                2.1655110705435794,
                -0.8922286610575502,
                0.6063527347891619,
                -3.1485488679553644
            ]
        },
        {
            "positions": [
                -0.1383051066881505,
                -1.2725915911149313,
                2.230165340951665,
                -0.9294807527681428,
                0.7652747404730821,
                -3.133902081367775
            ]
        },
        {
            "positions": [
                -0.20358427054105865,
                -1.3058682070153154,
                2.2948196113597508,
                -0.9667328444787353,
                0.9241967461570023,
                -3.1192552947801864
            ]
        },
        {
            "positions": [
                -0.2688634343939668,
                -1.3391448229156995,
                2.359473881767836,
                -1.0039849361893278,
                1.0831187518409224,
                -3.104608508192597
            ]
        },
        {
            "positions": [
                -0.334142598246875,
                -1.3724214388160836,
                2.4241281521759217,
                -1.0412370278999203,
                1.2420407575248427,
                -3.0899617216050084
            ]
        }
    ]
}{
    "goal": {
        "global_pose": {
            "orientation": {
                "w": 0.5084816217422485,
                "x": -0.49083608388900757,
                "y": 0.5182115435600281,
                "z": -0.4816462993621826
            },
            "position": {
                "x": 0.5540239810943604,
                "y": 0.030875300988554955,
                "z": 0.16403168439865112
            }
        },
        "name": "move_to_storage_A"
    },
    "id": "LazyPRMstar_move_to_storage_A_25",
    "joint_names": [
        "shoulder_pan_joint",
        "shoulder_lift_joint",
        "elbow_joint",
        "wrist_1_joint",
        "wrist_2_joint",
        "wrist_3_joint"
    ],
    "metrics": {
        "cart_traj_len": 0.35303361205821104,
        "distance_elbow_joint": 0.45105493417510356,
        "distance_shoulder_lift_joint": 0.23508762493495428,
        "distance_shoulder_pan_joint": 0.462916320124039,
        "distance_wrist_1_joint": 0.25143930745763465,
        "distance_wrist_2_joint": 1.0931503189862253,
        "distance_wrist_3_joint": 0.09621663294615335,
        "smoothness": 1.3322676295501878e-15,
        "time": 5.000588823999999,
        "traj_len": 1.6093057940068787,
        "weighted_distance": 2.0314743490776044
    },
    "planner": "LazyPRMstar",
    "start": {
        "state": {
            "elbow_joint": 1.97154746011099,
            "shoulder_lift_joint": -1.13948474672311,
            "shoulder_pan_joint": 0.12281154466712228,
            "wrist_1_joint": -0.7804688027058302,
            "wrist_2_joint": 0.12958655903071145,
            "wrist_3_joint": 3.0906928834467795
        }
    },
    "waypoints": [
        {
            "positions": [
                0.12281154466712228,
                -1.13948474672311,
                1.97154746011099,
                -0.7804688027058302,
                0.12958655903071145,
                3.0906928834467795
            ]
        },
        {
            "positions": [
                0.05668064179225957,
                -1.173068693142389,
                2.035983879278862,
                -0.8163887037712065,
                0.2857508903144579,
                3.1044381167248014
            ]
        },
        {
            "positions": [
                -0.009450261082603148,
                -1.2066526395616683,
                2.1004202984467337,
                -0.8523086048365829,
                0.4419152215982044,
                3.1181833500028233
            ]
        },
        {
            "positions": [
                -0.07558116395746585,
                -1.2402365859809474,
                2.164856717614606,
                -0.8882285059019593,
                0.5980795528819508,
                3.1319285832808452
            ]
        },
        {
            "positions": [
                -0.14171206683232856,
                -1.2738205324002267,
                2.2292931367824775,
                -0.9241484069673357,
                0.7542438841656973,
                3.145673816558867
            ]
        },
        {
            "positions": [
                -0.2078429697071913,
                -1.3074044788195058,
                2.2937295559503497,
                -0.9600683080327121,
                0.9104082154494438,
                3.159419049836889
            ]
        },
        {
            "positions": [
                -0.27397387258205397,
                -1.340988425238785,
                2.3581659751182213,
                -0.9959882090980885,
                1.0665725467331901,
                3.173164283114911
            ]
        },
        {
            "positions": [
                -0.3401047754569167,
                -1.3745723716580642,
                2.4226023942860935,
                -1.0319081101634648,
                1.2227368780169368,
                3.186909516392933
            ]
        }
    ]
}{
    "goal": {
        "global_pose": {
            "orientation": {
                "w": 0.5084816217422485,
                "x": -0.49083608388900757,
                "y": 0.5182115435600281,
                "z": -0.4816462993621826
            },
            "position": {
                "x": 0.5540239810943604,
                "y": 0.030875300988554955,
                "z": 0.16403168439865112
            }
        },
        "name": "move_to_storage_A"
    },
    "id": "LazyPRMstar_move_to_storage_A_25",
    "joint_names": [
        "shoulder_pan_joint",
        "shoulder_lift_joint",
        "elbow_joint",
        "wrist_1_joint",
        "wrist_2_joint",
        "wrist_3_joint"
    ],
    "metrics": {
        "cart_traj_len": 0.35356003738089914,
        "distance_elbow_joint": 0.4484150229781716,
        "distance_shoulder_lift_joint": 0.2364497722847918,
        "distance_shoulder_pan_joint": 0.45991422840978263,
        "distance_wrist_1_joint": 0.23601964130064434,
        "distance_wrist_2_joint": 1.1107106543471668,
        "distance_wrist_3_joint": 0.10585893621448239,
        "smoothness": 6.661338165333112e-16,
        "time": 5.001072446,
        "traj_len": 1.611635273731324,
        "weighted_distance": 2.0385819639180114
    },
    "planner": "LazyPRMstar",
    "start": {
        "state": {
            "elbow_joint": 1.9715472970024885,
            "shoulder_lift_joint": -1.1394870060712896,
            "shoulder_pan_joint": 0.12281152778156021,
            "wrist_1_joint": -0.780463741449964,
            "wrist_2_joint": 0.12958659822042276,
            "wrist_3_joint": 3.090690232415272
        }
    },
    "waypoints": [
        {
            "positions": [
                0.12281152778156021,
                -1.1394870060712896,
                1.9715472970024885,
                -0.780463741449964,
                0.12958659822042276,
                3.090690232415272
            ]
        },
        {
            "positions": [
                0.05710949515159128,
                -1.173265544969117,
                2.0356065859993704,
                -0.8141808330643417,
                0.28825954884144656,
                3.1058129375887695
            ]
        },
        {
            "positions": [
                -0.008592537478377654,
                -1.2070440838669445,
                2.099665874996252,
                -0.8478979246787195,
                0.4469324994624704,
                3.1209356427622668
            ]
        },
        {
            "positions": [
                -0.07429457010834659,
                -1.2408226227647718,
                2.1637251639931336,
                -0.8816150162930972,
                0.6056054500834942,
                3.1360583479357644
            ]
        },
        {
            "positions": [
                -0.13999660273831552,
                -1.2746011616625992,
                2.227784452990015,
                -0.915332107907475,
                0.764278400704518,
                3.1511810531092617
            ]
        },
        {
            "positions": [
                -0.2056986353682845,
                -1.3083797005604265,
                2.291843741986897,
                -0.9490491995218528,
                0.9229513513255418,
                3.1663037582827593
            ]
        },
        {
            "positions": [
                -0.27140066799825335,
                -1.342158239458254,
                2.3559030309837783,
                -0.9827662911362306,
                1.0816243019465657,
                3.1814264634562566
            ]
        },
        {
            "positions": [
                -0.3371027006282224,
                -1.3759367783560814,
                2.41996231998066,
                -1.0164833827506083,
                1.2402972525675895,
                3.1965491686297542
            ]
        }
    ]
}