{
    "goal": {
        "global_pose": {
            "orientation": {
                "w": 0.7031023502349854,
                "x": -0.7110244035720825,
                "y": 0.007748599164187908,
                "z": 0.005598929710686207
            },
            "position": {
                "x": 0.11585023208521307,
                "y": 0.44412534475326537,
                "z": 0.3711530566215515
            }
        },
        "name": "move_to_auspresseinheit_A"
    },
    "id": "LazyPRM_move_to_auspresseinheit_A_22",
    "joint_names": [
        "shoulder_pan_joint",
        "shoulder_lift_joint",
        "elbow_joint",
        "wrist_1_joint",
        "wrist_2_joint",
        "wrist_3_joint"
    ],
    "metrics": {
        "cart_traj_len": 0.6842369531560598,
        "distance_elbow_joint": 0.14208606090297726,
        "distance_shoulder_lift_joint": 0.6146709135286781,
        "distance_shoulder_pan_joint": 1.0440962885437786,
        "distance_wrist_1_joint": 0.5540606507031247,
        "distance_wrist_2_joint": 0.7602694149212794,
        "distance_wrist_3_joint": 1.0036305641707637,
        "smoothness": 0.9165068366006507,
        "time": 0.10322166699999999,
        "traj_len": 2.0294861154416903,
        "weighted_distance": 2.7277105943879993
    },
    "planner": "LazyPRM",
    "start": {
        "state": {
            "elbow_joint": 2.4225746658250005,
            "shoulder_lift_joint": -1.3736534386056498,
            "shoulder_pan_joint": -0.3378633547517467,
            "wrist_1_joint": -1.0288598680537169,
            "wrist_2_joint": 1.233022673432363,
            "wrist_3_joint": -3.0940220416140027
        }
    },
    "waypoints": [
        {
            "positions": [
                -0.3378633547517467,
                -1.3736534386056498,
                2.4225746658250005,
                -1.0288598680537169,
                1.233022673432363,
                -3.0940220416140027
            ]
        },
        {
            "positions": [
                -0.21963201848734443,
                -1.4454326683313536,
                2.4296450134287957,
                -0.9852972705095357,
                1.152347098081168,
                -3.0335580174142587
            ]
        },
        {
            "positions": [
                -0.10140068222294213,
                -1.5172118980570573,
                2.436715361032591,
                -0.9417346729653545,
                1.071671522729973,
                -2.9730939932145146
            ]
        },
        {
            "positions": [
                0.01683065404146017,
                -1.5889911277827609,
                2.4437857086363857,
                -0.8981720754211733,
                0.9909959473787779,
                -2.9126299690147706
            ]
        },
        {
            "positions": [
                0.13506199030586247,
                -1.6607703575084647,
                2.450856056240181,
                -0.8546094778769922,
                0.910320372027583,
                -2.8521659448150265
            ]
        },
        {
            "positions": [
                0.25329332657026477,
                -1.7325495872341685,
                2.457926403843976,
                -0.811046880332811,
                0.8296447966763879,
                -2.7917019206152824
            ]
        },
        {
            "positions": [
                0.37152466283466706,
                -1.8043288169598721,
                2.464996751447771,
                -0.7674842827886298,
                0.7489692213251928,
                -2.7312378964155384
            ]
        },
        {
            "positions": [
                0.48975599909906936,
                -1.8761080466855757,
                2.472067099051566,
                -0.7239216852444486,
                0.6682936459739979,
                -2.6707738722157943
            ]
        },
        {
            "positions": [
                0.6079873353634716,
                -1.9478872764112796,
                2.4791374466553613,
                -0.6803590877002674,
                0.5876180706228028,
                -2.6103098480160503
            ]
        },
        {
            "positions": [
                0.6407358681729917,
                -1.9344082511702634,
                2.4506296866311557,
                -0.6118391309170423,
                0.6259063413267092,
                -2.783615971540321
            ]
        },
        {
            "positions": [
                0.6734844009825116,
                -1.9209292259292474,
                2.4221219266069505,
                -0.5433191741338173,
                0.6641946120306156,
                -2.956922095064591
            ]
        },
        {
            "positions": [
                0.7062329337920317,
                -1.9074502006882312,
                2.393614166582745,
                -0.4747992173505922,
                0.702482882734522,
                -3.1302282185888615
            ]
        }
    ]
}