{
    "goal": {
        "global_pose": {
            "orientation": {
                "w": 0.005598929693374612,
                "x": 0.007748599140229565,
                "y": 0.7110244013736278,
                "z": -0.7031023480610252
            },
            "position": {
                "x": 0.1141497679147869,
                "y": -0.7141253447532654,
                "z": 0.3711530566215515
            }
        },
        "name": "move_to_auspresseinheit_B"
    },
    "id": "LazyPRM_move_to_auspresseinheit_B_29",
    "joint_names": [
        "shoulder_pan_joint",
        "shoulder_lift_joint",
        "elbow_joint",
        "wrist_1_joint",
        "wrist_2_joint",
        "wrist_3_joint"
    ],
    "metrics": {
        "cart_traj_len": 0.564753619007496,
        "distance_elbow_joint": 0.061337919454509615,
        "distance_shoulder_lift_joint": 0.2939328100006202,
        "distance_shoulder_pan_joint": 0.5782282896659705,
        "distance_wrist_1_joint": 0.32243839324203505,
        "distance_wrist_2_joint": 0.989768325242536,
        "distance_wrist_3_joint": 0.006201351596981652,
        "smoothness": 0.0,
        "time": 0.011810533,
        "traj_len": 1.5006355617546365,
        "weighted_distance": 1.8911680281987604
    },
    "planner": "LazyPRM",
    "start": {
        "state": {
            "elbow_joint": 2.0193083361928714,
            "shoulder_lift_joint": -1.1220246554650708,
            "shoulder_pan_joint": -1.0952077554168747,
            "wrist_1_joint": -0.8559753972642168,
            "wrist_2_joint": 0.4759566250798843,
            "wrist_3_joint": -3.1240929996934557
        }
    },
    "waypoints": [
        {
            "positions": [
                -1.0952077554168747,
                -1.1220246554650708,
                2.0193083361928714,
                -0.8559753972642168,
                0.4759566250798843,
                -3.1240929996934557
            ]
        },
        {
            "positions": [
                -1.1915791370278697,
                -1.171013457131841,
                2.00908534961712,
                -0.8022356650572109,
                0.6409180126203069,
                -3.1251265582929526
            ]
        },
        {
            "positions": [
                -1.287950518638865,
                -1.2200022587986108,
                1.9988623630413682,
                -0.7484959328502051,
                0.8058794001607297,
                -3.1261601168924495
            ]
        },
        {
            "positions": [
                -1.38432190024986,
                -1.268991060465381,
                1.9886393764656165,
                -0.6947562006431993,
                0.9708407877011522,
                -3.1271936754919465
            ]
        },
        {
            "positions": [
                -1.480693281860855,
                -1.317979862132151,
                1.978416389889865,
                -0.6410164684361934,
                1.135802175241575,
                -3.1282272340914434
            ]
        },
        {
            "positions": [
                -1.5770646634718501,
                -1.366968663798921,
                1.9681934033141135,
                -0.5872767362291875,
                1.3007635627819976,
                -3.1292607926909404
            ]
        },
        {
            "positions": [
                -1.6734360450828452,
                -1.415957465465691,
                1.9579704167383618,
                -0.5335370040221817,
                1.4657249503224203,
                -3.1302943512904373
            ]
        }
    ]
}