{
    "goal": {
        "global_pose": {
            "orientation": {
                "w": 0.5084816262002911,
                "x": -0.4908360881923452,
                "y": 0.5182115481033761,
                "z": -0.48164630358495003
            },
            "position": {
                "x": 0.5540239810943604,
                "y": -0.46912469901144505,
                "z": 0.16403168439865112
            }
        },
        "name": "move_to_storage_B"
    },
    "id": "LazyPRM_move_to_storage_B_17",
    "joint_names": [
        "shoulder_pan_joint",
        "shoulder_lift_joint",
        "elbow_joint",
        "wrist_1_joint",
        "wrist_2_joint",
        "wrist_3_joint"
    ],
    "metrics": {
        "cart_traj_len": 1.5346207949324433,
        "distance_elbow_joint": 0.8774985325369689,
        "distance_shoulder_lift_joint": 0.7819275037938191,
        "distance_shoulder_pan_joint": 0.9205411037468273,
        "distance_wrist_1_joint": 3.0106502156976154,
        "distance_wrist_2_joint": 2.7063167852202037,
        "distance_wrist_3_joint": 3.1480913035006437,
        "smoothness": 0.26552942789406786,
        "time": 0.23409876400000001,
        "traj_len": 3.3830497253951317,
        "weighted_distance": 4.843364022290208
    },
    "planner": "LazyPRM",
    "start": {
        "state": {
            "elbow_joint": 1.664937868594044,
            "shoulder_lift_joint": -0.661644460510453,
            "shoulder_pan_joint": -0.9139846352900073,
            "wrist_1_joint": 2.146753192139373,
            "wrist_2_joint": -2.2341966793290973,
            "wrist_3_joint": 0.005466555786416001
        }
    },
    "waypoints": [
        {
            "positions": [
                -0.9139846352900073,
                -0.661644460510453,
                1.664937868594044,
                2.146753192139373,
                -2.2341966793290973,
                0.005466555786416001
            ]
        },
        {
            "positions": [
                -0.8806195514306807,
                -0.6993231062248946,
                1.6699077730811709,
                2.1600512867948245,
                -2.2280499241293055,
                0.02090724228781393
            ]
        },
        {
            "positions": [
                -0.8547943786736107,
                -0.7441267929417666,
                1.6495944305583548,
                2.0866004624547734,
                -2.104563862115668,
                0.12341742874359603
            ]
        },
        {
            "positions": [
                -0.8289692059165409,
                -0.7889304796586386,
                1.6292810880355388,
                2.0131496381147223,
                -1.9810778001020302,
                0.22592761519937812
            ]
        },
        {
            "positions": [
                -0.8031440331594709,
                -0.8337341663755107,
                1.6089677455127227,
                1.9396988137746713,
                -1.8575917380883924,
                0.32843780165516023
            ]
        },
        {
            "positions": [
                -0.7773188604024011,
                -0.8785378530923826,
                1.5886544029899068,
                1.8662479894346202,
                -1.7341056760747549,
                0.4309479881109423
            ]
        },
        {
            "positions": [
                -0.7514936876453311,
                -0.9233415398092547,
                1.5683410604670907,
                1.7927971650945693,
                -1.610619614061117,
                0.5334581745667244
            ]
        },
        {
            "positions": [
                -0.7256685148882612,
                -0.9681452265261268,
                1.5480277179442745,
                1.7193463407545182,
                -1.4871335520474793,
                0.6359683610225065
            ]
        },
        {
            "positions": [
                -0.6998433421311913,
                -1.0129489132429987,
                1.5277143754214586,
                1.645895516414467,
                -1.3636474900338418,
                0.7384785474782886
            ]
        },
        {
            "positions": [
                -0.6740181693741214,
                -1.057752599959871,
                1.5074010328986425,
                1.572444692074416,
                -1.240161428020204,
                0.8409887339340707
            ]
        },
        {
            "positions": [
                -0.6481929966170514,
                -1.1025562866767429,
                1.4870876903758266,
                1.498993867734365,
                -1.1166753660065665,
                0.9434989203898527
            ]
        },
        {
            "positions": [
                -0.6223678238599815,
                -1.1473599733936148,
                1.4667743478530104,
                1.425543043394314,
                -0.9931893039929287,
                1.0460091068456348
            ]
        },
        {
            "positions": [
                -0.5965426511029116,
                -1.1921636601104868,
                1.4464610053301943,
                1.352092219054263,
                -0.8697032419792909,
                1.1485192933014168
            ]
        },
        {
            "positions": [
                -0.5707174783458417,
                -1.236967346827359,
                1.4261476628073781,
                1.278641394714212,
                -0.7462171799656532,
                1.251029479757199
            ]
        },
        {
            "positions": [
                -0.5448923055887718,
                -1.281771033544231,
                1.4058343202845622,
                1.2051905703741608,
                -0.6227311179520156,
                1.353539666212981
            ]
        },
        {
            "positions": [
                -0.5793578539666213,
                -1.2716584753717284,
                1.4438627687378893,
                1.077534857585317,
                -0.5543029164618205,
                1.4660408032801109
            ]
        },
        {
            "positions": [
                -0.6138234023444707,
                -1.2615459171992258,
                1.4818912171912164,
                0.9498791447964733,
                -0.4858747149716254,
                1.578541940347241
            ]
        },
        {
            "positions": [
                -0.6482889507223202,
                -1.2514333590267233,
                1.5199196656445435,
                0.8222234320076296,
                -0.41744651348143025,
                1.6910430774143708
            ]
        },
        {
            "positions": [
                -0.6827544991001697,
                -1.2413208008542207,
                1.5579481140978706,
                0.6945677192187858,
                -0.3490183119912351,
                1.8035442144815008
            ]
        },
        {
            "positions": [
                -0.7172200474780193,
                -1.2312082426817181,
                1.5959765625511977,
                0.566912006429942,
                -0.28059011050104,
                1.9160453515486306
            ]
        },
        {
            "positions": [
                -0.7516855958558687,
                -1.2210956845092156,
                1.6340050110045248,
                0.4392562936410983,
                -0.21216190901084486,
                2.0285464886157607
            ]
        },
        {
            "positions": [
                -0.7861511442337181,
                -1.210983126336713,
                1.6720334594578516,
                0.3116005808522546,
                -0.14373370752064973,
                2.1410476256828908
            ]
        },
        {
            "positions": [
                -0.8206166926115677,
                -1.2008705681642105,
                1.7100619079111787,
                0.18394486806341082,
                -0.0753055060304546,
                2.2535487627500204
            ]
        },
        {
            "positions": [
                -0.8550822409894172,
                -1.1907580099917077,
                1.7480903563645058,
                0.056289155274567015,
                -0.006877304540259477,
                2.3660498998171504
            ]
        },
        {
            "positions": [
                -0.8895477893672666,
                -1.180645451819205,
                1.786118804817833,
                -0.07136655751427678,
                0.06155089694993565,
                2.47855103688428
            ]
        },
        {
            "positions": [
                -0.9240133377451161,
                -1.1705328936467025,
                1.82414725327116,
                -0.19902227030312036,
                0.12997909844013078,
                2.59105217395141
            ]
        },
        {
            "positions": [
                -0.9584788861229656,
                -1.1604203354742,
                1.862175701724487,
                -0.32667798309196416,
                0.1984072999303259,
                2.70355331101854
            ]
        },
        {
            "positions": [
                -0.9929444345008152,
                -1.1503077773016974,
                1.9002041501778142,
                -0.45433369588080796,
                0.26683550142052104,
                2.81605444808567
            ]
        },
        {
            "positions": [
                -1.0274099828786647,
                -1.1401952191291949,
                1.9382325986311413,
                -0.5819894086696515,
                0.33526370291071617,
                2.9285555851528002
            ]
        },
        {
            "positions": [
                -1.061875531256514,
                -1.1300826609566923,
                1.9762610470844684,
                -0.7096451214584953,
                0.4036919044009113,
                3.0410567222199303
            ]
        },
        {
            "positions": [
                -1.0963410796343636,
                -1.1199701027841897,
                2.0142894955377955,
                -0.837300834247339,
                0.4721201058911065,
                3.15355785928706
            ]
        }
    ]
}