{
    "goal": {
        "global_pose": {
            "orientation": {
                "w": 0.7047431468963623,
                "x": -0.7094548344612122,
                "y": 0.0024358443915843964,
                "z": -0.0022348060738295317
            },
            "position": {
                "x": 0.6094750761985779,
                "y": 0.3671506643295288,
                "z": 0.19426114857196808
            }
        },
        "name": "move_to_magneteinheit_A"
    },
    "id": "LazyPRMstar_move_to_magneteinheit_A_48",
    "joint_names": [
        "shoulder_pan_joint",
        "shoulder_lift_joint",
        "elbow_joint",
        "wrist_1_joint",
        "wrist_2_joint",
        "wrist_3_joint"
    ],
    "metrics": {
        "cart_traj_len": 3.4805802933128427,
        "distance_elbow_joint": 3.9253179245387484,
        "distance_shoulder_lift_joint": 0.4608828935885564,
        "distance_shoulder_pan_joint": 2.7960832343382696,
        "distance_wrist_1_joint": 3.5223687398258727,
        "distance_wrist_2_joint": 1.4439311404190933,
        "distance_wrist_3_joint": 0.6270482753437875,
        "smoothness": 0.042046743864879,
        "time": 5.02993381,
        "traj_len": 3.574301639209305,
        "weighted_distance": 4.358443373383078
    },
    "planner": "LazyPRMstar",
    "start": {
        "state": {
            "elbow_joint": -1.9196185241190666,
            "shoulder_lift_joint": -1.2443396400964142,
            "shoulder_pan_joint": 2.6996025414629847,
            "wrist_1_joint": -1.5485510000780065,
            "wrist_2_joint": -1.5709468930060704,
            "wrist_3_joint": 0.4420197071253992
        }
    },
    "waypoints": [
        {
            "positions": [
                2.6996025414629847,
                -1.2443396400964142,
                -1.9196185241190666,
                -1.5485510000780065,
                -1.5709468930060704,
                0.4420197071253992
            ]
        },
        {
            "positions": [
                2.573902763416959,
                -1.2436352351116615,
                -1.77155951014894,
                -1.518673139392205,
                -1.5084549722811025,
                0.41825974444399966
            ]
        },
        {
            "positions": [
                2.448202985370933,
                -1.2429308301269086,
                -1.6235004961788135,
                -1.4887952787064034,
                -1.4459630515561344,
                0.3944997817626001
            ]
        },
        {
            "positions": [
                2.3225032073249072,
                -1.242226425142156,
                -1.475441482208687,
                -1.458917418020602,
                -1.3834711308311665,
                0.37073981908120057
            ]
        },
        {
            "positions": [
                2.1968034292788814,
                -1.241522020157403,
                -1.3273824682385604,
                -1.4290395573348005,
                -1.3209792101061983,
                0.34697985639980106
            ]
        },
        {
            "positions": [
                2.0711036512328556,
                -1.2408176151726504,
                -1.179323454268434,
                -1.3991616966489988,
                -1.2584872893812304,
                0.32321989371840154
            ]
        },
        {
            "positions": [
                1.94540387318683,
                -1.2401132101878976,
                -1.0312644402983073,
                -1.3692838359631974,
                -1.1959953686562623,
                0.29945993103700197
            ]
        },
        {
            "positions": [
                1.8197040951408041,
                -1.239408805203145,
                -0.883205426328181,
                -1.339405975277396,
                -1.1335034479312944,
                0.27569996835560245
            ]
        },
        {
            "positions": [
                1.6940043170947783,
                -1.238704400218392,
                -0.7351464123580544,
                -1.3095281145915942,
                -1.0710115272063263,
                0.25194000567420294
            ]
        },
        {
            "positions": [
                1.5683045390487524,
                -1.2379999952336393,
                -0.5870873983879279,
                -1.2796502539057928,
                -1.0085196064813584,
                0.22818004299280337
            ]
        },
        {
            "positions": [
                1.4426047610027266,
                -1.2372955902488865,
                -0.43902838441780134,
                -1.2497723932199913,
                -0.9460276857563904,
                0.20442008031140385
            ]
        },
        {
            "positions": [
                1.3169049829567008,
                -1.2365911852641338,
                -0.29096937044767457,
                -1.2198945325341897,
                -0.8835357650314223,
                0.18066011763000428
            ]
        },
        {
            "positions": [
                1.1912052049106752,
                -1.235886780279381,
                -0.14291035647754824,
                -1.1900166718483882,
                -0.8210438443064544,
                0.15690015494860476
            ]
        },
        {
            "positions": [
                1.065505426864649,
                -1.2351823752946283,
                0.0051486574925785344,
                -1.1601388111625868,
                -0.7585519235814863,
                0.1331401922672052
            ]
        },
        {
            "positions": [
                0.9398056488186235,
                -1.2344779703098754,
                0.15320767146270464,
                -1.130260950476785,
                -0.6960600028565184,
                0.10938022958580573
            ]
        },
        {
            "positions": [
                0.8141058707725974,
                -1.2337735653251227,
                0.3012666854328314,
                -1.1003830897909836,
                -0.6335680821315504,
                0.08562026690440616
            ]
        },
        {
            "positions": [
                0.6884060927265718,
                -1.2330691603403698,
                0.44932569940295775,
                -1.0705052291051822,
                -0.5710761614065823,
                0.061860304223006646
            ]
        },
        {
            "positions": [
                0.562706314680546,
                -1.2323647553556172,
                0.5973847133730845,
                -1.0406273684193805,
                -0.5085842406816143,
                0.038100341541607075
            ]
        },
        {
            "positions": [
                0.43700653663452016,
                -1.2316603503708643,
                0.7454437273432108,
                -1.010749507733579,
                -0.44609231995664644,
                0.014340378860207559
            ]
        },
        {
            "positions": [
                0.3113067585884943,
                -1.2309559453861116,
                0.8935027413133376,
                -0.9808716470477775,
                -0.3836003992316783,
                -0.009419583821191957
            ]
        },
        {
            "positions": [
                0.1856069805424685,
                -1.2302515404013588,
                1.041561755283464,
                -0.9509937863619761,
                -0.3211084785067104,
                -0.03317954650259147
            ]
        },
        {
            "positions": [
                0.0599072024964426,
                -1.229547135416606,
                1.1896207692535907,
                -0.9211159256761745,
                -0.25861655778174236,
                -0.056939509183991044
            ]
        },
        {
            "positions": [
                0.05522751514552179,
                -1.1958727150414907,
                1.2649420723582996,
                -0.6712429355308631,
                -0.24642423975242395,
                -0.05078322567650981
            ]
        },
        {
            "positions": [
                0.05054782779460097,
                -1.1621982946663754,
                1.3402633754630084,
                -0.4213699453855517,
                -0.23423192172310556,
                -0.04462694216902858
            ]
        },
        {
            "positions": [
                0.04586814044368015,
                -1.1285238742912602,
                1.415584678567717,
                -0.17149695524024033,
                -0.22203960369378717,
                -0.03847065866154735
            ]
        },
        {
            "positions": [
                0.041188453092759335,
                -1.0948494539161449,
                1.490905981672426,
                0.07837603490507106,
                -0.20984728566446875,
                -0.03231437515406611
            ]
        },
        {
            "positions": [
                0.03650876574183852,
                -1.0611750335410295,
                1.5662272847771348,
                0.32824902505038245,
                -0.19765496763515034,
                -0.02615809164658488
            ]
        },
        {
            "positions": [
                0.031829078390917705,
                -1.0275006131659141,
                1.6415485878818437,
                0.5781220151956938,
                -0.18546264960583195,
                -0.020001808139103648
            ]
        },
        {
            "positions": [
                0.02714939103999689,
                -0.9938261927907989,
                1.7168698909865525,
                0.8279950053410052,
                -0.17327033157651356,
                -0.013845524631622419
            ]
        },
        {
            "positions": [
                0.022469703689076068,
                -0.9601517724156835,
                1.7921911940912612,
                1.0778679954863166,
                -0.16107801354719514,
                -0.007689241124141183
            ]
        },
        {
            "positions": [
                0.017790016338155253,
                -0.9264773520405682,
                1.8675124971959702,
                1.327740985631628,
                -0.14888569551787673,
                -0.0015329576166599468
            ]
        },
        {
            "positions": [
                0.013110328987234438,
                -0.8928029316654529,
                1.9428338003006789,
                1.5776139757769392,
                -0.13669337748855834,
                0.004623325890821282
            ]
        },
        {
            "positions": [
                0.06790583991849358,
                -0.8381298390866554,
                1.9742666003601796,
                1.7757158577624028,
                -0.13185456503776788,
                -0.028639786088971275
            ]
        },
        {
            "positions": [
                0.12270135084975273,
                -0.7834567465078578,
                2.0056994004196804,
                1.9738177397478667,
                -0.12701575258697745,
                -0.06190289806876383
            ]
        }
    ]
}