{
    "goal": {
        "global_pose": {
            "orientation": {
                "w": 0.7031023502349854,
                "x": -0.7110244035720825,
                "y": 0.007748599164187908,
                "z": 0.005598929710686207
            },
            "position": {
                "x": 0.11585023208521307,
                "y": 0.44412534475326537,
                "z": 0.3711530566215515
            }
        },
        "name": "move_to_auspresseinheit_A"
    },
    "id": "LazyPRM_move_to_auspresseinheit_A_144",
    "joint_names": [
        "shoulder_pan_joint",
        "shoulder_lift_joint",
        "elbow_joint",
        "wrist_1_joint",
        "wrist_2_joint",
        "wrist_3_joint"
    ],
    "metrics": {
        "cart_traj_len": 0.6663705593658678,
        "distance_elbow_joint": 0.34186096613540196,
        "distance_shoulder_lift_joint": 0.742108991437878,
        "distance_shoulder_pan_joint": 1.0442237072038827,
        "distance_wrist_1_joint": 0.5455079355150332,
        "distance_wrist_2_joint": 0.5245466309600255,
        "distance_wrist_3_joint": 2.229306461741112,
        "smoothness": 1.070318492543914,
        "time": 0.047254079000000004,
        "traj_len": 2.3297112896222427,
        "weighted_distance": 3.310018456587609
    },
    "planner": "LazyPRM",
    "start": {
        "state": {
            "elbow_joint": 2.4225746658250005,
            "shoulder_lift_joint": -1.3736534386056498,
            "shoulder_pan_joint": -0.3378633547517467,
            "wrist_1_joint": -1.0288598680537169,
            "wrist_2_joint": 1.233022673432363,
            "wrist_3_joint": -3.0940220416140027
        }
    },
    "waypoints": [
        {
            "positions": [
                -0.3378633547517467,
                -1.3736534386056498,
                2.4225746658250005,
                -1.0288598680537169,
                1.233022673432363,
                -3.0940220416140027
            ]
        },
        {
            "positions": [
                -0.28322784352668384,
                -1.465029304131954,
                2.4451085414189473,
                -0.9966584605917843,
                1.2219177284820577,
                -2.9375546854826102
            ]
        },
        {
            "positions": [
                -0.2285923323016209,
                -1.5564051696582584,
                2.467642417012894,
                -0.9644570531298517,
                1.2108127835317521,
                -2.781087329351218
            ]
        },
        {
            "positions": [
                -0.17395682107655802,
                -1.6477810351845625,
                2.490176292606841,
                -0.9322556456679192,
                1.1997078385814468,
                -2.6246199732198257
            ]
        },
        {
            "positions": [
                -0.11932130985149511,
                -1.7391569007108667,
                2.5127101682007877,
                -0.9000542382059866,
                1.1886028936311412,
                -2.4681526170884336
            ]
        },
        {
            "positions": [
                -0.0646857986264322,
                -1.830532766237171,
                2.5352440437947346,
                -0.8678528307440541,
                1.177497948680836,
                -2.311685260957041
            ]
        },
        {
            "positions": [
                -0.010050287401369318,
                -1.9219086317634755,
                2.5577779193886814,
                -0.8356514232821215,
                1.1663930037305303,
                -2.1552179048256486
            ]
        },
        {
            "positions": [
                0.04458522382369361,
                -2.0132844972897797,
                2.580311794982628,
                -0.8034500158201889,
                1.155288058780225,
                -1.9987505486942563
            ]
        },
        {
            "positions": [
                0.1273071149022489,
                -2.0004747556955613,
                2.5572963153604062,
                -0.7634377554100008,
                1.099436556741739,
                -2.140504919796927
            ]
        },
        {
            "positions": [
                0.2100290059808042,
                -1.9876650141013426,
                2.5342808357381847,
                -0.7234254949998126,
                1.0435850547032532,
                -2.2822592908995976
            ]
        },
        {
            "positions": [
                0.2927508970593595,
                -1.974855272507124,
                2.511265356115963,
                -0.6834132345896244,
                0.9877335526647673,
                -2.4240136620022685
            ]
        },
        {
            "positions": [
                0.37547278813791485,
                -1.9620455309129055,
                2.4882498764937413,
                -0.6434009741794363,
                0.9318820506262813,
                -2.565768033104939
            ]
        },
        {
            "positions": [
                0.45819467921647017,
                -1.9492357893186871,
                2.4652343968715194,
                -0.6033887137692482,
                0.8760305485877953,
                -2.7075224042076096
            ]
        },
        {
            "positions": [
                0.5409165702950254,
                -1.9364260477244686,
                2.4422189172492974,
                -0.56337645335906,
                0.8201790465493094,
                -2.8492767753102806
            ]
        },
        {
            "positions": [
                0.6236384613735807,
                -1.92361630613025,
                2.419203437627076,
                -0.5233641929488718,
                0.7643275445108235,
                -2.991031146412951
            ]
        },
        {
            "positions": [
                0.706360352452136,
                -1.9108065645360315,
                2.396187958004854,
                -0.48335193253868364,
                0.7084760424723375,
                -3.1327855175156216
            ]
        }
    ]
}