{
    "goal": {
        "global_pose": {
            "orientation": {
                "w": -0.4816463035849501,
                "x": 0.5182115481033762,
                "y": 0.4908360881923453,
                "z": -0.5084816262002911
            },
            "position": {
                "x": -0.8240239810943604,
                "y": 0.19912469901144506,
                "z": 0.16403168439865112
            }
        },
        "name": "move_to_storage_D"
    },
    "id": "LazyPRM_move_to_storage_D_106",
    "joint_names": [
        "shoulder_pan_joint",
        "shoulder_lift_joint",
        "elbow_joint",
        "wrist_1_joint",
        "wrist_2_joint",
        "wrist_3_joint"
    ],
    "metrics": {
        "cart_traj_len": 3.876382486439343,
        "distance_elbow_joint": 4.20801535413583,
        "distance_shoulder_lift_joint": 1.2654915699757445,
        "distance_shoulder_pan_joint": 2.8116433554497595,
        "distance_wrist_1_joint": 2.2646191978190346,
        "distance_wrist_2_joint": 2.8083965285875125,
        "distance_wrist_3_joint": 3.130158400427934,
        "smoothness": 0.07393805161019858,
        "time": 0.156556951,
        "traj_len": 4.06058178176426,
        "weighted_distance": 5.274623866557523
    },
    "planner": "LazyPRM",
    "start": {
        "state": {
            "elbow_joint": -2.384821988534728,
            "shoulder_lift_joint": -2.2788054721415256,
            "shoulder_pan_joint": -0.1854694642142757,
            "wrist_1_joint": 1.4845938289331202,
            "wrist_2_joint": 0.17898776772866878,
            "wrist_3_joint": 0.037105688729662994
        }
    },
    "waypoints": [
        {
            "positions": [
                -0.1854694642142757,
                -2.2788054721415256,
                -2.384821988534728,
                1.4845938289331202,
                0.17898776772866878,
                0.037105688729662994
            ]
        },
        {
            "positions": [
                -0.0634999414806953,
                -2.240147221749136,
                -2.3464052869241536,
                1.453577578569553,
                0.1379494740429344,
                -0.03683189355141593
            ]
        },
        {
            "positions": [
                0.05846958125288512,
                -2.2014889713567465,
                -2.3079885853135793,
                1.422561328205986,
                0.09691118035720002,
                -0.11076947583249486
            ]
        },
        {
            "positions": [
                0.14691633913983065,
                -2.1795097274262565,
                -2.2265433372834,
                1.3683063345429844,
                0.05833714566175248,
                -0.20649313733374483
            ]
        },
        {
            "positions": [
                0.2353630970267762,
                -2.157530483495767,
                -2.14509808925322,
                1.314051340879983,
                0.01976311096630494,
                -0.3022167988349948
            ]
        },
        {
            "positions": [
                0.3238098549137217,
                -2.135551239565277,
                -2.0636528412230404,
                1.2597963472169815,
                -0.0188109237291426,
                -0.39794046033624475
            ]
        },
        {
            "positions": [
                0.4122566128006673,
                -2.113571995634787,
                -1.9822075931928604,
                1.20554135355398,
                -0.05738495842459014,
                -0.49366412183749475
            ]
        },
        {
            "positions": [
                0.5007033706876128,
                -2.091592751704297,
                -1.900762345162681,
                1.1512863598909786,
                -0.09595899312003768,
                -0.5893877833387446
            ]
        },
        {
            "positions": [
                0.5891501285745584,
                -2.0696135077738074,
                -1.8193170971325012,
                1.0970313662279771,
                -0.1345330278154852,
                -0.6851114448399946
            ]
        },
        {
            "positions": [
                0.677596886461504,
                -2.0476342638433174,
                -1.7378718491023215,
                1.0427763725649757,
                -0.17310706251093277,
                -0.7808351063412448
            ]
        },
        {
            "positions": [
                0.7660436443484495,
                -2.0256550199128274,
                -1.6564266010721418,
                0.9885213789019742,
                -0.2116810972063803,
                -0.8765587678424946
            ]
        },
        {
            "positions": [
                0.8544904022353951,
                -2.0036757759823374,
                -1.574981353041962,
                0.9342663852389727,
                -0.25025513190182785,
                -0.9722824293437446
            ]
        },
        {
            "positions": [
                0.9429371601223405,
                -1.9816965320518476,
                -1.4935361050117826,
                0.8800113915759712,
                -0.28882916659727537,
                -1.0680060908449946
            ]
        },
        {
            "positions": [
                1.031383918009286,
                -1.9597172881213578,
                -1.4120908569816026,
                0.8257563979129697,
                -0.32740320129272293,
                -1.1637297523462447
            ]
        },
        {
            "positions": [
                1.1198306758962315,
                -1.9377380441908678,
                -1.3306456089514231,
                0.7715014042499683,
                -0.36597723598817045,
                -1.2594534138474944
            ]
        },
        {
            "positions": [
                1.208277433783177,
                -1.915758800260378,
                -1.2492003609212434,
                0.7172464105869668,
                -0.40455127068361796,
                -1.3551770753487444
            ]
        },
        {
            "positions": [
                1.2967241916701227,
                -1.893779556329888,
                -1.1677551128910637,
                0.6629914169239652,
                -0.4431253053790656,
                -1.4509007368499947
            ]
        },
        {
            "positions": [
                1.3851709495570683,
                -1.8718003123993983,
                -1.086309864860884,
                0.6087364232609639,
                -0.4816993400745131,
                -1.5466243983512444
            ]
        },
        {
            "positions": [
                1.4736177074440138,
                -1.8498210684689083,
                -1.0048646168307043,
                0.5544814295979624,
                -0.5202733747699606,
                -1.6423480598524944
            ]
        },
        {
            "positions": [
                1.5620644653309592,
                -1.8278418245384185,
                -0.9234193688005248,
                0.500226435934961,
                -0.5588474094654081,
                -1.7380717213537442
            ]
        },
        {
            "positions": [
                1.6505112232179049,
                -1.8058625806079285,
                -0.8419741207703448,
                0.4459714422719594,
                -0.5974214441608557,
                -1.8337953828549944
            ]
        },
        {
            "positions": [
                1.7389579811048503,
                -1.7838833366774387,
                -0.7605288727401651,
                0.39171644860895793,
                -0.6359954788563033,
                -1.9295190443562444
            ]
        },
        {
            "positions": [
                1.8274047389917958,
                -1.7619040927469487,
                -0.6790836247099856,
                0.3374614549459565,
                -0.6745695135517508,
                -2.025242705857494
            ]
        },
        {
            "positions": [
                1.9158514968787415,
                -1.739924848816459,
                -0.5976383766798059,
                0.283206461282955,
                -0.7131435482471983,
                -2.1209663673587444
            ]
        },
        {
            "positions": [
                2.004298254765687,
                -1.7179456048859691,
                -0.5161931286496262,
                0.22895146761995355,
                -0.7517175829426459,
                -2.216690028859994
            ]
        },
        {
            "positions": [
                2.0927450126526326,
                -1.6959663609554791,
                -0.4347478806194466,
                0.17469647395695212,
                -0.7902916176380934,
                -2.312413690361244
            ]
        },
        {
            "positions": [
                2.12237995035168,
                -1.6580412243560514,
                -0.3093067002738606,
                0.12165637157679282,
                -0.6881184430147184,
                -2.3557825248799675
            ]
        },
        {
            "positions": [
                2.152014888050727,
                -1.6201160877566239,
                -0.1838655199282746,
                0.06861626919663352,
                -0.5859452683913433,
                -2.3991513593986915
            ]
        },
        {
            "positions": [
                2.1816498257497745,
                -1.582190951157196,
                -0.05842433958268867,
                0.015576166816474224,
                -0.48377209376796815,
                -2.4425201939174155
            ]
        },
        {
            "positions": [
                2.211284763448822,
                -1.5442658145577686,
                0.06701684076289738,
                -0.037463935563685075,
                -0.3815989191445931,
                -2.485889028436139
            ]
        },
        {
            "positions": [
                2.240919701147869,
                -1.5063406779583408,
                0.1924580211084833,
                -0.0905040379438444,
                -0.27942574452121793,
                -2.5292578629548625
            ]
        },
        {
            "positions": [
                2.2705546388469164,
                -1.468415541358913,
                0.31789920145406925,
                -0.14354414032400367,
                -0.17725256989784288,
                -2.5726266974735865
            ]
        },
        {
            "positions": [
                2.300189576545964,
                -1.4304904047594855,
                0.4433403817996553,
                -0.196584242704163,
                -0.07507939527446783,
                -2.6159955319923105
            ]
        },
        {
            "positions": [
                2.329824514245011,
                -1.3925652681600578,
                0.5687815621452413,
                -0.24962434508432227,
                0.02709377934890722,
                -2.659364366511034
            ]
        },
        {
            "positions": [
                2.3594594519440584,
                -1.3546401315606302,
                0.6942227424908273,
                -0.3026644474644816,
                0.12926695397228238,
                -2.7027332010297576
            ]
        },
        {
            "positions": [
                2.389094389643106,
                -1.3167149949612025,
                0.8196639228364132,
                -0.35570454984464095,
                0.23144012859565755,
                -2.7461020355484815
            ]
        },
        {
            "positions": [
                2.418729327342153,
                -1.2787898583617747,
                0.9451051031819994,
                -0.4087446522248003,
                0.3336133032190327,
                -2.7894708700672055
            ]
        },
        {
            "positions": [
                2.4483642650412003,
                -1.2408647217623472,
                1.0705462835275852,
                -0.4617847546049595,
                0.43578647784240765,
                -2.832839704585929
            ]
        },
        {
            "positions": [
                2.4779992027402478,
                -1.2029395851629194,
                1.1959874638731711,
                -0.5148248569851188,
                0.5379596524657828,
                -2.8762085391046526
            ]
        },
        {
            "positions": [
                2.507634140439295,
                -1.165014448563492,
                1.321428644218757,
                -0.5678649593652781,
                0.6401328270891578,
                -2.9195773736233765
            ]
        },
        {
            "positions": [
                2.5372690781383422,
                -1.1270893119640641,
                1.4468698245643434,
                -0.6209050617454375,
                0.7423060017125329,
                -2.9629462081421005
            ]
        },
        {
            "positions": [
                2.5669040158373897,
                -1.0891641753646364,
                1.5723110049099294,
                -0.6739451641255967,
                0.8444791763359079,
                -3.006315042660824
            ]
        },
        {
            "positions": [
                2.5965389535364367,
                -1.0512390387652086,
                1.6977521852555153,
                -0.726985266505756,
                0.946652350959283,
                -3.0496838771795476
            ]
        },
        {
            "positions": [
                2.626173891235484,
                -1.013313902165781,
                1.8231933656011012,
                -0.7800253688859153,
                1.0488255255826582,
                -3.0930527116982716
            ]
        }
    ]
}