{
    "goal": {
        "global_pose": {
            "orientation": {
                "w": 0.7047431493862688,
                "x": -0.7094548369677653,
                "y": 0.0024358444001904,
                "z": -0.0022348060817251984
            },
            "position": {
                "x": -0.39052492380142206,
                "y": 0.3671506643295288,
                "z": 0.19426114857196808
            }
        },
        "name": "move_to_magneteinheit_D"
    },
    "id": "LazyPRM_move_to_magneteinheit_D_7",
    "joint_names": [
        "shoulder_pan_joint",
        "shoulder_lift_joint",
        "elbow_joint",
        "wrist_1_joint",
        "wrist_2_joint",
        "wrist_3_joint"
    ],
    "metrics": {
        "cart_traj_len": 3.662287419608447,
        "distance_elbow_joint": 3.305866073565167,
        "distance_shoulder_lift_joint": 1.63413216433694,
        "distance_shoulder_pan_joint": 2.9828194376099537,
        "distance_wrist_1_joint": 2.2504501627722626,
        "distance_wrist_2_joint": 0.981281548835745,
        "distance_wrist_3_joint": 3.1472343947072186,
        "smoothness": 0.40949000380725686,
        "time": 0.245741196,
        "traj_len": 3.7817699271408993,
        "weighted_distance": 4.881391633832479
    },
    "planner": "LazyPRM",
    "start": {
        "state": {
            "elbow_joint": 0.749534889911806,
            "shoulder_lift_joint": -0.6476975780787326,
            "shoulder_pan_joint": -2.711696901376241,
            "wrist_1_joint": -0.07506478083263063,
            "wrist_2_joint": 0.43296659715538205,
            "wrist_3_joint": -3.14703540197715
        }
    },
    "waypoints": [
        {
            "positions": [
                -2.711696901376241,
                -0.6476975780787326,
                0.749534889911806,
                -0.07506478083263063,
                0.43296659715538205,
                -3.14703540197715
            ]
        },
        {
            "positions": [
                -2.7195019518943115,
                -0.7489607105209174,
                0.7947233953237632,
                0.011581177180561952,
                0.48653333912770735,
                -3.112777984774137
            ]
        },
        {
            "positions": [
                -2.727307002412382,
                -0.8502238429631022,
                0.8399119007357205,
                0.09822713519375453,
                0.5401000811000326,
                -3.0785205675711236
            ]
        },
        {
            "positions": [
                -2.628929091830307,
                -0.8689662013997649,
                0.734982175593636,
                0.16074145955157398,
                0.5179655975753443,
                -2.9935419677274693
            ]
        },
        {
            "positions": [
                -2.530551181248232,
                -0.8877085598364276,
                0.6300524504515514,
                0.22325578390939343,
                0.49583111405065616,
                -2.908563367883815
            ]
        },
        {
            "positions": [
                -2.432173270666157,
                -0.9064509182730903,
                0.5251227253094668,
                0.2857701082672129,
                0.4736966305259679,
                -2.8235847680401607
            ]
        },
        {
            "positions": [
                -2.3337953600840824,
                -0.925193276709753,
                0.42019300016738226,
                0.34828443262503234,
                0.45156214700127967,
                -2.7386061681965064
            ]
        },
        {
            "positions": [
                -2.235417449502007,
                -0.9439356351464158,
                0.3152632750252976,
                0.41079875698285184,
                0.42942766347659145,
                -2.653627568352852
            ]
        },
        {
            "positions": [
                -2.1370395389199324,
                -0.9626779935830785,
                0.21033354988321318,
                0.47331308134067124,
                0.4072931799519032,
                -2.5686489685091978
            ]
        },
        {
            "positions": [
                -2.0386616283378576,
                -0.9814203520197413,
                0.10540382474112853,
                0.5358274056984907,
                0.38515869642721495,
                -2.4836703686655435
            ]
        },
        {
            "positions": [
                -1.9402837177557828,
                -1.000162710456404,
                0.0004740995990439867,
                0.5983417300563101,
                0.36302421290252673,
                -2.398691768821889
            ]
        },
        {
            "positions": [
                -1.8419058071737076,
                -1.0189050688930668,
                -0.10445562554304066,
                0.6608560544141298,
                0.34088972937783846,
                -2.313713168978235
            ]
        },
        {
            "positions": [
                -1.7435278965916328,
                -1.0376474273297294,
                -0.20938535068512532,
                0.7233703787719492,
                0.31875524585315024,
                -2.2287345691345806
            ]
        },
        {
            "positions": [
                -1.645149986009558,
                -1.0563897857663922,
                -0.31431507582720974,
                0.7858847031297687,
                0.296620762328462,
                -2.1437559692909263
            ]
        },
        {
            "positions": [
                -1.546772075427483,
                -1.0751321442030548,
                -0.4192448009692942,
                0.8483990274875879,
                0.2744862788037738,
                -2.058777369447272
            ]
        },
        {
            "positions": [
                -1.448394164845408,
                -1.0938745026397176,
                -0.524174526111379,
                0.9109133518454076,
                0.2523517952790855,
                -1.9737987696036177
            ]
        },
        {
            "positions": [
                -1.3500162542633332,
                -1.1126168610763805,
                -0.6291042512534635,
                0.973427676203227,
                0.2302173117543973,
                -1.8888201697599634
            ]
        },
        {
            "positions": [
                -1.2516383436812584,
                -1.131359219513043,
                -0.7340339763955479,
                1.0359420005610465,
                0.20808282822970908,
                -1.803841569916309
            ]
        },
        {
            "positions": [
                -1.1532604330991834,
                -1.1501015779497057,
                -0.8389637015376326,
                1.0984563249188657,
                0.18594834470502086,
                -1.7188629700726548
            ]
        },
        {
            "positions": [
                -1.0548825225171086,
                -1.1688439363863685,
                -0.943893426679717,
                1.1609706492766851,
                0.16381386118033264,
                -1.6338843702290007
            ]
        },
        {
            "positions": [
                -0.9565046119350333,
                -1.1875862948230314,
                -1.0488231518218019,
                1.2234849736345048,
                0.1416793776556443,
                -1.548905770385346
            ]
        },
        {
            "positions": [
                -0.8581267013529585,
                -1.206328653259694,
                -1.1537528769638865,
                1.2859992979923243,
                0.11954489413095609,
                -1.4639271705416919
            ]
        },
        {
            "positions": [
                -0.7597487907708835,
                -1.2250710116963568,
                -1.2586826021059712,
                1.3485136223501437,
                0.09741041060626787,
                -1.3789485706980376
            ]
        },
        {
            "positions": [
                -0.6613708801888087,
                -1.2438133701330194,
                -1.3636123272480556,
                1.4110279467079632,
                0.07527592708157965,
                -1.2939699708543833
            ]
        },
        {
            "positions": [
                -0.562992969606734,
                -1.2625557285696822,
                -1.46854205239014,
                1.4735422710657826,
                0.05314144355689143,
                -1.208991371010729
            ]
        },
        {
            "positions": [
                -0.46461505902465916,
                -1.2812980870063448,
                -1.5734717775322244,
                1.536056595423602,
                0.031006960032203157,
                -1.1240127711670747
            ]
        },
        {
            "positions": [
                -0.3662371484425839,
                -1.3000404454430077,
                -1.6784015026743089,
                1.5985709197814213,
                0.008872476507514993,
                -1.0390341713234204
            ]
        },
        {
            "positions": [
                -0.26785923786050914,
                -1.3187828038796705,
                -1.7833312278163937,
                1.661085244139241,
                -0.013262007017173283,
                -0.954055571479766
            ]
        },
        {
            "positions": [
                -0.1694813272784339,
                -1.3375251623163331,
                -1.8882609529584786,
                1.7235995684970604,
                -0.03539649054186156,
                -0.8690769716361118
            ]
        },
        {
            "positions": [
                -0.07110341669635911,
                -1.3562675207529957,
                -1.993190678100563,
                1.7861138928548799,
                -0.05753097406654972,
                -0.7840983717924574
            ]
        },
        {
            "positions": [
                0.027274493885715463,
                -1.3750098791896586,
                -2.0981204032426475,
                1.8486282172126993,
                -0.079665457591238,
                -0.6991197719488034
            ]
        },
        {
            "positions": [
                -0.003100911867958113,
                -1.504555573936232,
                -2.1377570830659165,
                1.801948622251709,
                -0.04332509670554882,
                -0.5992170912803931
            ]
        },
        {
            "positions": [
                -0.03347631762163169,
                -1.6341012686828054,
                -2.177393762889186,
                1.7552690272907183,
                -0.006984735819859644,
                -0.49931441061198295
            ]
        },
        {
            "positions": [
                -0.06385172337530526,
                -1.7636469634293788,
                -2.217030442712455,
                1.708589432329728,
                0.029355625065829533,
                -0.3994117299435727
            ]
        },
        {
            "positions": [
                -0.09422712912897885,
                -1.8931926581759524,
                -2.256667122535724,
                1.6619098373687373,
                0.06569598595151871,
                -0.29950904927516253
            ]
        },
        {
            "positions": [
                -0.12460253488265244,
                -2.022738352922526,
                -2.296303802358993,
                1.615230242407747,
                0.10203634683720791,
                -0.19960636860675224
            ]
        },
        {
            "positions": [
                -0.154977940636326,
                -2.152284047669099,
                -2.3359404821822625,
                1.5685506474467563,
                0.13837670772289706,
                -0.09970368793834206
            ]
        },
        {
            "positions": [
                -0.1853533463899996,
                -2.2818297424156726,
                -2.3755771620055315,
                1.521871052485766,
                0.1747170686085863,
                0.00019899273006820605
            ]
        }
    ]
}