{
    "goal": {
        "global_pose": {
            "orientation": {
                "w": 0.5084816217422485,
                "x": -0.49083608388900757,
                "y": 0.5182115435600281,
                "z": -0.4816462993621826
            },
            "position": {
                "x": 0.5540239810943604,
                "y": 0.030875300988554955,
                "z": 0.16403168439865112
            }
        },
        "name": "move_to_storage_A"
    },
    "id": "LazyPRM_move_to_storage_A_86",
    "joint_names": [
        "shoulder_pan_joint",
        "shoulder_lift_joint",
        "elbow_joint",
        "wrist_1_joint",
        "wrist_2_joint",
        "wrist_3_joint"
    ],
    "metrics": {
        "cart_traj_len": 0.3526833653883391,
        "distance_elbow_joint": 0.450805116027307,
        "distance_shoulder_lift_joint": 0.2340074194461712,
        "distance_shoulder_pan_joint": 0.4569793328419844,
        "distance_wrist_1_joint": 0.2490819868688764,
        "distance_wrist_2_joint": 1.1158985695029384,
        "distance_wrist_3_joint": 0.10492266637825542,
        "smoothness": 1.3322676295501878e-15,
        "time": 0.011843299,
        "traj_len": 1.6160739745028792,
        "weighted_distance": 2.046098966373293
    },
    "planner": "LazyPRM",
    "start": {
        "state": {
            "elbow_joint": 1.971548259319323,
            "shoulder_lift_joint": -1.1394851275133948,
            "shoulder_pan_joint": 0.1228115487234821,
            "wrist_1_joint": -0.7804723859257726,
            "wrist_2_joint": 0.12958671773740124,
            "wrist_3_joint": -3.192489227718131
        }
    },
    "waypoints": [
        {
            "positions": [
                0.1228115487234821,
                -1.1394851275133948,
                1.971548259319323,
                -0.7804723859257726,
                0.12958671773740124,
                -3.192489227718131
            ]
        },
        {
            "positions": [
                0.0575287868889129,
                -1.172914758862848,
                2.035948990180367,
                -0.8160555269070406,
                0.2890007990949639,
                -3.1775002753783803
            ]
        },
        {
            "positions": [
                -0.0077539749456563,
                -1.2063443902123008,
                2.1003497210414106,
                -0.8516386678883088,
                0.44841488045252653,
                -3.1625113230386295
            ]
        },
        {
            "positions": [
                -0.07303673678022549,
                -1.2397740215617539,
                2.1647504519024547,
                -0.8872218088695768,
                0.6078289618100892,
                -3.1475223706988786
            ]
        },
        {
            "positions": [
                -0.1383194986147947,
                -1.273203652911207,
                2.2291511827634984,
                -0.9228049498508448,
                0.7672430431676518,
                -3.1325334183591282
            ]
        },
        {
            "positions": [
                -0.20360226044936391,
                -1.30663328426066,
                2.293551913624542,
                -0.958388090832113,
                0.9266571245252144,
                -3.1175444660193774
            ]
        },
        {
            "positions": [
                -0.2688850222839331,
                -1.340062915610113,
                2.3579526444855863,
                -0.9939712318133809,
                1.086071205882777,
                -3.1025555136796266
            ]
        },
        {
            "positions": [
                -0.3341677841185023,
                -1.373492546959566,
                2.42235337534663,
                -1.029554372794649,
                1.2454852872403397,
                -3.0875665613398757
            ]
        }
    ]
}{
    "goal": {
        "global_pose": {
            "orientation": {
                "w": 0.5084816217422485,
                "x": -0.49083608388900757,
                "y": 0.5182115435600281,
                "z": -0.4816462993621826
            },
            "position": {
                "x": 0.5540239810943604,
                "y": 0.030875300988554955,
                "z": 0.16403168439865112
            }
        },
        "name": "move_to_storage_A"
    },
    "id": "LazyPRM_move_to_storage_A_86",
    "joint_names": [
        "shoulder_pan_joint",
        "shoulder_lift_joint",
        "elbow_joint",
        "wrist_1_joint",
        "wrist_2_joint",
        "wrist_3_joint"
    ],
    "metrics": {
        "cart_traj_len": 0.35234150424702215,
        "distance_elbow_joint": 0.45328460792860925,
        "distance_shoulder_lift_joint": 0.23502902295100236,
        "distance_shoulder_pan_joint": 0.4604776142664754,
        "distance_wrist_1_joint": 0.25879639583792335,
        "distance_wrist_2_joint": 1.0989043885028822,
        "distance_wrist_3_joint": 0.10559490952131512,
        "smoothness": 4.440892133664971e-16,
        "time": 0.021957478,
        "traj_len": 1.616195204487443,
        "weighted_distance": 2.0447438818570025
    },
    "planner": "LazyPRM",
    "start": {
        "state": {
            "elbow_joint": 1.97154746011099,
            "shoulder_lift_joint": -1.13948474672311,
            "shoulder_pan_joint": 0.12281154466712228,
            "wrist_1_joint": -0.7804688027058302,
            "wrist_2_joint": 0.12958655903071145,
            "wrist_3_joint": 3.0906928834467795
        }
    },
    "waypoints": [
        {
            "positions": [
                0.12281154466712228,
                -1.13948474672311,
                1.97154746011099,
                -0.7804688027058302,
                0.12958655903071145,
                3.0906928834467795
            ]
        },
        {
            "positions": [
                0.05702902834334009,
                -1.173060321430396,
                2.036302404100791,
                -0.8174397163969621,
                0.28657290024540893,
                3.105777870521253
            ]
        },
        {
            "positions": [
                -0.008753487980442107,
                -1.206635896137682,
                2.1010573480905927,
                -0.854410630088094,
                0.4435592414601064,
                3.1208628575957267
            ]
        },
        {
            "positions": [
                -0.07453600430422429,
                -1.240211470844968,
                2.165812292080394,
                -0.8913815437792258,
                0.6005455826748038,
                3.1359478446702003
            ]
        },
        {
            "positions": [
                -0.14031852062800648,
                -1.2737870455522542,
                2.230567236070195,
                -0.9283524574703578,
                0.7575319238895013,
                3.151032831744674
            ]
        },
        {
            "positions": [
                -0.20610103695178872,
                -1.3073626202595403,
                2.2953221800599968,
                -0.9653233711614897,
                0.9145182651041988,
                3.1661178188191474
            ]
        },
        {
            "positions": [
                -0.27188355327557084,
                -1.3409381949668262,
                2.360077124049798,
                -1.0022942848526215,
                1.0715046063188962,
                3.181202805893621
            ]
        },
        {
            "positions": [
                -0.3376660695993531,
                -1.3745137696741123,
                2.424832068039599,
                -1.0392651985437535,
                1.2284909475335937,
                3.1962877929680946
            ]
        }
    ]
}{
    "goal": {
        "global_pose": {
            "orientation": {
                "w": 0.5084816217422485,
                "x": -0.49083608388900757,
                "y": 0.5182115435600281,
                "z": -0.4816462993621826
            },
            "position": {
                "x": 0.5540239810943604,
                "y": 0.030875300988554955,
                "z": 0.16403168439865112
            }
        },
        "name": "move_to_storage_A"
    },
    "id": "LazyPRM_move_to_storage_A_86",
    "joint_names": [
        "shoulder_pan_joint",
        "shoulder_lift_joint",
        "elbow_joint",
        "wrist_1_joint",
        "wrist_2_joint",
        "wrist_3_joint"
    ],
    "metrics": {
        "cart_traj_len": 0.3528208020376866,
        "distance_elbow_joint": 0.4522905369416552,
        "distance_shoulder_lift_joint": 0.2360581309714549,
        "distance_shoulder_pan_joint": 0.45883938496966636,
        "distance_wrist_1_joint": 0.24903773851522626,
        "distance_wrist_2_joint": 1.1103737588240363,
        "distance_wrist_3_joint": 0.09013505858629633,
        "smoothness": 0.0,
        "time": 0.021882757,
        "traj_len": 1.6114386767135558,
        "weighted_distance": 2.0338181391953882
    },
    "planner": "LazyPRM",
    "start": {
        "state": {
            "elbow_joint": 1.9715472970024885,
            "shoulder_lift_joint": -1.1394870060712896,
            "shoulder_pan_joint": 0.12281152778156021,
            "wrist_1_joint": -0.780463741449964,
            "wrist_2_joint": 0.12958659822042276,
            "wrist_3_joint": 3.090690232415272
        }
    },
    "waypoints": [
        {
            "positions": [
                0.12281152778156021,
                -1.1394870060712896,
                1.9715472970024885,
                -0.780463741449964,
                0.12958659822042276,
                3.090690232415272
            ]
        },
        {
            "positions": [
                0.057263044214465014,
                -1.1732095962100688,
                2.0361602308512965,
                -0.8160405612378535,
                0.2882114209095708,
                3.103566669356171
            ]
        },
        {
            "positions": [
                -0.00828543935263018,
                -1.2069321863488482,
                2.1007731647001044,
                -0.8516173810257429,
                0.4468362435987189,
                3.116443106297071
            ]
        },
        {
            "positions": [
                -0.07383392291972538,
                -1.2406547764876275,
                2.1653860985489124,
                -0.8871942008136324,
                0.6054610662878669,
                3.1293195432379703
            ]
        },
        {
            "positions": [
                -0.13938240648682057,
                -1.2743773666264067,
                2.22999903239772,
                -0.9227710206015218,
                0.7640858889770149,
                3.1421959801788697
            ]
        },
        {
            "positions": [
                -0.20493089005391577,
                -1.308099956765186,
                2.294611966246528,
                -0.9583478403894113,
                0.922710711666163,
                3.155072417119769
            ]
        },
        {
            "positions": [
                -0.27047937362101093,
                -1.3418225469039653,
                2.359224900095336,
                -0.9939246601773007,
                1.081335534355311,
                3.167948854060669
            ]
        },
        {
            "positions": [
                -0.3360278571881061,
                -1.3755451370427445,
                2.4238378339441438,
                -1.0295014799651903,
                1.239960357044459,
                3.180825291001568
            ]
        }
    ]
}