{
    "goal": {
        "global_pose": {
            "orientation": {
                "w": 0.7031023502349854,
                "x": -0.7110244035720825,
                "y": 0.007748599164187908,
                "z": 0.005598929710686207
            },
            "position": {
                "x": 0.11585023208521307,
                "y": 0.44412534475326537,
                "z": 0.3711530566215515
            }
        },
        "name": "move_to_auspresseinheit_A"
    },
    "id": "LazyPRMstar_move_to_auspresseinheit_A_132",
    "joint_names": [
        "shoulder_pan_joint",
        "shoulder_lift_joint",
        "elbow_joint",
        "wrist_1_joint",
        "wrist_2_joint",
        "wrist_3_joint"
    ],
    "metrics": {
        "cart_traj_len": 1.1381080539147954,
        "distance_elbow_joint": 0.26147529804274017,
        "distance_shoulder_lift_joint": 1.0217906159710706,
        "distance_shoulder_pan_joint": 1.3585934642873472,
        "distance_wrist_1_joint": 2.2684970057986957,
        "distance_wrist_2_joint": 1.2379888969780417,
        "distance_wrist_3_joint": 1.8606601731505763,
        "smoothness": 1.1944784690484527,
        "time": 5.0236459049999995,
        "traj_len": 2.8300186314277984,
        "weighted_distance": 3.9034358843596193
    },
    "planner": "LazyPRMstar",
    "start": {
        "state": {
            "elbow_joint": 2.4225746658250005,
            "shoulder_lift_joint": -1.3736534386056498,
            "shoulder_pan_joint": -0.3378633547517467,
            "wrist_1_joint": -1.0288598680537169,
            "wrist_2_joint": 1.233022673432363,
            "wrist_3_joint": -3.0940220416140027
        }
    },
    "waypoints": [
        {
            "positions": [
                -0.3378633547517467,
                -1.3736534386056498,
                2.4225746658250005,
                -1.0288598680537169,
                1.233022673432363,
                -3.0940220416140027
            ]
        },
        {
            "positions": [
                -0.35736337234134424,
                -1.4708429484118861,
                2.4369090495786603,
                -1.1348457668460201,
                1.2781686315828336,
                -2.980544817975384
            ]
        },
        {
            "positions": [
                -0.37686338993094176,
                -1.5680324582181224,
                2.45124343333232,
                -1.2408316656383234,
                1.3233145897333043,
                -2.8670675943367656
            ]
        },
        {
            "positions": [
                -0.3963634075205393,
                -1.6652219680243587,
                2.46557781708598,
                -1.3468175644306266,
                1.3684605478837748,
                -2.753590370698147
            ]
        },
        {
            "positions": [
                -0.41586342511013674,
                -1.7624114778305948,
                2.4799122008396397,
                -1.4528034632229299,
                1.4136065060342453,
                -2.6401131470595285
            ]
        },
        {
            "positions": [
                -0.43536344269973426,
                -1.8596009876368313,
                2.4942465845933,
                -1.558789362015233,
                1.4587524641847158,
                -2.5266359234209097
            ]
        },
        {
            "positions": [
                -0.4548634602893318,
                -1.9567904974430674,
                2.5085809683469598,
                -1.6647752608075364,
                1.5038984223351863,
                -2.413158699782291
            ]
        },
        {
            "positions": [
                -0.4743634778789293,
                -2.0539800072493035,
                2.5229153521006196,
                -1.7707611595998396,
                1.549044380485657,
                -2.2996814761436726
            ]
        },
        {
            "positions": [
                -0.4938634954685268,
                -2.15116951705554,
                2.5372497358542794,
                -1.8767470583921428,
                1.5941903386361276,
                -2.186204252505054
            ]
        },
        {
            "positions": [
                -0.40135631673232935,
                -2.1323791680154494,
                2.5259574106224747,
                -1.7674693802798145,
                1.5267425515765678,
                -2.259499820508256
            ]
        },
        {
            "positions": [
                -0.3088491379961319,
                -2.1135888189753587,
                2.51466508539067,
                -1.658191702167486,
                1.459294764517008,
                -2.332795388511458
            ]
        },
        {
            "positions": [
                -0.21634195925993438,
                -2.0947984699352675,
                2.5033727601588653,
                -1.5489140240551575,
                1.3918469774574482,
                -2.40609095651466
            ]
        },
        {
            "positions": [
                -0.12383478052373692,
                -2.076008120895177,
                2.4920804349270607,
                -1.439636345942829,
                1.3243991903978884,
                -2.4793865245178623
            ]
        },
        {
            "positions": [
                -0.03132760178753946,
                -2.057217771855086,
                2.480788109695256,
                -1.3303586678305006,
                1.2569514033383287,
                -2.5526820925210645
            ]
        },
        {
            "positions": [
                0.061179576948658054,
                -2.0384274228149954,
                2.4694957844634513,
                -1.221080989718172,
                1.1895036162787689,
                -2.6259776605242666
            ]
        },
        {
            "positions": [
                0.15368675568485535,
                -2.0196370737749043,
                2.458203459231646,
                -1.111803311605844,
                1.1220558292192093,
                -2.6992732285274688
            ]
        },
        {
            "positions": [
                0.24619393442105297,
                -2.0008467247348136,
                2.4469111339998415,
                -1.0025256334935153,
                1.0546080421596495,
                -2.7725687965306705
            ]
        },
        {
            "positions": [
                0.3387011131572504,
                -1.982056375694723,
                2.435618808768037,
                -0.8932479553811868,
                0.9871602551000898,
                -2.8458643645338726
            ]
        },
        {
            "positions": [
                0.4312082918934479,
                -1.963266026654632,
                2.424326483536232,
                -0.7839702772688584,
                0.9197124680405299,
                -2.9191599325370747
            ]
        },
        {
            "positions": [
                0.5237154706296452,
                -1.9444756776145413,
                2.4130341583044275,
                -0.67469259915653,
                0.8522646809809702,
                -2.992455500540277
            ]
        },
        {
            "positions": [
                0.6162226493658429,
                -1.9256853285744504,
                2.401741833072623,
                -0.5654149210442014,
                0.7848168939214103,
                -3.065751068543479
            ]
        },
        {
            "positions": [
                0.7087298281020402,
                -1.9068949795343597,
                2.390449507840818,
                -0.456137242931873,
                0.7173691068618506,
                -3.139046636546681
            ]
        }
    ]
}