{
    "goal": {
        "global_pose": {
            "orientation": {
                "w": 0.7031023480610252,
                "x": -0.7110244013736278,
                "y": 0.0077485991402295624,
                "z": 0.005598929693374583
            },
            "position": {
                "x": -0.8841497679147869,
                "y": 0.44412534475326537,
                "z": 0.3711530566215515
            }
        },
        "name": "move_to_auspresseinheit_D"
    },
    "id": "LazyPRM_move_to_auspresseinheit_D_139",
    "joint_names": [
        "shoulder_pan_joint",
        "shoulder_lift_joint",
        "elbow_joint",
        "wrist_1_joint",
        "wrist_2_joint",
        "wrist_3_joint"
    ],
    "metrics": {
        "cart_traj_len": 0.3437185879355901,
        "distance_elbow_joint": 0.6506214522774261,
        "distance_shoulder_lift_joint": 0.12767762137102778,
        "distance_shoulder_pan_joint": 0.1332399749216388,
        "distance_wrist_1_joint": 0.5673158375881164,
        "distance_wrist_2_joint": 1.4461377188575049,
        "distance_wrist_3_joint": 0.02157350920079626,
        "smoothness": 1.3816108766519434e-15,
        "time": 0.012419619000000002,
        "traj_len": 1.7165564698595004,
        "weighted_distance": 2.2367759586207385
    },
    "planner": "LazyPRM",
    "start": {
        "state": {
            "elbow_joint": -1.8275523626775212,
            "shoulder_lift_joint": -2.126789852344167,
            "shoulder_pan_joint": -0.03513704404078235,
            "wrist_1_joint": -2.347782403156801,
            "wrist_2_joint": -1.6058999987535132,
            "wrist_3_joint": -3.0880379163319196
        }
    },
    "waypoints": [
        {
            "positions": [
                -0.03513704404078235,
                -2.126789852344167,
                -1.8275523626775212,
                -2.347782403156801,
                -1.6058999987535132,
                -3.0880379163319196
            ]
        },
        {
            "positions": [
                -0.0517920409059872,
                -2.1427495550155453,
                -1.746224681142843,
                -2.4186968828553153,
                -1.425132783896325,
                -3.08534122768182
            ]
        },
        {
            "positions": [
                -0.06844703777119204,
                -2.158709257686924,
                -1.6648969996081646,
                -2.48961136255383,
                -1.2443655690391369,
                -3.0826445390317208
            ]
        },
        {
            "positions": [
                -0.0851020346363969,
                -2.1746689603583023,
                -1.5835693180734864,
                -2.5605258422523445,
                -1.063598354181949,
                -3.079947850381621
            ]
        },
        {
            "positions": [
                -0.10175703150160176,
                -2.1906286630296807,
                -1.502241636538808,
                -2.6314403219508593,
                -0.8828311393247608,
                -3.0772511617315215
            ]
        },
        {
            "positions": [
                -0.11841202836680662,
                -2.206588365701059,
                -1.4209139550041299,
                -2.7023548016493737,
                -0.7020639244675726,
                -3.074554473081422
            ]
        },
        {
            "positions": [
                -0.13506702523201145,
                -2.2225480683724377,
                -1.3395862734694517,
                -2.773269281347888,
                -0.5212967096103847,
                -3.071857784431322
            ]
        },
        {
            "positions": [
                -0.1517220220972163,
                -2.238507771043816,
                -1.2582585919347733,
                -2.844183761046403,
                -0.3405294947531965,
                -3.0691610957812228
            ]
        },
        {
            "positions": [
                -0.16837701896242116,
                -2.2544674737151946,
                -1.1769309104000951,
                -2.9150982407449173,
                -0.1597622798960084,
                -3.0664644071311233
            ]
        }
    ]
}