{
    "goal": {
        "global_pose": {
            "orientation": {
                "w": -0.4816463035849501,
                "x": 0.5182115481033762,
                "y": 0.4908360881923453,
                "z": -0.5084816262002911
            },
            "position": {
                "x": -0.8240239810943604,
                "y": -0.300875300988555,
                "z": 0.16403168439865112
            }
        },
        "name": "move_to_storage_C"
    },
    "id": "LazyPRMstar_move_to_storage_C_28",
    "joint_names": [
        "shoulder_pan_joint",
        "shoulder_lift_joint",
        "elbow_joint",
        "wrist_1_joint",
        "wrist_2_joint",
        "wrist_3_joint"
    ],
    "metrics": {
        "cart_traj_len": 0.575951017136255,
        "distance_elbow_joint": 0.2581002642127568,
        "distance_shoulder_lift_joint": 0.18781588578427144,
        "distance_shoulder_pan_joint": 0.49562660828640537,
        "distance_wrist_1_joint": 0.08722665391350615,
        "distance_wrist_2_joint": 1.0602991374694364,
        "distance_wrist_3_joint": 0.06341504920666141,
        "smoothness": 2.5376526478085547e-16,
        "time": 5.000639471,
        "traj_len": 1.4671344856123578,
        "weighted_distance": 1.8511724632430395
    },
    "planner": "LazyPRMstar",
    "start": {
        "state": {
            "elbow_joint": 2.010868314990456,
            "shoulder_lift_joint": -1.1634956873337592,
            "shoulder_pan_joint": -2.4736205022346125,
            "wrist_1_joint": -0.8367026794202681,
            "wrist_2_joint": 0.6746043897044499,
            "wrist_3_joint": -3.1496632123970403
        }
    },
    "waypoints": [
        {
            "positions": [
                -2.4736205022346125,
                -1.1634956873337592,
                2.010868314990456,
                -0.8367026794202681,
                0.6746043897044499,
                -3.1496632123970403
            ]
        },
        {
            "positions": [
                -2.5562249369490133,
                -1.1321930397030473,
                1.9678516042883296,
                -0.8221649037680171,
                0.8513209126160226,
                -3.1390940375292633
            ]
        },
        {
            "positions": [
                -2.638829371663414,
                -1.1008903920723354,
                1.9248348935862036,
                -0.8076271281157661,
                1.0280374355275954,
                -3.1285248626614863
            ]
        },
        {
            "positions": [
                -2.7214338063778154,
                -1.0695877444416235,
                1.8818181828840774,
                -0.793089352463515,
                1.2047539584391682,
                -3.1179556877937094
            ]
        },
        {
            "positions": [
                -2.804038241092216,
                -1.0382850968109116,
                1.8388014721819512,
                -0.778551576811264,
                1.3814704813507408,
                -3.107386512925933
            ]
        },
        {
            "positions": [
                -2.886642675806617,
                -1.0069824491801995,
                1.7957847614798252,
                -0.764013801159013,
                1.5581870042623136,
                -3.096817338058156
            ]
        },
        {
            "positions": [
                -2.969247110521018,
                -0.9756798015494877,
                1.752768050777699,
                -0.749476025506762,
                1.7349035271738864,
                -3.086248163190379
            ]
        }
    ]
}