{
    "goal": {
        "global_pose": {
            "orientation": {
                "w": 0.5084816217422485,
                "x": -0.49083608388900757,
                "y": 0.5182115435600281,
                "z": -0.4816462993621826
            },
            "position": {
                "x": 0.5540239810943604,
                "y": 0.030875300988554955,
                "z": 0.16403168439865112
            }
        },
        "name": "move_to_storage_A"
    },
    "id": "LazyPRMstar_move_to_storage_A_119",
    "joint_names": [
        "shoulder_pan_joint",
        "shoulder_lift_joint",
        "elbow_joint",
        "wrist_1_joint",
        "wrist_2_joint",
        "wrist_3_joint"
    ],
    "metrics": {
        "cart_traj_len": 0.35312933447412237,
        "distance_elbow_joint": 0.4497919635342489,
        "distance_shoulder_lift_joint": 0.23523023393509512,
        "distance_shoulder_pan_joint": 0.4640318891155525,
        "distance_wrist_1_joint": 0.23612265997972404,
        "distance_wrist_2_joint": 1.0899842229557624,
        "distance_wrist_3_joint": 0.09859878614747153,
        "smoothness": 8.881784197001252e-16,
        "time": 5.001022301,
        "traj_len": 1.6042941612023196,
        "weighted_distance": 2.024120601865977
    },
    "planner": "LazyPRMstar",
    "start": {
        "state": {
            "elbow_joint": 1.971548259319323,
            "shoulder_lift_joint": -1.1394851275133948,
            "shoulder_pan_joint": 0.1228115487234821,
            "wrist_1_joint": -0.7804723859257726,
            "wrist_2_joint": 0.12958671773740124,
            "wrist_3_joint": -3.192489227718131
        }
    },
    "waypoints": [
        {
            "positions": [
                0.1228115487234821,
                -1.1394851275133948,
                1.971548259319323,
                -0.7804723859257726,
                0.12958671773740124,
                -3.192489227718131
            ]
        },
        {
            "positions": [
                0.056521278849831755,
                -1.17308944664698,
                2.03580425410993,
                -0.8142041944943046,
                0.28529874958822443,
                -3.178403686839921
            ]
        },
        {
            "positions": [
                -0.00976899102381859,
                -1.2066937657805648,
                2.100060248900537,
                -0.8479360030628367,
                0.4410107814390476,
                -3.164318145961711
            ]
        },
        {
            "positions": [
                -0.07605926089746895,
                -1.2402980849141498,
                2.164316243691144,
                -0.8816678116313686,
                0.5967228132898708,
                -3.1502326050835006
            ]
        },
        {
            "positions": [
                -0.14234953077111928,
                -1.273902404047735,
                2.228572238481751,
                -0.9153996201999006,
                0.752434845140694,
                -3.13614706420529
            ]
        },
        {
            "positions": [
                -0.20863980064476967,
                -1.30750672318132,
                2.292828233272358,
                -0.9491314287684327,
                0.9081468769915173,
                -3.12206152332708
            ]
        },
        {
            "positions": [
                -0.27493007051842,
                -1.3411110423149049,
                2.357084228062965,
                -0.9828632373369646,
                1.0638589088423402,
                -3.10797598244887
            ]
        },
        {
            "positions": [
                -0.3412203403920704,
                -1.37471536144849,
                2.421340222853572,
                -1.0165950459054967,
                1.2195709406931636,
                -3.0938904415706596
            ]
        }
    ]
}{
    "goal": {
        "global_pose": {
            "orientation": {
                "w": 0.5084816217422485,
                "x": -0.49083608388900757,
                "y": 0.5182115435600281,
                "z": -0.4816462993621826
            },
            "position": {
                "x": 0.5540239810943604,
                "y": 0.030875300988554955,
                "z": 0.16403168439865112
            }
        },
        "name": "move_to_storage_A"
    },
    "id": "LazyPRMstar_move_to_storage_A_119",
    "joint_names": [
        "shoulder_pan_joint",
        "shoulder_lift_joint",
        "elbow_joint",
        "wrist_1_joint",
        "wrist_2_joint",
        "wrist_3_joint"
    ],
    "metrics": {
        "cart_traj_len": 0.3528695911495381,
        "distance_elbow_joint": 0.45249939274524875,
        "distance_shoulder_lift_joint": 0.23279642609963336,
        "distance_shoulder_pan_joint": 0.4628718045029442,
        "distance_wrist_1_joint": 0.25249589533330496,
        "distance_wrist_2_joint": 1.0919793434016873,
        "distance_wrist_3_joint": 0.09738662518943153,
        "smoothness": 6.661338165333112e-16,
        "time": 5.00055861,
        "traj_len": 1.609356855166762,
        "weighted_distance": 2.032062493228519
    },
    "planner": "LazyPRMstar",
    "start": {
        "state": {
            "elbow_joint": 1.97154746011099,
            "shoulder_lift_joint": -1.13948474672311,
            "shoulder_pan_joint": 0.12281154466712228,
            "wrist_1_joint": -0.7804688027058302,
            "wrist_2_joint": 0.12958655903071145,
            "wrist_3_joint": 3.0906928834467795
        }
    },
    "waypoints": [
        {
            "positions": [
                0.12281154466712228,
                -1.13948474672311,
                1.97154746011099,
                -0.7804688027058302,
                0.12958655903071145,
                3.0906928834467795
            ]
        },
        {
            "positions": [
                0.056687001166701695,
                -1.1727413790230576,
                2.0361902305031685,
                -0.8165396448963024,
                0.28558360808809535,
                3.1046052584738413
            ]
        },
        {
            "positions": [
                -0.009437542333718893,
                -1.205998011323005,
                2.1008330008953466,
                -0.8526104870867744,
                0.4415806571454792,
                3.1185176335009026
            ]
        },
        {
            "positions": [
                -0.0755620858341395,
                -1.2392546436229528,
                2.165475771287525,
                -0.8886813292772466,
                0.5975777062028631,
                3.1324300085279644
            ]
        },
        {
            "positions": [
                -0.14168662933456005,
                -1.2725112759229005,
                2.2301185416797034,
                -0.9247521714677187,
                0.7535747552602471,
                3.146342383555026
            ]
        },
        {
            "positions": [
                -0.20781117283498068,
                -1.3057679082228482,
                2.294761312071882,
                -0.9608230136581909,
                0.9095718043176311,
                3.160254758582088
            ]
        },
        {
            "positions": [
                -0.27393571633540126,
                -1.3390245405227956,
                2.35940408246406,
                -0.996893855848663,
                1.0655688533750147,
                3.1741671336091493
            ]
        },
        {
            "positions": [
                -0.3400602598358219,
                -1.3722811728227433,
                2.4240468528562387,
                -1.0329646980391352,
                1.2215659024323988,
                3.188079508636211
            ]
        }
    ]
}{
    "goal": {
        "global_pose": {
            "orientation": {
                "w": 0.5084816217422485,
                "x": -0.49083608388900757,
                "y": 0.5182115435600281,
                "z": -0.4816462993621826
            },
            "position": {
                "x": 0.5540239810943604,
                "y": 0.030875300988554955,
                "z": 0.16403168439865112
            }
        },
        "name": "move_to_storage_A"
    },
    "id": "LazyPRMstar_move_to_storage_A_119",
    "joint_names": [
        "shoulder_pan_joint",
        "shoulder_lift_joint",
        "elbow_joint",
        "wrist_1_joint",
        "wrist_2_joint",
        "wrist_3_joint"
    ],
    "metrics": {
        "cart_traj_len": 0.352535927704003,
        "distance_elbow_joint": 0.45078526359494475,
        "distance_shoulder_lift_joint": 0.23404522614839363,
        "distance_shoulder_pan_joint": 0.46161766139204113,
        "distance_wrist_1_joint": 0.24790937571806482,
        "distance_wrist_2_joint": 1.0948871238515439,
        "distance_wrist_3_joint": 0.10777845214419957,
        "smoothness": 0.0,
        "time": 5.000408534,
        "traj_len": 1.6115281886610573,
        "weighted_distance": 2.0384740632902827
    },
    "planner": "LazyPRMstar",
    "start": {
        "state": {
            "elbow_joint": 1.9715472970024885,
            "shoulder_lift_joint": -1.1394870060712896,
            "shoulder_pan_joint": 0.12281152778156021,
            "wrist_1_joint": -0.780463741449964,
            "wrist_2_joint": 0.12958659822042276,
            "wrist_3_joint": 3.090690232415272
        }
    },
    "waypoints": [
        {
            "positions": [
                0.12281152778156021,
                -1.1394870060712896,
                1.9715472970024885,
                -0.780463741449964,
                0.12958659822042276,
                3.090690232415272
            ]
        },
        {
            "positions": [
                0.0568661475826972,
                -1.172922038378203,
                2.0359451918017664,
                -0.8158793665525447,
                0.285999044484929,
                3.1060871541501576
            ]
        },
        {
            "positions": [
                -0.009079232616165805,
                -1.2063570706851163,
                2.100343086601044,
                -0.8512949916551253,
                0.4424114907494353,
                3.1214840758850433
            ]
        },
        {
            "positions": [
                -0.07502461281502881,
                -1.2397921029920298,
                2.164740981400322,
                -0.886710616757706,
                0.5988239370139415,
                3.136880997619929
            ]
        },
        {
            "positions": [
                -0.14096999301389182,
                -1.273227135298943,
                2.2291388761996,
                -0.9221262418602867,
                0.7552363832784478,
                3.1522779193548143
            ]
        },
        {
            "positions": [
                -0.20691537321275486,
                -1.3066621676058565,
                2.2935367709988776,
                -0.9575418669628675,
                0.9116488295429541,
                3.1676748410897
            ]
        },
        {
            "positions": [
                -0.27286075341161786,
                -1.3400971999127698,
                2.3579346657981555,
                -0.9929574920654481,
                1.0680612758074604,
                3.1830717628245857
            ]
        },
        {
            "positions": [
                -0.3388061336104809,
                -1.3735322322196832,
                2.4223325605974333,
                -1.0283731171680288,
                1.2244737220719666,
                3.1984686845594714
            ]
        }
    ]
}