{
    "goal": {
        "global_pose": {
            "orientation": {
                "w": 0.005598929693374612,
                "x": 0.007748599140229565,
                "y": 0.7110244013736278,
                "z": -0.7031023480610252
            },
            "position": {
                "x": 0.1141497679147869,
                "y": -0.7141253447532654,
                "z": 0.3711530566215515
            }
        },
        "name": "move_to_auspresseinheit_B"
    },
    "id": "LazyPRM_move_to_auspresseinheit_B_107",
    "joint_names": [
        "shoulder_pan_joint",
        "shoulder_lift_joint",
        "elbow_joint",
        "wrist_1_joint",
        "wrist_2_joint",
        "wrist_3_joint"
    ],
    "metrics": {
        "cart_traj_len": 0.5657993877042461,
        "distance_elbow_joint": 0.0645074926127518,
        "distance_shoulder_lift_joint": 0.29430110340851545,
        "distance_shoulder_pan_joint": 0.5760629611111647,
        "distance_wrist_1_joint": 0.32927656586644705,
        "distance_wrist_2_joint": 1.0042081957731566,
        "distance_wrist_3_joint": 0.005480475572693599,
        "smoothness": 0.0,
        "time": 0.011675067,
        "traj_len": 1.5079246646781561,
        "weighted_distance": 1.9021783583906426
    },
    "planner": "LazyPRM",
    "start": {
        "state": {
            "elbow_joint": 2.0193083361928714,
            "shoulder_lift_joint": -1.1220246554650708,
            "shoulder_pan_joint": -1.0952077554168747,
            "wrist_1_joint": -0.8559753972642168,
            "wrist_2_joint": 0.4759566250798843,
            "wrist_3_joint": -3.1240929996934557
        }
    },
    "waypoints": [
        {
            "positions": [
                -1.0952077554168747,
                -1.1220246554650708,
                2.0193083361928714,
                -0.8559753972642168,
                0.4759566250798843,
                -3.1240929996934557
            ]
        },
        {
            "positions": [
                -1.1912182489354022,
                -1.17107483936649,
                2.0085570874240792,
                -0.801095969619809,
                0.6433246577087437,
                -3.1250064122889047
            ]
        },
        {
            "positions": [
                -1.2872287424539295,
                -1.2201250232679093,
                1.9978058386552875,
                -0.7462165419754011,
                0.810692690337603,
                -3.1259198248843534
            ]
        },
        {
            "positions": [
                -1.383239235972457,
                -1.2691752071693285,
                1.9870545898864955,
                -0.6913371143309932,
                0.9780607229664626,
                -3.1268332374798025
            ]
        },
        {
            "positions": [
                -1.4792497294909843,
                -1.3182253910707478,
                1.9763033411177036,
                -0.6364576866865854,
                1.145428755595322,
                -3.1277466500752515
            ]
        },
        {
            "positions": [
                -1.5752602230095119,
                -1.367275574972167,
                1.9655520923489116,
                -0.5815782590421776,
                1.3127967882241816,
                -3.1286600626707
            ]
        },
        {
            "positions": [
                -1.6712707165280394,
                -1.4163257588735862,
                1.9548008435801196,
                -0.5266988313977697,
                1.480164820853041,
                -3.1295734752661493
            ]
        }
    ]
}