{
    "goal": {
        "global_pose": {
            "orientation": {
                "w": 0.7031023480610252,
                "x": -0.7110244013736278,
                "y": 0.0077485991402295624,
                "z": 0.005598929693374583
            },
            "position": {
                "x": -0.8841497679147869,
                "y": 0.44412534475326537,
                "z": 0.3711530566215515
            }
        },
        "name": "move_to_auspresseinheit_D"
    },
    "id": "LazyPRM_move_to_auspresseinheit_D_37",
    "joint_names": [
        "shoulder_pan_joint",
        "shoulder_lift_joint",
        "elbow_joint",
        "wrist_1_joint",
        "wrist_2_joint",
        "wrist_3_joint"
    ],
    "metrics": {
        "cart_traj_len": 0.3449970421167406,
        "distance_elbow_joint": 0.6670836764445722,
        "distance_shoulder_lift_joint": 0.13711086093387426,
        "distance_shoulder_pan_joint": 0.13480007620308893,
        "distance_wrist_1_joint": 0.6312898213706437,
        "distance_wrist_2_joint": 1.4298133881762705,
        "distance_wrist_3_joint": 0.0837348010852006,
        "smoothness": 0.0,
        "time": 0.01243475,
        "traj_len": 1.7560844581664203,
        "weighted_distance": 2.304865600405144
    },
    "planner": "LazyPRM",
    "start": {
        "state": {
            "elbow_joint": -1.8275523626775212,
            "shoulder_lift_joint": -2.126789852344167,
            "shoulder_pan_joint": -0.03513704404078235,
            "wrist_1_joint": -2.347782403156801,
            "wrist_2_joint": -1.6058999987535132,
            "wrist_3_joint": -3.0880379163319196
        }
    },
    "waypoints": [
        {
            "positions": [
                -0.03513704404078235,
                -2.126789852344167,
                -1.8275523626775212,
                -2.347782403156801,
                -1.6058999987535132,
                -3.0880379163319196
            ]
        },
        {
            "positions": [
                -0.051987053566168465,
                -2.143928709960901,
                -1.7441669031219496,
                -2.4266936308281313,
                -1.4271733252314793,
                -3.0775710661962696
            ]
        },
        {
            "positions": [
                -0.06883706309155457,
                -2.1610675675776356,
                -1.6607814435663781,
                -2.5056048584994617,
                -1.2484466517094455,
                -3.0671042160606197
            ]
        },
        {
            "positions": [
                -0.0856870726169407,
                -2.17820642519437,
                -1.5773959840108067,
                -2.584516086170792,
                -1.0697199781874118,
                -3.0566373659249693
            ]
        },
        {
            "positions": [
                -0.10253708214232682,
                -2.195345282811104,
                -1.494010524455235,
                -2.6634273138421225,
                -0.890993304665378,
                -3.0461705157893193
            ]
        },
        {
            "positions": [
                -0.11938709166771294,
                -2.212484140427838,
                -1.4106250648996634,
                -2.7423385415134534,
                -0.7122666311433441,
                -3.0357036656536693
            ]
        },
        {
            "positions": [
                -0.13623710119309904,
                -2.2296229980445723,
                -1.327239605344092,
                -2.8212497691847838,
                -0.5335399576213105,
                -3.025236815518019
            ]
        },
        {
            "positions": [
                -0.15308711071848516,
                -2.246761855661307,
                -1.2438541457885206,
                -2.900160996856114,
                -0.3548132840992766,
                -3.014769965382369
            ]
        },
        {
            "positions": [
                -0.16993712024387128,
                -2.263900713278041,
                -1.160468686232949,
                -2.9790722245274446,
                -0.1760866105772427,
                -3.004303115246719
            ]
        }
    ]
}