{
    "goal": {
        "global_pose": {
            "orientation": {
                "w": 0.7031023502349854,
                "x": -0.7110244035720825,
                "y": 0.007748599164187908,
                "z": 0.005598929710686207
            },
            "position": {
                "x": 0.11585023208521307,
                "y": 0.44412534475326537,
                "z": 0.3711530566215515
            }
        },
        "name": "move_to_auspresseinheit_A"
    },
    "id": "LazyPRMstar_move_to_auspresseinheit_A_20",
    "joint_names": [
        "shoulder_pan_joint",
        "shoulder_lift_joint",
        "elbow_joint",
        "wrist_1_joint",
        "wrist_2_joint",
        "wrist_3_joint"
    ],
    "metrics": {
        "cart_traj_len": 0.6866535480938896,
        "distance_elbow_joint": 0.03344793580658756,
        "distance_shoulder_lift_joint": 0.5311693491052374,
        "distance_shoulder_pan_joint": 1.0412438899275607,
        "distance_wrist_1_joint": 0.5756411033358423,
        "distance_wrist_2_joint": 0.532600688986084,
        "distance_wrist_3_joint": 0.5935479477649857,
        "smoothness": 0.48021992378270956,
        "time": 5.008210387,
        "traj_len": 1.8186948383184842,
        "weighted_distance": 2.367063286601817
    },
    "planner": "LazyPRMstar",
    "start": {
        "state": {
            "elbow_joint": 2.4225746658250005,
            "shoulder_lift_joint": -1.3736534386056498,
            "shoulder_pan_joint": -0.3378633547517467,
            "wrist_1_joint": -1.0288598680537169,
            "wrist_2_joint": 1.233022673432363,
            "wrist_3_joint": -3.0940220416140027
        }
    },
    "waypoints": [
        {
            "positions": [
                -0.3378633547517467,
                -1.3736534386056498,
                2.4225746658250005,
                -1.0288598680537169,
                1.233022673432363,
                -3.0940220416140027
            ]
        },
        {
            "positions": [
                -0.2171834193510313,
                -1.4769768763979694,
                2.42193531021315,
                -0.9501811572097348,
                1.2117326650281184,
                -3.0404913692486053
            ]
        },
        {
            "positions": [
                -0.09650348395031588,
                -1.580300314190289,
                2.421295954601299,
                -0.8715024463657528,
                1.1904426566238737,
                -2.986960696883208
            ]
        },
        {
            "positions": [
                0.02417645145039954,
                -1.6836237519826085,
                2.4206565989894484,
                -0.7928237355217709,
                1.169152648219629,
                -2.933430024517811
            ]
        },
        {
            "positions": [
                0.14485638685111496,
                -1.786947189774928,
                2.4200172433775977,
                -0.7141450246777887,
                1.1478626398153844,
                -2.8798993521524134
            ]
        },
        {
            "positions": [
                0.2655363222518304,
                -1.8902706275672476,
                2.419377887765747,
                -0.6354663138338068,
                1.1265726314111397,
                -2.826368679787016
            ]
        },
        {
            "positions": [
                0.37499737548282625,
                -1.8939086676031576,
                2.4118150983289137,
                -0.5899044265548238,
                1.0200349696699245,
                -2.9078423262715156
            ]
        },
        {
            "positions": [
                0.48445842871382216,
                -1.8975467076390675,
                2.40425230889208,
                -0.5443425392758408,
                0.9134973079287094,
                -2.9893159727560157
            ]
        },
        {
            "positions": [
                0.593919481944818,
                -1.9011847476749772,
                2.396689519455246,
                -0.49878065199685767,
                0.8069596461874942,
                -3.0707896192405153
            ]
        },
        {
            "positions": [
                0.7033805351758139,
                -1.9048227877108872,
                2.389126730018413,
                -0.45321876471787464,
                0.700421984446279,
                -3.152263265725015
            ]
        }
    ]
}