{
    "goal": {
        "global_pose": {
            "orientation": {
                "w": 0.7047431493862688,
                "x": -0.7094548369677653,
                "y": 0.0024358444001904,
                "z": -0.0022348060817251984
            },
            "position": {
                "x": -0.39052492380142206,
                "y": 0.3671506643295288,
                "z": 0.19426114857196808
            }
        },
        "name": "move_to_magneteinheit_D"
    },
    "id": "LazyPRMstar_move_to_magneteinheit_D_128",
    "joint_names": [
        "shoulder_pan_joint",
        "shoulder_lift_joint",
        "elbow_joint",
        "wrist_1_joint",
        "wrist_2_joint",
        "wrist_3_joint"
    ],
    "metrics": {
        "cart_traj_len": 4.332002125072501,
        "distance_elbow_joint": 3.2020397808514622,
        "distance_shoulder_lift_joint": 1.6317883806197278,
        "distance_shoulder_pan_joint": 2.9047678732713647,
        "distance_wrist_1_joint": 1.690134444134991,
        "distance_wrist_2_joint": 0.7587987198180881,
        "distance_wrist_3_joint": 3.188807198704512,
        "smoothness": 0.07713403450031057,
        "time": 5.043250166,
        "traj_len": 3.6573674135093603,
        "weighted_distance": 4.711993628896611
    },
    "planner": "LazyPRMstar",
    "start": {
        "state": {
            "elbow_joint": 0.749534889911806,
            "shoulder_lift_joint": -0.6476975780787326,
            "shoulder_pan_joint": -2.711696901376241,
            "wrist_1_joint": -0.07506478083263063,
            "wrist_2_joint": 0.43296659715538205,
            "wrist_3_joint": -3.14703540197715
        }
    },
    "waypoints": [
        {
            "positions": [
                -2.711696901376241,
                -0.6476975780787326,
                0.749534889911806,
                -0.07506478083263063,
                0.43296659715538205,
                -3.14703540197715
            ]
        },
        {
            "positions": [
                -2.7105365749022416,
                -0.7026837958025224,
                0.7588469863378283,
                0.016851931775093892,
                0.49606527402418144,
                -3.102845739186939
            ]
        },
        {
            "positions": [
                -2.709376248428242,
                -0.757670013526312,
                0.7681590827638508,
                0.10876864438281841,
                0.5591639508929809,
                -3.0586560763967285
            ]
        },
        {
            "positions": [
                -2.7082159219542428,
                -0.8126562312501018,
                0.7774711791898732,
                0.20068535699054296,
                0.6222626277617802,
                -3.0144664136065176
            ]
        },
        {
            "positions": [
                -2.6896613910616587,
                -0.8837604206330302,
                0.7831990678100261,
                0.3074369892410562,
                0.6830350393900098,
                -2.9553695386560777
            ]
        },
        {
            "positions": [
                -2.5902021543185656,
                -0.935150016194619,
                0.6891750789633418,
                0.353260620664914,
                0.6792872268343995,
                -2.858254517256544
            ]
        },
        {
            "positions": [
                -2.490742917575473,
                -0.9865396117562077,
                0.5951510901166577,
                0.39908425208877174,
                0.6755394142787892,
                -2.76113949585701
            ]
        },
        {
            "positions": [
                -2.39128368083238,
                -1.0379292073177966,
                0.5011271012699734,
                0.44490788351262955,
                0.6717916017231789,
                -2.664024474457477
            ]
        },
        {
            "positions": [
                -2.291824444089287,
                -1.0893188028793854,
                0.4071031124232891,
                0.4907315149364873,
                0.6680437891675686,
                -2.566909453057943
            ]
        },
        {
            "positions": [
                -2.192365207346194,
                -1.1407083984409743,
                0.3130791235766049,
                0.5365551463603451,
                0.6642959766119583,
                -2.4697944316584093
            ]
        },
        {
            "positions": [
                -2.092905970603101,
                -1.1920979940025629,
                0.21905513472992066,
                0.5823787777842029,
                0.660548164056348,
                -2.3726794102588755
            ]
        },
        {
            "positions": [
                -1.9934467338600084,
                -1.2434875895641517,
                0.12503114588323638,
                0.6282024092080606,
                0.6568003515007377,
                -2.275564388859342
            ]
        },
        {
            "positions": [
                -1.8939874971169153,
                -1.2948771851257406,
                0.031007157036552102,
                0.6740260406319184,
                0.6530525389451274,
                -2.178449367459808
            ]
        },
        {
            "positions": [
                -1.7945282603738224,
                -1.3462667806873294,
                -0.06301683181013218,
                0.7198496720557761,
                0.6493047263895171,
                -2.0813343460602747
            ]
        },
        {
            "positions": [
                -1.6950690236307295,
                -1.3976563762489183,
                -0.15704082065681635,
                0.7656733034796339,
                0.6455569138339068,
                -1.984219324660741
            ]
        },
        {
            "positions": [
                -1.5956097868876364,
                -1.449045971810507,
                -0.25106480950350074,
                0.8114969349034917,
                0.6418091012782965,
                -1.8871043032612071
            ]
        },
        {
            "positions": [
                -1.4961505501445436,
                -1.500435567372096,
                -0.3450887983501848,
                0.8573205663273494,
                0.6380612887226862,
                -1.7899892818616736
            ]
        },
        {
            "positions": [
                -1.3966913134014507,
                -1.5518251629336848,
                -0.4391127871968691,
                0.9031441977512072,
                0.6343134761670759,
                -1.6928742604621398
            ]
        },
        {
            "positions": [
                -1.2972320766583578,
                -1.6032147584952734,
                -0.5331367760435534,
                0.948967829175065,
                0.6305656636114656,
                -1.5957592390626063
            ]
        },
        {
            "positions": [
                -1.1977728399152647,
                -1.6546043540568625,
                -0.6271607648902379,
                0.9947914605989229,
                0.6268178510558553,
                -1.4986442176630723
            ]
        },
        {
            "positions": [
                -1.0983136031721719,
                -1.705993949618451,
                -0.7211847537369219,
                1.0406150920227806,
                0.623070038500245,
                -1.4015291962635388
            ]
        },
        {
            "positions": [
                -0.9988543664290788,
                -1.75738354518004,
                -0.8152087425836062,
                1.0864387234466384,
                0.6193222259446347,
                -1.304414174864005
            ]
        },
        {
            "positions": [
                -0.8993951296859861,
                -1.8087731407416285,
                -0.9092327314302905,
                1.132262354870496,
                0.6155744133890244,
                -1.2072991534644715
            ]
        },
        {
            "positions": [
                -0.799935892942893,
                -1.8601627363032176,
                -1.0032567202769749,
                1.178085986294354,
                0.6118266008334141,
                -1.1101841320649377
            ]
        },
        {
            "positions": [
                -0.7004766561998002,
                -1.9115523318648062,
                -1.097280709123659,
                1.2239096177182116,
                0.6080787882778038,
                -1.0130691106654042
            ]
        },
        {
            "positions": [
                -0.6010174194567073,
                -1.962941927426395,
                -1.1913046979703434,
                1.2697332491420694,
                0.6043309757221935,
                -0.9159540892658704
            ]
        },
        {
            "positions": [
                -0.5015581827136142,
                -2.014331522987984,
                -1.2853286868170275,
                1.3155568805659272,
                0.6005831631665832,
                -0.8188390678663366
            ]
        },
        {
            "positions": [
                -0.4020989459705211,
                -2.0657211185495727,
                -1.3793526756637116,
                1.361380511989785,
                0.5968353506109729,
                -0.7217240464668029
            ]
        },
        {
            "positions": [
                -0.30263970922742844,
                -2.1171107141111616,
                -1.4733766645103956,
                1.4072041434136426,
                0.5930875380553626,
                -0.6246090250672696
            ]
        },
        {
            "positions": [
                -0.20318047248433535,
                -2.1685003096727504,
                -1.5674006533570801,
                1.4530277748375005,
                0.5893397254997523,
                -0.5274940036677358
            ]
        },
        {
            "positions": [
                -0.1037212357412427,
                -2.2198899052343393,
                -1.6614246422037642,
                1.4988514062613583,
                0.585591912944142,
                -0.43037898226820204
            ]
        },
        {
            "positions": [
                -0.004261998998149642,
                -2.271279500795928,
                -1.7554486310504487,
                1.544675037685216,
                0.5818441003885317,
                -0.3332639608686682
            ]
        },
        {
            "positions": [
                -0.0015700845463916305,
                -2.2709772299244317,
                -1.8834213001181348,
                1.5264475587790325,
                0.5335917395528538,
                -0.21450146208588394
            ]
        },
        {
            "positions": [
                0.0011218299053663812,
                -2.270674959052936,
                -2.011393969185821,
                1.508220079872849,
                0.48533937871717575,
                -0.09573896330309967
            ]
        },
        {
            "positions": [
                0.0038137443571243934,
                -2.2703726881814394,
                -2.139366638253507,
                1.4899926009666653,
                0.43708701788149773,
                0.023023535479684602
            ]
        },
        {
            "positions": [
                -0.09081486941187526,
                -2.2740225108254615,
                -2.262271586698361,
                1.4821365065173686,
                0.3056958898440235,
                0.03239766610352362
            ]
        },
        {
            "positions": [
                -0.18544348318087492,
                -2.277672333469483,
                -2.3851765351432155,
                1.4742804120680717,
                0.17430476180654936,
                0.041771796727362635
            ]
        }
    ]
}