{
    "goal": {
        "global_pose": {
            "orientation": {
                "w": 0.5084816262002911,
                "x": -0.4908360881923452,
                "y": 0.5182115481033761,
                "z": -0.48164630358495003
            },
            "position": {
                "x": 0.5540239810943604,
                "y": -0.46912469901144505,
                "z": 0.16403168439865112
            }
        },
        "name": "move_to_storage_B"
    },
    "id": "LazyPRMstar_move_to_storage_B_74",
    "joint_names": [
        "shoulder_pan_joint",
        "shoulder_lift_joint",
        "elbow_joint",
        "wrist_1_joint",
        "wrist_2_joint",
        "wrist_3_joint"
    ],
    "metrics": {
        "cart_traj_len": 0.7543272443384493,
        "distance_elbow_joint": 0.3591965745699848,
        "distance_shoulder_lift_joint": 0.4630922660206376,
        "distance_shoulder_pan_joint": 0.2647846889165012,
        "distance_wrist_1_joint": 3.3335381326766846,
        "distance_wrist_2_joint": 2.7205533808635405,
        "distance_wrist_3_joint": 3.1635871116197922,
        "smoothness": 0.10608976522636494,
        "time": 5.032503246,
        "traj_len": 3.210101580116608,
        "weighted_distance": 4.762984137223948
    },
    "planner": "LazyPRMstar",
    "start": {
        "state": {
            "elbow_joint": 1.664937868594044,
            "shoulder_lift_joint": -0.661644460510453,
            "shoulder_pan_joint": -0.9139846352900073,
            "wrist_1_joint": 2.146753192139373,
            "wrist_2_joint": -2.2341966793290973,
            "wrist_3_joint": 0.005466555786416001
        }
    },
    "waypoints": [
        {
            "positions": [
                -0.9139846352900073,
                -0.661644460510453,
                1.664937868594044,
                2.146753192139373,
                -2.2341966793290973,
                0.005466555786416001
            ]
        },
        {
            "positions": [
                -0.9585236673002604,
                -0.6846267571956776,
                1.7228688810228097,
                2.178112689528571,
                -2.1036701245668272,
                0.05884634865680772
            ]
        },
        {
            "positions": [
                -1.0030626993105134,
                -0.7076090538809021,
                1.7807998934515754,
                2.209472186917769,
                -1.9731435698045574,
                0.11222614152719944
            ]
        },
        {
            "positions": [
                -1.0476017313207666,
                -0.7305913505661267,
                1.8387309058803412,
                2.2408316843069676,
                -1.8426170150422874,
                0.16560593439759114
            ]
        },
        {
            "positions": [
                -1.0921407633310198,
                -0.7535736472513512,
                1.896661918309107,
                2.2721911816961655,
                -1.7120904602800175,
                0.21898572726798288
            ]
        },
        {
            "positions": [
                -1.1366797953412728,
                -0.7765559439365758,
                1.9545929307378727,
                2.3035506790853635,
                -1.5815639055177475,
                0.2723655201383746
            ]
        },
        {
            "positions": [
                -1.1347666349383077,
                -0.7923823431454173,
                1.9577539085754252,
                2.1591533770066955,
                -1.4875675142881024,
                0.4040331631960034
            ]
        },
        {
            "positions": [
                -1.1328534745353422,
                -0.808208742354259,
                1.9609148864129777,
                2.0147560749280276,
                -1.3935711230584573,
                0.5357008062536321
            ]
        },
        {
            "positions": [
                -1.130940314132377,
                -0.8240351415631005,
                1.9640758642505303,
                1.8703587728493598,
                -1.2995747318288122,
                0.667368449311261
            ]
        },
        {
            "positions": [
                -1.1290271537294119,
                -0.8398615407719421,
                1.9672368420880828,
                1.7259614707706916,
                -1.2055783405991671,
                0.7990360923688897
            ]
        },
        {
            "positions": [
                -1.1271139933264465,
                -0.8556879399807837,
                1.9703978199256353,
                1.5815641686920239,
                -1.111581949369522,
                0.9307037354265186
            ]
        },
        {
            "positions": [
                -1.1252008329234813,
                -0.8715143391896253,
                1.9735587977631879,
                1.4371668666133561,
                -1.017585558139877,
                1.0623713784841473
            ]
        },
        {
            "positions": [
                -1.123287672520516,
                -0.8873407383984668,
                1.9767197756007404,
                1.292769564534688,
                -0.9235891669102319,
                1.1940390215417762
            ]
        },
        {
            "positions": [
                -1.1213745121175507,
                -0.9031671376073085,
                1.979880753438293,
                1.14837226245602,
                -0.8295927756805868,
                1.325706664599405
            ]
        },
        {
            "positions": [
                -1.1194613517145855,
                -0.91899353681615,
                1.9830417312758455,
                1.003974960377352,
                -0.7355963844509417,
                1.4573743076570338
            ]
        },
        {
            "positions": [
                -1.1175481913116203,
                -0.9348199360249916,
                1.986202709113398,
                0.8595776582986843,
                -0.6415999932212966,
                1.5890419507146625
            ]
        },
        {
            "positions": [
                -1.115635030908655,
                -0.9506463352338332,
                1.9893636869509508,
                0.7151803562200163,
                -0.5476036019916515,
                1.7207095937722914
            ]
        },
        {
            "positions": [
                -1.1137218705056897,
                -0.9664727344426748,
                1.9925246647885033,
                0.5707830541413486,
                -0.4536072107620064,
                1.85237723682992
            ]
        },
        {
            "positions": [
                -1.1118087101027245,
                -0.9822991336515163,
                1.9956856426260559,
                0.42638575206268037,
                -0.3596108195323613,
                1.984044879887549
            ]
        },
        {
            "positions": [
                -1.1098955496997593,
                -0.998125532860358,
                1.9988466204636084,
                0.2819884499840124,
                -0.2656144283027162,
                2.115712522945178
            ]
        },
        {
            "positions": [
                -1.107982389296794,
                -1.0139519320691994,
                2.002007598301161,
                0.13759114790534488,
                -0.1716180370730711,
                2.2473801660028068
            ]
        },
        {
            "positions": [
                -1.1060692288938287,
                -1.029778331278041,
                2.0051685761387135,
                -0.006806154173323531,
                -0.07762164584342601,
                2.3790478090604354
            ]
        },
        {
            "positions": [
                -1.1041560684908636,
                -1.0456047304868827,
                2.008329553976266,
                -0.15120345625199105,
                0.01637474538621908,
                2.5107154521180646
            ]
        },
        {
            "positions": [
                -1.1022429080878982,
                -1.0614311296957242,
                2.0114905318138185,
                -0.29560075833065946,
                0.11037113661586417,
                2.6423830951756933
            ]
        },
        {
            "positions": [
                -1.100329747684933,
                -1.0772575289045658,
                2.014651509651371,
                -0.439998060409327,
                0.20436752784550927,
                2.774050738233322
            ]
        },
        {
            "positions": [
                -1.0984165872819678,
                -1.0930839281134075,
                2.0178124874889236,
                -0.584395362487995,
                0.29836391907515436,
                2.9057183812909506
            ]
        },
        {
            "positions": [
                -1.0965034268790024,
                -1.1089103273222491,
                2.020973465326476,
                -0.7287926645666629,
                0.39236031030479945,
                3.0373860243485797
            ]
        },
        {
            "positions": [
                -1.0945902664760372,
                -1.1247367265310906,
                2.0241344431640287,
                -0.8731899666453308,
                0.48635670153444444,
                3.1690536674062084
            ]
        }
    ]
}