{
    "goal": {
        "global_pose": {
            "orientation": {
                "w": 0.5084816217422485,
                "x": -0.49083608388900757,
                "y": 0.5182115435600281,
                "z": -0.4816462993621826
            },
            "position": {
                "x": 0.5540239810943604,
                "y": 0.030875300988554955,
                "z": 0.16403168439865112
            }
        },
        "name": "move_to_storage_A"
    },
    "id": "LazyPRM_move_to_storage_A_90",
    "joint_names": [
        "shoulder_pan_joint",
        "shoulder_lift_joint",
        "elbow_joint",
        "wrist_1_joint",
        "wrist_2_joint",
        "wrist_3_joint"
    ],
    "metrics": {
        "cart_traj_len": 0.3531089840060685,
        "distance_elbow_joint": 0.4511196938727371,
        "distance_shoulder_lift_joint": 0.23570808602579896,
        "distance_shoulder_pan_joint": 0.46213739787741853,
        "distance_wrist_1_joint": 0.24674161442614928,
        "distance_wrist_2_joint": 1.0978158068520807,
        "distance_wrist_3_joint": 0.09429839194572809,
        "smoothness": 6.661338165333112e-16,
        "time": 0.021917798999999998,
        "traj_len": 1.6086705663372824,
        "weighted_distance": 2.030018521139548
    },
    "planner": "LazyPRM",
    "start": {
        "state": {
            "elbow_joint": 1.971548259319323,
            "shoulder_lift_joint": -1.1394851275133948,
            "shoulder_pan_joint": 0.1228115487234821,
            "wrist_1_joint": -0.7804723859257726,
            "wrist_2_joint": 0.12958671773740124,
            "wrist_3_joint": -3.192489227718131
        }
    },
    "waypoints": [
        {
            "positions": [
                0.1228115487234821,
                -1.1394851275133948,
                1.971548259319323,
                -0.7804723859257726,
                0.12958671773740124,
                -3.192489227718131
            ]
        },
        {
            "positions": [
                0.05679192045527946,
                -1.173157711231366,
                2.0359939298725713,
                -0.815721187986651,
                0.28641754728769847,
                -3.1790180288687413
            ]
        },
        {
            "positions": [
                -0.009227707812923175,
                -1.2068302949493375,
                2.1004396004258195,
                -0.8509699900475296,
                0.4432483768379957,
                -3.165546830019352
            ]
        },
        {
            "positions": [
                -0.07524733608112583,
                -1.2405028786673087,
                2.1648852709790676,
                -0.886218792108408,
                0.6000792063882929,
                -3.152075631169962
            ]
        },
        {
            "positions": [
                -0.14126696434932845,
                -1.27417546238528,
                2.2293309415323157,
                -0.9214675941692865,
                0.7569100359385902,
                -3.138604432320572
            ]
        },
        {
            "positions": [
                -0.20728659261753113,
                -1.3078480461032513,
                2.293776612085564,
                -0.956716396230165,
                0.9137408654888874,
                -3.1251332334711823
            ]
        },
        {
            "positions": [
                -0.27330622088573375,
                -1.3415206298212226,
                2.358222282638812,
                -0.9919651982910433,
                1.0705716950391846,
                -3.111662034621793
            ]
        },
        {
            "positions": [
                -0.33932584915393643,
                -1.3751932135391938,
                2.42266795319206,
                -1.027214000351922,
                1.227402524589482,
                -3.098190835772403
            ]
        }
    ]
}{
    "goal": {
        "global_pose": {
            "orientation": {
                "w": 0.5084816217422485,
                "x": -0.49083608388900757,
                "y": 0.5182115435600281,
                "z": -0.4816462993621826
            },
            "position": {
                "x": 0.5540239810943604,
                "y": 0.030875300988554955,
                "z": 0.16403168439865112
            }
        },
        "name": "move_to_storage_A"
    },
    "id": "LazyPRM_move_to_storage_A_90",
    "joint_names": [
        "shoulder_pan_joint",
        "shoulder_lift_joint",
        "elbow_joint",
        "wrist_1_joint",
        "wrist_2_joint",
        "wrist_3_joint"
    ],
    "metrics": {
        "cart_traj_len": 0.35336724111087575,
        "distance_elbow_joint": 0.451476464251511,
        "distance_shoulder_lift_joint": 0.23462366734601847,
        "distance_shoulder_pan_joint": 0.45811260416005867,
        "distance_wrist_1_joint": 0.25556950191057615,
        "distance_wrist_2_joint": 1.1160569687376116,
        "distance_wrist_3_joint": 0.0948468175187469,
        "smoothness": 2.2204460668324854e-16,
        "time": 0.021981023,
        "traj_len": 1.6157617472649002,
        "weighted_distance": 2.042548929551066
    },
    "planner": "LazyPRM",
    "start": {
        "state": {
            "elbow_joint": 1.97154746011099,
            "shoulder_lift_joint": -1.13948474672311,
            "shoulder_pan_joint": 0.12281154466712228,
            "wrist_1_joint": -0.7804688027058302,
            "wrist_2_joint": 0.12958655903071145,
            "wrist_3_joint": 3.0906928834467795
        }
    },
    "waypoints": [
        {
            "positions": [
                0.12281154466712228,
                -1.13948474672311,
                1.97154746011099,
                -0.7804688027058302,
                0.12958655903071145,
                3.0906928834467795
            ]
        },
        {
            "positions": [
                0.05736688692997105,
                -1.1730024134868269,
                2.0360440978612058,
                -0.8169787315501982,
                0.2890232688503702,
                3.1042424288066006
            ]
        },
        {
            "positions": [
                -0.008077770807180182,
                -1.2065200802505438,
                2.1005407356114216,
                -0.8534886603945662,
                0.44845997867002907,
                3.1177919741664213
            ]
        },
        {
            "positions": [
                -0.07352242854433143,
                -1.2400377470142607,
                2.1650373733616375,
                -0.8899985892389343,
                0.6078966884896878,
                3.1313415195262424
            ]
        },
        {
            "positions": [
                -0.13896708628148263,
                -1.2735554137779777,
                2.2295340111118533,
                -0.9265085180833023,
                0.7673333983093467,
                3.1448910648860635
            ]
        },
        {
            "positions": [
                -0.20441174401863388,
                -1.3070730805416946,
                2.294030648862069,
                -0.9630184469276704,
                0.9267701081290055,
                3.1584406102458846
            ]
        },
        {
            "positions": [
                -0.2698564017557851,
                -1.3405907473054115,
                2.358527286612285,
                -0.9995283757720383,
                1.0862068179486641,
                3.1719901556057053
            ]
        },
        {
            "positions": [
                -0.33530105949293637,
                -1.3741084140691284,
                2.423023924362501,
                -1.0360383046164063,
                1.245643527768323,
                3.1855397009655264
            ]
        }
    ]
}{
    "goal": {
        "global_pose": {
            "orientation": {
                "w": 0.5084816217422485,
                "x": -0.49083608388900757,
                "y": 0.5182115435600281,
                "z": -0.4816462993621826
            },
            "position": {
                "x": 0.5540239810943604,
                "y": 0.030875300988554955,
                "z": 0.16403168439865112
            }
        },
        "name": "move_to_storage_A"
    },
    "id": "LazyPRM_move_to_storage_A_90",
    "joint_names": [
        "shoulder_pan_joint",
        "shoulder_lift_joint",
        "elbow_joint",
        "wrist_1_joint",
        "wrist_2_joint",
        "wrist_3_joint"
    ],
    "metrics": {
        "cart_traj_len": 0.35346172375134616,
        "distance_elbow_joint": 0.4525007917074877,
        "distance_shoulder_lift_joint": 0.2346608452143959,
        "distance_shoulder_pan_joint": 0.46296786424423814,
        "distance_wrist_1_joint": 0.2581341937190147,
        "distance_wrist_2_joint": 1.0960987512750133,
        "distance_wrist_3_joint": 0.09429976847814814,
        "smoothness": 6.661338165333112e-16,
        "time": 0.011732462,
        "traj_len": 1.6120366666544212,
        "weighted_distance": 2.0350662634392576
    },
    "planner": "LazyPRM",
    "start": {
        "state": {
            "elbow_joint": 1.9715472970024885,
            "shoulder_lift_joint": -1.1394870060712896,
            "shoulder_pan_joint": 0.12281152778156021,
            "wrist_1_joint": -0.780463741449964,
            "wrist_2_joint": 0.12958659822042276,
            "wrist_3_joint": 3.090690232415272
        }
    },
    "waypoints": [
        {
            "positions": [
                0.12281152778156021,
                -1.1394870060712896,
                1.9715472970024885,
                -0.780463741449964,
                0.12958659822042276,
                3.090690232415272
            ]
        },
        {
            "positions": [
                0.05667326146095478,
                -1.1730099839590604,
                2.036190267246415,
                -0.8173400548383947,
                0.2861721341168532,
                3.1041616279121502
            ]
        },
        {
            "positions": [
                -0.009465004859650655,
                -1.2065329618468312,
                2.1008332374903422,
                -0.8542163682268253,
                0.4427576700132837,
                3.1176330234090286
            ]
        },
        {
            "positions": [
                -0.07560327118025609,
                -1.240055939734602,
                2.165476207734269,
                -0.891092681615256,
                0.5993432059097141,
                3.131104418905907
            ]
        },
        {
            "positions": [
                -0.14174153750086152,
                -1.2735789176223729,
                2.230119177978196,
                -0.9279689950036867,
                0.7559287418061446,
                3.144575814402785
            ]
        },
        {
            "positions": [
                -0.207879803821467,
                -1.3071018955101439,
                2.2947621482221225,
                -0.9648453083921174,
                0.9125142777025751,
                3.1580472098996633
            ]
        },
        {
            "positions": [
                -0.27401807014207236,
                -1.3406248733979147,
                2.359405118466049,
                -1.001721621780548,
                1.0690998135990055,
                3.1715186053965416
            ]
        },
        {
            "positions": [
                -0.3401563364626779,
                -1.3741478512856855,
                2.4240480887099762,
                -1.0385979351689787,
                1.225685349495436,
                3.18499000089342
            ]
        }
    ]
}