{
    "goal": {
        "global_pose": {
            "orientation": {
                "w": -0.4816463035849501,
                "x": 0.5182115481033762,
                "y": 0.4908360881923453,
                "z": -0.5084816262002911
            },
            "position": {
                "x": -0.8240239810943604,
                "y": -0.300875300988555,
                "z": 0.16403168439865112
            }
        },
        "name": "move_to_storage_C"
    },
    "id": "LazyPRM_move_to_storage_C_84",
    "joint_names": [
        "shoulder_pan_joint",
        "shoulder_lift_joint",
        "elbow_joint",
        "wrist_1_joint",
        "wrist_2_joint",
        "wrist_3_joint"
    ],
    "metrics": {
        "cart_traj_len": 0.5771248498382704,
        "distance_elbow_joint": 0.2623518754048355,
        "distance_shoulder_lift_joint": 0.18983341962288136,
        "distance_shoulder_pan_joint": 0.4939026698831235,
        "distance_wrist_1_joint": 0.08844835333931245,
        "distance_wrist_2_joint": 1.0725045007905134,
        "distance_wrist_3_joint": 0.06083624483611594,
        "smoothness": 0.0,
        "time": 0.011746504000000001,
        "traj_len": 1.472371238471053,
        "weighted_distance": 1.8575528007781743
    },
    "planner": "LazyPRM",
    "start": {
        "state": {
            "elbow_joint": 2.010868314990456,
            "shoulder_lift_joint": -1.1634956873337592,
            "shoulder_pan_joint": -2.4736205022346125,
            "wrist_1_joint": -0.8367026794202681,
            "wrist_2_joint": 0.6746043897044499,
            "wrist_3_joint": -3.1496632123970403
        }
    },
    "waypoints": [
        {
            "positions": [
                -2.4736205022346125,
                -1.1634956873337592,
                2.010868314990456,
                -0.8367026794202681,
                0.6746043897044499,
                -3.1496632123970403
            ]
        },
        {
            "positions": [
                -2.5559376138817997,
                -1.131856784063279,
                1.9671430024229832,
                -0.8219612871970494,
                0.8533551398362021,
                -3.1395238382576878
            ]
        },
        {
            "positions": [
                -2.638254725528987,
                -1.1002178807927987,
                1.9234176898555106,
                -0.8072198949738306,
                1.0321058899679545,
                -3.129384464118335
            ]
        },
        {
            "positions": [
                -2.7205718371761742,
                -1.0685789775223185,
                1.879692377288038,
                -0.7924785027506118,
                1.2108566400997067,
                -3.1192450899789823
            ]
        },
        {
            "positions": [
                -2.8028889488233615,
                -1.0369400742518382,
                1.8359670647205655,
                -0.7777371105273931,
                1.389607390231459,
                -3.10910571583963
            ]
        },
        {
            "positions": [
                -2.8852060604705487,
                -1.005301170981358,
                1.792241752153093,
                -0.7629957183041745,
                1.5683581403632112,
                -3.098966341700277
            ]
        },
        {
            "positions": [
                -2.967523172117736,
                -0.9736622677108778,
                1.7485164395856203,
                -0.7482543260809557,
                1.7471088904949634,
                -3.0888269675609243
            ]
        }
    ]
}