{
    "goal": {
        "global_pose": {
            "orientation": {
                "w": 0.7047431468963623,
                "x": -0.7094548344612122,
                "y": 0.0024358443915843964,
                "z": -0.0022348060738295317
            },
            "position": {
                "x": 0.6094750761985779,
                "y": 0.3671506643295288,
                "z": 0.19426114857196808
            }
        },
        "name": "move_to_magneteinheit_A"
    },
    "id": "LazyPRM_move_to_magneteinheit_A_59",
    "joint_names": [
        "shoulder_pan_joint",
        "shoulder_lift_joint",
        "elbow_joint",
        "wrist_1_joint",
        "wrist_2_joint",
        "wrist_3_joint"
    ],
    "metrics": {
        "cart_traj_len": 3.1462855101869422,
        "distance_elbow_joint": 3.934625354793737,
        "distance_shoulder_lift_joint": 0.7287884261179592,
        "distance_shoulder_pan_joint": 2.9652957909341815,
        "distance_wrist_1_joint": 3.54553181048509,
        "distance_wrist_2_joint": 1.434512185379086,
        "distance_wrist_3_joint": 1.5675061989389893,
        "smoothness": 0.09329231775956294,
        "time": 0.119187715,
        "traj_len": 3.765137416701951,
        "weighted_distance": 4.721368039074182
    },
    "planner": "LazyPRM",
    "start": {
        "state": {
            "elbow_joint": -1.9196185241190666,
            "shoulder_lift_joint": -1.2443396400964142,
            "shoulder_pan_joint": 2.6996025414629847,
            "wrist_1_joint": -1.5485510000780065,
            "wrist_2_joint": -1.5709468930060704,
            "wrist_3_joint": 0.4420197071253992
        }
    },
    "waypoints": [
        {
            "positions": [
                2.6996025414629847,
                -1.2443396400964142,
                -1.9196185241190666,
                -1.5485510000780065,
                -1.5709468930060704,
                0.4420197071253992
            ]
        },
        {
            "positions": [
                2.5988517704583924,
                -1.2502594559489444,
                -1.7892896430796852,
                -1.4855209197778667,
                -1.5297676821971535,
                0.39634532011774815
            ]
        },
        {
            "positions": [
                2.4981009994538006,
                -1.2561792718014748,
                -1.6589607620403035,
                -1.422490839477727,
                -1.4885884713882365,
                0.3506709331100971
            ]
        },
        {
            "positions": [
                2.3973502284492083,
                -1.262099087654005,
                -1.5286318810009218,
                -1.3594607591775871,
                -1.4474092605793196,
                0.3049965461024461
            ]
        },
        {
            "positions": [
                2.296599457444616,
                -1.2680189035065355,
                -1.3983029999615404,
                -1.2964306788774473,
                -1.4062300497704026,
                0.2593221590947951
            ]
        },
        {
            "positions": [
                2.195848686440024,
                -1.2739387193590657,
                -1.267974118922159,
                -1.2334005985773075,
                -1.3650508389614857,
                0.21364777208714408
            ]
        },
        {
            "positions": [
                2.095097915435432,
                -1.2798585352115959,
                -1.1376452378827773,
                -1.1703705182771678,
                -1.3238716281525686,
                0.16797338507949305
            ]
        },
        {
            "positions": [
                1.9943471444308396,
                -1.2857783510641263,
                -1.0073163568433956,
                -1.107340437977028,
                -1.2826924173436518,
                0.12229899807184202
            ]
        },
        {
            "positions": [
                1.8935963734262478,
                -1.2916981669166565,
                -0.8769874758040141,
                -1.0443103576768884,
                -1.241513206534735,
                0.07662461106419105
            ]
        },
        {
            "positions": [
                1.7928456024216555,
                -1.297617982769187,
                -0.7466585947646325,
                -0.9812802773767485,
                -1.200333995725818,
                0.030950224056539966
            ]
        },
        {
            "positions": [
                1.6920948314170634,
                -1.3035377986217171,
                -0.616329713725251,
                -0.9182501970766087,
                -1.1591547849169008,
                -0.014724162951111008
            ]
        },
        {
            "positions": [
                1.5913440604124713,
                -1.3094576144742474,
                -0.48600083268586936,
                -0.8552201167764689,
                -1.117975574107984,
                -0.06039854995876204
            ]
        },
        {
            "positions": [
                1.490593289407879,
                -1.3153774303267778,
                -0.3556719516464879,
                -0.7921900364763291,
                -1.0767963632990671,
                -0.10607293696641307
            ]
        },
        {
            "positions": [
                1.389842518403287,
                -1.321297246179308,
                -0.22534307060710645,
                -0.7291599561761894,
                -1.03561715249015,
                -0.15174732397406399
            ]
        },
        {
            "positions": [
                1.2890917473986947,
                -1.3272170620318384,
                -0.09501418956772456,
                -0.6661298758760495,
                -0.9944379416812331,
                -0.19742171098171513
            ]
        },
        {
            "positions": [
                1.1883409763941026,
                -1.3331368778843686,
                0.03531469147165689,
                -0.6030997955759098,
                -0.9532587308723162,
                -0.24309609798936616
            ]
        },
        {
            "positions": [
                1.0875902053895106,
                -1.3390566937368988,
                0.16564357251103834,
                -0.5400697152757701,
                -0.9120795200633993,
                -0.2887704849970171
            ]
        },
        {
            "positions": [
                0.9868394343849185,
                -1.3449765095894293,
                0.2959724535504198,
                -0.4770396349756303,
                -0.8709003092544824,
                -0.3344448720046681
            ]
        },
        {
            "positions": [
                0.8860886633803262,
                -1.3508963254419595,
                0.4263013345898017,
                -0.4140095546754905,
                -0.8297210984455653,
                -0.38011925901231924
            ]
        },
        {
            "positions": [
                0.7853378923757341,
                -1.3568161412944897,
                0.5566302156291831,
                -0.3509794743753507,
                -0.7885418876366485,
                -0.42579364601997016
            ]
        },
        {
            "positions": [
                0.6845871213711421,
                -1.3627359571470201,
                0.6869590966685646,
                -0.2879493940752109,
                -0.7473626768277315,
                -0.4714680330276212
            ]
        },
        {
            "positions": [
                0.5838363503665502,
                -1.3686557729995503,
                0.817287977707946,
                -0.22491931377507113,
                -0.7061834660188145,
                -0.5171424200352722
            ]
        },
        {
            "positions": [
                0.48308557936195795,
                -1.3745755888520808,
                0.9476168587473279,
                -0.16188923347493134,
                -0.6650042552098976,
                -0.5628168070429233
            ]
        },
        {
            "positions": [
                0.38233480835736583,
                -1.380495404704611,
                1.0779457397867096,
                -0.09885915317479149,
                -0.6238250444009806,
                -0.6084911940505744
            ]
        },
        {
            "positions": [
                0.2913923582490612,
                -1.3400692594600982,
                1.1596227759025006,
                0.04270196906353152,
                -0.6078205225268277,
                -0.5851880589414133
            ]
        },
        {
            "positions": [
                0.20044990814075647,
                -1.2996431142155855,
                1.2412998120182914,
                0.18426309130185453,
                -0.5918160006526748,
                -0.5618849238322524
            ]
        },
        {
            "positions": [
                0.10950745803245182,
                -1.259216968971073,
                1.3229768481340822,
                0.32582421354017754,
                -0.5758114787785219,
                -0.5385817887230915
            ]
        },
        {
            "positions": [
                0.018565007924147087,
                -1.2187908237265603,
                1.4046538842498733,
                0.46738533577850055,
                -0.559806956904369,
                -0.5152786536139304
            ]
        },
        {
            "positions": [
                0.005776760330415081,
                -1.1862761129429238,
                1.4731558294764835,
                0.6411277783278339,
                -0.5403518819647112,
                -0.4649130688780373
            ]
        },
        {
            "positions": [
                -0.007011487263316924,
                -1.1537614021592875,
                1.5416577747030937,
                0.8148702208771672,
                -0.5208968070250535,
                -0.4145474841421441
            ]
        },
        {
            "positions": [
                -0.01979973485704893,
                -1.121246691375651,
                1.6101597199297037,
                0.9886126634265004,
                -0.5014417320853957,
                -0.36418189940625095
            ]
        },
        {
            "positions": [
                -0.032587982450780935,
                -1.0887319805920144,
                1.678661665156314,
                1.1623551059758337,
                -0.4819866571457379,
                -0.31381631467035775
            ]
        },
        {
            "positions": [
                -0.04537623004451295,
                -1.0562172698083778,
                1.7471636103829242,
                1.3360975485251672,
                -0.46253158220608015,
                -0.2634507299344646
            ]
        },
        {
            "positions": [
                -0.05816447763824495,
                -1.0237025590247415,
                1.8156655556095345,
                1.5098399910745002,
                -0.44307650726642234,
                -0.21308514519857147
            ]
        },
        {
            "positions": [
                -0.07095272523197696,
                -0.991187848241105,
                1.8841675008361447,
                1.6835824336238336,
                -0.4236214323267646,
                -0.16271956046267827
            ]
        },
        {
            "positions": [
                -0.015534479036863384,
                -0.932973332838989,
                1.9133478368389283,
                1.757283692330379,
                -0.3381011901555431,
                -0.14106294793293467
            ]
        },
        {
            "positions": [
                0.03988376715825019,
                -0.8747588174368731,
                1.942528172841712,
                1.8309849510369245,
                -0.2525809479843216,
                -0.1194063354031911
            ]
        },
        {
            "positions": [
                0.09530201335336376,
                -0.8165443020347571,
                1.9717085088444957,
                1.9046862097434698,
                -0.16706070581310012,
                -0.09774972287344749
            ]
        },
        {
            "positions": [
                0.12378779900724174,
                -0.7878627431948485,
                2.01500683067467,
                1.9969808104070843,
                -0.13643470762698484,
                -0.09149589628755908
            ]
        }
    ]
}