{
    "goal": {
        "global_pose": {
            "orientation": {
                "w": 0.005598929693374612,
                "x": 0.007748599140229565,
                "y": 0.7110244013736278,
                "z": -0.7031023480610252
            },
            "position": {
                "x": -0.8858502320852131,
                "y": -0.7141253447532654,
                "z": 0.3711530566215515
            }
        },
        "name": "move_to_auspresseinheit_C"
    },
    "id": "LazyPRM_move_to_auspresseinheit_C_1",
    "joint_names": [
        "shoulder_pan_joint",
        "shoulder_lift_joint",
        "elbow_joint",
        "wrist_1_joint",
        "wrist_2_joint",
        "wrist_3_joint"
    ],
    "metrics": {
        "cart_traj_len": 0.4942256781410009,
        "distance_elbow_joint": 1.0164531653378548,
        "distance_shoulder_lift_joint": 0.33251804731583845,
        "distance_shoulder_pan_joint": 0.25582655601238,
        "distance_wrist_1_joint": 0.7065999792031024,
        "distance_wrist_2_joint": 1.3153484173699792,
        "distance_wrist_3_joint": 0.07602609601064225,
        "smoothness": 4.844609574787718e-16,
        "time": 0.022479264000000002,
        "traj_len": 1.9242588862338137,
        "weighted_distance": 2.4242056121220745
    },
    "planner": "LazyPRM",
    "start": {
        "state": {
            "elbow_joint": 1.7527959577737207,
            "shoulder_lift_joint": -0.9740617694225068,
            "shoulder_pan_joint": -2.967991417825858,
            "wrist_1_joint": -0.759517768980727,
            "wrist_2_joint": 1.7443932448377408,
            "wrist_3_joint": -3.0840537646736568
        }
    },
    "waypoints": [
        {
            "positions": [
                -2.967991417825858,
                -0.9740617694225068,
                1.7527959577737207,
                -0.759517768980727,
                1.7443932448377408,
                -3.0840537646736568
            ]
        },
        {
            "positions": [
                -2.9424087622246198,
                -0.9408099646909229,
                1.6511506412399353,
                -0.6888577710604168,
                1.612858403100743,
                -3.091656374274721
            ]
        },
        {
            "positions": [
                -2.916826106623382,
                -0.9075581599593391,
                1.5495053247061497,
                -0.6181977731401065,
                1.481323561363745,
                -3.099258983875785
            ]
        },
        {
            "positions": [
                -2.891243451022144,
                -0.8743063552277552,
                1.4478600081723643,
                -0.5475377752197963,
                1.349788719626747,
                -3.1068615934768493
            ]
        },
        {
            "positions": [
                -2.865660795420906,
                -0.8410545504961714,
                1.3462146916385787,
                -0.47687777729948605,
                1.2182538778897491,
                -3.1144642030779135
            ]
        },
        {
            "positions": [
                -2.840078139819668,
                -0.8078027457645875,
                1.2445693751047933,
                -0.4062177793791758,
                1.0867190361527512,
                -3.1220668126789777
            ]
        },
        {
            "positions": [
                -2.8144954842184298,
                -0.7745509410330037,
                1.1429240585710079,
                -0.33555778145886556,
                0.9551841944157533,
                -3.1296694222800423
            ]
        },
        {
            "positions": [
                -2.788912828617192,
                -0.7412991363014199,
                1.0412787420372225,
                -0.26489778353855536,
                0.8236493526787555,
                -3.1372720318811065
            ]
        },
        {
            "positions": [
                -2.763330173015954,
                -0.708047331569836,
                0.9396334255034368,
                -0.19423778561824512,
                0.6921145109417575,
                -3.1448746414821707
            ]
        },
        {
            "positions": [
                -2.737747517414716,
                -0.6747955268382522,
                0.8379881089696514,
                -0.12357778769793482,
                0.5605796692047595,
                -3.152477251083235
            ]
        },
        {
            "positions": [
                -2.712164861813478,
                -0.6415437221066683,
                0.736342792435866,
                -0.05291778977762467,
                0.4290448274677617,
                -3.160079860684299
            ]
        }
    ]
}