{
    "goal": {
        "global_pose": {
            "orientation": {
                "w": 0.7047431493862688,
                "x": -0.7094548369677653,
                "y": 0.0024358444001904,
                "z": -0.0022348060817251984
            },
            "position": {
                "x": -0.39052492380142206,
                "y": 0.3671506643295288,
                "z": 0.19426114857196808
            }
        },
        "name": "move_to_magneteinheit_D"
    },
    "id": "LazyPRM_move_to_magneteinheit_D_107",
    "joint_names": [
        "shoulder_pan_joint",
        "shoulder_lift_joint",
        "elbow_joint",
        "wrist_1_joint",
        "wrist_2_joint",
        "wrist_3_joint"
    ],
    "metrics": {
        "cart_traj_len": 3.8313866318541447,
        "distance_elbow_joint": 3.4881793742569003,
        "distance_shoulder_lift_joint": 1.6310294546774189,
        "distance_shoulder_pan_joint": 3.322680267561097,
        "distance_wrist_1_joint": 2.507745731707529,
        "distance_wrist_2_joint": 1.095953624432082,
        "distance_wrist_3_joint": 4.295324717214721,
        "smoothness": 0.6669533571059749,
        "time": 0.170889839,
        "traj_len": 4.04238953712402,
        "weighted_distance": 5.341840690288208
    },
    "planner": "LazyPRM",
    "start": {
        "state": {
            "elbow_joint": 0.749534889911806,
            "shoulder_lift_joint": -0.6476975780787326,
            "shoulder_pan_joint": -2.711696901376241,
            "wrist_1_joint": -0.07506478083263063,
            "wrist_2_joint": 0.43296659715538205,
            "wrist_3_joint": -3.14703540197715
        }
    },
    "waypoints": [
        {
            "positions": [
                -2.711696901376241,
                -0.6476975780787326,
                0.749534889911806,
                -0.07506478083263063,
                0.43296659715538205,
                -3.14703540197715
            ]
        },
        {
            "positions": [
                -2.710961613100034,
                -0.6772747057652584,
                0.7481708186916121,
                0.08023961406685459,
                0.3552094535043539,
                -3.0360524321837032
            ]
        },
        {
            "positions": [
                -2.710226324823827,
                -0.7068518334517843,
                0.7468067474714182,
                0.2355440089663398,
                0.27745230985332575,
                -2.9250694623902564
            ]
        },
        {
            "positions": [
                -2.70949103654762,
                -0.73642896113831,
                0.7454426762512244,
                0.39084840386582503,
                0.19969516620229766,
                -2.81408649259681
            ]
        },
        {
            "positions": [
                -2.708755748271413,
                -0.7660060888248359,
                0.7440786050310305,
                0.5461527987653103,
                0.12193802255126945,
                -2.7031035228033633
            ]
        },
        {
            "positions": [
                -2.708020459995206,
                -0.7955832165113617,
                0.7427145338108366,
                0.7014571936647955,
                0.04418087890024136,
                -2.5921205530099165
            ]
        },
        {
            "positions": [
                -2.6882404863469445,
                -0.8531645986643348,
                0.7680752783961571,
                0.8584788058538958,
                0.09844762439019647,
                -2.67295607981058
            ]
        },
        {
            "positions": [
                -2.6684605126986836,
                -0.910745980817308,
                0.7934360229814774,
                1.015500418042996,
                0.15271436988015158,
                -2.7537916066112436
            ]
        },
        {
            "positions": [
                -2.6486805390504222,
                -0.9683273629702812,
                0.8187967675667979,
                1.1725220302320962,
                0.2069811153701067,
                -2.834627133411907
            ]
        },
        {
            "positions": [
                -2.628900565402161,
                -1.0259087451232545,
                0.8441575121521183,
                1.3295436424211966,
                0.2612478608600618,
                -2.9154626602125706
            ]
        },
        {
            "positions": [
                -2.6091205917538995,
                -1.0834901272762276,
                0.8695182567374387,
                1.486565254610297,
                0.31551460635001694,
                -2.9962981870132346
            ]
        },
        {
            "positions": [
                -2.5893406181056386,
                -1.1410715094292008,
                0.8948790013227591,
                1.6435868667993971,
                0.369781351839972,
                -3.077133713813898
            ]
        },
        {
            "positions": [
                -2.5695606444573773,
                -1.198652891582174,
                0.9202397459080796,
                1.8006084789884975,
                0.42404809732992715,
                -3.1579692406145616
            ]
        },
        {
            "positions": [
                -2.4277906273944443,
                -1.221700516737229,
                0.785116207087249,
                1.7834261578027621,
                0.4205468768880739,
                -3.086621769521069
            ]
        },
        {
            "positions": [
                -2.286020610331511,
                -1.2447481418922843,
                0.6499926682664185,
                1.766243836617027,
                0.41704565644622066,
                -3.0152742984275767
            ]
        },
        {
            "positions": [
                -2.144250593268578,
                -1.2677957670473394,
                0.514869129445588,
                1.7490615154312916,
                0.4135444360043674,
                -2.9439268273340837
            ]
        },
        {
            "positions": [
                -2.002480576205645,
                -1.2908433922023947,
                0.37974559062475755,
                1.7318791942455563,
                0.41004321556251416,
                -2.8725793562405912
            ]
        },
        {
            "positions": [
                -1.8607105591427116,
                -1.3138910173574498,
                0.24462205180392704,
                1.714696873059821,
                0.4065419951206609,
                -2.8012318851470988
            ]
        },
        {
            "positions": [
                -1.7189405420797783,
                -1.336938642512505,
                0.10949851298309654,
                1.6975145518740857,
                0.40304077467880767,
                -2.729884414053606
            ]
        },
        {
            "positions": [
                -1.5771705250168453,
                -1.3599862676675603,
                -0.02562502583773396,
                1.6803322306883504,
                0.3995395542369544,
                -2.6585369429601133
            ]
        },
        {
            "positions": [
                -1.435400507953912,
                -1.3830338928226154,
                -0.16074856465856446,
                1.6631499095026152,
                0.3960383337951012,
                -2.587189471866621
            ]
        },
        {
            "positions": [
                -1.2936304908909788,
                -1.4060815179776704,
                -0.29587210347939497,
                1.6459675883168798,
                0.3925371133532479,
                -2.5158420007731284
            ]
        },
        {
            "positions": [
                -1.1518604738280458,
                -1.4291291431327258,
                -0.43099564230022547,
                1.6287852671311445,
                0.38903589291139473,
                -2.444494529679636
            ]
        },
        {
            "positions": [
                -1.0100904567651126,
                -1.4521767682877809,
                -0.566119181121056,
                1.611602945945409,
                0.3855346724695415,
                -2.373147058586143
            ]
        },
        {
            "positions": [
                -0.8683204397021793,
                -1.475224393442836,
                -0.7012427199418865,
                1.594420624759674,
                0.38203345202768824,
                -2.3017995874926505
            ]
        },
        {
            "positions": [
                -0.7265504226392463,
                -1.4982720185978913,
                -0.836366258762717,
                1.5772383035739386,
                0.378532231585835,
                -2.230452116399158
            ]
        },
        {
            "positions": [
                -0.5847804055763131,
                -1.5213196437529464,
                -0.9714897975835475,
                1.5600559823882032,
                0.37503101114398174,
                -2.159104645305665
            ]
        },
        {
            "positions": [
                -0.4430103885133798,
                -1.5443672689080015,
                -1.1066133364043778,
                1.542873661202468,
                0.3715297907021285,
                -2.0877571742121726
            ]
        },
        {
            "positions": [
                -0.3012403714504469,
                -1.5674148940630568,
                -1.2417368752252083,
                1.5256913400167327,
                0.36802857026027525,
                -2.01640970311868
            ]
        },
        {
            "positions": [
                -0.24983436365141884,
                -1.6105241746049646,
                -1.3307037493071325,
                1.5063144359973408,
                0.3452779809643723,
                -1.8738969709306539
            ]
        },
        {
            "positions": [
                -0.19842835585239077,
                -1.6536334551468723,
                -1.4196706233890566,
                1.4869375319779488,
                0.32252739166846933,
                -1.731384238742628
            ]
        },
        {
            "positions": [
                -0.14702234805336273,
                -1.69674273568878,
                -1.5086374974709809,
                1.467560627958557,
                0.29977680237256643,
                -1.5888715065546017
            ]
        },
        {
            "positions": [
                -0.09561634025433463,
                -1.7398520162306879,
                -1.597604371552905,
                1.4481837239391648,
                0.2770262130766635,
                -1.4463587743665758
            ]
        },
        {
            "positions": [
                -0.04421033245530659,
                -1.7829612967725956,
                -1.6865712456348292,
                1.428806819919773,
                0.2542756237807605,
                -1.3038460421785496
            ]
        },
        {
            "positions": [
                0.007195675343721453,
                -1.8260705773145032,
                -1.7755381197167535,
                1.4094299159003811,
                0.23152503448485762,
                -1.1613333099905234
            ]
        },
        {
            "positions": [
                0.058601683142749494,
                -1.869179857856411,
                -1.8645049937986775,
                1.390053011880989,
                0.2087744451889547,
                -1.0188205778024975
            ]
        },
        {
            "positions": [
                0.11000769094177765,
                -1.9122891383983187,
                -1.9534718678806018,
                1.3706761078615972,
                0.1860238558930517,
                -0.8763078456144713
            ]
        },
        {
            "positions": [
                0.1614136987408057,
                -1.9553984189402265,
                -2.042438741962526,
                1.3512992038422051,
                0.16327326659714878,
                -0.7337951134264451
            ]
        },
        {
            "positions": [
                0.21281970653983373,
                -1.9985076994821342,
                -2.13140561604445,
                1.3319222998228133,
                0.14052267730124585,
                -0.5912823812384193
            ]
        },
        {
            "positions": [
                0.15093828097870954,
                -2.0462750504368197,
                -2.1767705104905786,
                1.357900082568373,
                0.14663938301656743,
                -0.48464391978902377
            ]
        },
        {
            "positions": [
                0.08905685541758533,
                -2.094042401391505,
                -2.222135404936707,
                1.3838778653139325,
                0.15275608873188903,
                -0.37800545833962823
            ]
        },
        {
            "positions": [
                0.027175429856461125,
                -2.14180975234619,
                -2.2675002993828355,
                1.4098556480594922,
                0.1588727944472106,
                -0.2713669968902327
            ]
        },
        {
            "positions": [
                -0.06365661015714934,
                -2.2041071307420435,
                -2.3226506136388,
                1.4468938439757164,
                0.16912121004873,
                -0.13736222362890485
            ]
        },
        {
            "positions": [
                -0.1544886501707598,
                -2.266404509137897,
                -2.3778009278947647,
                1.4839320398919407,
                0.17936962565024933,
                -0.0033574503675770327
            ]
        },
        {
            "positions": [
                -0.18534395310518742,
                -2.2787270327561515,
                -2.383594060150608,
                1.4953085925435297,
                0.18429794501982033,
                0.016591940028281245
            ]
        }
    ]
}