{
    "goal": {
        "global_pose": {
            "orientation": {
                "w": 0.5084816217422485,
                "x": -0.49083608388900757,
                "y": 0.5182115435600281,
                "z": -0.4816462993621826
            },
            "position": {
                "x": 0.5540239810943604,
                "y": 0.030875300988554955,
                "z": 0.16403168439865112
            }
        },
        "name": "move_to_storage_A"
    },
    "id": "LazyPRMstar_move_to_storage_A_143",
    "joint_names": [
        "shoulder_pan_joint",
        "shoulder_lift_joint",
        "elbow_joint",
        "wrist_1_joint",
        "wrist_2_joint",
        "wrist_3_joint"
    ],
    "metrics": {
        "cart_traj_len": 0.35337466140247625,
        "distance_elbow_joint": 0.4498475049555124,
        "distance_shoulder_lift_joint": 0.23569784771139046,
        "distance_shoulder_pan_joint": 0.4625118878049052,
        "distance_wrist_1_joint": 0.2432428720580021,
        "distance_wrist_2_joint": 1.097873451523165,
        "distance_wrist_3_joint": 0.10065745658710412,
        "smoothness": 8.881784197001252e-16,
        "time": 5.0001497210000005,
        "traj_len": 1.6092951937541102,
        "weighted_distance": 2.0327966591362387
    },
    "planner": "LazyPRMstar",
    "start": {
        "state": {
            "elbow_joint": 1.971548259319323,
            "shoulder_lift_joint": -1.1394851275133948,
            "shoulder_pan_joint": 0.1228115487234821,
            "wrist_1_joint": -0.7804723859257726,
            "wrist_2_joint": 0.12958671773740124,
            "wrist_3_joint": -3.192489227718131
        }
    },
    "waypoints": [
        {
            "positions": [
                0.1228115487234821,
                -1.1394851275133948,
                1.971548259319323,
                -0.7804723859257726,
                0.12958671773740124,
                -3.192489227718131
            ]
        },
        {
            "positions": [
                0.056738421894209926,
                -1.173156248615022,
                2.035812188598682,
                -0.8152213676483443,
                0.2864257822407105,
                -3.1781095910628308
            ]
        },
        {
            "positions": [
                -0.009334704935062249,
                -1.2068273697166492,
                2.1000761178780407,
                -0.8499703493709161,
                0.4432648467440198,
                -3.16372995440753
            ]
        },
        {
            "positions": [
                -0.07540783176433441,
                -1.2404984908182763,
                2.1643400471574,
                -0.8847193310934878,
                0.6001039112473291,
                -3.1493503177522295
            ]
        },
        {
            "positions": [
                -0.1414809585936066,
                -1.2741696119199037,
                2.2286039764367587,
                -0.9194683128160596,
                0.7569429757506384,
                -3.1349706810969287
            ]
        },
        {
            "positions": [
                -0.2075540854228788,
                -1.307840733021531,
                2.2928679057161174,
                -0.9542172945386312,
                0.9137820402539477,
                -3.1205910444416283
            ]
        },
        {
            "positions": [
                -0.2736272122521509,
                -1.341511854123158,
                2.3571318349954766,
                -0.988966276261203,
                1.070621104757257,
                -3.1062114077863274
            ]
        },
        {
            "positions": [
                -0.3397003390814231,
                -1.3751829752247853,
                2.4213957642748354,
                -1.0237152579837747,
                1.2274601692605662,
                -3.091831771131027
            ]
        }
    ]
}{
    "goal": {
        "global_pose": {
            "orientation": {
                "w": 0.5084816217422485,
                "x": -0.49083608388900757,
                "y": 0.5182115435600281,
                "z": -0.4816462993621826
            },
            "position": {
                "x": 0.5540239810943604,
                "y": 0.030875300988554955,
                "z": 0.16403168439865112
            }
        },
        "name": "move_to_storage_A"
    },
    "id": "LazyPRMstar_move_to_storage_A_143",
    "joint_names": [
        "shoulder_pan_joint",
        "shoulder_lift_joint",
        "elbow_joint",
        "wrist_1_joint",
        "wrist_2_joint",
        "wrist_3_joint"
    ],
    "metrics": {
        "cart_traj_len": 0.3530906434194211,
        "distance_elbow_joint": 0.4527040436858871,
        "distance_shoulder_lift_joint": 0.23345101521720646,
        "distance_shoulder_pan_joint": 0.45997421384544335,
        "distance_wrist_1_joint": 0.26025544466014217,
        "distance_wrist_2_joint": 1.105731253828564,
        "distance_wrist_3_joint": 0.09774362282979165,
        "smoothness": 1.5543122362334363e-15,
        "time": 5.000160426,
        "traj_len": 1.6155059870105821,
        "weighted_distance": 2.042384277802619
    },
    "planner": "LazyPRMstar",
    "start": {
        "state": {
            "elbow_joint": 1.97154746011099,
            "shoulder_lift_joint": -1.13948474672311,
            "shoulder_pan_joint": 0.12281154466712228,
            "wrist_1_joint": -0.7804688027058302,
            "wrist_2_joint": 0.12958655903071145,
            "wrist_3_joint": 3.0906928834467795
        }
    },
    "waypoints": [
        {
            "positions": [
                0.12281154466712228,
                -1.13948474672311,
                1.97154746011099,
                -0.7804688027058302,
                0.12958655903071145,
                3.0906928834467795
            ]
        },
        {
            "positions": [
                0.05710094268920181,
                -1.1728348917541394,
                2.036219466351831,
                -0.8176481519429933,
                0.2875481667205063,
                3.1046562581367496
            ]
        },
        {
            "positions": [
                -0.008609659288718666,
                -1.206185036785169,
                2.100891472592672,
                -0.8548275011801565,
                0.44550977441030115,
                3.11861963282672
            ]
        },
        {
            "positions": [
                -0.07432026126663914,
                -1.2395351818161984,
                2.165563478833513,
                -0.8920068504173196,
                0.603471382100096,
                3.1325830075166903
            ]
        },
        {
            "positions": [
                -0.1400308632445596,
                -1.272885326847228,
                2.230235485074354,
                -0.9291861996544828,
                0.7614329897898908,
                3.1465463822066604
            ]
        },
        {
            "positions": [
                -0.2057414652224801,
                -1.3062354718782574,
                2.294907491315195,
                -0.966365548891646,
                0.9193945974796858,
                3.1605097568966305
            ]
        },
        {
            "positions": [
                -0.27145206720040055,
                -1.3395856169092868,
                2.359579497556036,
                -1.003544898128809,
                1.0773562051694805,
                3.174473131586601
            ]
        },
        {
            "positions": [
                -0.33716266917832105,
                -1.3729357619403164,
                2.424251503796877,
                -1.0407242473659724,
                1.2353178128592754,
                3.188436506276571
            ]
        }
    ]
}{
    "goal": {
        "global_pose": {
            "orientation": {
                "w": 0.5084816217422485,
                "x": -0.49083608388900757,
                "y": 0.5182115435600281,
                "z": -0.4816462993621826
            },
            "position": {
                "x": 0.5540239810943604,
                "y": 0.030875300988554955,
                "z": 0.16403168439865112
            }
        },
        "name": "move_to_storage_A"
    },
    "id": "LazyPRMstar_move_to_storage_A_143",
    "joint_names": [
        "shoulder_pan_joint",
        "shoulder_lift_joint",
        "elbow_joint",
        "wrist_1_joint",
        "wrist_2_joint",
        "wrist_3_joint"
    ],
    "metrics": {
        "cart_traj_len": 0.35218356753185914,
        "distance_elbow_joint": 0.4515110336455117,
        "distance_shoulder_lift_joint": 0.2333007712469617,
        "distance_shoulder_pan_joint": 0.45795389034690404,
        "distance_wrist_1_joint": 0.25389996341198917,
        "distance_wrist_2_joint": 1.1075971809924345,
        "distance_wrist_3_joint": 0.09274744562847026,
        "smoothness": 6.661338165333112e-16,
        "time": 5.001058678,
        "traj_len": 1.611524211816959,
        "weighted_distance": 2.035682274062835
    },
    "planner": "LazyPRMstar",
    "start": {
        "state": {
            "elbow_joint": 1.9715472970024885,
            "shoulder_lift_joint": -1.1394870060712896,
            "shoulder_pan_joint": 0.12281152778156021,
            "wrist_1_joint": -0.780463741449964,
            "wrist_2_joint": 0.12958659822042276,
            "wrist_3_joint": 3.090690232415272
        }
    },
    "waypoints": [
        {
            "positions": [
                0.12281152778156021,
                -1.1394870060712896,
                1.9715472970024885,
                -0.780463741449964,
                0.12958659822042276,
                3.090690232415272
            ]
        },
        {
            "positions": [
                0.0573895434462882,
                -1.1728156876779985,
                2.0360488732375615,
                -0.8167351647945339,
                0.2878147669336277,
                3.103939867505053
            ]
        },
        {
            "positions": [
                -0.008032440888983805,
                -1.2061443692847071,
                2.100550449472635,
                -0.8530065881391038,
                0.4460429356468326,
                3.117189502594835
            ]
        },
        {
            "positions": [
                -0.0734544252242558,
                -1.239473050891416,
                2.1650520257077077,
                -0.8892780114836736,
                0.6042711043600375,
                3.130439137684616
            ]
        },
        {
            "positions": [
                -0.13887640955952782,
                -1.272801732498125,
                2.229553601942781,
                -0.9255494348282435,
                0.7624992730732424,
                3.143688772774398
            ]
        },
        {
            "positions": [
                -0.20429839389479984,
                -1.3061304141048338,
                2.294055178177854,
                -0.9618208581728134,
                0.9207274417864474,
                3.156938407864179
            ]
        },
        {
            "positions": [
                -0.2697203782300718,
                -1.3394590957115424,
                2.358556754412927,
                -0.9980922815173833,
                1.0789556104996523,
                3.170188042953961
            ]
        },
        {
            "positions": [
                -0.3351423625653438,
                -1.3727877773182513,
                2.4230583306480002,
                -1.0343637048619532,
                1.2371837792128573,
                3.183437678043742
            ]
        }
    ]
}