{
    "goal": {
        "global_pose": {
            "orientation": {
                "w": 0.7031023480610252,
                "x": -0.7110244013736278,
                "y": 0.0077485991402295624,
                "z": 0.005598929693374583
            },
            "position": {
                "x": -0.8841497679147869,
                "y": 0.44412534475326537,
                "z": 0.3711530566215515
            }
        },
        "name": "move_to_auspresseinheit_D"
    },
    "id": "LazyPRMstar_move_to_auspresseinheit_D_29",
    "joint_names": [
        "shoulder_pan_joint",
        "shoulder_lift_joint",
        "elbow_joint",
        "wrist_1_joint",
        "wrist_2_joint",
        "wrist_3_joint"
    ],
    "metrics": {
        "cart_traj_len": 0.34327406660542753,
        "distance_elbow_joint": 0.6428931402369504,
        "distance_shoulder_lift_joint": 0.12436761389924911,
        "distance_shoulder_pan_joint": 0.1334906631231535,
        "distance_wrist_1_joint": 0.5305230717720311,
        "distance_wrist_2_joint": 1.4476825095464831,
        "distance_wrist_3_joint": 0.0026637344447251188,
        "smoothness": 1.3816108797776631e-15,
        "time": 5.000752689,
        "traj_len": 1.6975337207321073,
        "weighted_distance": 2.2057093605528713
    },
    "planner": "LazyPRMstar",
    "start": {
        "state": {
            "elbow_joint": -1.8275523626775212,
            "shoulder_lift_joint": -2.126789852344167,
            "shoulder_pan_joint": -0.03513704404078235,
            "wrist_1_joint": -2.347782403156801,
            "wrist_2_joint": -1.6058999987535132,
            "wrist_3_joint": -3.0880379163319196
        }
    },
    "waypoints": [
        {
            "positions": [
                -0.03513704404078235,
                -2.126789852344167,
                -1.8275523626775212,
                -2.347782403156801,
                -1.6058999987535132,
                -3.0880379163319196
            ]
        },
        {
            "positions": [
                -0.051823376931176536,
                -2.142335804081573,
                -1.7471907201479024,
                -2.4140977871283047,
                -1.4249396850602027,
                -3.08837088313751
            ]
        },
        {
            "positions": [
                -0.06850970982157073,
                -2.157881755818979,
                -1.6668290776182837,
                -2.4804131710998085,
                -1.2439793713668923,
                -3.088703849943101
            ]
        },
        {
            "positions": [
                -0.0851960427119649,
                -2.1734277075563853,
                -1.5864674350886647,
                -2.5467285550713123,
                -1.063019057673582,
                -3.0890368167486915
            ]
        },
        {
            "positions": [
                -0.1018823756023591,
                -2.1889736592937914,
                -1.506105792559046,
                -2.613043939042816,
                -0.8820587439802716,
                -3.0893697835542824
            ]
        },
        {
            "positions": [
                -0.11856870849275328,
                -2.2045196110311975,
                -1.4257441500294272,
                -2.6793593230143204,
                -0.7010984302869612,
                -3.089702750359873
            ]
        },
        {
            "positions": [
                -0.13525504138314748,
                -2.2200655627686037,
                -1.3453825074998083,
                -2.7456747069858243,
                -0.520138116593651,
                -3.0900357171654633
            ]
        },
        {
            "positions": [
                -0.15194137427354165,
                -2.23561151450601,
                -1.2650208649701895,
                -2.811990090957328,
                -0.3391778029003405,
                -3.0903686839710542
            ]
        },
        {
            "positions": [
                -0.16862770716393585,
                -2.251157466243416,
                -1.1846592224405708,
                -2.878305474928832,
                -0.1582174892070301,
                -3.0907016507766447
            ]
        }
    ]
}