{
    "goal": {
        "global_pose": {
            "orientation": {
                "w": 0.7031023480610252,
                "x": -0.7110244013736278,
                "y": 0.0077485991402295624,
                "z": 0.005598929693374583
            },
            "position": {
                "x": -0.8841497679147869,
                "y": 0.44412534475326537,
                "z": 0.3711530566215515
            }
        },
        "name": "move_to_auspresseinheit_D"
    },
    "id": "LazyPRMstar_move_to_auspresseinheit_D_142",
    "joint_names": [
        "shoulder_pan_joint",
        "shoulder_lift_joint",
        "elbow_joint",
        "wrist_1_joint",
        "wrist_2_joint",
        "wrist_3_joint"
    ],
    "metrics": {
        "cart_traj_len": 0.34391622443088465,
        "distance_elbow_joint": 0.6587956605350069,
        "distance_shoulder_lift_joint": 0.1325802377740546,
        "distance_shoulder_pan_joint": 0.13337769265831875,
        "distance_wrist_1_joint": 0.5969787475328006,
        "distance_wrist_2_joint": 1.440304411582879,
        "distance_wrist_3_joint": 0.06279841036789069,
        "smoothness": 0.0,
        "time": 5.001328449,
        "traj_len": 1.7392053244085215,
        "weighted_distance": 2.2776556237285766
    },
    "planner": "LazyPRMstar",
    "start": {
        "state": {
            "elbow_joint": -1.8275523626775212,
            "shoulder_lift_joint": -2.126789852344167,
            "shoulder_pan_joint": -0.03513704404078235,
            "wrist_1_joint": -2.347782403156801,
            "wrist_2_joint": -1.6058999987535132,
            "wrist_3_joint": -3.0880379163319196
        }
    },
    "waypoints": [
        {
            "positions": [
                -0.03513704404078235,
                -2.126789852344167,
                -1.8275523626775212,
                -2.347782403156801,
                -1.6058999987535132,
                -3.0880379163319196
            ]
        },
        {
            "positions": [
                -0.05180925562307219,
                -2.1433623820659236,
                -1.7452029051106452,
                -2.422404746598401,
                -1.4258619473056533,
                -3.0801881150359334
            ]
        },
        {
            "positions": [
                -0.06848146720536204,
                -2.1599349117876807,
                -1.6628534475437695,
                -2.497027090040001,
                -1.2458238958577934,
                -3.072338313739947
            ]
        },
        {
            "positions": [
                -0.08515367878765187,
                -2.1765074415094374,
                -1.5805039899768936,
                -2.571649433481601,
                -1.0657858444099335,
                -3.0644885124439605
            ]
        },
        {
            "positions": [
                -0.10182589036994172,
                -2.193079971231194,
                -1.4981545324100178,
                -2.646271776923201,
                -0.8857477929620737,
                -3.0566387111479743
            ]
        },
        {
            "positions": [
                -0.11849810195223157,
                -2.209652500952951,
                -1.4158050748431419,
                -2.720894120364801,
                -0.7057097415142138,
                -3.048788909851988
            ]
        },
        {
            "positions": [
                -0.1351703135345214,
                -2.2262250306747076,
                -1.333455617276266,
                -2.7955164638064014,
                -0.5256716900663541,
                -3.0409391085560014
            ]
        },
        {
            "positions": [
                -0.15184252511681126,
                -2.2427975603964647,
                -1.2511061597093902,
                -2.8701388072480016,
                -0.34563363861849417,
                -3.033089307260015
            ]
        },
        {
            "positions": [
                -0.1685147366991011,
                -2.2593700901182214,
                -1.1687567021425143,
                -2.9447611506896014,
                -0.16559558717063433,
                -3.025239505964029
            ]
        }
    ]
}