{
    "goal": {
        "global_pose": {
            "orientation": {
                "w": -0.00223480608172531,
                "x": 0.0024358444001904467,
                "y": 0.7094548369677653,
                "z": -0.704743149386269
            },
            "position": {
                "x": -0.37947507619857795,
                "y": -0.6371506643295288,
                "z": 0.19426114857196808
            }
        },
        "name": "move_to_magneteinheit_C"
    },
    "id": "LazyPRMstar_move_to_magneteinheit_C_123",
    "joint_names": [
        "shoulder_pan_joint",
        "shoulder_lift_joint",
        "elbow_joint",
        "wrist_1_joint",
        "wrist_2_joint",
        "wrist_3_joint"
    ],
    "metrics": {
        "cart_traj_len": 2.022839307325273,
        "distance_elbow_joint": 1.2577480013397193,
        "distance_shoulder_lift_joint": 0.7952023204468541,
        "distance_shoulder_pan_joint": 1.7935643822629086,
        "distance_wrist_1_joint": 0.607599833456944,
        "distance_wrist_2_joint": 0.7921890705722825,
        "distance_wrist_3_joint": 0.6348577968139204,
        "smoothness": 1.756428888072565,
        "time": 5.013743440000001,
        "traj_len": 2.4251105964249606,
        "weighted_distance": 2.9241521681591225
    },
    "planner": "LazyPRMstar",
    "start": {
        "state": {
            "elbow_joint": 1.9565354010623817,
            "shoulder_lift_joint": -1.4165861575791021,
            "shoulder_pan_joint": -1.6717766225146293,
            "wrist_1_joint": -0.5286633292919765,
            "wrist_2_joint": 1.472756589071564,
            "wrist_3_joint": -3.1238370188695823
        }
    },
    "waypoints": [
        {
            "positions": [
                -1.6717766225146293,
                -1.4165861575791021,
                1.9565354010623817,
                -0.5286633292919765,
                1.472756589071564,
                -3.1238370188695823
            ]
        },
        {
            "positions": [
                -1.671128918399477,
                -1.4995929826551229,
                1.8784267071284217,
                -0.5891176328782176,
                1.4295328306218587,
                -3.0830934438003146
            ]
        },
        {
            "positions": [
                -1.8268049642253557,
                -1.5934571174777945,
                1.854547695747779,
                -0.5134359480790265,
                1.4215500506903915,
                -3.0850515795712843
            ]
        },
        {
            "positions": [
                -1.9824810100512342,
                -1.687321252300466,
                1.830668684367136,
                -0.4377542632798353,
                1.4135672707589244,
                -3.087009715342254
            ]
        },
        {
            "positions": [
                -2.1232882472670704,
                -1.6461618389544854,
                1.7625847540064334,
                -0.4722568427980326,
                1.3929750318094567,
                -3.0489363929858726
            ]
        },
        {
            "positions": [
                -2.2640954844829064,
                -1.6050024256085047,
                1.6945008236457308,
                -0.50675942231623,
                1.372382792859989,
                -3.010863070629491
            ]
        },
        {
            "positions": [
                -2.4049027216987424,
                -1.5638430122625242,
                1.6264168932850283,
                -0.5412620018344273,
                1.3517905539105213,
                -2.97278974827311
            ]
        },
        {
            "positions": [
                -2.5457099589145784,
                -1.5226835989165435,
                1.5583329629243257,
                -0.5757645813526246,
                1.3311983149610533,
                -2.9347164259167284
            ]
        },
        {
            "positions": [
                -2.6865171961304144,
                -1.481524185570563,
                1.4902490325636228,
                -0.6102671608708219,
                1.3106060760115856,
                -2.896643103560347
            ]
        },
        {
            "positions": [
                -2.8273244333462504,
                -1.4403647722245823,
                1.4221651022029203,
                -0.6447697403890192,
                1.290013837062118,
                -2.8585697812039657
            ]
        },
        {
            "positions": [
                -2.9681316705620864,
                -1.3992053588786018,
                1.3540811718422177,
                -0.6792723199072166,
                1.2694215981126502,
                -2.8204964588475843
            ]
        },
        {
            "positions": [
                -2.8972868239927796,
                -1.3654408828352267,
                1.447694567859297,
                -0.7013100489993508,
                1.185299586739312,
                -2.866737129377305
            ]
        },
        {
            "positions": [
                -2.826441977423473,
                -1.3316764067918514,
                1.5413079638763763,
                -0.723347778091485,
                1.1011775753659734,
                -2.912977799907025
            ]
        },
        {
            "positions": [
                -2.755597130854166,
                -1.2979119307484763,
                1.6349213598934556,
                -0.7453855071836191,
                1.017055563992635,
                -2.959218470436746
            ]
        },
        {
            "positions": [
                -2.6847522842848597,
                -1.264147454705101,
                1.7285347559105348,
                -0.7674232362757533,
                0.9329335526192966,
                -3.005459140966466
            ]
        },
        {
            "positions": [
                -2.613907437715553,
                -1.230382978661726,
                1.8221481519276144,
                -0.7894609653678875,
                0.8488115412459583,
                -3.051699811496187
            ]
        },
        {
            "positions": [
                -2.543062591146246,
                -1.196618502618351,
                1.9157615479446934,
                -0.8114986944600217,
                0.7646895298726198,
                -3.097940482025907
            ]
        },
        {
            "positions": [
                -2.4722177445769393,
                -1.1628540265749756,
                2.009374943961773,
                -0.8335364235521558,
                0.6805675184992814,
                -3.144181152555628
            ]
        }
    ]
}