{
    "goal": {
        "global_pose": {
            "orientation": {
                "w": 0.005598929693374612,
                "x": 0.007748599140229565,
                "y": 0.7110244013736278,
                "z": -0.7031023480610252
            },
            "position": {
                "x": -0.8858502320852131,
                "y": -0.7141253447532654,
                "z": 0.3711530566215515
            }
        },
        "name": "move_to_auspresseinheit_C"
    },
    "id": "LazyPRM_move_to_auspresseinheit_C_142",
    "joint_names": [
        "shoulder_pan_joint",
        "shoulder_lift_joint",
        "elbow_joint",
        "wrist_1_joint",
        "wrist_2_joint",
        "wrist_3_joint"
    ],
    "metrics": {
        "cart_traj_len": 0.494178173984315,
        "distance_elbow_joint": 1.0087270086207307,
        "distance_shoulder_lift_joint": 0.32894176016661414,
        "distance_shoulder_pan_joint": 0.25607966947493477,
        "distance_wrist_1_joint": 0.6867527213918557,
        "distance_wrist_2_joint": 1.3168013088287533,
        "distance_wrist_3_joint": 0.06936228346386297,
        "smoothness": 9.689219124001365e-16,
        "time": 0.012477439,
        "traj_len": 1.914853715547679,
        "weighted_distance": 2.4101749623409265
    },
    "planner": "LazyPRM",
    "start": {
        "state": {
            "elbow_joint": 1.7527959577737207,
            "shoulder_lift_joint": -0.9740617694225068,
            "shoulder_pan_joint": -2.967991417825858,
            "wrist_1_joint": -0.759517768980727,
            "wrist_2_joint": 1.7443932448377408,
            "wrist_3_joint": -3.0840537646736568
        }
    },
    "waypoints": [
        {
            "positions": [
                -2.967991417825858,
                -0.9740617694225068,
                1.7527959577737207,
                -0.759517768980727,
                1.7443932448377408,
                -3.0840537646736568
            ]
        },
        {
            "positions": [
                -2.9423834508783644,
                -0.9411675934058453,
                1.6519232569116475,
                -0.6908424968415414,
                1.6127131139548654,
                -3.090989993020043
            ]
        },
        {
            "positions": [
                -2.916775483930871,
                -0.908273417389184,
                1.5510505560495744,
                -0.6221672247023559,
                1.4810329830719902,
                -3.0979262213664294
            ]
        },
        {
            "positions": [
                -2.8911675169833777,
                -0.8753792413725225,
                1.4501778551875015,
                -0.5534919525631703,
                1.349352852189115,
                -3.1048624497128157
            ]
        },
        {
            "positions": [
                -2.865559550035884,
                -0.8424850653558611,
                1.3493051543254284,
                -0.4848166804239847,
                1.2176727213062395,
                -3.111798678059202
            ]
        },
        {
            "positions": [
                -2.8399515830883906,
                -0.8095908893391996,
                1.2484324534633553,
                -0.4161414082847991,
                1.085992590423364,
                -3.1187349064055883
            ]
        },
        {
            "positions": [
                -2.814343616140897,
                -0.7766967133225383,
                1.1475597526012824,
                -0.34746613614561356,
                0.9543124595404888,
                -3.1256711347519746
            ]
        },
        {
            "positions": [
                -2.7887356491934034,
                -0.7438025373058769,
                1.0466870517392093,
                -0.278790864006428,
                0.8226323286576136,
                -3.132607363098361
            ]
        },
        {
            "positions": [
                -2.7631276822459103,
                -0.7109083612892155,
                0.9458143508771361,
                -0.21011559186724238,
                0.6909521977747382,
                -3.139543591444747
            ]
        },
        {
            "positions": [
                -2.7375197152984168,
                -0.6780141852725541,
                0.8449416500150629,
                -0.14144031972805682,
                0.5592720668918627,
                -3.1464798197911334
            ]
        },
        {
            "positions": [
                -2.711911748350923,
                -0.6451200092558926,
                0.7440689491529898,
                -0.0727650475888713,
                0.42759193600898754,
                -3.1534160481375197
            ]
        }
    ]
}