{
    "goal": {
        "global_pose": {
            "orientation": {
                "w": 0.005598929693374612,
                "x": 0.007748599140229565,
                "y": 0.7110244013736278,
                "z": -0.7031023480610252
            },
            "position": {
                "x": -0.8858502320852131,
                "y": -0.7141253447532654,
                "z": 0.3711530566215515
            }
        },
        "name": "move_to_auspresseinheit_C"
    },
    "id": "LazyPRMstar_move_to_auspresseinheit_C_80",
    "joint_names": [
        "shoulder_pan_joint",
        "shoulder_lift_joint",
        "elbow_joint",
        "wrist_1_joint",
        "wrist_2_joint",
        "wrist_3_joint"
    ],
    "metrics": {
        "cart_traj_len": 0.49329248108323187,
        "distance_elbow_joint": 0.9979820084325524,
        "distance_shoulder_lift_joint": 0.3235777935716926,
        "distance_shoulder_pan_joint": 0.25583480306478057,
        "distance_wrist_1_joint": 0.666950004398226,
        "distance_wrist_2_joint": 1.316367030130453,
        "distance_wrist_3_joint": 0.051994387830378574,
        "smoothness": 6.45947944157498e-16,
        "time": 5.001308285,
        "traj_len": 1.9007119790825973,
        "weighted_distance": 2.3874697563775586
    },
    "planner": "LazyPRMstar",
    "start": {
        "state": {
            "elbow_joint": 1.7527959577737207,
            "shoulder_lift_joint": -0.9740617694225068,
            "shoulder_pan_joint": -2.967991417825858,
            "wrist_1_joint": -0.759517768980727,
            "wrist_2_joint": 1.7443932448377408,
            "wrist_3_joint": -3.0840537646736568
        }
    },
    "waypoints": [
        {
            "positions": [
                -2.967991417825858,
                -0.9740617694225068,
                1.7527959577737207,
                -0.759517768980727,
                1.7443932448377408,
                -3.0840537646736568
            ]
        },
        {
            "positions": [
                -2.9424079375193797,
                -0.9417039900653376,
                1.6529977569304655,
                -0.6928227685409044,
                1.6127565418246954,
                -3.0892532034566944
            ]
        },
        {
            "positions": [
                -2.916824457212902,
                -0.9093462107081682,
                1.5531995560872103,
                -0.6261277681010817,
                1.4811198388116502,
                -3.0944526422397325
            ]
        },
        {
            "positions": [
                -2.891240976906424,
                -0.876988431350999,
                1.453401355243955,
                -0.5594327676612592,
                1.349483135798605,
                -3.0996520810227706
            ]
        },
        {
            "positions": [
                -2.8656574965999457,
                -0.8446306519938297,
                1.3536031544006997,
                -0.49273776722143653,
                1.2178464327855596,
                -3.104851519805808
            ]
        },
        {
            "positions": [
                -2.8400740162934675,
                -0.8122728726366605,
                1.2538049535574445,
                -0.42604276678161396,
                1.0862097297725142,
                -3.110050958588846
            ]
        },
        {
            "positions": [
                -2.8144905359869896,
                -0.7799150932794913,
                1.1540067527141893,
                -0.3593477663417914,
                0.954573026759469,
                -3.115250397371884
            ]
        },
        {
            "positions": [
                -2.788907055680512,
                -0.7475573139223219,
                1.054208551870934,
                -0.29265276590196876,
                0.8229363237464238,
                -3.120449836154922
            ]
        },
        {
            "positions": [
                -2.7633235753740335,
                -0.7151995345651527,
                0.9544103510276787,
                -0.22595776546214608,
                0.6912996207333784,
                -3.1256492749379596
            ]
        },
        {
            "positions": [
                -2.7377400950675552,
                -0.6828417552079835,
                0.8546121501844235,
                -0.1592627650223235,
                0.5596629177203329,
                -3.1308487137209973
            ]
        },
        {
            "positions": [
                -2.7121566147610774,
                -0.6504839758508142,
                0.7548139493411683,
                -0.0925677645825009,
                0.4280262147072877,
                -3.1360481525040353
            ]
        }
    ]
}