{
    "goal": {
        "global_pose": {
            "orientation": {
                "w": -0.4816463035849501,
                "x": 0.5182115481033762,
                "y": 0.4908360881923453,
                "z": -0.5084816262002911
            },
            "position": {
                "x": -0.8240239810943604,
                "y": 0.19912469901144506,
                "z": 0.16403168439865112
            }
        },
        "name": "move_to_storage_D"
    },
    "id": "LazyPRMstar_move_to_storage_D_33",
    "joint_names": [
        "shoulder_pan_joint",
        "shoulder_lift_joint",
        "elbow_joint",
        "wrist_1_joint",
        "wrist_2_joint",
        "wrist_3_joint"
    ],
    "metrics": {
        "cart_traj_len": 3.9112549202137767,
        "distance_elbow_joint": 4.2151921425192596,
        "distance_shoulder_lift_joint": 1.2646880662435327,
        "distance_shoulder_pan_joint": 2.8123729256705734,
        "distance_wrist_1_joint": 2.2890937311717616,
        "distance_wrist_2_joint": 0.8695213529250063,
        "distance_wrist_3_joint": 3.1332451399901564,
        "smoothness": 8.198570037284699e-16,
        "time": 5.042444870000001,
        "traj_len": 3.818915207034622,
        "weighted_distance": 4.899920277167514
    },
    "planner": "LazyPRMstar",
    "start": {
        "state": {
            "elbow_joint": -2.384821988534728,
            "shoulder_lift_joint": -2.2788054721415256,
            "shoulder_pan_joint": -0.1854694642142757,
            "wrist_1_joint": 1.4845938289331202,
            "wrist_2_joint": 0.17898776772866878,
            "wrist_3_joint": 0.037105688729662994
        }
    },
    "waypoints": [
        {
            "positions": [
                -0.1854694642142757,
                -2.2788054721415256,
                -2.384821988534728,
                1.4845938289331202,
                0.17898776772866878,
                0.037105688729662994
            ]
        },
        {
            "positions": [
                -0.0761872819683918,
                -2.273415836440439,
                -2.213452213238765,
                1.432993507737305,
                0.1910317119451763,
                0.01055145034856092
            ]
        },
        {
            "positions": [
                0.033094900277492095,
                -2.268026200739352,
                -2.0420824379428026,
                1.38139318654149,
                0.20307565616168383,
                -0.016002788032541154
            ]
        },
        {
            "positions": [
                0.14237708252337597,
                -2.2626365650382656,
                -1.8707126626468398,
                1.3297928653456748,
                0.21511960037819133,
                -0.04255702641364323
            ]
        },
        {
            "positions": [
                0.2516592647692599,
                -2.257246929337179,
                -1.699342887350877,
                1.2781925441498596,
                0.22716354459469887,
                -0.0691112647947453
            ]
        },
        {
            "positions": [
                0.36094144701514386,
                -2.251857293636092,
                -1.5279731120549143,
                1.2265922229540442,
                0.23920748881120638,
                -0.09566550317584738
            ]
        },
        {
            "positions": [
                0.4702236292610277,
                -2.2464676579350056,
                -1.3566033367589516,
                1.174991901758229,
                0.2512514330277139,
                -0.12221974155694945
            ]
        },
        {
            "positions": [
                0.5795058115069116,
                -2.241078022233919,
                -1.1852335614629887,
                1.123391580562414,
                0.2632953772442214,
                -0.14877397993805153
            ]
        },
        {
            "positions": [
                0.6887879937527955,
                -2.235688386532832,
                -1.013863786167026,
                1.0717912593665988,
                0.2753393214607289,
                -0.1753282183191536
            ]
        },
        {
            "positions": [
                0.7980701759986795,
                -2.2302987508317456,
                -0.8424940108710635,
                1.0201909381707837,
                0.2873832656772365,
                -0.20188245670025567
            ]
        },
        {
            "positions": [
                0.9073523582445634,
                -2.224909115130659,
                -0.6711242355751006,
                0.9685906169749685,
                0.299427209893744,
                -0.22843669508135775
            ]
        },
        {
            "positions": [
                1.016634540490447,
                -2.2195194794295725,
                -0.49975446027913795,
                0.9169902957791533,
                0.3114711541102515,
                -0.2549909334624598
            ]
        },
        {
            "positions": [
                1.125916722736331,
                -2.2141298437284855,
                -0.3283846849831753,
                0.8653899745833381,
                0.323515098326759,
                -0.28154517184356187
            ]
        },
        {
            "positions": [
                1.235198904982215,
                -2.208740208027399,
                -0.15701490968721243,
                0.813789653387523,
                0.3355590425432665,
                -0.3080994102246639
            ]
        },
        {
            "positions": [
                1.3444810872280988,
                -2.2033505723263125,
                0.014354865608750433,
                0.7621893321917077,
                0.3476029867597741,
                -0.3346536486057661
            ]
        },
        {
            "positions": [
                1.4537632694739828,
                -2.1979609366252255,
                0.18572464090471286,
                0.7105890109958926,
                0.3596469309762816,
                -0.3612078869868681
            ]
        },
        {
            "positions": [
                1.5630454517198666,
                -2.192571300924139,
                0.3570944162006756,
                0.6589886898000774,
                0.3716908751927891,
                -0.38776212536797017
            ]
        },
        {
            "positions": [
                1.6114026339806136,
                -2.139005214786587,
                0.4240614951908508,
                0.5924664810710447,
                0.4024553408955566,
                -0.5108701856358122
            ]
        },
        {
            "positions": [
                1.6597598162413605,
                -2.0854391286490346,
                0.491028574181026,
                0.5259442723420121,
                0.4332198065983242,
                -0.6339782459036541
            ]
        },
        {
            "positions": [
                1.7081169985021072,
                -2.031873042511483,
                0.5579956531712013,
                0.45942206361297944,
                0.46398427230109174,
                -0.7570863061714961
            ]
        },
        {
            "positions": [
                1.756474180762854,
                -1.9783069563739306,
                0.6249627321613764,
                0.3928998548839468,
                0.4947487380038593,
                -0.8801943664393381
            ]
        },
        {
            "positions": [
                1.804831363023601,
                -1.9247408702363784,
                0.6919298111515517,
                0.32637764615491416,
                0.5255132037066268,
                -1.00330242670718
            ]
        },
        {
            "positions": [
                1.853188545284348,
                -1.8711747840988264,
                0.7588968901417268,
                0.2598554374258815,
                0.5562776694093944,
                -1.126410486975022
            ]
        },
        {
            "positions": [
                1.9015457275450949,
                -1.8176086979612744,
                0.8258639691319021,
                0.19333322869684882,
                0.587042135112162,
                -1.249518547242864
            ]
        },
        {
            "positions": [
                1.9499029098058416,
                -1.7640426118237222,
                0.8928310481220773,
                0.12681101996781619,
                0.6178066008149294,
                -1.372626607510706
            ]
        },
        {
            "positions": [
                1.9982600920665887,
                -1.71047652568617,
                0.9597981271122525,
                0.06028881123878349,
                0.6485710665176971,
                -1.4957346677785481
            ]
        },
        {
            "positions": [
                2.0466172743273354,
                -1.656910439548618,
                1.0267652061024277,
                -0.006233397490249093,
                0.6793355322204646,
                -1.61884272804639
            ]
        },
        {
            "positions": [
                2.0949744565880826,
                -1.603344353411066,
                1.093732285092603,
                -0.07275560621928179,
                0.7100999979232321,
                -1.741950788314232
            ]
        },
        {
            "positions": [
                2.1433316388488293,
                -1.5497782672735139,
                1.160699364082778,
                -0.13927781494831437,
                0.7408644636259997,
                -1.8650588485820738
            ]
        },
        {
            "positions": [
                2.191688821109576,
                -1.4962121811359617,
                1.2276664430729534,
                -0.20580002367734718,
                0.7716289293287673,
                -1.988166908849916
            ]
        },
        {
            "positions": [
                2.240046003370323,
                -1.4426460949984097,
                1.2946335220631284,
                -0.27232223240637976,
                0.8023933950315347,
                -2.111274969117758
            ]
        },
        {
            "positions": [
                2.28840318563107,
                -1.3890800088608577,
                1.3616006010533037,
                -0.33884444113541234,
                0.8331578607343023,
                -2.2343830293856
            ]
        },
        {
            "positions": [
                2.3367603678918165,
                -1.3355139227233055,
                1.428567680043479,
                -0.40536664986444504,
                0.8639223264370699,
                -2.357491089653442
            ]
        },
        {
            "positions": [
                2.3851175501525637,
                -1.2819478365857533,
                1.4955347590336543,
                -0.47188885859347773,
                0.8946867921398374,
                -2.480599149921284
            ]
        },
        {
            "positions": [
                2.433474732413311,
                -1.228381750448201,
                1.5625018380238296,
                -0.5384110673225104,
                0.9254512578426051,
                -2.603707210189126
            ]
        },
        {
            "positions": [
                2.4818319146740575,
                -1.174815664310649,
                1.6294689170140044,
                -0.6049332760515431,
                0.9562157235453725,
                -2.7268152704569677
            ]
        },
        {
            "positions": [
                2.530189096934804,
                -1.1212495781730971,
                1.6964359960041797,
                -0.6714554847805756,
                0.98698018924814,
                -2.8499233307248097
            ]
        },
        {
            "positions": [
                2.5785462791955513,
                -1.067683492035545,
                1.763403074994355,
                -0.7379776935096083,
                1.0177446549509077,
                -2.973031390992652
            ]
        },
        {
            "positions": [
                2.626903461456298,
                -1.014117405897993,
                1.83037015398453,
                -0.8044999022386411,
                1.0485091206536752,
                -3.096139451260494
            ]
        }
    ]
}