{
    "goal": {
        "global_pose": {
            "orientation": {
                "w": -0.00223480608172531,
                "x": 0.0024358444001904467,
                "y": 0.7094548369677653,
                "z": -0.704743149386269
            },
            "position": {
                "x": 0.6205249238014221,
                "y": -0.6371506643295288,
                "z": 0.19426114857196808
            }
        },
        "name": "move_to_magneteinheit_B"
    },
    "id": "LazyPRM_move_to_magneteinheit_B_97",
    "joint_names": [
        "shoulder_pan_joint",
        "shoulder_lift_joint",
        "elbow_joint",
        "wrist_1_joint",
        "wrist_2_joint",
        "wrist_3_joint"
    ],
    "metrics": {
        "cart_traj_len": 3.5044518545072636,
        "distance_elbow_joint": 4.33197608134541,
        "distance_shoulder_lift_joint": 1.211598380584248,
        "distance_shoulder_pan_joint": 3.166406696374334,
        "distance_wrist_1_joint": 3.2442351845708113,
        "distance_wrist_2_joint": 1.5237194600230395,
        "distance_wrist_3_joint": 2.2225657706152178,
        "smoothness": 0.5922158737483703,
        "time": 0.236734582,
        "traj_len": 3.962385843593864,
        "weighted_distance": 4.991351295925519
    },
    "planner": "LazyPRM",
    "start": {
        "state": {
            "elbow_joint": 2.6216224122426386,
            "shoulder_lift_joint": -1.4174107377796124,
            "shoulder_pan_joint": 0.7066234856936794,
            "wrist_1_joint": 1.9546482284002225,
            "wrist_2_joint": -0.7096286983471962,
            "wrist_3_joint": 0.005740856962016249
        }
    },
    "waypoints": [
        {
            "positions": [
                0.7066234856936794,
                -1.4174107377796124,
                2.6216224122426386,
                1.9546482284002225,
                -0.7096286983471962,
                0.005740856962016249
            ]
        },
        {
            "positions": [
                0.6279649230179732,
                -1.3929539501097186,
                2.6297323850631247,
                1.8886966931728766,
                -0.6704502269139755,
                0.11670740443976156
            ]
        },
        {
            "positions": [
                0.5493063603422672,
                -1.368497162439825,
                2.637842357883611,
                1.8227451579455307,
                -0.6312717554807546,
                0.2276739519175069
            ]
        },
        {
            "positions": [
                0.47064779766656106,
                -1.3440403747699312,
                2.6459523307040973,
                1.7567936227181848,
                -0.5920932840475339,
                0.3386404993952522
            ]
        },
        {
            "positions": [
                0.47884542470347946,
                -1.365384263095133,
                2.521555669158314,
                1.6006885212880453,
                -0.6255564883377913,
                0.3641464902009199
            ]
        },
        {
            "positions": [
                0.48704305174039786,
                -1.3867281514203347,
                2.3971590076125304,
                1.4445834198579057,
                -0.6590196926280487,
                0.38965248100658756
            ]
        },
        {
            "positions": [
                0.49524067877731626,
                -1.4080720397455366,
                2.2727623460667465,
                1.2884783184277664,
                -0.6924828969183061,
                0.4151584718122553
            ]
        },
        {
            "positions": [
                0.5034383058142347,
                -1.4294159280707384,
                2.148365684520963,
                1.1323732169976268,
                -0.7259461012085635,
                0.44066446261792297
            ]
        },
        {
            "positions": [
                0.511635932851153,
                -1.45075981639594,
                2.0239690229751797,
                0.9762681155674873,
                -0.7594093054988209,
                0.46617045342359065
            ]
        },
        {
            "positions": [
                0.6211505141181748,
                -1.4706544095573273,
                1.9163471213339347,
                1.0261272526630303,
                -0.7132307775338185,
                0.41840649144278547
            ]
        },
        {
            "positions": [
                0.7306650953851965,
                -1.4905490027187145,
                1.8087252196926895,
                1.075986389758573,
                -0.6670522495688159,
                0.3706425294619803
            ]
        },
        {
            "positions": [
                0.8401796766522183,
                -1.5104435958801015,
                1.7011033180514445,
                1.125845526854116,
                -0.6208737216038134,
                0.3228785674811751
            ]
        },
        {
            "positions": [
                0.94969425791924,
                -1.5303381890414887,
                1.5934814164101996,
                1.1757046639496591,
                -0.5746951936388109,
                0.2751146055003699
            ]
        },
        {
            "positions": [
                1.0592088391862617,
                -1.5502327822028759,
                1.4858595147689546,
                1.2255638010452021,
                -0.5285166656738085,
                0.22735064351956477
            ]
        },
        {
            "positions": [
                1.1687234204532833,
                -1.570127375364263,
                1.3782376131277094,
                1.275422938140745,
                -0.48233813770880596,
                0.17958668153875956
            ]
        },
        {
            "positions": [
                1.2782380017203052,
                -1.59002196852565,
                1.2706157114864642,
                1.325282075236288,
                -0.4361596097438034,
                0.13182271955795438
            ]
        },
        {
            "positions": [
                1.3877525829873267,
                -1.6099165616870372,
                1.1629938098452195,
                1.375141212331831,
                -0.389981081778801,
                0.08405875757714926
            ]
        },
        {
            "positions": [
                1.4972671642543487,
                -1.6298111548484244,
                1.0553719082039743,
                1.425000349427374,
                -0.34380255381379843,
                0.03629479559634402
            ]
        },
        {
            "positions": [
                1.6067817455213702,
                -1.6497057480098116,
                0.9477500065627293,
                1.4748594865229168,
                -0.297624025848796,
                -0.011469166384461105
            ]
        },
        {
            "positions": [
                1.7162963267883922,
                -1.6696003411711988,
                0.8401281049214842,
                1.5247186236184598,
                -0.25144549788379345,
                -0.059233128365266285
            ]
        },
        {
            "positions": [
                1.8258109080554137,
                -1.6894949343325858,
                0.7325062032802394,
                1.5745777607140028,
                -0.205266969918791,
                -0.10699709034607152
            ]
        },
        {
            "positions": [
                1.9353254893224354,
                -1.709389527493973,
                0.6248843016389944,
                1.6244368978095456,
                -0.15908844195378857,
                -0.15476105232687665
            ]
        },
        {
            "positions": [
                2.0448400705894576,
                -1.7292841206553602,
                0.517262399997749,
                1.6742960349050886,
                -0.11290991398878591,
                -0.20252501430768188
            ]
        },
        {
            "positions": [
                2.1543546518564787,
                -1.7491787138167474,
                0.40964049835650407,
                1.7241551720006316,
                -0.06673138602378348,
                -0.250288976288487
            ]
        },
        {
            "positions": [
                2.2638692331235006,
                -1.7690733069781346,
                0.3020185967152591,
                1.7740143090961746,
                -0.020552858058781043,
                -0.29805293826929213
            ]
        },
        {
            "positions": [
                2.3733838143905226,
                -1.7889679001395216,
                0.19439669507401414,
                1.8238734461917177,
                0.025625669906221393,
                -0.34581690025009737
            ]
        },
        {
            "positions": [
                2.4828983956575446,
                -1.8088624933009088,
                0.08677479343276895,
                1.8737325832872607,
                0.07180419787122405,
                -0.3935808622309026
            ]
        },
        {
            "positions": [
                2.5924129769245656,
                -1.828757086462296,
                -0.020847108208475795,
                1.9235917203828035,
                0.11798272583622649,
                -0.44134482421170773
            ]
        },
        {
            "positions": [
                2.7019275581915876,
                -1.848651679623683,
                -0.12846900984972098,
                1.9734508574783463,
                0.16416125380122892,
                -0.48910878619251286
            ]
        },
        {
            "positions": [
                2.8114421394586095,
                -1.8685462727850701,
                -0.23609091149096573,
                2.0233099945738893,
                0.21033978176623136,
                -0.536872748173318
            ]
        },
        {
            "positions": [
                2.9209567207256315,
                -1.8884408659464573,
                -0.34371281313221136,
                2.0731691316694323,
                0.256518309731234,
                -0.5846367101541232
            ]
        },
        {
            "positions": [
                3.030471301992653,
                -1.9083354591078445,
                -0.4513347147734563,
                2.1230282687649753,
                0.30269683769623645,
                -0.6324006721349285
            ]
        },
        {
            "positions": [
                2.979820182791767,
                -1.9856526088334356,
                -0.5908357186594865,
                2.0464110685239434,
                0.31069106206171543,
                -0.6355550971070489
            ]
        },
        {
            "positions": [
                2.9291690635908814,
                -2.0629697585590265,
                -0.7303367225455166,
                1.9697938682829115,
                0.3186852864271944,
                -0.6387095220791694
            ]
        },
        {
            "positions": [
                2.878517944389996,
                -2.1402869082846174,
                -0.8698377264315468,
                1.8931766680418796,
                0.3266795107926734,
                -0.6418639470512899
            ]
        },
        {
            "positions": [
                2.82786682518911,
                -2.2176040580102088,
                -1.009338730317577,
                1.8165594678008476,
                0.33467373515815235,
                -0.6450183720234103
            ]
        },
        {
            "positions": [
                2.7772157059882243,
                -2.2949212077357997,
                -1.148839734203607,
                1.7399422675598157,
                0.3426679595236313,
                -0.6481727969955308
            ]
        },
        {
            "positions": [
                2.7265645867873385,
                -2.3722383574613906,
                -1.2883407380896372,
                1.6633250673187838,
                0.3506621838891103,
                -0.6513272219676512
            ]
        },
        {
            "positions": [
                2.71544778865137,
                -2.390576696608575,
                -1.35056625377134,
                1.553426447803051,
                0.37212827303647017,
                -0.5438874721739175
            ]
        },
        {
            "positions": [
                2.7043309905154023,
                -2.4089150357557596,
                -1.4127917694530427,
                1.4435278282873183,
                0.39359436218383004,
                -0.43644772238018387
            ]
        },
        {
            "positions": [
                2.693214192379434,
                -2.4272533749029446,
                -1.4750172851347456,
                1.3336292087715855,
                0.41506045133118996,
                -0.32900797258645015
            ]
        },
        {
            "positions": [
                2.6820973942434656,
                -2.445591714050129,
                -1.5372428008164485,
                1.2237305892558528,
                0.4365265404785498,
                -0.22156822279271648
            ]
        },
        {
            "positions": [
                2.6709805961074977,
                -2.4639300531973136,
                -1.5994683164981511,
                1.1138319697401198,
                0.4579926296259097,
                -0.11412847299898277
            ]
        },
        {
            "positions": [
                2.6598637979715294,
                -2.482268392344498,
                -1.661693832179854,
                1.003933350224387,
                0.47945871877326957,
                -0.006688723205249054
            ]
        }
    ]
}