{
    "goal": {
        "global_pose": {
            "orientation": {
                "w": 0.7031023502349854,
                "x": -0.7110244035720825,
                "y": 0.007748599164187908,
                "z": 0.005598929710686207
            },
            "position": {
                "x": 0.11585023208521307,
                "y": 0.44412534475326537,
                "z": 0.3711530566215515
            }
        },
        "name": "move_to_auspresseinheit_A"
    },
    "id": "LazyPRM_move_to_auspresseinheit_A_107",
    "joint_names": [
        "shoulder_pan_joint",
        "shoulder_lift_joint",
        "elbow_joint",
        "wrist_1_joint",
        "wrist_2_joint",
        "wrist_3_joint"
    ],
    "metrics": {
        "cart_traj_len": 1.9593861500012317,
        "distance_elbow_joint": 0.8428504651246458,
        "distance_shoulder_lift_joint": 1.0929358539115412,
        "distance_shoulder_pan_joint": 2.366499191759707,
        "distance_wrist_1_joint": 1.0155032539293698,
        "distance_wrist_2_joint": 1.897766652434643,
        "distance_wrist_3_joint": 0.5616201894065194,
        "smoothness": 2.3469741616960658,
        "time": 1.198129689,
        "traj_len": 2.7887587931849587,
        "weighted_distance": 3.437104288749976
    },
    "planner": "LazyPRM",
    "start": {
        "state": {
            "elbow_joint": 2.4225746658250005,
            "shoulder_lift_joint": -1.3736534386056498,
            "shoulder_pan_joint": -0.3378633547517467,
            "wrist_1_joint": -1.0288598680537169,
            "wrist_2_joint": 1.233022673432363,
            "wrist_3_joint": -3.0940220416140027
        }
    },
    "waypoints": [
        {
            "positions": [
                -0.3378633547517467,
                -1.3736534386056498,
                2.4225746658250005,
                -1.0288598680537169,
                1.233022673432363,
                -3.0940220416140027
            ]
        },
        {
            "positions": [
                -0.20992909197371318,
                -1.474428286286373,
                2.3586092176160554,
                -1.0070113057138745,
                1.1995406018742303,
                -3.0979370900018885
            ]
        },
        {
            "positions": [
                -0.08199482919567963,
                -1.5752031339670958,
                2.2946437694071107,
                -0.9851627433740321,
                1.1660585303160973,
                -3.1018521383897744
            ]
        },
        {
            "positions": [
                0.04593943358235392,
                -1.6759779816478189,
                2.2306783211981656,
                -0.9633141810341898,
                1.1325764587579645,
                -3.1057671867776606
            ]
        },
        {
            "positions": [
                0.17387369636038746,
                -1.776752829328542,
                2.166712872989221,
                -0.9414656186943473,
                1.0990943871998315,
                -3.1096822351655464
            ]
        },
        {
            "positions": [
                0.301807959138421,
                -1.8775276770092648,
                2.1027474247802758,
                -0.919617056354505,
                1.0656123156416988,
                -3.1135972835534322
            ]
        },
        {
            "positions": [
                0.4356981575820988,
                -1.943840722692479,
                2.0735721786121766,
                -0.8757201837623388,
                0.9661624609191373,
                -3.117450947526149
            ]
        },
        {
            "positions": [
                0.5695883560257766,
                -2.010153768375693,
                2.044396932444078,
                -0.8318233111701728,
                0.8667126061965758,
                -3.121304611498866
            ]
        },
        {
            "positions": [
                0.7034785544694544,
                -2.0764668140589073,
                2.0152216862759786,
                -0.7879264385780067,
                0.7672627514740142,
                -3.1251582754715828
            ]
        },
        {
            "positions": [
                0.7773440141614985,
                -2.083579007071271,
                2.045477538545175,
                -0.7402882445151772,
                0.6818149174316603,
                -3.123475867235297
            ]
        },
        {
            "positions": [
                0.8512094738535425,
                -2.090691200083635,
                2.0757333908143716,
                -0.6926500504523476,
                0.5963670833893064,
                -3.1217934589990106
            ]
        },
        {
            "positions": [
                0.8968783297203616,
                -2.058318309709748,
                2.158953696035615,
                -0.6308684901430165,
                0.5120681028344207,
                -3.1147425057755007
            ]
        },
        {
            "positions": [
                0.9425471855871806,
                -2.0259454193358613,
                2.242174001256858,
                -0.5690869298336853,
                0.42776912227953506,
                -3.1076915525519913
            ]
        },
        {
            "positions": [
                0.9882160414539998,
                -1.9935725289619741,
                2.3253943064781013,
                -0.5073053695243541,
                0.34347014172464935,
                -3.1006405993284814
            ]
        },
        {
            "positions": [
                0.9579778742749132,
                -1.9400496568408259,
                2.3563514442688116,
                -0.46883506010357356,
                0.44783531570339147,
                -3.147107079756666
            ]
        },
        {
            "positions": [
                0.9277397070958268,
                -1.8865267847196778,
                2.3873085820595215,
                -0.430364750682793,
                0.5522004896821336,
                -3.1935735601848507
            ]
        },
        {
            "positions": [
                0.8975015399167402,
                -1.8330039125985296,
                2.4182657198502318,
                -0.3918944412620124,
                0.6565656636608758,
                -3.240040040613035
            ]
        },
        {
            "positions": [
                0.7550327930886327,
                -1.8576017966052418,
                2.419707966859103,
                -0.4503695253722619,
                0.750986984005548,
                -3.2708385606114034
            ]
        },
        {
            "positions": [
                0.6125640462605251,
                -1.882199680611954,
                2.4211502138679744,
                -0.5088446094825114,
                0.8454083043502201,
                -3.3016370806097717
            ]
        },
        {
            "positions": [
                0.4700952994324175,
                -1.9067975646186663,
                2.422592460876846,
                -0.5673196935927609,
                0.9398296246948923,
                -3.3324356006081404
            ]
        },
        {
            "positions": [
                0.3276265526043099,
                -1.9313954486253786,
                2.424034707885717,
                -0.6257947777030104,
                1.0342509450395645,
                -3.3632341206065086
            ]
        },
        {
            "positions": [
                0.4542366548390666,
                -1.9247890256515114,
                2.4151398865637552,
                -0.5775822808041212,
                0.9284398392355597,
                -3.2821098678972382
            ]
        },
        {
            "positions": [
                0.5808467570738234,
                -1.9181826026776443,
                2.406245065241793,
                -0.529369783905232,
                0.8226287334315551,
                -3.2009856151879683
            ]
        },
        {
            "positions": [
                0.7074568593085802,
                -1.9115761797037771,
                2.3973502439198313,
                -0.48115728700634286,
                0.7168176276275503,
                -3.119861362478698
            ]
        }
    ]
}