{
    "goal": {
        "global_pose": {
            "orientation": {
                "w": 0.7031023480610252,
                "x": -0.7110244013736278,
                "y": 0.0077485991402295624,
                "z": 0.005598929693374583
            },
            "position": {
                "x": -0.8841497679147869,
                "y": 0.44412534475326537,
                "z": 0.3711530566215515
            }
        },
        "name": "move_to_auspresseinheit_D"
    },
    "id": "LazyPRM_move_to_auspresseinheit_D_63",
    "joint_names": [
        "shoulder_pan_joint",
        "shoulder_lift_joint",
        "elbow_joint",
        "wrist_1_joint",
        "wrist_2_joint",
        "wrist_3_joint"
    ],
    "metrics": {
        "cart_traj_len": 0.3426828699031698,
        "distance_elbow_joint": 0.62876171565253,
        "distance_shoulder_lift_joint": 0.11575027082318456,
        "distance_shoulder_pan_joint": 0.13393658896514005,
        "distance_wrist_1_joint": 0.5062353572005884,
        "distance_wrist_2_joint": 1.4365380759190791,
        "distance_wrist_3_joint": 0.023846552304326085,
        "smoothness": 1.9737298371844314e-16,
        "time": 0.012297242000000002,
        "traj_len": 1.6867331030322634,
        "weighted_distance": 2.198985015545392
    },
    "planner": "LazyPRM",
    "start": {
        "state": {
            "elbow_joint": -1.8275523626775212,
            "shoulder_lift_joint": -2.126789852344167,
            "shoulder_pan_joint": -0.03513704404078235,
            "wrist_1_joint": -2.347782403156801,
            "wrist_2_joint": -1.6058999987535132,
            "wrist_3_joint": -3.0880379163319196
        }
    },
    "waypoints": [
        {
            "positions": [
                -0.03513704404078235,
                -2.126789852344167,
                -1.8275523626775212,
                -2.347782403156801,
                -1.6058999987535132,
                -3.0880379163319196
            ]
        },
        {
            "positions": [
                -0.051879117661424855,
                -2.141258636197065,
                -1.748957148220955,
                -2.4110618228068743,
                -1.4263327392636282,
                -3.0910187353699605
            ]
        },
        {
            "positions": [
                -0.06862119128206737,
                -2.155727420049963,
                -1.6703619337643887,
                -2.4743412424569478,
                -1.2467654797737433,
                -3.093999554408001
            ]
        },
        {
            "positions": [
                -0.08536326490270987,
                -2.170196203902861,
                -1.5917667193078224,
                -2.5376206621070216,
                -1.0671982202838586,
                -3.096980373446042
            ]
        },
        {
            "positions": [
                -0.10210533852335238,
                -2.184664987755759,
                -1.5131715048512562,
                -2.600900081757095,
                -0.8876309607939736,
                -3.0999611924840824
            ]
        },
        {
            "positions": [
                -0.11884741214399488,
                -2.199133771608657,
                -1.43457629039469,
                -2.6641795014071685,
                -0.7080637013040887,
                -3.1029420115221233
            ]
        },
        {
            "positions": [
                -0.1355894857646374,
                -2.2136025554615553,
                -1.3559810759381237,
                -2.7274589210572424,
                -0.528496441814204,
                -3.1059228305601643
            ]
        },
        {
            "positions": [
                -0.1523315593852799,
                -2.2280713393144533,
                -1.2773858614815574,
                -2.790738340707316,
                -0.348929182324319,
                -3.1089036495982048
            ]
        },
        {
            "positions": [
                -0.1690736330059224,
                -2.2425401231673514,
                -1.1987906470249912,
                -2.8540177603573893,
                -0.16936192283443416,
                -3.1118844686362457
            ]
        }
    ]
}