{
    "goal": {
        "global_pose": {
            "orientation": {
                "w": 0.7047431493862688,
                "x": -0.7094548369677653,
                "y": 0.0024358444001904,
                "z": -0.0022348060817251984
            },
            "position": {
                "x": -0.39052492380142206,
                "y": 0.3671506643295288,
                "z": 0.19426114857196808
            }
        },
        "name": "move_to_magneteinheit_D"
    },
    "id": "LBKPIECE_move_to_magneteinheit_D_129",
    "joint_names": [
        "shoulder_pan_joint",
        "shoulder_lift_joint",
        "elbow_joint",
        "wrist_1_joint",
        "wrist_2_joint",
        "wrist_3_joint"
    ],
    "metrics": {
        "cart_traj_len": 5.972168944705408,
        "distance_elbow_joint": 3.132711588213553,
        "distance_shoulder_lift_joint": 1.6922819353899612,
        "distance_shoulder_pan_joint": 6.581251615953227,
        "distance_wrist_1_joint": 1.7165896397906544,
        "distance_wrist_2_joint": 0.853034651382018,
        "distance_wrist_3_joint": 5.612020327042306,
        "smoothness": 0.4368034239652755,
        "time": 0.57660729,
        "traj_len": 4.425820800458569,
        "weighted_distance": 5.777677275776918
    },
    "planner": "LBKPIECE",
    "start": {
        "state": {
            "elbow_joint": 0.749534889911806,
            "shoulder_lift_joint": -0.6476975780787326,
            "shoulder_pan_joint": -2.711696901376241,
            "wrist_1_joint": -0.07506478083263063,
            "wrist_2_joint": 0.43296659715538205,
            "wrist_3_joint": -3.14703540197715
        }
    },
    "waypoints": [
        {
            "positions": [
                -2.711696901376241,
                -0.6476975780787326,
                0.749534889911806,
                -0.07506478083263063,
                0.43296659715538205,
                -3.14703540197715
            ]
        },
        {
            "positions": [
                -2.7291081131477872,
                -0.6398684855247447,
                0.6276837006547092,
                -0.09419553682084542,
                0.3400441534284896,
                -3.021248807759955
            ]
        },
        {
            "positions": [
                -2.746519324919333,
                -0.6320393929707568,
                0.5058325113976125,
                -0.11332629280906022,
                0.24712170970159708,
                -2.8954622135427597
            ]
        },
        {
            "positions": [
                -2.7639305366908786,
                -0.624210300416769,
                0.3839813221405157,
                -0.13245704879727502,
                0.15419926597470462,
                -2.7696756193255645
            ]
        },
        {
            "positions": [
                -2.7813417484624248,
                -0.616381207862781,
                0.262130132883419,
                -0.1515878047854898,
                0.061276822247812085,
                -2.6438890251083693
            ]
        },
        {
            "positions": [
                -2.629567397208343,
                -0.6450688770922137,
                0.21752275924330922,
                -0.12906374378837931,
                0.07125816835637686,
                -2.5141703292893594
            ]
        },
        {
            "positions": [
                -2.477793045954261,
                -0.6737565463216465,
                0.17291538560319944,
                -0.10653968279126882,
                0.08123951446494163,
                -2.3844516334703494
            ]
        },
        {
            "positions": [
                -2.3260186947001786,
                -0.7024442155510792,
                0.12830801196308964,
                -0.08401562179415833,
                0.0912208605735064,
                -2.2547329376513394
            ]
        },
        {
            "positions": [
                -2.1742443434460967,
                -0.7311318847805119,
                0.08370063832297986,
                -0.06149156079704786,
                0.10120220668207117,
                -2.12501424183233
            ]
        },
        {
            "positions": [
                -2.022469992192015,
                -0.7598195540099446,
                0.03909326468287008,
                -0.03896749979993737,
                0.11118355279063594,
                -1.99529554601332
            ]
        },
        {
            "positions": [
                -1.870695640937933,
                -0.7885072232393773,
                -0.0055141089572397495,
                -0.016443438802826865,
                0.12116489889920071,
                -1.86557685019431
            ]
        },
        {
            "positions": [
                -1.7189212896838508,
                -0.81719489246881,
                -0.0501214825973495,
                0.006080622194283625,
                0.13114624500776548,
                -1.7358581543753
            ]
        },
        {
            "positions": [
                -1.567146938429769,
                -0.8458825616982427,
                -0.0947288562374593,
                0.028604683191394087,
                0.14112759111633025,
                -1.6061394585562903
            ]
        },
        {
            "positions": [
                -1.415372587175687,
                -0.8745702309276755,
                -0.13933622987756905,
                0.05112874418850458,
                0.15110893722489502,
                -1.4764207627372805
            ]
        },
        {
            "positions": [
                -1.263598235921605,
                -0.9032579001571082,
                -0.18394360351767886,
                0.07365280518561507,
                0.1610902833334598,
                -1.3467020669182705
            ]
        },
        {
            "positions": [
                -1.111823884667523,
                -0.9319455693865408,
                -0.2285509771577886,
                0.09617686618272556,
                0.17107162944202453,
                -1.2169833710992608
            ]
        },
        {
            "positions": [
                -0.9600495334134409,
                -0.9606332386159736,
                -0.2731583507978985,
                0.11870092717983607,
                0.18105297555058933,
                -1.0872646752802506
            ]
        },
        {
            "positions": [
                -0.8082751821593588,
                -0.9893209078454064,
                -0.3177657244380082,
                0.14122498817694654,
                0.1910343216591541,
                -0.9575459794612409
            ]
        },
        {
            "positions": [
                -0.6565008309052769,
                -1.018008577074839,
                -0.362373098078118,
                0.16374904917405705,
                0.20101566776771887,
                -0.8278272836422309
            ]
        },
        {
            "positions": [
                -0.504726479651195,
                -1.0466962463042717,
                -0.4069804717182278,
                0.18627311017116752,
                0.21099701387628364,
                -0.6981085878232212
            ]
        },
        {
            "positions": [
                -0.3529521283971131,
                -1.0753839155337044,
                -0.4515878453583376,
                0.20879717116827798,
                0.2209783599848484,
                -0.5683898920042112
            ]
        },
        {
            "positions": [
                -0.2011777771430312,
                -1.104071584763137,
                -0.49619521899844743,
                0.2313212321653885,
                0.23095970609341318,
                -0.4386711961852017
            ]
        },
        {
            "positions": [
                -0.049403425888949304,
                -1.1327592539925697,
                -0.5408025926385571,
                0.25384529316249893,
                0.24094105220197795,
                -0.3089525003661917
            ]
        },
        {
            "positions": [
                0.10237092536513259,
                -1.1614469232220026,
                -0.5854099662786669,
                0.2763693541596095,
                0.25092239831054275,
                -0.17923380454718174
            ]
        },
        {
            "positions": [
                0.25414527661921493,
                -1.1901345924514353,
                -0.6300173399187767,
                0.29889341515671997,
                0.26090374441910746,
                -0.049515108728171775
            ]
        },
        {
            "positions": [
                0.40591962787329683,
                -1.218822261680868,
                -0.6746247135588865,
                0.32141747615383043,
                0.2708850905276723,
                0.08020358709083775
            ]
        },
        {
            "positions": [
                0.5576939791273787,
                -1.2475099309103006,
                -0.7192320871989962,
                0.3439415371509409,
                0.280866436636237,
                0.2099222829098477
            ]
        },
        {
            "positions": [
                0.7094683303814611,
                -1.2761976001397335,
                -0.7638394608391063,
                0.36646559814805146,
                0.29084778274480183,
                0.3396409787288581
            ]
        },
        {
            "positions": [
                0.861242681635543,
                -1.3048852693691662,
                -0.8084468344792161,
                0.3889896591451619,
                0.30082912885336655,
                0.4693596745478681
            ]
        },
        {
            "positions": [
                1.0130170328896249,
                -1.3335729385985988,
                -0.8530542081193259,
                0.4115137201422724,
                0.31081047496193137,
                0.5990783703668776
            ]
        },
        {
            "positions": [
                1.1647913841437072,
                -1.3622606078280315,
                -0.8976615817594354,
                0.43403778113938285,
                0.3207918210704961,
                0.7287970661858876
            ]
        },
        {
            "positions": [
                1.3165657353977887,
                -1.3909482770574644,
                -0.9422689553995452,
                0.4565618421364933,
                0.3307731671790609,
                0.8585157620048975
            ]
        },
        {
            "positions": [
                1.468340086651871,
                -1.4196359462868968,
                -0.986876329039655,
                0.4790859031336039,
                0.3407545132876256,
                0.9882344578239075
            ]
        },
        {
            "positions": [
                1.6201144379059524,
                -1.4483236155163297,
                -1.0314837026797647,
                0.5016099641307143,
                0.35073585939619045,
                1.117953153642917
            ]
        },
        {
            "positions": [
                1.7718887891600343,
                -1.4770112847457624,
                -1.0760910763198748,
                0.5241340251278248,
                0.36071720550475517,
                1.247671849461927
            ]
        },
        {
            "positions": [
                1.6566901873221176,
                -1.5240898428805287,
                -1.1529784658482203,
                0.5808601890057354,
                0.35001694119784316,
                1.176065197955855
            ]
        },
        {
            "positions": [
                1.5414915854842008,
                -1.571168401015295,
                -1.2298658553765656,
                0.6375863528836461,
                0.3393166768909311,
                1.104458546449783
            ]
        },
        {
            "positions": [
                1.426292983646284,
                -1.6182469591500614,
                -1.306753244904911,
                0.6943125167615567,
                0.3286164125840191,
                1.0328518949437107
            ]
        },
        {
            "positions": [
                1.3110943818083673,
                -1.6653255172848278,
                -1.3836406344332566,
                0.7510386806394673,
                0.31791614827710707,
                0.9612452434376386
            ]
        },
        {
            "positions": [
                1.1958957799704506,
                -1.7124040754195942,
                -1.460528023961602,
                0.807764844517378,
                0.307215883970195,
                0.8896385919315666
            ]
        },
        {
            "positions": [
                1.0806971781325339,
                -1.7594826335543607,
                -1.5374154134899474,
                0.8644910083952886,
                0.296515619663283,
                0.8180319404254945
            ]
        },
        {
            "positions": [
                0.9654985762946172,
                -1.8065611916891269,
                -1.6143028030182929,
                0.9212171722731992,
                0.2858153553563709,
                0.7464252889194225
            ]
        },
        {
            "positions": [
                0.8502999744567005,
                -1.8536397498238935,
                -1.6911901925466384,
                0.9779433361511098,
                0.2751150910494589,
                0.6748186374133504
            ]
        },
        {
            "positions": [
                0.7351013726187836,
                -1.9007183079586598,
                -1.7680775820749837,
                1.0346695000290205,
                0.2644148267425469,
                0.6032119859072783
            ]
        },
        {
            "positions": [
                0.6199027707808669,
                -1.9477968660934262,
                -1.8449649716033292,
                1.091395663906931,
                0.25371456243563484,
                0.5316053344012062
            ]
        },
        {
            "positions": [
                0.5047041689429501,
                -1.9948754242281925,
                -1.9218523611316747,
                1.1481218277848417,
                0.24301429812872283,
                0.4599986828951341
            ]
        },
        {
            "positions": [
                0.38950556710503337,
                -2.041953982362959,
                -1.99873975066002,
                1.2048479916627524,
                0.2323140338218108,
                0.388392031389062
            ]
        },
        {
            "positions": [
                0.27430696526711684,
                -2.0890325404977252,
                -2.0756271401883657,
                1.261574155540663,
                0.22161376951489878,
                0.31678537988299005
            ]
        },
        {
            "positions": [
                0.1591083634292001,
                -2.1361110986324916,
                -2.152514529716711,
                1.3183003194185736,
                0.21091350520798674,
                0.245178728376918
            ]
        },
        {
            "positions": [
                0.04390976159128335,
                -2.183189656767258,
                -2.2294019192450563,
                1.3750264832964842,
                0.20021324090107473,
                0.17357207687084575
            ]
        },
        {
            "positions": [
                -0.0712888402466334,
                -2.2302682149020243,
                -2.306289308773402,
                1.4317526471743949,
                0.1895129765941627,
                0.10196542536477371
            ]
        },
        {
            "positions": [
                -0.18648744208455018,
                -2.2773467730367907,
                -2.3831766983017473,
                1.4884788110523055,
                0.17881271228725065,
                0.030358773858701664
            ]
        }
    ]
}