{
    "goal": {
        "global_pose": {
            "orientation": {
                "w": 0.7031023502349854,
                "x": -0.7110244035720825,
                "y": 0.007748599164187908,
                "z": 0.005598929710686207
            },
            "position": {
                "x": 0.11585023208521307,
                "y": 0.44412534475326537,
                "z": 0.3711530566215515
            }
        },
        "name": "move_to_auspresseinheit_A"
    },
    "id": "LBKPIECE_move_to_auspresseinheit_A_65",
    "joint_names": [
        "shoulder_pan_joint",
        "shoulder_lift_joint",
        "elbow_joint",
        "wrist_1_joint",
        "wrist_2_joint",
        "wrist_3_joint"
    ],
    "metrics": {
        "cart_traj_len": 0.9833959880555717,
        "distance_elbow_joint": 0.837447346413541,
        "distance_shoulder_lift_joint": 0.6829474363308969,
        "distance_shoulder_pan_joint": 1.0404603393038143,
        "distance_wrist_1_joint": 1.4877072391126285,
        "distance_wrist_2_joint": 1.429495328871205,
        "distance_wrist_3_joint": 1.838801093087643,
        "smoothness": 1.2643124940416008,
        "time": 0.728840405,
        "traj_len": 2.704969275818069,
        "weighted_distance": 3.729834250644236
    },
    "planner": "LBKPIECE",
    "start": {
        "state": {
            "elbow_joint": 2.4225746658250005,
            "shoulder_lift_joint": -1.3736534386056498,
            "shoulder_pan_joint": -0.3378633547517467,
            "wrist_1_joint": -1.0288598680537169,
            "wrist_2_joint": 1.233022673432363,
            "wrist_3_joint": -3.0940220416140027
        }
    },
    "waypoints": [
        {
            "positions": [
                -0.3378633547517467,
                -1.3736534386056498,
                2.4225746658250005,
                -1.0288598680537169,
                1.233022673432363,
                -3.0940220416140027
            ]
        },
        {
            "positions": [
                -0.2917398791379827,
                -1.4168449100086773,
                2.383320142405678,
                -0.9418971692626823,
                1.14369500951865,
                -3.0134909312033344
            ]
        },
        {
            "positions": [
                -0.24561640352421865,
                -1.4600363814117048,
                2.344065618986355,
                -0.8549344704716477,
                1.054367345604937,
                -2.9329598207926666
            ]
        },
        {
            "positions": [
                -0.19949292791045464,
                -1.503227852814732,
                2.3048110955670325,
                -0.7679717716806133,
                0.965039681691224,
                -2.8524287103819983
            ]
        },
        {
            "positions": [
                -0.15336945229669058,
                -1.5464193242177595,
                2.26555657214771,
                -0.6810090728895787,
                0.875712017777511,
                -2.77189759997133
            ]
        },
        {
            "positions": [
                -0.10724597668292657,
                -1.589610795620787,
                2.226302048728387,
                -0.5940463740985442,
                0.786384353863798,
                -2.6913664895606617
            ]
        },
        {
            "positions": [
                -0.06112250106916256,
                -1.6328022670238145,
                2.1870475253090644,
                -0.5070836753075096,
                0.697056689950085,
                -2.610835379149994
            ]
        },
        {
            "positions": [
                -0.014999025455398496,
                -1.675993738426842,
                2.1477930018897413,
                -0.42012097651647506,
                0.6077290260363719,
                -2.5303042687393256
            ]
        },
        {
            "positions": [
                0.03112445015836557,
                -1.7191852098298694,
                2.1085384784704186,
                -0.3331582777254405,
                0.5184013621226589,
                -2.4497731583286573
            ]
        },
        {
            "positions": [
                0.07724792577212963,
                -1.762376681232897,
                2.069283955051096,
                -0.2461955789344059,
                0.4290736982089458,
                -2.369242047917989
            ]
        },
        {
            "positions": [
                0.12337140138589359,
                -1.8055681526359242,
                2.0300294316317733,
                -0.15923288014337145,
                0.33974603429523287,
                -2.288710937507321
            ]
        },
        {
            "positions": [
                0.16949487699965768,
                -1.8487596240389517,
                1.9907749082124506,
                -0.07227018135233687,
                0.2504183703815198,
                -2.208179827096653
            ]
        },
        {
            "positions": [
                0.25424172407727896,
                -1.8819084273635671,
                2.0664202212575566,
                -0.09995168618807217,
                0.27555936028750005,
                -2.3205130913019945
            ]
        },
        {
            "positions": [
                0.3389885711549002,
                -1.9150572306881828,
                2.1420655343026627,
                -0.12763319102380746,
                0.30070035019348035,
                -2.432846355507336
            ]
        },
        {
            "positions": [
                0.4237354182325214,
                -1.9482060340127982,
                2.2177108473477687,
                -0.15531469585954277,
                0.3258413400994606,
                -2.5451796197126777
            ]
        },
        {
            "positions": [
                0.5253607442242464,
                -1.9660907879968725,
                2.255333797919228,
                -0.12413518108531035,
                0.3307752687596195,
                -2.5381121222228176
            ]
        },
        {
            "positions": [
                0.6269860702159713,
                -1.9839755419809468,
                2.2929567484906874,
                -0.09295566631107793,
                0.33570919741977845,
                -2.531044624732958
            ]
        },
        {
            "positions": [
                0.6421082530831906,
                -1.9694504753898268,
                2.3136498981952385,
                -0.17009846798219352,
                0.40802923717619904,
                -2.6514094429278674
            ]
        },
        {
            "positions": [
                0.6572304359504099,
                -1.954925408798707,
                2.334343047899789,
                -0.24724126965330911,
                0.48034927693261964,
                -2.7717742611227774
            ]
        },
        {
            "positions": [
                0.6723526188176292,
                -1.9404003422075868,
                2.35503619760434,
                -0.3243840713244247,
                0.5526693166890403,
                -2.892139079317687
            ]
        },
        {
            "positions": [
                0.6874748016848484,
                -1.925875275616467,
                2.3757293473088907,
                -0.4015268729955403,
                0.6249893564454609,
                -3.012503897512597
            ]
        },
        {
            "positions": [
                0.7025969845520678,
                -1.911350209025347,
                2.396422497013442,
                -0.4786696746666559,
                0.6973093962018815,
                -3.1328687157075064
            ]
        }
    ]
}