{
    "goal": {
        "global_pose": {
            "orientation": {
                "w": 0.005598929693374612,
                "x": 0.007748599140229565,
                "y": 0.7110244013736278,
                "z": -0.7031023480610252
            },
            "position": {
                "x": -0.8858502320852131,
                "y": -0.7141253447532654,
                "z": 0.3711530566215515
            }
        },
        "name": "move_to_auspresseinheit_C"
    },
    "id": "LBKPIECE_move_to_auspresseinheit_C_66",
    "joint_names": [
        "shoulder_pan_joint",
        "shoulder_lift_joint",
        "elbow_joint",
        "wrist_1_joint",
        "wrist_2_joint",
        "wrist_3_joint"
    ],
    "metrics": {
        "cart_traj_len": 0.4938454133027332,
        "distance_elbow_joint": 1.0049906383855396,
        "distance_shoulder_lift_joint": 0.32736742169846433,
        "distance_shoulder_pan_joint": 0.25621644585167047,
        "distance_wrist_1_joint": 0.680920803438096,
        "distance_wrist_2_joint": 1.319575928826753,
        "distance_wrist_3_joint": 0.05594654211037531,
        "smoothness": 3.2297397080004555e-16,
        "time": 0.647751958,
        "traj_len": 1.9091929657085212,
        "weighted_distance": 2.3994598552166897
    },
    "planner": "LBKPIECE",
    "start": {
        "state": {
            "elbow_joint": 1.7527959577737207,
            "shoulder_lift_joint": -0.9740617694225068,
            "shoulder_pan_joint": -2.967991417825858,
            "wrist_1_joint": -0.759517768980727,
            "wrist_2_joint": 1.7443932448377408,
            "wrist_3_joint": -3.0840537646736568
        }
    },
    "waypoints": [
        {
            "positions": [
                -2.967991417825858,
                -0.9740617694225068,
                1.7527959577737207,
                -0.759517768980727,
                1.7443932448377408,
                -3.0840537646736568
            ]
        },
        {
            "positions": [
                -2.942369773240691,
                -0.9413250272526603,
                1.6522968939351668,
                -0.6914256886369173,
                1.6124356519550656,
                -3.0896484188846944
            ]
        },
        {
            "positions": [
                -2.9167481286555237,
                -0.9085882850828139,
                1.5517978300966127,
                -0.6233336082931078,
                1.4804780590723903,
                -3.0952430730957317
            ]
        },
        {
            "positions": [
                -2.891126484070357,
                -0.8758515429129675,
                1.4512987662580588,
                -0.5552415279492982,
                1.348520466189715,
                -3.1008377273067693
            ]
        },
        {
            "positions": [
                -2.86550483948519,
                -0.8431148007431211,
                1.3507997024195049,
                -0.48714944760548856,
                1.2165628733070397,
                -3.106432381517807
            ]
        },
        {
            "positions": [
                -2.8398831949000227,
                -0.8103780585732746,
                1.250300638580951,
                -0.41905736726167897,
                1.0846052804243644,
                -3.112027035728844
            ]
        },
        {
            "positions": [
                -2.8142615503148556,
                -0.7776413164034282,
                1.1498015747423969,
                -0.3509652869178694,
                0.952647687541689,
                -3.117621689939882
            ]
        },
        {
            "positions": [
                -2.7886399057296885,
                -0.7449045742335818,
                1.049302510903843,
                -0.2828732065740598,
                0.8206900946590138,
                -3.1232163441509195
            ]
        },
        {
            "positions": [
                -2.7630182611445218,
                -0.7121678320637352,
                0.948803447065289,
                -0.21478112623025014,
                0.6887325017763384,
                -3.128810998361957
            ]
        },
        {
            "positions": [
                -2.7373966165593546,
                -0.6794310898938889,
                0.848304383226735,
                -0.1466890458864405,
                0.5567749088936631,
                -3.1344056525729944
            ]
        },
        {
            "positions": [
                -2.7117749719741875,
                -0.6466943477240424,
                0.7478053193881811,
                -0.078596965542631,
                0.4248173160109879,
                -3.140000306784032
            ]
        }
    ]
}