{
    "goal": {
        "global_pose": {
            "orientation": {
                "w": -0.4816463035849501,
                "x": 0.5182115481033762,
                "y": 0.4908360881923453,
                "z": -0.5084816262002911
            },
            "position": {
                "x": -0.8240239810943604,
                "y": 0.19912469901144506,
                "z": 0.16403168439865112
            }
        },
        "name": "move_to_storage_D"
    },
    "id": "LBKPIECE_move_to_storage_D_139",
    "joint_names": [
        "shoulder_pan_joint",
        "shoulder_lift_joint",
        "elbow_joint",
        "wrist_1_joint",
        "wrist_2_joint",
        "wrist_3_joint"
    ],
    "metrics": {
        "cart_traj_len": 4.058115753720583,
        "distance_elbow_joint": 4.212546796790073,
        "distance_shoulder_lift_joint": 1.315056745546184,
        "distance_shoulder_pan_joint": 2.81243214160808,
        "distance_wrist_1_joint": 2.282511528983527,
        "distance_wrist_2_joint": 1.6967914644820137,
        "distance_wrist_3_joint": 4.308201518136462,
        "smoothness": 0.2765725360980553,
        "time": 0.357828339,
        "traj_len": 4.077688094441057,
        "weighted_distance": 5.4058529600133225
    },
    "planner": "LBKPIECE",
    "start": {
        "state": {
            "elbow_joint": -2.384821988534728,
            "shoulder_lift_joint": -2.2788054721415256,
            "shoulder_pan_joint": -0.1854694642142757,
            "wrist_1_joint": 1.4845938289331202,
            "wrist_2_joint": 0.17898776772866878,
            "wrist_3_joint": 0.037105688729662994
        }
    },
    "waypoints": [
        {
            "positions": [
                -0.1854694642142757,
                -2.2788054721415256,
                -2.384821988534728,
                1.4845938289331202,
                0.17898776772866878,
                0.037105688729662994
            ]
        },
        {
            "positions": [
                -0.049942309086721065,
                -2.2839514936362066,
                -2.3749526185428054,
                1.4554033782891642,
                0.09610015765795688,
                0.1541741221514448
            ]
        },
        {
            "positions": [
                0.08558484604083358,
                -2.2890975151308877,
                -2.365083248550883,
                1.4262129276452082,
                0.013212547587244966,
                0.27124255557322663
            ]
        },
        {
            "positions": [
                0.22111200116838822,
                -2.2942435366255687,
                -2.3552138785589607,
                1.397022477001252,
                -0.06967506248346692,
                0.3883109889950084
            ]
        },
        {
            "positions": [
                0.3566391562959429,
                -2.2993895581202497,
                -2.345344508567038,
                1.367832026357296,
                -0.15256267255417885,
                0.5053794224167902
            ]
        },
        {
            "positions": [
                0.49216631142349754,
                -2.3045355796149307,
                -2.3354751385751156,
                1.33864157571334,
                -0.2354502826248907,
                0.622447855838572
            ]
        },
        {
            "positions": [
                0.5483451631595582,
                -2.2706059312445945,
                -2.225917245237472,
                1.282416331614294,
                -0.20170414014782612,
                0.5244778729167943
            ]
        },
        {
            "positions": [
                0.6045240148956189,
                -2.2366762828742583,
                -2.116359351899828,
                1.2261910875152482,
                -0.16795799767076156,
                0.42650788999501654
            ]
        },
        {
            "positions": [
                0.6607028666316797,
                -2.2027466345039217,
                -2.0068014585621845,
                1.1699658434162021,
                -0.13421185519369697,
                0.3285379070732388
            ]
        },
        {
            "positions": [
                0.7168817183677403,
                -2.1688169861335855,
                -1.8972435652245407,
                1.1137405993171563,
                -0.1004657127166324,
                0.2305679241514611
            ]
        },
        {
            "positions": [
                0.7730605701038009,
                -2.1348873377632493,
                -1.787685671886897,
                1.0575153552181102,
                -0.06671957023956782,
                0.13259794122968338
            ]
        },
        {
            "positions": [
                0.8292394218398617,
                -2.100957689392913,
                -1.6781277785492534,
                1.0012901111190642,
                -0.03297342776250323,
                0.03462795830790566
            ]
        },
        {
            "positions": [
                0.8854182735759224,
                -2.0670280410225765,
                -1.5685698852116097,
                0.9450648670200184,
                0.0007727147145613344,
                -0.06334202461387206
            ]
        },
        {
            "positions": [
                0.941597125311983,
                -2.0330983926522403,
                -1.459011991873966,
                0.8888396229209723,
                0.034518857191625896,
                -0.16131200753564978
            ]
        },
        {
            "positions": [
                0.9977759770480437,
                -1.9991687442819042,
                -1.3494540985363224,
                0.8326143788219263,
                0.06826499966869048,
                -0.2592819904574275
            ]
        },
        {
            "positions": [
                1.0539548287841045,
                -1.965239095911568,
                -1.2398962051986786,
                0.7763891347228804,
                0.10201114214575507,
                -0.3572519733792052
            ]
        },
        {
            "positions": [
                1.1101336805201651,
                -1.9313094475412316,
                -1.1303383118610348,
                0.7201638906238343,
                0.13575728462281972,
                -0.45522195630098294
            ]
        },
        {
            "positions": [
                1.1663125322562258,
                -1.8973797991708954,
                -1.020780418523391,
                0.6639386465247884,
                0.16950342709988425,
                -0.5531919392227607
            ]
        },
        {
            "positions": [
                1.2224913839922866,
                -1.863450150800559,
                -0.9112225251857473,
                0.6077134024257423,
                0.20324956957694884,
                -0.6511619221445384
            ]
        },
        {
            "positions": [
                1.278670235728347,
                -1.8295205024302228,
                -0.8016646318481038,
                0.5514881583266965,
                0.23699571205401337,
                -0.7491319050663161
            ]
        },
        {
            "positions": [
                1.334849087464408,
                -1.7955908540598866,
                -0.69210673851046,
                0.49526291422765045,
                0.27074185453107796,
                -0.8471018879880938
            ]
        },
        {
            "positions": [
                1.3910279392004685,
                -1.7616612056895502,
                -0.5825488451728165,
                0.4390376701286045,
                0.3044879970081425,
                -0.9450718709098715
            ]
        },
        {
            "positions": [
                1.4472067909365292,
                -1.7277315573192138,
                -0.4729909518351725,
                0.38281242602955845,
                0.33823413948520714,
                -1.0430418538316493
            ]
        },
        {
            "positions": [
                1.5033856426725898,
                -1.6938019089488776,
                -0.36343305849752894,
                0.3265871819305126,
                0.3719802819622717,
                -1.141011836753427
            ]
        },
        {
            "positions": [
                1.5595644944086506,
                -1.6598722605785414,
                -0.2538751651598852,
                0.27036193783146656,
                0.4057264244393363,
                -1.2389818196752047
            ]
        },
        {
            "positions": [
                1.6157433461447113,
                -1.625942612208205,
                -0.14431727182224163,
                0.21413669373242072,
                0.43947256691640085,
                -1.3369518025969824
            ]
        },
        {
            "positions": [
                1.6719221978807721,
                -1.5920129638378686,
                -0.03475937848459765,
                0.15791144963337445,
                0.4732187093934655,
                -1.4349217855187602
            ]
        },
        {
            "positions": [
                1.7281010496168328,
                -1.5580833154675324,
                0.0747985148530459,
                0.10168620553432861,
                0.5069648518705301,
                -1.5328917684405379
            ]
        },
        {
            "positions": [
                1.7842799013528934,
                -1.5241536670971962,
                0.18435640819068944,
                0.045460961435282776,
                0.5407109943475947,
                -1.6308617513623156
            ]
        },
        {
            "positions": [
                1.840458753088954,
                -1.49022401872686,
                0.2939143015283334,
                -0.01076428266376328,
                0.5744571368246592,
                -1.7288317342840933
            ]
        },
        {
            "positions": [
                1.8966376048250149,
                -1.4562943703565234,
                0.4034721948659774,
                -0.06698952676280934,
                0.6082032793017238,
                -1.826801717205871
            ]
        },
        {
            "positions": [
                1.9528164565610755,
                -1.4223647219861872,
                0.513030088203621,
                -0.1232147708618554,
                0.6419494217787884,
                -1.9247717001276488
            ]
        },
        {
            "positions": [
                2.008995308297136,
                -1.388435073615851,
                0.6225879815412645,
                -0.17944001496090123,
                0.6756955642558529,
                -2.0227416830494267
            ]
        },
        {
            "positions": [
                2.0651741600331968,
                -1.3545054252455149,
                0.732145874878908,
                -0.23566525905994706,
                0.7094417067329175,
                -2.1207116659712044
            ]
        },
        {
            "positions": [
                2.1213530117692576,
                -1.3205757768751785,
                0.841703768216552,
                -0.29189050315899334,
                0.7431878492099822,
                -2.218681648892982
            ]
        },
        {
            "positions": [
                2.177531863505318,
                -1.2866461285048423,
                0.9512616615541956,
                -0.3481157472580392,
                0.7769339916870466,
                -2.31665163181476
            ]
        },
        {
            "positions": [
                2.233710715241379,
                -1.2527164801345059,
                1.060819554891839,
                -0.404340991357085,
                0.8106801341641112,
                -2.4146216147365376
            ]
        },
        {
            "positions": [
                2.2898895669774397,
                -1.2187868317641697,
                1.1703774482294826,
                -0.46056623545613107,
                0.8444262766411756,
                -2.5125915976583153
            ]
        },
        {
            "positions": [
                2.3460684187135,
                -1.1848571833938333,
                1.2799353415671266,
                -0.5167914795551771,
                0.8781724191182405,
                -2.610561580580093
            ]
        },
        {
            "positions": [
                2.402247270449561,
                -1.150927535023497,
                1.3894932349047706,
                -0.5730167236542232,
                0.9119185615953049,
                -2.7085315635018707
            ]
        },
        {
            "positions": [
                2.458426122185622,
                -1.1169978866531607,
                1.4990511282424142,
                -0.629241967753269,
                0.9456647040723696,
                -2.8065015464236485
            ]
        },
        {
            "positions": [
                2.5146049739216823,
                -1.0830682382828245,
                1.6086090215800577,
                -0.6854672118523149,
                0.979410846549434,
                -2.904471529345426
            ]
        },
        {
            "positions": [
                2.5707838256577435,
                -1.049138589912488,
                1.7181669149177017,
                -0.7416924559513611,
                1.0131569890264986,
                -3.002441512267204
            ]
        },
        {
            "positions": [
                2.626962677393804,
                -1.015208941542152,
                1.827724808255345,
                -0.797917700050407,
                1.0469031315035633,
                -3.100411495188981
            ]
        }
    ]
}