{
    "goal": {
        "global_pose": {
            "orientation": {
                "w": 0.005598929693374612,
                "x": 0.007748599140229565,
                "y": 0.7110244013736278,
                "z": -0.7031023480610252
            },
            "position": {
                "x": 0.1141497679147869,
                "y": -0.7141253447532654,
                "z": 0.3711530566215515
            }
        },
        "name": "move_to_auspresseinheit_B"
    },
    "id": "LBKPIECE_move_to_auspresseinheit_B_24",
    "joint_names": [
        "shoulder_pan_joint",
        "shoulder_lift_joint",
        "elbow_joint",
        "wrist_1_joint",
        "wrist_2_joint",
        "wrist_3_joint"
    ],
    "metrics": {
        "cart_traj_len": 0.5647087345890666,
        "distance_elbow_joint": 0.05970181639326144,
        "distance_shoulder_lift_joint": 0.2961321489662274,
        "distance_shoulder_pan_joint": 0.577955110799306,
        "distance_wrist_1_joint": 0.31733656718957726,
        "distance_wrist_2_joint": 0.9894559794801876,
        "distance_wrist_3_joint": 0.0003320737270944285,
        "smoothness": 5.075305255429287e-16,
        "time": 0.286031123,
        "traj_len": 1.4969681681838307,
        "weighted_distance": 1.8837118650896714
    },
    "planner": "LBKPIECE",
    "start": {
        "state": {
            "elbow_joint": 2.0193083361928714,
            "shoulder_lift_joint": -1.1220246554650708,
            "shoulder_pan_joint": -1.0952077554168747,
            "wrist_1_joint": -0.8559753972642168,
            "wrist_2_joint": 0.4759566250798843,
            "wrist_3_joint": -3.1240929996934557
        }
    },
    "waypoints": [
        {
            "positions": [
                -1.0952077554168747,
                -1.1220246554650708,
                2.0193083361928714,
                -0.8559753972642168,
                0.4759566250798843,
                -3.1240929996934557
            ]
        },
        {
            "positions": [
                -1.191533607216759,
                -1.1713800136261088,
                2.009358033460661,
                -0.8030859693992872,
                0.6408659549932489,
                -3.124148345314638
            ]
        },
        {
            "positions": [
                -1.2878594590166432,
                -1.2207353717871465,
                1.999407730728451,
                -0.7501965415343577,
                0.8057752849066135,
                -3.1242036909358206
            ]
        },
        {
            "positions": [
                -1.3841853108165276,
                -1.2700907299481845,
                1.9894574279962407,
                -0.6973071136694282,
                0.9706846148199781,
                -3.124259036557003
            ]
        },
        {
            "positions": [
                -1.4805111626164118,
                -1.3194460881092225,
                1.9795071252640304,
                -0.6444176858044987,
                1.1355939447333427,
                -3.124314382178185
            ]
        },
        {
            "positions": [
                -1.5768370144162964,
                -1.3688014462702602,
                1.9695568225318203,
                -0.5915282579395691,
                1.3005032746467073,
                -3.1243697277993676
            ]
        },
        {
            "positions": [
                -1.6731628662161806,
                -1.4181568044312982,
                1.95960651979961,
                -0.5386388300746395,
                1.465412604560072,
                -3.12442507342055
            ]
        }
    ]
}