{
    "goal": {
        "global_pose": {
            "orientation": {
                "w": -0.00223480608172531,
                "x": 0.0024358444001904467,
                "y": 0.7094548369677653,
                "z": -0.704743149386269
            },
            "position": {
                "x": -0.37947507619857795,
                "y": -0.6371506643295288,
                "z": 0.19426114857196808
            }
        },
        "name": "move_to_magneteinheit_C"
    },
    "id": "LBKPIECE_move_to_magneteinheit_C_137",
    "joint_names": [
        "shoulder_pan_joint",
        "shoulder_lift_joint",
        "elbow_joint",
        "wrist_1_joint",
        "wrist_2_joint",
        "wrist_3_joint"
    ],
    "metrics": {
        "cart_traj_len": 5.894619499569712,
        "distance_elbow_joint": 1.2375695271913787,
        "distance_shoulder_lift_joint": 3.0104417569785458,
        "distance_shoulder_pan_joint": 9.89765937330661,
        "distance_wrist_1_joint": 2.6711216998681073,
        "distance_wrist_2_joint": 1.100867580908159,
        "distance_wrist_3_joint": 5.674816777412856,
        "smoothness": 0.5712207549220938,
        "time": 0.656930799,
        "traj_len": 4.85720873709023,
        "weighted_distance": 6.222065537365193
    },
    "planner": "LBKPIECE",
    "start": {
        "state": {
            "elbow_joint": 1.9565354010623817,
            "shoulder_lift_joint": -1.4165861575791021,
            "shoulder_pan_joint": -1.6717766225146293,
            "wrist_1_joint": -0.5286633292919765,
            "wrist_2_joint": 1.472756589071564,
            "wrist_3_joint": -3.1238370188695823
        }
    },
    "waypoints": [
        {
            "positions": [
                -1.6717766225146293,
                -1.4165861575791021,
                1.9565354010623817,
                -0.5286633292919765,
                1.472756589071564,
                -3.1238370188695823
            ]
        },
        {
            "positions": [
                -1.5201832456495006,
                -1.4625576473411812,
                1.978151358684153,
                -0.5786234804286213,
                1.4412359998781958,
                -3.0294519328698075
            ]
        },
        {
            "positions": [
                -1.368589868784372,
                -1.5085291371032603,
                1.9997673163059242,
                -0.6285836315652661,
                1.4097154106848275,
                -2.9350668468700327
            ]
        },
        {
            "positions": [
                -1.216996491919243,
                -1.5545006268653392,
                2.021383273927696,
                -0.678543782701911,
                1.3781948214914594,
                -2.8406817608702575
            ]
        },
        {
            "positions": [
                -1.0654031150541146,
                -1.6004721166274183,
                2.0429992315494667,
                -0.7285039338385557,
                1.3466742322980914,
                -2.7462966748704827
            ]
        },
        {
            "positions": [
                -0.9138097381889858,
                -1.6464436063894974,
                2.064615189171238,
                -0.7784640849752006,
                1.315153643104723,
                -2.651911588870708
            ]
        },
        {
            "positions": [
                -0.7622163613238571,
                -1.6924150961515765,
                2.0862311467930095,
                -0.8284242361118455,
                1.283633053911355,
                -2.5575265028709326
            ]
        },
        {
            "positions": [
                -0.6106229844587283,
                -1.7383865859136556,
                2.107847104414781,
                -0.8783843872484902,
                1.2521124647179869,
                -2.463141416871158
            ]
        },
        {
            "positions": [
                -0.4590296075935998,
                -1.7843580756757347,
                2.1294630620365522,
                -0.9283445383851351,
                1.2205918755246186,
                -2.368756330871383
            ]
        },
        {
            "positions": [
                -0.30743623072847104,
                -1.8303295654378138,
                2.151079019658323,
                -0.97830468952178,
                1.1890712863312505,
                -2.2743712448716082
            ]
        },
        {
            "positions": [
                -0.1558428538633423,
                -1.8763010551998927,
                2.1726949772800945,
                -1.0282648406584247,
                1.1575506971378824,
                -2.1799861588718334
            ]
        },
        {
            "positions": [
                -0.004249476998213764,
                -1.9222725449619718,
                2.194310934901866,
                -1.0782249917950695,
                1.1260301079445143,
                -2.085601072872058
            ]
        },
        {
            "positions": [
                0.1473438998669152,
                -1.9682440347240509,
                2.2159268925236373,
                -1.1281851429317142,
                1.094509518751146,
                -1.9912159868722834
            ]
        },
        {
            "positions": [
                0.29893727673204396,
                -2.01421552448613,
                2.2375428501454087,
                -1.1781452940683592,
                1.0629889295577777,
                -1.8968309008725086
            ]
        },
        {
            "positions": [
                0.4505306535971727,
                -2.060187014248209,
                2.25915880776718,
                -1.228105445205004,
                1.0314683403644096,
                -1.8024458148727336
            ]
        },
        {
            "positions": [
                0.6021240304623012,
                -2.106158504010288,
                2.2807747653889514,
                -1.2780655963416487,
                0.9999477511710415,
                -1.7080607288729588
            ]
        },
        {
            "positions": [
                0.7537174073274298,
                -2.152129993772367,
                2.3023907230107223,
                -1.3280257474782937,
                0.9684271619776733,
                -1.613675642873184
            ]
        },
        {
            "positions": [
                0.9053107841925587,
                -2.198101483534446,
                2.3240066806324937,
                -1.3779858986149385,
                0.9369065727843052,
                -1.519290556873409
            ]
        },
        {
            "positions": [
                1.0569041610576873,
                -2.244072973296525,
                2.345622638254265,
                -1.4279460497515832,
                0.905385983590937,
                -1.4249054708736342
            ]
        },
        {
            "positions": [
                1.2084975379228158,
                -2.2900444630586043,
                2.3672385958760365,
                -1.4779062008882282,
                0.8738653943975689,
                -1.3305203848738594
            ]
        },
        {
            "positions": [
                1.3600909147879447,
                -2.3360159528206834,
                2.388854553497808,
                -1.527866352024873,
                0.8423448052042007,
                -1.2361352988740844
            ]
        },
        {
            "positions": [
                1.5116842916530733,
                -2.381987442582762,
                2.4104705111195788,
                -1.5778265031615177,
                0.8108242160108325,
                -1.1417502128743096
            ]
        },
        {
            "positions": [
                1.6632776685182018,
                -2.4279589323448416,
                2.43208646874135,
                -1.6277866542981625,
                0.7793036268174645,
                -1.0473651268745345
            ]
        },
        {
            "positions": [
                1.8148710453833312,
                -2.4739304221069203,
                2.4537024263631215,
                -1.6777468054348075,
                0.7477830376240961,
                -0.9529800408747593
            ]
        },
        {
            "positions": [
                1.9664644222484597,
                -2.519901911869,
                2.475318383984893,
                -1.7277069565714522,
                0.7162624484307281,
                -0.8585949548749845
            ]
        },
        {
            "positions": [
                2.118057799113588,
                -2.5658734016310785,
                2.4969343416066643,
                -1.7776671077080972,
                0.6847418592373599,
                -0.7642098688752097
            ]
        },
        {
            "positions": [
                2.2696511759787175,
                -2.611844891393158,
                2.5185502992284357,
                -1.827627258844742,
                0.6532212700439917,
                -0.6698247828754349
            ]
        },
        {
            "positions": [
                2.421244552843846,
                -2.6578163811552367,
                2.540166256850207,
                -1.8775874099813867,
                0.6217006808506236,
                -0.5754396968756601
            ]
        },
        {
            "positions": [
                2.5728379297089745,
                -2.7037878709173158,
                2.561782214471978,
                -1.9275475611180315,
                0.5901800916572554,
                -0.48105461087588486
            ]
        },
        {
            "positions": [
                2.724431306574103,
                -2.749759360679395,
                2.5833981720937493,
                -1.9775077122546765,
                0.5586595024638873,
                -0.38666952487611006
            ]
        },
        {
            "positions": [
                2.8760246834392316,
                -2.795730850441474,
                2.6050141297155207,
                -2.0274678633913212,
                0.5271389132705191,
                -0.29228443887633526
            ]
        },
        {
            "positions": [
                2.69769608119414,
                -2.7413542816376015,
                2.585377769764246,
                -1.9883906245323626,
                0.5323139101074229,
                -0.3870599121236555
            ]
        },
        {
            "positions": [
                2.5193674789490483,
                -2.686977712833729,
                2.5657414098129716,
                -1.9493133856734037,
                0.5374889069443267,
                -0.4818353853709757
            ]
        },
        {
            "positions": [
                2.341038876703957,
                -2.6326011440298567,
                2.546105049861697,
                -1.910236146814445,
                0.5426639037812304,
                -0.5766108586182959
            ]
        },
        {
            "positions": [
                2.1627102744588655,
                -2.5782245752259842,
                2.526468689910422,
                -1.8711589079554862,
                0.5478389006181342,
                -0.6713863318656161
            ]
        },
        {
            "positions": [
                1.9843816722137742,
                -2.523848006422112,
                2.5068323299591473,
                -1.8320816690965276,
                0.553013897455038,
                -0.7661618051129362
            ]
        },
        {
            "positions": [
                1.8060530699686825,
                -2.469471437618239,
                2.487195970007873,
                -1.793004430237569,
                0.5581888942919419,
                -0.8609372783602565
            ]
        },
        {
            "positions": [
                1.6277244677235911,
                -2.4150948688143665,
                2.467559610056598,
                -1.75392719137861,
                0.5633638911288456,
                -0.9557127516075766
            ]
        },
        {
            "positions": [
                1.4493958654784995,
                -2.360718300010494,
                2.4479232501053234,
                -1.7148499525196514,
                0.5685388879657494,
                -1.050488224854897
            ]
        },
        {
            "positions": [
                1.2710672632334081,
                -2.3063417312066217,
                2.4282868901540486,
                -1.6757727136606926,
                0.5737138848026532,
                -1.145263698102217
            ]
        },
        {
            "positions": [
                1.0927386609883167,
                -2.2519651624027492,
                2.4086505302027743,
                -1.636695474801734,
                0.578888881639557,
                -1.2400391713495371
            ]
        },
        {
            "positions": [
                0.9144100587432251,
                -2.197588593598877,
                2.3890141702514995,
                -1.5976182359427753,
                0.5840638784764607,
                -1.3348146445968574
            ]
        },
        {
            "positions": [
                0.7360814564981335,
                -2.1432120247950044,
                2.3693778103002248,
                -1.5585409970838164,
                0.5892388753133645,
                -1.4295901178441777
            ]
        },
        {
            "positions": [
                0.5577528542530419,
                -2.0888354559911315,
                2.34974145034895,
                -1.5194637582248576,
                0.5944138721502683,
                -1.524365591091498
            ]
        },
        {
            "positions": [
                0.3794242520079507,
                -2.034458887187259,
                2.3301050903976757,
                -1.480386519365899,
                0.5995888689871721,
                -1.619141064338818
            ]
        },
        {
            "positions": [
                0.2010956497628591,
                -1.9800823183833867,
                2.310468730446401,
                -1.4413092805069403,
                0.6047638658240759,
                -1.7139165375861383
            ]
        },
        {
            "positions": [
                0.02276704751776748,
                -1.9257057495795142,
                2.290832370495126,
                -1.4022320416479817,
                0.6099388626609796,
                -1.8086920108334585
            ]
        },
        {
            "positions": [
                -0.1555615547273237,
                -1.8713291807756418,
                2.271196010543852,
                -1.363154802789023,
                0.6151138594978834,
                -1.9034674840807786
            ]
        },
        {
            "positions": [
                -0.3338901569724153,
                -1.8169526119717694,
                2.251559650592577,
                -1.3240775639300641,
                0.6202888563347873,
                -1.9982429573280989
            ]
        },
        {
            "positions": [
                -0.5122187592175069,
                -1.762576043167897,
                2.2319232906413022,
                -1.2850003250711053,
                0.625463853171691,
                -2.0930184305754187
            ]
        },
        {
            "positions": [
                -0.6905473614625981,
                -1.7081994743640245,
                2.2122869306900275,
                -1.2459230862121466,
                0.6306388500085948,
                -2.1877939038227394
            ]
        },
        {
            "positions": [
                -0.8688759637076897,
                -1.6538229055601519,
                2.192650570738753,
                -1.206845847353188,
                0.6358138468454986,
                -2.2825693770700592
            ]
        },
        {
            "positions": [
                -1.0472045659527813,
                -1.5994463367562795,
                2.1730142107874784,
                -1.1677686084942294,
                0.6409888436824024,
                -2.3773448503173795
            ]
        },
        {
            "positions": [
                -1.225533168197873,
                -1.5450697679524068,
                2.1533778508362036,
                -1.1286913696352703,
                0.6461638405193062,
                -2.4721203235647
            ]
        },
        {
            "positions": [
                -1.4038617704429646,
                -1.4906931991485344,
                2.133741490884929,
                -1.0896141307763116,
                0.6513388373562099,
                -2.56689579681202
            ]
        },
        {
            "positions": [
                -1.5821903726880562,
                -1.436316630344662,
                2.1141051309336545,
                -1.050536891917353,
                0.6565138341931137,
                -2.6616712700593403
            ]
        },
        {
            "positions": [
                -1.7605189749331478,
                -1.3819400615407895,
                2.0944687709823797,
                -1.0114596530583941,
                0.6616888310300175,
                -2.7564467433066606
            ]
        },
        {
            "positions": [
                -1.9388475771782394,
                -1.327563492736917,
                2.074832411031105,
                -0.9723824141994355,
                0.6668638278669213,
                -2.851222216553981
            ]
        },
        {
            "positions": [
                -2.11717617942333,
                -1.2731869239330444,
                2.0551960510798306,
                -0.9333051753404769,
                0.6720388247038251,
                -2.9459976898013007
            ]
        },
        {
            "positions": [
                -2.2955047816684218,
                -1.218810355129172,
                2.035559691128556,
                -0.894227936481518,
                0.6772138215407288,
                -3.040773163048621
            ]
        },
        {
            "positions": [
                -2.4738333839135134,
                -1.1644337863252996,
                2.015923331177281,
                -0.8551506976225592,
                0.6823888183776327,
                -3.1355486362959413
            ]
        }
    ]
}