{
    "goal": {
        "global_pose": {
            "orientation": {
                "w": -0.4816463035849501,
                "x": 0.5182115481033762,
                "y": 0.4908360881923453,
                "z": -0.5084816262002911
            },
            "position": {
                "x": -0.8240239810943604,
                "y": -0.300875300988555,
                "z": 0.16403168439865112
            }
        },
        "name": "move_to_storage_C"
    },
    "id": "LBKPIECE_move_to_storage_C_43",
    "joint_names": [
        "shoulder_pan_joint",
        "shoulder_lift_joint",
        "elbow_joint",
        "wrist_1_joint",
        "wrist_2_joint",
        "wrist_3_joint"
    ],
    "metrics": {
        "cart_traj_len": 0.5762282057771134,
        "distance_elbow_joint": 0.25624851268419335,
        "distance_shoulder_lift_joint": 0.18825542722434352,
        "distance_shoulder_pan_joint": 0.49450014626259486,
        "distance_wrist_1_joint": 0.07138291869723956,
        "distance_wrist_2_joint": 1.066111036354902,
        "distance_wrist_3_joint": 0.05814575630409591,
        "smoothness": 0.0,
        "time": 0.5952209509999999,
        "traj_len": 1.4610420245589684,
        "weighted_distance": 1.8407686615073884
    },
    "planner": "LBKPIECE",
    "start": {
        "state": {
            "elbow_joint": 2.010868314990456,
            "shoulder_lift_joint": -1.1634956873337592,
            "shoulder_pan_joint": -2.4736205022346125,
            "wrist_1_joint": -0.8367026794202681,
            "wrist_2_joint": 0.6746043897044499,
            "wrist_3_joint": -3.1496632123970403
        }
    },
    "waypoints": [
        {
            "positions": [
                -2.4736205022346125,
                -1.1634956873337592,
                2.010868314990456,
                -0.8367026794202681,
                0.6746043897044499,
                -3.1496632123970403
            ]
        },
        {
            "positions": [
                -2.556037193278378,
                -1.1321197827963685,
                1.9681602295430902,
                -0.8248055263040615,
                0.8522895624302669,
                -3.139972253013024
            ]
        },
        {
            "positions": [
                -2.638453884322144,
                -1.100743878258978,
                1.9254521440957246,
                -0.8129083731878549,
                1.029974735156084,
                -3.1302812936290083
            ]
        },
        {
            "positions": [
                -2.72087057536591,
                -1.0693679737215875,
                1.8827440586483593,
                -0.8010112200716484,
                1.2076599078819008,
                -3.1205903342449925
            ]
        },
        {
            "positions": [
                -2.8032872664096757,
                -1.0379920691841968,
                1.8400359732009937,
                -0.7891140669554417,
                1.3853450806077179,
                -3.1108993748609763
            ]
        },
        {
            "positions": [
                -2.8857039574534413,
                -1.0066161646468061,
                1.797327887753628,
                -0.7772169138392351,
                1.563030253333535,
                -3.10120841547696
            ]
        },
        {
            "positions": [
                -2.9681206484972074,
                -0.9752402601094157,
                1.7546198023062625,
                -0.7653197607230285,
                1.7407154260593518,
                -3.0915174560929444
            ]
        }
    ]
}