{
    "goal": {
        "global_pose": {
            "orientation": {
                "w": -0.4816463035849501,
                "x": 0.5182115481033762,
                "y": 0.4908360881923453,
                "z": -0.5084816262002911
            },
            "position": {
                "x": -0.8240239810943604,
                "y": 0.19912469901144506,
                "z": 0.16403168439865112
            }
        },
        "name": "move_to_storage_D"
    },
    "id": "LBKPIECE_move_to_storage_D_55",
    "joint_names": [
        "shoulder_pan_joint",
        "shoulder_lift_joint",
        "elbow_joint",
        "wrist_1_joint",
        "wrist_2_joint",
        "wrist_3_joint"
    ],
    "metrics": {
        "cart_traj_len": 0.5782823053833354,
        "distance_elbow_joint": 0.5552773720651318,
        "distance_shoulder_lift_joint": 0.21356794640500176,
        "distance_shoulder_pan_joint": 0.15028090941590252,
        "distance_wrist_1_joint": 3.82193260242349,
        "distance_wrist_2_joint": 1.7814171331216413,
        "distance_wrist_3_joint": 3.11965205821297,
        "smoothness": 0.004669786593712522,
        "time": 0.663627382,
        "traj_len": 3.105177615152495,
        "weighted_distance": 4.635167944488658
    },
    "planner": "LBKPIECE",
    "start": {
        "state": {
            "elbow_joint": -2.384821988534728,
            "shoulder_lift_joint": -2.2788054721415256,
            "shoulder_pan_joint": -0.1854694642142757,
            "wrist_1_joint": 1.4845938289331202,
            "wrist_2_joint": 0.17898776772866878,
            "wrist_3_joint": 0.037105688729662994
        }
    },
    "waypoints": [
        {
            "positions": [
                -0.1854694642142757,
                -2.2788054721415256,
                -2.384821988534728,
                1.4845938289331202,
                0.17898776772866878,
                0.037105688729662994
            ]
        },
        {
            "positions": [
                -0.16443162459806665,
                -2.233172069685126,
                -2.378417245916892,
                1.3443862872874845,
                0.07999439289648694,
                -0.04656269942479829
            ]
        },
        {
            "positions": [
                -0.14339378498185756,
                -2.1875386672287265,
                -2.3720125032990564,
                1.2041787456418491,
                -0.01899898193569491,
                -0.13023108757925958
            ]
        },
        {
            "positions": [
                -0.12235594536564849,
                -2.1419052647723267,
                -2.3656077606812205,
                1.0639712039962137,
                -0.11799235676787675,
                -0.21389947573372084
            ]
        },
        {
            "positions": [
                -0.10131810574943942,
                -2.096271862315927,
                -2.3592030180633845,
                0.923763662350578,
                -0.21698573160005863,
                -0.2975678638881821
            ]
        },
        {
            "positions": [
                -0.09816907951367436,
                -2.097749687867327,
                -2.333981189416061,
                0.7684730701676757,
                -0.28295923797114975,
                -0.4301858879641404
            ]
        },
        {
            "positions": [
                -0.0950200532779093,
                -2.099227513418727,
                -2.308759360768738,
                0.6131824779847734,
                -0.3489327443422409,
                -0.5628039120400987
            ]
        },
        {
            "positions": [
                -0.09187102704214424,
                -2.100705338970127,
                -2.283537532121415,
                0.4578918858018712,
                -0.4149062507133321,
                -0.6954219361160571
            ]
        },
        {
            "positions": [
                -0.08872200080637918,
                -2.1021831645215276,
                -2.2583157034740915,
                0.3026012936189689,
                -0.4808797570844232,
                -0.8280399601920153
            ]
        },
        {
            "positions": [
                -0.08557297457061412,
                -2.1036609900729277,
                -2.233093874826768,
                0.14731070143606662,
                -0.5468532634555143,
                -0.9606579842679737
            ]
        },
        {
            "positions": [
                -0.08242394833484906,
                -2.105138815624328,
                -2.2078720461794448,
                -0.007979890746835694,
                -0.6128267698266054,
                -1.0932760083439321
            ]
        },
        {
            "positions": [
                -0.07927492209908402,
                -2.106616641175728,
                -2.182650217532122,
                -0.163270482929738,
                -0.6788002761976967,
                -1.2258940324198901
            ]
        },
        {
            "positions": [
                -0.07612589586331894,
                -2.108094466727128,
                -2.1574283888847985,
                -0.3185610751126402,
                -0.7447737825687878,
                -1.3585120564958486
            ]
        },
        {
            "positions": [
                -0.0729768696275539,
                -2.109572292278528,
                -2.132206560237475,
                -0.4738516672955426,
                -0.8107472889398789,
                -1.491130080571807
            ]
        },
        {
            "positions": [
                -0.06982784339178882,
                -2.111050117829928,
                -2.1069847315901518,
                -0.6291422594784448,
                -0.8767207953109701,
                -1.623748104647765
            ]
        },
        {
            "positions": [
                -0.06667881715602378,
                -2.1125279433813287,
                -2.081762902942829,
                -0.7844328516613475,
                -0.9426943016820613,
                -1.7563661287237236
            ]
        },
        {
            "positions": [
                -0.0635297909202587,
                -2.1140057689327287,
                -2.0565410742955055,
                -0.9397234438442494,
                -1.0086678080531524,
                -1.888984152799682
            ]
        },
        {
            "positions": [
                -0.06038076468449365,
                -2.115483594484129,
                -2.031319245648182,
                -1.0950140360271519,
                -1.0746413144242437,
                -2.0216021768756405
            ]
        },
        {
            "positions": [
                -0.0572317384487286,
                -2.116961420035529,
                -2.0060974170008588,
                -1.250304628210054,
                -1.1406148207953346,
                -2.1542202009515985
            ]
        },
        {
            "positions": [
                -0.054082712212963534,
                -2.118439245586929,
                -1.9808755883535356,
                -1.4055952203929567,
                -1.206588327166426,
                -2.286838225027557
            ]
        },
        {
            "positions": [
                -0.05093368597719848,
                -2.119917071138329,
                -1.9556537597062125,
                -1.5608858125758585,
                -1.2725618335375168,
                -2.419456249103515
            ]
        },
        {
            "positions": [
                -0.04778465974143342,
                -2.121394896689729,
                -1.930431931058889,
                -1.716176404758761,
                -1.3385353399086082,
                -2.5520742731794734
            ]
        },
        {
            "positions": [
                -0.04463563350566836,
                -2.1228727222411297,
                -1.905210102411566,
                -1.8714669969416633,
                -1.404508846279699,
                -2.684692297255432
            ]
        },
        {
            "positions": [
                -0.0414866072699033,
                -2.1243505477925297,
                -1.8799882737642426,
                -2.026757589124566,
                -1.4704823526507904,
                -2.8173103213313904
            ]
        },
        {
            "positions": [
                -0.03833758103413824,
                -2.12582837334393,
                -1.8547664451169195,
                -2.1820481813074677,
                -1.5364558590218818,
                -2.9499283454073484
            ]
        },
        {
            "positions": [
                -0.03518855479837319,
                -2.12730619889533,
                -1.829544616469596,
                -2.3373387734903703,
                -1.6024293653929726,
                -3.082546369483307
            ]
        }
    ]
}