{
    "goal": {
        "global_pose": {
            "orientation": {
                "w": 0.7047431493862688,
                "x": -0.7094548369677653,
                "y": 0.0024358444001904,
                "z": -0.0022348060817251984
            },
            "position": {
                "x": -0.39052492380142206,
                "y": 0.3671506643295288,
                "z": 0.19426114857196808
            }
        },
        "name": "move_to_magneteinheit_D"
    },
    "id": "LBKPIECE_move_to_magneteinheit_D_71",
    "joint_names": [
        "shoulder_pan_joint",
        "shoulder_lift_joint",
        "elbow_joint",
        "wrist_1_joint",
        "wrist_2_joint",
        "wrist_3_joint"
    ],
    "metrics": {
        "cart_traj_len": 4.373175217406672,
        "distance_elbow_joint": 3.1298601557581134,
        "distance_shoulder_lift_joint": 1.6327067504315333,
        "distance_shoulder_pan_joint": 3.2313622119553744,
        "distance_wrist_1_joint": 1.5821292140231735,
        "distance_wrist_2_joint": 0.9616839976338857,
        "distance_wrist_3_joint": 3.1672385882015908,
        "smoothness": 0.2328850377309716,
        "time": 0.40673048900000003,
        "traj_len": 3.702023894845044,
        "weighted_distance": 4.7521859502826596
    },
    "planner": "LBKPIECE",
    "start": {
        "state": {
            "elbow_joint": 0.749534889911806,
            "shoulder_lift_joint": -0.6476975780787326,
            "shoulder_pan_joint": -2.711696901376241,
            "wrist_1_joint": -0.07506478083263063,
            "wrist_2_joint": 0.43296659715538205,
            "wrist_3_joint": -3.14703540197715
        }
    },
    "waypoints": [
        {
            "positions": [
                -2.711696901376241,
                -0.6476975780787326,
                0.749534889911806,
                -0.07506478083263063,
                0.43296659715538205,
                -3.14703540197715
            ]
        },
        {
            "positions": [
                -2.7326019405564113,
                -0.7447236970613669,
                0.6538564821499102,
                -0.011745285448366616,
                0.4807801569907977,
                -3.103515416291473
            ]
        },
        {
            "positions": [
                -2.753506979736581,
                -0.841749816044001,
                0.5581780743880145,
                0.0515742099358974,
                0.5285937168262134,
                -3.0599954306057957
            ]
        },
        {
            "positions": [
                -2.6427431083433093,
                -0.8857110260893079,
                0.4590084609799585,
                0.07181201855837377,
                0.5066196659025716,
                -2.965967096880529
            ]
        },
        {
            "positions": [
                -2.5319792369500376,
                -0.9296722361346148,
                0.3598388475719025,
                0.09204982718085013,
                0.48464561497892983,
                -2.871938763155262
            ]
        },
        {
            "positions": [
                -2.421215365556766,
                -0.9736334461799216,
                0.2606692341638465,
                0.11228763580332649,
                0.4626715640552881,
                -2.777910429429996
            ]
        },
        {
            "positions": [
                -2.3104514941634946,
                -1.0175946562252285,
                0.1614996207557905,
                0.13252544442580286,
                0.4406975131316463,
                -2.683882095704729
            ]
        },
        {
            "positions": [
                -2.199687622770223,
                -1.0615558662705353,
                0.06233000734773453,
                0.1527632530482792,
                0.41872346220800455,
                -2.5898537619794624
            ]
        },
        {
            "positions": [
                -2.088923751376951,
                -1.1055170763158424,
                -0.03683960606032144,
                0.17300106167075557,
                0.3967494112843628,
                -2.4958254282541956
            ]
        },
        {
            "positions": [
                -1.9781598799836795,
                -1.1494782863611492,
                -0.1360092194683774,
                0.19323887029323195,
                0.374775360360721,
                -2.4017970945289293
            ]
        },
        {
            "positions": [
                -1.8673960085904078,
                -1.193439496406456,
                -0.23517883287643349,
                0.21347667891570832,
                0.3528013094370792,
                -2.3077687608036626
            ]
        },
        {
            "positions": [
                -1.7566321371971363,
                -1.237400706451763,
                -0.33434844628448934,
                0.23371448753818466,
                0.3308272585134375,
                -2.213740427078396
            ]
        },
        {
            "positions": [
                -1.6458682658038646,
                -1.2813619164970698,
                -0.4335180596925454,
                0.25395229616066106,
                0.30885320758979573,
                -2.119712093353129
            ]
        },
        {
            "positions": [
                -1.5351043944105929,
                -1.3253231265423766,
                -0.5326876731006014,
                0.27419010478313743,
                0.286879156666154,
                -2.0256837596278627
            ]
        },
        {
            "positions": [
                -1.4243405230173212,
                -1.3692843365876834,
                -0.6318572865086574,
                0.2944279134056138,
                0.2649051057425122,
                -1.9316554259025958
            ]
        },
        {
            "positions": [
                -1.3135766516240497,
                -1.4132455466329903,
                -0.7310268999167133,
                0.3146657220280901,
                0.24293105481887045,
                -1.8376270921773292
            ]
        },
        {
            "positions": [
                -1.2028127802307782,
                -1.4572067566782971,
                -0.8301965133247693,
                0.3349035306505665,
                0.2209570038952287,
                -1.7435987584520627
            ]
        },
        {
            "positions": [
                -1.0920489088375065,
                -1.501167966723604,
                -0.9293661267328253,
                0.3551413392730428,
                0.19898295297158697,
                -1.649570424726796
            ]
        },
        {
            "positions": [
                -0.9812850374442346,
                -1.545129176768911,
                -1.0285357401408814,
                0.37537914789551924,
                0.17700890204794512,
                -1.5555420910015292
            ]
        },
        {
            "positions": [
                -0.8705211660509631,
                -1.5890903868142179,
                -1.1277053535489372,
                0.39561695651799555,
                0.15503485112430337,
                -1.4615137572762626
            ]
        },
        {
            "positions": [
                -0.7597572946576916,
                -1.6330515968595247,
                -1.2268749669569932,
                0.4158547651404719,
                0.13306080020066163,
                -1.367485423550996
            ]
        },
        {
            "positions": [
                -0.6489934232644199,
                -1.6770128069048316,
                -1.3260445803650491,
                0.4360925737629483,
                0.11108674927701989,
                -1.2734570898257294
            ]
        },
        {
            "positions": [
                -0.5382295518711482,
                -1.7209740169501386,
                -1.4252141937731053,
                0.45633038238542467,
                0.0891126983533781,
                -1.1794287561004626
            ]
        },
        {
            "positions": [
                -0.4274656804778765,
                -1.7649352269954455,
                -1.524383807181161,
                0.47656819100790104,
                0.06713864742973635,
                -1.085400422375196
            ]
        },
        {
            "positions": [
                -0.31670180908460477,
                -1.8088964370407523,
                -1.6235534205892173,
                0.4968059996303774,
                0.04516459650609461,
                -0.9913720886499293
            ]
        },
        {
            "positions": [
                -0.2059379376913335,
                -1.8528576470860592,
                -1.722723033997273,
                0.5170438082528537,
                0.023190545582452815,
                -0.8973437549246626
            ]
        },
        {
            "positions": [
                -0.09517406629806135,
                -1.896818857131366,
                -1.8218926474053292,
                0.5372816168753302,
                0.0012164946588110181,
                -0.8033154211993958
            ]
        },
        {
            "positions": [
                0.015589805095209908,
                -1.9407800671766728,
                -1.9210622608133854,
                0.5575194254978064,
                -0.020757556264830668,
                -0.7092870874741295
            ]
        },
        {
            "positions": [
                0.1263536764884815,
                -1.9847412772219797,
                -2.020231874221441,
                0.5777572341202828,
                -0.04273160718847242,
                -0.615258753748863
            ]
        },
        {
            "positions": [
                0.08068421855757232,
                -2.031536085520444,
                -2.108150684889116,
                0.6800242467647205,
                -0.052244309852570156,
                -0.5593811156903534
            ]
        },
        {
            "positions": [
                0.03501476062666316,
                -2.078330893818908,
                -2.1960694955567908,
                0.7822912594091582,
                -0.06175701251666789,
                -0.5035034776318439
            ]
        },
        {
            "positions": [
                -0.010654697304246008,
                -2.125125702117372,
                -2.283988306224466,
                0.884558272053596,
                -0.07126971518076562,
                -0.44762583957333424
            ]
        },
        {
            "positions": [
                -0.056324155235155195,
                -2.1719205104158363,
                -2.371907116892141,
                0.9868252846980338,
                -0.08078241784486336,
                -0.3917482015148247
            ]
        },
        {
            "positions": [
                -0.08807756664673899,
                -2.1990414649394436,
                -2.3740116541306824,
                1.116885071821161,
                -0.016612232021868997,
                -0.2887603545800085
            ]
        },
        {
            "positions": [
                -0.11983097805832277,
                -2.2261624194630514,
                -2.376116191369224,
                1.2469448589442882,
                0.04755795380112536,
                -0.18577250764519226
            ]
        },
        {
            "positions": [
                -0.15158438946990657,
                -2.2532833739866587,
                -2.378220728607766,
                1.3770046460674155,
                0.11172813962411972,
                -0.08278466071037605
            ]
        },
        {
            "positions": [
                -0.18333780088149035,
                -2.280404328510266,
                -2.380325265846307,
                1.5070644331905427,
                0.1758983254471141,
                0.020203186224440173
            ]
        }
    ]
}