{
    "goal": {
        "global_pose": {
            "orientation": {
                "w": 0.7031023480610252,
                "x": -0.7110244013736278,
                "y": 0.0077485991402295624,
                "z": 0.005598929693374583
            },
            "position": {
                "x": -0.8841497679147869,
                "y": 0.44412534475326537,
                "z": 0.3711530566215515
            }
        },
        "name": "move_to_auspresseinheit_D"
    },
    "id": "LBKPIECE_move_to_auspresseinheit_D_19",
    "joint_names": [
        "shoulder_pan_joint",
        "shoulder_lift_joint",
        "elbow_joint",
        "wrist_1_joint",
        "wrist_2_joint",
        "wrist_3_joint"
    ],
    "metrics": {
        "cart_traj_len": 0.3444901185214092,
        "distance_elbow_joint": 0.6692539775718325,
        "distance_shoulder_lift_joint": 0.13930757366948443,
        "distance_shoulder_pan_joint": 0.13369263235309178,
        "distance_wrist_1_joint": 0.6218930987193025,
        "distance_wrist_2_joint": 1.44885602058346,
        "distance_wrist_3_joint": 0.06860923163599386,
        "smoothness": 1.9737298371844314e-16,
        "time": 0.613972732,
        "traj_len": 1.7554522307750686,
        "weighted_distance": 2.2999087192990757
    },
    "planner": "LBKPIECE",
    "start": {
        "state": {
            "elbow_joint": -1.8275523626775212,
            "shoulder_lift_joint": -2.126789852344167,
            "shoulder_pan_joint": -0.03513704404078235,
            "wrist_1_joint": -2.347782403156801,
            "wrist_2_joint": -1.6058999987535132,
            "wrist_3_joint": -3.0880379163319196
        }
    },
    "waypoints": [
        {
            "positions": [
                -0.03513704404078235,
                -2.126789852344167,
                -1.8275523626775212,
                -2.347782403156801,
                -1.6058999987535132,
                -3.0880379163319196
            ]
        },
        {
            "positions": [
                -0.05184862308491882,
                -2.1442032990528523,
                -1.743895615481042,
                -2.4255190404967135,
                -1.4247929961805808,
                -3.0794617623774205
            ]
        },
        {
            "positions": [
                -0.0685602021290553,
                -2.161616745761538,
                -1.660238868284563,
                -2.5032556778366266,
                -1.2436859936076483,
                -3.070885608422921
            ]
        },
        {
            "positions": [
                -0.08527178117319176,
                -2.1790301924702233,
                -1.5765821210880842,
                -2.5809923151765393,
                -1.0625789910347156,
                -3.062309454468422
            ]
        },
        {
            "positions": [
                -0.10198336021732823,
                -2.1964436391789093,
                -1.4929253738916048,
                -2.6587289525164524,
                -0.8814719884617832,
                -3.0537333005139224
            ]
        },
        {
            "positions": [
                -0.11869493926146471,
                -2.2138570858875948,
                -1.409268626695126,
                -2.736465589856365,
                -0.7003649858888508,
                -3.0451571465594234
            ]
        },
        {
            "positions": [
                -0.1354065183056012,
                -2.2312705325962803,
                -1.325611879498647,
                -2.8142022271962777,
                -0.5192579833159181,
                -3.0365809926049243
            ]
        },
        {
            "positions": [
                -0.15211809734973766,
                -2.2486839793049658,
                -1.2419551323021678,
                -2.8919388645361908,
                -0.33815098074298566,
                -3.028004838650425
            ]
        },
        {
            "positions": [
                -0.16882967639387414,
                -2.2660974260136513,
                -1.1582983851056887,
                -2.9696755018761034,
                -0.1570439781700533,
                -3.0194286846959257
            ]
        }
    ]
}