{
    "goal": {
        "global_pose": {
            "orientation": {
                "w": -0.00223480608172531,
                "x": 0.0024358444001904467,
                "y": 0.7094548369677653,
                "z": -0.704743149386269
            },
            "position": {
                "x": 0.6205249238014221,
                "y": -0.6371506643295288,
                "z": 0.19426114857196808
            }
        },
        "name": "move_to_magneteinheit_B"
    },
    "id": "LBKPIECE_move_to_magneteinheit_B_11",
    "joint_names": [
        "shoulder_pan_joint",
        "shoulder_lift_joint",
        "elbow_joint",
        "wrist_1_joint",
        "wrist_2_joint",
        "wrist_3_joint"
    ],
    "metrics": {
        "cart_traj_len": 4.059556493298272,
        "distance_elbow_joint": 4.8127915850846374,
        "distance_shoulder_lift_joint": 0.7663949295183174,
        "distance_shoulder_pan_joint": 3.431431923469948,
        "distance_wrist_1_joint": 4.393968339011247,
        "distance_wrist_2_joint": 1.1720880498363926,
        "distance_wrist_3_joint": 3.1589626479666313,
        "smoothness": 0.1691340896236592,
        "time": 0.278233314,
        "traj_len": 4.211370023506266,
        "weighted_distance": 5.442390941458366
    },
    "planner": "LBKPIECE",
    "start": {
        "state": {
            "elbow_joint": 2.6216224122426386,
            "shoulder_lift_joint": -1.4174107377796124,
            "shoulder_pan_joint": 0.7066234856936794,
            "wrist_1_joint": 1.9546482284002225,
            "wrist_2_joint": -0.7096286983471962,
            "wrist_3_joint": 0.005740856962016249
        }
    },
    "waypoints": [
        {
            "positions": [
                0.7066234856936794,
                -1.4174107377796124,
                2.6216224122426386,
                1.9546482284002225,
                -0.7096286983471962,
                0.005740856962016249
            ]
        },
        {
            "positions": [
                0.6394479657005939,
                -1.442519357913497,
                2.5908136180440127,
                1.8120339545244508,
                -0.6208071130931628,
                0.0018820943870005175
            ]
        },
        {
            "positions": [
                0.5722724457075083,
                -1.4676279780473813,
                2.5600048238453867,
                1.6694196806486792,
                -0.5319855278391294,
                -0.0019766681880152136
            ]
        },
        {
            "positions": [
                0.5050969257144229,
                -1.492736598181266,
                2.529196029646761,
                1.5268054067729073,
                -0.44316394258509606,
                -0.005835430763030945
            ]
        },
        {
            "positions": [
                0.43792140572133736,
                -1.5178452183151503,
                2.498387235448135,
                1.3841911328971357,
                -0.3543423573310626,
                -0.009694193338046676
            ]
        },
        {
            "positions": [
                0.37074588572825184,
                -1.5429538384490349,
                2.467578441249509,
                1.241576859021364,
                -0.26552077207702923,
                -0.013552955913062409
            ]
        },
        {
            "positions": [
                0.3086698190589079,
                -1.5436618216928175,
                2.370252888486257,
                1.1055310394334108,
                -0.22416078462510441,
                -0.014737283022787543
            ]
        },
        {
            "positions": [
                0.246593752389564,
                -1.5443698049366001,
                2.2729273357230046,
                0.9694852198454575,
                -0.1828007971731796,
                -0.015921610132512677
            ]
        },
        {
            "positions": [
                0.18451768572022004,
                -1.5450777881803828,
                2.1756017829597525,
                0.8334394002575043,
                -0.14144080972125478,
                -0.01710593724223781
            ]
        },
        {
            "positions": [
                0.12244161905087611,
                -1.5457857714241652,
                2.0782762301965003,
                0.697393580669551,
                -0.10008082226932996,
                -0.018290264351962945
            ]
        },
        {
            "positions": [
                0.06036555238153213,
                -1.5464937546679478,
                1.9809506774332482,
                0.5613477610815978,
                -0.05872083481740514,
                -0.01947459146168808
            ]
        },
        {
            "positions": [
                -0.0017105142878117638,
                -1.5472017379117304,
                1.883625124669996,
                0.42530194149364453,
                -0.017360847365480325,
                -0.020658918571413214
            ]
        },
        {
            "positions": [
                0.10004121895341864,
                -1.5610589666966934,
                1.7201073443202874,
                0.3809231660596398,
                -0.02733771928155253,
                -0.0804110627536814
            ]
        },
        {
            "positions": [
                0.20179295219464904,
                -1.5749161954816564,
                1.5565895639705787,
                0.336544390625635,
                -0.03731459119762474,
                -0.1401632069359496
            ]
        },
        {
            "positions": [
                0.3035446854358795,
                -1.5887734242666196,
                1.3930717836208701,
                0.29216561519163026,
                -0.04729146311369695,
                -0.19991535111821782
            ]
        },
        {
            "positions": [
                0.40529641867710986,
                -1.6026306530515826,
                1.2295540032711614,
                0.24778683975762553,
                -0.05726833502976915,
                -0.259667495300486
            ]
        },
        {
            "positions": [
                0.5070481519183403,
                -1.6164878818365456,
                1.0660362229214528,
                0.20340806432362074,
                -0.06724520694584135,
                -0.3194196394827542
            ]
        },
        {
            "positions": [
                0.6087998851595707,
                -1.6303451106215086,
                0.9025184425717442,
                0.15902928888961598,
                -0.07722207886191357,
                -0.3791717836650224
            ]
        },
        {
            "positions": [
                0.710551618400801,
                -1.6442023394064718,
                0.7390006622220358,
                0.11465051345561128,
                -0.08719895077798577,
                -0.43892392784729056
            ]
        },
        {
            "positions": [
                0.8123033516420315,
                -1.6580595681914347,
                0.575482881872327,
                0.07027173802160652,
                -0.09717582269405797,
                -0.49867607202955877
            ]
        },
        {
            "positions": [
                0.9140550848832618,
                -1.6719167969763977,
                0.41196510152261845,
                0.02589296258760171,
                -0.10715269461013019,
                -0.5584282162118269
            ]
        },
        {
            "positions": [
                1.0158068181244924,
                -1.6857740257613607,
                0.24844732117290969,
                -0.01848581284640305,
                -0.11712956652620239,
                -0.6181803603940952
            ]
        },
        {
            "positions": [
                1.1175585513657227,
                -1.699631254546324,
                0.08492954082320114,
                -0.06286458828040781,
                -0.1271064384422746,
                -0.6779325045763633
            ]
        },
        {
            "positions": [
                1.2193102846069532,
                -1.713488483331287,
                -0.07858823952650762,
                -0.10724336371441257,
                -0.1370833103583468,
                -0.7376846487586316
            ]
        },
        {
            "positions": [
                1.3210620178481833,
                -1.7273457121162499,
                -0.24210601987621594,
                -0.15162213914841727,
                -0.147060182274419,
                -0.7974367929408996
            ]
        },
        {
            "positions": [
                1.4228137510894139,
                -1.7412029409012129,
                -0.4056238002259245,
                -0.19600091458242197,
                -0.15703705419049122,
                -0.8571889371231679
            ]
        },
        {
            "positions": [
                1.5245654843306442,
                -1.755060169686176,
                -0.569141580575633,
                -0.24037969001642678,
                -0.16701392610656343,
                -0.9169410813054361
            ]
        },
        {
            "positions": [
                1.6263172175718748,
                -1.768917398471139,
                -0.732659360925342,
                -0.2847584654504315,
                -0.17699079802263562,
                -0.9766932254877043
            ]
        },
        {
            "positions": [
                1.728068950813105,
                -1.782774627256102,
                -0.8961771412750503,
                -0.3291372408844363,
                -0.18696766993870784,
                -1.0364453696699725
            ]
        },
        {
            "positions": [
                1.822256508595459,
                -1.8089363687310869,
                -1.0038898901297983,
                -0.34179446895884597,
                -0.2096404570066786,
                -1.160498969115901
            ]
        },
        {
            "positions": [
                1.916444066377813,
                -1.8350981102060717,
                -1.1116026389845464,
                -0.35445169703325563,
                -0.2323132440746494,
                -1.2845525685618295
            ]
        },
        {
            "positions": [
                2.010631624160167,
                -1.8612598516810568,
                -1.2193153878392944,
                -0.36710892510766535,
                -0.2549860311426202,
                -1.408606168007758
            ]
        },
        {
            "positions": [
                2.104819181942521,
                -1.8874215931560416,
                -1.3270281366940424,
                -0.379766153182075,
                -0.27765881821059096,
                -1.5326597674536866
            ]
        },
        {
            "positions": [
                2.199006739724875,
                -1.9135833346310265,
                -1.4347408855487904,
                -0.3924233812564847,
                -0.30033160527856173,
                -1.656713366899615
            ]
        },
        {
            "positions": [
                2.26680616928983,
                -1.9396441049746682,
                -1.5096230923417706,
                -0.41631155302785583,
                -0.32549476717798115,
                -1.7847679841007371
            ]
        },
        {
            "positions": [
                2.3346055988547856,
                -1.96570487531831,
                -1.5845052991347506,
                -0.44019972479922703,
                -0.3506579290774005,
                -1.9128226013018592
            ]
        },
        {
            "positions": [
                2.4024050284197407,
                -1.9917656456619517,
                -1.6593875059277308,
                -0.4640878965705982,
                -0.3758210909768199,
                -2.040877218502981
            ]
        },
        {
            "positions": [
                2.470204457984696,
                -2.0178264160055934,
                -1.7342697127207107,
                -0.4879760683419693,
                -0.4009842528762393,
                -2.1689318357041034
            ]
        },
        {
            "positions": [
                2.5380038875496513,
                -2.0438871863492354,
                -1.809151919513691,
                -0.5118642401133405,
                -0.42614741477565876,
                -2.2969864529052257
            ]
        },
        {
            "positions": [
                2.6058033171146064,
                -2.069947956692877,
                -1.884034126306671,
                -0.5357524118847117,
                -0.4513105766750781,
                -2.4250410701063476
            ]
        },
        {
            "positions": [
                2.6343027624239137,
                -2.0885001133390135,
                -1.8973588810215483,
                -0.6656009972309076,
                -0.464167114048808,
                -2.525914903355089
            ]
        },
        {
            "positions": [
                2.6628022077332214,
                -2.1070522699851497,
                -1.9106836357364252,
                -0.7954495825771035,
                -0.47702365142253783,
                -2.6267887366038303
            ]
        },
        {
            "positions": [
                2.6913016530425287,
                -2.1256044266312863,
                -1.9240083904513023,
                -0.9252981679232994,
                -0.4898801887962677,
                -2.727662569852572
            ]
        },
        {
            "positions": [
                2.6870851377216467,
                -2.1340072713988008,
                -1.8857918339496718,
                -1.1424885164953307,
                -0.4888523874363893,
                -2.788889727838339
            ]
        },
        {
            "positions": [
                2.6828686224007647,
                -2.1424101161663156,
                -1.8475752774480412,
                -1.359678865067362,
                -0.48782458607651097,
                -2.850116885824106
            ]
        },
        {
            "positions": [
                2.678652107079883,
                -2.1508129609338305,
                -1.8093587209464106,
                -1.5768692136393934,
                -0.48679678471663257,
                -2.9113440438098728
            ]
        },
        {
            "positions": [
                2.6744355917590013,
                -2.159215805701345,
                -1.7711421644447798,
                -1.7940595622114246,
                -0.48576898335675417,
                -2.97257120179564
            ]
        },
        {
            "positions": [
                2.6702190764381193,
                -2.1676186504688593,
                -1.7329256079431492,
                -2.011249910783456,
                -0.4847411819968758,
                -3.0337983597814073
            ]
        },
        {
            "positions": [
                2.6660025611172373,
                -2.176021495236374,
                -1.6947090514415186,
                -2.2284402593554873,
                -0.4837133806369974,
                -3.095025517767174
            ]
        },
        {
            "positions": [
                2.661215896884412,
                -2.18380566729793,
                -1.6568476080606054,
                -2.4393201106110243,
                -0.48257933137237924,
                -3.153221791004615
            ]
        }
    ]
}