{
    "goal": {
        "global_pose": {
            "orientation": {
                "w": 0.5084816262002911,
                "x": -0.4908360881923452,
                "y": 0.5182115481033761,
                "z": -0.48164630358495003
            },
            "position": {
                "x": 0.5540239810943604,
                "y": -0.46912469901144505,
                "z": 0.16403168439865112
            }
        },
        "name": "move_to_storage_B"
    },
    "id": "LBKPIECE_move_to_storage_B_60",
    "joint_names": [
        "shoulder_pan_joint",
        "shoulder_lift_joint",
        "elbow_joint",
        "wrist_1_joint",
        "wrist_2_joint",
        "wrist_3_joint"
    ],
    "metrics": {
        "cart_traj_len": 0.5891412407249254,
        "distance_elbow_joint": 0.3506977336263697,
        "distance_shoulder_lift_joint": 0.4609882714728124,
        "distance_shoulder_pan_joint": 0.19586509473093894,
        "distance_wrist_1_joint": 2.9776770647730006,
        "distance_wrist_2_joint": 2.716388232518492,
        "distance_wrist_3_joint": 3.1398744384233614,
        "smoothness": 0.1287589635432972,
        "time": 0.33971391100000004,
        "traj_len": 3.1371150497782154,
        "weighted_distance": 4.670685710865503
    },
    "planner": "LBKPIECE",
    "start": {
        "state": {
            "elbow_joint": 1.664937868594044,
            "shoulder_lift_joint": -0.661644460510453,
            "shoulder_pan_joint": -0.9139846352900073,
            "wrist_1_joint": 2.146753192139373,
            "wrist_2_joint": -2.2341966793290973,
            "wrist_3_joint": 0.005466555786416001
        }
    },
    "waypoints": [
        {
            "positions": [
                -0.9139846352900073,
                -0.661644460510453,
                1.664937868594044,
                2.146753192139373,
                -2.2341966793290973,
                0.005466555786416001
            ]
        },
        {
            "positions": [
                -0.9064788696041098,
                -0.664993335427946,
                1.6683001185728634,
                2.134402799700367,
                -2.226667222971967,
                -0.0007000901376725856
            ]
        },
        {
            "positions": [
                -0.9140132427659114,
                -0.6832989112901589,
                1.6821935379187654,
                2.0157897328070074,
                -2.1183128719255127,
                -0.12604840183764351
            ]
        },
        {
            "positions": [
                -0.9215476159277132,
                -0.7016044871523716,
                1.6960869572646675,
                1.8971766659136473,
                -2.0099585208790582,
                -0.25139671353761445
            ]
        },
        {
            "positions": [
                -0.9290819890895148,
                -0.7199100630145844,
                1.7099803766105695,
                1.7785635990202877,
                -1.9016041698326036,
                -0.37674502523758535
            ]
        },
        {
            "positions": [
                -0.9366163622513165,
                -0.7382156388767971,
                1.7238737959564714,
                1.659950532126928,
                -1.7932498187861492,
                -0.5020933369375563
            ]
        },
        {
            "positions": [
                -0.9441507354131181,
                -0.7565212147390099,
                1.7377672153023735,
                1.541337465233568,
                -1.6848954677396946,
                -0.6274416486375273
            ]
        },
        {
            "positions": [
                -0.9516851085749198,
                -0.7748267906012227,
                1.7516606346482755,
                1.4227243983402085,
                -1.5765411166932402,
                -0.7527899603374981
            ]
        },
        {
            "positions": [
                -0.9592194817367214,
                -0.7931323664634354,
                1.7655540539941774,
                1.3041113314468484,
                -1.4681867656467857,
                -0.8781382720374692
            ]
        },
        {
            "positions": [
                -0.9667538548985232,
                -0.8114379423256483,
                1.7794474733400796,
                1.1854982645534888,
                -1.3598324146003313,
                -1.00348658373744
            ]
        },
        {
            "positions": [
                -0.9742882280603248,
                -0.829743518187861,
                1.7933408926859815,
                1.066885197660129,
                -1.251478063553877,
                -1.1288348954374108
            ]
        },
        {
            "positions": [
                -0.9818226012221265,
                -0.8480490940500738,
                1.8072343120318834,
                0.9482721307667692,
                -1.1431237125074223,
                -1.254183207137382
            ]
        },
        {
            "positions": [
                -0.9893569743839281,
                -0.8663546699122866,
                1.8211277313777856,
                0.8296590638734094,
                -1.0347693614609677,
                -1.3795315188373527
            ]
        },
        {
            "positions": [
                -0.9968913475457297,
                -0.8846602457744993,
                1.8350211507236875,
                0.7110459969800498,
                -0.9264150104145132,
                -1.5048798305373237
            ]
        },
        {
            "positions": [
                -1.0044257207075313,
                -0.9029658216367121,
                1.8489145700695895,
                0.5924329300866897,
                -0.8180606593680588,
                -1.6302281422372946
            ]
        },
        {
            "positions": [
                -1.0119600938693332,
                -0.9212713974989248,
                1.8628079894154916,
                0.4738198631933299,
                -0.7097063083216042,
                -1.7555764539372658
            ]
        },
        {
            "positions": [
                -1.0194944670311348,
                -0.9395769733611377,
                1.8767014087613936,
                0.3552067962999703,
                -0.6013519572751498,
                -1.8809247656372363
            ]
        },
        {
            "positions": [
                -1.0270288401929364,
                -0.9578825492233505,
                1.8905948281072955,
                0.2365937294066105,
                -0.4929976062286954,
                -2.0062730773372075
            ]
        },
        {
            "positions": [
                -1.034563213354738,
                -0.9761881250855633,
                1.9044882474531977,
                0.11798066251325068,
                -0.38464325518224074,
                -2.1316213890371785
            ]
        },
        {
            "positions": [
                -1.0420975865165396,
                -0.9944937009477759,
                1.9183816667990996,
                -0.0006324043801089196,
                -0.27628890413578655,
                -2.256969700737149
            ]
        },
        {
            "positions": [
                -1.0496319596783414,
                -1.0127992768099887,
                1.9322750861450015,
                -0.11924547127346896,
                -0.16793455308933192,
                -2.3823180124371204
            ]
        },
        {
            "positions": [
                -1.057166332840143,
                -1.0311048526722015,
                1.9461685054909035,
                -0.23785853816682856,
                -0.059580202042877506,
                -2.5076663241370913
            ]
        },
        {
            "positions": [
                -1.0647007060019447,
                -1.0494104285344144,
                1.9600619248368056,
                -0.35647160506018816,
                0.048774149003576905,
                -2.633014635837062
            ]
        },
        {
            "positions": [
                -1.0722350791637463,
                -1.067716004396627,
                1.9739553441827076,
                -0.4750846719535482,
                0.15712850005003176,
                -2.758362947537033
            ]
        },
        {
            "positions": [
                -1.079769452325548,
                -1.0860215802588398,
                1.9878487635286097,
                -0.5936977388469078,
                0.26548285109648617,
                -2.8837112592370038
            ]
        },
        {
            "positions": [
                -1.0873038254873497,
                -1.1043271561210526,
                2.0017421828745117,
                -0.7123108057402674,
                0.3738372021429406,
                -3.0090595709369747
            ]
        },
        {
            "positions": [
                -1.0948381986491513,
                -1.1226327319832654,
                2.0156356022204136,
                -0.8309238726336275,
                0.4821915531893948,
                -3.1344078826369457
            ]
        }
    ]
}