{
    "goal": {
        "global_pose": {
            "orientation": {
                "w": 0.5084816262002911,
                "x": -0.4908360881923452,
                "y": 0.5182115481033761,
                "z": -0.48164630358495003
            },
            "position": {
                "x": 0.5540239810943604,
                "y": -0.46912469901144505,
                "z": 0.16403168439865112
            }
        },
        "name": "move_to_storage_B"
    },
    "id": "LBKPIECE_move_to_storage_B_90",
    "joint_names": [
        "shoulder_pan_joint",
        "shoulder_lift_joint",
        "elbow_joint",
        "wrist_1_joint",
        "wrist_2_joint",
        "wrist_3_joint"
    ],
    "metrics": {
        "cart_traj_len": 0.9560350388236474,
        "distance_elbow_joint": 0.4491152637271827,
        "distance_shoulder_lift_joint": 0.45969851029592546,
        "distance_shoulder_pan_joint": 0.8869286883498438,
        "distance_wrist_1_joint": 2.990689568054221,
        "distance_wrist_2_joint": 2.7081405107899874,
        "distance_wrist_3_joint": 4.336955425265195,
        "smoothness": 0.4359335841914558,
        "time": 0.515602657,
        "traj_len": 3.4396988191529734,
        "weighted_distance": 5.119010538752285
    },
    "planner": "LBKPIECE",
    "start": {
        "state": {
            "elbow_joint": 1.664937868594044,
            "shoulder_lift_joint": -0.661644460510453,
            "shoulder_pan_joint": -0.9139846352900073,
            "wrist_1_joint": 2.146753192139373,
            "wrist_2_joint": -2.2341966793290973,
            "wrist_3_joint": 0.005466555786416001
        }
    },
    "waypoints": [
        {
            "positions": [
                -0.9139846352900073,
                -0.661644460510453,
                1.664937868594044,
                2.146753192139373,
                -2.2341966793290973,
                0.005466555786416001
            ]
        },
        {
            "positions": [
                -0.843477446335074,
                -0.6722284168604227,
                1.6551622318973864,
                2.109543683465063,
                -2.1213419614839486,
                0.12631715937698504
            ]
        },
        {
            "positions": [
                -0.7729702573801407,
                -0.6828123732103925,
                1.6453865952007287,
                2.072334174790753,
                -2.0084872436388,
                0.24716776296755408
            ]
        },
        {
            "positions": [
                -0.7024630684252076,
                -0.6933963295603621,
                1.6356109585040712,
                2.035124666116443,
                -1.895632525793651,
                0.3680183665581231
            ]
        },
        {
            "positions": [
                -0.6319558794702742,
                -0.7039802859103319,
                1.6258353218074135,
                1.9979151574421328,
                -1.7827778079485022,
                0.4888689701486922
            ]
        },
        {
            "positions": [
                -0.561448690515341,
                -0.7145642422603016,
                1.616059685110756,
                1.9607056487678227,
                -1.6699230901033535,
                0.6097195737392611
            ]
        },
        {
            "positions": [
                -0.5820022575759247,
                -0.7302095779736122,
                1.6314534189662904,
                1.852834801664643,
                -1.5874666700431903,
                0.46615409653493994
            ]
        },
        {
            "positions": [
                -0.6025558246365085,
                -0.7458549136869229,
                1.646847152821825,
                1.7449639545614635,
                -1.5050102499830271,
                0.3225886193306188
            ]
        },
        {
            "positions": [
                -0.6231093916970922,
                -0.7615002494002335,
                1.6622408866773593,
                1.6370931074582837,
                -1.4225538299228637,
                0.17902314212629766
            ]
        },
        {
            "positions": [
                -0.643662958757676,
                -0.7771455851135441,
                1.6776346205328938,
                1.529222260355104,
                -1.3400974098627005,
                0.03545766492197644
            ]
        },
        {
            "positions": [
                -0.6642165258182597,
                -0.7927909208268549,
                1.6930283543884281,
                1.4213514132519243,
                -1.2576409898025374,
                -0.10810781228234467
            ]
        },
        {
            "positions": [
                -0.6847700928788435,
                -0.8084362565401655,
                1.7084220882439625,
                1.3134805661487445,
                -1.175184569742374,
                -0.2516732894866658
            ]
        },
        {
            "positions": [
                -0.7053236599394272,
                -0.8240815922534761,
                1.723815822099497,
                1.2056097190455652,
                -1.0927281496822108,
                -0.3952387666909869
            ]
        },
        {
            "positions": [
                -0.725877227000011,
                -0.8397269279667867,
                1.7392095559550313,
                1.0977388719423853,
                -1.0102717296220476,
                -0.5388042438953082
            ]
        },
        {
            "positions": [
                -0.7464307940605948,
                -0.8553722636800974,
                1.7546032898105657,
                0.9898680248392058,
                -0.9278153095618844,
                -0.6823697210996291
            ]
        },
        {
            "positions": [
                -0.7669843611211785,
                -0.8710175993934081,
                1.7699970236661002,
                0.881997177736026,
                -0.8453588895017211,
                -0.8259351983039505
            ]
        },
        {
            "positions": [
                -0.7875379281817623,
                -0.8866629351067187,
                1.7853907575216346,
                0.7741263306328463,
                -0.7629024694415579,
                -0.9695006755082716
            ]
        },
        {
            "positions": [
                -0.808091495242346,
                -0.9023082708200294,
                1.8007844913771691,
                0.6662554835296666,
                -0.6804460493813946,
                -1.1130661527125927
            ]
        },
        {
            "positions": [
                -0.8286450623029298,
                -0.91795360653334,
                1.8161782252327034,
                0.5583846364264871,
                -0.5979896293212315,
                -1.2566316299169138
            ]
        },
        {
            "positions": [
                -0.8491986293635134,
                -0.9335989422466506,
                1.8315719590882378,
                0.45051378932330755,
                -0.5155332092610683,
                -1.400197107121235
            ]
        },
        {
            "positions": [
                -0.8697521964240972,
                -0.9492442779599612,
                1.8469656929437723,
                0.3426429422201278,
                -0.4330767892009051,
                -1.543762584325556
            ]
        },
        {
            "positions": [
                -0.8903057634846809,
                -0.964889613673272,
                1.8623594267993067,
                0.23477209511694785,
                -0.3506203691407417,
                -1.6873280615298776
            ]
        },
        {
            "positions": [
                -0.9108593305452648,
                -0.9805349493865827,
                1.8777531606548412,
                0.12690124801376834,
                -0.2681639490805785,
                -1.8308935387341982
            ]
        },
        {
            "positions": [
                -0.9314128976058484,
                -0.9961802850998933,
                1.8931468945103755,
                0.01903040091058883,
                -0.18570752902041532,
                -1.9744590159385194
            ]
        },
        {
            "positions": [
                -0.9519664646664322,
                -1.011825620813204,
                1.9085406283659099,
                -0.0888404461925909,
                -0.10325110896025214,
                -2.1180244931428405
            ]
        },
        {
            "positions": [
                -0.972520031727016,
                -1.0274709565265145,
                1.9239343622214444,
                -0.19671129329577064,
                -0.02079468890008873,
                -2.261589970347162
            ]
        },
        {
            "positions": [
                -0.9930735987875998,
                -1.0431162922398252,
                1.9393280960769788,
                -0.3045821403989504,
                0.06166173116007445,
                -2.405155447551483
            ]
        },
        {
            "positions": [
                -1.0136271658481835,
                -1.0587616279531358,
                1.954721829932513,
                -0.4124529875021301,
                0.14411815122023763,
                -2.5487209247558043
            ]
        },
        {
            "positions": [
                -1.034180732908767,
                -1.0744069636664464,
                1.9701155637880476,
                -0.5203238346053094,
                0.22657457128040082,
                -2.692286401960125
            ]
        },
        {
            "positions": [
                -1.054734299969351,
                -1.0900522993797572,
                1.985509297643582,
                -0.6281946817084896,
                0.3090309913405642,
                -2.8358518791644465
            ]
        },
        {
            "positions": [
                -1.0752878670299348,
                -1.1056976350930678,
                2.0009030314991163,
                -0.7360655288116689,
                0.3914874114007274,
                -2.9794173563687676
            ]
        },
        {
            "positions": [
                -1.0958414340905185,
                -1.1213429708063785,
                2.016296765354651,
                -0.8439363759148484,
                0.4739438314608904,
                -3.1229828335730887
            ]
        }
    ]
}