{
    "goal": {
        "global_pose": {
            "orientation": {
                "w": -0.00223480608172531,
                "x": 0.0024358444001904467,
                "y": 0.7094548369677653,
                "z": -0.704743149386269
            },
            "position": {
                "x": -0.37947507619857795,
                "y": -0.6371506643295288,
                "z": 0.19426114857196808
            }
        },
        "name": "move_to_magneteinheit_C"
    },
    "id": "LBKPIECE_move_to_magneteinheit_C_70",
    "joint_names": [
        "shoulder_pan_joint",
        "shoulder_lift_joint",
        "elbow_joint",
        "wrist_1_joint",
        "wrist_2_joint",
        "wrist_3_joint"
    ],
    "metrics": {
        "cart_traj_len": 1.0873092979470318,
        "distance_elbow_joint": 1.3126464870798746,
        "distance_shoulder_lift_joint": 1.3298625609844854,
        "distance_shoulder_pan_joint": 0.9094010857787274,
        "distance_wrist_1_joint": 1.4244077713867271,
        "distance_wrist_2_joint": 1.7405579648843834,
        "distance_wrist_3_joint": 2.182281421089546,
        "smoothness": 1.2877688239577112,
        "time": 0.451884241,
        "traj_len": 2.9831455363766186,
        "weighted_distance": 4.053231534177877
    },
    "planner": "LBKPIECE",
    "start": {
        "state": {
            "elbow_joint": 1.9565354010623817,
            "shoulder_lift_joint": -1.4165861575791021,
            "shoulder_pan_joint": -1.6717766225146293,
            "wrist_1_joint": -0.5286633292919765,
            "wrist_2_joint": 1.472756589071564,
            "wrist_3_joint": -3.1238370188695823
        }
    },
    "waypoints": [
        {
            "positions": [
                -1.6717766225146293,
                -1.4165861575791021,
                1.9565354010623817,
                -0.5286633292919765,
                1.472756589071564,
                -3.1238370188695823
            ]
        },
        {
            "positions": [
                -1.7291971406535798,
                -1.5062203844571507,
                2.0091483018943643,
                -0.4850415483040425,
                1.366034315816869,
                -3.1421694371299274
            ]
        },
        {
            "positions": [
                -1.7866176587925302,
                -1.5958546113351992,
                2.061761202726347,
                -0.4414197673161086,
                1.2593120425621742,
                -3.160501855390272
            ]
        },
        {
            "positions": [
                -1.8440381769314809,
                -1.6854888382132476,
                2.1143741035583297,
                -0.39779798632817465,
                1.1525897693074791,
                -3.178834273650617
            ]
        },
        {
            "positions": [
                -1.9014586950704313,
                -1.7751230650912961,
                2.1669870043903128,
                -0.35417620534024075,
                1.0458674960527843,
                -3.197166691910962
            ]
        },
        {
            "positions": [
                -1.9588792132093817,
                -1.8647572919693447,
                2.2195999052222954,
                -0.31055442435230673,
                0.9391452227980893,
                -3.2154991101713066
            ]
        },
        {
            "positions": [
                -2.016299731348332,
                -1.9543915188473933,
                2.272212806054278,
                -0.26693264336437283,
                0.8324229495433945,
                -3.2338315284316517
            ]
        },
        {
            "positions": [
                -2.0204368804081754,
                -1.89475427850704,
                2.202187949574887,
                -0.23366146563141962,
                0.7632314639899297,
                -3.114042506228935
            ]
        },
        {
            "positions": [
                -2.0245740294680186,
                -1.8351170381666864,
                2.1321630930954956,
                -0.2003902878984664,
                0.6940399784364648,
                -2.9942534840262187
            ]
        },
        {
            "positions": [
                -2.0287111785278618,
                -1.775479797826333,
                2.0621382366161045,
                -0.16711911016551323,
                0.624848492883,
                -2.8744644618235027
            ]
        },
        {
            "positions": [
                -2.032848327587705,
                -1.7158425574859797,
                1.9921133801367132,
                -0.13384793243256002,
                0.5556570073295353,
                -2.754675439620786
            ]
        },
        {
            "positions": [
                -2.0369854766475486,
                -1.6562053171456261,
                1.922088523657322,
                -0.10057675469960678,
                0.4864655217760705,
                -2.6348864174180697
            ]
        },
        {
            "positions": [
                -2.041122625707392,
                -1.5965680768052728,
                1.852063667177931,
                -0.0673055769666536,
                0.4172740362226057,
                -2.5150973952153537
            ]
        },
        {
            "positions": [
                -2.045259774767235,
                -1.5369308364649195,
                1.7820388106985394,
                -0.034034399233700385,
                0.3480825506691409,
                -2.3953083730126368
            ]
        },
        {
            "positions": [
                -2.049396923827078,
                -1.4772935961245661,
                1.7120139542191484,
                -0.0007632215007472021,
                0.2788910651156761,
                -2.2755193508099207
            ]
        },
        {
            "positions": [
                -2.0535340728869214,
                -1.4176563557842126,
                1.641989097739757,
                0.03250795623220606,
                0.20969957956221136,
                -2.1557303286072043
            ]
        },
        {
            "positions": [
                -2.164457442054476,
                -1.4053750533862428,
                1.711949452852318,
                -0.0306977634203918,
                0.2068262895172627,
                -2.252298176108021
            ]
        },
        {
            "positions": [
                -2.275380811222031,
                -1.3930937509882728,
                1.7819098079648792,
                -0.09390348307298965,
                0.20395299947231404,
                -2.3488660236088377
            ]
        },
        {
            "positions": [
                -2.3863041803895864,
                -1.3808124485903028,
                1.8518701630774401,
                -0.1571092027255875,
                0.20107970942736536,
                -2.445433871109654
            ]
        },
        {
            "positions": [
                -2.497227549557141,
                -1.368531146192333,
                1.921830518190001,
                -0.22031492237818537,
                0.1982064193824167,
                -2.542001718610471
            ]
        },
        {
            "positions": [
                -2.5074583586631216,
                -1.3346923510340503,
                1.9433336446464673,
                -0.32150171168035946,
                0.27064703557507147,
                -2.6510033309661054
            ]
        },
        {
            "positions": [
                -2.517689167769102,
                -1.3008535558757677,
                1.9648367711029335,
                -0.4226885009825335,
                0.34308765176772626,
                -2.7600049433217397
            ]
        },
        {
            "positions": [
                -2.5279199768750824,
                -1.2670147607174849,
                1.9863398975593998,
                -0.5238752902847077,
                0.415528267960381,
                -2.869006555677374
            ]
        },
        {
            "positions": [
                -2.5101673997356575,
                -1.232121280188723,
                1.9938047555440046,
                -0.626159703399918,
                0.4984235834994717,
                -2.962643050554994
            ]
        },
        {
            "positions": [
                -2.492414822596233,
                -1.197227799659961,
                2.0012696135286094,
                -0.7284441165151283,
                0.5813188990385625,
                -3.0562795454326137
            ]
        },
        {
            "positions": [
                -2.474662245456808,
                -1.162334319131199,
                2.0087344715132143,
                -0.8307285296303386,
                0.6642142145776532,
                -3.1499160403102335
            ]
        }
    ]
}