{
    "goal": {
        "global_pose": {
            "orientation": {
                "w": 0.7047431493862688,
                "x": -0.7094548369677653,
                "y": 0.0024358444001904,
                "z": -0.0022348060817251984
            },
            "position": {
                "x": -0.39052492380142206,
                "y": 0.3671506643295288,
                "z": 0.19426114857196808
            }
        },
        "name": "move_to_magneteinheit_D"
    },
    "id": "LBKPIECE_move_to_magneteinheit_D_11",
    "joint_names": [
        "shoulder_pan_joint",
        "shoulder_lift_joint",
        "elbow_joint",
        "wrist_1_joint",
        "wrist_2_joint",
        "wrist_3_joint"
    ],
    "metrics": {
        "cart_traj_len": 3.696398550062758,
        "distance_elbow_joint": 3.1471884083467963,
        "distance_shoulder_lift_joint": 1.626615652519756,
        "distance_shoulder_pan_joint": 2.8353482008157105,
        "distance_wrist_1_joint": 1.6556228254709873,
        "distance_wrist_2_joint": 1.6867591512670463,
        "distance_wrist_3_joint": 3.317717272515129,
        "smoothness": 0.5788621135554456,
        "time": 0.6138804600000001,
        "traj_len": 3.777466281905826,
        "weighted_distance": 4.924131195724147
    },
    "planner": "LBKPIECE",
    "start": {
        "state": {
            "elbow_joint": 0.749534889911806,
            "shoulder_lift_joint": -0.6476975780787326,
            "shoulder_pan_joint": -2.711696901376241,
            "wrist_1_joint": -0.07506478083263063,
            "wrist_2_joint": 0.43296659715538205,
            "wrist_3_joint": -3.14703540197715
        }
    },
    "waypoints": [
        {
            "positions": [
                -2.711696901376241,
                -0.6476975780787326,
                0.749534889911806,
                -0.07506478083263063,
                0.43296659715538205,
                -3.14703540197715
            ]
        },
        {
            "positions": [
                -2.7134634269153763,
                -0.700985420356353,
                0.6244413434329201,
                -0.07274845476815658,
                0.4151935345414388,
                -3.0624980068020786
            ]
        },
        {
            "positions": [
                -2.7152299524545116,
                -0.7542732626339735,
                0.4993477969540344,
                -0.07043212870368253,
                0.3974204719274956,
                -2.977960611627007
            ]
        },
        {
            "positions": [
                -2.6432032616134826,
                -0.7829381693451613,
                0.38543005927096696,
                -0.04697101461823265,
                0.36043003985994954,
                -2.864822515142831
            ]
        },
        {
            "positions": [
                -2.571176570772453,
                -0.8116030760563488,
                0.2715123215878995,
                -0.023509900532782776,
                0.32343960779240355,
                -2.751684418658654
            ]
        },
        {
            "positions": [
                -2.499149879931424,
                -0.8402679827675366,
                0.1575945839048321,
                -4.8786447332915817e-05,
                0.2864491757248575,
                -2.6385463221744776
            ]
        },
        {
            "positions": [
                -2.427123189090395,
                -0.8689328894787243,
                0.043676846221764654,
                0.023412327638116973,
                0.24945874365731147,
                -2.5254082256903008
            ]
        },
        {
            "positions": [
                -2.355096498249366,
                -0.8975977961899119,
                -0.07024089146130275,
                0.04687344172356683,
                0.21246831158976545,
                -2.4122701292061244
            ]
        },
        {
            "positions": [
                -2.2830698074083364,
                -0.9262627029010996,
                -0.1841586291443702,
                0.0703345558090167,
                0.17547787952221944,
                -2.299132032721948
            ]
        },
        {
            "positions": [
                -2.211043116567307,
                -0.9549276096122872,
                -0.29807636682743754,
                0.09379566989446657,
                0.1384874474546734,
                -2.1859939362377716
            ]
        },
        {
            "positions": [
                -2.139016425726278,
                -0.9835925163234749,
                -0.4119941045105051,
                0.11725678397991647,
                0.10149701538712735,
                -2.0728558397535948
            ]
        },
        {
            "positions": [
                -2.066989734885249,
                -1.0122574230346626,
                -0.5259118421935726,
                0.14071789806536633,
                0.06450658331958137,
                -1.9597177432694184
            ]
        },
        {
            "positions": [
                -1.9949630440442196,
                -1.0409223297458503,
                -0.6398295798766399,
                0.1641790121508162,
                0.027516151252035326,
                -1.8465796467852418
            ]
        },
        {
            "positions": [
                -1.9229363532031902,
                -1.069587236457038,
                -0.7537473175597075,
                0.18764012623626608,
                -0.009474280815510716,
                -1.7334415503010652
            ]
        },
        {
            "positions": [
                -1.8509096623621613,
                -1.0982521431682255,
                -0.8676650552427748,
                0.2111012403217159,
                -0.0464647128830567,
                -1.6203034538168888
            ]
        },
        {
            "positions": [
                -1.778882971521132,
                -1.1269170498794132,
                -0.9815827929258422,
                0.23456235440716583,
                -0.08345514495060274,
                -1.5071653573327122
            ]
        },
        {
            "positions": [
                -1.7068562806801029,
                -1.155581956590601,
                -1.0955005306089096,
                0.25802346849261565,
                -0.12044557701814879,
                -1.3940272608485358
            ]
        },
        {
            "positions": [
                -1.6348295898390737,
                -1.1842468633017886,
                -1.209418268291977,
                0.2814845825780655,
                -0.15743600908569483,
                -1.2808891643643592
            ]
        },
        {
            "positions": [
                -1.5628028989980445,
                -1.2129117700129763,
                -1.3233360059750447,
                0.30494569666351545,
                -0.19442644115324087,
                -1.1677510678801823
            ]
        },
        {
            "positions": [
                -1.4907762081570153,
                -1.241576676724164,
                -1.437253743658112,
                0.32840681074896527,
                -0.2314168732207868,
                -1.054612971396006
            ]
        },
        {
            "positions": [
                -1.418749517315986,
                -1.2702415834353515,
                -1.5511714813411794,
                0.35186792483441515,
                -0.26840730528833284,
                -0.9414748749118296
            ]
        },
        {
            "positions": [
                -1.346722826474957,
                -1.2989064901465392,
                -1.6650892190242468,
                0.375329038919865,
                -0.3053977373558789,
                -0.8283367784276532
            ]
        },
        {
            "positions": [
                -1.2746961356339277,
                -1.327571396857727,
                -1.7790069567073141,
                0.3987901530053149,
                -0.3423881694234249,
                -0.7151986819434765
            ]
        },
        {
            "positions": [
                -1.1786395364773785,
                -1.3644177750047317,
                -1.8613564527095592,
                0.43928745572405004,
                -0.3587763278999706,
                -0.6391742326550389
            ]
        },
        {
            "positions": [
                -1.0825829373208296,
                -1.4012641531517362,
                -1.943705948711804,
                0.4797847584427851,
                -0.3751644863765163,
                -0.5631497833666013
            ]
        },
        {
            "positions": [
                -0.9865263381642804,
                -1.438110531298741,
                -2.026055444714049,
                0.5202820611615202,
                -0.39155264485306196,
                -0.4871253340781637
            ]
        },
        {
            "positions": [
                -0.8904697390077314,
                -1.4749569094457458,
                -2.108404940716294,
                0.5607793638802554,
                -0.4079408033296077,
                -0.4111008847897262
            ]
        },
        {
            "positions": [
                -0.7944131398511822,
                -1.5118032875927503,
                -2.190754436718539,
                0.6012766665989905,
                -0.42432896180615337,
                -0.3350764355012885
            ]
        },
        {
            "positions": [
                -0.6983565406946332,
                -1.548649665739755,
                -2.273103932720784,
                0.6417739693177256,
                -0.44071712028269905,
                -0.25905198621285097
            ]
        },
        {
            "positions": [
                -0.64001441311845,
                -1.602085710090042,
                -2.2929179483082134,
                0.7533481346946376,
                -0.38808543735039014,
                -0.208397058565163
            ]
        },
        {
            "positions": [
                -0.5816722855422668,
                -1.6555217544403291,
                -2.3127319638956427,
                0.8649223000715496,
                -0.3354537544180812,
                -0.15774213091747502
            ]
        },
        {
            "positions": [
                -0.5233301579660836,
                -1.7089577987906162,
                -2.3325459794830716,
                0.9764964654484616,
                -0.2828220714857722,
                -0.10708720326978705
            ]
        },
        {
            "positions": [
                -0.4649880303899005,
                -1.7623938431409032,
                -2.352359995070501,
                1.0880706308253736,
                -0.2301903885534633,
                -0.05643227562209907
            ]
        },
        {
            "positions": [
                -0.24930891134799066,
                -1.8007174090204112,
                -2.369084424627269,
                1.0509877609517235,
                -0.28097256908716484,
                -0.07319699570990268
            ]
        },
        {
            "positions": [
                -0.03362979230608079,
                -1.8390409748999192,
                -2.3858088541840368,
                1.0139048910780737,
                -0.3317547496208663,
                -0.08996171579770629
            ]
        },
        {
            "positions": [
                -0.052170487727042865,
                -1.9303318225284316,
                -2.388162912036155,
                1.1034496678909842,
                -0.23008940644137724,
                -0.049302422115488104
            ]
        },
        {
            "positions": [
                -0.07071118314800494,
                -2.021622670156944,
                -2.3905169698882736,
                1.1929944447038947,
                -0.12842406326188816,
                -0.00864312843326992
            ]
        },
        {
            "positions": [
                -0.08925187856896702,
                -2.112913517785456,
                -2.3928710277403917,
                1.2825392215168052,
                -0.026758720082399018,
                0.032016165248948264
            ]
        },
        {
            "positions": [
                -0.13654833023202867,
                -2.1936133741919726,
                -2.395262273087691,
                1.3573828933302812,
                0.07123543566453029,
                0.06781957771785582
            ]
        },
        {
            "positions": [
                -0.1838447818950903,
                -2.2743132305984886,
                -2.39765351843499,
                1.432226565143757,
                0.1692295914114596,
                0.10362299018676337
            ]
        }
    ]
}