{
    "goal": {
        "global_pose": {
            "orientation": {
                "w": 0.7031023502349854,
                "x": -0.7110244035720825,
                "y": 0.007748599164187908,
                "z": 0.005598929710686207
            },
            "position": {
                "x": 0.11585023208521307,
                "y": 0.44412534475326537,
                "z": 0.3711530566215515
            }
        },
        "name": "move_to_auspresseinheit_A"
    },
    "id": "LBKPIECE_move_to_auspresseinheit_A_89",
    "joint_names": [
        "shoulder_pan_joint",
        "shoulder_lift_joint",
        "elbow_joint",
        "wrist_1_joint",
        "wrist_2_joint",
        "wrist_3_joint"
    ],
    "metrics": {
        "cart_traj_len": 0.9732475730198914,
        "distance_elbow_joint": 0.442600577349765,
        "distance_shoulder_lift_joint": 0.8464287496532903,
        "distance_shoulder_pan_joint": 1.502396627163383,
        "distance_wrist_1_joint": 2.3180204129087705,
        "distance_wrist_2_joint": 1.698516112303956,
        "distance_wrist_3_joint": 0.4673115810298345,
        "smoothness": 1.4664545246206022,
        "time": 0.37238388499999997,
        "traj_len": 2.6972715955960007,
        "weighted_distance": 3.496631771817186
    },
    "planner": "LBKPIECE",
    "start": {
        "state": {
            "elbow_joint": 2.4225746658250005,
            "shoulder_lift_joint": -1.3736534386056498,
            "shoulder_pan_joint": -0.3378633547517467,
            "wrist_1_joint": -1.0288598680537169,
            "wrist_2_joint": 1.233022673432363,
            "wrist_3_joint": -3.0940220416140027
        }
    },
    "waypoints": [
        {
            "positions": [
                -0.3378633547517467,
                -1.3736534386056498,
                2.4225746658250005,
                -1.0288598680537169,
                1.233022673432363,
                -3.0940220416140027
            ]
        },
        {
            "positions": [
                -0.21439554910401176,
                -1.449592698924443,
                2.438728093380384,
                -1.1206665413216452,
                1.2976922233990584,
                -3.0777186571639343
            ]
        },
        {
            "positions": [
                -0.0909277434562768,
                -1.5255319592432361,
                2.454881520935768,
                -1.2124732145895738,
                1.3623617733657536,
                -3.0614152727138655
            ]
        },
        {
            "positions": [
                0.03254006219145816,
                -1.6014712195620293,
                2.471034948491152,
                -1.3042798878575022,
                1.427031323332449,
                -3.045111888263797
            ]
        },
        {
            "positions": [
                0.15600786783919313,
                -1.6774104798808223,
                2.4871883760465354,
                -1.3960865611254305,
                1.4917008732991441,
                -3.0288085038137287
            ]
        },
        {
            "positions": [
                0.2794756734869281,
                -1.7533497401996154,
                2.5033418036019195,
                -1.487893234393359,
                1.5563704232658395,
                -3.01250511936366
            ]
        },
        {
            "positions": [
                0.40294347913466305,
                -1.8292890005184086,
                2.519495231157303,
                -1.5796999076612874,
                1.6210399732325347,
                -2.9962017349135914
            ]
        },
        {
            "positions": [
                0.5264112847823981,
                -1.9052282608372018,
                2.5356486587126867,
                -1.6715065809292158,
                1.68570952319923,
                -2.979898350463523
            ]
        },
        {
            "positions": [
                0.649879090430133,
                -1.981167521155995,
                2.551802086268071,
                -1.7633132541971444,
                1.7503790731659254,
                -2.963594966013454
            ]
        },
        {
            "positions": [
                0.773346896077868,
                -2.057106781474788,
                2.5679555138234544,
                -1.8551199274650727,
                1.8150486231326206,
                -2.9472915815633858
            ]
        },
        {
            "positions": [
                0.7446385884758178,
                -2.0375743763961345,
                2.5383370384627226,
                -1.6748799111665762,
                1.685828445072639,
                -2.938612521440886
            ]
        },
        {
            "positions": [
                0.7159302808737675,
                -2.018041971317481,
                2.508718563101991,
                -1.4946398948680795,
                1.5566082670126578,
                -2.9299334613183863
            ]
        },
        {
            "positions": [
                0.6872219732717172,
                -1.9985095662388273,
                2.479100087741259,
                -1.314399878569583,
                1.4273880889526762,
                -2.921254401195886
            ]
        },
        {
            "positions": [
                0.658513665669667,
                -1.9789771611601736,
                2.449481612380527,
                -1.1341598622710864,
                1.298167910892695,
                -2.9125753410733863
            ]
        },
        {
            "positions": [
                0.6298053580676167,
                -1.95944475608152,
                2.4198631370197954,
                -0.9539198459725899,
                1.1689477328327134,
                -2.9038962809508866
            ]
        },
        {
            "positions": [
                0.6010970504655664,
                -1.9399123510028664,
                2.3902446616590636,
                -0.7736798296740932,
                1.0397275547727318,
                -2.8952172208283864
            ]
        },
        {
            "positions": [
                0.5723887428635162,
                -1.9203799459242128,
                2.3606261862983318,
                -0.5934398133755967,
                0.9105073767127504,
                -2.8865381607058866
            ]
        },
        {
            "positions": [
                0.5436804352614659,
                -1.9008475408455592,
                2.3310077109376,
                -0.4131997970771001,
                0.781287198652769,
                -2.877859100583387
            ]
        },
        {
            "positions": [
                0.6244403930201491,
                -1.9042056239230207,
                2.361143674170328,
                -0.43811990863182093,
                0.7399228295908454,
                -3.0034334205829962
            ]
        },
        {
            "positions": [
                0.7052003507788323,
                -1.9075637070004823,
                2.3912796374030565,
                -0.4630400201865417,
                0.6985584605289219,
                -3.1290077405826056
            ]
        }
    ]
}