{
    "goal": {
        "global_pose": {
            "orientation": {
                "w": 0.7031023502349854,
                "x": -0.7110244035720825,
                "y": 0.007748599164187908,
                "z": 0.005598929710686207
            },
            "position": {
                "x": 0.11585023208521307,
                "y": 0.44412534475326537,
                "z": 0.3711530566215515
            }
        },
        "name": "move_to_auspresseinheit_A"
    },
    "id": "LBKPIECE_move_to_auspresseinheit_A_57",
    "joint_names": [
        "shoulder_pan_joint",
        "shoulder_lift_joint",
        "elbow_joint",
        "wrist_1_joint",
        "wrist_2_joint",
        "wrist_3_joint"
    ],
    "metrics": {
        "cart_traj_len": 0.7022310862652715,
        "distance_elbow_joint": 0.34452616970089567,
        "distance_shoulder_lift_joint": 0.5355589328833117,
        "distance_shoulder_pan_joint": 1.0466390333960813,
        "distance_wrist_1_joint": 1.3631199633881854,
        "distance_wrist_2_joint": 0.514410201683232,
        "distance_wrist_3_joint": 2.016108025712161,
        "smoothness": 0.29393906826632404,
        "time": 0.26007455700000004,
        "traj_len": 2.4125427098320698,
        "weighted_distance": 3.4249246040255548
    },
    "planner": "LBKPIECE",
    "start": {
        "state": {
            "elbow_joint": 2.4225746658250005,
            "shoulder_lift_joint": -1.3736534386056498,
            "shoulder_pan_joint": -0.3378633547517467,
            "wrist_1_joint": -1.0288598680537169,
            "wrist_2_joint": 1.233022673432363,
            "wrist_3_joint": -3.0940220416140027
        }
    },
    "waypoints": [
        {
            "positions": [
                -0.3378633547517467,
                -1.3736534386056498,
                2.4225746658250005,
                -1.0288598680537169,
                1.233022673432363,
                -3.0940220416140027
            ]
        },
        {
            "positions": [
                -0.2807519981309923,
                -1.411876662583556,
                2.4018135758513455,
                -0.9243658291805344,
                1.1871245558708798,
                -2.983787433587956
            ]
        },
        {
            "positions": [
                -0.2236406415102378,
                -1.450099886561462,
                2.3810524858776905,
                -0.819871790307352,
                1.1412264383093966,
                -2.873552825561909
            ]
        },
        {
            "positions": [
                -0.16652928488948332,
                -1.4883231105393682,
                2.3602913959040355,
                -0.7153777514341696,
                1.0953283207479134,
                -2.7633182175358626
            ]
        },
        {
            "positions": [
                -0.10941792826872887,
                -1.5265463345172743,
                2.3395303059303805,
                -0.6108837125609872,
                1.0494302031864302,
                -2.6530836095098156
            ]
        },
        {
            "positions": [
                -0.052306571647974365,
                -1.5647695584951804,
                2.318769215956726,
                -0.5063896736878046,
                1.003532085624947,
                -2.542849001483769
            ]
        },
        {
            "positions": [
                0.004804784972780085,
                -1.6029927824730865,
                2.298008125983071,
                -0.4018956348146223,
                0.9576339680634639,
                -2.4326143934577225
            ]
        },
        {
            "positions": [
                0.061916141593534535,
                -1.6412160064509926,
                2.277247036009416,
                -0.2974015959414398,
                0.9117358505019806,
                -2.3223797854316754
            ]
        },
        {
            "positions": [
                0.11902749821428898,
                -1.6794392304288988,
                2.256485946035761,
                -0.19290755706825746,
                0.8658377329404975,
                -2.2121451774056284
            ]
        },
        {
            "positions": [
                0.17613885483504355,
                -1.7176624544068049,
                2.235724856062106,
                -0.08841351819507497,
                0.8199396153790143,
                -2.101910569379582
            ]
        },
        {
            "positions": [
                0.2652512643851263,
                -1.760248394745176,
                2.2935264687524253,
                -0.06742392686027832,
                0.8027130085035867,
                -2.1038185617532896
            ]
        },
        {
            "positions": [
                0.3391720000949944,
                -1.7850757242024735,
                2.310172259960372,
                -0.1343712638927361,
                0.7886962523778441,
                -2.274166655270628
            ]
        },
        {
            "positions": [
                0.4130927358048624,
                -1.809903053659771,
                2.326818051168319,
                -0.20131860092519388,
                0.7746794962521015,
                -2.444514748787967
            ]
        },
        {
            "positions": [
                0.4870134715147305,
                -1.8347303831170687,
                2.3434638423762664,
                -0.2682659379576517,
                0.7606627401263588,
                -2.614862842305306
            ]
        },
        {
            "positions": [
                0.5609342072245985,
                -1.8595577125743663,
                2.360109633584213,
                -0.33521327499010944,
                0.7466459840006162,
                -2.7852109358226445
            ]
        },
        {
            "positions": [
                0.6348549429344665,
                -1.884385042031664,
                2.37675542479216,
                -0.4021606120225673,
                0.7326292278748736,
                -2.955559029339983
            ]
        },
        {
            "positions": [
                0.7087756786443347,
                -1.9092123714889615,
                2.393401216000107,
                -0.46910794905502506,
                0.718612471749131,
                -3.125907122857322
            ]
        }
    ]
}