{
    "goal": {
        "global_pose": {
            "orientation": {
                "w": 0.005598929693374612,
                "x": 0.007748599140229565,
                "y": 0.7110244013736278,
                "z": -0.7031023480610252
            },
            "position": {
                "x": 0.1141497679147869,
                "y": -0.7141253447532654,
                "z": 0.3711530566215515
            }
        },
        "name": "move_to_auspresseinheit_B"
    },
    "id": "LBKPIECE_move_to_auspresseinheit_B_78",
    "joint_names": [
        "shoulder_pan_joint",
        "shoulder_lift_joint",
        "elbow_joint",
        "wrist_1_joint",
        "wrist_2_joint",
        "wrist_3_joint"
    ],
    "metrics": {
        "cart_traj_len": 0.5641520461823264,
        "distance_elbow_joint": 0.06366994149157734,
        "distance_shoulder_lift_joint": 0.29535881396704067,
        "distance_shoulder_pan_joint": 0.5777314069438519,
        "distance_wrist_1_joint": 0.3371606369772978,
        "distance_wrist_2_joint": 0.9895814317178888,
        "distance_wrist_3_joint": 0.006579157643360034,
        "smoothness": 0.0,
        "time": 0.318431302,
        "traj_len": 1.5066789268921952,
        "weighted_distance": 1.899995203342083
    },
    "planner": "LBKPIECE",
    "start": {
        "state": {
            "elbow_joint": 2.0193083361928714,
            "shoulder_lift_joint": -1.1220246554650708,
            "shoulder_pan_joint": -1.0952077554168747,
            "wrist_1_joint": -0.8559753972642168,
            "wrist_2_joint": 0.4759566250798843,
            "wrist_3_joint": -3.1240929996934557
        }
    },
    "waypoints": [
        {
            "positions": [
                -1.0952077554168747,
                -1.1220246554650708,
                2.0193083361928714,
                -0.8559753972642168,
                0.4759566250798843,
                -3.1240929996934557
            ]
        },
        {
            "positions": [
                -1.19149632324085,
                -1.1712511244595776,
                2.0086966792776084,
                -0.7997819577680005,
                0.6408868636995324,
                -3.125189525967349
            ]
        },
        {
            "positions": [
                -1.2877848910648253,
                -1.2204775934540844,
                1.9980850223623456,
                -0.7435885182717842,
                0.8058171023191805,
                -3.1262860522412423
            ]
        },
        {
            "positions": [
                -1.3840734588888006,
                -1.2697040624485911,
                1.9874733654470829,
                -0.6873950787755678,
                0.9707473409388288,
                -3.1273825785151357
            ]
        },
        {
            "positions": [
                -1.480362026712776,
                -1.318930531443098,
                1.9768617085318199,
                -0.6312016392793516,
                1.1356775795584768,
                -3.128479104789029
            ]
        },
        {
            "positions": [
                -1.5766505945367513,
                -1.3681570004376047,
                1.9662500516165569,
                -0.5750081997831353,
                1.300607818178125,
                -3.1295756310629224
            ]
        },
        {
            "positions": [
                -1.6729391623607266,
                -1.4173834694321115,
                1.955638394701294,
                -0.518814760286919,
                1.4655380567977732,
                -3.1306721573368157
            ]
        }
    ]
}