{
    "goal": {
        "global_pose": {
            "orientation": {
                "w": -0.4816463035849501,
                "x": 0.5182115481033762,
                "y": 0.4908360881923453,
                "z": -0.5084816262002911
            },
            "position": {
                "x": -0.8240239810943604,
                "y": -0.300875300988555,
                "z": 0.16403168439865112
            }
        },
        "name": "move_to_storage_C"
    },
    "id": "LBKPIECE_move_to_storage_C_11",
    "joint_names": [
        "shoulder_pan_joint",
        "shoulder_lift_joint",
        "elbow_joint",
        "wrist_1_joint",
        "wrist_2_joint",
        "wrist_3_joint"
    ],
    "metrics": {
        "cart_traj_len": 0.5769943024571913,
        "distance_elbow_joint": 0.2554995053983433,
        "distance_shoulder_lift_joint": 0.18974284495468585,
        "distance_shoulder_pan_joint": 0.4939794583234667,
        "distance_wrist_1_joint": 0.06604763477721143,
        "distance_wrist_2_joint": 1.0767828626292388,
        "distance_wrist_3_joint": 0.061068877009371025,
        "smoothness": 0.0,
        "time": 0.11867026,
        "traj_len": 1.4639402935544594,
        "weighted_distance": 1.846101144173176
    },
    "planner": "LBKPIECE",
    "start": {
        "state": {
            "elbow_joint": 2.010868314990456,
            "shoulder_lift_joint": -1.1634956873337592,
            "shoulder_pan_joint": -2.4736205022346125,
            "wrist_1_joint": -0.8367026794202681,
            "wrist_2_joint": 0.6746043897044499,
            "wrist_3_joint": -3.1496632123970403
        }
    },
    "waypoints": [
        {
            "positions": [
                -2.4736205022346125,
                -1.1634956873337592,
                2.010868314990456,
                -0.8367026794202681,
                0.6746043897044499,
                -3.1496632123970403
            ]
        },
        {
            "positions": [
                -2.55595041195519,
                -1.1318718798413117,
                1.968285064090732,
                -0.8256947402907329,
                0.8540682001426564,
                -3.139485066228812
            ]
        },
        {
            "positions": [
                -2.638280321675768,
                -1.100248072348864,
                1.925701813191008,
                -0.8146868011611976,
                1.033532010580863,
                -3.1293069200605834
            ]
        },
        {
            "positions": [
                -2.720610231396346,
                -1.0686242648564162,
                1.8831185622912843,
                -0.8036788620316624,
                1.2129958210190694,
                -3.1191287738923545
            ]
        },
        {
            "positions": [
                -2.8029401411169235,
                -1.0370004573639686,
                1.8405353113915603,
                -0.7926709229021272,
                1.392459631457276,
                -3.108950627724126
            ]
        },
        {
            "positions": [
                -2.8852700508375015,
                -1.005376649871521,
                1.7979520604918364,
                -0.7816629837725919,
                1.5719234418954824,
                -3.0987724815558977
            ]
        },
        {
            "positions": [
                -2.967599960558079,
                -0.9737528423790733,
                1.7553688095921125,
                -0.7706550446430567,
                1.7513872523336886,
                -3.0885943353876693
            ]
        }
    ]
}