{
    "goal": {
        "global_pose": {
            "orientation": {
                "w": 0.005598929693374612,
                "x": 0.007748599140229565,
                "y": 0.7110244013736278,
                "z": -0.7031023480610252
            },
            "position": {
                "x": -0.8858502320852131,
                "y": -0.7141253447532654,
                "z": 0.3711530566215515
            }
        },
        "name": "move_to_auspresseinheit_C"
    },
    "id": "LBKPIECE_move_to_auspresseinheit_C_5",
    "joint_names": [
        "shoulder_pan_joint",
        "shoulder_lift_joint",
        "elbow_joint",
        "wrist_1_joint",
        "wrist_2_joint",
        "wrist_3_joint"
    ],
    "metrics": {
        "cart_traj_len": 0.49186956226062645,
        "distance_elbow_joint": 0.9896450052580049,
        "distance_shoulder_lift_joint": 0.31974639416857353,
        "distance_shoulder_pan_joint": 0.25605782952305756,
        "distance_wrist_1_joint": 0.6641018721260903,
        "distance_wrist_2_joint": 1.3083903414895586,
        "distance_wrist_3_joint": 0.059570777439962086,
        "smoothness": 9.689219149575435e-16,
        "time": 0.630359922,
        "traj_len": 1.89671089520919,
        "weighted_distance": 2.385193071535472
    },
    "planner": "LBKPIECE",
    "start": {
        "state": {
            "elbow_joint": 1.7527959577737207,
            "shoulder_lift_joint": -0.9740617694225068,
            "shoulder_pan_joint": -2.967991417825858,
            "wrist_1_joint": -0.759517768980727,
            "wrist_2_joint": 1.7443932448377408,
            "wrist_3_joint": -3.0840537646736568
        }
    },
    "waypoints": [
        {
            "positions": [
                -2.967991417825858,
                -0.9740617694225068,
                1.7527959577737207,
                -0.759517768980727,
                1.7443932448377408,
                -3.0840537646736568
            ]
        },
        {
            "positions": [
                -2.942385634873552,
                -0.9420871300056495,
                1.6538314572479202,
                -0.6931075817681179,
                1.613554210688785,
                -3.090010842417653
            ]
        },
        {
            "positions": [
                -2.9167798519212464,
                -0.9101124905887921,
                1.5548669567221196,
                -0.6266973945555089,
                1.4827151765398292,
                -3.095967920161649
            ]
        },
        {
            "positions": [
                -2.8911740689689407,
                -0.8781378511719347,
                1.4559024561963192,
                -0.5602872073428999,
                1.3518761423908732,
                -3.1019249979056456
            ]
        },
        {
            "positions": [
                -2.865568286016635,
                -0.8461632117550774,
                1.3569379556705186,
                -0.49387702013029083,
                1.2210371082419174,
                -3.1078820756496417
            ]
        },
        {
            "positions": [
                -2.839962503064329,
                -0.8141885723382201,
                1.2579734551447181,
                -0.42746683291768184,
                1.0901980740929615,
                -3.113839153393638
            ]
        },
        {
            "positions": [
                -2.8143567201120234,
                -0.7822139329213627,
                1.1590089546189177,
                -0.36105664570507284,
                0.9593590399440057,
                -3.119796231137634
            ]
        },
        {
            "positions": [
                -2.7887509371597177,
                -0.7502392935045054,
                1.0600444540931173,
                -0.2946464584924638,
                0.8285200057950499,
                -3.12575330888163
            ]
        },
        {
            "positions": [
                -2.763145154207412,
                -0.718264654087648,
                0.9610799535673167,
                -0.22823627127985469,
                0.6976809716460939,
                -3.1317103866256266
            ]
        },
        {
            "positions": [
                -2.737539371255106,
                -0.6862900146707906,
                0.8621154530415163,
                -0.16182608406724575,
                0.5668419374971381,
                -3.1376674643696227
            ]
        },
        {
            "positions": [
                -2.7119335883028004,
                -0.6543153752539332,
                0.7631509525157157,
                -0.09541589685463668,
                0.4360029033481823,
                -3.143624542113619
            ]
        }
    ]
}