{
    "goal": {
        "global_pose": {
            "orientation": {
                "w": -0.4816463035849501,
                "x": 0.5182115481033762,
                "y": 0.4908360881923453,
                "z": -0.5084816262002911
            },
            "position": {
                "x": -0.8240239810943604,
                "y": -0.300875300988555,
                "z": 0.16403168439865112
            }
        },
        "name": "move_to_storage_C"
    },
    "id": "LBKPIECE_move_to_storage_C_148",
    "joint_names": [
        "shoulder_pan_joint",
        "shoulder_lift_joint",
        "elbow_joint",
        "wrist_1_joint",
        "wrist_2_joint",
        "wrist_3_joint"
    ],
    "metrics": {
        "cart_traj_len": 0.5768503391701467,
        "distance_elbow_joint": 0.26151751698989534,
        "distance_shoulder_lift_joint": 0.1900545437336466,
        "distance_shoulder_pan_joint": 0.49461668237120016,
        "distance_wrist_1_joint": 0.08670758949356838,
        "distance_wrist_2_joint": 1.0646870108548914,
        "distance_wrist_3_joint": 0.07247193802477536,
        "smoothness": 2.5376526478085547e-16,
        "time": 0.469763491,
        "traj_len": 1.4731107498989944,
        "weighted_distance": 1.8618253832908143
    },
    "planner": "LBKPIECE",
    "start": {
        "state": {
            "elbow_joint": 2.010868314990456,
            "shoulder_lift_joint": -1.1634956873337592,
            "shoulder_pan_joint": -2.4736205022346125,
            "wrist_1_joint": -0.8367026794202681,
            "wrist_2_joint": 0.6746043897044499,
            "wrist_3_joint": -3.1496632123970403
        }
    },
    "waypoints": [
        {
            "positions": [
                -2.4736205022346125,
                -1.1634956873337592,
                2.010868314990456,
                -0.8367026794202681,
                0.6746043897044499,
                -3.1496632123970403
            ]
        },
        {
            "positions": [
                -2.5560566159631457,
                -1.1318199300448182,
                1.9672820621588065,
                -0.8222514145046733,
                0.8520522248469318,
                -3.137584556059578
            ]
        },
        {
            "positions": [
                -2.6384927296916794,
                -1.100144172755877,
                1.9236958093271574,
                -0.8078001495890786,
                1.0295000599894137,
                -3.125505899722115
            ]
        },
        {
            "positions": [
                -2.7209288434202126,
                -1.068468415466936,
                1.8801095564955081,
                -0.793348884673484,
                1.2069478951318957,
                -3.1134272433846526
            ]
        },
        {
            "positions": [
                -2.803364957148746,
                -1.0367926581779947,
                1.8365233036638589,
                -0.7788976197578892,
                1.3843957302743775,
                -3.10134858704719
            ]
        },
        {
            "positions": [
                -2.8858010708772794,
                -1.0051169008890537,
                1.7929370508322098,
                -0.7644463548422944,
                1.5618435654168594,
                -3.0892699307097273
            ]
        },
        {
            "positions": [
                -2.9682371846058127,
                -0.9734411436001126,
                1.7493507980005605,
                -0.7499950899266997,
                1.7392914005593412,
                -3.077191274372265
            ]
        }
    ]
}