{
    "goal": {
        "global_pose": {
            "orientation": {
                "w": 0.7047431468963623,
                "x": -0.7094548344612122,
                "y": 0.0024358443915843964,
                "z": -0.0022348060738295317
            },
            "position": {
                "x": 0.6094750761985779,
                "y": 0.3671506643295288,
                "z": 0.19426114857196808
            }
        },
        "name": "move_to_magneteinheit_A"
    },
    "id": "LBKPIECE_move_to_magneteinheit_A_91",
    "joint_names": [
        "shoulder_pan_joint",
        "shoulder_lift_joint",
        "elbow_joint",
        "wrist_1_joint",
        "wrist_2_joint",
        "wrist_3_joint"
    ],
    "metrics": {
        "cart_traj_len": 3.178919491981093,
        "distance_elbow_joint": 3.875178780690601,
        "distance_shoulder_lift_joint": 0.2263187503154942,
        "distance_shoulder_pan_joint": 2.741532263303084,
        "distance_wrist_1_joint": 2.1936549378695758,
        "distance_wrist_2_joint": 1.7279875415982855,
        "distance_wrist_3_joint": 2.5908602935594796,
        "smoothness": 0.11618153547516753,
        "time": 0.30487533099999997,
        "traj_len": 3.654522207804533,
        "weighted_distance": 4.73908172897697
    },
    "planner": "LBKPIECE",
    "start": {
        "state": {
            "elbow_joint": -1.9196185241190666,
            "shoulder_lift_joint": -1.2443396400964142,
            "shoulder_pan_joint": 2.6996025414629847,
            "wrist_1_joint": -1.5485510000780065,
            "wrist_2_joint": -1.5709468930060704,
            "wrist_3_joint": 0.4420197071253992
        }
    },
    "waypoints": [
        {
            "positions": [
                2.6996025414629847,
                -1.2443396400964142,
                -1.9196185241190666,
                -1.5485510000780065,
                -1.5709468930060704,
                0.4420197071253992
            ]
        },
        {
            "positions": [
                2.5937084640029355,
                -1.246614621367572,
                -1.7970694320437381,
                -1.485516659404825,
                -1.5236468298006327,
                0.4956160449849754
            ]
        },
        {
            "positions": [
                2.487814386542886,
                -1.24888960263873,
                -1.6745203399684097,
                -1.4224823187316433,
                -1.4763467665951953,
                0.5492123828445516
            ]
        },
        {
            "positions": [
                2.3819203090828367,
                -1.2511645839098877,
                -1.5519712478930812,
                -1.3594479780584618,
                -1.4290467033897576,
                0.6028087207041279
            ]
        },
        {
            "positions": [
                2.2760262316227875,
                -1.2534395651810457,
                -1.4294221558177527,
                -1.2964136373852804,
                -1.38174664018432,
                0.6564050585637042
            ]
        },
        {
            "positions": [
                2.1701321541627383,
                -1.2557145464522035,
                -1.3068730637424242,
                -1.2333792967120987,
                -1.3344465769788822,
                0.7100013964232805
            ]
        },
        {
            "positions": [
                2.064238076702689,
                -1.2579895277233613,
                -1.1843239716670957,
                -1.1703449560389172,
                -1.2871465137734446,
                0.7635977342828567
            ]
        },
        {
            "positions": [
                1.9583439992426395,
                -1.2602645089945193,
                -1.0617748795917672,
                -1.1073106153657357,
                -1.2398464505680071,
                0.817194072142433
            ]
        },
        {
            "positions": [
                1.8524499217825903,
                -1.262539490265677,
                -0.9392257875164389,
                -1.044276274692554,
                -1.1925463873625695,
                0.8707904100020092
            ]
        },
        {
            "positions": [
                1.746555844322541,
                -1.2648144715368348,
                -0.8166766954411104,
                -0.9812419340193725,
                -1.1452463241571318,
                0.9243867478615855
            ]
        },
        {
            "positions": [
                1.6406617668624917,
                -1.2670894528079928,
                -0.6941276033657819,
                -0.918207593346191,
                -1.0979462609516943,
                0.9779830857211618
            ]
        },
        {
            "positions": [
                1.5347676894024425,
                -1.2693644340791506,
                -0.5715785112904535,
                -0.8551732526730095,
                -1.0506461977462567,
                1.0315794235807378
            ]
        },
        {
            "positions": [
                1.428873611942393,
                -1.2716394153503083,
                -0.44902941921512496,
                -0.7921389119998279,
                -1.003346134540819,
                1.0851757614403144
            ]
        },
        {
            "positions": [
                1.3229795344823438,
                -1.2739143966214663,
                -0.3264803271397967,
                -0.7291045713266464,
                -0.9560460713353814,
                1.1387720992998904
            ]
        },
        {
            "positions": [
                1.2170854570222944,
                -1.276189377892624,
                -0.20393123506446797,
                -0.6660702306534647,
                -0.9087460081299438,
                1.192368437159467
            ]
        },
        {
            "positions": [
                1.111191379562245,
                -1.278464359163782,
                -0.08138214298913948,
                -0.6030358899802832,
                -0.8614459449245062,
                1.245964775019043
            ]
        },
        {
            "positions": [
                1.0052973021021958,
                -1.2807393404349399,
                0.04116694908618879,
                -0.5400015493071018,
                -0.8141458817190685,
                1.299561112878619
            ]
        },
        {
            "positions": [
                0.8994032246421464,
                -1.2830143217060976,
                0.16371604116151772,
                -0.47696720863392006,
                -0.7668458185136309,
                1.3531574507381956
            ]
        },
        {
            "positions": [
                0.7935091471820972,
                -1.2852893029772556,
                0.28626513323684577,
                -0.4139328679607386,
                -0.7195457553081933,
                1.4067537885977717
            ]
        },
        {
            "positions": [
                0.6876150697220478,
                -1.2875642842484134,
                0.40881422531217426,
                -0.3508985272875571,
                -0.6722456921027558,
                1.4603501264573482
            ]
        },
        {
            "positions": [
                0.5817209922619986,
                -1.2898392655195714,
                0.5313633173875028,
                -0.2878641866143754,
                -0.6249456288973181,
                1.5139464643169243
            ]
        },
        {
            "positions": [
                0.4758269148019494,
                -1.2921142467907292,
                0.6539124094628312,
                -0.22482984594119393,
                -0.5776455656918804,
                1.5675428021765008
            ]
        },
        {
            "positions": [
                0.3699328373419002,
                -1.294389228061887,
                0.7764615015381597,
                -0.16179550526801245,
                -0.530345502486443,
                1.6211391400360768
            ]
        },
        {
            "positions": [
                0.26403875988185055,
                -1.296664209333045,
                0.8990105936134882,
                -0.09876116459483075,
                -0.4830454392810053,
                1.674735477895653
            ]
        },
        {
            "positions": [
                0.1581446824218013,
                -1.2989391906042027,
                1.0215596856888167,
                -0.03572682392164932,
                -0.4357453760755676,
                1.7283318157552294
            ]
        },
        {
            "positions": [
                0.11746637059833129,
                -1.2980869212373198,
                1.0754870857189511,
                -0.03504313976678605,
                -0.4020126058082331,
                1.8122984216207427
            ]
        },
        {
            "positions": [
                0.07678805877486126,
                -1.297234651870437,
                1.1294144857490855,
                -0.03435945561192278,
                -0.3682798355408986,
                1.896265027486256
            ]
        },
        {
            "positions": [
                0.07163951719435788,
                -1.2862533740295015,
                1.2044653319140548,
                -0.11313963822297857,
                -0.32691251513927433,
                2.039585312794211
            ]
        },
        {
            "positions": [
                0.06649097561385449,
                -1.275272096188566,
                1.279516178079024,
                -0.19191982083403436,
                -0.2855451947376501,
                2.1829055981021668
            ]
        },
        {
            "positions": [
                0.0613424340333511,
                -1.2642908183476305,
                1.3545670242439933,
                -0.27070000344509015,
                -0.24417787433602586,
                2.326225883410122
            ]
        },
        {
            "positions": [
                0.05619389245284771,
                -1.2533095405066952,
                1.4296178704089626,
                -0.34948018605614595,
                -0.20281055393440162,
                2.4695461687180775
            ]
        },
        {
            "positions": [
                0.051045350872344325,
                -1.2423282626657597,
                1.504668716573932,
                -0.42826036866720174,
                -0.16144323353277734,
                2.6128664540260327
            ]
        },
        {
            "positions": [
                0.04589680929184094,
                -1.2313469848248242,
                1.5797195627389014,
                -0.5070405512782575,
                -0.12007591313115312,
                2.7561867393339883
            ]
        },
        {
            "positions": [
                0.04074826771133755,
                -1.2203657069838887,
                1.6547704089038706,
                -0.5858207338893133,
                -0.07870859272952885,
                2.8995070246419434
            ]
        },
        {
            "positions": [
                0.07747762827544474,
                -1.2221962951027536,
                1.7968377556087556,
                -0.5842185589247634,
                -0.0932555061512076,
                3.0302008576485973
            ]
        },
        {
            "positions": [
                0.10045194276911015,
                -1.1765387310684903,
                1.876199006090145,
                -0.6474185290055395,
                0.017345657798824896,
                3.0288612861304562
            ]
        },
        {
            "positions": [
                0.12342625726277555,
                -1.130881167034227,
                1.9555602565715346,
                -0.7106184990863157,
                0.1279468217488574,
                3.0275217146123157
            ]
        }
    ]
}