{
    "goal": {
        "global_pose": {
            "orientation": {
                "w": -0.4816463035849501,
                "x": 0.5182115481033762,
                "y": 0.4908360881923453,
                "z": -0.5084816262002911
            },
            "position": {
                "x": -0.8240239810943604,
                "y": -0.300875300988555,
                "z": 0.16403168439865112
            }
        },
        "name": "move_to_storage_C"
    },
    "id": "LBKPIECE_move_to_storage_C_101",
    "joint_names": [
        "shoulder_pan_joint",
        "shoulder_lift_joint",
        "elbow_joint",
        "wrist_1_joint",
        "wrist_2_joint",
        "wrist_3_joint"
    ],
    "metrics": {
        "cart_traj_len": 0.5763761392530435,
        "distance_elbow_joint": 0.25695998439902246,
        "distance_shoulder_lift_joint": 0.18932756787436966,
        "distance_shoulder_pan_joint": 0.49476489302827176,
        "distance_wrist_1_joint": 0.06953995277161307,
        "distance_wrist_2_joint": 1.0606324745281195,
        "distance_wrist_3_joint": 0.06956902764755091,
        "smoothness": 2.5376526478085547e-16,
        "time": 0.48963274900000003,
        "traj_len": 1.4631452081898597,
        "weighted_distance": 1.8466467942851936
    },
    "planner": "LBKPIECE",
    "start": {
        "state": {
            "elbow_joint": 2.010868314990456,
            "shoulder_lift_joint": -1.1634956873337592,
            "shoulder_pan_joint": -2.4736205022346125,
            "wrist_1_joint": -0.8367026794202681,
            "wrist_2_joint": 0.6746043897044499,
            "wrist_3_joint": -3.1496632123970403
        }
    },
    "waypoints": [
        {
            "positions": [
                -2.4736205022346125,
                -1.1634956873337592,
                2.010868314990456,
                -0.8367026794202681,
                0.6746043897044499,
                -3.1496632123970403
            ]
        },
        {
            "positions": [
                -2.5560813177393245,
                -1.131941092688031,
                1.968041650923952,
                -0.8251126872916659,
                0.8513764687924699,
                -3.1380683744557816
            ]
        },
        {
            "positions": [
                -2.6385421332440364,
                -1.1003864980423026,
                1.9252149868574484,
                -0.8135226951630637,
                1.0281485478804897,
                -3.1264735365145233
            ]
        },
        {
            "positions": [
                -2.7210029487487484,
                -1.0688319033965743,
                1.8823883227909446,
                -0.8019327030344616,
                1.2049206269685095,
                -3.114878698573265
            ]
        },
        {
            "positions": [
                -2.8034637642534603,
                -1.037277308750846,
                1.8395616587244408,
                -0.7903427109058594,
                1.3816927060565294,
                -3.1032838606320063
            ]
        },
        {
            "positions": [
                -2.8859245797581723,
                -1.0057227141051177,
                1.7967349946579372,
                -0.7787527187772572,
                1.5584647851445497,
                -3.0916890226907476
            ]
        },
        {
            "positions": [
                -2.9683853952628843,
                -0.9741681194593895,
                1.7539083305914334,
                -0.767162726648655,
                1.7352368642325695,
                -3.0800941847494894
            ]
        }
    ]
}