{
    "goal": {
        "global_pose": {
            "orientation": {
                "w": 0.005598929693374612,
                "x": 0.007748599140229565,
                "y": 0.7110244013736278,
                "z": -0.7031023480610252
            },
            "position": {
                "x": -0.8858502320852131,
                "y": -0.7141253447532654,
                "z": 0.3711530566215515
            }
        },
        "name": "move_to_auspresseinheit_C"
    },
    "id": "LBKPIECE_move_to_auspresseinheit_C_76",
    "joint_names": [
        "shoulder_pan_joint",
        "shoulder_lift_joint",
        "elbow_joint",
        "wrist_1_joint",
        "wrist_2_joint",
        "wrist_3_joint"
    ],
    "metrics": {
        "cart_traj_len": 0.5618603693783473,
        "distance_elbow_joint": 0.9841998988171153,
        "distance_shoulder_lift_joint": 0.3178142273010376,
        "distance_shoulder_pan_joint": 0.2566543998790922,
        "distance_wrist_1_joint": 0.652796367653483,
        "distance_wrist_2_joint": 1.301260491677802,
        "distance_wrist_3_joint": 0.31559290868345347,
        "smoothness": 0.1641214740203871,
        "time": 0.5043660999999999,
        "traj_len": 1.9566088760945515,
        "weighted_distance": 2.5325009320255294
    },
    "planner": "LBKPIECE",
    "start": {
        "state": {
            "elbow_joint": 1.7527959577737207,
            "shoulder_lift_joint": -0.9740617694225068,
            "shoulder_pan_joint": -2.967991417825858,
            "wrist_1_joint": -0.759517768980727,
            "wrist_2_joint": 1.7443932448377408,
            "wrist_3_joint": -3.0840537646736568
        }
    },
    "waypoints": [
        {
            "positions": [
                -2.967991417825858,
                -0.9740617694225068,
                1.7527959577737207,
                -0.759517768980727,
                1.7443932448377408,
                -3.0840537646736568
            ]
        },
        {
            "positions": [
                -2.9457403598381595,
                -0.9487943639973353,
                1.6525704325775443,
                -0.7082456368471843,
                1.6016151021521687,
                -3.103579150509163
            ]
        },
        {
            "positions": [
                -2.923489301850461,
                -0.9235269585721639,
                1.5523449073813682,
                -0.6569735047136417,
                1.4588369594665969,
                -3.1231045363446697
            ]
        },
        {
            "positions": [
                -2.9012382438627626,
                -0.8982595531469925,
                1.4521193821851919,
                -0.605701372580099,
                1.3160588167810248,
                -3.142629922180176
            ]
        },
        {
            "positions": [
                -2.878987185875064,
                -0.8729921477218211,
                1.3518938569890158,
                -0.5544292404465564,
                1.173280674095453,
                -3.1621553080156826
            ]
        },
        {
            "positions": [
                -2.8567361278873658,
                -0.8477247422966496,
                1.2516683317928394,
                -0.5031571083130137,
                1.0305025314098808,
                -3.1816806938511886
            ]
        },
        {
            "positions": [
                -2.8344850698996673,
                -0.8224573368714783,
                1.151442806596663,
                -0.4518849761794711,
                0.8877243887243087,
                -3.201206079686695
            ]
        },
        {
            "positions": [
                -2.812234011911969,
                -0.7971899314463068,
                1.0512172814004868,
                -0.40061284404592845,
                0.7449462460387367,
                -3.2207314655222015
            ]
        },
        {
            "positions": [
                -2.7899829539242704,
                -0.7719225260211354,
                0.9509917562043108,
                -0.3493407119123858,
                0.6021681033531647,
                -3.240256851357708
            ]
        },
        {
            "positions": [
                -2.767731895936572,
                -0.746655120595964,
                0.8507662310081344,
                -0.29806857977884316,
                0.4593899606675926,
                -3.2597822371932144
            ]
        },
        {
            "positions": [
                -2.739534456941669,
                -0.7014513313587165,
                0.8096811449823699,
                -0.20239499055304358,
                0.4512613569137657,
                -3.189850019111266
            ]
        },
        {
            "positions": [
                -2.7113370179467657,
                -0.6562475421214692,
                0.7685960589566053,
                -0.10672140132724399,
                0.44313275315993883,
                -3.1199178010293185
            ]
        }
    ]
}