{
    "goal": {
        "global_pose": {
            "orientation": {
                "w": 0.5084816217422485,
                "x": -0.49083608388900757,
                "y": 0.5182115435600281,
                "z": -0.4816462993621826
            },
            "position": {
                "x": 0.5540239810943604,
                "y": 0.030875300988554955,
                "z": 0.16403168439865112
            }
        },
        "name": "move_to_storage_A"
    },
    "id": "LBKPIECE_move_to_storage_A_29",
    "joint_names": [
        "shoulder_pan_joint",
        "shoulder_lift_joint",
        "elbow_joint",
        "wrist_1_joint",
        "wrist_2_joint",
        "wrist_3_joint"
    ],
    "metrics": {
        "cart_traj_len": 0.35285497048776815,
        "distance_elbow_joint": 0.4503193067828384,
        "distance_shoulder_lift_joint": 0.23450053197088483,
        "distance_shoulder_pan_joint": 0.46243317381104254,
        "distance_wrist_1_joint": 0.23948090636224684,
        "distance_wrist_2_joint": 1.0945176682995796,
        "distance_wrist_3_joint": 0.09053039223591375,
        "smoothness": 4.440892133664971e-16,
        "time": 0.7108048250000001,
        "traj_len": 1.6036776420036871,
        "weighted_distance": 2.021593762009608
    },
    "planner": "LBKPIECE",
    "start": {
        "state": {
            "elbow_joint": 1.971548259319323,
            "shoulder_lift_joint": -1.1394851275133948,
            "shoulder_pan_joint": 0.1228115487234821,
            "wrist_1_joint": -0.7804723859257726,
            "wrist_2_joint": 0.12958671773740124,
            "wrist_3_joint": -3.192489227718131
        }
    },
    "waypoints": [
        {
            "positions": [
                0.1228115487234821,
                -1.1394851275133948,
                1.971548259319323,
                -0.7804723859257726,
                0.12958671773740124,
                -3.192489227718131
            ]
        },
        {
            "positions": [
                0.05674966675047603,
                -1.1729852035092354,
                2.0358795888597285,
                -0.8146839439775222,
                0.2859463846373412,
                -3.179556314541572
            ]
        },
        {
            "positions": [
                -0.009312215222530035,
                -1.2064852795050762,
                2.100210918400134,
                -0.8488955020292717,
                0.4423060515372811,
                -3.1666234013650127
            ]
        },
        {
            "positions": [
                -0.07537409719553612,
                -1.2399853555009168,
                2.1645422479405396,
                -0.8831070600810212,
                0.598665718437221,
                -3.1536904881884538
            ]
        },
        {
            "positions": [
                -0.14143597916854217,
                -1.2734854314967576,
                2.228873577480945,
                -0.9173186181327708,
                0.755025385337161,
                -3.140757575011895
            ]
        },
        {
            "positions": [
                -0.20749786114154828,
                -1.3069855074925982,
                2.2932049070213503,
                -0.9515301761845203,
                0.911385052237101,
                -3.127824661835336
            ]
        },
        {
            "positions": [
                -0.27355974311455433,
                -1.340485583488439,
                2.357536236561756,
                -0.9857417342362699,
                1.0677447191370408,
                -3.1148917486587764
            ]
        },
        {
            "positions": [
                -0.33962162508756044,
                -1.3739856594842796,
                2.4218675661021614,
                -1.0199532922880195,
                1.224104386036981,
                -3.1019588354822174
            ]
        }
    ]
}{
    "goal": {
        "global_pose": {
            "orientation": {
                "w": 0.5084816217422485,
                "x": -0.49083608388900757,
                "y": 0.5182115435600281,
                "z": -0.4816462993621826
            },
            "position": {
                "x": 0.5540239810943604,
                "y": 0.030875300988554955,
                "z": 0.16403168439865112
            }
        },
        "name": "move_to_storage_A"
    },
    "id": "LBKPIECE_move_to_storage_A_29",
    "joint_names": [
        "shoulder_pan_joint",
        "shoulder_lift_joint",
        "elbow_joint",
        "wrist_1_joint",
        "wrist_2_joint",
        "wrist_3_joint"
    ],
    "metrics": {
        "cart_traj_len": 0.353017609169604,
        "distance_elbow_joint": 0.45281740996687425,
        "distance_shoulder_lift_joint": 0.23279513816114505,
        "distance_shoulder_pan_joint": 0.46103781614349465,
        "distance_wrist_1_joint": 0.2591807719624597,
        "distance_wrist_2_joint": 1.100528923677616,
        "distance_wrist_3_joint": 0.10041658868127445,
        "smoothness": 0.0,
        "time": 0.40549682400000003,
        "traj_len": 1.61455153172417,
        "weighted_distance": 2.0414013622008507
    },
    "planner": "LBKPIECE",
    "start": {
        "state": {
            "elbow_joint": 1.97154746011099,
            "shoulder_lift_joint": -1.13948474672311,
            "shoulder_pan_joint": 0.12281154466712228,
            "wrist_1_joint": -0.7804688027058302,
            "wrist_2_joint": 0.12958655903071145,
            "wrist_3_joint": 3.0906928834467795
        }
    },
    "waypoints": [
        {
            "positions": [
                0.12281154466712228,
                -1.13948474672311,
                1.97154746011099,
                -0.7804688027058302,
                0.12958655903071145,
                3.0906928834467795
            ]
        },
        {
            "positions": [
                0.056948999503765904,
                -1.172741195031845,
                2.036235661534829,
                -0.8174946272718958,
                0.2868049766989423,
                3.105038110401247
            ]
        },
        {
            "positions": [
                -0.008913545659590474,
                -1.20599764334058,
                2.1009238629586684,
                -0.8545204518379615,
                0.4440233943671731,
                3.119383337355715
            ]
        },
        {
            "positions": [
                -0.07477609082294685,
                -1.2392540916493149,
                2.1656120643825076,
                -0.8915462764040272,
                0.6012418120354039,
                3.1337285643101827
            ]
        },
        {
            "positions": [
                -0.14063863598630322,
                -1.2725105399580499,
                2.2303002658063464,
                -0.9285721009700929,
                0.7584602297036348,
                3.148073791264651
            ]
        },
        {
            "positions": [
                -0.2065011811496596,
                -1.305766988266785,
                2.2949884672301857,
                -0.9655979255361585,
                0.9156786473718657,
                3.1624190182191185
            ]
        },
        {
            "positions": [
                -0.272363726313016,
                -1.33902343657552,
                2.359676668654025,
                -1.0026237501022242,
                1.0728970650400964,
                3.1767642451735862
            ]
        },
        {
            "positions": [
                -0.33822627147637235,
                -1.372279884884255,
                2.424364870077864,
                -1.0396495746682899,
                1.2301154827083274,
                3.191109472128054
            ]
        }
    ]
}{
    "goal": {
        "global_pose": {
            "orientation": {
                "w": 0.5084816217422485,
                "x": -0.49083608388900757,
                "y": 0.5182115435600281,
                "z": -0.4816462993621826
            },
            "position": {
                "x": 0.5540239810943604,
                "y": 0.030875300988554955,
                "z": 0.16403168439865112
            }
        },
        "name": "move_to_storage_A"
    },
    "id": "LBKPIECE_move_to_storage_A_29",
    "joint_names": [
        "shoulder_pan_joint",
        "shoulder_lift_joint",
        "elbow_joint",
        "wrist_1_joint",
        "wrist_2_joint",
        "wrist_3_joint"
    ],
    "metrics": {
        "cart_traj_len": 0.3523898561392199,
        "distance_elbow_joint": 0.44975088617676473,
        "distance_shoulder_lift_joint": 0.23353916692491916,
        "distance_shoulder_pan_joint": 0.461919090839554,
        "distance_wrist_1_joint": 0.2434202070946263,
        "distance_wrist_2_joint": 1.0922122274512083,
        "distance_wrist_3_joint": 0.10017336575012337,
        "smoothness": 8.881784232165597e-16,
        "time": 0.453276668,
        "traj_len": 1.6065537476963525,
        "weighted_distance": 2.0290377301280715
    },
    "planner": "LBKPIECE",
    "start": {
        "state": {
            "elbow_joint": 1.9715472970024885,
            "shoulder_lift_joint": -1.1394870060712896,
            "shoulder_pan_joint": 0.12281152778156021,
            "wrist_1_joint": -0.780463741449964,
            "wrist_2_joint": 0.12958659822042276,
            "wrist_3_joint": 3.090690232415272
        }
    },
    "waypoints": [
        {
            "positions": [
                0.12281152778156021,
                -1.1394870060712896,
                1.9715472970024885,
                -0.780463741449964,
                0.12958659822042276,
                3.090690232415272
            ]
        },
        {
            "positions": [
                0.0568230862330525,
                -1.172849744203421,
                2.035797423599169,
                -0.8152380567491964,
                0.28561691642773823,
                3.105000713236718
            ]
        },
        {
            "positions": [
                -0.009165355315455204,
                -1.2062124823355522,
                2.1000475501958498,
                -0.8500123720484286,
                0.44164723463505373,
                3.1193111940581644
            ]
        },
        {
            "positions": [
                -0.0751537968639629,
                -1.2395752204676835,
                2.1642976767925304,
                -0.884786687347661,
                0.5976775528423691,
                3.1336216748796106
            ]
        },
        {
            "positions": [
                -0.14114223841247062,
                -1.2729379585998148,
                2.228547803389211,
                -0.9195610026468933,
                0.7537078710496846,
                3.1479321557010564
            ]
        },
        {
            "positions": [
                -0.20713067996097836,
                -1.3063006967319462,
                2.292797929985892,
                -0.9543353179461256,
                0.9097381892570001,
                3.1622426365225027
            ]
        },
        {
            "positions": [
                -0.27311912150948603,
                -1.3396634348640775,
                2.3570480565825727,
                -0.9891096332453579,
                1.0657685074643155,
                3.176553117343949
            ]
        },
        {
            "positions": [
                -0.3391075630579938,
                -1.3730261729962088,
                2.4212981831792533,
                -1.0238839485445903,
                1.221798825671631,
                3.190863598165395
            ]
        }
    ]
}