{
    "goal": {
        "global_pose": {
            "orientation": {
                "w": 0.7047431468963623,
                "x": -0.7094548344612122,
                "y": 0.0024358443915843964,
                "z": -0.0022348060738295317
            },
            "position": {
                "x": 0.6094750761985779,
                "y": 0.3671506643295288,
                "z": 0.19426114857196808
            }
        },
        "name": "move_to_magneteinheit_A"
    },
    "id": "LBKPIECE_move_to_magneteinheit_A_137",
    "joint_names": [
        "shoulder_pan_joint",
        "shoulder_lift_joint",
        "elbow_joint",
        "wrist_1_joint",
        "wrist_2_joint",
        "wrist_3_joint"
    ],
    "metrics": {
        "cart_traj_len": 4.403217706478938,
        "distance_elbow_joint": 3.8780869455659364,
        "distance_shoulder_lift_joint": 1.1205795183819027,
        "distance_shoulder_pan_joint": 3.221847673217941,
        "distance_wrist_1_joint": 0.8335279553175202,
        "distance_wrist_2_joint": 1.7060388547442993,
        "distance_wrist_3_joint": 3.70154994505642,
        "smoothness": 0.15073343170077635,
        "time": 0.452577666,
        "traj_len": 3.8028451049555025,
        "weighted_distance": 4.940070606019582
    },
    "planner": "LBKPIECE",
    "start": {
        "state": {
            "elbow_joint": -1.9196185241190666,
            "shoulder_lift_joint": -1.2443396400964142,
            "shoulder_pan_joint": 2.6996025414629847,
            "wrist_1_joint": -1.5485510000780065,
            "wrist_2_joint": -1.5709468930060704,
            "wrist_3_joint": 0.4420197071253992
        }
    },
    "waypoints": [
        {
            "positions": [
                2.6996025414629847,
                -1.2443396400964142,
                -1.9196185241190666,
                -1.5485510000780065,
                -1.5709468930060704,
                0.4420197071253992
            ]
        },
        {
            "positions": [
                2.6060735821841012,
                -1.2244496966094232,
                -1.8159405495436975,
                -1.5324543437122742,
                -1.5175180601403813,
                0.3424412796574194
            ]
        },
        {
            "positions": [
                2.5125446229052177,
                -1.2045597531224321,
                -1.7122625749683285,
                -1.5163576873465416,
                -1.4640892272746922,
                0.2428628521894396
            ]
        },
        {
            "positions": [
                2.419015663626334,
                -1.184669809635441,
                -1.6085846003929596,
                -1.5002610309808093,
                -1.410660394409003,
                0.1432844247214598
            ]
        },
        {
            "positions": [
                2.3254867043474503,
                -1.1647798661484499,
                -1.5049066258175905,
                -1.4841643746150768,
                -1.3572315615433141,
                0.04370599725348001
            ]
        },
        {
            "positions": [
                2.231957745068567,
                -1.1448899226614588,
                -1.4012286512422216,
                -1.4680677182493445,
                -1.303802728677625,
                -0.05587243021449978
            ]
        },
        {
            "positions": [
                2.1384287857896833,
                -1.1249999791744678,
                -1.2975506766668525,
                -1.451971061883612,
                -1.250373895811936,
                -0.15545085768247957
            ]
        },
        {
            "positions": [
                2.0448998265108,
                -1.1051100356874768,
                -1.1938727020914834,
                -1.4358744055178796,
                -1.1969450629462468,
                -0.2550292851504593
            ]
        },
        {
            "positions": [
                1.951370867231916,
                -1.0852200922004858,
                -1.0901947275161143,
                -1.419777749152147,
                -1.1435162300805577,
                -0.35460771261843915
            ]
        },
        {
            "positions": [
                1.8578419079530324,
                -1.0653301487134947,
                -0.9865167529407453,
                -1.4036810927864147,
                -1.0900873972148686,
                -0.454186140086419
            ]
        },
        {
            "positions": [
                1.764312948674149,
                -1.0454402052265035,
                -0.8828387783653764,
                -1.3875844364206822,
                -1.0366585643491795,
                -0.5537645675543987
            ]
        },
        {
            "positions": [
                1.6707839893952654,
                -1.0255502617395125,
                -0.7791608037900073,
                -1.3714877800549499,
                -0.9832297314834905,
                -0.6533429950223785
            ]
        },
        {
            "positions": [
                1.5772550301163817,
                -1.0056603182525214,
                -0.6754828292146382,
                -1.3553911236892175,
                -0.9298008986178014,
                -0.7529214224903583
            ]
        },
        {
            "positions": [
                1.4837260708374982,
                -0.9857703747655304,
                -0.5718048546392691,
                -1.339294467323485,
                -0.8763720657521122,
                -0.8524998499583382
            ]
        },
        {
            "positions": [
                1.3901971115586147,
                -0.9658804312785394,
                -0.46812688006390024,
                -1.3231978109577527,
                -0.8229432328864232,
                -0.9520782774263178
            ]
        },
        {
            "positions": [
                1.296668152279731,
                -0.9459904877915483,
                -0.36444890548853115,
                -1.3071011545920201,
                -0.7695144000207341,
                -1.0516567048942975
            ]
        },
        {
            "positions": [
                1.2031391930008475,
                -0.9261005443045572,
                -0.26077093091316206,
                -1.2910044982262878,
                -0.716085567155045,
                -1.1512351323622774
            ]
        },
        {
            "positions": [
                1.109610233721964,
                -0.9062106008175662,
                -0.1570929563377932,
                -1.2749078418605553,
                -0.662656734289356,
                -1.2508135598302572
            ]
        },
        {
            "positions": [
                1.0160812744430803,
                -0.8863206573305751,
                -0.053414981762423874,
                -1.258811185494823,
                -0.6092279014236668,
                -1.350391987298237
            ]
        },
        {
            "positions": [
                0.9225523151641968,
                -0.866430713843584,
                0.050262992812944995,
                -1.2427145291290906,
                -0.5557990685579777,
                -1.449970414766217
            ]
        },
        {
            "positions": [
                0.8290233558853131,
                -0.846540770356593,
                0.15394096738831387,
                -1.226617872763358,
                -0.5023702356922888,
                -1.5495488422341968
            ]
        },
        {
            "positions": [
                0.7354943966064296,
                -0.826650826869602,
                0.25761894196368296,
                -1.2105212163976256,
                -0.44894140282659967,
                -1.6491272697021762
            ]
        },
        {
            "positions": [
                0.6419654373275461,
                -0.8067608833826108,
                0.36129691653905205,
                -1.1944245600318932,
                -0.39551256996091055,
                -1.748705697170156
            ]
        },
        {
            "positions": [
                0.5484364780486626,
                -0.7868709398956197,
                0.46497489111442114,
                -1.178327903666161,
                -0.34208373709522144,
                -1.8482841246381359
            ]
        },
        {
            "positions": [
                0.45490751876977864,
                -0.7669809964086287,
                0.5686528656897902,
                -1.1622312473004284,
                -0.2886549042295323,
                -1.9478625521061157
            ]
        },
        {
            "positions": [
                0.36137855949089515,
                -0.7470910529216377,
                0.6723308402651589,
                -1.146134590934696,
                -0.23522607136384344,
                -2.047440979574095
            ]
        },
        {
            "positions": [
                0.26784960021201165,
                -0.7272011094346466,
                0.7760088148405284,
                -1.1300379345689635,
                -0.1817972384981541,
                -2.1470194070420754
            ]
        },
        {
            "positions": [
                0.17432064093312816,
                -0.7073111659476555,
                0.8796867894158975,
                -1.1139412782032312,
                -0.128368405632465,
                -2.2465978345100552
            ]
        },
        {
            "positions": [
                0.08079168165424466,
                -0.6874212224606645,
                0.9833647639912662,
                -1.0978446218374986,
                -0.0749395727667761,
                -2.3461762619780346
            ]
        },
        {
            "positions": [
                -0.012737277624638832,
                -0.6675312789736735,
                1.0870427385666352,
                -1.0817479654717663,
                -0.021510739901086984,
                -2.4457546894460145
            ]
        },
        {
            "positions": [
                -0.10626623690352277,
                -0.6476413354866823,
                1.1907207131420043,
                -1.065651309106034,
                0.03191809296460213,
                -2.5453331169139943
            ]
        },
        {
            "positions": [
                -0.19979519618240615,
                -0.6277513919996913,
                1.2943986877173734,
                -1.0495546527403015,
                0.0853469258302913,
                -2.644911544381974
            ]
        },
        {
            "positions": [
                -0.15373091967204172,
                -0.6997501448975741,
                1.389265792535873,
                -1.0017644230288993,
                0.09245335953142522,
                -2.732714214888981
            ]
        },
        {
            "positions": [
                -0.10766664316167729,
                -0.771748897795457,
                1.4841328973543726,
                -0.9539741933174971,
                0.09955979323255915,
                -2.8205168853959877
            ]
        },
        {
            "positions": [
                -0.061602366651312856,
                -0.8437476506933398,
                1.579000002172872,
                -0.906183963606095,
                0.10666622693369308,
                -2.9083195559029944
            ]
        },
        {
            "positions": [
                -0.015538090140948424,
                -0.9157464035912226,
                1.6738671069913718,
                -0.8583937338946928,
                0.11377266063482701,
                -2.9961222264100007
            ]
        },
        {
            "positions": [
                0.03052618636941601,
                -0.9877451564891055,
                1.7687342118098712,
                -0.8106035041832906,
                0.12087909433596095,
                -3.0839248969170074
            ]
        },
        {
            "positions": [
                0.07659046287978044,
                -1.0597439093869883,
                1.8636013166283707,
                -0.7628132744718885,
                0.12798552803709487,
                -3.171727567424014
            ]
        },
        {
            "positions": [
                0.12265473939014489,
                -1.1317426622848712,
                1.9584684214468704,
                -0.7150230447604863,
                0.1350919617382288,
                -3.259530237931021
            ]
        }
    ]
}