{
    "goal": {
        "global_pose": {
            "orientation": {
                "w": 0.005598929693374612,
                "x": 0.007748599140229565,
                "y": 0.7110244013736278,
                "z": -0.7031023480610252
            },
            "position": {
                "x": 0.1141497679147869,
                "y": -0.7141253447532654,
                "z": 0.3711530566215515
            }
        },
        "name": "move_to_auspresseinheit_B"
    },
    "id": "LBKPIECE_move_to_auspresseinheit_B_140",
    "joint_names": [
        "shoulder_pan_joint",
        "shoulder_lift_joint",
        "elbow_joint",
        "wrist_1_joint",
        "wrist_2_joint",
        "wrist_3_joint"
    ],
    "metrics": {
        "cart_traj_len": 0.5650663261017487,
        "distance_elbow_joint": 0.06648151612340691,
        "distance_shoulder_lift_joint": 0.293784992479446,
        "distance_shoulder_pan_joint": 0.5785982025622478,
        "distance_wrist_1_joint": 0.339753569371564,
        "distance_wrist_2_joint": 0.9858218900896163,
        "distance_wrist_3_joint": 0.0028210862053832386,
        "smoothness": 5.075305255429287e-16,
        "time": 0.42387731900000003,
        "traj_len": 1.5057427591828774,
        "weighted_distance": 1.8969657057268092
    },
    "planner": "LBKPIECE",
    "start": {
        "state": {
            "elbow_joint": 2.0193083361928714,
            "shoulder_lift_joint": -1.1220246554650708,
            "shoulder_pan_joint": -1.0952077554168747,
            "wrist_1_joint": -0.8559753972642168,
            "wrist_2_joint": 0.4759566250798843,
            "wrist_3_joint": -3.1240929996934557
        }
    },
    "waypoints": [
        {
            "positions": [
                -1.0952077554168747,
                -1.1220246554650708,
                2.0193083361928714,
                -0.8559753972642168,
                0.4759566250798843,
                -3.1240929996934557
            ]
        },
        {
            "positions": [
                -1.1916407891772494,
                -1.170988820878312,
                2.008228083505637,
                -0.7993498023689561,
                0.6402602734281537,
                -3.1245631807276864
            ]
        },
        {
            "positions": [
                -1.2880738229376238,
                -1.2199529862915528,
                1.9971478308184025,
                -0.7427242074736955,
                0.8045639217764231,
                -3.1250333617619166
            ]
        },
        {
            "positions": [
                -1.3845068566979986,
                -1.2689171517047937,
                1.986067578131168,
                -0.6860986125784347,
                0.9688675701246925,
                -3.1255035427961473
            ]
        },
        {
            "positions": [
                -1.480939890458373,
                -1.3178813171180348,
                1.9749873254439334,
                -0.6294730176831742,
                1.1331712184729619,
                -3.125973723830378
            ]
        },
        {
            "positions": [
                -1.5773729242187478,
                -1.366845482531276,
                1.963907072756699,
                -0.5728474227879135,
                1.2974748668212313,
                -3.126443904864608
            ]
        },
        {
            "positions": [
                -1.6738059579791225,
                -1.4158096479445168,
                1.9528268200694645,
                -0.5162218278926528,
                1.4617785151695006,
                -3.126914085898839
            ]
        }
    ]
}