{
    "goal": {
        "global_pose": {
            "orientation": {
                "w": 0.005598929693374612,
                "x": 0.007748599140229565,
                "y": 0.7110244013736278,
                "z": -0.7031023480610252
            },
            "position": {
                "x": -0.8858502320852131,
                "y": -0.7141253447532654,
                "z": 0.3711530566215515
            }
        },
        "name": "move_to_auspresseinheit_C"
    },
    "id": "LBKPIECE_move_to_auspresseinheit_C_72",
    "joint_names": [
        "shoulder_pan_joint",
        "shoulder_lift_joint",
        "elbow_joint",
        "wrist_1_joint",
        "wrist_2_joint",
        "wrist_3_joint"
    ],
    "metrics": {
        "cart_traj_len": 0.49200659099783595,
        "distance_elbow_joint": 0.9882323525116312,
        "distance_shoulder_lift_joint": 0.32002477923192785,
        "distance_shoulder_pan_joint": 0.2561661166162694,
        "distance_wrist_1_joint": 0.6534599089883235,
        "distance_wrist_2_joint": 1.3105639138412726,
        "distance_wrist_3_joint": 0.039343416115453334,
        "smoothness": 0.0,
        "time": 0.491997442,
        "traj_len": 1.8888595732094215,
        "weighted_distance": 2.368649645339171
    },
    "planner": "LBKPIECE",
    "start": {
        "state": {
            "elbow_joint": 1.7527959577737207,
            "shoulder_lift_joint": -0.9740617694225068,
            "shoulder_pan_joint": -2.967991417825858,
            "wrist_1_joint": -0.759517768980727,
            "wrist_2_joint": 1.7443932448377408,
            "wrist_3_joint": -3.0840537646736568
        }
    },
    "waypoints": [
        {
            "positions": [
                -2.967991417825858,
                -0.9740617694225068,
                1.7527959577737207,
                -0.759517768980727,
                1.7443932448377408,
                -3.0840537646736568
            ]
        },
        {
            "positions": [
                -2.942374806164231,
                -0.942059291499314,
                1.6539727225225576,
                -0.6941717780818947,
                1.6133368534536137,
                -3.087988106285202
            ]
        },
        {
            "positions": [
                -2.916758194502604,
                -0.9100568135761212,
                1.5551494872713945,
                -0.6288257871830623,
                1.4822804620694863,
                -3.0919224478967475
            ]
        },
        {
            "positions": [
                -2.891141582840977,
                -0.8780543356529285,
                1.4563262520202314,
                -0.56347979628423,
                1.351224070685359,
                -3.095856789508293
            ]
        },
        {
            "positions": [
                -2.86552497117935,
                -0.8460518577297356,
                1.3575030167690683,
                -0.4981338053853976,
                1.2201676793012317,
                -3.0997911311198383
            ]
        },
        {
            "positions": [
                -2.8399083595177235,
                -0.8140493798065429,
                1.258679781517905,
                -0.4327878144865652,
                1.0891112879171045,
                -3.1037254727313837
            ]
        },
        {
            "positions": [
                -2.8142917478560965,
                -0.78204690188335,
                1.159856546266742,
                -0.36744182358773286,
                0.9580548965329773,
                -3.1076598143429286
            ]
        },
        {
            "positions": [
                -2.7886751361944695,
                -0.7500444239601574,
                1.0610333110155787,
                -0.30209583268890056,
                0.8269985051488501,
                -3.111594155954474
            ]
        },
        {
            "positions": [
                -2.7630585245328425,
                -0.7180419460369645,
                0.9622100757644156,
                -0.2367498417900682,
                0.6959421137647228,
                -3.1155284975660194
            ]
        },
        {
            "positions": [
                -2.7374419128712155,
                -0.6860394681137717,
                0.8633868405132525,
                -0.17140385089123578,
                0.5648857223805954,
                -3.1194628391775647
            ]
        },
        {
            "positions": [
                -2.7118253012095885,
                -0.6540369901905789,
                0.7645636052620894,
                -0.10605785999240346,
                0.43382933099646814,
                -3.12339718078911
            ]
        }
    ]
}