{
    "goal": {
        "global_pose": {
            "orientation": {
                "w": 0.7031023502349854,
                "x": -0.7110244035720825,
                "y": 0.007748599164187908,
                "z": 0.005598929710686207
            },
            "position": {
                "x": 0.11585023208521307,
                "y": 0.44412534475326537,
                "z": 0.3711530566215515
            }
        },
        "name": "move_to_auspresseinheit_A"
    },
    "id": "LBKPIECE_move_to_auspresseinheit_A_12",
    "joint_names": [
        "shoulder_pan_joint",
        "shoulder_lift_joint",
        "elbow_joint",
        "wrist_1_joint",
        "wrist_2_joint",
        "wrist_3_joint"
    ],
    "metrics": {
        "cart_traj_len": 1.3979712694580884,
        "distance_elbow_joint": 0.6245473412916236,
        "distance_shoulder_lift_joint": 1.2060630854356582,
        "distance_shoulder_pan_joint": 2.080555893053974,
        "distance_wrist_1_joint": 0.568790309985693,
        "distance_wrist_2_joint": 1.4681856704248561,
        "distance_wrist_3_joint": 0.09721066956805435,
        "smoothness": 1.7266861487119565,
        "time": 0.33178160700000003,
        "traj_len": 2.4587299505557456,
        "weighted_distance": 2.876934182303536
    },
    "planner": "LBKPIECE",
    "start": {
        "state": {
            "elbow_joint": 2.4225746658250005,
            "shoulder_lift_joint": -1.3736534386056498,
            "shoulder_pan_joint": -0.3378633547517467,
            "wrist_1_joint": -1.0288598680537169,
            "wrist_2_joint": 1.233022673432363,
            "wrist_3_joint": -3.0940220416140027
        }
    },
    "waypoints": [
        {
            "positions": [
                -0.3378633547517467,
                -1.3736534386056498,
                2.4225746658250005,
                -1.0288598680537169,
                1.233022673432363,
                -3.0940220416140027
            ]
        },
        {
            "positions": [
                -0.19585606543541495,
                -1.4527634062053874,
                2.44954195350711,
                -0.9889285230918204,
                1.1426389443887683,
                -3.1009914831384626
            ]
        },
        {
            "positions": [
                -0.053848776119083175,
                -1.5318733738051251,
                2.4765092411892193,
                -0.9489971781299239,
                1.0522552153451739,
                -3.1079609246629225
            ]
        },
        {
            "positions": [
                0.08815851319724854,
                -1.6109833414048627,
                2.503476528871329,
                -0.9090658331680275,
                0.9618714863015791,
                -3.1149303661873824
            ]
        },
        {
            "positions": [
                0.23016580251358038,
                -1.6900933090046004,
                2.5304438165534386,
                -0.869134488206131,
                0.8714877572579846,
                -3.1218998077118423
            ]
        },
        {
            "positions": [
                0.37217309182991215,
                -1.769203276604338,
                2.557411104235548,
                -0.8292031432442346,
                0.78110402821439,
                -3.128869249236302
            ]
        },
        {
            "positions": [
                0.5141803811462438,
                -1.8483132442040757,
                2.5843783919176575,
                -0.7892717982823381,
                0.6907202991707954,
                -3.135838690760762
            ]
        },
        {
            "positions": [
                0.6561876704625758,
                -1.9274232118038133,
                2.6113456795997667,
                -0.7493404533204416,
                0.6003365701272008,
                -3.142808132285222
            ]
        },
        {
            "positions": [
                0.7981949597789075,
                -2.006533179403551,
                2.6383129672818764,
                -0.7094091083585452,
                0.5099528410836061,
                -3.149777573809682
            ]
        },
        {
            "positions": [
                0.9402022490952393,
                -2.085643147003289,
                2.665280254963986,
                -0.6694777633966487,
                0.41956911204001146,
                -3.1567470153341417
            ]
        },
        {
            "positions": [
                1.082209538411571,
                -2.1647531146030263,
                2.6922475426460952,
                -0.6295464184347523,
                0.32918538299641686,
                -3.1637164568586016
            ]
        },
        {
            "positions": [
                1.2242168277279029,
                -2.243863082202764,
                2.719214830328205,
                -0.5896150734728558,
                0.23880165395282227,
                -3.1706858983830615
            ]
        },
        {
            "positions": [
                1.120521685613038,
                -2.176692393835055,
                2.653633394970521,
                -0.5637059703918894,
                0.33359458414188536,
                -3.1665765358232623
            ]
        },
        {
            "positions": [
                1.0168265434981731,
                -2.1095217054673463,
                2.5880519596128373,
                -0.537796867310923,
                0.4283875143309485,
                -3.162467173263463
            ]
        },
        {
            "positions": [
                0.9131314013833083,
                -2.0423510170996373,
                2.5224705242551533,
                -0.5118877642299566,
                0.5231804445200117,
                -3.1583578107036643
            ]
        },
        {
            "positions": [
                0.8094362592684434,
                -1.9751803287319285,
                2.4568890888974697,
                -0.48597866114899024,
                0.6179733747090748,
                -3.154248448143865
            ]
        },
        {
            "positions": [
                0.7057411171535787,
                -1.9080096403642197,
                2.3913076535397857,
                -0.46006955806802385,
                0.7127663048981379,
                -3.150139085584066
            ]
        }
    ]
}