{
    "goal": {
        "global_pose": {
            "orientation": {
                "w": 0.7047431468963623,
                "x": -0.7094548344612122,
                "y": 0.0024358443915843964,
                "z": -0.0022348060738295317
            },
            "position": {
                "x": 0.6094750761985779,
                "y": 0.3671506643295288,
                "z": 0.19426114857196808
            }
        },
        "name": "move_to_magneteinheit_A"
    },
    "id": "LBKPIECE_move_to_magneteinheit_A_1",
    "joint_names": [
        "shoulder_pan_joint",
        "shoulder_lift_joint",
        "elbow_joint",
        "wrist_1_joint",
        "wrist_2_joint",
        "wrist_3_joint"
    ],
    "metrics": {
        "cart_traj_len": 5.702616491644199,
        "distance_elbow_joint": 5.6239983305731185,
        "distance_shoulder_lift_joint": 0.8784174671959734,
        "distance_shoulder_pan_joint": 8.748105976330558,
        "distance_wrist_1_joint": 3.4741972131580785,
        "distance_wrist_2_joint": 5.4081970482561434,
        "distance_wrist_3_joint": 0.9757166832956802,
        "smoothness": 0.2828984158174824,
        "time": 0.734198912,
        "traj_len": 5.010851496383577,
        "weighted_distance": 5.995203111389565
    },
    "planner": "LBKPIECE",
    "start": {
        "state": {
            "elbow_joint": -1.9196185241190666,
            "shoulder_lift_joint": -1.2443396400964142,
            "shoulder_pan_joint": 2.6996025414629847,
            "wrist_1_joint": -1.5485510000780065,
            "wrist_2_joint": -1.5709468930060704,
            "wrist_3_joint": 0.4420197071253992
        }
    },
    "waypoints": [
        {
            "positions": [
                2.6996025414629847,
                -1.2443396400964142,
                -1.9196185241190666,
                -1.5485510000780065,
                -1.5709468930060704,
                0.4420197071253992
            ]
        },
        {
            "positions": [
                2.5280131183895382,
                -1.223941069323919,
                -1.945514215590881,
                -1.4994361092767825,
                -1.4671758216294755,
                0.42054740765511006
            ]
        },
        {
            "positions": [
                2.356423695316092,
                -1.2035424985514236,
                -1.9714099070626951,
                -1.4503212184755585,
                -1.3634047502528805,
                0.39907510818482095
            ]
        },
        {
            "positions": [
                2.1848342722426457,
                -1.1831439277789284,
                -1.9973055985345094,
                -1.4012063276743345,
                -1.2596336788762856,
                0.37760280871453183
            ]
        },
        {
            "positions": [
                2.013244849169199,
                -1.1627453570064332,
                -2.0232012900063236,
                -1.3520914368731103,
                -1.1558626074996907,
                0.3561305092442427
            ]
        },
        {
            "positions": [
                1.841655426095753,
                -1.1423467862339378,
                -2.049096981478138,
                -1.3029765460718863,
                -1.0520915361230958,
                0.3346582097739536
            ]
        },
        {
            "positions": [
                1.6700660030223067,
                -1.1219482154614426,
                -2.074992672949952,
                -1.2538616552706623,
                -0.948320464746501,
                0.3131859103036645
            ]
        },
        {
            "positions": [
                1.4984765799488602,
                -1.1015496446889474,
                -2.1008883644217664,
                -1.2047467644694383,
                -0.8445493933699061,
                0.2917136108333754
            ]
        },
        {
            "positions": [
                1.326887156875414,
                -1.0811510739164523,
                -2.126784055893581,
                -1.1556318736682143,
                -0.7407783219933112,
                0.27024131136308627
            ]
        },
        {
            "positions": [
                1.1552977338019677,
                -1.0607525031439569,
                -2.1526797473653954,
                -1.1065169828669903,
                -0.6370072506167164,
                0.24876901189279718
            ]
        },
        {
            "positions": [
                0.9837083107285212,
                -1.0403539323714617,
                -2.1785754388372096,
                -1.0574020920657663,
                -0.5332361792401212,
                0.22729671242250804
            ]
        },
        {
            "positions": [
                0.8121188876550749,
                -1.0199553615989665,
                -2.204471130309024,
                -1.0082872012645423,
                -0.42946510786352654,
                0.20582441295221895
            ]
        },
        {
            "positions": [
                0.6405294645816286,
                -0.9995567908264712,
                -2.230366821780838,
                -0.9591723104633182,
                -0.3256940364869316,
                0.1843521134819298
            ]
        },
        {
            "positions": [
                0.46894004150818214,
                -0.9791582200539759,
                -2.2562625132526524,
                -0.9100574196620942,
                -0.2219229651103367,
                0.16287981401164076
            ]
        },
        {
            "positions": [
                0.29735061843473565,
                -0.9587596492814807,
                -2.2821582047244666,
                -0.8609425288608701,
                -0.1181518937337418,
                0.1414075145413516
            ]
        },
        {
            "positions": [
                0.1257611953612896,
                -0.9383610785089854,
                -2.308053896196281,
                -0.8118276380596462,
                -0.014380822357146883,
                0.11993521507106253
            ]
        },
        {
            "positions": [
                -0.04582822771215689,
                -0.9179625077364901,
                -2.333949587668095,
                -0.7627127472584221,
                0.08939024901944803,
                0.09846291560077336
            ]
        },
        {
            "positions": [
                -0.21741765078560338,
                -0.897563936963995,
                -2.3598452791399094,
                -0.7135978564571981,
                0.19316132039604295,
                0.0769906161304843
            ]
        },
        {
            "positions": [
                -0.3890070738590494,
                -0.8771653661914998,
                -2.3857409706117236,
                -0.6644829656559741,
                0.29693239177263764,
                0.05551831666019519
            ]
        },
        {
            "positions": [
                -0.5605964969324964,
                -0.8567667954190044,
                -2.411636662083538,
                -0.61536807485475,
                0.400703463149233,
                0.03404601718990602
            ]
        },
        {
            "positions": [
                -0.7321859200059424,
                -0.8363682246465092,
                -2.437532353555352,
                -0.566253184053526,
                0.5044745345258279,
                0.012573717719616906
            ]
        },
        {
            "positions": [
                -0.9037753430793889,
                -0.815969653874014,
                -2.4634280450271664,
                -0.5171382932523021,
                0.6082456059024224,
                -0.008898581750672152
            ]
        },
        {
            "positions": [
                -1.075364766152835,
                -0.7955710831015187,
                -2.4893237364989806,
                -0.4680234024510781,
                0.7120166772790173,
                -0.030370881220961266
            ]
        },
        {
            "positions": [
                -1.2469541892262819,
                -0.7751725123290234,
                -2.515219427970795,
                -0.4189085116498539,
                0.8157877486556127,
                -0.051843180691250434
            ]
        },
        {
            "positions": [
                -1.4185436122997275,
                -0.7547739415565282,
                -2.541115119442609,
                -0.3697936208486299,
                0.9195588200322071,
                -0.07331548016153955
            ]
        },
        {
            "positions": [
                -1.590133035373174,
                -0.7343753707840329,
                -2.5670108109144234,
                -0.3206787300474059,
                1.023329891408802,
                -0.0947877796318286
            ]
        },
        {
            "positions": [
                -1.7617224584466205,
                -0.7139768000115376,
                -2.5929065023862377,
                -0.2715638392461819,
                1.127100962785397,
                -0.11626007910211766
            ]
        },
        {
            "positions": [
                -1.933311881520067,
                -0.6935782292390423,
                -2.6188021938580524,
                -0.22244894844495766,
                1.2308720341619923,
                -0.13773237857240683
            ]
        },
        {
            "positions": [
                -2.1049013045935134,
                -0.6731796584665471,
                -2.6446978853298666,
                -0.17333405764373366,
                1.3346431055385868,
                -0.159204678042696
            ]
        },
        {
            "positions": [
                -2.27649072766696,
                -0.6527810876940519,
                -2.670593576801681,
                -0.12421916684250989,
                1.4384141769151817,
                -0.18067697751298506
            ]
        },
        {
            "positions": [
                -2.4480801507404055,
                -0.6323825169215567,
                -2.696489268273495,
                -0.07510427604128589,
                1.5421852482917766,
                -0.20214927698327412
            ]
        },
        {
            "positions": [
                -2.619669573813853,
                -0.6119839461490614,
                -2.7223849597453094,
                -0.02598938524006167,
                1.6459563196683715,
                -0.2236215764535633
            ]
        },
        {
            "positions": [
                -2.7912589968872985,
                -0.5915853753765661,
                -2.7482806512171236,
                0.02312550556116233,
                1.7497273910449664,
                -0.24509387592385246
            ]
        },
        {
            "positions": [
                -2.9628484199607446,
                -0.5711868046040709,
                -2.774176342688938,
                0.07224039636238633,
                1.8534984624215611,
                -0.2665661753941415
            ]
        },
        {
            "positions": [
                -2.8633111614153632,
                -0.5778082443364461,
                -2.6203234229468975,
                0.13202768077263427,
                1.7895064723303191,
                -0.2579490527884596
            ]
        },
        {
            "positions": [
                -2.7637739028699815,
                -0.5844296840688212,
                -2.4664705032048575,
                0.19181496518288219,
                1.7255144822390769,
                -0.24933193018277772
            ]
        },
        {
            "positions": [
                -2.6642366443245997,
                -0.5910511238011964,
                -2.312617583462817,
                0.25160224959313016,
                1.6615224921478349,
                -0.2407148075770958
            ]
        },
        {
            "positions": [
                -2.5646993857792184,
                -0.5976725635335716,
                -2.158764663720777,
                0.31138953400337804,
                1.5975305020565929,
                -0.2320976849714139
            ]
        },
        {
            "positions": [
                -2.465162127233837,
                -0.6042940032659467,
                -2.0049117439787367,
                0.371176818413626,
                1.5335385119653506,
                -0.223480562365732
            ]
        },
        {
            "positions": [
                -2.3656248686884553,
                -0.6109154429983219,
                -1.8510588242366968,
                0.43096410282387393,
                1.4695465218741086,
                -0.2148634397600501
            ]
        },
        {
            "positions": [
                -2.2660876101430736,
                -0.6175368827306971,
                -1.6972059044946564,
                0.4907513872341218,
                1.4055545317828666,
                -0.2062463171543682
            ]
        },
        {
            "positions": [
                -2.1665503515976923,
                -0.6241583224630722,
                -1.5433529847526162,
                0.5505386716443698,
                1.3415625416916246,
                -0.19762919454868627
            ]
        },
        {
            "positions": [
                -2.0670130930523105,
                -0.6307797621954474,
                -1.389500065010576,
                0.6103259560546177,
                1.2775705516003824,
                -0.18901207194300437
            ]
        },
        {
            "positions": [
                -1.9674758345069292,
                -0.6374012019278226,
                -1.2356471452685358,
                0.6701132404648656,
                1.2135785615091403,
                -0.18039494933732247
            ]
        },
        {
            "positions": [
                -1.8679385759615474,
                -0.6440226416601977,
                -1.0817942255264956,
                0.7299005248751136,
                1.149586571417898,
                -0.17177782673164055
            ]
        },
        {
            "positions": [
                -1.7684013174161661,
                -0.6506440813925729,
                -0.9279413057844554,
                0.7896878092853615,
                1.085594581326656,
                -0.16316070412595868
            ]
        },
        {
            "positions": [
                -1.6688640588707844,
                -0.6572655211249481,
                -0.7740883860424153,
                0.8494750936956095,
                1.021602591235414,
                -0.15454358152027675
            ]
        },
        {
            "positions": [
                -1.569326800325403,
                -0.6638869608573232,
                -0.6202354663003748,
                0.9092623781058573,
                0.9576106011441721,
                -0.14592645891459485
            ]
        },
        {
            "positions": [
                -1.4697895417800213,
                -0.6705084005896984,
                -0.4663825465583349,
                0.9690496625161054,
                0.89361861105293,
                -0.13730933630891293
            ]
        },
        {
            "positions": [
                -1.37025228323464,
                -0.6771298403220736,
                -0.3125296268162945,
                1.0288369469263532,
                0.8296266209616878,
                -0.12869221370323106
            ]
        },
        {
            "positions": [
                -1.2707150246892585,
                -0.6837512800544486,
                -0.15867670707425452,
                1.088624231336601,
                0.7656346308704458,
                -0.12007509109754916
            ]
        },
        {
            "positions": [
                -1.1711777661438767,
                -0.6903727197868239,
                -0.004823787332214113,
                1.148411515746849,
                0.7016426407792036,
                -0.11145796849186723
            ]
        },
        {
            "positions": [
                -1.0716405075984952,
                -0.6969941595191991,
                0.1490291324098263,
                1.2081988001570971,
                0.6376506506879616,
                -0.10284084588618533
            ]
        },
        {
            "positions": [
                -0.9721032490531138,
                -0.7036155992515741,
                0.30288205215186625,
                1.267986084567345,
                0.5736586605967195,
                -0.09422372328050344
            ]
        },
        {
            "positions": [
                -0.8725659905077321,
                -0.7102370389839493,
                0.4567349718939062,
                1.3277733689775928,
                0.5096666705054775,
                -0.08560660067482154
            ]
        },
        {
            "positions": [
                -0.7730287319623503,
                -0.7168584787163245,
                0.6105878916359466,
                1.3875606533878408,
                0.4456746804142353,
                -0.07698947806913961
            ]
        },
        {
            "positions": [
                -0.673491473416969,
                -0.7234799184486996,
                0.764440811377987,
                1.4473479377980887,
                0.3816826903229933,
                -0.06837235546345771
            ]
        },
        {
            "positions": [
                -0.5739542148715877,
                -0.7301013581810748,
                0.918293731120027,
                1.5071352222083367,
                0.3176907002317513,
                -0.059755232857775814
            ]
        },
        {
            "positions": [
                -0.47441695632620595,
                -0.73672279791345,
                1.072146650862067,
                1.5669225066185846,
                0.25369871014050926,
                -0.051138110252093916
            ]
        },
        {
            "positions": [
                -0.3748796977808242,
                -0.7433442376458251,
                1.2259995706041074,
                1.6267097910288326,
                0.18970672004926703,
                -0.04252098764641199
            ]
        },
        {
            "positions": [
                -0.2753424392354429,
                -0.7499656773782003,
                1.3798524903461478,
                1.6864970754390805,
                0.12571472995802502,
                -0.03390386504073009
            ]
        },
        {
            "positions": [
                -0.17580518069006157,
                -0.7565871171105755,
                1.5337054100881882,
                1.7462843598493283,
                0.061722739866783005,
                -0.025286742435048193
            ]
        },
        {
            "positions": [
                -0.07626792214467981,
                -0.7632085568429506,
                1.6875583298302277,
                1.8060716442595763,
                -0.0022692502244590074,
                -0.016669619829366294
            ]
        },
        {
            "positions": [
                0.023269336400701945,
                -0.7698299965753258,
                1.841411249572268,
                1.8658589286698244,
                -0.06626124031570124,
                -0.00805249722368434
            ]
        },
        {
            "positions": [
                0.12280659494608316,
                -0.776451436307701,
                1.9952641693143087,
                1.9256462130800722,
                -0.13025323040694325,
                0.000564625381997514
            ]
        }
    ]
}