{
    "goal": {
        "global_pose": {
            "orientation": {
                "w": -0.00223480608172531,
                "x": 0.0024358444001904467,
                "y": 0.7094548369677653,
                "z": -0.704743149386269
            },
            "position": {
                "x": -0.37947507619857795,
                "y": -0.6371506643295288,
                "z": 0.19426114857196808
            }
        },
        "name": "move_to_magneteinheit_C"
    },
    "id": "LBKPIECE_move_to_magneteinheit_C_93",
    "joint_names": [
        "shoulder_pan_joint",
        "shoulder_lift_joint",
        "elbow_joint",
        "wrist_1_joint",
        "wrist_2_joint",
        "wrist_3_joint"
    ],
    "metrics": {
        "cart_traj_len": 3.232426060571056,
        "distance_elbow_joint": 0.059536186920548406,
        "distance_shoulder_lift_joint": 2.5306525501031647,
        "distance_shoulder_pan_joint": 4.227085018239272,
        "distance_wrist_1_joint": 1.5435696469205116,
        "distance_wrist_2_joint": 0.7981370383618469,
        "distance_wrist_3_joint": 0.364419285776183,
        "smoothness": 1.239574671289648,
        "time": 0.526381952,
        "traj_len": 3.0860006037461374,
        "weighted_distance": 3.5487948634932747
    },
    "planner": "LBKPIECE",
    "start": {
        "state": {
            "elbow_joint": 1.9565354010623817,
            "shoulder_lift_joint": -1.4165861575791021,
            "shoulder_pan_joint": -1.6717766225146293,
            "wrist_1_joint": -0.5286633292919765,
            "wrist_2_joint": 1.472756589071564,
            "wrist_3_joint": -3.1238370188695823
        }
    },
    "waypoints": [
        {
            "positions": [
                -1.6717766225146293,
                -1.4165861575791021,
                1.9565354010623817,
                -0.5286633292919765,
                1.472756589071564,
                -3.1238370188695823
            ]
        },
        {
            "positions": [
                -1.5160805888608897,
                -1.5201749160276146,
                1.9600125341048205,
                -0.47338320251957394,
                1.4150638979666212,
                -3.107601977539843
            ]
        },
        {
            "positions": [
                -1.3603845552071498,
                -1.6237636744761272,
                1.9634896671472593,
                -0.4181030757471714,
                1.3573712068616786,
                -3.091366936210104
            ]
        },
        {
            "positions": [
                -1.2046885215534102,
                -1.7273524329246397,
                1.9669668001896983,
                -0.36282294897476897,
                1.2996785157567359,
                -3.0751318948803648
            ]
        },
        {
            "positions": [
                -1.0489924878996706,
                -1.8309411913731521,
                1.970443933232137,
                -0.3075428222023664,
                1.2419858246517932,
                -3.0588968535506256
            ]
        },
        {
            "positions": [
                -0.893296454245931,
                -1.9345299498216648,
                1.9739210662745759,
                -0.25226269542996393,
                1.1842931335468507,
                -3.0426618122208864
            ]
        },
        {
            "positions": [
                -0.7376004205921912,
                -2.0381187082701775,
                1.9773981993170147,
                -0.19698256865756142,
                1.126600442441908,
                -3.0264267708911476
            ]
        },
        {
            "positions": [
                -0.5819043869384515,
                -2.1417074667186897,
                1.9808753323594535,
                -0.1417024418851589,
                1.0689077513369654,
                -3.0101917295614085
            ]
        },
        {
            "positions": [
                -0.42620835328471185,
                -2.2452962251672024,
                1.9843524654018923,
                -0.08642231511275639,
                1.0112150602320227,
                -2.9939566882316693
            ]
        },
        {
            "positions": [
                -0.270512319630972,
                -2.348884983615715,
                1.9878295984443313,
                -0.031142188340353816,
                0.9535223691270799,
                -2.97772164690193
            ]
        },
        {
            "positions": [
                -0.11481628597723259,
                -2.4524737420642273,
                1.99130673148677,
                0.02413793843204859,
                0.8958296780221373,
                -2.961486605572191
            ]
        },
        {
            "positions": [
                0.04087974767650726,
                -2.55606250051274,
                1.9947838645292089,
                0.07941806520445116,
                0.8381369869171946,
                -2.9452515642424517
            ]
        },
        {
            "positions": [
                -0.13872229861264515,
                -2.456692771429202,
                1.9963044162044747,
                0.012597475745588033,
                0.8264571700452319,
                -2.958525409324527
            ]
        },
        {
            "positions": [
                -0.31832434490179756,
                -2.357323042345665,
                1.9978249678797404,
                -0.054223113713275095,
                0.8147773531732693,
                -2.971799254406602
            ]
        },
        {
            "positions": [
                -0.49792639119094995,
                -2.257953313262127,
                1.9993455195550063,
                -0.12104370317213822,
                0.8030975363013065,
                -2.985073099488677
            ]
        },
        {
            "positions": [
                -0.6775284374801024,
                -2.1585835841785896,
                2.000866071230272,
                -0.18786429263100135,
                0.7914177194293439,
                -2.9983469445707525
            ]
        },
        {
            "positions": [
                -0.8571304837692548,
                -2.059213855095052,
                2.002386622905538,
                -0.2546848820898645,
                0.7797379025573812,
                -3.0116207896528278
            ]
        },
        {
            "positions": [
                -1.0367325300584072,
                -1.9598441260115145,
                2.0039071745808035,
                -0.3215054715487276,
                0.7680580856854186,
                -3.0248946347349026
            ]
        },
        {
            "positions": [
                -1.2163345763475597,
                -1.8604743969279767,
                2.0054277262560696,
                -0.38832606100759076,
                0.7563782688134558,
                -3.038168479816978
            ]
        },
        {
            "positions": [
                -1.395936622636712,
                -1.761104667844439,
                2.0069482779313352,
                -0.45514665046645386,
                0.7446984519414932,
                -3.051442324899053
            ]
        },
        {
            "positions": [
                -1.5755386689258646,
                -1.6617349387609015,
                2.008468829606601,
                -0.521967239925317,
                0.7330186350695305,
                -3.064716169981128
            ]
        },
        {
            "positions": [
                -1.755140715215017,
                -1.5623652096773637,
                2.009989381281867,
                -0.5887878293841802,
                0.7213388181975677,
                -3.0779900150632034
            ]
        },
        {
            "positions": [
                -1.9347427615041695,
                -1.4629954805938263,
                2.0115099329571327,
                -0.6556084188430433,
                0.7096590013256051,
                -3.0912638601452787
            ]
        },
        {
            "positions": [
                -2.1143448077933216,
                -1.3636257515102888,
                2.0130304846323983,
                -0.7224290083019064,
                0.6979791844536424,
                -3.104537705227354
            ]
        },
        {
            "positions": [
                -2.293946854082474,
                -1.264256022426751,
                2.0145510363076644,
                -0.7892495977607695,
                0.6862993675816798,
                -3.117811550309429
            ]
        },
        {
            "positions": [
                -2.4735489003716267,
                -1.1648862933432134,
                2.01607158798293,
                -0.8560701872196327,
                0.674619550709717,
                -3.131085395391504
            ]
        }
    ]
}