{
    "goal": {
        "global_pose": {
            "orientation": {
                "w": -0.00223480608172531,
                "x": 0.0024358444001904467,
                "y": 0.7094548369677653,
                "z": -0.704743149386269
            },
            "position": {
                "x": -0.37947507619857795,
                "y": -0.6371506643295288,
                "z": 0.19426114857196808
            }
        },
        "name": "move_to_magneteinheit_C"
    },
    "id": "LBKPIECE_move_to_magneteinheit_C_115",
    "joint_names": [
        "shoulder_pan_joint",
        "shoulder_lift_joint",
        "elbow_joint",
        "wrist_1_joint",
        "wrist_2_joint",
        "wrist_3_joint"
    ],
    "metrics": {
        "cart_traj_len": 4.723403539592593,
        "distance_elbow_joint": 3.6127424930345144,
        "distance_shoulder_lift_joint": 2.121417158507259,
        "distance_shoulder_pan_joint": 2.9639430940942058,
        "distance_wrist_1_joint": 4.604548815395606,
        "distance_wrist_2_joint": 8.351160390777268,
        "distance_wrist_3_joint": 11.583533089641433,
        "smoothness": 0.445081085449956,
        "time": 0.488743117,
        "traj_len": 5.765183868832828,
        "weighted_distance": 8.328272355471215
    },
    "planner": "LBKPIECE",
    "start": {
        "state": {
            "elbow_joint": 1.9565354010623817,
            "shoulder_lift_joint": -1.4165861575791021,
            "shoulder_pan_joint": -1.6717766225146293,
            "wrist_1_joint": -0.5286633292919765,
            "wrist_2_joint": 1.472756589071564,
            "wrist_3_joint": -3.1238370188695823
        }
    },
    "waypoints": [
        {
            "positions": [
                -1.6717766225146293,
                -1.4165861575791021,
                1.9565354010623817,
                -0.5286633292919765,
                1.472756589071564,
                -3.1238370188695823
            ]
        },
        {
            "positions": [
                -1.569711726936505,
                -1.4280653654003317,
                1.9098573838255377,
                -0.49432755629762315,
                1.3957343677806984,
                -3.007224050749934
            ]
        },
        {
            "positions": [
                -1.4676468313583806,
                -1.439544573221561,
                1.8631793665886938,
                -0.45999178330326984,
                1.3187121464898326,
                -2.890611082630285
            ]
        },
        {
            "positions": [
                -1.3655819357802563,
                -1.4510237810427906,
                1.81650134935185,
                -0.4256560103089165,
                1.2416899251989668,
                -2.7739981145106363
            ]
        },
        {
            "positions": [
                -1.263517040202132,
                -1.4625029888640202,
                1.769823332115006,
                -0.39132023731456317,
                1.1646677039081013,
                -2.657385146390988
            ]
        },
        {
            "positions": [
                -1.2846478897466365,
                -1.4615562271638651,
                1.7164544303777223,
                -0.32206918105953675,
                1.1055868775842788,
                -2.4739809864420703
            ]
        },
        {
            "positions": [
                -1.3057787392911406,
                -1.46060946546371,
                1.6630855286404385,
                -0.2528181248045103,
                1.0465060512604563,
                -2.2905768264931528
            ]
        },
        {
            "positions": [
                -1.326909588835645,
                -1.4596627037635552,
                1.6097166269031546,
                -0.18356706854948387,
                0.9874252249366336,
                -2.107172666544235
            ]
        },
        {
            "positions": [
                -1.3480404383801492,
                -1.4587159420634002,
                1.5563477251658708,
                -0.11431601229445748,
                0.928344398612811,
                -1.9237685065953178
            ]
        },
        {
            "positions": [
                -1.3691712879246536,
                -1.457769180363245,
                1.502978823428587,
                -0.045064956039431,
                0.8692635722889885,
                -1.7403643466464003
            ]
        },
        {
            "positions": [
                -1.390302137469158,
                -1.45682241866309,
                1.4496099216913032,
                0.02418610021559542,
                0.810182745965166,
                -1.556960186697483
            ]
        },
        {
            "positions": [
                -1.4114329870136622,
                -1.455875656962935,
                1.3962410199540194,
                0.09343715647062184,
                0.7511019196413434,
                -1.3735560267485654
            ]
        },
        {
            "positions": [
                -1.4325638365581665,
                -1.45492889526278,
                1.3428721182167356,
                0.1626882127256482,
                0.6920210933175208,
                -1.1901518667996478
            ]
        },
        {
            "positions": [
                -1.4536946861026707,
                -1.453982133562625,
                1.2895032164794515,
                0.23193926898067468,
                0.6329402669936983,
                -1.0067477068507302
            ]
        },
        {
            "positions": [
                -1.4748255356471751,
                -1.45303537186247,
                1.2361343147421677,
                0.30119032523570116,
                0.5738594406698758,
                -0.8233435469018127
            ]
        },
        {
            "positions": [
                -1.4959563851916793,
                -1.452088610162315,
                1.1827654130048841,
                0.37044138149072753,
                0.5147786143460533,
                -0.6399393869528955
            ]
        },
        {
            "positions": [
                -1.5170872347361837,
                -1.4511418484621599,
                1.1293965112676,
                0.439692437745754,
                0.4556977880222307,
                -0.456535227003978
            ]
        },
        {
            "positions": [
                -1.538218084280688,
                -1.4501950867620048,
                1.0760276095303163,
                0.5089434940007804,
                0.3966169616984082,
                -0.2731310670550604
            ]
        },
        {
            "positions": [
                -1.5593489338251922,
                -1.4492483250618498,
                1.0226587077930325,
                0.5781945502558068,
                0.3375361353745856,
                -0.08972690710614284
            ]
        },
        {
            "positions": [
                -1.5804797833696966,
                -1.448301563361695,
                0.9692898060557487,
                0.6474456065108332,
                0.278455309050763,
                0.09367725284277473
            ]
        },
        {
            "positions": [
                -1.6016106329142008,
                -1.4473548016615398,
                0.915920904318465,
                0.7166966627658595,
                0.2193744827269405,
                0.2770814127916923
            ]
        },
        {
            "positions": [
                -1.6227414824587052,
                -1.4464080399613848,
                0.8625520025811813,
                0.7859477190208859,
                0.1602936564031181,
                0.4604855727406094
            ]
        },
        {
            "positions": [
                -1.6438723320032094,
                -1.4454612782612297,
                0.8091831008438972,
                0.8551987752759125,
                0.10121283007929538,
                0.6438897326895274
            ]
        },
        {
            "positions": [
                -1.6650031815477138,
                -1.4445145165610747,
                0.7558141991066136,
                0.9244498315309388,
                0.04213200375547288,
                0.8272938926384446
            ]
        },
        {
            "positions": [
                -1.6861340310922182,
                -1.4435677548609196,
                0.7024452973693296,
                0.9937008877859654,
                -0.01694882256834962,
                1.0106980525873626
            ]
        },
        {
            "positions": [
                -1.7072648806367223,
                -1.4426209931607648,
                0.6490763956320458,
                1.0629519440409918,
                -0.07602964889217212,
                1.1941022125362797
            ]
        },
        {
            "positions": [
                -1.7283957301812267,
                -1.4416742314606097,
                0.5957074938947622,
                1.1322030002960182,
                -0.13511047521599462,
                1.3775063724851968
            ]
        },
        {
            "positions": [
                -1.749526579725731,
                -1.4407274697604546,
                0.5423385921574781,
                1.2014540565510448,
                -0.19419130153981734,
                1.5609105324341153
            ]
        },
        {
            "positions": [
                -1.7706574292702353,
                -1.4397807080602996,
                0.48896969042019434,
                1.2707051128060711,
                -0.25327212786363984,
                1.744314692383032
            ]
        },
        {
            "positions": [
                -1.7917882788147397,
                -1.4388339463601445,
                0.43560078868291074,
                1.3399561690610973,
                -0.31235295418746234,
                1.9277188523319495
            ]
        },
        {
            "positions": [
                -1.812919128359244,
                -1.4378871846599894,
                0.3822318869456267,
                1.4092072253161239,
                -0.37143378051128484,
                2.111123012280867
            ]
        },
        {
            "positions": [
                -1.8340499779037482,
                -1.4369404229598346,
                0.3288629852083429,
                1.4784582815711502,
                -0.43051460683510734,
                2.2945271722297846
            ]
        },
        {
            "positions": [
                -1.8551808274482524,
                -1.4359936612596795,
                0.2754940834710591,
                1.5477093378261768,
                -0.48959543315893006,
                2.477931332178702
            ]
        },
        {
            "positions": [
                -1.8763116769927568,
                -1.4350468995595245,
                0.22212518173377527,
                1.6169603940812034,
                -0.5486762594827526,
                2.6613354921276193
            ]
        },
        {
            "positions": [
                -1.9217005940429428,
                -1.3935925259296074,
                0.22052082968259193,
                1.5511002212104963,
                -0.413981970804401,
                2.5547460138986233
            ]
        },
        {
            "positions": [
                -1.967089511093129,
                -1.3521381522996905,
                0.21891647763140856,
                1.4852400483397892,
                -0.27928768212604943,
                2.4481565356696278
            ]
        },
        {
            "positions": [
                -2.0124784281433152,
                -1.3106837786697734,
                0.21731212558022522,
                1.4193798754690818,
                -0.1445933934476979,
                2.3415670574406318
            ]
        },
        {
            "positions": [
                -2.0578673451935012,
                -1.2692294050398565,
                0.21570777352904186,
                1.3535197025983747,
                -0.0098991047693463,
                2.2349775792116358
            ]
        },
        {
            "positions": [
                -2.1032562622436872,
                -1.2277750314099394,
                0.21410342147785852,
                1.2876595297276676,
                0.12479518390900535,
                2.1283881009826398
            ]
        },
        {
            "positions": [
                -2.148645179293873,
                -1.1863206577800225,
                0.21249906942667515,
                1.2217993568569603,
                0.2594894725873568,
                2.0217986227536437
            ]
        },
        {
            "positions": [
                -2.1940340963440597,
                -1.1448662841501054,
                0.2108947173754918,
                1.1559391839862532,
                0.3941837612657084,
                1.9152091445246482
            ]
        },
        {
            "positions": [
                -2.2394230133942457,
                -1.1034119105201885,
                0.20929036532430847,
                1.090079011115546,
                0.52887804994406,
                1.8086196662956522
            ]
        },
        {
            "positions": [
                -2.2848119304444316,
                -1.0619575368902714,
                0.2076860132731251,
                1.0242188382448387,
                0.6635723386224117,
                1.7020301880666562
            ]
        },
        {
            "positions": [
                -2.330200847494618,
                -1.0205031632603543,
                0.20608166122194177,
                0.9583586653741316,
                0.7982666273007633,
                1.5954407098376604
            ]
        },
        {
            "positions": [
                -2.375589764544804,
                -0.9790487896304374,
                0.2044773091707584,
                0.8924984925034245,
                0.9329609159791146,
                1.4888512316086646
            ]
        },
        {
            "positions": [
                -2.42097868159499,
                -0.9375944160005203,
                0.20287295711957506,
                0.8266383196327174,
                1.067655204657466,
                1.3822617533796686
            ]
        },
        {
            "positions": [
                -2.466367598645176,
                -0.8961400423706033,
                0.2012686050683917,
                0.76077814676201,
                1.2023494933358179,
                1.2756722751506726
            ]
        },
        {
            "positions": [
                -2.511756515695362,
                -0.8546856687406863,
                0.19966425301720836,
                0.6949179738913029,
                1.3370437820141694,
                1.1690827969216768
            ]
        },
        {
            "positions": [
                -2.5571454327455485,
                -0.8132312951107693,
                0.19805990096602502,
                0.6290578010205958,
                1.471738070692521,
                1.062493318692681
            ]
        },
        {
            "positions": [
                -2.6025343497957345,
                -0.7717769214808523,
                0.19645554891484165,
                0.5631976281498887,
                1.6064323593708725,
                0.955903840463685
            ]
        },
        {
            "positions": [
                -2.6479232668459205,
                -0.7303225478509353,
                0.19485119686365832,
                0.4973374552791816,
                1.741126648049224,
                0.8493143622346893
            ]
        },
        {
            "positions": [
                -2.693312183896107,
                -0.6888681742210182,
                0.19324684481247495,
                0.43147728240847405,
                1.875820936727576,
                0.742724884005693
            ]
        },
        {
            "positions": [
                -2.738701100946293,
                -0.6474138005911012,
                0.1916424927612916,
                0.36561710953776694,
                2.0105152254059275,
                0.6361354057766975
            ]
        },
        {
            "positions": [
                -2.784090017996479,
                -0.6059594269611842,
                0.19003814071010827,
                0.2997569366670598,
                2.145209514084279,
                0.5295459275477015
            ]
        },
        {
            "positions": [
                -2.829478935046665,
                -0.5645050533312672,
                0.1884337886589249,
                0.2338967637963527,
                2.27990380276263,
                0.42295644931870546
            ]
        },
        {
            "positions": [
                -2.874867852096851,
                -0.5230506797013502,
                0.18682943660774154,
                0.1680365909256456,
                2.4145980914409817,
                0.3163669710897099
            ]
        },
        {
            "positions": [
                -2.920256769147037,
                -0.4815963060714332,
                0.1852250845565582,
                0.10217641805493849,
                2.5492923801193332,
                0.2097774928607139
            ]
        },
        {
            "positions": [
                -2.9656456861972234,
                -0.4401419324415162,
                0.18362073250537486,
                0.03631624518423138,
                2.6839866687976848,
                0.1031880146317179
            ]
        },
        {
            "positions": [
                -3.01103460324741,
                -0.398687558811599,
                0.1820163804541915,
                -0.02954392768647618,
                2.8186809574760368,
                -0.0034014635972781093
            ]
        },
        {
            "positions": [
                -3.056423520297596,
                -0.3572331851816821,
                0.18041202840300816,
                -0.09540410055718329,
                2.9533752461543883,
                -0.10999094182627411
            ]
        },
        {
            "positions": [
                -3.101812437347782,
                -0.315778811551765,
                0.17880767635182482,
                -0.1612642734278904,
                3.08806953483274,
                -0.21658042005526967
            ]
        },
        {
            "positions": [
                -3.1472013543979678,
                -0.27432443792184813,
                0.17720332430064145,
                -0.22712444629859752,
                3.2227638235110914,
                -0.3231698982842657
            ]
        },
        {
            "positions": [
                -3.1192013878318896,
                -0.31129617860018854,
                0.25359542497867377,
                -0.2527427901170406,
                3.116168512709879,
                -0.4404138644606136
            ]
        },
        {
            "positions": [
                -3.091201421265812,
                -0.34826791927852896,
                0.3299875256567061,
                -0.2783611339354837,
                3.0095732019086667,
                -0.5576578306369615
            ]
        },
        {
            "positions": [
                -3.0632014546997337,
                -0.3852396599568694,
                0.40637962633473845,
                -0.30397947775392675,
                2.902977891107454,
                -0.6749017968133095
            ]
        },
        {
            "positions": [
                -3.0352014881336555,
                -0.42221140063520973,
                0.48277172701277077,
                -0.32959782157236983,
                2.7963825803062416,
                -0.7921457629896574
            ]
        },
        {
            "positions": [
                -3.007201521567578,
                -0.4591831413135502,
                0.5591638276908031,
                -0.3552161653908129,
                2.6897872695050293,
                -0.9093897291660055
            ]
        },
        {
            "positions": [
                -2.9792015550014996,
                -0.49615488199189056,
                0.6355559283688355,
                -0.380834509209256,
                2.583191958703817,
                -1.0266336953423534
            ]
        },
        {
            "positions": [
                -2.9512015884354215,
                -0.5331266226702309,
                0.7119480290468678,
                -0.4064528530276991,
                2.4765966479026043,
                -1.1438776615187014
            ]
        },
        {
            "positions": [
                -2.9232016218693437,
                -0.5700983633485713,
                0.7883401297249001,
                -0.43207119684614215,
                2.3700013371013924,
                -1.2611216276950492
            ]
        },
        {
            "positions": [
                -2.8952016553032656,
                -0.6070701040269117,
                0.8647322304029325,
                -0.4576895406645853,
                2.2634060263001796,
                -1.3783655938713972
            ]
        },
        {
            "positions": [
                -2.8672016887371874,
                -0.6440418447052523,
                0.9411243310809648,
                -0.48330788448302836,
                2.1568107154989673,
                -1.4956095600477453
            ]
        },
        {
            "positions": [
                -2.8392017221711097,
                -0.6810135853835926,
                1.017516431758997,
                -0.5089262283014715,
                2.050215404697755,
                -1.612853526224093
            ]
        },
        {
            "positions": [
                -2.8112017556050315,
                -0.717985326061933,
                1.0939085324370295,
                -0.5345445721199145,
                1.9436200938965424,
                -1.730097492400441
            ]
        },
        {
            "positions": [
                -2.7832017890389533,
                -0.7549570667402734,
                1.1703006331150618,
                -0.5601629159383577,
                1.8370247830953301,
                -1.8473414585767889
            ]
        },
        {
            "positions": [
                -2.7552018224728756,
                -0.7919288074186138,
                1.2466927337930942,
                -0.5857812597568007,
                1.7304294722941176,
                -1.9645854247531371
            ]
        },
        {
            "positions": [
                -2.7272018559067974,
                -0.8289005480969542,
                1.3230848344711266,
                -0.6113996035752438,
                1.6238341614929053,
                -2.081829390929485
            ]
        },
        {
            "positions": [
                -2.6992018893407193,
                -0.8658722887752945,
                1.3994769351491587,
                -0.6370179473936868,
                1.517238850691693,
                -2.1990733571058327
            ]
        },
        {
            "positions": [
                -2.6712019227746415,
                -0.9028440294536351,
                1.475869035827191,
                -0.66263629121213,
                1.4106435398904802,
                -2.316317323282181
            ]
        },
        {
            "positions": [
                -2.6432019562085634,
                -0.9398157701319754,
                1.5522611365052235,
                -0.688254635030573,
                1.3040482290892679,
                -2.433561289458529
            ]
        },
        {
            "positions": [
                -2.615201989642485,
                -0.9767875108103158,
                1.6286532371832558,
                -0.7138729788490161,
                1.1974529182880556,
                -2.550805255634877
            ]
        },
        {
            "positions": [
                -2.587202023076407,
                -1.0137592514886564,
                1.7050453378612882,
                -0.7394913226674592,
                1.0908576074868432,
                -2.668049221811225
            ]
        },
        {
            "positions": [
                -2.5592020565103293,
                -1.0507309921669967,
                1.7814374385393204,
                -0.7651096664859023,
                0.9842622966856309,
                -2.7852931879875724
            ]
        },
        {
            "positions": [
                -2.5312020899442516,
                -1.087702732845337,
                1.8578295392173527,
                -0.7907280103043454,
                0.8776669858844186,
                -2.9025371541639204
            ]
        },
        {
            "positions": [
                -2.5032021233781734,
                -1.1246744735236773,
                1.934221639895385,
                -0.8163463541227884,
                0.7710716750832058,
                -3.0197811203402685
            ]
        },
        {
            "positions": [
                -2.475202156812095,
                -1.1616462142020179,
                2.0106137405734175,
                -0.8419646979412315,
                0.6644763642819935,
                -3.1370250865166165
            ]
        }
    ]
}