{
    "goal": {
        "global_pose": {
            "orientation": {
                "w": 0.7047431468963623,
                "x": -0.7094548344612122,
                "y": 0.0024358443915843964,
                "z": -0.0022348060738295317
            },
            "position": {
                "x": 0.6094750761985779,
                "y": 0.3671506643295288,
                "z": 0.19426114857196808
            }
        },
        "name": "move_to_magneteinheit_A"
    },
    "id": "LBKPIECE_move_to_magneteinheit_A_102",
    "joint_names": [
        "shoulder_pan_joint",
        "shoulder_lift_joint",
        "elbow_joint",
        "wrist_1_joint",
        "wrist_2_joint",
        "wrist_3_joint"
    ],
    "metrics": {
        "cart_traj_len": 3.0986553859860773,
        "distance_elbow_joint": 3.9160779208324215,
        "distance_shoulder_lift_joint": 0.4669808780996152,
        "distance_shoulder_pan_joint": 2.791295749286091,
        "distance_wrist_1_joint": 3.4825927749605716,
        "distance_wrist_2_joint": 1.7489533994328958,
        "distance_wrist_3_joint": 1.0494485445417845,
        "smoothness": 0.11866326436375588,
        "time": 0.461098707,
        "traj_len": 3.668153386535707,
        "weighted_distance": 4.559143837457907
    },
    "planner": "LBKPIECE",
    "start": {
        "state": {
            "elbow_joint": -1.9196185241190666,
            "shoulder_lift_joint": -1.2443396400964142,
            "shoulder_pan_joint": 2.6996025414629847,
            "wrist_1_joint": -1.5485510000780065,
            "wrist_2_joint": -1.5709468930060704,
            "wrist_3_joint": 0.4420197071253992
        }
    },
    "waypoints": [
        {
            "positions": [
                2.6996025414629847,
                -1.2443396400964142,
                -1.9196185241190666,
                -1.5485510000780065,
                -1.5709468930060704,
                0.4420197071253992
            ]
        },
        {
            "positions": [
                2.605688004368489,
                -1.2425670528495993,
                -1.8147430021973894,
                -1.4467302179774129,
                -1.5118582346822158,
                0.4140669049400413
            ]
        },
        {
            "positions": [
                2.5117734672739935,
                -1.2407944656027847,
                -1.7098674802757123,
                -1.344909435876819,
                -1.452769576358361,
                0.3861141027546834
            ]
        },
        {
            "positions": [
                2.4178589301794977,
                -1.2390218783559699,
                -1.604991958354035,
                -1.2430886537762253,
                -1.3936809180345064,
                0.35816130056932544
            ]
        },
        {
            "positions": [
                2.323944393085002,
                -1.2372492911091553,
                -1.5001164364323578,
                -1.1412678716756317,
                -1.3345922597106519,
                0.33020849838396754
            ]
        },
        {
            "positions": [
                2.230029855990506,
                -1.2354767038623404,
                -1.3952409145106808,
                -1.039447089575038,
                -1.2755036013867973,
                0.3022556961986096
            ]
        },
        {
            "positions": [
                2.1361153188960107,
                -1.2337041166155258,
                -1.2903653925890035,
                -0.9376263074744442,
                -1.2164149430629425,
                0.2743028940132517
            ]
        },
        {
            "positions": [
                2.042200781801515,
                -1.231931529368711,
                -1.1854898706673263,
                -0.8358055253738504,
                -1.157326284739088,
                0.2463500918278938
            ]
        },
        {
            "positions": [
                1.9482862447070193,
                -1.2301589421218964,
                -1.080614348745649,
                -0.7339847432732567,
                -1.0982376264152334,
                0.2183972896425359
            ]
        },
        {
            "positions": [
                1.8543717076125237,
                -1.2283863548750815,
                -0.975738826823972,
                -0.632163961172663,
                -1.0391489680913786,
                0.190444487457178
            ]
        },
        {
            "positions": [
                1.7604571705180279,
                -1.226613767628267,
                -0.8708633049022947,
                -0.5303431790720694,
                -0.980060309767524,
                0.16249168527182006
            ]
        },
        {
            "positions": [
                1.6665426334235323,
                -1.224841180381452,
                -0.7659877829806176,
                -0.42852239697147554,
                -0.9209716514436694,
                0.13453888308646217
            ]
        },
        {
            "positions": [
                1.5726280963290364,
                -1.2230685931346374,
                -0.6611122610589404,
                -0.3267016148708819,
                -0.8618829931198148,
                0.10658608090110427
            ]
        },
        {
            "positions": [
                1.4787135592345408,
                -1.2212960058878226,
                -0.5562367391372631,
                -0.22488083277028825,
                -0.8027943347959602,
                0.07863327871574638
            ]
        },
        {
            "positions": [
                1.3847990221400452,
                -1.219523418641008,
                -0.4513612172155861,
                -0.12306005066969439,
                -0.7437056764721055,
                0.05068047653038843
            ]
        },
        {
            "positions": [
                1.2908844850455494,
                -1.2177508313941932,
                -0.3464856952939086,
                -0.021239268569100522,
                -0.6846170181482508,
                0.02272767434503048
            ]
        },
        {
            "positions": [
                1.1969699479510538,
                -1.2159782441473785,
                -0.24161017337223156,
                0.08058151353149312,
                -0.6255283598243963,
                -0.005225127840327359
            ]
        },
        {
            "positions": [
                1.103055410856558,
                -1.2142056569005637,
                -0.1367346514505543,
                0.18240229563208699,
                -0.5664397015005416,
                -0.03317793002568531
            ]
        },
        {
            "positions": [
                1.0091408737620624,
                -1.212433069653749,
                -0.03185912952887726,
                0.2842230777326804,
                -0.507351043176687,
                -0.06113073221104315
            ]
        },
        {
            "positions": [
                0.9152263366675666,
                -1.2106604824069342,
                0.07301639239280022,
                0.38604385983327427,
                -0.4482623848528322,
                -0.08908353439640115
            ]
        },
        {
            "positions": [
                0.821311799573071,
                -1.2088878951601196,
                0.17789191431447726,
                0.4878646419338677,
                -0.38917372652897764,
                -0.11703633658175905
            ]
        },
        {
            "positions": [
                0.7273972624785752,
                -1.2071153079133048,
                0.2827674362361545,
                0.5896854240344618,
                -0.33008506820512307,
                -0.14498913876711694
            ]
        },
        {
            "positions": [
                0.6334827253840798,
                -1.2053427206664902,
                0.38764295815783134,
                0.6915062061350554,
                -0.2709964098812685,
                -0.17294194095247484
            ]
        },
        {
            "positions": [
                0.539568188289584,
                -1.2035701334196753,
                0.49251848007950905,
                0.7933269882356491,
                -0.2119077515574137,
                -0.20089474313783273
            ]
        },
        {
            "positions": [
                0.44565365119508815,
                -1.2017975461728607,
                0.5973940020011859,
                0.8951477703362427,
                -0.15281909323355913,
                -0.22884754532319063
            ]
        },
        {
            "positions": [
                0.35173911410059233,
                -1.2000249589260459,
                0.7022695239228631,
                0.9969685524368368,
                -0.09373043490970456,
                -0.25680034750854863
            ]
        },
        {
            "positions": [
                0.25782457700609696,
                -1.1982523716792313,
                0.8071450458445404,
                1.09878933453743,
                -0.03464177658584999,
                -0.2847531496939064
            ]
        },
        {
            "positions": [
                0.16391003991160127,
                -1.1964797844324164,
                0.9120205677662175,
                1.2006101166380243,
                0.024446881738004717,
                -0.3127059518792644
            ]
        },
        {
            "positions": [
                0.12673061753603887,
                -1.1571197296672278,
                1.0287906859390734,
                1.2852422101562242,
                0.020707036220137098,
                -0.2827262667422114
            ]
        },
        {
            "positions": [
                0.08955119516047645,
                -1.117759674902039,
                1.1455608041119294,
                1.3698743036744239,
                0.01696719070226948,
                -0.25274658160515845
            ]
        },
        {
            "positions": [
                0.052371772784914034,
                -1.0783996201368502,
                1.2623309222847854,
                1.4545063971926235,
                0.01322734518440186,
                -0.22276689646810544
            ]
        },
        {
            "positions": [
                0.015192350409351617,
                -1.0390395653716615,
                1.3791010404576411,
                1.5391384907108234,
                0.009487499666534241,
                -0.19278721133105245
            ]
        },
        {
            "positions": [
                0.02998946397858423,
                -0.9813950818877385,
                1.514418406336039,
                1.6287876118427502,
                -0.01820292434737111,
                -0.14993783511000963
            ]
        },
        {
            "positions": [
                0.044786577547816835,
                -0.9237505984038155,
                1.649735772214437,
                1.718436732974677,
                -0.04589334836127646,
                -0.10708845888896679
            ]
        },
        {
            "positions": [
                0.05958369111704945,
                -0.8661061149198925,
                1.785053138092835,
                1.8080858541066038,
                -0.07358377237518181,
                -0.06423908266792397
            ]
        },
        {
            "positions": [
                0.07438080468628205,
                -0.8084616314359695,
                1.9203705039712329,
                1.8977349752385306,
                -0.10127419638908716,
                -0.021389706446881124
            ]
        },
        {
            "positions": [
                0.12207790864180915,
                -0.777358761996799,
                1.9964593967133546,
                1.9340417748825653,
                -0.129112742950816,
                -0.01798306634214368
            ]
        }
    ]
}