{
    "goal": {
        "global_pose": {
            "orientation": {
                "w": 0.7047431493862688,
                "x": -0.7094548369677653,
                "y": 0.0024358444001904,
                "z": -0.0022348060817251984
            },
            "position": {
                "x": -0.39052492380142206,
                "y": 0.3671506643295288,
                "z": 0.19426114857196808
            }
        },
        "name": "move_to_magneteinheit_D"
    },
    "id": "LBKPIECE_move_to_magneteinheit_D_105",
    "joint_names": [
        "shoulder_pan_joint",
        "shoulder_lift_joint",
        "elbow_joint",
        "wrist_1_joint",
        "wrist_2_joint",
        "wrist_3_joint"
    ],
    "metrics": {
        "cart_traj_len": 8.906496581665088,
        "distance_elbow_joint": 5.441092041352956,
        "distance_shoulder_lift_joint": 3.7836970749750174,
        "distance_shoulder_pan_joint": 8.936366744022301,
        "distance_wrist_1_joint": 2.6361310845117822,
        "distance_wrist_2_joint": 4.3301248148720095,
        "distance_wrist_3_joint": 10.251748441674547,
        "smoothness": 0.665064455404456,
        "time": 0.464215457,
        "traj_len": 5.948038349019665,
        "weighted_distance": 7.927730632667932
    },
    "planner": "LBKPIECE",
    "start": {
        "state": {
            "elbow_joint": 0.749534889911806,
            "shoulder_lift_joint": -0.6476975780787326,
            "shoulder_pan_joint": -2.711696901376241,
            "wrist_1_joint": -0.07506478083263063,
            "wrist_2_joint": 0.43296659715538205,
            "wrist_3_joint": -3.14703540197715
        }
    },
    "waypoints": [
        {
            "positions": [
                -2.711696901376241,
                -0.6476975780787326,
                0.749534889911806,
                -0.07506478083263063,
                0.43296659715538205,
                -3.14703540197715
            ]
        },
        {
            "positions": [
                -2.7699620769302697,
                -0.5988286319866134,
                0.6362411194172595,
                -0.08985157526877494,
                0.5436689583572276,
                -3.146433574879906
            ]
        },
        {
            "positions": [
                -2.828227252484299,
                -0.5499596858944942,
                0.522947348922713,
                -0.10463836970491924,
                0.6543713195590732,
                -3.145831747782662
            ]
        },
        {
            "positions": [
                -2.886492428038328,
                -0.5010907398023748,
                0.4096535784281666,
                -0.11942516414106355,
                0.7650736807609189,
                -3.1452299206854173
            ]
        },
        {
            "positions": [
                -2.9447576035923566,
                -0.4522217937102556,
                0.2963598079336201,
                -0.13421195857720786,
                0.8757760419627645,
                -3.144628093588173
            ]
        },
        {
            "positions": [
                -2.867176610070373,
                -0.4866639503700104,
                0.2390817965288613,
                -0.1721778081657198,
                0.8427944018187896,
                -2.9921255305279133
            ]
        },
        {
            "positions": [
                -2.78959561654839,
                -0.5211061070297653,
                0.1818037851241025,
                -0.21014365775423172,
                0.8098127616748148,
                -2.839622967467654
            ]
        },
        {
            "positions": [
                -2.7120146230264064,
                -0.5555482636895201,
                0.12452577371934373,
                -0.24810950734274362,
                0.7768311215308399,
                -2.687120404407394
            ]
        },
        {
            "positions": [
                -2.6344336295044233,
                -0.589990420349275,
                0.06724776231458493,
                -0.2860753569312555,
                0.7438494813868649,
                -2.5346178413471345
            ]
        },
        {
            "positions": [
                -2.5568526359824397,
                -0.6244325770090298,
                0.009969750909826158,
                -0.3240412065197675,
                0.71086784124289,
                -2.3821152782868746
            ]
        },
        {
            "positions": [
                -2.479271642460456,
                -0.6588747336687846,
                -0.04730826049493264,
                -0.36200705610827943,
                0.6778862010989152,
                -2.229612715226615
            ]
        },
        {
            "positions": [
                -2.401690648938473,
                -0.6933168903285395,
                -0.10458627189969144,
                -0.39997290569679134,
                0.6449045609549403,
                -2.0771101521663553
            ]
        },
        {
            "positions": [
                -2.3241096554164895,
                -0.7277590469882943,
                -0.16186428330445024,
                -0.43793875528530324,
                0.6119229208109653,
                -1.9246075891060956
            ]
        },
        {
            "positions": [
                -2.246528661894506,
                -0.7622012036480491,
                -0.21914229470920904,
                -0.4759046048738152,
                0.5789412806669905,
                -1.7721050260458358
            ]
        },
        {
            "positions": [
                -2.168947668372523,
                -0.796643360307804,
                -0.2764203061139678,
                -0.5138704544623272,
                0.5459596405230156,
                -1.619602462985576
            ]
        },
        {
            "positions": [
                -2.0913666748505393,
                -0.8310855169675588,
                -0.33369831751872664,
                -0.551836304050839,
                0.5129780003790407,
                -1.4670998999253164
            ]
        },
        {
            "positions": [
                -2.013785681328556,
                -0.8655276736273136,
                -0.3909763289234854,
                -0.589802153639351,
                0.47999636023506587,
                -1.3145973368650568
            ]
        },
        {
            "positions": [
                -1.9362046878065726,
                -0.8999698302870685,
                -0.44825434032824424,
                -0.6277680032278629,
                0.44701472009109094,
                -1.162094773804797
            ]
        },
        {
            "positions": [
                -1.8586236942845893,
                -0.9344119869468233,
                -0.505532351733003,
                -0.6657338528163748,
                0.4140330799471161,
                -1.0095922107445374
            ]
        },
        {
            "positions": [
                -1.781042700762606,
                -0.9688541436065782,
                -0.5628103631377619,
                -0.7036997024048868,
                0.3810514398031412,
                -0.8570896476842775
            ]
        },
        {
            "positions": [
                -1.7034617072406226,
                -1.0032963002663329,
                -0.6200883745425205,
                -0.7416655519933986,
                0.3480697996591663,
                -0.7045870846240181
            ]
        },
        {
            "positions": [
                -1.625880713718639,
                -1.0377384569260877,
                -0.6773663859472794,
                -0.7796314015819106,
                0.3150881595151914,
                -0.5520845215637582
            ]
        },
        {
            "positions": [
                -1.5482997201966557,
                -1.0721806135858425,
                -0.7346443973520382,
                -0.8175972511704226,
                0.28210651937121656,
                -0.3995819585034983
            ]
        },
        {
            "positions": [
                -1.4707187266746726,
                -1.1066227702455973,
                -0.7919224087567969,
                -0.8555631007589344,
                0.2491248792272417,
                -0.2470793954432393
            ]
        },
        {
            "positions": [
                -1.393137733152689,
                -1.1410649269053523,
                -0.8492004201615557,
                -0.8935289503474464,
                0.21614323908326671,
                -0.09457683238297898
            ]
        },
        {
            "positions": [
                -1.3155567396307057,
                -1.175507083565107,
                -0.9064784315663146,
                -0.9314947999359582,
                0.18316159893929196,
                0.05792573067728046
            ]
        },
        {
            "positions": [
                -1.2379757461087222,
                -1.209949240224862,
                -0.9637564429710734,
                -0.9694606495244702,
                0.15017995879531698,
                0.21042829373754035
            ]
        },
        {
            "positions": [
                -1.160394752586739,
                -1.2443913968846168,
                -1.021034454375832,
                -1.007426499112982,
                0.11719831865134223,
                0.3629308567977998
            ]
        },
        {
            "positions": [
                -1.0828137590647555,
                -1.2788335535443718,
                -1.078312465780591,
                -1.045392348701494,
                0.08421667850736725,
                0.5154334198580597
            ]
        },
        {
            "positions": [
                -1.0052327655427724,
                -1.3132757102041264,
                -1.1355904771853496,
                -1.083358198290006,
                0.05123503836339238,
                0.6679359829183191
            ]
        },
        {
            "positions": [
                -0.9276517720207886,
                -1.3477178668638814,
                -1.1928684885901086,
                -1.1213240478785178,
                0.018253398219417405,
                0.820438545978579
            ]
        },
        {
            "positions": [
                -0.8500707784988055,
                -1.3821600235236362,
                -1.2501464999948673,
                -1.1592898974670298,
                -0.01472824192455735,
                0.9729411090388385
            ]
        },
        {
            "positions": [
                -0.772489784976822,
                -1.416602180183391,
                -1.3074245113996261,
                -1.1972557470555418,
                -0.04770988206853233,
                1.1254436720990983
            ]
        },
        {
            "positions": [
                -0.6949087914548389,
                -1.4510443368431458,
                -1.3647025228043848,
                -1.2352215966440536,
                -0.0806915222125072,
                1.2779462351593582
            ]
        },
        {
            "positions": [
                -0.6173277979328553,
                -1.4854864935029006,
                -1.4219805342091438,
                -1.2731874462325656,
                -0.11367316235648206,
                1.4304487982196181
            ]
        },
        {
            "positions": [
                -0.5397468044108722,
                -1.5199286501626554,
                -1.4792585456139025,
                -1.3111532958210774,
                -0.14665480250045682,
                1.5829513612798771
            ]
        },
        {
            "positions": [
                -0.46216581088888864,
                -1.5543708068224102,
                -1.5365365570186613,
                -1.3491191454095894,
                -0.1796364426444319,
                1.735453924340137
            ]
        },
        {
            "positions": [
                -0.3845848173669051,
                -1.588812963482165,
                -1.59381456842342,
                -1.3870849949981015,
                -0.21261808278840677,
                1.887956487400397
            ]
        },
        {
            "positions": [
                -0.30700382384492153,
                -1.6232551201419199,
                -1.6510925798281788,
                -1.4250508445866135,
                -0.24559972293238164,
                2.040459050460657
            ]
        },
        {
            "positions": [
                -0.22942283032293842,
                -1.6576972768016747,
                -1.7083705912329374,
                -1.4630166941751253,
                -0.2785813630763565,
                2.192961613520916
            ]
        },
        {
            "positions": [
                -0.15184183680095487,
                -1.6921394334614295,
                -1.7656486026376965,
                -1.5009825437636373,
                -0.31156300322033137,
                2.3454641765811766
            ]
        },
        {
            "positions": [
                -0.07426084327897167,
                -1.7265815901211845,
                -1.822926614042455,
                -1.538948393352149,
                -0.3445446433643061,
                2.497966739641436
            ]
        },
        {
            "positions": [
                0.044929886144401604,
                -1.6787846231513548,
                -1.7743819692792266,
                -1.5766880042010432,
                -0.39647547939593353,
                2.4152722064250263
            ]
        },
        {
            "positions": [
                0.16412061556777488,
                -1.630987656181525,
                -1.7258373245159984,
                -1.6144276150499373,
                -0.4484063154275609,
                2.332577673208617
            ]
        },
        {
            "positions": [
                0.2833113449911482,
                -1.5831906892116951,
                -1.6772926797527703,
                -1.6521672258988311,
                -0.5003371514591883,
                2.2498831399922072
            ]
        },
        {
            "positions": [
                0.40250207441452146,
                -1.5353937222418654,
                -1.628748034989542,
                -1.6899068367477252,
                -0.5522679874908156,
                2.167188606775798
            ]
        },
        {
            "positions": [
                0.5216928038378947,
                -1.4875967552720357,
                -1.5802033902263137,
                -1.7276464475966193,
                -0.6041988235224431,
                2.084494073559388
            ]
        },
        {
            "positions": [
                0.640883533261268,
                -1.439799788302206,
                -1.5316587454630857,
                -1.7653860584455132,
                -0.6561296595540704,
                2.0017995403429785
            ]
        },
        {
            "positions": [
                0.7600742626846413,
                -1.392002821332376,
                -1.4831141006998574,
                -1.8031256692944073,
                -0.7080604955856978,
                1.919105007126569
            ]
        },
        {
            "positions": [
                0.8792649921080146,
                -1.3442058543625466,
                -1.434569455936629,
                -1.8408652801433014,
                -0.7599913316173252,
                1.8364104739101594
            ]
        },
        {
            "positions": [
                0.998455721531388,
                -1.2964088873927166,
                -1.3860248111734008,
                -1.8786048909921955,
                -0.8119221676489525,
                1.75371594069375
            ]
        },
        {
            "positions": [
                1.117646450954761,
                -1.248611920422887,
                -1.3374801664101725,
                -1.9163445018410896,
                -0.86385300368058,
                1.6710214074773404
            ]
        },
        {
            "positions": [
                1.2368371803781342,
                -1.2008149534530572,
                -1.2889355216469445,
                -1.9540841126899835,
                -0.9157838397122073,
                1.5883268742609307
            ]
        },
        {
            "positions": [
                1.3560279098015076,
                -1.1530179864832273,
                -1.2403908768837162,
                -1.9918237235388776,
                -0.9677146757438347,
                1.5056323410445211
            ]
        },
        {
            "positions": [
                1.4752186392248807,
                -1.1052210195133978,
                -1.1918462321204881,
                -2.0295633343877717,
                -1.0196455117754621,
                1.4229378078281116
            ]
        },
        {
            "positions": [
                1.594409368648254,
                -1.0574240525435679,
                -1.1433015873572598,
                -2.0673029452366656,
                -1.0715763478070897,
                1.340243274611702
            ]
        },
        {
            "positions": [
                1.7136000980716273,
                -1.0096270855737381,
                -1.0947569425940316,
                -2.10504255608556,
                -1.1235071838387167,
                1.2575487413952924
            ]
        },
        {
            "positions": [
                1.8327908274950007,
                -0.9618301186039084,
                -1.0462122978308033,
                -2.142782166934454,
                -1.1754380198703442,
                1.1748542081788829
            ]
        },
        {
            "positions": [
                1.951981556918374,
                -0.9140331516340786,
                -0.997667653067575,
                -2.1805217777833477,
                -1.2273688559019718,
                1.0921596749624731
            ]
        },
        {
            "positions": [
                2.0711722863417474,
                -0.8662361846642488,
                -0.9491230083043468,
                -2.218261388632242,
                -1.279299691933599,
                1.0094651417460638
            ]
        },
        {
            "positions": [
                2.1903630157651204,
                -0.8184392176944191,
                -0.9005783635411186,
                -2.256000999481136,
                -1.3312305279652263,
                0.9267706085296543
            ]
        },
        {
            "positions": [
                2.3095537451884938,
                -0.7706422507245893,
                -0.8520337187778904,
                -2.2937406103300297,
                -1.3831613639968539,
                0.8440760753132446
            ]
        },
        {
            "positions": [
                2.428744474611867,
                -0.7228452837547596,
                -0.8034890740146621,
                -2.331480221178924,
                -1.4350922000284814,
                0.7613815420968351
            ]
        },
        {
            "positions": [
                2.54793520403524,
                -0.6750483167849299,
                -0.754944429251434,
                -2.369219832027818,
                -1.4870230360601084,
                0.6786870088804255
            ]
        },
        {
            "positions": [
                2.6671259334586135,
                -0.6272513498151,
                -0.7063997844882057,
                -2.4069594428767123,
                -1.538953872091736,
                0.5959924756640158
            ]
        },
        {
            "positions": [
                2.786316662881987,
                -0.5794543828452703,
                -0.6578551397249774,
                -2.444699053725606,
                -1.5908847081233635,
                0.5132979424476063
            ]
        },
        {
            "positions": [
                2.672000056138454,
                -0.6243287784960279,
                -0.7233766421511781,
                -2.434449176355652,
                -1.536244145816498,
                0.6141470771730724
            ]
        },
        {
            "positions": [
                2.557683449394921,
                -0.6692031741467854,
                -0.7888981445773788,
                -2.4241992989856977,
                -1.4816035835096326,
                0.7149962118985386
            ]
        },
        {
            "positions": [
                2.4433668426513884,
                -0.714077569797543,
                -0.8544196470035795,
                -2.4139494216157438,
                -1.4269630212027673,
                0.8158453466240048
            ]
        },
        {
            "positions": [
                2.3290502359078555,
                -0.7589519654483007,
                -0.9199411494297802,
                -2.40369954424579,
                -1.3723224588959018,
                0.9166944813494708
            ]
        },
        {
            "positions": [
                2.2147336291643227,
                -0.8038263610990583,
                -0.9854626518559809,
                -2.3934496668758354,
                -1.3176818965890362,
                1.0175436160749372
            ]
        },
        {
            "positions": [
                2.10041702242079,
                -0.8487007567498158,
                -1.0509841542821816,
                -2.3831997895058814,
                -1.263041334282171,
                1.1183927508004032
            ]
        },
        {
            "positions": [
                1.986100415677257,
                -0.8935751524005734,
                -1.1165056567083822,
                -2.3729499121359274,
                -1.2084007719753056,
                1.2192418855258693
            ]
        },
        {
            "positions": [
                1.8717838089337242,
                -0.9384495480513311,
                -1.182027159134583,
                -2.3627000347659735,
                -1.15376020966844,
                1.3200910202513354
            ]
        },
        {
            "positions": [
                1.7574672021901916,
                -0.9833239437020886,
                -1.2475486615607836,
                -2.352450157396019,
                -1.0991196473615745,
                1.4209401549768015
            ]
        },
        {
            "positions": [
                1.6431505954466585,
                -1.0281983393528462,
                -1.3130701639869844,
                -2.342200280026065,
                -1.0444790850547092,
                1.5217892897022678
            ]
        },
        {
            "positions": [
                1.528833988703126,
                -1.0730727350036038,
                -1.378591666413185,
                -2.331950402656111,
                -0.9898385227478438,
                1.6226384244277336
            ]
        },
        {
            "positions": [
                1.414517381959593,
                -1.1179471306543614,
                -1.4441131688393858,
                -2.3217005252861567,
                -0.9351979604409784,
                1.7234875591532
            ]
        },
        {
            "positions": [
                1.3002007752160603,
                -1.162821526305119,
                -1.5096346712655864,
                -2.3114506479162027,
                -0.8805573981341129,
                1.824336693878666
            ]
        },
        {
            "positions": [
                1.1858841684725274,
                -1.2076959219558765,
                -1.575156173691787,
                -2.3012007705462487,
                -0.8259168358272475,
                1.9251858286041321
            ]
        },
        {
            "positions": [
                1.0715675617289948,
                -1.252570317606634,
                -1.6406776761179875,
                -2.2909508931762943,
                -0.7712762735203822,
                2.0260349633295984
            ]
        },
        {
            "positions": [
                0.9572509549854618,
                -1.2974447132573919,
                -1.7061991785441886,
                -2.2807010158063403,
                -0.7166357112135167,
                2.1268840980550645
            ]
        },
        {
            "positions": [
                0.8429343482419289,
                -1.3423191089081494,
                -1.7717206809703892,
                -2.2704511384363864,
                -0.6619951489066512,
                2.2277332327805306
            ]
        },
        {
            "positions": [
                0.7286177414983963,
                -1.387193504558907,
                -1.8372421833965897,
                -2.260201261066432,
                -0.6073545865997858,
                2.3285823675059967
            ]
        },
        {
            "positions": [
                0.6143011347548635,
                -1.4320679002096643,
                -1.9027636858227903,
                -2.249951383696478,
                -0.5527140242929205,
                2.4294315022314628
            ]
        },
        {
            "positions": [
                0.4999845280113302,
                -1.4769422958604221,
                -1.9682851882489913,
                -2.239701506326524,
                -0.49807346198605496,
                2.5302806369569293
            ]
        },
        {
            "positions": [
                0.3856679212677978,
                -1.5218166915111797,
                -2.033806690675192,
                -2.2294516289565696,
                -0.4434328996791894,
                2.6311297716823954
            ]
        },
        {
            "positions": [
                0.271351314524265,
                -1.5666910871619373,
                -2.0993281931013925,
                -2.2192017515866156,
                -0.3887923373723241,
                2.731978906407861
            ]
        },
        {
            "positions": [
                0.15703470778073214,
                -1.6115654828126948,
                -2.164849695527593,
                -2.2089518742166616,
                -0.3341517750654588,
                2.832828041133327
            ]
        },
        {
            "positions": [
                0.04271810103719931,
                -1.6564398784634524,
                -2.2303711979537937,
                -2.1987019968467076,
                -0.27951121275859325,
                2.9336771758587936
            ]
        },
        {
            "positions": [
                -0.07159850570633353,
                -1.70131427411421,
                -2.2958927003799947,
                -2.188452119476753,
                -0.22487065045172772,
                3.0345263105842597
            ]
        },
        {
            "positions": [
                -0.18591511244986628,
                -1.7461886697649676,
                -2.3614142028061953,
                -2.1782022421067992,
                -0.17023008814486232,
                3.135375445309726
            ]
        }
    ]
}