{
    "goal": {
        "global_pose": {
            "orientation": {
                "w": 0.005598929693374612,
                "x": 0.007748599140229565,
                "y": 0.7110244013736278,
                "z": -0.7031023480610252
            },
            "position": {
                "x": -0.8858502320852131,
                "y": -0.7141253447532654,
                "z": 0.3711530566215515
            }
        },
        "name": "move_to_auspresseinheit_C"
    },
    "id": "LBKPIECE_move_to_auspresseinheit_C_92",
    "joint_names": [
        "shoulder_pan_joint",
        "shoulder_lift_joint",
        "elbow_joint",
        "wrist_1_joint",
        "wrist_2_joint",
        "wrist_3_joint"
    ],
    "metrics": {
        "cart_traj_len": 0.4925119683211433,
        "distance_elbow_joint": 0.9907920596188134,
        "distance_shoulder_lift_joint": 0.3212183758445454,
        "distance_shoulder_pan_joint": 0.2565788795943482,
        "distance_wrist_1_joint": 0.6583299142024921,
        "distance_wrist_2_joint": 1.312699870648236,
        "distance_wrist_3_joint": 0.04869899986759263,
        "smoothness": 6.45947944157498e-16,
        "time": 0.32493152599999997,
        "traj_len": 1.894285643659907,
        "weighted_distance": 2.3783914489339093
    },
    "planner": "LBKPIECE",
    "start": {
        "state": {
            "elbow_joint": 1.7527959577737207,
            "shoulder_lift_joint": -0.9740617694225068,
            "shoulder_pan_joint": -2.967991417825858,
            "wrist_1_joint": -0.759517768980727,
            "wrist_2_joint": 1.7443932448377408,
            "wrist_3_joint": -3.0840537646736568
        }
    },
    "waypoints": [
        {
            "positions": [
                -2.967991417825858,
                -0.9740617694225068,
                1.7527959577737207,
                -0.759517768980727,
                1.7443932448377408,
                -3.0840537646736568
            ]
        },
        {
            "positions": [
                -2.9423335298664233,
                -0.9419399318380522,
                1.6537167518118392,
                -0.6936847775604777,
                1.6131232577729173,
                -3.088923664660416
            ]
        },
        {
            "positions": [
                -2.916675641906988,
                -0.9098180942535977,
                1.554637545849958,
                -0.6278517861402285,
                1.4818532707080936,
                -3.0937935646471755
            ]
        },
        {
            "positions": [
                -2.8910177539475534,
                -0.8776962566691432,
                1.4555583398880767,
                -0.5620187947199794,
                1.35058328364327,
                -3.0986634646339346
            ]
        },
        {
            "positions": [
                -2.8653598659881188,
                -0.8455744190846886,
                1.3564791339261952,
                -0.4961858032997301,
                1.2193132965784463,
                -3.1035333646206937
            ]
        },
        {
            "positions": [
                -2.8397019780286836,
                -0.813452581500234,
                1.257399927964314,
                -0.43035281187948093,
                1.0880433095136228,
                -3.1084032646074533
            ]
        },
        {
            "positions": [
                -2.814044090069249,
                -0.7813307439157795,
                1.1583207220024327,
                -0.36451982045923176,
                0.9567733224487992,
                -3.1132731645942124
            ]
        },
        {
            "positions": [
                -2.7883862021098142,
                -0.749208906331325,
                1.0592415160405513,
                -0.2986868290389825,
                0.8255033353839757,
                -3.1181430645809716
            ]
        },
        {
            "positions": [
                -2.7627283141503796,
                -0.7170870687468704,
                0.9601623100786698,
                -0.23285383761873324,
                0.6942333483191521,
                -3.1230129645677307
            ]
        },
        {
            "positions": [
                -2.7370704261909444,
                -0.6849652311624159,
                0.8610831041167886,
                -0.16702084619848412,
                0.5629633612543283,
                -3.1278828645544903
            ]
        },
        {
            "positions": [
                -2.7114125382315097,
                -0.6528433935779614,
                0.7620038981549072,
                -0.10118785477823489,
                0.4316933741895048,
                -3.1327527645412494
            ]
        }
    ]
}