{
    "goal": {
        "global_pose": {
            "orientation": {
                "w": 0.7047431493862688,
                "x": -0.7094548369677653,
                "y": 0.0024358444001904,
                "z": -0.0022348060817251984
            },
            "position": {
                "x": -0.39052492380142206,
                "y": 0.3671506643295288,
                "z": 0.19426114857196808
            }
        },
        "name": "move_to_magneteinheit_D"
    },
    "id": "LBKPIECE_move_to_magneteinheit_D_147",
    "joint_names": [
        "shoulder_pan_joint",
        "shoulder_lift_joint",
        "elbow_joint",
        "wrist_1_joint",
        "wrist_2_joint",
        "wrist_3_joint"
    ],
    "metrics": {
        "cart_traj_len": 4.288379183362133,
        "distance_elbow_joint": 3.2717064799054865,
        "distance_shoulder_lift_joint": 1.6263281782730876,
        "distance_shoulder_pan_joint": 3.525764391758766,
        "distance_wrist_1_joint": 2.9316508216701376,
        "distance_wrist_2_joint": 2.616455575292573,
        "distance_wrist_3_joint": 6.509650394934098,
        "smoothness": 0.6434125820493224,
        "time": 0.624908545,
        "traj_len": 4.525655294190461,
        "weighted_distance": 6.248916948453151
    },
    "planner": "LBKPIECE",
    "start": {
        "state": {
            "elbow_joint": 0.749534889911806,
            "shoulder_lift_joint": -0.6476975780787326,
            "shoulder_pan_joint": -2.711696901376241,
            "wrist_1_joint": -0.07506478083263063,
            "wrist_2_joint": 0.43296659715538205,
            "wrist_3_joint": -3.14703540197715
        }
    },
    "waypoints": [
        {
            "positions": [
                -2.711696901376241,
                -0.6476975780787326,
                0.749534889911806,
                -0.07506478083263063,
                0.43296659715538205,
                -3.14703540197715
            ]
        },
        {
            "positions": [
                -2.7021748857578007,
                -0.678387243226958,
                0.690548830972604,
                -0.05724955071200202,
                0.4684193195042804,
                -3.080786937039892
            ]
        },
        {
            "positions": [
                -2.6926528701393604,
                -0.7090769083751834,
                0.631562772033402,
                -0.03943432059137341,
                0.5038720418531787,
                -3.0145384721026343
            ]
        },
        {
            "positions": [
                -2.6783698467117,
                -0.7551114060975216,
                0.5430836836245991,
                -0.012711475410430497,
                0.5570511253765261,
                -2.9151657746967476
            ]
        },
        {
            "positions": [
                -2.6237436805647087,
                -0.8413965997360568,
                0.4990906265313037,
                0.054345756196907985,
                0.5251403213992436,
                -2.8835075989526473
            ]
        },
        {
            "positions": [
                -2.569117514417717,
                -0.9276817933745921,
                0.4550975694380083,
                0.12140298780424646,
                0.4932295174219612,
                -2.8518494232085465
            ]
        },
        {
            "positions": [
                -2.468686363990844,
                -0.9631160177256692,
                0.3725026141651395,
                0.17337263440271822,
                0.4716279379208415,
                -2.7478052432409323
            ]
        },
        {
            "positions": [
                -2.368255213563971,
                -0.9985502420767465,
                0.28990765889227077,
                0.22534228100118997,
                0.45002635841972183,
                -2.643761063273318
            ]
        },
        {
            "positions": [
                -2.2678240631370983,
                -1.0339844664278237,
                0.20731270361940202,
                0.2773119275996617,
                0.42842477891860214,
                -2.539716883305704
            ]
        },
        {
            "positions": [
                -2.167392912710225,
                -1.069418690778901,
                0.12471774834653326,
                0.3292815741981335,
                0.40682319941748246,
                -2.43567270333809
            ]
        },
        {
            "positions": [
                -2.066961762283352,
                -1.104852915129978,
                0.04212279307366451,
                0.38125122079660523,
                0.3852216199163628,
                -2.3316285233704757
            ]
        },
        {
            "positions": [
                -1.966530611856479,
                -1.1402871394810552,
                -0.04047216219920424,
                0.433220867395077,
                0.3636200404152431,
                -2.2275843434028615
            ]
        },
        {
            "positions": [
                -1.8660994614296058,
                -1.1757213638321324,
                -0.123067117472073,
                0.48519051399354873,
                0.34201846091412347,
                -2.1235401634352473
            ]
        },
        {
            "positions": [
                -1.765668311002733,
                -1.2111555881832095,
                -0.20566207274494175,
                0.5371601605920204,
                0.3204168814130038,
                -2.019495983467633
            ]
        },
        {
            "positions": [
                -1.6652371605758598,
                -1.2465898125342867,
                -0.2882570280178105,
                0.5891298071904922,
                0.2988153019118841,
                -1.915451803500019
            ]
        },
        {
            "positions": [
                -1.5648060101489867,
                -1.282024036885364,
                -0.37085198329067925,
                0.641099453788964,
                0.27721372241076436,
                -1.8114076235324048
            ]
        },
        {
            "positions": [
                -1.4643748597221138,
                -1.3174582612364412,
                -0.453446938563548,
                0.6930691003874356,
                0.25561214290964474,
                -1.7073634435647906
            ]
        },
        {
            "positions": [
                -1.3639437092952407,
                -1.3528924855875184,
                -0.5360418938364168,
                0.7450387469859074,
                0.23401056340852505,
                -1.6033192635971765
            ]
        },
        {
            "positions": [
                -1.2635125588683678,
                -1.3883267099385956,
                -0.6186368491092854,
                0.7970083935843792,
                0.21240898390740537,
                -1.4992750836295623
            ]
        },
        {
            "positions": [
                -1.1630814084414944,
                -1.4237609342896729,
                -0.7012318043821543,
                0.8489780401828511,
                0.19080740440628569,
                -1.3952309036619481
            ]
        },
        {
            "positions": [
                -1.0626502580146215,
                -1.45919515864075,
                -0.7838267596550231,
                0.9009476867813226,
                0.169205824905166,
                -1.291186723694334
            ]
        },
        {
            "positions": [
                -0.9622191075877486,
                -1.494629382991827,
                -0.8664217149278918,
                0.9529173333797945,
                0.14760424540404637,
                -1.1871425437267198
            ]
        },
        {
            "positions": [
                -0.8617879571608753,
                -1.5300636073429041,
                -0.9490166702007606,
                1.0048869799782663,
                0.12600266590292664,
                -1.0830983637591056
            ]
        },
        {
            "positions": [
                -0.7613568067340024,
                -1.5654978316939814,
                -1.0316116254736292,
                1.056856626576738,
                0.10440108640180701,
                -0.9790541837914915
            ]
        },
        {
            "positions": [
                -0.6609256563071295,
                -1.6009320560450586,
                -1.1142065807464978,
                1.1088262731752097,
                0.08279950690068733,
                -0.8750100038238773
            ]
        },
        {
            "positions": [
                -0.5604945058802562,
                -1.6363662803961359,
                -1.196801536019367,
                1.1607959197736815,
                0.06119792739956759,
                -0.7709658238562631
            ]
        },
        {
            "positions": [
                -0.4600633554533835,
                -1.671800504747213,
                -1.2793964912922355,
                1.2127655663721533,
                0.03959634789844796,
                -0.6669216438886489
            ]
        },
        {
            "positions": [
                -0.3596322050265104,
                -1.7072347290982903,
                -1.3619914465651042,
                1.2647352129706249,
                0.017994768397328276,
                -0.5628774639210348
            ]
        },
        {
            "positions": [
                -0.25920105459963727,
                -1.7426689534493676,
                -1.4445864018379733,
                1.3167048595690967,
                -0.0036068111037914075,
                -0.4588332839534206
            ]
        },
        {
            "positions": [
                -0.15876990417276426,
                -1.7781031778004446,
                -1.527181357110842,
                1.3686745061675685,
                -0.025208390604911063,
                -0.35478910398580654
            ]
        },
        {
            "positions": [
                -0.12727080811754227,
                -1.8052655162565934,
                -1.5870236815625711,
                1.4208277946021621,
                0.04544241968616006,
                -0.216129020963392
            ]
        },
        {
            "positions": [
                -0.09577171206232024,
                -1.8324278547127422,
                -1.6468660060143,
                1.4729810830367558,
                0.11609322997723118,
                -0.07746893794097748
            ]
        },
        {
            "positions": [
                -0.06427261600709823,
                -1.859590193168891,
                -1.7067083304660293,
                1.5251343714713494,
                0.18674404026830232,
                0.06119114508143708
            ]
        },
        {
            "positions": [
                -0.03277351995187622,
                -1.8867525316250398,
                -1.7665506549177585,
                1.577287659905943,
                0.2573948505593734,
                0.19985122810385159
            ]
        },
        {
            "positions": [
                -0.0012744238966542198,
                -1.9139148700811885,
                -1.8263929793694875,
                1.6294409483405365,
                0.3280456608504445,
                0.3385113111262661
            ]
        },
        {
            "positions": [
                0.030224672158567806,
                -1.9410772085373373,
                -1.8862353038212167,
                1.6815942367751304,
                0.39869647114151574,
                0.4771713941486807
            ]
        },
        {
            "positions": [
                0.061723768213789804,
                -1.9682395469934861,
                -1.946077628272946,
                1.7337475252097239,
                0.46934728143258686,
                0.6158314771710952
            ]
        },
        {
            "positions": [
                0.09322286426901183,
                -1.995401885449635,
                -2.005919952724675,
                1.7859008136443175,
                0.5399980917236579,
                0.7544915601935097
            ]
        },
        {
            "positions": [
                0.12472196032423383,
                -2.0225642239057837,
                -2.0657622771764044,
                1.8380541020789112,
                0.610648902014729,
                0.8931516432159242
            ]
        },
        {
            "positions": [
                0.15622105637945582,
                -2.0497265623619327,
                -2.125604601628133,
                1.8902073905135048,
                0.6812997123058001,
                1.0318117262383386
            ]
        },
        {
            "positions": [
                0.18772015243467782,
                -2.0768889008180813,
                -2.1854469260798624,
                1.9423606789480985,
                0.7519505225968712,
                1.1704718092607531
            ]
        },
        {
            "positions": [
                0.21921924848989988,
                -2.10405123927423,
                -2.2452892505315916,
                1.9945139673826922,
                0.8226013328879425,
                1.309131892283168
            ]
        },
        {
            "positions": [
                0.2507183445451219,
                -2.131213577730379,
                -2.3051315749833208,
                2.046667255817286,
                0.8932521431790136,
                1.4477919753055826
            ]
        },
        {
            "positions": [
                0.28221744060034387,
                -2.158375916186528,
                -2.36497389943505,
                2.0988205442518795,
                0.9639029534700847,
                1.586452058327997
            ]
        },
        {
            "positions": [
                0.31371653665556587,
                -2.1855382546426765,
                -2.424816223886779,
                2.150973832686473,
                1.034553763761156,
                1.7251121413504116
            ]
        },
        {
            "positions": [
                0.2684836949650948,
                -2.192400406844649,
                -2.418570607147086,
                2.082061186548205,
                0.9496782843119234,
                1.5620884285819034
            ]
        },
        {
            "positions": [
                0.22325085327462368,
                -2.1992625590466224,
                -2.412324990407393,
                2.013148540409937,
                0.8648028048626908,
                1.399064715813395
            ]
        },
        {
            "positions": [
                0.17801801158415262,
                -2.206124711248595,
                -2.4060793736676995,
                1.9442358942716689,
                0.7799273254134582,
                1.236041003044887
            ]
        },
        {
            "positions": [
                0.13278516989368153,
                -2.212986863450568,
                -2.3998337569280066,
                1.8753232481334008,
                0.6950518459642256,
                1.0730172902763786
            ]
        },
        {
            "positions": [
                0.08755232820321046,
                -2.2198490156525406,
                -2.3935881401883132,
                1.8064106019951327,
                0.6101763665149931,
                0.9099935775078706
            ]
        },
        {
            "positions": [
                0.04231948651273937,
                -2.2267111678545137,
                -2.38734252344862,
                1.7374979558568646,
                0.5253008870657606,
                0.7469698647393624
            ]
        },
        {
            "positions": [
                -0.002913355177731669,
                -2.2335733200564865,
                -2.381096906708927,
                1.6685853097185965,
                0.44042540761652804,
                0.5839461519708542
            ]
        },
        {
            "positions": [
                -0.04814619686820282,
                -2.240435472258459,
                -2.3748512899692336,
                1.5996726635803284,
                0.35554992816729536,
                0.42092243920234584
            ]
        },
        {
            "positions": [
                -0.09337903855867385,
                -2.2472976244604324,
                -2.3686056732295406,
                1.5307600174420604,
                0.2706744487180629,
                0.2578987264338377
            ]
        },
        {
            "positions": [
                -0.13861188024914495,
                -2.254159776662405,
                -2.3623600564898473,
                1.4618473713037923,
                0.1857989692688303,
                0.09487501366532966
            ]
        },
        {
            "positions": [
                -0.18663441707139106,
                -2.2740257563518202,
                -2.397259255199817,
                1.4453616245354408,
                0.18739355150042877,
                0.08760928974387483
            ]
        }
    ]
}