{
    "goal": {
        "global_pose": {
            "orientation": {
                "w": 0.005598929693374612,
                "x": 0.007748599140229565,
                "y": 0.7110244013736278,
                "z": -0.7031023480610252
            },
            "position": {
                "x": 0.1141497679147869,
                "y": -0.7141253447532654,
                "z": 0.3711530566215515
            }
        },
        "name": "move_to_auspresseinheit_B"
    },
    "id": "LBKPIECE_move_to_auspresseinheit_B_84",
    "joint_names": [
        "shoulder_pan_joint",
        "shoulder_lift_joint",
        "elbow_joint",
        "wrist_1_joint",
        "wrist_2_joint",
        "wrist_3_joint"
    ],
    "metrics": {
        "cart_traj_len": 0.5650082788579368,
        "distance_elbow_joint": 0.061331630435720985,
        "distance_shoulder_lift_joint": 0.2945924007256644,
        "distance_shoulder_pan_joint": 0.5767787570266258,
        "distance_wrist_1_joint": 0.3163562831120018,
        "distance_wrist_2_joint": 0.9937067773335451,
        "distance_wrist_3_joint": 0.010076493849258128,
        "smoothness": 0.0,
        "time": 0.658261018,
        "traj_len": 1.5009471484642012,
        "weighted_distance": 1.8928968251404723
    },
    "planner": "LBKPIECE",
    "start": {
        "state": {
            "elbow_joint": 2.0193083361928714,
            "shoulder_lift_joint": -1.1220246554650708,
            "shoulder_pan_joint": -1.0952077554168747,
            "wrist_1_joint": -0.8559753972642168,
            "wrist_2_joint": 0.4759566250798843,
            "wrist_3_joint": -3.1240929996934557
        }
    },
    "waypoints": [
        {
            "positions": [
                -1.0952077554168747,
                -1.1220246554650708,
                2.0193083361928714,
                -0.8559753972642168,
                0.4759566250798843,
                -3.1240929996934557
            ]
        },
        {
            "positions": [
                -1.1913375482546456,
                -1.1711233889193482,
                2.009086397786918,
                -0.8032493500788831,
                0.6415744213021418,
                -3.1224135840519125
            ]
        },
        {
            "positions": [
                -1.2874673410924167,
                -1.2202221223736256,
                1.9988644593809644,
                -0.7505233028935495,
                0.8071922175243993,
                -3.1207341684103698
            ]
        },
        {
            "positions": [
                -1.3835971339301876,
                -1.269320855827903,
                1.988642520975011,
                -0.6977972557082159,
                0.9728100137466569,
                -3.1190547527688266
            ]
        },
        {
            "positions": [
                -1.4797269267679585,
                -1.3184195892821804,
                1.9784205825690575,
                -0.6450712085228822,
                1.1384278099689142,
                -3.1173753371272834
            ]
        },
        {
            "positions": [
                -1.5758567196057296,
                -1.3675183227364578,
                1.9681986441631039,
                -0.5923451613375486,
                1.3040456061911718,
                -3.1156959214857407
            ]
        },
        {
            "positions": [
                -1.6719865124435005,
                -1.4166170561907352,
                1.9579767057571504,
                -0.539619114152215,
                1.4696634024134294,
                -3.1140165058441975
            ]
        }
    ]
}