{
    "goal": {
        "global_pose": {
            "orientation": {
                "w": -0.00223480608172531,
                "x": 0.0024358444001904467,
                "y": 0.7094548369677653,
                "z": -0.704743149386269
            },
            "position": {
                "x": 0.6205249238014221,
                "y": -0.6371506643295288,
                "z": 0.19426114857196808
            }
        },
        "name": "move_to_magneteinheit_B"
    },
    "id": "LBKPIECE_move_to_magneteinheit_B_27",
    "joint_names": [
        "shoulder_pan_joint",
        "shoulder_lift_joint",
        "elbow_joint",
        "wrist_1_joint",
        "wrist_2_joint",
        "wrist_3_joint"
    ],
    "metrics": {
        "cart_traj_len": 8.987354177632009,
        "distance_elbow_joint": 6.3963082945938545,
        "distance_shoulder_lift_joint": 3.2174135572606826,
        "distance_shoulder_pan_joint": 7.769370539520397,
        "distance_wrist_1_joint": 3.9677780733229233,
        "distance_wrist_2_joint": 7.188597243941117,
        "distance_wrist_3_joint": 3.570959141367541,
        "smoothness": 0.7154902878033148,
        "time": 0.982514452,
        "traj_len": 5.66660629036521,
        "weighted_distance": 7.099909890273657
    },
    "planner": "LBKPIECE",
    "start": {
        "state": {
            "elbow_joint": 2.6216224122426386,
            "shoulder_lift_joint": -1.4174107377796124,
            "shoulder_pan_joint": 0.7066234856936794,
            "wrist_1_joint": 1.9546482284002225,
            "wrist_2_joint": -0.7096286983471962,
            "wrist_3_joint": 0.005740856962016249
        }
    },
    "waypoints": [
        {
            "positions": [
                0.7066234856936794,
                -1.4174107377796124,
                2.6216224122426386,
                1.9546482284002225,
                -0.7096286983471962,
                0.005740856962016249
            ]
        },
        {
            "positions": [
                0.6396087273469953,
                -1.4124802003217705,
                2.619017421791909,
                1.8637538666749298,
                -0.675131487869847,
                -0.09668887783587987
            ]
        },
        {
            "positions": [
                0.572593969000311,
                -1.4075496628639286,
                2.616412431341179,
                1.7728595049496372,
                -0.6406342773924978,
                -0.19911861263377598
            ]
        },
        {
            "positions": [
                0.4456663100588452,
                -1.36073809379327,
                2.537364258452883,
                1.7602659792341222,
                -0.7273070748168186,
                -0.21158201930654308
            ]
        },
        {
            "positions": [
                0.3187386511173794,
                -1.3139265247226115,
                2.4583160855645865,
                1.7476724535186074,
                -0.8139798722411393,
                -0.22404542597931018
            ]
        },
        {
            "positions": [
                0.19181099217591357,
                -1.267114955651953,
                2.37926791267629,
                1.7350789278030927,
                -0.9006526696654602,
                -0.23650883265207728
            ]
        },
        {
            "positions": [
                0.06488333323444784,
                -1.2203033865812944,
                2.3002197397879938,
                1.7224854020875777,
                -0.987325467089781,
                -0.24897223932484436
            ]
        },
        {
            "positions": [
                -0.06204432570701812,
                -1.1734918175106361,
                2.2211715668996974,
                1.7098918763720627,
                -1.0739982645141017,
                -0.2614356459976115
            ]
        },
        {
            "positions": [
                -0.18897198464848386,
                -1.1266802484399776,
                2.142123394011401,
                1.697298350656548,
                -1.1606710619384226,
                -0.27389905267037856
            ]
        },
        {
            "positions": [
                -0.3158996435899497,
                -1.079868679369319,
                2.0630752211231047,
                1.6847048249410332,
                -1.2473438593627435,
                -0.2863624593431457
            ]
        },
        {
            "positions": [
                -0.44282730253141533,
                -1.0330571102986605,
                1.9840270482348084,
                1.6721112992255183,
                -1.3340166567870642,
                -0.29882586601591277
            ]
        },
        {
            "positions": [
                -0.5697549614728814,
                -0.986245541228002,
                1.904978875346512,
                1.6595177735100033,
                -1.420689454211385,
                -0.3112892726886799
            ]
        },
        {
            "positions": [
                -0.6966826204143473,
                -0.9394339721573435,
                1.8259307024582156,
                1.6469242477944885,
                -1.507362251635706,
                -0.32375267936144697
            ]
        },
        {
            "positions": [
                -0.8236102793558129,
                -0.8926224030866851,
                1.7468825295699193,
                1.6343307220789738,
                -1.5940350490600266,
                -0.33621608603421405
            ]
        },
        {
            "positions": [
                -0.9505379382972788,
                -0.8458108340160265,
                1.667834356681623,
                1.6217371963634588,
                -1.6807078464843475,
                -0.3486794927069812
            ]
        },
        {
            "positions": [
                -0.860137928980365,
                -0.8820235854582279,
                1.5877749123678533,
                1.5759931005848893,
                -1.5992954289324497,
                -0.29629262667711775
            ]
        },
        {
            "positions": [
                -0.7697379196634513,
                -0.9182363369004293,
                1.5077154680540836,
                1.5302490048063198,
                -1.5178830113805517,
                -0.2439057606472543
            ]
        },
        {
            "positions": [
                -0.6793379103465373,
                -0.9544490883426306,
                1.4276560237403138,
                1.4845049090277502,
                -1.436470593828654,
                -0.19151889461739086
            ]
        },
        {
            "positions": [
                -0.5889379010296236,
                -0.990661839784832,
                1.347596579426544,
                1.4387608132491807,
                -1.355058176276756,
                -0.13913202858752743
            ]
        },
        {
            "positions": [
                -0.49853789171270985,
                -1.0268745912270334,
                1.2675371351127744,
                1.3930167174706112,
                -1.2736457587248582,
                -0.08674516255766401
            ]
        },
        {
            "positions": [
                -0.40813788239579596,
                -1.0630873426692349,
                1.1874776907990046,
                1.3472726216920416,
                -1.1922333411729604,
                -0.034358296527800536
            ]
        },
        {
            "positions": [
                -0.31773787307888224,
                -1.0993000941114361,
                1.107418246485235,
                1.3015285259134721,
                -1.1108209236210624,
                0.01802856950206283
            ]
        },
        {
            "positions": [
                -0.2273378637619684,
                -1.1355128455536376,
                1.0273588021714652,
                1.2557844301349026,
                -1.0294085060691645,
                0.07041543553192631
            ]
        },
        {
            "positions": [
                -0.13693785444505469,
                -1.171725596995839,
                0.9472993578576956,
                1.210040334356333,
                -0.9479960885172668,
                0.12280230156178973
            ]
        },
        {
            "positions": [
                -0.04653784512814085,
                -1.2079383484380404,
                0.8672399135439258,
                1.1642962385777635,
                -0.8665836709653689,
                0.17518916759165315
            ]
        },
        {
            "positions": [
                0.04386216418877298,
                -1.2441510998802419,
                0.787180469230156,
                1.118552142799194,
                -0.785171253413471,
                0.22757603362151668
            ]
        },
        {
            "positions": [
                0.13426217350568692,
                -1.2803638513224431,
                0.7071210249163864,
                1.0728080470206245,
                -0.7037588358615732,
                0.2799628996513801
            ]
        },
        {
            "positions": [
                0.22466218282260042,
                -1.3165766027646444,
                0.6270615806026167,
                1.0270639512420552,
                -0.6223464183096754,
                0.3323497656812434
            ]
        },
        {
            "positions": [
                0.31506219213951436,
                -1.3527893542068459,
                0.5470021362888471,
                0.9813198554634857,
                -0.5409340007577774,
                0.38473663171110684
            ]
        },
        {
            "positions": [
                0.4054622014564281,
                -1.3890021056490474,
                0.46694269197507743,
                0.9355757596849161,
                -0.45952158320587966,
                0.43712349774097037
            ]
        },
        {
            "positions": [
                0.495862210773342,
                -1.4252148570912486,
                0.38688324766130755,
                0.8898316639063466,
                -0.37810916565398167,
                0.4895103637708338
            ]
        },
        {
            "positions": [
                0.5862622200902557,
                -1.4614276085334499,
                0.3068238033475379,
                0.8440875681277771,
                -0.2966967481020839,
                0.5418972298006972
            ]
        },
        {
            "positions": [
                0.6766622294071695,
                -1.4976403599756514,
                0.22676435903376824,
                0.7983434723492076,
                -0.21528433055018614,
                0.5942840958305606
            ]
        },
        {
            "positions": [
                0.7670622387240834,
                -1.5338531114178529,
                0.14670491471999836,
                0.752599376570638,
                -0.13387191299828816,
                0.646670961860424
            ]
        },
        {
            "positions": [
                0.8574622480409971,
                -1.5700658628600541,
                0.0666454704062287,
                0.7068552807920685,
                -0.05245949544639039,
                0.6990578278902875
            ]
        },
        {
            "positions": [
                0.9478622573579111,
                -1.6062786143022556,
                -0.013413973907540955,
                0.661111185013499,
                0.028952922105507595,
                0.7514446939201509
            ]
        },
        {
            "positions": [
                1.038262266674825,
                -1.642491365744457,
                -0.09347341822131083,
                0.6153670892349294,
                0.11036533965740536,
                0.8038315599500145
            ]
        },
        {
            "positions": [
                1.1286622759917386,
                -1.6787041171866584,
                -0.1735328625350805,
                0.5696229934563599,
                0.19177775720930335,
                0.856218425979878
            ]
        },
        {
            "positions": [
                1.2190622853086528,
                -1.7149168686288596,
                -0.25359230684885015,
                0.5238788976777904,
                0.2731901747612011,
                0.9086052920097414
            ]
        },
        {
            "positions": [
                1.3094622946255665,
                -1.751129620071061,
                -0.3336517511626198,
                0.47813480189922086,
                0.3546025923130989,
                0.9609921580396048
            ]
        },
        {
            "positions": [
                1.3998623039424798,
                -1.7873423715132624,
                -0.41371119547638946,
                0.43239070612065156,
                0.43601500986499664,
                1.013379024069468
            ]
        },
        {
            "positions": [
                1.4902623132593935,
                -1.8235551229554638,
                -0.4937706397901591,
                0.38664661034208203,
                0.5174274274168944,
                1.0657658900993314
            ]
        },
        {
            "positions": [
                1.5806623225763077,
                -1.859767874397665,
                -0.5738300841039288,
                0.3409025145635125,
                0.5988398449687926,
                1.1181527561291948
            ]
        },
        {
            "positions": [
                1.6710623318932214,
                -1.8959806258398664,
                -0.6538895284176984,
                0.295158418784943,
                0.6802522625206904,
                1.1705396221590583
            ]
        },
        {
            "positions": [
                1.7614623412101351,
                -1.932193377282068,
                -0.7339489727314681,
                0.24941432300637345,
                0.7616646800725881,
                1.222926488188922
            ]
        },
        {
            "positions": [
                1.8518623505270488,
                -1.9684061287242693,
                -0.8140084170452382,
                0.20367022722780392,
                0.8430770976244859,
                1.2753133542187853
            ]
        },
        {
            "positions": [
                1.942262359843963,
                -2.0046188801664706,
                -0.8940678613590078,
                0.1579261314492344,
                0.9244895151763841,
                1.3277002202486488
            ]
        },
        {
            "positions": [
                2.0326623691608767,
                -2.040831631608672,
                -0.9741273056727775,
                0.11218203567066487,
                1.0059019327282819,
                1.3800870862785122
            ]
        },
        {
            "positions": [
                2.1230623784777904,
                -2.0770443830508736,
                -1.0541867499865472,
                0.06643793989209534,
                1.0873143502801796,
                1.4324739523083756
            ]
        },
        {
            "positions": [
                2.0386565785123913,
                -2.0377504912602555,
                -0.9786173296430839,
                0.12420371169250646,
                0.9953280431376784,
                1.3926021371227315
            ]
        },
        {
            "positions": [
                1.9542507785469918,
                -1.9984565994696375,
                -0.9030479092996206,
                0.18196948349291758,
                0.9033417359951772,
                1.3527303219370874
            ]
        },
        {
            "positions": [
                1.8698449785815927,
                -1.9591627076790195,
                -0.8274784889561574,
                0.23973525529332873,
                0.8113554288526761,
                1.312858506751443
            ]
        },
        {
            "positions": [
                1.7854391786161934,
                -1.9198688158884014,
                -0.7519090686126941,
                0.2975010270937398,
                0.7193691217101748,
                1.272986691565799
            ]
        },
        {
            "positions": [
                1.701033378650794,
                -1.8805749240977834,
                -0.6763396482692308,
                0.355266798894151,
                0.6273828145676736,
                1.233114876380155
            ]
        },
        {
            "positions": [
                1.616627578685395,
                -1.8412810323071653,
                -0.6007702279257676,
                0.4130325706945621,
                0.5353965074251724,
                1.1932430611945108
            ]
        },
        {
            "positions": [
                1.5322217787199954,
                -1.8019871405165473,
                -0.5252008075823043,
                0.47079834249497327,
                0.4434102002826712,
                1.1533712460088665
            ]
        },
        {
            "positions": [
                1.4478159787545963,
                -1.7626932487259293,
                -0.449631387238841,
                0.5285641142953843,
                0.35142389314017,
                1.1134994308232224
            ]
        },
        {
            "positions": [
                1.363410178789197,
                -1.7233993569353112,
                -0.37406196689537774,
                0.5863298860957955,
                0.25943758599766875,
                1.0736276156375784
            ]
        },
        {
            "positions": [
                1.2790043788237977,
                -1.684105465144693,
                -0.2984925465519145,
                0.6440956578962067,
                0.16745127885516753,
                1.0337558004519343
            ]
        },
        {
            "positions": [
                1.1945985788583984,
                -1.644811573354075,
                -0.22292312620845112,
                0.7018614296966178,
                0.0754649717126663,
                0.9938839852662901
            ]
        },
        {
            "positions": [
                1.1101927788929993,
                -1.605517681563457,
                -0.14735370586498797,
                0.7596272014970289,
                -0.016521335429834805,
                0.954012170080646
            ]
        },
        {
            "positions": [
                1.0257869789276,
                -1.566223789772839,
                -0.07178428552152472,
                0.81739297329744,
                -0.10850764257233614,
                0.9141403548950018
            ]
        },
        {
            "positions": [
                0.9413811789622006,
                -1.5269298979822208,
                0.0037851348219386516,
                0.8751587450978512,
                -0.20049394971483725,
                0.8742685397093577
            ]
        },
        {
            "positions": [
                0.8569753789968013,
                -1.4876360061916027,
                0.07935455516540202,
                0.9329245168982623,
                -0.2924802568573386,
                0.8343967245237135
            ]
        },
        {
            "positions": [
                0.7725695790314022,
                -1.448342114400985,
                0.15492397550886516,
                0.9906902886986734,
                -0.3844665639998397,
                0.7945249093380694
            ]
        },
        {
            "positions": [
                0.6881637790660029,
                -1.4090482226103667,
                0.2304933958523283,
                1.0484560604990845,
                -0.4764528711423408,
                0.7546530941524253
            ]
        },
        {
            "positions": [
                0.6037579791006036,
                -1.3697543308197486,
                0.3060628161957917,
                1.1062218322994957,
                -0.5684391782848421,
                0.7147812789667811
            ]
        },
        {
            "positions": [
                0.5193521791352043,
                -1.3304604390291306,
                0.38163223653925504,
                1.1639876040999069,
                -0.6604254854273435,
                0.6749094637811369
            ]
        },
        {
            "positions": [
                0.43494637916980494,
                -1.2911665472385123,
                0.4572016568827182,
                1.221753375900318,
                -0.7524117925698446,
                0.6350376485954928
            ]
        },
        {
            "positions": [
                0.3505405792044056,
                -1.2518726554478943,
                0.5327710772261816,
                1.279519147700729,
                -0.8443980997123459,
                0.5951658334098486
            ]
        },
        {
            "positions": [
                0.2661347792390063,
                -1.2125787636572762,
                0.6083404975696449,
                1.3372849195011403,
                -0.936384406854847,
                0.5552940182242045
            ]
        },
        {
            "positions": [
                0.18172897927360743,
                -1.1732848718666584,
                0.6839099179131078,
                1.3950506913015512,
                -1.0283707139973481,
                0.5154222030385605
            ]
        },
        {
            "positions": [
                0.09732317930820811,
                -1.1339909800760404,
                0.7594793382565712,
                1.4528164631019624,
                -1.1203570211398493,
                0.47555038785291637
            ]
        },
        {
            "positions": [
                0.012917379342808566,
                -1.0946970882854223,
                0.8350487586000346,
                1.5105822349023734,
                -1.2123433282823504,
                0.43567857266727217
            ]
        },
        {
            "positions": [
                -0.07148842062259053,
                -1.0554031964948043,
                0.9106181789434977,
                1.5683480067027846,
                -1.304329635424852,
                0.39580675748162797
            ]
        },
        {
            "positions": [
                -0.15589422058798963,
                -1.016109304704186,
                0.9861875992869611,
                1.6261137785031958,
                -1.396315942567353,
                0.3559349422959839
            ]
        },
        {
            "positions": [
                -0.24030002055338917,
                -0.976815412913568,
                1.0617570196304245,
                1.683879550303607,
                -1.4883022497098541,
                0.3160631271103398
            ]
        },
        {
            "positions": [
                -0.32470582051878827,
                -0.93752152112295,
                1.1373264399738878,
                1.7416453221040182,
                -1.5802885568523557,
                0.2761913119246955
            ]
        },
        {
            "positions": [
                -0.4091116204841878,
                -0.8982276293323319,
                1.2128958603173512,
                1.7994110939044292,
                -1.6722748639948568,
                0.2363194967390514
            ]
        },
        {
            "positions": [
                -0.4935174204495869,
                -0.8589337375417139,
                1.2884652806608141,
                1.8571768657048404,
                -1.764261171137358,
                0.1964476815534073
            ]
        },
        {
            "positions": [
                -0.577923220414986,
                -0.819639845751096,
                1.3640347010042775,
                1.9149426375052514,
                -1.856247478279859,
                0.15657586636776322
            ]
        },
        {
            "positions": [
                -0.6623290203803855,
                -0.7803459539604778,
                1.4396041213477404,
                1.9727084093056626,
                -1.9482337854223601,
                0.11670405118211913
            ]
        },
        {
            "positions": [
                -0.7467348203457846,
                -0.7410520621698597,
                1.5151735416912038,
                2.0304741811060736,
                -2.0402200925648613,
                0.07683223599647504
            ]
        },
        {
            "positions": [
                -0.8311406203111842,
                -0.7017581703792417,
                1.5907429620346671,
                2.088239952906485,
                -2.132206399707363,
                0.03696042081083073
            ]
        },
        {
            "positions": [
                -0.9155464202765831,
                -0.6624642785886236,
                1.6663123823781305,
                2.146005724706896,
                -2.224192706849864,
                -0.0029113943748134336
            ]
        }
    ]
}