{
    "goal": {
        "global_pose": {
            "orientation": {
                "w": 0.005598929693374612,
                "x": 0.007748599140229565,
                "y": 0.7110244013736278,
                "z": -0.7031023480610252
            },
            "position": {
                "x": 0.1141497679147869,
                "y": -0.7141253447532654,
                "z": 0.3711530566215515
            }
        },
        "name": "move_to_auspresseinheit_B"
    },
    "id": "LBKPIECE_move_to_auspresseinheit_B_120",
    "joint_names": [
        "shoulder_pan_joint",
        "shoulder_lift_joint",
        "elbow_joint",
        "wrist_1_joint",
        "wrist_2_joint",
        "wrist_3_joint"
    ],
    "metrics": {
        "cart_traj_len": 0.5655344758506352,
        "distance_elbow_joint": 0.06518301562444795,
        "distance_shoulder_lift_joint": 0.2934373794642895,
        "distance_shoulder_pan_joint": 0.5779261269035167,
        "distance_wrist_1_joint": 0.33267540306713483,
        "distance_wrist_2_joint": 0.9928998914248486,
        "distance_wrist_3_joint": 0.007470245109707729,
        "smoothness": 6.344131583732827e-16,
        "time": 0.357823118,
        "traj_len": 1.506516532134296,
        "weighted_distance": 1.9000283803947098
    },
    "planner": "LBKPIECE",
    "start": {
        "state": {
            "elbow_joint": 2.0193083361928714,
            "shoulder_lift_joint": -1.1220246554650708,
            "shoulder_pan_joint": -1.0952077554168747,
            "wrist_1_joint": -0.8559753972642168,
            "wrist_2_joint": 0.4759566250798843,
            "wrist_3_joint": -3.1240929996934557
        }
    },
    "waypoints": [
        {
            "positions": [
                -1.0952077554168747,
                -1.1220246554650708,
                2.0193083361928714,
                -0.8559753972642168,
                0.4759566250798843,
                -3.1240929996934557
            ]
        },
        {
            "positions": [
                -1.1915287765674607,
                -1.1709308853757858,
                2.0084445002554636,
                -0.8005294967530276,
                0.6414399403173591,
                -3.1228479588418376
            ]
        },
        {
            "positions": [
                -1.287849797718047,
                -1.2198371152865006,
                1.9975806643180554,
                -0.7450835962418385,
                0.8069232555548338,
                -3.1216029179902196
            ]
        },
        {
            "positions": [
                -1.384170818868633,
                -1.2687433451972154,
                1.9867168283806476,
                -0.6896376957306494,
                0.9724065707923086,
                -3.120357877138602
            ]
        },
        {
            "positions": [
                -1.480491840019219,
                -1.3176495751079305,
                1.9758529924432395,
                -0.6341917952194602,
                1.1378898860297832,
                -3.119112836286984
            ]
        },
        {
            "positions": [
                -1.5768128611698053,
                -1.3665558050186455,
                1.9649891565058315,
                -0.5787458947082711,
                1.303373201267258,
                -3.117867795435366
            ]
        },
        {
            "positions": [
                -1.6731338823203914,
                -1.4154620349293603,
                1.9541253205684235,
                -0.523299994197082,
                1.468856516504733,
                -3.116622754583748
            ]
        }
    ]
}