{
    "goal": {
        "global_pose": {
            "orientation": {
                "w": 0.005598929693374612,
                "x": 0.007748599140229565,
                "y": 0.7110244013736278,
                "z": -0.7031023480610252
            },
            "position": {
                "x": -0.8858502320852131,
                "y": -0.7141253447532654,
                "z": 0.3711530566215515
            }
        },
        "name": "move_to_auspresseinheit_C"
    },
    "id": "LBKPIECE_move_to_auspresseinheit_C_2",
    "joint_names": [
        "shoulder_pan_joint",
        "shoulder_lift_joint",
        "elbow_joint",
        "wrist_1_joint",
        "wrist_2_joint",
        "wrist_3_joint"
    ],
    "metrics": {
        "cart_traj_len": 0.4927245939630326,
        "distance_elbow_joint": 1.0013630555351742,
        "distance_shoulder_lift_joint": 0.3255754894898716,
        "distance_shoulder_pan_joint": 0.2560857496926765,
        "distance_wrist_1_joint": 0.6851197721654088,
        "distance_wrist_2_joint": 1.312791615885875,
        "distance_wrist_3_joint": 0.058664784433844375,
        "smoothness": 1.1304088990788627e-15,
        "time": 0.738247924,
        "traj_len": 1.9077736939172976,
        "weighted_distance": 2.3989250559619038
    },
    "planner": "LBKPIECE",
    "start": {
        "state": {
            "elbow_joint": 1.7527959577737207,
            "shoulder_lift_joint": -0.9740617694225068,
            "shoulder_pan_joint": -2.967991417825858,
            "wrist_1_joint": -0.759517768980727,
            "wrist_2_joint": 1.7443932448377408,
            "wrist_3_joint": -3.0840537646736568
        }
    },
    "waypoints": [
        {
            "positions": [
                -2.967991417825858,
                -0.9740617694225068,
                1.7527959577737207,
                -0.759517768980727,
                1.7443932448377408,
                -3.0840537646736568
            ]
        },
        {
            "positions": [
                -2.94238284285659,
                -0.9415042204735196,
                1.6526596522202033,
                -0.6910057917641861,
                1.6131140832491533,
                -3.0899202431170414
            ]
        },
        {
            "positions": [
                -2.9167742678873227,
                -0.9089466715245325,
                1.552523346666686,
                -0.6224938145476452,
                1.4818349216605657,
                -3.0957867215604256
            ]
        },
        {
            "positions": [
                -2.891165692918055,
                -0.8763891225755454,
                1.4523870411131683,
                -0.5539818373311044,
                1.3505557600719784,
                -3.10165320000381
            ]
        },
        {
            "positions": [
                -2.8655571179487875,
                -0.8438315736265581,
                1.352250735559651,
                -0.48546986011456345,
                1.2192765984833907,
                -3.1075196784471943
            ]
        },
        {
            "positions": [
                -2.8399485429795197,
                -0.8112740246775709,
                1.2521144300061335,
                -0.4169578828980226,
                1.0879974368948033,
                -3.113386156890579
            ]
        },
        {
            "positions": [
                -2.814339968010252,
                -0.7787164757285838,
                1.1519781244526162,
                -0.34844590568148176,
                0.9567182753062159,
                -3.1192526353339636
            ]
        },
        {
            "positions": [
                -2.7887313930409845,
                -0.7461589267795967,
                1.0518418188990988,
                -0.27993392846494086,
                0.8254391137176283,
                -3.1251191137773477
            ]
        },
        {
            "positions": [
                -2.7631228180717167,
                -0.7136013778306095,
                0.9517055133455812,
                -0.2114219512483999,
                0.6941599521290407,
                -3.1309855922207324
            ]
        },
        {
            "positions": [
                -2.7375142431024493,
                -0.6810438288816223,
                0.8515692077920638,
                -0.14290997403185912,
                0.5628807905404534,
                -3.1368520706641165
            ]
        },
        {
            "positions": [
                -2.7119056681331815,
                -0.6484862799326352,
                0.7514329022385463,
                -0.07439799681531817,
                0.43160162895186577,
                -3.142718549107501
            ]
        }
    ]
}