{
    "goal": {
        "global_pose": {
            "orientation": {
                "w": 0.005598929693374612,
                "x": 0.007748599140229565,
                "y": 0.7110244013736278,
                "z": -0.7031023480610252
            },
            "position": {
                "x": 0.1141497679147869,
                "y": -0.7141253447532654,
                "z": 0.3711530566215515
            }
        },
        "name": "move_to_auspresseinheit_B"
    },
    "id": "LBKPIECE_move_to_auspresseinheit_B_135",
    "joint_names": [
        "shoulder_pan_joint",
        "shoulder_lift_joint",
        "elbow_joint",
        "wrist_1_joint",
        "wrist_2_joint",
        "wrist_3_joint"
    ],
    "metrics": {
        "cart_traj_len": 0.5639447167729872,
        "distance_elbow_joint": 0.06516053683346246,
        "distance_shoulder_lift_joint": 0.2944263271131955,
        "distance_shoulder_pan_joint": 0.5755470594440628,
        "distance_wrist_1_joint": 0.338502836387677,
        "distance_wrist_2_joint": 0.9971516121566035,
        "distance_wrist_3_joint": 0.0012444811420264656,
        "smoothness": 0.0,
        "time": 0.264097606,
        "traj_len": 1.507326392350717,
        "weighted_distance": 1.900046384672059
    },
    "planner": "LBKPIECE",
    "start": {
        "state": {
            "elbow_joint": 2.0193083361928714,
            "shoulder_lift_joint": -1.1220246554650708,
            "shoulder_pan_joint": -1.0952077554168747,
            "wrist_1_joint": -0.8559753972642168,
            "wrist_2_joint": 0.4759566250798843,
            "wrist_3_joint": -3.1240929996934557
        }
    },
    "waypoints": [
        {
            "positions": [
                -1.0952077554168747,
                -1.1220246554650708,
                2.0193083361928714,
                -0.8559753972642168,
                0.4759566250798843,
                -3.1240929996934557
            ]
        },
        {
            "positions": [
                -1.1911322653242185,
                -1.1710957099839368,
                2.0084482467206275,
                -0.7995582578662707,
                0.6421485604393182,
                -3.1243004132171266
            ]
        },
        {
            "positions": [
                -1.2870567752315623,
                -1.2201667645028027,
                1.997588157248384,
                -0.7431411184683244,
                0.8083404957987521,
                -3.124507826740798
            ]
        },
        {
            "positions": [
                -1.382981285138906,
                -1.2692378190216687,
                1.98672806777614,
                -0.6867239790703783,
                0.974532431158186,
                -3.124715240264469
            ]
        },
        {
            "positions": [
                -1.4789057950462499,
                -1.3183088735405344,
                1.9758679783038964,
                -0.6303068396724322,
                1.1407243665176199,
                -3.12492265378814
            ]
        },
        {
            "positions": [
                -1.5748303049535937,
                -1.3673799280594003,
                1.9650078888316527,
                -0.5738897002744859,
                1.306916301877054,
                -3.125130067311811
            ]
        },
        {
            "positions": [
                -1.6707548148609375,
                -1.4164509825782663,
                1.954147799359409,
                -0.5174725608765398,
                1.4731082372364879,
                -3.125337480835482
            ]
        }
    ]
}