{
    "goal": {
        "global_pose": {
            "orientation": {
                "w": 0.005598929693374612,
                "x": 0.007748599140229565,
                "y": 0.7110244013736278,
                "z": -0.7031023480610252
            },
            "position": {
                "x": 0.1141497679147869,
                "y": -0.7141253447532654,
                "z": 0.3711530566215515
            }
        },
        "name": "move_to_auspresseinheit_B"
    },
    "id": "LBKPIECE_move_to_auspresseinheit_B_116",
    "joint_names": [
        "shoulder_pan_joint",
        "shoulder_lift_joint",
        "elbow_joint",
        "wrist_1_joint",
        "wrist_2_joint",
        "wrist_3_joint"
    ],
    "metrics": {
        "cart_traj_len": 0.5647153797544838,
        "distance_elbow_joint": 0.061957736733202484,
        "distance_shoulder_lift_joint": 0.29475649185816954,
        "distance_shoulder_pan_joint": 0.5782234299184552,
        "distance_wrist_1_joint": 0.3266781337232961,
        "distance_wrist_2_joint": 0.9896356104922548,
        "distance_wrist_3_joint": 0.00011462071147905206,
        "smoothness": 2.5376526478085547e-16,
        "time": 0.36177916600000004,
        "traj_len": 1.500455272054738,
        "weighted_distance": 1.8888909468456263
    },
    "planner": "LBKPIECE",
    "start": {
        "state": {
            "elbow_joint": 2.0193083361928714,
            "shoulder_lift_joint": -1.1220246554650708,
            "shoulder_pan_joint": -1.0952077554168747,
            "wrist_1_joint": -0.8559753972642168,
            "wrist_2_joint": 0.4759566250798843,
            "wrist_3_joint": -3.1240929996934557
        }
    },
    "waypoints": [
        {
            "positions": [
                -1.0952077554168747,
                -1.1220246554650708,
                2.0193083361928714,
                -0.8559753972642168,
                0.4759566250798843,
                -3.1240929996934557
            ]
        },
        {
            "positions": [
                -1.1915783270699505,
                -1.1711507374414323,
                2.0089820467373376,
                -0.8015290416436675,
                0.6408958934952601,
                -3.1240738962415424
            ]
        },
        {
            "positions": [
                -1.2879488987230263,
                -1.220276819417794,
                1.998655757281804,
                -0.7470826860231181,
                0.8058351619106359,
                -3.124054792789629
            ]
        },
        {
            "positions": [
                -1.3843194703761021,
                -1.2694029013941557,
                1.9883294678262702,
                -0.6926363304025687,
                0.9707744303260117,
                -3.124035689337716
            ]
        },
        {
            "positions": [
                -1.480690042029178,
                -1.3185289833705172,
                1.9780031783707364,
                -0.6381899747820194,
                1.1357136987413874,
                -3.124016585885803
            ]
        },
        {
            "positions": [
                -1.577060613682254,
                -1.3676550653468786,
                1.9676768889152028,
                -0.58374361916147,
                1.3006529671567633,
                -3.12399748243389
            ]
        },
        {
            "positions": [
                -1.6734311853353299,
                -1.4167811473232403,
                1.957350599459669,
                -0.5292972635409207,
                1.4655922355721391,
                -3.1239783789819766
            ]
        }
    ]
}