{
    "goal": {
        "global_pose": {
            "orientation": {
                "w": -0.4816463035849501,
                "x": 0.5182115481033762,
                "y": 0.4908360881923453,
                "z": -0.5084816262002911
            },
            "position": {
                "x": -0.8240239810943604,
                "y": 0.19912469901144506,
                "z": 0.16403168439865112
            }
        },
        "name": "move_to_storage_D"
    },
    "id": "LBKPIECE_move_to_storage_D_34",
    "joint_names": [
        "shoulder_pan_joint",
        "shoulder_lift_joint",
        "elbow_joint",
        "wrist_1_joint",
        "wrist_2_joint",
        "wrist_3_joint"
    ],
    "metrics": {
        "cart_traj_len": 3.7206664057839363,
        "distance_elbow_joint": 4.210292790078512,
        "distance_shoulder_lift_joint": 1.263826477352975,
        "distance_shoulder_pan_joint": 2.8151649678146216,
        "distance_wrist_1_joint": 2.3513196544374866,
        "distance_wrist_2_joint": 1.479223573400888,
        "distance_wrist_3_joint": 3.391444304306648,
        "smoothness": 0.2552942484286339,
        "time": 0.36492946000000004,
        "traj_len": 3.9384351927372294,
        "weighted_distance": 5.111233080563124
    },
    "planner": "LBKPIECE",
    "start": {
        "state": {
            "elbow_joint": -2.384821988534728,
            "shoulder_lift_joint": -2.2788054721415256,
            "shoulder_pan_joint": -0.1854694642142757,
            "wrist_1_joint": 1.4845938289331202,
            "wrist_2_joint": 0.17898776772866878,
            "wrist_3_joint": 0.037105688729662994
        }
    },
    "waypoints": [
        {
            "positions": [
                -0.1854694642142757,
                -2.2788054721415256,
                -2.384821988534728,
                1.4845938289331202,
                0.17898776772866878,
                0.037105688729662994
            ]
        },
        {
            "positions": [
                -0.1378670789658843,
                -2.2016528655879006,
                -2.34958965141032,
                1.4993058074430488,
                0.1093380067758442,
                -0.0035173177421153404
            ]
        },
        {
            "positions": [
                -0.0902646937174929,
                -2.1245002590342756,
                -2.314357314285912,
                1.5140177859529773,
                0.03968824582301961,
                -0.044140324213893675
            ]
        },
        {
            "positions": [
                -0.04266230846910149,
                -2.0473476524806506,
                -2.279124977161504,
                1.5287297644629059,
                -0.029961515129804994,
                -0.08476333068567202
            ]
        },
        {
            "positions": [
                0.02987477934683823,
                -2.0222841994190763,
                -2.1681073755754707,
                1.4603726808682782,
                0.007027112166366631,
                -0.013316139282121747
            ]
        },
        {
            "positions": [
                0.10241186716277795,
                -1.997220746357502,
                -2.0570897739894374,
                1.3920155972736503,
                0.044015739462538256,
                0.05813105212142852
            ]
        },
        {
            "positions": [
                0.17494895497871768,
                -1.9721572932959277,
                -1.9460721724034038,
                1.3236585136790224,
                0.08100436675870988,
                0.1295782435249788
            ]
        },
        {
            "positions": [
                0.24748604279465738,
                -1.9470938402343534,
                -1.8350545708173702,
                1.2553014300843948,
                0.1179929940548815,
                0.20102543492852906
            ]
        },
        {
            "positions": [
                0.32002313061059706,
                -1.922030387172779,
                -1.7240369692313369,
                1.186944346489767,
                0.15498162135105314,
                0.27247262633207936
            ]
        },
        {
            "positions": [
                0.3925602184265369,
                -1.8969669341112048,
                -1.6130193676453035,
                1.1185872628951392,
                0.19197024864722476,
                0.34391981773562963
            ]
        },
        {
            "positions": [
                0.4650973062424766,
                -1.8719034810496304,
                -1.50200176605927,
                1.0502301793005113,
                0.22895887594339637,
                0.4153670091391799
            ]
        },
        {
            "positions": [
                0.5376343940584163,
                -1.8468400279880561,
                -1.3909841644732364,
                0.9818730957058837,
                0.265947503239568,
                0.48681420054273017
            ]
        },
        {
            "positions": [
                0.610171481874356,
                -1.8217765749264818,
                -1.279966562887203,
                0.9135160121112559,
                0.30293613053573964,
                0.5582613919462804
            ]
        },
        {
            "positions": [
                0.6827085696902957,
                -1.7967131218649075,
                -1.1689489613011697,
                0.8451589285166281,
                0.3399247578319113,
                0.6297085833498307
            ]
        },
        {
            "positions": [
                0.7552456575062354,
                -1.771649668803333,
                -1.057931359715136,
                0.7768018449220003,
                0.37691338512808287,
                0.701155774753381
            ]
        },
        {
            "positions": [
                0.8277827453221752,
                -1.7465862157417587,
                -0.9469137581291027,
                0.7084447613273726,
                0.4139020124242545,
                0.7726029661569312
            ]
        },
        {
            "positions": [
                0.9003198331381149,
                -1.7215227626801843,
                -0.8358961565430691,
                0.6400876777327448,
                0.45089063972042615,
                0.8440501575604815
            ]
        },
        {
            "positions": [
                0.9728569209540546,
                -1.69645930961861,
                -0.7248785549570358,
                0.571730594138117,
                0.48787926701659773,
                0.9154973489640318
            ]
        },
        {
            "positions": [
                1.0453940087699942,
                -1.6713958565570357,
                -0.6138609533710022,
                0.5033735105434893,
                0.5248678943127694,
                0.986944540367582
            ]
        },
        {
            "positions": [
                1.117931096585934,
                -1.6463324034954614,
                -0.5028433517849689,
                0.43501642694886145,
                0.5618565216089411,
                1.0583917317711322
            ]
        },
        {
            "positions": [
                1.1904681844018736,
                -1.621268950433887,
                -0.3918257501989355,
                0.36665934335423356,
                0.5988451489051125,
                1.1298389231746826
            ]
        },
        {
            "positions": [
                1.2630052722178133,
                -1.5962054973723128,
                -0.28080814861290193,
                0.2983022597596059,
                0.6358337762012842,
                1.2012861145782328
            ]
        },
        {
            "positions": [
                1.335542360033753,
                -1.5711420443107385,
                -0.16979054702686858,
                0.22994517616497823,
                0.6728224034974559,
                1.272733305981783
            ]
        },
        {
            "positions": [
                1.4080794478496927,
                -1.5460785912491641,
                -0.05877294544083522,
                0.16158809257035034,
                0.7098110307936276,
                1.3441804973853333
            ]
        },
        {
            "positions": [
                1.4806165356656324,
                -1.5210151381875896,
                0.052244656145198576,
                0.09323100897572245,
                0.7467996580897991,
                1.4156276887888837
            ]
        },
        {
            "positions": [
                1.5531536234815722,
                -1.4959516851260153,
                0.16326225773123193,
                0.024873925381094786,
                0.7837882853859708,
                1.4870748801924338
            ]
        },
        {
            "positions": [
                1.6256907112975119,
                -1.470888232064441,
                0.2742798593172653,
                -0.04348315821353288,
                0.8207769126821425,
                1.558522071595984
            ]
        },
        {
            "positions": [
                1.6982277991134518,
                -1.4458247790028667,
                0.38529746090329864,
                -0.11184024180816077,
                0.857765539978314,
                1.6299692629995344
            ]
        },
        {
            "positions": [
                1.7707648869293915,
                -1.4207613259412923,
                0.496315062489332,
                -0.18019732540278866,
                0.8947541672744856,
                1.7014164544030848
            ]
        },
        {
            "positions": [
                1.8433019747453312,
                -1.395697872879718,
                0.6073326640753658,
                -0.24855440899741632,
                0.9317427945706573,
                1.772863645806635
            ]
        },
        {
            "positions": [
                1.915839062561271,
                -1.3706344198181437,
                0.7183502656613991,
                -0.316911492592044,
                0.9687314218668288,
                1.844310837210185
            ]
        },
        {
            "positions": [
                1.9883761503772106,
                -1.3455709667565694,
                0.8293678672474325,
                -0.3852685761866719,
                1.0057200491630005,
                1.9157580286137355
            ]
        },
        {
            "positions": [
                2.0609132381931503,
                -1.320507513694995,
                0.9403854688334659,
                -0.45362565978129976,
                1.0427086764591722,
                1.9872052200172858
            ]
        },
        {
            "positions": [
                2.1334503260090902,
                -1.2954440606334208,
                1.0514030704194997,
                -0.5219827433759272,
                1.079697303755344,
                2.058652411420836
            ]
        },
        {
            "positions": [
                2.2059874138250297,
                -1.2703806075718465,
                1.162420672005533,
                -0.5903398269705551,
                1.1166859310515154,
                2.1300996028243864
            ]
        },
        {
            "positions": [
                2.2785245016409696,
                -1.2453171545102721,
                1.2734382735915664,
                -0.6586969105651828,
                1.153674558347687,
                2.2015467942279368
            ]
        },
        {
            "positions": [
                2.3370530019675324,
                -1.2069274612233185,
                1.365443694916936,
                -0.6786564178784518,
                1.1392348555035334,
                2.365424320890887
            ]
        },
        {
            "positions": [
                2.395581502294095,
                -1.1685377679363649,
                1.4574491162423056,
                -0.6986159251917208,
                1.1247951526593796,
                2.529301847553838
            ]
        },
        {
            "positions": [
                2.4541100026206575,
                -1.1301480746494112,
                1.5494545375676751,
                -0.7185754325049898,
                1.110355449815226,
                2.693179374216789
            ]
        },
        {
            "positions": [
                2.5126385029472202,
                -1.0917583813624578,
                1.6414599588930445,
                -0.7385349398182587,
                1.0959157469710723,
                2.8570569008797393
            ]
        },
        {
            "positions": [
                2.571167003273783,
                -1.0533686880755042,
                1.7334653802184141,
                -0.7584944471315277,
                1.0814760441269184,
                3.0209344275426897
            ]
        },
        {
            "positions": [
                2.6296955036003458,
                -1.0149789947885506,
                1.8254708015437837,
                -0.7784539544447967,
                1.0670363412827648,
                3.1848119542056406
            ]
        }
    ]
}