{
    "goal": {
        "global_pose": {
            "orientation": {
                "w": -0.00223480608172531,
                "x": 0.0024358444001904467,
                "y": 0.7094548369677653,
                "z": -0.704743149386269
            },
            "position": {
                "x": -0.37947507619857795,
                "y": -0.6371506643295288,
                "z": 0.19426114857196808
            }
        },
        "name": "move_to_magneteinheit_C"
    },
    "id": "LBKPIECE_move_to_magneteinheit_C_51",
    "joint_names": [
        "shoulder_pan_joint",
        "shoulder_lift_joint",
        "elbow_joint",
        "wrist_1_joint",
        "wrist_2_joint",
        "wrist_3_joint"
    ],
    "metrics": {
        "cart_traj_len": 5.674050972914636,
        "distance_elbow_joint": 0.26887133718238765,
        "distance_shoulder_lift_joint": 3.7888268500226365,
        "distance_shoulder_pan_joint": 8.20282658605555,
        "distance_wrist_1_joint": 4.055894813264143,
        "distance_wrist_2_joint": 2.9780014234302405,
        "distance_wrist_3_joint": 1.3009067410758202,
        "smoothness": 0.6446421076648312,
        "time": 0.594841607,
        "traj_len": 4.538207548254132,
        "weighted_distance": 5.498275863384519
    },
    "planner": "LBKPIECE",
    "start": {
        "state": {
            "elbow_joint": 1.9565354010623817,
            "shoulder_lift_joint": -1.4165861575791021,
            "shoulder_pan_joint": -1.6717766225146293,
            "wrist_1_joint": -0.5286633292919765,
            "wrist_2_joint": 1.472756589071564,
            "wrist_3_joint": -3.1238370188695823
        }
    },
    "waypoints": [
        {
            "positions": [
                -1.6717766225146293,
                -1.4165861575791021,
                1.9565354010623817,
                -0.5286633292919765,
                1.472756589071564,
                -3.1238370188695823
            ]
        },
        {
            "positions": [
                -1.5294626211467657,
                -1.4845767051592886,
                1.962738121006512,
                -0.45652101546533835,
                1.4001493664356788,
                -3.099220855145778
            ]
        },
        {
            "positions": [
                -1.3871486197789022,
                -1.5525672527394752,
                1.9689408409506424,
                -0.38437870163870025,
                1.3275421437997936,
                -3.0746046914219733
            ]
        },
        {
            "positions": [
                -1.2448346184110384,
                -1.6205578003196617,
                1.9751435608947727,
                -0.3122363878120621,
                1.2549349211639085,
                -3.049988527698169
            ]
        },
        {
            "positions": [
                -1.102520617043175,
                -1.6885483478998484,
                1.9813462808389033,
                -0.24009407398542398,
                1.1823276985280233,
                -3.0253723639743644
            ]
        },
        {
            "positions": [
                -0.9602066156753113,
                -1.756538895480035,
                1.9875490007830336,
                -0.16795176015878582,
                1.1097204758921382,
                -3.00075620025056
            ]
        },
        {
            "positions": [
                -0.8178926143074476,
                -1.8245294430602215,
                1.993751720727164,
                -0.09580944633214772,
                1.037113253256253,
                -2.976140036526756
            ]
        },
        {
            "positions": [
                -0.6755786129395842,
                -1.892519990640408,
                1.9999544406712944,
                -0.02366713250550967,
                0.9645060306203679,
                -2.951523872802951
            ]
        },
        {
            "positions": [
                -0.5332646115717206,
                -1.9605105382205945,
                2.006157160615425,
                0.04847518132112849,
                0.8918988079844827,
                -2.926907709079147
            ]
        },
        {
            "positions": [
                -0.3909506102038569,
                -2.028501085800781,
                2.012359880559555,
                0.12061749514776654,
                0.8192915853485976,
                -2.9022915453553426
            ]
        },
        {
            "positions": [
                -0.24863660883599326,
                -2.0964916333809676,
                2.0185626005036856,
                0.1927598089744048,
                0.7466843627127124,
                -2.877675381631538
            ]
        },
        {
            "positions": [
                -0.10632260746812983,
                -2.164482180961154,
                2.0247653204478158,
                0.26490212280104286,
                0.6740771400768273,
                -2.8530592179077336
            ]
        },
        {
            "positions": [
                0.03599139389973405,
                -2.2324727285413406,
                2.0309680403919463,
                0.337044436627681,
                0.6014699174409421,
                -2.828443054183929
            ]
        },
        {
            "positions": [
                0.17830539526759748,
                -2.300463276121527,
                2.0371707603360765,
                0.40918675045431907,
                0.528862694805057,
                -2.8038268904601247
            ]
        },
        {
            "positions": [
                0.3206193966354609,
                -2.3684538237017136,
                2.043373480280207,
                0.4813290642809571,
                0.45625547216917184,
                -2.7792107267363204
            ]
        },
        {
            "positions": [
                0.46293339800332434,
                -2.4364443712819,
                2.0495762002243376,
                0.5534713781075953,
                0.3836482495332867,
                -2.7545945630125157
            ]
        },
        {
            "positions": [
                0.6052473993711882,
                -2.5044349188620867,
                2.0557789201684677,
                0.6256136919342334,
                0.31104102689740154,
                -2.7299783992887114
            ]
        },
        {
            "positions": [
                0.7475614007390521,
                -2.572425466442273,
                2.0619816401125983,
                0.6977560057608716,
                0.2384338042615164,
                -2.705362235564907
            ]
        },
        {
            "positions": [
                0.8898754021069155,
                -2.6404160140224597,
                2.0681843600567285,
                0.7698983195875095,
                0.16582658162563124,
                -2.6807460718411025
            ]
        },
        {
            "positions": [
                1.032189403474779,
                -2.7084065616026463,
                2.074387080000859,
                0.8420406334141477,
                0.09321935898974609,
                -2.656129908117298
            ]
        },
        {
            "positions": [
                1.1745034048426428,
                -2.7763971091828332,
                2.0805897999449896,
                0.9141829472407861,
                0.020612136353860944,
                -2.6315137443934935
            ]
        },
        {
            "positions": [
                1.3168174062105062,
                -2.8443876567630197,
                2.0867925198891197,
                0.986325261067424,
                -0.051995086282024205,
                -2.6068975806696892
            ]
        },
        {
            "positions": [
                1.4591314075783697,
                -2.912378204343206,
                2.0929952398332503,
                1.0584675748940622,
                -0.12460230891790935,
                -2.582281416945885
            ]
        },
        {
            "positions": [
                1.6014454089462336,
                -2.9803687519233923,
                2.0991979597773804,
                1.1306098887207001,
                -0.1972095315537945,
                -2.5576652532220803
            ]
        },
        {
            "positions": [
                1.7437594103140974,
                -3.0483592995035793,
                2.105400679721511,
                1.2027522025473385,
                -0.26981675418967965,
                -2.533049089498276
            ]
        },
        {
            "positions": [
                1.8860734116819609,
                -3.116349847083766,
                2.111603399665641,
                1.2748945163739764,
                -0.3424239768255648,
                -2.5084329257744713
            ]
        },
        {
            "positions": [
                2.028387413049824,
                -3.1843403946639524,
                2.1178061196097717,
                1.3470368302006146,
                -0.41503119946144995,
                -2.483816762050667
            ]
        },
        {
            "positions": [
                1.8616221334020058,
                -3.1094858534440344,
                2.113820911512179,
                1.2662888800609275,
                -0.3746529166874787,
                -2.508294039245367
            ]
        },
        {
            "positions": [
                1.6948568537541875,
                -3.0346313122241164,
                2.109835703414587,
                1.1855409299212403,
                -0.3342746339135075,
                -2.5327713164400674
            ]
        },
        {
            "positions": [
                1.5280915741063694,
                -2.9597767710041984,
                2.1058504953169943,
                1.1047929797815532,
                -0.2938963511395362,
                -2.5572485936347675
            ]
        },
        {
            "positions": [
                1.3613262944585511,
                -2.8849222297842805,
                2.1018652872194017,
                1.024045029641866,
                -0.253518068365565,
                -2.5817258708294677
            ]
        },
        {
            "positions": [
                1.1945610148107328,
                -2.810067688564362,
                2.097880079121809,
                0.9432970795021789,
                -0.21313978559159374,
                -2.606203148024168
            ]
        },
        {
            "positions": [
                1.0277957351629146,
                -2.735213147344444,
                2.093894871024217,
                0.8625491293624918,
                -0.1727615028176225,
                -2.630680425218868
            ]
        },
        {
            "positions": [
                0.8610304555150965,
                -2.660358606124526,
                2.0899096629266243,
                0.7818011792228047,
                -0.13238322004365127,
                -2.655157702413568
            ]
        },
        {
            "positions": [
                0.6942651758672782,
                -2.585504064904608,
                2.0859244548290317,
                0.7010532290831175,
                -0.09200493726968001,
                -2.6796349796082684
            ]
        },
        {
            "positions": [
                0.5274998962194599,
                -2.51064952368469,
                2.081939246731439,
                0.6203052789434305,
                -0.0516266544957088,
                -2.7041122568029685
            ]
        },
        {
            "positions": [
                0.36073461657164163,
                -2.435794982464772,
                2.077954038633847,
                0.5395573288037433,
                -0.011248371721737538,
                -2.7285895339976687
            ]
        },
        {
            "positions": [
                0.19396933692382334,
                -2.3609404412448542,
                2.0739688305362542,
                0.45880937866405613,
                0.02912991105223367,
                -2.753066811192369
            ]
        },
        {
            "positions": [
                0.027204057276005056,
                -2.2860859000249363,
                2.0699836224386616,
                0.3780614285243691,
                0.06950819382620493,
                -2.777544088387069
            ]
        },
        {
            "positions": [
                -0.139561222371813,
                -2.2112313588050183,
                2.065998414341069,
                0.2973134783846818,
                0.10988647660017614,
                -2.802021365581769
            ]
        },
        {
            "positions": [
                -0.3063265020196311,
                -2.1363768175851003,
                2.062013206243477,
                0.21656552824499475,
                0.1502647593741474,
                -2.8264986427764693
            ]
        },
        {
            "positions": [
                -0.4730917816674496,
                -2.061522276365182,
                2.058027998145884,
                0.13581757810530748,
                0.19064304214811867,
                -2.85097591997117
            ]
        },
        {
            "positions": [
                -0.6398570613152677,
                -1.9866677351452642,
                2.0540427900482916,
                0.05506962796562043,
                0.23102132492208993,
                -2.8754531971658697
            ]
        },
        {
            "positions": [
                -0.8066223409630862,
                -1.911813193925346,
                2.050057581950699,
                -0.025678322174066626,
                0.2713996076960612,
                -2.8999304743605703
            ]
        },
        {
            "positions": [
                -0.9733876206109042,
                -1.836958652705428,
                2.046072373853107,
                -0.10642627231375368,
                0.31177789047003235,
                -2.9244077515552704
            ]
        },
        {
            "positions": [
                -1.1401529002587227,
                -1.76210411148551,
                2.042087165755514,
                -0.18717422245344095,
                0.3521561732440037,
                -2.9488850287499706
            ]
        },
        {
            "positions": [
                -1.3069181799065408,
                -1.687249570265592,
                2.0381019576579216,
                -0.267922172593128,
                0.3925344560179749,
                -2.9733623059446708
            ]
        },
        {
            "positions": [
                -1.4736834595543593,
                -1.6123950290456739,
                2.034116749560329,
                -0.3486701227328153,
                0.43291273879194614,
                -2.997839583139371
            ]
        },
        {
            "positions": [
                -1.6404487392021774,
                -1.5375404878257561,
                2.0301315414627368,
                -0.42941807287250233,
                0.4732910215659173,
                -3.022316860334071
            ]
        },
        {
            "positions": [
                -1.8072140188499954,
                -1.462685946605838,
                2.026146333365144,
                -0.5101660230121896,
                0.5136693043398887,
                -3.0467941375287713
            ]
        },
        {
            "positions": [
                -1.973979298497814,
                -1.38783140538592,
                2.0221611252675515,
                -0.5909139731518764,
                0.5540475871138598,
                -3.0712714147234714
            ]
        },
        {
            "positions": [
                -2.1407445781456325,
                -1.3129768641660018,
                2.018175917169959,
                -0.6716619232915639,
                0.5944258698878311,
                -3.0957486919181716
            ]
        },
        {
            "positions": [
                -2.30750985779345,
                -1.238122322946084,
                2.0141907090723667,
                -0.752409873431251,
                0.6348041526618022,
                -3.1202259691128718
            ]
        },
        {
            "positions": [
                -2.4742751374412686,
                -1.1632677817261659,
                2.010205500974774,
                -0.8331578235709379,
                0.6751824354357735,
                -3.144703246307572
            ]
        }
    ]
}