{
    "goal": {
        "global_pose": {
            "orientation": {
                "w": -0.00223480608172531,
                "x": 0.0024358444001904467,
                "y": 0.7094548369677653,
                "z": -0.704743149386269
            },
            "position": {
                "x": -0.37947507619857795,
                "y": -0.6371506643295288,
                "z": 0.19426114857196808
            }
        },
        "name": "move_to_magneteinheit_C"
    },
    "id": "LBKPIECE_move_to_magneteinheit_C_46",
    "joint_names": [
        "shoulder_pan_joint",
        "shoulder_lift_joint",
        "elbow_joint",
        "wrist_1_joint",
        "wrist_2_joint",
        "wrist_3_joint"
    ],
    "metrics": {
        "cart_traj_len": 2.077470950656428,
        "distance_elbow_joint": 2.0103281244580997,
        "distance_shoulder_lift_joint": 0.28010954014628275,
        "distance_shoulder_pan_joint": 1.6934261154615553,
        "distance_wrist_1_joint": 0.7242693961591641,
        "distance_wrist_2_joint": 3.7175837139198666,
        "distance_wrist_3_joint": 3.30731832282323,
        "smoothness": 0.4807948208236435,
        "time": 0.449664232,
        "traj_len": 3.4253518378362533,
        "weighted_distance": 4.773837551560976
    },
    "planner": "LBKPIECE",
    "start": {
        "state": {
            "elbow_joint": 1.9565354010623817,
            "shoulder_lift_joint": -1.4165861575791021,
            "shoulder_pan_joint": -1.6717766225146293,
            "wrist_1_joint": -0.5286633292919765,
            "wrist_2_joint": 1.472756589071564,
            "wrist_3_joint": -3.1238370188695823
        }
    },
    "waypoints": [
        {
            "positions": [
                -1.6717766225146293,
                -1.4165861575791021,
                1.9565354010623817,
                -0.5286633292919765,
                1.472756589071564,
                -3.1238370188695823
            ]
        },
        {
            "positions": [
                -1.6140037418063549,
                -1.4188368806573894,
                1.9452571178488742,
                -0.5769307278203786,
                1.356321659379176,
                -2.9940528384011547
            ]
        },
        {
            "positions": [
                -1.5562308610980806,
                -1.421087603735677,
                1.9339788346353666,
                -0.6251981263487807,
                1.2398867296867881,
                -2.8642686579327274
            ]
        },
        {
            "positions": [
                -1.4984579803898064,
                -1.4233383268139645,
                1.9227005514218591,
                -0.6734655248771828,
                1.1234517999944003,
                -2.7344844774643002
            ]
        },
        {
            "positions": [
                -1.440685099681532,
                -1.4255890498922519,
                1.9114222682083517,
                -0.7217329234055849,
                1.0070168703020124,
                -2.6047002969958726
            ]
        },
        {
            "positions": [
                -1.3829122189732574,
                -1.4278397729705392,
                1.900143984994844,
                -0.770000321933987,
                0.8905819406096245,
                -2.474916116527445
            ]
        },
        {
            "positions": [
                -1.3251393382649832,
                -1.4300904960488268,
                1.8888657017813366,
                -0.8182677204623892,
                0.7741470109172366,
                -2.3451319360590177
            ]
        },
        {
            "positions": [
                -1.343909516603637,
                -1.4283685914520459,
                1.803619930870224,
                -0.8291829781408807,
                0.6385719536384888,
                -2.2364003531522973
            ]
        },
        {
            "positions": [
                -1.3626796949422908,
                -1.426646686855265,
                1.7183741599591116,
                -0.8400982358193723,
                0.5029968963597412,
                -2.127668770245577
            ]
        },
        {
            "positions": [
                -1.3814498732809446,
                -1.424924782258484,
                1.633128389047999,
                -0.8510134934978639,
                0.3674218390809935,
                -2.0189371873388566
            ]
        },
        {
            "positions": [
                -1.4002200516195984,
                -1.4232028776617032,
                1.5478826181368865,
                -0.8619287511763555,
                0.23184678180224588,
                -1.9102056044321365
            ]
        },
        {
            "positions": [
                -1.486357729798461,
                -1.4185954869527757,
                1.4757065517926464,
                -0.8457402762643726,
                0.10785663762519075,
                -1.8493727411799499
            ]
        },
        {
            "positions": [
                -1.5724954079773235,
                -1.4139880962438482,
                1.403530485448406,
                -0.8295518013523898,
                -0.01613350655186438,
                -1.7885398779277635
            ]
        },
        {
            "positions": [
                -1.658633086156186,
                -1.4093807055349208,
                1.331354419104166,
                -0.813363326440407,
                -0.14012365072891947,
                -1.7277070146755769
            ]
        },
        {
            "positions": [
                -1.7447707643350485,
                -1.4047733148259933,
                1.2591783527599256,
                -0.7971748515284242,
                -0.26411379490597464,
                -1.6668741514233905
            ]
        },
        {
            "positions": [
                -1.8309084425139113,
                -1.4001659241170659,
                1.1870022864156855,
                -0.7809863766164413,
                -0.3881039390830298,
                -1.6060412881712038
            ]
        },
        {
            "positions": [
                -1.9170461206927736,
                -1.3955585334081384,
                1.1148262200714454,
                -0.7647979017044585,
                -0.5120940832600849,
                -1.5452084249190174
            ]
        },
        {
            "positions": [
                -2.0031837988716363,
                -1.390951142699211,
                1.042650153727205,
                -0.7486094267924757,
                -0.6360842274371401,
                -1.4843755616668308
            ]
        },
        {
            "positions": [
                -2.1440194956569623,
                -1.3786915224335057,
                1.0825925682993491,
                -0.7144693867528475,
                -0.6855482143342316,
                -1.5097940280431252
            ]
        },
        {
            "positions": [
                -2.2848551924422886,
                -1.3664319021678004,
                1.122534982871493,
                -0.6803293467132195,
                -0.735012201231323,
                -1.5352124944194194
            ]
        },
        {
            "positions": [
                -2.4256908892276146,
                -1.3541722819020952,
                1.162477397443637,
                -0.6461893066735914,
                -0.7844761881284146,
                -1.5606309607957138
            ]
        },
        {
            "positions": [
                -2.4467323675089285,
                -1.3419791690225569,
                1.2717185268777016,
                -0.6506714696005932,
                -0.6846771244483469,
                -1.662997597450183
            ]
        },
        {
            "positions": [
                -2.4677738457902425,
                -1.3297860561430188,
                1.380959656311766,
                -0.655153632527595,
                -0.5848780607682793,
                -1.765364234104652
            ]
        },
        {
            "positions": [
                -2.4888153240715565,
                -1.3175929432634805,
                1.4902007857458308,
                -0.6596357954545967,
                -0.4850789970882116,
                -1.8677308707591214
            ]
        },
        {
            "positions": [
                -2.5098568023528705,
                -1.3053998303839423,
                1.5994419151798953,
                -0.6641179583815986,
                -0.3852799334081439,
                -1.9700975074135905
            ]
        },
        {
            "positions": [
                -2.5308982806341844,
                -1.293206717504404,
                1.7086830446139598,
                -0.6686001213086004,
                -0.28548086972807624,
                -2.07246414406806
            ]
        },
        {
            "positions": [
                -2.5519397589154984,
                -1.281013604624866,
                1.8179241740480245,
                -0.6730822842356021,
                -0.18568180604800866,
                -2.174830780722529
            ]
        },
        {
            "positions": [
                -2.5729812371968124,
                -1.2688204917453276,
                1.927165303482089,
                -0.6775644471626039,
                -0.08588274236794091,
                -2.277197417376998
            ]
        },
        {
            "positions": [
                -2.571695291346166,
                -1.2543475751283484,
                1.976026853064729,
                -0.6967788986755902,
                0.02027526028269222,
                -2.3979500650850922
            ]
        },
        {
            "positions": [
                -2.5704093454955195,
                -1.2398746585113694,
                2.024888402647369,
                -0.7159933501885763,
                0.12643326293332535,
                -2.518702712793187
            ]
        },
        {
            "positions": [
                -2.569123399644873,
                -1.22540174189439,
                2.073749952230009,
                -0.7352078017015626,
                0.23259126558395846,
                -2.639455360501281
            ]
        },
        {
            "positions": [
                -2.53960628970823,
                -1.2062624809737277,
                2.053772354413318,
                -0.7632665420962013,
                0.3705039731865347,
                -2.7978624981871607
            ]
        },
        {
            "positions": [
                -2.5100891797715867,
                -1.1871232200530653,
                2.033794756596627,
                -0.7913252824908398,
                0.508416680789111,
                -2.95626963587304
            ]
        },
        {
            "positions": [
                -2.4805720698349436,
                -1.1679839591324028,
                2.0138171587799363,
                -0.8193840228854784,
                0.6463293883916873,
                -3.1146767735589194
            ]
        },
        {
            "positions": [
                -2.4740343049167324,
                -1.1634852943722687,
                2.0084068736098897,
                -0.8214538364456124,
                0.6758747485914736,
                -3.1522324272873092
            ]
        }
    ]
}