{
    "goal": {
        "global_pose": {
            "orientation": {
                "w": 0.005598929693374612,
                "x": 0.007748599140229565,
                "y": 0.7110244013736278,
                "z": -0.7031023480610252
            },
            "position": {
                "x": -0.8858502320852131,
                "y": -0.7141253447532654,
                "z": 0.3711530566215515
            }
        },
        "name": "move_to_auspresseinheit_C"
    },
    "id": "LBKPIECE_move_to_auspresseinheit_C_36",
    "joint_names": [
        "shoulder_pan_joint",
        "shoulder_lift_joint",
        "elbow_joint",
        "wrist_1_joint",
        "wrist_2_joint",
        "wrist_3_joint"
    ],
    "metrics": {
        "cart_traj_len": 0.4920230834395833,
        "distance_elbow_joint": 0.9891068716257866,
        "distance_shoulder_lift_joint": 0.31947418619499346,
        "distance_shoulder_pan_joint": 0.25538353020193494,
        "distance_wrist_1_joint": 0.6535933692620632,
        "distance_wrist_2_joint": 1.315401400767172,
        "distance_wrist_3_joint": 0.03496299300624539,
        "smoothness": 4.844609574787718e-16,
        "time": 0.8645277490000001,
        "traj_len": 1.8888944785398138,
        "weighted_distance": 2.3678773420724144
    },
    "planner": "LBKPIECE",
    "start": {
        "state": {
            "elbow_joint": 1.7527959577737207,
            "shoulder_lift_joint": -0.9740617694225068,
            "shoulder_pan_joint": -2.967991417825858,
            "wrist_1_joint": -0.759517768980727,
            "wrist_2_joint": 1.7443932448377408,
            "wrist_3_joint": -3.0840537646736568
        }
    },
    "waypoints": [
        {
            "positions": [
                -2.967991417825858,
                -0.9740617694225068,
                1.7527959577737207,
                -0.759517768980727,
                1.7443932448377408,
                -3.0840537646736568
            ]
        },
        {
            "positions": [
                -2.9424530648056644,
                -0.9421143508030074,
                1.653885270611142,
                -0.6941584320545207,
                1.6128531047610237,
                -3.0875500639742812
            ]
        },
        {
            "positions": [
                -2.916914711785471,
                -0.9101669321835081,
                1.5549745834485633,
                -0.6287990951283143,
                1.4813129646843064,
                -3.0910463632749057
            ]
        },
        {
            "positions": [
                -2.8913763587652777,
                -0.8782195135640087,
                1.4560638962859846,
                -0.563439758202108,
                1.3497728246075893,
                -3.0945426625755306
            ]
        },
        {
            "positions": [
                -2.865838005745084,
                -0.8462720949445094,
                1.357153209123406,
                -0.4980804212759017,
                1.218232684530872,
                -3.098038961876155
            ]
        },
        {
            "positions": [
                -2.8402996527248905,
                -0.81432467632501,
                1.2582425219608273,
                -0.43272108434969536,
                1.0866925444541549,
                -3.1015352611767795
            ]
        },
        {
            "positions": [
                -2.814761299704697,
                -0.7823772577055107,
                1.1593318347982486,
                -0.36736174742348904,
                0.9551524043774376,
                -3.105031560477404
            ]
        },
        {
            "positions": [
                -2.7892229466845033,
                -0.7504298390860114,
                1.0604211476356702,
                -0.30200241049728277,
                0.8236122643007205,
                -3.1085278597780284
            ]
        },
        {
            "positions": [
                -2.76368459366431,
                -0.718482420466512,
                0.9615104604730913,
                -0.2366430735710764,
                0.6920721242240033,
                -3.1120241590786533
            ]
        },
        {
            "positions": [
                -2.7381462406441166,
                -0.6865350018470127,
                0.8625997733105127,
                -0.17128373664487007,
                0.560531984147286,
                -3.1155204583792777
            ]
        },
        {
            "positions": [
                -2.712607887623923,
                -0.6545875832275133,
                0.7636890861479341,
                -0.10592439971866371,
                0.4289918440705689,
                -3.119016757679902
            ]
        }
    ]
}