{
    "goal": {
        "global_pose": {
            "orientation": {
                "w": 0.005598929693374612,
                "x": 0.007748599140229565,
                "y": 0.7110244013736278,
                "z": -0.7031023480610252
            },
            "position": {
                "x": 0.1141497679147869,
                "y": -0.7141253447532654,
                "z": 0.3711530566215515
            }
        },
        "name": "move_to_auspresseinheit_B"
    },
    "id": "LBKPIECE_move_to_auspresseinheit_B_96",
    "joint_names": [
        "shoulder_pan_joint",
        "shoulder_lift_joint",
        "elbow_joint",
        "wrist_1_joint",
        "wrist_2_joint",
        "wrist_3_joint"
    ],
    "metrics": {
        "cart_traj_len": 0.5653915604570309,
        "distance_elbow_joint": 0.06649191555955758,
        "distance_shoulder_lift_joint": 0.29327558321228064,
        "distance_shoulder_pan_joint": 0.5771361641525592,
        "distance_wrist_1_joint": 0.3374678167373324,
        "distance_wrist_2_joint": 0.9956835563987965,
        "distance_wrist_3_joint": 0.006841785946057666,
        "smoothness": 5.075305295617109e-16,
        "time": 0.18008570299999999,
        "traj_len": 1.5089389722605036,
        "weighted_distance": 1.9036101930371216
    },
    "planner": "LBKPIECE",
    "start": {
        "state": {
            "elbow_joint": 2.0193083361928714,
            "shoulder_lift_joint": -1.1220246554650708,
            "shoulder_pan_joint": -1.0952077554168747,
            "wrist_1_joint": -0.8559753972642168,
            "wrist_2_joint": 0.4759566250798843,
            "wrist_3_joint": -3.1240929996934557
        }
    },
    "waypoints": [
        {
            "positions": [
                -1.0952077554168747,
                -1.1220246554650708,
                2.0193083361928714,
                -0.8559753972642168,
                0.4759566250798843,
                -3.1240929996934557
            ]
        },
        {
            "positions": [
                -1.1913971161089678,
                -1.1709039193337842,
                2.0082263502662787,
                -0.799730761141328,
                0.6419038844796837,
                -3.1229527020357795
            ]
        },
        {
            "positions": [
                -1.287586476801061,
                -1.2197831832024977,
                1.9971443643396856,
                -0.7434861250184394,
                0.8078511438794831,
                -3.1218124043781033
            ]
        },
        {
            "positions": [
                -1.3837758374931544,
                -1.2686624470712111,
                1.9860623784130926,
                -0.6872414888955506,
                0.9737984032792826,
                -3.120672106720427
            ]
        },
        {
            "positions": [
                -1.4799651981852473,
                -1.3175417109399246,
                1.9749803924864997,
                -0.6309968527726619,
                1.1397456626790818,
                -3.1195318090627504
            ]
        },
        {
            "positions": [
                -1.5761545588773407,
                -1.366420974808638,
                1.9638984065599068,
                -0.5747522166497732,
                1.3056929220788813,
                -3.118391511405074
            ]
        },
        {
            "positions": [
                -1.6723439195694338,
                -1.4153002386773514,
                1.9528164206333138,
                -0.5185075805268844,
                1.4716401814786808,
                -3.117251213747398
            ]
        }
    ]
}