{
    "goal": {
        "global_pose": {
            "orientation": {
                "w": 0.7031023480610252,
                "x": -0.7110244013736278,
                "y": 0.0077485991402295624,
                "z": 0.005598929693374583
            },
            "position": {
                "x": -0.8841497679147869,
                "y": 0.44412534475326537,
                "z": 0.3711530566215515
            }
        },
        "name": "move_to_auspresseinheit_D"
    },
    "id": "LBKPIECE_move_to_auspresseinheit_D_42",
    "joint_names": [
        "shoulder_pan_joint",
        "shoulder_lift_joint",
        "elbow_joint",
        "wrist_1_joint",
        "wrist_2_joint",
        "wrist_3_joint"
    ],
    "metrics": {
        "cart_traj_len": 0.34433389132966685,
        "distance_elbow_joint": 0.6593458191389339,
        "distance_shoulder_lift_joint": 0.1326839208517958,
        "distance_shoulder_pan_joint": 0.1334303558281716,
        "distance_wrist_1_joint": 0.5912316372888071,
        "distance_wrist_2_joint": 1.4464740195906418,
        "distance_wrist_3_joint": 0.05390256817461836,
        "smoothness": 7.894919286223335e-16,
        "time": 0.223574769,
        "traj_len": 1.7369710190077923,
        "weighted_distance": 2.2721309632372986
    },
    "planner": "LBKPIECE",
    "start": {
        "state": {
            "elbow_joint": -1.8275523626775212,
            "shoulder_lift_joint": -2.126789852344167,
            "shoulder_pan_joint": -0.03513704404078235,
            "wrist_1_joint": -2.347782403156801,
            "wrist_2_joint": -1.6058999987535132,
            "wrist_3_joint": -3.0880379163319196
        }
    },
    "waypoints": [
        {
            "positions": [
                -0.03513704404078235,
                -2.126789852344167,
                -1.8275523626775212,
                -2.347782403156801,
                -1.6058999987535132,
                -3.0880379163319196
            ]
        },
        {
            "positions": [
                -0.0518158385193038,
                -2.1433753424506414,
                -1.7451341352851544,
                -2.4216863578179018,
                -1.425090746304683,
                -3.0813000953100924
            ]
        },
        {
            "positions": [
                -0.06849463299782524,
                -2.1599608325571156,
                -1.6627159078927878,
                -2.4955903124790026,
                -1.2442814938558526,
                -3.0745622742882652
            ]
        },
        {
            "positions": [
                -0.0851734274763467,
                -2.17654632266359,
                -1.580297680500421,
                -2.5694942671401035,
                -1.0634722414070226,
                -3.0678244532664376
            ]
        },
        {
            "positions": [
                -0.10185222195486815,
                -2.1931318127700647,
                -1.4978794531080544,
                -2.6433982218012044,
                -0.8826629889581923,
                -3.0610866322446104
            ]
        },
        {
            "positions": [
                -0.11853101643338959,
                -2.2097173028765393,
                -1.4154612257156876,
                -2.7173021764623053,
                -0.701853736509362,
                -3.0543488112227832
            ]
        },
        {
            "positions": [
                -0.13520981091191103,
                -2.226302792983014,
                -1.3330429983233207,
                -2.791206131123406,
                -0.5210444840605319,
                -3.0476109902009556
            ]
        },
        {
            "positions": [
                -0.1518886053904325,
                -2.242888283089488,
                -1.250624770930954,
                -2.865110085784507,
                -0.34023523161170166,
                -3.0408731691791284
            ]
        },
        {
            "positions": [
                -0.16856739986895394,
                -2.2594737731959627,
                -1.1682065435385873,
                -2.939014040445608,
                -0.1594259791628715,
                -3.0341353481573012
            ]
        }
    ]
}