{
    "goal": {
        "global_pose": {
            "orientation": {
                "w": -0.00223480608172531,
                "x": 0.0024358444001904467,
                "y": 0.7094548369677653,
                "z": -0.704743149386269
            },
            "position": {
                "x": 0.6205249238014221,
                "y": -0.6371506643295288,
                "z": 0.19426114857196808
            }
        },
        "name": "move_to_magneteinheit_B"
    },
    "id": "LBKPIECE_move_to_magneteinheit_B_14",
    "joint_names": [
        "shoulder_pan_joint",
        "shoulder_lift_joint",
        "elbow_joint",
        "wrist_1_joint",
        "wrist_2_joint",
        "wrist_3_joint"
    ],
    "metrics": {
        "cart_traj_len": 3.2325015615868824,
        "distance_elbow_joint": 4.341443239417953,
        "distance_shoulder_lift_joint": 1.0602251134598037,
        "distance_shoulder_pan_joint": 2.149317449615657,
        "distance_wrist_1_joint": 1.710837099574849,
        "distance_wrist_2_joint": 1.5914608131005707,
        "distance_wrist_3_joint": 0.3797911396793598,
        "smoothness": 0.47250133642778613,
        "time": 0.39429551700000004,
        "traj_len": 3.351577964906708,
        "weighted_distance": 3.9108765062172863
    },
    "planner": "LBKPIECE",
    "start": {
        "state": {
            "elbow_joint": 2.6216224122426386,
            "shoulder_lift_joint": -1.4174107377796124,
            "shoulder_pan_joint": 0.7066234856936794,
            "wrist_1_joint": 1.9546482284002225,
            "wrist_2_joint": -0.7096286983471962,
            "wrist_3_joint": 0.005740856962016249
        }
    },
    "waypoints": [
        {
            "positions": [
                0.7066234856936794,
                -1.4174107377796124,
                2.6216224122426386,
                1.9546482284002225,
                -0.7096286983471962,
                0.005740856962016249
            ]
        },
        {
            "positions": [
                0.7035288363106067,
                -1.5190434543189686,
                2.559332994695822,
                1.8593373288508155,
                -0.7460563612155872,
                0.04033549730560587
            ]
        },
        {
            "positions": [
                0.700434186927534,
                -1.6206761708583248,
                2.4970435771490056,
                1.7640264293014087,
                -0.7824840240839781,
                0.0749301376491955
            ]
        },
        {
            "positions": [
                0.7068356861643388,
                -1.6545976457203035,
                2.2983058732282715,
                1.6302958450475584,
                -0.7875353248400102,
                0.05959295310494108
            ]
        },
        {
            "positions": [
                0.7132371854011434,
                -1.6885191205822823,
                2.099568169307538,
                1.4965652607937079,
                -0.7925866255960422,
                0.044255768560686665
            ]
        },
        {
            "positions": [
                0.7196386846379482,
                -1.722440595444261,
                1.9008304653868038,
                1.3628346765398573,
                -0.7976379263520743,
                0.02891858401643224
            ]
        },
        {
            "positions": [
                0.7260401838747529,
                -1.7563620703062397,
                1.70209276146607,
                1.229104092286007,
                -0.8026892271081064,
                0.013581399472177826
            ]
        },
        {
            "positions": [
                0.7324416831115577,
                -1.7902835451682184,
                1.503355057545336,
                1.0953735080321567,
                -0.8077405278641385,
                -0.0017557850720766044
            ]
        },
        {
            "positions": [
                0.7388431823483623,
                -1.8242050200301971,
                1.3046173536246022,
                0.9616429237783062,
                -0.8127918286201705,
                -0.017092969616331014
            ]
        },
        {
            "positions": [
                0.7452446815851671,
                -1.8581264948921759,
                1.105879649703868,
                0.8279123395244558,
                -0.8178431293762026,
                -0.032430154160585443
            ]
        },
        {
            "positions": [
                0.8633098629919311,
                -1.863484152639247,
                0.9434309204227684,
                0.8149408481906881,
                -0.738077009574578,
                -0.03661823565737785
            ]
        },
        {
            "positions": [
                0.981375044398695,
                -1.868841810386318,
                0.7809821911416688,
                0.8019693568569204,
                -0.6583108897729535,
                -0.04080631715417026
            ]
        },
        {
            "positions": [
                1.0994402258054592,
                -1.874199468133389,
                0.6185334618605689,
                0.7889978655231528,
                -0.5785447699713289,
                -0.04499439865096267
            ]
        },
        {
            "positions": [
                1.2175054072122231,
                -1.87955712588046,
                0.45608473257946935,
                0.776026374189385,
                -0.4987786501697043,
                -0.04918248014775507
            ]
        },
        {
            "positions": [
                1.335570588618987,
                -1.884914783627531,
                0.2936360032983696,
                0.7630548828556174,
                -0.41901253036807967,
                -0.05337056164454748
            ]
        },
        {
            "positions": [
                1.4536357700257512,
                -1.8902724413746022,
                0.13118727401726982,
                0.7500833915218497,
                -0.3392464105664551,
                -0.05755864314133989
            ]
        },
        {
            "positions": [
                1.571700951432515,
                -1.8956300991216732,
                -0.03126145526382973,
                0.737111900188082,
                -0.2594802907648306,
                -0.0617467246381323
            ]
        },
        {
            "positions": [
                1.6897661328392792,
                -1.9009877568687443,
                -0.1937101845449294,
                0.7241404088543144,
                -0.17971417096320597,
                -0.06593480613492471
            ]
        },
        {
            "positions": [
                1.8078313142460432,
                -1.9063454146158152,
                -0.35615891382602927,
                0.7111689175205467,
                -0.09994805116158134,
                -0.07012288763171712
            ]
        },
        {
            "positions": [
                1.925896495652807,
                -1.9117030723628863,
                -0.5186076431071289,
                0.698197426186779,
                -0.020181931359956717,
                -0.07431096912850953
            ]
        },
        {
            "positions": [
                2.043961677059571,
                -1.9170607301099574,
                -0.6810563723882286,
                0.6852259348530114,
                0.05958418844166791,
                -0.07849905062530194
            ]
        },
        {
            "positions": [
                2.1620268584663354,
                -1.9224183878570285,
                -0.8435051016693285,
                0.6722544435192437,
                0.13935030824329242,
                -0.08268713212209435
            ]
        },
        {
            "positions": [
                2.280092039873099,
                -1.9277760456040995,
                -1.0059538309504277,
                0.6592829521854761,
                0.21911642804491682,
                -0.08687521361888675
            ]
        },
        {
            "positions": [
                2.398157221279863,
                -1.9331337033511704,
                -1.1684025602315276,
                0.6463114608517083,
                0.29888254784654145,
                -0.09106329511567915
            ]
        },
        {
            "positions": [
                2.516222402686627,
                -1.9384913610982415,
                -1.3308512895126274,
                0.6333399695179407,
                0.37864866764816607,
                -0.09525137661247157
            ]
        },
        {
            "positions": [
                2.634287584093391,
                -1.9438490188453126,
                -1.4933000187937269,
                0.620368478184173,
                0.4584147874497907,
                -0.09943945810926397
            ]
        },
        {
            "positions": [
                2.752352765500155,
                -1.9492066765923837,
                -1.6557487480748267,
                0.6073969868504053,
                0.5381809072514154,
                -0.10362753960605638
            ]
        },
        {
            "positions": [
                2.723384567386593,
                -2.0265229094405575,
                -1.6750670881853584,
                0.6618415665563748,
                0.48896454892580465,
                -0.08328096306556187
            ]
        },
        {
            "positions": [
                2.6944163692730307,
                -2.103839142288731,
                -1.6943854282958903,
                0.7162861462623442,
                0.4397481906001939,
                -0.06293438652506736
            ]
        },
        {
            "positions": [
                2.683325310589775,
                -2.2284380452722927,
                -1.685906962002749,
                0.8011850458000415,
                0.4493447335311021,
                -0.03248404363975405
            ]
        },
        {
            "positions": [
                2.6722342519065196,
                -2.353036948255854,
                -1.6774284957096077,
                0.8860839453377386,
                0.4589412764620104,
                -0.0020337007544407454
            ]
        },
        {
            "positions": [
                2.661143193223264,
                -2.477635851239416,
                -1.6689500294164663,
                0.9709828448754358,
                0.4685378193929186,
                0.028416642130872565
            ]
        }
    ]
}