{
    "goal": {
        "global_pose": {
            "orientation": {
                "w": 0.005598929693374612,
                "x": 0.007748599140229565,
                "y": 0.7110244013736278,
                "z": -0.7031023480610252
            },
            "position": {
                "x": 0.1141497679147869,
                "y": -0.7141253447532654,
                "z": 0.3711530566215515
            }
        },
        "name": "move_to_auspresseinheit_B"
    },
    "id": "LBKPIECE_move_to_auspresseinheit_B_1",
    "joint_names": [
        "shoulder_pan_joint",
        "shoulder_lift_joint",
        "elbow_joint",
        "wrist_1_joint",
        "wrist_2_joint",
        "wrist_3_joint"
    ],
    "metrics": {
        "cart_traj_len": 0.5645458244255811,
        "distance_elbow_joint": 0.06433650948449121,
        "distance_shoulder_lift_joint": 0.2940744058702436,
        "distance_shoulder_pan_joint": 0.577679102412848,
        "distance_wrist_1_joint": 0.3317966545255794,
        "distance_wrist_2_joint": 0.9875548182533356,
        "distance_wrist_3_joint": 0.0014927764031855695,
        "smoothness": 5.075305255429287e-16,
        "time": 0.660266897,
        "traj_len": 1.5023096441645054,
        "weighted_distance": 1.8918962161109605
    },
    "planner": "LBKPIECE",
    "start": {
        "state": {
            "elbow_joint": 2.0193083361928714,
            "shoulder_lift_joint": -1.1220246554650708,
            "shoulder_pan_joint": -1.0952077554168747,
            "wrist_1_joint": -0.8559753972642168,
            "wrist_2_joint": 0.4759566250798843,
            "wrist_3_joint": -3.1240929996934557
        }
    },
    "waypoints": [
        {
            "positions": [
                -1.0952077554168747,
                -1.1220246554650708,
                2.0193083361928714,
                -0.8559753972642168,
                0.4759566250798843,
                -3.1240929996934557
            ]
        },
        {
            "positions": [
                -1.191487605819016,
                -1.1710370564434447,
                2.0085855846121228,
                -0.8006759548432869,
                0.6405490947887735,
                -3.123844203626258
            ]
        },
        {
            "positions": [
                -1.2877674562211574,
                -1.2200494574218186,
                1.9978628330313744,
                -0.745376512422357,
                0.8051415644976627,
                -3.1235954075590606
            ]
        },
        {
            "positions": [
                -1.3840473066232986,
                -1.2690618584001925,
                1.987140081450626,
                -0.6900770700014272,
                0.9697340342065521,
                -3.123346611491863
            ]
        },
        {
            "positions": [
                -1.48032715702544,
                -1.3180742593785666,
                1.9764173298698773,
                -0.6347776275804973,
                1.1343265039154413,
                -3.123097815424665
            ]
        },
        {
            "positions": [
                -1.5766070074275813,
                -1.3670866603569405,
                1.9656945782891286,
                -0.5794781851595673,
                1.2989189736243307,
                -3.1228490193574676
            ]
        },
        {
            "positions": [
                -1.6728868578297227,
                -1.4160990613353144,
                1.9549718267083802,
                -0.5241787427386374,
                1.46351144333322,
                -3.12260022329027
            ]
        }
    ]
}