{
    "goal": {
        "global_pose": {
            "orientation": {
                "w": 0.005598929693374612,
                "x": 0.007748599140229565,
                "y": 0.7110244013736278,
                "z": -0.7031023480610252
            },
            "position": {
                "x": -0.8858502320852131,
                "y": -0.7141253447532654,
                "z": 0.3711530566215515
            }
        },
        "name": "move_to_auspresseinheit_C"
    },
    "id": "LBKPIECE_move_to_auspresseinheit_C_117",
    "joint_names": [
        "shoulder_pan_joint",
        "shoulder_lift_joint",
        "elbow_joint",
        "wrist_1_joint",
        "wrist_2_joint",
        "wrist_3_joint"
    ],
    "metrics": {
        "cart_traj_len": 0.4948233403757776,
        "distance_elbow_joint": 1.019512040663335,
        "distance_shoulder_lift_joint": 0.3334502141169583,
        "distance_shoulder_pan_joint": 0.2564513669902593,
        "distance_wrist_1_joint": 0.7165228966725912,
        "distance_wrist_2_joint": 1.30934148376863,
        "distance_wrist_3_joint": 0.08110979624659365,
        "smoothness": 0.0,
        "time": 1.051808179,
        "traj_len": 1.9277935051395851,
        "weighted_distance": 2.429911885520291
    },
    "planner": "LBKPIECE",
    "start": {
        "state": {
            "elbow_joint": 1.7527959577737207,
            "shoulder_lift_joint": -0.9740617694225068,
            "shoulder_pan_joint": -2.967991417825858,
            "wrist_1_joint": -0.759517768980727,
            "wrist_2_joint": 1.7443932448377408,
            "wrist_3_joint": -3.0840537646736568
        }
    },
    "waypoints": [
        {
            "positions": [
                -2.967991417825858,
                -0.9740617694225068,
                1.7527959577737207,
                -0.759517768980727,
                1.7443932448377408,
                -3.0840537646736568
            ]
        },
        {
            "positions": [
                -2.942346281126832,
                -0.940716748010811,
                1.6508447537073871,
                -0.6878654793134679,
                1.613459096460878,
                -3.0921647442983162
            ]
        },
        {
            "positions": [
                -2.916701144427806,
                -0.9073717265991151,
                1.5488935496410536,
                -0.6162131896462087,
                1.4825249480840148,
                -3.1002757239229757
            ]
        },
        {
            "positions": [
                -2.89105600772878,
                -0.8740267051874193,
                1.4469423455747201,
                -0.5445608999789496,
                1.351590799707152,
                -3.1083867035476347
            ]
        },
        {
            "positions": [
                -2.8654108710297543,
                -0.8406816837757234,
                1.3449911415083866,
                -0.4729086103116905,
                1.2206566513302888,
                -3.116497683172294
            ]
        },
        {
            "positions": [
                -2.8397657343307285,
                -0.8073366623640277,
                1.2430399374420533,
                -0.4012563206444314,
                1.0897225029534259,
                -3.1246086627969536
            ]
        },
        {
            "positions": [
                -2.8141205976317023,
                -0.7739916409523317,
                1.1410887333757196,
                -0.3296040309771723,
                0.9587883545765629,
                -3.132719642421613
            ]
        },
        {
            "positions": [
                -2.7884754609326765,
                -0.740646619540636,
                1.0391375293093863,
                -0.25795174130991316,
                0.8278542061997,
                -3.1408306220462725
            ]
        },
        {
            "positions": [
                -2.7628303242336507,
                -0.7073015981289401,
                0.9371863252430527,
                -0.18629945164265405,
                0.696920057822837,
                -3.1489416016709315
            ]
        },
        {
            "positions": [
                -2.7371851875346245,
                -0.6739565767172443,
                0.8352351211767193,
                -0.11464716197539493,
                0.5659859094459738,
                -3.157052581295591
            ]
        },
        {
            "positions": [
                -2.7115400508355987,
                -0.6406115553055485,
                0.7332839171103858,
                -0.04299487230813586,
                0.4350517610691108,
                -3.1651635609202504
            ]
        }
    ]
}