{
    "goal": {
        "global_pose": {
            "orientation": {
                "w": 0.005598929693374612,
                "x": 0.007748599140229565,
                "y": 0.7110244013736278,
                "z": -0.7031023480610252
            },
            "position": {
                "x": -0.8858502320852131,
                "y": -0.7141253447532654,
                "z": 0.3711530566215515
            }
        },
        "name": "move_to_auspresseinheit_C"
    },
    "id": "LBKPIECE_move_to_auspresseinheit_C_109",
    "joint_names": [
        "shoulder_pan_joint",
        "shoulder_lift_joint",
        "elbow_joint",
        "wrist_1_joint",
        "wrist_2_joint",
        "wrist_3_joint"
    ],
    "metrics": {
        "cart_traj_len": 1.0600433947840358,
        "distance_elbow_joint": 1.2346445249920652,
        "distance_shoulder_lift_joint": 0.3182101236619381,
        "distance_shoulder_pan_joint": 0.7211684162594274,
        "distance_wrist_1_joint": 0.9700433676663355,
        "distance_wrist_2_joint": 1.302666192539807,
        "distance_wrist_3_joint": 0.5276220432516956,
        "smoothness": 0.8198107062106029,
        "time": 0.700719607,
        "traj_len": 2.252632830350137,
        "weighted_distance": 2.8986735440681834
    },
    "planner": "LBKPIECE",
    "start": {
        "state": {
            "elbow_joint": 1.7527959577737207,
            "shoulder_lift_joint": -0.9740617694225068,
            "shoulder_pan_joint": -2.967991417825858,
            "wrist_1_joint": -0.759517768980727,
            "wrist_2_joint": 1.7443932448377408,
            "wrist_3_joint": -3.0840537646736568
        }
    },
    "waypoints": [
        {
            "positions": [
                -2.967991417825858,
                -0.9740617694225068,
                1.7527959577737207,
                -0.759517768980727,
                1.7443932448377408,
                -3.0840537646736568
            ]
        },
        {
            "positions": [
                -2.991240957296409,
                -0.9470204187824128,
                1.6418206346087363,
                -0.6784798398942635,
                1.6325267766323506,
                -3.1129576056405863
            ]
        },
        {
            "positions": [
                -3.01449049676696,
                -0.9199790681423188,
                1.5308453114437517,
                -0.5974419108078002,
                1.5206603084269603,
                -3.1418614466075154
            ]
        },
        {
            "positions": [
                -3.037740036237511,
                -0.8929377175022248,
                1.419869988278767,
                -0.5164039817213367,
                1.4087938402215703,
                -3.1707652875744445
            ]
        },
        {
            "positions": [
                -3.060989575708062,
                -0.8658963668621308,
                1.3088946651137827,
                -0.43536605263487327,
                1.29692737201618,
                -3.199669128541374
            ]
        },
        {
            "positions": [
                -3.084239115178613,
                -0.8388550162220368,
                1.1979193419487983,
                -0.35432812354840987,
                1.1850609038107898,
                -3.2285729695083036
            ]
        },
        {
            "positions": [
                -3.1074886546491642,
                -0.8118136655819429,
                1.0869440187838137,
                -0.27329019446194647,
                1.0731944356053997,
                -3.2574768104752327
            ]
        },
        {
            "positions": [
                -3.130738194119715,
                -0.7847723149418488,
                0.9759686956188293,
                -0.192252265375483,
                0.9613279674000096,
                -3.286380651442162
            ]
        },
        {
            "positions": [
                -3.153987733590266,
                -0.7577309643017549,
                0.8649933724538448,
                -0.11121433628901956,
                0.8494614991946192,
                -3.3152844924090914
            ]
        },
        {
            "positions": [
                -3.177237273060817,
                -0.7306896136616609,
                0.7540180492888603,
                -0.03017640720255621,
                0.7375950309892292,
                -3.344188333376021
            ]
        },
        {
            "positions": [
                -3.200486812531368,
                -0.7036482630215669,
                0.6430427261238758,
                0.050861521883907246,
                0.6257285627838389,
                -3.37309217434295
            ]
        },
        {
            "positions": [
                -3.0783185571428886,
                -0.6916991087063173,
                0.6742655494594308,
                0.010945502683481927,
                0.5797281851623627,
                -3.3134462659473494
            ]
        },
        {
            "positions": [
                -2.9561503017544095,
                -0.6797499543910678,
                0.7054883727949859,
                -0.028970516516943393,
                0.5337278075408864,
                -3.253800357551749
            ]
        },
        {
            "positions": [
                -2.8339820463659304,
                -0.6678008000758182,
                0.736711196130541,
                -0.06888653571736872,
                0.48772742991941015,
                -3.1941544491561484
            ]
        },
        {
            "positions": [
                -2.711813790977451,
                -0.6558516457605686,
                0.7679340194660961,
                -0.10880255491779403,
                0.4417270522979339,
                -3.1345085407605477
            ]
        }
    ]
}