{
    "goal": {
        "global_pose": {
            "orientation": {
                "w": -0.00223480608172531,
                "x": 0.0024358444001904467,
                "y": 0.7094548369677653,
                "z": -0.704743149386269
            },
            "position": {
                "x": -0.37947507619857795,
                "y": -0.6371506643295288,
                "z": 0.19426114857196808
            }
        },
        "name": "move_to_magneteinheit_C"
    },
    "id": "LBKPIECE_move_to_magneteinheit_C_10",
    "joint_names": [
        "shoulder_pan_joint",
        "shoulder_lift_joint",
        "elbow_joint",
        "wrist_1_joint",
        "wrist_2_joint",
        "wrist_3_joint"
    ],
    "metrics": {
        "cart_traj_len": 2.0617540725960475,
        "distance_elbow_joint": 2.3038136614494364,
        "distance_shoulder_lift_joint": 1.5272869643559417,
        "distance_shoulder_pan_joint": 1.1206363799754027,
        "distance_wrist_1_joint": 4.061235859359002,
        "distance_wrist_2_joint": 3.959837907893574,
        "distance_wrist_3_joint": 12.131742021053967,
        "smoothness": 0.47129213650867097,
        "time": 0.580903134,
        "traj_len": 5.010444370920342,
        "weighted_distance": 7.57556008513218
    },
    "planner": "LBKPIECE",
    "start": {
        "state": {
            "elbow_joint": 1.9565354010623817,
            "shoulder_lift_joint": -1.4165861575791021,
            "shoulder_pan_joint": -1.6717766225146293,
            "wrist_1_joint": -0.5286633292919765,
            "wrist_2_joint": 1.472756589071564,
            "wrist_3_joint": -3.1238370188695823
        }
    },
    "waypoints": [
        {
            "positions": [
                -1.6717766225146293,
                -1.4165861575791021,
                1.9565354010623817,
                -0.5286633292919765,
                1.472756589071564,
                -3.1238370188695823
            ]
        },
        {
            "positions": [
                -1.6943786622872616,
                -1.5285884774699918,
                2.0200665255459698,
                -0.41879422841710234,
                1.477023071842819,
                -3.071432926405474
            ]
        },
        {
            "positions": [
                -1.716980702059894,
                -1.6405907973608818,
                2.083597650029558,
                -0.3089251275422282,
                1.4812895546140739,
                -3.0190288339413653
            ]
        },
        {
            "positions": [
                -1.739582741832526,
                -1.7525931172517715,
                2.147128774513146,
                -0.19905602666735406,
                1.485556037385329,
                -2.9666247414772564
            ]
        },
        {
            "positions": [
                -1.7621847816051583,
                -1.8645954371426612,
                2.210659898996734,
                -0.08918692579247989,
                1.4898225201565838,
                -2.914220649013148
            ]
        },
        {
            "positions": [
                -1.7847868213777907,
                -1.976597757033551,
                2.274191023480322,
                0.020682175082394227,
                1.4940890029278389,
                -2.8618165565490394
            ]
        },
        {
            "positions": [
                -1.8009781501684907,
                -1.9580083509236654,
                2.23935663965982,
                -0.051543358913303736,
                1.4219461844367174,
                -2.680710274570955
            ]
        },
        {
            "positions": [
                -1.8171694789591908,
                -1.93941894481378,
                2.204522255839318,
                -0.1237688929090017,
                1.349803365945596,
                -2.49960399259287
            ]
        },
        {
            "positions": [
                -1.8333608077498909,
                -1.9208295387038943,
                2.169687872018816,
                -0.1959944269046997,
                1.2776605474544742,
                -2.318497710614785
            ]
        },
        {
            "positions": [
                -1.8495521365405907,
                -1.9022401325940088,
                2.134853488198314,
                -0.2682199609003976,
                1.2055177289633527,
                -2.1373914286367004
            ]
        },
        {
            "positions": [
                -1.8657434653312908,
                -1.8836507264841233,
                2.100019104377812,
                -0.3404454948960956,
                1.1333749104722313,
                -1.9562851466586157
            ]
        },
        {
            "positions": [
                -1.8819347941219908,
                -1.8650613203742379,
                2.0651847205573093,
                -0.41267102889179363,
                1.0612320919811098,
                -1.7751788646805309
            ]
        },
        {
            "positions": [
                -1.898126122912691,
                -1.8464719142643522,
                2.030350336736807,
                -0.4848965628874916,
                0.9890892734899883,
                -1.5940725827024462
            ]
        },
        {
            "positions": [
                -1.914317451703391,
                -1.8278825081544667,
                1.9955159529163051,
                -0.5571220968831895,
                0.9169464549988668,
                -1.4129663007243616
            ]
        },
        {
            "positions": [
                -1.930508780494091,
                -1.8092931020445813,
                1.960681569095803,
                -0.6293476308788875,
                0.8448036365077454,
                -1.231860018746277
            ]
        },
        {
            "positions": [
                -1.946700109284791,
                -1.7907036959346958,
                1.925847185275301,
                -0.7015731648745854,
                0.7726608180166239,
                -1.050753736768192
            ]
        },
        {
            "positions": [
                -1.962891438075491,
                -1.7721142898248101,
                1.8910128014547989,
                -0.7737986988702834,
                0.7005179995255024,
                -0.8696474547901074
            ]
        },
        {
            "positions": [
                -1.979082766866191,
                -1.7535248837149247,
                1.8561784176342968,
                -0.8460242328659815,
                0.6283751810343807,
                -0.6885411728120223
            ]
        },
        {
            "positions": [
                -1.995274095656891,
                -1.7349354776050392,
                1.8213440338137945,
                -0.9182497668616794,
                0.5562323625432593,
                -0.5074348908339377
            ]
        },
        {
            "positions": [
                -2.011465424447591,
                -1.7163460714951537,
                1.7865096499932924,
                -0.9904753008573774,
                0.4840895440521378,
                -0.326328608855853
            ]
        },
        {
            "positions": [
                -2.027656753238291,
                -1.6977566653852683,
                1.7516752661727903,
                -1.0627008348530753,
                0.4119467255610163,
                -0.14522232687776837
            ]
        },
        {
            "positions": [
                -2.0438480820289913,
                -1.6791672592753826,
                1.7168408823522883,
                -1.1349263688487732,
                0.33980390706989483,
                0.03588395510031628
            ]
        },
        {
            "positions": [
                -2.0600394108196913,
                -1.660577853165497,
                1.682006498531786,
                -1.2071519028444713,
                0.26766108857877335,
                0.21699023707840093
            ]
        },
        {
            "positions": [
                -2.0762307396103914,
                -1.6419884470556116,
                1.6471721147112839,
                -1.2793774368401691,
                0.19551827008765188,
                0.3980965190564856
            ]
        },
        {
            "positions": [
                -2.0924220684010915,
                -1.6233990409457262,
                1.6123377308907818,
                -1.3516029708358672,
                0.1233754515965304,
                0.5792028010345702
            ]
        },
        {
            "positions": [
                -2.1086133971917915,
                -1.6048096348358407,
                1.5775033470702797,
                -1.423828504831565,
                0.05123263310540893,
                0.7603090830126553
            ]
        },
        {
            "positions": [
                -2.124804725982491,
                -1.586220228725955,
                1.5426689632497776,
                -1.496054038827263,
                -0.020910185385712543,
                0.94141536499074
            ]
        },
        {
            "positions": [
                -2.1409960547731917,
                -1.5676308226160696,
                1.5078345794292756,
                -1.568279572822961,
                -0.09305300387683402,
                1.1225216469688246
            ]
        },
        {
            "positions": [
                -2.1571873835638913,
                -1.549041416506184,
                1.4730001956087733,
                -1.6405051068186591,
                -0.16519582236795594,
                1.3036279289469097
            ]
        },
        {
            "positions": [
                -2.173378712354592,
                -1.5304520103962984,
                1.4381658117882712,
                -1.7127306408143572,
                -0.2373386408590774,
                1.4847342109249948
            ]
        },
        {
            "positions": [
                -2.1895700411452914,
                -1.511862604286413,
                1.403331427967769,
                -1.784956174810055,
                -0.3094814593501989,
                1.665840492903079
            ]
        },
        {
            "positions": [
                -2.2057613699359915,
                -1.4932731981765275,
                1.3684970441472668,
                -1.857181708805753,
                -0.38162427784132036,
                1.846946774881164
            ]
        },
        {
            "positions": [
                -2.2219526987266915,
                -1.4746837920666418,
                1.3336626603267647,
                -1.929407242801451,
                -0.45376709633244183,
                2.0280530568592483
            ]
        },
        {
            "positions": [
                -2.2381440275173916,
                -1.4560943859567566,
                1.2988282765062626,
                -2.001632776797149,
                -0.5259099148235633,
                2.2091593388373334
            ]
        },
        {
            "positions": [
                -2.2543353563080917,
                -1.4375049798468709,
                1.2639938926857606,
                -2.073858310792847,
                -0.5980527333146848,
                2.3902656208154176
            ]
        },
        {
            "positions": [
                -2.2705266850987917,
                -1.4189155737369854,
                1.2291595088652585,
                -2.146083844788545,
                -0.6701955518058061,
                2.571371902793503
            ]
        },
        {
            "positions": [
                -2.331751737880702,
                -1.4277249933541296,
                1.253046370166094,
                -2.071899678977535,
                -0.7614276120868606,
                2.694596434127926
            ]
        },
        {
            "positions": [
                -2.3929767906626127,
                -1.436534412971274,
                1.2769332314669297,
                -1.9977155131665243,
                -0.8526596723679152,
                2.8178209654623485
            ]
        },
        {
            "positions": [
                -2.4964865541632384,
                -1.4664742702295237,
                1.3770427636360132,
                -2.0111337018700963,
                -0.8693515027174072,
                2.8788642540771994
            ]
        },
        {
            "positions": [
                -2.599996317663864,
                -1.4964141274877734,
                1.4771522958050967,
                -2.024551890573668,
                -0.8860433330668992,
                2.9399075426920507
            ]
        },
        {
            "positions": [
                -2.6032950285351113,
                -1.4909416995958684,
                1.5365528482737814,
                -1.9699227910558483,
                -0.7850206601472061,
                2.7761164807758028
            ]
        },
        {
            "positions": [
                -2.6065937394063585,
                -1.4854692717039633,
                1.595953400742466,
                -1.9152936915380285,
                -0.6839979872275128,
                2.612325418859555
            ]
        },
        {
            "positions": [
                -2.6098924502776057,
                -1.4799968438120583,
                1.6553539532111508,
                -1.8606645920202087,
                -0.5829753143078198,
                2.448534356943307
            ]
        },
        {
            "positions": [
                -2.613191161148853,
                -1.4745244159201534,
                1.7147545056798355,
                -1.8060354925023892,
                -0.48195264138812655,
                2.284743295027059
            ]
        },
        {
            "positions": [
                -2.6164898720201,
                -1.4690519880282484,
                1.7741550581485201,
                -1.7514063929845696,
                -0.3809299684684334,
                2.120952233110811
            ]
        },
        {
            "positions": [
                -2.6197885828913474,
                -1.4635795601363433,
                1.8335556106172048,
                -1.6967772934667498,
                -0.2799072955487403,
                1.9571611711945631
            ]
        },
        {
            "positions": [
                -2.6230872937625946,
                -1.4581071322444383,
                1.8929561630858895,
                -1.64214819394893,
                -0.17888462262904714,
                1.7933701092783152
            ]
        },
        {
            "positions": [
                -2.626386004633842,
                -1.4526347043525334,
                1.9523567155545742,
                -1.5875190944311104,
                -0.0778619497093539,
                1.629579047362067
            ]
        },
        {
            "positions": [
                -2.629684715505089,
                -1.4471622764606282,
                2.011757268023259,
                -1.5328899949132908,
                0.02316072321033924,
                1.4657879854458191
            ]
        },
        {
            "positions": [
                -2.6329834263763363,
                -1.4416898485687233,
                2.0711578204919436,
                -1.478260895395471,
                0.12418339613003249,
                1.3019969235295712
            ]
        },
        {
            "positions": [
                -2.6242407979798426,
                -1.4255543065849203,
                2.0729167899030894,
                -1.4380911455208325,
                0.16390061766635583,
                1.0378152859049665
            ]
        },
        {
            "positions": [
                -2.6154981695833492,
                -1.4094187646011171,
                2.0746757593142355,
                -1.3979213956461942,
                0.20361783920267915,
                0.7736336482803616
            ]
        },
        {
            "positions": [
                -2.606755541186856,
                -1.3932832226173142,
                2.0764347287253813,
                -1.3577516457715557,
                0.2433350607390025,
                0.5094520106557567
            ]
        },
        {
            "positions": [
                -2.598012912790362,
                -1.3771476806335112,
                2.0781936981365274,
                -1.3175818958969172,
                0.2830522822753258,
                0.24527037303115207
            ]
        },
        {
            "positions": [
                -2.5892702843938684,
                -1.3610121386497083,
                2.079952667547673,
                -1.277412146022279,
                0.32276950381164915,
                -0.018911264593453048
            ]
        },
        {
            "positions": [
                -2.580527655997375,
                -1.3448765966659053,
                2.0817116369588193,
                -1.2372423961476404,
                0.3624867253479725,
                -0.2830929022180577
            ]
        },
        {
            "positions": [
                -2.5717850276008813,
                -1.3287410546821021,
                2.083470606369965,
                -1.197072646273002,
                0.40220394688429584,
                -0.5472745398426626
            ]
        },
        {
            "positions": [
                -2.563042399204388,
                -1.3126055126982992,
                2.085229575781111,
                -1.1569028963983636,
                0.4419211684206191,
                -0.8114561774672671
            ]
        },
        {
            "positions": [
                -2.5542997708078943,
                -1.2964699707144962,
                2.086988545192257,
                -1.1167331465237251,
                0.4816383899569425,
                -1.0756378150918724
            ]
        },
        {
            "positions": [
                -2.545557142411401,
                -1.280334428730693,
                2.0887475146034027,
                -1.0765633966490866,
                0.5213556114932658,
                -1.3398194527164773
            ]
        },
        {
            "positions": [
                -2.5368145140149077,
                -1.26419888674689,
                2.090506484014549,
                -1.0363936467744483,
                0.5610728330295891,
                -1.6040010903410817
            ]
        },
        {
            "positions": [
                -2.528071885618414,
                -1.2480633447630871,
                2.0922654534256946,
                -0.9962238968998098,
                0.6007900545659125,
                -1.8681827279656866
            ]
        },
        {
            "positions": [
                -2.5171682785472593,
                -1.2313145757371964,
                2.0766613374544955,
                -0.967905570417676,
                0.615098008647862,
                -2.120164165732607
            ]
        },
        {
            "positions": [
                -2.5062646714761048,
                -1.2145658067113059,
                2.061057221483296,
                -0.9395872439355422,
                0.6294059627298115,
                -2.372145603499528
            ]
        },
        {
            "positions": [
                -2.4953610644049498,
                -1.1978170376854151,
                2.045453105512097,
                -0.9112689174534084,
                0.6437139168117612,
                -2.6241270412664486
            ]
        },
        {
            "positions": [
                -2.484457457333795,
                -1.1810682686595246,
                2.0298489895408975,
                -0.8829505909712746,
                0.6580218708937107,
                -2.8761084790333693
            ]
        },
        {
            "positions": [
                -2.4735538502626406,
                -1.164319499633634,
                2.0142448735696985,
                -0.8546322644891408,
                0.6723298249756602,
                -3.12808991680029
            ]
        }
    ]
}