{
    "goal": {
        "global_pose": {
            "orientation": {
                "w": 0.5084816217422485,
                "x": -0.49083608388900757,
                "y": 0.5182115435600281,
                "z": -0.4816462993621826
            },
            "position": {
                "x": 0.5540239810943604,
                "y": 0.030875300988554955,
                "z": 0.16403168439865112
            }
        },
        "name": "move_to_storage_A"
    },
    "id": "LBKPIECE_move_to_storage_A_138",
    "joint_names": [
        "shoulder_pan_joint",
        "shoulder_lift_joint",
        "elbow_joint",
        "wrist_1_joint",
        "wrist_2_joint",
        "wrist_3_joint"
    ],
    "metrics": {
        "cart_traj_len": 0.35233685342767107,
        "distance_elbow_joint": 0.44858177150807443,
        "distance_shoulder_lift_joint": 0.23406628283123565,
        "distance_shoulder_pan_joint": 0.4615258324719771,
        "distance_wrist_1_joint": 0.24001891370032868,
        "distance_wrist_2_joint": 1.0934234005920536,
        "distance_wrist_3_joint": 0.09387451608630126,
        "smoothness": 8.881784232165597e-16,
        "time": 0.669689037,
        "traj_len": 1.6035868287030703,
        "weighted_distance": 2.023037830505143
    },
    "planner": "LBKPIECE",
    "start": {
        "state": {
            "elbow_joint": 1.971548259319323,
            "shoulder_lift_joint": -1.1394851275133948,
            "shoulder_pan_joint": 0.1228115487234821,
            "wrist_1_joint": -0.7804723859257726,
            "wrist_2_joint": 0.12958671773740124,
            "wrist_3_joint": -3.192489227718131
        }
    },
    "waypoints": [
        {
            "positions": [
                0.1228115487234821,
                -1.1394851275133948,
                1.971548259319323,
                -0.7804723859257726,
                0.12958671773740124,
                -3.192489227718131
            ]
        },
        {
            "positions": [
                0.05687928694177109,
                -1.1729231679178571,
                2.0356313695347623,
                -0.8147608021686767,
                0.28579006067912316,
                -3.179078582562945
            ]
        },
        {
            "positions": [
                -0.009052974839939915,
                -1.2063612083223192,
                2.0997144797502014,
                -0.8490492184115808,
                0.44199340362084505,
                -3.1656679374077594
            ]
        },
        {
            "positions": [
                -0.07498523662165094,
                -1.2397992487267815,
                2.1637975899656405,
                -0.8833376346544849,
                0.598196746562567,
                -3.1522572922525733
            ]
        },
        {
            "positions": [
                -0.14091749840336193,
                -1.2732372891312438,
                2.2278807001810796,
                -0.917626050897389,
                0.7544000895042889,
                -3.1388466470973877
            ]
        },
        {
            "positions": [
                -0.20684976018507295,
                -1.306675329535706,
                2.291963810396519,
                -0.951914467140293,
                0.9106034324460109,
                -3.1254360019422016
            ]
        },
        {
            "positions": [
                -0.27278202196678397,
                -1.3401133699401682,
                2.3560469206119583,
                -0.9862028833831972,
                1.0668067753877328,
                -3.112025356787016
            ]
        },
        {
            "positions": [
                -0.338714283748495,
                -1.3735514103446305,
                2.4201300308273974,
                -1.0204912996261013,
                1.2230101183294548,
                -3.09861471163183
            ]
        }
    ]
}{
    "goal": {
        "global_pose": {
            "orientation": {
                "w": 0.5084816217422485,
                "x": -0.49083608388900757,
                "y": 0.5182115435600281,
                "z": -0.4816462993621826
            },
            "position": {
                "x": 0.5540239810943604,
                "y": 0.030875300988554955,
                "z": 0.16403168439865112
            }
        },
        "name": "move_to_storage_A"
    },
    "id": "LBKPIECE_move_to_storage_A_138",
    "joint_names": [
        "shoulder_pan_joint",
        "shoulder_lift_joint",
        "elbow_joint",
        "wrist_1_joint",
        "wrist_2_joint",
        "wrist_3_joint"
    ],
    "metrics": {
        "cart_traj_len": 0.35227123742433364,
        "distance_elbow_joint": 0.4529068651070527,
        "distance_shoulder_lift_joint": 0.23337671363463675,
        "distance_shoulder_pan_joint": 0.4613249714800134,
        "distance_wrist_1_joint": 0.2590755637266131,
        "distance_wrist_2_joint": 1.0939200056106089,
        "distance_wrist_3_joint": 0.09432121924171888,
        "smoothness": 1.3322676295501878e-15,
        "time": 0.517110086,
        "traj_len": 1.610877195443726,
        "weighted_distance": 2.0338543081109086
    },
    "planner": "LBKPIECE",
    "start": {
        "state": {
            "elbow_joint": 1.97154746011099,
            "shoulder_lift_joint": -1.13948474672311,
            "shoulder_pan_joint": 0.12281154466712228,
            "wrist_1_joint": -0.7804688027058302,
            "wrist_2_joint": 0.12958655903071145,
            "wrist_3_joint": 3.0906928834467795
        }
    },
    "waypoints": [
        {
            "positions": [
                0.12281154466712228,
                -1.13948474672311,
                1.97154746011099,
                -0.7804688027058302,
                0.12958655903071145,
                3.0906928834467795
            ]
        },
        {
            "positions": [
                0.05690797731283466,
                -1.1728242772423438,
                2.036248440840569,
                -0.8174795975239177,
                0.2858608455465127,
                3.1041673433384536
            ]
        },
        {
            "positions": [
                -0.008995590041452964,
                -1.2061638077615775,
                2.1009494215701476,
                -0.8544903923420053,
                0.4421351320623139,
                3.1176418032301276
            ]
        },
        {
            "positions": [
                -0.07489915739574059,
                -1.2395033382808114,
                2.1656504022997267,
                -0.891501187160093,
                0.5984094185781152,
                3.1311162631218017
            ]
        },
        {
            "positions": [
                -0.1408027247500282,
                -1.2728428688000453,
                2.230351383029306,
                -0.9285119819781805,
                0.7546837050939165,
                3.144590723013476
            ]
        },
        {
            "positions": [
                -0.20670629210431585,
                -1.3061823993192792,
                2.295052363758885,
                -0.9655227767962682,
                0.9109579916097178,
                3.1580651829051503
            ]
        },
        {
            "positions": [
                -0.27260985945860344,
                -1.3395219298385128,
                2.3597533444884635,
                -1.0025335716143557,
                1.067232278125519,
                3.1715396427968243
            ]
        },
        {
            "positions": [
                -0.3385134268128911,
                -1.3728614603577467,
                2.4244543252180426,
                -1.0395443664324433,
                1.2235065646413203,
                3.1850141026884984
            ]
        }
    ]
}{
    "goal": {
        "global_pose": {
            "orientation": {
                "w": 0.5084816217422485,
                "x": -0.49083608388900757,
                "y": 0.5182115435600281,
                "z": -0.4816462993621826
            },
            "position": {
                "x": 0.5540239810943604,
                "y": 0.030875300988554955,
                "z": 0.16403168439865112
            }
        },
        "name": "move_to_storage_A"
    },
    "id": "LBKPIECE_move_to_storage_A_138",
    "joint_names": [
        "shoulder_pan_joint",
        "shoulder_lift_joint",
        "elbow_joint",
        "wrist_1_joint",
        "wrist_2_joint",
        "wrist_3_joint"
    ],
    "metrics": {
        "cart_traj_len": 0.3527744933639373,
        "distance_elbow_joint": 0.448333817802713,
        "distance_shoulder_lift_joint": 0.23413643988835142,
        "distance_shoulder_pan_joint": 0.4624696337979619,
        "distance_wrist_1_joint": 0.2420411445300894,
        "distance_wrist_2_joint": 1.092316882834175,
        "distance_wrist_3_joint": 0.08734427754534302,
        "smoothness": 0.0,
        "time": 0.519290024,
        "traj_len": 1.6020743417203316,
        "weighted_distance": 2.0188335193506135
    },
    "planner": "LBKPIECE",
    "start": {
        "state": {
            "elbow_joint": 1.9715472970024885,
            "shoulder_lift_joint": -1.1394870060712896,
            "shoulder_pan_joint": 0.12281152778156021,
            "wrist_1_joint": -0.780463741449964,
            "wrist_2_joint": 0.12958659822042276,
            "wrist_3_joint": 3.090690232415272
        }
    },
    "waypoints": [
        {
            "positions": [
                0.12281152778156021,
                -1.1394870060712896,
                1.9715472970024885,
                -0.780463741449964,
                0.12958659822042276,
                3.090690232415272
            ]
        },
        {
            "positions": [
                0.05674443723899422,
                -1.1729350689124827,
                2.035594985260019,
                -0.8150410478114053,
                0.28563186719673345,
                3.103167986350321
            ]
        },
        {
            "positions": [
                -0.009322653303571765,
                -1.2063831317536757,
                2.0996426735175495,
                -0.8496183541728467,
                0.44167713617304416,
                3.1156457402853697
            ]
        },
        {
            "positions": [
                -0.07538974384613775,
                -1.2398311945948688,
                2.16369036177508,
                -0.884195660534288,
                0.5977224051493548,
                3.128123494220419
            ]
        },
        {
            "positions": [
                -0.14145683438870374,
                -1.2732792574360619,
                2.22773805003261,
                -0.9187729668957294,
                0.7537676741256655,
                3.140601248155468
            ]
        },
        {
            "positions": [
                -0.20752392493126973,
                -1.306727320277255,
                2.2917857382901405,
                -0.9533502732571707,
                0.9098129431019762,
                3.153079002090517
            ]
        },
        {
            "positions": [
                -0.2735910154738357,
                -1.340175383118448,
                2.355833426547671,
                -0.987927579618612,
                1.065858212078287,
                3.1655567560255657
            ]
        },
        {
            "positions": [
                -0.3396581060164017,
                -1.373623445959641,
                2.4198811148052015,
                -1.0225048859800534,
                1.2219034810545977,
                3.178034509960615
            ]
        }
    ]
}