{
    "goal": {
        "global_pose": {
            "orientation": {
                "w": 0.7031023502349854,
                "x": -0.7110244035720825,
                "y": 0.007748599164187908,
                "z": 0.005598929710686207
            },
            "position": {
                "x": 0.11585023208521307,
                "y": 0.44412534475326537,
                "z": 0.3711530566215515
            }
        },
        "name": "move_to_auspresseinheit_A"
    },
    "id": "LBKPIECE_move_to_auspresseinheit_A_147",
    "joint_names": [
        "shoulder_pan_joint",
        "shoulder_lift_joint",
        "elbow_joint",
        "wrist_1_joint",
        "wrist_2_joint",
        "wrist_3_joint"
    ],
    "metrics": {
        "cart_traj_len": 0.7317472669255579,
        "distance_elbow_joint": 0.8349646935840203,
        "distance_shoulder_lift_joint": 0.5344754426084382,
        "distance_shoulder_pan_joint": 1.0428183460145437,
        "distance_wrist_1_joint": 2.3353586876082773,
        "distance_wrist_2_joint": 2.4452972840925966,
        "distance_wrist_3_joint": 5.096162256522355,
        "smoothness": 0.8811923485364251,
        "time": 0.42018193099999995,
        "traj_len": 3.5055779424269313,
        "weighted_distance": 5.221307996582449
    },
    "planner": "LBKPIECE",
    "start": {
        "state": {
            "elbow_joint": 2.4225746658250005,
            "shoulder_lift_joint": -1.3736534386056498,
            "shoulder_pan_joint": -0.3378633547517467,
            "wrist_1_joint": -1.0288598680537169,
            "wrist_2_joint": 1.233022673432363,
            "wrist_3_joint": -3.0940220416140027
        }
    },
    "waypoints": [
        {
            "positions": [
                -0.3378633547517467,
                -1.3736534386056498,
                2.4225746658250005,
                -1.0288598680537169,
                1.233022673432363,
                -3.0940220416140027
            ]
        },
        {
            "positions": [
                -0.2851082417252834,
                -1.4009522495494322,
                2.4477538636646825,
                -1.0845316303001884,
                1.2928521987906583,
                -2.9356084862724208
            ]
        },
        {
            "positions": [
                -0.23235312869882002,
                -1.4282510604932146,
                2.4729330615043645,
                -1.14020339254666,
                1.3526817241489535,
                -2.777194930930839
            ]
        },
        {
            "positions": [
                -0.17959801567235667,
                -1.455549871436997,
                2.498112259344047,
                -1.1958751547931314,
                1.412511249507249,
                -2.6187813755892573
            ]
        },
        {
            "positions": [
                -0.12684290264589332,
                -1.4828486823807792,
                2.523291457183729,
                -1.251546917039603,
                1.4723407748655442,
                -2.4603678202476753
            ]
        },
        {
            "positions": [
                -0.07408778961942997,
                -1.5101474933245616,
                2.548470655023411,
                -1.3072186792860745,
                1.5321703002238394,
                -2.3019542649060933
            ]
        },
        {
            "positions": [
                -0.021332676592966615,
                -1.537446304268344,
                2.5736498528630936,
                -1.362890441532546,
                1.5919998255821346,
                -2.143540709564512
            ]
        },
        {
            "positions": [
                0.03142243643349674,
                -1.5647451152121263,
                2.5988290507027756,
                -1.4185622037790175,
                1.6518293509404298,
                -1.9851271542229298
            ]
        },
        {
            "positions": [
                0.08417754945996009,
                -1.5920439261559087,
                2.6240082485424576,
                -1.474233966025489,
                1.711658876298725,
                -1.8267135988813479
            ]
        },
        {
            "positions": [
                0.13693266248642344,
                -1.6193427370996911,
                2.6491874463821397,
                -1.5299057282719606,
                1.7714884016570203,
                -1.668300043539766
            ]
        },
        {
            "positions": [
                0.1896877755128868,
                -1.6466415480434735,
                2.6743666442218217,
                -1.585577490518432,
                1.8313179270153157,
                -1.5098864881981842
            ]
        },
        {
            "positions": [
                0.2424428885393501,
                -1.673940358987256,
                2.699545842061504,
                -1.6412492527649036,
                1.891147452373611,
                -1.3514729328566024
            ]
        },
        {
            "positions": [
                0.2951980015658135,
                -1.7012391699310383,
                2.724725039901186,
                -1.6969210150113752,
                1.9509769777319061,
                -1.1930593775150204
            ]
        },
        {
            "positions": [
                0.3479531145922769,
                -1.7285379808748207,
                2.7499042377408682,
                -1.7525927772578467,
                2.0108065030902016,
                -1.0346458221734385
            ]
        },
        {
            "positions": [
                0.4007082276187402,
                -1.7558367918186029,
                2.7750834355805507,
                -1.8082645395043182,
                2.070636028448497,
                -0.876232266831857
            ]
        },
        {
            "positions": [
                0.4534633406452035,
                -1.7831356027623853,
                2.8002626334202327,
                -1.8639363017507897,
                2.130465553806792,
                -0.717818711490275
            ]
        },
        {
            "positions": [
                0.506218453671667,
                -1.8104344137061676,
                2.8254418312599148,
                -1.9196080639972612,
                2.1902950791650873,
                -0.559405156148693
            ]
        },
        {
            "positions": [
                0.5186394872711125,
                -1.8165403179254127,
                2.7984357357505956,
                -1.8293199082682154,
                2.097293524267595,
                -0.7195017418397583
            ]
        },
        {
            "positions": [
                0.5310605208705582,
                -1.8226462221446578,
                2.7714296402412764,
                -1.7390317525391696,
                2.004291969370103,
                -0.8795983275308237
            ]
        },
        {
            "positions": [
                0.5434815544700038,
                -1.8287521263639026,
                2.7444235447319576,
                -1.6487435968101238,
                1.911290414472611,
                -1.0396949132218891
            ]
        },
        {
            "positions": [
                0.5559025880694495,
                -1.8348580305831477,
                2.7174174492226384,
                -1.558455441081078,
                1.818288859575119,
                -1.1997914989129543
            ]
        },
        {
            "positions": [
                0.568323621668895,
                -1.8409639348023927,
                2.690411353713319,
                -1.4681672853520322,
                1.725287304677627,
                -1.3598880846040198
            ]
        },
        {
            "positions": [
                0.5807446552683407,
                -1.8470698390216378,
                2.663405258204,
                -1.3778791296229862,
                1.632285749780135,
                -1.5199846702950852
            ]
        },
        {
            "positions": [
                0.5931656888677863,
                -1.8531757432408829,
                2.6363991626946808,
                -1.2875909738939404,
                1.539284194882643,
                -1.6800812559861504
            ]
        },
        {
            "positions": [
                0.605586722467232,
                -1.859281647460128,
                2.609393067185362,
                -1.1973028181648946,
                1.446282639985151,
                -1.8401778416772159
            ]
        },
        {
            "positions": [
                0.6180077560666776,
                -1.8653875516793728,
                2.582386971676043,
                -1.1070146624358488,
                1.3532810850876589,
                -2.0002744273682813
            ]
        },
        {
            "positions": [
                0.6304287896661231,
                -1.8714934558986178,
                2.5553808761667236,
                -1.016726506706803,
                1.2602795301901668,
                -2.1603710130593465
            ]
        },
        {
            "positions": [
                0.6428498232655688,
                -1.8775993601178629,
                2.5283747806574044,
                -0.9264383509777573,
                1.1672779752926747,
                -2.3204675987504118
            ]
        },
        {
            "positions": [
                0.6552708568650144,
                -1.883705264337108,
                2.501368685148085,
                -0.8361501952487114,
                1.074276420395183,
                -2.4805641844414774
            ]
        },
        {
            "positions": [
                0.6676918904644601,
                -1.889811168556353,
                2.4743625896387664,
                -0.7458620395196656,
                0.9812748654976908,
                -2.6406607701325426
            ]
        },
        {
            "positions": [
                0.6801129240639057,
                -1.8959170727755978,
                2.4473564941294472,
                -0.6555738837906198,
                0.8882733106001988,
                -2.800757355823608
            ]
        },
        {
            "positions": [
                0.6925339576633514,
                -1.902022976994843,
                2.420350398620128,
                -0.565285728061574,
                0.7952717557027067,
                -2.9608539415146735
            ]
        },
        {
            "positions": [
                0.7049549912627969,
                -1.908128881214088,
                2.393344303110809,
                -0.47499757233252815,
                0.7022702008052146,
                -3.1209505272057387
            ]
        }
    ]
}