{
    "goal": {
        "global_pose": {
            "orientation": {
                "w": 0.7031023480610252,
                "x": -0.7110244013736278,
                "y": 0.0077485991402295624,
                "z": 0.005598929693374583
            },
            "position": {
                "x": -0.8841497679147869,
                "y": 0.44412534475326537,
                "z": 0.3711530566215515
            }
        },
        "name": "move_to_auspresseinheit_D"
    },
    "id": "LBKPIECE_move_to_auspresseinheit_D_66",
    "joint_names": [
        "shoulder_pan_joint",
        "shoulder_lift_joint",
        "elbow_joint",
        "wrist_1_joint",
        "wrist_2_joint",
        "wrist_3_joint"
    ],
    "metrics": {
        "cart_traj_len": 0.3431252592615501,
        "distance_elbow_joint": 0.6367510873488365,
        "distance_shoulder_lift_joint": 0.12050316799624516,
        "distance_shoulder_pan_joint": 0.13427817021982344,
        "distance_wrist_1_joint": 0.5292201187040542,
        "distance_wrist_2_joint": 1.4328527012371415,
        "distance_wrist_3_joint": 0.009064386535719393,
        "smoothness": 0.0,
        "time": 0.771107744,
        "traj_len": 1.6919425616851833,
        "weighted_distance": 2.2006524543994797
    },
    "planner": "LBKPIECE",
    "start": {
        "state": {
            "elbow_joint": -1.8275523626775212,
            "shoulder_lift_joint": -2.126789852344167,
            "shoulder_pan_joint": -0.03513704404078235,
            "wrist_1_joint": -2.347782403156801,
            "wrist_2_joint": -1.6058999987535132,
            "wrist_3_joint": -3.0880379163319196
        }
    },
    "waypoints": [
        {
            "positions": [
                -0.03513704404078235,
                -2.126789852344167,
                -1.8275523626775212,
                -2.347782403156801,
                -1.6058999987535132,
                -3.0880379163319196
            ]
        },
        {
            "positions": [
                -0.051921815318260275,
                -2.1418527483436973,
                -1.7479584767589167,
                -2.4139349179948075,
                -1.4267934110988705,
                -3.0891709646488845
            ]
        },
        {
            "positions": [
                -0.06870658659573821,
                -2.1569156443432282,
                -1.6683645908403122,
                -2.480087432832814,
                -1.2476868234442278,
                -3.0903040129658494
            ]
        },
        {
            "positions": [
                -0.08549135787321613,
                -2.1719785403427587,
                -1.5887707049217075,
                -2.5462399476708213,
                -1.068580235789585,
                -3.0914370612828144
            ]
        },
        {
            "positions": [
                -0.10227612915069406,
                -2.187041436342289,
                -1.509176819003103,
                -2.612392462508828,
                -0.8894736481349425,
                -3.0925701095997793
            ]
        },
        {
            "positions": [
                -0.119060900428172,
                -2.20210433234182,
                -1.4295829330844985,
                -2.6785449773468346,
                -0.7103670604802997,
                -3.093703157916744
            ]
        },
        {
            "positions": [
                -0.13584567170564993,
                -2.2171672283413506,
                -1.3499890471658937,
                -2.7446974921848417,
                -0.5312604728256571,
                -3.094836206233709
            ]
        },
        {
            "positions": [
                -0.15263044298312786,
                -2.2322301243408815,
                -1.2703951612472892,
                -2.8108500070228484,
                -0.3521538851710144,
                -3.095969254550674
            ]
        },
        {
            "positions": [
                -0.1694152142606058,
                -2.247293020340412,
                -1.1908012753286847,
                -2.877002521860855,
                -0.17304729751637163,
                -3.097102302867639
            ]
        }
    ]
}