{
    "goal": {
        "global_pose": {
            "orientation": {
                "w": 0.7047431468963623,
                "x": -0.7094548344612122,
                "y": 0.0024358443915843964,
                "z": -0.0022348060738295317
            },
            "position": {
                "x": 0.6094750761985779,
                "y": 0.3671506643295288,
                "z": 0.19426114857196808
            }
        },
        "name": "move_to_magneteinheit_A"
    },
    "id": "LBKPIECE_move_to_magneteinheit_A_116",
    "joint_names": [
        "shoulder_pan_joint",
        "shoulder_lift_joint",
        "elbow_joint",
        "wrist_1_joint",
        "wrist_2_joint",
        "wrist_3_joint"
    ],
    "metrics": {
        "cart_traj_len": 4.336244926824115,
        "distance_elbow_joint": 3.885123502735403,
        "distance_shoulder_lift_joint": 2.187107404380841,
        "distance_shoulder_pan_joint": 8.158891672569514,
        "distance_wrist_1_joint": 0.790694970465425,
        "distance_wrist_2_joint": 2.0026346111843627,
        "distance_wrist_3_joint": 3.414420503795321,
        "smoothness": 0.3599211135185675,
        "time": 0.555955198,
        "traj_len": 4.520937144567581,
        "weighted_distance": 5.482795204489339
    },
    "planner": "LBKPIECE",
    "start": {
        "state": {
            "elbow_joint": -1.9196185241190666,
            "shoulder_lift_joint": -1.2443396400964142,
            "shoulder_pan_joint": 2.6996025414629847,
            "wrist_1_joint": -1.5485510000780065,
            "wrist_2_joint": -1.5709468930060704,
            "wrist_3_joint": 0.4420197071253992
        }
    },
    "waypoints": [
        {
            "positions": [
                2.6996025414629847,
                -1.2443396400964142,
                -1.9196185241190666,
                -1.5485510000780065,
                -1.5709468930060704,
                0.4420197071253992
            ]
        },
        {
            "positions": [
                2.541724221312166,
                -1.2749102829870695,
                -1.8201745779907896,
                -1.5381973639556237,
                -1.5755346350947366,
                0.5307634935240492
            ]
        },
        {
            "positions": [
                2.3838459011613473,
                -1.305480925877725,
                -1.7207306318625126,
                -1.5278437278332408,
                -1.580122377183403,
                0.6195072799226992
            ]
        },
        {
            "positions": [
                2.2259675810105284,
                -1.33605156876838,
                -1.6212866857342356,
                -1.517490091710858,
                -1.5847101192720694,
                0.7082510663213492
            ]
        },
        {
            "positions": [
                2.0680892608597095,
                -1.3666222116590354,
                -1.5218427396059586,
                -1.5071364555884754,
                -1.5892978613607356,
                0.7969948527199991
            ]
        },
        {
            "positions": [
                1.910210940708891,
                -1.3971928545496908,
                -1.4223987934776816,
                -1.4967828194660926,
                -1.5938856034494018,
                0.8857386391186491
            ]
        },
        {
            "positions": [
                1.752332620558072,
                -1.4277634974403461,
                -1.3229548473494046,
                -1.4864291833437098,
                -1.5984733455380682,
                0.9744824255172991
            ]
        },
        {
            "positions": [
                1.5944543004072533,
                -1.4583341403310013,
                -1.2235109012211276,
                -1.476075547221327,
                -1.6030610876267346,
                1.063226211915949
            ]
        },
        {
            "positions": [
                1.4365759802564346,
                -1.4889047832216566,
                -1.1240669550928506,
                -1.4657219110989441,
                -1.6076488297154008,
                1.1519699983145992
            ]
        },
        {
            "positions": [
                1.2786976601056157,
                -1.519475426112312,
                -1.0246230089645736,
                -1.4553682749765613,
                -1.612236571804067,
                1.240713784713249
            ]
        },
        {
            "positions": [
                1.120819339954797,
                -1.5500460690029674,
                -0.9251790628362967,
                -1.4450146388541785,
                -1.6168243138927334,
                1.3294575711118992
            ]
        },
        {
            "positions": [
                0.9629410198039781,
                -1.5806167118936227,
                -0.8257351167080196,
                -1.4346610027317959,
                -1.6214120559813998,
                1.418201357510549
            ]
        },
        {
            "positions": [
                0.8050626996531594,
                -1.6111873547842779,
                -0.7262911705797426,
                -1.424307366609413,
                -1.625999798070066,
                1.5069451439091992
            ]
        },
        {
            "positions": [
                0.6471843795023409,
                -1.6417579976749332,
                -0.6268472244514658,
                -1.4139537304870302,
                -1.6305875401587322,
                1.595688930307849
            ]
        },
        {
            "positions": [
                0.48930605935152194,
                -1.6723286405655884,
                -0.5274032783231888,
                -1.4036000943646474,
                -1.6351752822473986,
                1.6844327167064992
            ]
        },
        {
            "positions": [
                0.331427739200703,
                -1.7028992834562438,
                -0.4279593321949118,
                -1.3932464582422646,
                -1.639763024336065,
                1.773176503105149
            ]
        },
        {
            "positions": [
                0.17354941904988452,
                -1.7334699263468991,
                -0.3285153860666348,
                -1.3828928221198817,
                -1.6443507664247312,
                1.8619202895037992
            ]
        },
        {
            "positions": [
                0.015671098899065594,
                -1.7640405692375545,
                -0.22907143993835777,
                -1.372539185997499,
                -1.6489385085133974,
                1.950664075902449
            ]
        },
        {
            "positions": [
                -0.14220722125175334,
                -1.7946112121282098,
                -0.12962749381008076,
                -1.3621855498751163,
                -1.6535262506020638,
                2.039407862301099
            ]
        },
        {
            "positions": [
                -0.3000855414025718,
                -1.8251818550188652,
                -0.030183547681803757,
                -1.3518319137527335,
                -1.6581139926907302,
                2.128151648699749
            ]
        },
        {
            "positions": [
                -0.45796386155339075,
                -1.8557524979095206,
                0.06926039844647325,
                -1.3414782776303507,
                -1.6627017347793964,
                2.216895435098399
            ]
        },
        {
            "positions": [
                -0.6158421817042097,
                -1.8863231408001757,
                0.16870434457475048,
                -1.3311246415079678,
                -1.6672894768680626,
                2.305639221497049
            ]
        },
        {
            "positions": [
                -0.7737205018550286,
                -1.916893783690831,
                0.2681482907030275,
                -1.320771005385585,
                -1.671877218956729,
                2.394383007895699
            ]
        },
        {
            "positions": [
                -0.9315988220058471,
                -1.9474644265814864,
                0.3675922368313045,
                -1.3104173692632022,
                -1.6764649610453954,
                2.4831267942943493
            ]
        },
        {
            "positions": [
                -1.089477142156666,
                -1.9780350694721416,
                0.4670361829595815,
                -1.3000637331408194,
                -1.6810527031340616,
                2.571870580692999
            ]
        },
        {
            "positions": [
                -1.247355462307485,
                -2.008605712362797,
                0.5664801290878585,
                -1.2897100970184368,
                -1.685640445222728,
                2.6606143670916493
            ]
        },
        {
            "positions": [
                -1.405233782458303,
                -2.0391763552534523,
                0.6659240752161351,
                -1.279356460896054,
                -1.6902281873113942,
                2.749358153490299
            ]
        },
        {
            "positions": [
                -1.563112102609122,
                -2.0697469981441077,
                0.7653680213444121,
                -1.269002824773671,
                -1.6948159294000604,
                2.838101939888949
            ]
        },
        {
            "positions": [
                -1.7209904227599409,
                -2.1003176410347626,
                0.8648119674726891,
                -1.2586491886512883,
                -1.6994036714887268,
                2.926845726287599
            ]
        },
        {
            "positions": [
                -1.8788687429107598,
                -2.130888283925418,
                0.9642559136009661,
                -1.2482955525289054,
                -1.703991413577393,
                3.015589512686249
            ]
        },
        {
            "positions": [
                -2.0367470630615787,
                -2.1614589268160733,
                1.063699859729243,
                -1.2379419164065228,
                -1.7085791556660594,
                3.104333299084899
            ]
        },
        {
            "positions": [
                -2.1946253832123968,
                -2.1920295697067287,
                1.16314380585752,
                -1.2275882802841398,
                -1.7131668977547259,
                3.193077085483549
            ]
        },
        {
            "positions": [
                -2.3525037033632157,
                -2.222600212597384,
                1.262587751985797,
                -1.2172346441617572,
                -1.717754639843392,
                3.281820871882199
            ]
        },
        {
            "positions": [
                -2.5103820235140346,
                -2.2531708554880394,
                1.362031698114074,
                -1.2068810080393744,
                -1.7223423819320582,
                3.370564658280849
            ]
        },
        {
            "positions": [
                -2.668260343664854,
                -2.283741498378695,
                1.461475644242351,
                -1.1965273719169915,
                -1.7269301240207247,
                3.459308444679499
            ]
        },
        {
            "positions": [
                -2.5132031888069832,
                -2.219980079150997,
                1.4894772739297948,
                -1.1721567417889687,
                -1.624338380677963,
                3.437245568777209
            ]
        },
        {
            "positions": [
                -2.3581460339491125,
                -2.156218659923299,
                1.5174789036172383,
                -1.147786111660946,
                -1.5217466373352015,
                3.415182692874919
            ]
        },
        {
            "positions": [
                -2.2030888790912417,
                -2.0924572406956012,
                1.545480533304682,
                -1.1234154815329231,
                -1.4191548939924399,
                3.3931198169726287
            ]
        },
        {
            "positions": [
                -2.048031724233371,
                -2.0286958214679034,
                1.5734821629921256,
                -1.0990448514049005,
                -1.3165631506496784,
                3.371056941070339
            ]
        },
        {
            "positions": [
                -1.8929745693754998,
                -1.9649344022402058,
                1.6014837926795693,
                -1.0746742212768776,
                -1.2139714073069166,
                3.348994065168049
            ]
        },
        {
            "positions": [
                -1.737917414517629,
                -1.9011729830125081,
                1.6294854223670128,
                -1.0503035911488547,
                -1.111379663964155,
                3.3269311892657587
            ]
        },
        {
            "positions": [
                -1.5828602596597583,
                -1.8374115637848103,
                1.6574870520544565,
                -1.025932961020832,
                -1.0087879206213937,
                3.3048683133634684
            ]
        },
        {
            "positions": [
                -1.4278031048018875,
                -1.7736501445571125,
                1.6854886817419001,
                -1.0015623308928092,
                -0.906196177278632,
                3.2828054374611786
            ]
        },
        {
            "positions": [
                -1.2727459499440166,
                -1.7098887253294146,
                1.7134903114293438,
                -0.9771917007647866,
                -0.8036044339358703,
                3.2607425615588888
            ]
        },
        {
            "positions": [
                -1.1176887950861456,
                -1.6461273061017168,
                1.7414919411167873,
                -0.9528210706367637,
                -0.7010126905931087,
                3.2386796856565985
            ]
        },
        {
            "positions": [
                -0.9626316402282749,
                -1.582365886874019,
                1.769493570804231,
                -0.9284504405087409,
                -0.598420947250347,
                3.216616809754308
            ]
        },
        {
            "positions": [
                -0.8075744853704041,
                -1.5186044676463213,
                1.7974952004916744,
                -0.9040798103807182,
                -0.49582920390758556,
                3.1945539338520184
            ]
        },
        {
            "positions": [
                -0.6525173305125334,
                -1.4548430484186234,
                1.8254968301791181,
                -0.8797091802526954,
                -0.3932374605648239,
                3.1724910579497285
            ]
        },
        {
            "positions": [
                -0.4974601756546626,
                -1.3910816291909256,
                1.8534984598665618,
                -0.8553385501246726,
                -0.29064571722206245,
                3.1504281820474382
            ]
        },
        {
            "positions": [
                -0.3424030207967914,
                -1.3273202099632277,
                1.8815000895540055,
                -0.8309679199966498,
                -0.18805397387930078,
                3.128365306145148
            ]
        },
        {
            "positions": [
                -0.1873458659389211,
                -1.2635587907355301,
                1.9095017192414492,
                -0.8065972898686271,
                -0.08546223053653934,
                3.106302430242858
            ]
        },
        {
            "positions": [
                -0.032288711081049914,
                -1.1997973715078323,
                1.9375033489288926,
                -0.7822266597406042,
                0.017129512806222325,
                3.0842395543405683
            ]
        },
        {
            "positions": [
                0.1227684437768209,
                -1.1360359522801344,
                1.9655049786163363,
                -0.7578560296125815,
                0.11972125614898393,
                3.062176678438278
            ]
        }
    ]
}