{
    "goal": {
        "global_pose": {
            "orientation": {
                "w": 0.005598929693374612,
                "x": 0.007748599140229565,
                "y": 0.7110244013736278,
                "z": -0.7031023480610252
            },
            "position": {
                "x": 0.1141497679147869,
                "y": -0.7141253447532654,
                "z": 0.3711530566215515
            }
        },
        "name": "move_to_auspresseinheit_B"
    },
    "id": "LBKPIECE_move_to_auspresseinheit_B_124",
    "joint_names": [
        "shoulder_pan_joint",
        "shoulder_lift_joint",
        "elbow_joint",
        "wrist_1_joint",
        "wrist_2_joint",
        "wrist_3_joint"
    ],
    "metrics": {
        "cart_traj_len": 0.5637252703207011,
        "distance_elbow_joint": 0.06439861309157036,
        "distance_shoulder_lift_joint": 0.29433662798548577,
        "distance_shoulder_pan_joint": 0.5758745868547277,
        "distance_wrist_1_joint": 0.33645709123458845,
        "distance_wrist_2_joint": 0.9947032893412129,
        "distance_wrist_3_joint": 0.00722497462196392,
        "smoothness": 7.612957943425664e-16,
        "time": 0.48492437899999996,
        "traj_len": 1.5076455760985568,
        "weighted_distance": 1.9022632606843035
    },
    "planner": "LBKPIECE",
    "start": {
        "state": {
            "elbow_joint": 2.0193083361928714,
            "shoulder_lift_joint": -1.1220246554650708,
            "shoulder_pan_joint": -1.0952077554168747,
            "wrist_1_joint": -0.8559753972642168,
            "wrist_2_joint": 0.4759566250798843,
            "wrist_3_joint": -3.1240929996934557
        }
    },
    "waypoints": [
        {
            "positions": [
                -1.0952077554168747,
                -1.1220246554650708,
                2.0193083361928714,
                -0.8559753972642168,
                0.4759566250798843,
                -3.1240929996934557
            ]
        },
        {
            "positions": [
                -1.191186853225996,
                -1.1710807601293185,
                2.008575234010943,
                -0.7998992153917854,
                0.6417405066367531,
                -3.1228888372564616
            ]
        },
        {
            "positions": [
                -1.2871659510351172,
                -1.220136864793566,
                1.9978421318290147,
                -0.743823033519354,
                0.8075243881936218,
                -3.1216846748194675
            ]
        },
        {
            "positions": [
                -1.3831450488442385,
                -1.2691929694578137,
                1.9871090296470864,
                -0.6877468516469225,
                0.9733082697504907,
                -3.120480512382474
            ]
        },
        {
            "positions": [
                -1.4791241466533598,
                -1.3182490741220614,
                1.9763759274651578,
                -0.6316706697744912,
                1.1390921513073595,
                -3.11927634994548
            ]
        },
        {
            "positions": [
                -1.575103244462481,
                -1.3673051787863089,
                1.9656428252832294,
                -0.5755944879020598,
                1.3048760328642284,
                -3.118072187508486
            ]
        },
        {
            "positions": [
                -1.6710823422716024,
                -1.4163612834505566,
                1.954909723101301,
                -0.5195183060296283,
                1.4706599144210972,
                -3.1168680250714917
            ]
        }
    ]
}