{
    "goal": {
        "global_pose": {
            "orientation": {
                "w": 0.7031023502349854,
                "x": -0.7110244035720825,
                "y": 0.007748599164187908,
                "z": 0.005598929710686207
            },
            "position": {
                "x": 0.11585023208521307,
                "y": 0.44412534475326537,
                "z": 0.3711530566215515
            }
        },
        "name": "move_to_auspresseinheit_A"
    },
    "id": "LBKPIECE_move_to_auspresseinheit_A_140",
    "joint_names": [
        "shoulder_pan_joint",
        "shoulder_lift_joint",
        "elbow_joint",
        "wrist_1_joint",
        "wrist_2_joint",
        "wrist_3_joint"
    ],
    "metrics": {
        "cart_traj_len": 3.4150787530040714,
        "distance_elbow_joint": 2.8668187708885515,
        "distance_shoulder_lift_joint": 1.7539992407701541,
        "distance_shoulder_pan_joint": 1.2107681555740997,
        "distance_wrist_1_joint": 0.5881109069400087,
        "distance_wrist_2_joint": 2.1537507675374457,
        "distance_wrist_3_joint": 2.4529720966847144,
        "smoothness": 0.920559626579096,
        "time": 0.696578739,
        "traj_len": 3.3206053572195198,
        "weighted_distance": 4.321368510812501
    },
    "planner": "LBKPIECE",
    "start": {
        "state": {
            "elbow_joint": 2.4225746658250005,
            "shoulder_lift_joint": -1.3736534386056498,
            "shoulder_pan_joint": -0.3378633547517467,
            "wrist_1_joint": -1.0288598680537169,
            "wrist_2_joint": 1.233022673432363,
            "wrist_3_joint": -3.0940220416140027
        }
    },
    "waypoints": [
        {
            "positions": [
                -0.3378633547517467,
                -1.3736534386056498,
                2.4225746658250005,
                -1.0288598680537169,
                1.233022673432363,
                -3.0940220416140027
            ]
        },
        {
            "positions": [
                -0.3442501112203774,
                -1.4616186842580376,
                2.3110354378051947,
                -1.0058992275036838,
                1.2960587046930319,
                -3.0013319625249064
            ]
        },
        {
            "positions": [
                -0.3506368676890081,
                -1.5495839299104255,
                2.199496209785389,
                -0.9829385869536506,
                1.3590947359537005,
                -2.90864188343581
            ]
        },
        {
            "positions": [
                -0.3570236241576388,
                -1.6375491755628133,
                2.087956981765583,
                -0.9599779464036174,
                1.4221307672143693,
                -2.8159518043467138
            ]
        },
        {
            "positions": [
                -0.3634103806262694,
                -1.7255144212152014,
                1.9764177537457774,
                -0.9370173058535843,
                1.4851667984750379,
                -2.723261725257618
            ]
        },
        {
            "positions": [
                -0.3697971370949001,
                -1.8134796668675892,
                1.8648785257259717,
                -0.9140566653035511,
                1.5482028297357067,
                -2.6305716461685216
            ]
        },
        {
            "positions": [
                -0.37618389356353077,
                -1.901444912519977,
                1.753339297706166,
                -0.891096024753518,
                1.6112388609963753,
                -2.5378815670794252
            ]
        },
        {
            "positions": [
                -0.38257065003216145,
                -1.9894101581723649,
                1.6418000696863602,
                -0.8681353842034849,
                1.674274892257044,
                -2.445191487990329
            ]
        },
        {
            "positions": [
                -0.38895740650079214,
                -2.0773754038247527,
                1.5302608416665544,
                -0.8451747436534518,
                1.7373109235177129,
                -2.3525014089012326
            ]
        },
        {
            "positions": [
                -0.3953441629694228,
                -2.1653406494771406,
                1.4187216136467486,
                -0.8222141031034186,
                1.8003469547783815,
                -2.2598113298121367
            ]
        },
        {
            "positions": [
                -0.4017309194380535,
                -2.2533058951295284,
                1.3071823856269429,
                -0.7992534625533855,
                1.86338298603905,
                -2.1671212507230404
            ]
        },
        {
            "positions": [
                -0.40811767590668413,
                -2.3412711407819162,
                1.1956431576071371,
                -0.7762928220033523,
                1.9264190172997189,
                -2.074431171633944
            ]
        },
        {
            "positions": [
                -0.4145044323753148,
                -2.429236386434304,
                1.0841039295873314,
                -0.7533321814533191,
                1.9894550485603877,
                -1.9817410925448475
            ]
        },
        {
            "positions": [
                -0.4208911888439455,
                -2.517201632086692,
                0.9725647015675256,
                -0.730371540903286,
                2.0524910798210563,
                -1.8890510134557514
            ]
        },
        {
            "positions": [
                -0.34997737248074434,
                -2.476548580862043,
                1.0651164542041984,
                -0.7114036811098824,
                1.966364679357173,
                -1.9691899402278714
            ]
        },
        {
            "positions": [
                -0.2790635561175432,
                -2.4358955296373948,
                1.157668206840871,
                -0.6924358213164786,
                1.8802382788932899,
                -2.0493288669999914
            ]
        },
        {
            "positions": [
                -0.208149739754342,
                -2.395242478412746,
                1.2502199594775438,
                -0.673467961523075,
                1.7941118784294066,
                -2.1294677937721116
            ]
        },
        {
            "positions": [
                -0.13723592339114088,
                -2.354589427188097,
                1.3427717121142164,
                -0.6545001017296713,
                1.7079854779655232,
                -2.2096067205442314
            ]
        },
        {
            "positions": [
                -0.06632210702793973,
                -2.3139363759634484,
                1.4353234647508892,
                -0.6355322419362676,
                1.6218590775016402,
                -2.2897456473163516
            ]
        },
        {
            "positions": [
                0.004591709335261485,
                -2.2732833247388,
                1.527875217387562,
                -0.6165643821428639,
                1.5357326770377568,
                -2.3698845740884718
            ]
        },
        {
            "positions": [
                0.07550552569846264,
                -2.232630273514151,
                1.6204269700242346,
                -0.5975965223494603,
                1.4496062765738738,
                -2.4500235008605915
            ]
        },
        {
            "positions": [
                0.14641934206166374,
                -2.1919772222895024,
                1.7129787226609074,
                -0.5786286625560565,
                1.3634798761099902,
                -2.5301624276327117
            ]
        },
        {
            "positions": [
                0.2173331584248649,
                -2.1513241710648536,
                1.80553047529758,
                -0.5596608027626528,
                1.2773534756461071,
                -2.6103013544048315
            ]
        },
        {
            "positions": [
                0.28824697478806605,
                -2.1106711198402053,
                1.8980822279342529,
                -0.5406929429692492,
                1.191227075182224,
                -2.6904402811769517
            ]
        },
        {
            "positions": [
                0.3591607911512672,
                -2.0700180686155565,
                1.9906339805709254,
                -0.5217250831758455,
                1.1051006747183407,
                -2.770579207949072
            ]
        },
        {
            "positions": [
                0.43007460751446847,
                -2.0293650173909077,
                2.083185733207598,
                -0.5027572233824418,
                1.0189742742544574,
                -2.8507181347211916
            ]
        },
        {
            "positions": [
                0.5009884238776696,
                -1.9887119661662591,
                2.1757374858442713,
                -0.48378936358903807,
                0.9328478737905741,
                -2.930857061493312
            ]
        },
        {
            "positions": [
                0.5719022402408708,
                -1.9480589149416105,
                2.2682892384809437,
                -0.4648215037956344,
                0.846721473326691,
                -3.0109959882654316
            ]
        },
        {
            "positions": [
                0.6428160566040719,
                -1.9074058637169617,
                2.3608409911176165,
                -0.4458536440022307,
                0.7605950728628078,
                -3.0911349150375518
            ]
        },
        {
            "positions": [
                0.7068491326379555,
                -1.9067505847975799,
                2.3893735081986023,
                -0.4509583268907532,
                0.7182087186723036,
                -3.1370520819822145
            ]
        }
    ]
}