{
    "goal": {
        "global_pose": {
            "orientation": {
                "w": 0.7031023480610252,
                "x": -0.7110244013736278,
                "y": 0.0077485991402295624,
                "z": 0.005598929693374583
            },
            "position": {
                "x": -0.8841497679147869,
                "y": 0.44412534475326537,
                "z": 0.3711530566215515
            }
        },
        "name": "move_to_auspresseinheit_D"
    },
    "id": "LBKPIECE_move_to_auspresseinheit_D_111",
    "joint_names": [
        "shoulder_pan_joint",
        "shoulder_lift_joint",
        "elbow_joint",
        "wrist_1_joint",
        "wrist_2_joint",
        "wrist_3_joint"
    ],
    "metrics": {
        "cart_traj_len": 0.3421923015093495,
        "distance_elbow_joint": 0.6289211427431185,
        "distance_shoulder_lift_joint": 0.11605736612383977,
        "distance_shoulder_pan_joint": 0.13370533478047222,
        "distance_wrist_1_joint": 0.5137449783462373,
        "distance_wrist_2_joint": 1.4321488584940054,
        "distance_wrist_3_joint": 0.009104049393998004,
        "smoothness": 7.894919348737726e-16,
        "time": 0.444080588,
        "traj_len": 1.6833543090750893,
        "weighted_distance": 2.1903843647884975
    },
    "planner": "LBKPIECE",
    "start": {
        "state": {
            "elbow_joint": -1.8275523626775212,
            "shoulder_lift_joint": -2.126789852344167,
            "shoulder_pan_joint": -0.03513704404078235,
            "wrist_1_joint": -2.347782403156801,
            "wrist_2_joint": -1.6058999987535132,
            "wrist_3_joint": -3.0880379163319196
        }
    },
    "waypoints": [
        {
            "positions": [
                -0.03513704404078235,
                -2.126789852344167,
                -1.8275523626775212,
                -2.347782403156801,
                -1.6058999987535132,
                -3.0880379163319196
            ]
        },
        {
            "positions": [
                -0.05185021088834138,
                -2.141297023109647,
                -1.7489372198346314,
                -2.4120005254500807,
                -1.4268813914417624,
                -3.0891759225061692
            ]
        },
        {
            "positions": [
                -0.0685633777359004,
                -2.155804193875127,
                -1.6703220769917415,
                -2.47621864774336,
                -1.2478627841300118,
                -3.090313928680419
            ]
        },
        {
            "positions": [
                -0.08527654458345943,
                -2.170311364640607,
                -1.5917069341488517,
                -2.54043677003664,
                -1.0688441768182613,
                -3.091451934854669
            ]
        },
        {
            "positions": [
                -0.10198971143101845,
                -2.1848185354060865,
                -1.5130917913059618,
                -2.6046548923299193,
                -0.8898255695065105,
                -3.0925899410289186
            ]
        },
        {
            "positions": [
                -0.11870287827857748,
                -2.1993257061715665,
                -1.4344766484630722,
                -2.668873014623199,
                -0.7108069621947598,
                -3.0937279472031682
            ]
        },
        {
            "positions": [
                -0.13541604512613653,
                -2.2138328769370466,
                -1.3558615056201824,
                -2.733091136916479,
                -0.5317883548830091,
                -3.0948659533774183
            ]
        },
        {
            "positions": [
                -0.15212921197369556,
                -2.2283400477025266,
                -1.2772463627772925,
                -2.7973092592097584,
                -0.35276974757125856,
                -3.096003959551668
            ]
        },
        {
            "positions": [
                -0.16884237882125458,
                -2.2428472184680066,
                -1.1986312199344027,
                -2.861527381503038,
                -0.17375114025950777,
                -3.0971419657259176
            ]
        }
    ]
}