{
    "goal": {
        "global_pose": {
            "orientation": {
                "w": 0.5084816262002911,
                "x": -0.4908360881923452,
                "y": 0.5182115481033761,
                "z": -0.48164630358495003
            },
            "position": {
                "x": 0.5540239810943604,
                "y": -0.46912469901144505,
                "z": 0.16403168439865112
            }
        },
        "name": "move_to_storage_B"
    },
    "id": "LBKPIECE_move_to_storage_B_76",
    "joint_names": [
        "shoulder_pan_joint",
        "shoulder_lift_joint",
        "elbow_joint",
        "wrist_1_joint",
        "wrist_2_joint",
        "wrist_3_joint"
    ],
    "metrics": {
        "cart_traj_len": 0.9187672782486296,
        "distance_elbow_joint": 0.8039998629291678,
        "distance_shoulder_lift_joint": 0.4590357962677578,
        "distance_shoulder_pan_joint": 0.7374015608013887,
        "distance_wrist_1_joint": 2.9773333417102634,
        "distance_wrist_2_joint": 2.704131574451836,
        "distance_wrist_3_joint": 3.1530013331615736,
        "smoothness": 0.14442121966281132,
        "time": 0.529552579,
        "traj_len": 3.2916414551591107,
        "weighted_distance": 4.777276530807823
    },
    "planner": "LBKPIECE",
    "start": {
        "state": {
            "elbow_joint": 1.664937868594044,
            "shoulder_lift_joint": -0.661644460510453,
            "shoulder_pan_joint": -0.9139846352900073,
            "wrist_1_joint": 2.146753192139373,
            "wrist_2_joint": -2.2341966793290973,
            "wrist_3_joint": 0.005466555786416001
        }
    },
    "waypoints": [
        {
            "positions": [
                -0.9139846352900073,
                -0.661644460510453,
                1.664937868594044,
                2.146753192139373,
                -2.2341966793290973,
                0.005466555786416001
            ]
        },
        {
            "positions": [
                -0.9045924547203601,
                -0.6684921955664412,
                1.6620549376289644,
                2.143409157621118,
                -2.2251435557352917,
                0.0008641106695719842
            ]
        },
        {
            "positions": [
                -0.8497390000926586,
                -0.7034598404332237,
                1.624003877629879,
                2.0311822963206696,
                -2.120112474988234,
                -0.0007561768546157253
            ]
        },
        {
            "positions": [
                -0.7948855454649569,
                -0.7384274853000061,
                1.585952817630794,
                1.9189554350202214,
                -2.015081394241176,
                -0.002376464378803435
            ]
        },
        {
            "positions": [
                -0.7631108197275279,
                -0.7614214955554406,
                1.5561279776695915,
                1.7746364485690884,
                -1.9042667395000974,
                0.036949906848394116
            ]
        },
        {
            "positions": [
                -0.7313360939900989,
                -0.784415505810875,
                1.5263031377083893,
                1.6303174621179553,
                -1.7934520847590185,
                0.07627627807559167
            ]
        },
        {
            "positions": [
                -0.6995613682526698,
                -0.8074095160663094,
                1.4964782977471869,
                1.4859984756668223,
                -1.6826374300179399,
                0.11560264930278921
            ]
        },
        {
            "positions": [
                -0.6677866425152408,
                -0.8304035263217439,
                1.4666534577859847,
                1.3416794892156894,
                -1.571822775276861,
                0.15492902052998678
            ]
        },
        {
            "positions": [
                -0.6360119167778118,
                -0.8533975365771783,
                1.4368286178247822,
                1.1973605027645564,
                -1.4610081205357823,
                0.19425539175718431
            ]
        },
        {
            "positions": [
                -0.6578894806963448,
                -0.8661252851581799,
                1.4642519803085872,
                1.1007919002723923,
                -1.3690584531234717,
                0.33466141351243983
            ]
        },
        {
            "positions": [
                -0.6797670446148778,
                -0.8788530337391814,
                1.4916753427923923,
                1.0042232977802283,
                -1.2771087857111612,
                0.4750674352676954
            ]
        },
        {
            "positions": [
                -0.7016446085334108,
                -0.891580782320183,
                1.5190987052761973,
                0.9076546952880643,
                -1.1851591182988508,
                0.615473457022951
            ]
        },
        {
            "positions": [
                -0.7235221724519438,
                -0.9043085309011845,
                1.5465220677600025,
                0.8110860927959003,
                -1.0932094508865402,
                0.7558794787782065
            ]
        },
        {
            "positions": [
                -0.7453997363704769,
                -0.917036279482186,
                1.5739454302438074,
                0.7145174903037362,
                -1.0012597834742296,
                0.896285500533462
            ]
        },
        {
            "positions": [
                -0.7672773002890099,
                -0.9297640280631876,
                1.6013687927276126,
                0.6179488878115722,
                -0.9093101160619191,
                1.0366915222887176
            ]
        },
        {
            "positions": [
                -0.7891548642075428,
                -0.9424917766441891,
                1.6287921552114175,
                0.5213802853194082,
                -0.8173604486496086,
                1.1770975440439733
            ]
        },
        {
            "positions": [
                -0.8110324281260759,
                -0.9552195252251907,
                1.6562155176952227,
                0.42481168282724413,
                -0.725410781237298,
                1.3175035657992287
            ]
        },
        {
            "positions": [
                -0.8329099920446088,
                -0.9679472738061923,
                1.6836388801790276,
                0.3282430803350801,
                -0.6334611138249875,
                1.4579095875544843
            ]
        },
        {
            "positions": [
                -0.8547875559631419,
                -0.9806750223871938,
                1.7110622426628328,
                0.23167447784291606,
                -0.5415114464126769,
                1.5983156093097397
            ]
        },
        {
            "positions": [
                -0.8766651198816748,
                -0.9934027709681954,
                1.7384856051466377,
                0.13510587535075191,
                -0.4495617790003663,
                1.7387216310649956
            ]
        },
        {
            "positions": [
                -0.898542683800208,
                -1.006130519549197,
                1.765908967630443,
                0.03853727285858799,
                -0.35761211158805595,
                1.879127652820251
            ]
        },
        {
            "positions": [
                -0.9204202477187409,
                -1.0188582681301985,
                1.7933323301142479,
                -0.058031329633576156,
                -0.26566244417574514,
                2.0195336745755066
            ]
        },
        {
            "positions": [
                -0.9422978116372739,
                -1.0315860167111999,
                1.8207556925980528,
                -0.15459993212574008,
                -0.17371277676343477,
                2.159939696330762
            ]
        },
        {
            "positions": [
                -0.9641753755558069,
                -1.0443137652922014,
                1.848179055081858,
                -0.2511685346179042,
                -0.08176310935112419,
                2.3003457180860174
            ]
        },
        {
            "positions": [
                -0.9860529394743399,
                -1.057041513873203,
                1.8756024175656631,
                -0.34773713711006815,
                0.010186558061186402,
                2.4407517398412732
            ]
        },
        {
            "positions": [
                -1.007930503392873,
                -1.0697692624542046,
                1.903025780049468,
                -0.4443057396022323,
                0.10213622547349699,
                2.581157761596529
            ]
        },
        {
            "positions": [
                -1.0298080673114058,
                -1.0824970110352061,
                1.930449142533273,
                -0.5408743420943962,
                0.19408589288580735,
                2.721563783351784
            ]
        },
        {
            "positions": [
                -1.051685631229939,
                -1.0952247596162077,
                1.9578725050170782,
                -0.6374429445865604,
                0.28603556029811794,
                2.86196980510704
            ]
        },
        {
            "positions": [
                -1.073563195148472,
                -1.1079525081972093,
                1.9852958675008834,
                -0.7340115470787243,
                0.37798522771042853,
                3.002375826862295
            ]
        },
        {
            "positions": [
                -1.095440759067005,
                -1.1206802567782108,
                2.0127192299846883,
                -0.8305801495708883,
                0.46993489512273906,
                3.1427818486175507
            ]
        }
    ]
}