{
    "goal": {
        "global_pose": {
            "orientation": {
                "w": 0.005598929693374612,
                "x": 0.007748599140229565,
                "y": 0.7110244013736278,
                "z": -0.7031023480610252
            },
            "position": {
                "x": 0.1141497679147869,
                "y": -0.7141253447532654,
                "z": 0.3711530566215515
            }
        },
        "name": "move_to_auspresseinheit_B"
    },
    "id": "LBKPIECE_move_to_auspresseinheit_B_15",
    "joint_names": [
        "shoulder_pan_joint",
        "shoulder_lift_joint",
        "elbow_joint",
        "wrist_1_joint",
        "wrist_2_joint",
        "wrist_3_joint"
    ],
    "metrics": {
        "cart_traj_len": 0.5644853606784002,
        "distance_elbow_joint": 0.06467500016458327,
        "distance_shoulder_lift_joint": 0.294735781493658,
        "distance_shoulder_pan_joint": 0.5774905946805384,
        "distance_wrist_1_joint": 0.33284011624999144,
        "distance_wrist_2_joint": 0.9867146517127798,
        "distance_wrist_3_joint": 0.007339335829364302,
        "smoothness": 0.0,
        "time": 0.333671424,
        "traj_len": 1.5045914661897146,
        "weighted_distance": 1.8968470997295528
    },
    "planner": "LBKPIECE",
    "start": {
        "state": {
            "elbow_joint": 2.0193083361928714,
            "shoulder_lift_joint": -1.1220246554650708,
            "shoulder_pan_joint": -1.0952077554168747,
            "wrist_1_joint": -0.8559753972642168,
            "wrist_2_joint": 0.4759566250798843,
            "wrist_3_joint": -3.1240929996934557
        }
    },
    "waypoints": [
        {
            "positions": [
                -1.0952077554168747,
                -1.1220246554650708,
                2.0193083361928714,
                -0.8559753972642168,
                0.4759566250798843,
                -3.1240929996934557
            ]
        },
        {
            "positions": [
                -1.191456187863631,
                -1.1711472857140137,
                2.0085291694987744,
                -0.8005020445558849,
                0.6404090670320143,
                -3.1228697770552283
            ]
        },
        {
            "positions": [
                -1.2877046203103875,
                -1.2202699159629569,
                1.997750002804677,
                -0.7450286918475529,
                0.8048615089841442,
                -3.121646554417001
            ]
        },
        {
            "positions": [
                -1.383953052757144,
                -1.2693925462118998,
                1.9869708361105798,
                -0.6895553391392211,
                0.9693139509362743,
                -3.1204233317787735
            ]
        },
        {
            "positions": [
                -1.4802014852039003,
                -1.3185151764608427,
                1.9761916694164825,
                -0.6340819864308892,
                1.133766392888404,
                -3.119200109140546
            ]
        },
        {
            "positions": [
                -1.5764499176506566,
                -1.3676378067097859,
                1.9654125027223854,
                -0.5786086337225572,
                1.2982188348405341,
                -3.1179768865023187
            ]
        },
        {
            "positions": [
                -1.672698350097413,
                -1.4167604369587288,
                1.9546333360282881,
                -0.5231352810142254,
                1.4626712767926642,
                -3.1167536638640914
            ]
        }
    ]
}