{
    "goal": {
        "global_pose": {
            "orientation": {
                "w": -0.4816463035849501,
                "x": 0.5182115481033762,
                "y": 0.4908360881923453,
                "z": -0.5084816262002911
            },
            "position": {
                "x": -0.8240239810943604,
                "y": 0.19912469901144506,
                "z": 0.16403168439865112
            }
        },
        "name": "move_to_storage_D"
    },
    "id": "LBKPIECE_move_to_storage_D_122",
    "joint_names": [
        "shoulder_pan_joint",
        "shoulder_lift_joint",
        "elbow_joint",
        "wrist_1_joint",
        "wrist_2_joint",
        "wrist_3_joint"
    ],
    "metrics": {
        "cart_traj_len": 3.788506139000619,
        "distance_elbow_joint": 4.208141196431378,
        "distance_shoulder_lift_joint": 1.2647097733853367,
        "distance_shoulder_pan_joint": 2.813210072163937,
        "distance_wrist_1_joint": 2.262141450949238,
        "distance_wrist_2_joint": 0.87590472774386,
        "distance_wrist_3_joint": 3.1369760243826668,
        "smoothness": 1.5941664005330686e-16,
        "time": 0.692511639,
        "traj_len": 3.815898746698661,
        "weighted_distance": 4.896231354063535
    },
    "planner": "LBKPIECE",
    "start": {
        "state": {
            "elbow_joint": -2.384821988534728,
            "shoulder_lift_joint": -2.2788054721415256,
            "shoulder_pan_joint": -0.1854694642142757,
            "wrist_1_joint": 1.4845938289331202,
            "wrist_2_joint": 0.17898776772866878,
            "wrist_3_joint": 0.037105688729662994
        }
    },
    "waypoints": [
        {
            "positions": [
                -0.1854694642142757,
                -2.2788054721415256,
                -2.384821988534728,
                1.4845938289331202,
                0.17898776772866878,
                0.037105688729662994
            ]
        },
        {
            "positions": [
                -0.10764537280777145,
                -2.236025411006294,
                -2.2484731130832625,
                1.4450700042126625,
                0.21228643782201642,
                0.09720273044598976
            ]
        },
        {
            "positions": [
                -0.02982128140126719,
                -2.1932453498710625,
                -2.112124237631797,
                1.4055461794922048,
                0.2455851079153641,
                0.15729977216231655
            ]
        },
        {
            "positions": [
                0.04800281000523707,
                -2.1504652887358304,
                -1.9757753621803313,
                1.3660223547717472,
                0.2788837780087117,
                0.2173968138786433
            ]
        },
        {
            "positions": [
                0.12582690141174133,
                -2.107685227600599,
                -1.8394264867288657,
                1.3264985300512895,
                0.31218244810205936,
                0.2774938555949701
            ]
        },
        {
            "positions": [
                0.20365099281824556,
                -2.0649051664653673,
                -1.7030776112774002,
                1.2869747053308318,
                0.345481118195407,
                0.3375908973112969
            ]
        },
        {
            "positions": [
                0.2827829773476595,
                -2.028680303634464,
                -1.594915689989665,
                1.2161515985927664,
                0.35544356053721743,
                0.42156981915290714
            ]
        },
        {
            "positions": [
                0.36191496187707345,
                -1.9924554408035604,
                -1.48675376870193,
                1.145328491854701,
                0.3654060028790278,
                0.5055487409945174
            ]
        },
        {
            "positions": [
                0.4410469464064874,
                -1.956230577972657,
                -1.378591847414195,
                1.0745053851166357,
                0.37536844522083823,
                0.5895276628361278
            ]
        },
        {
            "positions": [
                0.5201789309359013,
                -1.9200057151417536,
                -1.2704299261264598,
                1.0036822783785704,
                0.38533088756264866,
                0.673506584677738
            ]
        },
        {
            "positions": [
                0.5993109154653153,
                -1.8837808523108501,
                -1.1622680048387246,
                0.932859171640505,
                0.39529332990445903,
                0.7574855065193484
            ]
        },
        {
            "positions": [
                0.6784428999947292,
                -1.8475559894799467,
                -1.0541060835509897,
                0.8620360649024397,
                0.40525577224626946,
                0.8414644283609587
            ]
        },
        {
            "positions": [
                0.7575748845241432,
                -1.8113311266490433,
                -0.9459441622632545,
                0.7912129581643743,
                0.41521821458807984,
                0.925443350202569
            ]
        },
        {
            "positions": [
                0.8367068690535571,
                -1.7751062638181399,
                -0.8377822409755195,
                0.720389851426309,
                0.42518065692989027,
                1.0094222720441792
            ]
        },
        {
            "positions": [
                0.9158388535829711,
                -1.7388814009872364,
                -0.7296203196877843,
                0.6495667446882436,
                0.4351430992717007,
                1.0934011938857895
            ]
        },
        {
            "positions": [
                0.994970838112385,
                -1.7026565381563328,
                -0.6214583984000492,
                0.5787436379501782,
                0.4451055416135111,
                1.1773801157274
            ]
        },
        {
            "positions": [
                1.074102822641799,
                -1.6664316753254294,
                -0.5132964771123141,
                0.5079205312121129,
                0.4550679839553215,
                1.2613590375690102
            ]
        },
        {
            "positions": [
                1.1532348071712129,
                -1.630206812494526,
                -0.4051345558245789,
                0.43709742447404754,
                0.4650304262971319,
                1.3453379594106205
            ]
        },
        {
            "positions": [
                1.2323667917006267,
                -1.5939819496636225,
                -0.29697263453684397,
                0.3662743177359822,
                0.4749928686389423,
                1.4293168812522308
            ]
        },
        {
            "positions": [
                1.3114987762300407,
                -1.557757086832719,
                -0.1888107132491088,
                0.2954512109979168,
                0.48495531098075273,
                1.513295803093841
            ]
        },
        {
            "positions": [
                1.3906307607594548,
                -1.5215322240018156,
                -0.08064879196137364,
                0.22462810425985147,
                0.49491775332256316,
                1.5972747249354513
            ]
        },
        {
            "positions": [
                1.4697627452888686,
                -1.4853073611709122,
                0.027513129326361296,
                0.1538049975217861,
                0.5048801956643736,
                1.6812536467770616
            ]
        },
        {
            "positions": [
                1.5488947298182827,
                -1.4490824983400086,
                0.13567505061409668,
                0.08298189078372076,
                0.514842638006184,
                1.765232568618672
            ]
        },
        {
            "positions": [
                1.6280267143476965,
                -1.4128576355091054,
                0.24383697190183162,
                0.012158784045655402,
                0.5248050803479944,
                1.849211490460282
            ]
        },
        {
            "positions": [
                1.7071586988771106,
                -1.3766327726782017,
                0.3519988931895668,
                -0.058664322692409954,
                0.5347675226898048,
                1.9331904123018926
            ]
        },
        {
            "positions": [
                1.7862906834065244,
                -1.3404079098472983,
                0.4601608144773017,
                -0.1294874294304753,
                0.5447299650316152,
                2.017169334143503
            ]
        },
        {
            "positions": [
                1.8654226679359385,
                -1.3041830470163949,
                0.5683227357650371,
                -0.20031053616854066,
                0.5546924073734256,
                2.1011482559851133
            ]
        },
        {
            "positions": [
                1.9445546524653523,
                -1.2679581841854914,
                0.676484657052772,
                -0.271133642906606,
                0.564654849715236,
                2.1851271778267236
            ]
        },
        {
            "positions": [
                2.0236866369947664,
                -1.231733321354588,
                0.7846465783405074,
                -0.3419567496446714,
                0.5746172920570465,
                2.269106099668334
            ]
        },
        {
            "positions": [
                2.10281862152418,
                -1.1955084585236846,
                0.8928084996282424,
                -0.41277985638273673,
                0.5845797343988568,
                2.353085021509944
            ]
        },
        {
            "positions": [
                2.1819506060535945,
                -1.1592835956927812,
                1.0009704209159773,
                -0.4836029631208021,
                0.5945421767406672,
                2.4370639433515544
            ]
        },
        {
            "positions": [
                2.261082590583008,
                -1.1230587328618777,
                1.1091323422037123,
                -0.5544260698588674,
                0.6045046190824777,
                2.5210428651931647
            ]
        },
        {
            "positions": [
                2.340214575112422,
                -1.0868338700309743,
                1.2172942634914474,
                -0.6252491765969329,
                0.6144670614242881,
                2.605021787034775
            ]
        },
        {
            "positions": [
                2.3881355805852955,
                -1.0747108414851767,
                1.3182984208923143,
                -0.6506322508334638,
                0.6878713004323282,
                2.6998651080477005
            ]
        },
        {
            "positions": [
                2.4360565860581684,
                -1.062587812939379,
                1.4193025782931812,
                -0.6760153250699947,
                0.7612755394403683,
                2.7947084290606266
            ]
        },
        {
            "positions": [
                2.4839775915310414,
                -1.0504647843935815,
                1.520306735694048,
                -0.7013983993065256,
                0.8346797784484083,
                2.8895517500735526
            ]
        },
        {
            "positions": [
                2.5318985970039147,
                -1.038341755847784,
                1.621310893094915,
                -0.7267814735430564,
                0.9080840174564485,
                2.984395071086478
            ]
        },
        {
            "positions": [
                2.579819602476788,
                -1.0262187273019865,
                1.7223150504957818,
                -0.7521645477795874,
                0.9814882564644887,
                3.0792383920994038
            ]
        },
        {
            "positions": [
                2.627740607949661,
                -1.0140956987561889,
                1.8233192078966487,
                -0.7775476220161183,
                1.0548924954725287,
                3.17408171311233
            ]
        }
    ]
}