{
    "goal": {
        "global_pose": {
            "orientation": {
                "w": 0.7031023502349854,
                "x": -0.7110244035720825,
                "y": 0.007748599164187908,
                "z": 0.005598929710686207
            },
            "position": {
                "x": 0.11585023208521307,
                "y": 0.44412534475326537,
                "z": 0.3711530566215515
            }
        },
        "name": "move_to_auspresseinheit_A"
    },
    "id": "LBKPIECE_move_to_auspresseinheit_A_100",
    "joint_names": [
        "shoulder_pan_joint",
        "shoulder_lift_joint",
        "elbow_joint",
        "wrist_1_joint",
        "wrist_2_joint",
        "wrist_3_joint"
    ],
    "metrics": {
        "cart_traj_len": 1.451820787518408,
        "distance_elbow_joint": 1.2916022399299671,
        "distance_shoulder_lift_joint": 1.0390318515134487,
        "distance_shoulder_pan_joint": 1.1192627006420017,
        "distance_wrist_1_joint": 2.185029847285688,
        "distance_wrist_2_joint": 0.8055416570481622,
        "distance_wrist_3_joint": 2.867559534152586,
        "smoothness": 0.8778515818343549,
        "time": 0.15206192200000002,
        "traj_len": 3.0509060671498647,
        "weighted_distance": 4.246612579834766
    },
    "planner": "LBKPIECE",
    "start": {
        "state": {
            "elbow_joint": 2.4225746658250005,
            "shoulder_lift_joint": -1.3736534386056498,
            "shoulder_pan_joint": -0.3378633547517467,
            "wrist_1_joint": -1.0288598680537169,
            "wrist_2_joint": 1.233022673432363,
            "wrist_3_joint": -3.0940220416140027
        }
    },
    "waypoints": [
        {
            "positions": [
                -0.3378633547517467,
                -1.3736534386056498,
                2.4225746658250005,
                -1.0288598680537169,
                1.233022673432363,
                -3.0940220416140027
            ]
        },
        {
            "positions": [
                -0.363219500582174,
                -1.3815558749280425,
                2.372741506769027,
                -1.012995768993787,
                1.1888950762286896,
                -3.028852137013407
            ]
        },
        {
            "positions": [
                -0.2999084987677407,
                -1.431618999811364,
                2.331918070159687,
                -0.9219877737160749,
                1.1507083452551798,
                -2.939158874743734
            ]
        },
        {
            "positions": [
                -0.2365974969533074,
                -1.4816821246946854,
                2.291094633550347,
                -0.8309797784383629,
                1.11252161428167,
                -2.8494656124740603
            ]
        },
        {
            "positions": [
                -0.17328649513887406,
                -1.5317452495780068,
                2.2502711969410067,
                -0.7399717831606509,
                1.0743348833081603,
                -2.759772350204387
            ]
        },
        {
            "positions": [
                -0.10997549332444079,
                -1.5818083744613283,
                2.2094477603316665,
                -0.6489637878829388,
                1.0361481523346505,
                -2.670079087934714
            ]
        },
        {
            "positions": [
                -0.04666449151000751,
                -1.6318714993446495,
                2.168624323722326,
                -0.5579557926052269,
                0.9979614213611409,
                -2.580385825665041
            ]
        },
        {
            "positions": [
                0.016646510304425877,
                -1.6819346242279711,
                2.1278008871129863,
                -0.4669477973275148,
                0.9597746903876311,
                -2.4906925633953674
            ]
        },
        {
            "positions": [
                0.07995751211885915,
                -1.7319977491112923,
                2.086977450503646,
                -0.3759398020498028,
                0.9215879594141213,
                -2.4009993011256943
            ]
        },
        {
            "positions": [
                0.14326851393329243,
                -1.782060873994614,
                2.0461540138943057,
                -0.28493180677209073,
                0.8834012284406115,
                -2.311306038856021
            ]
        },
        {
            "positions": [
                0.2065795157477257,
                -1.8321239988779352,
                2.0053305772849654,
                -0.19392381149437876,
                0.8452144974671019,
                -2.221612776586348
            ]
        },
        {
            "positions": [
                0.269890517562159,
                -1.8821871237612566,
                1.9645071406756256,
                -0.10291581621666679,
                0.8070277664935921,
                -2.1319195143166745
            ]
        },
        {
            "positions": [
                0.33320151937659226,
                -1.932250248644578,
                1.9236837040662853,
                -0.011907820938954705,
                0.7688410355200823,
                -2.0422262520470014
            ]
        },
        {
            "positions": [
                0.39651252119102576,
                -1.9823133735278997,
                1.882860267456945,
                0.07910017433875738,
                0.7306543045465725,
                -1.952532989777328
            ]
        },
        {
            "positions": [
                0.45982352300545903,
                -2.032376498411221,
                1.842036830847605,
                0.17010816961646946,
                0.6924675735730628,
                -1.862839727507655
            ]
        },
        {
            "positions": [
                0.5231345248198923,
                -2.082439623294542,
                1.8012133942382649,
                0.2611161648941813,
                0.654280842599553,
                -1.7731464652379816
            ]
        },
        {
            "positions": [
                0.5864455266343256,
                -2.132502748177864,
                1.7603899576289246,
                0.3521241601718933,
                0.6160941116260432,
                -1.6834532029683085
            ]
        },
        {
            "positions": [
                0.6237046741377918,
                -2.1458399614069026,
                1.8578648148967338,
                0.3487629644294403,
                0.6645350438588802,
                -1.7867618783673715
            ]
        },
        {
            "positions": [
                0.660963821641258,
                -2.1591771746359414,
                1.955339672164543,
                0.34540176868698735,
                0.7129759760917171,
                -1.8900705537664348
            ]
        },
        {
            "positions": [
                0.6760146885400087,
                -2.1353267239329514,
                2.0325954569977314,
                0.2534760501946392,
                0.7257152668300982,
                -2.0562599468076863
            ]
        },
        {
            "positions": [
                0.6910655554387595,
                -2.111476273229962,
                2.1098512418309197,
                0.16155033170229105,
                0.7384545575684793,
                -2.222449339848938
            ]
        },
        {
            "positions": [
                0.7061164223375102,
                -2.087625822526972,
                2.187107026664108,
                0.0696246132099429,
                0.7511938483068605,
                -2.3886387328901892
            ]
        },
        {
            "positions": [
                0.7211672892362608,
                -2.063775371823982,
                2.2643628114972962,
                -0.022301105282405254,
                0.7639331390452416,
                -2.554828125931441
            ]
        },
        {
            "positions": [
                0.7187873479879757,
                -2.0242487936561826,
                2.2957239809636762,
                -0.1297062436838502,
                0.7537396220895807,
                -2.701232069067381
            ]
        },
        {
            "positions": [
                0.7164074067396906,
                -1.9847222154883832,
                2.3270851504300563,
                -0.2371113820852951,
                0.7435461051339196,
                -2.8476360122033206
            ]
        },
        {
            "positions": [
                0.7140274654914055,
                -1.9451956373205836,
                2.358446319896436,
                -0.34451652048674003,
                0.7333525881782587,
                -2.9940399553392605
            ]
        },
        {
            "positions": [
                0.7116475242431204,
                -1.9056690591527843,
                2.389807489362816,
                -0.451921658888185,
                0.7231590712225977,
                -3.1404438984752003
            ]
        }
    ]
}