{
    "goal": {
        "global_pose": {
            "orientation": {
                "w": -0.00223480608172531,
                "x": 0.0024358444001904467,
                "y": 0.7094548369677653,
                "z": -0.704743149386269
            },
            "position": {
                "x": -0.37947507619857795,
                "y": -0.6371506643295288,
                "z": 0.19426114857196808
            }
        },
        "name": "move_to_magneteinheit_C"
    },
    "id": "LBKPIECE_move_to_magneteinheit_C_61",
    "joint_names": [
        "shoulder_pan_joint",
        "shoulder_lift_joint",
        "elbow_joint",
        "wrist_1_joint",
        "wrist_2_joint",
        "wrist_3_joint"
    ],
    "metrics": {
        "cart_traj_len": 0.8374266632639764,
        "distance_elbow_joint": 1.3067667705781272,
        "distance_shoulder_lift_joint": 0.32699042318027627,
        "distance_shoulder_pan_joint": 1.241426657115842,
        "distance_wrist_1_joint": 1.3074744425194957,
        "distance_wrist_2_joint": 1.6987197789448159,
        "distance_wrist_3_joint": 0.9631080221654393,
        "smoothness": 1.413872935131765,
        "time": 0.339158149,
        "traj_len": 2.616196876097821,
        "weighted_distance": 3.431748295009293
    },
    "planner": "LBKPIECE",
    "start": {
        "state": {
            "elbow_joint": 1.9565354010623817,
            "shoulder_lift_joint": -1.4165861575791021,
            "shoulder_pan_joint": -1.6717766225146293,
            "wrist_1_joint": -0.5286633292919765,
            "wrist_2_joint": 1.472756589071564,
            "wrist_3_joint": -3.1238370188695823
        }
    },
    "waypoints": [
        {
            "positions": [
                -1.6717766225146293,
                -1.4165861575791021,
                1.9565354010623817,
                -0.5286633292919765,
                1.472756589071564,
                -3.1238370188695823
            ]
        },
        {
            "positions": [
                -1.76471169910378,
                -1.419991242882802,
                2.0185550529967764,
                -0.6026972476340687,
                1.3589446218384456,
                -3.08045306518881
            ]
        },
        {
            "positions": [
                -1.8576467756929302,
                -1.4233963281865023,
                2.0805747049311707,
                -0.676731165976161,
                1.2451326546053272,
                -3.0370691115080377
            ]
        },
        {
            "positions": [
                -1.9505818522820808,
                -1.4268014134902023,
                2.1425943568655654,
                -0.7507650843182532,
                1.131320687372209,
                -2.993685157827265
            ]
        },
        {
            "positions": [
                -2.0435169288712314,
                -1.4302064987939025,
                2.2046140087999597,
                -0.8247990026603454,
                1.0175087201390904,
                -2.950301204146493
            ]
        },
        {
            "positions": [
                -2.1364520054603817,
                -1.4336115840976025,
                2.2666336607343545,
                -0.8988329210024377,
                0.9036967529059722,
                -2.9069172504657206
            ]
        },
        {
            "positions": [
                -2.229387082049532,
                -1.4370166694013027,
                2.3286533126687488,
                -0.9728668393445299,
                0.7898847856728539,
                -2.8635332967849485
            ]
        },
        {
            "positions": [
                -2.322322158638683,
                -1.4404217547050027,
                2.3906729646031435,
                -1.0469007576866223,
                0.6760728184397354,
                -2.820149343104176
            ]
        },
        {
            "positions": [
                -2.415257235227833,
                -1.4438268400087029,
                2.452692616537538,
                -1.1209346760287144,
                0.5622608512066171,
                -2.776765389423404
            ]
        },
        {
            "positions": [
                -2.508192311816984,
                -1.4472319253124029,
                2.5147122684719325,
                -1.1949685943708066,
                0.4484488839734988,
                -2.7333814357426314
            ]
        },
        {
            "positions": [
                -2.601127388406134,
                -1.450637010616103,
                2.576731920406327,
                -1.2690025127128988,
                0.33463691674038043,
                -2.6899974820618593
            ]
        },
        {
            "positions": [
                -2.6940624649952847,
                -1.454042095919803,
                2.6387515723407216,
                -1.3430364310549912,
                0.22082494950726195,
                -2.6466135283810868
            ]
        },
        {
            "positions": [
                -2.6627566343331153,
                -1.4126800266570065,
                2.5495300581550375,
                -1.2725933823754938,
                0.28465182656162114,
                -2.716025604334936
            ]
        },
        {
            "positions": [
                -2.6314508036709454,
                -1.37131795739421,
                2.460308543969354,
                -1.2021503336959967,
                0.3484787036159803,
                -2.785437680288785
            ]
        },
        {
            "positions": [
                -2.600144973008776,
                -1.3299558881314135,
                2.37108702978367,
                -1.1317072850164993,
                0.4123055806703395,
                -2.854849756242634
            ]
        },
        {
            "positions": [
                -2.5688391423466066,
                -1.2885938188686172,
                2.281865515597986,
                -1.061264236337002,
                0.47613245772469875,
                -2.9242618321964833
            ]
        },
        {
            "positions": [
                -2.537533311684437,
                -1.2472317496058207,
                2.192644001412302,
                -0.9908211876575046,
                0.539959334779058,
                -2.9936739081503325
            ]
        },
        {
            "positions": [
                -2.5062274810222673,
                -1.2058696803430242,
                2.1034224872266183,
                -0.9203781389780074,
                0.6037862118334172,
                -3.0630859841041813
            ]
        },
        {
            "positions": [
                -2.474921650360098,
                -1.1645076110802277,
                2.0142009730409343,
                -0.84993509029851,
                0.6676130888877764,
                -3.1324980600580306
            ]
        }
    ]
}