{
    "goal": {
        "global_pose": {
            "orientation": {
                "w": 0.7031023502349854,
                "x": -0.7110244035720825,
                "y": 0.007748599164187908,
                "z": 0.005598929710686207
            },
            "position": {
                "x": 0.11585023208521307,
                "y": 0.44412534475326537,
                "z": 0.3711530566215515
            }
        },
        "name": "move_to_auspresseinheit_A"
    },
    "id": "LBKPIECE_move_to_auspresseinheit_A_34",
    "joint_names": [
        "shoulder_pan_joint",
        "shoulder_lift_joint",
        "elbow_joint",
        "wrist_1_joint",
        "wrist_2_joint",
        "wrist_3_joint"
    ],
    "metrics": {
        "cart_traj_len": 2.2966358181558024,
        "distance_elbow_joint": 2.3681532466262065,
        "distance_shoulder_lift_joint": 0.7666413367899254,
        "distance_shoulder_pan_joint": 1.7931961184581822,
        "distance_wrist_1_joint": 3.123895530406763,
        "distance_wrist_2_joint": 2.181233343864491,
        "distance_wrist_3_joint": 7.366244359177655,
        "smoothness": 0.842491170164703,
        "time": 0.565473384,
        "traj_len": 4.195159584011463,
        "weighted_distance": 6.13489865669758
    },
    "planner": "LBKPIECE",
    "start": {
        "state": {
            "elbow_joint": 2.4225746658250005,
            "shoulder_lift_joint": -1.3736534386056498,
            "shoulder_pan_joint": -0.3378633547517467,
            "wrist_1_joint": -1.0288598680537169,
            "wrist_2_joint": 1.233022673432363,
            "wrist_3_joint": -3.0940220416140027
        }
    },
    "waypoints": [
        {
            "positions": [
                -0.3378633547517467,
                -1.3736534386056498,
                2.4225746658250005,
                -1.0288598680537169,
                1.233022673432363,
                -3.0940220416140027
            ]
        },
        {
            "positions": [
                -0.30126015011617174,
                -1.3792848282677797,
                2.3374668977372077,
                -0.974303512452746,
                1.1495268216664347,
                -2.9756815639448653
            ]
        },
        {
            "positions": [
                -0.26465694548059676,
                -1.3849162179299095,
                2.2523591296494145,
                -0.9197471568517752,
                1.0660309699005066,
                -2.8573410862757282
            ]
        },
        {
            "positions": [
                -0.22805374084502178,
                -1.3905476075920393,
                2.167251361561622,
                -0.8651908012508043,
                0.9825351181345783,
                -2.739000608606591
            ]
        },
        {
            "positions": [
                -0.1914505362094468,
                -1.3961789972541692,
                2.0821435934738286,
                -0.8106344456498334,
                0.89903926636865,
                -2.6206601309374538
            ]
        },
        {
            "positions": [
                -0.15484733157387182,
                -1.401810386916299,
                1.9970358253860359,
                -0.7560780900488626,
                0.8155434146027217,
                -2.5023196532683163
            ]
        },
        {
            "positions": [
                -0.11824412693829686,
                -1.407441776578429,
                1.9119280572982427,
                -0.7015217344478918,
                0.7320475628367935,
                -2.383979175599179
            ]
        },
        {
            "positions": [
                -0.08164092230272185,
                -1.413073166240559,
                1.82682028921045,
                -0.646965378846921,
                0.6485517110708652,
                -2.265638697930042
            ]
        },
        {
            "positions": [
                -0.04503771766714687,
                -1.4187045559026887,
                1.7417125211226567,
                -0.59240902324595,
                0.5650558593049368,
                -2.1472982202609043
            ]
        },
        {
            "positions": [
                -0.008434513031571889,
                -1.4243359455648186,
                1.656604753034864,
                -0.5378526676449792,
                0.4815600075390085,
                -2.028957742591767
            ]
        },
        {
            "positions": [
                0.028168691604003093,
                -1.4299673352269484,
                1.571496984947071,
                -0.48329631204400836,
                0.3980641557730804,
                -1.9106172649226298
            ]
        },
        {
            "positions": [
                0.06477189623957808,
                -1.4355987248890782,
                1.486389216859278,
                -0.42873995644303753,
                0.314568304007152,
                -1.7922767872534926
            ]
        },
        {
            "positions": [
                0.1410623827853798,
                -1.4710303317375617,
                1.449911828125765,
                -0.5297552812388864,
                0.2689246811326483,
                -1.8734531497734188
            ]
        },
        {
            "positions": [
                0.21735286933118156,
                -1.506461938586045,
                1.4134344393922522,
                -0.6307706060347351,
                0.22328105825814457,
                -1.9546295122933448
            ]
        },
        {
            "positions": [
                0.2936433558769833,
                -1.5418935454345284,
                1.3769570506587392,
                -0.731785930830584,
                0.17763743538364082,
                -2.035805874813271
            ]
        },
        {
            "positions": [
                0.36993384242278504,
                -1.5773251522830116,
                1.3404796619252264,
                -0.8328012556264328,
                0.1319938125091371,
                -2.1169822373331972
            ]
        },
        {
            "positions": [
                0.4462243289685868,
                -1.612756759131495,
                1.3040022731917134,
                -0.9338165804222817,
                0.08635018963463334,
                -2.198158599853123
            ]
        },
        {
            "positions": [
                0.5225148155143885,
                -1.6481883659799783,
                1.2675248844582006,
                -1.0348319052181303,
                0.040706566760129625,
                -2.2793349623730492
            ]
        },
        {
            "positions": [
                0.5988053020601902,
                -1.6836199728284618,
                1.2310474957246875,
                -1.1358472300139792,
                -0.0049370561143741165,
                -2.3605113248929754
            ]
        },
        {
            "positions": [
                0.6136974715853496,
                -1.6983518326832514,
                1.2586156341896895,
                -1.0735173591904972,
                0.031521360494202906,
                -2.1320344038122556
            ]
        },
        {
            "positions": [
                0.6285896411105089,
                -1.7130836925380413,
                1.2861837726546914,
                -1.0111874883670153,
                0.06797977710277993,
                -1.9035574827315358
            ]
        },
        {
            "positions": [
                0.6434818106356682,
                -1.727815552392831,
                1.3137519111196934,
                -0.9488576175435334,
                0.10443819371135697,
                -1.6750805616508158
            ]
        },
        {
            "positions": [
                0.6583739801608276,
                -1.7425474122476208,
                1.341320049584695,
                -0.8865277467200514,
                0.14089661031993397,
                -1.446603640570096
            ]
        },
        {
            "positions": [
                0.6732661496859869,
                -1.7572792721024104,
                1.368888188049697,
                -0.8241978758965693,
                0.17735502692851102,
                -1.2181267194893761
            ]
        },
        {
            "positions": [
                0.6881583192111462,
                -1.7720111319572003,
                1.396456326514699,
                -0.7618680050730875,
                0.21381344353708806,
                -0.9896497984086561
            ]
        },
        {
            "positions": [
                0.7030504887363056,
                -1.78674299181199,
                1.424024464979701,
                -0.6995381342496055,
                0.25027186014566505,
                -0.7611728773279365
            ]
        },
        {
            "positions": [
                0.7179426582614649,
                -1.8014748516667796,
                1.4515926034447029,
                -0.6372082634261236,
                0.28673027675424206,
                -0.5326959562472164
            ]
        },
        {
            "positions": [
                0.7328348277866242,
                -1.8162067115215694,
                1.4791607419097048,
                -0.5748783926026415,
                0.32318869336281913,
                -0.3042190351664966
            ]
        },
        {
            "positions": [
                0.7477269973117835,
                -1.830938571376359,
                1.5067288803747068,
                -0.5125485217791595,
                0.35964710997139615,
                -0.0757421140857768
            ]
        },
        {
            "positions": [
                0.7626191668369429,
                -1.845670431231149,
                1.5342970188397087,
                -0.4502186509556776,
                0.39610552657997317,
                0.15273480699494346
            ]
        },
        {
            "positions": [
                0.7775113363621022,
                -1.8604022910859386,
                1.5618651573047106,
                -0.38788878013219563,
                0.43256394318855024,
                0.3812117280756633
            ]
        },
        {
            "positions": [
                0.7924035058872615,
                -1.8751341509407282,
                1.5894332957697124,
                -0.3255589093087138,
                0.4690223597971272,
                0.6096886491563827
            ]
        },
        {
            "positions": [
                0.8072956754124209,
                -1.889866010795518,
                1.6170014342347143,
                -0.2632290384852318,
                0.5054807764057042,
                0.8381655702371025
            ]
        },
        {
            "positions": [
                0.8221878449375802,
                -1.9045978706503077,
                1.6445695726997163,
                -0.20089916766174976,
                0.5419391930142813,
                1.0666424913178227
            ]
        },
        {
            "positions": [
                0.8370800144627395,
                -1.9193297305050976,
                1.6721377111647182,
                -0.1385692968382678,
                0.5783976096228582,
                1.2951194123985426
            ]
        },
        {
            "positions": [
                0.8519721839878989,
                -1.9340615903598872,
                1.6997058496297202,
                -0.0762394260147859,
                0.6148560262314353,
                1.5235963334792622
            ]
        },
        {
            "positions": [
                0.8807900010650387,
                -1.945376650633064,
                1.7872725298261418,
                -0.05290372702156777,
                0.6416979055862657,
                1.7249669993097825
            ]
        },
        {
            "positions": [
                0.9096078181421785,
                -1.9566917109062407,
                1.8748392100225633,
                -0.029568028028349652,
                0.6685397849410961,
                1.9263376651403028
            ]
        },
        {
            "positions": [
                0.9384256352193182,
                -1.9680067711794176,
                1.9624058902189847,
                -0.006232329035131531,
                0.6953816642959265,
                2.1277083309708233
            ]
        },
        {
            "positions": [
                0.967243452296458,
                -1.9793218314525944,
                2.0499725704154064,
                0.01710336995808659,
                0.7222235436507569,
                2.3290789968013437
            ]
        },
        {
            "positions": [
                0.9960612693735978,
                -1.990636891725771,
                2.137539250611828,
                0.04043906895130471,
                0.7490654230055873,
                2.530449662631864
            ]
        },
        {
            "positions": [
                1.0248790864507376,
                -2.0019519519989477,
                2.2251059308082493,
                0.06377476794452283,
                0.7759073023604178,
                2.7318203284623843
            ]
        },
        {
            "positions": [
                1.0536969035278774,
                -2.0132670122721246,
                2.312672611004671,
                0.08711046693774094,
                0.8027491817152482,
                2.9331909942929046
            ]
        },
        {
            "positions": [
                1.0825147206050172,
                -2.0245820725453014,
                2.4002392912010926,
                0.11044616593095907,
                0.8295910610700786,
                3.134561660123425
            ]
        },
        {
            "positions": [
                0.9582420395712112,
                -1.9860111715952102,
                2.3977611975179296,
                -0.07967881716244196,
                0.7933425620256451,
                3.1341644660696706
            ]
        },
        {
            "positions": [
                0.8339693585374053,
                -1.9474402706451188,
                2.395283103834767,
                -0.269803800255843,
                0.7570940629812117,
                3.1337672720159166
            ]
        },
        {
            "positions": [
                0.7096966775035993,
                -1.9088693696950276,
                2.392805010151604,
                -0.4599287833492441,
                0.7208455639367782,
                3.1333700779621623
            ]
        }
    ]
}