{
    "goal": {
        "global_pose": {
            "orientation": {
                "w": -0.4816463035849501,
                "x": 0.5182115481033762,
                "y": 0.4908360881923453,
                "z": -0.5084816262002911
            },
            "position": {
                "x": -0.8240239810943604,
                "y": -0.300875300988555,
                "z": 0.16403168439865112
            }
        },
        "name": "move_to_storage_C"
    },
    "id": "LBKPIECE_move_to_storage_C_81",
    "joint_names": [
        "shoulder_pan_joint",
        "shoulder_lift_joint",
        "elbow_joint",
        "wrist_1_joint",
        "wrist_2_joint",
        "wrist_3_joint"
    ],
    "metrics": {
        "cart_traj_len": 0.5763180441359047,
        "distance_elbow_joint": 0.2572673527274638,
        "distance_shoulder_lift_joint": 0.19032135829148755,
        "distance_shoulder_pan_joint": 0.4940578472744903,
        "distance_wrist_1_joint": 0.07351031598641067,
        "distance_wrist_2_joint": 1.0681063494900278,
        "distance_wrist_3_joint": 0.07137786965084114,
        "smoothness": 5.075305295617109e-16,
        "time": 0.715919698,
        "traj_len": 1.467869576434065,
        "weighted_distance": 1.8544577369675597
    },
    "planner": "LBKPIECE",
    "start": {
        "state": {
            "elbow_joint": 2.010868314990456,
            "shoulder_lift_joint": -1.1634956873337592,
            "shoulder_pan_joint": -2.4736205022346125,
            "wrist_1_joint": -0.8367026794202681,
            "wrist_2_joint": 0.6746043897044499,
            "wrist_3_joint": -3.1496632123970403
        }
    },
    "waypoints": [
        {
            "positions": [
                -2.4736205022346125,
                -1.1634956873337592,
                2.010868314990456,
                -0.8367026794202681,
                0.6746043897044499,
                -3.1496632123970403
            ]
        },
        {
            "positions": [
                -2.5559634767803607,
                -1.1317754609518447,
                1.9679904228692118,
                -0.8244509600891996,
                0.8526221146194546,
                -3.137766900788567
            ]
        },
        {
            "positions": [
                -2.6383064513261094,
                -1.10005523456993,
                1.925112530747968,
                -0.8121992407581312,
                1.0306398395344591,
                -3.125870589180093
            ]
        },
        {
            "positions": [
                -2.7206494258718577,
                -1.0683350081880154,
                1.882234638626724,
                -0.7999475214270628,
                1.2086575644494637,
                -3.1139742775716197
            ]
        },
        {
            "positions": [
                -2.802992400417606,
                -1.036614781806101,
                1.8393567465054799,
                -0.7876958020959943,
                1.3866752893644683,
                -3.1020779659631463
            ]
        },
        {
            "positions": [
                -2.8853353749633546,
                -1.0048945554241862,
                1.796478854384236,
                -0.7754440827649258,
                1.5646930142794733,
                -3.0901816543546725
            ]
        },
        {
            "positions": [
                -2.967678349509103,
                -0.9731743290422716,
                1.753600962262992,
                -0.7631923634338574,
                1.7427107391944778,
                -3.078285342746199
            ]
        }
    ]
}