{
    "goal": {
        "global_pose": {
            "orientation": {
                "w": 0.5084816217422485,
                "x": -0.49083608388900757,
                "y": 0.5182115435600281,
                "z": -0.4816462993621826
            },
            "position": {
                "x": 0.5540239810943604,
                "y": 0.030875300988554955,
                "z": 0.16403168439865112
            }
        },
        "name": "move_to_storage_A"
    },
    "id": "LBKPIECE_move_to_storage_A_98",
    "joint_names": [
        "shoulder_pan_joint",
        "shoulder_lift_joint",
        "elbow_joint",
        "wrist_1_joint",
        "wrist_2_joint",
        "wrist_3_joint"
    ],
    "metrics": {
        "cart_traj_len": 0.35287709579624665,
        "distance_elbow_joint": 0.4507676428410925,
        "distance_shoulder_lift_joint": 0.23585294050324745,
        "distance_shoulder_pan_joint": 0.46364439356998005,
        "distance_wrist_1_joint": 0.23851982711128084,
        "distance_wrist_2_joint": 1.0902405893258227,
        "distance_wrist_3_joint": 0.10375290511408419,
        "smoothness": 4.440892098500626e-16,
        "time": 0.452191429,
        "traj_len": 1.6071024542528418,
        "weighted_distance": 2.029542935030146
    },
    "planner": "LBKPIECE",
    "start": {
        "state": {
            "elbow_joint": 1.971548259319323,
            "shoulder_lift_joint": -1.1394851275133948,
            "shoulder_pan_joint": 0.1228115487234821,
            "wrist_1_joint": -0.7804723859257726,
            "wrist_2_joint": 0.12958671773740124,
            "wrist_3_joint": -3.192489227718131
        }
    },
    "waypoints": [
        {
            "positions": [
                0.1228115487234821,
                -1.1394851275133948,
                1.971548259319323,
                -0.7804723859257726,
                0.12958671773740124,
                -3.192489227718131
            ]
        },
        {
            "positions": [
                0.056576635356342095,
                -1.1731784047281444,
                2.0359436368680504,
                -0.8145466469416699,
                0.2853353733553759,
                -3.177667384130405
            ]
        },
        {
            "positions": [
                -0.00965827801079791,
                -1.2068716819428942,
                2.100339014416778,
                -0.8486209079575672,
                0.44108402897335053,
                -3.1628455405426785
            ]
        },
        {
            "positions": [
                -0.0758931913779379,
                -1.2405649591576438,
                2.1647343919655055,
                -0.8826951689734643,
                0.5968326845913252,
                -3.148023696954952
            ]
        },
        {
            "positions": [
                -0.14212810474507792,
                -1.2742582363723933,
                2.229129769514233,
                -0.9167694299893616,
                0.7525813402092999,
                -3.133201853367226
            ]
        },
        {
            "positions": [
                -0.20836301811221797,
                -1.3079515135871431,
                2.2935251470629607,
                -0.9508436910052589,
                0.9083299958272746,
                -3.1183800097794996
            ]
        },
        {
            "positions": [
                -0.2745979314793579,
                -1.3416447908018927,
                2.357920524611688,
                -0.9849179520211562,
                1.0640786514452492,
                -3.1035581661917733
            ]
        },
        {
            "positions": [
                -0.34083284484649795,
                -1.3753380680166423,
                2.4223159021604155,
                -1.0189922130370535,
                1.219827307063224,
                -3.088736322604047
            ]
        }
    ]
}{
    "goal": {
        "global_pose": {
            "orientation": {
                "w": 0.5084816217422485,
                "x": -0.49083608388900757,
                "y": 0.5182115435600281,
                "z": -0.4816462993621826
            },
            "position": {
                "x": 0.5540239810943604,
                "y": 0.030875300988554955,
                "z": 0.16403168439865112
            }
        },
        "name": "move_to_storage_A"
    },
    "id": "LBKPIECE_move_to_storage_A_98",
    "joint_names": [
        "shoulder_pan_joint",
        "shoulder_lift_joint",
        "elbow_joint",
        "wrist_1_joint",
        "wrist_2_joint",
        "wrist_3_joint"
    ],
    "metrics": {
        "cart_traj_len": 0.3530780927462376,
        "distance_elbow_joint": 0.4498163832540145,
        "distance_shoulder_lift_joint": 0.2358559127719393,
        "distance_shoulder_pan_joint": 0.4638237508319081,
        "distance_wrist_1_joint": 0.2378591152049132,
        "distance_wrist_2_joint": 1.0905490041003336,
        "distance_wrist_3_joint": 0.08763573269631753,
        "smoothness": 2.220446048961279e-15,
        "time": 0.371593397,
        "traj_len": 1.6017302828065112,
        "weighted_distance": 2.0172306470895456
    },
    "planner": "LBKPIECE",
    "start": {
        "state": {
            "elbow_joint": 1.97154746011099,
            "shoulder_lift_joint": -1.13948474672311,
            "shoulder_pan_joint": 0.12281154466712228,
            "wrist_1_joint": -0.7804688027058302,
            "wrist_2_joint": 0.12958655903071145,
            "wrist_3_joint": 3.0906928834467795
        }
    },
    "waypoints": [
        {
            "positions": [
                0.12281154466712228,
                -1.13948474672311,
                1.97154746011099,
                -0.7804688027058302,
                0.12958655903071145,
                3.0906928834467795
            ]
        },
        {
            "positions": [
                0.056551008833992555,
                -1.1731784485476726,
                2.035806943432992,
                -0.8144486763065321,
                0.28537927390218765,
                3.103212273831968
            ]
        },
        {
            "positions": [
                -0.009709526999137172,
                -1.2068721503722355,
                2.100066426754994,
                -0.8484285499072339,
                0.4411719887736639,
                3.1157316642171557
            ]
        },
        {
            "positions": [
                -0.07597006283226689,
                -1.2405658521967982,
                2.1643259100769963,
                -0.8824084235079358,
                0.5969647036451401,
                3.128251054602344
            ]
        },
        {
            "positions": [
                -0.1422305986653966,
                -1.274259554021361,
                2.228585393398998,
                -0.9163882971086377,
                0.7527574185166164,
                3.1407704449875324
            ]
        },
        {
            "positions": [
                -0.20849113449852635,
                -1.3079532558459237,
                2.2928448767210003,
                -0.9503681707093397,
                0.9085501333880927,
                3.153289835372721
            ]
        },
        {
            "positions": [
                -0.27475167033165604,
                -1.3416469576704864,
                2.357104360043002,
                -0.9843480443100415,
                1.0643428482595687,
                3.1658092257579087
            ]
        },
        {
            "positions": [
                -0.3410122061647858,
                -1.3753406594950492,
                2.4213638433650044,
                -1.0183279179107434,
                1.220135563131045,
                3.178328616143097
            ]
        }
    ]
}{
    "goal": {
        "global_pose": {
            "orientation": {
                "w": 0.5084816217422485,
                "x": -0.49083608388900757,
                "y": 0.5182115435600281,
                "z": -0.4816462993621826
            },
            "position": {
                "x": 0.5540239810943604,
                "y": 0.030875300988554955,
                "z": 0.16403168439865112
            }
        },
        "name": "move_to_storage_A"
    },
    "id": "LBKPIECE_move_to_storage_A_98",
    "joint_names": [
        "shoulder_pan_joint",
        "shoulder_lift_joint",
        "elbow_joint",
        "wrist_1_joint",
        "wrist_2_joint",
        "wrist_3_joint"
    ],
    "metrics": {
        "cart_traj_len": 0.3528787915509556,
        "distance_elbow_joint": 0.44948735356702096,
        "distance_shoulder_lift_joint": 0.23390803869601684,
        "distance_shoulder_pan_joint": 0.46276479617915256,
        "distance_wrist_1_joint": 0.2450830858591697,
        "distance_wrist_2_joint": 1.0920543213877016,
        "distance_wrist_3_joint": 0.0915316559570476,
        "smoothness": 6.661338165333112e-16,
        "time": 0.416196773,
        "traj_len": 1.6046274494866741,
        "weighted_distance": 2.023618039751345
    },
    "planner": "LBKPIECE",
    "start": {
        "state": {
            "elbow_joint": 1.9715472970024885,
            "shoulder_lift_joint": -1.1394870060712896,
            "shoulder_pan_joint": 0.12281152778156021,
            "wrist_1_joint": -0.780463741449964,
            "wrist_2_joint": 0.12958659822042276,
            "wrist_3_joint": 3.090690232415272
        }
    },
    "waypoints": [
        {
            "positions": [
                0.12281152778156021,
                -1.1394870060712896,
                1.9715472970024885,
                -0.780463741449964,
                0.12958659822042276,
                3.090690232415272
            ]
        },
        {
            "positions": [
                0.056702271184538425,
                -1.1729024401707207,
                2.0357597760834913,
                -0.8154756108584168,
                0.2855943584186659,
                3.103766183266279
            ]
        },
        {
            "positions": [
                -0.00940698541248336,
                -1.2063178742701515,
                2.0999722551644946,
                -0.8504874802668696,
                0.4416021186169089,
                3.1168421341172854
            ]
        },
        {
            "positions": [
                -0.07551624200950516,
                -1.2397333083695825,
                2.1641847342454974,
                -0.8854993496753224,
                0.597609878815152,
                3.1299180849682924
            ]
        },
        {
            "positions": [
                -0.14162549860652693,
                -1.2731487424690136,
                2.2283972133265006,
                -0.9205112190837752,
                0.7536176390133951,
                3.142994035819299
            ]
        },
        {
            "positions": [
                -0.20773475520354875,
                -1.3065641765684446,
                2.2926096924075035,
                -0.9555230884922281,
                0.9096253992116382,
                3.156069986670306
            ]
        },
        {
            "positions": [
                -0.2738440118005705,
                -1.3399796106678754,
                2.3568221714885063,
                -0.9905349579006809,
                1.0656331594098813,
                3.1691459375213125
            ]
        },
        {
            "positions": [
                -0.3399532683975923,
                -1.3733950447673064,
                2.4210346505695095,
                -1.0255468273091337,
                1.2216409196081244,
                3.1822218883723195
            ]
        }
    ]
}