{
    "goal": {
        "global_pose": {
            "orientation": {
                "w": -0.4816463035849501,
                "x": 0.5182115481033762,
                "y": 0.4908360881923453,
                "z": -0.5084816262002911
            },
            "position": {
                "x": -0.8240239810943604,
                "y": -0.300875300988555,
                "z": 0.16403168439865112
            }
        },
        "name": "move_to_storage_C"
    },
    "id": "LBKPIECE_move_to_storage_C_19",
    "joint_names": [
        "shoulder_pan_joint",
        "shoulder_lift_joint",
        "elbow_joint",
        "wrist_1_joint",
        "wrist_2_joint",
        "wrist_3_joint"
    ],
    "metrics": {
        "cart_traj_len": 0.5762994017862405,
        "distance_elbow_joint": 0.26149491120905566,
        "distance_shoulder_lift_joint": 0.1887458983105914,
        "distance_shoulder_pan_joint": 0.49360176584107895,
        "distance_wrist_1_joint": 0.09131962084232559,
        "distance_wrist_2_joint": 1.0722739775838566,
        "distance_wrist_3_joint": 0.06337434864041969,
        "smoothness": 0.0,
        "time": 0.40163524,
        "traj_len": 1.4733670698191024,
        "weighted_distance": 1.86041737740066
    },
    "planner": "LBKPIECE",
    "start": {
        "state": {
            "elbow_joint": 2.010868314990456,
            "shoulder_lift_joint": -1.1634956873337592,
            "shoulder_pan_joint": -2.4736205022346125,
            "wrist_1_joint": -0.8367026794202681,
            "wrist_2_joint": 0.6746043897044499,
            "wrist_3_joint": -3.1496632123970403
        }
    },
    "waypoints": [
        {
            "positions": [
                -2.4736205022346125,
                -1.1634956873337592,
                2.010868314990456,
                -0.8367026794202681,
                0.6746043897044499,
                -3.1496632123970403
            ]
        },
        {
            "positions": [
                -2.5558874632081254,
                -1.1320380376153274,
                1.9672858297889466,
                -0.8214827426132139,
                0.8533167193017593,
                -3.1391008209569704
            ]
        },
        {
            "positions": [
                -2.638154424181639,
                -1.1005803878968954,
                1.9237033445874372,
                -0.8062628058061596,
                1.0320290488990689,
                -3.1285384295169005
            ]
        },
        {
            "positions": [
                -2.720421385155152,
                -1.0691227381784634,
                1.880120859385928,
                -0.7910428689991054,
                1.2107413784963783,
                -3.11797603807683
            ]
        },
        {
            "positions": [
                -2.802688346128665,
                -1.0376650884600316,
                1.8365383741844188,
                -0.775822932192051,
                1.3894537080936877,
                -3.1074136466367603
            ]
        },
        {
            "positions": [
                -2.884955307102178,
                -1.0062074387415998,
                1.7929558889829094,
                -0.7606029953849968,
                1.5681660376909972,
                -3.0968512551966905
            ]
        },
        {
            "positions": [
                -2.9672222680756914,
                -0.9747497890231678,
                1.7493734037814002,
                -0.7453830585779425,
                1.7468783672883064,
                -3.0862888637566206
            ]
        }
    ]
}