{
    "goal": {
        "global_pose": {
            "orientation": {
                "w": -0.00223480608172531,
                "x": 0.0024358444001904467,
                "y": 0.7094548369677653,
                "z": -0.704743149386269
            },
            "position": {
                "x": -0.37947507619857795,
                "y": -0.6371506643295288,
                "z": 0.19426114857196808
            }
        },
        "name": "move_to_magneteinheit_C"
    },
    "id": "LBKPIECE_move_to_magneteinheit_C_29",
    "joint_names": [
        "shoulder_pan_joint",
        "shoulder_lift_joint",
        "elbow_joint",
        "wrist_1_joint",
        "wrist_2_joint",
        "wrist_3_joint"
    ],
    "metrics": {
        "cart_traj_len": 2.6835406875479126,
        "distance_elbow_joint": 3.015709693840529,
        "distance_shoulder_lift_joint": 1.400326934852256,
        "distance_shoulder_pan_joint": 1.9396654263521984,
        "distance_wrist_1_joint": 4.785753596280106,
        "distance_wrist_2_joint": 4.832745124913629,
        "distance_wrist_3_joint": 2.8227632305761827,
        "smoothness": 0.772518664126243,
        "time": 0.489115422,
        "traj_len": 4.335546563792724,
        "weighted_distance": 5.836179331477144
    },
    "planner": "LBKPIECE",
    "start": {
        "state": {
            "elbow_joint": 1.9565354010623817,
            "shoulder_lift_joint": -1.4165861575791021,
            "shoulder_pan_joint": -1.6717766225146293,
            "wrist_1_joint": -0.5286633292919765,
            "wrist_2_joint": 1.472756589071564,
            "wrist_3_joint": -3.1238370188695823
        }
    },
    "waypoints": [
        {
            "positions": [
                -1.6717766225146293,
                -1.4165861575791021,
                1.9565354010623817,
                -0.5286633292919765,
                1.472756589071564,
                -3.1238370188695823
            ]
        },
        {
            "positions": [
                -1.5971076991165656,
                -1.4537596937273034,
                1.9979787644533922,
                -0.46865540707296627,
                1.4238859377695694,
                -3.104100791891932
            ]
        },
        {
            "positions": [
                -1.5600278954331397,
                -1.4300546391282392,
                1.8858285143834674,
                -0.4415533404678384,
                1.3420591130984216,
                -3.0093339393537017
            ]
        },
        {
            "positions": [
                -1.522948091749714,
                -1.4063495845291751,
                1.773678264313543,
                -0.4144512738627106,
                1.2602322884272739,
                -2.9145670868154716
            ]
        },
        {
            "positions": [
                -1.4858682880662881,
                -1.3826445299301109,
                1.6615280142436182,
                -0.3873492072575827,
                1.1784054637561259,
                -2.8198002342772415
            ]
        },
        {
            "positions": [
                -1.4487884843828625,
                -1.3589394753310469,
                1.5493777641736937,
                -0.3602471406524549,
                1.096578639084978,
                -2.725033381739011
            ]
        },
        {
            "positions": [
                -1.4117086806994366,
                -1.3352344207319826,
                1.437227514103769,
                -0.333145074047327,
                1.0147518144138303,
                -2.6302665292007807
            ]
        },
        {
            "positions": [
                -1.3746288770160109,
                -1.3115293661329186,
                1.3250772640338444,
                -0.30604300744219914,
                0.9329249897426826,
                -2.5354996766625506
            ]
        },
        {
            "positions": [
                -1.337549073332585,
                -1.2878243115338543,
                1.2129270139639197,
                -0.2789409408370713,
                0.8510981650715347,
                -2.4407328241243205
            ]
        },
        {
            "positions": [
                -1.3518938561527927,
                -1.2421244139061522,
                1.1132330887045045,
                -0.18575082744312982,
                0.7626604299476034,
                -2.3863489032169545
            ]
        },
        {
            "positions": [
                -1.3662386389730006,
                -1.1964245162784501,
                1.0135391634450894,
                -0.09256071404918831,
                0.6742226948236721,
                -2.331964982309589
            ]
        },
        {
            "positions": [
                -1.3805834217932083,
                -1.1507246186507483,
                0.9138452381856743,
                0.0006293993447532009,
                0.5857849596997409,
                -2.277581061402223
            ]
        },
        {
            "positions": [
                -1.3949282046134162,
                -1.1050247210230462,
                0.8141513129262591,
                0.09381951273869471,
                0.49734722457580954,
                -2.2231971404948574
            ]
        },
        {
            "positions": [
                -1.4092729874336238,
                -1.059324823395344,
                0.7144573876668439,
                0.18700962613263628,
                0.4089094894518782,
                -2.1688132195874914
            ]
        },
        {
            "positions": [
                -1.4236177702538317,
                -1.013624925767642,
                0.6147634624074289,
                0.28019973952657773,
                0.32047175432794694,
                -2.114429298680126
            ]
        },
        {
            "positions": [
                -1.4379625530740394,
                -0.9679250281399399,
                0.5150695371480136,
                0.3733898529205193,
                0.23203401920401562,
                -2.06004537777276
            ]
        },
        {
            "positions": [
                -1.5153700532380945,
                -0.9566809822180814,
                0.5219513596539359,
                0.4956105931722553,
                0.08838219501964567,
                -2.069386374188101
            ]
        },
        {
            "positions": [
                -1.5927775534021495,
                -0.945436936296223,
                0.5288331821598581,
                0.6178313334239913,
                -0.05526962916472428,
                -2.0787273706034424
            ]
        },
        {
            "positions": [
                -1.6701850535662046,
                -0.9341928903743646,
                0.5357150046657804,
                0.7400520736757275,
                -0.19892145334909417,
                -2.0880683670187836
            ]
        },
        {
            "positions": [
                -1.74759255373026,
                -0.9229488444525061,
                0.5425968271717027,
                0.8622728139274635,
                -0.34257327753346417,
                -2.097409363434125
            ]
        },
        {
            "positions": [
                -1.825000053894315,
                -0.9117047985306477,
                0.5494786496776248,
                0.9844935541791995,
                -0.486225101717834,
                -2.106750359849466
            ]
        },
        {
            "positions": [
                -1.90240755405837,
                -0.9004607526087893,
                0.5563604721835471,
                1.1067142944309354,
                -0.6298769259022039,
                -2.116091356264808
            ]
        },
        {
            "positions": [
                -1.979815054222425,
                -0.8892167066869309,
                0.5632422946894693,
                1.2289350346826717,
                -0.773528750086574,
                -2.125432352680149
            ]
        },
        {
            "positions": [
                -2.05722255438648,
                -0.8779726607650724,
                0.5701241171953916,
                1.3511557749344076,
                -0.917180574270944,
                -2.1347733490954903
            ]
        },
        {
            "positions": [
                -2.1346300545505352,
                -0.866728614843214,
                0.5770059397013139,
                1.4733765151861438,
                -1.0608323984553139,
                -2.1441143455108316
            ]
        },
        {
            "positions": [
                -2.2120375547145903,
                -0.8554845689213556,
                0.583887762207236,
                1.5955972554378797,
                -1.2044842226396837,
                -2.153455341926173
            ]
        },
        {
            "positions": [
                -2.2894450548786454,
                -0.8442405229994971,
                0.5907695847131583,
                1.7178179956896158,
                -1.3481360468240537,
                -2.162796338341514
            ]
        },
        {
            "positions": [
                -2.3175617892963567,
                -0.8647259730594186,
                0.6747230959666589,
                1.621996623500858,
                -1.285410059796308,
                -2.218788937542726
            ]
        },
        {
            "positions": [
                -2.3456785237140676,
                -0.8852114231193399,
                0.7586766072201594,
                1.5261752513121,
                -1.2226840727685624,
                -2.274781536743938
            ]
        },
        {
            "positions": [
                -2.373795258131779,
                -0.9056968731792613,
                0.84263011847366,
                1.4303538791233423,
                -1.1599580857408167,
                -2.33077413594515
            ]
        },
        {
            "positions": [
                -2.4019119925494903,
                -0.9261823232391827,
                0.9265836297271606,
                1.3345325069345846,
                -1.097232098713071,
                -2.3867667351463626
            ]
        },
        {
            "positions": [
                -2.430028726967201,
                -0.946667773299104,
                1.0105371409806612,
                1.2387111347458266,
                -1.0345061116853251,
                -2.4427593343475746
            ]
        },
        {
            "positions": [
                -2.4581454613849125,
                -0.9671532233590254,
                1.0944906522341618,
                1.1428897625570689,
                -0.9717801246575795,
                -2.4987519335487867
            ]
        },
        {
            "positions": [
                -2.47061299143495,
                -0.9852476088715043,
                1.1715534646427452,
                1.013874016699001,
                -0.8721960712796946,
                -2.5516081066713414
            ]
        },
        {
            "positions": [
                -2.4830805214849883,
                -1.0033419943839832,
                1.248616277051329,
                0.8848582708409332,
                -0.7726120179018097,
                -2.604464279793896
            ]
        },
        {
            "positions": [
                -2.495548051535026,
                -1.021436379896462,
                1.3256790894599124,
                0.7558425249828653,
                -0.6730279645239248,
                -2.657320452916451
            ]
        },
        {
            "positions": [
                -2.5080155815850635,
                -1.0395307654089412,
                1.4027419018684961,
                0.6268267791247975,
                -0.5734439111460398,
                -2.710176626039006
            ]
        },
        {
            "positions": [
                -2.520483111635101,
                -1.05762515092142,
                1.4798047142770796,
                0.4978110332667296,
                -0.4738598577681548,
                -2.763032799161561
            ]
        },
        {
            "positions": [
                -2.5329506416851393,
                -1.075719536433899,
                1.556867526685663,
                0.36879528740866174,
                -0.37427580439027,
                -2.8158889722841156
            ]
        },
        {
            "positions": [
                -2.545418171735177,
                -1.0938139219463778,
                1.6339303390942468,
                0.2397795415505939,
                -0.27469175101238497,
                -2.8687451454066704
            ]
        },
        {
            "positions": [
                -2.5479530178771927,
                -1.1046566995319165,
                1.6836756168249305,
                0.1382468003737714,
                -0.19117766872766892,
                -2.904058896315207
            ]
        },
        {
            "positions": [
                -2.550487864019208,
                -1.1154994771174551,
                1.7334208945556142,
                0.03671405919694892,
                -0.10766358644295287,
                -2.939372647223743
            ]
        },
        {
            "positions": [
                -2.5731090242963495,
                -1.0844000262458804,
                1.7373747178452068,
                -0.0851632612700647,
                -0.015204071713474154,
                -3.017300816937966
            ]
        },
        {
            "positions": [
                -2.595730184573491,
                -1.0533005753743057,
                1.7413285411347994,
                -0.20704058173707832,
                0.07725544301600457,
                -3.0952289866521885
            ]
        },
        {
            "positions": [
                -2.618351344850632,
                -1.022201124502731,
                1.745282364424392,
                -0.3289179022040919,
                0.16971495774548329,
                -3.173157156366411
            ]
        },
        {
            "positions": [
                -2.640972505127773,
                -0.9911016736311561,
                1.7492361877139846,
                -0.45079522267110556,
                0.262174472474962,
                -3.2510853260806343
            ]
        },
        {
            "positions": [
                -2.6635936654049144,
                -0.9600022227595812,
                1.7531900110035772,
                -0.5726725431381192,
                0.3546339872044408,
                -3.329013495794857
            ]
        },
        {
            "positions": [
                -2.6862148256820557,
                -0.9289027718880065,
                1.7571438342931698,
                -0.6945498636051327,
                0.44709350193391945,
                -3.4069416655090796
            ]
        },
        {
            "positions": [
                -2.708835985959197,
                -0.8978033210164318,
                1.7610976575827624,
                -0.8164271840721464,
                0.5395530166633983,
                -3.4848698352233023
            ]
        },
        {
            "positions": [
                -2.6502982448233117,
                -0.9639731004557486,
                1.82242990326011,
                -0.8176839569563352,
                0.5705938730460388,
                -3.401333052216098
            ]
        },
        {
            "positions": [
                -2.591760503687426,
                -1.0301428798950654,
                1.8837621489374576,
                -0.818940729840524,
                0.6016347294286792,
                -3.3177962692088934
            ]
        },
        {
            "positions": [
                -2.5332227625515404,
                -1.096312659334382,
                1.9450943946148054,
                -0.8201975027247127,
                0.6326755858113198,
                -3.234259486201689
            ]
        },
        {
            "positions": [
                -2.474685021415655,
                -1.1624824387736987,
                2.006426640292153,
                -0.8214542756089015,
                0.6637164421939603,
                -3.1507227031944844
            ]
        }
    ]
}