{
    "goal": {
        "global_pose": {
            "orientation": {
                "w": 0.005598929693374612,
                "x": 0.007748599140229565,
                "y": 0.7110244013736278,
                "z": -0.7031023480610252
            },
            "position": {
                "x": 0.1141497679147869,
                "y": -0.7141253447532654,
                "z": 0.3711530566215515
            }
        },
        "name": "move_to_auspresseinheit_B"
    },
    "id": "LBKPIECE_move_to_auspresseinheit_B_144",
    "joint_names": [
        "shoulder_pan_joint",
        "shoulder_lift_joint",
        "elbow_joint",
        "wrist_1_joint",
        "wrist_2_joint",
        "wrist_3_joint"
    ],
    "metrics": {
        "cart_traj_len": 0.5646217800878623,
        "distance_elbow_joint": 0.06549215842482048,
        "distance_shoulder_lift_joint": 0.29402130453247777,
        "distance_shoulder_pan_joint": 0.5751102062743794,
        "distance_wrist_1_joint": 0.333507529013929,
        "distance_wrist_2_joint": 1.0001038468087708,
        "distance_wrist_3_joint": 0.008953565319156365,
        "smoothness": 0.0,
        "time": 0.435369633,
        "traj_len": 1.5090356557661366,
        "weighted_distance": 1.9049165642711352
    },
    "planner": "LBKPIECE",
    "start": {
        "state": {
            "elbow_joint": 2.0193083361928714,
            "shoulder_lift_joint": -1.1220246554650708,
            "shoulder_pan_joint": -1.0952077554168747,
            "wrist_1_joint": -0.8559753972642168,
            "wrist_2_joint": 0.4759566250798843,
            "wrist_3_joint": -3.1240929996934557
        }
    },
    "waypoints": [
        {
            "positions": [
                -1.0952077554168747,
                -1.1220246554650708,
                2.0193083361928714,
                -0.8559753972642168,
                0.4759566250798843,
                -3.1240929996934557
            ]
        },
        {
            "positions": [
                -1.1910594564626045,
                -1.1710282062204838,
                2.008392976455401,
                -0.8003908090952286,
                0.6426405995480128,
                -3.1226007388069297
            ]
        },
        {
            "positions": [
                -1.2869111575083345,
                -1.2200317569758967,
                1.9974776167179313,
                -0.7448062209262405,
                0.8093245740161412,
                -3.1211084779204037
            ]
        },
        {
            "positions": [
                -1.3827628585540643,
                -1.2690353077313097,
                1.986562256980461,
                -0.6892216327572522,
                0.9760085484842698,
                -3.1196162170338777
            ]
        },
        {
            "positions": [
                -1.4786145595997942,
                -1.3180388584867226,
                1.975646897242991,
                -0.6336370445882642,
                1.142692522952398,
                -3.1181239561473513
            ]
        },
        {
            "positions": [
                -1.5744662606455242,
                -1.3670424092421356,
                1.964731537505521,
                -0.5780524564192759,
                1.3093764974205266,
                -3.1166316952608253
            ]
        },
        {
            "positions": [
                -1.670317961691254,
                -1.4160459599975486,
                1.953816177768051,
                -0.5224678682502878,
                1.4760604718886552,
                -3.1151394343742993
            ]
        }
    ]
}