{
    "goal": {
        "global_pose": {
            "orientation": {
                "w": 0.7047431493862688,
                "x": -0.7094548369677653,
                "y": 0.0024358444001904,
                "z": -0.0022348060817251984
            },
            "position": {
                "x": -0.39052492380142206,
                "y": 0.3671506643295288,
                "z": 0.19426114857196808
            }
        },
        "name": "move_to_magneteinheit_D"
    },
    "id": "LBKPIECE_move_to_magneteinheit_D_117",
    "joint_names": [
        "shoulder_pan_joint",
        "shoulder_lift_joint",
        "elbow_joint",
        "wrist_1_joint",
        "wrist_2_joint",
        "wrist_3_joint"
    ],
    "metrics": {
        "cart_traj_len": 4.2766368532083385,
        "distance_elbow_joint": 4.498769517045627,
        "distance_shoulder_lift_joint": 1.1078300511067007,
        "distance_shoulder_pan_joint": 2.9802004947630376,
        "distance_wrist_1_joint": 2.1890052355760066,
        "distance_wrist_2_joint": 1.6540566123490001,
        "distance_wrist_3_joint": 3.4148667398420214,
        "smoothness": 0.3719350981872341,
        "time": 0.260291399,
        "traj_len": 3.9805437631914558,
        "weighted_distance": 5.149516868434499
    },
    "planner": "LBKPIECE",
    "start": {
        "state": {
            "elbow_joint": 0.749534889911806,
            "shoulder_lift_joint": -0.6476975780787326,
            "shoulder_pan_joint": -2.711696901376241,
            "wrist_1_joint": -0.07506478083263063,
            "wrist_2_joint": 0.43296659715538205,
            "wrist_3_joint": -3.14703540197715
        }
    },
    "waypoints": [
        {
            "positions": [
                -2.711696901376241,
                -0.6476975780787326,
                0.749534889911806,
                -0.07506478083263063,
                0.43296659715538205,
                -3.14703540197715
            ]
        },
        {
            "positions": [
                -2.7189302199353262,
                -0.6849253798620161,
                0.7986045733619148,
                -0.11104365537696761,
                0.36162257637337203,
                -3.0763915263822392
            ]
        },
        {
            "positions": [
                -2.7261635384944114,
                -0.7221531816452995,
                0.8476742568120236,
                -0.1470225299213046,
                0.290278555591362,
                -3.005747650787328
            ]
        },
        {
            "positions": [
                -2.7333968570534966,
                -0.759380983428583,
                0.8967439402621324,
                -0.1830014044656416,
                0.21893453480935196,
                -2.935103775192417
            ]
        },
        {
            "positions": [
                -2.7217764136804203,
                -0.8093783710105683,
                0.9425830571476501,
                -0.23828407264414134,
                0.14030912105819648,
                -2.8097637009906133
            ]
        },
        {
            "positions": [
                -2.710155970307344,
                -0.8593757585925537,
                0.9884221740331679,
                -0.2935667408226411,
                0.06168370730704101,
                -2.684423626788809
            ]
        },
        {
            "positions": [
                -2.6985355269342683,
                -0.9093731461745389,
                1.0342612909186857,
                -0.3488494090011408,
                -0.016941706444114468,
                -2.5590835525870053
            ]
        },
        {
            "positions": [
                -2.686915083561192,
                -0.9593705337565244,
                1.0801004078042034,
                -0.4041320771796406,
                -0.09556712019526994,
                -2.4337434783852014
            ]
        },
        {
            "positions": [
                -2.675294640188116,
                -1.0093679213385096,
                1.125939524689721,
                -0.4594147453581404,
                -0.17419253394642545,
                -2.308403404183397
            ]
        },
        {
            "positions": [
                -2.6636741968150397,
                -1.059365308920495,
                1.1717786415752387,
                -0.5146974135366401,
                -0.2528179476975809,
                -2.1830633299815934
            ]
        },
        {
            "positions": [
                -2.652053753441964,
                -1.1093626965024803,
                1.2176177584607566,
                -0.5699800817151399,
                -0.33144336144873643,
                -2.057723255779789
            ]
        },
        {
            "positions": [
                -2.6404333100688877,
                -1.1593600840844656,
                1.2634568753462743,
                -0.6252627498936396,
                -0.4100687751998918,
                -1.9323831815779853
            ]
        },
        {
            "positions": [
                -2.6288128666958115,
                -1.209357471666451,
                1.309295992231792,
                -0.6805454180721394,
                -0.4886941889510473,
                -1.8070431073761812
            ]
        },
        {
            "positions": [
                -2.579825342544115,
                -1.2559508969082935,
                1.2979586820684008,
                -0.7323613507461368,
                -0.5365476307964134,
                -1.6690665012594783
            ]
        },
        {
            "positions": [
                -2.530837818392418,
                -1.302544322150136,
                1.2866213719050097,
                -0.7841772834201343,
                -0.5844010726417797,
                -1.5310898951427752
            ]
        },
        {
            "positions": [
                -2.4818502942407212,
                -1.3491377473919786,
                1.2752840617416186,
                -0.8359932160941317,
                -0.6322545144871458,
                -1.3931132890260722
            ]
        },
        {
            "positions": [
                -2.3681622141445695,
                -1.3557458433920784,
                1.1218844469319673,
                -0.8943288845056758,
                -0.6128312802528307,
                -1.4254759725365773
            ]
        },
        {
            "positions": [
                -2.254474134048418,
                -1.362353939392178,
                0.9684848321223163,
                -0.9526645529172201,
                -0.5934080460185156,
                -1.4578386560470824
            ]
        },
        {
            "positions": [
                -2.1407860539522665,
                -1.3689620353922778,
                0.815085217312665,
                -1.0110002213287643,
                -0.5739848117842006,
                -1.4902013395575873
            ]
        },
        {
            "positions": [
                -2.027097973856115,
                -1.3755701313923776,
                0.6616856025030139,
                -1.0693358897403085,
                -0.5545615775498856,
                -1.5225640230680924
            ]
        },
        {
            "positions": [
                -1.913409893759963,
                -1.3821782273924772,
                0.5082859876933628,
                -1.1276715581518526,
                -0.5351383433155704,
                -1.5549267065785974
            ]
        },
        {
            "positions": [
                -1.7997218136638113,
                -1.388786323392577,
                0.3548863728837116,
                -1.1860072265633967,
                -0.5157151090812554,
                -1.5872893900891025
            ]
        },
        {
            "positions": [
                -1.6860337335676596,
                -1.3953944193926768,
                0.20148675807406047,
                -1.2443428949749409,
                -0.4962918748469403,
                -1.6196520735996074
            ]
        },
        {
            "positions": [
                -1.5723456534715081,
                -1.4020025153927764,
                0.048087143264409216,
                -1.3026785633864852,
                -0.47686864061262524,
                -1.6520147571101125
            ]
        },
        {
            "positions": [
                -1.4586575733753564,
                -1.4086106113928762,
                -0.10531247154524204,
                -1.3610142317980294,
                -0.4574454063783102,
                -1.6843774406206176
            ]
        },
        {
            "positions": [
                -1.344969493279205,
                -1.415218707392976,
                -0.25871208635489307,
                -1.4193499002095735,
                -0.43802217214399514,
                -1.7167401241311226
            ]
        },
        {
            "positions": [
                -1.2312814131830532,
                -1.4218268033930759,
                -0.4121117011645443,
                -1.4776855686211177,
                -0.41859893790968006,
                -1.7491028076416275
            ]
        },
        {
            "positions": [
                -1.1175933330869017,
                -1.4284348993931755,
                -0.5655113159741953,
                -1.5360212370326618,
                -0.39917570367536503,
                -1.7814654911521326
            ]
        },
        {
            "positions": [
                -1.0039052529907497,
                -1.4350429953932753,
                -0.7189109307838468,
                -1.5943569054442062,
                -0.3797524694410499,
                -1.8138281746626377
            ]
        },
        {
            "positions": [
                -0.8902171728945982,
                -1.441651091393375,
                -0.8723105455934976,
                -1.65269257385575,
                -0.3603292352067349,
                -1.8461908581731428
            ]
        },
        {
            "positions": [
                -0.7765290927984467,
                -1.4482591873934747,
                -1.0257101604031487,
                -1.7110282422672944,
                -0.3409060009724198,
                -1.8785535416836479
            ]
        },
        {
            "positions": [
                -0.662841012702295,
                -1.4548672833935745,
                -1.1791097752128001,
                -1.7693639106788386,
                -0.3214827667381047,
                -1.910916225194153
            ]
        },
        {
            "positions": [
                -0.5491529326061433,
                -1.4614753793936743,
                -1.3325093900224512,
                -1.8276995790903827,
                -0.3020595325037897,
                -1.9432789087046578
            ]
        },
        {
            "positions": [
                -0.43546485250999156,
                -1.468083475393774,
                -1.4859090048321026,
                -1.886035247501927,
                -0.2826362982694746,
                -1.975641592215163
            ]
        },
        {
            "positions": [
                -0.32177677241383984,
                -1.4746915713938737,
                -1.6393086196417537,
                -1.9443709159134712,
                -0.26321306403515954,
                -2.0080042757256678
            ]
        },
        {
            "positions": [
                -0.20808869231768856,
                -1.4812996673939736,
                -1.7927082344514047,
                -2.002706584325015,
                -0.24378982980084452,
                -2.040366959236173
            ]
        },
        {
            "positions": [
                -0.09440061222153684,
                -1.4879077633940732,
                -1.9461078492610562,
                -2.0610422527365593,
                -0.22436659556652938,
                -2.072729642746678
            ]
        },
        {
            "positions": [
                0.019287467874614828,
                -1.494515859394173,
                -2.099507464070707,
                -2.1193779211481036,
                -0.20494336133221439,
                -2.105092326257183
            ]
        },
        {
            "positions": [
                -0.012803943615962224,
                -1.508548858280153,
                -2.1962706138882053,
                -2.1205094318510107,
                -0.18118491432494874,
                -2.2371648999637594
            ]
        },
        {
            "positions": [
                -0.044895355106539275,
                -1.522581857166133,
                -2.2930337637057034,
                -2.1216409425539178,
                -0.15742646731768312,
                -2.369237473670336
            ]
        },
        {
            "positions": [
                -0.07698676659711633,
                -1.5366148560521127,
                -2.389796913523201,
                -2.1227724532568244,
                -0.13366802031041747,
                -2.5013100473769123
            ]
        },
        {
            "positions": [
                -0.10907817808769338,
                -1.5506478549380927,
                -2.4865600633406992,
                -2.1239039639597315,
                -0.10990957330315182,
                -2.6333826210834888
            ]
        },
        {
            "positions": [
                -0.13489503415281434,
                -1.6189411130205396,
                -2.4388426102896497,
                -2.1706259814427002,
                -0.13207309314397825,
                -2.773607719361331
            ]
        },
        {
            "positions": [
                -0.1607118902179353,
                -1.6872343711029865,
                -2.3911251572385996,
                -2.2173479989256686,
                -0.15423661298480465,
                -2.913832817639173
            ]
        },
        {
            "positions": [
                -0.18652874628305627,
                -1.7555276291854334,
                -2.34340770418755,
                -2.2640700164086374,
                -0.17640013282563108,
                -3.0540579159170154
            ]
        }
    ]
}