{
    "goal": {
        "global_pose": {
            "orientation": {
                "w": 0.7047431468963623,
                "x": -0.7094548344612122,
                "y": 0.0024358443915843964,
                "z": -0.0022348060738295317
            },
            "position": {
                "x": 0.6094750761985779,
                "y": 0.3671506643295288,
                "z": 0.19426114857196808
            }
        },
        "name": "move_to_magneteinheit_A"
    },
    "id": "LBKPIECE_move_to_magneteinheit_A_121",
    "joint_names": [
        "shoulder_pan_joint",
        "shoulder_lift_joint",
        "elbow_joint",
        "wrist_1_joint",
        "wrist_2_joint",
        "wrist_3_joint"
    ],
    "metrics": {
        "cart_traj_len": 5.058897735980474,
        "distance_elbow_joint": 3.8762968563767846,
        "distance_shoulder_lift_joint": 0.4799037814648992,
        "distance_shoulder_pan_joint": 8.314101328638149,
        "distance_wrist_1_joint": 1.1048567791062904,
        "distance_wrist_2_joint": 1.7060014583908454,
        "distance_wrist_3_joint": 6.2655960879883175,
        "smoothness": 0.2779667294332301,
        "time": 0.636299283,
        "traj_len": 4.663341751573144,
        "weighted_distance": 6.090058021516629
    },
    "planner": "LBKPIECE",
    "start": {
        "state": {
            "elbow_joint": -1.9196185241190666,
            "shoulder_lift_joint": -1.2443396400964142,
            "shoulder_pan_joint": 2.6996025414629847,
            "wrist_1_joint": -1.5485510000780065,
            "wrist_2_joint": -1.5709468930060704,
            "wrist_3_joint": 0.4420197071253992
        }
    },
    "waypoints": [
        {
            "positions": [
                2.6996025414629847,
                -1.2443396400964142,
                -1.9196185241190666,
                -1.5485510000780065,
                -1.5709468930060704,
                0.4420197071253992
            ]
        },
        {
            "positions": [
                2.4901818655240118,
                -1.2329403672213486,
                -1.8940763857210325,
                -1.511166349566093,
                -1.5337396554288785,
                0.3711936810521838
            ]
        },
        {
            "positions": [
                2.2807611895850393,
                -1.2215410943462828,
                -1.8685342473229982,
                -1.4737816990541797,
                -1.4965324178516868,
                0.30036765497896845
            ]
        },
        {
            "positions": [
                2.0713405136460663,
                -1.2101418214712172,
                -1.842992108924964,
                -1.4363970485422661,
                -1.4593251802744949,
                0.22954162890575305
            ]
        },
        {
            "positions": [
                1.8619198377070938,
                -1.1987425485961514,
                -1.8174499705269298,
                -1.3990123980303526,
                -1.4221179426973032,
                0.15871560283253766
            ]
        },
        {
            "positions": [
                1.6524991617681208,
                -1.1873432757210858,
                -1.7919078321288957,
                -1.361627747518439,
                -1.3849107051201113,
                0.0878895767593223
            ]
        },
        {
            "positions": [
                1.443078485829148,
                -1.17594400284602,
                -1.7663656937308614,
                -1.3242430970065255,
                -1.3477034675429196,
                0.017063550686106932
            ]
        },
        {
            "positions": [
                1.2336578098901756,
                -1.1645447299709544,
                -1.740823555332827,
                -1.2868584464946122,
                -1.3104962299657277,
                -0.05376247538710838
            ]
        },
        {
            "positions": [
                1.0242371339512026,
                -1.1531454570958886,
                -1.715281416934793,
                -1.2494737959826987,
                -1.2732889923885358,
                -0.12458850146032385
            ]
        },
        {
            "positions": [
                0.8148164580122301,
                -1.141746184220823,
                -1.6897392785367589,
                -1.2120891454707854,
                -1.236081754811344,
                -0.19541452753353916
            ]
        },
        {
            "positions": [
                0.605395782073257,
                -1.1303469113457572,
                -1.6641971401387246,
                -1.1747044949588719,
                -1.1988745172341522,
                -0.2662405536067546
            ]
        },
        {
            "positions": [
                0.39597510613428444,
                -1.1189476384706916,
                -1.6386550017406902,
                -1.1373198444469583,
                -1.1616672796569605,
                -0.3370665796799699
            ]
        },
        {
            "positions": [
                0.18655443019531148,
                -1.1075483655956258,
                -1.6131128633426561,
                -1.0999351939350448,
                -1.1244600420797686,
                -0.4078926057531853
            ]
        },
        {
            "positions": [
                -0.02286624574366103,
                -1.0961490927205602,
                -1.587570724944622,
                -1.0625505434231313,
                -1.0872528045025769,
                -0.4787186318264006
            ]
        },
        {
            "positions": [
                -0.23228692168263354,
                -1.0847498198454946,
                -1.5620285865465877,
                -1.025165892911218,
                -1.050045566925385,
                -0.5495446578996159
            ]
        },
        {
            "positions": [
                -0.44170759762160605,
                -1.0733505469704288,
                -1.5364864481485536,
                -0.9877812423993045,
                -1.012838329348193,
                -0.6203706839728312
            ]
        },
        {
            "positions": [
                -0.6511282735605795,
                -1.0619512740953632,
                -1.5109443097505193,
                -0.9503965918873909,
                -0.9756310917710013,
                -0.6911967100460469
            ]
        },
        {
            "positions": [
                -0.860548949499552,
                -1.0505520012202973,
                -1.4854021713524852,
                -0.9130119413754775,
                -0.9384238541938095,
                -0.7620227361192621
            ]
        },
        {
            "positions": [
                -1.0699696254385245,
                -1.0391527283452318,
                -1.4598600329544509,
                -0.8756272908635641,
                -0.9012166166166177,
                -0.8328487621924775
            ]
        },
        {
            "positions": [
                -1.2793903013774974,
                -1.027753455470166,
                -1.4343178945564168,
                -0.8382426403516506,
                -0.8640093790394259,
                -0.9036747882656927
            ]
        },
        {
            "positions": [
                -1.4888109773164708,
                -1.0163541825951004,
                -1.4087757561583825,
                -0.800857989839737,
                -0.8268021414622341,
                -0.9745008143389083
            ]
        },
        {
            "positions": [
                -1.698231653255443,
                -1.0049549097200345,
                -1.3832336177603484,
                -0.7634733393278236,
                -0.7895949038850423,
                -1.0453268404121236
            ]
        },
        {
            "positions": [
                -1.9076523291944159,
                -0.993555636844969,
                -1.357691479362314,
                -0.7260886888159102,
                -0.7523876663078505,
                -1.116152866485339
            ]
        },
        {
            "positions": [
                -2.117073005133388,
                -0.9821563639699032,
                -1.3321493409642797,
                -0.6887040383039967,
                -0.7151804287306587,
                -1.186978892558554
            ]
        },
        {
            "positions": [
                -2.3264936810723618,
                -0.9707570910948375,
                -1.3066072025662456,
                -0.6513193877920831,
                -0.6779731911534668,
                -1.25780491863177
            ]
        },
        {
            "positions": [
                -2.535914357011334,
                -0.9593578182197718,
                -1.2810650641682115,
                -0.6139347372801697,
                -0.640765953576275,
                -1.3286309447049849
            ]
        },
        {
            "positions": [
                -2.7453350329503063,
                -0.9479585453447061,
                -1.2555229257701772,
                -0.5765500867682563,
                -0.6035587159990832,
                -1.3994569707782003
            ]
        },
        {
            "positions": [
                -2.6496962411428115,
                -0.9540759682351458,
                -1.1484495505025807,
                -0.580978615628141,
                -0.5789382732862879,
                -1.2519863237753763
            ]
        },
        {
            "positions": [
                -2.5540574493353163,
                -0.9601933911255855,
                -1.0413761752349842,
                -0.5854071444880257,
                -0.5543178305734926,
                -1.1045156767725526
            ]
        },
        {
            "positions": [
                -2.4584186575278215,
                -0.9663108140160253,
                -0.9343027999673876,
                -0.5898356733479104,
                -0.5296973878606974,
                -0.9570450297697286
            ]
        },
        {
            "positions": [
                -2.3627798657203267,
                -0.972428236906465,
                -0.8272294246997911,
                -0.5942642022077951,
                -0.5050769451479021,
                -0.8095743827669047
            ]
        },
        {
            "positions": [
                -2.267141073912832,
                -0.9785456597969047,
                -0.7201560494321946,
                -0.5986927310676798,
                -0.48045650243510685,
                -0.6621037357640809
            ]
        },
        {
            "positions": [
                -2.1715022821053367,
                -0.9846630826873444,
                -0.6130826741645979,
                -0.6031212599275646,
                -0.45583605972231156,
                -0.5146330887612569
            ]
        },
        {
            "positions": [
                -2.075863490297842,
                -0.9907805055777841,
                -0.5060092988970014,
                -0.6075497887874493,
                -0.43121561700951627,
                -0.36716244175843316
            ]
        },
        {
            "positions": [
                -1.9802246984903469,
                -0.9968979284682238,
                -0.3989359236294049,
                -0.611978317647334,
                -0.406595174296721,
                -0.21969179475560918
            ]
        },
        {
            "positions": [
                -1.8845859066828519,
                -1.0030153513586635,
                -0.29186254836180836,
                -0.6164068465072187,
                -0.38197473158392575,
                -0.07222114775278543
            ]
        },
        {
            "positions": [
                -1.788947114875357,
                -1.0091327742491032,
                -0.18478917309421194,
                -0.6208353753671034,
                -0.3573542888711305,
                0.07524949925003854
            ]
        },
        {
            "positions": [
                -1.6933083230678623,
                -1.015250197139543,
                -0.07771579782661542,
                -0.6252639042269882,
                -0.33273384615833523,
                0.2227201462528623
            ]
        },
        {
            "positions": [
                -1.5976695312603673,
                -1.0213676200299826,
                0.02935757744098133,
                -0.6296924330868728,
                -0.30811340344553995,
                0.3701907932556865
            ]
        },
        {
            "positions": [
                -1.5020307394528722,
                -1.0274850429204223,
                0.13643095270857786,
                -0.6341209619467576,
                -0.28349296073274466,
                0.5176614402585102
            ]
        },
        {
            "positions": [
                -1.4063919476453774,
                -1.033602465810862,
                0.24350432797617438,
                -0.6385494908066423,
                -0.2588725180199494,
                0.665132087261334
            ]
        },
        {
            "positions": [
                -1.3107531558378824,
                -1.0397198887013017,
                0.3505777032437709,
                -0.642978019666527,
                -0.23425207530715414,
                0.812602734264158
            ]
        },
        {
            "positions": [
                -1.2151143640303874,
                -1.0458373115917414,
                0.45765107851136744,
                -0.6474065485264118,
                -0.20963163259435885,
                0.9600733812669819
            ]
        },
        {
            "positions": [
                -1.1194755722228926,
                -1.0519547344821811,
                0.564724453778964,
                -0.6518350773862964,
                -0.18501118988156362,
                1.1075440282698055
            ]
        },
        {
            "positions": [
                -1.0238367804153976,
                -1.0580721573726208,
                0.6717978290465605,
                -0.6562636062461812,
                -0.16039074716876833,
                1.2550146752726294
            ]
        },
        {
            "positions": [
                -0.9281979886079028,
                -1.0641895802630605,
                0.778871204314157,
                -0.6606921351060658,
                -0.1357703044559731,
                1.4024853222754534
            ]
        },
        {
            "positions": [
                -0.8325591968004078,
                -1.0703070031535002,
                0.8859445795817533,
                -0.6651206639659506,
                -0.11114986174317781,
                1.5499559692782774
            ]
        },
        {
            "positions": [
                -0.736920404992913,
                -1.07642442604394,
                0.9930179548493501,
                -0.6695491928258352,
                -0.08652941903038258,
                1.697426616281101
            ]
        },
        {
            "positions": [
                -0.6412816131854182,
                -1.0825418489343797,
                1.1000913301169464,
                -0.67397772168572,
                -0.061908976317587294,
                1.844897263283925
            ]
        },
        {
            "positions": [
                -0.545642821377923,
                -1.0886592718248194,
                1.2071647053845436,
                -0.6784062505456048,
                -0.037288533604791896,
                1.9923679102867493
            ]
        },
        {
            "positions": [
                -0.4500040295704282,
                -1.094776694715259,
                1.3142380806521399,
                -0.6828347794054894,
                -0.01266809089199672,
                2.1398385572895733
            ]
        },
        {
            "positions": [
                -0.35436523776293294,
                -1.1008941176056988,
                1.4213114559197366,
                -0.6872633082653742,
                0.011952351820798568,
                2.287309204292397
            ]
        },
        {
            "positions": [
                -0.25872644595543814,
                -1.1070115404961385,
                1.528384831187333,
                -0.691691837125259,
                0.036572794533593855,
                2.434779851295221
            ]
        },
        {
            "positions": [
                -0.16308765414794335,
                -1.1131289633865782,
                1.6354582064549297,
                -0.6961203659851436,
                0.06119323724638914,
                2.5822504982980448
            ]
        },
        {
            "positions": [
                -0.06744886234044856,
                -1.119246386277018,
                1.742531581722526,
                -0.7005488948450284,
                0.08581367995918432,
                2.7297211453008683
            ]
        },
        {
            "positions": [
                0.02818992946704668,
                -1.1253638091674576,
                1.8496049569901227,
                -0.7049774237049131,
                0.1104341226719796,
                2.8771917923036923
            ]
        },
        {
            "positions": [
                0.12382872127454132,
                -1.1314812320578973,
                1.9566783322577188,
                -0.7094059525647978,
                0.13505456538477492,
                3.0246624393065162
            ]
        }
    ]
}