{
    "goal": {
        "global_pose": {
            "orientation": {
                "w": 0.7031023502349854,
                "x": -0.7110244035720825,
                "y": 0.007748599164187908,
                "z": 0.005598929710686207
            },
            "position": {
                "x": 0.11585023208521307,
                "y": 0.44412534475326537,
                "z": 0.3711530566215515
            }
        },
        "name": "move_to_auspresseinheit_A"
    },
    "id": "LBKPIECE_move_to_auspresseinheit_A_131",
    "joint_names": [
        "shoulder_pan_joint",
        "shoulder_lift_joint",
        "elbow_joint",
        "wrist_1_joint",
        "wrist_2_joint",
        "wrist_3_joint"
    ],
    "metrics": {
        "cart_traj_len": 1.8686556054621852,
        "distance_elbow_joint": 0.8430835324349641,
        "distance_shoulder_lift_joint": 1.808648831032709,
        "distance_shoulder_pan_joint": 4.7260048704245055,
        "distance_wrist_1_joint": 4.443795187402606,
        "distance_wrist_2_joint": 1.620507702339713,
        "distance_wrist_3_joint": 9.780858629753721,
        "smoothness": 0.5543184737201693,
        "time": 0.529794173,
        "traj_len": 4.8190142927146615,
        "weighted_distance": 6.989200161866732
    },
    "planner": "LBKPIECE",
    "start": {
        "state": {
            "elbow_joint": 2.4225746658250005,
            "shoulder_lift_joint": -1.3736534386056498,
            "shoulder_pan_joint": -0.3378633547517467,
            "wrist_1_joint": -1.0288598680537169,
            "wrist_2_joint": 1.233022673432363,
            "wrist_3_joint": -3.0940220416140027
        }
    },
    "waypoints": [
        {
            "positions": [
                -0.3378633547517467,
                -1.3736534386056498,
                2.4225746658250005,
                -1.0288598680537169,
                1.233022673432363,
                -3.0940220416140027
            ]
        },
        {
            "positions": [
                -0.40360085473898843,
                -1.4155265075198473,
                2.4370828837393543,
                -1.0979459647004632,
                1.2527471446828546,
                -2.9202272051382097
            ]
        },
        {
            "positions": [
                -0.46933835472623014,
                -1.457399576434045,
                2.451591101653708,
                -1.1670320613472094,
                1.272471615933346,
                -2.7464323686624166
            ]
        },
        {
            "positions": [
                -0.5350758547134719,
                -1.4992726453482426,
                2.466099319568062,
                -1.2361181579939557,
                1.2921960871838376,
                -2.5726375321866235
            ]
        },
        {
            "positions": [
                -0.6008133547007135,
                -1.54114571426244,
                2.4806075374824164,
                -1.305204254640702,
                1.3119205584343292,
                -2.3988426957108304
            ]
        },
        {
            "positions": [
                -0.6665508546879553,
                -1.5830187831766378,
                2.49511575539677,
                -1.3742903512874483,
                1.3316450296848206,
                -2.2250478592350373
            ]
        },
        {
            "positions": [
                -0.732288354675197,
                -1.6248918520908353,
                2.509623973311124,
                -1.4433764479341946,
                1.3513695009353122,
                -2.0512530227592443
            ]
        },
        {
            "positions": [
                -0.7980258546624388,
                -1.666764921005033,
                2.524132191225478,
                -1.512462544580941,
                1.3710939721858038,
                -1.8774581862834512
            ]
        },
        {
            "positions": [
                -0.8637633546496803,
                -1.7086379899192305,
                2.538640409139832,
                -1.5815486412276871,
                1.3908184434362951,
                -1.703663349807658
            ]
        },
        {
            "positions": [
                -0.9295008546369223,
                -1.7505110588334283,
                2.5531486270541857,
                -1.6506347378744337,
                1.4105429146867867,
                -1.5298685133318648
            ]
        },
        {
            "positions": [
                -0.9952383546241639,
                -1.7923841277476258,
                2.5676568449685395,
                -1.7197208345211799,
                1.4302673859372783,
                -1.356073676856072
            ]
        },
        {
            "positions": [
                -1.0609758546114056,
                -1.8342571966618233,
                2.582165062882894,
                -1.788806931167926,
                1.44999185718777,
                -1.1822788403802789
            ]
        },
        {
            "positions": [
                -1.1267133545986472,
                -1.876130265576021,
                2.5966732807972477,
                -1.8578930278146724,
                1.4697163284382613,
                -1.0084840039044858
            ]
        },
        {
            "positions": [
                -1.1924508545858892,
                -1.9180033344902185,
                2.6111814987116015,
                -1.9269791244614187,
                1.4894407996887529,
                -0.8346891674286927
            ]
        },
        {
            "positions": [
                -1.2581883545731307,
                -1.959876403404416,
                2.6256897166259554,
                -1.9960652211081649,
                1.5091652709392442,
                -0.6608943309528996
            ]
        },
        {
            "positions": [
                -1.3239258545603725,
                -2.0017494723186138,
                2.6401979345403093,
                -2.0651513177549115,
                1.5288897421897358,
                -0.48709949447710654
            ]
        },
        {
            "positions": [
                -1.389663354547614,
                -2.0436225412328115,
                2.654706152454663,
                -2.1342374144016576,
                1.5486142134402274,
                -0.31330465800131346
            ]
        },
        {
            "positions": [
                -1.4554008545348558,
                -2.085495610147009,
                2.669214370369017,
                -2.2033235110484037,
                1.568338684690719,
                -0.13950982152552083
            ]
        },
        {
            "positions": [
                -1.5211383545220978,
                -2.1273686790612065,
                2.6837225882833713,
                -2.2724096076951503,
                1.5880631559412104,
                0.03428501495027314
            ]
        },
        {
            "positions": [
                -1.5868758545093393,
                -2.1692417479754043,
                2.698230806197725,
                -2.3414957043418965,
                1.607787627191702,
                0.20807985142606578
            ]
        },
        {
            "positions": [
                -1.652613354496581,
                -2.2111148168896015,
                2.712739024112079,
                -2.410581800988643,
                1.6275120984421934,
                0.38187468790185886
            ]
        },
        {
            "positions": [
                -1.7183508544838229,
                -2.2529878858037993,
                2.727247242026433,
                -2.479667897635389,
                1.647236569692685,
                0.5556695243776519
            ]
        },
        {
            "positions": [
                -1.7840883544710644,
                -2.294860954717997,
                2.7417554599407867,
                -2.5487539942821353,
                1.6669610409431765,
                0.729464360853445
            ]
        },
        {
            "positions": [
                -1.8498258544583062,
                -2.3367340236321947,
                2.7562636778551406,
                -2.6178400909288815,
                1.6866855121936681,
                0.9032591973292381
            ]
        },
        {
            "positions": [
                -1.9155633544455477,
                -2.378607092546392,
                2.7707718957694945,
                -2.6869261875756276,
                1.7064099834441595,
                1.0770540338050312
            ]
        },
        {
            "positions": [
                -1.9813008544327897,
                -2.4204801614605898,
                2.7852801136838488,
                -2.756012284222374,
                1.726134454694651,
                1.2508488702808247
            ]
        },
        {
            "positions": [
                -2.0470383544200317,
                -2.462353230374787,
                2.7997883315982026,
                -2.825098380869121,
                1.7458589259451425,
                1.4246437067566173
            ]
        },
        {
            "positions": [
                -2.112775854407273,
                -2.5042262992889848,
                2.8142965495125565,
                -2.894184477515867,
                1.765583397195634,
                1.5984385432324109
            ]
        },
        {
            "positions": [
                -2.1785133543945148,
                -2.5460993682031825,
                2.8288047674269103,
                -2.963270574162613,
                1.7853078684461257,
                1.772233379708203
            ]
        },
        {
            "positions": [
                -2.0883460146825854,
                -2.526218027533333,
                2.8151530977133774,
                -2.8848523091221847,
                1.7519259150921898,
                1.6186520294447186
            ]
        },
        {
            "positions": [
                -1.998178674970656,
                -2.506336686863484,
                2.8015014279998445,
                -2.8064340440817563,
                1.7185439617382539,
                1.465070679181234
            ]
        },
        {
            "positions": [
                -1.9080113352587267,
                -2.486455346193635,
                2.7878497582863115,
                -2.728015779041328,
                1.6851620083843177,
                1.3114893289177494
            ]
        },
        {
            "positions": [
                -1.8178439955467973,
                -2.4665740055237855,
                2.7741980885727786,
                -2.6495975140008996,
                1.6517800550303818,
                1.157907978654265
            ]
        },
        {
            "positions": [
                -1.727676655834868,
                -2.446692664853936,
                2.7605464188592457,
                -2.571179248960471,
                1.618398101676446,
                1.0043266283907806
            ]
        },
        {
            "positions": [
                -1.6375093161229384,
                -2.426811324184087,
                2.7468947491457127,
                -2.4927609839200424,
                1.58501614832251,
                0.850745278127296
            ]
        },
        {
            "positions": [
                -1.547341976411009,
                -2.406929983514238,
                2.73324307943218,
                -2.414342718879614,
                1.5516341949685741,
                0.6971639278638113
            ]
        },
        {
            "positions": [
                -1.4571746366990797,
                -2.3870486428443884,
                2.719591409718647,
                -2.3359244538391857,
                1.518252241614638,
                0.5435825776003269
            ]
        },
        {
            "positions": [
                -1.3670072969871503,
                -2.367167302174539,
                2.705939740005114,
                -2.2575061887987573,
                1.484870288260702,
                0.3900012273368425
            ]
        },
        {
            "positions": [
                -1.276839957275221,
                -2.34728596150469,
                2.692288070291581,
                -2.179087923758329,
                1.4514883349067662,
                0.23641987707335788
            ]
        },
        {
            "positions": [
                -1.1866726175632913,
                -2.327404620834841,
                2.678636400578048,
                -2.1006696587179006,
                1.41810638155283,
                0.08283852680987325
            ]
        },
        {
            "positions": [
                -1.096505277851362,
                -2.3075232801649914,
                2.664984730864515,
                -2.0222513936774718,
                1.3847244281988944,
                -0.07074282345361116
            ]
        },
        {
            "positions": [
                -1.0063379381394326,
                -2.287641939495142,
                2.651333061150982,
                -1.9438331286370436,
                1.3513424748449583,
                -0.22432417371709557
            ]
        },
        {
            "positions": [
                -0.9161705984275033,
                -2.267760598825293,
                2.6376813914374493,
                -1.865414863596615,
                1.3179605214910224,
                -0.3779055239805804
            ]
        },
        {
            "positions": [
                -0.8260032587155739,
                -2.247879258155444,
                2.6240297217239164,
                -1.7869965985561866,
                1.2845785681370865,
                -0.5314868742440648
            ]
        },
        {
            "positions": [
                -0.7358359190036445,
                -2.2279979174855944,
                2.6103780520103834,
                -1.7085783335157583,
                1.2511966147831504,
                -0.6850682245075492
            ]
        },
        {
            "positions": [
                -0.6456685792917152,
                -2.208116576815745,
                2.5967263822968505,
                -1.63016006847533,
                1.2178146614292147,
                -0.8386495747710336
            ]
        },
        {
            "positions": [
                -0.5555012395797858,
                -2.188235236145896,
                2.583074712583317,
                -1.5517418034349015,
                1.1844327080752786,
                -0.992230925034518
            ]
        },
        {
            "positions": [
                -0.46533389986785645,
                -2.168353895476047,
                2.569423042869784,
                -1.473323538394473,
                1.1510507547213427,
                -1.145812275298003
            ]
        },
        {
            "positions": [
                -0.3751665601559271,
                -2.1484725548061974,
                2.5557713731562512,
                -1.3949052733540446,
                1.1176688013674068,
                -1.2993936255614873
            ]
        },
        {
            "positions": [
                -0.2849992204439975,
                -2.128591214136348,
                2.5421197034427183,
                -1.3164870083136162,
                1.0842868480134706,
                -1.4529749758249717
            ]
        },
        {
            "positions": [
                -0.19483188073206814,
                -2.108709873466499,
                2.5284680337291854,
                -1.2380687432731876,
                1.0509048946595347,
                -1.6065563260884566
            ]
        },
        {
            "positions": [
                -0.104664541020139,
                -2.08882853279665,
                2.5148163640156525,
                -1.1596504782327592,
                1.0175229413055988,
                -1.760137676351941
            ]
        },
        {
            "positions": [
                -0.014497201308209196,
                -2.0689471921268003,
                2.5011646943021195,
                -1.0812322131923309,
                0.9841409879516629,
                -1.9137190266154254
            ]
        },
        {
            "positions": [
                0.07567013840372017,
                -2.049065851456951,
                2.4875130245885866,
                -1.0028139481519025,
                0.9507590345977269,
                -2.0673003768789098
            ]
        },
        {
            "positions": [
                0.16583747811564953,
                -2.029184510787102,
                2.4738613548750537,
                -0.9243956831114741,
                0.917377081243791,
                -2.220881727142394
            ]
        },
        {
            "positions": [
                0.2560048178275789,
                -2.009303170117253,
                2.4602096851615207,
                -0.8459774180710458,
                0.883995127889855,
                -2.374463077405879
            ]
        },
        {
            "positions": [
                0.34617215753950825,
                -1.9894218294474033,
                2.446558015447988,
                -0.767559153030617,
                0.8506131745359191,
                -2.528044427669364
            ]
        },
        {
            "positions": [
                0.4363394972514376,
                -1.969540488777554,
                2.432906345734455,
                -0.6891408879901886,
                0.8172312211819831,
                -2.681625777932848
            ]
        },
        {
            "positions": [
                0.526506836963367,
                -1.9496591481077048,
                2.419254676020922,
                -0.6107226229497602,
                0.7838492678280471,
                -2.8352071281963327
            ]
        },
        {
            "positions": [
                0.6166741766752963,
                -1.9297778074378555,
                2.405603006307389,
                -0.5323043579093318,
                0.7504673144741112,
                -2.9887884784598167
            ]
        },
        {
            "positions": [
                0.7068415163872256,
                -1.9098964667680063,
                2.391951336593856,
                -0.45388609286890325,
                0.7170853611201753,
                -3.142369828723301
            ]
        }
    ]
}