{
    "goal": {
        "global_pose": {
            "orientation": {
                "w": 0.5084816217422485,
                "x": -0.49083608388900757,
                "y": 0.5182115435600281,
                "z": -0.4816462993621826
            },
            "position": {
                "x": 0.5540239810943604,
                "y": 0.030875300988554955,
                "z": 0.16403168439865112
            }
        },
        "name": "move_to_storage_A"
    },
    "id": "LBKPIECE_move_to_storage_A_20",
    "joint_names": [
        "shoulder_pan_joint",
        "shoulder_lift_joint",
        "elbow_joint",
        "wrist_1_joint",
        "wrist_2_joint",
        "wrist_3_joint"
    ],
    "metrics": {
        "cart_traj_len": 0.35257793532964354,
        "distance_elbow_joint": 0.45163540084977005,
        "distance_shoulder_lift_joint": 0.23513449737267011,
        "distance_shoulder_pan_joint": 0.46112981911517736,
        "distance_wrist_1_joint": 0.2527555806535512,
        "distance_wrist_2_joint": 1.0976423257536148,
        "distance_wrist_3_joint": 0.10693482620468853,
        "smoothness": 0.0,
        "time": 0.320985812,
        "traj_len": 1.6140732480124538,
        "weighted_distance": 2.041935358615942
    },
    "planner": "LBKPIECE",
    "start": {
        "state": {
            "elbow_joint": 1.971548259319323,
            "shoulder_lift_joint": -1.1394851275133948,
            "shoulder_pan_joint": 0.1228115487234821,
            "wrist_1_joint": -0.7804723859257726,
            "wrist_2_joint": 0.12958671773740124,
            "wrist_3_joint": -3.192489227718131
        }
    },
    "waypoints": [
        {
            "positions": [
                0.1228115487234821,
                -1.1394851275133948,
                1.971548259319323,
                -0.7804723859257726,
                0.12958671773740124,
                -3.192489227718131
            ]
        },
        {
            "positions": [
                0.05693586027845676,
                -1.1730757699952048,
                2.0360676022978614,
                -0.8165803260191371,
                0.2863927642736319,
                -3.177212823974604
            ]
        },
        {
            "positions": [
                -0.008939828166568575,
                -1.2066664124770148,
                2.1005869452764,
                -0.8526882661125015,
                0.44319881080986256,
                -3.1619364202310773
            ]
        },
        {
            "positions": [
                -0.07481551661159391,
                -1.2402570549588248,
                2.165106288254939,
                -0.888796206205866,
                0.6000048573460932,
                -3.1466600164875502
            ]
        },
        {
            "positions": [
                -0.14069120505661925,
                -1.273847697440635,
                2.2296256312334775,
                -0.9249041462992305,
                0.756810903882324,
                -3.1313836127440235
            ]
        },
        {
            "positions": [
                -0.2065668935016446,
                -1.307438339922445,
                2.294144974212016,
                -0.9610120863925948,
                0.9136169504185547,
                -3.1161072090004964
            ]
        },
        {
            "positions": [
                -0.2724425819466699,
                -1.341028982404255,
                2.3586643171905544,
                -0.9971200264859593,
                1.0704229969547852,
                -3.1008308052569697
            ]
        },
        {
            "positions": [
                -0.33831827039169526,
                -1.374619624886065,
                2.423183660169093,
                -1.0332279665793238,
                1.227229043491016,
                -3.0855544015134426
            ]
        }
    ]
}{
    "goal": {
        "global_pose": {
            "orientation": {
                "w": 0.5084816217422485,
                "x": -0.49083608388900757,
                "y": 0.5182115435600281,
                "z": -0.4816462993621826
            },
            "position": {
                "x": 0.5540239810943604,
                "y": 0.030875300988554955,
                "z": 0.16403168439865112
            }
        },
        "name": "move_to_storage_A"
    },
    "id": "LBKPIECE_move_to_storage_A_20",
    "joint_names": [
        "shoulder_pan_joint",
        "shoulder_lift_joint",
        "elbow_joint",
        "wrist_1_joint",
        "wrist_2_joint",
        "wrist_3_joint"
    ],
    "metrics": {
        "cart_traj_len": 0.3530916572321427,
        "distance_elbow_joint": 0.45195363191390747,
        "distance_shoulder_lift_joint": 0.2327555013029663,
        "distance_shoulder_pan_joint": 0.4586903607644574,
        "distance_wrist_1_joint": 0.25951473094379085,
        "distance_wrist_2_joint": 1.1107245381818684,
        "distance_wrist_3_joint": 0.1049881241673778,
        "smoothness": 4.440892098500626e-16,
        "time": 0.47526630200000003,
        "traj_len": 1.6182171940979888,
        "weighted_distance": 2.0491077094029935
    },
    "planner": "LBKPIECE",
    "start": {
        "state": {
            "elbow_joint": 1.97154746011099,
            "shoulder_lift_joint": -1.13948474672311,
            "shoulder_pan_joint": 0.12281154466712228,
            "wrist_1_joint": -0.7804688027058302,
            "wrist_2_joint": 0.12958655903071145,
            "wrist_3_joint": 3.0906928834467795
        }
    },
    "waypoints": [
        {
            "positions": [
                0.12281154466712228,
                -1.13948474672311,
                1.97154746011099,
                -0.7804688027058302,
                0.12958655903071145,
                3.0906928834467795
            ]
        },
        {
            "positions": [
                0.0572843502721998,
                -1.1727355326235338,
                2.0361122646701197,
                -0.8175423356978003,
                0.2882614930566927,
                3.105691186899262
            ]
        },
        {
            "positions": [
                -0.008242844122722678,
                -1.2059863185239574,
                2.100677069229249,
                -0.8546158686897705,
                0.4469364270826739,
                3.1206894903517446
            ]
        },
        {
            "positions": [
                -0.07377003851764517,
                -1.2392371044243813,
                2.165241873788379,
                -0.8916894016817405,
                0.6056113611086551,
                3.135687793804227
            ]
        },
        {
            "positions": [
                -0.13929723291256763,
                -1.272487890324805,
                2.2298066783475083,
                -0.9287629346737106,
                0.7642862951346363,
                3.1506860972567097
            ]
        },
        {
            "positions": [
                -0.20482442730749012,
                -1.3057386762252288,
                2.294371482906638,
                -0.9658364676656808,
                0.9229612291606175,
                3.165684400709192
            ]
        },
        {
            "positions": [
                -0.2703516217024126,
                -1.3389894621256524,
                2.3589362874657676,
                -1.0029100006576508,
                1.0816361631865987,
                3.1806827041616748
            ]
        },
        {
            "positions": [
                -0.3358788160973351,
                -1.3722402480260762,
                2.4235010920248974,
                -1.039983533649621,
                1.24031109721258,
                3.1956810076141573
            ]
        }
    ]
}{
    "goal": {
        "global_pose": {
            "orientation": {
                "w": 0.5084816217422485,
                "x": -0.49083608388900757,
                "y": 0.5182115435600281,
                "z": -0.4816462993621826
            },
            "position": {
                "x": 0.5540239810943604,
                "y": 0.030875300988554955,
                "z": 0.16403168439865112
            }
        },
        "name": "move_to_storage_A"
    },
    "id": "LBKPIECE_move_to_storage_A_20",
    "joint_names": [
        "shoulder_pan_joint",
        "shoulder_lift_joint",
        "elbow_joint",
        "wrist_1_joint",
        "wrist_2_joint",
        "wrist_3_joint"
    ],
    "metrics": {
        "cart_traj_len": 0.3526731183382759,
        "distance_elbow_joint": 0.4483295364498767,
        "distance_shoulder_lift_joint": 0.2365720446830204,
        "distance_shoulder_pan_joint": 0.46202924516819227,
        "distance_wrist_1_joint": 0.2335570690650539,
        "distance_wrist_2_joint": 1.0951521424143362,
        "distance_wrist_3_joint": 0.09865143485664474,
        "smoothness": 8.881784232165597e-16,
        "time": 0.134772588,
        "traj_len": 1.6044598694380374,
        "weighted_distance": 2.024920629019766
    },
    "planner": "LBKPIECE",
    "start": {
        "state": {
            "elbow_joint": 1.9715472970024885,
            "shoulder_lift_joint": -1.1394870060712896,
            "shoulder_pan_joint": 0.12281152778156021,
            "wrist_1_joint": -0.780463741449964,
            "wrist_2_joint": 0.12958659822042276,
            "wrist_3_joint": 3.090690232415272
        }
    },
    "waypoints": [
        {
            "positions": [
                0.12281152778156021,
                -1.1394870060712896,
                1.9715472970024885,
                -0.780463741449964,
                0.12958659822042276,
                3.090690232415272
            ]
        },
        {
            "positions": [
                0.056807349900389895,
                -1.1732830124545783,
                2.0355943736381854,
                -0.813829037030686,
                0.28603690427961365,
                3.1047832945376497
            ]
        },
        {
            "positions": [
                -0.00919682798078042,
                -1.2070790188378668,
                2.099641450273882,
                -0.847194332611408,
                0.44248721033880456,
                3.1188763566600275
            ]
        },
        {
            "positions": [
                -0.07520100586195072,
                -1.2408750252211556,
                2.1636885269095787,
                -0.88055962819213,
                0.5989375163979954,
                3.1329694187824053
            ]
        },
        {
            "positions": [
                -0.14120518374312105,
                -1.274671031604444,
                2.227735603545275,
                -0.913924923772852,
                0.7553878224571863,
                3.147062480904783
            ]
        },
        {
            "positions": [
                -0.2072093616242914,
                -1.3084670379877328,
                2.291782680180972,
                -0.9472902193535739,
                0.9118381285163772,
                3.161155543027161
            ]
        },
        {
            "positions": [
                -0.2732135395054617,
                -1.3422630443710213,
                2.3558297568166684,
                -0.9806555149342959,
                1.068288434575568,
                3.1752486051495388
            ]
        },
        {
            "positions": [
                -0.33921771738663203,
                -1.37605905075431,
                2.4198768334523653,
                -1.014020810515018,
                1.224738740634759,
                3.1893416672719166
            ]
        }
    ]
}