{
    "goal": {
        "global_pose": {
            "orientation": {
                "w": 0.7047431493862688,
                "x": -0.7094548369677653,
                "y": 0.0024358444001904,
                "z": -0.0022348060817251984
            },
            "position": {
                "x": -0.39052492380142206,
                "y": 0.3671506643295288,
                "z": 0.19426114857196808
            }
        },
        "name": "move_to_magneteinheit_D"
    },
    "id": "LBKPIECE_move_to_magneteinheit_D_75",
    "joint_names": [
        "shoulder_pan_joint",
        "shoulder_lift_joint",
        "elbow_joint",
        "wrist_1_joint",
        "wrist_2_joint",
        "wrist_3_joint"
    ],
    "metrics": {
        "cart_traj_len": 5.083097554153455,
        "distance_elbow_joint": 3.10705572636381,
        "distance_shoulder_lift_joint": 1.8204188189624226,
        "distance_shoulder_pan_joint": 4.342837797678277,
        "distance_wrist_1_joint": 4.440200607009546,
        "distance_wrist_2_joint": 2.7897589521941497,
        "distance_wrist_3_joint": 6.30230275440792,
        "smoothness": 0.5727512395565226,
        "time": 0.407099817,
        "traj_len": 4.7752041481612215,
        "weighted_distance": 6.529712070576746
    },
    "planner": "LBKPIECE",
    "start": {
        "state": {
            "elbow_joint": 0.749534889911806,
            "shoulder_lift_joint": -0.6476975780787326,
            "shoulder_pan_joint": -2.711696901376241,
            "wrist_1_joint": -0.07506478083263063,
            "wrist_2_joint": 0.43296659715538205,
            "wrist_3_joint": -3.14703540197715
        }
    },
    "waypoints": [
        {
            "positions": [
                -2.711696901376241,
                -0.6476975780787326,
                0.749534889911806,
                -0.07506478083263063,
                0.43296659715538205,
                -3.14703540197715
            ]
        },
        {
            "positions": [
                -2.7452304383065216,
                -0.6327127170253388,
                0.7354791919718161,
                0.007602301131097083,
                0.2849251890550837,
                -3.0500705407709954
            ]
        },
        {
            "positions": [
                -2.778763975236802,
                -0.617727855971945,
                0.7214234940318262,
                0.0902693830948248,
                0.13688378095478526,
                -2.953105679564841
            ]
        },
        {
            "positions": [
                -2.812297512167083,
                -0.6027429949185513,
                0.7073677960918363,
                0.17293646505855248,
                -0.011157627145513105,
                -2.8561408183586865
            ]
        },
        {
            "positions": [
                -2.8458310490973635,
                -0.5877581338651575,
                0.6933120981518465,
                0.2556035470222802,
                -0.15919903524581153,
                -2.7591759571525323
            ]
        },
        {
            "positions": [
                -2.879364586027644,
                -0.5727732728117637,
                0.6792564002118566,
                0.3382706289860079,
                -0.30724044334610984,
                -2.6622110959463776
            ]
        },
        {
            "positions": [
                -2.9128981229579245,
                -0.5577884117583699,
                0.6652007022718667,
                0.4209377109497356,
                -0.45528185144640826,
                -2.5652462347402234
            ]
        },
        {
            "positions": [
                -2.946431659888205,
                -0.5428035507049761,
                0.6511450043318768,
                0.5036047929134633,
                -0.6033232595467066,
                -2.4682813735340687
            ]
        },
        {
            "positions": [
                -2.979965196818486,
                -0.5278186896515823,
                0.637089306391887,
                0.5862718748771911,
                -0.7513646676470052,
                -2.3713165123279145
            ]
        },
        {
            "positions": [
                -3.0134987337487664,
                -0.5128338285981886,
                0.623033608451897,
                0.6689389568409188,
                -0.8994060757473037,
                -2.27435165112176
            ]
        },
        {
            "positions": [
                -3.047032270679047,
                -0.4978489675447948,
                0.6089779105119072,
                0.7516060388046464,
                -1.0474474838476018,
                -2.177386789915605
            ]
        },
        {
            "positions": [
                -3.0805658076093274,
                -0.482864106491401,
                0.5949222125719174,
                0.8342731207683742,
                -1.1954888919479003,
                -2.080421928709451
            ]
        },
        {
            "positions": [
                -3.0006962197893254,
                -0.5168198121610698,
                0.5276475481080833,
                0.7583227485121155,
                -1.1700916867911078,
                -1.9732521531030396
            ]
        },
        {
            "positions": [
                -2.920826631969323,
                -0.5507755178307385,
                0.46037288364424944,
                0.6823723762558567,
                -1.1446944816343152,
                -1.8660823774966282
            ]
        },
        {
            "positions": [
                -2.840957044149321,
                -0.5847312235004074,
                0.39309821918041543,
                0.606422003999598,
                -1.1192972764775226,
                -1.7589126018902168
            ]
        },
        {
            "positions": [
                -2.761087456329319,
                -0.6186869291700762,
                0.3258235547165815,
                0.5304716317433392,
                -1.09390007132073,
                -1.6517428262838054
            ]
        },
        {
            "positions": [
                -2.681217868509317,
                -0.6526426348397449,
                0.2585488902527475,
                0.45452125948708044,
                -1.0685028661639375,
                -1.544573050677394
            ]
        },
        {
            "positions": [
                -2.601348280689315,
                -0.6865983405094137,
                0.19127422578891357,
                0.3785708872308217,
                -1.043105661007145,
                -1.4374032750709824
            ]
        },
        {
            "positions": [
                -2.5214786928693127,
                -0.7205540461790825,
                0.12399956132507955,
                0.3026205149745629,
                -1.0177084558503524,
                -1.330233499464571
            ]
        },
        {
            "positions": [
                -2.4416091050493107,
                -0.7545097518487514,
                0.0567248968612456,
                0.2266701427183042,
                -0.99231125069356,
                -1.2230637238581596
            ]
        },
        {
            "positions": [
                -2.3617395172293083,
                -0.7884654575184201,
                -0.010549767602588411,
                0.15071977046204543,
                -0.9669140455367674,
                -1.115893948251748
            ]
        },
        {
            "positions": [
                -2.2818699294093063,
                -0.8224211631880889,
                -0.07782443206642231,
                0.07476939820578665,
                -0.941516840379975,
                -1.0087241726453369
            ]
        },
        {
            "positions": [
                -2.2020003415893044,
                -0.8563768688577578,
                -0.14509909653025632,
                -0.0011809740504721278,
                -0.9161196352231824,
                -0.9015543970389253
            ]
        },
        {
            "positions": [
                -2.1221307537693024,
                -0.8903325745274264,
                -0.21237376099409022,
                -0.0771313463067308,
                -0.8907224300663898,
                -0.7943846214325139
            ]
        },
        {
            "positions": [
                -2.0422611659493004,
                -0.9242882801970953,
                -0.27964842545792423,
                -0.15308171856298958,
                -0.8653252249095973,
                -0.6872148458261027
            ]
        },
        {
            "positions": [
                -1.962391578129298,
                -0.9582439858667641,
                -0.34692308992175824,
                -0.22903209081924847,
                -0.8399280197528047,
                -0.5800450702196911
            ]
        },
        {
            "positions": [
                -1.882521990309296,
                -0.9921996915364328,
                -0.41419775438559214,
                -0.30498246307550714,
                -0.8145308145960122,
                -0.4728752946132797
            ]
        },
        {
            "positions": [
                -1.802652402489294,
                -1.0261553972061015,
                -0.48147241884942615,
                -0.3809328353317658,
                -0.7891336094392196,
                -0.3657055190068683
            ]
        },
        {
            "positions": [
                -1.722782814669292,
                -1.0601111028757704,
                -0.5487470833132602,
                -0.4568832075880245,
                -0.7637364042824271,
                -0.25853574340045693
            ]
        },
        {
            "positions": [
                -1.6429132268492896,
                -1.0940668085454393,
                -0.6160217477770942,
                -0.5328335798442834,
                -0.7383391991256345,
                -0.15136596779404532
            ]
        },
        {
            "positions": [
                -1.5630436390292877,
                -1.128022514215108,
                -0.6832964122409282,
                -0.6087839521005423,
                -0.712941993968842,
                -0.044196192187634153
            ]
        },
        {
            "positions": [
                -1.4831740512092857,
                -1.1619782198847768,
                -0.750571076704762,
                -0.6847343243568009,
                -0.6875447888120495,
                0.06297358341877723
            ]
        },
        {
            "positions": [
                -1.4033044633892837,
                -1.1959339255544457,
                -0.817845741168596,
                -0.7606846966130596,
                -0.6621475836552569,
                0.17014335902518862
            ]
        },
        {
            "positions": [
                -1.3234348755692813,
                -1.2298896312241143,
                -0.88512040563243,
                -0.8366350688693185,
                -0.6367503784984644,
                0.27731313463160046
            ]
        },
        {
            "positions": [
                -1.2435652877492795,
                -1.263845336893783,
                -0.9523950700962638,
                -0.9125854411255769,
                -0.6113531733416719,
                0.3844829102380114
            ]
        },
        {
            "positions": [
                -1.1636956999292773,
                -1.297801042563452,
                -1.0196697345600978,
                -0.9885358133818358,
                -0.5859559681848793,
                0.49165268584442323
            ]
        },
        {
            "positions": [
                -1.0838261121092752,
                -1.3317567482331207,
                -1.086944399023932,
                -1.0644861856380947,
                -0.5605587630280867,
                0.5988224614508346
            ]
        },
        {
            "positions": [
                -1.0039565242892734,
                -1.3657124539027894,
                -1.1542190634877658,
                -1.1404365578943534,
                -0.5351615578712943,
                0.7059922370572456
            ]
        },
        {
            "positions": [
                -0.924086936469271,
                -1.3996681595724585,
                -1.2214937279515998,
                -1.2163869301506123,
                -0.5097643527145017,
                0.8131620126636574
            ]
        },
        {
            "positions": [
                -0.8442173486492686,
                -1.4336238652421271,
                -1.2887683924154338,
                -1.2923373024068712,
                -0.48436714755770904,
                0.9203317882700688
            ]
        },
        {
            "positions": [
                -0.764347760829267,
                -1.4675795709117958,
                -1.3560430568792676,
                -1.3682876746631296,
                -0.4589699424009166,
                1.0275015638764802
            ]
        },
        {
            "positions": [
                -0.6844781730092646,
                -1.5015352765814647,
                -1.4233177213431016,
                -1.4442380469193885,
                -0.43357273724412404,
                1.1346713394828916
            ]
        },
        {
            "positions": [
                -0.6046085851892626,
                -1.5354909822511333,
                -1.4905923858069356,
                -1.520188419175647,
                -0.4081755320873316,
                1.241841115089303
            ]
        },
        {
            "positions": [
                -0.5247389973692607,
                -1.5694466879208022,
                -1.5578670502707697,
                -1.5961387914319058,
                -0.38277832693053904,
                1.3490108906957143
            ]
        },
        {
            "positions": [
                -0.44486940954925824,
                -1.603402393590471,
                -1.6251417147346037,
                -1.6720891636881647,
                -0.35738112177374637,
                1.4561806663021262
            ]
        },
        {
            "positions": [
                -0.3649998217292567,
                -1.6373580992601398,
                -1.6924163791984377,
                -1.7480395359444232,
                -0.3319839166169539,
                1.5633504419085371
            ]
        },
        {
            "positions": [
                -0.2851302339092543,
                -1.6713138049298086,
                -1.7596910436622717,
                -1.823989908200682,
                -0.30658671146016137,
                1.6705202175149485
            ]
        },
        {
            "positions": [
                -0.20526064608925187,
                -1.7052695105994775,
                -1.8269657081261057,
                -1.899940280456941,
                -0.2811895063033688,
                1.7776899931213603
            ]
        },
        {
            "positions": [
                -0.12539105826925034,
                -1.7392252162691462,
                -1.8942403725899393,
                -1.9758906527131999,
                -0.25579230114657625,
                1.8848597687277713
            ]
        },
        {
            "positions": [
                -0.045521470449247925,
                -1.773180921938815,
                -1.9615150370537737,
                -2.051841024969459,
                -0.2303950959897837,
                1.9920295443341827
            ]
        },
        {
            "positions": [
                0.03434811737075405,
                -1.8071366276084837,
                -2.0287897015176073,
                -2.1277913972257174,
                -0.20499789083299125,
                2.0991993199405945
            ]
        },
        {
            "positions": [
                0.11421770519075602,
                -1.8410923332781526,
                -2.0960643659814413,
                -2.203741769481976,
                -0.1796006856761987,
                2.2063690955470054
            ]
        },
        {
            "positions": [
                0.19408729301075844,
                -1.8750480389478215,
                -2.1633390304452753,
                -2.279692141738235,
                -0.15420348051940613,
                2.3135388711534173
            ]
        },
        {
            "positions": [
                0.27395688083076,
                -1.9090037446174901,
                -2.2306136949091093,
                -2.3556425139944936,
                -0.12880627536261358,
                2.420708646759828
            ]
        },
        {
            "positions": [
                0.3538264686507625,
                -1.942959450287159,
                -2.2978883593729433,
                -2.431592886250752,
                -0.10340907020582102,
                2.52787842236624
            ]
        },
        {
            "positions": [
                0.24997533329004246,
                -1.9041592254958575,
                -2.309082202796896,
                -2.3818702242783734,
                -0.1129931598185056,
                2.6526022499655437
            ]
        },
        {
            "positions": [
                0.1461241979293224,
                -1.865359000704556,
                -2.3202760462208487,
                -2.3321475623059946,
                -0.1225772494311902,
                2.7773260775648474
            ]
        },
        {
            "positions": [
                0.042273062568602415,
                -1.8265587759132547,
                -2.331469889644801,
                -2.2824249003336154,
                -0.13216133904387478,
                2.9020499051641506
            ]
        },
        {
            "positions": [
                -0.06157807279211769,
                -1.7877585511219531,
                -2.342663733068754,
                -2.2327022383612367,
                -0.14174542865655937,
                3.0267737327634543
            ]
        },
        {
            "positions": [
                -0.16542920815283768,
                -1.7489583263306516,
                -2.3538575764927065,
                -2.182979576388858,
                -0.15132951826924396,
                3.151497560362758
            ]
        },
        {
            "positions": [
                -0.18575014653433924,
                -1.747469446707826,
                -2.357520836452004,
                -2.199362964916379,
                -0.1726327115546086,
                3.1552673524307693
            ]
        }
    ]
}