{
    "goal": {
        "global_pose": {
            "orientation": {
                "w": 0.005598929693374612,
                "x": 0.007748599140229565,
                "y": 0.7110244013736278,
                "z": -0.7031023480610252
            },
            "position": {
                "x": -0.8858502320852131,
                "y": -0.7141253447532654,
                "z": 0.3711530566215515
            }
        },
        "name": "move_to_auspresseinheit_C"
    },
    "id": "LBKPIECE_move_to_auspresseinheit_C_139",
    "joint_names": [
        "shoulder_pan_joint",
        "shoulder_lift_joint",
        "elbow_joint",
        "wrist_1_joint",
        "wrist_2_joint",
        "wrist_3_joint"
    ],
    "metrics": {
        "cart_traj_len": 0.4935563003877033,
        "distance_elbow_joint": 0.9970586693293995,
        "distance_shoulder_lift_joint": 0.3227914672283685,
        "distance_shoulder_pan_joint": 0.2568598275119802,
        "distance_wrist_1_joint": 0.6727298592564127,
        "distance_wrist_2_joint": 1.3009561736191715,
        "distance_wrist_3_joint": 0.05461241044447407,
        "smoothness": 4.844609574787718e-16,
        "time": 0.59363198,
        "traj_len": 1.898685968608239,
        "weighted_distance": 2.3849359029446346
    },
    "planner": "LBKPIECE",
    "start": {
        "state": {
            "elbow_joint": 1.7527959577737207,
            "shoulder_lift_joint": -0.9740617694225068,
            "shoulder_pan_joint": -2.967991417825858,
            "wrist_1_joint": -0.759517768980727,
            "wrist_2_joint": 1.7443932448377408,
            "wrist_3_joint": -3.0840537646736568
        }
    },
    "waypoints": [
        {
            "positions": [
                -2.967991417825858,
                -0.9740617694225068,
                1.7527959577737207,
                -0.759517768980727,
                1.7443932448377408,
                -3.0840537646736568
            ]
        },
        {
            "positions": [
                -2.94230543507466,
                -0.94178262269967,
                1.6530900908407806,
                -0.6922447830550857,
                1.6142976274758236,
                -3.0895150057181042
            ]
        },
        {
            "positions": [
                -2.916619452323462,
                -0.9095034759768331,
                1.5533842239078408,
                -0.6249717971294444,
                1.4842020101139064,
                -3.0949762467625517
            ]
        },
        {
            "positions": [
                -2.8909334695722637,
                -0.8772243292539962,
                1.4536783569749008,
                -0.5576988112038032,
                1.3541063927519894,
                -3.100437487806999
            ]
        },
        {
            "positions": [
                -2.865247486821066,
                -0.8449451825311594,
                1.353972490041961,
                -0.49042582527816186,
                1.2240107753900722,
                -3.1058987288514466
            ]
        },
        {
            "positions": [
                -2.839561504069868,
                -0.8126660358083225,
                1.254266623109021,
                -0.4231528393525206,
                1.093915158028155,
                -3.1113599698958936
            ]
        },
        {
            "positions": [
                -2.81387552131867,
                -0.7803868890854857,
                1.154560756176081,
                -0.3558798534268794,
                0.963819540666238,
                -3.116821210940341
            ]
        },
        {
            "positions": [
                -2.788189538567472,
                -0.7481077423626489,
                1.054854889243141,
                -0.2886068675012381,
                0.8337239233043209,
                -3.1222824519847885
            ]
        },
        {
            "positions": [
                -2.7625035558162736,
                -0.715828595639812,
                0.955149022310201,
                -0.22133388157559675,
                0.7036283059424036,
                -3.127743693029236
            ]
        },
        {
            "positions": [
                -2.7368175730650757,
                -0.6835494489169751,
                0.8554431553772611,
                -0.1540608956499555,
                0.5735326885804866,
                -3.1332049340736834
            ]
        },
        {
            "positions": [
                -2.7111315903138777,
                -0.6512703021941383,
                0.7557372884443212,
                -0.08678790972431427,
                0.4434370712185694,
                -3.138666175118131
            ]
        }
    ]
}