{
    "goal": {
        "global_pose": {
            "orientation": {
                "w": 0.7047431468963623,
                "x": -0.7094548344612122,
                "y": 0.0024358443915843964,
                "z": -0.0022348060738295317
            },
            "position": {
                "x": 0.6094750761985779,
                "y": 0.3671506643295288,
                "z": 0.19426114857196808
            }
        },
        "name": "move_to_magneteinheit_A"
    },
    "id": "LBKPIECE_move_to_magneteinheit_A_53",
    "joint_names": [
        "shoulder_pan_joint",
        "shoulder_lift_joint",
        "elbow_joint",
        "wrist_1_joint",
        "wrist_2_joint",
        "wrist_3_joint"
    ],
    "metrics": {
        "cart_traj_len": 3.49922721165361,
        "distance_elbow_joint": 3.9154692159628777,
        "distance_shoulder_lift_joint": 0.6407664978430944,
        "distance_shoulder_pan_joint": 3.1187733500659642,
        "distance_wrist_1_joint": 3.4699852109517497,
        "distance_wrist_2_joint": 1.9950305294465536,
        "distance_wrist_3_joint": 1.495401540647263,
        "smoothness": 0.18823924188747826,
        "time": 0.501007102,
        "traj_len": 3.825627575302843,
        "weighted_distance": 4.80533507329201
    },
    "planner": "LBKPIECE",
    "start": {
        "state": {
            "elbow_joint": -1.9196185241190666,
            "shoulder_lift_joint": -1.2443396400964142,
            "shoulder_pan_joint": 2.6996025414629847,
            "wrist_1_joint": -1.5485510000780065,
            "wrist_2_joint": -1.5709468930060704,
            "wrist_3_joint": 0.4420197071253992
        }
    },
    "waypoints": [
        {
            "positions": [
                2.6996025414629847,
                -1.2443396400964142,
                -1.9196185241190666,
                -1.5485510000780065,
                -1.5709468930060704,
                0.4420197071253992
            ]
        },
        {
            "positions": [
                2.5914763674931214,
                -1.2505689017520232,
                -1.8405529510278518,
                -1.5075634263491027,
                -1.4629273993323808,
                0.47946121018892723
            ]
        },
        {
            "positions": [
                2.4833501935232585,
                -1.2567981634076322,
                -1.761487377936637,
                -1.4665758526201988,
                -1.3549079056586915,
                0.5169027132524553
            ]
        },
        {
            "positions": [
                2.375224019553395,
                -1.2630274250632412,
                -1.682421804845422,
                -1.4255882788912952,
                -1.2468884119850019,
                0.5543442163159834
            ]
        },
        {
            "positions": [
                2.267097845583532,
                -1.2692566867188502,
                -1.6033562317542072,
                -1.3846007051623914,
                -1.1388689183113123,
                0.5917857193795115
            ]
        },
        {
            "positions": [
                2.158971671613669,
                -1.2754859483744592,
                -1.5242906586629923,
                -1.3436131314334876,
                -1.0308494246376227,
                0.6292272224430395
            ]
        },
        {
            "positions": [
                2.0508454976438055,
                -1.2817152100300682,
                -1.4452250855717774,
                -1.3026255577045838,
                -0.9228299309639334,
                0.6666687255065676
            ]
        },
        {
            "positions": [
                1.9427193236739424,
                -1.2879444716856772,
                -1.3661595124805626,
                -1.26163798397568,
                -0.8148104372902438,
                0.7041102285700958
            ]
        },
        {
            "positions": [
                1.8345931497040793,
                -1.2941737333412862,
                -1.2870939393893477,
                -1.2206504102467763,
                -0.7067909436165544,
                0.7415517316336238
            ]
        },
        {
            "positions": [
                1.726466975734216,
                -1.3004029949968952,
                -1.2080283662981328,
                -1.1796628365178725,
                -0.5987714499428647,
                0.7789932346971519
            ]
        },
        {
            "positions": [
                1.6183408017643528,
                -1.3066322566525042,
                -1.128962793206918,
                -1.1386752627889687,
                -0.49075195626917534,
                0.81643473776068
            ]
        },
        {
            "positions": [
                1.5102146277944897,
                -1.3128615183081132,
                -1.0498972201157033,
                -1.097687689060065,
                -0.38273246259548577,
                0.853876240824208
            ]
        },
        {
            "positions": [
                1.4020884538246265,
                -1.3190907799637221,
                -0.9708316470244884,
                -1.0567001153311613,
                -0.2747129689217964,
                0.891317743887736
            ]
        },
        {
            "positions": [
                1.2939622798547632,
                -1.3253200416193311,
                -0.8917660739332736,
                -1.0157125416022574,
                -0.16669347524810663,
                0.9287592469512642
            ]
        },
        {
            "positions": [
                1.1858361058849,
                -1.3315493032749401,
                -0.8127005008420587,
                -0.9747249678733536,
                -0.05867398157441735,
                0.9662007500147922
            ]
        },
        {
            "positions": [
                1.1073503643767044,
                -1.3166047417326279,
                -0.6753099407844865,
                -0.8609550570992154,
                -0.04662781363135979,
                0.9361543736555223
            ]
        },
        {
            "positions": [
                1.0288646228685088,
                -1.3016601801903156,
                -0.5379193807269143,
                -0.747185146325077,
                -0.034581645688302236,
                0.9061079972962525
            ]
        },
        {
            "positions": [
                0.950378881360313,
                -1.286715618648003,
                -0.4005288206693419,
                -0.6334152355509388,
                -0.022535477745244677,
                0.8760616209369827
            ]
        },
        {
            "positions": [
                0.8718931398521172,
                -1.2717710571056908,
                -0.2631382606117697,
                -0.5196453247768005,
                -0.010489309802187124,
                0.8460152445777128
            ]
        },
        {
            "positions": [
                0.7934073983439216,
                -1.2568264955633786,
                -0.12574770055419748,
                -0.40587541400266225,
                0.0015568581408704416,
                0.8159688682184429
            ]
        },
        {
            "positions": [
                0.714921656835726,
                -1.2418819340210663,
                0.011642859503374847,
                -0.2921055032285239,
                0.013603026083927994,
                0.7859224918591731
            ]
        },
        {
            "positions": [
                0.6364359153275303,
                -1.226937372478754,
                0.14903341956094696,
                -0.17833559245438568,
                0.02564919402698554,
                0.7558761154999033
            ]
        },
        {
            "positions": [
                0.5579501738193345,
                -1.2119928109364417,
                0.2864239796185193,
                -0.06456568168024746,
                0.0376953619700431,
                0.7258297391406334
            ]
        },
        {
            "positions": [
                0.4794644323111389,
                -1.1970482493941292,
                0.4238145396760915,
                0.04920422909389077,
                0.04974152991310067,
                0.6957833627813635
            ]
        },
        {
            "positions": [
                0.4009786908029431,
                -1.182103687851817,
                0.5612050997336637,
                0.1629741398680291,
                0.06178769785615823,
                0.6657369864220937
            ]
        },
        {
            "positions": [
                0.3224929492947475,
                -1.1671591263095047,
                0.6985956597912362,
                0.27674405064216745,
                0.07383386579921579,
                0.6356906100628239
            ]
        },
        {
            "positions": [
                0.24400720778655172,
                -1.1522145647671924,
                0.8359862198488084,
                0.3905139614163058,
                0.08588003374227333,
                0.6056442337035539
            ]
        },
        {
            "positions": [
                0.16552146627835618,
                -1.1372700032248801,
                0.9733767799063804,
                0.5042838721904439,
                0.09792620168533088,
                0.5755978573442841
            ]
        },
        {
            "positions": [
                0.08703572477016053,
                -1.1223254416825679,
                1.1107673399639526,
                0.6180537829645822,
                0.10997236962838843,
                0.5455514809850144
            ]
        },
        {
            "positions": [
                0.008549983261964877,
                -1.1073808801402554,
                1.248157900021525,
                0.7318236937387204,
                0.122018537571446,
                0.5155051046257444
            ]
        },
        {
            "positions": [
                -0.069935758246231,
                -1.092436318597943,
                1.3855484600790973,
                0.8455936045128587,
                0.13406470551450356,
                0.4854587282664746
            ]
        },
        {
            "positions": [
                -0.1484214997544266,
                -1.0774917570556308,
                1.5229390201366697,
                0.959363515286997,
                0.14611087345756113,
                0.45541235190720475
            ]
        },
        {
            "positions": [
                -0.10974302706177616,
                -1.0347061444205938,
                1.5904978303805473,
                1.0968021860851036,
                0.10640047874571479,
                0.3896363376714502
            ]
        },
        {
            "positions": [
                -0.07106455436912575,
                -0.9919205317855568,
                1.6580566406244246,
                1.2342408568832102,
                0.06669008403386846,
                0.3238603234356956
            ]
        },
        {
            "positions": [
                -0.03238608167647532,
                -0.9491349191505198,
                1.7256154508683021,
                1.3716795276813167,
                0.026979689322022132,
                0.25808430919994096
            ]
        },
        {
            "positions": [
                0.006292391016175097,
                -0.9063493065154828,
                1.7931742611121797,
                1.509118198479423,
                -0.01273070538982421,
                0.1923082949641864
            ]
        },
        {
            "positions": [
                0.044970863708825526,
                -0.8635636938804457,
                1.8607330713560573,
                1.6465568692775299,
                -0.05244110010167055,
                0.12653228072843176
            ]
        },
        {
            "positions": [
                0.08364933640147595,
                -0.8207780812454089,
                1.9282918815999346,
                1.7839955400756362,
                -0.09215149481351687,
                0.060756266492677236
            ]
        },
        {
            "positions": [
                0.12232780909412638,
                -0.7779924686103717,
                1.9958506918438121,
                1.9214342108737428,
                -0.1318618895253632,
                -0.005019747743077387
            ]
        }
    ]
}