{
    "goal": {
        "global_pose": {
            "orientation": {
                "w": 0.7031023502349854,
                "x": -0.7110244035720825,
                "y": 0.007748599164187908,
                "z": 0.005598929710686207
            },
            "position": {
                "x": 0.11585023208521307,
                "y": 0.44412534475326537,
                "z": 0.3711530566215515
            }
        },
        "name": "move_to_auspresseinheit_A"
    },
    "id": "LBKPIECE_move_to_auspresseinheit_A_38",
    "joint_names": [
        "shoulder_pan_joint",
        "shoulder_lift_joint",
        "elbow_joint",
        "wrist_1_joint",
        "wrist_2_joint",
        "wrist_3_joint"
    ],
    "metrics": {
        "cart_traj_len": 1.9247601362774829,
        "distance_elbow_joint": 2.4474269367625725,
        "distance_shoulder_lift_joint": 0.9648602493989948,
        "distance_shoulder_pan_joint": 1.2227723956101983,
        "distance_wrist_1_joint": 2.023754486640042,
        "distance_wrist_2_joint": 1.42692328484936,
        "distance_wrist_3_joint": 2.240849255273257,
        "smoothness": 0.6160592710697973,
        "time": 0.22565372,
        "traj_len": 3.213500678159945,
        "weighted_distance": 4.273050770886106
    },
    "planner": "LBKPIECE",
    "start": {
        "state": {
            "elbow_joint": 2.4225746658250005,
            "shoulder_lift_joint": -1.3736534386056498,
            "shoulder_pan_joint": -0.3378633547517467,
            "wrist_1_joint": -1.0288598680537169,
            "wrist_2_joint": 1.233022673432363,
            "wrist_3_joint": -3.0940220416140027
        }
    },
    "waypoints": [
        {
            "positions": [
                -0.3378633547517467,
                -1.3736534386056498,
                2.4225746658250005,
                -1.0288598680537169,
                1.233022673432363,
                -3.0940220416140027
            ]
        },
        {
            "positions": [
                -0.2928393730177893,
                -1.4029232260765174,
                2.334031685185397,
                -0.9404570972447645,
                1.183893470679915,
                -3.01565435927449
            ]
        },
        {
            "positions": [
                -0.2478153912838318,
                -1.4321930135473848,
                2.2454887045457927,
                -0.852054326435812,
                1.1347642679274668,
                -2.9372866769349777
            ]
        },
        {
            "positions": [
                -0.20279140954987435,
                -1.4614628010182524,
                2.156945723906189,
                -0.7636515556268596,
                1.0856350651750186,
                -2.858918994595465
            ]
        },
        {
            "positions": [
                -0.15776742781591688,
                -1.49073258848912,
                2.0684027432665855,
                -0.6752487848179072,
                1.0365058624225707,
                -2.780551312255953
            ]
        },
        {
            "positions": [
                -0.11274344608195941,
                -1.5200023759599874,
                1.9798597626269816,
                -0.5868460140089548,
                0.9873766596701226,
                -2.7021836299164406
            ]
        },
        {
            "positions": [
                -0.06771946434800197,
                -1.549272163430855,
                1.8913167819873777,
                -0.49844324320000233,
                0.9382474569176744,
                -2.623815947576928
            ]
        },
        {
            "positions": [
                -0.02269548261404447,
                -1.5785419509017227,
                1.802773801347774,
                -0.4100404723910499,
                0.8891182541652263,
                -2.5454482652374155
            ]
        },
        {
            "positions": [
                0.02232849911991297,
                -1.60781173837259,
                1.7142308207081702,
                -0.3216377015820975,
                0.8399890514127781,
                -2.467080582897903
            ]
        },
        {
            "positions": [
                0.06735248085387047,
                -1.6370815258434577,
                1.6256878400685664,
                -0.23323493077314494,
                0.79085984866033,
                -2.3887129005583905
            ]
        },
        {
            "positions": [
                0.11237646258782791,
                -1.6663513133143253,
                1.5371448594289627,
                -0.14483215996419263,
                0.741730645907882,
                -2.3103452182188784
            ]
        },
        {
            "positions": [
                0.1574004443217854,
                -1.6956211007851927,
                1.4486018787893589,
                -0.056429389155240206,
                0.6926014431554338,
                -2.2319775358793654
            ]
        },
        {
            "positions": [
                0.2024244260557428,
                -1.7248908882560603,
                1.3600588981497552,
                0.03197338165371222,
                0.6434722404029858,
                -2.1536098535398533
            ]
        },
        {
            "positions": [
                0.2474484077897003,
                -1.754160675726928,
                1.2715159175101511,
                0.12037615246266475,
                0.5943430376505376,
                -2.075242171200341
            ]
        },
        {
            "positions": [
                0.29247238952365784,
                -1.7834304631977953,
                1.1829729368705475,
                0.208778923271617,
                0.5452138348980895,
                -1.9968744888608283
            ]
        },
        {
            "positions": [
                0.3579221923770537,
                -1.8361231611514035,
                1.2859857035909057,
                0.22121873660155417,
                0.4863313633515931,
                -2.056354026102381
            ]
        },
        {
            "positions": [
                0.42337199523044955,
                -1.8888158591050117,
                1.3889984703112639,
                0.23365854993149135,
                0.4274488918050967,
                -2.1158335633439336
            ]
        },
        {
            "positions": [
                0.4888217980838454,
                -1.94150855705862,
                1.492011237031622,
                0.2460983632614285,
                0.3685664202586003,
                -2.175313100585486
            ]
        },
        {
            "positions": [
                0.5542716009372413,
                -1.9942012550122281,
                1.5950240037519803,
                0.2585381765913657,
                0.3096839487121039,
                -2.234792637827039
            ]
        },
        {
            "positions": [
                0.6197214037906371,
                -2.0468939529658363,
                1.6980367704723385,
                0.27097798992130284,
                0.2508014771656075,
                -2.2942721750685915
            ]
        },
        {
            "positions": [
                0.6631873761024678,
                -2.0656844029827406,
                1.818310574848252,
                0.21539708142639463,
                0.253870939100395,
                -2.400092382335518
            ]
        },
        {
            "positions": [
                0.7066533484142985,
                -2.0844748529996444,
                1.9385843792241653,
                0.15981617293148645,
                0.25694040103518245,
                -2.5059125896024446
            ]
        },
        {
            "positions": [
                0.7501193207261292,
                -2.1032653030165487,
                2.0588581836000786,
                0.10423526443657827,
                0.2600098629699699,
                -2.611732796869371
            ]
        },
        {
            "positions": [
                0.7935852930379599,
                -2.122055753033453,
                2.179131987975992,
                0.04865435594167007,
                0.2630793249047574,
                -2.717553004136297
            ]
        },
        {
            "positions": [
                0.7813927955129656,
                -2.0894130019280173,
                2.2209937455887205,
                -0.03430831213975509,
                0.3309135382204955,
                -2.790604246349873
            ]
        },
        {
            "positions": [
                0.7692002979879713,
                -2.0567702508225816,
                2.2628555032014486,
                -0.11727098022118025,
                0.3987477515362336,
                -2.8636554885634493
            ]
        },
        {
            "positions": [
                0.757007800462977,
                -2.0241274997171463,
                2.3047172608141766,
                -0.20023364830260543,
                0.4665819648519717,
                -2.9367067307770256
            ]
        },
        {
            "positions": [
                0.7448153029379827,
                -1.9914847486117107,
                2.346579018426905,
                -0.2831963163840306,
                0.5344161781677098,
                -3.0097579729906014
            ]
        },
        {
            "positions": [
                0.7235384240777254,
                -1.948541283336986,
                2.368688581552786,
                -0.3680674775638749,
                0.6149598719579608,
                -3.0751670821857564
            ]
        },
        {
            "positions": [
                0.7022615452174682,
                -1.9055978180622613,
                2.390798144678667,
                -0.4529386387437192,
                0.6955035657482118,
                -3.140576191380911
            ]
        }
    ]
}