{
    "goal": {
        "global_pose": {
            "orientation": {
                "w": 0.5084816262002911,
                "x": -0.4908360881923452,
                "y": 0.5182115481033761,
                "z": -0.48164630358495003
            },
            "position": {
                "x": 0.5540239810943604,
                "y": -0.46912469901144505,
                "z": 0.16403168439865112
            }
        },
        "name": "move_to_storage_B"
    },
    "id": "LBKPIECE_move_to_storage_B_107",
    "joint_names": [
        "shoulder_pan_joint",
        "shoulder_lift_joint",
        "elbow_joint",
        "wrist_1_joint",
        "wrist_2_joint",
        "wrist_3_joint"
    ],
    "metrics": {
        "cart_traj_len": 0.7495159511448294,
        "distance_elbow_joint": 0.5236513590193193,
        "distance_shoulder_lift_joint": 0.4586007939151482,
        "distance_shoulder_pan_joint": 0.4473684100669343,
        "distance_wrist_1_joint": 2.979295821007903,
        "distance_wrist_2_joint": 2.699047700086309,
        "distance_wrist_3_joint": 3.306637932452705,
        "smoothness": 0.22976327244621206,
        "time": 0.30380789399999997,
        "traj_len": 3.2271662517676893,
        "weighted_distance": 4.765104553160187
    },
    "planner": "LBKPIECE",
    "start": {
        "state": {
            "elbow_joint": 1.664937868594044,
            "shoulder_lift_joint": -0.661644460510453,
            "shoulder_pan_joint": -0.9139846352900073,
            "wrist_1_joint": 2.146753192139373,
            "wrist_2_joint": -2.2341966793290973,
            "wrist_3_joint": 0.005466555786416001
        }
    },
    "waypoints": [
        {
            "positions": [
                -0.9139846352900073,
                -0.661644460510453,
                1.664937868594044,
                2.146753192139373,
                -2.2341966793290973,
                0.005466555786416001
            ]
        },
        {
            "positions": [
                -0.8933363442004034,
                -0.6699118030780674,
                1.6753651942254524,
                2.147678538689612,
                -2.1872404780337416,
                0.03426088418089766
            ]
        },
        {
            "positions": [
                -0.8560342250828396,
                -0.6978185229643789,
                1.6461857653077776,
                2.0786582613222975,
                -2.0608855085329827,
                0.050081959813012084
            ]
        },
        {
            "positions": [
                -0.8187321059652758,
                -0.7257252428506904,
                1.6170063363901026,
                2.0096379839549825,
                -1.9345305390322243,
                0.06590303544512652
            ]
        },
        {
            "positions": [
                -0.7814299868477119,
                -0.7536319627370018,
                1.5878269074724278,
                1.940617706587668,
                -1.8081755695314654,
                0.08172411107724094
            ]
        },
        {
            "positions": [
                -0.7945472269154052,
                -0.7689075165573601,
                1.6055638135822148,
                1.825146471489513,
                -1.7134661282694372,
                -0.05287507130450407
            ]
        },
        {
            "positions": [
                -0.8076644669830985,
                -0.7841830703777184,
                1.6233007196920017,
                1.7096752363913579,
                -1.618756687007409,
                -0.1874742536862491
            ]
        },
        {
            "positions": [
                -0.8207817070507918,
                -0.7994586241980768,
                1.6410376258017887,
                1.5942040012932028,
                -1.5240472457453806,
                -0.3220734360679941
            ]
        },
        {
            "positions": [
                -0.8338989471184851,
                -0.8147341780184351,
                1.6587745319115754,
                1.4787327661950478,
                -1.4293378044833525,
                -0.4566726184497391
            ]
        },
        {
            "positions": [
                -0.8470161871861783,
                -0.8300097318387933,
                1.6765114380213624,
                1.3632615310968927,
                -1.3346283632213243,
                -0.5912718008314841
            ]
        },
        {
            "positions": [
                -0.8601334272538717,
                -0.8452852856591517,
                1.6942483441311493,
                1.2477902959987377,
                -1.2399189219592959,
                -0.7258709832132291
            ]
        },
        {
            "positions": [
                -0.873250667321565,
                -0.86056083947951,
                1.7119852502409363,
                1.1323190609005827,
                -1.1452094806972677,
                -0.8604701655949741
            ]
        },
        {
            "positions": [
                -0.8863679073892582,
                -0.8758363932998683,
                1.7297221563507232,
                1.0168478258024278,
                -1.0505000394352395,
                -0.9950693479767191
            ]
        },
        {
            "positions": [
                -0.8994851474569515,
                -0.8911119471202266,
                1.7474590624605102,
                0.9013765907042728,
                -0.9557905981732113,
                -1.1296685303584642
            ]
        },
        {
            "positions": [
                -0.9126023875246448,
                -0.9063875009405848,
                1.7651959685702971,
                0.7859053556061177,
                -0.861081156911183,
                -1.2642677127402093
            ]
        },
        {
            "positions": [
                -0.9257196275923381,
                -0.9216630547609432,
                1.782932874680084,
                0.6704341205079627,
                -0.7663717156491547,
                -1.398866895121954
            ]
        },
        {
            "positions": [
                -0.9388368676600314,
                -0.9369386085813015,
                1.800669780789871,
                0.5549628854098076,
                -0.6716622743871266,
                -1.5334660775036992
            ]
        },
        {
            "positions": [
                -0.9519541077277247,
                -0.9522141624016598,
                1.8184066868996578,
                0.4394916503116528,
                -0.5769528331250984,
                -1.6680652598854442
            ]
        },
        {
            "positions": [
                -0.965071347795418,
                -0.9674897162220182,
                1.8361435930094447,
                0.32402041521349756,
                -0.48224339186306997,
                -1.8026644422671894
            ]
        },
        {
            "positions": [
                -0.9781885878631112,
                -0.9827652700423765,
                1.8538804991192317,
                0.20854918011534251,
                -0.3875339506010418,
                -1.9372636246489343
            ]
        },
        {
            "positions": [
                -0.9913058279308045,
                -0.9980408238627347,
                1.8716174052290186,
                0.09307794501718769,
                -0.2928245093390136,
                -2.071862807030679
            ]
        },
        {
            "positions": [
                -1.0044230679984978,
                -1.0133163776830931,
                1.8893543113388056,
                -0.022393290080967576,
                -0.1981150680769852,
                -2.206461989412424
            ]
        },
        {
            "positions": [
                -1.0175403080661911,
                -1.0285919315034513,
                1.9070912174485926,
                -0.1378645251791224,
                -0.10340562681495724,
                -2.341061171794169
            ]
        },
        {
            "positions": [
                -1.0306575481338844,
                -1.0438674853238097,
                1.9248281235583793,
                -0.25333576027727744,
                -0.008696185552929059,
                -2.475660354175914
            ]
        },
        {
            "positions": [
                -1.0437747882015778,
                -1.059143039144168,
                1.9425650296681662,
                -0.3688069953754325,
                0.08601325570909935,
                -2.6102595365576593
            ]
        },
        {
            "positions": [
                -1.0568920282692709,
                -1.0744185929645262,
                1.9603019357779532,
                -0.48427823047358753,
                0.18072269697112753,
                -2.7448587189394043
            ]
        },
        {
            "positions": [
                -1.0700092683369642,
                -1.0896941467848846,
                1.9780388418877402,
                -0.5997494655717426,
                0.27543213823315593,
                -2.8794579013211488
            ]
        },
        {
            "positions": [
                -1.0831265084046575,
                -1.1049697006052428,
                1.995775747997527,
                -0.7152207006698976,
                0.3701415794951841,
                -3.014057083702894
            ]
        },
        {
            "positions": [
                -1.0962437484723508,
                -1.1202452544256012,
                2.013512654107314,
                -0.8306919357680527,
                0.4648510207572123,
                -3.148656266084639
            ]
        }
    ]
}