{
    "goal": {
        "global_pose": {
            "orientation": {
                "w": -0.4816463035849501,
                "x": 0.5182115481033762,
                "y": 0.4908360881923453,
                "z": -0.5084816262002911
            },
            "position": {
                "x": -0.8240239810943604,
                "y": 0.19912469901144506,
                "z": 0.16403168439865112
            }
        },
        "name": "move_to_storage_D"
    },
    "id": "LBKPIECE_move_to_storage_D_104",
    "joint_names": [
        "shoulder_pan_joint",
        "shoulder_lift_joint",
        "elbow_joint",
        "wrist_1_joint",
        "wrist_2_joint",
        "wrist_3_joint"
    ],
    "metrics": {
        "cart_traj_len": 3.9144715124349476,
        "distance_elbow_joint": 4.208895880879387,
        "distance_shoulder_lift_joint": 1.265052027282721,
        "distance_shoulder_pan_joint": 2.813526780639928,
        "distance_wrist_1_joint": 2.268285252375506,
        "distance_wrist_2_joint": 1.1336269308301856,
        "distance_wrist_3_joint": 3.1320564093748016,
        "smoothness": 0.02992585282789303,
        "time": 0.24356961700000002,
        "traj_len": 3.8498627613698817,
        "weighted_distance": 4.948481411841195
    },
    "planner": "LBKPIECE",
    "start": {
        "state": {
            "elbow_joint": -2.384821988534728,
            "shoulder_lift_joint": -2.2788054721415256,
            "shoulder_pan_joint": -0.1854694642142757,
            "wrist_1_joint": 1.4845938289331202,
            "wrist_2_joint": 0.17898776772866878,
            "wrist_3_joint": 0.037105688729662994
        }
    },
    "waypoints": [
        {
            "positions": [
                -0.1854694642142757,
                -2.2788054721415256,
                -2.384821988534728,
                1.4845938289331202,
                0.17898776772866878,
                0.037105688729662994
            ]
        },
        {
            "positions": [
                -0.0946892546735755,
                -2.2534254743018427,
                -2.262754906150363,
                1.4164961920043593,
                0.21369802948165093,
                -0.012510931351150799
            ]
        },
        {
            "positions": [
                -0.003909045132875294,
                -2.2280454764621593,
                -2.140687823765998,
                1.3483985550755984,
                0.24840829123463307,
                -0.06212755143196459
            ]
        },
        {
            "positions": [
                0.08687116440782491,
                -2.2026654786224764,
                -2.018620741381633,
                1.2803009181468374,
                0.28311855298761524,
                -0.1117441715127784
            ]
        },
        {
            "positions": [
                0.17765137394852512,
                -2.1772854807827935,
                -1.8965536589972676,
                1.2122032812180765,
                0.3178288147405973,
                -0.16136079159359218
            ]
        },
        {
            "positions": [
                0.26843158348922536,
                -2.1519054829431106,
                -1.7744865766129025,
                1.1441056442893156,
                0.3525390764935795,
                -0.210977411674406
            ]
        },
        {
            "positions": [
                0.35921179302992556,
                -2.126525485103427,
                -1.6524194942285375,
                1.0760080073605547,
                0.3872493382465616,
                -0.2605940317552198
            ]
        },
        {
            "positions": [
                0.4499920025706259,
                -2.1011454872637443,
                -1.5303524118441723,
                1.007910370431794,
                0.4219595999995438,
                -0.3102106518360336
            ]
        },
        {
            "positions": [
                0.540772212111326,
                -2.0757654894240614,
                -1.4082853294598072,
                0.939812733503033,
                0.4566698617525259,
                -0.3598272719168474
            ]
        },
        {
            "positions": [
                0.6315524216520263,
                -2.050385491584378,
                -1.2862182470754422,
                0.871715096574272,
                0.4913801235055081,
                -0.4094438919976612
            ]
        },
        {
            "positions": [
                0.7223326311927265,
                -2.025005493744695,
                -1.1641511646910772,
                0.8036174596455111,
                0.5260903852584903,
                -0.459060512078475
            ]
        },
        {
            "positions": [
                0.8131128407334266,
                -1.9996254959050122,
                -1.0420840823067121,
                0.7355198227167503,
                0.5608006470114724,
                -0.5086771321592887
            ]
        },
        {
            "positions": [
                0.9038930502741268,
                -1.974245498065329,
                -0.9200169999223471,
                0.6674221857879894,
                0.5955109087644544,
                -0.5582937522401026
            ]
        },
        {
            "positions": [
                0.9946732598148272,
                -1.9488655002256459,
                -0.7979499175379818,
                0.5993245488592285,
                0.6302211705174366,
                -0.6079103723209164
            ]
        },
        {
            "positions": [
                1.0854534693555273,
                -1.923485502385963,
                -0.6758828351536168,
                0.5312269119304676,
                0.6649314322704188,
                -0.6575269924017302
            ]
        },
        {
            "positions": [
                1.1762336788962275,
                -1.8981055045462798,
                -0.5538157527692515,
                0.46312927500170664,
                0.6996416940234009,
                -0.707143612482544
            ]
        },
        {
            "positions": [
                1.2670138884369275,
                -1.8727255067065969,
                -0.43174867038488673,
                0.3950316380729457,
                0.734351955776383,
                -0.7567602325633577
            ]
        },
        {
            "positions": [
                1.3577940979776277,
                -1.8473455088669137,
                -0.3096815880005219,
                0.326934001144185,
                0.7690622175293651,
                -0.8063768526441715
            ]
        },
        {
            "positions": [
                1.4485743075183282,
                -1.8219655110272308,
                -0.18761450561615645,
                0.2588363642154239,
                0.8037724792823473,
                -0.8559934727249854
            ]
        },
        {
            "positions": [
                1.5393545170590281,
                -1.7965855131875477,
                -0.06554742323179141,
                0.1907387272866632,
                0.8384827410353295,
                -0.9056100928057991
            ]
        },
        {
            "positions": [
                1.6301347265997286,
                -1.7712055153478645,
                0.05651965915257362,
                0.12264109035790205,
                0.8731930027883117,
                -0.955226712886613
            ]
        },
        {
            "positions": [
                1.7209149361404288,
                -1.7458255175081816,
                0.17858674153693865,
                0.05454345342914113,
                0.9079032645412938,
                -1.0048433329674267
            ]
        },
        {
            "positions": [
                1.8116951456811288,
                -1.7204455196684985,
                0.3006538239213037,
                -0.013554183499619565,
                0.9426135262942759,
                -1.0544599530482404
            ]
        },
        {
            "positions": [
                1.9024753552218292,
                -1.6950655218288153,
                0.42272090630566916,
                -0.0816518204283807,
                0.9773237880472581,
                -1.1040765731290543
            ]
        },
        {
            "positions": [
                1.9932555647625292,
                -1.6696855239891324,
                0.5447879886900338,
                -0.1497494573571414,
                1.0120340498002403,
                -1.1536931932098682
            ]
        },
        {
            "positions": [
                2.0840357743032296,
                -1.6443055261494495,
                0.6668550710743988,
                -0.21784709428590232,
                1.0467443115532222,
                -1.2033098132906819
            ]
        },
        {
            "positions": [
                2.17481598384393,
                -1.618925528309766,
                0.7889221534587643,
                -0.28594473121466324,
                1.0814545733062046,
                -1.2529264333714958
            ]
        },
        {
            "positions": [
                2.26559619338463,
                -1.5935455304700832,
                0.9109892358431293,
                -0.35404236814342416,
                1.1161648350591866,
                -1.3025430534523095
            ]
        },
        {
            "positions": [
                2.3563764029253305,
                -1.5681655326304003,
                1.0330563182274943,
                -0.4221400050721851,
                1.1508750968121688,
                -1.3521596735331234
            ]
        },
        {
            "positions": [
                2.4471566124660304,
                -1.5427855347907171,
                1.1551234006118596,
                -0.490237642000946,
                1.185585358565151,
                -1.401776293613937
            ]
        },
        {
            "positions": [
                2.467256690683766,
                -1.484004191464949,
                1.2294512330266152,
                -0.5228436177166614,
                1.1714709874547395,
                -1.5899067855062927
            ]
        },
        {
            "positions": [
                2.4873567689015017,
                -1.425222848139181,
                1.3037790654413706,
                -0.5554495934323768,
                1.157356616344328,
                -1.7780372773986484
            ]
        },
        {
            "positions": [
                2.5074568471192378,
                -1.3664415048134129,
                1.3781068978561262,
                -0.5880555691480922,
                1.1432422452339166,
                -1.9661677692910042
            ]
        },
        {
            "positions": [
                2.5275569253369734,
                -1.3076601614876449,
                1.4524347302708818,
                -0.6206615448638075,
                1.1291278741235051,
                -2.15429826118336
            ]
        },
        {
            "positions": [
                2.547657003554709,
                -1.2488788181618768,
                1.5267625626856374,
                -0.653267520579523,
                1.1150135030130934,
                -2.3424287530757155
            ]
        },
        {
            "positions": [
                2.5677570817724447,
                -1.1900974748361088,
                1.601090395100393,
                -0.6858734962952383,
                1.100899131902682,
                -2.5305592449680714
            ]
        },
        {
            "positions": [
                2.5878571599901807,
                -1.1313161315103408,
                1.6754182275151486,
                -0.7184794720109537,
                1.0867847607922705,
                -2.7186897368604273
            ]
        },
        {
            "positions": [
                2.6079572382079164,
                -1.0725347881845726,
                1.749746059929904,
                -0.7510854477266691,
                1.072670389681859,
                -2.9068202287527827
            ]
        },
        {
            "positions": [
                2.628057316425652,
                -1.0137534448588046,
                1.8240738923446596,
                -0.7836914234423845,
                1.0585560185714475,
                -3.0949507206451385
            ]
        }
    ]
}