{
    "goal": {
        "global_pose": {
            "orientation": {
                "w": -0.4816463035849501,
                "x": 0.5182115481033762,
                "y": 0.4908360881923453,
                "z": -0.5084816262002911
            },
            "position": {
                "x": -0.8240239810943604,
                "y": -0.300875300988555,
                "z": 0.16403168439865112
            }
        },
        "name": "move_to_storage_C"
    },
    "id": "LBKPIECE_move_to_storage_C_95",
    "joint_names": [
        "shoulder_pan_joint",
        "shoulder_lift_joint",
        "elbow_joint",
        "wrist_1_joint",
        "wrist_2_joint",
        "wrist_3_joint"
    ],
    "metrics": {
        "cart_traj_len": 0.5761498715964545,
        "distance_elbow_joint": 0.25842609012871565,
        "distance_shoulder_lift_joint": 0.18833610232517695,
        "distance_shoulder_pan_joint": 0.49576858241305777,
        "distance_wrist_1_joint": 0.086000349906872,
        "distance_wrist_2_joint": 1.0587079788024498,
        "distance_wrist_3_joint": 0.068913586542386,
        "smoothness": 2.5376526478085547e-16,
        "time": 0.5132163630000001,
        "traj_len": 1.468384380916202,
        "weighted_distance": 1.8543700256186066
    },
    "planner": "LBKPIECE",
    "start": {
        "state": {
            "elbow_joint": 2.010868314990456,
            "shoulder_lift_joint": -1.1634956873337592,
            "shoulder_pan_joint": -2.4736205022346125,
            "wrist_1_joint": -0.8367026794202681,
            "wrist_2_joint": 0.6746043897044499,
            "wrist_3_joint": -3.1496632123970403
        }
    },
    "waypoints": [
        {
            "positions": [
                -2.4736205022346125,
                -1.1634956873337592,
                2.010868314990456,
                -0.8367026794202681,
                0.6746043897044499,
                -3.1496632123970403
            ]
        },
        {
            "positions": [
                -2.5562485993034554,
                -1.1321063369462296,
                1.9677972999690032,
                -0.8223692877691228,
                0.8510557195048583,
                -3.138177614639976
            ]
        },
        {
            "positions": [
                -2.6388766963722983,
                -1.1007169865587003,
                1.9247262849475506,
                -0.8080358961179774,
                1.0275070493052665,
                -3.1266920168829118
            ]
        },
        {
            "positions": [
                -2.7215047934411416,
                -1.0693276361711708,
                1.881655269926098,
                -0.7937025044668321,
                1.203958379105675,
                -3.1152064191258475
            ]
        },
        {
            "positions": [
                -2.8041328905099845,
                -1.0379382857836412,
                1.8385842549046454,
                -0.7793691128156868,
                1.380409708906083,
                -3.103720821368783
            ]
        },
        {
            "positions": [
                -2.8867609875788274,
                -1.0065489353961117,
                1.7955132398831928,
                -0.7650357211645414,
                1.5568610387064914,
                -3.0922352236117185
            ]
        },
        {
            "positions": [
                -2.9693890846476703,
                -0.9751595850085822,
                1.7524422248617402,
                -0.7507023295133961,
                1.7333123685068996,
                -3.0807496258546543
            ]
        }
    ]
}