{
    "goal": {
        "global_pose": {
            "orientation": {
                "w": 0.7047431493862688,
                "x": -0.7094548369677653,
                "y": 0.0024358444001904,
                "z": -0.0022348060817251984
            },
            "position": {
                "x": -0.39052492380142206,
                "y": 0.3671506643295288,
                "z": 0.19426114857196808
            }
        },
        "name": "move_to_magneteinheit_D"
    },
    "id": "LBKPIECE_move_to_magneteinheit_D_150",
    "joint_names": [
        "shoulder_pan_joint",
        "shoulder_lift_joint",
        "elbow_joint",
        "wrist_1_joint",
        "wrist_2_joint",
        "wrist_3_joint"
    ],
    "metrics": {
        "cart_traj_len": 4.786925212853618,
        "distance_elbow_joint": 3.8770898732811205,
        "distance_shoulder_lift_joint": 2.3952269372218797,
        "distance_shoulder_pan_joint": 3.044334805373745,
        "distance_wrist_1_joint": 1.994080846137109,
        "distance_wrist_2_joint": 0.616084548416382,
        "distance_wrist_3_joint": 3.4406333565876692,
        "smoothness": 1.0797953768976265,
        "time": 0.6838936200000001,
        "traj_len": 3.9201339730955507,
        "weighted_distance": 4.985868276914938
    },
    "planner": "LBKPIECE",
    "start": {
        "state": {
            "elbow_joint": 0.749534889911806,
            "shoulder_lift_joint": -0.6476975780787326,
            "shoulder_pan_joint": -2.711696901376241,
            "wrist_1_joint": -0.07506478083263063,
            "wrist_2_joint": 0.43296659715538205,
            "wrist_3_joint": -3.14703540197715
        }
    },
    "waypoints": [
        {
            "positions": [
                -2.711696901376241,
                -0.6476975780787326,
                0.749534889911806,
                -0.07506478083263063,
                0.43296659715538205,
                -3.14703540197715
            ]
        },
        {
            "positions": [
                -2.759527791949142,
                -0.7651502411666431,
                0.6175744826529174,
                -0.13770703371976767,
                0.40863833491743096,
                -3.1501151792679316
            ]
        },
        {
            "positions": [
                -2.807358682522043,
                -0.8826029042545536,
                0.48561407539402884,
                -0.20034928660690474,
                0.38431007267947986,
                -3.153194956558713
            ]
        },
        {
            "positions": [
                -2.707664584443129,
                -0.9248616031654419,
                0.40310456918339277,
                -0.15557773537516578,
                0.379343382857678,
                -3.045001368487158
            ]
        },
        {
            "positions": [
                -2.6079704863642146,
                -0.9671203020763302,
                0.32059506297275664,
                -0.11080618414342684,
                0.3743766930358761,
                -2.9368077804156036
            ]
        },
        {
            "positions": [
                -2.5082763882853003,
                -1.0093790009872183,
                0.23808555676212056,
                -0.0660346329116879,
                0.3694100032140742,
                -2.8286141923440487
            ]
        },
        {
            "positions": [
                -2.4085822902063856,
                -1.0516376998981067,
                0.1555760505514845,
                -0.021263081679948947,
                0.3644433133922723,
                -2.720420604272494
            ]
        },
        {
            "positions": [
                -2.3088881921274713,
                -1.093896398808995,
                0.07306654434084836,
                0.023508469551790007,
                0.35947662357047044,
                -2.612227016200939
            ]
        },
        {
            "positions": [
                -2.209194094048557,
                -1.136155097719883,
                -0.009442961869787714,
                0.06828002078352893,
                0.35450993374866857,
                -2.504033428129384
            ]
        },
        {
            "positions": [
                -2.1094999959696428,
                -1.1784137966307715,
                -0.09195246808042373,
                0.11305157201526786,
                0.3495432439268667,
                -2.3958398400578296
            ]
        },
        {
            "positions": [
                -2.0098058978907285,
                -1.2206724955416597,
                -0.17446197429105986,
                0.15782312324700684,
                0.34457655410506477,
                -2.2876462519862746
            ]
        },
        {
            "positions": [
                -1.9101117998118142,
                -1.2629311944525479,
                -0.2569714805016959,
                0.20259467447874577,
                0.3396098642832629,
                -2.17945266391472
            ]
        },
        {
            "positions": [
                -1.8104177017328995,
                -1.3051898933634363,
                -0.3394809867123321,
                0.24736622571048475,
                0.334643174461461,
                -2.071259075843165
            ]
        },
        {
            "positions": [
                -1.7107236036539855,
                -1.3474485922743245,
                -0.42199049292296814,
                0.29213777694222365,
                0.32967648463965915,
                -1.9630654877716103
            ]
        },
        {
            "positions": [
                -1.611029505575071,
                -1.3897072911852129,
                -0.5044999991336043,
                0.3369093281739626,
                0.3247097948178573,
                -1.8548718997000555
            ]
        },
        {
            "positions": [
                -1.5113354074961567,
                -1.431965990096101,
                -0.5870095053442403,
                0.3816808794057015,
                0.3197431049960554,
                -1.7466783116285007
            ]
        },
        {
            "positions": [
                -1.4116413094172424,
                -1.4742246890069892,
                -0.6695190115548764,
                0.4264524306374404,
                0.3147764151742535,
                -1.638484723556946
            ]
        },
        {
            "positions": [
                -1.3119472113383281,
                -1.5164833879178774,
                -0.7520285177655124,
                0.47122398186917935,
                0.3098097253524516,
                -1.5302911354853912
            ]
        },
        {
            "positions": [
                -1.2122531132594137,
                -1.558742086828766,
                -0.8345380239761486,
                0.5159955331009184,
                0.30484303553064973,
                -1.4220975474138362
            ]
        },
        {
            "positions": [
                -1.1125590151804994,
                -1.6010007857396542,
                -0.9170475301867846,
                0.5607670843326573,
                0.29987634570884786,
                -1.3139039593422814
            ]
        },
        {
            "positions": [
                -1.012864917101585,
                -1.6432594846505424,
                -0.9995570363974207,
                0.6055386355643962,
                0.294909655887046,
                -1.2057103712707267
            ]
        },
        {
            "positions": [
                -0.9131708190226708,
                -1.6855181835614306,
                -1.0820665426080567,
                0.6503101867961351,
                0.28994296606524406,
                -1.097516783199172
            ]
        },
        {
            "positions": [
                -0.8134767209437561,
                -1.727776882472319,
                -1.1645760488186931,
                0.6950817380278742,
                0.2849762762434422,
                -0.9893231951276169
            ]
        },
        {
            "positions": [
                -0.7137826228648421,
                -1.7700355813832072,
                -1.2470855550293292,
                0.739853289259613,
                0.2800095864216403,
                -0.8811296070560624
            ]
        },
        {
            "positions": [
                -0.6140885247859278,
                -1.8122942802940956,
                -1.3295950612399652,
                0.784624840491352,
                0.27504289659983844,
                -0.7729360189845074
            ]
        },
        {
            "positions": [
                -0.5143944267070135,
                -1.8545529792049837,
                -1.4121045674506012,
                0.8293963917230909,
                0.27007620677803656,
                -0.6647424309129528
            ]
        },
        {
            "positions": [
                -0.4147003286280988,
                -1.896811678115872,
                -1.4946140736612374,
                0.8741679429548299,
                0.26510951695623464,
                -0.5565488428413978
            ]
        },
        {
            "positions": [
                -0.31500623054918453,
                -1.9390703770267603,
                -1.5771235798718735,
                0.918939494186569,
                0.26014282713443276,
                -0.44835525476984284
            ]
        },
        {
            "positions": [
                -0.21531213247027015,
                -1.9813290759376485,
                -1.6596330860825095,
                0.9637110454183078,
                0.2551761373126309,
                -0.34016166669828823
            ]
        },
        {
            "positions": [
                -0.16686333220840494,
                -2.043989757623526,
                -1.7554783514568606,
                1.0352221702786415,
                0.2639071820375633,
                -0.24834018967258753
            ]
        },
        {
            "positions": [
                -0.11841453194653975,
                -2.1066504393094037,
                -1.8513236168312117,
                1.1067332951389752,
                0.2726382267624957,
                -0.15651871264688683
            ]
        },
        {
            "positions": [
                -0.06996573168467457,
                -2.169311120995281,
                -1.9471688822055628,
                1.178244419999309,
                0.28136927148742813,
                -0.06469723562118612
            ]
        },
        {
            "positions": [
                -0.02151693142280937,
                -2.2319718026811586,
                -2.043014147579914,
                1.2497555448596427,
                0.29010031621236054,
                0.02712424140451461
            ]
        },
        {
            "positions": [
                -0.028484717911580835,
                -2.155541719532705,
                -2.185764369947345,
                1.315065983341509,
                0.23803163927419674,
                0.0021097710955303092
            ]
        },
        {
            "positions": [
                -0.035452504400352296,
                -2.0791116363842512,
                -2.3285145923147756,
                1.3803764218233754,
                0.18596296233603293,
                -0.02290469921345399
            ]
        },
        {
            "positions": [
                -0.04242029088912376,
                -2.0026815532357976,
                -2.4712648146822067,
                1.445686860305242,
                0.13389428539786916,
                -0.047919169522438285
            ]
        },
        {
            "positions": [
                -0.049388077377895225,
                -1.9262514700873437,
                -2.6140150370496373,
                1.5109972987871083,
                0.08182560845970535,
                -0.07293363983142259
            ]
        },
        {
            "positions": [
                -0.05635586386666669,
                -1.84982138693889,
                -2.7567652594170684,
                1.5763077372689747,
                0.029756931521541574,
                -0.09794811014040689
            ]
        },
        {
            "positions": [
                -0.08835394903787958,
                -1.9570219611581863,
                -2.664067828429007,
                1.5532729081472358,
                0.0655135627673121,
                -0.06567754701591741
            ]
        },
        {
            "positions": [
                -0.12035203420909245,
                -2.064222535377483,
                -2.5713703974409454,
                1.530238079025497,
                0.10127019401308263,
                -0.03340698389142792
            ]
        },
        {
            "positions": [
                -0.15235011938030532,
                -2.171423109596779,
                -2.478672966452884,
                1.507203249903758,
                0.13702682525885315,
                -0.0011364207669384285
            ]
        },
        {
            "positions": [
                -0.1843482045515182,
                -2.2786236838160754,
                -2.3859755354648224,
                1.4841684207820192,
                0.17278345650462368,
                0.031134142357551055
            ]
        }
    ]
}