{
    "goal": {
        "global_pose": {
            "orientation": {
                "w": -0.00223480608172531,
                "x": 0.0024358444001904467,
                "y": 0.7094548369677653,
                "z": -0.704743149386269
            },
            "position": {
                "x": 0.6205249238014221,
                "y": -0.6371506643295288,
                "z": 0.19426114857196808
            }
        },
        "name": "move_to_magneteinheit_B"
    },
    "id": "LBKPIECE_move_to_magneteinheit_B_39",
    "joint_names": [
        "shoulder_pan_joint",
        "shoulder_lift_joint",
        "elbow_joint",
        "wrist_1_joint",
        "wrist_2_joint",
        "wrist_3_joint"
    ],
    "metrics": {
        "cart_traj_len": 1.5438058279338698,
        "distance_elbow_joint": 0.9547607419677422,
        "distance_shoulder_lift_joint": 0.8937853039593209,
        "distance_shoulder_pan_joint": 1.6203999005856495,
        "distance_wrist_1_joint": 0.41810149212104575,
        "distance_wrist_2_joint": 1.5268184077136377,
        "distance_wrist_3_joint": 0.23369347606044175,
        "smoothness": 0.3280634059840266,
        "time": 0.511974815,
        "traj_len": 2.376459408954388,
        "weighted_distance": 2.838990344182841
    },
    "planner": "LBKPIECE",
    "start": {
        "state": {
            "elbow_joint": 2.6216224122426386,
            "shoulder_lift_joint": -1.4174107377796124,
            "shoulder_pan_joint": 0.7066234856936794,
            "wrist_1_joint": 1.9546482284002225,
            "wrist_2_joint": -0.7096286983471962,
            "wrist_3_joint": 0.005740856962016249
        }
    },
    "waypoints": [
        {
            "positions": [
                0.7066234856936794,
                -1.4174107377796124,
                2.6216224122426386,
                1.9546482284002225,
                -0.7096286983471962,
                0.005740856962016249
            ]
        },
        {
            "positions": [
                0.6476963796007751,
                -1.4332443560303414,
                2.5962442834724384,
                1.9473161330466497,
                -0.7246180593581157,
                -0.014380426905702702
            ]
        },
        {
            "positions": [
                0.5369873260962736,
                -1.460306922582118,
                2.5096053836167824,
                1.8960318634793885,
                -0.739405885013106,
                -0.061843365851328845
            ]
        },
        {
            "positions": [
                0.4262782725917721,
                -1.4873694891338944,
                2.422966483761126,
                1.8447475939121272,
                -0.7541937106680963,
                -0.10930630479695498
            ]
        },
        {
            "positions": [
                0.3231971427853304,
                -1.4239982158565838,
                2.364804575031416,
                1.868455352191585,
                -0.8682132026213838,
                -0.1001796652353034
            ]
        },
        {
            "positions": [
                0.22011601297888866,
                -1.3606269425792732,
                2.306642666301706,
                1.8921631104710426,
                -0.9822326945746713,
                -0.09105302567365182
            ]
        },
        {
            "positions": [
                0.11703488317244692,
                -1.2972556693019623,
                2.248480757571996,
                1.9158708687505004,
                -1.0962521865279589,
                -0.08192638611200025
            ]
        },
        {
            "positions": [
                0.01395375336600524,
                -1.2338843960246517,
                2.1903188488422862,
                1.9395786270299582,
                -1.2102716784812464,
                -0.07279974655034867
            ]
        },
        {
            "positions": [
                -0.08912737644043645,
                -1.170513122747341,
                2.132156940112576,
                1.9632863853094158,
                -1.324291170434534,
                -0.06367310698869709
            ]
        },
        {
            "positions": [
                -0.19220850624687824,
                -1.1071418494700302,
                2.073995031382866,
                1.9869941435888736,
                -1.4383106623878215,
                -0.05454646742704551
            ]
        },
        {
            "positions": [
                -0.2952896360533198,
                -1.0437705761927196,
                2.0158331226531563,
                2.010701901868331,
                -1.5523301543411088,
                -0.04541982786539393
            ]
        },
        {
            "positions": [
                -0.3983707658597616,
                -0.980399302915409,
                1.9576712139234462,
                2.034409660147789,
                -1.6663496462943965,
                -0.036293188303742355
            ]
        },
        {
            "positions": [
                -0.5014518956662033,
                -0.9170280296380984,
                1.8995093051937362,
                2.058117418427247,
                -1.7803691382476838,
                -0.027166548742090776
            ]
        },
        {
            "positions": [
                -0.604533025472645,
                -0.8536567563607876,
                1.8413473964640263,
                2.0818251767067046,
                -1.8943886302009716,
                -0.018039909180439198
            ]
        },
        {
            "positions": [
                -0.7076141552790868,
                -0.790285483083477,
                1.7831854877343165,
                2.105532934986162,
                -2.008408122154259,
                -0.00891326961878762
            ]
        },
        {
            "positions": [
                -0.8106952850855286,
                -0.7269142098061663,
                1.7250235790046062,
                2.12924069326562,
                -2.122427614107546,
                0.0002133699428639585
            ]
        },
        {
            "positions": [
                -0.9137764148919701,
                -0.6635429365288557,
                1.6668616702748964,
                2.1529484515450776,
                -2.236447106060834,
                0.00934000950451553
            ]
        }
    ]
}