{
    "goal": {
        "global_pose": {
            "orientation": {
                "w": -0.4816463035849501,
                "x": 0.5182115481033762,
                "y": 0.4908360881923453,
                "z": -0.5084816262002911
            },
            "position": {
                "x": -0.8240239810943604,
                "y": 0.19912469901144506,
                "z": 0.16403168439865112
            }
        },
        "name": "move_to_storage_D"
    },
    "id": "LBKPIECE_move_to_storage_D_24",
    "joint_names": [
        "shoulder_pan_joint",
        "shoulder_lift_joint",
        "elbow_joint",
        "wrist_1_joint",
        "wrist_2_joint",
        "wrist_3_joint"
    ],
    "metrics": {
        "cart_traj_len": 3.693444555921234,
        "distance_elbow_joint": 4.209733615265935,
        "distance_shoulder_lift_joint": 1.264958741582386,
        "distance_shoulder_pan_joint": 2.812308854802458,
        "distance_wrist_1_joint": 2.2703557764839877,
        "distance_wrist_2_joint": 0.8755483879108176,
        "distance_wrist_3_joint": 3.132483128265716,
        "smoothness": 3.643808919070399e-16,
        "time": 1.1943924609999998,
        "traj_len": 3.816462826271376,
        "weighted_distance": 4.896555822742915
    },
    "planner": "LBKPIECE",
    "start": {
        "state": {
            "elbow_joint": -2.384821988534728,
            "shoulder_lift_joint": -2.2788054721415256,
            "shoulder_pan_joint": -0.1854694642142757,
            "wrist_1_joint": 1.4845938289331202,
            "wrist_2_joint": 0.17898776772866878,
            "wrist_3_joint": 0.037105688729662994
        }
    },
    "waypoints": [
        {
            "positions": [
                -0.1854694642142757,
                -2.2788054721415256,
                -2.384821988534728,
                1.4845938289331202,
                0.17898776772866878,
                0.037105688729662994
            ]
        },
        {
            "positions": [
                -0.10678057994414003,
                -2.250476078675151,
                -2.258199959362415,
                1.4337758595142103,
                0.20578533313240305,
                -0.044555761438233144
            ]
        },
        {
            "positions": [
                -0.028091695674004352,
                -2.2221466852087772,
                -2.1315779301901023,
                1.3829578900953006,
                0.23258289853613734,
                -0.12621721160612928
            ]
        },
        {
            "positions": [
                0.050597188596131354,
                -2.193817291742403,
                -2.004955901017789,
                1.3321399206763906,
                0.2593804639398716,
                -0.2078786617740254
            ]
        },
        {
            "positions": [
                0.129286072866267,
                -2.165487898276029,
                -1.8783338718454765,
                1.281321951257481,
                0.28617802934360587,
                -0.28954011194192153
            ]
        },
        {
            "positions": [
                0.2079749571364027,
                -2.1371585048096544,
                -1.7517118426731635,
                1.230503981838571,
                0.31297559474734016,
                -0.3712015621098177
            ]
        },
        {
            "positions": [
                0.28666384140653844,
                -2.1088291113432804,
                -1.6250898135008507,
                1.179686012419661,
                0.3397731601510744,
                -0.45286301227771375
            ]
        },
        {
            "positions": [
                0.3653527256766741,
                -2.080499717876906,
                -1.4984677843285379,
                1.1288680430007512,
                0.36657072555480874,
                -0.5345244624456099
            ]
        },
        {
            "positions": [
                0.44404160994680975,
                -2.052170324410532,
                -1.371845755156225,
                1.0780500735818415,
                0.393368290958543,
                -0.6161859126135061
            ]
        },
        {
            "positions": [
                0.5227304942169455,
                -2.0238409309441576,
                -1.245223725983912,
                1.0272321041629315,
                0.42016585636227727,
                -0.6978473627814022
            ]
        },
        {
            "positions": [
                0.6014193784870812,
                -1.9955115374777836,
                -1.1186016968115993,
                0.9764141347440217,
                0.44696342176601156,
                -0.7795088129492983
            ]
        },
        {
            "positions": [
                0.6801082627572169,
                -1.9671821440114092,
                -0.9919796676392862,
                0.9255961653251119,
                0.4737609871697458,
                -0.8611702631171945
            ]
        },
        {
            "positions": [
                0.7587971470273526,
                -1.9388527505450353,
                -0.8653576384669734,
                0.8747781959062021,
                0.50055855257348,
                -0.9428317132850905
            ]
        },
        {
            "positions": [
                0.8374860312974882,
                -1.9105233570786608,
                -0.7387356092946606,
                0.8239602264872922,
                0.5273561179772144,
                -1.0244931634529868
            ]
        },
        {
            "positions": [
                0.9161749155676239,
                -1.8821939636122869,
                -0.6121135801223478,
                0.7731422570683824,
                0.5541536833809486,
                -1.1061546136208829
            ]
        },
        {
            "positions": [
                0.9948637998377597,
                -1.8538645701459124,
                -0.4854915509500348,
                0.7223242876494724,
                0.580951248784683,
                -1.187816063788779
            ]
        },
        {
            "positions": [
                1.073552684107895,
                -1.8255351766795385,
                -0.35886952177772224,
                0.6715063182305627,
                0.6077488141884172,
                -1.2694775139566752
            ]
        },
        {
            "positions": [
                1.1522415683780307,
                -1.797205783213164,
                -0.23224749260540944,
                0.6206883488116529,
                0.6345463795921514,
                -1.3511389641245712
            ]
        },
        {
            "positions": [
                1.2309304526481666,
                -1.76887638974679,
                -0.1056254634330962,
                0.5698703793927429,
                0.6613439449958858,
                -1.4328004142924675
            ]
        },
        {
            "positions": [
                1.3096193369183022,
                -1.7405469962804156,
                0.0209965657392166,
                0.5190524099738331,
                0.68814151039962,
                -1.5144618644603636
            ]
        },
        {
            "positions": [
                1.3883082211884379,
                -1.7122176028140417,
                0.1476185949115294,
                0.46823444055492325,
                0.7149390758033543,
                -1.5961233146282596
            ]
        },
        {
            "positions": [
                1.4669971054585735,
                -1.6838882093476673,
                0.2742406240838422,
                0.41741647113601354,
                0.7417366412070885,
                -1.6777847647961557
            ]
        },
        {
            "positions": [
                1.5456859897287094,
                -1.655558815881293,
                0.40086265325615544,
                0.3665985017171036,
                0.7685342066108228,
                -1.759446214964052
            ]
        },
        {
            "positions": [
                1.624374873998845,
                -1.6272294224149189,
                0.5274846824284682,
                0.3157805322981937,
                0.7953317720145571,
                -1.841107665131948
            ]
        },
        {
            "positions": [
                1.7030637582689807,
                -1.5989000289485449,
                0.654106711600781,
                0.264962562879284,
                0.8221293374182913,
                -1.922769115299844
            ]
        },
        {
            "positions": [
                1.7817526425391161,
                -1.5705706354821705,
                0.7807287407730938,
                0.21414459346037407,
                0.8489269028220255,
                -2.0044305654677403
            ]
        },
        {
            "positions": [
                1.860441526809252,
                -1.5422412420157963,
                0.9073507699454066,
                0.16332662404146414,
                0.8757244682257599,
                -2.0860920156356366
            ]
        },
        {
            "positions": [
                1.9391304110793879,
                -1.513911848549422,
                1.0339727991177194,
                0.11250865462255444,
                0.9025220336294942,
                -2.1677534658035325
            ]
        },
        {
            "positions": [
                2.0178192953495233,
                -1.4855824550830479,
                1.1605948282900322,
                0.06169068520364451,
                0.9293195990332285,
                -2.2494149159714287
            ]
        },
        {
            "positions": [
                2.096508179619659,
                -1.4572530616166737,
                1.287216857462345,
                0.01087271578473481,
                0.9561171644369627,
                -2.3310763661393246
            ]
        },
        {
            "positions": [
                2.175197063889795,
                -1.4289236681502995,
                1.4138388866346583,
                -0.03994525363417534,
                0.982914729840697,
                -2.412737816307221
            ]
        },
        {
            "positions": [
                2.2538859481599305,
                -1.4005942746839253,
                1.540460915806971,
                -0.09076322305308496,
                1.0097122952444313,
                -2.494399266475117
            ]
        },
        {
            "positions": [
                2.3071650113639666,
                -1.3453446255232415,
                1.5810967316532907,
                -0.19004875512419678,
                1.0161157038722963,
                -2.5802532911981078
            ]
        },
        {
            "positions": [
                2.360444074568002,
                -1.290094976362558,
                1.6217325474996103,
                -0.2893342871953086,
                1.0225191125001614,
                -2.666107315921099
            ]
        },
        {
            "positions": [
                2.4137231377720383,
                -1.2348453272018742,
                1.6623683633459299,
                -0.3886198192664204,
                1.0289225211280264,
                -2.7519613406440895
            ]
        },
        {
            "positions": [
                2.4670022009760744,
                -1.1795956780411907,
                1.7030041791922494,
                -0.4879053513375322,
                1.0353259297558912,
                -2.8378153653670806
            ]
        },
        {
            "positions": [
                2.5202812641801104,
                -1.124346028880507,
                1.743639995038569,
                -0.5871908834086441,
                1.0417293383837563,
                -2.923669390090071
            ]
        },
        {
            "positions": [
                2.573560327384146,
                -1.0690963797198234,
                1.7842758108848886,
                -0.6864764154797558,
                1.0481327470116213,
                -3.009523414813062
            ]
        },
        {
            "positions": [
                2.626839390588182,
                -1.0138467305591397,
                1.8249116267312082,
                -0.7857619475508677,
                1.0545361556394863,
                -3.095377439536053
            ]
        }
    ]
}