{
    "goal": {
        "global_pose": {
            "orientation": {
                "w": 0.7047431493862688,
                "x": -0.7094548369677653,
                "y": 0.0024358444001904,
                "z": -0.0022348060817251984
            },
            "position": {
                "x": -0.39052492380142206,
                "y": 0.3671506643295288,
                "z": 0.19426114857196808
            }
        },
        "name": "move_to_magneteinheit_D"
    },
    "id": "LBKPIECE_move_to_magneteinheit_D_4",
    "joint_names": [
        "shoulder_pan_joint",
        "shoulder_lift_joint",
        "elbow_joint",
        "wrist_1_joint",
        "wrist_2_joint",
        "wrist_3_joint"
    ],
    "metrics": {
        "cart_traj_len": 3.9605258162873227,
        "distance_elbow_joint": 3.958856164560615,
        "distance_shoulder_lift_joint": 1.6363651036057376,
        "distance_shoulder_pan_joint": 2.5929528376053175,
        "distance_wrist_1_joint": 5.245737967307174,
        "distance_wrist_2_joint": 8.904215271344052,
        "distance_wrist_3_joint": 3.121713608783402,
        "smoothness": 0.42389334927230937,
        "time": 1.105834815,
        "traj_len": 5.045774564247426,
        "weighted_distance": 6.771500676321634
    },
    "planner": "LBKPIECE",
    "start": {
        "state": {
            "elbow_joint": 0.749534889911806,
            "shoulder_lift_joint": -0.6476975780787326,
            "shoulder_pan_joint": -2.711696901376241,
            "wrist_1_joint": -0.07506478083263063,
            "wrist_2_joint": 0.43296659715538205,
            "wrist_3_joint": -3.14703540197715
        }
    },
    "waypoints": [
        {
            "positions": [
                -2.711696901376241,
                -0.6476975780787326,
                0.749534889911806,
                -0.07506478083263063,
                0.43296659715538205,
                -3.14703540197715
            ]
        },
        {
            "positions": [
                -2.7281220719083983,
                -0.6613272228257413,
                0.7568436132387408,
                -0.01105428521354071,
                0.5560108037028084,
                -3.0137675826359014
            ]
        },
        {
            "positions": [
                -2.7445472424405555,
                -0.67495686757275,
                0.7641523365656757,
                0.05295621040554921,
                0.6790550102502348,
                -2.8804997632946527
            ]
        },
        {
            "positions": [
                -2.741932755103117,
                -0.6903274356712074,
                0.7578872819353215,
                0.09959075040480994,
                0.7553407530538573,
                -2.7747854291445493
            ]
        },
        {
            "positions": [
                -2.739318267765679,
                -0.7056980037696647,
                0.7516222273049673,
                0.14622529040407067,
                0.8316264958574797,
                -2.669071094994446
            ]
        },
        {
            "positions": [
                -2.7276063286470276,
                -0.7280751854382919,
                0.7380032844139863,
                0.20705244062983263,
                0.9228214486768455,
                -2.5300578165620258
            ]
        },
        {
            "positions": [
                -2.7158943895283763,
                -0.7504523671069189,
                0.7243843415230053,
                0.2678795908555946,
                1.0140164014962112,
                -2.3910445381296057
            ]
        },
        {
            "positions": [
                -2.704182450409725,
                -0.772829548775546,
                0.7107653986320243,
                0.32870674108135656,
                1.1052113543155768,
                -2.2520312596971857
            ]
        },
        {
            "positions": [
                -2.6924705112910736,
                -0.795206730444173,
                0.6971464557410433,
                0.3895338913071185,
                1.1964063071349427,
                -2.1130179812647656
            ]
        },
        {
            "positions": [
                -2.6807585721724223,
                -0.8175839121128001,
                0.6835275128500623,
                0.4503610415328805,
                1.2876012599543083,
                -1.9740047028323455
            ]
        },
        {
            "positions": [
                -2.620787061178498,
                -0.84807864780707,
                0.6438265486933363,
                0.5115051944249567,
                1.3238533811638076,
                -1.859866826374172
            ]
        },
        {
            "positions": [
                -2.5608155501845737,
                -0.8785733835013398,
                0.6041255845366105,
                0.572649347317033,
                1.3601055023733069,
                -1.7457289499159985
            ]
        },
        {
            "positions": [
                -2.5371591466078787,
                -0.8950334671145223,
                0.4950801374901374,
                0.5139610061188378,
                1.212393407220684,
                -1.7153561205874635
            ]
        },
        {
            "positions": [
                -2.5135027430311836,
                -0.9114935507277047,
                0.38603469044366434,
                0.4552726649206426,
                1.0646813120680612,
                -1.6849832912589287
            ]
        },
        {
            "positions": [
                -2.4898463394544885,
                -0.9279536343408871,
                0.2769892433971912,
                0.39658432372244745,
                0.9169692169154383,
                -1.6546104619303936
            ]
        },
        {
            "positions": [
                -2.466189935877793,
                -0.9444137179540695,
                0.16794379635071816,
                0.33789598252425224,
                0.7692571217628155,
                -1.6242376326018586
            ]
        },
        {
            "positions": [
                -2.442533532301098,
                -0.9608738015672519,
                0.05889834930424509,
                0.279207641326057,
                0.6215450266101926,
                -1.5938648032733236
            ]
        },
        {
            "positions": [
                -2.418877128724403,
                -0.9773338851804343,
                -0.05014709774222803,
                0.22051930012786186,
                0.4738329314575698,
                -1.5634919739447888
            ]
        },
        {
            "positions": [
                -2.395220725147708,
                -0.9937939687936167,
                -0.15919254478870115,
                0.16183095892966665,
                0.32612083630494704,
                -1.5331191446162538
            ]
        },
        {
            "positions": [
                -2.3715643215710127,
                -1.010254052406799,
                -0.26823799183517416,
                0.10314261773147149,
                0.17840874115232408,
                -1.5027463152877187
            ]
        },
        {
            "positions": [
                -2.347907917994317,
                -1.0267141360199814,
                -0.3772834388816474,
                0.04445427653327627,
                0.030696645999701122,
                -1.4723734859591837
            ]
        },
        {
            "positions": [
                -2.324251514417622,
                -1.043174219633164,
                -0.4863288859281203,
                -0.014234064664918944,
                -0.11701544915292161,
                -1.4420006566306487
            ]
        },
        {
            "positions": [
                -2.300595110840927,
                -1.0596343032463462,
                -0.5953743329745935,
                -0.07292240586311416,
                -0.26472754430554457,
                -1.411627827302114
            ]
        },
        {
            "positions": [
                -2.276938707264232,
                -1.0760943868595287,
                -0.7044197800210665,
                -0.13161074706130926,
                -0.4124396394581673,
                -1.3812549979735789
            ]
        },
        {
            "positions": [
                -2.253282303687537,
                -1.092554470472711,
                -0.8134652270675398,
                -0.19029908825950448,
                -0.5601517346107903,
                -1.3508821686450438
            ]
        },
        {
            "positions": [
                -2.229625900110842,
                -1.1090145540858936,
                -0.9225106741140128,
                -0.2489874294576997,
                -0.7078638297634128,
                -1.320509339316509
            ]
        },
        {
            "positions": [
                -2.2059694965341468,
                -1.1254746376990759,
                -1.031556121160486,
                -0.3076757706558949,
                -0.8555759249160357,
                -1.290136509987974
            ]
        },
        {
            "positions": [
                -2.1823130929574512,
                -1.1419347213122584,
                -1.1406015682069588,
                -0.36636411185409,
                -1.0032880200686587,
                -1.259763680659439
            ]
        },
        {
            "positions": [
                -2.158656689380756,
                -1.1583948049254407,
                -1.2496470152534318,
                -0.4250524530522851,
                -1.1510001152212812,
                -1.229390851330904
            ]
        },
        {
            "positions": [
                -2.135000285804061,
                -1.1748548885386232,
                -1.3586924622999053,
                -0.48374079425048044,
                -1.2987122103739046,
                -1.199018022002369
            ]
        },
        {
            "positions": [
                -2.111343882227366,
                -1.1913149721518055,
                -1.4677379093463783,
                -0.5424291354486755,
                -1.4464243055265271,
                -1.1686451926738342
            ]
        },
        {
            "positions": [
                -2.087687478650671,
                -1.207775055764988,
                -1.576783356392851,
                -0.6011174766468709,
                -1.59413640067915,
                -1.1382723633452991
            ]
        },
        {
            "positions": [
                -2.064031075073976,
                -1.2242351393781703,
                -1.6858288034393243,
                -0.659805817845066,
                -1.7418484958317726,
                -1.1078995340167643
            ]
        },
        {
            "positions": [
                -2.040374671497281,
                -1.2406952229913528,
                -1.7948742504857975,
                -0.7184941590432613,
                -1.889560590984396,
                -1.0775267046882293
            ]
        },
        {
            "positions": [
                -2.0167182679205853,
                -1.2571553066045351,
                -1.9039196975322707,
                -0.7771825002414564,
                -2.0372726861370185,
                -1.0471538753596943
            ]
        },
        {
            "positions": [
                -1.9930618643438902,
                -1.2736153902177176,
                -2.0129651445787435,
                -0.8358708414396515,
                -2.1849847812896415,
                -1.0167810460311593
            ]
        },
        {
            "positions": [
                -1.9694054607671951,
                -1.2900754738309,
                -2.1220105916252168,
                -0.8945591826378466,
                -2.332696876442264,
                -0.9864082167026244
            ]
        },
        {
            "positions": [
                -1.9457490571905,
                -1.3065355574440825,
                -2.23105603867169,
                -0.9532475238360419,
                -2.4804089715948874,
                -0.9560353873740893
            ]
        },
        {
            "positions": [
                -1.922092653613805,
                -1.3229956410572647,
                -2.340101485718163,
                -1.011935865034237,
                -2.62812106674751,
                -0.9256625580455544
            ]
        },
        {
            "positions": [
                -1.8984362500371097,
                -1.3394557246704473,
                -2.449146932764636,
                -1.0706242062324325,
                -2.7758331619001324,
                -0.8952897287170195
            ]
        },
        {
            "positions": [
                -1.8747798464604146,
                -1.3559158082836296,
                -2.558192379811109,
                -1.1293125474306276,
                -2.9235452570527554,
                -0.8649168993884845
            ]
        },
        {
            "positions": [
                -1.8511234428837193,
                -1.3723758918968119,
                -2.6672378268575825,
                -1.1880008886288227,
                -3.0712573522053783,
                -0.8345440700599495
            ]
        },
        {
            "positions": [
                -1.8274670393070243,
                -1.3888359755099944,
                -2.7762832739040553,
                -1.2466892298270178,
                -3.2189694473580013,
                -0.8041712407314145
            ]
        },
        {
            "positions": [
                -1.7617461475707255,
                -1.4246450437569733,
                -2.7601311496065746,
                -1.1355418193464795,
                -3.0830493907022087,
                -0.7730172628299078
            ]
        },
        {
            "positions": [
                -1.6960252558344264,
                -1.4604541120039525,
                -2.7439790253090943,
                -1.0243944088659411,
                -2.9471293340464157,
                -0.741863284928401
            ]
        },
        {
            "positions": [
                -1.6303043640981276,
                -1.4962631802509314,
                -2.7278269010116136,
                -0.9132469983854027,
                -2.811209277390623,
                -0.7107093070268943
            ]
        },
        {
            "positions": [
                -1.5645834723618288,
                -1.5320722484979106,
                -2.711674776714133,
                -0.8020995879048642,
                -2.67528922073483,
                -0.6795553291253875
            ]
        },
        {
            "positions": [
                -1.4988625806255298,
                -1.5678813167448895,
                -2.6955226524166527,
                -0.6909521774243259,
                -2.5393691640790377,
                -0.6484013512238809
            ]
        },
        {
            "positions": [
                -1.433141688889231,
                -1.6036903849918687,
                -2.679370528119172,
                -0.5798047669437876,
                -2.4034491074232447,
                -0.6172473733223741
            ]
        },
        {
            "positions": [
                -1.3674207971529322,
                -1.6394994532388476,
                -2.6632184038216913,
                -0.46865735646324913,
                -2.267529050767452,
                -0.5860933954208674
            ]
        },
        {
            "positions": [
                -1.3016999054166334,
                -1.6753085214858268,
                -2.647066279524211,
                -0.3575099459827108,
                -2.1316089941116596,
                -0.5549394175193606
            ]
        },
        {
            "positions": [
                -1.2359790136803344,
                -1.7111175897328057,
                -2.6309141552267303,
                -0.24636253550217257,
                -1.9956889374558666,
                -0.5237854396178538
            ]
        },
        {
            "positions": [
                -1.1702581219440353,
                -1.7469266579797846,
                -2.6147620309292496,
                -0.13521512502163402,
                -1.8597688808000739,
                -0.4926314617163471
            ]
        },
        {
            "positions": [
                -1.1045372302077365,
                -1.7827357262267638,
                -2.5986099066317694,
                -0.024067714541095686,
                -1.723848824144281,
                -0.4614774838148404
            ]
        },
        {
            "positions": [
                -1.0388163384714377,
                -1.8185447944737427,
                -2.5824577823342887,
                0.08707969593944265,
                -1.5879287674884885,
                -0.4303235059133336
            ]
        },
        {
            "positions": [
                -0.9730954467351388,
                -1.854353862720722,
                -2.566305658036808,
                0.19822710641998098,
                -1.4520087108326956,
                -0.39916952801182687
            ]
        },
        {
            "positions": [
                -0.9073745549988399,
                -1.8901629309677008,
                -2.5501535337393273,
                0.30937451690051954,
                -1.3160886541769028,
                -0.3680155501103201
            ]
        },
        {
            "positions": [
                -0.8416536632625412,
                -1.92597199921468,
                -2.534001409441847,
                0.42052192738105765,
                -1.1801685975211105,
                -0.3368615722088134
            ]
        },
        {
            "positions": [
                -0.7759327715262423,
                -1.961781067461659,
                -2.5178492851443663,
                0.5316693378615962,
                -1.0442485408653175,
                -0.30570759430730665
            ]
        },
        {
            "positions": [
                -0.7102118797899433,
                -1.9975901357086379,
                -2.5016971608468856,
                0.6428167483421345,
                -0.9083284842095245,
                -0.2745536164057999
            ]
        },
        {
            "positions": [
                -0.6444909880536445,
                -2.033399203955617,
                -2.4855450365494054,
                0.7539641588226726,
                -0.772408427553732,
                -0.24339963850429314
            ]
        },
        {
            "positions": [
                -0.5787700963173457,
                -2.069208272202596,
                -2.4693929122519247,
                0.8651115693032114,
                -0.6364883708979394,
                -0.21224566060278638
            ]
        },
        {
            "positions": [
                -0.5130492045810466,
                -2.1050173404495753,
                -2.453240787954444,
                0.9762589797837498,
                -0.5005683142421464,
                -0.18109168270127962
            ]
        },
        {
            "positions": [
                -0.44732831284474805,
                -2.140826408696554,
                -2.4370886636569637,
                1.0874063902642876,
                -0.3646482575863539,
                -0.14993770479977298
            ]
        },
        {
            "positions": [
                -0.38160742110844903,
                -2.176635476943533,
                -2.420936539359483,
                1.1985538007448264,
                -0.2287282009305609,
                -0.11878372689826622
            ]
        },
        {
            "positions": [
                -0.31588652937215,
                -2.2124445451905124,
                -2.4047844150620024,
                1.3097012112253648,
                -0.09280814427476836,
                -0.08762974899675935
            ]
        },
        {
            "positions": [
                -0.2501656376358514,
                -2.248253613437491,
                -2.388632290764522,
                1.420848621705903,
                0.04311191238102419,
                -0.0564757710952527
            ]
        },
        {
            "positions": [
                -0.1844447458995523,
                -2.2840626816844702,
                -2.3724801664670414,
                1.5319960321864414,
                0.17903196903681715,
                -0.025321793193745962
            ]
        }
    ]
}