{
    "goal": {
        "global_pose": {
            "orientation": {
                "w": 0.7047431493862688,
                "x": -0.7094548369677653,
                "y": 0.0024358444001904,
                "z": -0.0022348060817251984
            },
            "position": {
                "x": -0.39052492380142206,
                "y": 0.3671506643295288,
                "z": 0.19426114857196808
            }
        },
        "name": "move_to_magneteinheit_D"
    },
    "id": "LBKPIECE_move_to_magneteinheit_D_108",
    "joint_names": [
        "shoulder_pan_joint",
        "shoulder_lift_joint",
        "elbow_joint",
        "wrist_1_joint",
        "wrist_2_joint",
        "wrist_3_joint"
    ],
    "metrics": {
        "cart_traj_len": 4.051761084001454,
        "distance_elbow_joint": 3.128433424676414,
        "distance_shoulder_lift_joint": 1.6346706241134823,
        "distance_shoulder_pan_joint": 4.0049908300838055,
        "distance_wrist_1_joint": 3.726448205534407,
        "distance_wrist_2_joint": 4.569289545508252,
        "distance_wrist_3_joint": 3.6559898595743316,
        "smoothness": 0.48502596578874596,
        "time": 0.584491666,
        "traj_len": 4.551903172244628,
        "weighted_distance": 6.027233192741262
    },
    "planner": "LBKPIECE",
    "start": {
        "state": {
            "elbow_joint": 0.749534889911806,
            "shoulder_lift_joint": -0.6476975780787326,
            "shoulder_pan_joint": -2.711696901376241,
            "wrist_1_joint": -0.07506478083263063,
            "wrist_2_joint": 0.43296659715538205,
            "wrist_3_joint": -3.14703540197715
        }
    },
    "waypoints": [
        {
            "positions": [
                -2.711696901376241,
                -0.6476975780787326,
                0.749534889911806,
                -0.07506478083263063,
                0.43296659715538205,
                -3.14703540197715
            ]
        },
        {
            "positions": [
                -2.758578054181685,
                -0.6961326370399945,
                0.7234406164290154,
                0.013825133186068761,
                0.5094176202603742,
                -3.0686927873655105
            ]
        },
        {
            "positions": [
                -2.8054592069871283,
                -0.7445676960012565,
                0.6973463429462248,
                0.10271504720476815,
                0.5858686433653664,
                -2.9903501727538706
            ]
        },
        {
            "positions": [
                -2.8523403597925716,
                -0.7930027549625185,
                0.6712520694634342,
                0.19160496122346754,
                0.6623196664703586,
                -2.912007558142231
            ]
        },
        {
            "positions": [
                -2.8992215125980154,
                -0.8414378139237804,
                0.6451577959806436,
                0.28049487524216693,
                0.7387706895753507,
                -2.8336649435305916
            ]
        },
        {
            "positions": [
                -2.946102665403459,
                -0.8898728728850422,
                0.619063522497853,
                0.3693847892608663,
                0.8152217126803429,
                -2.7553223289189517
            ]
        },
        {
            "positions": [
                -2.9929838182089026,
                -0.9383079318463042,
                0.5929692490150624,
                0.45827470327956576,
                0.891672735785335,
                -2.676979714307312
            ]
        },
        {
            "positions": [
                -2.8720431256886814,
                -0.938765004105748,
                0.5085404274212818,
                0.5369050200155439,
                0.8024656721247073,
                -2.6862465406857585
            ]
        },
        {
            "positions": [
                -2.7511024331684606,
                -0.9392220763651918,
                0.42411160582750124,
                0.6155353367515219,
                0.7132586084640795,
                -2.695513367064205
            ]
        },
        {
            "positions": [
                -2.6301617406482394,
                -0.9396791486246356,
                0.33968278423372067,
                0.6941656534875,
                0.6240515448034518,
                -2.704780193442651
            ]
        },
        {
            "positions": [
                -2.509221048128018,
                -0.9401362208840794,
                0.25525396263994005,
                0.7727959702234781,
                0.5348444811428241,
                -2.7140470198210975
            ]
        },
        {
            "positions": [
                -2.3882803556077974,
                -0.9405932931435232,
                0.17082514104615948,
                0.8514262869594562,
                0.4456374174821964,
                -2.723313846199544
            ]
        },
        {
            "positions": [
                -2.267339663087576,
                -0.941050365402967,
                0.08639631945237891,
                0.9300566036954343,
                0.3564303538215686,
                -2.73258067257799
            ]
        },
        {
            "positions": [
                -2.146398970567355,
                -0.9415074376624109,
                0.0019674978585982883,
                1.0086869204314124,
                0.26722329016094093,
                -2.741847498956436
            ]
        },
        {
            "positions": [
                -2.025458278047134,
                -0.9419645099218547,
                -0.08246132373518233,
                1.0873172371673903,
                0.17801622650031312,
                -2.7511143253348824
            ]
        },
        {
            "positions": [
                -1.904517585526913,
                -0.9424215821812985,
                -0.16689014532896285,
                1.1659475539033686,
                0.08880916283968543,
                -2.7603811517133288
            ]
        },
        {
            "positions": [
                -1.783576893006692,
                -0.9428786544407423,
                -0.25131896692274347,
                1.2445778706393464,
                -0.0003979008209422652,
                -2.769647978091775
            ]
        },
        {
            "positions": [
                -1.662636200486471,
                -0.9433357267001861,
                -0.3357477885165241,
                1.3232081873753248,
                -0.08960496448157007,
                -2.7789148044702214
            ]
        },
        {
            "positions": [
                -1.5416955079662498,
                -0.9437927989596299,
                -0.4201766101103046,
                1.4018385041113026,
                -0.17881202814219777,
                -2.7881816308486678
            ]
        },
        {
            "positions": [
                -1.4207548154460288,
                -0.9442498712190737,
                -0.5046054317040853,
                1.4804688208472807,
                -0.26801909180282546,
                -2.797448457227114
            ]
        },
        {
            "positions": [
                -1.2998141229258078,
                -0.9447069434785175,
                -0.5890342532978659,
                1.5590991375832588,
                -0.35722615546345315,
                -2.8067152836055604
            ]
        },
        {
            "positions": [
                -1.1788734304055866,
                -0.9451640157379613,
                -0.6734630748916466,
                1.637729454319237,
                -0.44643321912408107,
                -2.8159821099840068
            ]
        },
        {
            "positions": [
                -1.0579327378853656,
                -0.9456210879974051,
                -0.7578918964854271,
                1.716359771055215,
                -0.5356402827847088,
                -2.825248936362453
            ]
        },
        {
            "positions": [
                -0.9369920453651446,
                -0.9460781602568489,
                -0.8423207180792078,
                1.7949900877911933,
                -0.6248473464453365,
                -2.8345157627408994
            ]
        },
        {
            "positions": [
                -0.8160513528449234,
                -0.9465352325162927,
                -0.9267495396729881,
                1.8736204045271712,
                -0.7140544101059642,
                -2.843782589119346
            ]
        },
        {
            "positions": [
                -0.6951106603247021,
                -0.9469923047757365,
                -1.0111783612667689,
                1.9522507212631492,
                -0.8032614737665921,
                -2.853049415497792
            ]
        },
        {
            "positions": [
                -0.5741699678044814,
                -0.9474493770351803,
                -1.0956071828605494,
                2.0308810379991273,
                -0.8924685374272195,
                -2.862316241876238
            ]
        },
        {
            "positions": [
                -0.45322927528426016,
                -0.9479064492946241,
                -1.18003600445433,
                2.1095113547351056,
                -0.9816756010878475,
                -2.8715830682546843
            ]
        },
        {
            "positions": [
                -0.3322885827640394,
                -0.9483635215540679,
                -1.2644648260481106,
                2.1881416714710835,
                -1.070882664748475,
                -2.8808498946331307
            ]
        },
        {
            "positions": [
                -0.21134789024381817,
                -0.9488205938135117,
                -1.3488936476418913,
                2.2667719882070614,
                -1.160089728409103,
                -2.890116721011577
            ]
        },
        {
            "positions": [
                -0.09040719772359695,
                -0.9492776660729555,
                -1.4333224692356716,
                2.3454023049430397,
                -1.2492967920697304,
                -2.8993835473900234
            ]
        },
        {
            "positions": [
                0.03053349479662426,
                -0.9497347383323993,
                -1.5177512908294526,
                2.424032621679018,
                -1.3385038557303583,
                -2.9086503737684697
            ]
        },
        {
            "positions": [
                0.15147418731684503,
                -0.9501918105918431,
                -1.602180112423233,
                2.5026629384149954,
                -1.4277109193909858,
                -2.917917200146916
            ]
        },
        {
            "positions": [
                0.27241487983706625,
                -0.9506488828512869,
                -1.6866089340170136,
                2.581293255150974,
                -1.5169179830516137,
                -2.9271840265253624
            ]
        },
        {
            "positions": [
                0.2505908219701531,
                -1.0140640885341883,
                -1.7195751054811848,
                2.53033658041046,
                -1.4358707121925016,
                -2.7873873665402935
            ]
        },
        {
            "positions": [
                0.22876676410323998,
                -1.0774792942170897,
                -1.7525412769453559,
                2.4793799056699455,
                -1.3548234413333897,
                -2.647590706555225
            ]
        },
        {
            "positions": [
                0.20694270623632682,
                -1.1408944998999908,
                -1.7855074484095272,
                2.428423230929431,
                -1.2737761704742776,
                -2.5077940465701563
            ]
        },
        {
            "positions": [
                0.18511864836941372,
                -1.2043097055828922,
                -1.8184736198736984,
                2.377466556188917,
                -1.1927288996151657,
                -2.3679973865850874
            ]
        },
        {
            "positions": [
                0.16329459050250056,
                -1.2677249112657936,
                -1.8514397913378695,
                2.326509881448402,
                -1.1116816287560536,
                -2.2282007266000186
            ]
        },
        {
            "positions": [
                0.14147053263558743,
                -1.331140116948695,
                -1.8844059628020406,
                2.2755532067078876,
                -1.0306343578969417,
                -2.08840406661495
            ]
        },
        {
            "positions": [
                0.1196464747686743,
                -1.394555322631596,
                -1.917372134266212,
                2.2245965319673733,
                -0.9495870870378296,
                -1.9486074066298813
            ]
        },
        {
            "positions": [
                0.09782241690176116,
                -1.4579705283144975,
                -1.9503383057303831,
                2.173639857226859,
                -0.8685398161787176,
                -1.8088107466448127
            ]
        },
        {
            "positions": [
                0.07599835903484803,
                -1.5213857339973988,
                -1.9833044771945543,
                2.1226831824863446,
                -0.7874925453196056,
                -1.6690140866597438
            ]
        },
        {
            "positions": [
                0.054174301167934896,
                -1.5848009396803002,
                -2.0162706486587254,
                2.0717265077458302,
                -0.7064452744604935,
                -1.5292174266746752
            ]
        },
        {
            "positions": [
                0.032350243301021736,
                -1.6482161453632016,
                -2.0492368201228968,
                2.020769833005316,
                -0.6253980036013814,
                -1.3894207666896063
            ]
        },
        {
            "positions": [
                0.010526185434108604,
                -1.711631351046103,
                -2.0822029915870677,
                1.9698131582648015,
                -0.5443507327422695,
                -1.2496241067045377
            ]
        },
        {
            "positions": [
                -0.011297872432804557,
                -1.7750465567290044,
                -2.115169163051239,
                1.918856483524287,
                -0.4633034618831573,
                -1.1098274467194689
            ]
        },
        {
            "positions": [
                -0.03312193029971766,
                -1.8384617624119055,
                -2.1481353345154104,
                1.8678998087837726,
                -0.3822561910240454,
                -0.9700307867344002
            ]
        },
        {
            "positions": [
                -0.05494598816663082,
                -1.9018769680948069,
                -2.1811015059795813,
                1.816943134043258,
                -0.3012089201649333,
                -0.8302341267493314
            ]
        },
        {
            "positions": [
                -0.07677004603354393,
                -1.9652921737777083,
                -2.2140676774437527,
                1.7659864593027437,
                -0.22016164930582138,
                -0.690437466764263
            ]
        },
        {
            "positions": [
                -0.09859410390045709,
                -2.0287073794606094,
                -2.2470338489079236,
                1.7150297845622293,
                -0.13911437844670926,
                -0.5506408067791941
            ]
        },
        {
            "positions": [
                -0.12041816176737019,
                -2.092122585143511,
                -2.280000020372095,
                1.664073109821715,
                -0.058067107587597366,
                -0.4108441467941253
            ]
        },
        {
            "positions": [
                -0.14224221963428335,
                -2.155537790826412,
                -2.3129661918362663,
                1.6131164350812006,
                0.022980163271514753,
                -0.27104748680905644
            ]
        },
        {
            "positions": [
                -0.16406627750119646,
                -2.2189529965093135,
                -2.345932363300437,
                1.562159760340686,
                0.10402743413062665,
                -0.13125082682398803
            ]
        },
        {
            "positions": [
                -0.1858903353681096,
                -2.282368202192215,
                -2.3788985347646086,
                1.5112030856001717,
                0.18507470498973874,
                0.008545833161080717
            ]
        }
    ]
}