{
    "goal": {
        "global_pose": {
            "orientation": {
                "w": 0.7031023502349854,
                "x": -0.7110244035720825,
                "y": 0.007748599164187908,
                "z": 0.005598929710686207
            },
            "position": {
                "x": 0.11585023208521307,
                "y": 0.44412534475326537,
                "z": 0.3711530566215515
            }
        },
        "name": "move_to_auspresseinheit_A"
    },
    "id": "LBKPIECE_move_to_auspresseinheit_A_96",
    "joint_names": [
        "shoulder_pan_joint",
        "shoulder_lift_joint",
        "elbow_joint",
        "wrist_1_joint",
        "wrist_2_joint",
        "wrist_3_joint"
    ],
    "metrics": {
        "cart_traj_len": 3.7575718505254407,
        "distance_elbow_joint": 7.0780850192553295,
        "distance_shoulder_lift_joint": 1.2031432710090033,
        "distance_shoulder_pan_joint": 1.4641041310880083,
        "distance_wrist_1_joint": 2.127755415970794,
        "distance_wrist_2_joint": 2.0754649608740268,
        "distance_wrist_3_joint": 11.977009402810307,
        "smoothness": 0.5735997158680636,
        "time": 0.542538251,
        "traj_len": 5.09171505496993,
        "weighted_distance": 7.35410099083993
    },
    "planner": "LBKPIECE",
    "start": {
        "state": {
            "elbow_joint": 2.4225746658250005,
            "shoulder_lift_joint": -1.3736534386056498,
            "shoulder_pan_joint": -0.3378633547517467,
            "wrist_1_joint": -1.0288598680537169,
            "wrist_2_joint": 1.233022673432363,
            "wrist_3_joint": -3.0940220416140027
        }
    },
    "waypoints": [
        {
            "positions": [
                -0.3378633547517467,
                -1.3736534386056498,
                2.4225746658250005,
                -1.0288598680537169,
                1.233022673432363,
                -3.0940220416140027
            ]
        },
        {
            "positions": [
                -0.3061554419885683,
                -1.3638091396984622,
                2.319108222219766,
                -0.9948363337020028,
                1.194722177716297,
                -2.918424401156003
            ]
        },
        {
            "positions": [
                -0.27444752922538984,
                -1.3539648407912745,
                2.2156417786145317,
                -0.9608127993502885,
                1.1564216820002313,
                -2.742826760698003
            ]
        },
        {
            "positions": [
                -0.24273961646221143,
                -1.344120541884087,
                2.112175335009297,
                -0.9267892649985744,
                1.1181211862841653,
                -2.567229120240003
            ]
        },
        {
            "positions": [
                -0.21103170369903299,
                -1.334276242976899,
                2.0087088914040625,
                -0.8927657306468602,
                1.0798206905680994,
                -2.391631479782003
            ]
        },
        {
            "positions": [
                -0.17932379093585454,
                -1.3244319440697114,
                1.9052424477988281,
                -0.858742196295146,
                1.0415201948520336,
                -2.216033839324003
            ]
        },
        {
            "positions": [
                -0.1476158781726761,
                -1.3145876451625238,
                1.8017760041935937,
                -0.8247186619434319,
                1.0032196991359676,
                -2.0404361988660034
            ]
        },
        {
            "positions": [
                -0.11590796540949769,
                -1.3047433462553362,
                1.6983095605883594,
                -0.7906951275917177,
                0.9649192034199017,
                -1.8648385584080032
            ]
        },
        {
            "positions": [
                -0.08420005264631925,
                -1.2948990473481485,
                1.5948431169831248,
                -0.7566715932400034,
                0.9266187077038358,
                -1.6892409179500032
            ]
        },
        {
            "positions": [
                -0.05249213988314083,
                -1.285054748440961,
                1.4913766733778901,
                -0.7226480588882893,
                0.88831821198777,
                -1.5136432774920034
            ]
        },
        {
            "positions": [
                -0.020784227119962362,
                -1.2752104495337733,
                1.3879102297726558,
                -0.6886245245365752,
                0.850017716271704,
                -1.3380456370340035
            ]
        },
        {
            "positions": [
                0.010923685643216052,
                -1.2653661506265854,
                1.2844437861674212,
                -0.6546009901848611,
                0.8117172205556381,
                -1.1624479965760035
            ]
        },
        {
            "positions": [
                0.04263159840639452,
                -1.2555218517193978,
                1.1809773425621868,
                -0.6205774558331468,
                0.7734167248395722,
                -0.9868503561180035
            ]
        },
        {
            "positions": [
                0.07433951116957288,
                -1.2456775528122102,
                1.0775108989569524,
                -0.5865539214814327,
                0.7351162291235063,
                -0.8112527156600038
            ]
        },
        {
            "positions": [
                0.10604742393275135,
                -1.2358332539050225,
                0.974044455351718,
                -0.5525303871297185,
                0.6968157334074404,
                -0.6356550752020036
            ]
        },
        {
            "positions": [
                0.13775533669592976,
                -1.225988954997835,
                0.8705780117464834,
                -0.5185068527780043,
                0.6585152376913745,
                -0.46005743474400385
            ]
        },
        {
            "positions": [
                0.16946324945910823,
                -1.2161446560906473,
                0.767111568141249,
                -0.4844833184262901,
                0.6202147419753086,
                -0.28445979428600365
            ]
        },
        {
            "positions": [
                0.20117116222228665,
                -1.2063003571834594,
                0.6636451245360144,
                -0.450459784074576,
                0.5819142462592427,
                -0.1088621538280039
            ]
        },
        {
            "positions": [
                0.23287907498546506,
                -1.1964560582762718,
                0.5601786809307798,
                -0.41643624972286186,
                0.5436137505431768,
                0.06673548662999584
            ]
        },
        {
            "positions": [
                0.2645869877486435,
                -1.1866117593690841,
                0.45671223732554544,
                -0.3824127153711476,
                0.5053132548271109,
                0.24233312708799604
            ]
        },
        {
            "positions": [
                0.296294900511822,
                -1.1767674604618965,
                0.35324579372031106,
                -0.3483891810194335,
                0.467012759111045,
                0.4179307675459958
            ]
        },
        {
            "positions": [
                0.3280028132750004,
                -1.1669231615547089,
                0.24977935011507624,
                -0.31436564666771927,
                0.42871226339497903,
                0.593528408003996
            ]
        },
        {
            "positions": [
                0.35971072603817883,
                -1.1570788626475212,
                0.14631290650984186,
                -0.28034211231600514,
                0.39041176767891317,
                0.7691260484619957
            ]
        },
        {
            "positions": [
                0.39141863880135724,
                -1.1472345637403336,
                0.042846462904607474,
                -0.2463185779642909,
                0.3521112719628472,
                0.9447236889199955
            ]
        },
        {
            "positions": [
                0.42312655156453577,
                -1.1373902648331458,
                -0.06061998070062691,
                -0.21229504361257678,
                0.31381077624678133,
                1.1203213293779957
            ]
        },
        {
            "positions": [
                0.4548344643277142,
                -1.1275459659259581,
                -0.16408642430586173,
                -0.17827150926086255,
                0.27551028053071547,
                1.2959189698359959
            ]
        },
        {
            "positions": [
                0.4865423770908925,
                -1.1177016670187705,
                -0.26755286791109567,
                -0.14424797490914854,
                0.2372097848146496,
                1.4715166102939952
            ]
        },
        {
            "positions": [
                0.5182502898540708,
                -1.1078573681115829,
                -0.37101931151633005,
                -0.1102244405574343,
                0.19890928909858374,
                1.6471142507519954
            ]
        },
        {
            "positions": [
                0.5499582026172494,
                -1.0980130692043952,
                -0.47448575512156443,
                -0.07620090620572018,
                0.16060879338251777,
                1.8227118912099955
            ]
        },
        {
            "positions": [
                0.5816661153804279,
                -1.0881687702972076,
                -0.5779521987267993,
                -0.04217737185400594,
                0.12230829766645201,
                1.9983095316679949
            ]
        },
        {
            "positions": [
                0.6133740281436062,
                -1.07832447139002,
                -0.6814186423320336,
                -0.008153837502291816,
                0.08400780195038604,
                2.173907172125995
            ]
        },
        {
            "positions": [
                0.6450819409067847,
                -1.0684801724828321,
                -0.784885085937268,
                0.025869696849422308,
                0.045707306234320066,
                2.3495048125839952
            ]
        },
        {
            "positions": [
                0.6767898536699632,
                -1.0586358735756445,
                -0.8883515295425024,
                0.059893231201136654,
                0.007406810518254092,
                2.5251024530419954
            ]
        },
        {
            "positions": [
                0.7084977664331416,
                -1.0487915746684568,
                -0.9918179731477372,
                0.09391676555285078,
                -0.03089368519781166,
                2.7007000934999947
            ]
        },
        {
            "positions": [
                0.7402056791963201,
                -1.0389472757612692,
                -1.0952844167529716,
                0.1279402999045649,
                -0.06919418091387763,
                2.8762977339579954
            ]
        },
        {
            "positions": [
                0.7334160663758401,
                -1.0652913913981794,
                -0.9816096484109681,
                0.1027640632434908,
                -0.04426556943678568,
                2.686651464662084
            ]
        },
        {
            "positions": [
                0.7266264535553602,
                -1.0916355070350896,
                -0.8679348800689646,
                0.0775878265824167,
                -0.019336957959693722,
                2.4970051953661727
            ]
        },
        {
            "positions": [
                0.7198368407348802,
                -1.1179796226719998,
                -0.754260111726961,
                0.05241158992134258,
                0.005591653517398237,
                2.307358926070261
            ]
        },
        {
            "positions": [
                0.7130472279144001,
                -1.14432373830891,
                -0.6405853433849574,
                0.027235353260268477,
                0.03052026499449019,
                2.11771265677435
            ]
        },
        {
            "positions": [
                0.7062576150939202,
                -1.1706678539458202,
                -0.5269105750429539,
                0.0020591165991943605,
                0.055448876471582156,
                1.9280663874784385
            ]
        },
        {
            "positions": [
                0.6994680022734402,
                -1.1970119695827302,
                -0.4132358067009503,
                -0.023117120061879742,
                0.08037748794867411,
                1.7384201181825274
            ]
        },
        {
            "positions": [
                0.6926783894529602,
                -1.2233560852196403,
                -0.29956103835894676,
                -0.048293356722953845,
                0.10530609942576608,
                1.5487738488866158
            ]
        },
        {
            "positions": [
                0.6858887766324803,
                -1.2497002008565505,
                -0.18588627001694324,
                -0.07346959338402795,
                0.13023471090285801,
                1.3591275795907045
            ]
        },
        {
            "positions": [
                0.6790991638120003,
                -1.2760443164934607,
                -0.07221150167493962,
                -0.09864583004510208,
                0.15516332237995,
                1.1694813102947932
            ]
        },
        {
            "positions": [
                0.6723095509915202,
                -1.302388432130371,
                0.04146326666706379,
                -0.12382206670617618,
                0.18009193385704195,
                0.9798350409988819
            ]
        },
        {
            "positions": [
                0.6655199381710403,
                -1.3287325477672811,
                0.15513803500906742,
                -0.14899830336725028,
                0.20502054533413389,
                0.7901887717029705
            ]
        },
        {
            "positions": [
                0.6587303253505603,
                -1.3550766634041913,
                0.26881280335107105,
                -0.1741745400283244,
                0.22994915681122585,
                0.6005425024070594
            ]
        },
        {
            "positions": [
                0.6519407125300803,
                -1.3814207790411015,
                0.3824875716930747,
                -0.1993507766893985,
                0.2548777682883178,
                0.41089623311114787
            ]
        },
        {
            "positions": [
                0.6451510997096004,
                -1.4077648946780115,
                0.4961623400350781,
                -0.2245270133504726,
                0.2798063797654098,
                0.22124996381523632
            ]
        },
        {
            "positions": [
                0.6383614868891203,
                -1.4341090103149217,
                0.6098371083770817,
                -0.24970325001154675,
                0.30473499124250175,
                0.03160369451932521
            ]
        },
        {
            "positions": [
                0.6315718740686405,
                -1.4604531259518319,
                0.7235118767190851,
                -0.2748794866726208,
                0.32966360271959366,
                -0.15804257477658634
            ]
        },
        {
            "positions": [
                0.6247822612481604,
                -1.486797241588742,
                0.8371866450610885,
                -0.3000557233336949,
                0.35459221419668563,
                -0.34768884407249745
            ]
        },
        {
            "positions": [
                0.6179926484276804,
                -1.5131413572256522,
                0.9508614134030924,
                -0.32523195999476906,
                0.37952082567377765,
                -0.537335113368409
            ]
        },
        {
            "positions": [
                0.6112030356072005,
                -1.5394854728625624,
                1.0645361817450958,
                -0.35040819665584316,
                0.40444943715086956,
                -0.7269813826643206
            ]
        },
        {
            "positions": [
                0.6044134227867205,
                -1.5658295884994726,
                1.1782109500870992,
                -0.37558443331691727,
                0.42937804862796153,
                -0.9166276519602317
            ]
        },
        {
            "positions": [
                0.5976238099662405,
                -1.5921737041363828,
                1.2918857184291026,
                -0.4007606699779913,
                0.4543066601050534,
                -1.1062739212561428
            ]
        },
        {
            "positions": [
                0.5908341971457605,
                -1.618517819773293,
                1.4055604867711065,
                -0.42593690663906547,
                0.4792352715821454,
                -1.2959201905520543
            ]
        },
        {
            "positions": [
                0.5840445843252805,
                -1.6448619354102032,
                1.5192352551131099,
                -0.45111314330013963,
                0.5041638830592374,
                -1.4855664598479659
            ]
        },
        {
            "positions": [
                0.5772549715048005,
                -1.6712060510471134,
                1.6329100234551137,
                -0.4762893799612137,
                0.5290924945363293,
                -1.6752127291438765
            ]
        },
        {
            "positions": [
                0.5704653586843206,
                -1.6975501666840236,
                1.7465847917971171,
                -0.5014656166222877,
                0.5540211060134212,
                -1.864858998439788
            ]
        },
        {
            "positions": [
                0.5636757458638406,
                -1.7238942823209338,
                1.860259560139121,
                -0.5266418532833619,
                0.5789497174905133,
                -2.0545052677356996
            ]
        },
        {
            "positions": [
                0.5568861330433607,
                -1.750238397957844,
                1.9739343284811244,
                -0.551818089944436,
                0.6038783289676052,
                -2.244151537031611
            ]
        },
        {
            "positions": [
                0.5500965202228807,
                -1.776582513594754,
                2.087609096823128,
                -0.5769943266055101,
                0.6288069404446972,
                -2.4337978063275227
            ]
        },
        {
            "positions": [
                0.5433069074024006,
                -1.8029266292316641,
                2.201283865165131,
                -0.6021705632665842,
                0.6537355519217891,
                -2.6234440756234334
            ]
        },
        {
            "positions": [
                0.5365172945819207,
                -1.8292707448685743,
                2.314958633507135,
                -0.6273467999276584,
                0.6786641633988811,
                -2.813090344919345
            ]
        },
        {
            "positions": [
                0.5297276817614407,
                -1.8556148605054845,
                2.4286334018491385,
                -0.6525230365887325,
                0.703592774875973,
                -3.0027366142152565
            ]
        },
        {
            "positions": [
                0.6175062316139706,
                -1.8814996222156881,
                2.4104793428115157,
                -0.5572770808291252,
                0.7033621995070051,
                -3.066564253747783
            ]
        },
        {
            "positions": [
                0.7052847814665003,
                -1.907384383925892,
                2.3923252837738933,
                -0.46203112506951793,
                0.7031316241380371,
                -3.130391893280309
            ]
        }
    ]
}