{
    "goal": {
        "global_pose": {
            "orientation": {
                "w": 0.5084816262002911,
                "x": -0.4908360881923452,
                "y": 0.5182115481033761,
                "z": -0.48164630358495003
            },
            "position": {
                "x": 0.5540239810943604,
                "y": -0.46912469901144505,
                "z": 0.16403168439865112
            }
        },
        "name": "move_to_storage_B"
    },
    "id": "LBKPIECE_move_to_storage_B_66",
    "joint_names": [
        "shoulder_pan_joint",
        "shoulder_lift_joint",
        "elbow_joint",
        "wrist_1_joint",
        "wrist_2_joint",
        "wrist_3_joint"
    ],
    "metrics": {
        "cart_traj_len": 0.633382494926342,
        "distance_elbow_joint": 0.3528236421356157,
        "distance_shoulder_lift_joint": 0.45996392930280283,
        "distance_shoulder_pan_joint": 0.20582253381187343,
        "distance_wrist_1_joint": 2.993458252211471,
        "distance_wrist_2_joint": 2.70338356108339,
        "distance_wrist_3_joint": 3.249131491064532,
        "smoothness": 0.13307176315596791,
        "time": 0.36739102,
        "traj_len": 3.156672838545307,
        "weighted_distance": 4.707407801012529
    },
    "planner": "LBKPIECE",
    "start": {
        "state": {
            "elbow_joint": 1.664937868594044,
            "shoulder_lift_joint": -0.661644460510453,
            "shoulder_pan_joint": -0.9139846352900073,
            "wrist_1_joint": 2.146753192139373,
            "wrist_2_joint": -2.2341966793290973,
            "wrist_3_joint": 0.005466555786416001
        }
    },
    "waypoints": [
        {
            "positions": [
                -0.9139846352900073,
                -0.661644460510453,
                1.664937868594044,
                2.146753192139373,
                -2.2341966793290973,
                0.005466555786416001
            ]
        },
        {
            "positions": [
                -0.9080768328820124,
                -0.7030584593380732,
                1.735539750146366,
                2.0639639844008464,
                -2.189776523377967,
                0.03510287943828107
            ]
        },
        {
            "positions": [
                -0.9021690304740173,
                -0.7444724581656934,
                1.8061416316986882,
                1.9811747766623196,
                -2.145356367426836,
                0.06473920309014614
            ]
        },
        {
            "positions": [
                -0.9102526525155125,
                -0.7601864553176751,
                1.814959126658312,
                1.8633464501317187,
                -2.0364170653776226,
                -0.06817158206655394
            ]
        },
        {
            "positions": [
                -0.9183362745570076,
                -0.7759004524696569,
                1.8237766216179359,
                1.7455181236011181,
                -1.9274777633284086,
                -0.201082367223254
            ]
        },
        {
            "positions": [
                -0.9264198965985028,
                -0.7916144496216387,
                1.8325941165775597,
                1.6276897970705173,
                -1.818538461279195,
                -0.3339931523799541
            ]
        },
        {
            "positions": [
                -0.9345035186399979,
                -0.8073284467736205,
                1.8414116115371835,
                1.5098614705399167,
                -1.7095991592299813,
                -0.46690393753665416
            ]
        },
        {
            "positions": [
                -0.9425871406814931,
                -0.8230424439256022,
                1.8502291064968073,
                1.3920331440093159,
                -1.6006598571807675,
                -0.5998147226933542
            ]
        },
        {
            "positions": [
                -0.9506707627229882,
                -0.8387564410775841,
                1.859046601456431,
                1.274204817478715,
                -1.4917205551315538,
                -0.7327255078500543
            ]
        },
        {
            "positions": [
                -0.9587543847644833,
                -0.8544704382295658,
                1.8678640964160549,
                1.1563764909481145,
                -1.38278125308234,
                -0.8656362930067545
            ]
        },
        {
            "positions": [
                -0.9668380068059784,
                -0.8701844353815475,
                1.8766815913756787,
                1.0385481644175139,
                -1.2738419510331265,
                -0.9985470781634544
            ]
        },
        {
            "positions": [
                -0.9749216288474736,
                -0.8858984325335293,
                1.8854990863353025,
                0.920719837886913,
                -1.1649026489839125,
                -1.1314578633201544
            ]
        },
        {
            "positions": [
                -0.9830052508889687,
                -0.901612429685511,
                1.8943165812949263,
                0.8028915113563122,
                -1.0559633469346987,
                -1.2643686484768546
            ]
        },
        {
            "positions": [
                -0.9910888729304639,
                -0.9173264268374929,
                1.9031340762545501,
                0.6850631848257116,
                -0.9470240448854852,
                -1.3972794336335546
            ]
        },
        {
            "positions": [
                -0.999172494971959,
                -0.9330404239894746,
                1.911951571214174,
                0.5672348582951108,
                -0.8380847428362714,
                -1.5301902187902547
            ]
        },
        {
            "positions": [
                -1.0072561170134542,
                -0.9487544211414564,
                1.9207690661737977,
                0.4494065317645102,
                -0.7291454407870579,
                -1.6631010039469547
            ]
        },
        {
            "positions": [
                -1.0153397390549492,
                -0.9644684182934382,
                1.9295865611334215,
                0.33157820523390913,
                -0.6202061387378439,
                -1.796011789103655
            ]
        },
        {
            "positions": [
                -1.0234233610964445,
                -0.98018241544542,
                1.9384040560930453,
                0.21374987870330853,
                -0.5112668366886304,
                -1.928922574260355
            ]
        },
        {
            "positions": [
                -1.0315069831379395,
                -0.9958964125974017,
                1.9472215510526691,
                0.09592155217270792,
                -0.4023275346394166,
                -2.0618333594170553
            ]
        },
        {
            "positions": [
                -1.0395906051794348,
                -1.0116104097493834,
                1.956039046012293,
                -0.0219067743578929,
                -0.29338823259020264,
                -2.1947441445737557
            ]
        },
        {
            "positions": [
                -1.0476742272209298,
                -1.0273244069013652,
                1.9648565409719168,
                -0.1397351008884935,
                -0.1844489305409891,
                -2.327654929730455
            ]
        },
        {
            "positions": [
                -1.055757849262425,
                -1.043038404053347,
                1.9736740359315406,
                -0.2575634274190941,
                -0.07550962849177534,
                -2.4605657148871547
            ]
        },
        {
            "positions": [
                -1.0638414713039201,
                -1.0587524012053287,
                1.9824915308911644,
                -0.37539175394969515,
                0.033429673557438644,
                -2.593476500043855
            ]
        },
        {
            "positions": [
                -1.0719250933454154,
                -1.0744663983573104,
                1.9913090258507882,
                -0.49322008048029575,
                0.14236897560665218,
                -2.7263872852005555
            ]
        },
        {
            "positions": [
                -1.0800087153869105,
                -1.0901803955092924,
                2.000126520810412,
                -0.6110484070108964,
                0.2513082776558657,
                -2.859298070357255
            ]
        },
        {
            "positions": [
                -1.0880923374284057,
                -1.105894392661274,
                2.0089440157700356,
                -0.7288767335414974,
                0.3602475797050797,
                -2.9922088555139554
            ]
        },
        {
            "positions": [
                -1.0961759594699008,
                -1.1216083898132558,
                2.0177615107296596,
                -0.8467050600720981,
                0.46918688175429324,
                -3.1251196406706554
            ]
        }
    ]
}