{
    "goal": {
        "global_pose": {
            "orientation": {
                "w": 0.7031023480610252,
                "x": -0.7110244013736278,
                "y": 0.0077485991402295624,
                "z": 0.005598929693374583
            },
            "position": {
                "x": -0.8841497679147869,
                "y": 0.44412534475326537,
                "z": 0.3711530566215515
            }
        },
        "name": "move_to_auspresseinheit_D"
    },
    "id": "LBKPIECE_move_to_auspresseinheit_D_67",
    "joint_names": [
        "shoulder_pan_joint",
        "shoulder_lift_joint",
        "elbow_joint",
        "wrist_1_joint",
        "wrist_2_joint",
        "wrist_3_joint"
    ],
    "metrics": {
        "cart_traj_len": 0.3430400543742076,
        "distance_elbow_joint": 0.6524865771729236,
        "distance_shoulder_lift_joint": 0.12989827878254223,
        "distance_shoulder_pan_joint": 0.13323781087977818,
        "distance_wrist_1_joint": 0.5758028273235616,
        "distance_wrist_2_joint": 1.4403261696876302,
        "distance_wrist_3_joint": 0.028161865221896676,
        "smoothness": 0.0,
        "time": 0.538731063,
        "traj_len": 1.7204399231209244,
        "weighted_distance": 2.2432936179919287
    },
    "planner": "LBKPIECE",
    "start": {
        "state": {
            "elbow_joint": -1.8275523626775212,
            "shoulder_lift_joint": -2.126789852344167,
            "shoulder_pan_joint": -0.03513704404078235,
            "wrist_1_joint": -2.347782403156801,
            "wrist_2_joint": -1.6058999987535132,
            "wrist_3_joint": -3.0880379163319196
        }
    },
    "waypoints": [
        {
            "positions": [
                -0.03513704404078235,
                -2.126789852344167,
                -1.8275523626775212,
                -2.347782403156801,
                -1.6058999987535132,
                -3.0880379163319196
            ]
        },
        {
            "positions": [
                -0.051791770400754625,
                -2.1430271371919845,
                -1.7459915405309057,
                -2.419757756572246,
                -1.4258592275425594,
                -3.0845176831791825
            ]
        },
        {
            "positions": [
                -0.0684464967607269,
                -2.1592644220398025,
                -1.6644307183842904,
                -2.4917331099876914,
                -1.2458184563316057,
                -3.0809974500264454
            ]
        },
        {
            "positions": [
                -0.08510122312069918,
                -2.17550170688762,
                -1.5828698962376748,
                -2.5637084634031364,
                -1.065777685120652,
                -3.0774772168737083
            ]
        },
        {
            "positions": [
                -0.10175594948067143,
                -2.1917389917354377,
                -1.5013090740910595,
                -2.635683816818582,
                -0.8857369139096981,
                -3.0739569837209713
            ]
        },
        {
            "positions": [
                -0.11841067584064371,
                -2.207976276583256,
                -1.419748251944444,
                -2.707659170234027,
                -0.7056961426987444,
                -3.070436750568234
            ]
        },
        {
            "positions": [
                -0.135065402200616,
                -2.2242135614310734,
                -1.3381874297978285,
                -2.779634523649472,
                -0.5256553714877905,
                -3.066916517415497
            ]
        },
        {
            "positions": [
                -0.15172012856058825,
                -2.2404508462788915,
                -1.2566266076512131,
                -2.8516098770649174,
                -0.34561460027683677,
                -3.06339628426276
            ]
        },
        {
            "positions": [
                -0.16837485492056053,
                -2.256688131126709,
                -1.1750657855045976,
                -2.9235852304803625,
                -0.16557382906588308,
                -3.059876051110023
            ]
        }
    ]
}