{
    "goal": {
        "global_pose": {
            "orientation": {
                "w": 0.7031023502349854,
                "x": -0.7110244035720825,
                "y": 0.007748599164187908,
                "z": 0.005598929710686207
            },
            "position": {
                "x": 0.11585023208521307,
                "y": 0.44412534475326537,
                "z": 0.3711530566215515
            }
        },
        "name": "move_to_auspresseinheit_A"
    },
    "id": "LBKPIECE_move_to_auspresseinheit_A_79",
    "joint_names": [
        "shoulder_pan_joint",
        "shoulder_lift_joint",
        "elbow_joint",
        "wrist_1_joint",
        "wrist_2_joint",
        "wrist_3_joint"
    ],
    "metrics": {
        "cart_traj_len": 0.9857704327959205,
        "distance_elbow_joint": 0.3756163173728746,
        "distance_shoulder_lift_joint": 1.4833445757339525,
        "distance_shoulder_pan_joint": 1.4427611034231358,
        "distance_wrist_1_joint": 0.9510702231166102,
        "distance_wrist_2_joint": 0.5179648240130019,
        "distance_wrist_3_joint": 1.0663239462336969,
        "smoothness": 1.2623989983958162,
        "time": 0.36189829,
        "traj_len": 2.4160051717439,
        "weighted_distance": 3.0722571392203286
    },
    "planner": "LBKPIECE",
    "start": {
        "state": {
            "elbow_joint": 2.4225746658250005,
            "shoulder_lift_joint": -1.3736534386056498,
            "shoulder_pan_joint": -0.3378633547517467,
            "wrist_1_joint": -1.0288598680537169,
            "wrist_2_joint": 1.233022673432363,
            "wrist_3_joint": -3.0940220416140027
        }
    },
    "waypoints": [
        {
            "positions": [
                -0.3378633547517467,
                -1.3736534386056498,
                2.4225746658250005,
                -1.0288598680537169,
                1.233022673432363,
                -3.0940220416140027
            ]
        },
        {
            "positions": [
                -0.21339624640203952,
                -1.4745955113220677,
                2.43986498776146,
                -0.9531871400436042,
                1.220347021098269,
                -3.042400532964694
            ]
        },
        {
            "positions": [
                -0.08892913805233232,
                -1.5755375840384853,
                2.45715530969792,
                -0.8775144120334915,
                1.2076713687641747,
                -2.990779024315385
            ]
        },
        {
            "positions": [
                0.03553797029737488,
                -1.676479656754903,
                2.47444563163438,
                -0.8018416840233789,
                1.1949957164300806,
                -2.9391575156660763
            ]
        },
        {
            "positions": [
                0.16000507864708208,
                -1.7774217294713208,
                2.49173595357084,
                -0.726168956013266,
                1.1823200640959866,
                -2.8875360070167675
            ]
        },
        {
            "positions": [
                0.2844721869967893,
                -1.8783638021877387,
                2.5090262755072996,
                -0.6504962280031534,
                1.1696444117618925,
                -2.8359144983674582
            ]
        },
        {
            "positions": [
                0.4089392953464965,
                -1.9793058749041563,
                2.5263165974437594,
                -0.5748234999930408,
                1.1569687594277982,
                -2.7842929897181494
            ]
        },
        {
            "positions": [
                0.5334064036962036,
                -2.080247947620574,
                2.543606919380219,
                -0.4991507719829281,
                1.1442931070937041,
                -2.7326714810688406
            ]
        },
        {
            "positions": [
                0.6578735120459109,
                -2.1811900203369916,
                2.5608972413166793,
                -0.4234780439728153,
                1.13161745475961,
                -2.681049972419532
            ]
        },
        {
            "positions": [
                0.7823406203956182,
                -2.2821320930534097,
                2.578187563253139,
                -0.3478053159627027,
                1.1189418024255158,
                -2.629428463770223
            ]
        },
        {
            "positions": [
                0.9068077287453252,
                -2.3830741657698273,
                2.5954778851895988,
                -0.27213258795259,
                1.1062661500914217,
                -2.577806955120914
            ]
        },
        {
            "positions": [
                0.8737927254243145,
                -2.3040868576748648,
                2.561692368854886,
                -0.3045230784551705,
                1.0410647666460782,
                -2.6694917650776824
            ]
        },
        {
            "positions": [
                0.8407777221033039,
                -2.225099549579902,
                2.5279068525201733,
                -0.33691356895775104,
                0.9758633832007348,
                -2.76117657503445
            ]
        },
        {
            "positions": [
                0.8077627187822932,
                -2.14611224148494,
                2.4941213361854606,
                -0.3693040594603316,
                0.9106619997553914,
                -2.8528613849912183
            ]
        },
        {
            "positions": [
                0.7747477154612825,
                -2.0671249333899775,
                2.460335819850748,
                -0.40169454996291215,
                0.845460616310048,
                -2.9445461949479865
            ]
        },
        {
            "positions": [
                0.7417327121402719,
                -1.988137625295015,
                2.426550303516035,
                -0.43408504046549273,
                0.7802592328647046,
                -3.0362310049047543
            ]
        },
        {
            "positions": [
                0.7087177088192612,
                -1.9091503172000523,
                2.3927647871813225,
                -0.46647553096807326,
                0.7150578494193611,
                -3.1279158148615225
            ]
        }
    ]
}