{
    "goal": {
        "global_pose": {
            "orientation": {
                "w": 0.7047431493862688,
                "x": -0.7094548369677653,
                "y": 0.0024358444001904,
                "z": -0.0022348060817251984
            },
            "position": {
                "x": -0.39052492380142206,
                "y": 0.3671506643295288,
                "z": 0.19426114857196808
            }
        },
        "name": "move_to_magneteinheit_D"
    },
    "id": "LBKPIECE_move_to_magneteinheit_D_93",
    "joint_names": [
        "shoulder_pan_joint",
        "shoulder_lift_joint",
        "elbow_joint",
        "wrist_1_joint",
        "wrist_2_joint",
        "wrist_3_joint"
    ],
    "metrics": {
        "cart_traj_len": 4.390710944907766,
        "distance_elbow_joint": 3.2699056432331126,
        "distance_shoulder_lift_joint": 1.6269830829799543,
        "distance_shoulder_pan_joint": 3.49053710963417,
        "distance_wrist_1_joint": 1.5249923950199815,
        "distance_wrist_2_joint": 0.4311053091216843,
        "distance_wrist_3_joint": 3.218336041845539,
        "smoothness": 0.21313549661244857,
        "time": 0.54903062,
        "traj_len": 3.6826430158018915,
        "weighted_distance": 4.685576738211336
    },
    "planner": "LBKPIECE",
    "start": {
        "state": {
            "elbow_joint": 0.749534889911806,
            "shoulder_lift_joint": -0.6476975780787326,
            "shoulder_pan_joint": -2.711696901376241,
            "wrist_1_joint": -0.07506478083263063,
            "wrist_2_joint": 0.43296659715538205,
            "wrist_3_joint": -3.14703540197715
        }
    },
    "waypoints": [
        {
            "positions": [
                -2.711696901376241,
                -0.6476975780787326,
                0.749534889911806,
                -0.07506478083263063,
                0.43296659715538205,
                -3.14703540197715
            ]
        },
        {
            "positions": [
                -2.7712456173061057,
                -0.7335297016422969,
                0.762344574692731,
                0.004251493175443988,
                0.4200706049061347,
                -3.0471425414634266
            ]
        },
        {
            "positions": [
                -2.8307943332359704,
                -0.8193618252058612,
                0.775154259473656,
                0.0835677671835186,
                0.40717461265688726,
                -2.947249680949703
            ]
        },
        {
            "positions": [
                -2.8903430491658355,
                -0.9051939487694256,
                0.7879639442545809,
                0.16288404119159322,
                0.3942786204076399,
                -2.847356820435979
            ]
        },
        {
            "positions": [
                -2.9498917650957,
                -0.9910260723329899,
                0.800773629035506,
                0.24220031519966784,
                0.38138262815839247,
                -2.7474639599222557
            ]
        },
        {
            "positions": [
                -3.009440481025565,
                -1.0768581958965542,
                0.813583313816431,
                0.32151658920774245,
                0.3684866359091451,
                -2.647571099408532
            ]
        },
        {
            "positions": [
                -2.880517916631518,
                -1.1276599431249361,
                0.7363490597329002,
                0.3522507417703613,
                0.3642914886988334,
                -2.5576039869819462
            ]
        },
        {
            "positions": [
                -2.751595352237471,
                -1.178461690353318,
                0.6591148056493694,
                0.38298489433298016,
                0.36009634148852165,
                -2.4676368745553607
            ]
        },
        {
            "positions": [
                -2.6226727878434244,
                -1.2292634375817002,
                0.5818805515658385,
                0.413719046895599,
                0.35590119427820993,
                -2.377669762128775
            ]
        },
        {
            "positions": [
                -2.4937502234493776,
                -1.2800651848100821,
                0.5046462974823078,
                0.4444531994582179,
                0.3517060470678982,
                -2.287702649702189
            ]
        },
        {
            "positions": [
                -2.3648276590553308,
                -1.330866932038464,
                0.427412043398777,
                0.47518735202083673,
                0.3475108998575865,
                -2.1977355372756033
            ]
        },
        {
            "positions": [
                -2.235905094661284,
                -1.3816686792668462,
                0.3501777893152461,
                0.5059215045834556,
                0.34331575264727476,
                -2.1077684248490174
            ]
        },
        {
            "positions": [
                -2.106982530267237,
                -1.4324704264952282,
                0.27294353523171533,
                0.5366556571460744,
                0.33912060543696304,
                -2.0178013124224314
            ]
        },
        {
            "positions": [
                -1.9780599658731903,
                -1.48327217372361,
                0.19570928114818453,
                0.5673898097086933,
                0.3349254582266513,
                -1.9278341999958457
            ]
        },
        {
            "positions": [
                -1.8491374014791435,
                -1.534073920951992,
                0.11847502706465374,
                0.5981239622713121,
                0.3307303110163396,
                -1.83786708756926
            ]
        },
        {
            "positions": [
                -1.7202148370850967,
                -1.584875668180374,
                0.04124077298112294,
                0.6288581148339311,
                0.3265351638060279,
                -1.747899975142674
            ]
        },
        {
            "positions": [
                -1.59129227269105,
                -1.635677415408756,
                -0.035993481102407854,
                0.65959226739655,
                0.32234001659571615,
                -1.6579328627160883
            ]
        },
        {
            "positions": [
                -1.462369708297003,
                -1.686479162637138,
                -0.11322773518593876,
                0.6903264199591688,
                0.3181448693854044,
                -1.5679657502895026
            ]
        },
        {
            "positions": [
                -1.3334471439029563,
                -1.73728090986552,
                -0.19046198926946944,
                0.7210605725217876,
                0.3139497221750927,
                -1.4779986378629166
            ]
        },
        {
            "positions": [
                -1.2045245795089095,
                -1.7880826570939021,
                -0.26769624335300035,
                0.7517947250844065,
                0.309754574964781,
                -1.388031525436331
            ]
        },
        {
            "positions": [
                -1.0756020151148626,
                -1.838884404322284,
                -0.34493049743653104,
                0.7825288776470254,
                0.30555942775446926,
                -1.298064413009745
            ]
        },
        {
            "positions": [
                -0.9466794507208157,
                -1.889686151550666,
                -0.42216475152006194,
                0.8132630302096442,
                0.30136428054415754,
                -1.2080973005831592
            ]
        },
        {
            "positions": [
                -0.8526085981782303,
                -1.91043047233309,
                -0.5862983715921651,
                0.8554925009206935,
                0.3099181823423087,
                -1.1549489825771313
            ]
        },
        {
            "positions": [
                -0.7585377456356449,
                -1.931174793115514,
                -0.7504319916642683,
                0.8977219716317428,
                0.31847208414045997,
                -1.1018006645711034
            ]
        },
        {
            "positions": [
                -0.6644668930930595,
                -1.951919113897938,
                -0.9145656117363715,
                0.9399514423427922,
                0.32702598593861115,
                -1.0486523465650754
            ]
        },
        {
            "positions": [
                -0.5703960405504742,
                -1.972663434680362,
                -1.0786992318084747,
                0.9821809130538415,
                0.3355798877367624,
                -0.9955040285590475
            ]
        },
        {
            "positions": [
                -0.4763251880078888,
                -1.993407755462786,
                -1.242832851880578,
                1.0244103837648908,
                0.3441337895349136,
                -0.9423557105530196
            ]
        },
        {
            "positions": [
                -0.3822543354653034,
                -2.01415207624521,
                -1.406966471952681,
                1.0666398544759401,
                0.35268769133306477,
                -0.8892073925469917
            ]
        },
        {
            "positions": [
                -0.2881834829227181,
                -2.034896397027634,
                -1.5711000920247842,
                1.1088693251869894,
                0.361241593131216,
                -0.8360590745409637
            ]
        },
        {
            "positions": [
                -0.1941126303801326,
                -2.055640717810058,
                -1.7352337120968875,
                1.1510987958980388,
                0.3697954949293672,
                -0.7829107565349357
            ]
        },
        {
            "positions": [
                -0.10004177783754731,
                -2.0763850385924822,
                -1.8993673321689908,
                1.193328266609088,
                0.37834939672751844,
                -0.7297624385289078
            ]
        },
        {
            "positions": [
                -0.005970925294961897,
                -2.097129359374906,
                -2.063500952241094,
                1.2355577373201374,
                0.3869032985256696,
                -0.6766141205228798
            ]
        },
        {
            "positions": [
                -0.003086832905637979,
                -2.1161287886052484,
                -2.127057061321742,
                1.264427194350303,
                0.3711779874262761,
                -0.6024950870301373
            ]
        },
        {
            "positions": [
                -0.00020274051631406081,
                -2.1351282178355913,
                -2.190613170402391,
                1.2932966513804685,
                0.3554526763268826,
                -0.5283760535373947
            ]
        },
        {
            "positions": [
                -0.026698089865731814,
                -2.16648976037998,
                -2.2569148995783594,
                1.3336777731877825,
                0.31964989781014264,
                -0.3974827570306938
            ]
        },
        {
            "positions": [
                -0.05319343921514957,
                -2.1978513029243696,
                -2.323216628754328,
                1.3740588949950967,
                0.28384711929340267,
                -0.26658946052399285
            ]
        },
        {
            "positions": [
                -0.07968878856456732,
                -2.2292128454687585,
                -2.3895183579302968,
                1.4144400168024107,
                0.24804434077666268,
                -0.1356961640172919
            ]
        },
        {
            "positions": [
                -0.13172365927823929,
                -2.2519467532637227,
                -2.3908961317211768,
                1.4321838154948807,
                0.21049183238669228,
                -0.03219776207445156
            ]
        },
        {
            "positions": [
                -0.18375852999191125,
                -2.274680661058687,
                -2.3922739055120568,
                1.449927614187351,
                0.1729393239967219,
                0.07130063986838878
            ]
        }
    ]
}