{
    "goal": {
        "global_pose": {
            "orientation": {
                "w": -0.00223480608172531,
                "x": 0.0024358444001904467,
                "y": 0.7094548369677653,
                "z": -0.704743149386269
            },
            "position": {
                "x": -0.37947507619857795,
                "y": -0.6371506643295288,
                "z": 0.19426114857196808
            }
        },
        "name": "move_to_magneteinheit_C"
    },
    "id": "LBKPIECE_move_to_magneteinheit_C_6",
    "joint_names": [
        "shoulder_pan_joint",
        "shoulder_lift_joint",
        "elbow_joint",
        "wrist_1_joint",
        "wrist_2_joint",
        "wrist_3_joint"
    ],
    "metrics": {
        "cart_traj_len": 2.3483147240559696,
        "distance_elbow_joint": 1.6538668666653318,
        "distance_shoulder_lift_joint": 1.2604116299756771,
        "distance_shoulder_pan_joint": 1.9437874955180308,
        "distance_wrist_1_joint": 1.407469385770184,
        "distance_wrist_2_joint": 1.7301941105659282,
        "distance_wrist_3_joint": 3.411352065981084,
        "smoothness": 1.1626230359116363,
        "time": 0.631725158,
        "traj_len": 3.377437128130772,
        "weighted_distance": 4.622493827229466
    },
    "planner": "LBKPIECE",
    "start": {
        "state": {
            "elbow_joint": 1.9565354010623817,
            "shoulder_lift_joint": -1.4165861575791021,
            "shoulder_pan_joint": -1.6717766225146293,
            "wrist_1_joint": -0.5286633292919765,
            "wrist_2_joint": 1.472756589071564,
            "wrist_3_joint": -3.1238370188695823
        }
    },
    "waypoints": [
        {
            "positions": [
                -1.6717766225146293,
                -1.4165861575791021,
                1.9565354010623817,
                -0.5286633292919765,
                1.472756589071564,
                -3.1238370188695823
            ]
        },
        {
            "positions": [
                -1.6381916203272815,
                -1.4178809714475067,
                1.9501118511046647,
                -0.56471988692234,
                1.365355596905798,
                -3.0474650172557323
            ]
        },
        {
            "positions": [
                -1.6046066181399339,
                -1.4191757853159115,
                1.9436883011469477,
                -0.6007764445527035,
                1.257954604740032,
                -2.971093015641882
            ]
        },
        {
            "positions": [
                -1.589298539218985,
                -1.4071779168691834,
                1.874443058510193,
                -0.6630816848025319,
                1.198562722098495,
                -2.816209331570896
            ]
        },
        {
            "positions": [
                -1.573990460298036,
                -1.3951800484224552,
                1.8051978158734385,
                -0.7253869250523602,
                1.1391708394569577,
                -2.6613256474999094
            ]
        },
        {
            "positions": [
                -1.5586823813770871,
                -1.383182179975727,
                1.7359525732366838,
                -0.7876921653021887,
                1.0797789568154206,
                -2.506441963428923
            ]
        },
        {
            "positions": [
                -1.5433743024561382,
                -1.3711843115289988,
                1.6667073305999291,
                -0.849997405552017,
                1.0203870741738834,
                -2.3515582793579366
            ]
        },
        {
            "positions": [
                -1.5280662235351892,
                -1.3591864430822707,
                1.5974620879631747,
                -0.9123026458018454,
                0.9609951915323462,
                -2.19667459528695
            ]
        },
        {
            "positions": [
                -1.5127581446142402,
                -1.3471885746355425,
                1.52821684532642,
                -0.9746078860516738,
                0.9016033088908091,
                -2.041790911215964
            ]
        },
        {
            "positions": [
                -1.4974500656932912,
                -1.3351907061888144,
                1.4589716026896653,
                -1.0369131263015021,
                0.842211426249272,
                -1.8869072271449772
            ]
        },
        {
            "positions": [
                -1.4821419867723424,
                -1.323192837742086,
                1.3897263600529106,
                -1.0992183665513307,
                0.7828195436077348,
                -1.7320235430739905
            ]
        },
        {
            "positions": [
                -1.4668339078513934,
                -1.311194969295358,
                1.320481117416156,
                -1.161523606801159,
                0.7234276609661977,
                -1.5771398590030041
            ]
        },
        {
            "positions": [
                -1.4515258289304445,
                -1.2991971008486298,
                1.2512358747794015,
                -1.2238288470509873,
                0.6640357783246605,
                -1.4222561749320177
            ]
        },
        {
            "positions": [
                -1.5868616802939342,
                -1.3554694053205494,
                1.328421481571502,
                -1.2376293946372625,
                0.7326874478949233,
                -1.4507779775815406
            ]
        },
        {
            "positions": [
                -1.7221975316574236,
                -1.4117417097924692,
                1.4056070883636027,
                -1.2514299422235378,
                0.801339117465186,
                -1.4792997802310635
            ]
        },
        {
            "positions": [
                -1.8575333830209133,
                -1.4680140142643887,
                1.4827926951557036,
                -1.265230489809813,
                0.8699907870354489,
                -1.5078215828805863
            ]
        },
        {
            "positions": [
                -1.9928692343844028,
                -1.5242863187363083,
                1.5599783019478042,
                -1.2790310373960883,
                0.9386424566057117,
                -1.5363433855301092
            ]
        },
        {
            "positions": [
                -2.1282050857478927,
                -1.580558623208228,
                1.6371639087399048,
                -1.2928315849823635,
                1.0072941261759745,
                -1.564865188179632
            ]
        },
        {
            "positions": [
                -2.263540937111382,
                -1.6368309276801476,
                1.7143495155320054,
                -1.3066321325686387,
                1.0759457957462373,
                -1.593386990829155
            ]
        },
        {
            "positions": [
                -2.309951763952275,
                -1.5993731436261034,
                1.792780597259147,
                -1.2864662469927624,
                1.0721542652188627,
                -1.7661519633213367
            ]
        },
        {
            "positions": [
                -2.356362590793168,
                -1.561915359572059,
                1.8712116789862887,
                -1.266300361416886,
                1.0683627346914883,
                -1.9389169358135183
            ]
        },
        {
            "positions": [
                -2.4027734176340614,
                -1.5244575755180148,
                1.9496427607134303,
                -1.2461344758410096,
                1.0645712041641138,
                -2.1116819083057
            ]
        },
        {
            "positions": [
                -2.4491842444749543,
                -1.4869997914639703,
                2.028073842440572,
                -1.2259685902651332,
                1.0607796736367394,
                -2.2844468807978817
            ]
        },
        {
            "positions": [
                -2.4955950713158472,
                -1.4495420074099261,
                2.1065049241677136,
                -1.2058027046892568,
                1.0569881431093648,
                -2.4572118532900635
            ]
        },
        {
            "positions": [
                -2.5612108783301415,
                -1.3596007661090215,
                2.0998413920836314,
                -1.2232258429015463,
                0.9704451392716917,
                -2.5155552145261573
            ]
        },
        {
            "positions": [
                -2.6268266853444358,
                -1.2696595248081168,
                2.093177859999549,
                -1.2406489811138357,
                0.8839021354340186,
                -2.573898575762251
            ]
        },
        {
            "positions": [
                -2.6924424923587296,
                -1.1797182835072122,
                2.086514327915467,
                -1.2580721193261253,
                0.7973591315963455,
                -2.6322419369983443
            ]
        },
        {
            "positions": [
                -2.758058299373024,
                -1.0897770422063076,
                2.0798507958313848,
                -1.2754952575384146,
                0.7108161277586724,
                -2.690585298234438
            ]
        },
        {
            "positions": [
                -2.823674106387318,
                -0.9998358009054028,
                2.0731872637473026,
                -1.2929183957507042,
                0.6242731239209993,
                -2.7489286594705318
            ]
        },
        {
            "positions": [
                -2.735827000268075,
                -1.0406393919467336,
                2.0581921061038955,
                -1.1825295298625311,
                0.6387457765640518,
                -2.844703343846783
            ]
        },
        {
            "positions": [
                -2.6479798941488317,
                -1.0814429829880645,
                2.0431969484604884,
                -1.072140663974358,
                0.6532184292071044,
                -2.9404780282230343
            ]
        },
        {
            "positions": [
                -2.560132788029589,
                -1.1222465740293952,
                2.0282017908170813,
                -0.9617517980861848,
                0.6676910818501569,
                -3.036252712599286
            ]
        },
        {
            "positions": [
                -2.472285681910346,
                -1.1630501650707261,
                2.013206633173674,
                -0.8513629321980117,
                0.6821637344932094,
                -3.1320273969755372
            ]
        }
    ]
}