{
    "goal": {
        "global_pose": {
            "orientation": {
                "w": 0.7047431493862688,
                "x": -0.7094548369677653,
                "y": 0.0024358444001904,
                "z": -0.0022348060817251984
            },
            "position": {
                "x": -0.39052492380142206,
                "y": 0.3671506643295288,
                "z": 0.19426114857196808
            }
        },
        "name": "move_to_magneteinheit_D"
    },
    "id": "LBKPIECE_move_to_magneteinheit_D_99",
    "joint_names": [
        "shoulder_pan_joint",
        "shoulder_lift_joint",
        "elbow_joint",
        "wrist_1_joint",
        "wrist_2_joint",
        "wrist_3_joint"
    ],
    "metrics": {
        "cart_traj_len": 4.450899336246429,
        "distance_elbow_joint": 3.3715332530812177,
        "distance_shoulder_lift_joint": 1.0967672534542532,
        "distance_shoulder_pan_joint": 3.066982394621263,
        "distance_wrist_1_joint": 2.308080146201842,
        "distance_wrist_2_joint": 0.665342808856606,
        "distance_wrist_3_joint": 6.287281042665949,
        "smoothness": 0.22592562760965096,
        "time": 0.34625874199999995,
        "traj_len": 4.0982907289358,
        "weighted_distance": 5.68717609532811
    },
    "planner": "LBKPIECE",
    "start": {
        "state": {
            "elbow_joint": 0.749534889911806,
            "shoulder_lift_joint": -0.6476975780787326,
            "shoulder_pan_joint": -2.711696901376241,
            "wrist_1_joint": -0.07506478083263063,
            "wrist_2_joint": 0.43296659715538205,
            "wrist_3_joint": -3.14703540197715
        }
    },
    "waypoints": [
        {
            "positions": [
                -2.711696901376241,
                -0.6476975780787326,
                0.749534889911806,
                -0.07506478083263063,
                0.43296659715538205,
                -3.14703540197715
            ]
        },
        {
            "positions": [
                -2.7022108723046836,
                -0.6802362085647373,
                0.687621246701867,
                -0.07642300957799159,
                0.4564905398835413,
                -3.1138206811892264
            ]
        },
        {
            "positions": [
                -2.7039109625135977,
                -0.6874940061886551,
                0.5244413346631982,
                -0.023740307017865808,
                0.441996980802291,
                -2.968323314185977
            ]
        },
        {
            "positions": [
                -2.705611052722512,
                -0.6947518038125728,
                0.3612614226245294,
                0.028942395542259962,
                0.4275034217210406,
                -2.8228259471827277
            ]
        },
        {
            "positions": [
                -2.604671045567824,
                -0.7182639676414952,
                0.29559702702638063,
                -0.0034199750045208546,
                0.41139539497598065,
                -2.6746538699834597
            ]
        },
        {
            "positions": [
                -2.503731038413136,
                -0.7417761314704175,
                0.2299326314282318,
                -0.03578234555130167,
                0.3952873682309207,
                -2.5264817927841916
            ]
        },
        {
            "positions": [
                -2.402791031258448,
                -0.76528829529934,
                0.164268235830083,
                -0.06814471609808248,
                0.3791793414858607,
                -2.3783097155849235
            ]
        },
        {
            "positions": [
                -2.30185102410376,
                -0.7888004591282622,
                0.09860384023193419,
                -0.1005070866448633,
                0.36307131474080073,
                -2.2301376383856555
            ]
        },
        {
            "positions": [
                -2.200911016949072,
                -0.8123126229571846,
                0.0329394446337854,
                -0.1328694571916441,
                0.3469632879957408,
                -2.0819655611863874
            ]
        },
        {
            "positions": [
                -2.099971009794384,
                -0.835824786786107,
                -0.03272495096436345,
                -0.1652318277384249,
                0.3308552612506808,
                -1.9337934839871191
            ]
        },
        {
            "positions": [
                -1.999031002639696,
                -0.8593369506150293,
                -0.09838934656251219,
                -0.19759419828520572,
                0.31474723450562087,
                -1.785621406787851
            ]
        },
        {
            "positions": [
                -1.898090995485008,
                -0.8828491144439518,
                -0.16405374216066104,
                -0.22995656883198656,
                0.29863920776056085,
                -1.6374493295885828
            ]
        },
        {
            "positions": [
                -1.79715098833032,
                -0.906361278272874,
                -0.22971813775880978,
                -0.2623189393787673,
                0.2825311810155009,
                -1.489277252389315
            ]
        },
        {
            "positions": [
                -1.696210981175632,
                -0.9298734421017965,
                -0.29538253335695863,
                -0.2946813099255482,
                0.26642315427044094,
                -1.3411051751900467
            ]
        },
        {
            "positions": [
                -1.595270974020944,
                -0.9533856059307189,
                -0.3610469289551075,
                -0.32704368047232896,
                0.250315127525381,
                -1.1929330979907786
            ]
        },
        {
            "positions": [
                -1.494330966866256,
                -0.9768977697596413,
                -0.42671132455325633,
                -0.3594060510191098,
                0.234207100780321,
                -1.0447610207915106
            ]
        },
        {
            "positions": [
                -1.3933909597115681,
                -1.0004099335885637,
                -0.49237572015140507,
                -0.3917684215658906,
                0.21809907403526105,
                -0.8965889435922425
            ]
        },
        {
            "positions": [
                -1.2924509525568801,
                -1.0239220974174859,
                -0.5580401157495538,
                -0.4241307921126714,
                0.2019910472902011,
                -0.7484168663929744
            ]
        },
        {
            "positions": [
                -1.1915109454021924,
                -1.0474342612464083,
                -0.6237045113477026,
                -0.45649316265945217,
                0.18588302054514114,
                -0.6002447891937064
            ]
        },
        {
            "positions": [
                -1.0905709382475042,
                -1.0709464250753307,
                -0.6893689069458515,
                -0.4888555332062331,
                0.16977499380008115,
                -0.4520727119944379
            ]
        },
        {
            "positions": [
                -0.9896309310928162,
                -1.094458588904253,
                -0.7550333025440004,
                -0.5212179037530138,
                0.1536669670550212,
                -0.30390063479517027
            ]
        },
        {
            "positions": [
                -0.8886909239381282,
                -1.1179707527331755,
                -0.820697698142149,
                -0.5535802742997946,
                0.13755894030996124,
                -0.1557285575959022
            ]
        },
        {
            "positions": [
                -0.7877509167834404,
                -1.1414829165620977,
                -0.8863620937402978,
                -0.5859426448465754,
                0.12145091356490129,
                -0.0075564803966341465
            ]
        },
        {
            "positions": [
                -0.6868109096287522,
                -1.16499508039102,
                -0.9520264893384467,
                -0.6183050153933564,
                0.10534288681984127,
                0.14061559680263436
            ]
        },
        {
            "positions": [
                -0.5858709024740643,
                -1.1885072442199425,
                -1.0176908849365955,
                -0.6506673859401371,
                0.08923486007478132,
                0.2887876740019024
            ]
        },
        {
            "positions": [
                -0.4849308953193763,
                -1.2120194080488647,
                -1.0833552805347444,
                -0.6830297564869179,
                0.07312683332972136,
                0.4369597512011705
            ]
        },
        {
            "positions": [
                -0.3839908881646883,
                -1.2355315718777873,
                -1.149019676132893,
                -0.7153921270336987,
                0.05701880658466141,
                0.5851318284004381
            ]
        },
        {
            "positions": [
                -0.2830508810100003,
                -1.2590437357067095,
                -1.214684071731042,
                -0.7477544975804795,
                0.0409107798396014,
                0.7333039055997066
            ]
        },
        {
            "positions": [
                -0.18211087385531233,
                -1.282555899535632,
                -1.2803484673291907,
                -0.7801168681272603,
                0.02480275309454144,
                0.8814759827989747
            ]
        },
        {
            "positions": [
                -0.0811708667006244,
                -1.3060680633645543,
                -1.3460128629273396,
                -0.8124792386740411,
                0.008694726349481471,
                1.0296480599982427
            ]
        },
        {
            "positions": [
                -0.06769618247901792,
                -1.3266177663122216,
                -1.4415740157346097,
                -0.9034858386196588,
                0.004069237717818291,
                1.1913401565694017
            ]
        },
        {
            "positions": [
                -0.05422149825741143,
                -1.347167469259889,
                -1.53713516854188,
                -0.9944924385652765,
                -0.0005562509138448898,
                1.3530322531405607
            ]
        },
        {
            "positions": [
                -0.04074681403580495,
                -1.367717172207556,
                -1.63269632134915,
                -1.0854990385108942,
                -0.0051817395455080704,
                1.5147243497117198
            ]
        },
        {
            "positions": [
                -0.027272129814198465,
                -1.3882668751552234,
                -1.7282574741564203,
                -1.1765056384565118,
                -0.009807228177171251,
                1.6764164462828788
            ]
        },
        {
            "positions": [
                -0.013797445592591981,
                -1.4088165781028907,
                -1.8238186269636905,
                -1.2675122384021296,
                -0.014432716808834432,
                1.838108542854038
            ]
        },
        {
            "positions": [
                -0.00032276137098549706,
                -1.429366281050558,
                -1.9193797797709609,
                -1.3585188383477473,
                -0.019058205440497612,
                1.999800639425197
            ]
        },
        {
            "positions": [
                0.013151922850620987,
                -1.4499159839982254,
                -2.014940932578231,
                -1.449525438293365,
                -0.023683694072160796,
                2.1614927359963563
            ]
        },
        {
            "positions": [
                0.02662660707222747,
                -1.4704656869458927,
                -2.110502085385501,
                -1.5405320382389827,
                -0.028309182703823974,
                2.323184832567515
            ]
        },
        {
            "positions": [
                0.040101291293833954,
                -1.49101538989356,
                -2.2060632381927716,
                -1.6315386381846004,
                -0.03293467133548715,
                2.4848769291386743
            ]
        },
        {
            "positions": [
                0.05357597551544044,
                -1.5115650928412272,
                -2.3016243910000416,
                -1.7225452381302182,
                -0.037560159967150335,
                2.6465690257098333
            ]
        },
        {
            "positions": [
                0.06705065973704691,
                -1.5321147957888945,
                -2.3971855438073115,
                -1.8135518380758358,
                -0.04218564859881351,
                2.8082611222809923
            ]
        },
        {
            "positions": [
                0.0805253439586534,
                -1.5526644987365619,
                -2.492746696614582,
                -1.9045584380214535,
                -0.046811137230476696,
                2.9699532188521514
            ]
        },
        {
            "positions": [
                -0.008794585524917325,
                -1.6165979430020365,
                -2.4496628077629716,
                -1.9938436642789592,
                -0.09298353356861949,
                3.0267173594643677
            ]
        },
        {
            "positions": [
                -0.09811451500848806,
                -1.6805313872675112,
                -2.4065789189113613,
                -2.083128890536465,
                -0.1391559299067623,
                3.0834815000765845
            ]
        },
        {
            "positions": [
                -0.18743444449205882,
                -1.7444648315329858,
                -2.363495030059751,
                -2.1724141167939703,
                -0.1853283262449051,
                3.140245640688801
            ]
        }
    ]
}