{
    "goal": {
        "global_pose": {
            "orientation": {
                "w": 0.7031023480610252,
                "x": -0.7110244013736278,
                "y": 0.0077485991402295624,
                "z": 0.005598929693374583
            },
            "position": {
                "x": -0.8841497679147869,
                "y": 0.44412534475326537,
                "z": 0.3711530566215515
            }
        },
        "name": "move_to_auspresseinheit_D"
    },
    "id": "LBKPIECE_move_to_auspresseinheit_D_109",
    "joint_names": [
        "shoulder_pan_joint",
        "shoulder_lift_joint",
        "elbow_joint",
        "wrist_1_joint",
        "wrist_2_joint",
        "wrist_3_joint"
    ],
    "metrics": {
        "cart_traj_len": 0.3426466236485213,
        "distance_elbow_joint": 0.6328645693460959,
        "distance_shoulder_lift_joint": 0.11845071202096458,
        "distance_shoulder_pan_joint": 0.13364772605293615,
        "distance_wrist_1_joint": 0.5130167361129514,
        "distance_wrist_2_joint": 1.4318639205489219,
        "distance_wrist_3_joint": 0.023428854749297123,
        "smoothness": 7.89491931748053e-16,
        "time": 0.340454608,
        "traj_len": 1.689163259969612,
        "weighted_distance": 2.201138542889028
    },
    "planner": "LBKPIECE",
    "start": {
        "state": {
            "elbow_joint": -1.8275523626775212,
            "shoulder_lift_joint": -2.126789852344167,
            "shoulder_pan_joint": -0.03513704404078235,
            "wrist_1_joint": -2.347782403156801,
            "wrist_2_joint": -1.6058999987535132,
            "wrist_3_joint": -3.0880379163319196
        }
    },
    "waypoints": [
        {
            "positions": [
                -0.03513704404078235,
                -2.126789852344167,
                -1.8275523626775212,
                -2.347782403156801,
                -1.6058999987535132,
                -3.0880379163319196
            ]
        },
        {
            "positions": [
                -0.051843009797399364,
                -2.1415961913467876,
                -1.7484442915092593,
                -2.41190949517092,
                -1.426917008684898,
                -3.090966523175582
            ]
        },
        {
            "positions": [
                -0.06854897555401639,
                -2.156402530349408,
                -1.6693362203409972,
                -2.476036587185039,
                -1.2479340186162826,
                -3.093895130019244
            ]
        },
        {
            "positions": [
                -0.08525494131063341,
                -2.1712088693520286,
                -1.5902281491727353,
                -2.5401636791991575,
                -1.0689510285476675,
                -3.096823736862906
            ]
        },
        {
            "positions": [
                -0.10196090706725042,
                -2.1860152083546494,
                -1.5111200780044731,
                -2.6042907712132766,
                -0.8899680384790523,
                -3.099752343706568
            ]
        },
        {
            "positions": [
                -0.11866687282386745,
                -2.2008215473572696,
                -1.4320120068362112,
                -2.6684178632273956,
                -0.710985048410437,
                -3.1026809505502304
            ]
        },
        {
            "positions": [
                -0.13537283858048446,
                -2.2156278863598904,
                -1.3529039356679493,
                -2.732544955241514,
                -0.5320020583418219,
                -3.105609557393892
            ]
        },
        {
            "positions": [
                -0.15207880433710147,
                -2.2304342253625107,
                -1.2737958644996872,
                -2.7966720472556332,
                -0.3530190682732066,
                -3.1085381642375545
            ]
        },
        {
            "positions": [
                -0.1687847700937185,
                -2.2452405643651314,
                -1.1946877933314253,
                -2.8607991392697523,
                -0.1740360782045914,
                -3.1114667710812167
            ]
        }
    ]
}