{
    "goal": {
        "global_pose": {
            "orientation": {
                "w": -0.00223480608172531,
                "x": 0.0024358444001904467,
                "y": 0.7094548369677653,
                "z": -0.704743149386269
            },
            "position": {
                "x": -0.37947507619857795,
                "y": -0.6371506643295288,
                "z": 0.19426114857196808
            }
        },
        "name": "move_to_magneteinheit_C"
    },
    "id": "LBKPIECE_move_to_magneteinheit_C_13",
    "joint_names": [
        "shoulder_pan_joint",
        "shoulder_lift_joint",
        "elbow_joint",
        "wrist_1_joint",
        "wrist_2_joint",
        "wrist_3_joint"
    ],
    "metrics": {
        "cart_traj_len": 1.0716855967922583,
        "distance_elbow_joint": 1.083244023026578,
        "distance_shoulder_lift_joint": 0.2786690164367651,
        "distance_shoulder_pan_joint": 0.9919915948100055,
        "distance_wrist_1_joint": 3.3089239458849407,
        "distance_wrist_2_joint": 1.3870640240912318,
        "distance_wrist_3_joint": 1.8681047111977853,
        "smoothness": 0.6127888582206487,
        "time": 0.287976884,
        "traj_len": 2.986301611600427,
        "weighted_distance": 4.16535649228479
    },
    "planner": "LBKPIECE",
    "start": {
        "state": {
            "elbow_joint": 1.9565354010623817,
            "shoulder_lift_joint": -1.4165861575791021,
            "shoulder_pan_joint": -1.6717766225146293,
            "wrist_1_joint": -0.5286633292919765,
            "wrist_2_joint": 1.472756589071564,
            "wrist_3_joint": -3.1238370188695823
        }
    },
    "waypoints": [
        {
            "positions": [
                -1.6717766225146293,
                -1.4165861575791021,
                1.9565354010623817,
                -0.5286633292919765,
                1.472756589071564,
                -3.1238370188695823
            ]
        },
        {
            "positions": [
                -1.6756987591055945,
                -1.4180587763092063,
                1.9000339627190674,
                -0.3544701323828291,
                1.509212692377304,
                -3.0089360839532224
            ]
        },
        {
            "positions": [
                -1.67962089569656,
                -1.4195313950393107,
                1.8435325243757532,
                -0.18027693547368173,
                1.545668795683044,
                -2.8940351490368625
            ]
        },
        {
            "positions": [
                -1.683543032287525,
                -1.4210040137694149,
                1.787031086032439,
                -0.006083738564534369,
                1.582124898988784,
                -2.779134214120503
            ]
        },
        {
            "positions": [
                -1.6874651688784903,
                -1.422476632499519,
                1.7305296476891248,
                0.168109458344613,
                1.618581002294524,
                -2.664233279204143
            ]
        },
        {
            "positions": [
                -1.6913873054694557,
                -1.4239492512296235,
                1.6740282093458103,
                0.34230265525376036,
                1.6550371056002642,
                -2.5493323442877833
            ]
        },
        {
            "positions": [
                -1.695309442060421,
                -1.4254218699597276,
                1.617526771002496,
                0.5164958521629077,
                1.6914932089060042,
                -2.434431409371424
            ]
        },
        {
            "positions": [
                -1.6992315786513863,
                -1.426894488689832,
                1.5610253326591819,
                0.690689049072055,
                1.7279493122117442,
                -2.319530474455064
            ]
        },
        {
            "positions": [
                -1.7031537152423515,
                -1.4283671074199362,
                1.5045238943158676,
                0.8648822459812024,
                1.7644054155174842,
                -2.204629539538704
            ]
        },
        {
            "positions": [
                -1.8642023441408682,
                -1.375202869420033,
                1.4826609809047318,
                0.9036131989079011,
                1.7619500447661502,
                -2.2866527364574827
            ]
        },
        {
            "positions": [
                -2.025250973039385,
                -1.3220386314201293,
                1.4607980674935959,
                0.9423441518345999,
                1.759494674014816,
                -2.3686759333762613
            ]
        },
        {
            "positions": [
                -2.1862996019379013,
                -1.268874393420226,
                1.43893515408246,
                0.9810751047612986,
                1.7570393032634821,
                -2.45069913029504
            ]
        },
        {
            "positions": [
                -2.22883856530545,
                -1.257179328336586,
                1.4833496572665015,
                0.8470874140712954,
                1.681821429355806,
                -2.5016302158304775
            ]
        },
        {
            "positions": [
                -2.2713775286729994,
                -1.245484263252946,
                1.5277641604505428,
                0.7130997233812923,
                1.6066035554481297,
                -2.552561301365915
            ]
        },
        {
            "positions": [
                -2.313916492040548,
                -1.2337891981693059,
                1.5721786636345843,
                0.5791120326912892,
                1.5313856815404536,
                -2.603492386901353
            ]
        },
        {
            "positions": [
                -2.3564554554080974,
                -1.2220941330856658,
                1.6165931668186255,
                0.44512434200128614,
                1.4561678076327775,
                -2.6544234724367906
            ]
        },
        {
            "positions": [
                -2.3989944187756462,
                -1.2103990680020258,
                1.661007670002667,
                0.3111366513112829,
                1.3809499337251012,
                -2.7053545579722282
            ]
        },
        {
            "positions": [
                -2.4415333821431955,
                -1.1987040029183857,
                1.7054221731867083,
                0.17714896062127983,
                1.3057320598174251,
                -2.7562856435076655
            ]
        },
        {
            "positions": [
                -2.4840723455107443,
                -1.1870089378347457,
                1.7498366763707498,
                0.04316126993127667,
                1.2305141859097488,
                -2.807216729043103
            ]
        },
        {
            "positions": [
                -2.5266113088782935,
                -1.1753138727511057,
                1.794251179554791,
                -0.09082642075872627,
                1.155296312002073,
                -2.858147814578541
            ]
        },
        {
            "positions": [
                -2.5691502722458424,
                -1.1636188076674656,
                1.8386656827388326,
                -0.22481411144872945,
                1.0800784380943966,
                -2.9090789001139785
            ]
        },
        {
            "positions": [
                -2.5454957859761445,
                -1.1630838659566005,
                1.8801439945864036,
                -0.3731381853541388,
                0.9773063830388407,
                -2.9701908679368865
            ]
        },
        {
            "positions": [
                -2.521841299706446,
                -1.1625489242457354,
                1.9216223064339744,
                -0.5214622592595481,
                0.8745343279832847,
                -3.031302835759795
            ]
        },
        {
            "positions": [
                -2.4981868134367478,
                -1.1620139825348703,
                1.9631006182815454,
                -0.6697863331649575,
                0.7717622729277286,
                -3.0924148035827033
            ]
        },
        {
            "positions": [
                -2.47453232716705,
                -1.1614790408240052,
                2.0045789301291164,
                -0.8181104070703669,
                0.6689902178721726,
                -3.153526771405611
            ]
        }
    ]
}