{
    "goal": {
        "global_pose": {
            "orientation": {
                "w": 0.7031023502349854,
                "x": -0.7110244035720825,
                "y": 0.007748599164187908,
                "z": 0.005598929710686207
            },
            "position": {
                "x": 0.11585023208521307,
                "y": 0.44412534475326537,
                "z": 0.3711530566215515
            }
        },
        "name": "move_to_auspresseinheit_A"
    },
    "id": "LBKPIECE_move_to_auspresseinheit_A_106",
    "joint_names": [
        "shoulder_pan_joint",
        "shoulder_lift_joint",
        "elbow_joint",
        "wrist_1_joint",
        "wrist_2_joint",
        "wrist_3_joint"
    ],
    "metrics": {
        "cart_traj_len": 0.7533096182804556,
        "distance_elbow_joint": 0.31524332332593596,
        "distance_shoulder_lift_joint": 0.5524766342719729,
        "distance_shoulder_pan_joint": 1.0452166835613008,
        "distance_wrist_1_joint": 0.908919187470338,
        "distance_wrist_2_joint": 0.5165648383727097,
        "distance_wrist_3_joint": 1.874453086787283,
        "smoothness": 0.9647009705793566,
        "time": 0.464068849,
        "traj_len": 2.2831718625170425,
        "weighted_distance": 3.2229278541734616
    },
    "planner": "LBKPIECE",
    "start": {
        "state": {
            "elbow_joint": 2.4225746658250005,
            "shoulder_lift_joint": -1.3736534386056498,
            "shoulder_pan_joint": -0.3378633547517467,
            "wrist_1_joint": -1.0288598680537169,
            "wrist_2_joint": 1.233022673432363,
            "wrist_3_joint": -3.0940220416140027
        }
    },
    "waypoints": [
        {
            "positions": [
                -0.3378633547517467,
                -1.3736534386056498,
                2.4225746658250005,
                -1.0288598680537169,
                1.233022673432363,
                -3.0940220416140027
            ]
        },
        {
            "positions": [
                -0.2794365927771982,
                -1.434021195348276,
                2.4032683827574375,
                -0.9465347300225989,
                1.186493403994254,
                -2.992144405854323
            ]
        },
        {
            "positions": [
                -0.22100983080264963,
                -1.494388952090902,
                2.3839620996898745,
                -0.864209591991481,
                1.1399641345561453,
                -2.890266770094643
            ]
        },
        {
            "positions": [
                -0.16258306882810106,
                -1.5547567088335281,
                2.3646558166223115,
                -0.7818844539603631,
                1.0934348651180363,
                -2.7883891343349636
            ]
        },
        {
            "positions": [
                -0.10415630685355251,
                -1.6151244655761543,
                2.3453495335547485,
                -0.699559315929245,
                1.0469055956799276,
                -2.6865114985752836
            ]
        },
        {
            "positions": [
                -0.045729544879003936,
                -1.6754922223187805,
                2.326043250487186,
                -0.6172341778981272,
                1.0003763262418186,
                -2.584633862815604
            ]
        },
        {
            "positions": [
                0.01269721709554461,
                -1.7358599790614067,
                2.306736967419623,
                -0.5349090398670092,
                0.9538470568037097,
                -2.4827562270559245
            ]
        },
        {
            "positions": [
                0.07112397907009321,
                -1.7962277358040328,
                2.28743068435206,
                -0.45258390183589126,
                0.9073177873656009,
                -2.3808785912962445
            ]
        },
        {
            "positions": [
                0.1295507410446417,
                -1.8565954925466588,
                2.268124401284497,
                -0.3702587638047733,
                0.8607885179274919,
                -2.2790009555365645
            ]
        },
        {
            "positions": [
                0.1879775030191903,
                -1.916963249289285,
                2.248818118216934,
                -0.2879336257736554,
                0.814259248489383,
                -2.177123319776885
            ]
        },
        {
            "positions": [
                0.2918526681772631,
                -1.9151298845716174,
                2.277115473360508,
                -0.3215322148117107,
                0.7946989658034371,
                -2.368634192766918
            ]
        },
        {
            "positions": [
                0.39572783333533584,
                -1.9132965198539498,
                2.305412828504082,
                -0.35513080384976603,
                0.7751386831174911,
                -2.560145065756951
            ]
        },
        {
            "positions": [
                0.49960299849340856,
                -1.9114631551362824,
                2.3337101836476557,
                -0.38872939288782127,
                0.7555784004315452,
                -2.751655938746984
            ]
        },
        {
            "positions": [
                0.6034781636514814,
                -1.9096297904186148,
                2.3620075387912296,
                -0.4223279819258766,
                0.7360181177455992,
                -2.943166811737017
            ]
        },
        {
            "positions": [
                0.707353328809554,
                -1.9077964257009472,
                2.3903048939348035,
                -0.4559265709639319,
                0.7164578350596533,
                -3.13467768472705
            ]
        }
    ]
}