{
    "goal": {
        "global_pose": {
            "orientation": {
                "w": 0.7047431468963623,
                "x": -0.7094548344612122,
                "y": 0.0024358443915843964,
                "z": -0.0022348060738295317
            },
            "position": {
                "x": 0.6094750761985779,
                "y": 0.3671506643295288,
                "z": 0.19426114857196808
            }
        },
        "name": "move_to_magneteinheit_A"
    },
    "id": "LBKPIECE_move_to_magneteinheit_A_83",
    "joint_names": [
        "shoulder_pan_joint",
        "shoulder_lift_joint",
        "elbow_joint",
        "wrist_1_joint",
        "wrist_2_joint",
        "wrist_3_joint"
    ],
    "metrics": {
        "cart_traj_len": 3.406999813015494,
        "distance_elbow_joint": 3.883670850513475,
        "distance_shoulder_lift_joint": 0.10938771606491904,
        "distance_shoulder_pan_joint": 2.9371761317519436,
        "distance_wrist_1_joint": 1.0613561047010505,
        "distance_wrist_2_joint": 1.698943632856511,
        "distance_wrist_3_joint": 3.7064557854670337,
        "smoothness": 0.15506483845394783,
        "time": 0.470711223,
        "traj_len": 3.660189916022792,
        "weighted_distance": 4.854915192858322
    },
    "planner": "LBKPIECE",
    "start": {
        "state": {
            "elbow_joint": -1.9196185241190666,
            "shoulder_lift_joint": -1.2443396400964142,
            "shoulder_pan_joint": 2.6996025414629847,
            "wrist_1_joint": -1.5485510000780065,
            "wrist_2_joint": -1.5709468930060704,
            "wrist_3_joint": 0.4420197071253992
        }
    },
    "waypoints": [
        {
            "positions": [
                2.6996025414629847,
                -1.2443396400964142,
                -1.9196185241190666,
                -1.5485510000780065,
                -1.5709468930060704,
                0.4420197071253992
            ]
        },
        {
            "positions": [
                2.599329628007095,
                -1.243825958868857,
                -1.8247095244433553,
                -1.509765611724429,
                -1.5097288001807272,
                0.3503507700862574
            ]
        },
        {
            "positions": [
                2.4990567145512053,
                -1.2433122776413,
                -1.729800524767644,
                -1.470980223370851,
                -1.4485107073553842,
                0.2586818330471157
            ]
        },
        {
            "positions": [
                2.3987838010953153,
                -1.2427985964137427,
                -1.6348915250919327,
                -1.4321948350172735,
                -1.387292614530041,
                0.16701289600797392
            ]
        },
        {
            "positions": [
                2.298510887639426,
                -1.2422849151861857,
                -1.5399825254162216,
                -1.3934094466636957,
                -1.3260745217046979,
                0.07534395896883217
            ]
        },
        {
            "positions": [
                2.1982379741835363,
                -1.2417712339586284,
                -1.4450735257405103,
                -1.3546240583101181,
                -1.264856428879355,
                -0.01632497807030958
            ]
        },
        {
            "positions": [
                2.0979650607276463,
                -1.2412575527310712,
                -1.350164526064799,
                -1.3158386699565403,
                -1.2036383360540117,
                -0.10799391510945133
            ]
        },
        {
            "positions": [
                1.9976921472717566,
                -1.2407438715035142,
                -1.2552555263890877,
                -1.2770532816029627,
                -1.1424202432286688,
                -0.19966285214859314
            ]
        },
        {
            "positions": [
                1.8974192338158669,
                -1.240230190275957,
                -1.1603465267133766,
                -1.2382678932493851,
                -1.0812021504033256,
                -0.29133178918773484
            ]
        },
        {
            "positions": [
                1.7971463203599771,
                -1.2397165090483997,
                -1.0654375270376653,
                -1.1994825048958073,
                -1.0199840575779824,
                -0.38300072622687653
            ]
        },
        {
            "positions": [
                1.6968734069040874,
                -1.2392028278208427,
                -0.9705285273619538,
                -1.1606971165422295,
                -0.9587659647526393,
                -0.47466966326601834
            ]
        },
        {
            "positions": [
                1.5966004934481977,
                -1.2386891465932854,
                -0.8756195276862426,
                -1.121911728188652,
                -0.8975478719272962,
                -0.5663386003051601
            ]
        },
        {
            "positions": [
                1.496327579992308,
                -1.2381754653657282,
                -0.7807105280105313,
                -1.0831263398350743,
                -0.8363297791019532,
                -0.6580075373443018
            ]
        },
        {
            "positions": [
                1.3960546665364182,
                -1.2376617841381712,
                -0.6858015283348202,
                -1.0443409514814965,
                -0.7751116862766101,
                -0.7496764743834435
            ]
        },
        {
            "positions": [
                1.2957817530805285,
                -1.237148102910614,
                -0.5908925286591087,
                -1.0055555631279187,
                -0.7138935934512669,
                -0.8413454114225855
            ]
        },
        {
            "positions": [
                1.1955088396246387,
                -1.236634421683057,
                -0.49598352898339737,
                -0.9667701747743411,
                -0.6526755006259238,
                -0.9330143484617271
            ]
        },
        {
            "positions": [
                1.095235926168749,
                -1.2361207404554997,
                -0.4010745293076863,
                -0.9279847864207635,
                -0.5914574078005808,
                -1.0246832855008687
            ]
        },
        {
            "positions": [
                0.9949630127128593,
                -1.2356070592279425,
                -0.30616552963197474,
                -0.8891993980671857,
                -0.5302393149752376,
                -1.1163522225400109
            ]
        },
        {
            "positions": [
                0.8946900992569695,
                -1.2350933780003854,
                -0.21125652995626365,
                -0.8504140097136081,
                -0.4690212221498946,
                -1.2080211595791521
            ]
        },
        {
            "positions": [
                0.7944171858010798,
                -1.2345796967728282,
                -0.11634753028055256,
                -0.8116286213600304,
                -0.40780312932455143,
                -1.2996900966182938
            ]
        },
        {
            "positions": [
                0.69414427234519,
                -1.2340660155452712,
                -0.021438530604841022,
                -0.7728432330064526,
                -0.34658503649920824,
                -1.391359033657436
            ]
        },
        {
            "positions": [
                0.5938713588893001,
                -1.233552334317714,
                0.07347046907087007,
                -0.734057844652875,
                -0.2853669436738653,
                -1.4830279706965777
            ]
        },
        {
            "positions": [
                0.4935984454334106,
                -1.2330386530901567,
                0.16837946874658138,
                -0.6952724562992973,
                -0.2241488508485221,
                -1.5746969077357194
            ]
        },
        {
            "positions": [
                0.3933255319775206,
                -1.2325249718625997,
                0.2632884684222927,
                -0.6564870679457196,
                -0.1629307580231789,
                -1.666365844774861
            ]
        },
        {
            "positions": [
                0.293052618521631,
                -1.2320112906350424,
                0.35819746809800423,
                -0.617701679592142,
                -0.10171266519783585,
                -1.7580347818140027
            ]
        },
        {
            "positions": [
                0.25412635108836873,
                -1.2293667636110797,
                0.5064884393721464,
                -0.6267324182697527,
                -0.09877146604986936,
                -1.9228520310270942
            ]
        },
        {
            "positions": [
                0.21520008365510646,
                -1.2267222365871169,
                0.6547794106462885,
                -0.6357631569473635,
                -0.09583026690190287,
                -2.0876692802401857
            ]
        },
        {
            "positions": [
                0.17627381622184415,
                -1.2240777095631539,
                0.8030703819204306,
                -0.6447938956249742,
                -0.09288906775393639,
                -2.252486529453277
            ]
        },
        {
            "positions": [
                0.13734754878858188,
                -1.221433182539191,
                0.9513613531945727,
                -0.6538246343025851,
                -0.0899478686059699,
                -2.4173037786663683
            ]
        },
        {
            "positions": [
                0.09842128135531955,
                -1.2187886555152283,
                1.0996523244687149,
                -0.6628553729801958,
                -0.08700666945800341,
                -2.58212102787946
            ]
        },
        {
            "positions": [
                0.059495013922057305,
                -1.2161441284912655,
                1.2479432957428571,
                -0.6718861116578067,
                -0.08406547031003692,
                -2.7469382770925512
            ]
        },
        {
            "positions": [
                0.020568746488794976,
                -1.2134996014673025,
                1.3962342670169992,
                -0.6809168503354174,
                -0.08112427116207044,
                -2.911755526305643
            ]
        },
        {
            "positions": [
                -0.018357520944467243,
                -1.2108550744433397,
                1.5445252382911412,
                -0.6899475890130282,
                -0.07818307201410395,
                -3.076572775518734
            ]
        },
        {
            "positions": [
                -0.05728378837772955,
                -1.208210547419377,
                1.6928162095652834,
                -0.698978327690639,
                -0.07524187286613745,
                -3.2413900247318255
            ]
        },
        {
            "positions": [
                0.0028128122593470903,
                -1.183791006290083,
                1.7832282485083248,
                -0.7153883730628686,
                -0.007495668627277879,
                -3.2337080068618893
            ]
        },
        {
            "positions": [
                0.06290941289642374,
                -1.1593714651607891,
                1.873640287451366,
                -0.7317984184350983,
                0.060250535611581696,
                -3.2260259889919527
            ]
        },
        {
            "positions": [
                0.12300601353350038,
                -1.1349519240314951,
                1.9640523263944074,
                -0.748208463807328,
                0.1279967398504413,
                -3.2183439711220165
            ]
        }
    ]
}