{
    "goal": {
        "global_pose": {
            "orientation": {
                "w": 0.005598929693374612,
                "x": 0.007748599140229565,
                "y": 0.7110244013736278,
                "z": -0.7031023480610252
            },
            "position": {
                "x": 0.1141497679147869,
                "y": -0.7141253447532654,
                "z": 0.3711530566215515
            }
        },
        "name": "move_to_auspresseinheit_B"
    },
    "id": "LBKPIECE_move_to_auspresseinheit_B_7",
    "joint_names": [
        "shoulder_pan_joint",
        "shoulder_lift_joint",
        "elbow_joint",
        "wrist_1_joint",
        "wrist_2_joint",
        "wrist_3_joint"
    ],
    "metrics": {
        "cart_traj_len": 0.5645279108804084,
        "distance_elbow_joint": 0.06515094256987708,
        "distance_shoulder_lift_joint": 0.2937443181290491,
        "distance_shoulder_pan_joint": 0.5777044166833964,
        "distance_wrist_1_joint": 0.3344764993779803,
        "distance_wrist_2_joint": 0.9869650167585211,
        "distance_wrist_3_joint": 0.00642011024728717,
        "smoothness": 2.5376526478085547e-16,
        "time": 0.386749944,
        "traj_len": 1.5048127138505014,
        "weighted_distance": 1.8970353292432873
    },
    "planner": "LBKPIECE",
    "start": {
        "state": {
            "elbow_joint": 2.0193083361928714,
            "shoulder_lift_joint": -1.1220246554650708,
            "shoulder_pan_joint": -1.0952077554168747,
            "wrist_1_joint": -0.8559753972642168,
            "wrist_2_joint": 0.4759566250798843,
            "wrist_3_joint": -3.1240929996934557
        }
    },
    "waypoints": [
        {
            "positions": [
                -1.0952077554168747,
                -1.1220246554650708,
                2.0193083361928714,
                -0.8559753972642168,
                0.4759566250798843,
                -3.1240929996934557
            ]
        },
        {
            "positions": [
                -1.1914918248641073,
                -1.1709820418199124,
                2.0084498457645585,
                -0.8002293140345534,
                0.6404507945396378,
                -3.1230229813189077
            ]
        },
        {
            "positions": [
                -1.2877758943113402,
                -1.2199394281747538,
                1.9975913553362457,
                -0.74448323080489,
                0.8049449639993913,
                -3.12195296294436
            ]
        },
        {
            "positions": [
                -1.3840599637585729,
                -1.2688968145295954,
                1.9867328649079328,
                -0.6887371475752266,
                0.9694391334591448,
                -3.120882944569812
            ]
        },
        {
            "positions": [
                -1.4803440332058055,
                -1.317854200884437,
                1.97587437447962,
                -0.6329910643455633,
                1.1339333029188983,
                -3.119812926195264
            ]
        },
        {
            "positions": [
                -1.5766281026530384,
                -1.3668115872392783,
                1.9650158840513072,
                -0.5772449811158998,
                1.298427472378652,
                -3.1187429078207165
            ]
        },
        {
            "positions": [
                -1.672912172100271,
                -1.41576897359412,
                1.9541573936229943,
                -0.5214988978862365,
                1.4629216418384055,
                -3.1176728894461685
            ]
        }
    ]
}