{
    "goal": {
        "global_pose": {
            "orientation": {
                "w": 0.7047431468963623,
                "x": -0.7094548344612122,
                "y": 0.0024358443915843964,
                "z": -0.0022348060738295317
            },
            "position": {
                "x": 0.6094750761985779,
                "y": 0.3671506643295288,
                "z": 0.19426114857196808
            }
        },
        "name": "move_to_magneteinheit_A"
    },
    "id": "LBKPIECE_move_to_magneteinheit_A_106",
    "joint_names": [
        "shoulder_pan_joint",
        "shoulder_lift_joint",
        "elbow_joint",
        "wrist_1_joint",
        "wrist_2_joint",
        "wrist_3_joint"
    ],
    "metrics": {
        "cart_traj_len": 3.339048091227673,
        "distance_elbow_joint": 3.909396404753192,
        "distance_shoulder_lift_joint": 0.4690704509258502,
        "distance_shoulder_pan_joint": 3.8820878175183715,
        "distance_wrist_1_joint": 3.5277936301326083,
        "distance_wrist_2_joint": 1.4427895127848873,
        "distance_wrist_3_joint": 0.9506317319226223,
        "smoothness": 0.20003819239014636,
        "time": 0.622926428,
        "traj_len": 3.7658690295916477,
        "weighted_distance": 4.588421967822954
    },
    "planner": "LBKPIECE",
    "start": {
        "state": {
            "elbow_joint": -1.9196185241190666,
            "shoulder_lift_joint": -1.2443396400964142,
            "shoulder_pan_joint": 2.6996025414629847,
            "wrist_1_joint": -1.5485510000780065,
            "wrist_2_joint": -1.5709468930060704,
            "wrist_3_joint": 0.4420197071253992
        }
    },
    "waypoints": [
        {
            "positions": [
                2.6996025414629847,
                -1.2443396400964142,
                -1.9196185241190666,
                -1.5485510000780065,
                -1.5709468930060704,
                0.4420197071253992
            ]
        },
        {
            "positions": [
                2.5704079799494313,
                -1.2313002500852905,
                -1.847305425309599,
                -1.4089528810171932,
                -1.5564042926676003,
                0.4148376783436309
            ]
        },
        {
            "positions": [
                2.4412134184358774,
                -1.2182608600741671,
                -1.7749923265001317,
                -1.2693547619563799,
                -1.5418616923291302,
                0.3876556495618626
            ]
        },
        {
            "positions": [
                2.312018856922324,
                -1.2052214700630435,
                -1.7026792276906642,
                -1.1297566428955665,
                -1.5273190919906598,
                0.3604736207800943
            ]
        },
        {
            "positions": [
                2.18282429540877,
                -1.1921820800519198,
                -1.6303661288811968,
                -0.9901585238347532,
                -1.5127764916521897,
                0.33329159199832603
            ]
        },
        {
            "positions": [
                2.0536297338952165,
                -1.1791426900407962,
                -1.5580530300717292,
                -0.8505604047739399,
                -1.4982338913137196,
                0.30610956321655775
            ]
        },
        {
            "positions": [
                1.9244351723816628,
                -1.1661033000296728,
                -1.4857399312622617,
                -0.7109622857131267,
                -1.4836912909752495,
                0.27892753443478946
            ]
        },
        {
            "positions": [
                1.7952406108681092,
                -1.1530639100185491,
                -1.413426832452794,
                -0.5713641666523133,
                -1.4691486906367794,
                0.2517455056530212
            ]
        },
        {
            "positions": [
                1.6660460493545555,
                -1.1400245200074255,
                -1.3411137336433268,
                -0.43176604759149995,
                -1.4546060902983091,
                0.2245634768712529
            ]
        },
        {
            "positions": [
                1.5368514878410018,
                -1.126985129996302,
                -1.2688006348338594,
                -0.29216792853068685,
                -1.440063489959839,
                0.19738144808948463
            ]
        },
        {
            "positions": [
                1.407656926327448,
                -1.1139457399851784,
                -1.1964875360243918,
                -0.1525698094698733,
                -1.425520889621369,
                0.17019941930771632
            ]
        },
        {
            "positions": [
                1.2784623648138944,
                -1.1009063499740548,
                -1.1241744372149243,
                -0.012971690409059988,
                -1.4109782892828988,
                0.14301739052594803
            ]
        },
        {
            "positions": [
                1.149267803300341,
                -1.0878669599629311,
                -1.0518613384054567,
                0.1266264286517531,
                -1.3964356889444287,
                0.1158353617441798
            ]
        },
        {
            "positions": [
                1.020073241786787,
                -1.0748275699518077,
                -0.9795482395959892,
                0.26622454771256665,
                -1.3818930886059584,
                0.08865333296241146
            ]
        },
        {
            "positions": [
                0.8908786802732334,
                -1.061788179940684,
                -0.9072351407865218,
                0.40582266677337997,
                -1.3673504882674883,
                0.06147130418064317
            ]
        },
        {
            "positions": [
                0.7616841187596799,
                -1.0487487899295604,
                -0.8349220419770544,
                0.5454207858341931,
                -1.3528078879290182,
                0.03428927539887494
            ]
        },
        {
            "positions": [
                0.6324895572461262,
                -1.0357093999184368,
                -0.7626089431675869,
                0.6850189048950066,
                -1.338265287590548,
                0.0071072466171065996
            ]
        },
        {
            "positions": [
                0.5032949957325723,
                -1.0226700099073134,
                -0.6902958443581193,
                0.8246170239558201,
                -1.323722687252078,
                -0.020074782164661686
            ]
        },
        {
            "positions": [
                0.37410043421901884,
                -1.0096306198961897,
                -0.617982745548652,
                0.9642151430166328,
                -1.3091800869136079,
                -0.04725681094642992
            ]
        },
        {
            "positions": [
                0.24490587270546538,
                -0.9965912298850661,
                -0.5456696467391844,
                1.1038132620774463,
                -1.2946374865751376,
                -0.0744388397281982
            ]
        },
        {
            "positions": [
                0.11571131119191147,
                -0.9835518398739426,
                -0.4733565479297168,
                1.2434113811382599,
                -1.2800948862366675,
                -0.10162086850996654
            ]
        },
        {
            "positions": [
                -0.013483250321641993,
                -0.970512449862819,
                -0.4010434491202495,
                1.383009500199073,
                -1.2655522858981973,
                -0.12880289729173477
            ]
        },
        {
            "positions": [
                -0.1426778118351959,
                -0.9574730598516954,
                -0.3287303503107819,
                1.5226076192598865,
                -1.251009685559727,
                -0.15598492607350312
            ]
        },
        {
            "positions": [
                -0.27187237334874936,
                -0.9444336698405719,
                -0.25641725150131434,
                1.6622057383206996,
                -1.236467085221257,
                -0.18316695485527135
            ]
        },
        {
            "positions": [
                -0.4010669348623028,
                -0.9313942798294483,
                -0.184104152691847,
                1.8018038573815127,
                -1.2219244848827868,
                -0.21034898363703958
            ]
        },
        {
            "positions": [
                -0.530261496375857,
                -0.9183548898183247,
                -0.1117910538823794,
                1.9414019764423265,
                -1.2073818845443167,
                -0.23753101241880792
            ]
        },
        {
            "positions": [
                -0.4709684254958997,
                -0.9053470988503465,
                0.07926066743730292,
                1.937961917023029,
                -1.1092705659694864,
                -0.21288728402077017
            ]
        },
        {
            "positions": [
                -0.41167535461594246,
                -0.8923393078823681,
                0.27031238875698527,
                1.934521857603731,
                -1.011159247394656,
                -0.1882435556227324
            ]
        },
        {
            "positions": [
                -0.35238228373598524,
                -0.8793315169143899,
                0.46136411007666744,
                1.9310817981844335,
                -0.9130479288198259,
                -0.16359982722469465
            ]
        },
        {
            "positions": [
                -0.29308921285602796,
                -0.8663237259464117,
                0.6524158313963498,
                1.9276417387651357,
                -0.8149366102449955,
                -0.13895609882665688
            ]
        },
        {
            "positions": [
                -0.23379614197607068,
                -0.8533159349784335,
                0.8434675527160321,
                1.924201679345838,
                -0.7168252916701652,
                -0.11431237042861915
            ]
        },
        {
            "positions": [
                -0.17450307109611346,
                -0.8403081440104552,
                1.0345192740357143,
                1.9207616199265403,
                -0.6187139730953349,
                -0.08966864203058139
            ]
        },
        {
            "positions": [
                -0.11521000021615618,
                -0.827300353042477,
                1.2255709953553968,
                1.9173215605072427,
                -0.5206026545205046,
                -0.06502491363254365
            ]
        },
        {
            "positions": [
                -0.055916929336198906,
                -0.8142925620744987,
                1.416622716675079,
                1.9138815010879449,
                -0.42249133594567423,
                -0.04038118523450587
            ]
        },
        {
            "positions": [
                0.0033761415437584263,
                -0.8012847711065205,
                1.6076744379947614,
                1.9104414416686473,
                -0.3243800173708439,
                -0.0157374568364681
            ]
        },
        {
            "positions": [
                0.06266921242371559,
                -0.7882769801385422,
                1.7987261593144437,
                1.9070013822493495,
                -0.22626869879601363,
                0.008906271561569618
            ]
        },
        {
            "positions": [
                0.12196228330367291,
                -0.775269189170564,
                1.989777880634126,
                1.9035613228300519,
                -0.12815738022118325,
                0.03354999995960739
            ]
        }
    ]
}