{
    "goal": {
        "global_pose": {
            "orientation": {
                "w": 0.5084816262002911,
                "x": -0.4908360881923452,
                "y": 0.5182115481033761,
                "z": -0.48164630358495003
            },
            "position": {
                "x": 0.5540239810943604,
                "y": -0.46912469901144505,
                "z": 0.16403168439865112
            }
        },
        "name": "move_to_storage_B"
    },
    "id": "LBKPIECE_move_to_storage_B_148",
    "joint_names": [
        "shoulder_pan_joint",
        "shoulder_lift_joint",
        "elbow_joint",
        "wrist_1_joint",
        "wrist_2_joint",
        "wrist_3_joint"
    ],
    "metrics": {
        "cart_traj_len": 0.7736878453227224,
        "distance_elbow_joint": 0.45922993724395766,
        "distance_shoulder_lift_joint": 0.4584681014153609,
        "distance_shoulder_pan_joint": 0.473825912317723,
        "distance_wrist_1_joint": 2.9878142975457616,
        "distance_wrist_2_joint": 2.717047329050469,
        "distance_wrist_3_joint": 3.178980215563335,
        "smoothness": 0.22625390171833418,
        "time": 0.415816579,
        "traj_len": 3.2055211422070835,
        "weighted_distance": 4.726329215242999
    },
    "planner": "LBKPIECE",
    "start": {
        "state": {
            "elbow_joint": 1.664937868594044,
            "shoulder_lift_joint": -0.661644460510453,
            "shoulder_pan_joint": -0.9139846352900073,
            "wrist_1_joint": 2.146753192139373,
            "wrist_2_joint": -2.2341966793290973,
            "wrist_3_joint": 0.005466555786416001
        }
    },
    "waypoints": [
        {
            "positions": [
                -0.9139846352900073,
                -0.661644460510453,
                1.664937868594044,
                2.146753192139373,
                -2.2341966793290973,
                0.005466555786416001
            ]
        },
        {
            "positions": [
                -0.8991843151596816,
                -0.6839252968441664,
                1.6654013665316274,
                2.11971954416331,
                -2.194289985932926,
                0.01749310685036284
            ]
        },
        {
            "positions": [
                -0.7678895598668092,
                -0.7947924577627214,
                1.6100438065964702,
                2.1205501878355832,
                -2.2019579547773422,
                0.029358601542472496
            ]
        },
        {
            "positions": [
                -0.7809987933425901,
                -0.8078052619292452,
                1.6261801617713187,
                2.002152187599686,
                -2.095179048104947,
                -0.09684492524981864
            ]
        },
        {
            "positions": [
                -0.7941080268183711,
                -0.8208180660957688,
                1.6423165169461675,
                1.8837541873637893,
                -1.9884001414325518,
                -0.22304845204210977
            ]
        },
        {
            "positions": [
                -0.8072172602941522,
                -0.8338308702622925,
                1.658452872121016,
                1.7653561871278922,
                -1.8816212347601564,
                -0.34925197883440084
            ]
        },
        {
            "positions": [
                -0.8203264937699332,
                -0.8468436744288163,
                1.674589227295865,
                1.6469581868919954,
                -1.7748423280877612,
                -0.47545550562669203
            ]
        },
        {
            "positions": [
                -0.8334357272457141,
                -0.85985647859534,
                1.6907255824707135,
                1.5285601866560983,
                -1.6680634214153658,
                -0.6016590324189832
            ]
        },
        {
            "positions": [
                -0.8465449607214951,
                -0.8728692827618636,
                1.7068619376455623,
                1.4101621864202012,
                -1.5612845147429706,
                -0.7278625592112742
            ]
        },
        {
            "positions": [
                -0.8596541941972762,
                -0.8858820869283873,
                1.7229982928204108,
                1.291764186184304,
                -1.4545056080705754,
                -0.8540660860035655
            ]
        },
        {
            "positions": [
                -0.8727634276730571,
                -0.898894891094911,
                1.7391346479952596,
                1.1733661859484072,
                -1.3477267013981802,
                -0.9802696127958566
            ]
        },
        {
            "positions": [
                -0.8858726611488381,
                -0.9119076952614347,
                1.7552710031701082,
                1.0549681857125104,
                -1.240947794725785,
                -1.1064731395881475
            ]
        },
        {
            "positions": [
                -0.8989818946246191,
                -0.9249204994279584,
                1.771407358344957,
                0.9365701854766133,
                -1.1341688880533896,
                -1.232676666380439
            ]
        },
        {
            "positions": [
                -0.9120911281004002,
                -0.9379333035944821,
                1.7875437135198056,
                0.8181721852407162,
                -1.0273899813809944,
                -1.35888019317273
            ]
        },
        {
            "positions": [
                -0.9252003615761811,
                -0.9509461077610057,
                1.8036800686946544,
                0.6997741850048194,
                -0.9206110747085992,
                -1.4850837199650209
            ]
        },
        {
            "positions": [
                -0.9383095950519621,
                -0.9639589119275296,
                1.819816423869503,
                0.5813761847689223,
                -0.813832168036204,
                -1.6112872467573123
            ]
        },
        {
            "positions": [
                -0.9514188285277432,
                -0.9769717160940532,
                1.8359527790443517,
                0.4629781845330252,
                -0.7070532613638085,
                -1.7374907735496035
            ]
        },
        {
            "positions": [
                -0.9645280620035241,
                -0.9899845202605769,
                1.8520891342192003,
                0.34458018429712833,
                -0.6002743546914135,
                -1.8636943003418942
            ]
        },
        {
            "positions": [
                -0.9776372954793051,
                -1.0029973244271007,
                1.868225489394049,
                0.22618218406123125,
                -0.4934954480190181,
                -1.9898978271341856
            ]
        },
        {
            "positions": [
                -0.9907465289550861,
                -1.0160101285936243,
                1.8843618445688977,
                0.10778418382533417,
                -0.3867165413466227,
                -2.1161013539264766
            ]
        },
        {
            "positions": [
                -1.003855762430867,
                -1.0290229327601481,
                1.9004981997437462,
                -0.010613816410562471,
                -0.2799376346742277,
                -2.2423048807187675
            ]
        },
        {
            "positions": [
                -1.016964995906648,
                -1.0420357369266717,
                1.916634554918595,
                -0.12901181664645955,
                -0.17315872800183252,
                -2.368508407511059
            ]
        },
        {
            "positions": [
                -1.030074229382429,
                -1.0550485410931953,
                1.9327709100934438,
                -0.24740981688235664,
                -0.06637982132943687,
                -2.4947119343033504
            ]
        },
        {
            "positions": [
                -1.04318346285821,
                -1.0680613452597192,
                1.9489072652682924,
                -0.3658078171182537,
                0.040399085342957886,
                -2.620915461095641
            ]
        },
        {
            "positions": [
                -1.0562926963339911,
                -1.0810741494262428,
                1.965043620443141,
                -0.4842058173541508,
                0.14717799201535353,
                -2.7471189878879323
            ]
        },
        {
            "positions": [
                -1.0694019298097721,
                -1.0940869535927664,
                1.9811799756179898,
                -0.6026038175900479,
                0.25395689868774873,
                -2.8733225146802237
            ]
        },
        {
            "positions": [
                -1.082511163285553,
                -1.1070997577592903,
                1.9973163307928385,
                -0.7210018178259445,
                0.36073580536014394,
                -2.9995260414725142
            ]
        },
        {
            "positions": [
                -1.095620396761334,
                -1.1201125619258139,
                2.013452685967687,
                -0.8393998180618416,
                0.46751471203253914,
                -3.1257295682648056
            ]
        }
    ]
}