{
    "goal": {
        "global_pose": {
            "orientation": {
                "w": 0.005598929693374612,
                "x": 0.007748599140229565,
                "y": 0.7110244013736278,
                "z": -0.7031023480610252
            },
            "position": {
                "x": -0.8858502320852131,
                "y": -0.7141253447532654,
                "z": 0.3711530566215515
            }
        },
        "name": "move_to_auspresseinheit_C"
    },
    "id": "LBKPIECE_move_to_auspresseinheit_C_56",
    "joint_names": [
        "shoulder_pan_joint",
        "shoulder_lift_joint",
        "elbow_joint",
        "wrist_1_joint",
        "wrist_2_joint",
        "wrist_3_joint"
    ],
    "metrics": {
        "cart_traj_len": 0.4942333927527003,
        "distance_elbow_joint": 1.0096759445983698,
        "distance_shoulder_lift_joint": 0.32856048233367674,
        "distance_shoulder_pan_joint": 0.2569736273481764,
        "distance_wrist_1_joint": 0.7026514609899185,
        "distance_wrist_2_joint": 1.303484176646715,
        "distance_wrist_3_joint": 0.07002529575901839,
        "smoothness": 1.6148698667872622e-16,
        "time": 0.621346759,
        "traj_len": 1.9160821975259503,
        "weighted_distance": 2.411961280126724
    },
    "planner": "LBKPIECE",
    "start": {
        "state": {
            "elbow_joint": 1.7527959577737207,
            "shoulder_lift_joint": -0.9740617694225068,
            "shoulder_pan_joint": -2.967991417825858,
            "wrist_1_joint": -0.759517768980727,
            "wrist_2_joint": 1.7443932448377408,
            "wrist_3_joint": -3.0840537646736568
        }
    },
    "waypoints": [
        {
            "positions": [
                -2.967991417825858,
                -0.9740617694225068,
                1.7527959577737207,
                -0.759517768980727,
                1.7443932448377408,
                -3.0840537646736568
            ]
        },
        {
            "positions": [
                -2.94229405509104,
                -0.9412057211891391,
                1.6518283633138837,
                -0.6892526228817352,
                1.6140448271730694,
                -3.0910562942495585
            ]
        },
        {
            "positions": [
                -2.9165966923562228,
                -0.9083496729557714,
                1.5508607688540468,
                -0.6189874767827432,
                1.4836964095083978,
                -3.0980588238254603
            ]
        },
        {
            "positions": [
                -2.890899329621405,
                -0.8754936247224038,
                1.4498931743942096,
                -0.5487223306837514,
                1.3533479918437263,
                -3.1050613534013625
            ]
        },
        {
            "positions": [
                -2.8652019668865876,
                -0.842637576489036,
                1.3489255799343727,
                -0.47845718458475955,
                1.2229995741790547,
                -3.112063882977264
            ]
        },
        {
            "positions": [
                -2.8395046041517698,
                -0.8097815282556684,
                1.2479579854745357,
                -0.40819203848576774,
                1.0926511565143833,
                -3.119066412553166
            ]
        },
        {
            "positions": [
                -2.813807241416952,
                -0.7769254800223008,
                1.1469903910146988,
                -0.3379268923867759,
                0.962302738849712,
                -3.1260689421290677
            ]
        },
        {
            "positions": [
                -2.7881098786821346,
                -0.744069431788933,
                1.0460227965548619,
                -0.26766174628778405,
                0.8319543211850404,
                -3.1330714717049695
            ]
        },
        {
            "positions": [
                -2.7624125159473167,
                -0.7112133835555654,
                0.9450552020950247,
                -0.19739660018879213,
                0.7016059035203688,
                -3.1400740012808717
            ]
        },
        {
            "positions": [
                -2.7367151532124994,
                -0.6783573353221977,
                0.8440876076351878,
                -0.1271314540898003,
                0.5712574858556974,
                -3.1470765308567734
            ]
        },
        {
            "positions": [
                -2.7110177904776815,
                -0.64550128708883,
                0.7431200131753508,
                -0.05686630799080846,
                0.44090906819102593,
                -3.154079060432675
            ]
        }
    ]
}