{
    "goal": {
        "global_pose": {
            "orientation": {
                "w": 0.7031023480610252,
                "x": -0.7110244013736278,
                "y": 0.0077485991402295624,
                "z": 0.005598929693374583
            },
            "position": {
                "x": -0.8841497679147869,
                "y": 0.44412534475326537,
                "z": 0.3711530566215515
            }
        },
        "name": "move_to_auspresseinheit_D"
    },
    "id": "LBKPIECE_move_to_auspresseinheit_D_63",
    "joint_names": [
        "shoulder_pan_joint",
        "shoulder_lift_joint",
        "elbow_joint",
        "wrist_1_joint",
        "wrist_2_joint",
        "wrist_3_joint"
    ],
    "metrics": {
        "cart_traj_len": 0.3434075195725359,
        "distance_elbow_joint": 0.6350050732921368,
        "distance_shoulder_lift_joint": 0.11930578291838723,
        "distance_shoulder_pan_joint": 0.13414647665016072,
        "distance_wrist_1_joint": 0.5144367680090065,
        "distance_wrist_2_joint": 1.44936090507422,
        "distance_wrist_3_joint": 0.009025922442071455,
        "smoothness": 0.0,
        "time": 0.46187306100000003,
        "traj_len": 1.6915321245503976,
        "weighted_distance": 2.2007113500760047
    },
    "planner": "LBKPIECE",
    "start": {
        "state": {
            "elbow_joint": -1.8275523626775212,
            "shoulder_lift_joint": -2.126789852344167,
            "shoulder_pan_joint": -0.03513704404078235,
            "wrist_1_joint": -2.347782403156801,
            "wrist_2_joint": -1.6058999987535132,
            "wrist_3_joint": -3.0880379163319196
        }
    },
    "waypoints": [
        {
            "positions": [
                -0.03513704404078235,
                -2.126789852344167,
                -1.8275523626775212,
                -2.347782403156801,
                -1.6058999987535132,
                -3.0880379163319196
            ]
        },
        {
            "positions": [
                -0.05190535362205244,
                -2.1417030752089654,
                -1.7481767285160041,
                -2.4120869991579266,
                -1.4247298856192356,
                -3.0891661566371784
            ]
        },
        {
            "positions": [
                -0.06867366320332252,
                -2.1566162980737635,
                -1.668801094354487,
                -2.4763915951590523,
                -1.243559772484958,
                -3.0902943969424372
            ]
        },
        {
            "positions": [
                -0.08544197278459262,
                -2.171529520938562,
                -1.5894254601929698,
                -2.5406961911601784,
                -1.0623896593506807,
                -3.0914226372476965
            ]
        },
        {
            "positions": [
                -0.10221028236586271,
                -2.1864427438033607,
                -1.5100498260314528,
                -2.605000787161304,
                -0.8812195462164032,
                -3.0925508775529553
            ]
        },
        {
            "positions": [
                -0.11897859194713281,
                -2.201355966668159,
                -1.4306741918699357,
                -2.66930538316243,
                -0.7000494330821256,
                -3.093679117858214
            ]
        },
        {
            "positions": [
                -0.13574690152840288,
                -2.2162691895329574,
                -1.3512985577084184,
                -2.733609979163556,
                -0.5188793199478483,
                -3.0948073581634734
            ]
        },
        {
            "positions": [
                -0.15251521110967298,
                -2.2311824123977555,
                -1.2719229235469014,
                -2.7979145751646817,
                -0.33770920681357075,
                -3.0959355984687322
            ]
        },
        {
            "positions": [
                -0.16928352069094307,
                -2.246095635262554,
                -1.1925472893853843,
                -2.8622191711658074,
                -0.15653909367929322,
                -3.097063838773991
            ]
        }
    ]
}