{
    "goal": {
        "global_pose": {
            "orientation": {
                "w": 0.7047431468963623,
                "x": -0.7094548344612122,
                "y": 0.0024358443915843964,
                "z": -0.0022348060738295317
            },
            "position": {
                "x": 0.6094750761985779,
                "y": 0.3671506643295288,
                "z": 0.19426114857196808
            }
        },
        "name": "move_to_magneteinheit_A"
    },
    "id": "LBKPIECE_move_to_magneteinheit_A_122",
    "joint_names": [
        "shoulder_pan_joint",
        "shoulder_lift_joint",
        "elbow_joint",
        "wrist_1_joint",
        "wrist_2_joint",
        "wrist_3_joint"
    ],
    "metrics": {
        "cart_traj_len": 3.715373567612057,
        "distance_elbow_joint": 3.8774972132297965,
        "distance_shoulder_lift_joint": 0.11318962587122439,
        "distance_shoulder_pan_joint": 3.448638099788023,
        "distance_wrist_1_joint": 1.0258162176740773,
        "distance_wrist_2_joint": 1.7099397322521426,
        "distance_wrist_3_joint": 2.583575889842565,
        "smoothness": 0.1960598399582379,
        "time": 0.204610437,
        "traj_len": 3.5719262000575864,
        "weighted_distance": 4.545499368415882
    },
    "planner": "LBKPIECE",
    "start": {
        "state": {
            "elbow_joint": -1.9196185241190666,
            "shoulder_lift_joint": -1.2443396400964142,
            "shoulder_pan_joint": 2.6996025414629847,
            "wrist_1_joint": -1.5485510000780065,
            "wrist_2_joint": -1.5709468930060704,
            "wrist_3_joint": 0.4420197071253992
        }
    },
    "waypoints": [
        {
            "positions": [
                2.6996025414629847,
                -1.2443396400964142,
                -1.9196185241190666,
                -1.5485510000780065,
                -1.5709468930060704,
                0.4420197071253992
            ]
        },
        {
            "positions": [
                2.583756291945251,
                -1.2440762674186958,
                -1.8000675903893673,
                -1.5127908312596987,
                -1.512484671416885,
                0.5045248651691445
            ]
        },
        {
            "positions": [
                2.467910042427517,
                -1.2438128947409774,
                -1.6805166566596679,
                -1.4770306624413907,
                -1.4540224498276997,
                0.5670300232128898
            ]
        },
        {
            "positions": [
                2.352063792909783,
                -1.243549522063259,
                -1.5609657229299685,
                -1.441270493623083,
                -1.3955602282385144,
                0.6295351812566352
            ]
        },
        {
            "positions": [
                2.236217543392049,
                -1.2432861493855405,
                -1.441414789200269,
                -1.4055103248047751,
                -1.337098006649329,
                0.6920403393003804
            ]
        },
        {
            "positions": [
                2.120371293874315,
                -1.2430227767078221,
                -1.3218638554705697,
                -1.369750155986467,
                -1.2786357850601435,
                0.7545454973441258
            ]
        },
        {
            "positions": [
                2.004525044356581,
                -1.2427594040301038,
                -1.2023129217408703,
                -1.3339899871681593,
                -1.2201735634709583,
                0.8170506553878711
            ]
        },
        {
            "positions": [
                1.8886787948388473,
                -1.2424960313523854,
                -1.082761988011171,
                -1.2982298183498515,
                -1.161711341881773,
                0.8795558134316164
            ]
        },
        {
            "positions": [
                1.7728325453211131,
                -1.242232658674667,
                -0.9632110542814716,
                -1.2624696495315435,
                -1.1032491202925876,
                0.9420609714753617
            ]
        },
        {
            "positions": [
                1.6569862958033792,
                -1.2419692859969487,
                -0.8436601205517722,
                -1.2267094807132357,
                -1.0447868987034021,
                1.004566129519107
            ]
        },
        {
            "positions": [
                1.5411400462856453,
                -1.24170591331923,
                -0.7241091868220728,
                -1.190949311894928,
                -0.9863246771142169,
                1.0670712875628525
            ]
        },
        {
            "positions": [
                1.4252937967679113,
                -1.2414425406415117,
                -0.6045582530923734,
                -1.15518914307662,
                -0.9278624555250315,
                1.1295764456065975
            ]
        },
        {
            "positions": [
                1.3094475472501774,
                -1.2411791679637934,
                -0.48500731936267405,
                -1.1194289742583121,
                -0.8694002339358462,
                1.192081603650343
            ]
        },
        {
            "positions": [
                1.1936012977324435,
                -1.240915795286075,
                -0.36545638563297467,
                -1.0836688054400043,
                -0.8109380123466609,
                1.2545867616940884
            ]
        },
        {
            "positions": [
                1.0777550482147096,
                -1.2406524226083566,
                -0.24590545190327529,
                -1.0479086366216963,
                -0.7524757907574755,
                1.3170919197378335
            ]
        },
        {
            "positions": [
                0.9619087986969759,
                -1.2403890499306383,
                -0.12635451817357612,
                -1.0121484678033887,
                -0.6940135691682903,
                1.379597077781579
            ]
        },
        {
            "positions": [
                0.8460625491792415,
                -1.2401256772529199,
                -0.00680358444387652,
                -0.9763882989850806,
                -0.6355513475791048,
                1.4421022358253244
            ]
        },
        {
            "positions": [
                0.7302162996615078,
                -1.2398623045752013,
                0.11274734928582308,
                -0.9406281301667728,
                -0.5770891259899195,
                1.5046073938690698
            ]
        },
        {
            "positions": [
                0.6143700501437737,
                -1.239598931897483,
                0.23229828301552224,
                -0.9048679613484649,
                -0.5186269044007341,
                1.5671125519128148
            ]
        },
        {
            "positions": [
                0.4985238006260402,
                -1.2393355592197646,
                0.3518492167452214,
                -0.8691077925301571,
                -0.4601646828115489,
                1.6296177099565603
            ]
        },
        {
            "positions": [
                0.3826775511083058,
                -1.2390721865420462,
                0.471400150474921,
                -0.8333476237118492,
                -0.4017024612223634,
                1.6921228680003058
            ]
        },
        {
            "positions": [
                0.2668313015905719,
                -1.2388088138643278,
                0.5909510842046206,
                -0.7975874548935413,
                -0.34324023963317796,
                1.7546280260440508
            ]
        },
        {
            "positions": [
                0.15098505207283797,
                -1.2385454411866095,
                0.7105020179343198,
                -0.7618272860752335,
                -0.2847780180439927,
                1.8171331840877962
            ]
        },
        {
            "positions": [
                0.03513880255510404,
                -1.2382820685088909,
                0.8300529516640189,
                -0.7260671172569256,
                -0.22631579645480748,
                1.8796383421315417
            ]
        },
        {
            "positions": [
                -0.08070744696262988,
                -1.2380186958311725,
                0.9496038853937185,
                -0.6903069484386177,
                -0.16785357486562202,
                1.9421435001752871
            ]
        },
        {
            "positions": [
                -0.1965536964803638,
                -1.2377553231534542,
                1.0691548191234181,
                -0.6545467796203098,
                -0.10939135327643656,
                2.004648658219032
            ]
        },
        {
            "positions": [
                -0.3123999459980979,
                -1.2374919504757358,
                1.1887057528531173,
                -0.618786610802002,
                -0.050929131687251404,
                2.0671538162627776
            ]
        },
        {
            "positions": [
                -0.25002342995139204,
                -1.2223002452970864,
                1.298587600889919,
                -0.6325083005731553,
                -0.023797421553919545,
                2.204074070649233
            ]
        },
        {
            "positions": [
                -0.18764691390468624,
                -1.207108540118437,
                1.4084694489267209,
                -0.6462299903443085,
                0.0033342885794123145,
                2.340994325035688
            ]
        },
        {
            "positions": [
                -0.1252703978579804,
                -1.1919168349397875,
                1.5183512969635227,
                -0.6599516801154618,
                0.03046599871274417,
                2.4779145794221433
            ]
        },
        {
            "positions": [
                -0.06289388181127456,
                -1.176725129761138,
                1.6282331450003245,
                -0.673673369886615,
                0.05759770884607603,
                2.6148348338085987
            ]
        },
        {
            "positions": [
                -0.000517365764568678,
                -1.1615334245824886,
                1.7381149930371265,
                -0.6873950596577683,
                0.08472941897940789,
                2.751755088195054
            ]
        },
        {
            "positions": [
                0.06185915028213712,
                -1.1463417194038392,
                1.847996841073928,
                -0.7011167494289214,
                0.11186112911273974,
                2.888675342581509
            ]
        },
        {
            "positions": [
                0.12423566632884299,
                -1.1311500142251898,
                1.95787868911073,
                -0.7148384392000747,
                0.13899283924607161,
                3.0255955969679644
            ]
        }
    ]
}