{
    "goal": {
        "global_pose": {
            "orientation": {
                "w": 0.005598929693374612,
                "x": 0.007748599140229565,
                "y": 0.7110244013736278,
                "z": -0.7031023480610252
            },
            "position": {
                "x": -0.8858502320852131,
                "y": -0.7141253447532654,
                "z": 0.3711530566215515
            }
        },
        "name": "move_to_auspresseinheit_C"
    },
    "id": "LBKPIECE_move_to_auspresseinheit_C_80",
    "joint_names": [
        "shoulder_pan_joint",
        "shoulder_lift_joint",
        "elbow_joint",
        "wrist_1_joint",
        "wrist_2_joint",
        "wrist_3_joint"
    ],
    "metrics": {
        "cart_traj_len": 0.5026502541130824,
        "distance_elbow_joint": 0.9878259815701101,
        "distance_shoulder_lift_joint": 0.3186540115160089,
        "distance_shoulder_pan_joint": 0.25985546965229567,
        "distance_wrist_1_joint": 0.6549702323025269,
        "distance_wrist_2_joint": 1.41581228389164,
        "distance_wrist_3_joint": 0.03621743788666709,
        "smoothness": 1.7692644412616172,
        "time": 0.6513063610000001,
        "traj_len": 1.9165947450672112,
        "weighted_distance": 2.411753057173713
    },
    "planner": "LBKPIECE",
    "start": {
        "state": {
            "elbow_joint": 1.7527959577737207,
            "shoulder_lift_joint": -0.9740617694225068,
            "shoulder_pan_joint": -2.967991417825858,
            "wrist_1_joint": -0.759517768980727,
            "wrist_2_joint": 1.7443932448377408,
            "wrist_3_joint": -3.0840537646736568
        }
    },
    "waypoints": [
        {
            "positions": [
                -2.967991417825858,
                -0.9740617694225068,
                1.7527959577737207,
                -0.759517768980727,
                1.7443932448377408,
                -3.0840537646736568
            ]
        },
        {
            "positions": [
                -2.9421726541181323,
                -0.9426001520667608,
                1.6546379874892168,
                -0.6941672909624217,
                1.6085007628443402,
                -3.0874089038959154
            ]
        },
        {
            "positions": [
                -2.9163538904104067,
                -0.9111385347110149,
                1.5564800172047129,
                -0.6288168129441163,
                1.4726082808509398,
                -3.090764043118174
            ]
        },
        {
            "positions": [
                -2.890535126702681,
                -0.8796769173552691,
                1.458322046920209,
                -0.563466334925811,
                1.336715798857539,
                -3.094119182340433
            ]
        },
        {
            "positions": [
                -2.8647163629949555,
                -0.8482152999995232,
                1.360164076635705,
                -0.49811585690750565,
                1.2008233168641387,
                -3.0974743215626916
            ]
        },
        {
            "positions": [
                -2.83889759928723,
                -0.8167536826437772,
                1.2620061063512014,
                -0.4327653788892003,
                1.064930834870738,
                -3.1008294607849503
            ]
        },
        {
            "positions": [
                -2.8130788355795042,
                -0.7852920652880313,
                1.1638481360666975,
                -0.36741490087089496,
                0.9290383528773375,
                -3.104184600007209
            ]
        },
        {
            "positions": [
                -2.7872600718717786,
                -0.7538304479322855,
                1.0656901657821936,
                -0.30206442285258966,
                0.793145870883937,
                -3.1075397392294675
            ]
        },
        {
            "positions": [
                -2.761441308164053,
                -0.7223688305765394,
                0.9675321954976897,
                -0.23671394483428432,
                0.6572533888905363,
                -3.1108948784517265
            ]
        },
        {
            "positions": [
                -2.7356225444563274,
                -0.6909072132207936,
                0.8693742252131859,
                -0.17136346681597892,
                0.5213609068971357,
                -3.114250017673985
            ]
        },
        {
            "positions": [
                -2.7098037807486017,
                -0.6594455958650477,
                0.771216254928682,
                -0.10601298879767362,
                0.38546842490373523,
                -3.1176051568962437
            ]
        },
        {
            "positions": [
                -2.711471613323641,
                -0.6554077579064979,
                0.7649699762036105,
                -0.1045475366782,
                0.4423558888613696,
                -3.120271202560324
            ]
        }
    ]
}