{
    "goal": {
        "global_pose": {
            "orientation": {
                "w": -0.00223480608172531,
                "x": 0.0024358444001904467,
                "y": 0.7094548369677653,
                "z": -0.704743149386269
            },
            "position": {
                "x": -0.37947507619857795,
                "y": -0.6371506643295288,
                "z": 0.19426114857196808
            }
        },
        "name": "move_to_magneteinheit_C"
    },
    "id": "LBKPIECE_move_to_magneteinheit_C_142",
    "joint_names": [
        "shoulder_pan_joint",
        "shoulder_lift_joint",
        "elbow_joint",
        "wrist_1_joint",
        "wrist_2_joint",
        "wrist_3_joint"
    ],
    "metrics": {
        "cart_traj_len": 2.439837730371577,
        "distance_elbow_joint": 1.130325805857538,
        "distance_shoulder_lift_joint": 1.020502356373545,
        "distance_shoulder_pan_joint": 2.4268424890887883,
        "distance_wrist_1_joint": 2.257834498056029,
        "distance_wrist_2_joint": 5.141823011125,
        "distance_wrist_3_joint": 2.7952081253468224,
        "smoothness": 1.626324060500972,
        "time": 0.35157196599999996,
        "traj_len": 3.8435057286086787,
        "weighted_distance": 5.269023633057874
    },
    "planner": "LBKPIECE",
    "start": {
        "state": {
            "elbow_joint": 1.9565354010623817,
            "shoulder_lift_joint": -1.4165861575791021,
            "shoulder_pan_joint": -1.6717766225146293,
            "wrist_1_joint": -0.5286633292919765,
            "wrist_2_joint": 1.472756589071564,
            "wrist_3_joint": -3.1238370188695823
        }
    },
    "waypoints": [
        {
            "positions": [
                -1.6717766225146293,
                -1.4165861575791021,
                1.9565354010623817,
                -0.5286633292919765,
                1.472756589071564,
                -3.1238370188695823
            ]
        },
        {
            "positions": [
                -1.663089822468875,
                -1.4810730673500112,
                1.9797062636835745,
                -0.6292330116329113,
                1.5062005364282323,
                -3.05419135083156
            ]
        },
        {
            "positions": [
                -1.654403022423121,
                -1.5455599771209205,
                2.0028771263047673,
                -0.7298026939738462,
                1.5396444837849008,
                -2.984545682793538
            ]
        },
        {
            "positions": [
                -1.6209898208792513,
                -1.5986157508947456,
                1.9817264520009814,
                -0.82286428151326,
                1.5554120493257797,
                -2.859776279219153
            ]
        },
        {
            "positions": [
                -1.5875766193353817,
                -1.6516715246685707,
                1.9605757776971953,
                -0.9159258690526737,
                1.5711796148666588,
                -2.735006875644768
            ]
        },
        {
            "positions": [
                -1.554163417791512,
                -1.7047272984423958,
                1.9394251033934093,
                -1.0089874565920876,
                1.5869471804075377,
                -2.610237472070383
            ]
        },
        {
            "positions": [
                -1.5778392240538244,
                -1.6568733814836771,
                1.9056564905262605,
                -0.9351592794109256,
                1.4077684289492016,
                -2.6002412336469525
            ]
        },
        {
            "positions": [
                -1.6015150303161367,
                -1.6090194645249587,
                1.8718878776591117,
                -0.8613311022297635,
                1.2285896774908656,
                -2.5902449952235216
            ]
        },
        {
            "positions": [
                -1.625190836578449,
                -1.56116554756624,
                1.8381192647919629,
                -0.7875029250486015,
                1.0494109260325295,
                -2.580248756800091
            ]
        },
        {
            "positions": [
                -1.6488666428407615,
                -1.5133116306075216,
                1.804350651924814,
                -0.7136747478674395,
                0.8702321745741934,
                -2.5702525183766607
            ]
        },
        {
            "positions": [
                -1.672542449103074,
                -1.465457713648803,
                1.7705820390576652,
                -0.6398465706862775,
                0.6910534231158574,
                -2.56025627995323
            ]
        },
        {
            "positions": [
                -1.6962182553653864,
                -1.4176037966900845,
                1.7368134261905164,
                -0.5660183935051155,
                0.5118746716575213,
                -2.5502600415297993
            ]
        },
        {
            "positions": [
                -1.7198940616276988,
                -1.3697498797313659,
                1.7030448133233675,
                -0.49219021632395343,
                0.33269592019918526,
                -2.540263803106369
            ]
        },
        {
            "positions": [
                -1.7435698678900111,
                -1.3218959627726474,
                1.6692762004562187,
                -0.41836203914279146,
                0.1535171687408492,
                -2.530267564682938
            ]
        },
        {
            "positions": [
                -1.7672456741523235,
                -1.2740420458139288,
                1.6355075875890699,
                -0.3445338619616294,
                -0.02566158271748696,
                -2.5202713262595076
            ]
        },
        {
            "positions": [
                -1.8591082047742806,
                -1.2595124862748948,
                1.7443813921688909,
                -0.37445641208984043,
                -0.03999962493075816,
                -2.6516072061796407
            ]
        },
        {
            "positions": [
                -1.950970735396238,
                -1.2449829267358608,
                1.8532551967487119,
                -0.4043789622180515,
                -0.054337667144029364,
                -2.782943086099774
            ]
        },
        {
            "positions": [
                -2.025922015514336,
                -1.2370898413147802,
                1.934785485529258,
                -0.4517208754770612,
                -0.0011387781206120343,
                -2.8824749949433413
            ]
        },
        {
            "positions": [
                -2.1008732956324345,
                -1.2291967558936994,
                2.0163157743098044,
                -0.4990627887360709,
                0.052060110902805296,
                -2.9820069037869086
            ]
        },
        {
            "positions": [
                -2.1772520494704857,
                -1.2210749286931746,
                2.0932713691839475,
                -0.5501672427730755,
                0.11586402982248173,
                -3.0786500169695157
            ]
        },
        {
            "positions": [
                -2.2598912737876966,
                -1.2289425141647454,
                2.1004048965354363,
                -0.5991432818079164,
                0.2730311459707669,
                -3.0138966068783817
            ]
        },
        {
            "positions": [
                -2.3425304981049075,
                -1.236810099636316,
                2.107538423886925,
                -0.6481193208427574,
                0.43019826211905204,
                -2.9491431967872472
            ]
        },
        {
            "positions": [
                -2.425169722422118,
                -1.2446776851078867,
                2.114671951238414,
                -0.6970953598775983,
                0.5873653782673373,
                -2.8843897866961132
            ]
        },
        {
            "positions": [
                -2.507808946739329,
                -1.2525452705794575,
                2.1218054785899025,
                -0.7460713989124392,
                0.7445324944156224,
                -2.819636376604979
            ]
        },
        {
            "positions": [
                -2.59044817105654,
                -1.2604128560510284,
                2.1289390059413913,
                -0.7950474379472802,
                0.9016996105639077,
                -2.754882966513845
            ]
        },
        {
            "positions": [
                -2.6730873953737504,
                -1.268280441522599,
                2.1360725332928796,
                -0.8440234769821211,
                1.0588667267121927,
                -2.6901295564227103
            ]
        },
        {
            "positions": [
                -2.7557266196909613,
                -1.2761480269941698,
                2.1432060606443684,
                -0.892999516016962,
                1.216033842860478,
                -2.6253761463315763
            ]
        },
        {
            "positions": [
                -2.8383658440081723,
                -1.2840156124657405,
                2.150339587995857,
                -0.941975555051803,
                1.373200959008763,
                -2.5606227362404423
            ]
        },
        {
            "positions": [
                -2.921005068325383,
                -1.2918831979373113,
                2.157473115347346,
                -0.9909515940866439,
                1.5303680751570483,
                -2.495869326149308
            ]
        },
        {
            "positions": [
                -3.003644292642594,
                -1.299750783408882,
                2.1646066426988346,
                -1.0399276331214848,
                1.6875351913053336,
                -2.431115916058174
            ]
        },
        {
            "positions": [
                -3.0862835169598046,
                -1.3076183688804526,
                2.1717401700503234,
                -1.0889036721563259,
                1.8447023074536186,
                -2.3663625059670395
            ]
        },
        {
            "positions": [
                -3.1689227412770156,
                -1.3154859543520234,
                2.178873697401812,
                -1.1378797111911667,
                2.001869423601904,
                -2.3016090958759055
            ]
        },
        {
            "positions": [
                -3.0917594122903305,
                -1.2983417521184477,
                2.1596238716143996,
                -1.1023562748693971,
                1.8540760367695122,
                -2.3967449648684753
            ]
        },
        {
            "positions": [
                -3.014596083303645,
                -1.281197549884872,
                2.140374045826987,
                -1.0668328385476276,
                1.7062826499371204,
                -2.491880833861045
            ]
        },
        {
            "positions": [
                -2.93743275431696,
                -1.2640533476512963,
                2.1211242200395746,
                -1.031309402225858,
                1.558489263104729,
                -2.587016702853615
            ]
        },
        {
            "positions": [
                -2.8602694253302743,
                -1.2469091454177206,
                2.101874394252162,
                -0.9957859659040884,
                1.410695876272337,
                -2.682152571846185
            ]
        },
        {
            "positions": [
                -2.783106096343589,
                -1.229764943184145,
                2.0826245684647495,
                -0.9602625295823188,
                1.2629024894399454,
                -2.7772884408387553
            ]
        },
        {
            "positions": [
                -2.7059427673569036,
                -1.2126207409505694,
                2.063374742677337,
                -0.9247390932605494,
                1.1151091026075537,
                -2.8724243098313247
            ]
        },
        {
            "positions": [
                -2.6287794383702185,
                -1.1954765387169937,
                2.0441249168899245,
                -0.8892156569387798,
                0.967315715775162,
                -2.967560178823895
            ]
        },
        {
            "positions": [
                -2.5516161093835334,
                -1.178332336483418,
                2.024875091102512,
                -0.8536922206170102,
                0.8195223289427702,
                -3.062696047816465
            ]
        },
        {
            "positions": [
                -2.474452780396848,
                -1.1611881342498422,
                2.0056252653150994,
                -0.8181687842952406,
                0.6717289421103785,
                -3.1578319168090347
            ]
        }
    ]
}