{
    "goal": {
        "global_pose": {
            "orientation": {
                "w": 0.7047431493862688,
                "x": -0.7094548369677653,
                "y": 0.0024358444001904,
                "z": -0.0022348060817251984
            },
            "position": {
                "x": -0.39052492380142206,
                "y": 0.3671506643295288,
                "z": 0.19426114857196808
            }
        },
        "name": "move_to_magneteinheit_D"
    },
    "id": "LBKPIECE_move_to_magneteinheit_D_131",
    "joint_names": [
        "shoulder_pan_joint",
        "shoulder_lift_joint",
        "elbow_joint",
        "wrist_1_joint",
        "wrist_2_joint",
        "wrist_3_joint"
    ],
    "metrics": {
        "cart_traj_len": 4.843883668438557,
        "distance_elbow_joint": 3.943510133176213,
        "distance_shoulder_lift_joint": 1.415554949627519,
        "distance_shoulder_pan_joint": 2.8981662619162747,
        "distance_wrist_1_joint": 2.4277313644352825,
        "distance_wrist_2_joint": 0.686029567574602,
        "distance_wrist_3_joint": 1.234548334966076,
        "smoothness": 0.7429191645994555,
        "time": 0.487584412,
        "traj_len": 3.550428229340225,
        "weighted_distance": 4.264785834439755
    },
    "planner": "LBKPIECE",
    "start": {
        "state": {
            "elbow_joint": 0.749534889911806,
            "shoulder_lift_joint": -0.6476975780787326,
            "shoulder_pan_joint": -2.711696901376241,
            "wrist_1_joint": -0.07506478083263063,
            "wrist_2_joint": 0.43296659715538205,
            "wrist_3_joint": -3.14703540197715
        }
    },
    "waypoints": [
        {
            "positions": [
                -2.711696901376241,
                -0.6476975780787326,
                0.749534889911806,
                -0.07506478083263063,
                0.43296659715538205,
                -3.14703540197715
            ]
        },
        {
            "positions": [
                -2.7151454020965087,
                -0.6737546438760038,
                0.7011733860907838,
                -0.09687734653187924,
                0.42354506443868367,
                -3.1398468069113235
            ]
        },
        {
            "positions": [
                -2.7254909042573123,
                -0.7519258412678176,
                0.5560888746277174,
                -0.16231504362962507,
                0.3952804662885886,
                -3.118281021713844
            ]
        },
        {
            "positions": [
                -2.6031404034363694,
                -0.791010616850704,
                0.44476574441532446,
                -0.2129053164104287,
                0.37249166584090343,
                -3.0847357922764456
            ]
        },
        {
            "positions": [
                -2.4807899026154265,
                -0.8300953924335902,
                0.3334426142029316,
                -0.26349558919123234,
                0.34970286539321827,
                -3.0511905628390474
            ]
        },
        {
            "positions": [
                -2.358439401794484,
                -0.8691801680164766,
                0.2221194839905387,
                -0.314085861972036,
                0.3269140649455331,
                -3.017645333401649
            ]
        },
        {
            "positions": [
                -2.236088900973541,
                -0.9082649435993628,
                0.11079635377814578,
                -0.3646761347528396,
                0.30412526449784794,
                -2.9841001039642503
            ]
        },
        {
            "positions": [
                -2.1137384001525983,
                -0.9473497191822492,
                -0.0005267764342471448,
                -0.41526640753364324,
                0.2813364640501627,
                -2.9505548745268517
            ]
        },
        {
            "positions": [
                -1.9913878993316556,
                -0.9864344947651355,
                -0.11184990664663996,
                -0.4658566803144469,
                0.2585476636024776,
                -2.9170096450894536
            ]
        },
        {
            "positions": [
                -1.8690373985107127,
                -1.0255192703480218,
                -0.223173036859033,
                -0.5164469530952505,
                0.2357588631547924,
                -2.883464415652055
            ]
        },
        {
            "positions": [
                -1.74668689768977,
                -1.064604045930908,
                -0.3344961670714258,
                -0.5670372258760541,
                0.21297006270710725,
                -2.8499191862146565
            ]
        },
        {
            "positions": [
                -1.6243363968688271,
                -1.1036888215137943,
                -0.44581929728381875,
                -0.6176274986568577,
                0.19018126225942206,
                -2.816373956777258
            ]
        },
        {
            "positions": [
                -1.5019858960478842,
                -1.1427735970966808,
                -0.5571424274962117,
                -0.6682177714376614,
                0.16739246181173686,
                -2.7828287273398598
            ]
        },
        {
            "positions": [
                -1.3796353952269413,
                -1.181858372679567,
                -0.6684655577086046,
                -0.718808044218465,
                0.14460366136405167,
                -2.749283497902461
            ]
        },
        {
            "positions": [
                -1.2572848944059989,
                -1.2209431482624533,
                -0.7797886879209973,
                -0.7693983169992686,
                0.12181486091636656,
                -2.7157382684650626
            ]
        },
        {
            "positions": [
                -1.134934393585056,
                -1.2600279238453398,
                -0.8911118181333902,
                -0.8199885897800723,
                0.0990260604686814,
                -2.6821930390276645
            ]
        },
        {
            "positions": [
                -1.012583892764113,
                -1.299112699428226,
                -1.0024349483457833,
                -0.8705788625608759,
                0.07623726002099618,
                -2.648647809590266
            ]
        },
        {
            "positions": [
                -0.8902333919431702,
                -1.3381974750111123,
                -1.1137580785581762,
                -0.9211691353416795,
                0.053448459573311013,
                -2.6151025801528673
            ]
        },
        {
            "positions": [
                -0.7678828911222277,
                -1.3772822505939986,
                -1.2250812087705691,
                -0.9717594081224832,
                0.030659659125625904,
                -2.581557350715469
            ]
        },
        {
            "positions": [
                -0.6455323903012848,
                -1.4163670261768848,
                -1.336404338982962,
                -1.0223496809032868,
                0.007870858677940684,
                -2.5480121212780706
            ]
        },
        {
            "positions": [
                -0.5231818894803419,
                -1.4554518017597713,
                -1.447727469195355,
                -1.0729399536840905,
                -0.014917941769744501,
                -2.514466891840672
            ]
        },
        {
            "positions": [
                -0.4353646727102187,
                -1.4867921571154723,
                -1.5619159627437993,
                -1.1600163025100798,
                -0.019520576427826803,
                -2.5467008196375964
            ]
        },
        {
            "positions": [
                -0.3475474559400955,
                -1.5181325124711733,
                -1.6761044562922436,
                -1.2470926513360694,
                -0.024123211085909105,
                -2.578934747434521
            ]
        },
        {
            "positions": [
                -0.2597302391699723,
                -1.5494728678268745,
                -1.7902929498406879,
                -1.3341690001620585,
                -0.028725845743991403,
                -2.611168675231445
            ]
        },
        {
            "positions": [
                -0.17191302239984907,
                -1.5808132231825756,
                -1.9044814433891322,
                -1.421245348988048,
                -0.0333284804020737,
                -2.6434026030283695
            ]
        },
        {
            "positions": [
                -0.08409580562972584,
                -1.6121535785382766,
                -2.0186699369375765,
                -1.5083216978140375,
                -0.037931115060156007,
                -2.675636530825294
            ]
        },
        {
            "positions": [
                -0.01972766680234961,
                -1.6392627208387698,
                -2.1369948990590104,
                -1.6186357378348597,
                -0.03224288753331711,
                -2.743365492955978
            ]
        },
        {
            "positions": [
                -0.01685494481709524,
                -1.6475282756700067,
                -2.201327965835965,
                -1.7028398718388118,
                -0.016535196038746165,
                -2.8215987669385196
            ]
        },
        {
            "positions": [
                -0.013982222831840866,
                -1.6557938305012436,
                -2.265661032612919,
                -1.787044005842764,
                -0.0008275045441752185,
                -2.8998320409210616
            ]
        },
        {
            "positions": [
                -0.039268257911747234,
                -1.6242661491135324,
                -2.3677482583553475,
                -1.899241650365635,
                -0.02752524474995219,
                -2.935966688160373
            ]
        },
        {
            "positions": [
                -0.0645542929916536,
                -1.5927384677258212,
                -2.4698354840977763,
                -2.0114392948885063,
                -0.054222984955729164,
                -2.9721013353996844
            ]
        },
        {
            "positions": [
                -0.08984032807155996,
                -1.5612107863381097,
                -2.5719227098402047,
                -2.123636939411378,
                -0.08092072516150614,
                -3.008235982638996
            ]
        },
        {
            "positions": [
                -0.11512636315146633,
                -1.5296831049503985,
                -2.6740099355826334,
                -2.235834583934249,
                -0.10761846536728312,
                -3.044370629878307
            ]
        },
        {
            "positions": [
                -0.1404123982313727,
                -1.4981554235626873,
                -2.776097161325062,
                -2.3480322284571202,
                -0.13431620557306007,
                -3.0805052771176187
            ]
        },
        {
            "positions": [
                -0.1558901989681063,
                -1.5814288536515044,
                -2.63680446734528,
                -2.296444256186856,
                -0.14916272017779286,
                -3.0924857569685025
            ]
        },
        {
            "positions": [
                -0.17136799970483993,
                -1.6647022837403218,
                -2.4975117733654986,
                -2.244856283916592,
                -0.16400923478252566,
                -3.1044662368193863
            ]
        },
        {
            "positions": [
                -0.18684580044157353,
                -1.747975713829139,
                -2.3582190793857167,
                -2.1932683116463276,
                -0.17885574938725846,
                -3.11644671667027
            ]
        }
    ]
}