{
    "goal": {
        "global_pose": {
            "orientation": {
                "w": 0.7031023480610252,
                "x": -0.7110244013736278,
                "y": 0.0077485991402295624,
                "z": 0.005598929693374583
            },
            "position": {
                "x": -0.8841497679147869,
                "y": 0.44412534475326537,
                "z": 0.3711530566215515
            }
        },
        "name": "move_to_auspresseinheit_D"
    },
    "id": "LBKPIECE_move_to_auspresseinheit_D_33",
    "joint_names": [
        "shoulder_pan_joint",
        "shoulder_lift_joint",
        "elbow_joint",
        "wrist_1_joint",
        "wrist_2_joint",
        "wrist_3_joint"
    ],
    "metrics": {
        "cart_traj_len": 0.34472041694303784,
        "distance_elbow_joint": 0.6732334757781386,
        "distance_shoulder_lift_joint": 0.1409567342321747,
        "distance_shoulder_pan_joint": 0.1333158096349559,
        "distance_wrist_1_joint": 0.6375449738961221,
        "distance_wrist_2_joint": 1.443159028574956,
        "distance_wrist_3_joint": 0.08881974676753757,
        "smoothness": 9.868649134507461e-16,
        "time": 0.366781902,
        "traj_len": 1.7655111919452353,
        "weighted_distance": 2.3184851228528593
    },
    "planner": "LBKPIECE",
    "start": {
        "state": {
            "elbow_joint": -1.8275523626775212,
            "shoulder_lift_joint": -2.126789852344167,
            "shoulder_pan_joint": -0.03513704404078235,
            "wrist_1_joint": -2.347782403156801,
            "wrist_2_joint": -1.6058999987535132,
            "wrist_3_joint": -3.0880379163319196
        }
    },
    "waypoints": [
        {
            "positions": [
                -0.03513704404078235,
                -2.126789852344167,
                -1.8275523626775212,
                -2.347782403156801,
                -1.6058999987535132,
                -3.0880379163319196
            ]
        },
        {
            "positions": [
                -0.05180152024515183,
                -2.1444094441231885,
                -1.743398178205254,
                -2.4274755248938162,
                -1.4255051201816438,
                -3.0769354479859774
            ]
        },
        {
            "positions": [
                -0.06846599644952132,
                -2.1620290359022105,
                -1.6592439937329866,
                -2.5071686466308316,
                -1.2451102416097741,
                -3.065832979640035
            ]
        },
        {
            "positions": [
                -0.08513047265389082,
                -2.1796486276812326,
                -1.575089809260719,
                -2.5868617683678465,
                -1.0647153630379047,
                -3.054730511294093
            ]
        },
        {
            "positions": [
                -0.10179494885826029,
                -2.197268219460254,
                -1.490935624788452,
                -2.666554890104862,
                -0.8843204844660352,
                -3.043628042948151
            ]
        },
        {
            "positions": [
                -0.1184594250626298,
                -2.214887811239276,
                -1.4067814403161845,
                -2.7462480118418773,
                -0.7039256058941656,
                -3.0325255746022086
            ]
        },
        {
            "positions": [
                -0.13512390126699927,
                -2.232507403018298,
                -1.3226272558439172,
                -2.825941133578892,
                -0.5235307273222962,
                -3.0214231062562664
            ]
        },
        {
            "positions": [
                -0.15178837747136875,
                -2.25012699479732,
                -1.2384730713716499,
                -2.9056342553159076,
                -0.3431358487504266,
                -3.0103206379103242
            ]
        },
        {
            "positions": [
                -0.16845285367573826,
                -2.2677465865763415,
                -1.1543188868993826,
                -2.985327377052923,
                -0.1627409701785571,
                -2.999218169564382
            ]
        }
    ]
}