{
    "goal": {
        "global_pose": {
            "orientation": {
                "w": 0.005598929693374612,
                "x": 0.007748599140229565,
                "y": 0.7110244013736278,
                "z": -0.7031023480610252
            },
            "position": {
                "x": -0.8858502320852131,
                "y": -0.7141253447532654,
                "z": 0.3711530566215515
            }
        },
        "name": "move_to_auspresseinheit_C"
    },
    "id": "LBKPIECE_move_to_auspresseinheit_C_74",
    "joint_names": [
        "shoulder_pan_joint",
        "shoulder_lift_joint",
        "elbow_joint",
        "wrist_1_joint",
        "wrist_2_joint",
        "wrist_3_joint"
    ],
    "metrics": {
        "cart_traj_len": 0.49288140358604826,
        "distance_elbow_joint": 0.9960250194802254,
        "distance_shoulder_lift_joint": 0.3228790810680602,
        "distance_shoulder_pan_joint": 0.2559512127526604,
        "distance_wrist_1_joint": 0.6667575380477668,
        "distance_wrist_2_joint": 1.3125309403758019,
        "distance_wrist_3_joint": 0.06002819891974864,
        "smoothness": 3.2297397080004555e-16,
        "time": 0.40738338,
        "traj_len": 1.9010975752560055,
        "weighted_distance": 2.390296397292045
    },
    "planner": "LBKPIECE",
    "start": {
        "state": {
            "elbow_joint": 1.7527959577737207,
            "shoulder_lift_joint": -0.9740617694225068,
            "shoulder_pan_joint": -2.967991417825858,
            "wrist_1_joint": -0.759517768980727,
            "wrist_2_joint": 1.7443932448377408,
            "wrist_3_joint": -3.0840537646736568
        }
    },
    "waypoints": [
        {
            "positions": [
                -2.967991417825858,
                -0.9740617694225068,
                1.7527959577737207,
                -0.759517768980727,
                1.7443932448377408,
                -3.0840537646736568
            ]
        },
        {
            "positions": [
                -2.942396296550592,
                -0.9417738613157007,
                1.6531934558256982,
                -0.6928420151759503,
                1.6131401508001606,
                -3.0900565845656316
            ]
        },
        {
            "positions": [
                -2.916801175275326,
                -0.9094859532088947,
                1.5535909538776755,
                -0.6261662613711736,
                1.4818870567625804,
                -3.0960594044576064
            ]
        },
        {
            "positions": [
                -2.89120605400006,
                -0.8771980451020888,
                1.453988451929653,
                -0.559490507566397,
                1.3506339627250004,
                -3.1020622243495812
            ]
        },
        {
            "positions": [
                -2.8656109327247936,
                -0.8449101369952827,
                1.3543859499816304,
                -0.49281475376162026,
                1.21938086868742,
                -3.108065044241556
            ]
        },
        {
            "positions": [
                -2.8400158114495277,
                -0.8126222288884767,
                1.254783448033608,
                -0.42613899995684357,
                1.08812777464984,
                -3.1140678641335313
            ]
        },
        {
            "positions": [
                -2.814420690174262,
                -0.7803343207816706,
                1.1551809460855855,
                -0.3594632461520669,
                0.9568746806122598,
                -3.120070684025506
            ]
        },
        {
            "positions": [
                -2.7888255688989956,
                -0.7480464126748647,
                1.0555784441375629,
                -0.29278749234729023,
                0.8256215865746795,
                -3.126073503917481
            ]
        },
        {
            "positions": [
                -2.7632304476237297,
                -0.7157585045680586,
                0.9559759421895403,
                -0.22611173854251354,
                0.6943684925370992,
                -3.1320763238094558
            ]
        },
        {
            "positions": [
                -2.7376353263484634,
                -0.6834705964612526,
                0.8563734402415178,
                -0.1594359847377368,
                0.5631153984995192,
                -3.1380791437014306
            ]
        },
        {
            "positions": [
                -2.7120402050731975,
                -0.6511826883544466,
                0.7567709382934953,
                -0.09276023093296018,
                0.4318623044619389,
                -3.1440819635934054
            ]
        }
    ]
}