{
    "goal": {
        "global_pose": {
            "orientation": {
                "w": 0.7031023480610252,
                "x": -0.7110244013736278,
                "y": 0.0077485991402295624,
                "z": 0.005598929693374583
            },
            "position": {
                "x": -0.8841497679147869,
                "y": 0.44412534475326537,
                "z": 0.3711530566215515
            }
        },
        "name": "move_to_auspresseinheit_D"
    },
    "id": "LBKPIECE_move_to_auspresseinheit_D_110",
    "joint_names": [
        "shoulder_pan_joint",
        "shoulder_lift_joint",
        "elbow_joint",
        "wrist_1_joint",
        "wrist_2_joint",
        "wrist_3_joint"
    ],
    "metrics": {
        "cart_traj_len": 0.3428318651751999,
        "distance_elbow_joint": 0.633501503256382,
        "distance_shoulder_lift_joint": 0.1189220129471984,
        "distance_shoulder_pan_joint": 0.1344979259972654,
        "distance_wrist_1_joint": 0.5236090297158871,
        "distance_wrist_2_joint": 1.4323264639796132,
        "distance_wrist_3_joint": 0.0014823263919940821,
        "smoothness": 0.0,
        "time": 0.823069254,
        "traj_len": 1.686516902461502,
        "weighted_distance": 2.1916293958531923
    },
    "planner": "LBKPIECE",
    "start": {
        "state": {
            "elbow_joint": -1.8275523626775212,
            "shoulder_lift_joint": -2.126789852344167,
            "shoulder_pan_joint": -0.03513704404078235,
            "wrist_1_joint": -2.347782403156801,
            "wrist_2_joint": -1.6058999987535132,
            "wrist_3_joint": -3.0880379163319196
        }
    },
    "waypoints": [
        {
            "positions": [
                -0.03513704404078235,
                -2.126789852344167,
                -1.8275523626775212,
                -2.347782403156801,
                -1.6058999987535132,
                -3.0880379163319196
            ]
        },
        {
            "positions": [
                -0.051949284790440524,
                -2.1416551039625666,
                -1.7483646747704735,
                -2.4132335318712865,
                -1.4268591907560615,
                -3.0878526255329204
            ]
        },
        {
            "positions": [
                -0.0687615255400987,
                -2.1565203555809664,
                -1.6691769868634256,
                -2.4786846605857726,
                -1.2478183827586098,
                -3.087667334733921
            ]
        },
        {
            "positions": [
                -0.08557376628975688,
                -2.1713856071993662,
                -1.589989298956378,
                -2.5441357893002587,
                -1.0687775747611583,
                -3.087482043934922
            ]
        },
        {
            "positions": [
                -0.10238600703941506,
                -2.186250858817766,
                -1.51080161104933,
                -2.6095869180147444,
                -0.8897367667637066,
                -3.0872967531359228
            ]
        },
        {
            "positions": [
                -0.11919824778907323,
                -2.201116110436166,
                -1.4316139231422824,
                -2.67503804672923,
                -0.7106959587662549,
                -3.087111462336923
            ]
        },
        {
            "positions": [
                -0.1360104885387314,
                -2.2159813620545656,
                -1.3524262352352348,
                -2.740489175443716,
                -0.5316551507688034,
                -3.086926171537924
            ]
        },
        {
            "positions": [
                -0.15282272928838958,
                -2.2308466136729654,
                -1.2732385473281869,
                -2.8059403041582023,
                -0.35261434277135173,
                -3.0867408807389247
            ]
        },
        {
            "positions": [
                -0.16963497003804776,
                -2.2457118652913652,
                -1.1940508594211392,
                -2.871391432872688,
                -0.17357353477389995,
                -3.0865555899399255
            ]
        }
    ]
}