{
    "goal": {
        "global_pose": {
            "orientation": {
                "w": -0.4816463035849501,
                "x": 0.5182115481033762,
                "y": 0.4908360881923453,
                "z": -0.5084816262002911
            },
            "position": {
                "x": -0.8240239810943604,
                "y": -0.300875300988555,
                "z": 0.16403168439865112
            }
        },
        "name": "move_to_storage_C"
    },
    "id": "LBKPIECE_move_to_storage_C_17",
    "joint_names": [
        "shoulder_pan_joint",
        "shoulder_lift_joint",
        "elbow_joint",
        "wrist_1_joint",
        "wrist_2_joint",
        "wrist_3_joint"
    ],
    "metrics": {
        "cart_traj_len": 0.5775577402755759,
        "distance_elbow_joint": 0.26141991115201946,
        "distance_shoulder_lift_joint": 0.1906559405137096,
        "distance_shoulder_pan_joint": 0.4947049747393155,
        "distance_wrist_1_joint": 0.08817737284596616,
        "distance_wrist_2_joint": 1.0732228947246467,
        "distance_wrist_3_joint": 0.07183741216519435,
        "smoothness": 2.5376526478085547e-16,
        "time": 0.363593031,
        "traj_len": 1.4764885729801134,
        "weighted_distance": 1.8668405389967975
    },
    "planner": "LBKPIECE",
    "start": {
        "state": {
            "elbow_joint": 2.010868314990456,
            "shoulder_lift_joint": -1.1634956873337592,
            "shoulder_pan_joint": -2.4736205022346125,
            "wrist_1_joint": -0.8367026794202681,
            "wrist_2_joint": 0.6746043897044499,
            "wrist_3_joint": -3.1496632123970403
        }
    },
    "waypoints": [
        {
            "positions": [
                -2.4736205022346125,
                -1.1634956873337592,
                2.010868314990456,
                -0.8367026794202681,
                0.6746043897044499,
                -3.1496632123970403
            ]
        },
        {
            "positions": [
                -2.5560713313578316,
                -1.131719697248141,
                1.9672983297984525,
                -0.822006450612607,
                0.8534748721585577,
                -3.137690310369508
            ]
        },
        {
            "positions": [
                -2.638522160481051,
                -1.0999437071625227,
                1.9237283446064493,
                -0.807310221804946,
                1.0323453546126655,
                -3.1257174083419756
            ]
        },
        {
            "positions": [
                -2.7209729896042703,
                -1.0681677170769044,
                1.880158359414446,
                -0.7926139929972851,
                1.2112158370667734,
                -3.1137445063144433
            ]
        },
        {
            "positions": [
                -2.8034238187274894,
                -1.0363917269912861,
                1.836588374222443,
                -0.777917764189624,
                1.390086319520881,
                -3.1017716042869106
            ]
        },
        {
            "positions": [
                -2.885874647850709,
                -1.0046157369056679,
                1.7930183890304396,
                -0.7632215353819629,
                1.5689568019749889,
                -3.0897987022593782
            ]
        },
        {
            "positions": [
                -2.968325476973928,
                -0.9728397468200496,
                1.7494484038384364,
                -0.7485253065743019,
                1.7478272844290967,
                -3.077825800231846
            ]
        }
    ]
}