{
    "goal": {
        "global_pose": {
            "orientation": {
                "w": -0.00223480608172531,
                "x": 0.0024358444001904467,
                "y": 0.7094548369677653,
                "z": -0.704743149386269
            },
            "position": {
                "x": 0.6205249238014221,
                "y": -0.6371506643295288,
                "z": 0.19426114857196808
            }
        },
        "name": "move_to_magneteinheit_B"
    },
    "id": "LBKPIECE_move_to_magneteinheit_B_108",
    "joint_names": [
        "shoulder_pan_joint",
        "shoulder_lift_joint",
        "elbow_joint",
        "wrist_1_joint",
        "wrist_2_joint",
        "wrist_3_joint"
    ],
    "metrics": {
        "cart_traj_len": 1.924222270300124,
        "distance_elbow_joint": 2.1575886017576673,
        "distance_shoulder_lift_joint": 0.7745979253429806,
        "distance_shoulder_pan_joint": 1.6211752937382977,
        "distance_wrist_1_joint": 2.0199210257356044,
        "distance_wrist_2_joint": 1.519846282714189,
        "distance_wrist_3_joint": 0.5032218217303095,
        "smoothness": 0.6504702647649355,
        "time": 0.5932957799999999,
        "traj_len": 2.9319534360250414,
        "weighted_distance": 3.6252671491807966
    },
    "planner": "LBKPIECE",
    "start": {
        "state": {
            "elbow_joint": 2.6216224122426386,
            "shoulder_lift_joint": -1.4174107377796124,
            "shoulder_pan_joint": 0.7066234856936794,
            "wrist_1_joint": 1.9546482284002225,
            "wrist_2_joint": -0.7096286983471962,
            "wrist_3_joint": 0.005740856962016249
        }
    },
    "waypoints": [
        {
            "positions": [
                0.7066234856936794,
                -1.4174107377796124,
                2.6216224122426386,
                1.9546482284002225,
                -0.7096286983471962,
                0.005740856962016249
            ]
        },
        {
            "positions": [
                0.6352268545529118,
                -1.4218940397849378,
                2.590829033249473,
                1.907766375416657,
                -0.7221909581210122,
                -0.09744290519591353
            ]
        },
        {
            "positions": [
                0.5638302234121443,
                -1.4263773417902632,
                2.560035654256307,
                1.8608845224330917,
                -0.7347532178948281,
                -0.2006266673538433
            ]
        },
        {
            "positions": [
                0.5179567133259815,
                -1.3938767362383822,
                2.4103711503763616,
                1.7784775157563983,
                -0.7827369863594121,
                -0.17544465041657073
            ]
        },
        {
            "positions": [
                0.47208320323981867,
                -1.361376130686501,
                2.260706646496416,
                1.6960705090797052,
                -0.8307207548239962,
                -0.1502626334792982
            ]
        },
        {
            "positions": [
                0.42620969315365587,
                -1.3288755251346203,
                2.1110421426164705,
                1.613663502403012,
                -0.8787045232885803,
                -0.12508061654202562
            ]
        },
        {
            "positions": [
                0.38033618306749306,
                -1.2963749195827392,
                1.9613776387365247,
                1.5312564957263186,
                -0.9266882917531644,
                -0.09989859960475307
            ]
        },
        {
            "positions": [
                0.3344626729813303,
                -1.2638743140308581,
                1.8117131348565794,
                1.4488494890496253,
                -0.9746720602177483,
                -0.07471658266748052
            ]
        },
        {
            "positions": [
                0.2885891628951675,
                -1.231373708478977,
                1.6620486309766336,
                1.3664424823729322,
                -1.0226558286823324,
                -0.04953456573020798
            ]
        },
        {
            "positions": [
                0.24271565280900476,
                -1.198873102927096,
                1.5123841270966882,
                1.284035475696239,
                -1.0706395971469165,
                -0.024352548792935413
            ]
        },
        {
            "positions": [
                0.1968421427228419,
                -1.1663724973752152,
                1.3627196232167427,
                1.2016284690195456,
                -1.1186233656115006,
                0.0008294681443371532
            ]
        },
        {
            "positions": [
                0.15096863263667915,
                -1.1338718918233341,
                1.213055119336797,
                1.1192214623428525,
                -1.1666071340760846,
                0.02601148508160972
            ]
        },
        {
            "positions": [
                0.10509512255051637,
                -1.101371286271453,
                1.0633906154568515,
                1.0368144556661592,
                -1.2145909025406687,
                0.051193502018882245
            ]
        },
        {
            "positions": [
                0.012399947041867754,
                -1.0613144439247695,
                1.1178775977270226,
                1.1370042059390266,
                -1.3068530914970975,
                0.04709949037872549
            ]
        },
        {
            "positions": [
                -0.08029522846678086,
                -1.0212576015780859,
                1.1723645799971936,
                1.2371939562118939,
                -1.3991152804535263,
                0.043005478738568734
            ]
        },
        {
            "positions": [
                -0.17299040397542945,
                -0.9812007592314023,
                1.2268515622673644,
                1.3373837064847613,
                -1.491377469409955,
                0.03891146709841198
            ]
        },
        {
            "positions": [
                -0.2656855794840781,
                -0.9411439168847187,
                1.2813385445375354,
                1.4375734567576286,
                -1.5836396583663839,
                0.03481745545825522
            ]
        },
        {
            "positions": [
                -0.3583807549927267,
                -0.901087074538035,
                1.3358255268077064,
                1.5377632070304958,
                -1.6759018473228124,
                0.03072344381809847
            ]
        },
        {
            "positions": [
                -0.4510759305013753,
                -0.8610302321913516,
                1.3903125090778774,
                1.6379529573033633,
                -1.7681640362792415,
                0.02662943217794172
            ]
        },
        {
            "positions": [
                -0.543771106010024,
                -0.8209733898446678,
                1.4447994913480484,
                1.7381427075762308,
                -1.86042622523567,
                0.02253542053778496
            ]
        },
        {
            "positions": [
                -0.6364662815186726,
                -0.7809165474979842,
                1.4992864736182194,
                1.838332457849098,
                -1.952688414192099,
                0.018441408897628207
            ]
        },
        {
            "positions": [
                -0.7291614570273213,
                -0.7408597051513006,
                1.5537734558883902,
                1.9385222081219655,
                -2.0449506031485276,
                0.014347397257471445
            ]
        },
        {
            "positions": [
                -0.8218566325359697,
                -0.7008028628046171,
                1.6082604381585612,
                2.038711958394833,
                -2.1372127921049566,
                0.010253385617314696
            ]
        },
        {
            "positions": [
                -0.9145518080446183,
                -0.6607460204579335,
                1.6627474204287322,
                2.1389017086677002,
                -2.229474981061385,
                0.00615937397715794
            ]
        }
    ]
}