{
    "goal": {
        "global_pose": {
            "orientation": {
                "w": -0.4816463035849501,
                "x": 0.5182115481033762,
                "y": 0.4908360881923453,
                "z": -0.5084816262002911
            },
            "position": {
                "x": -0.8240239810943604,
                "y": 0.19912469901144506,
                "z": 0.16403168439865112
            }
        },
        "name": "move_to_storage_D"
    },
    "id": "LBKPIECE_move_to_storage_D_18",
    "joint_names": [
        "shoulder_pan_joint",
        "shoulder_lift_joint",
        "elbow_joint",
        "wrist_1_joint",
        "wrist_2_joint",
        "wrist_3_joint"
    ],
    "metrics": {
        "cart_traj_len": 4.399625524596057,
        "distance_elbow_joint": 4.2089585169667,
        "distance_shoulder_lift_joint": 1.5366866854437533,
        "distance_shoulder_pan_joint": 2.812787780634552,
        "distance_wrist_1_joint": 2.3818980492788473,
        "distance_wrist_2_joint": 4.153006701000301,
        "distance_wrist_3_joint": 3.1414882076045267,
        "smoothness": 0.268525073120844,
        "time": 0.714880022,
        "traj_len": 4.270225514059963,
        "weighted_distance": 5.57249559052467
    },
    "planner": "LBKPIECE",
    "start": {
        "state": {
            "elbow_joint": -2.384821988534728,
            "shoulder_lift_joint": -2.2788054721415256,
            "shoulder_pan_joint": -0.1854694642142757,
            "wrist_1_joint": 1.4845938289331202,
            "wrist_2_joint": 0.17898776772866878,
            "wrist_3_joint": 0.037105688729662994
        }
    },
    "waypoints": [
        {
            "positions": [
                -0.1854694642142757,
                -2.2788054721415256,
                -2.384821988534728,
                1.4845938289331202,
                0.17898776772866878,
                0.037105688729662994
            ]
        },
        {
            "positions": [
                -0.10592718287968288,
                -2.250727220561922,
                -2.2425490024957653,
                1.397429714946743,
                0.21981381491497406,
                0.04167696842494798
            ]
        },
        {
            "positions": [
                -0.026384901545090045,
                -2.2226489689823183,
                -2.1002760164568026,
                1.3102656009603657,
                0.2606398621012793,
                0.04624824812023296
            ]
        },
        {
            "positions": [
                0.0531573797895028,
                -2.1945707174027147,
                -1.95800303041784,
                1.2231014869739885,
                0.30146590928758465,
                0.05081952781551795
            ]
        },
        {
            "positions": [
                0.13269966112409562,
                -2.1664924658231106,
                -1.8157300443788773,
                1.1359373729876112,
                0.3422919564738899,
                0.05539080751080293
            ]
        },
        {
            "positions": [
                0.21224194245868847,
                -2.138414214243507,
                -1.6734570583399146,
                1.048773259001234,
                0.3831180036601952,
                0.059962087206087915
            ]
        },
        {
            "positions": [
                0.2917842237932813,
                -2.1103359626639033,
                -1.531184072300952,
                0.9616091450148566,
                0.42394405084650044,
                0.0645333669013729
            ]
        },
        {
            "positions": [
                0.37132650512787413,
                -2.0822577110842997,
                -1.3889110862619893,
                0.8744450310284794,
                0.4647700980328058,
                0.06910464659665788
            ]
        },
        {
            "positions": [
                0.450868786462467,
                -2.054179459504696,
                -1.2466381002230267,
                0.7872809170421021,
                0.505596145219111,
                0.07367592629194286
            ]
        },
        {
            "positions": [
                0.5304110677970598,
                -2.0261012079250924,
                -1.104365114184064,
                0.7001168030557248,
                0.5464221924054163,
                0.07824720598722784
            ]
        },
        {
            "positions": [
                0.6099533491316527,
                -1.9980229563454885,
                -0.9620921281451014,
                0.6129526890693475,
                0.5872482395917216,
                0.08281848568251284
            ]
        },
        {
            "positions": [
                0.6894956304662456,
                -1.9699447047658847,
                -0.8198191421061387,
                0.5257885750829702,
                0.6280742867780269,
                0.08738976537779783
            ]
        },
        {
            "positions": [
                0.7690379118008384,
                -1.941866453186281,
                -0.677546156067176,
                0.43862446109659303,
                0.6689003339643321,
                0.09196104507308281
            ]
        },
        {
            "positions": [
                0.8485801931354312,
                -1.9137882016066774,
                -0.5352731700282134,
                0.3514603471102158,
                0.7097263811506375,
                0.09653232476836779
            ]
        },
        {
            "positions": [
                0.9281224744700239,
                -1.8857099500270738,
                -0.39300018398925074,
                0.26429623312383854,
                0.7505524283369427,
                0.10110360446365277
            ]
        },
        {
            "positions": [
                1.0076647558046168,
                -1.85763169844747,
                -0.2507271979502881,
                0.17713211913746107,
                0.791378475523248,
                0.10567488415893776
            ]
        },
        {
            "positions": [
                1.0872070371392095,
                -1.8295534468678663,
                -0.10845421191132543,
                0.08996800515108405,
                0.8322045227095533,
                0.11024616385422274
            ]
        },
        {
            "positions": [
                1.1667493184738025,
                -1.8014751952882624,
                0.03381877412763723,
                0.0028038911647065845,
                0.8730305698958586,
                0.11481744354950772
            ]
        },
        {
            "positions": [
                1.2462915998083952,
                -1.7733969437086587,
                0.1760917601665999,
                -0.08436022282167066,
                0.9138566170821638,
                0.1193887232447927
            ]
        },
        {
            "positions": [
                1.3258338811429882,
                -1.745318692129055,
                0.3183647462055623,
                -0.17152433680804785,
                0.9546826642684691,
                0.1239600029400777
            ]
        },
        {
            "positions": [
                1.3467890352074765,
                -1.7589129833738808,
                0.3402623918760213,
                -0.23830321811578475,
                1.12828805979292,
                0.21794437023306884
            ]
        },
        {
            "positions": [
                1.3677441892719646,
                -1.7725072746187065,
                0.3621600375464803,
                -0.3050820994235216,
                1.3018934553173707,
                0.31192873752606
            ]
        },
        {
            "positions": [
                1.388699343336453,
                -1.7861015658635324,
                0.3840576832169392,
                -0.3718609807312585,
                1.4754988508418214,
                0.4059131048190511
            ]
        },
        {
            "positions": [
                1.409654497400941,
                -1.799695857108358,
                0.4059553288873982,
                -0.4386398620389954,
                1.6491042463662724,
                0.4998974721120422
            ]
        },
        {
            "positions": [
                1.4306096514654294,
                -1.8132901483531838,
                0.4278529745578572,
                -0.5054187433467323,
                1.8227096418907232,
                0.5938818394050334
            ]
        },
        {
            "positions": [
                1.4515648055299177,
                -1.8268844395980095,
                0.44975062022831613,
                -0.5721976246544691,
                1.996315037415174,
                0.6878662066980245
            ]
        },
        {
            "positions": [
                1.4725199595944058,
                -1.8404787308428352,
                0.4716482658987752,
                -0.638976505962206,
                2.169920432939625,
                0.7818505739910155
            ]
        },
        {
            "positions": [
                1.4934751136588942,
                -1.8540730220876611,
                0.4935459115692341,
                -0.7057553872699429,
                2.3435258284640756,
                0.8758349412840067
            ]
        },
        {
            "positions": [
                1.5144302677233823,
                -1.8676673133324868,
                0.5154435572396932,
                -0.7725342685776797,
                2.5171312239885264,
                0.9698193085769978
            ]
        },
        {
            "positions": [
                1.5353854217878706,
                -1.8812616045773125,
                0.5373412029101521,
                -0.8393131498854167,
                2.690736619512977,
                1.063803675869989
            ]
        },
        {
            "positions": [
                1.6006827284581626,
                -1.8303405223146691,
                0.6153810973138973,
                -0.8356615961561829,
                2.573805977773399,
                1.1403199161490003
            ]
        },
        {
            "positions": [
                1.6659800351284544,
                -1.7794194400520258,
                0.6934209917176425,
                -0.832010042426949,
                2.45687533603382,
                1.2168361564280117
            ]
        },
        {
            "positions": [
                1.7312773417987464,
                -1.7284983577893827,
                0.7714608861213877,
                -0.8283584886977151,
                2.3399446942942417,
                1.2933523967070228
            ]
        },
        {
            "positions": [
                1.7965746484690381,
                -1.6775772755267393,
                0.8495007805251329,
                -0.8247069349684811,
                2.2230140525546633,
                1.3698686369860342
            ]
        },
        {
            "positions": [
                1.8618719551393301,
                -1.626656193264096,
                0.9275406749288782,
                -0.8210553812392473,
                2.1060834108150845,
                1.4463848772650456
            ]
        },
        {
            "positions": [
                1.927169261809622,
                -1.5757351110014526,
                1.0055805693326234,
                -0.8174038275100134,
                1.9891527690755062,
                1.522901117544057
            ]
        },
        {
            "positions": [
                1.9924665684799139,
                -1.5248140287388092,
                1.0836204637363687,
                -0.8137522737807795,
                1.8722221273359276,
                1.5994173578230684
            ]
        },
        {
            "positions": [
                2.0577638751502056,
                -1.4738929464761659,
                1.161660358140114,
                -0.8101007200515457,
                1.755291485596349,
                1.6759335981020795
            ]
        },
        {
            "positions": [
                2.1230611818204976,
                -1.4229718642135225,
                1.2397002525438592,
                -0.8064491663223118,
                1.6383608438567705,
                1.7524498383810911
            ]
        },
        {
            "positions": [
                2.1883584884907896,
                -1.3720507819508794,
                1.3177401469476044,
                -0.8027976125930779,
                1.5214302021171922,
                1.8289660786601023
            ]
        },
        {
            "positions": [
                2.253655795161081,
                -1.3211296996882358,
                1.3957800413513497,
                -0.7991460588638439,
                1.4044995603776136,
                1.905482318939114
            ]
        },
        {
            "positions": [
                2.318953101831373,
                -1.2702086174255927,
                1.4738199357550947,
                -0.7954945051346101,
                1.2875689186380352,
                1.981998559218125
            ]
        },
        {
            "positions": [
                2.384250408501665,
                -1.2192875351629493,
                1.55185983015884,
                -0.7918429514053762,
                1.1706382768984565,
                2.0585147994971367
            ]
        },
        {
            "positions": [
                2.449547715171957,
                -1.168366452900306,
                1.6298997245625853,
                -0.7881913976761423,
                1.053707635158878,
                2.135031039776148
            ]
        },
        {
            "positions": [
                2.493990365484037,
                -1.1297759925738013,
                1.6784589255299318,
                -0.786474068113383,
                1.0547648513743515,
                2.3959217539156583
            ]
        },
        {
            "positions": [
                2.538433015796117,
                -1.0911855322472965,
                1.7270181264972781,
                -0.7847567385506238,
                1.0558220675898249,
                2.656812468055169
            ]
        },
        {
            "positions": [
                2.582875666108196,
                -1.0525950719207917,
                1.7755773274646245,
                -0.7830394089878645,
                1.0568792838052983,
                2.9177031821946793
            ]
        },
        {
            "positions": [
                2.627318316420276,
                -1.0140046115942871,
                1.824136528431971,
                -0.7813220794251052,
                1.0579365000207717,
                3.1785938963341898
            ]
        }
    ]
}