{
    "goal": {
        "global_pose": {
            "orientation": {
                "w": -0.00223480608172531,
                "x": 0.0024358444001904467,
                "y": 0.7094548369677653,
                "z": -0.704743149386269
            },
            "position": {
                "x": 0.6205249238014221,
                "y": -0.6371506643295288,
                "z": 0.19426114857196808
            }
        },
        "name": "move_to_magneteinheit_B"
    },
    "id": "LBKPIECE_move_to_magneteinheit_B_17",
    "joint_names": [
        "shoulder_pan_joint",
        "shoulder_lift_joint",
        "elbow_joint",
        "wrist_1_joint",
        "wrist_2_joint",
        "wrist_3_joint"
    ],
    "metrics": {
        "cart_traj_len": 4.465863635415495,
        "distance_elbow_joint": 5.094633909527991,
        "distance_shoulder_lift_joint": 2.212845869776983,
        "distance_shoulder_pan_joint": 3.7171136977161487,
        "distance_wrist_1_joint": 5.625755197092957,
        "distance_wrist_2_joint": 3.273045811868944,
        "distance_wrist_3_joint": 6.037644629457105,
        "smoothness": 0.5540338551843014,
        "time": 0.780967508,
        "traj_len": 5.09519765224472,
        "weighted_distance": 6.850921790775035
    },
    "planner": "LBKPIECE",
    "start": {
        "state": {
            "elbow_joint": 2.6216224122426386,
            "shoulder_lift_joint": -1.4174107377796124,
            "shoulder_pan_joint": 0.7066234856936794,
            "wrist_1_joint": 1.9546482284002225,
            "wrist_2_joint": -0.7096286983471962,
            "wrist_3_joint": 0.005740856962016249
        }
    },
    "waypoints": [
        {
            "positions": [
                0.7066234856936794,
                -1.4174107377796124,
                2.6216224122426386,
                1.9546482284002225,
                -0.7096286983471962,
                0.005740856962016249
            ]
        },
        {
            "positions": [
                0.758059738486605,
                -1.4294943404779399,
                2.640297241517612,
                1.9924551273913977,
                -0.7396814741516333,
                -0.08612031203355107
            ]
        },
        {
            "positions": [
                0.8352141176759933,
                -1.447619744525431,
                2.668309485430072,
                2.049165475878161,
                -0.784760637858289,
                -0.22391206552690202
            ]
        },
        {
            "positions": [
                0.9123684968653817,
                -1.4657451485729225,
                2.6963217293425323,
                2.105875824364924,
                -0.8298398015649446,
                -0.361703819020253
            ]
        },
        {
            "positions": [
                0.879445389373907,
                -1.4226091663110438,
                2.685459855118606,
                2.1085221615804075,
                -0.7169087860245377,
                -0.5482448432933322
            ]
        },
        {
            "positions": [
                0.8465222818824324,
                -1.3794731840491654,
                2.674597980894679,
                2.111168498795891,
                -0.6039777704841306,
                -0.7347858675664114
            ]
        },
        {
            "positions": [
                0.8135991743909577,
                -1.3363372017872868,
                2.6637361066707523,
                2.113814836011375,
                -0.49104675494372363,
                -0.9213268918394906
            ]
        },
        {
            "positions": [
                0.7806760668994831,
                -1.2932012195254083,
                2.652874232446826,
                2.1164611732268583,
                -0.3781157394033166,
                -1.1078679161125697
            ]
        },
        {
            "positions": [
                0.7477529594080085,
                -1.2500652372635297,
                2.6420123582228996,
                2.119107510442342,
                -0.2651847238629096,
                -1.294408940385649
            ]
        },
        {
            "positions": [
                0.7148298519165338,
                -1.206929255001651,
                2.6311504839989728,
                2.1217538476578257,
                -0.15225370832250262,
                -1.4809499646587283
            ]
        },
        {
            "positions": [
                0.6819067444250592,
                -1.1637932727397726,
                2.620288609775046,
                2.124400184873309,
                -0.03932269278209555,
                -1.6674909889318075
            ]
        },
        {
            "positions": [
                0.6489836369335845,
                -1.120657290477894,
                2.6094267355511196,
                2.1270465220887926,
                0.0736083227583114,
                -1.8540320132048866
            ]
        },
        {
            "positions": [
                0.5824111644652209,
                -1.074247767991203,
                2.584823239629225,
                2.102084757909453,
                0.1956218560947255,
                -1.9516444506672694
            ]
        },
        {
            "positions": [
                0.5158386919968572,
                -1.0278382455045123,
                2.56021974370733,
                2.0771229937301134,
                0.31763538943113956,
                -2.0492568881296522
            ]
        },
        {
            "positions": [
                0.44926621952849355,
                -0.9814287230178214,
                2.5356162477854354,
                2.0521612295507734,
                0.43964892276755363,
                -2.1468693255920352
            ]
        },
        {
            "positions": [
                0.3826937470601299,
                -0.9350192005311305,
                2.5110127518635403,
                2.027199465371434,
                0.5616624561039677,
                -2.2444817630544183
            ]
        },
        {
            "positions": [
                0.3161212745917662,
                -0.8886096780444397,
                2.4864092559416457,
                2.002237701192094,
                0.6836759894403818,
                -2.342094200516801
            ]
        },
        {
            "positions": [
                0.2772250531385248,
                -0.928305173059387,
                2.366886308462155,
                1.92538771014889,
                0.6662135777737813,
                -2.261368856191135
            ]
        },
        {
            "positions": [
                0.23832883168528338,
                -0.9680006680743342,
                2.247363360982664,
                1.8485377191056858,
                0.6487511661071808,
                -2.180643511865469
            ]
        },
        {
            "positions": [
                0.19943261023204195,
                -1.0076961630892813,
                2.127840413503173,
                1.7716877280624816,
                0.6312887544405803,
                -2.099918167539803
            ]
        },
        {
            "positions": [
                0.16053638877880055,
                -1.0473916581042286,
                2.008317466023682,
                1.6948377370192775,
                0.6138263427739798,
                -2.019192823214137
            ]
        },
        {
            "positions": [
                0.1216401673255591,
                -1.087087153119176,
                1.8887945185441914,
                1.6179877459760732,
                0.5963639311073793,
                -1.9384674788884715
            ]
        },
        {
            "positions": [
                0.08274394587231772,
                -1.1267826481341232,
                1.7692715710647007,
                1.541137754932869,
                0.5789015194407788,
                -1.8577421345628056
            ]
        },
        {
            "positions": [
                0.06541344622125059,
                -1.1722094913002261,
                1.6710613577697022,
                1.4391404687778573,
                0.5090705689887657,
                -1.8264202076820975
            ]
        },
        {
            "positions": [
                0.048082946570183444,
                -1.2176363344663292,
                1.572851144474704,
                1.3371431826228457,
                0.4392396185367525,
                -1.7950982808013891
            ]
        },
        {
            "positions": [
                0.030752446919116296,
                -1.2630631776324321,
                1.4746409311797055,
                1.235145896467834,
                0.36940866808473927,
                -1.763776353920681
            ]
        },
        {
            "positions": [
                0.0458660770020784,
                -1.3055497149373865,
                1.3619848097341951,
                1.1193437998060314,
                0.2971574699271774,
                -1.7558614353984527
            ]
        },
        {
            "positions": [
                0.060979707085040497,
                -1.348036252242341,
                1.249328688288685,
                1.003541703144229,
                0.22490627176961553,
                -1.7479465168762245
            ]
        },
        {
            "positions": [
                0.07609333716800261,
                -1.3905227895472954,
                1.1366725668431745,
                0.8877396064824266,
                0.15265507361205366,
                -1.7400315983539962
            ]
        },
        {
            "positions": [
                0.17877956476766338,
                -1.3911132174428689,
                0.9942246244313763,
                0.7938737227968699,
                0.1346520627786487,
                -1.7699952812955542
            ]
        },
        {
            "positions": [
                0.2814657923673241,
                -1.3917036453384426,
                0.851776682019578,
                0.7000078391113131,
                0.11664905194524372,
                -1.799958964237112
            ]
        },
        {
            "positions": [
                0.38415201996698484,
                -1.392294073234016,
                0.7093287396077799,
                0.6061419554257566,
                0.09864604111183875,
                -1.8299226471786698
            ]
        },
        {
            "positions": [
                0.4868382475666456,
                -1.3928845011295898,
                0.5668807971959816,
                0.5122760717401998,
                0.08064303027843378,
                -1.8598863301202277
            ]
        },
        {
            "positions": [
                0.5895244751663063,
                -1.3934749290251633,
                0.42443285478418347,
                0.4184101880546432,
                0.06264001944502881,
                -1.8898500130617857
            ]
        },
        {
            "positions": [
                0.6922107027659671,
                -1.394065356920737,
                0.2819849123723852,
                0.32454430436908654,
                0.044637008611623855,
                -1.9198136960033436
            ]
        },
        {
            "positions": [
                0.7948969303656278,
                -1.3946557848163106,
                0.13953696996058695,
                0.23067842068352984,
                0.02663399777821887,
                -1.9497773789449016
            ]
        },
        {
            "positions": [
                0.8975831579652886,
                -1.3952462127118843,
                -0.002910972451211302,
                0.13681253699797313,
                0.008630986944813901,
                -1.9797410618864595
            ]
        },
        {
            "positions": [
                1.0002693855649494,
                -1.3958366406074578,
                -0.14535891486300967,
                0.04294665331241643,
                -0.009372023888591069,
                -2.009704744828017
            ]
        },
        {
            "positions": [
                1.10295561316461,
                -1.3964270685030316,
                -0.2878068572748076,
                -0.05091923037314017,
                -0.02737503472199604,
                -2.039668427769575
            ]
        },
        {
            "positions": [
                1.2056418407642708,
                -1.397017496398605,
                -0.43025479968660596,
                -0.14478511405869687,
                -0.04537804555540101,
                -2.069632110711133
            ]
        },
        {
            "positions": [
                1.3083280683639316,
                -1.3976079242941786,
                -0.5727027420984041,
                -0.23865099774425347,
                -0.06338105638880595,
                -2.099595793652691
            ]
        },
        {
            "positions": [
                1.4110142959635923,
                -1.3981983521897523,
                -0.7151506845102025,
                -0.3325168814298103,
                -0.08138406722221095,
                -2.129559476594249
            ]
        },
        {
            "positions": [
                1.513700523563253,
                -1.3987887800853258,
                -0.8575986269220006,
                -0.4263827651153669,
                -0.09938707805561592,
                -2.159523159535807
            ]
        },
        {
            "positions": [
                1.6163867511629137,
                -1.3993792079808995,
                -1.0000465693337985,
                -0.5202486488009235,
                -0.11739008888902086,
                -2.189486842477365
            ]
        },
        {
            "positions": [
                1.7190729787625747,
                -1.399969635876473,
                -1.1424945117455971,
                -0.6141145324864803,
                -0.13539309972242586,
                -2.2194505254189227
            ]
        },
        {
            "positions": [
                1.8217592063622352,
                -1.4005600637720468,
                -1.2849424541573953,
                -0.7079804161720369,
                -0.1533961105558308,
                -2.2494142083604807
            ]
        },
        {
            "positions": [
                1.9244454339618962,
                -1.4011504916676203,
                -1.4273903965691939,
                -0.8018462998575937,
                -0.1713991213892358,
                -2.2793778913020386
            ]
        },
        {
            "positions": [
                2.027131661561557,
                -1.401740919563194,
                -1.569838338980992,
                -0.8957121835431503,
                -0.1894021322226408,
                -2.309341574243596
            ]
        },
        {
            "positions": [
                2.1298178891612176,
                -1.4023313474587675,
                -1.7122862813927897,
                -0.9895780672287069,
                -0.20740514305604574,
                -2.339305257185154
            ]
        },
        {
            "positions": [
                2.2325041167608783,
                -1.4029217753543413,
                -1.8547342238045883,
                -1.0834439509142637,
                -0.22540815388945074,
                -2.369268940126712
            ]
        },
        {
            "positions": [
                2.335190344360539,
                -1.4035122032499148,
                -1.9971821662163864,
                -1.1773098345998203,
                -0.24341116472285568,
                -2.39923262306827
            ]
        },
        {
            "positions": [
                2.3537980644285024,
                -1.4665297563385498,
                -1.980696539522915,
                -1.0590382159778509,
                -0.20251082963469047,
                -2.2617465944135797
            ]
        },
        {
            "positions": [
                2.3724057844964657,
                -1.5295473094271848,
                -1.9642109128294436,
                -0.9407665973558815,
                -0.16161049454652524,
                -2.1242605657588896
            ]
        },
        {
            "positions": [
                2.3910135045644294,
                -1.5925648625158195,
                -1.9477252861359724,
                -0.8224949787339122,
                -0.12071015945836001,
                -1.9867745371041994
            ]
        },
        {
            "positions": [
                2.4096212246323927,
                -1.6555824156044545,
                -1.931239659442501,
                -0.7042233601119428,
                -0.07980982437019479,
                -1.8492885084495092
            ]
        },
        {
            "positions": [
                2.428228944700356,
                -1.7185999686930895,
                -1.9147540327490296,
                -0.5859517414899733,
                -0.038909489282029586,
                -1.711802479794819
            ]
        },
        {
            "positions": [
                2.4468366647683197,
                -1.7816175217817243,
                -1.8982684060555584,
                -0.467680122868004,
                0.0019908458061356493,
                -1.5743164511401289
            ]
        },
        {
            "positions": [
                2.465444384836283,
                -1.8446350748703593,
                -1.881782779362087,
                -0.34940850424603465,
                0.042891180894300884,
                -1.4368304224854387
            ]
        },
        {
            "positions": [
                2.4840521049042463,
                -1.9076526279589943,
                -1.8652971526686155,
                -0.2311368856240652,
                0.08379151598246609,
                -1.2993443938307485
            ]
        },
        {
            "positions": [
                2.5026598249722096,
                -1.9706701810476293,
                -1.848811525975144,
                -0.11286526700209576,
                0.1246918510706313,
                -1.1618583651760583
            ]
        },
        {
            "positions": [
                2.521267545040173,
                -2.0336877341362642,
                -1.8323258992816727,
                0.005406351619873684,
                0.1655921861587965,
                -1.0243723365213682
            ]
        },
        {
            "positions": [
                2.5398752651081367,
                -2.096705287224899,
                -1.8158402725882015,
                0.1236779702418429,
                0.20649252124696177,
                -0.886886307866678
            ]
        },
        {
            "positions": [
                2.5584829851761,
                -2.159722840313534,
                -1.79935464589473,
                0.24194958886381235,
                0.24739285633512698,
                -0.7494002792119878
            ]
        },
        {
            "positions": [
                2.5770907052440633,
                -2.222740393402169,
                -1.7828690192012586,
                0.3602212074857818,
                0.2882931914232922,
                -0.6119142505572976
            ]
        },
        {
            "positions": [
                2.595698425312027,
                -2.2857579464908038,
                -1.7663833925077874,
                0.478492826107751,
                0.32919352651145745,
                -0.47442822190260747
            ]
        },
        {
            "positions": [
                2.6143061453799903,
                -2.348775499579439,
                -1.749897765814316,
                0.5967644447297205,
                0.3700938615996226,
                -0.3369421932479173
            ]
        },
        {
            "positions": [
                2.6329138654479536,
                -2.4117930526680738,
                -1.7334121391208446,
                0.7150360633516899,
                0.41099419668778786,
                -0.1994561645932269
            ]
        },
        {
            "positions": [
                2.646709474482625,
                -2.443889359583852,
                -1.7020818042340287,
                0.8433633877338196,
                0.43990739772377985,
                -0.08507142128014457
            ]
        },
        {
            "positions": [
                2.660505083517297,
                -2.47598566649963,
                -1.6707514693472127,
                0.9716907121159493,
                0.46882059875977183,
                0.029313322032937773
            ]
        }
    ]
}