{
    "goal": {
        "global_pose": {
            "orientation": {
                "w": -0.4816463035849501,
                "x": 0.5182115481033762,
                "y": 0.4908360881923453,
                "z": -0.5084816262002911
            },
            "position": {
                "x": -0.8240239810943604,
                "y": 0.19912469901144506,
                "z": 0.16403168439865112
            }
        },
        "name": "move_to_storage_D"
    },
    "id": "LBKPIECE_move_to_storage_D_140",
    "joint_names": [
        "shoulder_pan_joint",
        "shoulder_lift_joint",
        "elbow_joint",
        "wrist_1_joint",
        "wrist_2_joint",
        "wrist_3_joint"
    ],
    "metrics": {
        "cart_traj_len": 3.9726743136603146,
        "distance_elbow_joint": 4.208080002693907,
        "distance_shoulder_lift_joint": 1.2647526927432493,
        "distance_shoulder_pan_joint": 3.040481492761261,
        "distance_wrist_1_joint": 2.2646363053048972,
        "distance_wrist_2_joint": 2.182091476329358,
        "distance_wrist_3_joint": 3.1438468749470205,
        "smoothness": 0.12197820328640496,
        "time": 0.8109085789999999,
        "traj_len": 4.012965093890014,
        "weighted_distance": 5.18057046823108
    },
    "planner": "LBKPIECE",
    "start": {
        "state": {
            "elbow_joint": -2.384821988534728,
            "shoulder_lift_joint": -2.2788054721415256,
            "shoulder_pan_joint": -0.1854694642142757,
            "wrist_1_joint": 1.4845938289331202,
            "wrist_2_joint": 0.17898776772866878,
            "wrist_3_joint": 0.037105688729662994
        }
    },
    "waypoints": [
        {
            "positions": [
                -0.1854694642142757,
                -2.2788054721415256,
                -2.384821988534728,
                1.4845938289331202,
                0.17898776772866878,
                0.037105688729662994
            ]
        },
        {
            "positions": [
                -0.09104803492326168,
                -2.2501607346867596,
                -2.2830578693802237,
                1.4420287396827616,
                0.22842224517795787,
                0.11570044916352659
            ]
        },
        {
            "positions": [
                0.003373394367752358,
                -2.221515997231994,
                -2.1812937502257195,
                1.399463650432403,
                0.2778567226272469,
                0.1942952095973902
            ]
        },
        {
            "positions": [
                0.09779482365876638,
                -2.192871259777228,
                -2.0795296310712157,
                1.3568985611820443,
                0.327291200076536,
                0.27288997003125376
            ]
        },
        {
            "positions": [
                0.19221625294978043,
                -2.1642265223224624,
                -1.9777655119167115,
                1.3143334719316857,
                0.3767256775258251,
                0.3514847304651174
            ]
        },
        {
            "positions": [
                0.28663768224079444,
                -2.1355817848676963,
                -1.8760013927622072,
                1.2717683826813269,
                0.42616015497511417,
                0.4300794908989809
            ]
        },
        {
            "positions": [
                0.3810591115318085,
                -2.1069370474129308,
                -1.774237273607703,
                1.2292032934309682,
                0.47559463242440325,
                0.5086742513328445
            ]
        },
        {
            "positions": [
                0.47548054082282254,
                -2.0782923099581647,
                -1.672473154453199,
                1.1866382041806096,
                0.5250291098736923,
                0.5872690117667082
            ]
        },
        {
            "positions": [
                0.5699019701138366,
                -2.049647572503399,
                -1.5707090352986948,
                1.144073114930251,
                0.5744635873229814,
                0.6658637722005718
            ]
        },
        {
            "positions": [
                0.6643233994048507,
                -2.021002835048633,
                -1.4689449161441905,
                1.1015080256798924,
                0.6238980647722705,
                0.7444585326344354
            ]
        },
        {
            "positions": [
                0.7587448286958647,
                -1.9923580975938673,
                -1.3671807969896865,
                1.0589429364295337,
                0.6733325422215596,
                0.8230532930682989
            ]
        },
        {
            "positions": [
                0.8531662579868787,
                -1.9637133601391015,
                -1.2654166778351823,
                1.0163778471791751,
                0.7227670196708487,
                0.9016480535021626
            ]
        },
        {
            "positions": [
                0.9475876872778927,
                -1.9350686226843357,
                -1.1636525586806783,
                0.9738127579288164,
                0.7722014971201376,
                0.9802428139360261
            ]
        },
        {
            "positions": [
                1.0420091165689067,
                -1.9064238852295698,
                -1.061888439526174,
                0.9312476686784577,
                0.8216359745694268,
                1.0588375743698897
            ]
        },
        {
            "positions": [
                1.1364305458599206,
                -1.877779147774804,
                -0.9601243203716701,
                0.8886825794280991,
                0.8710704520187158,
                1.1374323348037534
            ]
        },
        {
            "positions": [
                1.2308519751509348,
                -1.8491344103200382,
                -0.8583602012171658,
                0.8461174901777404,
                0.920504929468005,
                1.2160270952376169
            ]
        },
        {
            "positions": [
                1.3252734044419487,
                -1.8204896728652722,
                -0.7565960820626616,
                0.8035524009273818,
                0.969939406917294,
                1.2946218556714806
            ]
        },
        {
            "positions": [
                1.4196948337329627,
                -1.7918449354105066,
                -0.6548319629081576,
                0.7609873116770232,
                1.0193738843665832,
                1.373216616105344
            ]
        },
        {
            "positions": [
                1.514116263023977,
                -1.7632001979557406,
                -0.5530678437536531,
                0.7184222224266644,
                1.0688083618158724,
                1.4518113765392078
            ]
        },
        {
            "positions": [
                1.608537692314991,
                -1.7345554605009748,
                -0.45130372459914914,
                0.6758571331763058,
                1.1182428392651613,
                1.5304061369730713
            ]
        },
        {
            "positions": [
                1.702959121606005,
                -1.705910723046209,
                -0.34953960544464513,
                0.6332920439259472,
                1.1676773167144503,
                1.6090008974069347
            ]
        },
        {
            "positions": [
                1.7973805508970189,
                -1.6772659855914431,
                -0.2477754862901409,
                0.5907269546755886,
                1.2171117941637395,
                1.6875956578407985
            ]
        },
        {
            "positions": [
                1.891801980188033,
                -1.6486212481366773,
                -0.14601136713563667,
                0.5481618654252298,
                1.2665462716130287,
                1.7661904182746622
            ]
        },
        {
            "positions": [
                1.986223409479047,
                -1.6199765106819113,
                -0.04424724798113244,
                0.5055967761748712,
                1.3159807490623177,
                1.8447851787085257
            ]
        },
        {
            "positions": [
                2.080644838770061,
                -1.5913317732271457,
                0.05751687117337134,
                0.4630316869245126,
                1.3654152265116066,
                1.9233799391423891
            ]
        },
        {
            "positions": [
                2.175066268061075,
                -1.5626870357723799,
                0.15928099032787557,
                0.42046659767415395,
                1.4148497039608958,
                2.0019746995762526
            ]
        },
        {
            "positions": [
                2.269487697352089,
                -1.534042298317614,
                0.2610451094823798,
                0.3779015084237951,
                1.464284181410185,
                2.0805694600101163
            ]
        },
        {
            "positions": [
                2.363909126643103,
                -1.505397560862848,
                0.36280922863688403,
                0.3353364191734365,
                1.513718658859474,
                2.15916422044398
            ]
        },
        {
            "positions": [
                2.458330555934117,
                -1.4767528234080824,
                0.4645733477913878,
                0.2927713299230781,
                1.563153136308763,
                2.2377589808778438
            ]
        },
        {
            "positions": [
                2.552751985225131,
                -1.4481080859533164,
                0.566337466945892,
                0.25020624067271946,
                1.6125876137580522,
                2.316353741311707
            ]
        },
        {
            "positions": [
                2.6471734145161454,
                -1.4194633484985506,
                0.6681015861003963,
                0.20764115142236061,
                1.6620220912073413,
                2.3949485017455707
            ]
        },
        {
            "positions": [
                2.7415948438071593,
                -1.3908186110437848,
                0.7698657052549004,
                0.165076062172002,
                1.7114565686566303,
                2.4735432621794344
            ]
        },
        {
            "positions": [
                2.730253125333177,
                -1.3531420278792339,
                0.8752049361453282,
                0.07056420831762412,
                1.6464943011164908,
                2.5442841923291595
            ]
        },
        {
            "positions": [
                2.718911406859194,
                -1.3154654447146832,
                0.9805441670357561,
                -0.023947645536753742,
                1.5815320335763512,
                2.615025122478884
            ]
        },
        {
            "positions": [
                2.7075696883852114,
                -1.2777888615501323,
                1.085883397926184,
                -0.1184594993911316,
                1.5165697660362116,
                2.685766052628609
            ]
        },
        {
            "positions": [
                2.696227969911229,
                -1.2401122783855814,
                1.1912226288166117,
                -0.21297135324550948,
                1.451607498496072,
                2.756506982778334
            ]
        },
        {
            "positions": [
                2.6848862514372467,
                -1.2024356952210304,
                1.2965618597070394,
                -0.3074832070998873,
                1.3866452309559325,
                2.827247912928059
            ]
        },
        {
            "positions": [
                2.673544532963264,
                -1.1647591120564798,
                1.4019010905974674,
                -0.4019950609542652,
                1.321682963415793,
                2.897988843077784
            ]
        },
        {
            "positions": [
                2.662202814489281,
                -1.1270825288919288,
                1.507240321487895,
                -0.49650691480864295,
                1.2567206958756534,
                2.968729773227509
            ]
        },
        {
            "positions": [
                2.6508610960152987,
                -1.089405945727378,
                1.612579552378323,
                -0.5910187686630209,
                1.1917584283355138,
                3.039470703377234
            ]
        },
        {
            "positions": [
                2.6395193775413164,
                -1.0517293625628272,
                1.7179187832687508,
                -0.6855306225173987,
                1.1267961607953743,
                3.1102116335269585
            ]
        },
        {
            "positions": [
                2.6281776590673336,
                -1.0140527793982763,
                1.8232580141591785,
                -0.7800424763717766,
                1.0618338932552347,
                3.1809525636766836
            ]
        }
    ]
}