{
    "goal": {
        "global_pose": {
            "orientation": {
                "w": 0.5084816217422485,
                "x": -0.49083608388900757,
                "y": 0.5182115435600281,
                "z": -0.4816462993621826
            },
            "position": {
                "x": 0.5540239810943604,
                "y": 0.030875300988554955,
                "z": 0.16403168439865112
            }
        },
        "name": "move_to_storage_A"
    },
    "id": "LBKPIECE_move_to_storage_A_106",
    "joint_names": [
        "shoulder_pan_joint",
        "shoulder_lift_joint",
        "elbow_joint",
        "wrist_1_joint",
        "wrist_2_joint",
        "wrist_3_joint"
    ],
    "metrics": {
        "cart_traj_len": 0.35348212796321576,
        "distance_elbow_joint": 0.4534281286730566,
        "distance_shoulder_lift_joint": 0.23397465269370143,
        "distance_shoulder_pan_joint": 0.463819346153713,
        "distance_wrist_1_joint": 0.25853180487515315,
        "distance_wrist_2_joint": 1.092792015517598,
        "distance_wrist_3_joint": 0.10937219251115504,
        "smoothness": 0.0,
        "time": 0.468600182,
        "traj_len": 1.6161429826671827,
        "weighted_distance": 2.044990549083159
    },
    "planner": "LBKPIECE",
    "start": {
        "state": {
            "elbow_joint": 1.971548259319323,
            "shoulder_lift_joint": -1.1394851275133948,
            "shoulder_pan_joint": 0.1228115487234821,
            "wrist_1_joint": -0.7804723859257726,
            "wrist_2_joint": 0.12958671773740124,
            "wrist_3_joint": -3.192489227718131
        }
    },
    "waypoints": [
        {
            "positions": [
                0.1228115487234821,
                -1.1394851275133948,
                1.971548259319323,
                -0.7804723859257726,
                0.12958671773740124,
                -3.192489227718131
            ]
        },
        {
            "positions": [
                0.05655164213009453,
                -1.1729100778982093,
                2.0363237062726167,
                -0.8174055009079374,
                0.28569986281134385,
                -3.1768646287879663
            ]
        },
        {
            "positions": [
                -0.009708264463293037,
                -1.2063350282830239,
                2.1010991532259107,
                -0.8543386158901021,
                0.44181300788528644,
                -3.161240029857801
            ]
        },
        {
            "positions": [
                -0.0759681710566806,
                -1.2397599786678384,
                2.165874600179204,
                -0.8912717308722669,
                0.597926152959229,
                -3.145615430927636
            ]
        },
        {
            "positions": [
                -0.14222807765006817,
                -1.2731849290526527,
                2.230650047132498,
                -0.9282048458544315,
                0.7540392980331716,
                -3.129990831997471
            ]
        },
        {
            "positions": [
                -0.20848798424345577,
                -1.3066098794374672,
                2.295425494085792,
                -0.9651379608365963,
                0.9101524431071142,
                -3.1143662330673063
            ]
        },
        {
            "positions": [
                -0.2747478908368433,
                -1.3400348298222817,
                2.3602009410390856,
                -1.002071075818761,
                1.0662655881810568,
                -3.098741634137141
            ]
        },
        {
            "positions": [
                -0.3410077974302309,
                -1.3734597802070962,
                2.4249763879923796,
                -1.0390041908009258,
                1.2223787332549994,
                -3.083117035206976
            ]
        }
    ]
}{
    "goal": {
        "global_pose": {
            "orientation": {
                "w": 0.5084816217422485,
                "x": -0.49083608388900757,
                "y": 0.5182115435600281,
                "z": -0.4816462993621826
            },
            "position": {
                "x": 0.5540239810943604,
                "y": 0.030875300988554955,
                "z": 0.16403168439865112
            }
        },
        "name": "move_to_storage_A"
    },
    "id": "LBKPIECE_move_to_storage_A_106",
    "joint_names": [
        "shoulder_pan_joint",
        "shoulder_lift_joint",
        "elbow_joint",
        "wrist_1_joint",
        "wrist_2_joint",
        "wrist_3_joint"
    ],
    "metrics": {
        "cart_traj_len": 0.3530080740198347,
        "distance_elbow_joint": 0.4525812623132075,
        "distance_shoulder_lift_joint": 0.23354224256398348,
        "distance_shoulder_pan_joint": 0.4607281947272123,
        "distance_wrist_1_joint": 0.25967136735511853,
        "distance_wrist_2_joint": 1.1018784720105483,
        "distance_wrist_3_joint": 0.09606502466680666,
        "smoothness": 5.551115138160447e-16,
        "time": 0.314797599,
        "traj_len": 1.6138359779224396,
        "weighted_distance": 2.0391533665558743
    },
    "planner": "LBKPIECE",
    "start": {
        "state": {
            "elbow_joint": 1.97154746011099,
            "shoulder_lift_joint": -1.13948474672311,
            "shoulder_pan_joint": 0.12281154466712228,
            "wrist_1_joint": -0.7804688027058302,
            "wrist_2_joint": 0.12958655903071145,
            "wrist_3_joint": 3.0906928834467795
        }
    },
    "waypoints": [
        {
            "positions": [
                0.12281154466712228,
                -1.13948474672311,
                1.97154746011099,
                -0.7804688027058302,
                0.12958655903071145,
                3.0906928834467795
            ]
        },
        {
            "positions": [
                0.05699323113466338,
                -1.1728479242322505,
                2.036201926155734,
                -0.81756471232799,
                0.28699776931793264,
                3.1044164583991805
            ]
        },
        {
            "positions": [
                -0.008825082397795517,
                -1.206211101741391,
                2.1008563922004777,
                -0.8546606219501498,
                0.4444089796051538,
                3.1181400333515814
            ]
        },
        {
            "positions": [
                -0.07464339593025442,
                -1.2395742792505315,
                2.165510858245222,
                -0.8917565315723095,
                0.601820189892375,
                3.1318636083039824
            ]
        },
        {
            "positions": [
                -0.1404617094627133,
                -1.2729374567596718,
                2.2301653242899655,
                -0.9288524411944693,
                0.7592314001795962,
                3.1455871832563833
            ]
        },
        {
            "positions": [
                -0.20628002299517223,
                -1.3063006342688124,
                2.2948197903347096,
                -0.9659483508166291,
                0.9166426104668175,
                3.1593107582087843
            ]
        },
        {
            "positions": [
                -0.2720983365276311,
                -1.339663811777953,
                2.3594742563794533,
                -1.0030442604387888,
                1.0740538207540384,
                3.173034333161185
            ]
        },
        {
            "positions": [
                -0.33791665006009003,
                -1.3730269892870934,
                2.4241287224241974,
                -1.0401401700609487,
                1.2314650310412598,
                3.186757908113586
            ]
        }
    ]
}{
    "goal": {
        "global_pose": {
            "orientation": {
                "w": 0.5084816217422485,
                "x": -0.49083608388900757,
                "y": 0.5182115435600281,
                "z": -0.4816462993621826
            },
            "position": {
                "x": 0.5540239810943604,
                "y": 0.030875300988554955,
                "z": 0.16403168439865112
            }
        },
        "name": "move_to_storage_A"
    },
    "id": "LBKPIECE_move_to_storage_A_106",
    "joint_names": [
        "shoulder_pan_joint",
        "shoulder_lift_joint",
        "elbow_joint",
        "wrist_1_joint",
        "wrist_2_joint",
        "wrist_3_joint"
    ],
    "metrics": {
        "cart_traj_len": 0.35272709170082656,
        "distance_elbow_joint": 0.44950918042149723,
        "distance_shoulder_lift_joint": 0.2344367189471035,
        "distance_shoulder_pan_joint": 0.4629059172272524,
        "distance_wrist_1_joint": 0.2371980036315624,
        "distance_wrist_2_joint": 1.0912917358617085,
        "distance_wrist_3_joint": 0.0983614993161277,
        "smoothness": 2.2204460668324854e-16,
        "time": 0.541686175,
        "traj_len": 1.604276489700342,
        "weighted_distance": 2.024577929725299
    },
    "planner": "LBKPIECE",
    "start": {
        "state": {
            "elbow_joint": 1.9715472970024885,
            "shoulder_lift_joint": -1.1394870060712896,
            "shoulder_pan_joint": 0.12281152778156021,
            "wrist_1_joint": -0.780463741449964,
            "wrist_2_joint": 0.12958659822042276,
            "wrist_3_joint": 3.090690232415272
        }
    },
    "waypoints": [
        {
            "positions": [
                0.12281152778156021,
                -1.1394870060712896,
                1.9715472970024885,
                -0.780463741449964,
                0.12958659822042276,
                3.090690232415272
            ]
        },
        {
            "positions": [
                0.05668211103480987,
                -1.1729779659208759,
                2.0357628942055594,
                -0.8143491705401872,
                0.28548541762923824,
                3.1047418751747187
            ]
        },
        {
            "positions": [
                -0.009447305711940468,
                -1.206468925770462,
                2.099978491408631,
                -0.8482345996304104,
                0.44138423703805374,
                3.1187935179341655
            ]
        },
        {
            "positions": [
                -0.07557672245869079,
                -1.2399598856200482,
                2.1641940886117017,
                -0.8821200287206336,
                0.5972830564468692,
                3.1328451606936123
            ]
        },
        {
            "positions": [
                -0.14170613920544115,
                -1.2734508454696345,
                2.2284096858147726,
                -0.9160054578108567,
                0.7531818758556846,
                3.146896803453059
            ]
        },
        {
            "positions": [
                -0.20783555595219153,
                -1.3069418053192208,
                2.292625283017844,
                -0.94989088690108,
                0.9090806952645002,
                3.160948446212506
            ]
        },
        {
            "positions": [
                -0.2739649726989418,
                -1.3404327651688068,
                2.356840880220915,
                -0.9837763159913032,
                1.0649795146733156,
                3.1750000889719527
            ]
        },
        {
            "positions": [
                -0.34009438944569215,
                -1.373923725018393,
                2.4210564774239858,
                -1.0176617450815264,
                1.2208783340821312,
                3.1890517317313996
            ]
        }
    ]
}