{
    "goal": {
        "global_pose": {
            "orientation": {
                "w": -0.00223480608172531,
                "x": 0.0024358444001904467,
                "y": 0.7094548369677653,
                "z": -0.704743149386269
            },
            "position": {
                "x": 0.6205249238014221,
                "y": -0.6371506643295288,
                "z": 0.19426114857196808
            }
        },
        "name": "move_to_magneteinheit_B"
    },
    "id": "LBKPIECE_move_to_magneteinheit_B_112",
    "joint_names": [
        "shoulder_pan_joint",
        "shoulder_lift_joint",
        "elbow_joint",
        "wrist_1_joint",
        "wrist_2_joint",
        "wrist_3_joint"
    ],
    "metrics": {
        "cart_traj_len": 1.9108186055583023,
        "distance_elbow_joint": 0.9580267781163172,
        "distance_shoulder_lift_joint": 0.9715957682518909,
        "distance_shoulder_pan_joint": 1.8474678394563266,
        "distance_wrist_1_joint": 2.335379578784749,
        "distance_wrist_2_joint": 1.8081453691615743,
        "distance_wrist_3_joint": 0.06820058054674404,
        "smoothness": 0.40924656053549924,
        "time": 0.553926315,
        "traj_len": 2.8264493475591603,
        "weighted_distance": 3.502676408599203
    },
    "planner": "LBKPIECE",
    "start": {
        "state": {
            "elbow_joint": 2.6216224122426386,
            "shoulder_lift_joint": -1.4174107377796124,
            "shoulder_pan_joint": 0.7066234856936794,
            "wrist_1_joint": 1.9546482284002225,
            "wrist_2_joint": -0.7096286983471962,
            "wrist_3_joint": 0.005740856962016249
        }
    },
    "waypoints": [
        {
            "positions": [
                0.7066234856936794,
                -1.4174107377796124,
                2.6216224122426386,
                1.9546482284002225,
                -0.7096286983471962,
                0.005740856962016249
            ]
        },
        {
            "positions": [
                0.6745725885073338,
                -1.445328808374295,
                2.59016808893736,
                1.8345936864777745,
                -0.6636142528079546,
                0.016088660963984435
            ]
        },
        {
            "positions": [
                0.6425216913209881,
                -1.4732468789689777,
                2.558713765632081,
                1.7145391445553264,
                -0.6175998072687129,
                0.026436464965952623
            ]
        },
        {
            "positions": [
                0.6104707941346426,
                -1.5011649495636603,
                2.527259442326802,
                1.5944846026328785,
                -0.5715853617294713,
                0.03678426896792081
            ]
        },
        {
            "positions": [
                0.641020145352061,
                -1.5253036590999591,
                2.434836613085911,
                1.43665097717186,
                -0.5706028169286143,
                0.030250160403617513
            ]
        },
        {
            "positions": [
                0.6615400249414862,
                -1.5216364319760667,
                2.353557874311842,
                1.361032860222789,
                -0.6138861053296969,
                0.02507159150843693
            ]
        },
        {
            "positions": [
                0.6740784941778073,
                -1.5066395328849458,
                2.230757744870979,
                1.265272471741159,
                -0.69277553134467,
                0.02087447474465323
            ]
        },
        {
            "positions": [
                0.6866169634141283,
                -1.4916426337938251,
                2.1079576154301165,
                1.169512083259529,
                -0.7716649573596429,
                0.016677357980869528
            ]
        },
        {
            "positions": [
                0.6991554326504493,
                -1.4766457347027042,
                1.9851574859892536,
                1.0737516947778991,
                -0.850554383374616,
                0.012480241217085826
            ]
        },
        {
            "positions": [
                0.7116939018867703,
                -1.4616488356115835,
                1.8623573565483906,
                0.9779913062962691,
                -0.9294438093895889,
                0.008283124453302124
            ]
        },
        {
            "positions": [
                0.7242323711230914,
                -1.4466519365204626,
                1.739557227107528,
                0.882230917814639,
                -1.008333235404562,
                0.004086007689518424
            ]
        },
        {
            "positions": [
                0.6580733093732997,
                -1.4122253135003056,
                1.7095468256312518,
                0.9129611829767339,
                -1.0736494996268546,
                0.005331951892714402
            ]
        },
        {
            "positions": [
                0.5371968086687574,
                -1.3544849672440062,
                1.706012118592411,
                1.0077482601334316,
                -1.1633474077072201,
                0.005579102897271413
            ]
        },
        {
            "positions": [
                0.41632030796421515,
                -1.296744620987707,
                1.7024774115535701,
                1.1025353372901294,
                -1.2530453157875856,
                0.0058262539018284236
            ]
        },
        {
            "positions": [
                0.2954438072596729,
                -1.2390042747314078,
                1.6989427045147294,
                1.197322414446827,
                -1.3427432238679513,
                0.006073404906385435
            ]
        },
        {
            "positions": [
                0.17456730655513064,
                -1.1812639284751085,
                1.6954079974758887,
                1.2921094916035247,
                -1.4324411319483168,
                0.006320555910942445
            ]
        },
        {
            "positions": [
                0.053690805850588386,
                -1.1235235822188092,
                1.6918732904370477,
                1.3868965687602226,
                -1.5221390400286823,
                0.006567706915499456
            ]
        },
        {
            "positions": [
                -0.06718569485395387,
                -1.06578323596251,
                1.688338583398207,
                1.4816836459169203,
                -1.611836948109048,
                0.006814857920056467
            ]
        },
        {
            "positions": [
                -0.18806219555849613,
                -1.0080428897062106,
                1.6848038763593662,
                1.576470723073618,
                -1.7015348561894132,
                0.007062008924613478
            ]
        },
        {
            "positions": [
                -0.3089386962630384,
                -0.9503025434499114,
                1.6812691693205255,
                1.6712578002303156,
                -1.791232764269779,
                0.007309159929170489
            ]
        },
        {
            "positions": [
                -0.42981519696758064,
                -0.8925621971936122,
                1.6777344622816845,
                1.7660448773870132,
                -1.8809306723501444,
                0.0075563109337275
            ]
        },
        {
            "positions": [
                -0.5506916976721229,
                -0.8348218509373129,
                1.6741997552428438,
                1.8608319545437113,
                -1.97062858043051,
                0.00780346193828451
            ]
        },
        {
            "positions": [
                -0.6715681983766651,
                -0.7770815046810136,
                1.670665048204003,
                1.9556190317004087,
                -2.0603264885108756,
                0.00805061294284152
            ]
        },
        {
            "positions": [
                -0.7924446990812074,
                -0.7193411584247142,
                1.6671303411651621,
                2.0504061088571066,
                -2.150024396591241,
                0.008297763947398533
            ]
        },
        {
            "positions": [
                -0.9133211997857497,
                -0.661600812168415,
                1.6635956341263214,
                2.1451931860138043,
                -2.2397223046716066,
                0.008544914951955543
            ]
        }
    ]
}