{
    "goal": {
        "global_pose": {
            "orientation": {
                "w": 0.7031023480610252,
                "x": -0.7110244013736278,
                "y": 0.0077485991402295624,
                "z": 0.005598929693374583
            },
            "position": {
                "x": -0.8841497679147869,
                "y": 0.44412534475326537,
                "z": 0.3711530566215515
            }
        },
        "name": "move_to_auspresseinheit_D"
    },
    "id": "LBKPIECE_move_to_auspresseinheit_D_133",
    "joint_names": [
        "shoulder_pan_joint",
        "shoulder_lift_joint",
        "elbow_joint",
        "wrist_1_joint",
        "wrist_2_joint",
        "wrist_3_joint"
    ],
    "metrics": {
        "cart_traj_len": 0.3443885290603595,
        "distance_elbow_joint": 0.6543778975188081,
        "distance_shoulder_lift_joint": 0.1299180633112158,
        "distance_shoulder_pan_joint": 0.13433552122749978,
        "distance_wrist_1_joint": 0.5799845360318483,
        "distance_wrist_2_joint": 1.4320580002393817,
        "distance_wrist_3_joint": 0.03514723297580691,
        "smoothness": 0.0,
        "time": 0.242336602,
        "traj_len": 1.7221559892485234,
        "weighted_distance": 2.2468106848436085
    },
    "planner": "LBKPIECE",
    "start": {
        "state": {
            "elbow_joint": -1.8275523626775212,
            "shoulder_lift_joint": -2.126789852344167,
            "shoulder_pan_joint": -0.03513704404078235,
            "wrist_1_joint": -2.347782403156801,
            "wrist_2_joint": -1.6058999987535132,
            "wrist_3_joint": -3.0880379163319196
        }
    },
    "waypoints": [
        {
            "positions": [
                -0.03513704404078235,
                -2.126789852344167,
                -1.8275523626775212,
                -2.347782403156801,
                -1.6058999987535132,
                -3.0880379163319196
            ]
        },
        {
            "positions": [
                -0.05192898419421982,
                -2.143029610258069,
                -1.7457551254876702,
                -2.420280470160782,
                -1.4268927487235905,
                -3.083644512209944
            ]
        },
        {
            "positions": [
                -0.0687209243476573,
                -2.159269368171971,
                -1.6639578882978192,
                -2.492778537164763,
                -1.2478854986936678,
                -3.079251108087968
            ]
        },
        {
            "positions": [
                -0.08551286450109477,
                -2.1755091260858728,
                -1.5821606511079682,
                -2.565276604168744,
                -1.068878248663745,
                -3.074857703965992
            ]
        },
        {
            "positions": [
                -0.10230480465453223,
                -2.1917488839997747,
                -1.5003634139181172,
                -2.637774671172725,
                -0.8898709986338224,
                -3.070464299844016
            ]
        },
        {
            "positions": [
                -0.11909674480796972,
                -2.2079886419136767,
                -1.418566176728266,
                -2.710272738176706,
                -0.7108637486038997,
                -3.0660708957220404
            ]
        },
        {
            "positions": [
                -0.13588868496140719,
                -2.2242283998275787,
                -1.336768939538415,
                -2.782770805180687,
                -0.5318564985739769,
                -3.061677491600064
            ]
        },
        {
            "positions": [
                -0.15268062511484465,
                -2.2404681577414807,
                -1.254971702348564,
                -2.855268872184668,
                -0.3528492485440542,
                -3.0572840874780884
            ]
        },
        {
            "positions": [
                -0.16947256526828214,
                -2.2567079156553826,
                -1.173174465158713,
                -2.927766939188649,
                -0.1738419985141315,
                -3.0528906833561127
            ]
        }
    ]
}