{
    "goal": {
        "global_pose": {
            "orientation": {
                "w": -0.00223480608172531,
                "x": 0.0024358444001904467,
                "y": 0.7094548369677653,
                "z": -0.704743149386269
            },
            "position": {
                "x": -0.37947507619857795,
                "y": -0.6371506643295288,
                "z": 0.19426114857196808
            }
        },
        "name": "move_to_magneteinheit_C"
    },
    "id": "LBKPIECE_move_to_magneteinheit_C_26",
    "joint_names": [
        "shoulder_pan_joint",
        "shoulder_lift_joint",
        "elbow_joint",
        "wrist_1_joint",
        "wrist_2_joint",
        "wrist_3_joint"
    ],
    "metrics": {
        "cart_traj_len": 1.1006398246053697,
        "distance_elbow_joint": 0.7080761148959129,
        "distance_shoulder_lift_joint": 0.6214523984007805,
        "distance_shoulder_pan_joint": 1.5945832839248026,
        "distance_wrist_1_joint": 0.7221384781532545,
        "distance_wrist_2_joint": 1.4241156100709864,
        "distance_wrist_3_joint": 1.2970221296224937,
        "smoothness": 2.1493961185216954,
        "time": 0.470751519,
        "traj_len": 2.5233683867141217,
        "weighted_distance": 3.332819581456137
    },
    "planner": "LBKPIECE",
    "start": {
        "state": {
            "elbow_joint": 1.9565354010623817,
            "shoulder_lift_joint": -1.4165861575791021,
            "shoulder_pan_joint": -1.6717766225146293,
            "wrist_1_joint": -0.5286633292919765,
            "wrist_2_joint": 1.472756589071564,
            "wrist_3_joint": -3.1238370188695823
        }
    },
    "waypoints": [
        {
            "positions": [
                -1.6717766225146293,
                -1.4165861575791021,
                1.9565354010623817,
                -0.5286633292919765,
                1.472756589071564,
                -3.1238370188695823
            ]
        },
        {
            "positions": [
                -1.6182272734680976,
                -1.430421678772126,
                1.9417065602747692,
                -0.4605046197286787,
                1.376449073987341,
                -2.977659722349281
            ]
        },
        {
            "positions": [
                -1.564677924421566,
                -1.4442571999651501,
                1.9268777194871567,
                -0.3923459101653809,
                1.280141558903118,
                -2.8314824258289795
            ]
        },
        {
            "positions": [
                -1.5111285753750343,
                -1.458092721158174,
                1.9120488786995442,
                -0.32418720060208306,
                1.183834043818895,
                -2.685305129308678
            ]
        },
        {
            "positions": [
                -1.5834714739885394,
                -1.4195486178878416,
                1.9447692505293976,
                -0.33873691276760304,
                1.0474560107370348,
                -2.7318783905494546
            ]
        },
        {
            "positions": [
                -1.6558143726020442,
                -1.381004514617509,
                1.9774896223592513,
                -0.3532866249331231,
                0.9110779776551745,
                -2.7784516517902307
            ]
        },
        {
            "positions": [
                -1.728157271215549,
                -1.3424604113471763,
                2.010209994189105,
                -0.36783633709864305,
                0.7746999445733141,
                -2.8250249130310072
            ]
        },
        {
            "positions": [
                -1.8005001698290541,
                -1.3039163080768439,
                2.0429303660189584,
                -0.38238604926416303,
                0.6383219114914539,
                -2.8715981742717838
            ]
        },
        {
            "positions": [
                -1.8728430684425592,
                -1.2653722048065115,
                2.075650737848812,
                -0.39693576142968306,
                0.5019438784095935,
                -2.91817143551256
            ]
        },
        {
            "positions": [
                -1.945185967056064,
                -1.2268281015361788,
                2.1083711096786653,
                -0.41148547359520304,
                0.36556584532773334,
                -2.9647446967533364
            ]
        },
        {
            "positions": [
                -2.0726421501354975,
                -1.2505062674379828,
                2.1392657269604327,
                -0.45787596789149093,
                0.41717157974347685,
                -3.0274384550266618
            ]
        },
        {
            "positions": [
                -2.200098333214931,
                -1.2741844333397865,
                2.1701603442422006,
                -0.5042664621877788,
                0.4687773141592203,
                -3.0901322132999876
            ]
        },
        {
            "positions": [
                -2.327554516294364,
                -1.2978625992415904,
                2.201054961523968,
                -0.5506569564840667,
                0.5203830485749638,
                -3.1528259715733133
            ]
        },
        {
            "positions": [
                -2.4550106993737972,
                -1.3215407651433944,
                2.2319495788057355,
                -0.5970474507803546,
                0.5719887829907073,
                -3.2155197298466387
            ]
        },
        {
            "positions": [
                -2.5824668824532306,
                -1.345218931045198,
                2.2628441960875034,
                -0.6434379450766425,
                0.6235945174064508,
                -3.278213488119964
            ]
        },
        {
            "positions": [
                -2.709923065532664,
                -1.368897096947002,
                2.293738813369271,
                -0.6898284393729304,
                0.6752002518221942,
                -3.34090724639329
            ]
        },
        {
            "positions": [
                -2.631542816656805,
                -1.300026357017372,
                2.1997722607481545,
                -0.7405021429371016,
                0.6727700985446292,
                -3.2732778720676308
            ]
        },
        {
            "positions": [
                -2.5531625677809453,
                -1.2311556170877418,
                2.1058057081270385,
                -0.7911758465012729,
                0.6703399452670641,
                -3.2056484977419712
            ]
        },
        {
            "positions": [
                -2.474782318905086,
                -1.1622848771581118,
                2.011839155505922,
                -0.8418495500654442,
                0.6679097919894991,
                -3.138019123416312
            ]
        }
    ]
}