{
    "goal": {
        "global_pose": {
            "orientation": {
                "w": -0.4816463035849501,
                "x": 0.5182115481033762,
                "y": 0.4908360881923453,
                "z": -0.5084816262002911
            },
            "position": {
                "x": -0.8240239810943604,
                "y": 0.19912469901144506,
                "z": 0.16403168439865112
            }
        },
        "name": "move_to_storage_D"
    },
    "id": "LBKPIECE_move_to_storage_D_20",
    "joint_names": [
        "shoulder_pan_joint",
        "shoulder_lift_joint",
        "elbow_joint",
        "wrist_1_joint",
        "wrist_2_joint",
        "wrist_3_joint"
    ],
    "metrics": {
        "cart_traj_len": 0.6033947895756002,
        "distance_elbow_joint": 0.5535358398185894,
        "distance_shoulder_lift_joint": 0.3948251706358885,
        "distance_shoulder_pan_joint": 0.1955631931938374,
        "distance_wrist_1_joint": 3.849269227729647,
        "distance_wrist_2_joint": 2.0238318241088002,
        "distance_wrist_3_joint": 3.3391870341930083,
        "smoothness": 0.7838553366010391,
        "time": 0.193204316,
        "traj_len": 3.218106941927159,
        "weighted_distance": 4.786197594114167
    },
    "planner": "LBKPIECE",
    "start": {
        "state": {
            "elbow_joint": -2.384821988534728,
            "shoulder_lift_joint": -2.2788054721415256,
            "shoulder_pan_joint": -0.1854694642142757,
            "wrist_1_joint": 1.4845938289331202,
            "wrist_2_joint": 0.17898776772866878,
            "wrist_3_joint": 0.037105688729662994
        }
    },
    "waypoints": [
        {
            "positions": [
                -0.1854694642142757,
                -2.2788054721415256,
                -2.384821988534728,
                1.4845938289331202,
                0.17898776772866878,
                0.037105688729662994
            ]
        },
        {
            "positions": [
                -0.12485827867215499,
                -2.122509912892196,
                -2.349644848351065,
                1.4997388530815048,
                0.14257521646818339,
                0.03327594074091958
            ]
        },
        {
            "positions": [
                -0.06862140334577327,
                -2.1832348262835954,
                -2.304028104961973,
                1.4180708165507203,
                0.20355076230675315,
                -0.01218892734648206
            ]
        },
        {
            "positions": [
                -0.01238452801939155,
                -2.243959739674995,
                -2.2584113615728807,
                1.3364027800199358,
                0.2645263081453229,
                -0.0576537954338837
            ]
        },
        {
            "positions": [
                -0.013321122061014599,
                -2.239081415316505,
                -2.2406144777038497,
                1.1834532745816153,
                0.1867984672631906,
                0.07753068581734389
            ]
        },
        {
            "positions": [
                -0.01425771610263765,
                -2.234203090958015,
                -2.2228175938348187,
                1.0305037691432948,
                0.1090706263810583,
                0.21271516706857146
            ]
        },
        {
            "positions": [
                -0.0151943101442607,
                -2.229324766599525,
                -2.2050207099657877,
                0.8775542637049741,
                0.03134278549892597,
                0.3478996483197991
            ]
        },
        {
            "positions": [
                -0.01613090418588375,
                -2.224446442241035,
                -2.187223826096757,
                0.7246047582666536,
                -0.04638505538320631,
                0.48308412957102664
            ]
        },
        {
            "positions": [
                -0.0170674982275068,
                -2.219568117882545,
                -2.169426942227726,
                0.571655252828333,
                -0.12411289626533867,
                0.6182686108222543
            ]
        },
        {
            "positions": [
                -0.01800409226912985,
                -2.214689793524055,
                -2.151630058358695,
                0.41870574739001243,
                -0.20184073714747097,
                0.7534530920734819
            ]
        },
        {
            "positions": [
                -0.0189406863107529,
                -2.209811469165565,
                -2.133833174489664,
                0.2657562419516919,
                -0.2795685780296033,
                0.8886375733247095
            ]
        },
        {
            "positions": [
                -0.01987728035237595,
                -2.204933144807075,
                -2.116036290620633,
                0.11280673651337136,
                -0.3572964189117355,
                1.0238220545759371
            ]
        },
        {
            "positions": [
                -0.020813874393999,
                -2.200054820448585,
                -2.0982394067516026,
                -0.04014276892494939,
                -0.4350242597938679,
                1.1590065358271648
            ]
        },
        {
            "positions": [
                -0.02175046843562205,
                -2.195176496090095,
                -2.0804425228825716,
                -0.19309227436326992,
                -0.5127521006760003,
                1.2941910170783923
            ]
        },
        {
            "positions": [
                -0.0226870624772451,
                -2.190298171731605,
                -2.0626456390135406,
                -0.34604177980159045,
                -0.5904799415581325,
                1.4293754983296199
            ]
        },
        {
            "positions": [
                -0.02362365651886815,
                -2.185419847373115,
                -2.0448487551445096,
                -0.498991285239911,
                -0.6682077824402648,
                1.5645599795808476
            ]
        },
        {
            "positions": [
                -0.0245602505604912,
                -2.180541523014625,
                -2.0270518712754786,
                -0.6519407906782315,
                -0.745935623322397,
                1.699744460832075
            ]
        },
        {
            "positions": [
                -0.025496844602114252,
                -2.1756631986561348,
                -2.0092549874064476,
                -0.804890296116552,
                -0.8236634642045295,
                1.8349289420833028
            ]
        },
        {
            "positions": [
                -0.0264334386437373,
                -2.1707848742976448,
                -1.9914581035374168,
                -0.9578398015548726,
                -0.9013913050866618,
                1.9701134233345303
            ]
        },
        {
            "positions": [
                -0.027370032685360347,
                -2.1659065499391548,
                -1.973661219668386,
                -1.1107893069931931,
                -0.979119145968794,
                2.1052979045857576
            ]
        },
        {
            "positions": [
                -0.028306626726983402,
                -2.1610282255806648,
                -1.955864335799355,
                -1.263738812431514,
                -1.0568469868509265,
                2.2404823858369856
            ]
        },
        {
            "positions": [
                -0.02924322076860645,
                -2.1561499012221748,
                -1.938067451930324,
                -1.4166883178698346,
                -1.1345748277330587,
                2.375666867088213
            ]
        },
        {
            "positions": [
                -0.030179814810229497,
                -2.1512715768636848,
                -1.920270568061293,
                -1.5696378233081547,
                -1.212302668615191,
                2.5108513483394406
            ]
        },
        {
            "positions": [
                -0.031116408851852552,
                -2.1463932525051947,
                -1.902473684192262,
                -1.7225873287464757,
                -1.2900305094973235,
                2.646035829590668
            ]
        },
        {
            "positions": [
                -0.032053002893475596,
                -2.1415149281467047,
                -1.8846768003232313,
                -1.8755368341847962,
                -1.3677583503794557,
                2.7812203108418956
            ]
        },
        {
            "positions": [
                -0.03298959693509865,
                -2.1366366037882147,
                -1.8668799164542005,
                -2.0284863396231168,
                -1.445486191261588,
                2.916404792093123
            ]
        },
        {
            "positions": [
                -0.0339261909767217,
                -2.1317582794297247,
                -1.8490830325851695,
                -2.1814358450614373,
                -1.5232140321437204,
                3.051589273344351
            ]
        },
        {
            "positions": [
                -0.03486278501834475,
                -2.1268799550712347,
                -1.8312861487161385,
                -2.334385350499758,
                -1.6009418730258527,
                3.1867737545955785
            ]
        }
    ]
}