{
    "goal": {
        "global_pose": {
            "orientation": {
                "w": 0.5084816217422485,
                "x": -0.49083608388900757,
                "y": 0.5182115435600281,
                "z": -0.4816462993621826
            },
            "position": {
                "x": 0.5540239810943604,
                "y": 0.030875300988554955,
                "z": 0.16403168439865112
            }
        },
        "name": "move_to_storage_A"
    },
    "id": "LBKPIECE_move_to_storage_A_139",
    "joint_names": [
        "shoulder_pan_joint",
        "shoulder_lift_joint",
        "elbow_joint",
        "wrist_1_joint",
        "wrist_2_joint",
        "wrist_3_joint"
    ],
    "metrics": {
        "cart_traj_len": 0.35330125534979606,
        "distance_elbow_joint": 0.44927307580065423,
        "distance_shoulder_lift_joint": 0.23461659239503652,
        "distance_shoulder_pan_joint": 0.46263646959557675,
        "distance_wrist_1_joint": 0.23633684194547822,
        "distance_wrist_2_joint": 1.0968120923551261,
        "distance_wrist_3_joint": 0.09158602840351504,
        "smoothness": 4.440892098500626e-16,
        "time": 0.331518781,
        "traj_len": 1.603515232386455,
        "weighted_distance": 2.021776963861994
    },
    "planner": "LBKPIECE",
    "start": {
        "state": {
            "elbow_joint": 1.971548259319323,
            "shoulder_lift_joint": -1.1394851275133948,
            "shoulder_pan_joint": 0.1228115487234821,
            "wrist_1_joint": -0.7804723859257726,
            "wrist_2_joint": 0.12958671773740124,
            "wrist_3_joint": -3.192489227718131
        }
    },
    "waypoints": [
        {
            "positions": [
                0.1228115487234821,
                -1.1394851275133948,
                1.971548259319323,
                -0.7804723859257726,
                0.12958671773740124,
                -3.192489227718131
            ]
        },
        {
            "positions": [
                0.05672062449554256,
                -1.1730017835698285,
                2.035730127290845,
                -0.8142347919179838,
                0.28627415950241925,
                -3.1794055093747717
            ]
        },
        {
            "positions": [
                -0.009370299732396975,
                -1.2065184396262625,
                2.0999119952623673,
                -0.847997197910195,
                0.4429616012674372,
                -3.1663217910314128
            ]
        },
        {
            "positions": [
                -0.0754612239603365,
                -1.2400350956826962,
                2.164093863233889,
                -0.8817596039024062,
                0.5996490430324553,
                -3.1532380726880533
            ]
        },
        {
            "positions": [
                -0.14155214818827605,
                -1.27355175173913,
                2.228275731205411,
                -0.9155220098946173,
                0.7563364847974733,
                -3.140154354344694
            ]
        },
        {
            "positions": [
                -0.2076430724162156,
                -1.3070684077955637,
                2.292457599176933,
                -0.9492844158868285,
                0.9130239265624913,
                -3.1270706360013345
            ]
        },
        {
            "positions": [
                -0.2737339966441551,
                -1.3405850638519976,
                2.3566394671484554,
                -0.9830468218790396,
                1.0697113683275092,
                -3.1139869176579755
            ]
        },
        {
            "positions": [
                -0.33982492087209465,
                -1.3741017199084313,
                2.420821335119977,
                -1.0168092278712508,
                1.2263988100925274,
                -3.100903199314616
            ]
        }
    ]
}{
    "goal": {
        "global_pose": {
            "orientation": {
                "w": 0.5084816217422485,
                "x": -0.49083608388900757,
                "y": 0.5182115435600281,
                "z": -0.4816462993621826
            },
            "position": {
                "x": 0.5540239810943604,
                "y": 0.030875300988554955,
                "z": 0.16403168439865112
            }
        },
        "name": "move_to_storage_A"
    },
    "id": "LBKPIECE_move_to_storage_A_139",
    "joint_names": [
        "shoulder_pan_joint",
        "shoulder_lift_joint",
        "elbow_joint",
        "wrist_1_joint",
        "wrist_2_joint",
        "wrist_3_joint"
    ],
    "metrics": {
        "cart_traj_len": 0.3523259380029724,
        "distance_elbow_joint": 0.44923428680428756,
        "distance_shoulder_lift_joint": 0.23468056157836492,
        "distance_shoulder_pan_joint": 0.46207549509514106,
        "distance_wrist_1_joint": 0.2360603993548127,
        "distance_wrist_2_joint": 1.0919105537927298,
        "distance_wrist_3_joint": 0.09123658735605478,
        "smoothness": 0.0,
        "time": 0.297010608,
        "traj_len": 1.601623515056329,
        "weighted_distance": 2.0188219366355824
    },
    "planner": "LBKPIECE",
    "start": {
        "state": {
            "elbow_joint": 1.97154746011099,
            "shoulder_lift_joint": -1.13948474672311,
            "shoulder_pan_joint": 0.12281154466712228,
            "wrist_1_joint": -0.7804688027058302,
            "wrist_2_joint": 0.12958655903071145,
            "wrist_3_joint": 3.0906928834467795
        }
    },
    "waypoints": [
        {
            "positions": [
                0.12281154466712228,
                -1.13948474672311,
                1.97154746011099,
                -0.7804688027058302,
                0.12958655903071145,
                3.0906928834467795
            ]
        },
        {
            "positions": [
                0.05680075965353071,
                -1.173010541234305,
                2.0357237867973166,
                -0.8141917168993749,
                0.2855737810011014,
                3.103726681640502
            ]
        },
        {
            "positions": [
                -0.009210025360060867,
                -1.2065363357455,
                2.0999001134836437,
                -0.8479146310929195,
                0.44156100297149137,
                3.1167604798342237
            ]
        },
        {
            "positions": [
                -0.07522081037365246,
                -1.240062130256695,
                2.1640764401699704,
                -0.8816375452864642,
                0.5975482249418813,
                3.129794278027946
            ]
        },
        {
            "positions": [
                -0.141231595387244,
                -1.2735879247678898,
                2.228252766856297,
                -0.9153604594800089,
                0.7535354469122714,
                3.142828076221668
            ]
        },
        {
            "positions": [
                -0.2072423804008356,
                -1.307113719279085,
                2.2924290935426237,
                -0.9490833736735536,
                0.9095226688826614,
                3.15586187441539
            ]
        },
        {
            "positions": [
                -0.2732531654144272,
                -1.3406395137902798,
                2.356605420228951,
                -0.9828062878670982,
                1.0655098908530511,
                3.168895672609112
            ]
        },
        {
            "positions": [
                -0.33926395042801877,
                -1.3741653083014749,
                2.4207817469152775,
                -1.016529202060643,
                1.2214971128234413,
                3.1819294708028343
            ]
        }
    ]
}{
    "goal": {
        "global_pose": {
            "orientation": {
                "w": 0.5084816217422485,
                "x": -0.49083608388900757,
                "y": 0.5182115435600281,
                "z": -0.4816462993621826
            },
            "position": {
                "x": 0.5540239810943604,
                "y": 0.030875300988554955,
                "z": 0.16403168439865112
            }
        },
        "name": "move_to_storage_A"
    },
    "id": "LBKPIECE_move_to_storage_A_139",
    "joint_names": [
        "shoulder_pan_joint",
        "shoulder_lift_joint",
        "elbow_joint",
        "wrist_1_joint",
        "wrist_2_joint",
        "wrist_3_joint"
    ],
    "metrics": {
        "cart_traj_len": 0.3539668718154273,
        "distance_elbow_joint": 0.45258097429531796,
        "distance_shoulder_lift_joint": 0.23440337284456958,
        "distance_shoulder_pan_joint": 0.46456261775908136,
        "distance_wrist_1_joint": 0.2523264763389985,
        "distance_wrist_2_joint": 1.0935603611422235,
        "distance_wrist_3_joint": 0.0944711523436439,
        "smoothness": 2.2204460668324854e-16,
        "time": 0.5622340100000001,
        "traj_len": 1.6099394257933541,
        "weighted_distance": 2.0314364614460243
    },
    "planner": "LBKPIECE",
    "start": {
        "state": {
            "elbow_joint": 1.9715472970024885,
            "shoulder_lift_joint": -1.1394870060712896,
            "shoulder_pan_joint": 0.12281152778156021,
            "wrist_1_joint": -0.780463741449964,
            "wrist_2_joint": 0.12958659822042276,
            "wrist_3_joint": 3.090690232415272
        }
    },
    "waypoints": [
        {
            "positions": [
                0.12281152778156021,
                -1.1394870060712896,
                1.9715472970024885,
                -0.780463741449964,
                0.12958659822042276,
                3.090690232415272
            ]
        },
        {
            "positions": [
                0.056445439530262875,
                -1.1729732021919423,
                2.03620172190182,
                -0.8165103809269638,
                0.2858095069550261,
                3.1041861113215066
            ]
        },
        {
            "positions": [
                -0.009920648721034458,
                -1.2064593983125953,
                2.1008561468011506,
                -0.8525570204039635,
                0.4420324156896295,
                3.1176819902277417
            ]
        },
        {
            "positions": [
                -0.07628673697233179,
                -1.239945594433248,
                2.165510571700482,
                -0.8886036598809633,
                0.5982553244242328,
                3.1311778691339764
            ]
        },
        {
            "positions": [
                -0.14265282522362913,
                -1.2734317905539008,
                2.230164996599813,
                -0.9246502993579632,
                0.7544782331588361,
                3.144673748040211
            ]
        },
        {
            "positions": [
                -0.2090189134749265,
                -1.3069179866745535,
                2.2948194214991444,
                -0.9606969388349629,
                0.9107011418934395,
                3.158169626946446
            ]
        },
        {
            "positions": [
                -0.2753850017262238,
                -1.3404041827952065,
                2.3594738463984752,
                -0.9967435783119627,
                1.0669240506280429,
                3.171665505852681
            ]
        },
        {
            "positions": [
                -0.3417510899775211,
                -1.3738903789158592,
                2.4241282712978065,
                -1.0327902177889625,
                1.2231469593626463,
                3.1851613847589157
            ]
        }
    ]
}