{
    "goal": {
        "global_pose": {
            "orientation": {
                "w": 0.7031023480610252,
                "x": -0.7110244013736278,
                "y": 0.0077485991402295624,
                "z": 0.005598929693374583
            },
            "position": {
                "x": -0.8841497679147869,
                "y": 0.44412534475326537,
                "z": 0.3711530566215515
            }
        },
        "name": "move_to_auspresseinheit_D"
    },
    "id": "LBKPIECE_move_to_auspresseinheit_D_37",
    "joint_names": [
        "shoulder_pan_joint",
        "shoulder_lift_joint",
        "elbow_joint",
        "wrist_1_joint",
        "wrist_2_joint",
        "wrist_3_joint"
    ],
    "metrics": {
        "cart_traj_len": 0.3443433859478071,
        "distance_elbow_joint": 0.6642612693461676,
        "distance_shoulder_lift_joint": 0.13560228873407398,
        "distance_shoulder_pan_joint": 0.1341582510695311,
        "distance_wrist_1_joint": 0.6251751858642511,
        "distance_wrist_2_joint": 1.4303058471485453,
        "distance_wrist_3_joint": 0.08840564289704522,
        "smoothness": 0.0,
        "time": 0.8282165029999999,
        "traj_len": 1.754396900664047,
        "weighted_distance": 2.304387294676505
    },
    "planner": "LBKPIECE",
    "start": {
        "state": {
            "elbow_joint": -1.8275523626775212,
            "shoulder_lift_joint": -2.126789852344167,
            "shoulder_pan_joint": -0.03513704404078235,
            "wrist_1_joint": -2.347782403156801,
            "wrist_2_joint": -1.6058999987535132,
            "wrist_3_joint": -3.0880379163319196
        }
    },
    "waypoints": [
        {
            "positions": [
                -0.03513704404078235,
                -2.126789852344167,
                -1.8275523626775212,
                -2.347782403156801,
                -1.6058999987535132,
                -3.0880379163319196
            ]
        },
        {
            "positions": [
                -0.05190682542447374,
                -2.143740138435926,
                -1.7445197040092502,
                -2.425929301389832,
                -1.427111767859945,
                -3.076987210969789
            ]
        },
        {
            "positions": [
                -0.06867660680816512,
                -2.1606904245276852,
                -1.6614870453409794,
                -2.5040761996228635,
                -1.2483235369663768,
                -3.065936505607658
            ]
        },
        {
            "positions": [
                -0.08544638819185651,
                -2.1776407106194444,
                -1.5784543866727083,
                -2.582223097855895,
                -1.0695353060728088,
                -3.0548858002455277
            ]
        },
        {
            "positions": [
                -0.10221616957554791,
                -2.194590996711204,
                -1.4954217280044375,
                -2.660369996088926,
                -0.8907470751792406,
                -3.0438350948833968
            ]
        },
        {
            "positions": [
                -0.1189859509592393,
                -2.2115412828029632,
                -1.4123890693361665,
                -2.738516894321958,
                -0.7119588442856724,
                -3.0327843895212663
            ]
        },
        {
            "positions": [
                -0.13575573234293067,
                -2.2284915688947224,
                -1.3293564106678954,
                -2.8166637925549893,
                -0.5331706133921044,
                -3.021733684159136
            ]
        },
        {
            "positions": [
                -0.15252551372662207,
                -2.2454418549864816,
                -1.2463237519996246,
                -2.8948106907880207,
                -0.35438238249853615,
                -3.010682978797005
            ]
        },
        {
            "positions": [
                -0.16929529511031347,
                -2.262392141078241,
                -1.1632910933313536,
                -2.972957589021052,
                -0.17559415160496786,
                -2.9996322734348744
            ]
        }
    ]
}