{
    "goal": {
        "global_pose": {
            "orientation": {
                "w": 0.5084816262002911,
                "x": -0.4908360881923452,
                "y": 0.5182115481033761,
                "z": -0.48164630358495003
            },
            "position": {
                "x": 0.5540239810943604,
                "y": -0.46912469901144505,
                "z": 0.16403168439865112
            }
        },
        "name": "move_to_storage_B"
    },
    "id": "LBKPIECE_move_to_storage_B_106",
    "joint_names": [
        "shoulder_pan_joint",
        "shoulder_lift_joint",
        "elbow_joint",
        "wrist_1_joint",
        "wrist_2_joint",
        "wrist_3_joint"
    ],
    "metrics": {
        "cart_traj_len": 0.8161247908291289,
        "distance_elbow_joint": 0.3506714099396784,
        "distance_shoulder_lift_joint": 0.4594735096333251,
        "distance_shoulder_pan_joint": 0.6650703247400719,
        "distance_wrist_1_joint": 3.1751359441843974,
        "distance_wrist_2_joint": 3.104853497362046,
        "distance_wrist_3_joint": 3.7620208159163395,
        "smoothness": 0.6475841113340793,
        "time": 0.663840831,
        "traj_len": 3.3937038028938025,
        "weighted_distance": 5.032023109560903
    },
    "planner": "LBKPIECE",
    "start": {
        "state": {
            "elbow_joint": 1.664937868594044,
            "shoulder_lift_joint": -0.661644460510453,
            "shoulder_pan_joint": -0.9139846352900073,
            "wrist_1_joint": 2.146753192139373,
            "wrist_2_joint": -2.2341966793290973,
            "wrist_3_joint": 0.005466555786416001
        }
    },
    "waypoints": [
        {
            "positions": [
                -0.9139846352900073,
                -0.661644460510453,
                1.664937868594044,
                2.146753192139373,
                -2.2341966793290973,
                0.005466555786416001
            ]
        },
        {
            "positions": [
                -0.833481413474674,
                -0.7132031255206529,
                1.7209674463476707,
                2.17896132179029,
                -2.300724623008698,
                0.10942450505377346
            ]
        },
        {
            "positions": [
                -0.7529781916593407,
                -0.7647617905308527,
                1.7769970241012978,
                2.211169451441207,
                -2.367252566688299,
                0.21338245432113093
            ]
        },
        {
            "positions": [
                -0.6724749698440073,
                -0.8163204555410526,
                1.8330266018549246,
                2.243377581092124,
                -2.4337805103679,
                0.3173404035884884
            ]
        },
        {
            "positions": [
                -0.6881624016697137,
                -0.8276092523781906,
                1.8397889232133986,
                2.1293586346020628,
                -2.326177930133706,
                0.1895571825472193
            ]
        },
        {
            "positions": [
                -0.7038498334954201,
                -0.8388980492153285,
                1.8465512445718726,
                2.015339688112002,
                -2.2185753498995116,
                0.06177396150595016
            ]
        },
        {
            "positions": [
                -0.7195372653211265,
                -0.8501868460524665,
                1.8533135659303466,
                1.901320741621941,
                -2.1109727696653175,
                -0.066009259535319
            ]
        },
        {
            "positions": [
                -0.7352246971468328,
                -0.8614756428896045,
                1.8600758872888206,
                1.7873017951318801,
                -2.003370189431123,
                -0.1937924805765881
            ]
        },
        {
            "positions": [
                -0.7509121289725391,
                -0.8727644397267424,
                1.8668382086472946,
                1.673282848641819,
                -1.895767609196929,
                -0.32157570161785726
            ]
        },
        {
            "positions": [
                -0.7665995607982455,
                -0.8840532365638805,
                1.8736005300057685,
                1.5592639021517583,
                -1.7881650289627347,
                -0.4493589226591264
            ]
        },
        {
            "positions": [
                -0.782286992623952,
                -0.8953420334010185,
                1.8803628513642425,
                1.445244955661697,
                -1.6805624487285407,
                -0.5771421437003954
            ]
        },
        {
            "positions": [
                -0.7979744244496583,
                -0.9066308302381565,
                1.8871251727227165,
                1.3312260091716364,
                -1.5729598684943462,
                -0.7049253647416647
            ]
        },
        {
            "positions": [
                -0.8136618562753646,
                -0.9179196270752944,
                1.8938874940811905,
                1.2172070626815752,
                -1.4653572882601522,
                -0.8327085857829337
            ]
        },
        {
            "positions": [
                -0.829349288101071,
                -0.9292084239124324,
                1.9006498154396645,
                1.1031881161915142,
                -1.357754708025958,
                -0.960491806824203
            ]
        },
        {
            "positions": [
                -0.8450367199267774,
                -0.9404972207495704,
                1.9074121367981385,
                0.9891691697014533,
                -1.2501521277917638,
                -1.088275027865472
            ]
        },
        {
            "positions": [
                -0.8607241517524837,
                -0.9517860175867083,
                1.9141744581566125,
                0.8751502232113924,
                -1.1425495475575695,
                -1.2160582489067413
            ]
        },
        {
            "positions": [
                -0.8764115835781902,
                -0.9630748144238463,
                1.9209367795150865,
                0.7611312767213314,
                -1.0349469673233753,
                -1.3438414699480103
            ]
        },
        {
            "positions": [
                -0.8920990154038965,
                -0.9743636112609844,
                1.9276991008735604,
                0.6471123302312705,
                -0.9273443870891811,
                -1.4716246909892794
            ]
        },
        {
            "positions": [
                -0.9077864472296029,
                -0.9856524080981224,
                1.9344614222320344,
                0.5330933837412093,
                -0.8197418068549867,
                -1.5994079120305487
            ]
        },
        {
            "positions": [
                -0.9234738790553092,
                -0.9969412049352603,
                1.9412237435905084,
                0.41907443725114857,
                -0.7121392266207927,
                -1.7271911330718177
            ]
        },
        {
            "positions": [
                -0.9391613108810156,
                -1.0082300017723984,
                1.9479860649489824,
                0.3050554907610874,
                -0.6045366463865982,
                -1.854974354113087
            ]
        },
        {
            "positions": [
                -0.9548487427067219,
                -1.0195187986095362,
                1.9547483863074564,
                0.19103654427102645,
                -0.4969340661524042,
                -1.9827575751543558
            ]
        },
        {
            "positions": [
                -0.9705361745324284,
                -1.0308075954466742,
                1.9615107076659304,
                0.07701759778096529,
                -0.38933148591821,
                -2.110540796195625
            ]
        },
        {
            "positions": [
                -0.9862236063581347,
                -1.0420963922838122,
                1.9682730290244044,
                -0.03700134870909544,
                -0.281728905684016,
                -2.238324017236894
            ]
        },
        {
            "positions": [
                -1.0019110381838412,
                -1.0533851891209502,
                1.9750353503828784,
                -0.1510202951991566,
                -0.17412632544982154,
                -2.3661072382781634
            ]
        },
        {
            "positions": [
                -1.0175984700095473,
                -1.0646739859580883,
                1.9817976717413524,
                -0.26503924168921733,
                -0.06652374521562754,
                -2.493890459319432
            ]
        },
        {
            "positions": [
                -1.0332859018352538,
                -1.075962782795226,
                1.9885599930998263,
                -0.3790581881792785,
                0.041078835018566906,
                -2.6216736803607015
            ]
        },
        {
            "positions": [
                -1.0489733336609601,
                -1.087251579632364,
                1.9953223144583003,
                -0.4930771346693392,
                0.1486814152527609,
                -2.7494569014019707
            ]
        },
        {
            "positions": [
                -1.0646607654866664,
                -1.098540376469502,
                2.0020846358167743,
                -0.6070960811594004,
                0.25628399548695535,
                -2.87724012244324
            ]
        },
        {
            "positions": [
                -1.080348197312373,
                -1.10982917330664,
                2.0088469571752485,
                -0.7211150276494611,
                0.36388657572114935,
                -3.005023343484509
            ]
        },
        {
            "positions": [
                -1.0960356291380793,
                -1.1211179701437781,
                2.0156092785337223,
                -0.8351339741395224,
                0.47148915595534374,
                -3.132806564525778
            ]
        }
    ]
}