{
    "goal": {
        "global_pose": {
            "orientation": {
                "w": -0.4816463035849501,
                "x": 0.5182115481033762,
                "y": 0.4908360881923453,
                "z": -0.5084816262002911
            },
            "position": {
                "x": -0.8240239810943604,
                "y": 0.19912469901144506,
                "z": 0.16403168439865112
            }
        },
        "name": "move_to_storage_D"
    },
    "id": "LBKPIECE_move_to_storage_D_22",
    "joint_names": [
        "shoulder_pan_joint",
        "shoulder_lift_joint",
        "elbow_joint",
        "wrist_1_joint",
        "wrist_2_joint",
        "wrist_3_joint"
    ],
    "metrics": {
        "cart_traj_len": 4.004101571936849,
        "distance_elbow_joint": 4.234988709037805,
        "distance_shoulder_lift_joint": 1.265025192712277,
        "distance_shoulder_pan_joint": 2.8146743007189707,
        "distance_wrist_1_joint": 2.9988178262924308,
        "distance_wrist_2_joint": 1.5669552944600134,
        "distance_wrist_3_joint": 3.31168747514584,
        "smoothness": 0.4028226014595843,
        "time": 0.763804206,
        "traj_len": 4.023946917936087,
        "weighted_distance": 5.2327141016313385
    },
    "planner": "LBKPIECE",
    "start": {
        "state": {
            "elbow_joint": -2.384821988534728,
            "shoulder_lift_joint": -2.2788054721415256,
            "shoulder_pan_joint": -0.1854694642142757,
            "wrist_1_joint": 1.4845938289331202,
            "wrist_2_joint": 0.17898776772866878,
            "wrist_3_joint": 0.037105688729662994
        }
    },
    "waypoints": [
        {
            "positions": [
                -0.1854694642142757,
                -2.2788054721415256,
                -2.384821988534728,
                1.4845938289331202,
                0.17898776772866878,
                0.037105688729662994
            ]
        },
        {
            "positions": [
                -0.13921930764938134,
                -2.266696842941302,
                -2.3912103329290524,
                1.4607105880654414,
                0.08025741204754733,
                -0.007168503831016727
            ]
        },
        {
            "positions": [
                -0.09296915108448697,
                -2.254588213741078,
                -2.3975986773233773,
                1.4368273471977628,
                -0.018472943633574122,
                -0.05144269639169645
            ]
        },
        {
            "positions": [
                -0.023164797830801567,
                -2.225782648372565,
                -2.2864241983710367,
                1.3630347662684226,
                0.016613890414599784,
                0.018310488682986986
            ]
        },
        {
            "positions": [
                0.04663955542288384,
                -2.1969770830040516,
                -2.175249719418696,
                1.2892421853390823,
                0.05170072446277369,
                0.08806367375767042
            ]
        },
        {
            "positions": [
                0.11644390867656923,
                -2.1681715176355385,
                -2.0640752404663556,
                1.215449604409742,
                0.0867875585109476,
                0.15781685883235386
            ]
        },
        {
            "positions": [
                0.18624826193025465,
                -2.139365952267025,
                -1.952900761514015,
                1.1416570234804015,
                0.1218743925591215,
                0.22757004390703728
            ]
        },
        {
            "positions": [
                0.25605261518394007,
                -2.110560386898512,
                -1.8417262825616745,
                1.0678644425510613,
                0.1569612266072954,
                0.2973232289817207
            ]
        },
        {
            "positions": [
                0.32585696843762546,
                -2.0817548215299984,
                -1.730551803609334,
                0.994071861621721,
                0.1920480606554693,
                0.3670764140564041
            ]
        },
        {
            "positions": [
                0.39566132169131085,
                -2.0529492561614853,
                -1.6193773246569934,
                0.9202792806923807,
                0.2271348947036432,
                0.4368295991310876
            ]
        },
        {
            "positions": [
                0.46546567494499624,
                -2.0241436907929717,
                -1.5082028457046528,
                0.8464866997630405,
                0.26222172875181715,
                0.5065827842057711
            ]
        },
        {
            "positions": [
                0.5352700281986815,
                -1.9953381254244587,
                -1.3970283667523122,
                0.7726941188337003,
                0.297308562799991,
                0.5763359692804544
            ]
        },
        {
            "positions": [
                0.605074381452367,
                -1.9665325600559453,
                -1.2858538877999717,
                0.6989015379043599,
                0.33239539684816494,
                0.6460891543551379
            ]
        },
        {
            "positions": [
                0.6748787347060524,
                -1.937726994687432,
                -1.174679408847631,
                0.6251089569750197,
                0.36748223089633886,
                0.7158423394298213
            ]
        },
        {
            "positions": [
                0.7446830879597378,
                -1.9089214293189187,
                -1.0635049298952903,
                0.5513163760456793,
                0.4025690649445128,
                0.7855955245045048
            ]
        },
        {
            "positions": [
                0.8144874412134233,
                -1.8801158639504054,
                -0.9523304509429498,
                0.477523795116339,
                0.4376558989926867,
                0.8553487095791882
            ]
        },
        {
            "positions": [
                0.8842917944671087,
                -1.8513102985818921,
                -0.8411559719906092,
                0.40373121418699864,
                0.47274273304086056,
                0.9251018946538717
            ]
        },
        {
            "positions": [
                0.9540961477207941,
                -1.8225047332133788,
                -0.7299814930382689,
                0.3299386332576586,
                0.5078295670890345,
                0.994855079728555
            ]
        },
        {
            "positions": [
                1.0239005009744795,
                -1.7936991678448657,
                -0.6188070140859281,
                0.2561460523283181,
                0.5429164011372084,
                1.0646082648032384
            ]
        },
        {
            "positions": [
                1.0937048542281649,
                -1.7648936024763522,
                -0.5076325351335875,
                0.18235347139897784,
                0.5780032351853823,
                1.1343614498779218
            ]
        },
        {
            "positions": [
                1.16350920748185,
                -1.736088037107839,
                -0.3964580561812472,
                0.1085608904696378,
                0.6130900692335561,
                1.204114634952605
            ]
        },
        {
            "positions": [
                1.2333135607355357,
                -1.7072824717393258,
                -0.2852835772289066,
                0.034768309540297304,
                0.64817690328173,
                1.2738678200272886
            ]
        },
        {
            "positions": [
                1.303117913989221,
                -1.6784769063708125,
                -0.17410909827656607,
                -0.039024271389042964,
                0.683263737329904,
                1.3436210051019721
            ]
        },
        {
            "positions": [
                1.3729222672429064,
                -1.6496713410022992,
                -0.0629346193242255,
                -0.11281685231838323,
                0.7183505713780779,
                1.4133741901766554
            ]
        },
        {
            "positions": [
                1.4427266204965918,
                -1.6208657756337859,
                0.0482398596281155,
                -0.1866094332477235,
                0.7534374054262518,
                1.483127375251339
            ]
        },
        {
            "positions": [
                1.5125309737502772,
                -1.5920602102652726,
                0.15941433858045606,
                -0.260402014177064,
                0.7885242394744257,
                1.5528805603260223
            ]
        },
        {
            "positions": [
                1.5823353270039626,
                -1.5632546448967592,
                0.2705888175327966,
                -0.33419459510640426,
                0.8236110735225997,
                1.6226337454007058
            ]
        },
        {
            "positions": [
                1.6521396802576482,
                -1.534449079528246,
                0.3817632964851372,
                -0.4079871760357445,
                0.8586979075707736,
                1.6923869304753894
            ]
        },
        {
            "positions": [
                1.7219440335113336,
                -1.5056435141597326,
                0.49293777543747774,
                -0.4817797569650848,
                0.8937847416189475,
                1.7621401155500727
            ]
        },
        {
            "positions": [
                1.791748386765019,
                -1.4768379487912193,
                0.6041122543898183,
                -0.5555723378944251,
                0.9288715756671214,
                1.8318933006247562
            ]
        },
        {
            "positions": [
                1.8615527400187044,
                -1.448032383422706,
                0.7152867333421589,
                -0.6293649188237656,
                0.9639584097152952,
                1.9016464856994397
            ]
        },
        {
            "positions": [
                1.9313570932723898,
                -1.4192268180541927,
                0.8264612122944994,
                -0.7031574997531058,
                0.9990452437634693,
                1.9713996707741233
            ]
        },
        {
            "positions": [
                2.0011614465260754,
                -1.3904212526856796,
                0.9376356912468395,
                -0.7769500806824456,
                1.034132077811643,
                2.0411528558488063
            ]
        },
        {
            "positions": [
                2.070965799779761,
                -1.3616156873171663,
                1.0488101701991805,
                -0.8507426616117864,
                1.0692189118598168,
                2.11090604092349
            ]
        },
        {
            "positions": [
                2.140770153033446,
                -1.332810121948653,
                1.159984649151521,
                -0.9245352425411266,
                1.1043057459079908,
                2.1806592259981734
            ]
        },
        {
            "positions": [
                2.2105745062871316,
                -1.3040045565801397,
                1.2711591281038617,
                -0.9983278234704669,
                1.1393925799561646,
                2.2504124110728565
            ]
        },
        {
            "positions": [
                2.280378859540817,
                -1.2751989912116264,
                1.3823336070562022,
                -1.0721204043998072,
                1.1744794140043386,
                2.32016559614754
            ]
        },
        {
            "positions": [
                2.3501832127945024,
                -1.246393425843113,
                1.4935080860085428,
                -1.1459129853291472,
                1.2095662480525124,
                2.3899187812222236
            ]
        },
        {
            "positions": [
                2.396686816746201,
                -1.207624568107469,
                1.5486922954947486,
                -1.0845278166574535,
                1.1859903494838984,
                2.520215049957317
            ]
        },
        {
            "positions": [
                2.4431904206979,
                -1.168855710371825,
                1.6038765049809547,
                -1.0231426479857597,
                1.1624144509152843,
                2.6505113186924105
            ]
        },
        {
            "positions": [
                2.489694024649599,
                -1.1300868526361807,
                1.6590607144671605,
                -0.9617574793140659,
                1.1388385523466702,
                2.7808075874275042
            ]
        },
        {
            "positions": [
                2.5361976286012977,
                -1.0913179949005367,
                1.7142449239533664,
                -0.9003723106423721,
                1.1152626537780561,
                2.9111038561625975
            ]
        },
        {
            "positions": [
                2.5827012325529966,
                -1.0525491371648927,
                1.7694291334395724,
                -0.8389871419706783,
                1.091686755209442,
                3.0414001248976907
            ]
        },
        {
            "positions": [
                2.6292048365046954,
                -1.0137802794292485,
                1.8246133429257783,
                -0.7776019732989845,
                1.068110856640828,
                3.1716963936327844
            ]
        }
    ]
}