{
    "goal": {
        "global_pose": {
            "orientation": {
                "w": 0.005598929693374612,
                "x": 0.007748599140229565,
                "y": 0.7110244013736278,
                "z": -0.7031023480610252
            },
            "position": {
                "x": -0.8858502320852131,
                "y": -0.7141253447532654,
                "z": 0.3711530566215515
            }
        },
        "name": "move_to_auspresseinheit_C"
    },
    "id": "LBKPIECE_move_to_auspresseinheit_C_125",
    "joint_names": [
        "shoulder_pan_joint",
        "shoulder_lift_joint",
        "elbow_joint",
        "wrist_1_joint",
        "wrist_2_joint",
        "wrist_3_joint"
    ],
    "metrics": {
        "cart_traj_len": 0.4932915588093628,
        "distance_elbow_joint": 0.9946182659425702,
        "distance_shoulder_lift_joint": 0.32200304116250245,
        "distance_shoulder_pan_joint": 0.256506193255138,
        "distance_wrist_1_joint": 0.6636032596159378,
        "distance_wrist_2_joint": 1.3044851745573371,
        "distance_wrist_3_joint": 0.05140221714549886,
        "smoothness": 8.074349282788172e-16,
        "time": 0.434839379,
        "traj_len": 1.8954203100312565,
        "weighted_distance": 2.379813232197699
    },
    "planner": "LBKPIECE",
    "start": {
        "state": {
            "elbow_joint": 1.7527959577737207,
            "shoulder_lift_joint": -0.9740617694225068,
            "shoulder_pan_joint": -2.967991417825858,
            "wrist_1_joint": -0.759517768980727,
            "wrist_2_joint": 1.7443932448377408,
            "wrist_3_joint": -3.0840537646736568
        }
    },
    "waypoints": [
        {
            "positions": [
                -2.967991417825858,
                -0.9740617694225068,
                1.7527959577737207,
                -0.759517768980727,
                1.7443932448377408,
                -3.0840537646736568
            ]
        },
        {
            "positions": [
                -2.9423407985003442,
                -0.9418614653062565,
                1.6533341311794636,
                -0.6931574430191332,
                1.6139447273820071,
                -3.0891939863882065
            ]
        },
        {
            "positions": [
                -2.9166901791748305,
                -0.9096611611900063,
                1.5538723045852065,
                -0.6267971170575394,
                1.4834962099262734,
                -3.0943342081027567
            ]
        },
        {
            "positions": [
                -2.8910395598493164,
                -0.8774608570737561,
                1.4544104779909497,
                -0.5604367910959457,
                1.3530476924705397,
                -3.0994744298173065
            ]
        },
        {
            "positions": [
                -2.8653889405238027,
                -0.8452605529575058,
                1.3549486513966926,
                -0.4940764651343518,
                1.222599175014806,
                -3.1046146515318562
            ]
        },
        {
            "positions": [
                -2.839738321198289,
                -0.8130602488412555,
                1.2554868248024356,
                -0.4277161391727581,
                1.0921506575590723,
                -3.1097548732464064
            ]
        },
        {
            "positions": [
                -2.8140877018727752,
                -0.7808599447250053,
                1.1560249982081787,
                -0.36135581321116433,
                0.9617021401033385,
                -3.114895094960956
            ]
        },
        {
            "positions": [
                -2.7884370825472615,
                -0.7486596406087551,
                1.0565631716139214,
                -0.29499548724957053,
                0.8312536226476049,
                -3.120035316675506
            ]
        },
        {
            "positions": [
                -2.7627864632217474,
                -0.7164593364925048,
                0.9571013450196645,
                -0.22863516128797667,
                0.7008051051918711,
                -3.1251755383900557
            ]
        },
        {
            "positions": [
                -2.7371358438962337,
                -0.6842590323762545,
                0.8576395184254074,
                -0.16227483532638298,
                0.5703565877361374,
                -3.130315760104606
            ]
        },
        {
            "positions": [
                -2.71148522457072,
                -0.6520587282600043,
                0.7581776918311505,
                -0.09591450936478917,
                0.43990807028040363,
                -3.1354559818191556
            ]
        }
    ]
}