{
    "goal": {
        "global_pose": {
            "orientation": {
                "w": 0.005598929693374612,
                "x": 0.007748599140229565,
                "y": 0.7110244013736278,
                "z": -0.7031023480610252
            },
            "position": {
                "x": 0.1141497679147869,
                "y": -0.7141253447532654,
                "z": 0.3711530566215515
            }
        },
        "name": "move_to_auspresseinheit_B"
    },
    "id": "LBKPIECE_move_to_auspresseinheit_B_40",
    "joint_names": [
        "shoulder_pan_joint",
        "shoulder_lift_joint",
        "elbow_joint",
        "wrist_1_joint",
        "wrist_2_joint",
        "wrist_3_joint"
    ],
    "metrics": {
        "cart_traj_len": 0.5639962583686605,
        "distance_elbow_joint": 0.06444551560523393,
        "distance_shoulder_lift_joint": 0.29362386569640697,
        "distance_shoulder_pan_joint": 0.5759806934806821,
        "distance_wrist_1_joint": 0.3346867605629753,
        "distance_wrist_2_joint": 0.9956641794367842,
        "distance_wrist_3_joint": 0.007673849375670283,
        "smoothness": 2.5376526478085547e-16,
        "time": 0.711090651,
        "traj_len": 1.5073403279146198,
        "weighted_distance": 1.9020445586023618
    },
    "planner": "LBKPIECE",
    "start": {
        "state": {
            "elbow_joint": 2.0193083361928714,
            "shoulder_lift_joint": -1.1220246554650708,
            "shoulder_pan_joint": -1.0952077554168747,
            "wrist_1_joint": -0.8559753972642168,
            "wrist_2_joint": 0.4759566250798843,
            "wrist_3_joint": -3.1240929996934557
        }
    },
    "waypoints": [
        {
            "positions": [
                -1.0952077554168747,
                -1.1220246554650708,
                2.0193083361928714,
                -0.8559753972642168,
                0.4759566250798843,
                -3.1240929996934557
            ]
        },
        {
            "positions": [
                -1.191204537663655,
                -1.170961966414472,
                2.0085674169253322,
                -0.8001942705037209,
                0.641900654986015,
                -3.1253719745894006
            ]
        },
        {
            "positions": [
                -1.2872013199104353,
                -1.219899277363873,
                1.9978264976577935,
                -0.744413143743225,
                0.8078446848921457,
                -3.1266509494853456
            ]
        },
        {
            "positions": [
                -1.3831981021572157,
                -1.2688365883132744,
                1.9870855783902543,
                -0.6886320169827291,
                0.9737887147982764,
                -3.1279299243812906
            ]
        },
        {
            "positions": [
                -1.479194884403996,
                -1.3177738992626755,
                1.9763446591227154,
                -0.6328508902222333,
                1.139732744704407,
                -3.129208899277236
            ]
        },
        {
            "positions": [
                -1.5751916666507766,
                -1.3667112102120766,
                1.9656037398551764,
                -0.5770697634617373,
                1.3056767746105378,
                -3.130487874173181
            ]
        },
        {
            "positions": [
                -1.6711884488975568,
                -1.4156485211614778,
                1.9548628205876375,
                -0.5212886367012415,
                1.4716208045166685,
                -3.131766849069126
            ]
        }
    ]
}