{
    "goal": {
        "global_pose": {
            "orientation": {
                "w": -0.4816463035849501,
                "x": 0.5182115481033762,
                "y": 0.4908360881923453,
                "z": -0.5084816262002911
            },
            "position": {
                "x": -0.8240239810943604,
                "y": 0.19912469901144506,
                "z": 0.16403168439865112
            }
        },
        "name": "move_to_storage_D"
    },
    "id": "LBKPIECE_move_to_storage_D_83",
    "joint_names": [
        "shoulder_pan_joint",
        "shoulder_lift_joint",
        "elbow_joint",
        "wrist_1_joint",
        "wrist_2_joint",
        "wrist_3_joint"
    ],
    "metrics": {
        "cart_traj_len": 3.9184407384812654,
        "distance_elbow_joint": 4.215773466551717,
        "distance_shoulder_lift_joint": 1.2648525978818488,
        "distance_shoulder_pan_joint": 2.8153705704385814,
        "distance_wrist_1_joint": 2.2653752110996463,
        "distance_wrist_2_joint": 1.7090484703399103,
        "distance_wrist_3_joint": 3.1334350807888134,
        "smoothness": 0.12996660844708283,
        "time": 0.273842486,
        "traj_len": 3.9247745664051226,
        "weighted_distance": 5.064103991834854
    },
    "planner": "LBKPIECE",
    "start": {
        "state": {
            "elbow_joint": -2.384821988534728,
            "shoulder_lift_joint": -2.2788054721415256,
            "shoulder_pan_joint": -0.1854694642142757,
            "wrist_1_joint": 1.4845938289331202,
            "wrist_2_joint": 0.17898776772866878,
            "wrist_3_joint": 0.037105688729662994
        }
    },
    "waypoints": [
        {
            "positions": [
                -0.1854694642142757,
                -2.2788054721415256,
                -2.384821988534728,
                1.4845938289331202,
                0.17898776772866878,
                0.037105688729662994
            ]
        },
        {
            "positions": [
                -0.1550224869053447,
                -2.2435178506237463,
                -2.3880549410007506,
                1.4661134523539248,
                0.17204046100715942,
                0.028904269668638183
            ]
        },
        {
            "positions": [
                -0.07724026962091687,
                -2.212056814204018,
                -2.282416091667692,
                1.4137848304187726,
                0.21136829129652826,
                -0.05030863330999476
            ]
        },
        {
            "positions": [
                0.0005419476635109555,
                -2.18059577778429,
                -2.176777242334634,
                1.3614562084836206,
                0.2506961215858971,
                -0.1295215362886277
            ]
        },
        {
            "positions": [
                0.07832416494793878,
                -2.149134741364562,
                -2.0711383930015757,
                1.3091275865484684,
                0.290023951875266,
                -0.20873443926726062
            ]
        },
        {
            "positions": [
                0.15610638223236661,
                -2.1176737049448335,
                -1.9654995436685172,
                1.2567989646133164,
                0.3293517821646348,
                -0.2879473422458936
            ]
        },
        {
            "positions": [
                0.23388859951679447,
                -2.0862126685251052,
                -1.8598606943354592,
                1.2044703426781642,
                0.36867961245400366,
                -0.3671602452245265
            ]
        },
        {
            "positions": [
                0.3116708168012223,
                -2.0547516321053774,
                -1.7542218450024007,
                1.1521417207430122,
                0.40800744274337253,
                -0.44637314820315943
            ]
        },
        {
            "positions": [
                0.38945303408565013,
                -2.023290595685649,
                -1.6485829956693423,
                1.09981309880786,
                0.44733527303274134,
                -0.5255860511817925
            ]
        },
        {
            "positions": [
                0.46723525137007793,
                -1.9918295592659208,
                -1.542944146336284,
                1.0474844768727078,
                0.4866631033221102,
                -0.6047989541604253
            ]
        },
        {
            "positions": [
                0.5450174686545057,
                -1.9603685228461927,
                -1.4373052970032258,
                0.9951558549375559,
                0.525990933611479,
                -0.6840118571390581
            ]
        },
        {
            "positions": [
                0.6227996859389336,
                -1.9289074864264646,
                -1.3316664476701676,
                0.9428272330024038,
                0.5653187639008479,
                -0.7632247601176911
            ]
        },
        {
            "positions": [
                0.7005819032233613,
                -1.8974464500067363,
                -1.2260275983371094,
                0.8904986110672517,
                0.6046465941902167,
                -0.8424376630963242
            ]
        },
        {
            "positions": [
                0.7783641205077892,
                -1.8659854135870082,
                -1.120388749004051,
                0.8381699891320996,
                0.6439744244795855,
                -0.921650566074957
            ]
        },
        {
            "positions": [
                0.8561463377922169,
                -1.8345243771672801,
                -1.0147498996709927,
                0.7858413671969475,
                0.6833022547689543,
                -1.00086346905359
            ]
        },
        {
            "positions": [
                0.933928555076645,
                -1.8030633407475518,
                -0.9091110503379343,
                0.7335127452617954,
                0.7226300850583233,
                -1.080076372032223
            ]
        },
        {
            "positions": [
                1.0117107723610728,
                -1.7716023043278237,
                -0.803472201004876,
                0.6811841233266434,
                0.7619579153476921,
                -1.1592892750108559
            ]
        },
        {
            "positions": [
                1.0894929896455006,
                -1.7401412679080954,
                -0.6978333516718176,
                0.6288555013914912,
                0.801285745637061,
                -1.238502177989489
            ]
        },
        {
            "positions": [
                1.1672752069299284,
                -1.7086802314883673,
                -0.5921945023387596,
                0.5765268794563392,
                0.8406135759264297,
                -1.3177150809681217
            ]
        },
        {
            "positions": [
                1.2450574242143562,
                -1.677219195068639,
                -0.48655565300570136,
                0.5241982575211871,
                0.8799414062157985,
                -1.3969279839467545
            ]
        },
        {
            "positions": [
                1.3228396414987842,
                -1.6457581586489107,
                -0.3809168036726427,
                0.4718696355860349,
                0.9192692365051676,
                -1.4761408869253878
            ]
        },
        {
            "positions": [
                1.400621858783212,
                -1.6142971222291829,
                -0.2752779543395847,
                0.4195410136508828,
                0.9585970667945364,
                -1.5553537899040206
            ]
        },
        {
            "positions": [
                1.4784040760676396,
                -1.5828360858094546,
                -0.16963910500652624,
                0.36721239171573083,
                0.9979248970839052,
                -1.6345666928826534
            ]
        },
        {
            "positions": [
                1.5561862933520674,
                -1.5513750493897265,
                -0.06400025567346823,
                0.31488376978057864,
                1.0372527273732741,
                -1.7137795958612865
            ]
        },
        {
            "positions": [
                1.6339685106364954,
                -1.5199140129699982,
                0.04163859365959066,
                0.26255514784542644,
                1.076580557662643,
                -1.7929924988399195
            ]
        },
        {
            "positions": [
                1.7117507279209232,
                -1.48845297655027,
                0.14727744299264867,
                0.21022652591027446,
                1.1159083879520117,
                -1.8722054018185523
            ]
        },
        {
            "positions": [
                1.789532945205351,
                -1.4569919401305418,
                0.2529162923257071,
                0.15789790397512227,
                1.1552362182413805,
                -1.9514183047971854
            ]
        },
        {
            "positions": [
                1.8673151624897786,
                -1.4255309037108137,
                0.3585551416587651,
                0.10556928203997029,
                1.1945640485307494,
                -2.030631207775818
            ]
        },
        {
            "positions": [
                1.9450973797742068,
                -1.3940698672910856,
                0.46419399099182357,
                0.053240660104818094,
                1.2338918788201183,
                -2.109844110754451
            ]
        },
        {
            "positions": [
                2.0228795970586346,
                -1.3626088308713573,
                0.569832840324882,
                0.0009120381696661184,
                1.2732197091094872,
                -2.189057013733084
            ]
        },
        {
            "positions": [
                2.1006618143430624,
                -1.331147794451629,
                0.67547168965794,
                -0.05141658376548608,
                1.3125475393988557,
                -2.268269916711717
            ]
        },
        {
            "positions": [
                2.1784440316274902,
                -1.2996867580319011,
                0.7811105389909985,
                -0.10374520570063805,
                1.3518753696882246,
                -2.3474828196903497
            ]
        },
        {
            "positions": [
                2.256226248911918,
                -1.2682257216121728,
                0.8867493883240569,
                -0.15607382763579025,
                1.3912031999775936,
                -2.426695722668983
            ]
        },
        {
            "positions": [
                2.334008466196346,
                -1.2367646851924445,
                0.9923882376571154,
                -0.20840244957094245,
                1.4305310302669625,
                -2.5059086256476157
            ]
        },
        {
            "positions": [
                2.4117906834807736,
                -1.2053036487727165,
                1.0980270869901736,
                -0.26073107150609437,
                1.4698588605563312,
                -2.5851215286262486
            ]
        },
        {
            "positions": [
                2.4429493153012785,
                -1.1779678238422822,
                1.2018068707179979,
                -0.33502397302901316,
                1.4121041799750127,
                -2.658151223402377
            ]
        },
        {
            "positions": [
                2.474107947121783,
                -1.150631998911848,
                1.3055866544458221,
                -0.40931687455193194,
                1.3543494993936942,
                -2.7311809181785063
            ]
        },
        {
            "positions": [
                2.5052665789422877,
                -1.1232961739814138,
                1.4093664381736464,
                -0.48360977607485073,
                1.296594818812376,
                -2.804210612954635
            ]
        },
        {
            "positions": [
                2.536425210762792,
                -1.0959603490509795,
                1.5131462219014709,
                -0.5579026775977696,
                1.2388401382310574,
                -2.877240307730764
            ]
        },
        {
            "positions": [
                2.567583842583297,
                -1.0686245241205452,
                1.6169260056292951,
                -0.6321955791206884,
                1.181085457649739,
                -2.9502700025068926
            ]
        },
        {
            "positions": [
                2.5987424744038012,
                -1.0412886991901111,
                1.7207057893571194,
                -0.7064884806436071,
                1.1233307770684204,
                -3.0232996972830213
            ]
        },
        {
            "positions": [
                2.629901106224306,
                -1.0139528742596768,
                1.8244855730849436,
                -0.7807813821665258,
                1.065576096487102,
                -3.0963293920591504
            ]
        }
    ]
}