{
    "goal": {
        "global_pose": {
            "orientation": {
                "w": 0.7031023480610252,
                "x": -0.7110244013736278,
                "y": 0.0077485991402295624,
                "z": 0.005598929693374583
            },
            "position": {
                "x": -0.8841497679147869,
                "y": 0.44412534475326537,
                "z": 0.3711530566215515
            }
        },
        "name": "move_to_auspresseinheit_D"
    },
    "id": "LBKPIECE_move_to_auspresseinheit_D_24",
    "joint_names": [
        "shoulder_pan_joint",
        "shoulder_lift_joint",
        "elbow_joint",
        "wrist_1_joint",
        "wrist_2_joint",
        "wrist_3_joint"
    ],
    "metrics": {
        "cart_traj_len": 0.3429203232456735,
        "distance_elbow_joint": 0.6287147345696311,
        "distance_shoulder_lift_joint": 0.11568400354058772,
        "distance_shoulder_pan_joint": 0.1344975950280873,
        "distance_wrist_1_joint": 0.5095789919516047,
        "distance_wrist_2_joint": 1.432398365769534,
        "distance_wrist_3_joint": 0.013473497206136997,
        "smoothness": 7.89491931748053e-16,
        "time": 0.463882868,
        "traj_len": 1.6835519558557086,
        "weighted_distance": 2.1916367263301173
    },
    "planner": "LBKPIECE",
    "start": {
        "state": {
            "elbow_joint": -1.8275523626775212,
            "shoulder_lift_joint": -2.126789852344167,
            "shoulder_pan_joint": -0.03513704404078235,
            "wrist_1_joint": -2.347782403156801,
            "wrist_2_joint": -1.6058999987535132,
            "wrist_3_joint": -3.0880379163319196
        }
    },
    "waypoints": [
        {
            "positions": [
                -0.03513704404078235,
                -2.126789852344167,
                -1.8275523626775212,
                -2.347782403156801,
                -1.6058999987535132,
                -3.0880379163319196
            ]
        },
        {
            "positions": [
                -0.05194924341929326,
                -2.14125035278674,
                -1.7489630208563174,
                -2.4114797771507517,
                -1.4268502030323214,
                -3.0897221034826865
            ]
        },
        {
            "positions": [
                -0.06876144279780418,
                -2.155710853229314,
                -1.6703736790351134,
                -2.475177151144702,
                -1.2478004073111297,
                -3.091406290633454
            ]
        },
        {
            "positions": [
                -0.08557364217631508,
                -2.170171353671887,
                -1.5917843372139096,
                -2.5388745251386524,
                -1.068750611589938,
                -3.093090477784221
            ]
        },
        {
            "positions": [
                -0.102385841554826,
                -2.1846318541144605,
                -1.5131949953927055,
                -2.6025718991326032,
                -0.8897008158687462,
                -3.094774664934988
            ]
        },
        {
            "positions": [
                -0.11919804093333691,
                -2.1990923545570342,
                -1.4346056535715017,
                -2.666269273126554,
                -0.7106510201475544,
                -3.096458852085755
            ]
        },
        {
            "positions": [
                -0.13601024031184783,
                -2.2135528549996075,
                -1.356016311750298,
                -2.7299666471205044,
                -0.5316012244263626,
                -3.0981430392365223
            ]
        },
        {
            "positions": [
                -0.15282243969035875,
                -2.2280133554421813,
                -1.277426969929094,
                -2.7936640211144548,
                -0.352551428705171,
                -3.0998272263872897
            ]
        },
        {
            "positions": [
                -0.16963463906886966,
                -2.2424738558847546,
                -1.19883762810789,
                -2.8573613951084056,
                -0.1735016329839791,
                -3.1015114135380566
            ]
        }
    ]
}