{
    "goal": {
        "global_pose": {
            "orientation": {
                "w": -0.4816463035849501,
                "x": 0.5182115481033762,
                "y": 0.4908360881923453,
                "z": -0.5084816262002911
            },
            "position": {
                "x": -0.8240239810943604,
                "y": -0.300875300988555,
                "z": 0.16403168439865112
            }
        },
        "name": "move_to_storage_C"
    },
    "id": "LBKPIECE_move_to_storage_C_37",
    "joint_names": [
        "shoulder_pan_joint",
        "shoulder_lift_joint",
        "elbow_joint",
        "wrist_1_joint",
        "wrist_2_joint",
        "wrist_3_joint"
    ],
    "metrics": {
        "cart_traj_len": 0.5764692673528269,
        "distance_elbow_joint": 0.2607558314477072,
        "distance_shoulder_lift_joint": 0.1892287338781512,
        "distance_shoulder_pan_joint": 0.4948106888332924,
        "distance_wrist_1_joint": 0.08747238813717328,
        "distance_wrist_2_joint": 1.0626926021362655,
        "distance_wrist_3_joint": 0.059564777809701486,
        "smoothness": 0.0,
        "time": 0.42665571399999996,
        "traj_len": 1.4678300386087932,
        "weighted_distance": 1.8503566056669003
    },
    "planner": "LBKPIECE",
    "start": {
        "state": {
            "elbow_joint": 2.010868314990456,
            "shoulder_lift_joint": -1.1634956873337592,
            "shoulder_pan_joint": -2.4736205022346125,
            "wrist_1_joint": -0.8367026794202681,
            "wrist_2_joint": 0.6746043897044499,
            "wrist_3_joint": -3.1496632123970403
        }
    },
    "waypoints": [
        {
            "positions": [
                -2.4736205022346125,
                -1.1634956873337592,
                2.010868314990456,
                -0.8367026794202681,
                0.6746043897044499,
                -3.1496632123970403
            ]
        },
        {
            "positions": [
                -2.5560889503734945,
                -1.131957565020734,
                1.9674090097491712,
                -0.8221239480640725,
                0.8517198233938275,
                -3.1397357494287568
            ]
        },
        {
            "positions": [
                -2.6385573985123765,
                -1.1004194427077088,
                1.9239497045078868,
                -0.807545216707877,
                1.0288352570832051,
                -3.1298082864604733
            ]
        },
        {
            "positions": [
                -2.7210258466512585,
                -1.0688813203946836,
                1.8804903992666022,
                -0.7929664853516815,
                1.2059506907725828,
                -3.1198808234921893
            ]
        },
        {
            "positions": [
                -2.803494294790141,
                -1.0373431980816583,
                1.8370310940253176,
                -0.7783877539954859,
                1.3830661244619602,
                -3.109953360523906
            ]
        },
        {
            "positions": [
                -2.885962742929023,
                -1.0058050757686332,
                1.7935717887840332,
                -0.7638090226392904,
                1.5601815581513379,
                -3.1000258975556223
            ]
        },
        {
            "positions": [
                -2.968431191067905,
                -0.974266953455608,
                1.7501124835427486,
                -0.7492302912830948,
                1.7372969918407155,
                -3.090098434587339
            ]
        }
    ]
}