{
    "goal": {
        "global_pose": {
            "orientation": {
                "w": 0.005598929693374612,
                "x": 0.007748599140229565,
                "y": 0.7110244013736278,
                "z": -0.7031023480610252
            },
            "position": {
                "x": 0.1141497679147869,
                "y": -0.7141253447532654,
                "z": 0.3711530566215515
            }
        },
        "name": "move_to_auspresseinheit_B"
    },
    "id": "LBKPIECE_move_to_auspresseinheit_B_145",
    "joint_names": [
        "shoulder_pan_joint",
        "shoulder_lift_joint",
        "elbow_joint",
        "wrist_1_joint",
        "wrist_2_joint",
        "wrist_3_joint"
    ],
    "metrics": {
        "cart_traj_len": 0.5654307764445932,
        "distance_elbow_joint": 0.06642755464632089,
        "distance_shoulder_lift_joint": 0.2934203135492581,
        "distance_shoulder_pan_joint": 0.5776339798117591,
        "distance_wrist_1_joint": 0.33983644312144956,
        "distance_wrist_2_joint": 0.9953608175413595,
        "distance_wrist_3_joint": 0.0006350838751667531,
        "smoothness": 5.075305295617109e-16,
        "time": 0.50540313,
        "traj_len": 1.5077513696048543,
        "weighted_distance": 1.8999425309620437
    },
    "planner": "LBKPIECE",
    "start": {
        "state": {
            "elbow_joint": 2.0193083361928714,
            "shoulder_lift_joint": -1.1220246554650708,
            "shoulder_pan_joint": -1.0952077554168747,
            "wrist_1_joint": -0.8559753972642168,
            "wrist_2_joint": 0.4759566250798843,
            "wrist_3_joint": -3.1240929996934557
        }
    },
    "waypoints": [
        {
            "positions": [
                -1.0952077554168747,
                -1.1220246554650708,
                2.0193083361928714,
                -0.8559753972642168,
                0.4759566250798843,
                -3.1240929996934557
            ]
        },
        {
            "positions": [
                -1.1914800853855012,
                -1.1709280410566139,
                2.0082370770851514,
                -0.7993359900773085,
                0.6418500946701109,
                -3.123987152380928
            ]
        },
        {
            "positions": [
                -1.2877524153541278,
                -1.219831426648157,
                1.9971658179774312,
                -0.7426965828904003,
                0.8077435642603374,
                -3.1238813050684002
            ]
        },
        {
            "positions": [
                -1.3840247453227543,
                -1.2687348122396997,
                1.986094558869711,
                -0.686057175703492,
                0.973637033850564,
                -3.1237754577558725
            ]
        },
        {
            "positions": [
                -1.4802970752913807,
                -1.3176381978312428,
                1.9750232997619908,
                -0.6294177685165838,
                1.1395305034407905,
                -3.1236696104433443
            ]
        },
        {
            "positions": [
                -1.5765694052600072,
                -1.3665415834227859,
                1.9639520406542708,
                -0.5727783613296755,
                1.3054239730310173,
                -3.1235637631308166
            ]
        },
        {
            "positions": [
                -1.6728417352286338,
                -1.415444969014329,
                1.9528807815465505,
                -0.5161389541427672,
                1.4713174426212439,
                -3.123457915818289
            ]
        }
    ]
}