{
    "goal": {
        "global_pose": {
            "orientation": {
                "w": -0.00223480608172531,
                "x": 0.0024358444001904467,
                "y": 0.7094548369677653,
                "z": -0.704743149386269
            },
            "position": {
                "x": 0.6205249238014221,
                "y": -0.6371506643295288,
                "z": 0.19426114857196808
            }
        },
        "name": "move_to_magneteinheit_B"
    },
    "id": "LBKPIECE_move_to_magneteinheit_B_16",
    "joint_names": [
        "shoulder_pan_joint",
        "shoulder_lift_joint",
        "elbow_joint",
        "wrist_1_joint",
        "wrist_2_joint",
        "wrist_3_joint"
    ],
    "metrics": {
        "cart_traj_len": 3.5742994103567787,
        "distance_elbow_joint": 4.5425381271133976,
        "distance_shoulder_lift_joint": 2.158084325342466,
        "distance_shoulder_pan_joint": 2.623361104109112,
        "distance_wrist_1_joint": 3.9126277906701326,
        "distance_wrist_2_joint": 2.8463981964031335,
        "distance_wrist_3_joint": 1.824214449355607,
        "smoothness": 0.7706126232169729,
        "time": 0.449541711,
        "traj_len": 4.231692804657948,
        "weighted_distance": 5.321153904819736
    },
    "planner": "LBKPIECE",
    "start": {
        "state": {
            "elbow_joint": 2.6216224122426386,
            "shoulder_lift_joint": -1.4174107377796124,
            "shoulder_pan_joint": 0.7066234856936794,
            "wrist_1_joint": 1.9546482284002225,
            "wrist_2_joint": -0.7096286983471962,
            "wrist_3_joint": 0.005740856962016249
        }
    },
    "waypoints": [
        {
            "positions": [
                0.7066234856936794,
                -1.4174107377796124,
                2.6216224122426386,
                1.9546482284002225,
                -0.7096286983471962,
                0.005740856962016249
            ]
        },
        {
            "positions": [
                0.6518199525627755,
                -1.4429590087180628,
                2.586748065788982,
                1.8393459926719764,
                -0.61505804763184,
                -0.04729238032160761
            ]
        },
        {
            "positions": [
                0.5970164194318716,
                -1.4685072796565133,
                2.5518737193353256,
                1.7240437569437304,
                -0.5204873969164838,
                -0.10032561760523147
            ]
        },
        {
            "positions": [
                0.5422128863009676,
                -1.4940555505949638,
                2.516999372881669,
                1.6087415212154843,
                -0.4259167462011275,
                -0.1533588548888553
            ]
        },
        {
            "positions": [
                0.5178432617313214,
                -1.5244960389769546,
                2.436522937678278,
                1.4644329659252582,
                -0.3147230678991049,
                -0.15026449551611729
            ]
        },
        {
            "positions": [
                0.49347363716167525,
                -1.5549365273589455,
                2.3560465024748876,
                1.320124410635032,
                -0.20352938959708233,
                -0.1471701361433793
            ]
        },
        {
            "positions": [
                0.46910401259202905,
                -1.5853770157409364,
                2.2755700672714965,
                1.1758158553448061,
                -0.09233571129505974,
                -0.14407577677064126
            ]
        },
        {
            "positions": [
                0.4447343880223829,
                -1.6158175041229275,
                2.195093632068106,
                1.0315073000545798,
                0.01885796700696285,
                -0.14098141739790326
            ]
        },
        {
            "positions": [
                0.4203647634527367,
                -1.6462579925049183,
                2.114617196864715,
                0.8871987447643538,
                0.1300516453089855,
                -0.13788705802516524
            ]
        },
        {
            "positions": [
                0.3959951388830905,
                -1.6766984808869092,
                2.0341407616613245,
                0.7428901894741278,
                0.24124532361100803,
                -0.13479269865242724
            ]
        },
        {
            "positions": [
                0.3716255143134443,
                -1.7071389692689,
                1.9536643264579336,
                0.5985816341839016,
                0.3524390019130307,
                -0.1316983392796892
            ]
        },
        {
            "positions": [
                0.4415528720092018,
                -1.6783230378346832,
                1.7725932253164585,
                0.545886540832619,
                0.3904778017273715,
                -0.12231413822012113
            ]
        },
        {
            "positions": [
                0.5114802297049592,
                -1.6495071064004663,
                1.5915221241749835,
                0.4931914474813363,
                0.42851660154171234,
                -0.11292993716055305
            ]
        },
        {
            "positions": [
                0.5814075874007167,
                -1.6206911749662494,
                1.4104510230335086,
                0.4404963541300536,
                0.4665554013560531,
                -0.10354573610098497
            ]
        },
        {
            "positions": [
                0.6513349450964743,
                -1.5918752435320325,
                1.2293799218920334,
                0.387801260778771,
                0.5045942011703939,
                -0.09416153504141689
            ]
        },
        {
            "positions": [
                0.7212623027922317,
                -1.5630593120978156,
                1.0483088207505582,
                0.3351061674274883,
                0.5426330009847348,
                -0.0847773339818488
            ]
        },
        {
            "positions": [
                0.7911896604879891,
                -1.5342433806635989,
                0.8672377196090832,
                0.28241107407620564,
                0.5806718007990757,
                -0.07539313292228071
            ]
        },
        {
            "positions": [
                0.8611170181837466,
                -1.5054274492293818,
                0.6861666184676081,
                0.22971598072492294,
                0.6187106006134164,
                -0.06600893186271263
            ]
        },
        {
            "positions": [
                0.9310443758795042,
                -1.476611517795165,
                0.5050955173261331,
                0.1770208873736403,
                0.6567494004277572,
                -0.05662473080314455
            ]
        },
        {
            "positions": [
                1.0009717335752617,
                -1.4477955863609482,
                0.32402441618465816,
                0.12432579402235766,
                0.6947882002420981,
                -0.047240529743576454
            ]
        },
        {
            "positions": [
                1.070899091271019,
                -1.4189796549267313,
                0.14295331504318298,
                0.07163070067107491,
                0.732827000056439,
                -0.03785632868400837
            ]
        },
        {
            "positions": [
                1.1408264489667765,
                -1.3901637234925144,
                -0.03811778609829197,
                0.01893560731979227,
                0.7708657998707797,
                -0.02847212762444029
            ]
        },
        {
            "positions": [
                1.210753806662534,
                -1.3613477920582975,
                -0.21918888723976704,
                -0.03375948603149032,
                0.8089045996851205,
                -0.019087926564872217
            ]
        },
        {
            "positions": [
                1.2865743057215622,
                -1.3477808954098631,
                -0.31786959423450745,
                0.06249950453227634,
                0.7669982650617603,
                -0.06877491356398592
            ]
        },
        {
            "positions": [
                1.3623948047805905,
                -1.334213998761429,
                -0.4165503012292479,
                0.158758495096043,
                0.7250919304383999,
                -0.11846190056309963
            ]
        },
        {
            "positions": [
                1.4382153038396186,
                -1.3206471021129946,
                -0.5152310082239884,
                0.25501748565980964,
                0.6831855958150397,
                -0.16814888756221333
            ]
        },
        {
            "positions": [
                1.514035802898647,
                -1.3070802054645605,
                -0.6139117152187288,
                0.35127647622357633,
                0.6412792611916793,
                -0.21783587456132703
            ]
        },
        {
            "positions": [
                1.589856301957675,
                -1.2935133088161261,
                -0.7125924222134692,
                0.44753546678734296,
                0.5993729265683191,
                -0.26752286156044075
            ]
        },
        {
            "positions": [
                1.6656768010167031,
                -1.279946412167692,
                -0.8112731292082097,
                0.5437944573511095,
                0.5574665919449588,
                -0.3172098485595545
            ]
        },
        {
            "positions": [
                1.7414973000757314,
                -1.2663795155192576,
                -0.9099538362029501,
                0.6400534479148762,
                0.5155602573215985,
                -0.3668968355586682
            ]
        },
        {
            "positions": [
                1.8173177991347595,
                -1.2528126188708235,
                -1.0086345431976906,
                0.7363124384786429,
                0.47365392269823825,
                -0.41658382255778187
            ]
        },
        {
            "positions": [
                1.8931382981937879,
                -1.2392457222223892,
                -1.107315250192431,
                0.8325714290424095,
                0.43174758807487795,
                -0.4662708095568956
            ]
        },
        {
            "positions": [
                1.968958797252816,
                -1.225678825573955,
                -1.2059959571871715,
                0.9288304196061762,
                0.38984125345151766,
                -0.5159577965560093
            ]
        },
        {
            "positions": [
                2.044779296311844,
                -1.2121119289255207,
                -1.3046766641819119,
                1.0250894101699428,
                0.3479349188281574,
                -0.5656447835551229
            ]
        },
        {
            "positions": [
                2.1205997953708726,
                -1.1985450322770865,
                -1.4033573711766523,
                1.1213484007337096,
                0.30602858420479706,
                -0.6153317705542367
            ]
        },
        {
            "positions": [
                2.1964202944299007,
                -1.1849781356286522,
                -1.5020380781713927,
                1.2176073912974763,
                0.2641222495814368,
                -0.6650187575533505
            ]
        },
        {
            "positions": [
                2.272240793488929,
                -1.1714112389802178,
                -1.600718785166133,
                1.3138663818612428,
                0.22221591495807647,
                -0.7147057445524642
            ]
        },
        {
            "positions": [
                2.348061292547957,
                -1.1578443423317837,
                -1.6993994921608735,
                1.4101253724250096,
                0.18030958033471622,
                -0.7643927315515778
            ]
        },
        {
            "positions": [
                2.3916967246284657,
                -1.2902806939452516,
                -1.7130459531758044,
                1.3449914706774615,
                0.25132583268317904,
                -0.6958045869494147
            ]
        },
        {
            "positions": [
                2.4353321567089745,
                -1.4227170455587197,
                -1.7266924141907354,
                1.2798575689299134,
                0.32234208503164186,
                -0.6272164423472517
            ]
        },
        {
            "positions": [
                2.4789675887894833,
                -1.5551533971721878,
                -1.7403388752056663,
                1.2147236671823654,
                0.3933583373801047,
                -0.5586282977450886
            ]
        },
        {
            "positions": [
                2.5226030208699926,
                -1.6875897487856557,
                -1.753985336220597,
                1.1495897654348173,
                0.4643745897285675,
                -0.49004015314292554
            ]
        },
        {
            "positions": [
                2.5662384529505013,
                -1.8200261003991238,
                -1.767631797235528,
                1.0844558636872692,
                0.5353908420770304,
                -0.4214520085407624
            ]
        },
        {
            "positions": [
                2.60987388503101,
                -1.9524624520125917,
                -1.781278258250459,
                1.0193219619397211,
                0.6064070944254931,
                -0.35286386393859936
            ]
        },
        {
            "positions": [
                2.653509317111519,
                -2.08489880362606,
                -1.7949247192653899,
                0.9541880601921731,
                0.677423346773956,
                -0.28427571933643625
            ]
        },
        {
            "positions": [
                2.6556690937551197,
                -2.2155678054999886,
                -1.7529277207302663,
                0.9623206953752006,
                0.6100379759135647,
                -0.18246838867680107
            ]
        },
        {
            "positions": [
                2.6578288703987205,
                -2.346236807373917,
                -1.7109307221951426,
                0.970453330558228,
                0.5426526050531734,
                -0.08066105801716589
            ]
        },
        {
            "positions": [
                2.6599886470423213,
                -2.4769058092478455,
                -1.668933723660019,
                0.9785859657412556,
                0.47526723419278205,
                0.021146272642469342
            ]
        }
    ]
}