{
    "goal": {
        "global_pose": {
            "orientation": {
                "w": 0.7047431493862688,
                "x": -0.7094548369677653,
                "y": 0.0024358444001904,
                "z": -0.0022348060817251984
            },
            "position": {
                "x": -0.39052492380142206,
                "y": 0.3671506643295288,
                "z": 0.19426114857196808
            }
        },
        "name": "move_to_magneteinheit_D"
    },
    "id": "LBKPIECE_move_to_magneteinheit_D_26",
    "joint_names": [
        "shoulder_pan_joint",
        "shoulder_lift_joint",
        "elbow_joint",
        "wrist_1_joint",
        "wrist_2_joint",
        "wrist_3_joint"
    ],
    "metrics": {
        "cart_traj_len": 3.7756462780256883,
        "distance_elbow_joint": 3.7595155966371,
        "distance_shoulder_lift_joint": 1.6287409795893752,
        "distance_shoulder_pan_joint": 2.759515637972204,
        "distance_wrist_1_joint": 1.5258046075662282,
        "distance_wrist_2_joint": 1.6799457350114007,
        "distance_wrist_3_joint": 3.218975281484043,
        "smoothness": 0.21088567402223574,
        "time": 0.671059802,
        "traj_len": 3.817394116181921,
        "weighted_distance": 4.920995706542129
    },
    "planner": "LBKPIECE",
    "start": {
        "state": {
            "elbow_joint": 0.749534889911806,
            "shoulder_lift_joint": -0.6476975780787326,
            "shoulder_pan_joint": -2.711696901376241,
            "wrist_1_joint": -0.07506478083263063,
            "wrist_2_joint": 0.43296659715538205,
            "wrist_3_joint": -3.14703540197715
        }
    },
    "waypoints": [
        {
            "positions": [
                -2.711696901376241,
                -0.6476975780787326,
                0.749534889911806,
                -0.07506478083263063,
                0.43296659715538205,
                -3.14703540197715
            ]
        },
        {
            "positions": [
                -2.7052543128166358,
                -0.6995994552305603,
                0.792829641332175,
                0.03225316053815325,
                0.32686942658515733,
                -3.0891074698025323
            ]
        },
        {
            "positions": [
                -2.698811724257031,
                -0.7515013323823881,
                0.836124392752544,
                0.13957110190893712,
                0.2207722560149326,
                -3.0311795376279145
            ]
        },
        {
            "positions": [
                -2.6923691356974255,
                -0.8034032095342158,
                0.8794191441729131,
                0.246889043279721,
                0.11467508544470789,
                -2.9732516054532967
            ]
        },
        {
            "positions": [
                -2.68592654713782,
                -0.8553050866860437,
                0.9227138955932821,
                0.3542069846505049,
                0.008577914874483172,
                -2.9153236732786785
            ]
        },
        {
            "positions": [
                -2.679483958578215,
                -0.9072069638378714,
                0.9660086470136512,
                0.46152492602128875,
                -0.09751925569574155,
                -2.8573957411040607
            ]
        },
        {
            "positions": [
                -2.67304137001861,
                -0.9591088409896991,
                1.0093033984340203,
                0.5688428673920727,
                -0.20361642626596627,
                -2.799467808929443
            ]
        },
        {
            "positions": [
                -2.6665987814590046,
                -1.0110107181415269,
                1.0525981498543893,
                0.6761608087628566,
                -0.30971359683619104,
                -2.741539876754825
            ]
        },
        {
            "positions": [
                -2.623551560459343,
                -1.0503254220823823,
                1.055088278921052,
                0.7480599129739329,
                -0.3872165958894596,
                -2.6747802151868645
            ]
        },
        {
            "positions": [
                -2.580504339459681,
                -1.0896401260232378,
                1.0575784079877146,
                0.8199590171850093,
                -0.4647195949427282,
                -2.608020553618904
            ]
        },
        {
            "positions": [
                -2.4669448788212662,
                -1.120656784468166,
                0.9353221479650329,
                0.8335262197217276,
                -0.45025772492990995,
                -2.50673883283659
            ]
        },
        {
            "positions": [
                -2.353385418182851,
                -1.1516734429130941,
                0.8130658879423512,
                0.8470934222584459,
                -0.4357958549170918,
                -2.405457112054276
            ]
        },
        {
            "positions": [
                -2.239825957544436,
                -1.1826901013580224,
                0.6908096279196696,
                0.8606606247951641,
                -0.42133398490427354,
                -2.3041753912719622
            ]
        },
        {
            "positions": [
                -2.1262664969060205,
                -1.2137067598029507,
                0.5685533678969878,
                0.8742278273318824,
                -0.40687211489145536,
                -2.2028936704896482
            ]
        },
        {
            "positions": [
                -2.0127070362676056,
                -1.2447234182478788,
                0.4462971078743062,
                0.8877950298686007,
                -0.3924102448786371,
                -2.1016119497073342
            ]
        },
        {
            "positions": [
                -1.8991475756291905,
                -1.275740076692807,
                0.32404084785162457,
                0.901362232405319,
                -0.37794837486581895,
                -2.00033022892502
            ]
        },
        {
            "positions": [
                -1.7855881149907753,
                -1.3067567351377352,
                0.20178458782894282,
                0.9149294349420374,
                -0.3634865048530007,
                -1.8990485081427062
            ]
        },
        {
            "positions": [
                -1.67202865435236,
                -1.3377733935826635,
                0.07952832780626107,
                0.9284966374787557,
                -0.34902463484018253,
                -1.7977667873603924
            ]
        },
        {
            "positions": [
                -1.558469193713945,
                -1.3687900520275917,
                -0.04272793221642068,
                0.9420638400154739,
                -0.3345627648273643,
                -1.6964850665780784
            ]
        },
        {
            "positions": [
                -1.4449097330755298,
                -1.3998067104725198,
                -0.1649841922391022,
                0.9556310425521922,
                -0.32010089481454607,
                -1.5952033457957646
            ]
        },
        {
            "positions": [
                -1.3313502724371147,
                -1.430823368917448,
                -0.28724045226178396,
                0.9691982450889105,
                -0.3056390248017279,
                -1.4939216250134506
            ]
        },
        {
            "positions": [
                -1.2177908117986997,
                -1.4618400273623764,
                -0.4094967122844655,
                0.9827654476256288,
                -0.2911771547889097,
                -1.3926399042311368
            ]
        },
        {
            "positions": [
                -1.1042313511602844,
                -1.4928566858073045,
                -0.5317529723071475,
                0.9963326501623471,
                -0.2767152847760914,
                -1.2913581834488226
            ]
        },
        {
            "positions": [
                -0.9906718905218692,
                -1.5238733442522328,
                -0.654009232329829,
                1.0098998526990655,
                -0.26225341476327324,
                -1.1900764626665088
            ]
        },
        {
            "positions": [
                -0.8771124298834543,
                -1.554890002697161,
                -0.7762654923525105,
                1.0234670552357836,
                -0.24779154475045506,
                -1.088794741884195
            ]
        },
        {
            "positions": [
                -0.7635529692450389,
                -1.5859066611420891,
                -0.8985217523751925,
                1.037034257772502,
                -0.23332967473763683,
                -0.987513021101881
            ]
        },
        {
            "positions": [
                -0.649993508606624,
                -1.6169233195870174,
                -1.0207780123978742,
                1.0506014603092202,
                -0.21886780472481865,
                -0.886231300319567
            ]
        },
        {
            "positions": [
                -0.5364340479682088,
                -1.6479399780319457,
                -1.143034272420556,
                1.0641686628459386,
                -0.20440593471200041,
                -0.784949579537253
            ]
        },
        {
            "positions": [
                -0.42287458732979344,
                -1.6789566364768738,
                -1.2652905324432373,
                1.0777358653826568,
                -0.18994406469918224,
                -0.6836678587549392
            ]
        },
        {
            "positions": [
                -0.3093151266913785,
                -1.7099732949218018,
                -1.387546792465919,
                1.0913030679193751,
                -0.175482194686364,
                -0.5823861379726254
            ]
        },
        {
            "positions": [
                -0.19575566605296313,
                -1.7409899533667303,
                -1.5098030524886008,
                1.1048702704560935,
                -0.16102032467354577,
                -0.4811044171903114
            ]
        },
        {
            "positions": [
                -0.08219620541454828,
                -1.7720066118116584,
                -1.6320593125112826,
                1.1184374729928117,
                -0.14655845466072762,
                -0.3798226964079975
            ]
        },
        {
            "positions": [
                -0.07990062580131507,
                -1.8316301742018515,
                -1.748454075237482,
                1.1568625776179369,
                -0.08141357650371292,
                -0.30757950530970923
            ]
        },
        {
            "positions": [
                -0.07760504618808188,
                -1.8912537365920443,
                -1.8648488379636812,
                1.1952876822430618,
                -0.016268698346698224,
                -0.23533631421142095
            ]
        },
        {
            "positions": [
                -0.07530946657484867,
                -1.9508772989822374,
                -1.9812436006898806,
                1.2337127868681868,
                0.04887617981031647,
                -0.16309312311313268
            ]
        },
        {
            "positions": [
                -0.07301388696161547,
                -2.0105008613724302,
                -2.09763836341608,
                1.272137891493312,
                0.11402105796733117,
                -0.09084993201484443
            ]
        },
        {
            "positions": [
                -0.07071830734838228,
                -2.0701244237626235,
                -2.2140331261422794,
                1.310562996118437,
                0.17916593612434586,
                -0.01860674091655612
            ]
        },
        {
            "positions": [
                -0.06842272773514907,
                -2.1297479861528164,
                -2.3304278888684786,
                1.348988100743562,
                0.24431081428136053,
                0.05363645018173213
            ]
        },
        {
            "positions": [
                -0.12607148567858606,
                -2.2120102032593216,
                -2.387533805310728,
                1.4030603403874253,
                0.17266206080331845,
                0.07059552139173439
            ]
        },
        {
            "positions": [
                -0.18466419206626136,
                -2.276438557668108,
                -2.3938936705734766,
                1.450739826733598,
                0.17424244101447792,
                0.0692511632765754
            ]
        }
    ]
}