{
    "goal": {
        "global_pose": {
            "orientation": {
                "w": -0.4816463035849501,
                "x": 0.5182115481033762,
                "y": 0.4908360881923453,
                "z": -0.5084816262002911
            },
            "position": {
                "x": -0.8240239810943604,
                "y": -0.300875300988555,
                "z": 0.16403168439865112
            }
        },
        "name": "move_to_storage_C"
    },
    "id": "LBKPIECE_move_to_storage_C_7",
    "joint_names": [
        "shoulder_pan_joint",
        "shoulder_lift_joint",
        "elbow_joint",
        "wrist_1_joint",
        "wrist_2_joint",
        "wrist_3_joint"
    ],
    "metrics": {
        "cart_traj_len": 0.5773912119642812,
        "distance_elbow_joint": 0.2570103378773767,
        "distance_shoulder_lift_joint": 0.18910060565498754,
        "distance_shoulder_pan_joint": 0.4967383132146237,
        "distance_wrist_1_joint": 0.07604609517371275,
        "distance_wrist_2_joint": 1.0602051533881793,
        "distance_wrist_3_joint": 0.07468206806361755,
        "smoothness": 0.0,
        "time": 0.690264099,
        "traj_len": 1.46757710985573,
        "weighted_distance": 1.8545613923679163
    },
    "planner": "LBKPIECE",
    "start": {
        "state": {
            "elbow_joint": 2.010868314990456,
            "shoulder_lift_joint": -1.1634956873337592,
            "shoulder_pan_joint": -2.4736205022346125,
            "wrist_1_joint": -0.8367026794202681,
            "wrist_2_joint": 0.6746043897044499,
            "wrist_3_joint": -3.1496632123970403
        }
    },
    "waypoints": [
        {
            "positions": [
                -2.4736205022346125,
                -1.1634956873337592,
                2.010868314990456,
                -0.8367026794202681,
                0.6746043897044499,
                -3.1496632123970403
            ]
        },
        {
            "positions": [
                -2.5564102211037163,
                -1.1319789197245946,
                1.9680332586775597,
                -0.8240283302246493,
                0.8513052486024798,
                -3.137216201053104
            ]
        },
        {
            "positions": [
                -2.6391999399728205,
                -1.10046215211543,
                1.9251982023646637,
                -0.8113539810290306,
                1.0280061075005098,
                -3.1247691897091676
            ]
        },
        {
            "positions": [
                -2.7219896588419243,
                -1.0689453845062653,
                1.8823631460517674,
                -0.7986796318334117,
                1.2047069663985397,
                -3.1123221783652317
            ]
        },
        {
            "positions": [
                -2.804779377711028,
                -1.0374286168971008,
                1.8395280897388713,
                -0.7860052826377929,
                1.3814078252965696,
                -3.0998751670212954
            ]
        },
        {
            "positions": [
                -2.8875690965801324,
                -1.0059118492879362,
                1.7966930334259752,
                -0.7733309334421742,
                1.5581086841945995,
                -3.087428155677359
            ]
        },
        {
            "positions": [
                -2.970358815449236,
                -0.9743950816787716,
                1.7538579771130791,
                -0.7606565842465554,
                1.7348095430926294,
                -3.0749811443334227
            ]
        }
    ]
}