{
    "goal": {
        "global_pose": {
            "orientation": {
                "w": 0.5084816217422485,
                "x": -0.49083608388900757,
                "y": 0.5182115435600281,
                "z": -0.4816462993621826
            },
            "position": {
                "x": 0.5540239810943604,
                "y": 0.030875300988554955,
                "z": 0.16403168439865112
            }
        },
        "name": "move_to_storage_A"
    },
    "id": "LBKPIECE_move_to_storage_A_50",
    "joint_names": [
        "shoulder_pan_joint",
        "shoulder_lift_joint",
        "elbow_joint",
        "wrist_1_joint",
        "wrist_2_joint",
        "wrist_3_joint"
    ],
    "metrics": {
        "cart_traj_len": 0.3531270652402432,
        "distance_elbow_joint": 0.4517033073580914,
        "distance_shoulder_lift_joint": 0.23618130680215454,
        "distance_shoulder_pan_joint": 0.46399079266432014,
        "distance_wrist_1_joint": 0.24226783011108977,
        "distance_wrist_2_joint": 1.090856781911672,
        "distance_wrist_3_joint": 0.10126377072551795,
        "smoothness": 0.0,
        "time": 0.404420434,
        "traj_len": 1.6081864909185268,
        "weighted_distance": 2.0302502168566914
    },
    "planner": "LBKPIECE",
    "start": {
        "state": {
            "elbow_joint": 1.971548259319323,
            "shoulder_lift_joint": -1.1394851275133948,
            "shoulder_pan_joint": 0.1228115487234821,
            "wrist_1_joint": -0.7804723859257726,
            "wrist_2_joint": 0.12958671773740124,
            "wrist_3_joint": -3.192489227718131
        }
    },
    "waypoints": [
        {
            "positions": [
                0.1228115487234821,
                -1.1394851275133948,
                1.971548259319323,
                -0.7804723859257726,
                0.12958671773740124,
                -3.192489227718131
            ]
        },
        {
            "positions": [
                0.05652714977143637,
                -1.173225314199417,
                2.036077303227622,
                -0.8150820759416426,
                0.28542340086764006,
                -3.1780229747573427
            ]
        },
        {
            "positions": [
                -0.009757249180609356,
                -1.206965500885439,
                2.1006063471359204,
                -0.8496917659575125,
                0.44126008399787886,
                -3.163556721796555
            ]
        },
        {
            "positions": [
                -0.0760416481326551,
                -1.240705687571461,
                2.1651353910442195,
                -0.8843014559733825,
                0.5970967671281178,
                -3.1490904688357664
            ]
        },
        {
            "positions": [
                -0.1423260470847008,
                -1.2744458742574831,
                2.229664434952518,
                -0.9189111459892525,
                0.7529334502583566,
                -3.134624215874978
            ]
        },
        {
            "positions": [
                -0.20861044603674656,
                -1.3081860609435052,
                2.2941934788608167,
                -0.9535208360051224,
                0.9087701333885955,
                -3.1201579629141896
            ]
        },
        {
            "positions": [
                -0.2748948449887923,
                -1.3419262476295273,
                2.3587225227691158,
                -0.9881305260209924,
                1.0646068165188343,
                -3.1056917099534016
            ]
        },
        {
            "positions": [
                -0.34117924394083804,
                -1.3756664343155494,
                2.4232515666774144,
                -1.0227402160368624,
                1.2204434996490732,
                -3.091225456992613
            ]
        }
    ]
}{
    "goal": {
        "global_pose": {
            "orientation": {
                "w": 0.5084816217422485,
                "x": -0.49083608388900757,
                "y": 0.5182115435600281,
                "z": -0.4816462993621826
            },
            "position": {
                "x": 0.5540239810943604,
                "y": 0.030875300988554955,
                "z": 0.16403168439865112
            }
        },
        "name": "move_to_storage_A"
    },
    "id": "LBKPIECE_move_to_storage_A_50",
    "joint_names": [
        "shoulder_pan_joint",
        "shoulder_lift_joint",
        "elbow_joint",
        "wrist_1_joint",
        "wrist_2_joint",
        "wrist_3_joint"
    ],
    "metrics": {
        "cart_traj_len": 0.352686386208268,
        "distance_elbow_joint": 0.45015637640328876,
        "distance_shoulder_lift_joint": 0.2346263823945507,
        "distance_shoulder_pan_joint": 0.46044647323036264,
        "distance_wrist_1_joint": 0.23969201541403695,
        "distance_wrist_2_joint": 1.1017686727513125,
        "distance_wrist_3_joint": 0.08621010496650827,
        "smoothness": 2.2204460668324854e-16,
        "time": 0.620094226,
        "traj_len": 1.604026192167715,
        "weighted_distance": 2.021578819452367
    },
    "planner": "LBKPIECE",
    "start": {
        "state": {
            "elbow_joint": 1.97154746011099,
            "shoulder_lift_joint": -1.13948474672311,
            "shoulder_pan_joint": 0.12281154466712228,
            "wrist_1_joint": -0.7804688027058302,
            "wrist_2_joint": 0.12958655903071145,
            "wrist_3_joint": 3.0906928834467795
        }
    },
    "waypoints": [
        {
            "positions": [
                0.12281154466712228,
                -1.13948474672311,
                1.97154746011099,
                -0.7804688027058302,
                0.12958655903071145,
                3.0906928834467795
            ]
        },
        {
            "positions": [
                0.05703347706278476,
                -1.1730028013509028,
                2.0358555138828884,
                -0.8147105191935498,
                0.28698208370947037,
                3.1030086127277094
            ]
        },
        {
            "positions": [
                -0.008744590541552758,
                -1.206520855978696,
                2.1001635676547865,
                -0.8489522356812693,
                0.44437760838822926,
                3.115324342008639
            ]
        },
        {
            "positions": [
                -0.07452265814589028,
                -1.2400389106064889,
                2.164471621426685,
                -0.8831939521689889,
                0.6017731330669882,
                3.127640071289569
            ]
        },
        {
            "positions": [
                -0.14030072575022778,
                -1.2735569652342817,
                2.2287796751985836,
                -0.9174356686567084,
                0.7591686577457472,
                3.1399558005704984
            ]
        },
        {
            "positions": [
                -0.2060787933545653,
                -1.3070750198620749,
                2.293087728970482,
                -0.951677385144428,
                0.9165641824245061,
                3.1522715298514283
            ]
        },
        {
            "positions": [
                -0.2718568609589028,
                -1.3405930744898678,
                2.35739578274238,
                -0.9859191016321476,
                1.073959707103265,
                3.164587259132358
            ]
        },
        {
            "positions": [
                -0.33763492856324034,
                -1.3741111291176606,
                2.4217038365142787,
                -1.0201608181198671,
                1.231355231782024,
                3.1769029884132878
            ]
        }
    ]
}{
    "goal": {
        "global_pose": {
            "orientation": {
                "w": 0.5084816217422485,
                "x": -0.49083608388900757,
                "y": 0.5182115435600281,
                "z": -0.4816462993621826
            },
            "position": {
                "x": 0.5540239810943604,
                "y": 0.030875300988554955,
                "z": 0.16403168439865112
            }
        },
        "name": "move_to_storage_A"
    },
    "id": "LBKPIECE_move_to_storage_A_50",
    "joint_names": [
        "shoulder_pan_joint",
        "shoulder_lift_joint",
        "elbow_joint",
        "wrist_1_joint",
        "wrist_2_joint",
        "wrist_3_joint"
    ],
    "metrics": {
        "cart_traj_len": 0.35253192202964195,
        "distance_elbow_joint": 0.44970744266421026,
        "distance_shoulder_lift_joint": 0.23450568795561177,
        "distance_shoulder_pan_joint": 0.46234424071310526,
        "distance_wrist_1_joint": 0.24089963826972793,
        "distance_wrist_2_joint": 1.0920072222194692,
        "distance_wrist_3_joint": 0.09034952115407391,
        "smoothness": 4.440892098500626e-16,
        "time": 0.27508520000000003,
        "traj_len": 1.6030638642849504,
        "weighted_distance": 2.0207473013154176
    },
    "planner": "LBKPIECE",
    "start": {
        "state": {
            "elbow_joint": 1.9715472970024885,
            "shoulder_lift_joint": -1.1394870060712896,
            "shoulder_pan_joint": 0.12281152778156021,
            "wrist_1_joint": -0.780463741449964,
            "wrist_2_joint": 0.12958659822042276,
            "wrist_3_joint": 3.090690232415272
        }
    },
    "waypoints": [
        {
            "positions": [
                0.12281152778156021,
                -1.1394870060712896,
                1.9715472970024885,
                -0.780463741449964,
                0.12958659822042276,
                3.090690232415272
            ]
        },
        {
            "positions": [
                0.0567623505368309,
                -1.172987818636377,
                2.03579121738309,
                -0.8148779754884966,
                0.28558762996606124,
                3.1035973068658538
            ]
        },
        {
            "positions": [
                -0.009286826707898405,
                -1.2064886312014644,
                2.1000351377636917,
                -0.8492922095270291,
                0.44158866171169964,
                3.1165043813164357
            ]
        },
        {
            "positions": [
                -0.07533600395262771,
                -1.2399894437665517,
                2.164279058144293,
                -0.8837064435655617,
                0.5975896934573381,
                3.1294114557670176
            ]
        },
        {
            "positions": [
                -0.14138518119735702,
                -1.2734902563316393,
                2.2285229785248943,
                -0.9181206776040942,
                0.7535907252029765,
                3.1423185302176
            ]
        },
        {
            "positions": [
                -0.20743435844208638,
                -1.3069910688967266,
                2.292766898905496,
                -0.9525349116426268,
                0.909591756948615,
                3.155225604668182
            ]
        },
        {
            "positions": [
                -0.2734835356868156,
                -1.3404918814618139,
                2.3570108192860975,
                -0.9869491456811593,
                1.0655927886942536,
                3.168132679118764
            ]
        },
        {
            "positions": [
                -0.339532712931545,
                -1.3739926940269014,
                2.421254739666699,
                -1.021363379719692,
                1.221593820439892,
                3.1810397535693458
            ]
        }
    ]
}