{
    "goal": {
        "global_pose": {
            "orientation": {
                "w": 0.005598929693374612,
                "x": 0.007748599140229565,
                "y": 0.7110244013736278,
                "z": -0.7031023480610252
            },
            "position": {
                "x": -0.8858502320852131,
                "y": -0.7141253447532654,
                "z": 0.3711530566215515
            }
        },
        "name": "move_to_auspresseinheit_C"
    },
    "id": "LBKPIECE_move_to_auspresseinheit_C_98",
    "joint_names": [
        "shoulder_pan_joint",
        "shoulder_lift_joint",
        "elbow_joint",
        "wrist_1_joint",
        "wrist_2_joint",
        "wrist_3_joint"
    ],
    "metrics": {
        "cart_traj_len": 0.49312564363820666,
        "distance_elbow_joint": 0.9916357252754048,
        "distance_shoulder_lift_joint": 0.32037229169862114,
        "distance_shoulder_pan_joint": 0.2565699923213045,
        "distance_wrist_1_joint": 0.6593064507389792,
        "distance_wrist_2_joint": 1.3054359185652058,
        "distance_wrist_3_joint": 0.041338531298023895,
        "smoothness": 3.2297397335745243e-16,
        "time": 0.349235856,
        "traj_len": 1.8906768390969249,
        "weighted_distance": 2.3710922254939333
    },
    "planner": "LBKPIECE",
    "start": {
        "state": {
            "elbow_joint": 1.7527959577737207,
            "shoulder_lift_joint": -0.9740617694225068,
            "shoulder_pan_joint": -2.967991417825858,
            "wrist_1_joint": -0.759517768980727,
            "wrist_2_joint": 1.7443932448377408,
            "wrist_3_joint": -3.0840537646736568
        }
    },
    "waypoints": [
        {
            "positions": [
                -2.967991417825858,
                -0.9740617694225068,
                1.7527959577737207,
                -0.759517768980727,
                1.7443932448377408,
                -3.0840537646736568
            ]
        },
        {
            "positions": [
                -2.9423344185937275,
                -0.9420245402526447,
                1.6536323852461803,
                -0.6935871239068291,
                1.6138496529812203,
                -3.088187617803459
            ]
        },
        {
            "positions": [
                -2.916677419361597,
                -0.9099873110827825,
                1.5544688127186397,
                -0.6276564788329311,
                1.4833060611246998,
                -3.0923214709332614
            ]
        },
        {
            "positions": [
                -2.8910204201294665,
                -0.8779500819129205,
                1.4553052401910993,
                -0.5617258337590332,
                1.3527624692681792,
                -3.096455324063064
            ]
        },
        {
            "positions": [
                -2.865363420897336,
                -0.8459128527430583,
                1.3561416676635587,
                -0.4957951886851353,
                1.2222188774116585,
                -3.1005891771928664
            ]
        },
        {
            "positions": [
                -2.8397064216652055,
                -0.8138756235731962,
                1.2569780951360183,
                -0.4298645436112374,
                1.091675285555138,
                -3.1047230303226687
            ]
        },
        {
            "positions": [
                -2.8140494224330754,
                -0.7818383944033341,
                1.157814522608478,
                -0.3639338985373395,
                0.9611316936986174,
                -3.108856883452471
            ]
        },
        {
            "positions": [
                -2.788392423200945,
                -0.749801165233472,
                1.0586509500809373,
                -0.2980032534634416,
                0.8305881018420969,
                -3.1129907365822733
            ]
        },
        {
            "positions": [
                -2.7627354239688144,
                -0.7177639360636099,
                0.9594873775533967,
                -0.23207260838954358,
                0.7000445099855761,
                -3.117124589712076
            ]
        },
        {
            "positions": [
                -2.737078424736684,
                -0.6857267068937478,
                0.8603238050258564,
                -0.16614196331564568,
                0.5695009181290556,
                -3.1212584428418784
            ]
        },
        {
            "positions": [
                -2.7114214255045535,
                -0.6536894777238856,
                0.7611602324983159,
                -0.1002113182417478,
                0.438957326272535,
                -3.1253922959716807
            ]
        }
    ]
}