{
    "goal": {
        "global_pose": {
            "orientation": {
                "w": 0.7031023480610252,
                "x": -0.7110244013736278,
                "y": 0.0077485991402295624,
                "z": 0.005598929693374583
            },
            "position": {
                "x": -0.8841497679147869,
                "y": 0.44412534475326537,
                "z": 0.3711530566215515
            }
        },
        "name": "move_to_auspresseinheit_D"
    },
    "id": "LBKPIECE_move_to_auspresseinheit_D_35",
    "joint_names": [
        "shoulder_pan_joint",
        "shoulder_lift_joint",
        "elbow_joint",
        "wrist_1_joint",
        "wrist_2_joint",
        "wrist_3_joint"
    ],
    "metrics": {
        "cart_traj_len": 0.34370451339893754,
        "distance_elbow_joint": 0.6521911741522226,
        "distance_shoulder_lift_joint": 0.1286144403511691,
        "distance_shoulder_pan_joint": 0.13313526710107373,
        "distance_wrist_1_joint": 0.571375906117169,
        "distance_wrist_2_joint": 1.4406205650670652,
        "distance_wrist_3_joint": 0.030823242697524567,
        "smoothness": 5.921189480296099e-16,
        "time": 0.5232463949999999,
        "traj_len": 1.71952336287886,
        "weighted_distance": 2.24285611488243
    },
    "planner": "LBKPIECE",
    "start": {
        "state": {
            "elbow_joint": -1.8275523626775212,
            "shoulder_lift_joint": -2.126789852344167,
            "shoulder_pan_joint": -0.03513704404078235,
            "wrist_1_joint": -2.347782403156801,
            "wrist_2_joint": -1.6058999987535132,
            "wrist_3_joint": -3.0880379163319196
        }
    },
    "waypoints": [
        {
            "positions": [
                -0.03513704404078235,
                -2.126789852344167,
                -1.8275523626775212,
                -2.347782403156801,
                -1.6058999987535132,
                -3.0880379163319196
            ]
        },
        {
            "positions": [
                -0.05177895242841657,
                -2.142866657388063,
                -1.7460284659084935,
                -2.419204391421447,
                -1.4258224281201302,
                -3.084185010994729
            ]
        },
        {
            "positions": [
                -0.06842086081605078,
                -2.1589434624319592,
                -1.6645045691394655,
                -2.490626379686093,
                -1.245744857486747,
                -3.0803321056575386
            ]
        },
        {
            "positions": [
                -0.085062769203685,
                -2.175020267475855,
                -1.5829806723704376,
                -2.562048367950739,
                -1.0656672868533636,
                -3.076479200320348
            ]
        },
        {
            "positions": [
                -0.10170467759131921,
                -2.191097072519751,
                -1.5014567756014099,
                -2.633470356215385,
                -0.8855897162199806,
                -3.0726262949831575
            ]
        },
        {
            "positions": [
                -0.11834658597895342,
                -2.2071738775636476,
                -1.4199328788323822,
                -2.7048923444800317,
                -0.7055121455865975,
                -3.068773389645967
            ]
        },
        {
            "positions": [
                -0.13498849436658766,
                -2.2232506826075435,
                -1.3384089820633542,
                -2.7763143327446778,
                -0.5254345749532143,
                -3.064920484308776
            ]
        },
        {
            "positions": [
                -0.15163040275422188,
                -2.23932748765144,
                -1.2568850852943263,
                -2.847736321009324,
                -0.3453570043198311,
                -3.0610675789715858
            ]
        },
        {
            "positions": [
                -0.1682723111418561,
                -2.255404292695336,
                -1.1753611885252986,
                -2.91915830927397,
                -0.1652794336864481,
                -3.057214673634395
            ]
        }
    ]
}