{
    "goal": {
        "global_pose": {
            "orientation": {
                "w": 0.7031023502349854,
                "x": -0.7110244035720825,
                "y": 0.007748599164187908,
                "z": 0.005598929710686207
            },
            "position": {
                "x": 0.11585023208521307,
                "y": 0.44412534475326537,
                "z": 0.3711530566215515
            }
        },
        "name": "move_to_auspresseinheit_A"
    },
    "id": "LBKPIECE_move_to_auspresseinheit_A_143",
    "joint_names": [
        "shoulder_pan_joint",
        "shoulder_lift_joint",
        "elbow_joint",
        "wrist_1_joint",
        "wrist_2_joint",
        "wrist_3_joint"
    ],
    "metrics": {
        "cart_traj_len": 1.7568435800334328,
        "distance_elbow_joint": 1.8430281568409907,
        "distance_shoulder_lift_joint": 0.9328643233420508,
        "distance_shoulder_pan_joint": 1.4588515219837834,
        "distance_wrist_1_joint": 1.6307850237836705,
        "distance_wrist_2_joint": 2.052843221554592,
        "distance_wrist_3_joint": 5.0769823941453485,
        "smoothness": 0.6212815560415327,
        "time": 0.522357609,
        "traj_len": 3.604907022608272,
        "weighted_distance": 5.180052864139457
    },
    "planner": "LBKPIECE",
    "start": {
        "state": {
            "elbow_joint": 2.4225746658250005,
            "shoulder_lift_joint": -1.3736534386056498,
            "shoulder_pan_joint": -0.3378633547517467,
            "wrist_1_joint": -1.0288598680537169,
            "wrist_2_joint": 1.233022673432363,
            "wrist_3_joint": -3.0940220416140027
        }
    },
    "waypoints": [
        {
            "positions": [
                -0.3378633547517467,
                -1.3736534386056498,
                2.4225746658250005,
                -1.0288598680537169,
                1.233022673432363,
                -3.0940220416140027
            ]
        },
        {
            "positions": [
                -0.29422811328157145,
                -1.4082873570005132,
                2.3643205082750525,
                -1.001140774408679,
                1.1615712892118149,
                -2.9527309332244838
            ]
        },
        {
            "positions": [
                -0.25059287181139617,
                -1.4429212753953768,
                2.306066350725105,
                -0.9734216807636414,
                1.0901199049912664,
                -2.8114398248349652
            ]
        },
        {
            "positions": [
                -0.20695763034122092,
                -1.4775551937902403,
                2.247812193175157,
                -0.9457025871186038,
                1.0186685207707182,
                -2.6701487164454463
            ]
        },
        {
            "positions": [
                -0.16332238887104564,
                -1.5121891121851037,
                2.189558035625209,
                -0.917983493473566,
                0.9472171365501698,
                -2.5288576080559277
            ]
        },
        {
            "positions": [
                -0.11968714740087036,
                -1.5468230305799673,
                2.131303878075261,
                -0.8902643998285283,
                0.8757657523296215,
                -2.3875664996664088
            ]
        },
        {
            "positions": [
                -0.07605190593069511,
                -1.5814569489748307,
                2.0730497205253133,
                -0.8625453061834907,
                0.8043143681090732,
                -2.24627539127689
            ]
        },
        {
            "positions": [
                -0.03241666446051983,
                -1.616090867369694,
                2.0147955629753653,
                -0.8348262125384529,
                0.7328629838885249,
                -2.1049842828873713
            ]
        },
        {
            "positions": [
                0.01121857700965545,
                -1.6507247857645577,
                1.9565414054254173,
                -0.8071071188934151,
                0.6614115996679766,
                -1.9636931744978523
            ]
        },
        {
            "positions": [
                0.054853818479830785,
                -1.6853587041594211,
                1.8982872478754695,
                -0.7793880252483775,
                0.5899602154474283,
                -1.8224020661083336
            ]
        },
        {
            "positions": [
                0.09848905995000601,
                -1.7199926225542845,
                1.8400330903255218,
                -0.7516689316033398,
                0.51850883122688,
                -1.6811109577188148
            ]
        },
        {
            "positions": [
                0.1421243014201813,
                -1.7546265409491482,
                1.7817789327755738,
                -0.723949837958302,
                0.44705744700633165,
                -1.539819849329296
            ]
        },
        {
            "positions": [
                0.19817357971170216,
                -1.789784327371408,
                1.759181214750649,
                -0.6986107289604188,
                0.37524669907098485,
                -1.4018937368950353
            ]
        },
        {
            "positions": [
                0.25422285800322303,
                -1.8249421137936677,
                1.7365834967257239,
                -0.6732716199625356,
                0.30343595113563804,
                -1.2639676244607745
            ]
        },
        {
            "positions": [
                0.3102721362947439,
                -1.8600999002159275,
                1.713985778700799,
                -0.6479325109646523,
                0.2316252032002912,
                -1.1260415120265137
            ]
        },
        {
            "positions": [
                0.36632141458626477,
                -1.8952576866381872,
                1.6913880606758742,
                -0.6225934019667692,
                0.15981445526494437,
                -0.9881153995922529
            ]
        },
        {
            "positions": [
                0.42237069287778567,
                -1.930415473060447,
                1.6687903426509494,
                -0.5972542929688859,
                0.0880037073295975,
                -0.8501892871579921
            ]
        },
        {
            "positions": [
                0.4784199711693065,
                -1.9655732594827067,
                1.6461926246260243,
                -0.5719151839710027,
                0.01619295939425075,
                -0.7122631747237314
            ]
        },
        {
            "positions": [
                0.5344692494608274,
                -2.0007310459049665,
                1.6235949066010995,
                -0.5465760749731194,
                -0.05561778854109615,
                -0.5743370622894706
            ]
        },
        {
            "positions": [
                0.5663077638502959,
                -2.022387006719305,
                1.731893234661823,
                -0.6551284326516078,
                -0.03221607862899978,
                -0.6581299726554353
            ]
        },
        {
            "positions": [
                0.5981462782397645,
                -2.044042967533643,
                1.8401915627225467,
                -0.7636807903300962,
                -0.008814368716903408,
                -0.7419228830214
            ]
        },
        {
            "positions": [
                0.629984792629233,
                -2.065698928347982,
                1.9484898907832702,
                -0.8722331480085845,
                0.014587341195192956,
                -0.8257157933873647
            ]
        },
        {
            "positions": [
                0.6618233070187016,
                -2.08735488916232,
                2.0567882188439937,
                -0.9807855056870729,
                0.03798905110728933,
                -0.9095087037533295
            ]
        },
        {
            "positions": [
                0.6936618214081701,
                -2.1090108499766584,
                2.165086546904717,
                -1.0893378633655613,
                0.06139076101938569,
                -0.9933016141192942
            ]
        },
        {
            "positions": [
                0.7211271805518467,
                -2.102247376677813,
                2.211028823696425,
                -1.06270692823901,
                0.1245372003804667,
                -1.1890098079102187
            ]
        },
        {
            "positions": [
                0.7485925396955231,
                -2.095483903378968,
                2.2569711004881334,
                -1.036075993112459,
                0.18768363974154773,
                -1.3847180017011431
            ]
        },
        {
            "positions": [
                0.7760578988391996,
                -2.088720430080123,
                2.3029133772798414,
                -1.0094450579859078,
                0.2508300791026287,
                -1.5804261954920675
            ]
        },
        {
            "positions": [
                0.8035232579828762,
                -2.0819569567812777,
                2.3488556540715493,
                -0.9828141228593567,
                0.3139765184637097,
                -1.776134389282992
            ]
        },
        {
            "positions": [
                0.8309886171265527,
                -2.0751934834824324,
                2.394797930863257,
                -0.9561831877328055,
                0.3771229578247907,
                -1.9718425830739164
            ]
        },
        {
            "positions": [
                0.8584539762702292,
                -2.0684300101835875,
                2.440740207654965,
                -0.9295522526062543,
                0.44026939718587177,
                -2.167550776864841
            ]
        },
        {
            "positions": [
                0.8859193354139057,
                -2.061666536884742,
                2.4866824844466735,
                -0.9029213174797032,
                0.5034158365469528,
                -2.3632589706557656
            ]
        },
        {
            "positions": [
                0.9133846945575822,
                -2.054903063585897,
                2.5326247612383814,
                -0.876290382353152,
                0.5665622759080338,
                -2.55896716444669
            ]
        },
        {
            "positions": [
                0.8718640000226912,
                -2.0262232384698406,
                2.50562105264242,
                -0.7977519900935076,
                0.5949668149344344,
                -2.6735006269794095
            ]
        },
        {
            "positions": [
                0.8303433054878001,
                -1.9975434133537846,
                2.4786173440464583,
                -0.7192135978338632,
                0.6233713539608349,
                -2.7880340895121285
            ]
        },
        {
            "positions": [
                0.7888226109529092,
                -1.9688635882377286,
                2.4516136354504967,
                -0.6406752055742189,
                0.6517758929872355,
                -2.902567552044848
            ]
        },
        {
            "positions": [
                0.7473019164180181,
                -1.9401837631216723,
                2.424609926854535,
                -0.5621368133145744,
                0.680180432013636,
                -3.017101014577567
            ]
        },
        {
            "positions": [
                0.7057812218831271,
                -1.9115039380056162,
                2.3976062182585736,
                -0.48359842105493006,
                0.7085849710400366,
                -3.1316344771102864
            ]
        }
    ]
}