{
    "goal": {
        "global_pose": {
            "orientation": {
                "w": 0.5084816262002911,
                "x": -0.4908360881923452,
                "y": 0.5182115481033761,
                "z": -0.48164630358495003
            },
            "position": {
                "x": 0.5540239810943604,
                "y": -0.46912469901144505,
                "z": 0.16403168439865112
            }
        },
        "name": "move_to_storage_B"
    },
    "id": "LBKPIECE_move_to_storage_B_34",
    "joint_names": [
        "shoulder_pan_joint",
        "shoulder_lift_joint",
        "elbow_joint",
        "wrist_1_joint",
        "wrist_2_joint",
        "wrist_3_joint"
    ],
    "metrics": {
        "cart_traj_len": 0.7461324060320589,
        "distance_elbow_joint": 0.4114382451660772,
        "distance_shoulder_lift_joint": 0.4596752539427169,
        "distance_shoulder_pan_joint": 0.5185244514816981,
        "distance_wrist_1_joint": 2.9884566838003317,
        "distance_wrist_2_joint": 2.959304522818891,
        "distance_wrist_3_joint": 3.139234574775922,
        "smoothness": 0.33586935213730945,
        "time": 0.356043494,
        "traj_len": 3.2367628476590053,
        "weighted_distance": 4.7647522588437585
    },
    "planner": "LBKPIECE",
    "start": {
        "state": {
            "elbow_joint": 1.664937868594044,
            "shoulder_lift_joint": -0.661644460510453,
            "shoulder_pan_joint": -0.9139846352900073,
            "wrist_1_joint": 2.146753192139373,
            "wrist_2_joint": -2.2341966793290973,
            "wrist_3_joint": 0.005466555786416001
        }
    },
    "waypoints": [
        {
            "positions": [
                -0.9139846352900073,
                -0.661644460510453,
                1.664937868594044,
                2.146753192139373,
                -2.2341966793290973,
                0.005466555786416001
            ]
        },
        {
            "positions": [
                -0.8291999278731779,
                -0.7127647168211024,
                1.6501111718628494,
                2.1121253730725695,
                -2.2935530254448775,
                -0.0029059654234813983
            ]
        },
        {
            "positions": [
                -0.7444152204563486,
                -0.7638849731317517,
                1.6352844751316549,
                2.077497554005766,
                -2.352909371560658,
                -0.011278486633378798
            ]
        },
        {
            "positions": [
                -0.7578365680197346,
                -0.7776324631825755,
                1.649968507889489,
                1.9652205907108917,
                -2.2436558396149917,
                -0.13137423787784525
            ]
        },
        {
            "positions": [
                -0.7712579155831208,
                -0.7913799532333993,
                1.6646525406473232,
                1.8529436274160178,
                -2.1344023076693253,
                -0.25146998912231167
            ]
        },
        {
            "positions": [
                -0.7846792631465069,
                -0.805127443284223,
                1.6793365734051573,
                1.740666664121144,
                -2.0251487757236584,
                -0.37156574036677814
            ]
        },
        {
            "positions": [
                -0.7981006107098931,
                -0.8188749333350469,
                1.6940206061629914,
                1.6283897008262698,
                -1.9158952437779921,
                -0.4916614916112445
            ]
        },
        {
            "positions": [
                -0.8115219582732792,
                -0.8326224233858707,
                1.7087046389208256,
                1.5161127375313956,
                -1.8066417118323255,
                -0.611757242855711
            ]
        },
        {
            "positions": [
                -0.8249433058366653,
                -0.8463699134366944,
                1.7233886716786597,
                1.4038357742365217,
                -1.697388179886659,
                -0.7318529941001775
            ]
        },
        {
            "positions": [
                -0.8383646534000515,
                -0.8601174034875182,
                1.7380727044364939,
                1.2915588109416478,
                -1.5881346479409926,
                -0.8519487453446437
            ]
        },
        {
            "positions": [
                -0.8517860009634376,
                -0.873864893538342,
                1.7527567371943282,
                1.1792818476467737,
                -1.4788811159953261,
                -0.9720444965891103
            ]
        },
        {
            "positions": [
                -0.8652073485268237,
                -0.8876123835891657,
                1.7674407699521624,
                1.0670048843518998,
                -1.3696275840496597,
                -1.0921402478335767
            ]
        },
        {
            "positions": [
                -0.8786286960902099,
                -0.9013598736399895,
                1.7821248027099965,
                0.9547279210570256,
                -1.260374052103993,
                -1.2122359990780431
            ]
        },
        {
            "positions": [
                -0.892050043653596,
                -0.9151073636908132,
                1.7968088354678307,
                0.8424509577621517,
                -1.1511205201583266,
                -1.3323317503225094
            ]
        },
        {
            "positions": [
                -0.9054713912169822,
                -0.928854853741637,
                1.8114928682256648,
                0.7301739944672776,
                -1.0418669882126599,
                -1.452427501566976
            ]
        },
        {
            "positions": [
                -0.9188927387803683,
                -0.9426023437924609,
                1.826176900983499,
                0.6178970311724037,
                -0.9326134562669934,
                -1.5725232528114423
            ]
        },
        {
            "positions": [
                -0.9323140863437543,
                -0.9563498338432845,
                1.840860933741333,
                0.5056200678775298,
                -0.823359924321327,
                -1.6926190040559086
            ]
        },
        {
            "positions": [
                -0.9457354339071404,
                -0.9700973238941084,
                1.8555449664991672,
                0.39334310458265587,
                -0.7141063923756605,
                -1.812714755300375
            ]
        },
        {
            "positions": [
                -0.9591567814705266,
                -0.9838448139449322,
                1.8702289992570014,
                0.2810661412877815,
                -0.6048528604299939,
                -1.9328105065448418
            ]
        },
        {
            "positions": [
                -0.9725781290339128,
                -0.9975923039957559,
                1.8849130320148355,
                0.1687891779929076,
                -0.4955993284843274,
                -2.0529062577893082
            ]
        },
        {
            "positions": [
                -0.9859994765972989,
                -1.0113397940465796,
                1.8995970647726697,
                0.05651221469803369,
                -0.38634579653866097,
                -2.1730020090337745
            ]
        },
        {
            "positions": [
                -0.999420824160685,
                -1.0250872840974035,
                1.914281097530504,
                -0.05576474859684044,
                -0.2770922645929943,
                -2.2930977602782407
            ]
        },
        {
            "positions": [
                -1.0128421717240712,
                -1.0388347741482273,
                1.9289651302883382,
                -0.16804171189171457,
                -0.16783873264732785,
                -2.4131935115227074
            ]
        },
        {
            "positions": [
                -1.0262635192874572,
                -1.052582264199051,
                1.9436491630461723,
                -0.28031867518658826,
                -0.0585852007016614,
                -2.5332892627671737
            ]
        },
        {
            "positions": [
                -1.0396848668508434,
                -1.0663297542498749,
                1.9583331958040064,
                -0.3925956384814624,
                0.05066833124400505,
                -2.65338501401164
            ]
        },
        {
            "positions": [
                -1.0531062144142296,
                -1.0800772443006985,
                1.9730172285618406,
                -0.5048726017763365,
                0.1599218631896715,
                -2.7734807652561067
            ]
        },
        {
            "positions": [
                -1.0665275619776158,
                -1.0938247343515224,
                1.9877012613196747,
                -0.6171495650712107,
                0.2691753951353384,
                -2.8935765165005733
            ]
        },
        {
            "positions": [
                -1.0799489095410018,
                -1.1075722244023463,
                2.002385294077509,
                -0.7294265283660843,
                0.37842892708100484,
                -3.0136722677450396
            ]
        },
        {
            "positions": [
                -1.093370257104388,
                -1.12131971445317,
                2.017069326835343,
                -0.8417034916609586,
                0.48768245902667123,
                -3.133768018989506
            ]
        }
    ]
}