{
    "goal": {
        "global_pose": {
            "orientation": {
                "w": 0.5084816262002911,
                "x": -0.4908360881923452,
                "y": 0.5182115481033761,
                "z": -0.48164630358495003
            },
            "position": {
                "x": 0.5540239810943604,
                "y": -0.46912469901144505,
                "z": 0.16403168439865112
            }
        },
        "name": "move_to_storage_B"
    },
    "id": "LBKPIECE_move_to_storage_B_62",
    "joint_names": [
        "shoulder_pan_joint",
        "shoulder_lift_joint",
        "elbow_joint",
        "wrist_1_joint",
        "wrist_2_joint",
        "wrist_3_joint"
    ],
    "metrics": {
        "cart_traj_len": 0.829115689109757,
        "distance_elbow_joint": 0.9612457972273627,
        "distance_shoulder_lift_joint": 0.4631763240309079,
        "distance_shoulder_pan_joint": 0.25072702804479785,
        "distance_wrist_1_joint": 3.014563632130765,
        "distance_wrist_2_joint": 2.7169111421614063,
        "distance_wrist_3_joint": 3.1237835863174177,
        "smoothness": 0.04711985436574122,
        "time": 0.781086179,
        "traj_len": 3.245058937818026,
        "weighted_distance": 4.7444124459030395
    },
    "planner": "LBKPIECE",
    "start": {
        "state": {
            "elbow_joint": 1.664937868594044,
            "shoulder_lift_joint": -0.661644460510453,
            "shoulder_pan_joint": -0.9139846352900073,
            "wrist_1_joint": 2.146753192139373,
            "wrist_2_joint": -2.2341966793290973,
            "wrist_3_joint": 0.005466555786416001
        }
    },
    "waypoints": [
        {
            "positions": [
                -0.9139846352900073,
                -0.661644460510453,
                1.664937868594044,
                2.146753192139373,
                -2.2341966793290973,
                0.005466555786416001
            ]
        },
        {
            "positions": [
                -0.9499404360496566,
                -0.7004345225967386,
                1.7749996148992946,
                2.115484167829343,
                -2.113984560047183,
                -0.04988253032628012
            ]
        },
        {
            "positions": [
                -0.985896236809306,
                -0.7392245846830241,
                1.8850613612045455,
                2.0842151435193124,
                -1.9937724407652693,
                -0.10523161643897624
            ]
        },
        {
            "positions": [
                -1.0218520375689555,
                -0.7780146467693096,
                1.9951231075097962,
                2.052946119209282,
                -1.8735603214833552,
                -0.16058070255167237
            ]
        },
        {
            "positions": [
                -1.0578078383286047,
                -0.8168047088555951,
                2.105184853815047,
                2.0216770948992515,
                -1.7533482022014413,
                -0.2159297886643685
            ]
        },
        {
            "positions": [
                -1.0937636390882541,
                -0.8555947709418806,
                2.215246600120298,
                1.9904080705892213,
                -1.6331360829195272,
                -0.2712788747770646
            ]
        },
        {
            "positions": [
                -1.1297194398479036,
                -0.8943848330281662,
                2.3253083464255484,
                1.9591390462791909,
                -1.512923963637613,
                -0.3266279608897607
            ]
        },
        {
            "positions": [
                -1.1280531434913845,
                -0.9053579735764136,
                2.3109809502638408,
                1.8245224040758299,
                -1.4178935623771405,
                -0.4595655356345817
            ]
        },
        {
            "positions": [
                -1.1263868471348653,
                -0.916331114124661,
                2.296653554102133,
                1.6899057618724687,
                -1.3228631611166681,
                -0.5925031103794027
            ]
        },
        {
            "positions": [
                -1.1247205507783462,
                -0.9273042546729083,
                2.282326157940426,
                1.5552891196691077,
                -1.2278327598561956,
                -0.7254406851242237
            ]
        },
        {
            "positions": [
                -1.1230542544218272,
                -0.9382773952211556,
                2.2679987617787183,
                1.4206724774657467,
                -1.1328023585957232,
                -0.8583782598690446
            ]
        },
        {
            "positions": [
                -1.1213879580653079,
                -0.949250535769403,
                2.2536713656170106,
                1.2860558352623856,
                -1.0377719573352506,
                -0.9913158346138657
            ]
        },
        {
            "positions": [
                -1.1197216617087888,
                -0.9602236763176504,
                2.239343969455303,
                1.1514391930590246,
                -0.942741556074778,
                -1.1242534093586867
            ]
        },
        {
            "positions": [
                -1.1180553653522698,
                -0.9711968168658978,
                2.225016573293596,
                1.0168225508556634,
                -0.8477111548143056,
                -1.2571909841035076
            ]
        },
        {
            "positions": [
                -1.1163890689957505,
                -0.9821699574141451,
                2.210689177131888,
                0.8822059086523024,
                -0.7526807535538331,
                -1.3901285588483285
            ]
        },
        {
            "positions": [
                -1.1147227726392315,
                -0.9931430979623925,
                2.1963617809701805,
                0.7475892664489414,
                -0.6576503522933606,
                -1.5230661335931497
            ]
        },
        {
            "positions": [
                -1.1130564762827124,
                -1.00411623851064,
                2.182034384808473,
                0.6129726242455802,
                -0.5626199510328881,
                -1.6560037083379706
            ]
        },
        {
            "positions": [
                -1.1113901799261932,
                -1.0150893790588873,
                2.1677069886467657,
                0.4783559820422192,
                -0.4675895497724154,
                -1.7889412830827918
            ]
        },
        {
            "positions": [
                -1.109723883569674,
                -1.0260625196071347,
                2.153379592485058,
                0.3437393398388582,
                -0.37255914851194305,
                -1.9218788578276127
            ]
        },
        {
            "positions": [
                -1.108057587213155,
                -1.037035660155382,
                2.1390521963233504,
                0.20912269763549696,
                -0.2775287472514705,
                -2.054816432572434
            ]
        },
        {
            "positions": [
                -1.1063912908566358,
                -1.0480088007036295,
                2.124724800161643,
                0.07450605543213595,
                -0.18249834599099812,
                -2.187754007317255
            ]
        },
        {
            "positions": [
                -1.1047249945001167,
                -1.0589819412518766,
                2.1103974039999356,
                -0.06011058677122505,
                -0.08746794473052555,
                -2.320691582062076
            ]
        },
        {
            "positions": [
                -1.1030586981435977,
                -1.069955081800124,
                2.096070007838228,
                -0.19472722897458605,
                0.007562456529946804,
                -2.4536291568068966
            ]
        },
        {
            "positions": [
                -1.1013924017870784,
                -1.0809282223483714,
                2.0817426116765203,
                -0.32934387117794706,
                0.10259285779041938,
                -2.586566731551718
            ]
        },
        {
            "positions": [
                -1.0997261054305594,
                -1.0919013628966188,
                2.0674152155148127,
                -0.46396051338130806,
                0.19762325905089195,
                -2.719504306296539
            ]
        },
        {
            "positions": [
                -1.0980598090740403,
                -1.1028745034448661,
                2.053087819353105,
                -0.5985771555846695,
                0.2926536603113645,
                -2.85244188104136
            ]
        },
        {
            "positions": [
                -1.096393512717521,
                -1.1138476439931135,
                2.038760423191398,
                -0.7331937977880305,
                0.3876840615718369,
                -2.985379455786181
            ]
        },
        {
            "positions": [
                -1.094727216361002,
                -1.124820784541361,
                2.02443302702969,
                -0.8678104399913916,
                0.4827144628323095,
                -3.118317030531002
            ]
        }
    ]
}