{
    "goal": {
        "global_pose": {
            "orientation": {
                "w": 0.5084816262002911,
                "x": -0.4908360881923452,
                "y": 0.5182115481033761,
                "z": -0.48164630358495003
            },
            "position": {
                "x": 0.5540239810943604,
                "y": -0.46912469901144505,
                "z": 0.16403168439865112
            }
        },
        "name": "move_to_storage_B"
    },
    "id": "LBKPIECE_move_to_storage_B_38",
    "joint_names": [
        "shoulder_pan_joint",
        "shoulder_lift_joint",
        "elbow_joint",
        "wrist_1_joint",
        "wrist_2_joint",
        "wrist_3_joint"
    ],
    "metrics": {
        "cart_traj_len": 2.355585208805876,
        "distance_elbow_joint": 0.8840276876376421,
        "distance_shoulder_lift_joint": 1.4492610448599303,
        "distance_shoulder_pan_joint": 2.21883169971196,
        "distance_wrist_1_joint": 2.979008594683547,
        "distance_wrist_2_joint": 2.7072006363530927,
        "distance_wrist_3_joint": 3.138313718556768,
        "smoothness": 0.24073422634849365,
        "time": 0.485296635,
        "traj_len": 3.657409381215472,
        "weighted_distance": 5.033833534191721
    },
    "planner": "LBKPIECE",
    "start": {
        "state": {
            "elbow_joint": 1.664937868594044,
            "shoulder_lift_joint": -0.661644460510453,
            "shoulder_pan_joint": -0.9139846352900073,
            "wrist_1_joint": 2.146753192139373,
            "wrist_2_joint": -2.2341966793290973,
            "wrist_3_joint": 0.005466555786416001
        }
    },
    "waypoints": [
        {
            "positions": [
                -0.9139846352900073,
                -0.661644460510453,
                1.664937868594044,
                2.146753192139373,
                -2.2341966793290973,
                0.005466555786416001
            ]
        },
        {
            "positions": [
                -0.8603595309082516,
                -0.7118651645232619,
                1.650845229498171,
                2.00927055910876,
                -2.1379100578229036,
                -0.03311193363501091
            ]
        },
        {
            "positions": [
                -0.8067344265264959,
                -0.7620858685360707,
                1.6367525904022981,
                1.8717879260781474,
                -2.0416234363167103,
                -0.07169042305643782
            ]
        },
        {
            "positions": [
                -0.7531093221447402,
                -0.8123065725488796,
                1.6226599513064253,
                1.7343052930475344,
                -1.9453368148105166,
                -0.11026891247786473
            ]
        },
        {
            "positions": [
                -0.6994842177629845,
                -0.8625272765616885,
                1.6085673122105524,
                1.5968226600169215,
                -1.8490501933043229,
                -0.14884740189929163
            ]
        },
        {
            "positions": [
                -0.6458591133812288,
                -0.9127479805744974,
                1.5944746731146795,
                1.4593400269863084,
                -1.7527635717981294,
                -0.18742589132071855
            ]
        },
        {
            "positions": [
                -0.5922340089994731,
                -0.9629686845873061,
                1.5803820340188064,
                1.3218573939556957,
                -1.6564769502919359,
                -0.22600438074214546
            ]
        },
        {
            "positions": [
                -0.5386089046177174,
                -1.0131893886001149,
                1.5662893949229335,
                1.1843747609250825,
                -1.5601903287857422,
                -0.26458287016357235
            ]
        },
        {
            "positions": [
                -0.48498380023596166,
                -1.0634100926129237,
                1.5521967558270606,
                1.0468921278944696,
                -1.4639037072795484,
                -0.30316135958499923
            ]
        },
        {
            "positions": [
                -0.43135869585420594,
                -1.1136307966257326,
                1.5381041167311877,
                0.9094094948638567,
                -1.367617085773355,
                -0.3417398490064262
            ]
        },
        {
            "positions": [
                -0.3777335914724502,
                -1.1638515006385415,
                1.5240114776353149,
                0.7719268618332438,
                -1.2713304642671615,
                -0.38031833842785306
            ]
        },
        {
            "positions": [
                -0.3241084870906945,
                -1.2140722046513504,
                1.509918838539442,
                0.6344442288026306,
                -1.1750438427609677,
                -0.41889682784928006
            ]
        },
        {
            "positions": [
                -0.2704833827089389,
                -1.2642929086641592,
                1.495826199443569,
                0.49696159577201793,
                -1.0787572212547742,
                -0.4574753172707069
            ]
        },
        {
            "positions": [
                -0.21685827832718307,
                -1.314513612676968,
                1.4817335603476962,
                0.3594789627414048,
                -0.9824705997485805,
                -0.4960538066921339
            ]
        },
        {
            "positions": [
                -0.16323317394542747,
                -1.364734316689777,
                1.4676409212518233,
                0.22199632971079186,
                -0.886183978242387,
                -0.5346322961135608
            ]
        },
        {
            "positions": [
                -0.10960806956367164,
                -1.4149550207025858,
                1.4535482821559502,
                0.08451369668017872,
                -0.7898973567361933,
                -0.5732107855349877
            ]
        },
        {
            "positions": [
                -0.05598296518191603,
                -1.4651757247153947,
                1.4394556430600773,
                -0.05296893635043398,
                -0.6936107352299998,
                -0.6117892749564146
            ]
        },
        {
            "positions": [
                -0.0023578608001603163,
                -1.5153964287282036,
                1.4253630039642045,
                -0.19045156938104713,
                -0.5973241137238061,
                -0.6503677643778416
            ]
        },
        {
            "positions": [
                0.0512672435815954,
                -1.5656171327410124,
                1.4112703648683316,
                -0.3279342024116598,
                -0.5010374922176126,
                -0.6889462537992684
            ]
        },
        {
            "positions": [
                0.1048923479633511,
                -1.6158378367538213,
                1.3971777257724587,
                -0.465416835442273,
                -0.40475087071141885,
                -0.7275247432206954
            ]
        },
        {
            "positions": [
                0.02989517818468851,
                -1.584896107465286,
                1.4356944473234623,
                -0.48834424588614184,
                -0.34989119397795554,
                -0.877857394442549
            ]
        },
        {
            "positions": [
                -0.045101991593974086,
                -1.553954378176751,
                1.474211168874466,
                -0.5112716563300106,
                -0.2950315172444923,
                -1.0281900456644024
            ]
        },
        {
            "positions": [
                -0.12009916137263667,
                -1.5230126488882159,
                1.5127278904254693,
                -0.5341990667738794,
                -0.24017184051102897,
                -1.1785226968862559
            ]
        },
        {
            "positions": [
                -0.19509633115129926,
                -1.4920709195996809,
                1.551244611976473,
                -0.5571264772177482,
                -0.18531216377756565,
                -1.3288553481081093
            ]
        },
        {
            "positions": [
                -0.27009350092996187,
                -1.4611291903111456,
                1.5897613335274765,
                -0.5800538876616169,
                -0.13045248704410234,
                -1.4791879993299628
            ]
        },
        {
            "positions": [
                -0.3450906707086244,
                -1.4301874610226106,
                1.62827805507848,
                -0.6029812981054857,
                -0.07559281031063908,
                -1.6295206505518165
            ]
        },
        {
            "positions": [
                -0.4200878404872871,
                -1.3992457317340754,
                1.6667947766294835,
                -0.6259087085493545,
                -0.020733133577175766,
                -1.7798533017736702
            ]
        },
        {
            "positions": [
                -0.49508501026594964,
                -1.3683040024455404,
                1.705311498180487,
                -0.6488361189932234,
                0.03412654315628755,
                -1.9301859529955236
            ]
        },
        {
            "positions": [
                -0.5700821800446122,
                -1.3373622731570052,
                1.7438282197314907,
                -0.671763529437092,
                0.08898621988975086,
                -2.080518604217377
            ]
        },
        {
            "positions": [
                -0.6450793498232749,
                -1.30642054386847,
                1.7823449412824943,
                -0.6946909398809609,
                0.14384589662321418,
                -2.2308512554392306
            ]
        },
        {
            "positions": [
                -0.7200765196019374,
                -1.275478814579935,
                1.8208616628334977,
                -0.7176183503248297,
                0.19870557335667743,
                -2.381183906661084
            ]
        },
        {
            "positions": [
                -0.7950736893806,
                -1.2445370852913997,
                1.8593783843845013,
                -0.7405457607686985,
                0.2535652500901407,
                -2.5315165578829375
            ]
        },
        {
            "positions": [
                -0.8700708591592626,
                -1.2135953560028647,
                1.897895105935505,
                -0.7634731712125673,
                0.30842492682360406,
                -2.681849209104791
            ]
        },
        {
            "positions": [
                -0.9450680289379253,
                -1.1826536267143295,
                1.9364118274865083,
                -0.7864005816564361,
                0.3632846035570673,
                -2.832181860326645
            ]
        },
        {
            "positions": [
                -1.0200651987165879,
                -1.1517118974257943,
                1.974928549037512,
                -0.8093279921003048,
                0.4181442802905307,
                -2.9825145115484983
            ]
        },
        {
            "positions": [
                -1.0950623684952505,
                -1.1207701681372593,
                2.0134452705885155,
                -0.8322554025441736,
                0.4730039570239939,
                -3.132847162770352
            ]
        }
    ]
}