{
    "goal": {
        "global_pose": {
            "orientation": {
                "w": 0.005598929693374612,
                "x": 0.007748599140229565,
                "y": 0.7110244013736278,
                "z": -0.7031023480610252
            },
            "position": {
                "x": 0.1141497679147869,
                "y": -0.7141253447532654,
                "z": 0.3711530566215515
            }
        },
        "name": "move_to_auspresseinheit_B"
    },
    "id": "LBKPIECE_move_to_auspresseinheit_B_49",
    "joint_names": [
        "shoulder_pan_joint",
        "shoulder_lift_joint",
        "elbow_joint",
        "wrist_1_joint",
        "wrist_2_joint",
        "wrist_3_joint"
    ],
    "metrics": {
        "cart_traj_len": 0.5653117565255433,
        "distance_elbow_joint": 0.0635164741267451,
        "distance_shoulder_lift_joint": 0.29549009321926434,
        "distance_shoulder_pan_joint": 0.5779250717153577,
        "distance_wrist_1_joint": 0.32907889120467204,
        "distance_wrist_2_joint": 0.9912352874552797,
        "distance_wrist_3_joint": 0.008914401256068238,
        "smoothness": 5.075305255429287e-16,
        "time": 0.47622719,
        "traj_len": 1.5053771019174522,
        "weighted_distance": 1.8985002502368746
    },
    "planner": "LBKPIECE",
    "start": {
        "state": {
            "elbow_joint": 2.0193083361928714,
            "shoulder_lift_joint": -1.1220246554650708,
            "shoulder_pan_joint": -1.0952077554168747,
            "wrist_1_joint": -0.8559753972642168,
            "wrist_2_joint": 0.4759566250798843,
            "wrist_3_joint": -3.1240929996934557
        }
    },
    "waypoints": [
        {
            "positions": [
                -1.0952077554168747,
                -1.1220246554650708,
                2.0193083361928714,
                -0.8559753972642168,
                0.4759566250798843,
                -3.1240929996934557
            ]
        },
        {
            "positions": [
                -1.1915286007027677,
                -1.1712730043349482,
                2.008722257171747,
                -0.8011289153967714,
                0.6411625063224309,
                -3.1226072661507778
            ]
        },
        {
            "positions": [
                -1.2878494459886605,
                -1.2205213532048256,
                1.998136178150623,
                -0.7462824335293261,
                0.8063683875649774,
                -3.1211215326080994
            ]
        },
        {
            "positions": [
                -1.3841702912745535,
                -1.269769702074703,
                1.987550099129499,
                -0.6914359516618808,
                0.9715742688075242,
                -3.1196357990654215
            ]
        },
        {
            "positions": [
                -1.4804911365604463,
                -1.3190180509445804,
                1.9769640201083747,
                -0.6365894697944354,
                1.1367801500500707,
                -3.1181500655227437
            ]
        },
        {
            "positions": [
                -1.5768119818463395,
                -1.3682663998144577,
                1.9663779410872504,
                -0.5817429879269901,
                1.3019860312926175,
                -3.1166643319800653
            ]
        },
        {
            "positions": [
                -1.6731328271322323,
                -1.4175147486843351,
                1.9557918620661263,
                -0.5268965060595447,
                1.467191912535164,
                -3.1151785984373874
            ]
        }
    ]
}