{
    "goal": {
        "global_pose": {
            "orientation": {
                "w": 0.7047431493862688,
                "x": -0.7094548369677653,
                "y": 0.0024358444001904,
                "z": -0.0022348060817251984
            },
            "position": {
                "x": -0.39052492380142206,
                "y": 0.3671506643295288,
                "z": 0.19426114857196808
            }
        },
        "name": "move_to_magneteinheit_D"
    },
    "id": "LBKPIECE_move_to_magneteinheit_D_92",
    "joint_names": [
        "shoulder_pan_joint",
        "shoulder_lift_joint",
        "elbow_joint",
        "wrist_1_joint",
        "wrist_2_joint",
        "wrist_3_joint"
    ],
    "metrics": {
        "cart_traj_len": 4.2488012698878705,
        "distance_elbow_joint": 4.787191897034485,
        "distance_shoulder_lift_joint": 1.6316055434049737,
        "distance_shoulder_pan_joint": 4.129072161818429,
        "distance_wrist_1_joint": 2.174102602349148,
        "distance_wrist_2_joint": 1.257830133800157,
        "distance_wrist_3_joint": 3.1840637963614054,
        "smoothness": 0.4096381043063557,
        "time": 0.26980996700000004,
        "traj_len": 4.142929656024659,
        "weighted_distance": 5.192680084854133
    },
    "planner": "LBKPIECE",
    "start": {
        "state": {
            "elbow_joint": 0.749534889911806,
            "shoulder_lift_joint": -0.6476975780787326,
            "shoulder_pan_joint": -2.711696901376241,
            "wrist_1_joint": -0.07506478083263063,
            "wrist_2_joint": 0.43296659715538205,
            "wrist_3_joint": -3.14703540197715
        }
    },
    "waypoints": [
        {
            "positions": [
                -2.711696901376241,
                -0.6476975780787326,
                0.749534889911806,
                -0.07506478083263063,
                0.43296659715538205,
                -3.14703540197715
            ]
        },
        {
            "positions": [
                -2.755357005188299,
                -0.7156201192443106,
                0.8247079123021194,
                -0.10300471517648344,
                0.4558256399772256,
                -3.015152955350131
            ]
        },
        {
            "positions": [
                -2.799017109000357,
                -0.7835426604098884,
                0.8998809346924327,
                -0.13094464952033624,
                0.4786846827990691,
                -2.8832705087231116
            ]
        },
        {
            "positions": [
                -2.842677212812415,
                -0.8514652015754662,
                0.9750539570827461,
                -0.15888458386418908,
                0.5015437256209127,
                -2.7513880620960927
            ]
        },
        {
            "positions": [
                -2.8863373166244726,
                -0.9193877427410442,
                1.0502269794730594,
                -0.18682451820804188,
                0.5244027684427561,
                -2.6195056154690732
            ]
        },
        {
            "positions": [
                -2.9299974204365307,
                -0.987310283906622,
                1.1254000018633727,
                -0.2147644525518947,
                0.5472618112645997,
                -2.4876231688420543
            ]
        },
        {
            "positions": [
                -2.9736575242485883,
                -1.0552328250721998,
                1.200573024253686,
                -0.2427043868957475,
                0.5701208540864432,
                -2.3557407222150353
            ]
        },
        {
            "positions": [
                -3.0173176280606464,
                -1.1231553662377778,
                1.2757460466439996,
                -0.27064432123960036,
                0.5929798969082867,
                -2.223858275588016
            ]
        },
        {
            "positions": [
                -3.060977731872704,
                -1.1910779074033557,
                1.3509190690343131,
                -0.29858425558345314,
                0.6158389397301303,
                -2.0919758289609964
            ]
        },
        {
            "positions": [
                -3.104637835684762,
                -1.2590004485689335,
                1.4260920914246262,
                -0.326524189927306,
                0.6386979825519737,
                -1.9600933823339775
            ]
        },
        {
            "positions": [
                -3.14829793949682,
                -1.3269229897345114,
                1.5012651138149398,
                -0.35446412427115875,
                0.6615570253738172,
                -1.8282109357069585
            ]
        },
        {
            "positions": [
                -3.191958043308878,
                -1.3948455309000893,
                1.576438136205253,
                -0.3824040586150116,
                0.6844160681956608,
                -1.6963284890799393
            ]
        },
        {
            "positions": [
                -3.073093961439366,
                -1.4008250959959325,
                1.4455658335922728,
                -0.32069053797914243,
                0.6573193026737569,
                -1.6571108857585295
            ]
        },
        {
            "positions": [
                -2.954229879569854,
                -1.4068046610917757,
                1.3146935309792922,
                -0.2589770173432733,
                0.630222537151853,
                -1.6178932824371197
            ]
        },
        {
            "positions": [
                -2.835365797700342,
                -1.4127842261876191,
                1.1838212283663117,
                -0.19726349670740415,
                0.6031257716299491,
                -1.57867567911571
            ]
        },
        {
            "positions": [
                -2.71650171583083,
                -1.4187637912834623,
                1.0529489257533313,
                -0.13554997607153502,
                0.5760290061080451,
                -1.5394580757943002
            ]
        },
        {
            "positions": [
                -2.5976376339613183,
                -1.4247433563793055,
                0.9220766231403508,
                -0.07383645543566586,
                0.5489322405861412,
                -1.5002404724728904
            ]
        },
        {
            "positions": [
                -2.4787735520918064,
                -1.430722921475149,
                0.7912043205273704,
                -0.012122934799796703,
                0.5218354750642372,
                -1.4610228691514806
            ]
        },
        {
            "positions": [
                -2.3599094702222945,
                -1.436702486570992,
                0.6603320179143899,
                0.049590585836072454,
                0.49473870954233334,
                -1.4218052658300708
            ]
        },
        {
            "positions": [
                -2.2410453883527826,
                -1.4426820516668353,
                0.5294597153014096,
                0.11130410647194156,
                0.4676419440204294,
                -1.3825876625086608
            ]
        },
        {
            "positions": [
                -2.1221813064832706,
                -1.4486616167626785,
                0.3985874126884288,
                0.17301762710781077,
                0.4405451784985255,
                -1.343370059187251
            ]
        },
        {
            "positions": [
                -2.0033172246137587,
                -1.4546411818585216,
                0.26771511007544846,
                0.23473114774367987,
                0.41344841297662155,
                -1.3041524558658413
            ]
        },
        {
            "positions": [
                -1.884453142744247,
                -1.460620746954365,
                0.13684280746246813,
                0.2964446683795491,
                0.3863516474547176,
                -1.2649348525444315
            ]
        },
        {
            "positions": [
                -1.765589060874735,
                -1.4666003120502082,
                0.005970504849487801,
                0.3581581890154182,
                0.3592548819328137,
                -1.2257172492230217
            ]
        },
        {
            "positions": [
                -1.6467249790052232,
                -1.4725798771460514,
                -0.12490179776349297,
                0.4198717096512874,
                0.33215811641090975,
                -1.186499645901612
            ]
        },
        {
            "positions": [
                -1.5278608971357113,
                -1.4785594422418948,
                -0.2557741003764733,
                0.4815852302871565,
                0.3050613508890058,
                -1.1472820425802022
            ]
        },
        {
            "positions": [
                -1.4089968152661994,
                -1.484539007337738,
                -0.38664640298945363,
                0.5432987509230256,
                0.2779645853671019,
                -1.1080644392587924
            ]
        },
        {
            "positions": [
                -1.2901327333966877,
                -1.4905185724335812,
                -0.517518705602434,
                0.6050122715588947,
                0.250867819845198,
                -1.0688468359373826
            ]
        },
        {
            "positions": [
                -1.1712686515271757,
                -1.4964981375294244,
                -0.6483910082154145,
                0.6667257921947639,
                0.22377105432329408,
                -1.0296292326159728
            ]
        },
        {
            "positions": [
                -1.0524045696576634,
                -1.5024777026252678,
                -0.7792633108283955,
                0.7284393128306331,
                0.1966742888013901,
                -0.990411629294563
            ]
        },
        {
            "positions": [
                -0.9335404877881515,
                -1.508457267721111,
                -0.9101356134413756,
                0.7901528334665023,
                0.16957752327948616,
                -0.9511940259731532
            ]
        },
        {
            "positions": [
                -0.81467640591864,
                -1.5144368328169542,
                -1.0410079160543562,
                0.8518663541023713,
                0.1424807577575823,
                -0.9119764226517434
            ]
        },
        {
            "positions": [
                -0.6958123240491281,
                -1.5204163979127974,
                -1.1718802186673363,
                0.9135798747382405,
                0.1153839922356783,
                -0.8727588193303336
            ]
        },
        {
            "positions": [
                -0.5769482421796162,
                -1.5263959630086408,
                -1.3027525212803168,
                0.9752933953741098,
                0.08828722671377442,
                -0.8335412160089238
            ]
        },
        {
            "positions": [
                -0.45808416031010424,
                -1.532375528104484,
                -1.4336248238932974,
                1.0370069160099789,
                0.06119046119187055,
                -0.7943236126875141
            ]
        },
        {
            "positions": [
                -0.3392200784405923,
                -1.5383550932003272,
                -1.5644971265062775,
                1.098720436645848,
                0.03409369566996656,
                -0.7551060093661043
            ]
        },
        {
            "positions": [
                -0.2203559965710804,
                -1.5443346582961703,
                -1.6953694291192585,
                1.1604339572817173,
                0.0069969301480625745,
                -0.7158884060446944
            ]
        },
        {
            "positions": [
                -0.10149191470156849,
                -1.5503142233920135,
                -1.826241731732239,
                1.2221474779175865,
                -0.0200998353738413,
                -0.6766708027232846
            ]
        },
        {
            "positions": [
                0.01737216716794343,
                -1.556293788487857,
                -1.9571140343452191,
                1.2838609985534553,
                -0.04719660089574529,
                -0.6374531994018748
            ]
        },
        {
            "positions": [
                0.1362362490374554,
                -1.5622733535837001,
                -2.0879863369582,
                1.3455745191893245,
                -0.07429336641764916,
                -0.5982355960804651
            ]
        },
        {
            "positions": [
                0.11999161365305633,
                -1.641872701746692,
                -2.1517454773807922,
                1.3900401878781352,
                -0.051646092338034466,
                -0.5535477097542101
            ]
        },
        {
            "positions": [
                0.10374697826865725,
                -1.7214720499096843,
                -2.2155046178033846,
                1.4345058565669457,
                -0.028998818258419767,
                -0.5088598234279552
            ]
        },
        {
            "positions": [
                0.04994144498137196,
                -1.8254469194824203,
                -2.247306116340078,
                1.4421871539269961,
                0.008674552429038154,
                -0.4054317953070213
            ]
        },
        {
            "positions": [
                -0.003864088305913338,
                -1.9294217890551564,
                -2.2791076148767715,
                1.4498684512870463,
                0.046347923116496076,
                -0.30200376718608735
            ]
        },
        {
            "positions": [
                -0.057669621593198606,
                -2.0333966586278924,
                -2.310909113413465,
                1.4575497486470967,
                0.08402129380395398,
                -0.19857573906515347
            ]
        },
        {
            "positions": [
                -0.11147515488048393,
                -2.1373715282006285,
                -2.3427106119501584,
                1.465231046007147,
                0.12169466449141192,
                -0.09514771094421948
            ]
        },
        {
            "positions": [
                -0.1652806881677692,
                -2.2413463977733645,
                -2.374512110486852,
                1.4729123433671973,
                0.15936803517886983,
                0.008280317176714392
            ]
        },
        {
            "positions": [
                -0.18438047850200448,
                -2.2793031214837063,
                -2.3838505145357862,
                1.4843592659517557,
                0.17337786172891947,
                0.03702839438425693
            ]
        }
    ]
}