{
    "goal": {
        "global_pose": {
            "orientation": {
                "w": -0.00223480608172531,
                "x": 0.0024358444001904467,
                "y": 0.7094548369677653,
                "z": -0.704743149386269
            },
            "position": {
                "x": 0.6205249238014221,
                "y": -0.6371506643295288,
                "z": 0.19426114857196808
            }
        },
        "name": "move_to_magneteinheit_B"
    },
    "id": "LBKPIECE_move_to_magneteinheit_B_60",
    "joint_names": [
        "shoulder_pan_joint",
        "shoulder_lift_joint",
        "elbow_joint",
        "wrist_1_joint",
        "wrist_2_joint",
        "wrist_3_joint"
    ],
    "metrics": {
        "cart_traj_len": 3.4243509032161223,
        "distance_elbow_joint": 5.421525885428419,
        "distance_shoulder_lift_joint": 1.065533543497419,
        "distance_shoulder_pan_joint": 2.6779341626951005,
        "distance_wrist_1_joint": 1.1085849010693813,
        "distance_wrist_2_joint": 2.234722182427759,
        "distance_wrist_3_joint": 2.2820983683612073,
        "smoothness": 0.3592806017431627,
        "time": 0.43676692000000006,
        "traj_len": 3.8458287849928112,
        "weighted_distance": 4.764231613145906
    },
    "planner": "LBKPIECE",
    "start": {
        "state": {
            "elbow_joint": 2.6216224122426386,
            "shoulder_lift_joint": -1.4174107377796124,
            "shoulder_pan_joint": 0.7066234856936794,
            "wrist_1_joint": 1.9546482284002225,
            "wrist_2_joint": -0.7096286983471962,
            "wrist_3_joint": 0.005740856962016249
        }
    },
    "waypoints": [
        {
            "positions": [
                0.7066234856936794,
                -1.4174107377796124,
                2.6216224122426386,
                1.9546482284002225,
                -0.7096286983471962,
                0.005740856962016249
            ]
        },
        {
            "positions": [
                0.6416862738513317,
                -1.4721930116763533,
                2.577027775435161,
                1.9055258713149186,
                -0.6069057864667456,
                -0.005132122649354106
            ]
        },
        {
            "positions": [
                0.576749062008984,
                -1.526975285573094,
                2.532433138627684,
                1.8564035142296145,
                -0.5041828745862951,
                -0.016005102260724463
            ]
        },
        {
            "positions": [
                0.5118118501666363,
                -1.581757559469835,
                2.4878385018202067,
                1.8072811571443106,
                -0.4014599627058445,
                -0.026878081872094818
            ]
        },
        {
            "positions": [
                0.428088942869931,
                -1.6080366414418872,
                2.379835603564171,
                1.7449904855334317,
                -0.32658765204967044,
                -0.01877160735160517
            ]
        },
        {
            "positions": [
                0.34436603557322565,
                -1.6343157234139394,
                2.2718327053081353,
                1.6826998139225526,
                -0.25171534139349633,
                -0.010665132831115528
            ]
        },
        {
            "positions": [
                0.3593267986643796,
                -1.6377573341905876,
                2.0552762773461932,
                1.6378553165175282,
                -0.18358648036822742,
                -0.046735606592079426
            ]
        },
        {
            "positions": [
                0.3742875617555335,
                -1.6411989449672355,
                1.8387198493842511,
                1.593010819112504,
                -0.1154576193429585,
                -0.08280608035304333
            ]
        },
        {
            "positions": [
                0.3892483248466875,
                -1.6446405557438837,
                1.622163421422309,
                1.5481663217074797,
                -0.04732875831768958,
                -0.11887655411400724
            ]
        },
        {
            "positions": [
                0.46160758766956533,
                -1.6483295384369798,
                1.4387241696548836,
                1.52025915940035,
                0.0024986603263567678,
                -0.16663945411995768
            ]
        },
        {
            "positions": [
                0.5339668504924432,
                -1.652018521130076,
                1.2552849178874579,
                1.4923519970932204,
                0.05232607897040312,
                -0.21440235412590808
            ]
        },
        {
            "positions": [
                0.606326113315321,
                -1.6557075038231721,
                1.0718456661200322,
                1.464444834786091,
                0.10215349761444946,
                -0.26216525413185854
            ]
        },
        {
            "positions": [
                0.678685376138199,
                -1.6593964865162683,
                0.8884064143526068,
                1.4365376724789614,
                0.1519809162584958,
                -0.30992815413780894
            ]
        },
        {
            "positions": [
                0.7510446389610768,
                -1.6630854692093644,
                0.7049671625851812,
                1.4086305101718317,
                0.20180833490254219,
                -0.35769105414375935
            ]
        },
        {
            "positions": [
                0.8234039017839547,
                -1.6667744519024605,
                0.5215279108177555,
                1.380723347864702,
                0.2516357535465885,
                -0.40545395414970986
            ]
        },
        {
            "positions": [
                0.8957631646068326,
                -1.6704634345955567,
                0.33808865905033003,
                1.3528161855575724,
                0.3014631721906349,
                -0.45321685415566026
            ]
        },
        {
            "positions": [
                0.9681224274297104,
                -1.6741524172886528,
                0.15464940728290455,
                1.324909023250443,
                0.3512905908346812,
                -0.5009797541616107
            ]
        },
        {
            "positions": [
                1.0404816902525882,
                -1.677841399981749,
                -0.028789844484521154,
                1.2970018609433134,
                0.40111800947872756,
                -0.5487426541675611
            ]
        },
        {
            "positions": [
                1.1128409530754662,
                -1.6815303826748451,
                -0.21222909625194664,
                1.2690946986361837,
                0.45094542812277394,
                -0.5965055541735115
            ]
        },
        {
            "positions": [
                1.1852002158983441,
                -1.6852193653679415,
                -0.39566834801937256,
                1.241187536329054,
                0.5007728467668203,
                -0.644268454179462
            ]
        },
        {
            "positions": [
                1.2575594787212219,
                -1.6889083480610376,
                -0.579107599786798,
                1.2132803740219245,
                0.5506002654108666,
                -0.6920313541854124
            ]
        },
        {
            "positions": [
                1.3299187415440998,
                -1.6925973307541338,
                -0.7625468515542235,
                1.1853732117147948,
                0.600427684054913,
                -0.7397942541913628
            ]
        },
        {
            "positions": [
                1.4022780043669778,
                -1.69628631344723,
                -0.945986103321649,
                1.1574660494076654,
                0.6502551026989594,
                -0.7875571541973132
            ]
        },
        {
            "positions": [
                1.4746372671898555,
                -1.699975296140326,
                -1.129425355089075,
                1.1295588871005358,
                0.7000825213430057,
                -0.8353200542032637
            ]
        },
        {
            "positions": [
                1.5469965300127333,
                -1.7036642788334222,
                -1.3128646068565,
                1.1016517247934061,
                0.749909939987052,
                -0.883082954209214
            ]
        },
        {
            "positions": [
                1.6193557928356115,
                -1.7073532615265183,
                -1.496303858623926,
                1.0737445624862765,
                0.7997373586310984,
                -0.9308458542151645
            ]
        },
        {
            "positions": [
                1.6917150556584892,
                -1.7110422442196145,
                -1.6797431103913514,
                1.0458374001791468,
                0.8495647772751447,
                -0.9786087542211149
            ]
        },
        {
            "positions": [
                1.764074318481367,
                -1.7147312269127106,
                -1.8631823621587773,
                1.0179302378720174,
                0.8993921959191912,
                -1.0263716542270656
            ]
        },
        {
            "positions": [
                1.8364335813042447,
                -1.7184202096058068,
                -2.0466216139262023,
                0.9900230755648878,
                0.9492196145632374,
                -1.0741345542330158
            ]
        },
        {
            "positions": [
                1.9087928441271227,
                -1.722109192298903,
                -2.2300608656936283,
                0.9621159132577581,
                0.9990470332072837,
                -1.1218974542389664
            ]
        },
        {
            "positions": [
                2.0476345002395537,
                -1.8009395676961777,
                -2.201011452203591,
                0.9783082939317616,
                0.9687206964215159,
                -1.0762450312370304
            ]
        },
        {
            "positions": [
                2.1864761563519846,
                -1.8797699430934522,
                -2.1719620387135534,
                0.9945006746057649,
                0.938394359635748,
                -1.0305926082350945
            ]
        },
        {
            "positions": [
                2.3253178124644154,
                -1.958600318490727,
                -2.1429126252235156,
                1.0106930552797682,
                0.9080680228499802,
                -0.9849401852331586
            ]
        },
        {
            "positions": [
                2.464159468576846,
                -2.037430693888002,
                -2.113863211733478,
                1.0268854359537716,
                0.8777416860642123,
                -0.9392877622312227
            ]
        },
        {
            "positions": [
                2.603001124689277,
                -2.1162610692852764,
                -2.0848137982434407,
                1.043077816627775,
                0.8474153492784445,
                -0.8936353392292867
            ]
        },
        {
            "positions": [
                2.612508061932376,
                -2.1773749379505687,
                -2.014047874903113,
                1.0372293695349584,
                0.7850128881210379,
                -0.7446733318845222
            ]
        },
        {
            "positions": [
                2.6220149991754753,
                -2.2384888066158615,
                -1.9432819515627857,
                1.0313809224421415,
                0.7226104269636311,
                -0.5957113245397577
            ]
        },
        {
            "positions": [
                2.631521936418575,
                -2.299602675281154,
                -1.8725160282224582,
                1.025532475349325,
                0.6602079658062244,
                -0.4467493171949932
            ]
        },
        {
            "positions": [
                2.641028873661674,
                -2.360716543946446,
                -1.801750104882131,
                1.0196840282565083,
                0.5978055046488178,
                -0.2977873098502287
            ]
        },
        {
            "positions": [
                2.650535810904773,
                -2.421830412611739,
                -1.7309841815418034,
                1.0138355811636914,
                0.535403043491411,
                -0.14882530250546422
            ]
        },
        {
            "positions": [
                2.6600427481478723,
                -2.4829442812770313,
                -1.660218258201476,
                1.0079871340708748,
                0.47300058233400427,
                0.0001367048393002752
            ]
        }
    ]
}