{
    "goal": {
        "global_pose": {
            "orientation": {
                "w": -0.4816463035849501,
                "x": 0.5182115481033762,
                "y": 0.4908360881923453,
                "z": -0.5084816262002911
            },
            "position": {
                "x": -0.8240239810943604,
                "y": 0.19912469901144506,
                "z": 0.16403168439865112
            }
        },
        "name": "move_to_storage_D"
    },
    "id": "LBKPIECE_move_to_storage_D_1",
    "joint_names": [
        "shoulder_pan_joint",
        "shoulder_lift_joint",
        "elbow_joint",
        "wrist_1_joint",
        "wrist_2_joint",
        "wrist_3_joint"
    ],
    "metrics": {
        "cart_traj_len": 0.7368673547580926,
        "distance_elbow_joint": 0.9483916477274115,
        "distance_shoulder_lift_joint": 0.8819972986418203,
        "distance_shoulder_pan_joint": 0.4370332503225746,
        "distance_wrist_1_joint": 4.110864693060652,
        "distance_wrist_2_joint": 2.4329551977243344,
        "distance_wrist_3_joint": 3.117517335957432,
        "smoothness": 0.49256630320382394,
        "time": 0.394820251,
        "traj_len": 3.4538036168019484,
        "weighted_distance": 4.9706754054287305
    },
    "planner": "LBKPIECE",
    "start": {
        "state": {
            "elbow_joint": -2.384821988534728,
            "shoulder_lift_joint": -2.2788054721415256,
            "shoulder_pan_joint": -0.1854694642142757,
            "wrist_1_joint": 1.4845938289331202,
            "wrist_2_joint": 0.17898776772866878,
            "wrist_3_joint": 0.037105688729662994
        }
    },
    "waypoints": [
        {
            "positions": [
                -0.1854694642142757,
                -2.2788054721415256,
                -2.384821988534728,
                1.4845938289331202,
                0.17898776772866878,
                0.037105688729662994
            ]
        },
        {
            "positions": [
                -0.12300775151632033,
                -2.2112239046336715,
                -2.429239290037998,
                1.5572733354928747,
                0.24402334595708247,
                0.015412130697135457
            ]
        },
        {
            "positions": [
                -0.060546038818364956,
                -2.1436423371258178,
                -2.4736565915412685,
                1.629952842052629,
                0.3090589241854962,
                -0.006281427335392081
            ]
        },
        {
            "positions": [
                -0.018602085990849615,
                -2.0482930786568176,
                -2.5006617869487835,
                1.5181600398268609,
                0.3565346270280334,
                -0.026821147105058916
            ]
        },
        {
            "positions": [
                0.023341866836665726,
                -1.952943820187817,
                -2.5276669823562985,
                1.406367237601093,
                0.4040103298705706,
                -0.04736086687472575
            ]
        },
        {
            "positions": [
                0.06528581966418107,
                -1.857594561718817,
                -2.554672177763814,
                1.2945744353753248,
                0.4514860327131078,
                -0.06790058664439258
            ]
        },
        {
            "positions": [
                0.1072297724916964,
                -1.7622453032498167,
                -2.581677373171329,
                1.1827816331495566,
                0.498961735555645,
                -0.08844030641405942
            ]
        },
        {
            "positions": [
                0.10145641194703231,
                -1.7768627884398212,
                -2.5516159226476964,
                1.0420482543080338,
                0.4144424863597507,
                -0.2081191600466078
            ]
        },
        {
            "positions": [
                0.0956830514023682,
                -1.7914802736298256,
                -2.521554472124064,
                0.901314875466511,
                0.3299232371638564,
                -0.3277980136791562
            ]
        },
        {
            "positions": [
                0.0899096908577041,
                -1.80609775881983,
                -2.491493021600432,
                0.7605814966249883,
                0.2454039879679621,
                -0.44747686731170455
            ]
        },
        {
            "positions": [
                0.08413633031304,
                -1.8207152440098344,
                -2.4614315710767993,
                0.6198481177834655,
                0.16088473877206777,
                -0.567155720944253
            ]
        },
        {
            "positions": [
                0.0783629697683759,
                -1.835332729199839,
                -2.431370120553167,
                0.4791147389419427,
                0.07636548957617345,
                -0.6868345745768014
            ]
        },
        {
            "positions": [
                0.0725896092237118,
                -1.8499502143898434,
                -2.4013086700295343,
                0.33838136010041997,
                -0.008153759619720813,
                -0.8065134282093497
            ]
        },
        {
            "positions": [
                0.0668162486790477,
                -1.864567699579848,
                -2.371247219505902,
                0.19764798125889704,
                -0.09267300881561519,
                -0.9261922818418982
            ]
        },
        {
            "positions": [
                0.0610428881343836,
                -1.8791851847698522,
                -2.3411857689822697,
                0.05691460241737434,
                -0.17719225801150945,
                -1.0458711354744465
            ]
        },
        {
            "positions": [
                0.0552695275897195,
                -1.8938026699598567,
                -2.311124318458637,
                -0.08381877642414848,
                -0.2617115072074037,
                -1.165549989106995
            ]
        },
        {
            "positions": [
                0.04949616704505539,
                -1.9084201551498612,
                -2.2810628679350047,
                -0.2245521552656713,
                -0.3462307564032981,
                -1.2852288427395435
            ]
        },
        {
            "positions": [
                0.04372280650039129,
                -1.9230376403398657,
                -2.251001417411372,
                -0.3652855341071941,
                -0.43075000559919235,
                -1.4049076963720917
            ]
        },
        {
            "positions": [
                0.03794944595572719,
                -1.9376551255298702,
                -2.22093996688774,
                -0.5060189129487167,
                -0.5152692547950866,
                -1.5245865500046398
            ]
        },
        {
            "positions": [
                0.03217608541106309,
                -1.9522726107198745,
                -2.1908785163641076,
                -0.6467522917902397,
                -0.5997885039909809,
                -1.6442654036371884
            ]
        },
        {
            "positions": [
                0.026402724866398983,
                -1.966890095909879,
                -2.160817065840475,
                -0.7874856706317626,
                -0.6843077531868753,
                -1.763944257269737
            ]
        },
        {
            "positions": [
                0.020629364321734886,
                -1.9815075810998835,
                -2.1307556153168425,
                -0.9282190494732849,
                -0.7688270023827695,
                -1.8836231109022852
            ]
        },
        {
            "positions": [
                0.01485600377707079,
                -1.996125066289888,
                -2.10069416479321,
                -1.068952428314808,
                -0.8533462515786638,
                -2.003301964534834
            ]
        },
        {
            "positions": [
                0.009082643232406679,
                -2.0107425514798924,
                -2.070632714269578,
                -1.209685807156331,
                -0.9378655007745582,
                -2.122980818167382
            ]
        },
        {
            "positions": [
                0.0033092826877425957,
                -2.025360036669897,
                -2.0405712637459454,
                -1.3504191859978536,
                -1.0223847499704524,
                -2.24265967179993
            ]
        },
        {
            "positions": [
                -0.002464077856921515,
                -2.0399775218599014,
                -2.010509813222313,
                -1.4911525648393762,
                -1.1069039991663467,
                -2.3623385254324787
            ]
        },
        {
            "positions": [
                -0.008237438401585626,
                -2.0545950070499055,
                -1.9804483626986804,
                -1.6318859436808992,
                -1.1914232483622411,
                -2.4820173790650273
            ]
        },
        {
            "positions": [
                -0.014010798946249708,
                -2.06921249223991,
                -1.9503869121750483,
                -1.7726193225224218,
                -1.2759424975581353,
                -2.6016962326975754
            ]
        },
        {
            "positions": [
                -0.019784159490913833,
                -2.0838299774299145,
                -1.9203254616514158,
                -1.9133527013639449,
                -1.3604617467540296,
                -2.7213750863301236
            ]
        },
        {
            "positions": [
                -0.02555752003557793,
                -2.098447462619919,
                -1.8902640111277833,
                -2.0540860802054675,
                -1.444980995949924,
                -2.841053939962672
            ]
        },
        {
            "positions": [
                -0.031330880580242026,
                -2.1130649478099235,
                -1.8602025606041508,
                -2.19481945904699,
                -1.5295002451458182,
                -2.9607327935952203
            ]
        },
        {
            "positions": [
                -0.03710424112490614,
                -2.127682432999928,
                -1.8301411100805185,
                -2.335552837888513,
                -1.6140194943417125,
                -3.080411647227769
            ]
        }
    ]
}