{
    "goal": {
        "global_pose": {
            "orientation": {
                "w": 0.7047431493862688,
                "x": -0.7094548369677653,
                "y": 0.0024358444001904,
                "z": -0.0022348060817251984
            },
            "position": {
                "x": -0.39052492380142206,
                "y": 0.3671506643295288,
                "z": 0.19426114857196808
            }
        },
        "name": "move_to_magneteinheit_D"
    },
    "id": "LBKPIECE_move_to_magneteinheit_D_43",
    "joint_names": [
        "shoulder_pan_joint",
        "shoulder_lift_joint",
        "elbow_joint",
        "wrist_1_joint",
        "wrist_2_joint",
        "wrist_3_joint"
    ],
    "metrics": {
        "cart_traj_len": 4.322733994846497,
        "distance_elbow_joint": 3.1114801169807604,
        "distance_shoulder_lift_joint": 1.0971991198706887,
        "distance_shoulder_pan_joint": 3.125122223118432,
        "distance_wrist_1_joint": 2.3437332192562286,
        "distance_wrist_2_joint": 0.7174274355700285,
        "distance_wrist_3_joint": 6.291974395311767,
        "smoothness": 0.4146363132747505,
        "time": 0.323666813,
        "traj_len": 4.084964688967079,
        "weighted_distance": 5.686127500817907
    },
    "planner": "LBKPIECE",
    "start": {
        "state": {
            "elbow_joint": 0.749534889911806,
            "shoulder_lift_joint": -0.6476975780787326,
            "shoulder_pan_joint": -2.711696901376241,
            "wrist_1_joint": -0.07506478083263063,
            "wrist_2_joint": 0.43296659715538205,
            "wrist_3_joint": -3.14703540197715
        }
    },
    "waypoints": [
        {
            "positions": [
                -2.711696901376241,
                -0.6476975780787326,
                0.749534889911806,
                -0.07506478083263063,
                0.43296659715538205,
                -3.14703540197715
            ]
        },
        {
            "positions": [
                -2.791914744918676,
                -0.6757630516586669,
                0.7268105592811717,
                -0.016629586737175295,
                0.3770321246037711,
                -3.1159774759795273
            ]
        },
        {
            "positions": [
                -2.8721325884611106,
                -0.7038285252386012,
                0.7040862286505374,
                0.04180560735828004,
                0.3210976520521601,
                -3.0849195499819047
            ]
        },
        {
            "positions": [
                -2.7895758924308107,
                -0.7678448389473811,
                0.6132932248616813,
                -0.003134475888932675,
                0.34788688399764417,
                -3.0183405949952404
            ]
        },
        {
            "positions": [
                -2.707019196400511,
                -0.8318611526561609,
                0.5225002210728251,
                -0.048074559136145396,
                0.3746761159431282,
                -2.951761640008576
            ]
        },
        {
            "positions": [
                -2.602717954919373,
                -0.8372536958266557,
                0.43726090528621886,
                -0.07626501407251424,
                0.36280986907916424,
                -2.791533751206335
            ]
        },
        {
            "positions": [
                -2.498416713438236,
                -0.8426462389971504,
                0.3520215894996126,
                -0.10445546900888308,
                0.35094362221520026,
                -2.6313058624040946
            ]
        },
        {
            "positions": [
                -2.394115471957098,
                -0.8480387821676452,
                0.26678227371300633,
                -0.13264592394525193,
                0.33907737535123633,
                -2.4710779736018536
            ]
        },
        {
            "positions": [
                -2.2898142304759603,
                -0.8534313253381399,
                0.18154295792640007,
                -0.16083637888162078,
                0.32721112848727235,
                -2.310850084799613
            ]
        },
        {
            "positions": [
                -2.185512988994823,
                -0.8588238685086347,
                0.09630364213979381,
                -0.1890268338179896,
                0.31534488162330837,
                -2.150622195997372
            ]
        },
        {
            "positions": [
                -2.0812117475136853,
                -0.8642164116791294,
                0.011064326353187548,
                -0.21721728875435845,
                0.30347863475934445,
                -1.9903943071951313
            ]
        },
        {
            "positions": [
                -1.9769105060325476,
                -0.8696089548496242,
                -0.07417498943341883,
                -0.24540774369072732,
                0.29161238789538046,
                -1.8301664183928903
            ]
        },
        {
            "positions": [
                -1.8726092645514103,
                -0.875001498020119,
                -0.15941430522002498,
                -0.27359819862709617,
                0.2797461410314165,
                -1.6699385295906495
            ]
        },
        {
            "positions": [
                -1.7683080230702726,
                -0.8803940411906137,
                -0.24465362100663124,
                -0.30178865356346496,
                0.2678798941674525,
                -1.5097106407884087
            ]
        },
        {
            "positions": [
                -1.664006781589135,
                -0.8857865843611085,
                -0.3298929367932375,
                -0.3299791084998338,
                0.2560136473034885,
                -1.3494827519861676
            ]
        },
        {
            "positions": [
                -1.5597055401079976,
                -0.8911791275316032,
                -0.41513225257984376,
                -0.35816956343620265,
                0.24414740043952457,
                -1.189254863183927
            ]
        },
        {
            "positions": [
                -1.45540429862686,
                -0.896571670702098,
                -0.50037156836645,
                -0.3863600183725715,
                0.23228115357556062,
                -1.0290269743816862
            ]
        },
        {
            "positions": [
                -1.3511030571457223,
                -0.9019642138725927,
                -0.5856108841530563,
                -0.41455047330894035,
                0.22041490671159664,
                -0.8687990855794454
            ]
        },
        {
            "positions": [
                -1.2468018156645846,
                -0.9073567570430875,
                -0.6708501999396628,
                -0.44274092824530925,
                0.20854865984763266,
                -0.7085711967772044
            ]
        },
        {
            "positions": [
                -1.1425005741834473,
                -0.9127493002135822,
                -0.7560895157262688,
                -0.47093138318167804,
                0.1966824129836687,
                -0.5483433079749638
            ]
        },
        {
            "positions": [
                -1.0381993327023096,
                -0.918141843384077,
                -0.8413288315128751,
                -0.4991218381180469,
                0.18481616611970475,
                -0.38811541917272274
            ]
        },
        {
            "positions": [
                -0.9338980912211721,
                -0.9235343865545718,
                -0.9265681472994813,
                -0.5273122930544157,
                0.17294991925574077,
                -0.2278875303704817
            ]
        },
        {
            "positions": [
                -0.8295968497400346,
                -0.9289269297250665,
                -1.0118074630860876,
                -0.5555027479907846,
                0.16108367239177682,
                -0.06765964156824111
            ]
        },
        {
            "positions": [
                -0.725295608258897,
                -0.9343194728955613,
                -1.0970467788726939,
                -0.5836932029271534,
                0.14921742552781284,
                0.09256824723399992
            ]
        },
        {
            "positions": [
                -0.6209943667777593,
                -0.939712016066056,
                -1.1822860946593001,
                -0.6118836578635223,
                0.13735117866384886,
                0.25279613603624096
            ]
        },
        {
            "positions": [
                -0.516693125296622,
                -0.9451045592365508,
                -1.2675254104459064,
                -0.6400741127998911,
                0.1254849317998849,
                0.4130240248384811
            ]
        },
        {
            "positions": [
                -0.4123918838154843,
                -0.9504971024070455,
                -1.3527647262325126,
                -0.66826456773626,
                0.11361868493592092,
                0.5732519136407221
            ]
        },
        {
            "positions": [
                -0.3080906423343466,
                -0.9558896455775403,
                -1.438004042019119,
                -0.6964550226726288,
                0.10175243807195694,
                0.7334798024429632
            ]
        },
        {
            "positions": [
                -0.2037894008532093,
                -0.9612821887480351,
                -1.5232433578057252,
                -0.7246454776089977,
                0.08988619120799302,
                0.8937076912452038
            ]
        },
        {
            "positions": [
                -0.09948815937207145,
                -0.9666747319185298,
                -1.6084826735923317,
                -0.7528359325453665,
                0.07801994434402904,
                1.0539355800474453
            ]
        },
        {
            "positions": [
                -0.0946516980048714,
                -1.0093499123187957,
                -1.6762123170475722,
                -0.8630076278466009,
                0.06614312002363024,
                1.2106483819688139
            ]
        },
        {
            "positions": [
                -0.08981523663767134,
                -1.0520250927190613,
                -1.743941960502813,
                -0.9731793231478354,
                0.05426629570323145,
                1.3673611838901822
            ]
        },
        {
            "positions": [
                -0.08497877527047129,
                -1.0947002731193272,
                -1.8116716039580536,
                -1.0833510184490698,
                0.042389471382832666,
                1.5240739858115506
            ]
        },
        {
            "positions": [
                -0.08014231390327123,
                -1.137375453519593,
                -1.8794012474132944,
                -1.1935227137503042,
                0.030512647062433867,
                1.6807867877329192
            ]
        },
        {
            "positions": [
                -0.07530585253607118,
                -1.1800506339198589,
                -1.947130890868535,
                -1.3036944090515385,
                0.018635822742035082,
                1.8374995896542876
            ]
        },
        {
            "positions": [
                -0.07046939116887113,
                -1.2227258143201245,
                -2.0148605343237755,
                -1.413866104352773,
                0.0067589984216362975,
                1.994212391575656
            ]
        },
        {
            "positions": [
                -0.06563292980167107,
                -1.2654009947203904,
                -2.082590177779016,
                -1.5240377996540073,
                -0.005117825898762501,
                2.1509251934970246
            ]
        },
        {
            "positions": [
                -0.06079646843447102,
                -1.3080761751206562,
                -2.150319821234257,
                -1.634209494955242,
                -0.0169946502191613,
                2.307637995418393
            ]
        },
        {
            "positions": [
                -0.055960007067270966,
                -1.350751355520922,
                -2.2180494646894977,
                -1.744381190256476,
                -0.0288714745395601,
                2.464350797339762
            ]
        },
        {
            "positions": [
                -0.05112354570007092,
                -1.3934265359211877,
                -2.2857791081447383,
                -1.8545528855577107,
                -0.04074829885995887,
                2.62106359926113
            ]
        },
        {
            "positions": [
                -0.04628708433287086,
                -1.4361017163214536,
                -2.353508751599979,
                -1.964724580858945,
                -0.05262512318035767,
                2.7777764011824986
            ]
        },
        {
            "positions": [
                -0.09256742830131164,
                -1.5390333768641096,
                -2.3563209100896376,
                -2.0381687951416425,
                -0.09418471899780843,
                2.900163931899871
            ]
        },
        {
            "positions": [
                -0.13884777226975242,
                -1.6419650374067654,
                -2.359133068579296,
                -2.11161300942434,
                -0.1357443148152592,
                3.022551462617244
            ]
        },
        {
            "positions": [
                -0.1851281162381932,
                -1.7448966979494214,
                -2.3619452270689547,
                -2.185057223707038,
                -0.17730391063270998,
                3.1449389933346166
            ]
        }
    ]
}