{
    "goal": {
        "global_pose": {
            "orientation": {
                "w": -0.00223480608172531,
                "x": 0.0024358444001904467,
                "y": 0.7094548369677653,
                "z": -0.704743149386269
            },
            "position": {
                "x": -0.37947507619857795,
                "y": -0.6371506643295288,
                "z": 0.19426114857196808
            }
        },
        "name": "move_to_magneteinheit_C"
    },
    "id": "LBKPIECE_move_to_magneteinheit_C_48",
    "joint_names": [
        "shoulder_pan_joint",
        "shoulder_lift_joint",
        "elbow_joint",
        "wrist_1_joint",
        "wrist_2_joint",
        "wrist_3_joint"
    ],
    "metrics": {
        "cart_traj_len": 1.1704641299544043,
        "distance_elbow_joint": 1.1860042522122685,
        "distance_shoulder_lift_joint": 1.854659832987577,
        "distance_shoulder_pan_joint": 1.1140269191816838,
        "distance_wrist_1_joint": 0.8864189475556851,
        "distance_wrist_2_joint": 1.517117452712855,
        "distance_wrist_3_joint": 1.7671903874071209,
        "smoothness": 1.709575509861694,
        "time": 0.480296302,
        "traj_len": 2.885380008258391,
        "weighted_distance": 3.776683064163576
    },
    "planner": "LBKPIECE",
    "start": {
        "state": {
            "elbow_joint": 1.9565354010623817,
            "shoulder_lift_joint": -1.4165861575791021,
            "shoulder_pan_joint": -1.6717766225146293,
            "wrist_1_joint": -0.5286633292919765,
            "wrist_2_joint": 1.472756589071564,
            "wrist_3_joint": -3.1238370188695823
        }
    },
    "waypoints": [
        {
            "positions": [
                -1.6717766225146293,
                -1.4165861575791021,
                1.9565354010623817,
                -0.5286633292919765,
                1.472756589071564,
                -3.1238370188695823
            ]
        },
        {
            "positions": [
                -1.5937985569446864,
                -1.4326691113608487,
                1.9485814901591965,
                -0.49978703155055926,
                1.367615376402429,
                -3.032692642412909
            ]
        },
        {
            "positions": [
                -1.5158204913747437,
                -1.4487520651425956,
                1.9406275792560113,
                -0.47091073380914206,
                1.2624741637332941,
                -2.9415482659562358
            ]
        },
        {
            "positions": [
                -1.6040281537530987,
                -1.5255879678692816,
                2.002640346808282,
                -0.5309117269830144,
                1.2981245122830045,
                -2.8722682278832457
            ]
        },
        {
            "positions": [
                -1.6922358161314537,
                -1.6024238705959677,
                2.064653114360553,
                -0.5909127201568867,
                1.3337748608327151,
                -2.8029881898102555
            ]
        },
        {
            "positions": [
                -1.7804434785098087,
                -1.679259773322654,
                2.1266658819128237,
                -0.650913713330759,
                1.3694252093824255,
                -2.7337081517372654
            ]
        },
        {
            "positions": [
                -1.8686511408881636,
                -1.75609567604934,
                2.1886786494650945,
                -0.7109147065046314,
                1.4050755579321361,
                -2.6644281136642753
            ]
        },
        {
            "positions": [
                -1.9568588032665186,
                -1.832931578776026,
                2.2506914170173653,
                -0.7709156996785037,
                1.4407259064818465,
                -2.5951480755912852
            ]
        },
        {
            "positions": [
                -2.0450664656448736,
                -1.9097674815027121,
                2.3127041845696357,
                -0.830916692852376,
                1.476376255031557,
                -2.525868037518295
            ]
        },
        {
            "positions": [
                -2.1332741280232286,
                -1.9866033842293982,
                2.3747169521219065,
                -0.8909176860262483,
                1.5120266035812675,
                -2.456587999445305
            ]
        },
        {
            "positions": [
                -2.2214817904015836,
                -2.0634392869560845,
                2.4367297196741773,
                -0.9509186792001207,
                1.547676952130978,
                -2.387307961372315
            ]
        },
        {
            "positions": [
                -2.3096894527799385,
                -2.1402751896827708,
                2.498742487226448,
                -1.010919672373993,
                1.5833273006806885,
                -2.318027923299325
            ]
        },
        {
            "positions": [
                -2.3978971151582935,
                -2.2171110924094566,
                2.560755254778719,
                -1.0709206655478654,
                1.6189776492303989,
                -2.2487478852263347
            ]
        },
        {
            "positions": [
                -2.4054965315841184,
                -2.1116976025937344,
                2.5057583792903997,
                -1.0480550235144526,
                1.5239444950426508,
                -2.3379580106027222
            ]
        },
        {
            "positions": [
                -2.413095948009943,
                -2.006284112778012,
                2.450761503802081,
                -1.0251893814810398,
                1.4289113408549028,
                -2.4271681359791093
            ]
        },
        {
            "positions": [
                -2.420695364435768,
                -1.9008706229622898,
                2.3957646283137617,
                -1.0023237394476272,
                1.3338781866671547,
                -2.516378261355497
            ]
        },
        {
            "positions": [
                -2.428294780861593,
                -1.7954571331465676,
                2.340767752825443,
                -0.9794580974142144,
                1.2388450324794067,
                -2.605588386731884
            ]
        },
        {
            "positions": [
                -2.4358941972874177,
                -1.6900436433308452,
                2.2857708773371237,
                -0.9565924553808016,
                1.1438118782916586,
                -2.6947985121082714
            ]
        },
        {
            "positions": [
                -2.4434936137132426,
                -1.584630153515123,
                2.2307740018488045,
                -0.9337268133473889,
                1.0487787241039106,
                -2.784008637484659
            ]
        },
        {
            "positions": [
                -2.4510930301390674,
                -1.4792166636994009,
                2.1757771263604857,
                -0.9108611713139763,
                0.9537455699161625,
                -2.873218762861046
            ]
        },
        {
            "positions": [
                -2.4586924465648923,
                -1.3738031738836787,
                2.1207802508721665,
                -0.8879955292805635,
                0.8587124157284145,
                -2.9624288882374334
            ]
        },
        {
            "positions": [
                -2.466291862990717,
                -1.2683896840679563,
                2.0657833753838477,
                -0.8651298872471507,
                0.7636792615406665,
                -3.051639013613821
            ]
        },
        {
            "positions": [
                -2.473891279416542,
                -1.162976194252234,
                2.0107864998955285,
                -0.842264245213738,
                0.6686461073529184,
                -3.140849138990208
            ]
        }
    ]
}