{
    "goal": {
        "global_pose": {
            "orientation": {
                "w": 0.7031023502349854,
                "x": -0.7110244035720825,
                "y": 0.007748599164187908,
                "z": 0.005598929710686207
            },
            "position": {
                "x": 0.11585023208521307,
                "y": 0.44412534475326537,
                "z": 0.3711530566215515
            }
        },
        "name": "move_to_auspresseinheit_A"
    },
    "id": "LBKPIECE_move_to_auspresseinheit_A_111",
    "joint_names": [
        "shoulder_pan_joint",
        "shoulder_lift_joint",
        "elbow_joint",
        "wrist_1_joint",
        "wrist_2_joint",
        "wrist_3_joint"
    ],
    "metrics": {
        "cart_traj_len": 1.8469561851825826,
        "distance_elbow_joint": 0.4106519238657973,
        "distance_shoulder_lift_joint": 1.2080273032359006,
        "distance_shoulder_pan_joint": 5.412321123916497,
        "distance_wrist_1_joint": 0.5766528982093351,
        "distance_wrist_2_joint": 3.0306045160087693,
        "distance_wrist_3_joint": 11.700873716379435,
        "smoothness": 0.5747956280225919,
        "time": 0.769752954,
        "traj_len": 4.726429041212376,
        "weighted_distance": 7.024822868129329
    },
    "planner": "LBKPIECE",
    "start": {
        "state": {
            "elbow_joint": 2.4225746658250005,
            "shoulder_lift_joint": -1.3736534386056498,
            "shoulder_pan_joint": -0.3378633547517467,
            "wrist_1_joint": -1.0288598680537169,
            "wrist_2_joint": 1.233022673432363,
            "wrist_3_joint": -3.0940220416140027
        }
    },
    "waypoints": [
        {
            "positions": [
                -0.3378633547517467,
                -1.3736534386056498,
                2.4225746658250005,
                -1.0288598680537169,
                1.233022673432363,
                -3.0940220416140027
            ]
        },
        {
            "positions": [
                -0.41581667641508535,
                -1.4047539260472373,
                2.429323442122488,
                -1.022073033585038,
                1.1696613655241124,
                -2.8858465698608673
            ]
        },
        {
            "positions": [
                -0.4937699980784239,
                -1.435854413488825,
                2.4360722184199757,
                -1.0152861991163593,
                1.1063000576158617,
                -2.6776710981077314
            ]
        },
        {
            "positions": [
                -0.5717233197417626,
                -1.4669549009304124,
                2.442820994717463,
                -1.0084993646476805,
                1.0429387497076112,
                -2.469495626354596
            ]
        },
        {
            "positions": [
                -0.6496766414051012,
                -1.4980553883719998,
                2.4495697710149504,
                -1.0017125301790017,
                0.9795774417993606,
                -2.26132015460146
            ]
        },
        {
            "positions": [
                -0.7276299630684397,
                -1.5291558758135873,
                2.456318547312438,
                -0.994925695710323,
                0.9162161338911099,
                -2.0531446828483246
            ]
        },
        {
            "positions": [
                -0.8055832847317784,
                -1.5602563632551747,
                2.4630673236099256,
                -0.9881388612416442,
                0.8528548259828592,
                -1.844969211095189
            ]
        },
        {
            "positions": [
                -0.8835366063951171,
                -1.5913568506967624,
                2.469816099907413,
                -0.9813520267729654,
                0.7894935180746085,
                -1.6367937393420533
            ]
        },
        {
            "positions": [
                -0.9614899280584557,
                -1.6224573381383498,
                2.4765648762049004,
                -0.9745651923042867,
                0.726132210166358,
                -1.4286182675889179
            ]
        },
        {
            "positions": [
                -1.0394432497217942,
                -1.6535578255799372,
                2.483313652502388,
                -0.967778357835608,
                0.6627709022581073,
                -1.220442795835782
            ]
        },
        {
            "positions": [
                -1.1173965713851328,
                -1.684658313021525,
                2.4900624287998756,
                -0.9609915233669292,
                0.5994095943498566,
                -1.0122673240826465
            ]
        },
        {
            "positions": [
                -1.1953498930484716,
                -1.7157588004631124,
                2.496811205097363,
                -0.9542046888982504,
                0.5360482864416061,
                -0.8040918523295106
            ]
        },
        {
            "positions": [
                -1.2733032147118102,
                -1.7468592879046998,
                2.5035599813948504,
                -0.9474178544295716,
                0.4726869785333555,
                -0.5959163805763752
            ]
        },
        {
            "positions": [
                -1.3512565363751488,
                -1.7779597753462872,
                2.510308757692338,
                -0.9406310199608928,
                0.4093256706251047,
                -0.3877409088232393
            ]
        },
        {
            "positions": [
                -1.4292098580384873,
                -1.8090602627878747,
                2.5170575339898256,
                -0.933844185492214,
                0.34596436271685416,
                -0.17956543707010386
            ]
        },
        {
            "positions": [
                -1.507163179701826,
                -1.8401607502294623,
                2.523806310287313,
                -0.9270573510235353,
                0.2826030548086036,
                0.028610034683031582
            ]
        },
        {
            "positions": [
                -1.5851165013651645,
                -1.8712612376710498,
                2.5305550865848008,
                -0.9202705165548565,
                0.21924174690035292,
                0.23678550643616703
            ]
        },
        {
            "positions": [
                -1.663069823028503,
                -1.9023617251126372,
                2.537303862882288,
                -0.9134836820861777,
                0.15588043899210224,
                0.4449609781893029
            ]
        },
        {
            "positions": [
                -1.7410231446918418,
                -1.933462212554225,
                2.5440526391797755,
                -0.9066968476174989,
                0.09251913108385157,
                0.6531364499424388
            ]
        },
        {
            "positions": [
                -1.8189764663551804,
                -1.9645626999958123,
                2.550801415477263,
                -0.8999100131488201,
                0.029157823175600894,
                0.8613119216955747
            ]
        },
        {
            "positions": [
                -1.896929788018519,
                -1.9956631874373998,
                2.5575501917747507,
                -0.8931231786801415,
                -0.03420348473264978,
                1.0694873934487097
            ]
        },
        {
            "positions": [
                -1.9748831096818575,
                -2.0267636748789872,
                2.5642989680722383,
                -0.8863363442114627,
                -0.09756479264090023,
                1.2776628652018456
            ]
        },
        {
            "positions": [
                -2.0528364313451966,
                -2.0578641623205747,
                2.5710477443697255,
                -0.8795495097427839,
                -0.1609261005491509,
                1.4858383369549815
            ]
        },
        {
            "positions": [
                -2.130789753008535,
                -2.088964649762162,
                2.577796520667213,
                -0.8727626752741051,
                -0.22428740845740158,
                1.6940138087081165
            ]
        },
        {
            "positions": [
                -2.2087430746718737,
                -2.12006513720375,
                2.5845452969647007,
                -0.8659758408054263,
                -0.28764871636565204,
                1.9021892804612524
            ]
        },
        {
            "positions": [
                -2.2866963963352123,
                -2.1511656246453374,
                2.5912940732621883,
                -0.8591890063367476,
                -0.35101002427390293,
                2.1103647522143882
            ]
        },
        {
            "positions": [
                -2.364649717998551,
                -2.182266112086925,
                2.5980428495596755,
                -0.8524021718680688,
                -0.4143713321821536,
                2.318540223967524
            ]
        },
        {
            "positions": [
                -2.4426030396618894,
                -2.2133665995285123,
                2.604791625857163,
                -0.84561533739939,
                -0.47773264009040406,
                2.526715695720659
            ]
        },
        {
            "positions": [
                -2.520556361325228,
                -2.2444670869701,
                2.6115404021546507,
                -0.8388285029307112,
                -0.5410939479986547,
                2.7348911674737955
            ]
        },
        {
            "positions": [
                -2.4091898745202966,
                -2.232839029905567,
                2.6038960508603006,
                -0.8254967259277344,
                -0.49776677922011164,
                2.532409770670635
            ]
        },
        {
            "positions": [
                -2.297823387715365,
                -2.221210972841034,
                2.596251699565951,
                -0.8121649489247574,
                -0.45443961044156855,
                2.3299283738674754
            ]
        },
        {
            "positions": [
                -2.1864569009104335,
                -2.2095829157765015,
                2.588607348271601,
                -0.7988331719217806,
                -0.4111124416630254,
                2.127446977064315
            ]
        },
        {
            "positions": [
                -2.0750904141055018,
                -2.197954858711969,
                2.580962996977251,
                -0.7855013949188037,
                -0.3677852728844823,
                1.924965580261155
            ]
        },
        {
            "positions": [
                -1.9637239273005704,
                -2.1863268016474358,
                2.5733186456829014,
                -0.7721696179158268,
                -0.3244581041059392,
                1.7224841834579947
            ]
        },
        {
            "positions": [
                -1.8523574404956389,
                -2.174698744582903,
                2.5656742943885513,
                -0.7588378409128499,
                -0.28113093532739614,
                1.5200027866548347
            ]
        },
        {
            "positions": [
                -1.7409909536907073,
                -2.1630706875183705,
                2.5580299430942013,
                -0.7455060639098731,
                -0.237803766548853,
                1.3175213898516744
            ]
        },
        {
            "positions": [
                -1.629624466885776,
                -2.1514426304538374,
                2.5503855917998512,
                -0.7321742869068961,
                -0.1944765977703099,
                1.1150399930485144
            ]
        },
        {
            "positions": [
                -1.5182579800808442,
                -2.139814573389305,
                2.5427412405055017,
                -0.7188425099039193,
                -0.1511494289917668,
                0.9125585962453542
            ]
        },
        {
            "positions": [
                -1.4068914932759127,
                -2.128186516324772,
                2.5350968892111516,
                -0.7055107329009425,
                -0.10782226021322366,
                0.7100771994421939
            ]
        },
        {
            "positions": [
                -1.2955250064709813,
                -2.116558459260239,
                2.5274525379168016,
                -0.6921789558979655,
                -0.06449509143468063,
                0.5075958026390341
            ]
        },
        {
            "positions": [
                -1.1841585196660498,
                -2.1049304021957065,
                2.519808186622452,
                -0.6788471788949887,
                -0.02116792265613754,
                0.3051144058358739
            ]
        },
        {
            "positions": [
                -1.0727920328611182,
                -2.093302345131174,
                2.512163835328102,
                -0.6655154018920117,
                0.022159246122405607,
                0.10263300903271366
            ]
        },
        {
            "positions": [
                -0.9614255460561867,
                -2.081674288066641,
                2.504519484033752,
                -0.6521836248890349,
                0.06548641490094875,
                -0.09984838777044658
            ]
        },
        {
            "positions": [
                -0.8500590592512551,
                -2.070046231002108,
                2.4968751327394023,
                -0.638851847886058,
                0.1088135836794919,
                -0.3023297845736068
            ]
        },
        {
            "positions": [
                -0.7386925724463238,
                -2.058418173937575,
                2.4892307814450523,
                -0.6255200708830811,
                0.15214075245803493,
                -0.5048111813767666
            ]
        },
        {
            "positions": [
                -0.6273260856413925,
                -2.0467901168730425,
                2.4815864301507022,
                -0.6121882938801042,
                0.19546792123657797,
                -0.7072925781799264
            ]
        },
        {
            "positions": [
                -0.5159595988364605,
                -2.03516205980851,
                2.4739420788563526,
                -0.5988565168771274,
                0.23879509001512111,
                -0.9097739749830871
            ]
        },
        {
            "positions": [
                -0.40459311203152915,
                -2.0235340027439768,
                2.4662977275620026,
                -0.5855247398741505,
                0.28212225879366426,
                -1.112255371786247
            ]
        },
        {
            "positions": [
                -0.29322662522659737,
                -2.011905945679444,
                2.4586533762676526,
                -0.5721929628711736,
                0.3254494275722074,
                -1.3147367685894076
            ]
        },
        {
            "positions": [
                -0.18186013842166604,
                -2.0002778886149115,
                2.4510090249733025,
                -0.5588611858681967,
                0.36877659635075044,
                -1.5172181653925674
            ]
        },
        {
            "positions": [
                -0.07049365161673471,
                -1.9886498315503787,
                2.443364673678953,
                -0.5455294088652198,
                0.4121037651292935,
                -1.7196995621957272
            ]
        },
        {
            "positions": [
                0.040872835188197065,
                -1.9770217744858458,
                2.435720322384603,
                -0.532197631862243,
                0.45543093390783673,
                -1.9221809589988879
            ]
        },
        {
            "positions": [
                0.1522393219931284,
                -1.9653937174213132,
                2.428075971090253,
                -0.5188658548592662,
                0.49875810268637966,
                -2.1246623558020477
            ]
        },
        {
            "positions": [
                0.2636058087980597,
                -1.9537656603567803,
                2.4204316197959033,
                -0.5055340778562892,
                0.5420852714649227,
                -2.3271437526052074
            ]
        },
        {
            "positions": [
                0.3749722956029915,
                -1.9421376032922475,
                2.4127872685015532,
                -0.49220230085331235,
                0.585412440243466,
                -2.529625149408368
            ]
        },
        {
            "positions": [
                0.48633878240792283,
                -1.9305095462277149,
                2.405142917207203,
                -0.47887052385033546,
                0.628739609022009,
                -2.732106546211528
            ]
        },
        {
            "positions": [
                0.5977052692128546,
                -1.918881489163182,
                2.3974985659128536,
                -0.4655387468473586,
                0.6720667778005522,
                -2.9345879430146886
            ]
        },
        {
            "positions": [
                0.7090717560177859,
                -1.9072534320986492,
                2.3898542146185036,
                -0.4522069698443817,
                0.7153939465790954,
                -3.1370693398178484
            ]
        }
    ]
}