{
    "goal": {
        "global_pose": {
            "orientation": {
                "w": 0.005598929693374612,
                "x": 0.007748599140229565,
                "y": 0.7110244013736278,
                "z": -0.7031023480610252
            },
            "position": {
                "x": -0.8858502320852131,
                "y": -0.7141253447532654,
                "z": 0.3711530566215515
            }
        },
        "name": "move_to_auspresseinheit_C"
    },
    "id": "LBKPIECE_move_to_auspresseinheit_C_135",
    "joint_names": [
        "shoulder_pan_joint",
        "shoulder_lift_joint",
        "elbow_joint",
        "wrist_1_joint",
        "wrist_2_joint",
        "wrist_3_joint"
    ],
    "metrics": {
        "cart_traj_len": 0.492974015601512,
        "distance_elbow_joint": 0.9981415625902689,
        "distance_shoulder_lift_joint": 0.3243014837889666,
        "distance_shoulder_pan_joint": 0.2555378967671964,
        "distance_wrist_1_joint": 0.6649147713516202,
        "distance_wrist_2_joint": 1.319668847001938,
        "distance_wrist_3_joint": 0.041612464823617135,
        "smoothness": 8.074349282788172e-16,
        "time": 0.565786809,
        "traj_len": 1.8984670200779383,
        "weighted_distance": 2.381593074881685
    },
    "planner": "LBKPIECE",
    "start": {
        "state": {
            "elbow_joint": 1.7527959577737207,
            "shoulder_lift_joint": -0.9740617694225068,
            "shoulder_pan_joint": -2.967991417825858,
            "wrist_1_joint": -0.759517768980727,
            "wrist_2_joint": 1.7443932448377408,
            "wrist_3_joint": -3.0840537646736568
        }
    },
    "waypoints": [
        {
            "positions": [
                -2.967991417825858,
                -0.9740617694225068,
                1.7527959577737207,
                -0.759517768980727,
                1.7443932448377408,
                -3.0840537646736568
            ]
        },
        {
            "positions": [
                -2.9424376281491385,
                -0.9416316210436101,
                1.6529818015146938,
                -0.693026291845565,
                1.612426360137547,
                -3.0882150111560183
            ]
        },
        {
            "positions": [
                -2.9168838384724185,
                -0.9092014726647134,
                1.5531676452556669,
                -0.626534814710403,
                1.4804594754373532,
                -3.09237625763838
            ]
        },
        {
            "positions": [
                -2.891330048795699,
                -0.8767713242858168,
                1.45335348899664,
                -0.5600433375752409,
                1.3484925907371594,
                -3.096537504120742
            ]
        },
        {
            "positions": [
                -2.8657762591189795,
                -0.8443411759069201,
                1.353539332737613,
                -0.49355186044007887,
                1.2165257060369656,
                -3.1006987506031036
            ]
        },
        {
            "positions": [
                -2.84022246944226,
                -0.8119110275280235,
                1.2537251764785862,
                -0.42706038330491686,
                1.0845588213367718,
                -3.104859997085465
            ]
        },
        {
            "positions": [
                -2.81466867976554,
                -0.7794808791491268,
                1.1539110202195593,
                -0.36056890616975484,
                0.952591936636578,
                -3.109021243567827
            ]
        },
        {
            "positions": [
                -2.7891148900888205,
                -0.7470507307702301,
                1.0540968639605324,
                -0.29407742903459283,
                0.8206250519363844,
                -3.1131824900501885
            ]
        },
        {
            "positions": [
                -2.763561100412101,
                -0.7146205823913334,
                0.9542827077015055,
                -0.22758595189943076,
                0.6886581672361904,
                -3.1173437365325505
            ]
        },
        {
            "positions": [
                -2.738007310735381,
                -0.6821904340124367,
                0.8544685514424787,
                -0.16109447476426875,
                0.5566912825359966,
                -3.121504983014912
            ]
        },
        {
            "positions": [
                -2.7124535210586616,
                -0.6497602856335402,
                0.7546543951834518,
                -0.09460299762910676,
                0.42472439783580296,
                -3.125666229497274
            ]
        }
    ]
}