{
    "goal": {
        "global_pose": {
            "orientation": {
                "w": 0.7031023480610252,
                "x": -0.7110244013736278,
                "y": 0.0077485991402295624,
                "z": 0.005598929693374583
            },
            "position": {
                "x": -0.8841497679147869,
                "y": 0.44412534475326537,
                "z": 0.3711530566215515
            }
        },
        "name": "move_to_auspresseinheit_D"
    },
    "id": "LBKPIECE_move_to_auspresseinheit_D_117",
    "joint_names": [
        "shoulder_pan_joint",
        "shoulder_lift_joint",
        "elbow_joint",
        "wrist_1_joint",
        "wrist_2_joint",
        "wrist_3_joint"
    ],
    "metrics": {
        "cart_traj_len": 0.3439523344255156,
        "distance_elbow_joint": 0.6572977499850785,
        "distance_shoulder_lift_joint": 0.13231432995183834,
        "distance_shoulder_pan_joint": 0.13339510664766455,
        "distance_wrist_1_joint": 0.5779443744735207,
        "distance_wrist_2_joint": 1.4491266424842537,
        "distance_wrist_3_joint": 0.03974494667578998,
        "smoothness": 0.0,
        "time": 0.347688159,
        "traj_len": 1.7291105083880978,
        "weighted_distance": 2.257517233716611
    },
    "planner": "LBKPIECE",
    "start": {
        "state": {
            "elbow_joint": -1.8275523626775212,
            "shoulder_lift_joint": -2.126789852344167,
            "shoulder_pan_joint": -0.03513704404078235,
            "wrist_1_joint": -2.347782403156801,
            "wrist_2_joint": -1.6058999987535132,
            "wrist_3_joint": -3.0880379163319196
        }
    },
    "waypoints": [
        {
            "positions": [
                -0.03513704404078235,
                -2.126789852344167,
                -1.8275523626775212,
                -2.347782403156801,
                -1.6058999987535132,
                -3.0880379163319196
            ]
        },
        {
            "positions": [
                -0.05181143237174042,
                -2.1433291435881467,
                -1.7453901439293864,
                -2.420025449965991,
                -1.4247591684429814,
                -3.083069797997446
            ]
        },
        {
            "positions": [
                -0.06848582070269849,
                -2.159868434832126,
                -1.6632279251812516,
                -2.492268496775181,
                -1.2436183381324497,
                -3.0781016796629723
            ]
        },
        {
            "positions": [
                -0.08516020903365656,
                -2.176407726076106,
                -1.5810657064331168,
                -2.5645115435843713,
                -1.0624775078219182,
                -3.0731335613284982
            ]
        },
        {
            "positions": [
                -0.10183459736461462,
                -2.192947017320086,
                -1.498903487684982,
                -2.6367545903935614,
                -0.8813366775113863,
                -3.0681654429940246
            ]
        },
        {
            "positions": [
                -0.1185089856955727,
                -2.209486308564066,
                -1.416741268936847,
                -2.708997637202751,
                -0.7001958472008546,
                -3.063197324659551
            ]
        },
        {
            "positions": [
                -0.13518337402653077,
                -2.226025599808046,
                -1.3345790501887123,
                -2.7812406840119412,
                -0.519055016890323,
                -3.058229206325077
            ]
        },
        {
            "positions": [
                -0.15185776235748882,
                -2.2425648910520253,
                -1.2524168314405775,
                -2.8534837308211314,
                -0.3379141865797912,
                -3.0532610879906033
            ]
        },
        {
            "positions": [
                -0.1685321506884469,
                -2.259104182296005,
                -1.1702546126924427,
                -2.9257267776303215,
                -0.15677335626925942,
                -3.0482929696561296
            ]
        }
    ]
}