{
    "goal": {
        "global_pose": {
            "orientation": {
                "w": 0.7031023502349854,
                "x": -0.7110244035720825,
                "y": 0.007748599164187908,
                "z": 0.005598929710686207
            },
            "position": {
                "x": 0.11585023208521307,
                "y": 0.44412534475326537,
                "z": 0.3711530566215515
            }
        },
        "name": "move_to_auspresseinheit_A"
    },
    "id": "LBKPIECE_move_to_auspresseinheit_A_110",
    "joint_names": [
        "shoulder_pan_joint",
        "shoulder_lift_joint",
        "elbow_joint",
        "wrist_1_joint",
        "wrist_2_joint",
        "wrist_3_joint"
    ],
    "metrics": {
        "cart_traj_len": 0.7935599220656818,
        "distance_elbow_joint": 0.4837783933443309,
        "distance_shoulder_lift_joint": 0.5328645337938827,
        "distance_shoulder_pan_joint": 1.048848111297215,
        "distance_wrist_1_joint": 0.9706410912595843,
        "distance_wrist_2_joint": 0.5098433565660372,
        "distance_wrist_3_joint": 0.6972854340592658,
        "smoothness": 0.9044044482372947,
        "time": 0.393091878,
        "traj_len": 2.059917697462769,
        "weighted_distance": 2.6680172856007642
    },
    "planner": "LBKPIECE",
    "start": {
        "state": {
            "elbow_joint": 2.4225746658250005,
            "shoulder_lift_joint": -1.3736534386056498,
            "shoulder_pan_joint": -0.3378633547517467,
            "wrist_1_joint": -1.0288598680537169,
            "wrist_2_joint": 1.233022673432363,
            "wrist_3_joint": -3.0940220416140027
        }
    },
    "waypoints": [
        {
            "positions": [
                -0.3378633547517467,
                -1.3736534386056498,
                2.4225746658250005,
                -1.0288598680537169,
                1.233022673432363,
                -3.0940220416140027
            ]
        },
        {
            "positions": [
                -0.2784358164057402,
                -1.4316880816693218,
                2.390314290916211,
                -0.9323275101115623,
                1.1698190356564484,
                -3.053181044405627
            ]
        },
        {
            "positions": [
                -0.21900827805973366,
                -1.4897227247329938,
                2.3580539160074214,
                -0.8357951521694077,
                1.1066153978805335,
                -3.012340047197251
            ]
        },
        {
            "positions": [
                -0.15958073971372713,
                -1.5477573677966658,
                2.3257935410986317,
                -0.7392627942272532,
                1.043411760104619,
                -2.971499049988875
            ]
        },
        {
            "positions": [
                -0.1001532013677206,
                -1.6057920108603376,
                2.2935331661898424,
                -0.6427304362850985,
                0.9802081223287041,
                -2.9306580527804993
            ]
        },
        {
            "positions": [
                -0.04072566302171404,
                -1.6638266539240099,
                2.261272791281053,
                -0.546198078342944,
                0.9170044845527894,
                -2.8898170555721236
            ]
        },
        {
            "positions": [
                0.01870187532429246,
                -1.7218612969876816,
                2.2290124163722633,
                -0.44966572040078945,
                0.8538008467768747,
                -2.8489760583637476
            ]
        },
        {
            "positions": [
                0.07812941367029896,
                -1.7798959400513537,
                2.1967520414634736,
                -0.3531333624586348,
                0.79059720900096,
                -2.8081350611553715
            ]
        },
        {
            "positions": [
                0.13755695201630555,
                -1.8379305831150257,
                2.1644916665546843,
                -0.25660100451648027,
                0.7273935712250452,
                -2.767294063946996
            ]
        },
        {
            "positions": [
                0.2809139031485962,
                -1.8550774304361524,
                2.220915515073188,
                -0.3061965614470672,
                0.7263400076353654,
                -2.8599334280450606
            ]
        },
        {
            "positions": [
                0.42427085428088684,
                -1.872224277757279,
                2.2773393635916914,
                -0.3557921183776541,
                0.7252864440456855,
                -2.9525727921431253
            ]
        },
        {
            "positions": [
                0.5676278054131776,
                -1.8893711250784058,
                2.3337632121101954,
                -0.405387675308241,
                0.7242328804560056,
                -3.04521215624119
            ]
        },
        {
            "positions": [
                0.7109847565454682,
                -1.9065179723995325,
                2.390187060628699,
                -0.4549832322388279,
                0.7231793168663259,
                -3.1378515203392547
            ]
        }
    ]
}