{
    "goal": {
        "global_pose": {
            "orientation": {
                "w": 0.7031023502349854,
                "x": -0.7110244035720825,
                "y": 0.007748599164187908,
                "z": 0.005598929710686207
            },
            "position": {
                "x": 0.11585023208521307,
                "y": 0.44412534475326537,
                "z": 0.3711530566215515
            }
        },
        "name": "move_to_auspresseinheit_A"
    },
    "id": "LBKPIECE_move_to_auspresseinheit_A_23",
    "joint_names": [
        "shoulder_pan_joint",
        "shoulder_lift_joint",
        "elbow_joint",
        "wrist_1_joint",
        "wrist_2_joint",
        "wrist_3_joint"
    ],
    "metrics": {
        "cart_traj_len": 1.985875703965938,
        "distance_elbow_joint": 3.610569905965707,
        "distance_shoulder_lift_joint": 0.8283884041921024,
        "distance_shoulder_pan_joint": 1.0413448732656505,
        "distance_wrist_1_joint": 4.124936902184785,
        "distance_wrist_2_joint": 4.218876003821429,
        "distance_wrist_3_joint": 4.724891447376029,
        "smoothness": 0.6461044195211821,
        "time": 0.48599989,
        "traj_len": 4.306855876019732,
        "weighted_distance": 6.028482672908993
    },
    "planner": "LBKPIECE",
    "start": {
        "state": {
            "elbow_joint": 2.4225746658250005,
            "shoulder_lift_joint": -1.3736534386056498,
            "shoulder_pan_joint": -0.3378633547517467,
            "wrist_1_joint": -1.0288598680537169,
            "wrist_2_joint": 1.233022673432363,
            "wrist_3_joint": -3.0940220416140027
        }
    },
    "waypoints": [
        {
            "positions": [
                -0.3378633547517467,
                -1.3736534386056498,
                2.4225746658250005,
                -1.0288598680537169,
                1.233022673432363,
                -3.0940220416140027
            ]
        },
        {
            "positions": [
                -0.3357073291469895,
                -1.370541175048984,
                2.3434107046306294,
                -0.9287281008137604,
                1.129684811574985,
                -2.9924358166329705
            ]
        },
        {
            "positions": [
                -0.3335513035422322,
                -1.3674289114923182,
                2.264246743436258,
                -0.828596333573804,
                1.0263469497176068,
                -2.8908495916519383
            ]
        },
        {
            "positions": [
                -0.331395277937475,
                -1.3643166479356523,
                2.185082782241887,
                -0.7284645663338476,
                0.9230090878602286,
                -2.789263366670906
            ]
        },
        {
            "positions": [
                -0.3292392523327177,
                -1.3612043843789865,
                2.1059188210475153,
                -0.6283327990938912,
                0.8196712260028505,
                -2.687677141689874
            ]
        },
        {
            "positions": [
                -0.3270832267279605,
                -1.3580921208223207,
                2.026754859853144,
                -0.5282010318539347,
                0.7163333641454723,
                -2.5860909167088417
            ]
        },
        {
            "positions": [
                -0.3249272011232032,
                -1.3549798572656548,
                1.9475908986587729,
                -0.4280692646139783,
                0.6129955022880942,
                -2.484504691727809
            ]
        },
        {
            "positions": [
                -0.322771175518446,
                -1.351867593708989,
                1.8684269374644016,
                -0.3279374973740218,
                0.509657640430716,
                -2.382918466746777
            ]
        },
        {
            "positions": [
                -0.3206151499136887,
                -1.3487553301523232,
                1.7892629762700305,
                -0.22780573013406547,
                0.4063197785733379,
                -2.2813322417657447
            ]
        },
        {
            "positions": [
                -0.3184591243089315,
                -1.3456430665956574,
                1.7100990150756592,
                -0.12767396289410893,
                0.30298191671595975,
                -2.1797460167847125
            ]
        },
        {
            "positions": [
                -0.3163030987041742,
                -1.3425308030389915,
                1.630935053881288,
                -0.027542195654152613,
                0.1996440548585816,
                -2.0781597918036803
            ]
        },
        {
            "positions": [
                -0.3141470730994169,
                -1.3394185394823257,
                1.5517710926869168,
                0.07258957158580404,
                0.09630619300120347,
                -1.9765735668226478
            ]
        },
        {
            "positions": [
                -0.31199104749465967,
                -1.3363062759256596,
                1.4726071314925453,
                0.17272133882576024,
                -0.007031668856174678,
                -1.8749873418416156
            ]
        },
        {
            "positions": [
                -0.3098350218899024,
                -1.3331940123689938,
                1.3934431702981742,
                0.27285310606571667,
                -0.11036953071355282,
                -1.7734011168605834
            ]
        },
        {
            "positions": [
                -0.30767899628514517,
                -1.330081748812328,
                1.314279209103803,
                0.3729848733056733,
                -0.21370739257093097,
                -1.671814891879551
            ]
        },
        {
            "positions": [
                -0.3055229706803879,
                -1.3269694852556622,
                1.2351152479094316,
                0.47311664054562974,
                -0.3170452544283091,
                -1.5702286668985188
            ]
        },
        {
            "positions": [
                -0.30336694507563067,
                -1.3238572216989963,
                1.1559512867150605,
                0.573248407785586,
                -0.42038311628568725,
                -1.4686424419174866
            ]
        },
        {
            "positions": [
                -0.3012109194708734,
                -1.3207449581423305,
                1.0767873255206892,
                0.6733801750255424,
                -0.5237209781430652,
                -1.3670562169364544
            ]
        },
        {
            "positions": [
                -0.29905489386611617,
                -1.3176326945856647,
                0.9976233643263179,
                0.773511942265499,
                -0.6270588400004435,
                -1.265469991955422
            ]
        },
        {
            "positions": [
                -0.2968988682613589,
                -1.3145204310289988,
                0.9184594031319466,
                0.8736437095054554,
                -0.7303967018578217,
                -1.1638837669743898
            ]
        },
        {
            "positions": [
                -0.29474284265660167,
                -1.311408167472333,
                0.8392954419375755,
                0.9737754767454117,
                -0.8337345637151998,
                -1.0622975419933578
            ]
        },
        {
            "positions": [
                -0.2925868170518444,
                -1.3082959039156672,
                0.7601314807432042,
                1.0739072439853683,
                -0.937072425572578,
                -0.9607113170123256
            ]
        },
        {
            "positions": [
                -0.29043079144708717,
                -1.3051836403590014,
                0.680967519548833,
                1.174039011225325,
                -1.0404102874299561,
                -0.859125092031293
            ]
        },
        {
            "positions": [
                -0.2882747658423299,
                -1.3020713768023355,
                0.6018035583544616,
                1.274170778465281,
                -1.143748149287334,
                -0.7575388670502607
            ]
        },
        {
            "positions": [
                -0.2529198209814696,
                -1.337921493377956,
                0.6888270431437964,
                1.1806816221753442,
                -1.082882377259793,
                -0.8303453634637393
            ]
        },
        {
            "positions": [
                -0.2175648761206092,
                -1.3737716099535764,
                0.7758505279331311,
                1.0871924658854075,
                -1.022016605232252,
                -0.9031518598772179
            ]
        },
        {
            "positions": [
                -0.18220993125974888,
                -1.4096217265291968,
                0.8628740127224659,
                0.9937033095954706,
                -0.961150833204711,
                -0.9759583562906965
            ]
        },
        {
            "positions": [
                -0.14685498639888853,
                -1.4454718431048172,
                0.9498974975118006,
                0.9002141533055339,
                -0.9002850611771699,
                -1.048764852704175
            ]
        },
        {
            "positions": [
                -0.11150004153802817,
                -1.4813219596804377,
                1.0369209823011354,
                0.8067249970155972,
                -0.8394192891496288,
                -1.1215713491176538
            ]
        },
        {
            "positions": [
                -0.07614509667716782,
                -1.5171720762560583,
                1.1239444670904701,
                0.7132358407256604,
                -0.7785535171220879,
                -1.1943778455311322
            ]
        },
        {
            "positions": [
                -0.04079015181630749,
                -1.5530221928316787,
                1.2109679518798049,
                0.6197466844357237,
                -0.7176877450945468,
                -1.267184341944611
            ]
        },
        {
            "positions": [
                -0.005435206955447136,
                -1.5888723094072992,
                1.2979914366691396,
                0.5262575281457869,
                -0.6568219730670057,
                -1.3399908383580894
            ]
        },
        {
            "positions": [
                0.02991973790541319,
                -1.6247224259829196,
                1.3850149214584746,
                0.43276837185585015,
                -0.5959562010394648,
                -1.412797334771568
            ]
        },
        {
            "positions": [
                0.06527468276627357,
                -1.66057254255854,
                1.4720384062478094,
                0.33927921556591334,
                -0.5350904290119237,
                -1.4856038311850468
            ]
        },
        {
            "positions": [
                0.10062962762713396,
                -1.6964226591341605,
                1.5590618910371443,
                0.24579005927597652,
                -0.47422465698438265,
                -1.5584103275985255
            ]
        },
        {
            "positions": [
                0.13598457248799428,
                -1.7322727757097809,
                1.6460853758264788,
                0.15230090298603982,
                -0.4133588849568417,
                -1.6312168240120037
            ]
        },
        {
            "positions": [
                0.17133951734885466,
                -1.7681228922854015,
                1.7331088606158136,
                0.058811746696102896,
                -0.3524931129293005,
                -1.7040233204254824
            ]
        },
        {
            "positions": [
                0.20669446220971494,
                -1.8039730088610217,
                1.8201323454051483,
                -0.034677409593833586,
                -0.29162734090175957,
                -1.7768298168389611
            ]
        },
        {
            "positions": [
                0.24204940707057532,
                -1.8398231254366424,
                1.9071558301944833,
                -0.1281665658837705,
                -0.2307615688742185,
                -1.8496363132524398
            ]
        },
        {
            "positions": [
                0.27740435193143564,
                -1.8756732420122626,
                1.9941793149838178,
                -0.22165572217370721,
                -0.16989579684667755,
                -1.9224428096659183
            ]
        },
        {
            "positions": [
                0.3127592967922961,
                -1.9115233585878832,
                2.081202799773153,
                -0.31514487846364414,
                -0.10903002481913648,
                -1.995249306079397
            ]
        },
        {
            "positions": [
                0.3481142416531563,
                -1.9473734751635035,
                2.1682262845624876,
                -0.4086340347535806,
                -0.04816425279159553,
                -2.0680558024928755
            ]
        },
        {
            "positions": [
                0.38346918651401674,
                -1.983223591739124,
                2.2552497693518223,
                -0.5021231910435175,
                0.012701519235945535,
                -2.140862298906354
            ]
        },
        {
            "positions": [
                0.4368045751806646,
                -1.970614570497124,
                2.277975200601457,
                -0.49452114335068637,
                0.12697743799902045,
                -2.3083764390657198
            ]
        },
        {
            "positions": [
                0.49013996384731245,
                -1.9580055492551243,
                2.3007006318510914,
                -0.4869190956578552,
                0.24125335676209536,
                -2.475890579225085
            ]
        },
        {
            "positions": [
                0.5434753525139604,
                -1.9453965280131245,
                2.323426063100726,
                -0.47931704796502406,
                0.3555292755251703,
                -2.64340471938445
            ]
        },
        {
            "positions": [
                0.5968107411806082,
                -1.9327875067711244,
                2.3461514943503605,
                -0.4717150002721929,
                0.4698051942882452,
                -2.8109188595438157
            ]
        },
        {
            "positions": [
                0.6501461298472562,
                -1.9201784855291244,
                2.368876925599995,
                -0.4641129525793617,
                0.5840811130513202,
                -2.9784329997031813
            ]
        },
        {
            "positions": [
                0.703481518513904,
                -1.9075694642871246,
                2.3916023568496296,
                -0.4565109048865305,
                0.698357031814395,
                -3.1459471398625465
            ]
        }
    ]
}