{
    "goal": {
        "global_pose": {
            "orientation": {
                "w": 0.7047431468963623,
                "x": -0.7094548344612122,
                "y": 0.0024358443915843964,
                "z": -0.0022348060738295317
            },
            "position": {
                "x": 0.6094750761985779,
                "y": 0.3671506643295288,
                "z": 0.19426114857196808
            }
        },
        "name": "move_to_magneteinheit_A"
    },
    "id": "LBKPIECE_move_to_magneteinheit_A_50",
    "joint_names": [
        "shoulder_pan_joint",
        "shoulder_lift_joint",
        "elbow_joint",
        "wrist_1_joint",
        "wrist_2_joint",
        "wrist_3_joint"
    ],
    "metrics": {
        "cart_traj_len": 3.7487145443580276,
        "distance_elbow_joint": 3.876163544110736,
        "distance_shoulder_lift_joint": 0.11218291726207652,
        "distance_shoulder_pan_joint": 3.1036364872676945,
        "distance_wrist_1_joint": 0.8390000596122741,
        "distance_wrist_2_joint": 2.1536467796445224,
        "distance_wrist_3_joint": 3.6943260094197963,
        "smoothness": 0.16364171138334893,
        "time": 0.899029727,
        "traj_len": 3.7120015890779325,
        "weighted_distance": 4.915308195364101
    },
    "planner": "LBKPIECE",
    "start": {
        "state": {
            "elbow_joint": -1.9196185241190666,
            "shoulder_lift_joint": -1.2443396400964142,
            "shoulder_pan_joint": 2.6996025414629847,
            "wrist_1_joint": -1.5485510000780065,
            "wrist_2_joint": -1.5709468930060704,
            "wrist_3_joint": 0.4420197071253992
        }
    },
    "waypoints": [
        {
            "positions": [
                2.6996025414629847,
                -1.2443396400964142,
                -1.9196185241190666,
                -1.5485510000780065,
                -1.5709468930060704,
                0.4420197071253992
            ]
        },
        {
            "positions": [
                2.6016587039990053,
                -1.2431416466153988,
                -1.818443003359155,
                -1.5338190798071618,
                -1.504389788956563,
                0.33875150665442316
            ]
        },
        {
            "positions": [
                2.5037148665350255,
                -1.2419436531343835,
                -1.7172674825992433,
                -1.5190871595363173,
                -1.4378326849070553,
                0.23548330618344718
            ]
        },
        {
            "positions": [
                2.405771029071046,
                -1.240745659653368,
                -1.6160919618393317,
                -1.5043552392654727,
                -1.3712755808575479,
                0.1322151057124712
            ]
        },
        {
            "positions": [
                2.3078271916070667,
                -1.2395476661723526,
                -1.5149164410794198,
                -1.4896233189946282,
                -1.3047184768080404,
                0.02894690524149518
            ]
        },
        {
            "positions": [
                2.209883354143087,
                -1.2383496726913372,
                -1.4137409203195082,
                -1.4748913987237835,
                -1.2381613727585328,
                -0.07432129522948083
            ]
        },
        {
            "positions": [
                2.1119395166791075,
                -1.2371516792103219,
                -1.3125653995595965,
                -1.460159478452939,
                -1.1716042687090253,
                -0.1775894957004568
            ]
        },
        {
            "positions": [
                2.013995679215128,
                -1.2359536857293063,
                -1.2113898787996846,
                -1.4454275581820943,
                -1.1050471646595177,
                -0.28085769617143286
            ]
        },
        {
            "positions": [
                1.9160518417511487,
                -1.234755692248291,
                -1.110214358039773,
                -1.4306956379112499,
                -1.0384900606100103,
                -0.3841258966424088
            ]
        },
        {
            "positions": [
                1.8181080042871691,
                -1.2335576987672756,
                -1.0090388372798613,
                -1.4159637176404052,
                -0.9719329565605027,
                -0.48739409711338477
            ]
        },
        {
            "positions": [
                1.7201641668231895,
                -1.2323597052862603,
                -0.9078633165199497,
                -1.4012317973695607,
                -0.9053758525109952,
                -0.5906622975843608
            ]
        },
        {
            "positions": [
                1.6222203293592101,
                -1.2311617118052447,
                -0.806687795760038,
                -1.386499877098716,
                -0.8388187484614877,
                -0.6939304980553368
            ]
        },
        {
            "positions": [
                1.5242764918952305,
                -1.2299637183242293,
                -0.7055122750001264,
                -1.3717679568278713,
                -0.7722616444119802,
                -0.7971986985263128
            ]
        },
        {
            "positions": [
                1.4263326544312511,
                -1.228765724843214,
                -0.6043367542402145,
                -1.3570360365570269,
                -0.7057045403624727,
                -0.9004668989972887
            ]
        },
        {
            "positions": [
                1.3283888169672715,
                -1.2275677313621987,
                -0.5031612334803028,
                -1.3423041162861822,
                -0.6391474363129651,
                -1.003735099468265
            ]
        },
        {
            "positions": [
                1.230444979503292,
                -1.226369737881183,
                -0.40198571272039096,
                -1.3275721960153377,
                -0.5725903322634576,
                -1.1070032999392407
            ]
        },
        {
            "positions": [
                1.1325011420393125,
                -1.2251717444001677,
                -0.30081019196047953,
                -1.312840275744493,
                -0.5060332282139501,
                -1.210271500410217
            ]
        },
        {
            "positions": [
                1.0345573045753331,
                -1.2239737509191524,
                -0.19963467120056788,
                -1.2981083554736486,
                -0.4394761241644427,
                -1.3135397008811927
            ]
        },
        {
            "positions": [
                0.9366134671113535,
                -1.222775757438137,
                -0.09845915044065601,
                -1.2833764352028039,
                -0.37291902011493505,
                -1.4168079013521688
            ]
        },
        {
            "positions": [
                0.8386696296473741,
                -1.2215777639571215,
                0.0027163703192556454,
                -1.2686445149319594,
                -0.3063619160654276,
                -1.5200761018231446
            ]
        },
        {
            "positions": [
                0.7407257921833943,
                -1.2203797704761061,
                0.1038918910791673,
                -1.2539125946611147,
                -0.23980481201591997,
                -1.6233443022941207
            ]
        },
        {
            "positions": [
                0.6427819547194149,
                -1.2191817769950908,
                0.20506741183907895,
                -1.23918067439027,
                -0.17324770796641253,
                -1.7266125027650965
            ]
        },
        {
            "positions": [
                0.5448381172554355,
                -1.2179837835140754,
                0.3062429325989906,
                -1.2244487541194256,
                -0.1066906039169051,
                -1.8298807032360727
            ]
        },
        {
            "positions": [
                0.4468942797914557,
                -1.2167857900330599,
                0.4074184533589027,
                -1.2097168338485809,
                -0.04013349986739745,
                -1.9331489037070488
            ]
        },
        {
            "positions": [
                0.3489504423274763,
                -1.2155877965520445,
                0.5085939741188139,
                -1.1949849135777364,
                0.026423604182109983,
                -2.0364171041780246
            ]
        },
        {
            "positions": [
                0.2510066048634969,
                -1.2143898030710292,
                0.6097694948787256,
                -1.1802529933068917,
                0.09298070823161741,
                -2.1396853046490003
            ]
        },
        {
            "positions": [
                0.15306276739951752,
                -1.2131918095900138,
                0.7109450156386377,
                -1.1655210730360472,
                0.15953781228112507,
                -2.2429535051199765
            ]
        },
        {
            "positions": [
                0.05511892993553813,
                -1.2119938161089983,
                0.8121205363985493,
                -1.1507891527652025,
                0.2260949163306325,
                -2.3462217055909527
            ]
        },
        {
            "positions": [
                -0.0428249075284417,
                -1.210795822627983,
                0.913296057158461,
                -1.136057232494358,
                0.29265202038014015,
                -2.449489906061929
            ]
        },
        {
            "positions": [
                -0.14076874499242095,
                -1.2095978291469676,
                1.0144715779183728,
                -1.1213253122235134,
                0.3592091244296477,
                -2.5527581065329046
            ]
        },
        {
            "positions": [
                -0.10315943059066549,
                -1.198534813959449,
                1.1490534982145582,
                -1.0625004019724018,
                0.32728187268553266,
                -2.652693563070261
            ]
        },
        {
            "positions": [
                -0.06555011618891003,
                -1.1874717987719305,
                1.2836354185107435,
                -1.0036754917212902,
                0.2953546209414176,
                -2.7526290196076166
            ]
        },
        {
            "positions": [
                -0.02794080178715458,
                -1.176408783584412,
                1.4182173388069286,
                -0.9448505814701786,
                0.2634273691973026,
                -2.852564476144973
            ]
        },
        {
            "positions": [
                0.009668512614600888,
                -1.1653457683968933,
                1.552799259103114,
                -0.8860256712190672,
                0.23150011745318758,
                -2.9524999326823287
            ]
        },
        {
            "positions": [
                0.047277827016356355,
                -1.1542827532093747,
                1.6873811793992992,
                -0.8272007609679555,
                0.19957286570907254,
                -3.052435389219685
            ]
        },
        {
            "positions": [
                0.0848871414181118,
                -1.1432197380218563,
                1.8219630996954845,
                -0.768375850716844,
                0.16764561396495753,
                -3.1523708457570407
            ]
        },
        {
            "positions": [
                0.12249645581986725,
                -1.1321567228343377,
                1.9565450199916699,
                -0.7095509404657324,
                0.1357183622208425,
                -3.252306302294397
            ]
        }
    ]
}