{
    "goal": {
        "global_pose": {
            "orientation": {
                "w": 0.5084816217422485,
                "x": -0.49083608388900757,
                "y": 0.5182115435600281,
                "z": -0.4816462993621826
            },
            "position": {
                "x": 0.5540239810943604,
                "y": 0.030875300988554955,
                "z": 0.16403168439865112
            }
        },
        "name": "move_to_storage_A"
    },
    "id": "LBKPIECE_move_to_storage_A_90",
    "joint_names": [
        "shoulder_pan_joint",
        "shoulder_lift_joint",
        "elbow_joint",
        "wrist_1_joint",
        "wrist_2_joint",
        "wrist_3_joint"
    ],
    "metrics": {
        "cart_traj_len": 0.3525600688979299,
        "distance_elbow_joint": 0.4497348963871597,
        "distance_shoulder_lift_joint": 0.23382539654823087,
        "distance_shoulder_pan_joint": 0.4610559158250806,
        "distance_wrist_1_joint": 0.24544386912459937,
        "distance_wrist_2_joint": 1.0971195929173234,
        "distance_wrist_3_joint": 0.09618254947958782,
        "smoothness": 6.661338146305771e-16,
        "time": 0.297104211,
        "traj_len": 1.607284113118145,
        "weighted_distance": 2.029357233530627
    },
    "planner": "LBKPIECE",
    "start": {
        "state": {
            "elbow_joint": 1.971548259319323,
            "shoulder_lift_joint": -1.1394851275133948,
            "shoulder_pan_joint": 0.1228115487234821,
            "wrist_1_joint": -0.7804723859257726,
            "wrist_2_joint": 0.12958671773740124,
            "wrist_3_joint": -3.192489227718131
        }
    },
    "waypoints": [
        {
            "positions": [
                0.1228115487234821,
                -1.1394851275133948,
                1.971548259319323,
                -0.7804723859257726,
                0.12958671773740124,
                -3.192489227718131
            ]
        },
        {
            "positions": [
                0.05694641789132773,
                -1.1728887555917136,
                2.035796101660346,
                -0.8155357958007153,
                0.2863180881541617,
                -3.1787488635067613
            ]
        },
        {
            "positions": [
                -0.008918712940826634,
                -1.206292383670032,
                2.1000439440013685,
                -0.8505992056756582,
                0.44304945857092215,
                -3.165008499295392
            ]
        },
        {
            "positions": [
                -0.074783843772981,
                -1.2396960117483509,
                2.1642917863423916,
                -0.8856626155506009,
                0.5997808289876827,
                -3.151268135084022
            ]
        },
        {
            "positions": [
                -0.14064897460513537,
                -1.2730996398266696,
                2.2285396286834143,
                -0.9207260254255437,
                0.7565121994044431,
                -3.1375277708726523
            ]
        },
        {
            "positions": [
                -0.20651410543728976,
                -1.3065032679049884,
                2.292787471024437,
                -0.9557894353004864,
                0.9132435698212037,
                -3.1237874066612825
            ]
        },
        {
            "positions": [
                -0.2723792362694441,
                -1.339906895983307,
                2.35703531336546,
                -0.9908528451754293,
                1.0699749402379641,
                -3.110047042449913
            ]
        },
        {
            "positions": [
                -0.3382443671015985,
                -1.3733105240616257,
                2.4212831557064827,
                -1.025916255050372,
                1.2267063106547247,
                -3.0963066782385433
            ]
        }
    ]
}{
    "goal": {
        "global_pose": {
            "orientation": {
                "w": 0.5084816217422485,
                "x": -0.49083608388900757,
                "y": 0.5182115435600281,
                "z": -0.4816462993621826
            },
            "position": {
                "x": 0.5540239810943604,
                "y": 0.030875300988554955,
                "z": 0.16403168439865112
            }
        },
        "name": "move_to_storage_A"
    },
    "id": "LBKPIECE_move_to_storage_A_90",
    "joint_names": [
        "shoulder_pan_joint",
        "shoulder_lift_joint",
        "elbow_joint",
        "wrist_1_joint",
        "wrist_2_joint",
        "wrist_3_joint"
    ],
    "metrics": {
        "cart_traj_len": 0.35367925027655034,
        "distance_elbow_joint": 0.45083656764976965,
        "distance_shoulder_lift_joint": 0.23459718908231508,
        "distance_shoulder_pan_joint": 0.46381365310232253,
        "distance_wrist_1_joint": 0.24210056069126984,
        "distance_wrist_2_joint": 1.0948078766003135,
        "distance_wrist_3_joint": 0.09081861185787288,
        "smoothness": 2.4424906540308274e-15,
        "time": 0.634758136,
        "traj_len": 1.6052957543654887,
        "weighted_distance": 2.023739143267035
    },
    "planner": "LBKPIECE",
    "start": {
        "state": {
            "elbow_joint": 1.97154746011099,
            "shoulder_lift_joint": -1.13948474672311,
            "shoulder_pan_joint": 0.12281154466712228,
            "wrist_1_joint": -0.7804688027058302,
            "wrist_2_joint": 0.12958655903071145,
            "wrist_3_joint": 3.0906928834467795
        }
    },
    "waypoints": [
        {
            "positions": [
                0.12281154466712228,
                -1.13948474672311,
                1.97154746011099,
                -0.7804688027058302,
                0.12958655903071145,
                3.0906928834467795
            ]
        },
        {
            "positions": [
                0.05655245136679049,
                -1.1729986308777265,
                2.035952684060957,
                -0.8150545970902973,
                0.28598768425932763,
                3.103666970855047
            ]
        },
        {
            "positions": [
                -0.009706641933541302,
                -1.2065125150323428,
                2.100357908010924,
                -0.8496403914747644,
                0.4423888094879439,
                3.1166410582633146
            ]
        },
        {
            "positions": [
                -0.07596573523387308,
                -1.2400263991869593,
                2.1647631319608913,
                -0.8842261858592315,
                0.5987899347165601,
                3.129615145671582
            ]
        },
        {
            "positions": [
                -0.14222482853420487,
                -1.2735402833415757,
                2.229168355910858,
                -0.9188119802436987,
                0.7551910599451763,
                3.1425892330798497
            ]
        },
        {
            "positions": [
                -0.20848392183453668,
                -1.3070541674961922,
                2.2935735798608254,
                -0.9533977746281658,
                0.9115921851737926,
                3.1555633204881173
            ]
        },
        {
            "positions": [
                -0.27474301513486843,
                -1.3405680516508085,
                2.3579788038107923,
                -0.9879835690126328,
                1.0679933104024086,
                3.168537407896385
            ]
        },
        {
            "positions": [
                -0.34100210843520024,
                -1.374081935805425,
                2.4223840277607596,
                -1.0225693633971,
                1.224394435631025,
                3.1815114953046524
            ]
        }
    ]
}{
    "goal": {
        "global_pose": {
            "orientation": {
                "w": 0.5084816217422485,
                "x": -0.49083608388900757,
                "y": 0.5182115435600281,
                "z": -0.4816462993621826
            },
            "position": {
                "x": 0.5540239810943604,
                "y": 0.030875300988554955,
                "z": 0.16403168439865112
            }
        },
        "name": "move_to_storage_A"
    },
    "id": "LBKPIECE_move_to_storage_A_90",
    "joint_names": [
        "shoulder_pan_joint",
        "shoulder_lift_joint",
        "elbow_joint",
        "wrist_1_joint",
        "wrist_2_joint",
        "wrist_3_joint"
    ],
    "metrics": {
        "cart_traj_len": 0.35376289805348893,
        "distance_elbow_joint": 0.4486702936842413,
        "distance_shoulder_lift_joint": 0.23425140669479005,
        "distance_shoulder_pan_joint": 0.4639789059746445,
        "distance_wrist_1_joint": 0.23846881606668213,
        "distance_wrist_2_joint": 1.0938208526523547,
        "distance_wrist_3_joint": 0.09725129958203382,
        "smoothness": 8.881784197001252e-16,
        "time": 0.6881275699999999,
        "traj_len": 1.6051297687896597,
        "weighted_distance": 2.0256440562294875
    },
    "planner": "LBKPIECE",
    "start": {
        "state": {
            "elbow_joint": 1.9715472970024885,
            "shoulder_lift_joint": -1.1394870060712896,
            "shoulder_pan_joint": 0.12281152778156021,
            "wrist_1_joint": -0.780463741449964,
            "wrist_2_joint": 0.12958659822042276,
            "wrist_3_joint": 3.090690232415272
        }
    },
    "waypoints": [
        {
            "positions": [
                0.12281152778156021,
                -1.1394870060712896,
                1.9715472970024885,
                -0.780463741449964,
                0.12958659822042276,
                3.090690232415272
            ]
        },
        {
            "positions": [
                0.05652882692803958,
                -1.172951492741974,
                2.0356430532430942,
                -0.8145307151737757,
                0.285846720027902,
                3.1045832752127054
            ]
        },
        {
            "positions": [
                -0.00975387392548105,
                -1.206415979412658,
                2.0997388094837004,
                -0.8485976888975875,
                0.4421068418353813,
                3.1184763180101385
            ]
        },
        {
            "positions": [
                -0.07603657477900166,
                -1.2398804660833425,
                2.163834565724306,
                -0.8826646626213992,
                0.5983669636428605,
                3.132369360807572
            ]
        },
        {
            "positions": [
                -0.1423192756325223,
                -1.2733449527540268,
                2.2279303219649123,
                -0.9167316363452109,
                0.7546270854503397,
                3.1462624036050055
            ]
        },
        {
            "positions": [
                -0.20860197648604298,
                -1.3068094394247112,
                2.292026078205518,
                -0.9507986100690227,
                0.910887207257819,
                3.160155446402439
            ]
        },
        {
            "positions": [
                -0.27488467733956357,
                -1.3402739260953953,
                2.3561218344461237,
                -0.9848655837928344,
                1.0671473290652982,
                3.174048489199872
            ]
        },
        {
            "positions": [
                -0.34116737819308424,
                -1.3737384127660797,
                2.42021759068673,
                -1.0189325575166461,
                1.2234074508727775,
                3.1879415319973057
            ]
        }
    ]
}