{
    "goal": {
        "global_pose": {
            "orientation": {
                "w": -0.4816463035849501,
                "x": 0.5182115481033762,
                "y": 0.4908360881923453,
                "z": -0.5084816262002911
            },
            "position": {
                "x": -0.8240239810943604,
                "y": 0.19912469901144506,
                "z": 0.16403168439865112
            }
        },
        "name": "move_to_storage_D"
    },
    "id": "LBKPIECE_move_to_storage_D_19",
    "joint_names": [
        "shoulder_pan_joint",
        "shoulder_lift_joint",
        "elbow_joint",
        "wrist_1_joint",
        "wrist_2_joint",
        "wrist_3_joint"
    ],
    "metrics": {
        "cart_traj_len": 0.5806477187528946,
        "distance_elbow_joint": 0.5547315287084928,
        "distance_shoulder_lift_joint": 0.15088644362664638,
        "distance_shoulder_pan_joint": 0.5178163248700447,
        "distance_wrist_1_joint": 3.8343616879994467,
        "distance_wrist_2_joint": 1.8970996890610798,
        "distance_wrist_3_joint": 3.1524125297197707,
        "smoothness": 0.13602843122726044,
        "time": 0.678556444,
        "traj_len": 3.1791993023378513,
        "weighted_distance": 4.705698103415215
    },
    "planner": "LBKPIECE",
    "start": {
        "state": {
            "elbow_joint": -2.384821988534728,
            "shoulder_lift_joint": -2.2788054721415256,
            "shoulder_pan_joint": -0.1854694642142757,
            "wrist_1_joint": 1.4845938289331202,
            "wrist_2_joint": 0.17898776772866878,
            "wrist_3_joint": 0.037105688729662994
        }
    },
    "waypoints": [
        {
            "positions": [
                -0.1854694642142757,
                -2.2788054721415256,
                -2.384821988534728,
                1.4845938289331202,
                0.17898776772866878,
                0.037105688729662994
            ]
        },
        {
            "positions": [
                -0.01810135231644397,
                -2.248473040670971,
                -2.3705150451984887,
                1.4880512649087445,
                0.20969070039487037,
                0.1436507743855513
            ]
        },
        {
            "positions": [
                0.1492667595813878,
                -2.218140609200417,
                -2.35620810186225,
                1.4915087008843688,
                0.24039363306107192,
                0.2501958600414396
            ]
        },
        {
            "positions": [
                0.1416384220366219,
                -2.2143813766718528,
                -2.3342865334440823,
                1.332031750215694,
                0.1639063904057104,
                0.372667624975106
            ]
        },
        {
            "positions": [
                0.13401008449185603,
                -2.2106221441432887,
                -2.3123649650259153,
                1.1725547995470191,
                0.08741914775034887,
                0.4951393899087725
            ]
        },
        {
            "positions": [
                0.12638174694709012,
                -2.2068629116147247,
                -2.290443396607748,
                1.013077848878344,
                0.010931905094987343,
                0.6176111548424389
            ]
        },
        {
            "positions": [
                0.11875340940232423,
                -2.2031036790861607,
                -2.2685218281895807,
                0.8536008982096692,
                -0.06555533756037418,
                0.7400829197761053
            ]
        },
        {
            "positions": [
                0.11112507185755835,
                -2.1993444465575966,
                -2.246600259771413,
                0.6941239475409942,
                -0.14204258021573574,
                0.8625546847097718
            ]
        },
        {
            "positions": [
                0.10349673431279245,
                -2.195585214029032,
                -2.224678691353246,
                0.5346469968723193,
                -0.21852982287109723,
                0.9850264496434382
            ]
        },
        {
            "positions": [
                0.09586839676802655,
                -2.191825981500468,
                -2.202757122935079,
                0.37517004620364425,
                -0.29501706552645884,
                1.1074982145771046
            ]
        },
        {
            "positions": [
                0.08824005922326067,
                -2.188066748971904,
                -2.1808355545169116,
                0.21569309553496963,
                -0.3715043081818203,
                1.229969979510771
            ]
        },
        {
            "positions": [
                0.08061172167849479,
                -2.18430751644334,
                -2.158913986098744,
                0.05621614486629456,
                -0.44799155083718184,
                1.3524417444444374
            ]
        },
        {
            "positions": [
                0.07298338413372889,
                -2.180548283914776,
                -2.136992417680577,
                -0.1032608058023805,
                -0.5244787934925434,
                1.4749135093781038
            ]
        },
        {
            "positions": [
                0.065355046588963,
                -2.176789051386212,
                -2.11507084926241,
                -0.26273775647105513,
                -0.6009660361479048,
                1.5973852743117702
            ]
        },
        {
            "positions": [
                0.057726709044197105,
                -2.173029818857648,
                -2.0931492808442425,
                -0.4222147071397302,
                -0.6774532788032663,
                1.7198570392454366
            ]
        },
        {
            "positions": [
                0.05009837149943122,
                -2.169270586329084,
                -2.071227712426075,
                -0.5816916578084048,
                -0.7539405214586279,
                1.842328804179103
            ]
        },
        {
            "positions": [
                0.04247003395466532,
                -2.16551135380052,
                -2.049306144007908,
                -0.7411686084770803,
                -0.8304277641139897,
                1.9648005691127697
            ]
        },
        {
            "positions": [
                0.034841696409899425,
                -2.161752121271956,
                -2.027384575589741,
                -0.900645559145755,
                -0.906915006769351,
                2.087272334046436
            ]
        },
        {
            "positions": [
                0.02721335886513354,
                -2.157992888743392,
                -2.0054630071715733,
                -1.0601225098144296,
                -0.9834022494247125,
                2.2097440989801025
            ]
        },
        {
            "positions": [
                0.019585021320367657,
                -2.154233656214828,
                -1.983541438753406,
                -1.219599460483105,
                -1.059889492080074,
                2.3322158639137687
            ]
        },
        {
            "positions": [
                0.011956683775601773,
                -2.150474423686264,
                -1.9616198703352388,
                -1.3790764111517797,
                -1.1363767347354357,
                2.4546876288474353
            ]
        },
        {
            "positions": [
                0.004328346230835861,
                -2.1467151911576994,
                -1.9396983019170715,
                -1.5385533618204543,
                -1.212863977390797,
                2.5771593937811015
            ]
        },
        {
            "positions": [
                -0.003299991313930023,
                -2.1429559586291353,
                -1.9177767334989042,
                -1.6980303124891298,
                -1.2893512200461588,
                2.699631158714768
            ]
        },
        {
            "positions": [
                -0.010928328858695907,
                -2.1391967261005713,
                -1.895855165080737,
                -1.8575072631578045,
                -1.36583846270152,
                2.8221029236484343
            ]
        },
        {
            "positions": [
                -0.01855666640346179,
                -2.1354374935720073,
                -1.8739335966625696,
                -2.016984213826479,
                -1.4423257053568816,
                2.944574688582101
            ]
        },
        {
            "positions": [
                -0.026185003948227703,
                -2.1316782610434433,
                -1.8520120282444024,
                -2.1764611644951546,
                -1.5188129480122432,
                3.0670464535157675
            ]
        },
        {
            "positions": [
                -0.03381334149299359,
                -2.1279190285148792,
                -1.830090459826235,
                -2.335938115163829,
                -1.5953001906676048,
                3.1895182184494337
            ]
        }
    ]
}