{
    "goal": {
        "global_pose": {
            "orientation": {
                "w": 0.7031023480610252,
                "x": -0.7110244013736278,
                "y": 0.0077485991402295624,
                "z": 0.005598929693374583
            },
            "position": {
                "x": -0.8841497679147869,
                "y": 0.44412534475326537,
                "z": 0.3711530566215515
            }
        },
        "name": "move_to_auspresseinheit_D"
    },
    "id": "LBKPIECE_move_to_auspresseinheit_D_38",
    "joint_names": [
        "shoulder_pan_joint",
        "shoulder_lift_joint",
        "elbow_joint",
        "wrist_1_joint",
        "wrist_2_joint",
        "wrist_3_joint"
    ],
    "metrics": {
        "cart_traj_len": 0.34318961092592165,
        "distance_elbow_joint": 0.6509604839506944,
        "distance_shoulder_lift_joint": 0.12850380867694877,
        "distance_shoulder_pan_joint": 0.13280392188876625,
        "distance_wrist_1_joint": 0.5662723027566261,
        "distance_wrist_2_joint": 1.4504372684008258,
        "distance_wrist_3_joint": 0.03301292130404221,
        "smoothness": 1.9737298371844314e-16,
        "time": 0.33045060000000004,
        "traj_len": 1.721043493633413,
        "weighted_distance": 2.2460467761699534
    },
    "planner": "LBKPIECE",
    "start": {
        "state": {
            "elbow_joint": -1.8275523626775212,
            "shoulder_lift_joint": -2.126789852344167,
            "shoulder_pan_joint": -0.03513704404078235,
            "wrist_1_joint": -2.347782403156801,
            "wrist_2_joint": -1.6058999987535132,
            "wrist_3_joint": -3.0880379163319196
        }
    },
    "waypoints": [
        {
            "positions": [
                -0.03513704404078235,
                -2.126789852344167,
                -1.8275523626775212,
                -2.347782403156801,
                -1.6058999987535132,
                -3.0880379163319196
            ]
        },
        {
            "positions": [
                -0.05173753427687813,
                -2.1428528284287855,
                -1.7461823021836844,
                -2.418566441001379,
                -1.42459534020341,
                -3.0839113011689143
            ]
        },
        {
            "positions": [
                -0.06833802451297391,
                -2.158915804513404,
                -1.6648122416898476,
                -2.4893504788459575,
                -1.2432906816533067,
                -3.079784686005909
            ]
        },
        {
            "positions": [
                -0.08493851474906969,
                -2.1749787805980225,
                -1.5834421811960109,
                -2.560134516690536,
                -1.0619860231032034,
                -3.0756580708429038
            ]
        },
        {
            "positions": [
                -0.10153900498516547,
                -2.1910417566826412,
                -1.502072120702174,
                -2.630918554535114,
                -0.8806813645531003,
                -3.0715314556798985
            ]
        },
        {
            "positions": [
                -0.11813949522126124,
                -2.20710473276726,
                -1.4207020602083373,
                -2.701702592379692,
                -0.6993767060029971,
                -3.067404840516893
            ]
        },
        {
            "positions": [
                -0.13473998545735705,
                -2.2231677088518786,
                -1.3393319997145003,
                -2.7724866302242703,
                -0.5180720474528939,
                -3.063278225353888
            ]
        },
        {
            "positions": [
                -0.15134047569345283,
                -2.239230684936497,
                -1.2579619392206636,
                -2.8432706680688487,
                -0.3367673889027907,
                -3.0591516101908827
            ]
        },
        {
            "positions": [
                -0.1679409659295486,
                -2.2552936610211156,
                -1.1765918787268268,
                -2.914054705913427,
                -0.1554627303526874,
                -3.0550249950278774
            ]
        }
    ]
}