{
    "goal": {
        "global_pose": {
            "orientation": {
                "w": 0.005598929693374612,
                "x": 0.007748599140229565,
                "y": 0.7110244013736278,
                "z": -0.7031023480610252
            },
            "position": {
                "x": 0.1141497679147869,
                "y": -0.7141253447532654,
                "z": 0.3711530566215515
            }
        },
        "name": "move_to_auspresseinheit_B"
    },
    "id": "LBKPIECE_move_to_auspresseinheit_B_25",
    "joint_names": [
        "shoulder_pan_joint",
        "shoulder_lift_joint",
        "elbow_joint",
        "wrist_1_joint",
        "wrist_2_joint",
        "wrist_3_joint"
    ],
    "metrics": {
        "cart_traj_len": 0.565258148980992,
        "distance_elbow_joint": 0.0656205812526438,
        "distance_shoulder_lift_joint": 0.2936748237733833,
        "distance_shoulder_pan_joint": 0.578900304148875,
        "distance_wrist_1_joint": 0.33577110501818064,
        "distance_wrist_2_joint": 0.9856483694766098,
        "distance_wrist_3_joint": 0.0007711640187992863,
        "smoothness": 0.0,
        "time": 0.5711489630000001,
        "traj_len": 1.5034581296758789,
        "weighted_distance": 1.8929733622586666
    },
    "planner": "LBKPIECE",
    "start": {
        "state": {
            "elbow_joint": 2.0193083361928714,
            "shoulder_lift_joint": -1.1220246554650708,
            "shoulder_pan_joint": -1.0952077554168747,
            "wrist_1_joint": -0.8559753972642168,
            "wrist_2_joint": 0.4759566250798843,
            "wrist_3_joint": -3.1240929996934557
        }
    },
    "waypoints": [
        {
            "positions": [
                -1.0952077554168747,
                -1.1220246554650708,
                2.0193083361928714,
                -0.8559753972642168,
                0.4759566250798843,
                -3.1240929996934557
            ]
        },
        {
            "positions": [
                -1.1916911394416871,
                -1.1709704594273014,
                2.008371572650764,
                -0.8000135464278534,
                0.6402313533259859,
                -3.123964472356989
            ]
        },
        {
            "positions": [
                -1.2881745234664996,
                -1.219916263389532,
                1.997434809108657,
                -0.7440516955914899,
                0.8045060815720875,
                -3.1238359450205224
            ]
        },
        {
            "positions": [
                -1.3846579074913121,
                -1.2688620673517623,
                1.9864980455665495,
                -0.6880898447551265,
                0.9687808098181891,
                -3.123707417684056
            ]
        },
        {
            "positions": [
                -1.4811412915161246,
                -1.317807871313993,
                1.9755612820244421,
                -0.6321279939187631,
                1.1330555380642908,
                -3.1235788903475896
            ]
        },
        {
            "positions": [
                -1.577624675540937,
                -1.3667536752762235,
                1.964624518482335,
                -0.5761661430823996,
                1.2973302663103925,
                -3.123450363011123
            ]
        },
        {
            "positions": [
                -1.6741080595657496,
                -1.415699479238454,
                1.9536877549402276,
                -0.5202042922460361,
                1.4616049945564942,
                -3.1233218356746564
            ]
        }
    ]
}