{
    "goal": {
        "global_pose": {
            "orientation": {
                "w": -0.4816463035849501,
                "x": 0.5182115481033762,
                "y": 0.4908360881923453,
                "z": -0.5084816262002911
            },
            "position": {
                "x": -0.8240239810943604,
                "y": 0.19912469901144506,
                "z": 0.16403168439865112
            }
        },
        "name": "move_to_storage_D"
    },
    "id": "LBKPIECE_move_to_storage_D_5",
    "joint_names": [
        "shoulder_pan_joint",
        "shoulder_lift_joint",
        "elbow_joint",
        "wrist_1_joint",
        "wrist_2_joint",
        "wrist_3_joint"
    ],
    "metrics": {
        "cart_traj_len": 3.8449728048579215,
        "distance_elbow_joint": 4.210971770312218,
        "distance_shoulder_lift_joint": 1.2650520090170578,
        "distance_shoulder_pan_joint": 2.814088096591468,
        "distance_wrist_1_joint": 2.2693555024933927,
        "distance_wrist_2_joint": 0.8792920187468675,
        "distance_wrist_3_joint": 3.134706499548534,
        "smoothness": 0.00015130591516062322,
        "time": 0.283263345,
        "traj_len": 3.817520909793362,
        "weighted_distance": 4.898114577778563
    },
    "planner": "LBKPIECE",
    "start": {
        "state": {
            "elbow_joint": -2.384821988534728,
            "shoulder_lift_joint": -2.2788054721415256,
            "shoulder_pan_joint": -0.1854694642142757,
            "wrist_1_joint": 1.4845938289331202,
            "wrist_2_joint": 0.17898776772866878,
            "wrist_3_joint": 0.037105688729662994
        }
    },
    "waypoints": [
        {
            "positions": [
                -0.1854694642142757,
                -2.2788054721415256,
                -2.384821988534728,
                1.4845938289331202,
                0.17898776772866878,
                0.037105688729662994
            ]
        },
        {
            "positions": [
                -0.091957750137424,
                -2.2336502896576262,
                -2.2763325054570553,
                1.4277290513991632,
                0.20877999650371842,
                -0.012768251116664325
            ]
        },
        {
            "positions": [
                0.0015539639394277216,
                -2.188495107173727,
                -2.1678430223793828,
                1.3708642738652064,
                0.2385722252787681,
                -0.06264219096299165
            ]
        },
        {
            "positions": [
                0.09506567801627944,
                -2.1433399246898275,
                -2.05935353930171,
                1.3139994963312494,
                0.2683644540538177,
                -0.11251613080931896
            ]
        },
        {
            "positions": [
                0.18857739209313115,
                -2.098184742205928,
                -1.9508640562240376,
                1.2571347187972925,
                0.29815668282886737,
                -0.16239007065564628
            ]
        },
        {
            "positions": [
                0.28208910616998295,
                -2.0530295597220287,
                -1.842374573146365,
                1.2002699412633355,
                0.32794891160391704,
                -0.2122640105019736
            ]
        },
        {
            "positions": [
                0.3756008202468346,
                -2.0078743772381293,
                -1.7338850900686924,
                1.1434051637293787,
                0.35774114037896665,
                -0.2621379503483009
            ]
        },
        {
            "positions": [
                0.4691125343236864,
                -1.9627191947542297,
                -1.6253956069910198,
                1.0865403861954217,
                0.3875333691540163,
                -0.31201189019462827
            ]
        },
        {
            "positions": [
                0.562624248400538,
                -1.9175640122703304,
                -1.5169061239133474,
                1.029675608661465,
                0.417325597929066,
                -0.36188583004095554
            ]
        },
        {
            "positions": [
                0.6561359624773899,
                -1.872408829786431,
                -1.4084166408356746,
                0.9728108311275079,
                0.4471178267041156,
                -0.4117597698872829
            ]
        },
        {
            "positions": [
                0.7496476765542416,
                -1.8272536473025316,
                -1.2999271577580023,
                0.915946053593551,
                0.4769100554791653,
                -0.4616337097336102
            ]
        },
        {
            "positions": [
                0.8431593906310934,
                -1.7820984648186322,
                -1.1914376746803297,
                0.8590812760595941,
                0.5067022842542149,
                -0.5115076495799374
            ]
        },
        {
            "positions": [
                0.9366711047079449,
                -1.7369432823347328,
                -1.082948191602657,
                0.8022164985256371,
                0.5364945130292645,
                -0.5613815894262648
            ]
        },
        {
            "positions": [
                1.0301828187847966,
                -1.6917880998508332,
                -0.9744587085249845,
                0.7453517209916802,
                0.5662867418043143,
                -0.6112555292725922
            ]
        },
        {
            "positions": [
                1.1236945328616483,
                -1.6466329173669338,
                -0.8659692254473119,
                0.6884869434577233,
                0.5960789705793639,
                -0.6611294691189195
            ]
        },
        {
            "positions": [
                1.2172062469385,
                -1.6014777348830345,
                -0.7574797423696393,
                0.6316221659237664,
                0.6258711993544135,
                -0.7110034089652467
            ]
        },
        {
            "positions": [
                1.3107179610153517,
                -1.556322552399135,
                -0.648990259291967,
                0.5747573883898095,
                0.6556634281294631,
                -0.7608773488115741
            ]
        },
        {
            "positions": [
                1.4042296750922034,
                -1.5111673699152357,
                -0.5405007762142944,
                0.5178926108558526,
                0.6854556569045127,
                -0.8107512886579014
            ]
        },
        {
            "positions": [
                1.4977413891690554,
                -1.4660121874313363,
                -0.43201129313662157,
                0.46102783332189556,
                0.7152478856795624,
                -0.8606252285042288
            ]
        },
        {
            "positions": [
                1.591253103245907,
                -1.420857004947437,
                -0.32352181005894876,
                0.40416305578793876,
                0.745040114454612,
                -0.9104991683505561
            ]
        },
        {
            "positions": [
                1.6847648173227587,
                -1.3757018224635376,
                -0.2150323269812766,
                0.34729827825398174,
                0.7748323432296618,
                -0.9603731081968834
            ]
        },
        {
            "positions": [
                1.7782765313996105,
                -1.3305466399796382,
                -0.10654284390360402,
                0.29043350072002494,
                0.8046245720047114,
                -1.0102470480432106
            ]
        },
        {
            "positions": [
                1.8717882454764623,
                -1.2853914574957388,
                0.0019466391740685651,
                0.23356872318606792,
                0.834416800779761,
                -1.060120987889538
            ]
        },
        {
            "positions": [
                1.9652999595533136,
                -1.2402362750118394,
                0.11043612225174115,
                0.17670394565211112,
                0.8642090295548106,
                -1.1099949277358654
            ]
        },
        {
            "positions": [
                2.0588116736301654,
                -1.19508109252794,
                0.21892560532941374,
                0.1198391681181541,
                0.8940012583298602,
                -1.1598688675821927
            ]
        },
        {
            "positions": [
                2.1523233877070176,
                -1.1499259100440404,
                0.32741508840708633,
                0.06297439058419707,
                0.9237934871049099,
                -1.2097428074285201
            ]
        },
        {
            "positions": [
                2.245835101783869,
                -1.104770727560141,
                0.4359045714847589,
                0.00610961305024027,
                0.9535857158799597,
                -1.2596167472748474
            ]
        },
        {
            "positions": [
                2.3393468158607207,
                -1.0596155450762417,
                0.5443940545624315,
                -0.05075516448371675,
                0.9833779446550093,
                -1.3094906871211747
            ]
        },
        {
            "positions": [
                2.4328585299375725,
                -1.0144603625923423,
                0.652883537640104,
                -0.10761994201767361,
                1.0131701734300589,
                -1.359364626967502
            ]
        },
        {
            "positions": [
                2.4524345401815344,
                -1.0145310525391298,
                0.7702101620538426,
                -0.1753341151719336,
                1.0176811347346066,
                -1.5331882453526389
            ]
        },
        {
            "positions": [
                2.4720105504254963,
                -1.0146017424859173,
                0.8875367864675812,
                -0.24304828832619355,
                1.0221920960391544,
                -1.7070118637377758
            ]
        },
        {
            "positions": [
                2.4915865606694583,
                -1.0146724324327046,
                1.0048634108813197,
                -0.3107624614804535,
                1.0267030573437022,
                -1.8808354821229125
            ]
        },
        {
            "positions": [
                2.51116257091342,
                -1.014743122379492,
                1.1221900352950582,
                -0.3784766346347135,
                1.03121401864825,
                -2.05465910050805
            ]
        },
        {
            "positions": [
                2.530738581157382,
                -1.0148138123262795,
                1.239516659708797,
                -0.4461908077889734,
                1.0357249799527977,
                -2.2284827188931864
            ]
        },
        {
            "positions": [
                2.5503145914013445,
                -1.014884502273067,
                1.3568432841225353,
                -0.5139049809432333,
                1.0402359412573452,
                -2.4023063372783233
            ]
        },
        {
            "positions": [
                2.5698906016453065,
                -1.0149551922198545,
                1.474169908536274,
                -0.5816191540974933,
                1.044746902561893,
                -2.5761299556634603
            ]
        },
        {
            "positions": [
                2.5894666118892684,
                -1.0150258821666418,
                1.5914965329500128,
                -0.6493333272517534,
                1.0492578638664407,
                -2.7499535740485976
            ]
        },
        {
            "positions": [
                2.6090426221332303,
                -1.0150965721134293,
                1.7088231573637511,
                -0.7170475004060133,
                1.0537688251709885,
                -2.923777192433734
            ]
        },
        {
            "positions": [
                2.6286186323771923,
                -1.0151672620602168,
                1.8261497817774897,
                -0.7847616735602732,
                1.0582797864755362,
                -3.097600810818871
            ]
        }
    ]
}