{
    "goal": {
        "global_pose": {
            "orientation": {
                "w": 0.005598929693374612,
                "x": 0.007748599140229565,
                "y": 0.7110244013736278,
                "z": -0.7031023480610252
            },
            "position": {
                "x": 0.1141497679147869,
                "y": -0.7141253447532654,
                "z": 0.3711530566215515
            }
        },
        "name": "move_to_auspresseinheit_B"
    },
    "id": "LBKPIECE_move_to_auspresseinheit_B_138",
    "joint_names": [
        "shoulder_pan_joint",
        "shoulder_lift_joint",
        "elbow_joint",
        "wrist_1_joint",
        "wrist_2_joint",
        "wrist_3_joint"
    ],
    "metrics": {
        "cart_traj_len": 0.5644462662638067,
        "distance_elbow_joint": 0.06333771098680163,
        "distance_shoulder_lift_joint": 0.29451863502530373,
        "distance_shoulder_pan_joint": 0.5774322730717352,
        "distance_wrist_1_joint": 0.33130413547282,
        "distance_wrist_2_joint": 0.9910236506538264,
        "distance_wrist_3_joint": 0.00867641387914242,
        "smoothness": 0.0,
        "time": 0.136674248,
        "traj_len": 1.505421143431176,
        "weighted_distance": 1.898940081459802
    },
    "planner": "LBKPIECE",
    "start": {
        "state": {
            "elbow_joint": 2.0193083361928714,
            "shoulder_lift_joint": -1.1220246554650708,
            "shoulder_pan_joint": -1.0952077554168747,
            "wrist_1_joint": -0.8559753972642168,
            "wrist_2_joint": 0.4759566250798843,
            "wrist_3_joint": -3.1240929996934557
        }
    },
    "waypoints": [
        {
            "positions": [
                -1.0952077554168747,
                -1.1220246554650708,
                2.0193083361928714,
                -0.8559753972642168,
                0.4759566250798843,
                -3.1240929996934557
            ]
        },
        {
            "positions": [
                -1.1914464675954972,
                -1.1711110946359549,
                2.0087520510284045,
                -0.8007580413520801,
                0.6411272335221887,
                -3.1226469307135987
            ]
        },
        {
            "positions": [
                -1.2876851797741198,
                -1.2201975338068387,
                1.9981957658639375,
                -0.7455406854399435,
                0.8062978419644931,
                -3.1212008617337417
            ]
        },
        {
            "positions": [
                -1.3839238919527421,
                -1.2692839729777226,
                1.9876394806994706,
                -0.6903233295278068,
                0.9714684504067974,
                -3.1197547927538842
            ]
        },
        {
            "positions": [
                -1.4801626041313647,
                -1.3183704121486066,
                1.9770831955350037,
                -0.6351059736156701,
                1.1366390588491018,
                -3.1183087237740272
            ]
        },
        {
            "positions": [
                -1.5764013163099873,
                -1.3674568513194907,
                1.9665269103705367,
                -0.5798886177035334,
                1.3018096672914063,
                -3.1168626547941702
            ]
        },
        {
            "positions": [
                -1.6726400284886098,
                -1.4165432904903745,
                1.9559706252060698,
                -0.5246712617913968,
                1.4669802757337107,
                -3.1154165858143132
            ]
        }
    ]
}