{
    "goal": {
        "global_pose": {
            "orientation": {
                "w": 0.7031023480610252,
                "x": -0.7110244013736278,
                "y": 0.0077485991402295624,
                "z": 0.005598929693374583
            },
            "position": {
                "x": -0.8841497679147869,
                "y": 0.44412534475326537,
                "z": 0.3711530566215515
            }
        },
        "name": "move_to_auspresseinheit_D"
    },
    "id": "LBKPIECE_move_to_auspresseinheit_D_4",
    "joint_names": [
        "shoulder_pan_joint",
        "shoulder_lift_joint",
        "elbow_joint",
        "wrist_1_joint",
        "wrist_2_joint",
        "wrist_3_joint"
    ],
    "metrics": {
        "cart_traj_len": 0.34294145815573346,
        "distance_elbow_joint": 0.6329349140818008,
        "distance_shoulder_lift_joint": 0.11771642213202105,
        "distance_shoulder_pan_joint": 0.13360865026198004,
        "distance_wrist_1_joint": 0.517204764530768,
        "distance_wrist_2_joint": 1.4352354205116566,
        "distance_wrist_3_joint": 0.01408384572441479,
        "smoothness": 0.0,
        "time": 0.665368729,
        "traj_len": 1.688426491512924,
        "weighted_distance": 2.1980427415621144
    },
    "planner": "LBKPIECE",
    "start": {
        "state": {
            "elbow_joint": -1.8275523626775212,
            "shoulder_lift_joint": -2.126789852344167,
            "shoulder_pan_joint": -0.03513704404078235,
            "wrist_1_joint": -2.347782403156801,
            "wrist_2_joint": -1.6058999987535132,
            "wrist_3_joint": -3.0880379163319196
        }
    },
    "waypoints": [
        {
            "positions": [
                -0.03513704404078235,
                -2.126789852344167,
                -1.8275523626775212,
                -2.347782403156801,
                -1.6058999987535132,
                -3.0880379163319196
            ]
        },
        {
            "positions": [
                -0.051838125323529854,
                -2.1415044051106693,
                -1.748435498417296,
                -2.4124329987231468,
                -1.4264955711895562,
                -3.0897983970474714
            ]
        },
        {
            "positions": [
                -0.06853920660627735,
                -2.156218957877172,
                -1.669318634157071,
                -2.4770835942894927,
                -1.2470911436255991,
                -3.091558877763023
            ]
        },
        {
            "positions": [
                -0.08524028788902487,
                -2.1709335106436747,
                -1.5902017698968458,
                -2.541734189855839,
                -1.067686716061642,
                -3.093319358478575
            ]
        },
        {
            "positions": [
                -0.10194136917177238,
                -2.185648063410177,
                -1.5110849056366207,
                -2.606384785422185,
                -0.8882822884976849,
                -3.0950798391941268
            ]
        },
        {
            "positions": [
                -0.11864245045451988,
                -2.20036261617668,
                -1.4319680413763956,
                -2.6710353809885308,
                -0.7088778609337278,
                -3.096840319909679
            ]
        },
        {
            "positions": [
                -0.13534353173726738,
                -2.2150771689431825,
                -1.3528511771161706,
                -2.735685976554877,
                -0.5294734333697706,
                -3.098600800625231
            ]
        },
        {
            "positions": [
                -0.1520446130200149,
                -2.2297917217096854,
                -1.2737343128559455,
                -2.800336572121223,
                -0.35006900580581357,
                -3.1003612813407826
            ]
        },
        {
            "positions": [
                -0.1687456943027624,
                -2.244506274476188,
                -1.1946174485957204,
                -2.864987167687569,
                -0.17066457824185652,
                -3.1021217620563344
            ]
        }
    ]
}