{
    "goal": {
        "global_pose": {
            "orientation": {
                "w": -0.4816463035849501,
                "x": 0.5182115481033762,
                "y": 0.4908360881923453,
                "z": -0.5084816262002911
            },
            "position": {
                "x": -0.8240239810943604,
                "y": -0.300875300988555,
                "z": 0.16403168439865112
            }
        },
        "name": "move_to_storage_C"
    },
    "id": "LBKPIECE_move_to_storage_C_42",
    "joint_names": [
        "shoulder_pan_joint",
        "shoulder_lift_joint",
        "elbow_joint",
        "wrist_1_joint",
        "wrist_2_joint",
        "wrist_3_joint"
    ],
    "metrics": {
        "cart_traj_len": 0.5764643690367919,
        "distance_elbow_joint": 0.258544379951148,
        "distance_shoulder_lift_joint": 0.1888355395666802,
        "distance_shoulder_pan_joint": 0.4963520877792842,
        "distance_wrist_1_joint": 0.08702292563840575,
        "distance_wrist_2_joint": 1.0573248325827667,
        "distance_wrist_3_joint": 0.06747866530613456,
        "smoothness": 2.5376526478085547e-16,
        "time": 0.542071846,
        "traj_len": 1.468182015563608,
        "weighted_distance": 1.8533384795168584
    },
    "planner": "LBKPIECE",
    "start": {
        "state": {
            "elbow_joint": 2.010868314990456,
            "shoulder_lift_joint": -1.1634956873337592,
            "shoulder_pan_joint": -2.4736205022346125,
            "wrist_1_joint": -0.8367026794202681,
            "wrist_2_joint": 0.6746043897044499,
            "wrist_3_joint": -3.1496632123970403
        }
    },
    "waypoints": [
        {
            "positions": [
                -2.4736205022346125,
                -1.1634956873337592,
                2.010868314990456,
                -0.8367026794202681,
                0.6746043897044499,
                -3.1496632123970403
            ]
        },
        {
            "positions": [
                -2.5563458501978267,
                -1.132023097405979,
                1.967777584998598,
                -0.8221988584805338,
                0.8508251951349111,
                -3.138416768179351
            ]
        },
        {
            "positions": [
                -2.6390711981610404,
                -1.1005505074781992,
                1.9246868550067397,
                -0.8076950375407995,
                1.027046000565372,
                -3.127170323961662
            ]
        },
        {
            "positions": [
                -2.7217965461242546,
                -1.069077917550419,
                1.8815961250148818,
                -0.7931912166010653,
                1.2032668059958334,
                -3.1159238797439732
            ]
        },
        {
            "positions": [
                -2.8045218940874688,
                -1.0376053276226391,
                1.838505395023024,
                -0.7786873956613309,
                1.3794876114262942,
                -3.104677435526284
            ]
        },
        {
            "positions": [
                -2.8872472420506825,
                -1.006132737694859,
                1.7954146650311658,
                -0.7641835747215966,
                1.5557084168567554,
                -3.093430991308595
            ]
        },
        {
            "positions": [
                -2.9699725900138967,
                -0.974660147767079,
                1.7523239350393078,
                -0.7496797537818624,
                1.7319292222872165,
                -3.0821845470909057
            ]
        }
    ]
}