{
    "goal": {
        "global_pose": {
            "orientation": {
                "w": -0.00223480608172531,
                "x": 0.0024358444001904467,
                "y": 0.7094548369677653,
                "z": -0.704743149386269
            },
            "position": {
                "x": 0.6205249238014221,
                "y": -0.6371506643295288,
                "z": 0.19426114857196808
            }
        },
        "name": "move_to_magneteinheit_B"
    },
    "id": "LBKPIECE_move_to_magneteinheit_B_33",
    "joint_names": [
        "shoulder_pan_joint",
        "shoulder_lift_joint",
        "elbow_joint",
        "wrist_1_joint",
        "wrist_2_joint",
        "wrist_3_joint"
    ],
    "metrics": {
        "cart_traj_len": 1.6885685099956091,
        "distance_elbow_joint": 0.9576849163790875,
        "distance_shoulder_lift_joint": 0.7578386697654456,
        "distance_shoulder_pan_joint": 1.620268298378198,
        "distance_wrist_1_joint": 0.8438862606864128,
        "distance_wrist_2_joint": 1.5231100059442564,
        "distance_wrist_3_joint": 0.7241404833062474,
        "smoothness": 0.4515339650064781,
        "time": 0.498550542,
        "traj_len": 2.5351387801182894,
        "weighted_distance": 3.20034464826881
    },
    "planner": "LBKPIECE",
    "start": {
        "state": {
            "elbow_joint": 2.6216224122426386,
            "shoulder_lift_joint": -1.4174107377796124,
            "shoulder_pan_joint": 0.7066234856936794,
            "wrist_1_joint": 1.9546482284002225,
            "wrist_2_joint": -0.7096286983471962,
            "wrist_3_joint": 0.005740856962016249
        }
    },
    "waypoints": [
        {
            "positions": [
                0.7066234856936794,
                -1.4174107377796124,
                2.6216224122426386,
                1.9546482284002225,
                -0.7096286983471962,
                0.005740856962016249
            ]
        },
        {
            "positions": [
                0.5792611501259142,
                -1.4064589084779247,
                2.5564181026137995,
                1.9083824000101428,
                -0.7332249282898442,
                0.02464723347968712
            ]
        },
        {
            "positions": [
                0.45189881455814895,
                -1.395507079176237,
                2.4912137929849605,
                1.8621165716200632,
                -0.7568211582324922,
                0.043553609997357995
            ]
        },
        {
            "positions": [
                0.3229940340056213,
                -1.3801051668947324,
                2.3776000797825985,
                1.8280827185414252,
                -0.7984027635407698,
                -0.008776495720888573
            ]
        },
        {
            "positions": [
                0.19408925345309364,
                -1.3647032546132276,
                2.263986366580236,
                1.7940488654627875,
                -0.8399843688490473,
                -0.06110660143913514
            ]
        },
        {
            "positions": [
                0.06518447290056595,
                -1.349301342331723,
                2.150372653377874,
                1.7600150123841496,
                -0.8815659741573248,
                -0.11343670715738172
            ]
        },
        {
            "positions": [
                -0.06372030765196168,
                -1.3338994300502185,
                2.036758940175512,
                1.7259811593055117,
                -0.9231475794656024,
                -0.16576681287562828
            ]
        },
        {
            "positions": [
                -0.19262508820448943,
                -1.318497517768714,
                1.9231452269731497,
                1.6919473062268737,
                -0.9647291847738799,
                -0.2180969185938749
            ]
        },
        {
            "positions": [
                -0.32152986875701706,
                -1.3030956054872092,
                1.8095315137707875,
                1.657913453148236,
                -1.0063107900821575,
                -0.2704270243121214
            ]
        },
        {
            "positions": [
                -0.4504346493095448,
                -1.2876936932057046,
                1.6959178005684254,
                1.623879600069598,
                -1.047892395390435,
                -0.32275713003036804
            ]
        },
        {
            "positions": [
                -0.5083359197314165,
                -1.2091784900567624,
                1.6919202624803162,
                1.6880193041140716,
                -1.1959981840030622,
                -0.28275500624997063
            ]
        },
        {
            "positions": [
                -0.5662371901532881,
                -1.1306632869078201,
                1.6879227243922068,
                1.7521590081585452,
                -1.3441039726156894,
                -0.2427528824695732
            ]
        },
        {
            "positions": [
                -0.6241384605751596,
                -1.052148083758878,
                1.6839251863040976,
                1.8162987122030188,
                -1.4922097612283167,
                -0.20275075868917575
            ]
        },
        {
            "positions": [
                -0.6820397309970314,
                -0.9736328806099357,
                1.6799276482159882,
                1.8804384162474923,
                -1.6403155498409439,
                -0.16274863490877833
            ]
        },
        {
            "positions": [
                -0.739941001418903,
                -0.8951176774609935,
                1.675930110127879,
                1.9445781202919659,
                -1.788421338453571,
                -0.12274651112838092
            ]
        },
        {
            "positions": [
                -0.7978422718407746,
                -0.8166024743120512,
                1.6719325720397697,
                2.0087178243364394,
                -1.9365271270661983,
                -0.08274438734798348
            ]
        },
        {
            "positions": [
                -0.8557435422626463,
                -0.738087271163109,
                1.6679350339516603,
                2.072857528380913,
                -2.0846329156788252,
                -0.042742263567586036
            ]
        },
        {
            "positions": [
                -0.9136448126845179,
                -0.6595720680141668,
                1.663937495863551,
                2.1369972324253865,
                -2.2327387042914526,
                -0.0027401397871886007
            ]
        }
    ]
}