{
    "goal": {
        "global_pose": {
            "orientation": {
                "w": -0.00223480608172531,
                "x": 0.0024358444001904467,
                "y": 0.7094548369677653,
                "z": -0.704743149386269
            },
            "position": {
                "x": 0.6205249238014221,
                "y": -0.6371506643295288,
                "z": 0.19426114857196808
            }
        },
        "name": "move_to_magneteinheit_B"
    },
    "id": "LBKPIECE_move_to_magneteinheit_B_138",
    "joint_names": [
        "shoulder_pan_joint",
        "shoulder_lift_joint",
        "elbow_joint",
        "wrist_1_joint",
        "wrist_2_joint",
        "wrist_3_joint"
    ],
    "metrics": {
        "cart_traj_len": 1.6155720673699014,
        "distance_elbow_joint": 1.1193698619460635,
        "distance_shoulder_lift_joint": 0.9526374516647327,
        "distance_shoulder_pan_joint": 1.6217896154955298,
        "distance_wrist_1_joint": 0.7411692710772089,
        "distance_wrist_2_joint": 2.082321392203834,
        "distance_wrist_3_joint": 0.7224428047097118,
        "smoothness": 0.813021264820599,
        "time": 0.807670911,
        "traj_len": 2.6906747103834534,
        "weighted_distance": 3.3923600442461215
    },
    "planner": "LBKPIECE",
    "start": {
        "state": {
            "elbow_joint": 2.6216224122426386,
            "shoulder_lift_joint": -1.4174107377796124,
            "shoulder_pan_joint": 0.7066234856936794,
            "wrist_1_joint": 1.9546482284002225,
            "wrist_2_joint": -0.7096286983471962,
            "wrist_3_joint": 0.005740856962016249
        }
    },
    "waypoints": [
        {
            "positions": [
                0.7066234856936794,
                -1.4174107377796124,
                2.6216224122426386,
                1.9546482284002225,
                -0.7096286983471962,
                0.005740856962016249
            ]
        },
        {
            "positions": [
                0.6534006223940387,
                -1.450392000706392,
                2.6492578635611275,
                2.0181075275130342,
                -0.6151481281247704,
                -0.11459005697207002
            ]
        },
        {
            "positions": [
                0.600177759094398,
                -1.4833732636331716,
                2.6768933148796163,
                2.0815668266258465,
                -0.5206675579023445,
                -0.23492097090615627
            ]
        },
        {
            "positions": [
                0.5469548957947573,
                -1.5163545265599512,
                2.7045287661981052,
                2.1450261257386583,
                -0.4261869876799187,
                -0.35525188484024256
            ]
        },
        {
            "positions": [
                0.4333155148070811,
                -1.4789709127881896,
                2.573921743728546,
                2.0901059459006195,
                -0.4460380257135412,
                -0.33279273243599944
            ]
        },
        {
            "positions": [
                0.3196761338194048,
                -1.441587299016428,
                2.4433147212589876,
                2.035185766062581,
                -0.46588906374716366,
                -0.31033358003175626
            ]
        },
        {
            "positions": [
                0.20603675283172856,
                -1.4042036852446662,
                2.3127076987894286,
                1.9802655862245424,
                -0.4857401017807861,
                -0.28787442762751314
            ]
        },
        {
            "positions": [
                0.09239737184405228,
                -1.3668200714729046,
                2.1821006763198696,
                1.9253454063865039,
                -0.5055911398144086,
                -0.26541527522327
            ]
        },
        {
            "positions": [
                -0.021242009143624008,
                -1.329436457701143,
                2.051493653850311,
                1.8704252265484653,
                -0.525442177848031,
                -0.2429561228190269
            ]
        },
        {
            "positions": [
                -0.10250783829437184,
                -1.268820494607908,
                2.0166365269736928,
                1.8955334515074271,
                -0.6799534952451624,
                -0.22030573182936894
            ]
        },
        {
            "positions": [
                -0.18377366744511967,
                -1.208204531514673,
                1.981779400097074,
                1.920641676466389,
                -0.8344648126422938,
                -0.197655340839711
            ]
        },
        {
            "positions": [
                -0.26503949659586745,
                -1.1475885684214377,
                1.9469222732204559,
                1.9457499014253508,
                -0.988976130039425,
                -0.17500494985005305
            ]
        },
        {
            "positions": [
                -0.3463053257466153,
                -1.0869726053282027,
                1.9120651463438374,
                1.9708581263843126,
                -1.1434874474365564,
                -0.15235455886039512
            ]
        },
        {
            "positions": [
                -0.4275711548973631,
                -1.0263566422349677,
                1.877208019467219,
                1.9959663513432744,
                -1.2979987648336877,
                -0.12970416787073716
            ]
        },
        {
            "positions": [
                -0.5088369840481108,
                -0.9657406791417327,
                1.8423508925906005,
                2.021074576302236,
                -1.4525100822308188,
                -0.10705377688107923
            ]
        },
        {
            "positions": [
                -0.5901028131988588,
                -0.9051247160484976,
                1.807493765713982,
                2.0461828012611982,
                -1.6070213996279503,
                -0.08440338589142127
            ]
        },
        {
            "positions": [
                -0.6713686423496066,
                -0.8445087529552625,
                1.7726366388373638,
                2.07129102622016,
                -1.7615327170250819,
                -0.06175299490176331
            ]
        },
        {
            "positions": [
                -0.7526344715003543,
                -0.7838927898620274,
                1.737779511960745,
                2.096399251179122,
                -1.916044034422213,
                -0.03910260391210535
            ]
        },
        {
            "positions": [
                -0.8339003006511021,
                -0.7232768267687925,
                1.7029223850841269,
                2.1215074761380834,
                -2.0705553518193445,
                -0.016452212922447418
            ]
        },
        {
            "positions": [
                -0.9151661298018501,
                -0.6626608636755573,
                1.6680652582075084,
                2.1466157010970455,
                -2.2250666692164756,
                0.006198178067210539
            ]
        }
    ]
}