{
    "goal": {
        "global_pose": {
            "orientation": {
                "w": 0.7031023502349854,
                "x": -0.7110244035720825,
                "y": 0.007748599164187908,
                "z": 0.005598929710686207
            },
            "position": {
                "x": 0.11585023208521307,
                "y": 0.44412534475326537,
                "z": 0.3711530566215515
            }
        },
        "name": "move_to_auspresseinheit_A"
    },
    "id": "LBKPIECE_move_to_auspresseinheit_A_92",
    "joint_names": [
        "shoulder_pan_joint",
        "shoulder_lift_joint",
        "elbow_joint",
        "wrist_1_joint",
        "wrist_2_joint",
        "wrist_3_joint"
    ],
    "metrics": {
        "cart_traj_len": 1.4325406073758793,
        "distance_elbow_joint": 1.505185988820808,
        "distance_shoulder_lift_joint": 0.5353376327717745,
        "distance_shoulder_pan_joint": 1.303107342002662,
        "distance_wrist_1_joint": 1.3951641081869532,
        "distance_wrist_2_joint": 0.9069061400202163,
        "distance_wrist_3_joint": 2.3021842303300133,
        "smoothness": 0.6873912005225321,
        "time": 0.21375918100000002,
        "traj_len": 2.81919943284125,
        "weighted_distance": 3.8541307905933375
    },
    "planner": "LBKPIECE",
    "start": {
        "state": {
            "elbow_joint": 2.4225746658250005,
            "shoulder_lift_joint": -1.3736534386056498,
            "shoulder_pan_joint": -0.3378633547517467,
            "wrist_1_joint": -1.0288598680537169,
            "wrist_2_joint": 1.233022673432363,
            "wrist_3_joint": -3.0940220416140027
        }
    },
    "waypoints": [
        {
            "positions": [
                -0.3378633547517467,
                -1.3736534386056498,
                2.4225746658250005,
                -1.0288598680537169,
                1.233022673432363,
                -3.0940220416140027
            ]
        },
        {
            "positions": [
                -0.3524022836486381,
                -1.4011965887479427,
                2.3372665149880762,
                -0.9537140775577236,
                1.1665026963206457,
                -2.9681879849064488
            ]
        },
        {
            "positions": [
                -0.36694121254552947,
                -1.4287397388902356,
                2.2519583641511525,
                -0.8785682870617304,
                1.0999827192089284,
                -2.8423539281988943
            ]
        },
        {
            "positions": [
                -0.3814801414424209,
                -1.4562828890325283,
                2.1666502133142282,
                -0.8034224965657373,
                1.0334627420972111,
                -2.7165198714913403
            ]
        },
        {
            "positions": [
                -0.3960190703393122,
                -1.4838260391748213,
                2.0813420624773045,
                -0.7282767060697439,
                0.9669427649854939,
                -2.590685814783786
            ]
        },
        {
            "positions": [
                -0.4105579992362036,
                -1.5113691893171142,
                1.9960339116403802,
                -0.6531309155737508,
                0.9004227878737766,
                -2.464851758076232
            ]
        },
        {
            "positions": [
                -0.42509692813309496,
                -1.538912339459407,
                1.9107257608034565,
                -0.5779851250777576,
                0.8339028107620594,
                -2.339017701368678
            ]
        },
        {
            "positions": [
                -0.43963585702998637,
                -1.5664554896017,
                1.8254176099665322,
                -0.5028393345817643,
                0.7673828336503421,
                -2.2131836446611235
            ]
        },
        {
            "positions": [
                -0.4541747859268777,
                -1.5939986397439927,
                1.7401094591296085,
                -0.4276935440857711,
                0.7008628565386248,
                -2.087349587953569
            ]
        },
        {
            "positions": [
                -0.4687137148237691,
                -1.6215417898862856,
                1.6548013082926842,
                -0.3525477535897778,
                0.6343428794269075,
                -1.961515531246015
            ]
        },
        {
            "positions": [
                -0.3380624844577206,
                -1.6611155451973323,
                1.7467135969754362,
                -0.29169645711067643,
                0.6100379463613509,
                -2.0071216244070436
            ]
        },
        {
            "positions": [
                -0.20741125409167205,
                -1.700689300508379,
                1.838625885658188,
                -0.23084516063157512,
                0.5857330132957943,
                -2.052727717568072
            ]
        },
        {
            "positions": [
                -0.07676002372562352,
                -1.7402630558194256,
                1.9305381743409398,
                -0.16999386415247378,
                0.5614280802302376,
                -2.098333810729101
            ]
        },
        {
            "positions": [
                0.053891206640425016,
                -1.7798368111304723,
                2.022450463023692,
                -0.10914256767337241,
                0.537123147164681,
                -2.1439399038901295
            ]
        },
        {
            "positions": [
                0.1845424370064735,
                -1.819410566441519,
                2.1143627517064436,
                -0.04829127119427104,
                0.5128182140991244,
                -2.189545997051158
            ]
        },
        {
            "positions": [
                0.27792244563478297,
                -1.8363613311978886,
                2.1864583383318,
                -0.0594421149004932,
                0.5283012496469375,
                -2.289545096599504
            ]
        },
        {
            "positions": [
                0.3713024542630924,
                -1.8533120959542582,
                2.258553924957156,
                -0.07059295860671536,
                0.5437842851947505,
                -2.3895441961478503
            ]
        },
        {
            "positions": [
                0.43775061683184796,
                -1.8644478910388913,
                2.2852859278819597,
                -0.14905172338972797,
                0.5749314071130208,
                -2.537874007159888
            ]
        },
        {
            "positions": [
                0.5041987794006035,
                -1.8755836861235247,
                2.3120179308067637,
                -0.22751048817274058,
                0.6060785290312911,
                -2.6862038181719265
            ]
        },
        {
            "positions": [
                0.5706469419693592,
                -1.8867194812081578,
                2.338749933731568,
                -0.30596925295575317,
                0.6372256509495615,
                -2.8345336291839645
            ]
        },
        {
            "positions": [
                0.6370951045381148,
                -1.8978552762927912,
                2.365481936656372,
                -0.3844280177387658,
                0.6683727728678318,
                -2.982863440196003
            ]
        },
        {
            "positions": [
                0.7035432671068703,
                -1.9089910713774243,
                2.392213939581176,
                -0.46288678252177845,
                0.6995198947861021,
                -3.1311932512080407
            ]
        }
    ]
}