{
    "goal": {
        "global_pose": {
            "orientation": {
                "w": 0.5084816217422485,
                "x": -0.49083608388900757,
                "y": 0.5182115435600281,
                "z": -0.4816462993621826
            },
            "position": {
                "x": 0.5540239810943604,
                "y": 0.030875300988554955,
                "z": 0.16403168439865112
            }
        },
        "name": "move_to_storage_A"
    },
    "id": "LBKPIECE_move_to_storage_A_142",
    "joint_names": [
        "shoulder_pan_joint",
        "shoulder_lift_joint",
        "elbow_joint",
        "wrist_1_joint",
        "wrist_2_joint",
        "wrist_3_joint"
    ],
    "metrics": {
        "cart_traj_len": 0.35290486097148244,
        "distance_elbow_joint": 0.4516433584245505,
        "distance_shoulder_lift_joint": 0.232713407646018,
        "distance_shoulder_pan_joint": 0.45725795290316085,
        "distance_wrist_1_joint": 0.25573066388440424,
        "distance_wrist_2_joint": 1.115696148565909,
        "distance_wrist_3_joint": 0.09242276601761157,
        "smoothness": 0.0,
        "time": 0.563008925,
        "traj_len": 1.6141450670375492,
        "weighted_distance": 2.0400334903935256
    },
    "planner": "LBKPIECE",
    "start": {
        "state": {
            "elbow_joint": 1.971548259319323,
            "shoulder_lift_joint": -1.1394851275133948,
            "shoulder_pan_joint": 0.1228115487234821,
            "wrist_1_joint": -0.7804723859257726,
            "wrist_2_joint": 0.12958671773740124,
            "wrist_3_joint": -3.192489227718131
        }
    },
    "waypoints": [
        {
            "positions": [
                0.1228115487234821,
                -1.1394851275133948,
                1.971548259319323,
                -0.7804723859257726,
                0.12958671773740124,
                -3.192489227718131
            ]
        },
        {
            "positions": [
                0.05748898402303056,
                -1.1727299000342546,
                2.036068739094259,
                -0.8170053379092589,
                0.2889718818182454,
                -3.179285975429901
            ]
        },
        {
            "positions": [
                -0.007833580677420987,
                -1.2059746725551141,
                2.1005892188691946,
                -0.8535382898927453,
                0.44835704589908953,
                -3.166082723141671
            ]
        },
        {
            "positions": [
                -0.07315614537787254,
                -1.239219445075974,
                2.1651096986441303,
                -0.8900712418762315,
                0.6077422099799337,
                -3.1528794708534407
            ]
        },
        {
            "positions": [
                -0.13847871007832407,
                -1.2724642175968337,
                2.229630178419066,
                -0.9266041938597179,
                0.7671273740607778,
                -3.13967621856521
            ]
        },
        {
            "positions": [
                -0.20380127477877563,
                -1.3057089901176935,
                2.294150658194002,
                -0.9631371458432042,
                0.9265125381416219,
                -3.12647296627698
            ]
        },
        {
            "positions": [
                -0.2691238394792272,
                -1.338953762638553,
                2.358671137968938,
                -0.9996700978266906,
                1.085897702222466,
                -3.1132697139887497
            ]
        },
        {
            "positions": [
                -0.33444640417967875,
                -1.3721985351594128,
                2.4231916177438735,
                -1.0362030498101769,
                1.2452828663033102,
                -3.1000664617005196
            ]
        }
    ]
}{
    "goal": {
        "global_pose": {
            "orientation": {
                "w": 0.5084816217422485,
                "x": -0.49083608388900757,
                "y": 0.5182115435600281,
                "z": -0.4816462993621826
            },
            "position": {
                "x": 0.5540239810943604,
                "y": 0.030875300988554955,
                "z": 0.16403168439865112
            }
        },
        "name": "move_to_storage_A"
    },
    "id": "LBKPIECE_move_to_storage_A_142",
    "joint_names": [
        "shoulder_pan_joint",
        "shoulder_lift_joint",
        "elbow_joint",
        "wrist_1_joint",
        "wrist_2_joint",
        "wrist_3_joint"
    ],
    "metrics": {
        "cart_traj_len": 0.3531089047408119,
        "distance_elbow_joint": 0.452050914236906,
        "distance_shoulder_lift_joint": 0.23477840410218942,
        "distance_shoulder_pan_joint": 0.46314795586749546,
        "distance_wrist_1_joint": 0.2565289766774079,
        "distance_wrist_2_joint": 1.0926208200229397,
        "distance_wrist_3_joint": 0.10014175248641966,
        "smoothness": 4.440892133664971e-16,
        "time": 0.10224252,
        "traj_len": 1.6122248054763821,
        "weighted_distance": 2.036836302962647
    },
    "planner": "LBKPIECE",
    "start": {
        "state": {
            "elbow_joint": 1.97154746011099,
            "shoulder_lift_joint": -1.13948474672311,
            "shoulder_pan_joint": 0.12281154466712228,
            "wrist_1_joint": -0.7804688027058302,
            "wrist_2_joint": 0.12958655903071145,
            "wrist_3_joint": 3.0906928834467795
        }
    },
    "waypoints": [
        {
            "positions": [
                0.12281154466712228,
                -1.13948474672311,
                1.97154746011099,
                -0.7804688027058302,
                0.12958655903071145,
                3.0906928834467795
            ]
        },
        {
            "positions": [
                0.0566475509717658,
                -1.1730245187377084,
                2.0361261621448334,
                -0.8171157993740313,
                0.2856752476054171,
                3.1049988480876967
            ]
        },
        {
            "positions": [
                -0.009516442723590687,
                -1.2065642907523069,
                2.1007048641786774,
                -0.8537627960422325,
                0.4417639361801228,
                3.119304812728614
            ]
        },
        {
            "positions": [
                -0.07568043641894719,
                -1.2401040627669053,
                2.165283566212521,
                -0.8904097927104335,
                0.5978526247548285,
                3.133610777369531
            ]
        },
        {
            "positions": [
                -0.14184443011430364,
                -1.2736438347815038,
                2.229862268246365,
                -0.9270567893786347,
                0.7539413133295342,
                3.1479167420104477
            ]
        },
        {
            "positions": [
                -0.20800842380966017,
                -1.3071836067961025,
                2.2944409702802084,
                -0.9637037860468358,
                0.9100300019042399,
                3.162222706651365
            ]
        },
        {
            "positions": [
                -0.27417241750501664,
                -1.340723378810701,
                2.3590196723140524,
                -1.0003507827150369,
                1.0661186904789455,
                3.176528671292282
            ]
        },
        {
            "positions": [
                -0.34033641120037317,
                -1.3742631508252994,
                2.423598374347896,
                -1.0369977793832381,
                1.2222073790536512,
                3.190834635933199
            ]
        }
    ]
}{
    "goal": {
        "global_pose": {
            "orientation": {
                "w": 0.5084816217422485,
                "x": -0.49083608388900757,
                "y": 0.5182115435600281,
                "z": -0.4816462993621826
            },
            "position": {
                "x": 0.5540239810943604,
                "y": 0.030875300988554955,
                "z": 0.16403168439865112
            }
        },
        "name": "move_to_storage_A"
    },
    "id": "LBKPIECE_move_to_storage_A_142",
    "joint_names": [
        "shoulder_pan_joint",
        "shoulder_lift_joint",
        "elbow_joint",
        "wrist_1_joint",
        "wrist_2_joint",
        "wrist_3_joint"
    ],
    "metrics": {
        "cart_traj_len": 0.3530993027074436,
        "distance_elbow_joint": 0.4488056620266283,
        "distance_shoulder_lift_joint": 0.236418464803678,
        "distance_shoulder_pan_joint": 0.4621305132146216,
        "distance_wrist_1_joint": 0.23403851217503546,
        "distance_wrist_2_joint": 1.098077512118017,
        "distance_wrist_3_joint": 0.0893554483057648,
        "smoothness": 4.440892098500626e-16,
        "time": 0.24771563400000002,
        "traj_len": 1.6027557869631124,
        "weighted_distance": 2.019815098851459
    },
    "planner": "LBKPIECE",
    "start": {
        "state": {
            "elbow_joint": 1.9715472970024885,
            "shoulder_lift_joint": -1.1394870060712896,
            "shoulder_pan_joint": 0.12281152778156021,
            "wrist_1_joint": -0.780463741449964,
            "wrist_2_joint": 0.12958659822042276,
            "wrist_3_joint": 3.090690232415272
        }
    },
    "waypoints": [
        {
            "positions": [
                0.12281152778156021,
                -1.1394870060712896,
                1.9715472970024885,
                -0.780463741449964,
                0.12958659822042276,
                3.090690232415272
            ]
        },
        {
            "positions": [
                0.05679288303661427,
                -1.173261072471815,
                2.035662391577721,
                -0.8138978146178262,
                0.28645481423728236,
                3.1034552964589524
            ]
        },
        {
            "positions": [
                -0.00922576170833167,
                -1.2070351388723404,
                2.099777486152954,
                -0.8473318877856884,
                0.4433230302541419,
                3.1162203605026333
            ]
        },
        {
            "positions": [
                -0.07524440645327762,
                -1.2408092052728659,
                2.1638925807281866,
                -0.8807659609535506,
                0.6001912462710015,
                3.128985424546314
            ]
        },
        {
            "positions": [
                -0.14126305119822355,
                -1.2745832716733914,
                2.228007675303419,
                -0.9142000341214128,
                0.757059462287861,
                3.1417504885899947
            ]
        },
        {
            "positions": [
                -0.2072816959431695,
                -1.3083573380739169,
                2.2921227698786515,
                -0.9476341072892751,
                0.9139276783047207,
                3.1545155526336752
            ]
        },
        {
            "positions": [
                -0.2733003406881155,
                -1.3421314044744421,
                2.356237864453884,
                -0.9810681804571373,
                1.0707958943215803,
                3.167280616677356
            ]
        },
        {
            "positions": [
                -0.3393189854330614,
                -1.3759054708749676,
                2.420352959029117,
                -1.0145022536249995,
                1.2276641103384398,
                3.1800456807210367
            ]
        }
    ]
}