{
    "goal": {
        "global_pose": {
            "orientation": {
                "w": 0.7047431468963623,
                "x": -0.7094548344612122,
                "y": 0.0024358443915843964,
                "z": -0.0022348060738295317
            },
            "position": {
                "x": 0.6094750761985779,
                "y": 0.3671506643295288,
                "z": 0.19426114857196808
            }
        },
        "name": "move_to_magneteinheit_A"
    },
    "id": "LBKPIECE_move_to_magneteinheit_A_115",
    "joint_names": [
        "shoulder_pan_joint",
        "shoulder_lift_joint",
        "elbow_joint",
        "wrist_1_joint",
        "wrist_2_joint",
        "wrist_3_joint"
    ],
    "metrics": {
        "cart_traj_len": 4.142431426091854,
        "distance_elbow_joint": 3.9059592321864587,
        "distance_shoulder_lift_joint": 0.9083281412139261,
        "distance_shoulder_pan_joint": 2.911053320068059,
        "distance_wrist_1_joint": 0.7155387769465473,
        "distance_wrist_2_joint": 3.9510902143018902,
        "distance_wrist_3_joint": 3.5655036814127574,
        "smoothness": 0.34624476644402985,
        "time": 0.458179157,
        "traj_len": 3.994680633809122,
        "weighted_distance": 5.268311847281213
    },
    "planner": "LBKPIECE",
    "start": {
        "state": {
            "elbow_joint": -1.9196185241190666,
            "shoulder_lift_joint": -1.2443396400964142,
            "shoulder_pan_joint": 2.6996025414629847,
            "wrist_1_joint": -1.5485510000780065,
            "wrist_2_joint": -1.5709468930060704,
            "wrist_3_joint": 0.4420197071253992
        }
    },
    "waypoints": [
        {
            "positions": [
                2.6996025414629847,
                -1.2443396400964142,
                -1.9196185241190666,
                -1.5485510000780065,
                -1.5709468930060704,
                0.4420197071253992
            ]
        },
        {
            "positions": [
                2.613873554109177,
                -1.2320880839502353,
                -1.8251847559107333,
                -1.5410676249808877,
                -1.4826186782547495,
                0.34154535972519695
            ]
        },
        {
            "positions": [
                2.52814456675537,
                -1.2198365278040566,
                -1.7307509877024,
                -1.5335842498837688,
                -1.3942904635034286,
                0.24107101232499473
            ]
        },
        {
            "positions": [
                2.4424155794015627,
                -1.2075849716578777,
                -1.636317219494067,
                -1.52610087478665,
                -1.3059622487521076,
                0.1405966649247925
            ]
        },
        {
            "positions": [
                2.356686592047755,
                -1.195333415511699,
                -1.5418834512857336,
                -1.518617499689531,
                -1.2176340340007867,
                0.04012231752459028
            ]
        },
        {
            "positions": [
                2.2709576046939475,
                -1.1830818593655201,
                -1.4474496830774002,
                -1.5111341245924121,
                -1.1293058192494658,
                -0.060352029875611946
            ]
        },
        {
            "positions": [
                2.1852286173401403,
                -1.1708303032193415,
                -1.353015914869067,
                -1.5036507494952933,
                -1.0409776044981451,
                -0.16082637727581417
            ]
        },
        {
            "positions": [
                2.099499629986333,
                -1.1585787470731626,
                -1.2585821466607339,
                -1.4961673743981745,
                -0.9526493897468241,
                -0.2613007246760164
            ]
        },
        {
            "positions": [
                2.0137706426325255,
                -1.1463271909269839,
                -1.1641483784524005,
                -1.4886839993010557,
                -0.8643211749955032,
                -0.3617750720762186
            ]
        },
        {
            "positions": [
                1.928041655278718,
                -1.134075634780805,
                -1.069714610244067,
                -1.4812006242039368,
                -0.7759929602441823,
                -0.46224941947642084
            ]
        },
        {
            "positions": [
                1.8423126679249107,
                -1.121824078634626,
                -0.975280842035734,
                -1.4737172491068178,
                -0.6876647454928614,
                -0.5627237668766231
            ]
        },
        {
            "positions": [
                1.7565836805711033,
                -1.1095725224884474,
                -0.8808470738274008,
                -1.466233874009699,
                -0.5993365307415405,
                -0.6631981142768254
            ]
        },
        {
            "positions": [
                1.6708546932172958,
                -1.0973209663422685,
                -0.7864133056190674,
                -1.4587504989125801,
                -0.5110083159902197,
                -0.7636724616770275
            ]
        },
        {
            "positions": [
                1.5851257058634884,
                -1.0850694101960898,
                -0.691979537410734,
                -1.4512671238154613,
                -0.42268010123889876,
                -0.8641468090772296
            ]
        },
        {
            "positions": [
                1.499396718509681,
                -1.072817854049911,
                -0.5975457692024009,
                -1.4437837487183425,
                -0.33435188648757785,
                -0.964621156477432
            ]
        },
        {
            "positions": [
                1.4136677311558736,
                -1.060566297903732,
                -0.5031120009940677,
                -1.4363003736212236,
                -0.24602367173625694,
                -1.0650955038776342
            ]
        },
        {
            "positions": [
                1.3279387438020662,
                -1.0483147417575533,
                -0.40867823278573434,
                -1.4288169985241046,
                -0.15769545698493603,
                -1.1655698512778363
            ]
        },
        {
            "positions": [
                1.2422097564482588,
                -1.0360631856113747,
                -0.31424446457740096,
                -1.4213336234269858,
                -0.06936724223361512,
                -1.2660441986780384
            ]
        },
        {
            "positions": [
                1.1564807690944514,
                -1.0238116294651958,
                -0.2198106963690678,
                -1.413850248329867,
                0.018960972517705788,
                -1.366518546078241
            ]
        },
        {
            "positions": [
                1.070751781740644,
                -1.0115600733190169,
                -0.12537692816073465,
                -1.4063668732327481,
                0.1072891872690267,
                -1.466992893478443
            ]
        },
        {
            "positions": [
                0.9850227943868366,
                -0.9993085171728382,
                -0.030943159952401267,
                -1.3988834981356293,
                0.1956174020203476,
                -1.5674672408786452
            ]
        },
        {
            "positions": [
                0.8992938070330292,
                -0.9870569610266593,
                0.06349060825593211,
                -1.3914001230385105,
                0.2839456167716685,
                -1.6679415882788473
            ]
        },
        {
            "positions": [
                0.8135648196792218,
                -0.9748054048804805,
                0.15792437646426505,
                -1.3839167479413916,
                0.37227383152298943,
                -1.7684159356790499
            ]
        },
        {
            "positions": [
                0.7278358323254144,
                -0.9625538487343017,
                0.25235814467259843,
                -1.3764333728442726,
                0.4606020462743101,
                -1.868890283079252
            ]
        },
        {
            "positions": [
                0.642106844971607,
                -0.9503022925881229,
                0.3467919128809318,
                -1.3689499977471538,
                0.548930261025631,
                -1.969364630479454
            ]
        },
        {
            "positions": [
                0.5563778576177998,
                -0.9380507364419441,
                0.4412256810892652,
                -1.361466622650035,
                0.6372584757769519,
                -2.069838977879656
            ]
        },
        {
            "positions": [
                0.47064887026399216,
                -0.9257991802957654,
                0.5356594492975986,
                -1.353983247552916,
                0.7255866905282728,
                -2.1703133252798583
            ]
        },
        {
            "positions": [
                0.38491988291018453,
                -0.9135476241495866,
                0.6300932175059315,
                -1.3464998724557973,
                0.8139149052795938,
                -2.270787672680061
            ]
        },
        {
            "positions": [
                0.29919089555637735,
                -0.9012960680034077,
                0.7245269857142649,
                -1.3390164973586784,
                0.9022431200309147,
                -2.371262020080263
            ]
        },
        {
            "positions": [
                0.21346190820257016,
                -0.889044511857229,
                0.8189607539225983,
                -1.3315331222615594,
                0.9905713347822356,
                -2.471736367480465
            ]
        },
        {
            "positions": [
                0.12773292084876253,
                -0.8767929557110501,
                0.9133945221309312,
                -1.3240497471644406,
                1.0788995495335565,
                -2.5722107148806677
            ]
        },
        {
            "positions": [
                0.042003933494954904,
                -0.8645413995648713,
                1.0078282903392646,
                -1.3165663720673217,
                1.1672277642848774,
                -2.6726850622808698
            ]
        },
        {
            "positions": [
                -0.04372505385885217,
                -0.8522898434186925,
                1.1022620585475977,
                -1.309082996970203,
                1.2555559790361983,
                -2.773159409681072
            ]
        },
        {
            "positions": [
                -0.03369406485483444,
                -0.9102046301539267,
                1.2185452745135517,
                -1.2422452484049398,
                1.1432339727286867,
                -2.7996134816232865
            ]
        },
        {
            "positions": [
                -0.023663075850816718,
                -0.9681194168891609,
                1.3348284904795056,
                -1.1754074998396766,
                1.030911966421175,
                -2.8260675535655007
            ]
        },
        {
            "positions": [
                -0.01363208684679899,
                -1.0260342036243952,
                1.4511117064454595,
                -1.1085697512744137,
                0.9185899601136635,
                -2.8525216255077153
            ]
        },
        {
            "positions": [
                -0.003601097842781266,
                -1.0839489903596293,
                1.5673949224114136,
                -1.0417320027091506,
                0.8062679538061519,
                -2.8789756974499294
            ]
        },
        {
            "positions": [
                0.006429891161236462,
                -1.1418637770948636,
                1.6836781383773676,
                -0.9748942541438874,
                0.6939459474986401,
                -2.905429769392144
            ]
        },
        {
            "positions": [
                0.01646088016525419,
                -1.1997785638300977,
                1.7999613543433215,
                -0.9080565055786244,
                0.5816239411911286,
                -2.931883841334358
            ]
        },
        {
            "positions": [
                0.026491869169271917,
                -1.257693350565332,
                1.9162445703092754,
                -0.8412187570133612,
                0.46930193488361693,
                -2.958337913276573
            ]
        },
        {
            "positions": [
                0.07524627002832057,
                -1.2022559318705497,
                1.951292639188334,
                -0.8453220239543122,
                0.30013528583009685,
                -3.0409109437819657
            ]
        },
        {
            "positions": [
                0.12400067088736924,
                -1.146818513175767,
                1.9863407080673927,
                -0.8494252908952633,
                0.13096863677657675,
                -3.123483974287358
            ]
        }
    ]
}