{
    "goal": {
        "global_pose": {
            "orientation": {
                "w": -0.00223480608172531,
                "x": 0.0024358444001904467,
                "y": 0.7094548369677653,
                "z": -0.704743149386269
            },
            "position": {
                "x": 0.6205249238014221,
                "y": -0.6371506643295288,
                "z": 0.19426114857196808
            }
        },
        "name": "move_to_magneteinheit_B"
    },
    "id": "LBKPIECE_move_to_magneteinheit_B_109",
    "joint_names": [
        "shoulder_pan_joint",
        "shoulder_lift_joint",
        "elbow_joint",
        "wrist_1_joint",
        "wrist_2_joint",
        "wrist_3_joint"
    ],
    "metrics": {
        "cart_traj_len": 4.353765822084189,
        "distance_elbow_joint": 4.5849264889087955,
        "distance_shoulder_lift_joint": 1.7355298590987602,
        "distance_shoulder_pan_joint": 3.359207361826185,
        "distance_wrist_1_joint": 2.116930698402721,
        "distance_wrist_2_joint": 2.087396460548597,
        "distance_wrist_3_joint": 4.107468359397829,
        "smoothness": 0.4703667145018779,
        "time": 0.696218923,
        "traj_len": 4.241634028081971,
        "weighted_distance": 5.514591834934827
    },
    "planner": "LBKPIECE",
    "start": {
        "state": {
            "elbow_joint": 2.6216224122426386,
            "shoulder_lift_joint": -1.4174107377796124,
            "shoulder_pan_joint": 0.7066234856936794,
            "wrist_1_joint": 1.9546482284002225,
            "wrist_2_joint": -0.7096286983471962,
            "wrist_3_joint": 0.005740856962016249
        }
    },
    "waypoints": [
        {
            "positions": [
                0.7066234856936794,
                -1.4174107377796124,
                2.6216224122426386,
                1.9546482284002225,
                -0.7096286983471962,
                0.005740856962016249
            ]
        },
        {
            "positions": [
                0.6207905967111572,
                -1.391867138897185,
                2.6098782884983938,
                1.9666994914784504,
                -0.6016105880086022,
                0.11494226400241195
            ]
        },
        {
            "positions": [
                0.5349577077286352,
                -1.3663235400147575,
                2.598134164754149,
                1.9787507545566783,
                -0.4935924776700083,
                0.22414367104280766
            ]
        },
        {
            "positions": [
                0.449124818746113,
                -1.3407799411323302,
                2.5863900410099046,
                1.990802017634906,
                -0.38557436733141437,
                0.33334507808320335
            ]
        },
        {
            "positions": [
                0.3632919297635908,
                -1.3152363422499027,
                2.5746459172656597,
                2.0028532807131336,
                -0.2775562569928204,
                0.44254648512359906
            ]
        },
        {
            "positions": [
                0.27745904078106864,
                -1.2896927433674754,
                2.562901793521415,
                2.0149045437913617,
                -0.1695381466542264,
                0.5517478921639947
            ]
        },
        {
            "positions": [
                0.19162615179854658,
                -1.2641491444850481,
                2.5511576697771705,
                2.0269558068695894,
                -0.06152003631563252,
                0.6609492992043904
            ]
        },
        {
            "positions": [
                0.10579326281602441,
                -1.2386055456026206,
                2.5394135460329257,
                2.0390070699478176,
                0.046498074022961466,
                0.7701507062447861
            ]
        },
        {
            "positions": [
                0.019960373833502243,
                -1.2130619467201933,
                2.527669422288681,
                2.0510583330260452,
                0.15451618436155545,
                0.8793521132851818
            ]
        },
        {
            "positions": [
                0.01898532235376395,
                -1.19626887980093,
                2.3850910601769515,
                1.9637335938569362,
                0.1212439984557334,
                0.9841023375561745
            ]
        },
        {
            "positions": [
                0.018010270874025663,
                -1.179475812881667,
                2.242512698065222,
                1.8764088546878273,
                0.08797181254991135,
                1.0888525618271672
            ]
        },
        {
            "positions": [
                0.01703521939428737,
                -1.1626827459624036,
                2.099934335953493,
                1.789084115518718,
                0.0546996266440893,
                1.1936027860981597
            ]
        },
        {
            "positions": [
                0.01606016791454908,
                -1.1458896790431403,
                1.9573559738417639,
                1.701759376349609,
                0.021427440738267245,
                1.2983530103691523
            ]
        },
        {
            "positions": [
                0.015085116434810789,
                -1.1290966121238772,
                1.8147776117300345,
                1.6144346371805,
                -0.011844745167554793,
                1.403103234640145
            ]
        },
        {
            "positions": [
                0.014110064955072499,
                -1.112303545204614,
                1.6721992496183054,
                1.5271098980113909,
                -0.04511693107337686,
                1.5078534589111376
            ]
        },
        {
            "positions": [
                0.013135013475334207,
                -1.0955104782853509,
                1.5296208875065762,
                1.4397851588422819,
                -0.07838911697919893,
                1.6126036831821304
            ]
        },
        {
            "positions": [
                0.012159961995595917,
                -1.0787174113660876,
                1.3870425253948468,
                1.3524604196731729,
                -0.11166130288502095,
                1.717353907453123
            ]
        },
        {
            "positions": [
                0.045052312193745364,
                -1.0834370936552502,
                1.2778806165744476,
                1.29634028056822,
                -0.12193313699891317,
                1.7670385592341604
            ]
        },
        {
            "positions": [
                0.07794466239189482,
                -1.0881567759444128,
                1.1687187077540484,
                1.2402201414632672,
                -0.13220497111280538,
                1.8167232110151978
            ]
        },
        {
            "positions": [
                0.18192305577116746,
                -1.1206587470625127,
                1.0529483241052613,
                1.209523647667575,
                -0.1028674887815533,
                1.7366843618913341
            ]
        },
        {
            "positions": [
                0.2859014491504401,
                -1.1531607181806125,
                0.9371779404564742,
                1.1788271538718829,
                -0.07353000645030124,
                1.6566455127674706
            ]
        },
        {
            "positions": [
                0.38987984252971275,
                -1.185662689298712,
                0.821407556807687,
                1.1481306600761907,
                -0.044192524119049156,
                1.576606663643607
            ]
        },
        {
            "positions": [
                0.49385823590898537,
                -1.218164660416812,
                0.7056371731588998,
                1.1174341662804985,
                -0.01485504178779709,
                1.4965678145197434
            ]
        },
        {
            "positions": [
                0.597836629288258,
                -1.2506666315349118,
                0.5898667895101126,
                1.0867376724848063,
                0.014482440543454989,
                1.4165289653958797
            ]
        },
        {
            "positions": [
                0.7018150226675306,
                -1.2831686026530114,
                0.4740964058613255,
                1.0560411786891142,
                0.04381992287470707,
                1.336490116272016
            ]
        },
        {
            "positions": [
                0.8057934160468033,
                -1.3156705737711112,
                0.3583260222125383,
                1.025344684893422,
                0.07315740520595915,
                1.2564512671481523
            ]
        },
        {
            "positions": [
                0.9097718094260758,
                -1.348172544889211,
                0.24255563856375129,
                0.99464819109773,
                0.1024948875372112,
                1.1764124180242888
            ]
        },
        {
            "positions": [
                1.0137502028053487,
                -1.3806745160073108,
                0.12678525491496417,
                0.9639516973020378,
                0.1318323698684633,
                1.096373568900425
            ]
        },
        {
            "positions": [
                1.1177285961846213,
                -1.4131764871254107,
                0.01101487126617684,
                0.9332552035063455,
                0.16116985219971536,
                1.0163347197765613
            ]
        },
        {
            "positions": [
                1.221706989563894,
                -1.4456784582435103,
                -0.10475551238261027,
                0.9025587097106534,
                0.1905073345309674,
                0.9362958706526978
            ]
        },
        {
            "positions": [
                1.3256853829431665,
                -1.47818042936161,
                -0.22052589603139738,
                0.8718622159149613,
                0.21984481686221952,
                0.8562570215288341
            ]
        },
        {
            "positions": [
                1.4296637763224391,
                -1.51068240047971,
                -0.3362962796801845,
                0.8411657221192692,
                0.24918229919347157,
                0.7762181724049706
            ]
        },
        {
            "positions": [
                1.533642169701712,
                -1.5431843715978097,
                -0.45206666332897183,
                0.8104692283235769,
                0.2785197815247237,
                0.6961793232811067
            ]
        },
        {
            "positions": [
                1.6376205630809844,
                -1.5756863427159093,
                -0.5678370469777589,
                0.7797727345278848,
                0.3078572638559757,
                0.6161404741572432
            ]
        },
        {
            "positions": [
                1.741598956460257,
                -1.6081883138340092,
                -0.6836074306265458,
                0.7490762407321927,
                0.3371947461872278,
                0.5361016250333797
            ]
        },
        {
            "positions": [
                1.8455773498395298,
                -1.640690284952109,
                -0.7993778142753332,
                0.7183797469365004,
                0.36653222851847994,
                0.4560627759095157
            ]
        },
        {
            "positions": [
                1.9495557432188024,
                -1.6731922560702088,
                -0.91514819792412,
                0.6876832531408084,
                0.395869710849732,
                0.3760239267856522
            ]
        },
        {
            "positions": [
                2.0535341365980746,
                -1.7056942271883084,
                -1.0309185815729074,
                0.6569867593451162,
                0.425207193180984,
                0.2959850776617887
            ]
        },
        {
            "positions": [
                2.1575125299773474,
                -1.7381961983064083,
                -1.1466889652216947,
                0.6262902655494239,
                0.4545446755122361,
                0.21594622853792478
            ]
        },
        {
            "positions": [
                2.26149092335662,
                -1.770698169424508,
                -1.2624593488704816,
                0.5955937717537318,
                0.4838821578434882,
                0.13590737941406128
            ]
        },
        {
            "positions": [
                2.3654693167358927,
                -1.8032001405426077,
                -1.378229732519269,
                0.5648972779580397,
                0.5132196401747402,
                0.05586853029019778
            ]
        },
        {
            "positions": [
                2.4694477101151655,
                -1.8357021116607077,
                -1.4940001161680563,
                0.5342007841623475,
                0.5425571225059924,
                -0.02417031883366616
            ]
        },
        {
            "positions": [
                2.573426103494438,
                -1.8682040827788073,
                -1.6097704998168432,
                0.5035042903666553,
                0.5718946048372444,
                -0.10420916795752969
            ]
        },
        {
            "positions": [
                2.6641489841809394,
                -1.9586093433307528,
                -1.7035728278946145,
                0.5397688401471268,
                0.5902849421854401,
                -0.14668399447026043
            ]
        },
        {
            "positions": [
                2.6614614603376867,
                -2.0512274048649974,
                -1.7414923908035378,
                0.6673219937614407,
                0.6077917885401927,
                -0.17486346383650528
            ]
        },
        {
            "positions": [
                2.6587739364944336,
                -2.1438454663992417,
                -1.7794119537124609,
                0.7948751473757547,
                0.6252986348949453,
                -0.20304293320275013
            ]
        },
        {
            "positions": [
                2.656086412651181,
                -2.2364635279334864,
                -1.8173315166213841,
                0.9224283009900688,
                0.6428054812496978,
                -0.23122240256899498
            ]
        },
        {
            "positions": [
                2.657650494122181,
                -2.3161603333060987,
                -1.7686739966064606,
                0.9404424811547669,
                0.5889654912487038,
                -0.1483756053155107
            ]
        },
        {
            "positions": [
                2.6592145755931806,
                -2.3958571386787106,
                -1.7200164765915371,
                0.9584566613194652,
                0.5351255012477096,
                -0.06552880806202643
            ]
        },
        {
            "positions": [
                2.6607786570641805,
                -2.475553944051323,
                -1.6713589565766136,
                0.9764708414841633,
                0.4812855112467156,
                0.01731798919145787
            ]
        }
    ]
}