{
    "goal": {
        "global_pose": {
            "orientation": {
                "w": -0.4816463035849501,
                "x": 0.5182115481033762,
                "y": 0.4908360881923453,
                "z": -0.5084816262002911
            },
            "position": {
                "x": -0.8240239810943604,
                "y": -0.300875300988555,
                "z": 0.16403168439865112
            }
        },
        "name": "move_to_storage_C"
    },
    "id": "LBKPIECE_move_to_storage_C_72",
    "joint_names": [
        "shoulder_pan_joint",
        "shoulder_lift_joint",
        "elbow_joint",
        "wrist_1_joint",
        "wrist_2_joint",
        "wrist_3_joint"
    ],
    "metrics": {
        "cart_traj_len": 0.576171651424381,
        "distance_elbow_joint": 0.26086187514458015,
        "distance_shoulder_lift_joint": 0.18835095381789246,
        "distance_shoulder_pan_joint": 0.4945778734225952,
        "distance_wrist_1_joint": 0.09062534228734687,
        "distance_wrist_2_joint": 1.0642137032872299,
        "distance_wrist_3_joint": 0.06756948302835486,
        "smoothness": 0.0,
        "time": 0.420022612,
        "traj_len": 1.4718013558181007,
        "weighted_distance": 1.8590796762428676
    },
    "planner": "LBKPIECE",
    "start": {
        "state": {
            "elbow_joint": 2.010868314990456,
            "shoulder_lift_joint": -1.1634956873337592,
            "shoulder_pan_joint": -2.4736205022346125,
            "wrist_1_joint": -0.8367026794202681,
            "wrist_2_joint": 0.6746043897044499,
            "wrist_3_joint": -3.1496632123970403
        }
    },
    "waypoints": [
        {
            "positions": [
                -2.4736205022346125,
                -1.1634956873337592,
                2.010868314990456,
                -0.8367026794202681,
                0.6746043897044499,
                -3.1496632123970403
            ]
        },
        {
            "positions": [
                -2.556050147805045,
                -1.1321038616974437,
                1.9673913357996924,
                -0.8215984557057103,
                0.8519733402523215,
                -3.1384016318923145
            ]
        },
        {
            "positions": [
                -2.6384797933754776,
                -1.1007120360611284,
                1.9239143566089292,
                -0.8064942319911524,
                1.0293422908001932,
                -3.1271400513875887
            ]
        },
        {
            "positions": [
                -2.72090943894591,
                -1.069320210424813,
                1.8804373774181657,
                -0.7913900082765947,
                1.206711241348065,
                -3.115878470882863
            ]
        },
        {
            "positions": [
                -2.8033390845163426,
                -1.0379283847884975,
                1.8369603982274023,
                -0.7762857845620369,
                1.3840801918959365,
                -3.104616890378137
            ]
        },
        {
            "positions": [
                -2.885768730086775,
                -1.0065365591521822,
                1.793483419036639,
                -0.761181560847479,
                1.5614491424438082,
                -3.0933553098734112
            ]
        },
        {
            "positions": [
                -2.9681983756572077,
                -0.9751447335158667,
                1.7500064398458757,
                -0.7460773371329212,
                1.7388180929916799,
                -3.0820937293686854
            ]
        }
    ]
}