{
    "goal": {
        "global_pose": {
            "orientation": {
                "w": -0.00223480608172531,
                "x": 0.0024358444001904467,
                "y": 0.7094548369677653,
                "z": -0.704743149386269
            },
            "position": {
                "x": 0.6205249238014221,
                "y": -0.6371506643295288,
                "z": 0.19426114857196808
            }
        },
        "name": "move_to_magneteinheit_B"
    },
    "id": "LBKPIECE_move_to_magneteinheit_B_26",
    "joint_names": [
        "shoulder_pan_joint",
        "shoulder_lift_joint",
        "elbow_joint",
        "wrist_1_joint",
        "wrist_2_joint",
        "wrist_3_joint"
    ],
    "metrics": {
        "cart_traj_len": 3.985576749971404,
        "distance_elbow_joint": 4.99802396448807,
        "distance_shoulder_lift_joint": 1.0705016373408132,
        "distance_shoulder_pan_joint": 2.6980146162703247,
        "distance_wrist_1_joint": 4.568975135828339,
        "distance_wrist_2_joint": 2.2952612596708333,
        "distance_wrist_3_joint": 4.928182233881801,
        "smoothness": 0.5261872343127275,
        "time": 0.252159113,
        "traj_len": 4.534198809875916,
        "weighted_distance": 6.105698953497702
    },
    "planner": "LBKPIECE",
    "start": {
        "state": {
            "elbow_joint": 2.6216224122426386,
            "shoulder_lift_joint": -1.4174107377796124,
            "shoulder_pan_joint": 0.7066234856936794,
            "wrist_1_joint": 1.9546482284002225,
            "wrist_2_joint": -0.7096286983471962,
            "wrist_3_joint": 0.005740856962016249
        }
    },
    "waypoints": [
        {
            "positions": [
                0.7066234856936794,
                -1.4174107377796124,
                2.6216224122426386,
                1.9546482284002225,
                -0.7096286983471962,
                0.005740856962016249
            ]
        },
        {
            "positions": [
                0.6627343773394134,
                -1.449252323723357,
                2.585351538702836,
                1.8631321549936775,
                -0.6632164754002059,
                0.12883348734801547
            ]
        },
        {
            "positions": [
                0.6188452689851475,
                -1.4810939096671016,
                2.549080665163033,
                1.7716160815871325,
                -0.6168042524532156,
                0.2519261177340147
            ]
        },
        {
            "positions": [
                0.5749561606308815,
                -1.5129354956108463,
                2.5128097916232304,
                1.6801000081805875,
                -0.5703920295062253,
                0.37501874812001396
            ]
        },
        {
            "positions": [
                0.5081686114275312,
                -1.4850156232580929,
                2.533424094490002,
                1.7094731973035757,
                -0.46074487699952876,
                0.4159608186794324
            ]
        },
        {
            "positions": [
                0.441381062224181,
                -1.4570957509053395,
                2.554038397356774,
                1.738846386426564,
                -0.3510977244928323,
                0.45690288923885086
            ]
        },
        {
            "positions": [
                0.3745935130208307,
                -1.429175878552586,
                2.5746527002235458,
                1.7682195755495522,
                -0.24145057198613573,
                0.4978449597982693
            ]
        },
        {
            "positions": [
                0.3665450017664347,
                -1.4604838727544673,
                2.4485652977305215,
                1.6284773695204058,
                -0.23906107615865657,
                0.560614238433282
            ]
        },
        {
            "positions": [
                0.3584964905120387,
                -1.4917918669563484,
                2.3224778952374976,
                1.4887351634912593,
                -0.23667158033117744,
                0.6233835170682946
            ]
        },
        {
            "positions": [
                0.35044797925764265,
                -1.5230998611582296,
                2.1963904927444733,
                1.3489929574621131,
                -0.23428208450369828,
                0.6861527957033073
            ]
        },
        {
            "positions": [
                0.34239946800324667,
                -1.5544078553601106,
                2.070303090251449,
                1.2092507514329665,
                -0.23189258867621915,
                0.74892207433832
            ]
        },
        {
            "positions": [
                0.3343509567488506,
                -1.5857158495619919,
                1.9442156877584251,
                1.0695085454038202,
                -0.22950309284874,
                0.8116913529733327
            ]
        },
        {
            "positions": [
                0.38719782878219994,
                -1.5827803790070873,
                1.7905249109121821,
                0.9598485309280509,
                -0.19538299852919377,
                0.7724985345285771
            ]
        },
        {
            "positions": [
                0.44004470081554925,
                -1.5798449084521826,
                1.6368341340659391,
                0.8501885164522814,
                -0.16126290420964756,
                0.7333057160838214
            ]
        },
        {
            "positions": [
                0.49289157284889856,
                -1.576909437897278,
                1.483143357219696,
                0.740528501976512,
                -0.12714280989010135,
                0.6941128976390658
            ]
        },
        {
            "positions": [
                0.5457384448822479,
                -1.5739739673423734,
                1.329452580373453,
                0.6308684875007426,
                -0.09302271557055516,
                0.6549200791943102
            ]
        },
        {
            "positions": [
                0.5985853169155972,
                -1.5710384967874689,
                1.17576180352721,
                0.5212084730249733,
                -0.05890262125100895,
                0.6157272607495546
            ]
        },
        {
            "positions": [
                0.6514321889489465,
                -1.5681030262325644,
                1.0220710266809667,
                0.41154845854920385,
                -0.02478252693146274,
                0.576534442304799
            ]
        },
        {
            "positions": [
                0.7042790609822959,
                -1.5651675556776596,
                0.8683802498347237,
                0.3018884440734344,
                0.009337567388083473,
                0.5373416238600434
            ]
        },
        {
            "positions": [
                0.7571259330156451,
                -1.5622320851227551,
                0.7146894729884807,
                0.19222842959766506,
                0.04345766170762966,
                0.4981488054152877
            ]
        },
        {
            "positions": [
                0.8099728050489945,
                -1.5592966145678504,
                0.5609986961422375,
                0.08256841512189561,
                0.07757775602717587,
                0.4589559869705321
            ]
        },
        {
            "positions": [
                0.8628196770823438,
                -1.556361144012946,
                0.40730791929599475,
                -0.02709159935387362,
                0.11169785034672208,
                0.4197631685257765
            ]
        },
        {
            "positions": [
                0.9156665491156931,
                -1.5534256734580414,
                0.25361714244975153,
                -0.13675161382964318,
                0.1458179446662683,
                0.38057035008102086
            ]
        },
        {
            "positions": [
                0.9685134211490424,
                -1.5504902029031367,
                0.09992636560350854,
                -0.24641162830541252,
                0.1799380389858145,
                0.3413775316362652
            ]
        },
        {
            "positions": [
                1.0213602931823917,
                -1.5475547323482322,
                -0.053764411242734456,
                -0.35607164278118186,
                0.21405813330536066,
                0.30218471319150964
            ]
        },
        {
            "positions": [
                1.074207165215741,
                -1.5446192617933274,
                -0.20745518808897767,
                -0.4657316572569514,
                0.24817822762490693,
                0.262991894746754
            ]
        },
        {
            "positions": [
                1.1270540372490903,
                -1.541683791238423,
                -0.36114596493522066,
                -0.5753916717327208,
                0.2822983219444531,
                0.22379907630199836
            ]
        },
        {
            "positions": [
                1.1799009092824395,
                -1.5387483206835184,
                -0.5148367417814637,
                -0.6850516862084901,
                0.3164184162639993,
                0.18460625785724272
            ]
        },
        {
            "positions": [
                1.2327477813157888,
                -1.5358128501286137,
                -0.6685275186277067,
                -0.7947117006842594,
                0.3505385105835455,
                0.1454134394124872
            ]
        },
        {
            "positions": [
                1.2855946533491385,
                -1.5328773795737092,
                -0.8222182954739501,
                -0.904371715160029,
                0.3846586049030917,
                0.10622062096773144
            ]
        },
        {
            "positions": [
                1.3384415253824877,
                -1.5299419090188047,
                -0.9759090723201931,
                -1.0140317296357986,
                0.41877869922263794,
                0.0670278025229758
            ]
        },
        {
            "positions": [
                1.391288397415837,
                -1.5270064384639,
                -1.1295998491664356,
                -1.1236917441115675,
                0.45289879354218415,
                0.02783498407822027
            ]
        },
        {
            "positions": [
                1.4441352694491862,
                -1.5240709679089954,
                -1.2832906260126786,
                -1.2333517585873368,
                0.48701888786173037,
                -0.011357834366535369
            ]
        },
        {
            "positions": [
                1.4969821414825355,
                -1.5211354973540907,
                -1.436981402858922,
                -1.3430117730631066,
                0.5211389821812766,
                -0.05055065281129101
            ]
        },
        {
            "positions": [
                1.5498290135158848,
                -1.5182000267991862,
                -1.5906721797051653,
                -1.452671787538876,
                0.5552590765008228,
                -0.08974347125604665
            ]
        },
        {
            "positions": [
                1.6248109359760896,
                -1.548919621816811,
                -1.6236158948865498,
                -1.5171841075105963,
                0.5160138973514735,
                0.033575502449243705
            ]
        },
        {
            "positions": [
                1.6997928584362945,
                -1.579639216834436,
                -1.6565596100679343,
                -1.5816964274823164,
                0.47676871820212424,
                0.15689447615453406
            ]
        },
        {
            "positions": [
                1.7747747808964993,
                -1.6103588118520609,
                -1.6895033252493186,
                -1.6462087474540368,
                0.43752353905277497,
                0.2802134498598244
            ]
        },
        {
            "positions": [
                1.8497567033567042,
                -1.6410784068696858,
                -1.722447040430703,
                -1.710721067425757,
                0.39827835990342564,
                0.40353242356511476
            ]
        },
        {
            "positions": [
                1.924738625816909,
                -1.6717980018873106,
                -1.7553907556120876,
                -1.7752333873974773,
                0.3590331807540764,
                0.5268513972704051
            ]
        },
        {
            "positions": [
                1.9997205482771139,
                -1.7025175969049355,
                -1.788334470793472,
                -1.8397457073691976,
                0.3197880016047271,
                0.6501703709756954
            ]
        },
        {
            "positions": [
                2.0747024707373187,
                -1.7332371919225604,
                -1.8212781859748566,
                -1.904258027340918,
                0.2805428224553778,
                0.7734893446809858
            ]
        },
        {
            "positions": [
                2.1496843931975236,
                -1.7639567869401853,
                -1.854221901156241,
                -1.9687703473126381,
                0.2412976433060285,
                0.8968083183862762
            ]
        },
        {
            "positions": [
                2.2246663156577284,
                -1.7946763819578102,
                -1.8871656163376254,
                -2.0332826672843582,
                0.20205246415667916,
                1.0201272920915665
            ]
        },
        {
            "positions": [
                2.2996482381179333,
                -1.825395976975435,
                -1.9201093315190099,
                -2.0977949872560786,
                0.16280728500732994,
                1.143446265796857
            ]
        },
        {
            "positions": [
                2.374630160578138,
                -1.85611557199306,
                -1.9530530467003944,
                -2.162307307227799,
                0.1235621058579806,
                1.2667652395021474
            ]
        },
        {
            "positions": [
                2.403176448927759,
                -1.8890401643415833,
                -1.923086777865954,
                -2.1898853537740375,
                0.06369445443998345,
                1.4531940597904383
            ]
        },
        {
            "positions": [
                2.4317227372773798,
                -1.9219647566901068,
                -1.8931205090315137,
                -2.217463400320276,
                0.0038268030219862914,
                1.6396228800787291
            ]
        },
        {
            "positions": [
                2.460269025627001,
                -1.95488934903863,
                -1.8631542401970733,
                -2.2450414468665145,
                -0.05604084839601085,
                1.82605170036702
            ]
        },
        {
            "positions": [
                2.4888153139766214,
                -1.9878139413871536,
                -1.833187971362633,
                -2.272619493412753,
                -0.11590849981400801,
                2.012480520655311
            ]
        },
        {
            "positions": [
                2.5173616023262424,
                -2.0207385337356767,
                -1.8032217025281927,
                -2.300197539958991,
                -0.17577615123200513,
                2.198909340943602
            ]
        },
        {
            "positions": [
                2.5459078906758634,
                -2.0536631260842,
                -1.7732554336937523,
                -2.3277755865052296,
                -0.2356438026500023,
                2.3853381612318927
            ]
        },
        {
            "positions": [
                2.574454179025484,
                -2.0865877184327237,
                -1.7432891648593118,
                -2.355353633051468,
                -0.2955114540679994,
                2.5717669815201836
            ]
        },
        {
            "positions": [
                2.603000467375105,
                -2.1195123107812472,
                -1.7133228960248714,
                -2.3829316795977067,
                -0.3553791054859966,
                2.758195801808475
            ]
        },
        {
            "positions": [
                2.6315467557247256,
                -2.1524369031297703,
                -1.6833566271904312,
                -2.410509726143945,
                -0.41524675690399376,
                2.944624622096766
            ]
        },
        {
            "positions": [
                2.6600930440743467,
                -2.185361495478294,
                -1.6533903583559908,
                -2.4380877726901837,
                -0.4751144083219909,
                3.1310534423850567
            ]
        }
    ]
}