{
    "goal": {
        "global_pose": {
            "orientation": {
                "w": -0.4816463035849501,
                "x": 0.5182115481033762,
                "y": 0.4908360881923453,
                "z": -0.5084816262002911
            },
            "position": {
                "x": -0.8240239810943604,
                "y": 0.19912469901144506,
                "z": 0.16403168439865112
            }
        },
        "name": "move_to_storage_D"
    },
    "id": "LBKPIECE_move_to_storage_D_108",
    "joint_names": [
        "shoulder_pan_joint",
        "shoulder_lift_joint",
        "elbow_joint",
        "wrist_1_joint",
        "wrist_2_joint",
        "wrist_3_joint"
    ],
    "metrics": {
        "cart_traj_len": 0.6339256289760513,
        "distance_elbow_joint": 0.5656485026111544,
        "distance_shoulder_lift_joint": 0.16926829975373536,
        "distance_shoulder_pan_joint": 0.2931309851439287,
        "distance_wrist_1_joint": 3.8347769022108693,
        "distance_wrist_2_joint": 1.887592910317274,
        "distance_wrist_3_joint": 3.148488378476969,
        "smoothness": 0.28954498705560205,
        "time": 0.319069592,
        "traj_len": 3.1462526882807635,
        "weighted_distance": 4.681693341943277
    },
    "planner": "LBKPIECE",
    "start": {
        "state": {
            "elbow_joint": -2.384821988534728,
            "shoulder_lift_joint": -2.2788054721415256,
            "shoulder_pan_joint": -0.1854694642142757,
            "wrist_1_joint": 1.4845938289331202,
            "wrist_2_joint": 0.17898776772866878,
            "wrist_3_joint": 0.037105688729662994
        }
    },
    "waypoints": [
        {
            "positions": [
                -0.1854694642142757,
                -2.2788054721415256,
                -2.384821988534728,
                1.4845938289331202,
                0.17898776772866878,
                0.037105688729662994
            ]
        },
        {
            "positions": [
                -0.13919424519540588,
                -2.2877408078153216,
                -2.3889141573206247,
                1.3686239196285508,
                0.1385031640843833,
                0.05280581896424169
            ]
        },
        {
            "positions": [
                -0.05126533513888058,
                -2.214598838106058,
                -2.2625879210052835,
                1.3069322444892637,
                0.16567268982217737,
                0.04711773231518805
            ]
        },
        {
            "positions": [
                0.036663574917644715,
                -2.1414568683967943,
                -2.1362616846899423,
                1.2452405693499764,
                0.1928422155599714,
                0.04142964566613441
            ]
        },
        {
            "positions": [
                0.03357670769973132,
                -2.1408460412376025,
                -2.1228310820293084,
                1.0889178022792056,
                0.1148957262035627,
                -0.09428392280970394
            ]
        },
        {
            "positions": [
                0.03048984048181793,
                -2.1402352140784107,
                -2.109400479368675,
                0.9325950352084351,
                0.03694923684715398,
                -0.22999749128554228
            ]
        },
        {
            "positions": [
                0.027402973263904534,
                -2.139624386919219,
                -2.095969876708041,
                0.7762722681376644,
                -0.040997252509254706,
                -0.36571105976138063
            ]
        },
        {
            "positions": [
                0.024316106045991142,
                -2.139013559760027,
                -2.0825392740474076,
                0.6199495010668937,
                -0.11894374186566345,
                -0.501424628237219
            ]
        },
        {
            "positions": [
                0.02122923882807775,
                -2.1384027326008352,
                -2.0691086713867737,
                0.4636267339961231,
                -0.19689023122207214,
                -0.6371381967130574
            ]
        },
        {
            "positions": [
                0.018142371610164357,
                -2.1377919054416434,
                -2.0556780687261402,
                0.30730396692535233,
                -0.27483672057848085,
                -0.7728517651888958
            ]
        },
        {
            "positions": [
                0.015055504392250962,
                -2.1371810782824516,
                -2.0422474660655063,
                0.15098119985458158,
                -0.35278320993488965,
                -0.9085653336647341
            ]
        },
        {
            "positions": [
                0.01196863717433757,
                -2.13657025112326,
                -2.028816863404873,
                -0.005341567216188947,
                -0.43072969929129834,
                -1.0442789021405723
            ]
        },
        {
            "positions": [
                0.008881769956424177,
                -2.135959423964068,
                -2.015386260744239,
                -0.1616643342869597,
                -0.508676188647707,
                -1.1799924706164107
            ]
        },
        {
            "positions": [
                0.005794902738510785,
                -2.135348596804876,
                -2.001955658083605,
                -0.31798710135773023,
                -0.5866226780041157,
                -1.315706039092249
            ]
        },
        {
            "positions": [
                0.002708035520597389,
                -2.1347377696456844,
                -1.9885250554229716,
                -0.474309868428501,
                -0.6645691673605245,
                -1.4514196075680874
            ]
        },
        {
            "positions": [
                -0.0003788316973159997,
                -2.134126942486492,
                -1.9750944527623377,
                -0.6306326354992717,
                -0.7425156567169331,
                -1.5871331760439258
            ]
        },
        {
            "positions": [
                -0.0034656989152293885,
                -2.1335161153273003,
                -1.961663850101704,
                -0.786955402570042,
                -0.8204621460733419,
                -1.722846744519764
            ]
        },
        {
            "positions": [
                -0.006552566133142791,
                -2.1329052881681085,
                -1.9482332474410704,
                -0.9432781696408132,
                -0.8984086354297507,
                -1.8585603129956025
            ]
        },
        {
            "positions": [
                -0.00963943335105618,
                -2.1322944610089167,
                -1.9348026447804367,
                -1.0996009367115835,
                -0.9763551247861593,
                -1.9942738814714407
            ]
        },
        {
            "positions": [
                -0.012726300568969576,
                -2.131683633849725,
                -1.921372042119803,
                -1.2559237037823543,
                -1.054301614142568,
                -2.1299874499472793
            ]
        },
        {
            "positions": [
                -0.015813167786882965,
                -2.131072806690533,
                -1.9079414394591694,
                -1.412246470853125,
                -1.1322481034989766,
                -2.2657010184231177
            ]
        },
        {
            "positions": [
                -0.01890003500479636,
                -2.1304619795313413,
                -1.8945108367985357,
                -1.5685692379238958,
                -1.2101945928553854,
                -2.401414586898956
            ]
        },
        {
            "positions": [
                -0.021986902222709756,
                -2.1298511523721495,
                -1.8810802341379018,
                -1.7248920049946666,
                -1.2881410822117942,
                -2.5371281553747944
            ]
        },
        {
            "positions": [
                -0.025073769440623145,
                -2.1292403252129577,
                -1.8676496314772684,
                -1.8812147720654369,
                -1.3660875715682028,
                -2.672841723850633
            ]
        },
        {
            "positions": [
                -0.028160636658536534,
                -2.128629498053766,
                -1.8542190288166345,
                -2.0375375391362076,
                -1.4440340609246114,
                -2.808555292326471
            ]
        },
        {
            "positions": [
                -0.031247503876449936,
                -2.128018670894574,
                -1.8407884261560008,
                -2.1938603062069784,
                -1.5219805502810204,
                -2.9442688608023095
            ]
        },
        {
            "positions": [
                -0.034334371094363325,
                -2.1274078437353823,
                -1.8273578234953671,
                -2.350183073277749,
                -1.599927039637429,
                -3.079982429278148
            ]
        }
    ]
}