{
    "goal": {
        "global_pose": {
            "orientation": {
                "w": -0.4816463035849501,
                "x": 0.5182115481033762,
                "y": 0.4908360881923453,
                "z": -0.5084816262002911
            },
            "position": {
                "x": -0.8240239810943604,
                "y": 0.19912469901144506,
                "z": 0.16403168439865112
            }
        },
        "name": "move_to_storage_D"
    },
    "id": "LBKPIECE_move_to_storage_D_53",
    "joint_names": [
        "shoulder_pan_joint",
        "shoulder_lift_joint",
        "elbow_joint",
        "wrist_1_joint",
        "wrist_2_joint",
        "wrist_3_joint"
    ],
    "metrics": {
        "cart_traj_len": 3.716629363627903,
        "distance_elbow_joint": 4.219895893205558,
        "distance_shoulder_lift_joint": 1.264525553809764,
        "distance_shoulder_pan_joint": 2.813683132904987,
        "distance_wrist_1_joint": 2.2608786571486226,
        "distance_wrist_2_joint": 0.9452728490563826,
        "distance_wrist_3_joint": 3.136749670035161,
        "smoothness": 0.13755309164666954,
        "time": 0.723117047,
        "traj_len": 3.8263567209762965,
        "weighted_distance": 4.911278509964163
    },
    "planner": "LBKPIECE",
    "start": {
        "state": {
            "elbow_joint": -2.384821988534728,
            "shoulder_lift_joint": -2.2788054721415256,
            "shoulder_pan_joint": -0.1854694642142757,
            "wrist_1_joint": 1.4845938289331202,
            "wrist_2_joint": 0.17898776772866878,
            "wrist_3_joint": 0.037105688729662994
        }
    },
    "waypoints": [
        {
            "positions": [
                -0.1854694642142757,
                -2.2788054721415256,
                -2.384821988534728,
                1.4845938289331202,
                0.17898776772866878,
                0.037105688729662994
            ]
        },
        {
            "positions": [
                -0.1454347078686714,
                -2.2322533614384095,
                -2.390691767158143,
                1.482610292074134,
                0.14903070835651594,
                0.03730503061931592
            ]
        },
        {
            "positions": [
                -0.061903102115885025,
                -2.195560501680433,
                -2.269817316562213,
                1.4292289682628314,
                0.17328261978293863,
                0.11443894453155656
            ]
        },
        {
            "positions": [
                0.02162850363690136,
                -2.158867641922457,
                -2.1489428659662826,
                1.3758476444515289,
                0.19753453120936135,
                0.1915728584437972
            ]
        },
        {
            "positions": [
                0.10516010938968773,
                -2.1221747821644805,
                -2.0280684153703525,
                1.3224663206402263,
                0.22178644263578404,
                0.26870677235603785
            ]
        },
        {
            "positions": [
                0.18869171514247413,
                -2.085481922406504,
                -1.9071939647744223,
                1.2690849968289237,
                0.24603835406220675,
                0.34584068626827846
            ]
        },
        {
            "positions": [
                0.2722233208952605,
                -2.048789062648528,
                -1.786319514178492,
                1.2157036730176212,
                0.27029026548862944,
                0.42297460018051913
            ]
        },
        {
            "positions": [
                0.35575492664804687,
                -2.0120962028905516,
                -1.665445063582562,
                1.1623223492063186,
                0.29454217691505213,
                0.5001085140927598
            ]
        },
        {
            "positions": [
                0.43928653240083326,
                -1.9754033431325753,
                -1.5445706129866317,
                1.108941025395016,
                0.3187940883414748,
                0.5772424280050005
            ]
        },
        {
            "positions": [
                0.5228181381536197,
                -1.938710483374599,
                -1.4236961623907014,
                1.0555597015837135,
                0.3430459997678975,
                0.654376341917241
            ]
        },
        {
            "positions": [
                0.6063497439064061,
                -1.9020176236166226,
                -1.3028217117947714,
                1.002178377772411,
                0.36729791119432026,
                0.7315102558294817
            ]
        },
        {
            "positions": [
                0.6898813496591925,
                -1.8653247638586463,
                -1.181947261198841,
                0.9487970539611084,
                0.391549822620743,
                0.8086441697417224
            ]
        },
        {
            "positions": [
                0.7734129554119787,
                -1.82863190410067,
                -1.061072810602911,
                0.8954157301498058,
                0.41580173404716564,
                0.8857780836539629
            ]
        },
        {
            "positions": [
                0.8569445611647651,
                -1.7919390443426937,
                -0.9401983600069808,
                0.8420344063385032,
                0.44005364547358833,
                0.9629119975662036
            ]
        },
        {
            "positions": [
                0.9404761669175515,
                -1.7552461845847174,
                -0.8193239094110505,
                0.7886530825272007,
                0.4643055569000111,
                1.0400459114784444
            ]
        },
        {
            "positions": [
                1.024007772670338,
                -1.718553324826741,
                -0.6984494588151202,
                0.7352717587158981,
                0.48855746832643376,
                1.117179825390685
            ]
        },
        {
            "positions": [
                1.1075393784231244,
                -1.6818604650687647,
                -0.57757500821919,
                0.6818904349045956,
                0.5128093797528566,
                1.1943137393029257
            ]
        },
        {
            "positions": [
                1.1910709841759108,
                -1.6451676053107884,
                -0.4567005576232599,
                0.628509111093293,
                0.5370612911792791,
                1.2714476532151662
            ]
        },
        {
            "positions": [
                1.2746025899286968,
                -1.6084747455528121,
                -0.33582610702733007,
                0.5751277872819905,
                0.5613132026057018,
                1.3485815671274068
            ]
        },
        {
            "positions": [
                1.3581341956814836,
                -1.5717818857948358,
                -0.21495165643139957,
                0.5217464634706879,
                0.5855651140321245,
                1.4257154810396475
            ]
        },
        {
            "positions": [
                1.4416658014342696,
                -1.5350890260368595,
                -0.09407720583546952,
                0.4683651396593853,
                0.6098170254585473,
                1.5028493949518882
            ]
        },
        {
            "positions": [
                1.5251974071870564,
                -1.498396166278883,
                0.02679724476046097,
                0.41498381584808275,
                0.63406893688497,
                1.5799833088641289
            ]
        },
        {
            "positions": [
                1.6087290129398428,
                -1.4617033065209069,
                0.14767169535639102,
                0.3616024920367802,
                0.6583208483113927,
                1.6571172227763695
            ]
        },
        {
            "positions": [
                1.6922606186926288,
                -1.4250104467629305,
                0.26854614595232107,
                0.3082211682254776,
                0.6825727597378153,
                1.73425113668861
            ]
        },
        {
            "positions": [
                1.7757922244454156,
                -1.388317587004954,
                0.38942059654825156,
                0.25483984441417507,
                0.7068246711642381,
                1.8113850506008509
            ]
        },
        {
            "positions": [
                1.8593238301982016,
                -1.3516247272469777,
                0.5102950471441816,
                0.2014585206028725,
                0.7310765825906607,
                1.8885189645130913
            ]
        },
        {
            "positions": [
                1.942855435950988,
                -1.3149318674890016,
                0.6311694977401117,
                0.14807719679156994,
                0.7553284940170835,
                1.965652878425332
            ]
        },
        {
            "positions": [
                2.0263870417037744,
                -1.278239007731025,
                0.7520439483360422,
                0.09469587298026738,
                0.7795804054435063,
                2.042786792337573
            ]
        },
        {
            "positions": [
                2.1099186474565608,
                -1.2415461479730487,
                0.8729183989319722,
                0.04131454916896482,
                0.8038323168699288,
                2.1199207062498133
            ]
        },
        {
            "positions": [
                2.193450253209347,
                -1.2048532882150724,
                0.9937928495279027,
                -0.012066774642337741,
                0.8280842282963516,
                2.197054620162054
            ]
        },
        {
            "positions": [
                2.2769818589621336,
                -1.1681604284570961,
                1.1146673001238327,
                -0.06544809845364029,
                0.8523361397227743,
                2.2741885340742947
            ]
        },
        {
            "positions": [
                2.320885835178206,
                -1.1489253646914293,
                1.2032506810363535,
                -0.1543026896738731,
                0.8788374345125207,
                2.386646887160611
            ]
        },
        {
            "positions": [
                2.364789811394278,
                -1.1296903009257626,
                1.2918340619488742,
                -0.24315728089410588,
                0.9053387293022672,
                2.499105240246927
            ]
        },
        {
            "positions": [
                2.4086937876103502,
                -1.1104552371600958,
                1.3804174428613951,
                -0.3320118721143387,
                0.9318400240920136,
                2.6115635933332433
            ]
        },
        {
            "positions": [
                2.4525977638264225,
                -1.091220173394429,
                1.4690008237739156,
                -0.4208664633345715,
                0.95834131888176,
                2.724021946419559
            ]
        },
        {
            "positions": [
                2.4965017400424947,
                -1.071985109628762,
                1.5575842046864365,
                -0.5097210545548043,
                0.9848426136715065,
                2.8364802995058755
            ]
        },
        {
            "positions": [
                2.540405716258567,
                -1.0527500458630952,
                1.6461675855989573,
                -0.5985756457750371,
                1.011343908461253,
                2.948938652592192
            ]
        },
        {
            "positions": [
                2.584309692474639,
                -1.0335149820974285,
                1.734750966511478,
                -0.68743023699527,
                1.0378452032509993,
                3.061397005678508
            ]
        },
        {
            "positions": [
                2.6282136686907114,
                -1.0142799183317617,
                1.8233343474239987,
                -0.7762848282155027,
                1.0643464980407458,
                3.173855358764824
            ]
        }
    ]
}