{
    "goal": {
        "global_pose": {
            "orientation": {
                "w": 0.7031023502349854,
                "x": -0.7110244035720825,
                "y": 0.007748599164187908,
                "z": 0.005598929710686207
            },
            "position": {
                "x": 0.11585023208521307,
                "y": 0.44412534475326537,
                "z": 0.3711530566215515
            }
        },
        "name": "move_to_auspresseinheit_A"
    },
    "id": "LBKPIECE_move_to_auspresseinheit_A_129",
    "joint_names": [
        "shoulder_pan_joint",
        "shoulder_lift_joint",
        "elbow_joint",
        "wrist_1_joint",
        "wrist_2_joint",
        "wrist_3_joint"
    ],
    "metrics": {
        "cart_traj_len": 4.848481066276205,
        "distance_elbow_joint": 5.044522152410047,
        "distance_shoulder_lift_joint": 0.6183736695345401,
        "distance_shoulder_pan_joint": 4.090138291884773,
        "distance_wrist_1_joint": 2.7555035243177506,
        "distance_wrist_2_joint": 1.2707422283902916,
        "distance_wrist_3_joint": 5.323517246095525,
        "smoothness": 0.3315840251755578,
        "time": 0.39001811799999997,
        "traj_len": 4.370674674765089,
        "weighted_distance": 5.811718967528626
    },
    "planner": "LBKPIECE",
    "start": {
        "state": {
            "elbow_joint": 2.4225746658250005,
            "shoulder_lift_joint": -1.3736534386056498,
            "shoulder_pan_joint": -0.3378633547517467,
            "wrist_1_joint": -1.0288598680537169,
            "wrist_2_joint": 1.233022673432363,
            "wrist_3_joint": -3.0940220416140027
        }
    },
    "waypoints": [
        {
            "positions": [
                -0.3378633547517467,
                -1.3736534386056498,
                2.4225746658250005,
                -1.0288598680537169,
                1.233022673432363,
                -3.0940220416140027
            ]
        },
        {
            "positions": [
                -0.2967309588821187,
                -1.386698276812158,
                2.2890902130368755,
                -0.9617091263708081,
                1.2522627779321105,
                -2.9798744541702695
            ]
        },
        {
            "positions": [
                -0.25559856301249073,
                -1.3997431150186666,
                2.155605760248751,
                -0.8945583846878992,
                1.271502882431858,
                -2.865726866726536
            ]
        },
        {
            "positions": [
                -0.2144661671428627,
                -1.4127879532251748,
                2.022121307460626,
                -0.8274076430049904,
                1.2907429869316054,
                -2.7515792792828027
            ]
        },
        {
            "positions": [
                -0.17333377127323468,
                -1.4258327914316833,
                1.8886368546725016,
                -0.7602569013220815,
                1.3099830914313528,
                -2.637431691839069
            ]
        },
        {
            "positions": [
                -0.13220137540360666,
                -1.4388776296381915,
                1.7551524018843767,
                -0.6931061596391728,
                1.3292231959311003,
                -2.523284104395336
            ]
        },
        {
            "positions": [
                -0.09106897953397866,
                -1.4519224678447,
                1.6216679490962522,
                -0.6259554179562639,
                1.3484633004308477,
                -2.409136516951602
            ]
        },
        {
            "positions": [
                -0.049936583664350664,
                -1.4649673060512083,
                1.4881834963081273,
                -0.558804676273355,
                1.3677034049305952,
                -2.294988929507869
            ]
        },
        {
            "positions": [
                -0.00880418779472264,
                -1.4780121442577168,
                1.3546990435200026,
                -0.49165393459044615,
                1.3869435094303426,
                -2.1808413420641353
            ]
        },
        {
            "positions": [
                0.032328208074905385,
                -1.491056982464225,
                1.2212145907318779,
                -0.42450319290753735,
                1.40618361393009,
                -2.0666937546204016
            ]
        },
        {
            "positions": [
                0.07346060394453341,
                -1.5041018206707335,
                1.0877301379437532,
                -0.35735245122462855,
                1.4254237184298375,
                -1.9525461671766686
            ]
        },
        {
            "positions": [
                0.11459299981416138,
                -1.5171466588772418,
                0.9542456851556285,
                -0.29020170954171964,
                1.444663822929585,
                -1.8383985797329352
            ]
        },
        {
            "positions": [
                0.1557253956837894,
                -1.5301914970837502,
                0.8207612323675038,
                -0.22305096785881084,
                1.4639039274293324,
                -1.7242509922892018
            ]
        },
        {
            "positions": [
                0.19685779155341748,
                -1.5432363352902585,
                0.687276779579379,
                -0.15590022617590205,
                1.4831440319290798,
                -1.6101034048454683
            ]
        },
        {
            "positions": [
                0.2379901874230454,
                -1.556281173496767,
                0.5537923267912541,
                -0.08874948449299314,
                1.5023841364288273,
                -1.4959558174017349
            ]
        },
        {
            "positions": [
                0.2791225832926734,
                -1.5693260117032752,
                0.42030787400312963,
                -0.021598742810084337,
                1.5216242409285747,
                -1.3818082299580015
            ]
        },
        {
            "positions": [
                0.32025497916230145,
                -1.5823708499097837,
                0.2868234212150047,
                0.04555199887282457,
                1.5408643454283222,
                -1.267660642514268
            ]
        },
        {
            "positions": [
                0.36138737503192947,
                -1.595415688116292,
                0.15333896842688022,
                0.11270274055573326,
                1.5601044499280694,
                -1.1535130550705346
            ]
        },
        {
            "positions": [
                0.4025197709015575,
                -1.6084605263228005,
                0.019854515638755288,
                0.17985348223864217,
                1.5793445544278168,
                -1.039365467626801
            ]
        },
        {
            "positions": [
                0.4436521667711854,
                -1.6215053645293087,
                -0.1136299371493692,
                0.24700422392155086,
                1.5985846589275643,
                -0.9252178801830682
            ]
        },
        {
            "positions": [
                0.48478456264081354,
                -1.6345502027358172,
                -0.24711438993749413,
                0.31415496560445977,
                1.6178247634273117,
                -0.8110702927393345
            ]
        },
        {
            "positions": [
                0.5259169585104415,
                -1.6475950409423255,
                -0.3805988427256186,
                0.38130570728736846,
                1.6370648679270592,
                -0.6969227052956013
            ]
        },
        {
            "positions": [
                0.5670493543800694,
                -1.660639879148834,
                -0.5140832955137435,
                0.4484564489702776,
                1.6563049724268066,
                -0.5827751178518676
            ]
        },
        {
            "positions": [
                0.6081817502496976,
                -1.6736847173553422,
                -0.647567748301868,
                0.5156071906531863,
                1.675545076926554,
                -0.46862753040813443
            ]
        },
        {
            "positions": [
                0.6493141461193255,
                -1.6867295555618507,
                -0.781052201089993,
                0.5827579323360952,
                1.6947851814263015,
                -0.3544799429644008
            ]
        },
        {
            "positions": [
                0.6904465419889536,
                -1.699774393768359,
                -0.9145366538781174,
                0.6499086740190039,
                1.714025285926049,
                -0.24033235552066756
            ]
        },
        {
            "positions": [
                0.7315789378585817,
                -1.7128192319748674,
                -1.0480211066662424,
                0.7170594157019128,
                1.7332653904257964,
                -0.1261847680769339
            ]
        },
        {
            "positions": [
                0.7727113337282097,
                -1.7258640701813757,
                -1.1815055594543669,
                0.7842101573848215,
                1.7525054949255439,
                -0.012037180633200695
            ]
        },
        {
            "positions": [
                0.8138437295978376,
                -1.7389089083878841,
                -1.3149900122424922,
                0.8513608990677306,
                1.7717455994252913,
                0.10211040681053296
            ]
        },
        {
            "positions": [
                0.8549761254674655,
                -1.7519537465943924,
                -1.4484744650306167,
                0.9185116407506393,
                1.7909857039250388,
                0.21625799425426617
            ]
        },
        {
            "positions": [
                0.8961085213370936,
                -1.7649985848009009,
                -1.5819589178187412,
                0.9856623824335482,
                1.8102258084247862,
                0.33040558169799983
            ]
        },
        {
            "positions": [
                0.9372409172067215,
                -1.7780434230074091,
                -1.7154433706068657,
                1.0528131241164569,
                1.8294659129245336,
                0.44455316914173304
            ]
        },
        {
            "positions": [
                0.9783733130763497,
                -1.7910882612139176,
                -1.848927823394991,
                1.119963865799366,
                1.848706017424281,
                0.5587007565854667
            ]
        },
        {
            "positions": [
                1.0195057089459776,
                -1.8041330994204259,
                -1.9824122761831156,
                1.1871146074822747,
                1.8679461219240285,
                0.6728483440291999
            ]
        },
        {
            "positions": [
                1.0606381048156057,
                -1.8171779376269344,
                -2.11589672897124,
                1.2542653491651834,
                1.887186226423776,
                0.7869959314729336
            ]
        },
        {
            "positions": [
                1.1017705006852336,
                -1.8302227758334426,
                -2.2493811817593645,
                1.321416090848092,
                1.9064263309235234,
                0.9011435189166668
            ]
        },
        {
            "positions": [
                1.1429028965548618,
                -1.843267614039951,
                -2.38286563454749,
                1.3885668325310012,
                1.9256664354232709,
                1.0152911063604009
            ]
        },
        {
            "positions": [
                1.1840352924244897,
                -1.8563124522464594,
                -2.5163500873356144,
                1.4557175742139097,
                1.9449065399230183,
                1.1294386938041332
            ]
        },
        {
            "positions": [
                0.9700153220321116,
                -1.8450028975886485,
                -2.5251498706064,
                1.4331404007097328,
                1.8983350097647154,
                1.0377673179143507
            ]
        },
        {
            "positions": [
                0.7559953516397335,
                -1.8336933429308375,
                -2.5339496538771864,
                1.410563227205556,
                1.8517634796064122,
                0.9460959420245681
            ]
        },
        {
            "positions": [
                0.5419753812473554,
                -1.8223837882730267,
                -2.542749437147972,
                1.3879860537013788,
                1.8051919494481092,
                0.8544245661347856
            ]
        },
        {
            "positions": [
                0.32795541085497737,
                -1.811074233615216,
                -2.551549220418758,
                1.365408880197202,
                1.7586204192898063,
                0.7627531902450031
            ]
        },
        {
            "positions": [
                0.11393544046259918,
                -1.7997646789574049,
                -2.560349003689544,
                1.342831706693025,
                1.712048889131503,
                0.6710818143552204
            ]
        },
        {
            "positions": [
                -0.10008452992977879,
                -1.788455124299594,
                -2.56914878696033,
                1.320254533188848,
                1.6654773589732002,
                0.5794104384654379
            ]
        },
        {
            "positions": [
                -0.314104500322157,
                -1.7771455696417833,
                -2.577948570231116,
                1.2976773596846711,
                1.618905828814897,
                0.48773906257565536
            ]
        },
        {
            "positions": [
                -0.5281244707145349,
                -1.7658360149839722,
                -2.586748353501902,
                1.2751001861804943,
                1.5723342986565942,
                0.3960676866858729
            ]
        },
        {
            "positions": [
                -0.7421444411069129,
                -1.7545264603261614,
                -2.595548136772688,
                1.2525230126763174,
                1.525762768498291,
                0.3043963107960903
            ]
        },
        {
            "positions": [
                -0.9561644114992913,
                -1.7432169056683506,
                -2.6043479200434736,
                1.2299458391721405,
                1.479191238339988,
                0.21272493490630773
            ]
        },
        {
            "positions": [
                -1.1701843818916693,
                -1.7319073510105396,
                -2.61314770331426,
                1.2073686656679634,
                1.4326197081816852,
                0.12105355901652537
            ]
        },
        {
            "positions": [
                -1.3842043522840473,
                -1.7205977963527288,
                -2.6219474865850456,
                1.1847914921637865,
                1.386048178023382,
                0.02938218312674263
            ]
        }
    ]
}