{
    "goal": {
        "global_pose": {
            "orientation": {
                "w": -0.4816463035849501,
                "x": 0.5182115481033762,
                "y": 0.4908360881923453,
                "z": -0.5084816262002911
            },
            "position": {
                "x": -0.8240239810943604,
                "y": 0.19912469901144506,
                "z": 0.16403168439865112
            }
        },
        "name": "move_to_storage_D"
    },
    "id": "LBKPIECE_move_to_storage_D_127",
    "joint_names": [
        "shoulder_pan_joint",
        "shoulder_lift_joint",
        "elbow_joint",
        "wrist_1_joint",
        "wrist_2_joint",
        "wrist_3_joint"
    ],
    "metrics": {
        "cart_traj_len": 0.8143948309330792,
        "distance_elbow_joint": 0.6963339007738516,
        "distance_shoulder_lift_joint": 0.1519607260062794,
        "distance_shoulder_pan_joint": 0.3860795835539662,
        "distance_wrist_1_joint": 3.8260500486926623,
        "distance_wrist_2_joint": 2.2463388792166703,
        "distance_wrist_3_joint": 3.2093954520300616,
        "smoothness": 0.27960460289029226,
        "time": 0.369049834,
        "traj_len": 3.242862715298551,
        "weighted_distance": 4.79659654570227
    },
    "planner": "LBKPIECE",
    "start": {
        "state": {
            "elbow_joint": -2.384821988534728,
            "shoulder_lift_joint": -2.2788054721415256,
            "shoulder_pan_joint": -0.1854694642142757,
            "wrist_1_joint": 1.4845938289331202,
            "wrist_2_joint": 0.17898776772866878,
            "wrist_3_joint": 0.037105688729662994
        }
    },
    "waypoints": [
        {
            "positions": [
                -0.1854694642142757,
                -2.2788054721415256,
                -2.384821988534728,
                1.4845938289331202,
                0.17898776772866878,
                0.037105688729662994
            ]
        },
        {
            "positions": [
                -0.15893028742534918,
                -2.2683408658746003,
                -2.3952744821438285,
                1.4663822803163433,
                0.1789917080691221,
                0.015514743206290668
            ]
        },
        {
            "positions": [
                -0.09834118393705454,
                -2.2403143560306504,
                -2.2387992566555335,
                1.3755429549026794,
                0.2380640766540337,
                0.014828360851745093
            ]
        },
        {
            "positions": [
                -0.03775208044875991,
                -2.2122878461867006,
                -2.082324031167238,
                1.2847036294890153,
                0.29713644523894533,
                0.014141978497199517
            ]
        },
        {
            "positions": [
                0.02283702303953472,
                -2.1842613363427508,
                -1.9258488056789427,
                1.1938643040753512,
                0.35620881382385694,
                0.013455596142653943
            ]
        },
        {
            "positions": [
                0.08342612652782937,
                -2.156234826498801,
                -1.7693735801906474,
                1.1030249786616872,
                0.41528118240876855,
                0.012769213788108368
            ]
        },
        {
            "positions": [
                0.078331170318618,
                -2.1549569969177766,
                -1.7719814282433244,
                0.9532649265564164,
                0.3278879013419611,
                0.151250038878913
            ]
        },
        {
            "positions": [
                0.07323621410940664,
                -2.153679167336753,
                -1.7745892762960014,
                0.8035048744511456,
                0.2404946202751537,
                0.28973086396971764
            ]
        },
        {
            "positions": [
                0.06814125790019528,
                -2.1524013377557285,
                -1.7771971243486782,
                0.6537448223458747,
                0.1531013392083463,
                0.42821168906052226
            ]
        },
        {
            "positions": [
                0.06304630169098391,
                -2.1511235081747047,
                -1.7798049724013552,
                0.503984770240604,
                0.06570805814153885,
                0.5666925141513269
            ]
        },
        {
            "positions": [
                0.05795134548177254,
                -2.1498456785936804,
                -1.7824128204540322,
                0.35422471813533307,
                -0.021685222925268588,
                0.7051733392421315
            ]
        },
        {
            "positions": [
                0.05285638927256117,
                -2.148567849012656,
                -1.7850206685067092,
                0.2044646660300622,
                -0.10907850399207597,
                0.8436541643329362
            ]
        },
        {
            "positions": [
                0.04776143306334981,
                -2.1472900194316322,
                -1.787628516559386,
                0.05470461392479131,
                -0.19647178505888352,
                0.9821349894237409
            ]
        },
        {
            "positions": [
                0.04266647685413845,
                -2.146012189850608,
                -1.790236364612063,
                -0.09505543818047935,
                -0.28386506612569085,
                1.1206158145145455
            ]
        },
        {
            "positions": [
                0.03757152064492708,
                -2.144734360269584,
                -1.79284421266474,
                -0.24481549028575045,
                -0.3712583471924984,
                1.2590966396053502
            ]
        },
        {
            "positions": [
                0.03247656443571572,
                -2.14345653068856,
                -1.795452060717417,
                -0.3945755423910211,
                -0.4586516282593057,
                1.3975774646961547
            ]
        },
        {
            "positions": [
                0.02738160822650435,
                -2.1421787011075355,
                -1.798059908770094,
                -0.544335594496292,
                -0.5460449093261132,
                1.5360582897869595
            ]
        },
        {
            "positions": [
                0.022286652017292984,
                -2.1409008715265117,
                -1.8006677568227707,
                -0.6940956466015629,
                -0.6334381903929205,
                1.674539114877764
            ]
        },
        {
            "positions": [
                0.017191695808081622,
                -2.1396230419454874,
                -1.8032756048754477,
                -0.8438556987068335,
                -0.7208314714597279,
                1.8130199399685685
            ]
        },
        {
            "positions": [
                0.012096739598870254,
                -2.138345212364463,
                -1.8058834529281247,
                -0.9936157508121046,
                -0.8082247525265356,
                1.9515007650593734
            ]
        },
        {
            "positions": [
                0.007001783389658886,
                -2.137067382783439,
                -1.8084913009808017,
                -1.1433758029173755,
                -0.8956180335933428,
                2.0899815901501784
            ]
        },
        {
            "positions": [
                0.0019068271804475317,
                -2.135789553202415,
                -1.8110991490334787,
                -1.293135855022646,
                -0.9830113146601502,
                2.228462415240983
            ]
        },
        {
            "positions": [
                -0.0031881290287638364,
                -2.134511723621391,
                -1.8137069970861555,
                -1.4428959071279168,
                -1.0704045957269577,
                2.3669432403317874
            ]
        },
        {
            "positions": [
                -0.008283085237975205,
                -2.133233894040367,
                -1.8163148451388325,
                -1.5926559592331881,
                -1.1577978767937653,
                2.5054240654225923
            ]
        },
        {
            "positions": [
                -0.013378041447186573,
                -2.1319560644593425,
                -1.8189226931915095,
                -1.7424160113384586,
                -1.2451911578605726,
                2.643904890513397
            ]
        },
        {
            "positions": [
                -0.018472997656397927,
                -2.1306782348783186,
                -1.8215305412441865,
                -1.8921760634437295,
                -1.33258443892738,
                2.7823857156042013
            ]
        },
        {
            "positions": [
                -0.023567953865609295,
                -2.1294004052972944,
                -1.8241383892968632,
                -2.0419361155490003,
                -1.4199777199941874,
                2.920866540695006
            ]
        },
        {
            "positions": [
                -0.028662910074820663,
                -2.1281225757162705,
                -1.8267462373495402,
                -2.191696167654271,
                -1.5073710010609949,
                3.059347365785811
            ]
        },
        {
            "positions": [
                -0.03375786628403204,
                -2.126844746135246,
                -1.8293540854022172,
                -2.341456219759542,
                -1.594764282127802,
                3.1978281908766153
            ]
        }
    ]
}