{
    "goal": {
        "global_pose": {
            "orientation": {
                "w": 0.5084816262002911,
                "x": -0.4908360881923452,
                "y": 0.5182115481033761,
                "z": -0.48164630358495003
            },
            "position": {
                "x": 0.5540239810943604,
                "y": -0.46912469901144505,
                "z": 0.16403168439865112
            }
        },
        "name": "move_to_storage_B"
    },
    "id": "LBKPIECE_move_to_storage_B_29",
    "joint_names": [
        "shoulder_pan_joint",
        "shoulder_lift_joint",
        "elbow_joint",
        "wrist_1_joint",
        "wrist_2_joint",
        "wrist_3_joint"
    ],
    "metrics": {
        "cart_traj_len": 3.0576264325098523,
        "distance_elbow_joint": 0.7055091367541717,
        "distance_shoulder_lift_joint": 2.392044227450352,
        "distance_shoulder_pan_joint": 2.183161617445486,
        "distance_wrist_1_joint": 2.992045558670018,
        "distance_wrist_2_joint": 2.700482183884188,
        "distance_wrist_3_joint": 3.1377658966928283,
        "smoothness": 0.27946457505543276,
        "time": 0.311053116,
        "traj_len": 3.756462248032987,
        "weighted_distance": 5.106766898619606
    },
    "planner": "LBKPIECE",
    "start": {
        "state": {
            "elbow_joint": 1.664937868594044,
            "shoulder_lift_joint": -0.661644460510453,
            "shoulder_pan_joint": -0.9139846352900073,
            "wrist_1_joint": 2.146753192139373,
            "wrist_2_joint": -2.2341966793290973,
            "wrist_3_joint": 0.005466555786416001
        }
    },
    "waypoints": [
        {
            "positions": [
                -0.9139846352900073,
                -0.661644460510453,
                1.664937868594044,
                2.146753192139373,
                -2.2341966793290973,
                0.005466555786416001
            ]
        },
        {
            "positions": [
                -0.9060722930358243,
                -0.6726318278423545,
                1.6667965109778813,
                2.145915627546172,
                -2.229063047867987,
                0.031123107011701356
            ]
        },
        {
            "positions": [
                -0.8537969112377112,
                -0.7470717947828399,
                1.6574617980759274,
                2.098363556392475,
                -2.166833800474431,
                0.1653697425062819
            ]
        },
        {
            "positions": [
                -0.801521529439598,
                -0.8215117617233253,
                1.6481270851739733,
                2.050811485238779,
                -2.1046045530808755,
                0.29961637800086244
            ]
        },
        {
            "positions": [
                -0.7492461476414849,
                -0.8959517286638108,
                1.6387923722720195,
                2.003259414085082,
                -2.0423753056873197,
                0.433863013495443
            ]
        },
        {
            "positions": [
                -0.6969707658433717,
                -0.9703916956042962,
                1.6294576593700654,
                1.9557073429313856,
                -1.9801460582937642,
                0.5681096489900236
            ]
        },
        {
            "positions": [
                -0.6446953840452586,
                -1.0448316625447815,
                1.6201229464681115,
                1.908155271777689,
                -1.9179168109002087,
                0.7023562844846042
            ]
        },
        {
            "positions": [
                -0.5924200022471455,
                -1.119271629485267,
                1.6107882335661574,
                1.8606032006239923,
                -1.855687563506653,
                0.8366029199791847
            ]
        },
        {
            "positions": [
                -0.5401446204490323,
                -1.1937115964257523,
                1.6014535206642035,
                1.8130511294702958,
                -1.7934583161130973,
                0.9708495554737653
            ]
        },
        {
            "positions": [
                -0.4878692386509192,
                -1.2681515633662377,
                1.5921188077622495,
                1.7654990583165993,
                -1.7312290687195417,
                1.1050961909683457
            ]
        },
        {
            "positions": [
                -0.43559385685280605,
                -1.342591530306723,
                1.5827840948602956,
                1.7179469871629027,
                -1.668999821325986,
                1.2393428264629263
            ]
        },
        {
            "positions": [
                -0.38331847505469296,
                -1.4170314972472084,
                1.5734493819583415,
                1.6703949160092062,
                -1.6067705739324305,
                1.3735894619575069
            ]
        },
        {
            "positions": [
                -0.33104309325657977,
                -1.491471464187694,
                1.5641146690563876,
                1.6228428448555094,
                -1.5445413265388748,
                1.5078360974520875
            ]
        },
        {
            "positions": [
                -0.2787677114584667,
                -1.5659114311281792,
                1.5547799561544335,
                1.575290773701813,
                -1.482312079145319,
                1.6420827329466678
            ]
        },
        {
            "positions": [
                -0.2264923296603535,
                -1.6403513980686648,
                1.5454452432524797,
                1.5277387025481164,
                -1.4200828317517633,
                1.7763293684412484
            ]
        },
        {
            "positions": [
                -0.1742169478622404,
                -1.71479136500915,
                1.5361105303505256,
                1.4801866313944196,
                -1.3578535843582076,
                1.910576003935829
            ]
        },
        {
            "positions": [
                -0.1219415660641272,
                -1.7892313319496358,
                1.5267758174485717,
                1.432634560240723,
                -1.2956243369646518,
                2.0448226394304094
            ]
        },
        {
            "positions": [
                -0.06966618426601412,
                -1.8636712988901207,
                1.5174411045466178,
                1.3850824890870266,
                -1.2333950895710966,
                2.17906927492499
            ]
        },
        {
            "positions": [
                -0.017390802467900923,
                -1.9381112658306066,
                1.5081063916446638,
                1.3375304179333298,
                -1.1711658421775406,
                2.3133159104195706
            ]
        },
        {
            "positions": [
                0.03488457933021216,
                -2.012551232771092,
                1.4987716787427097,
                1.2899783467796335,
                -1.108936594783985,
                2.4475625459141512
            ]
        },
        {
            "positions": [
                0.08715996112832533,
                -2.0869911997115773,
                1.4894369658407558,
                1.2424262756259368,
                -1.0467073473904294,
                2.581809181408732
            ]
        },
        {
            "positions": [
                0.021492348849039056,
                -2.0332857836977314,
                1.5186753519092675,
                1.1264419066172378,
                -0.9626521889490116,
                2.6129993631348714
            ]
        },
        {
            "positions": [
                -0.04417526343024722,
                -1.9795803676838855,
                1.547913737977779,
                1.0104575376085387,
                -0.8785970305075939,
                2.644189544861011
            ]
        },
        {
            "positions": [
                -0.1098428757095335,
                -1.9258749516700393,
                1.5771521240462907,
                0.8944731685998399,
                -0.7945418720661761,
                2.675379726587151
            ]
        },
        {
            "positions": [
                -0.17551048798881977,
                -1.8721695356561934,
                1.6063905101148022,
                0.7784887995911409,
                -0.7104867136247583,
                2.7065699083132904
            ]
        },
        {
            "positions": [
                -0.24117810026810607,
                -1.8184641196423472,
                1.6356288961833139,
                0.6625044305824419,
                -0.6264315551833404,
                2.73776009003943
            ]
        },
        {
            "positions": [
                -0.30684571254739235,
                -1.7647587036285013,
                1.6648672822518253,
                0.546520061573743,
                -0.5423763967419227,
                2.7689502717655694
            ]
        },
        {
            "positions": [
                -0.37251332482667865,
                -1.7110532876146554,
                1.694105668320337,
                0.430535692565044,
                -0.45832123830050486,
                2.800140453491709
            ]
        },
        {
            "positions": [
                -0.43818093710596484,
                -1.6573478716008094,
                1.7233440543888485,
                0.3145513235563451,
                -0.3742660798590872,
                2.8313306352178484
            ]
        },
        {
            "positions": [
                -0.5038485493852511,
                -1.6036424555869635,
                1.7525824404573602,
                0.19856695454764606,
                -0.29021092141766935,
                2.862520816943988
            ]
        },
        {
            "positions": [
                -0.5695161616645374,
                -1.5499370395731173,
                1.781820826525872,
                0.08258258553894704,
                -0.2061557629762515,
                2.893710998670128
            ]
        },
        {
            "positions": [
                -0.6351837739438237,
                -1.4962316235592712,
                1.8110592125943834,
                -0.03340178346975198,
                -0.12210060453483373,
                2.9249011803962675
            ]
        },
        {
            "positions": [
                -0.7008513862231099,
                -1.4425262075454255,
                1.8402975986628949,
                -0.14938615247845077,
                -0.03804544609341609,
                2.956091362122407
            ]
        },
        {
            "positions": [
                -0.7665189985023962,
                -1.3888207915315793,
                1.8695359847314066,
                -0.2653705214871498,
                0.04600971234800166,
                2.9872815438485465
            ]
        },
        {
            "positions": [
                -0.8321866107816825,
                -1.3351153755177334,
                1.8987743707999183,
                -0.3813548904958488,
                0.13006487078941964,
                3.018471725574686
            ]
        },
        {
            "positions": [
                -0.8978542230609688,
                -1.2814099595038875,
                1.92801275686843,
                -0.4973392595045478,
                0.2141200292308374,
                3.049661907300826
            ]
        },
        {
            "positions": [
                -0.963521835340255,
                -1.2277045434900415,
                1.9572511429369415,
                -0.6133236285132466,
                0.2981751876722549,
                3.0808520890269655
            ]
        },
        {
            "positions": [
                -1.0291894476195413,
                -1.1739991274761956,
                1.986489529005453,
                -0.7293079975219456,
                0.3822303461136729,
                3.112042270753105
            ]
        },
        {
            "positions": [
                -1.0948570598988276,
                -1.1202937114623495,
                2.0157279150739646,
                -0.8452923665306448,
                0.4662855045550907,
                3.1432324524792445
            ]
        }
    ]
}