{
    "goal": {
        "global_pose": {
            "orientation": {
                "w": 0.005598929693374612,
                "x": 0.007748599140229565,
                "y": 0.7110244013736278,
                "z": -0.7031023480610252
            },
            "position": {
                "x": 0.1141497679147869,
                "y": -0.7141253447532654,
                "z": 0.3711530566215515
            }
        },
        "name": "move_to_auspresseinheit_B"
    },
    "id": "LBKPIECE_move_to_auspresseinheit_B_62",
    "joint_names": [
        "shoulder_pan_joint",
        "shoulder_lift_joint",
        "elbow_joint",
        "wrist_1_joint",
        "wrist_2_joint",
        "wrist_3_joint"
    ],
    "metrics": {
        "cart_traj_len": 0.5644549063029752,
        "distance_elbow_joint": 0.06645734829462846,
        "distance_shoulder_lift_joint": 0.29308038554454785,
        "distance_shoulder_pan_joint": 0.5760957916005209,
        "distance_wrist_1_joint": 0.3367526976392309,
        "distance_wrist_2_joint": 0.9935371571512519,
        "distance_wrist_3_joint": 0.004685019683275726,
        "smoothness": 0.0,
        "time": 0.8203377390000001,
        "traj_len": 1.506853808407921,
        "weighted_distance": 1.9000706023909981
    },
    "planner": "LBKPIECE",
    "start": {
        "state": {
            "elbow_joint": 2.0193083361928714,
            "shoulder_lift_joint": -1.1220246554650708,
            "shoulder_pan_joint": -1.0952077554168747,
            "wrist_1_joint": -0.8559753972642168,
            "wrist_2_joint": 0.4759566250798843,
            "wrist_3_joint": -3.1240929996934557
        }
    },
    "waypoints": [
        {
            "positions": [
                -1.0952077554168747,
                -1.1220246554650708,
                2.0193083361928714,
                -0.8559753972642168,
                0.4759566250798843,
                -3.1240929996934557
            ]
        },
        {
            "positions": [
                -1.1912237206836283,
                -1.170871386389162,
                2.0082321114771,
                -0.7998499476576784,
                0.6415461512717596,
                -3.1233121630795764
            ]
        },
        {
            "positions": [
                -1.2872396859503816,
                -1.2197181173132534,
                1.9971558867613286,
                -0.7437244980511398,
                0.8071356774636349,
                -3.122531326465697
            ]
        },
        {
            "positions": [
                -1.383255651217135,
                -1.2685648482373448,
                1.9860796620455572,
                -0.6875990484446013,
                0.9727252036555103,
                -3.121750489851818
            ]
        },
        {
            "positions": [
                -1.4792716164838886,
                -1.317411579161436,
                1.9750034373297858,
                -0.6314735988380629,
                1.1383147298473855,
                -3.1209696532379385
            ]
        },
        {
            "positions": [
                -1.5752875817506422,
                -1.3662583100855272,
                1.9639272126140144,
                -0.5753481492315244,
                1.3039042560392609,
                -3.1201888166240592
            ]
        },
        {
            "positions": [
                -1.6713035470173956,
                -1.4151050410096186,
                1.952850987898243,
                -0.5192226996249859,
                1.4694937822311362,
                -3.11940798001018
            ]
        }
    ]
}