{
    "goal": {
        "global_pose": {
            "orientation": {
                "w": -0.4816463035849501,
                "x": 0.5182115481033762,
                "y": 0.4908360881923453,
                "z": -0.5084816262002911
            },
            "position": {
                "x": -0.8240239810943604,
                "y": -0.300875300988555,
                "z": 0.16403168439865112
            }
        },
        "name": "move_to_storage_C"
    },
    "id": "LBKPIECE_move_to_storage_C_150",
    "joint_names": [
        "shoulder_pan_joint",
        "shoulder_lift_joint",
        "elbow_joint",
        "wrist_1_joint",
        "wrist_2_joint",
        "wrist_3_joint"
    ],
    "metrics": {
        "cart_traj_len": 0.5767200119222099,
        "distance_elbow_joint": 0.25695553317954256,
        "distance_shoulder_lift_joint": 0.18996181671552104,
        "distance_shoulder_pan_joint": 0.49610925566843544,
        "distance_wrist_1_joint": 0.07644280902317657,
        "distance_wrist_2_joint": 1.0584789685487173,
        "distance_wrist_3_joint": 0.0694239934194747,
        "smoothness": 0.0,
        "time": 0.145646491,
        "traj_len": 1.4653915437707656,
        "weighted_distance": 1.8496329746643552
    },
    "planner": "LBKPIECE",
    "start": {
        "state": {
            "elbow_joint": 2.010868314990456,
            "shoulder_lift_joint": -1.1634956873337592,
            "shoulder_pan_joint": -2.4736205022346125,
            "wrist_1_joint": -0.8367026794202681,
            "wrist_2_joint": 0.6746043897044499,
            "wrist_3_joint": -3.1496632123970403
        }
    },
    "waypoints": [
        {
            "positions": [
                -2.4736205022346125,
                -1.1634956873337592,
                2.010868314990456,
                -0.8367026794202681,
                0.6746043897044499,
                -3.1496632123970403
            ]
        },
        {
            "positions": [
                -2.556305378179352,
                -1.131835384547839,
                1.9680423927938655,
                -0.8239622112497387,
                0.8510175511292362,
                -3.138092546827128
            ]
        },
        {
            "positions": [
                -2.638990254124091,
                -1.100175081761919,
                1.925216470597275,
                -0.8112217430792092,
                1.0274307125540223,
                -3.1265218812572155
            ]
        },
        {
            "positions": [
                -2.72167513006883,
                -1.0685147789759988,
                1.8823905484006844,
                -0.7984812749086798,
                1.2038438739788084,
                -3.114951215687303
            ]
        },
        {
            "positions": [
                -2.8043600060135696,
                -1.0368544761900784,
                1.8395646262040941,
                -0.7857408067381504,
                1.3802570354035946,
                -3.1033805501173903
            ]
        },
        {
            "positions": [
                -2.8870448819583086,
                -1.0051941734041583,
                1.7967387040075038,
                -0.773000338567621,
                1.5566701968283811,
                -3.091809884547478
            ]
        },
        {
            "positions": [
                -2.969729757903048,
                -0.9735338706182382,
                1.7539127818109133,
                -0.7602598703970915,
                1.7330833582531673,
                -3.0802392189775656
            ]
        }
    ]
}