{
    "goal": {
        "global_pose": {
            "orientation": {
                "w": 0.7031023502349854,
                "x": -0.7110244035720825,
                "y": 0.007748599164187908,
                "z": 0.005598929710686207
            },
            "position": {
                "x": 0.11585023208521307,
                "y": 0.44412534475326537,
                "z": 0.3711530566215515
            }
        },
        "name": "move_to_auspresseinheit_A"
    },
    "id": "LBKPIECE_move_to_auspresseinheit_A_121",
    "joint_names": [
        "shoulder_pan_joint",
        "shoulder_lift_joint",
        "elbow_joint",
        "wrist_1_joint",
        "wrist_2_joint",
        "wrist_3_joint"
    ],
    "metrics": {
        "cart_traj_len": 0.9545424802584839,
        "distance_elbow_joint": 0.5556277899188182,
        "distance_shoulder_lift_joint": 0.5320866220975109,
        "distance_shoulder_pan_joint": 1.0459637400972475,
        "distance_wrist_1_joint": 0.569322537812958,
        "distance_wrist_2_joint": 0.5163394640059601,
        "distance_wrist_3_joint": 0.6091644642788916,
        "smoothness": 0.5864228689453592,
        "time": 0.5941556990000001,
        "traj_len": 1.9566564895789416,
        "weighted_distance": 2.476387600636881
    },
    "planner": "LBKPIECE",
    "start": {
        "state": {
            "elbow_joint": 2.4225746658250005,
            "shoulder_lift_joint": -1.3736534386056498,
            "shoulder_pan_joint": -0.3378633547517467,
            "wrist_1_joint": -1.0288598680537169,
            "wrist_2_joint": 1.233022673432363,
            "wrist_3_joint": -3.0940220416140027
        }
    },
    "waypoints": [
        {
            "positions": [
                -0.3378633547517467,
                -1.3736534386056498,
                2.4225746658250005,
                -1.0288598680537169,
                1.233022673432363,
                -3.0940220416140027
            ]
        },
        {
            "positions": [
                -0.31232857614801934,
                -1.406106695495347,
                2.3246638160342417,
                -0.974430997622848,
                1.194288057299706,
                -2.999579002000293
            ]
        },
        {
            "positions": [
                -0.286793797544292,
                -1.4385599523850443,
                2.2267529662434833,
                -0.920002127191979,
                1.1555534411670494,
                -2.905135962386584
            ]
        },
        {
            "positions": [
                -0.26125901894056464,
                -1.4710132092747414,
                2.1288421164527245,
                -0.8655732567611102,
                1.1168188250343924,
                -2.810692922772874
            ]
        },
        {
            "positions": [
                -0.14008909340480644,
                -1.5253540657032938,
                2.1615790215210424,
                -0.8148187659460663,
                1.0668018730833937,
                -2.8514223409525945
            ]
        },
        {
            "positions": [
                -0.018919167869048237,
                -1.5796949221318464,
                2.19431592658936,
                -0.7640642751310224,
                1.0167849211323952,
                -2.892151759132315
            ]
        },
        {
            "positions": [
                0.10225075766670993,
                -1.6340357785603987,
                2.227052831657678,
                -0.7133097843159784,
                0.9667679691813964,
                -2.9328811773120353
            ]
        },
        {
            "positions": [
                0.22342068320246816,
                -1.688376634988951,
                2.2597897367259954,
                -0.6625552935009345,
                0.9167510172303976,
                -2.9736105954917553
            ]
        },
        {
            "positions": [
                0.3445906087382264,
                -1.7427174914175034,
                2.2925266417943133,
                -0.6118008026858905,
                0.866734065279399,
                -3.0143400136714757
            ]
        },
        {
            "positions": [
                0.4657605342739845,
                -1.7970583478460558,
                2.3252635468626313,
                -0.5610463118708466,
                0.8167171133284004,
                -3.055069431851196
            ]
        },
        {
            "positions": [
                0.5869304598097427,
                -1.8513992042746084,
                2.3580004519309488,
                -0.5102918210558027,
                0.7667001613774016,
                -3.0957988500309166
            ]
        },
        {
            "positions": [
                0.7081003853455009,
                -1.9057400607031607,
                2.3907373569992667,
                -0.4595373302407588,
                0.716683209426403,
                -3.136528268210637
            ]
        }
    ]
}