{
    "goal": {
        "global_pose": {
            "orientation": {
                "w": -0.4816463035849501,
                "x": 0.5182115481033762,
                "y": 0.4908360881923453,
                "z": -0.5084816262002911
            },
            "position": {
                "x": -0.8240239810943604,
                "y": 0.19912469901144506,
                "z": 0.16403168439865112
            }
        },
        "name": "move_to_storage_D"
    },
    "id": "LBKPIECE_move_to_storage_D_107",
    "joint_names": [
        "shoulder_pan_joint",
        "shoulder_lift_joint",
        "elbow_joint",
        "wrist_1_joint",
        "wrist_2_joint",
        "wrist_3_joint"
    ],
    "metrics": {
        "cart_traj_len": 3.861886763030272,
        "distance_elbow_joint": 4.210621593638436,
        "distance_shoulder_lift_joint": 1.2640102325342384,
        "distance_shoulder_pan_joint": 2.811946977753139,
        "distance_wrist_1_joint": 4.303189883398543,
        "distance_wrist_2_joint": 1.7222824911351222,
        "distance_wrist_3_joint": 3.133968213687242,
        "smoothness": 0.22119068429824992,
        "time": 0.41532967899999995,
        "traj_len": 4.176843232890925,
        "weighted_distance": 5.453386855345482
    },
    "planner": "LBKPIECE",
    "start": {
        "state": {
            "elbow_joint": -2.384821988534728,
            "shoulder_lift_joint": -2.2788054721415256,
            "shoulder_pan_joint": -0.1854694642142757,
            "wrist_1_joint": 1.4845938289331202,
            "wrist_2_joint": 0.17898776772866878,
            "wrist_3_joint": 0.037105688729662994
        }
    },
    "waypoints": [
        {
            "positions": [
                -0.1854694642142757,
                -2.2788054721415256,
                -2.384821988534728,
                1.4845938289331202,
                0.17898776772866878,
                0.037105688729662994
            ]
        },
        {
            "positions": [
                -0.076046550353885,
                -2.2501961988918975,
                -2.3137094492691292,
                1.569421908653382,
                0.23012705468854533,
                0.015051296207993402
            ]
        },
        {
            "positions": [
                0.03337636350650572,
                -2.2215869256422693,
                -2.242596910003531,
                1.654249988373644,
                0.2812663416484219,
                -0.0070030963136761895
            ]
        },
        {
            "positions": [
                0.14279927736689643,
                -2.192977652392641,
                -2.1714843707379323,
                1.7390780680939057,
                0.3324056286082984,
                -0.029057488835345785
            ]
        },
        {
            "positions": [
                0.2522221912272872,
                -2.1643683791430126,
                -2.1003718314723336,
                1.8239061478141676,
                0.38354491556817494,
                -0.051111881357015373
            ]
        },
        {
            "positions": [
                0.3616451050876779,
                -2.1357591058933845,
                -2.029259292206735,
                1.9087342275344297,
                0.4346842025280515,
                -0.07316627387868498
            ]
        },
        {
            "positions": [
                0.4710680189480686,
                -2.1071498326437563,
                -1.9581467529411365,
                1.9935623072546915,
                0.4858234894879281,
                -0.09522066640035456
            ]
        },
        {
            "positions": [
                0.5804909328084593,
                -2.078540559394128,
                -1.8870342136755378,
                2.0783903869749536,
                0.5369627764478047,
                -0.11727505892202417
            ]
        },
        {
            "positions": [
                0.68991384666885,
                -2.0499312861445,
                -1.8159216744099393,
                2.1632184666952154,
                0.5881020634076811,
                -0.13932945144369374
            ]
        },
        {
            "positions": [
                0.7993367605292407,
                -2.021322012894872,
                -1.7448091351443407,
                2.2480465464154773,
                0.6392413503675577,
                -0.16138384396536334
            ]
        },
        {
            "positions": [
                0.9087596743896315,
                -1.9927127396452438,
                -1.6736965958787422,
                2.332874626135739,
                0.6903806373274343,
                -0.18343823648703295
            ]
        },
        {
            "positions": [
                1.018182588250022,
                -1.9641034663956154,
                -1.6025840566131437,
                2.417702705856001,
                0.7415199242873107,
                -0.20549262900870252
            ]
        },
        {
            "positions": [
                1.1276055021104128,
                -1.9354941931459873,
                -1.531471517347545,
                2.502530785576263,
                0.7926592112471873,
                -0.2275470215303721
            ]
        },
        {
            "positions": [
                1.1693792943861558,
                -1.9036849703682215,
                -1.4410080422223337,
                2.392248534983787,
                0.7762036781680519,
                -0.3265543035415322
            ]
        },
        {
            "positions": [
                1.211153086661899,
                -1.871875747590456,
                -1.3505445670971226,
                2.281966284391311,
                0.7597481450889166,
                -0.4255615855526923
            ]
        },
        {
            "positions": [
                1.252926878937642,
                -1.8400665248126902,
                -1.2600810919719112,
                2.1716840337988352,
                0.7432926120097813,
                -0.5245688675638525
            ]
        },
        {
            "positions": [
                1.294700671213385,
                -1.8082573020349246,
                -1.1696176168466998,
                2.0614017832063594,
                0.7268370789306459,
                -0.6235761495750125
            ]
        },
        {
            "positions": [
                1.3364744634891281,
                -1.7764480792571589,
                -1.0791541417214887,
                1.9511195326138835,
                0.7103815458515105,
                -0.7225834315861726
            ]
        },
        {
            "positions": [
                1.3782482557648712,
                -1.7446388564793933,
                -0.9886906665962772,
                1.8408372820214076,
                0.6939260127723752,
                -0.8215907135973327
            ]
        },
        {
            "positions": [
                1.420022048040614,
                -1.7128296337016276,
                -0.8982271914710661,
                1.7305550314289317,
                0.6774704796932398,
                -0.9205979956084928
            ]
        },
        {
            "positions": [
                1.4617958403163573,
                -1.6810204109238618,
                -0.8077637163458548,
                1.6202727808364559,
                0.6610149466141044,
                -1.019605277619653
            ]
        },
        {
            "positions": [
                1.5035696325921002,
                -1.6492111881460962,
                -0.7173002412206435,
                1.50999053024398,
                0.6445594135349692,
                -1.118612559630813
            ]
        },
        {
            "positions": [
                1.5453434248678433,
                -1.6174019653683305,
                -0.6268367660954322,
                1.3997082796515041,
                0.6281038804558338,
                -1.217619841641973
            ]
        },
        {
            "positions": [
                1.5871172171435863,
                -1.585592742590565,
                -0.5363732909702209,
                1.2894260290590283,
                0.6116483473766984,
                -1.316627123653133
            ]
        },
        {
            "positions": [
                1.6288910094193294,
                -1.5537835198127992,
                -0.44590981584500944,
                1.1791437784665524,
                0.595192814297563,
                -1.4156344056642933
            ]
        },
        {
            "positions": [
                1.6706648016950725,
                -1.5219742970350336,
                -0.3554463407197983,
                1.0688615278740765,
                0.5787372812184277,
                -1.5146416876754534
            ]
        },
        {
            "positions": [
                1.7124385939708155,
                -1.4901650742572679,
                -0.26498286559458717,
                0.9585792772816006,
                0.5622817481392923,
                -1.6136489696866134
            ]
        },
        {
            "positions": [
                1.7542123862465586,
                -1.458355851479502,
                -0.1745193904693758,
                0.848297026689125,
                0.5458262150601569,
                -1.7126562516977735
            ]
        },
        {
            "positions": [
                1.7959861785223017,
                -1.4265466287017365,
                -0.08405591534416446,
                0.7380147760966489,
                0.5293706819810216,
                -1.8116635337089337
            ]
        },
        {
            "positions": [
                1.8377599707980448,
                -1.3947374059239708,
                0.006407559781046901,
                0.627732525504173,
                0.5129151489018863,
                -1.9106708157200938
            ]
        },
        {
            "positions": [
                1.8795337630737876,
                -1.362928183146205,
                0.09687103490625804,
                0.5174502749116972,
                0.49645961582275094,
                -2.009678097731254
            ]
        },
        {
            "positions": [
                1.921307555349531,
                -1.3311189603684395,
                0.1873345100314694,
                0.4071680243192213,
                0.48000408274361556,
                -2.108685379742414
            ]
        },
        {
            "positions": [
                1.9630813476252738,
                -1.299309737590674,
                0.27779798515668075,
                0.2968857737267454,
                0.46354854966448017,
                -2.2076926617535744
            ]
        },
        {
            "positions": [
                2.004855139901017,
                -1.2675005148129082,
                0.3682614602818921,
                0.18660352313426953,
                0.44709301658534484,
                -2.3066999437647344
            ]
        },
        {
            "positions": [
                2.04662893217676,
                -1.2356912920351424,
                0.45872493540710324,
                0.07632127254179366,
                0.4306374835062095,
                -2.405707225775894
            ]
        },
        {
            "positions": [
                2.0884027244525027,
                -1.2038820692573768,
                0.5491884105323144,
                -0.03396097805068221,
                0.4141819504270742,
                -2.504714507787054
            ]
        },
        {
            "positions": [
                2.130176516728246,
                -1.172072846479611,
                0.6396518856575262,
                -0.14424322864315808,
                0.39772641734793873,
                -2.6037217897982146
            ]
        },
        {
            "positions": [
                2.1719503090039893,
                -1.1402636237018453,
                0.7301153607827371,
                -0.25452547923563396,
                0.3812708842688034,
                -2.7027290718093746
            ]
        },
        {
            "positions": [
                2.213724101279732,
                -1.1084544009240798,
                0.8205788359079487,
                -0.36480772982810983,
                0.36481535118966807,
                -2.8017363538205347
            ]
        },
        {
            "positions": [
                2.2653182778121237,
                -1.0967470057594806,
                0.9462314320574187,
                -0.41704703124698833,
                0.4499112496345536,
                -2.8386271252126654
            ]
        },
        {
            "positions": [
                2.316912454344515,
                -1.0850396105948816,
                1.0718840282068887,
                -0.46928633266586683,
                0.5350071480794392,
                -2.8755178966047956
            ]
        },
        {
            "positions": [
                2.3685066308769063,
                -1.0733322154302827,
                1.1975366243563585,
                -0.5215256340847454,
                0.6201030465243247,
                -2.9124086679969263
            ]
        },
        {
            "positions": [
                2.420100807409298,
                -1.0616248202656835,
                1.3231892205058284,
                -0.5737649355036238,
                0.7051989449692102,
                -2.9492994393890566
            ]
        },
        {
            "positions": [
                2.4716949839416893,
                -1.0499174251010843,
                1.4488418166552985,
                -0.6260042369225023,
                0.7902948434140957,
                -2.9861902107811873
            ]
        },
        {
            "positions": [
                2.5232891604740804,
                -1.0382100299364854,
                1.5744944128047684,
                -0.6782435383413808,
                0.8753907418589812,
                -3.023080982173318
            ]
        },
        {
            "positions": [
                2.574883337006472,
                -1.0265026347718864,
                1.7001470089542385,
                -0.7304828397602594,
                0.9604866403038668,
                -3.0599717535654483
            ]
        },
        {
            "positions": [
                2.6264775135388634,
                -1.0147952396072872,
                1.8257996051037084,
                -0.7827221411791379,
                1.0455825387487523,
                -3.096862524957579
            ]
        }
    ]
}