{
    "goal": {
        "global_pose": {
            "orientation": {
                "w": 0.7031023502349854,
                "x": -0.7110244035720825,
                "y": 0.007748599164187908,
                "z": 0.005598929710686207
            },
            "position": {
                "x": 0.11585023208521307,
                "y": 0.44412534475326537,
                "z": 0.3711530566215515
            }
        },
        "name": "move_to_auspresseinheit_A"
    },
    "id": "LBKPIECE_move_to_auspresseinheit_A_41",
    "joint_names": [
        "shoulder_pan_joint",
        "shoulder_lift_joint",
        "elbow_joint",
        "wrist_1_joint",
        "wrist_2_joint",
        "wrist_3_joint"
    ],
    "metrics": {
        "cart_traj_len": 0.7056685901753983,
        "distance_elbow_joint": 0.13493823255029858,
        "distance_shoulder_lift_joint": 0.5366989499200425,
        "distance_shoulder_pan_joint": 1.044050791649528,
        "distance_wrist_1_joint": 0.5512767353236931,
        "distance_wrist_2_joint": 0.5190301325100056,
        "distance_wrist_3_joint": 0.2212438261090699,
        "smoothness": 0.2506865923183713,
        "time": 0.24434809899999999,
        "traj_len": 1.7341391720570287,
        "weighted_distance": 2.12603696772057
    },
    "planner": "LBKPIECE",
    "start": {
        "state": {
            "elbow_joint": 2.4225746658250005,
            "shoulder_lift_joint": -1.3736534386056498,
            "shoulder_pan_joint": -0.3378633547517467,
            "wrist_1_joint": -1.0288598680537169,
            "wrist_2_joint": 1.233022673432363,
            "wrist_3_joint": -3.0940220416140027
        }
    },
    "waypoints": [
        {
            "positions": [
                -0.3378633547517467,
                -1.3736534386056498,
                2.4225746658250005,
                -1.0288598680537169,
                1.233022673432363,
                -3.0940220416140027
            ]
        },
        {
            "positions": [
                -0.20712846422350054,
                -1.4425663425479767,
                2.4110656110946476,
                -0.9504985813192962,
                1.1589661081689453,
                -3.0802744228114345
            ]
        },
        {
            "positions": [
                -0.07639357369525435,
                -1.5114792464903035,
                2.399556556364294,
                -0.8721372945848755,
                1.0849095429055278,
                -3.0665268040088662
            ]
        },
        {
            "positions": [
                0.054341316832991815,
                -1.5803921504326301,
                2.3880475016339413,
                -0.7937760078504548,
                1.01085297764211,
                -3.052779185206298
            ]
        },
        {
            "positions": [
                0.18507620736123803,
                -1.649305054374957,
                2.3765384469035884,
                -0.7154147211160341,
                0.9367964123786925,
                -3.0390315664037297
            ]
        },
        {
            "positions": [
                0.3158110978894843,
                -1.7182179583172839,
                2.3650293921732355,
                -0.6370534343816134,
                0.8627398471152747,
                -3.0252839476011615
            ]
        },
        {
            "positions": [
                0.44654598841773036,
                -1.7871308622596107,
                2.353520337442882,
                -0.5586921476471927,
                0.7886832818518572,
                -3.0115363287985932
            ]
        },
        {
            "positions": [
                0.5772808789459766,
                -1.8560437662019376,
                2.3420112827125292,
                -0.480330860912772,
                0.7146267165884395,
                -2.997788709996025
            ]
        },
        {
            "positions": [
                0.7061874368977813,
                -1.9103523885256923,
                2.3963861321503566,
                -0.47758313273002373,
                0.7152608922545215,
                -3.122799204487117
            ]
        }
    ]
}