{
    "goal": {
        "global_pose": {
            "orientation": {
                "w": 0.5084816217422485,
                "x": -0.49083608388900757,
                "y": 0.5182115435600281,
                "z": -0.4816462993621826
            },
            "position": {
                "x": 0.5540239810943604,
                "y": 0.030875300988554955,
                "z": 0.16403168439865112
            }
        },
        "name": "move_to_storage_A"
    },
    "id": "LBKPIECE_move_to_storage_A_70",
    "joint_names": [
        "shoulder_pan_joint",
        "shoulder_lift_joint",
        "elbow_joint",
        "wrist_1_joint",
        "wrist_2_joint",
        "wrist_3_joint"
    ],
    "metrics": {
        "cart_traj_len": 0.35330085151076884,
        "distance_elbow_joint": 0.45315611454839355,
        "distance_shoulder_lift_joint": 0.2329993686573868,
        "distance_shoulder_pan_joint": 0.4582100132611666,
        "distance_wrist_1_joint": 0.2566666515988604,
        "distance_wrist_2_joint": 1.1153377629090615,
        "distance_wrist_3_joint": 0.09737133062419145,
        "smoothness": 0.0,
        "time": 0.336456753,
        "traj_len": 1.6167069127083797,
        "weighted_distance": 2.044624248451379
    },
    "planner": "LBKPIECE",
    "start": {
        "state": {
            "elbow_joint": 1.971548259319323,
            "shoulder_lift_joint": -1.1394851275133948,
            "shoulder_pan_joint": 0.1228115487234821,
            "wrist_1_joint": -0.7804723859257726,
            "wrist_2_joint": 0.12958671773740124,
            "wrist_3_joint": -3.192489227718131
        }
    },
    "waypoints": [
        {
            "positions": [
                0.1228115487234821,
                -1.1394851275133948,
                1.971548259319323,
                -0.7804723859257726,
                0.12958671773740124,
                -3.192489227718131
            ]
        },
        {
            "positions": [
                0.057352975400458306,
                -1.1727707516073071,
                2.0362848471119506,
                -0.8171390504398955,
                0.28892068386726716,
                -3.178579037628961
            ]
        },
        {
            "positions": [
                -0.008105597922565488,
                -1.2060563757012197,
                2.1010214349045784,
                -0.8538057149540185,
                0.44825464999713305,
                -3.1646688475397906
            ]
        },
        {
            "positions": [
                -0.07356417124558928,
                -1.239341999795132,
                2.1657580226972057,
                -0.8904723794681413,
                0.607588616126999,
                -3.1507586574506203
            ]
        },
        {
            "positions": [
                -0.13902274456861308,
                -1.2726276238890444,
                2.2304946104898336,
                -0.9271390439822642,
                0.7669225822568649,
                -3.1368484673614505
            ]
        },
        {
            "positions": [
                -0.20448131789163693,
                -1.3059132479829567,
                2.2952311982824614,
                -0.9638057084963871,
                0.9262565483867309,
                -3.1229382772722802
            ]
        },
        {
            "positions": [
                -0.26993989121466067,
                -1.3391988720768693,
                2.3599677860750887,
                -1.00047237301051,
                1.0855905145165967,
                -3.10902808718311
            ]
        },
        {
            "positions": [
                -0.3353984645376845,
                -1.3724844961707816,
                2.4247043738677165,
                -1.037139037524633,
                1.2449244806464628,
                -3.0951178970939397
            ]
        }
    ]
}{
    "goal": {
        "global_pose": {
            "orientation": {
                "w": 0.5084816217422485,
                "x": -0.49083608388900757,
                "y": 0.5182115435600281,
                "z": -0.4816462993621826
            },
            "position": {
                "x": 0.5540239810943604,
                "y": 0.030875300988554955,
                "z": 0.16403168439865112
            }
        },
        "name": "move_to_storage_A"
    },
    "id": "LBKPIECE_move_to_storage_A_70",
    "joint_names": [
        "shoulder_pan_joint",
        "shoulder_lift_joint",
        "elbow_joint",
        "wrist_1_joint",
        "wrist_2_joint",
        "wrist_3_joint"
    ],
    "metrics": {
        "cart_traj_len": 0.35215739275929403,
        "distance_elbow_joint": 0.45068592908085137,
        "distance_shoulder_lift_joint": 0.2335360920525129,
        "distance_shoulder_pan_joint": 0.45939754608409544,
        "distance_wrist_1_joint": 0.2512094992854277,
        "distance_wrist_2_joint": 1.1010829368876551,
        "distance_wrist_3_joint": 0.09298301185366409,
        "smoothness": 8.881784197001252e-16,
        "time": 0.37001247400000004,
        "traj_len": 1.609004355259552,
        "weighted_distance": 2.031539680913129
    },
    "planner": "LBKPIECE",
    "start": {
        "state": {
            "elbow_joint": 1.97154746011099,
            "shoulder_lift_joint": -1.13948474672311,
            "shoulder_pan_joint": 0.12281154466712228,
            "wrist_1_joint": -0.7804688027058302,
            "wrist_2_joint": 0.12958655903071145,
            "wrist_3_joint": 3.0906928834467795
        }
    },
    "waypoints": [
        {
            "positions": [
                0.12281154466712228,
                -1.13948474672311,
                1.97154746011099,
                -0.7804688027058302,
                0.12958655903071145,
                3.0906928834467795
            ]
        },
        {
            "positions": [
                0.0571833237979658,
                -1.1728470455877547,
                2.0359311642653974,
                -0.8163558740323199,
                0.2868841214432336,
                3.103976170854446
            ]
        },
        {
            "positions": [
                -0.008444897071190685,
                -1.2062093444523994,
                2.1003148684198045,
                -0.8522429453588095,
                0.44418168385575574,
                3.117259458262112
            ]
        },
        {
            "positions": [
                -0.07407311794034717,
                -1.239571643317044,
                2.164698572574212,
                -0.8881300166852992,
                0.6014792462682779,
                3.1305427456697785
            ]
        },
        {
            "positions": [
                -0.13970133880950364,
                -1.2729339421816888,
                2.229082276728619,
                -0.9240170880117888,
                0.7587768086808001,
                3.1438260330774446
            ]
        },
        {
            "positions": [
                -0.20532955967866018,
                -1.3062962410463335,
                2.2934659808830267,
                -0.9599041593382786,
                0.9160743710933223,
                3.157109320485111
            ]
        },
        {
            "positions": [
                -0.2709577805478166,
                -1.3396585399109782,
                2.3578496850374338,
                -0.9957912306647682,
                1.0733719335058443,
                3.170392607892777
            ]
        },
        {
            "positions": [
                -0.33658600141697315,
                -1.3730208387756229,
                2.4222333891918413,
                -1.0316783019912579,
                1.2306694959183666,
                3.1836758953004436
            ]
        }
    ]
}{
    "goal": {
        "global_pose": {
            "orientation": {
                "w": 0.5084816217422485,
                "x": -0.49083608388900757,
                "y": 0.5182115435600281,
                "z": -0.4816462993621826
            },
            "position": {
                "x": 0.5540239810943604,
                "y": 0.030875300988554955,
                "z": 0.16403168439865112
            }
        },
        "name": "move_to_storage_A"
    },
    "id": "LBKPIECE_move_to_storage_A_70",
    "joint_names": [
        "shoulder_pan_joint",
        "shoulder_lift_joint",
        "elbow_joint",
        "wrist_1_joint",
        "wrist_2_joint",
        "wrist_3_joint"
    ],
    "metrics": {
        "cart_traj_len": 0.35286837575572827,
        "distance_elbow_joint": 0.45237188779479265,
        "distance_shoulder_lift_joint": 0.23268181179584513,
        "distance_shoulder_pan_joint": 0.46063080399724016,
        "distance_wrist_1_joint": 0.25659874849991793,
        "distance_wrist_2_joint": 1.1011510711475332,
        "distance_wrist_3_joint": 0.09232255505969,
        "smoothness": 0.0,
        "time": 0.371499295,
        "traj_len": 1.6111352762245073,
        "weighted_distance": 2.0342447758472555
    },
    "planner": "LBKPIECE",
    "start": {
        "state": {
            "elbow_joint": 1.9715472970024885,
            "shoulder_lift_joint": -1.1394870060712896,
            "shoulder_pan_joint": 0.12281152778156021,
            "wrist_1_joint": -0.780463741449964,
            "wrist_2_joint": 0.12958659822042276,
            "wrist_3_joint": 3.090690232415272
        }
    },
    "waypoints": [
        {
            "positions": [
                0.12281152778156021,
                -1.1394870060712896,
                1.9715472970024885,
                -0.780463741449964,
                0.12958659822042276,
                3.090690232415272
            ]
        },
        {
            "positions": [
                0.05700712721052591,
                -1.1727272648992675,
                2.0361718524017447,
                -0.8171207055213808,
                0.28689389409864174,
                3.1038791688523704
            ]
        },
        {
            "positions": [
                -0.008797273360508395,
                -1.2059675237272454,
                2.100796407801001,
                -0.8537776695927977,
                0.44420118997686076,
                3.117068105289469
            ]
        },
        {
            "positions": [
                -0.07460167393154268,
                -1.2392077825552232,
                2.165420963200257,
                -0.8904346336642145,
                0.6015084858550798,
                3.1302570417265674
            ]
        },
        {
            "positions": [
                -0.140406074502577,
                -1.2724480413832011,
                2.2300455185995127,
                -0.9270915977356313,
                0.7588157817332988,
                3.1434459781636663
            ]
        },
        {
            "positions": [
                -0.20621047507361132,
                -1.305688300211179,
                2.294670073998769,
                -0.9637485618070483,
                0.9161230776115179,
                3.156634914600765
            ]
        },
        {
            "positions": [
                -0.27201487564464555,
                -1.3389285590391569,
                2.359294629398025,
                -1.000405525878465,
                1.0734303734897368,
                3.1698238510378633
            ]
        },
        {
            "positions": [
                -0.3378192762156799,
                -1.3721688178671347,
                2.423919184797281,
                -1.037062489949882,
                1.230737669367956,
                3.183012787474962
            ]
        }
    ]
}