{
    "goal": {
        "global_pose": {
            "orientation": {
                "w": 0.7047431493862688,
                "x": -0.7094548369677653,
                "y": 0.0024358444001904,
                "z": -0.0022348060817251984
            },
            "position": {
                "x": -0.39052492380142206,
                "y": 0.3671506643295288,
                "z": 0.19426114857196808
            }
        },
        "name": "move_to_magneteinheit_D"
    },
    "id": "LBKPIECE_move_to_magneteinheit_D_54",
    "joint_names": [
        "shoulder_pan_joint",
        "shoulder_lift_joint",
        "elbow_joint",
        "wrist_1_joint",
        "wrist_2_joint",
        "wrist_3_joint"
    ],
    "metrics": {
        "cart_traj_len": 4.999134855914594,
        "distance_elbow_joint": 3.144421233596694,
        "distance_shoulder_lift_joint": 1.6276218858184917,
        "distance_shoulder_pan_joint": 3.4362479681342277,
        "distance_wrist_1_joint": 4.89322736451663,
        "distance_wrist_2_joint": 5.4786536693187795,
        "distance_wrist_3_joint": 6.602281451901866,
        "smoothness": 0.4086714864953547,
        "time": 0.552934416,
        "traj_len": 5.018212188946048,
        "weighted_distance": 6.98275715680603
    },
    "planner": "LBKPIECE",
    "start": {
        "state": {
            "elbow_joint": 0.749534889911806,
            "shoulder_lift_joint": -0.6476975780787326,
            "shoulder_pan_joint": -2.711696901376241,
            "wrist_1_joint": -0.07506478083263063,
            "wrist_2_joint": 0.43296659715538205,
            "wrist_3_joint": -3.14703540197715
        }
    },
    "waypoints": [
        {
            "positions": [
                -2.711696901376241,
                -0.6476975780787326,
                0.749534889911806,
                -0.07506478083263063,
                0.43296659715538205,
                -3.14703540197715
            ]
        },
        {
            "positions": [
                -2.696825875751636,
                -0.7459302226514093,
                0.6617565872899771,
                -0.10541422391745989,
                0.4545069208687612,
                -3.018854125020872
            ]
        },
        {
            "positions": [
                -2.681954850127031,
                -0.844162867224086,
                0.5739782846681483,
                -0.13576366700228915,
                0.4760472445821404,
                -2.8906728480645936
            ]
        },
        {
            "positions": [
                -2.6081450469518472,
                -0.8755514501110361,
                0.5541021191108131,
                -0.05559503296572779,
                0.40430956159297315,
                -2.7741913512290903
            ]
        },
        {
            "positions": [
                -2.5343352437766633,
                -0.9069400329979861,
                0.5342259535534778,
                0.02457360107083356,
                0.3325718786038059,
                -2.6577098543935875
            ]
        },
        {
            "positions": [
                -2.4605254406014794,
                -0.9383286158849362,
                0.5143497879961426,
                0.10474223510739489,
                0.2608341956146387,
                -2.5412283575580843
            ]
        },
        {
            "positions": [
                -2.386715637426295,
                -0.9697171987718863,
                0.4944736224388074,
                0.18491086914395627,
                0.1890965126254714,
                -2.424746860722581
            ]
        },
        {
            "positions": [
                -2.312905834251111,
                -1.0011057816588365,
                0.47459745688147215,
                0.2650795031805176,
                0.11735882963630417,
                -2.3082653638870783
            ]
        },
        {
            "positions": [
                -2.239096031075927,
                -1.0324943645457865,
                0.45472129132413697,
                0.3452481372170789,
                0.045621146647136956,
                -2.1917838670515755
            ]
        },
        {
            "positions": [
                -2.165286227900743,
                -1.0638829474327365,
                0.4348451257668018,
                0.4254167712536403,
                -0.02611653634203026,
                -2.0753023702160722
            ]
        },
        {
            "positions": [
                -2.091476424725559,
                -1.0952715303196867,
                0.4149689602094665,
                0.5055854052902017,
                -0.09785421933119764,
                -1.958820873380569
            ]
        },
        {
            "positions": [
                -2.017666621550375,
                -1.1266601132066367,
                0.3950927946521313,
                0.585754039326763,
                -0.1695919023203648,
                -1.842339376545066
            ]
        },
        {
            "positions": [
                -1.943856818375191,
                -1.1580486960935867,
                0.3752166290947961,
                0.6659226733633243,
                -0.24132958530953208,
                -1.725857879709563
            ]
        },
        {
            "positions": [
                -1.870047015200007,
                -1.189437278980537,
                0.35534046353746085,
                0.7460913073998857,
                -0.31306726829869935,
                -1.6093763828740597
            ]
        },
        {
            "positions": [
                -1.7962372120248231,
                -1.220825861867487,
                0.33546429798012567,
                0.826259941436447,
                -0.3848049512878665,
                -1.492894886038557
            ]
        },
        {
            "positions": [
                -1.7224274088496392,
                -1.252214444754437,
                0.31558813242279043,
                0.9064285754730085,
                -0.4565426342770339,
                -1.3764133892030537
            ]
        },
        {
            "positions": [
                -1.648617605674455,
                -1.2836030276413872,
                0.29571196686545526,
                0.9865972095095698,
                -0.528280317266201,
                -1.2599318923675509
            ]
        },
        {
            "positions": [
                -1.574807802499271,
                -1.3149916105283372,
                0.27583580130812,
                1.066765843546131,
                -0.6000180002553683,
                -1.1434503955320476
            ]
        },
        {
            "positions": [
                -1.500997999324087,
                -1.3463801934152873,
                0.25595963575078473,
                1.1469344775826924,
                -0.6717556832445357,
                -1.0269688986965444
            ]
        },
        {
            "positions": [
                -1.427188196148903,
                -1.3777687763022373,
                0.23608347019344955,
                1.227103111619254,
                -0.7434933662337029,
                -0.9104874018610416
            ]
        },
        {
            "positions": [
                -1.353378392973719,
                -1.4091573591891875,
                0.21620730463611432,
                1.307271745655815,
                -0.81523104922287,
                -0.7940059050255384
            ]
        },
        {
            "positions": [
                -1.2795685897985352,
                -1.4405459420761375,
                0.19633113907877914,
                1.3874403796923764,
                -0.8869687322120372,
                -0.6775244081900356
            ]
        },
        {
            "positions": [
                -1.205758786623351,
                -1.4719345249630877,
                0.1764549735214439,
                1.467609013728938,
                -0.9587064152012046,
                -0.5610429113545323
            ]
        },
        {
            "positions": [
                -1.1319489834481669,
                -1.5033231078500378,
                0.15657880796410867,
                1.5477776477654994,
                -1.030444098190372,
                -0.4445614145190291
            ]
        },
        {
            "positions": [
                -1.058139180272983,
                -1.5347116907369878,
                0.13670264240677343,
                1.6279462818020605,
                -1.1021817811795391,
                -0.32807991768352585
            ]
        },
        {
            "positions": [
                -0.9843293770977992,
                -1.5661002736239378,
                0.11682647684943831,
                1.7081149158386215,
                -1.1739194641687063,
                -0.2115984208480235
            ]
        },
        {
            "positions": [
                -0.9105195739226151,
                -1.5974888565108878,
                0.09695031129210308,
                1.788283549875183,
                -1.2456571471578735,
                -0.09511692401252025
            ]
        },
        {
            "positions": [
                -0.8367097707474309,
                -1.628877439397838,
                0.07707414573476778,
                1.8684521839117445,
                -1.3173948301470408,
                0.021364572822982986
            ]
        },
        {
            "positions": [
                -0.762899967572247,
                -1.6602660222847883,
                0.057197980177432606,
                1.948620817948306,
                -1.3891325131362082,
                0.13784606965848623
            ]
        },
        {
            "positions": [
                -0.6890901643970628,
                -1.6916546051717383,
                0.037321814620097316,
                2.0287894519848675,
                -1.4608701961253754,
                0.25432756649398947
            ]
        },
        {
            "positions": [
                -0.6152803612218789,
                -1.7230431880586883,
                0.017445649062762247,
                2.1089580860214285,
                -1.5326078791145423,
                0.3708090633294918
            ]
        },
        {
            "positions": [
                -0.541470558046695,
                -1.7544317709456383,
                -0.002430516494573043,
                2.1891267200579896,
                -1.60434556210371,
                0.48729056016499506
            ]
        },
        {
            "positions": [
                -0.46766075487151104,
                -1.7858203538325885,
                -0.022306682051908222,
                2.269295354094551,
                -1.676083245092877,
                0.6037720570004983
            ]
        },
        {
            "positions": [
                -0.39385095169632667,
                -1.8172089367195385,
                -0.04218284760924351,
                2.3494639881311126,
                -1.7478209280820443,
                0.7202535538360015
            ]
        },
        {
            "positions": [
                -0.32004114852114274,
                -1.8485975196064888,
                -0.0620590131665788,
                2.429632622167674,
                -1.8195586110712119,
                0.8367350506715048
            ]
        },
        {
            "positions": [
                -0.24623134534595925,
                -1.8799861024934386,
                -0.08193517872391387,
                2.509801256204235,
                -1.8912962940603786,
                0.9532165475070071
            ]
        },
        {
            "positions": [
                -0.17242154217077488,
                -1.9113746853803888,
                -0.10181134428124916,
                2.5899698902407966,
                -1.9630339770495462,
                1.0696980443425104
            ]
        },
        {
            "positions": [
                -0.09861173899559095,
                -1.9427632682673388,
                -0.12168750983858434,
                2.670138524277358,
                -2.0347716600387136,
                1.1861795411780132
            ]
        },
        {
            "positions": [
                -0.024801935820407017,
                -1.974151851154289,
                -0.14156367539591963,
                2.750307158313919,
                -2.1065093430278807,
                1.3026610380135168
            ]
        },
        {
            "positions": [
                0.04900786735477736,
                -2.0055404340412393,
                -0.1614398409532548,
                2.8304757923504806,
                -2.178247026017048,
                1.4191425348490196
            ]
        },
        {
            "positions": [
                0.12281767052996084,
                -2.0369290169281893,
                -0.18131600651059,
                2.9106444263870417,
                -2.249984709006215,
                1.5356240316845224
            ]
        },
        {
            "positions": [
                0.19662747370514522,
                -2.0683175998151393,
                -0.20119217206792517,
                2.990813060423603,
                -2.321722391995382,
                1.6521055285200261
            ]
        },
        {
            "positions": [
                0.27043727688032915,
                -2.0997061827020893,
                -0.22106833762526046,
                3.0709816944601647,
                -2.39346007498455,
                1.768587025355529
            ]
        },
        {
            "positions": [
                0.24979574097679944,
                -2.1076886045745953,
                -0.31987824699160716,
                2.997082461874505,
                -2.276820724878853,
                1.6919207060569297
            ]
        },
        {
            "positions": [
                0.22915420507326972,
                -2.1156710264471017,
                -0.4186881563579538,
                2.923183229288845,
                -2.1601813747731557,
                1.6152543867583307
            ]
        },
        {
            "positions": [
                0.20851266916974004,
                -2.1236534483196077,
                -0.5174980657243005,
                2.8492839967031856,
                -2.043542024667459,
                1.5385880674597314
            ]
        },
        {
            "positions": [
                0.18787113326621033,
                -2.1316358701921136,
                -0.6163079750906472,
                2.7753847641175255,
                -1.9269026745617621,
                1.4619217481611322
            ]
        },
        {
            "positions": [
                0.16722959736268062,
                -2.13961829206462,
                -0.7151178844569939,
                2.701485531531866,
                -1.810263324456065,
                1.3852554288625332
            ]
        },
        {
            "positions": [
                0.14658806145915093,
                -2.147600713937126,
                -0.8139277938233405,
                2.6275862989462064,
                -1.693623974350368,
                1.308589109563934
            ]
        },
        {
            "positions": [
                0.12594652555562122,
                -2.1555831358096325,
                -0.9127377031896872,
                2.5536870663605464,
                -1.576984624244671,
                1.231922790265335
            ]
        },
        {
            "positions": [
                0.10530498965209151,
                -2.1635655576821384,
                -1.0115476125560339,
                2.479787833774887,
                -1.4603452741389742,
                1.1552564709667354
            ]
        },
        {
            "positions": [
                0.0846634537485618,
                -2.1715479795546444,
                -1.1103575219223805,
                2.405888601189227,
                -1.3437059240332772,
                1.0785901516681364
            ]
        },
        {
            "positions": [
                0.06402191784503211,
                -2.179530401427151,
                -1.2091674312887273,
                2.3319893686035673,
                -1.2270665739275803,
                1.0019238323695374
            ]
        },
        {
            "positions": [
                0.0433803819415024,
                -2.187512823299657,
                -1.3079773406550739,
                2.2580901360179073,
                -1.1104272238218833,
                0.9252575130709381
            ]
        },
        {
            "positions": [
                0.022738846037972715,
                -2.1954952451721628,
                -1.4067872500214205,
                2.1841909034322478,
                -0.9937878737161865,
                0.8485911937723389
            ]
        },
        {
            "positions": [
                0.0020973101344429756,
                -2.203477667044669,
                -1.5055971593877673,
                2.110291670846588,
                -0.8771485236104892,
                0.7719248744737397
            ]
        },
        {
            "positions": [
                -0.01854422576908671,
                -2.211460088917175,
                -1.6044070687541139,
                2.036392438260928,
                -0.7605091735047924,
                0.6952585551751407
            ]
        },
        {
            "positions": [
                -0.03918576167261639,
                -2.219442510789681,
                -1.7032169781204605,
                1.9624932056752686,
                -0.6438698233990956,
                0.6185922358765414
            ]
        },
        {
            "positions": [
                -0.05982729757614613,
                -2.2274249326621876,
                -1.8020268874868073,
                1.8885939730896089,
                -0.5272304732933986,
                0.5419259165779422
            ]
        },
        {
            "positions": [
                -0.08046883347967582,
                -2.2354073545346935,
                -1.9008367968531539,
                1.814694740503949,
                -0.4105911231877015,
                0.4652595972793432
            ]
        },
        {
            "positions": [
                -0.10111036938320556,
                -2.2433897764072,
                -1.9996467062195007,
                1.7407955079182893,
                -0.2939517730820045,
                0.3885932779807437
            ]
        },
        {
            "positions": [
                -0.12175190528673524,
                -2.251372198279706,
                -2.0984566155858473,
                1.6668962753326295,
                -0.17731242297630745,
                0.3119269586821447
            ]
        },
        {
            "positions": [
                -0.14239344119026492,
                -2.259354620152212,
                -2.1972665249521937,
                1.59299704274697,
                -0.060673072870610856,
                0.2352606393835457
            ]
        },
        {
            "positions": [
                -0.16303497709379466,
                -2.2673370420247183,
                -2.296076434318541,
                1.5190978101613102,
                0.05596627723508618,
                0.15859432008494623
            ]
        },
        {
            "positions": [
                -0.18367651299732435,
                -2.2753194638972243,
                -2.3948863436848873,
                1.4451985775756504,
                0.17260562734078322,
                0.08192800078634727
            ]
        }
    ]
}