{
    "goal": {
        "global_pose": {
            "orientation": {
                "w": 0.005598929693374612,
                "x": 0.007748599140229565,
                "y": 0.7110244013736278,
                "z": -0.7031023480610252
            },
            "position": {
                "x": 0.1141497679147869,
                "y": -0.7141253447532654,
                "z": 0.3711530566215515
            }
        },
        "name": "move_to_auspresseinheit_B"
    },
    "id": "LBKPIECE_move_to_auspresseinheit_B_129",
    "joint_names": [
        "shoulder_pan_joint",
        "shoulder_lift_joint",
        "elbow_joint",
        "wrist_1_joint",
        "wrist_2_joint",
        "wrist_3_joint"
    ],
    "metrics": {
        "cart_traj_len": 0.5638062812052611,
        "distance_elbow_joint": 0.06466120799743158,
        "distance_shoulder_lift_joint": 0.29379161348487015,
        "distance_shoulder_pan_joint": 0.5760341343065483,
        "distance_wrist_1_joint": 0.3380026321854679,
        "distance_wrist_2_joint": 0.9956811870552835,
        "distance_wrist_3_joint": 0.0021215057237866652,
        "smoothness": 0.0,
        "time": 0.498485297,
        "traj_len": 1.5067489109846366,
        "weighted_distance": 1.8995312873026633
    },
    "planner": "LBKPIECE",
    "start": {
        "state": {
            "elbow_joint": 2.0193083361928714,
            "shoulder_lift_joint": -1.1220246554650708,
            "shoulder_pan_joint": -1.0952077554168747,
            "wrist_1_joint": -0.8559753972642168,
            "wrist_2_joint": 0.4759566250798843,
            "wrist_3_joint": -3.1240929996934557
        }
    },
    "waypoints": [
        {
            "positions": [
                -1.0952077554168747,
                -1.1220246554650708,
                2.0193083361928714,
                -0.8559753972642168,
                0.4759566250798843,
                -3.1240929996934557
            ]
        },
        {
            "positions": [
                -1.191213444467966,
                -1.170989924379216,
                2.0085314681932993,
                -0.7996416252333055,
                0.6419034895890983,
                -3.123739415406158
            ]
        },
        {
            "positions": [
                -1.2872191335190575,
                -1.2199551932933608,
                1.9977546001937276,
                -0.7433078532023941,
                0.8078503540983122,
                -3.1233858311188603
            ]
        },
        {
            "positions": [
                -1.3832248225701487,
                -1.2689204622075059,
                1.9869777321941555,
                -0.6869740811714828,
                0.9737972186075261,
                -3.1230322468315626
            ]
        },
        {
            "positions": [
                -1.47923051162124,
                -1.317885731121651,
                1.9762008641945836,
                -0.6306403091405716,
                1.13974408311674,
                -3.1226786625442644
            ]
        },
        {
            "positions": [
                -1.5752362006723315,
                -1.3668510000357958,
                1.9654239961950117,
                -0.5743065371096602,
                1.305690947625954,
                -3.1223250782569667
            ]
        },
        {
            "positions": [
                -1.671241889723423,
                -1.415816268949941,
                1.9546471281954398,
                -0.5179727650787489,
                1.4716378121351679,
                -3.121971493969669
            ]
        }
    ]
}