{
    "goal": {
        "global_pose": {
            "orientation": {
                "w": 0.7047431493862688,
                "x": -0.7094548369677653,
                "y": 0.0024358444001904,
                "z": -0.0022348060817251984
            },
            "position": {
                "x": -0.39052492380142206,
                "y": 0.3671506643295288,
                "z": 0.19426114857196808
            }
        },
        "name": "move_to_magneteinheit_D"
    },
    "id": "LBKPIECE_move_to_magneteinheit_D_9",
    "joint_names": [
        "shoulder_pan_joint",
        "shoulder_lift_joint",
        "elbow_joint",
        "wrist_1_joint",
        "wrist_2_joint",
        "wrist_3_joint"
    ],
    "metrics": {
        "cart_traj_len": 7.6493283019978024,
        "distance_elbow_joint": 6.231152571679983,
        "distance_shoulder_lift_joint": 3.728899961039154,
        "distance_shoulder_pan_joint": 5.6688415719467296,
        "distance_wrist_1_joint": 4.024075922770059,
        "distance_wrist_2_joint": 2.4927939882144328,
        "distance_wrist_3_joint": 7.105934671968836,
        "smoothness": 0.6826429357072092,
        "time": 0.470341242,
        "traj_len": 5.408483954641926,
        "weighted_distance": 7.069684430194981
    },
    "planner": "LBKPIECE",
    "start": {
        "state": {
            "elbow_joint": 0.749534889911806,
            "shoulder_lift_joint": -0.6476975780787326,
            "shoulder_pan_joint": -2.711696901376241,
            "wrist_1_joint": -0.07506478083263063,
            "wrist_2_joint": 0.43296659715538205,
            "wrist_3_joint": -3.14703540197715
        }
    },
    "waypoints": [
        {
            "positions": [
                -2.711696901376241,
                -0.6476975780787326,
                0.749534889911806,
                -0.07506478083263063,
                0.43296659715538205,
                -3.14703540197715
            ]
        },
        {
            "positions": [
                -2.7067264873306667,
                -0.692351125199228,
                0.8010095859430388,
                -0.0005256077214716021,
                0.39894664151340337,
                -2.990423487730953
            ]
        },
        {
            "positions": [
                -2.7017560732850923,
                -0.7370046723197233,
                0.8524842819742718,
                0.07401356538968742,
                0.36492668587142474,
                -2.8338115734847555
            ]
        },
        {
            "positions": [
                -2.6967856592395183,
                -0.7816582194402187,
                0.9039589780055048,
                0.14855273850084647,
                0.33090673022944606,
                -2.6771996592385583
            ]
        },
        {
            "positions": [
                -2.691815245193944,
                -0.826311766560714,
                0.9554336740367377,
                0.22309191161200548,
                0.2968867745874674,
                -2.520587744992361
            ]
        },
        {
            "positions": [
                -2.6868448311483695,
                -0.8709653136812094,
                1.0069083700679706,
                0.2976310847231645,
                0.26286681894548874,
                -2.3639758307461634
            ]
        },
        {
            "positions": [
                -2.681874417102795,
                -0.9156188608017048,
                1.0583830660992035,
                0.37217025783432356,
                0.22884686330351006,
                -2.2073639164999665
            ]
        },
        {
            "positions": [
                -2.676904003057221,
                -0.9602724079222,
                1.1098577621304364,
                0.4467094309454825,
                0.19482690766153143,
                -2.050752002253769
            ]
        },
        {
            "positions": [
                -2.6719335890116467,
                -1.0049259550426954,
                1.1613324581616695,
                0.5212486040566415,
                0.16080695201955275,
                -1.8941400880075716
            ]
        },
        {
            "positions": [
                -2.6669631749660723,
                -1.0495795021631908,
                1.2128071541929024,
                0.5957877771678006,
                0.12678699637757412,
                -1.7375281737613746
            ]
        },
        {
            "positions": [
                -2.661992760920498,
                -1.0942330492836863,
                1.2642818502241355,
                0.6703269502789597,
                0.09276704073559544,
                -1.5809162595151771
            ]
        },
        {
            "positions": [
                -2.657022346874924,
                -1.1388865964041814,
                1.3157565462553684,
                0.7448661233901186,
                0.05874708509361676,
                -1.4243043452689799
            ]
        },
        {
            "positions": [
                -2.6520519328293495,
                -1.1835401435246768,
                1.3672312422866013,
                0.8194052965012777,
                0.024727129451638075,
                -1.2676924310227826
            ]
        },
        {
            "positions": [
                -2.647081518783775,
                -1.2281936906451723,
                1.4187059383178342,
                0.8939444696124368,
                -0.009292826190340569,
                -1.1110805167765854
            ]
        },
        {
            "positions": [
                -2.5186914642871567,
                -1.2476420396278478,
                1.3833192178706386,
                0.852216348043394,
                -0.018883710269583,
                -0.9790574701289797
            ]
        },
        {
            "positions": [
                -2.390301409790539,
                -1.2670903886105234,
                1.347932497423443,
                0.8104882264743511,
                -0.028474594348825433,
                -0.847034423481374
            ]
        },
        {
            "positions": [
                -2.261911355293921,
                -1.286538737593199,
                1.3125457769762474,
                0.7687601049053083,
                -0.03806547842806786,
                -0.7150113768337685
            ]
        },
        {
            "positions": [
                -2.1335213007973026,
                -1.3059870865758745,
                1.2771590565290518,
                0.7270319833362655,
                -0.04765636250731029,
                -0.5829883301861628
            ]
        },
        {
            "positions": [
                -2.0681264705328144,
                -1.3199903034062446,
                1.174021867794624,
                0.6386548699418976,
                -0.05372489174270481,
                -0.473111172322663
            ]
        },
        {
            "positions": [
                -2.002731640268326,
                -1.3339935202366147,
                1.070884679060196,
                0.5502777565475296,
                -0.059793420978099324,
                -0.36323401445916315
            ]
        },
        {
            "positions": [
                -1.9373368100038382,
                -1.3479967370669848,
                0.9677474903257681,
                0.46190064315316176,
                -0.06586195021349384,
                -0.25335685659566337
            ]
        },
        {
            "positions": [
                -1.87194197973935,
                -1.3619999538973548,
                0.8646103015913402,
                0.3735235297587938,
                -0.07193047944888836,
                -0.14347969873216354
            ]
        },
        {
            "positions": [
                -1.806547149474862,
                -1.376003170727725,
                0.7614731128569122,
                0.2851464163644259,
                -0.07799900868428289,
                -0.033602540868663766
            ]
        },
        {
            "positions": [
                -1.7411523192103737,
                -1.390006387558095,
                0.6583359241224843,
                0.196769302970058,
                -0.08406753791967739,
                0.07627461699483606
            ]
        },
        {
            "positions": [
                -1.6757574889458855,
                -1.4040096043884651,
                0.5551987353880564,
                0.10839218957569008,
                -0.09013606715507191,
                0.1861517748583359
            ]
        },
        {
            "positions": [
                -1.6103626586813973,
                -1.4180128212188352,
                0.4520615466536285,
                0.020015076181322144,
                -0.09620459639046644,
                0.2960289327218357
            ]
        },
        {
            "positions": [
                -1.5449678284169093,
                -1.432016038049205,
                0.3489243579192006,
                -0.06836203721304579,
                -0.10227312562586095,
                0.40590609058533555
            ]
        },
        {
            "positions": [
                -1.479572998152421,
                -1.4460192548795752,
                0.2457871691847726,
                -0.15673915060741372,
                -0.10834165486125547,
                0.5157832484488353
            ]
        },
        {
            "positions": [
                -1.414178167887933,
                -1.4600224717099453,
                0.14264998045034472,
                -0.24511626400178166,
                -0.11441018409664999,
                0.6256604063123351
            ]
        },
        {
            "positions": [
                -1.3487833376234448,
                -1.4740256885403153,
                0.03951279171591682,
                -0.3334933773961495,
                -0.12047871333204449,
                0.7355375641758349
            ]
        },
        {
            "positions": [
                -1.2833885073589566,
                -1.4880289053706854,
                -0.06362439701851108,
                -0.4218704907905175,
                -0.12654724256743902,
                0.8454147220393348
            ]
        },
        {
            "positions": [
                -1.2179936770944684,
                -1.5020321222010555,
                -0.16676158575293898,
                -0.5102476041848854,
                -0.13261577180283354,
                0.9552918799028346
            ]
        },
        {
            "positions": [
                -1.1525988468299802,
                -1.5160353390314256,
                -0.2698987744873669,
                -0.5986247175792534,
                -0.13868430103822807,
                1.0651690377663345
            ]
        },
        {
            "positions": [
                -1.0872040165654921,
                -1.5300385558617957,
                -0.3730359632217948,
                -0.6870018309736212,
                -0.14475283027362257,
                1.1750461956298341
            ]
        },
        {
            "positions": [
                -1.021809186301004,
                -1.5440417726921658,
                -0.4761731519562227,
                -0.775378944367989,
                -0.1508213595090171,
                1.2849233534933342
            ]
        },
        {
            "positions": [
                -0.9564143560365159,
                -1.558044989522536,
                -0.5793103406906506,
                -0.8637560577623571,
                -0.15688988874441162,
                1.3948005113568338
            ]
        },
        {
            "positions": [
                -0.8910195257720277,
                -1.572048206352906,
                -0.6824475294250785,
                -0.9521331711567249,
                -0.16295841797980612,
                1.5046776692203339
            ]
        },
        {
            "positions": [
                -0.8256246955075395,
                -1.586051423183276,
                -0.7855847181595066,
                -1.040510284551093,
                -0.16902694721520065,
                1.6145548270838335
            ]
        },
        {
            "positions": [
                -0.7602298652430515,
                -1.6000546400136462,
                -0.8887219068939345,
                -1.1288873979454608,
                -0.17509547645059514,
                1.7244319849473335
            ]
        },
        {
            "positions": [
                -0.6948350349785632,
                -1.614057856844016,
                -0.9918590956283624,
                -1.2172645113398288,
                -0.18116400568598967,
                1.8343091428108331
            ]
        },
        {
            "positions": [
                -0.629440204714075,
                -1.6280610736743863,
                -1.0949962843627903,
                -1.3056416247341969,
                -0.1872325349213842,
                1.9441863006743332
            ]
        },
        {
            "positions": [
                -0.564045374449587,
                -1.6420642905047562,
                -1.1981334730972182,
                -1.3940187381285645,
                -0.1933010641567787,
                2.054063458537833
            ]
        },
        {
            "positions": [
                -0.4986505441850988,
                -1.6560675073351265,
                -1.301270661831646,
                -1.4823958515229325,
                -0.19936959339217322,
                2.163940616401333
            ]
        },
        {
            "positions": [
                -0.4332557139206106,
                -1.6700707241654964,
                -1.404407850566074,
                -1.5707729649173006,
                -0.20543812262756775,
                2.2738177742648324
            ]
        },
        {
            "positions": [
                -0.36786088365612235,
                -1.6840739409958665,
                -1.5075450393005019,
                -1.6591500783116682,
                -0.21150665186296227,
                2.3836949321283325
            ]
        },
        {
            "positions": [
                -0.30246605339163435,
                -1.6980771578262366,
                -1.6106822280349298,
                -1.7475271917060362,
                -0.21757518109835677,
                2.493572089991832
            ]
        },
        {
            "positions": [
                -0.23707122312714612,
                -1.7120803746566067,
                -1.7138194167693577,
                -1.8359043051004043,
                -0.2236437103337513,
                2.603449247855332
            ]
        },
        {
            "positions": [
                -0.1716763928626579,
                -1.7260835914869768,
                -1.8169566055037856,
                -1.9242814184947723,
                -0.22971223956914583,
                2.7133264057188318
            ]
        },
        {
            "positions": [
                -0.1062815625981699,
                -1.7400868083173469,
                -1.9200937942382135,
                -2.01265853188914,
                -0.23578076880454032,
                2.823203563582332
            ]
        },
        {
            "positions": [
                -0.040886732333681716,
                -1.754090025147717,
                -2.0232309829726414,
                -2.101035645283508,
                -0.24184929803993485,
                2.9330807214458314
            ]
        },
        {
            "positions": [
                0.06892897571120016,
                -1.652721947734947,
                -1.9549756594459122,
                -2.1054587539770795,
                -0.3093568079176674,
                2.9007724016402436
            ]
        },
        {
            "positions": [
                0.17874468375608205,
                -1.5513538703221772,
                -1.886720335919183,
                -2.109881862670651,
                -0.3768643177954,
                2.8684640818346554
            ]
        },
        {
            "positions": [
                0.2885603918009639,
                -1.4499857929094073,
                -1.818465012392454,
                -2.1143049713642226,
                -0.44437182767313255,
                2.8361557620290676
            ]
        },
        {
            "positions": [
                0.39837609984584577,
                -1.3486177154966374,
                -1.7502096888657248,
                -2.118728080057794,
                -0.5118793375508651,
                2.80384744222348
            ]
        },
        {
            "positions": [
                0.5081918078907277,
                -1.2472496380838676,
                -1.681954365338996,
                -2.1231511887513657,
                -0.5793868474285977,
                2.7715391224178916
            ]
        },
        {
            "positions": [
                0.6180075159356095,
                -1.145881560671098,
                -1.6136990418122668,
                -2.127574297444937,
                -0.6468943573063303,
                2.739230802612304
            ]
        },
        {
            "positions": [
                0.7278232239804914,
                -1.044513483258328,
                -1.5454437182855376,
                -2.131997406138509,
                -0.7144018671840627,
                2.706922482806716
            ]
        },
        {
            "positions": [
                0.8376389320253733,
                -0.9431454058455582,
                -1.4771883947588085,
                -2.1364205148320807,
                -0.7819093770617953,
                2.674614163001128
            ]
        },
        {
            "positions": [
                0.9474546400702551,
                -0.8417773284327884,
                -1.4089330712320796,
                -2.1408436235256523,
                -0.8494168869395278,
                2.64230584319554
            ]
        },
        {
            "positions": [
                1.057270348115137,
                -0.7404092510200184,
                -1.3406777477053504,
                -2.145266732219224,
                -0.9169243968172605,
                2.609997523389952
            ]
        },
        {
            "positions": [
                1.167086056160019,
                -0.6390411736072488,
                -1.2724224241786213,
                -2.1496898409127954,
                -0.9844319066949929,
                2.5776892035843644
            ]
        },
        {
            "positions": [
                1.2769017642049008,
                -0.5376730961944789,
                -1.2041671006518921,
                -2.154112949606367,
                -1.0519394165727256,
                2.545380883778776
            ]
        },
        {
            "positions": [
                1.3867174722497826,
                -0.436305018781709,
                -1.135911777125163,
                -2.1585360582999384,
                -1.119446926450458,
                2.5130725639731883
            ]
        },
        {
            "positions": [
                1.2820223256950691,
                -0.5232865192886533,
                -1.2180934702008963,
                -2.158363648672431,
                -1.056754895476552,
                2.553459923378069
            ]
        },
        {
            "positions": [
                1.1773271791403555,
                -0.6102680197955976,
                -1.3002751632766298,
                -2.1581912390449234,
                -0.9940628645026458,
                2.5938472827829493
            ]
        },
        {
            "positions": [
                1.0726320325856418,
                -0.697249520302542,
                -1.3824568563523632,
                -2.158018829417416,
                -0.9313708335287396,
                2.63423464218783
            ]
        },
        {
            "positions": [
                0.9679368860309283,
                -0.7842310208094863,
                -1.4646385494280965,
                -2.1578464197899088,
                -0.8686788025548335,
                2.6746220015927107
            ]
        },
        {
            "positions": [
                0.8632417394762147,
                -0.8712125213164305,
                -1.5468202425038298,
                -2.1576740101624012,
                -0.8059867715809274,
                2.715009360997591
            ]
        },
        {
            "positions": [
                0.7585465929215011,
                -0.9581940218233748,
                -1.6290019355795633,
                -2.1575016005348937,
                -0.7432947406070212,
                2.7553967204024716
            ]
        },
        {
            "positions": [
                0.6538514463667875,
                -1.045175522330319,
                -1.7111836286552968,
                -2.157329190907386,
                -0.6806027096331151,
                2.795784079807352
            ]
        },
        {
            "positions": [
                0.549156299812074,
                -1.1321570228372635,
                -1.79336532173103,
                -2.1571567812798786,
                -0.6179106786592089,
                2.836171439212233
            ]
        },
        {
            "positions": [
                0.44446115325736046,
                -1.2191385233442076,
                -1.8755470148067634,
                -2.156984371652371,
                -0.5552186476853027,
                2.8765587986171135
            ]
        },
        {
            "positions": [
                0.3397660067026469,
                -1.306120023851152,
                -1.9577287078824968,
                -2.1568119620248636,
                -0.49252661671139664,
                2.916946158021994
            ]
        },
        {
            "positions": [
                0.2350708601479332,
                -1.3931015243580962,
                -2.03991040095823,
                -2.156639552397356,
                -0.42983458573749045,
                2.9573335174268744
            ]
        },
        {
            "positions": [
                0.13037571359321953,
                -1.4800830248650405,
                -2.1220920940339636,
                -2.156467142769849,
                -0.36714255476358426,
                2.997720876831755
            ]
        },
        {
            "positions": [
                0.025680567038506075,
                -1.5670645253719848,
                -2.204273787109697,
                -2.1562947331423414,
                -0.3044505237896781,
                3.038108236236636
            ]
        },
        {
            "positions": [
                -0.0790145795162076,
                -1.6540460258789291,
                -2.28645548018543,
                -2.156122323514834,
                -0.241758492815772,
                3.0784955956415163
            ]
        },
        {
            "positions": [
                -0.18370972607092106,
                -1.7410275263858734,
                -2.3686371732611637,
                -2.1559499138873264,
                -0.17906646184186586,
                3.118882955046397
            ]
        }
    ]
}