{
    "goal": {
        "global_pose": {
            "orientation": {
                "w": -0.4816463035849501,
                "x": 0.5182115481033762,
                "y": 0.4908360881923453,
                "z": -0.5084816262002911
            },
            "position": {
                "x": -0.8240239810943604,
                "y": 0.19912469901144506,
                "z": 0.16403168439865112
            }
        },
        "name": "move_to_storage_D"
    },
    "id": "LBKPIECE_move_to_storage_D_61",
    "joint_names": [
        "shoulder_pan_joint",
        "shoulder_lift_joint",
        "elbow_joint",
        "wrist_1_joint",
        "wrist_2_joint",
        "wrist_3_joint"
    ],
    "metrics": {
        "cart_traj_len": 3.7103170670468337,
        "distance_elbow_joint": 4.640446065214678,
        "distance_shoulder_lift_joint": 1.2640681133125857,
        "distance_shoulder_pan_joint": 4.1878602974949715,
        "distance_wrist_1_joint": 2.2671636313174974,
        "distance_wrist_2_joint": 3.471899061762832,
        "distance_wrist_3_joint": 4.945667008127591,
        "smoothness": 0.18898586683968438,
        "time": 0.346346383,
        "traj_len": 4.558190888634455,
        "weighted_distance": 6.0338628494991235
    },
    "planner": "LBKPIECE",
    "start": {
        "state": {
            "elbow_joint": -2.384821988534728,
            "shoulder_lift_joint": -2.2788054721415256,
            "shoulder_pan_joint": -0.1854694642142757,
            "wrist_1_joint": 1.4845938289331202,
            "wrist_2_joint": 0.17898776772866878,
            "wrist_3_joint": 0.037105688729662994
        }
    },
    "waypoints": [
        {
            "positions": [
                -0.1854694642142757,
                -2.2788054721415256,
                -2.384821988534728,
                1.4845938289331202,
                0.17898776772866878,
                0.037105688729662994
            ]
        },
        {
            "positions": [
                -0.23334535374166482,
                -2.269970937388844,
                -2.404402730649291,
                1.3863560064166196,
                0.06056849264258825,
                -0.04436620965399546
            ]
        },
        {
            "positions": [
                -0.28122124326905396,
                -2.2611364026361622,
                -2.4239834727638536,
                1.288118183900119,
                -0.05785078244349229,
                -0.1258381080376539
            ]
        },
        {
            "positions": [
                -0.32909713279644304,
                -2.2523018678834807,
                -2.4435642148784167,
                1.1898803613836182,
                -0.17627005752957278,
                -0.20731000642131234
            ]
        },
        {
            "positions": [
                -0.3769730223238322,
                -2.2434673331307993,
                -2.4631449569929798,
                1.0916425388671176,
                -0.29468933261565333,
                -0.2887819048049708
            ]
        },
        {
            "positions": [
                -0.42484891185122126,
                -2.2346327983781173,
                -2.482725699107543,
                0.993404716350617,
                -0.41310860770173385,
                -0.3702538031886292
            ]
        },
        {
            "positions": [
                -0.4727248013786104,
                -2.225798263625436,
                -2.5023064412221054,
                0.8951668938341164,
                -0.5315278827878144,
                -0.45172570157228764
            ]
        },
        {
            "positions": [
                -0.5206006909059995,
                -2.216963728872754,
                -2.5218871833366685,
                0.7969290713176158,
                -0.649947157873895,
                -0.5331975999559461
            ]
        },
        {
            "positions": [
                -0.5684765804333887,
                -2.2081291941200725,
                -2.5414679254512316,
                0.6986912488011151,
                -0.7683664329599755,
                -0.6146694983396046
            ]
        },
        {
            "positions": [
                -0.6163524699607777,
                -2.199294659367391,
                -2.5610486675657946,
                0.6004534262846144,
                -0.886785708046056,
                -0.696141396723263
            ]
        },
        {
            "positions": [
                -0.6642283594881668,
                -2.190460124614709,
                -2.5806294096803573,
                0.5022156037681139,
                -1.0052049831321364,
                -0.7776132951069215
            ]
        },
        {
            "positions": [
                -0.7121042490155559,
                -2.1816255898620276,
                -2.6002101517949203,
                0.4039777812516132,
                -1.123624258218217,
                -0.8590851934905799
            ]
        },
        {
            "positions": [
                -0.7443856395297066,
                -2.071098589667636,
                -2.51470313953331,
                0.32478875562938836,
                -1.0604331209631142,
                -0.8446196830437462
            ]
        },
        {
            "positions": [
                -0.7766670300438573,
                -1.960571589473245,
                -2.4291961272716995,
                0.24559973000716356,
                -0.9972419837080114,
                -0.8301541725969125
            ]
        },
        {
            "positions": [
                -0.8089484205580081,
                -1.8500445892788537,
                -2.3436891150100894,
                0.16641070438493877,
                -0.9340508464529086,
                -0.8156886621500788
            ]
        },
        {
            "positions": [
                -0.8412298110721588,
                -1.7395175890844623,
                -2.2581821027484787,
                0.08722167876271392,
                -0.8708597091978059,
                -0.8012231517032451
            ]
        },
        {
            "positions": [
                -0.8735112015863095,
                -1.628990588890071,
                -2.1726750904868686,
                0.008032653140489135,
                -0.807668571942703,
                -0.7867576412564115
            ]
        },
        {
            "positions": [
                -0.8540387534412957,
                -1.580071187335826,
                -2.085190907979936,
                -0.07705129123919598,
                -0.7961371453319993,
                -0.7752899695522759
            ]
        },
        {
            "positions": [
                -0.8345663052962817,
                -1.5311517857815808,
                -1.9977067254730034,
                -0.1621352356188811,
                -0.7846057187212956,
                -0.7638222978481403
            ]
        },
        {
            "positions": [
                -0.730114946374454,
                -1.517068459782091,
                -1.8954126078905453,
                -0.17299734372353845,
                -0.7376698688054875,
                -0.6475973605399787
            ]
        },
        {
            "positions": [
                -0.6256635874526262,
                -1.5029851337826012,
                -1.7931184903080872,
                -0.1838594518281958,
                -0.6907340188896794,
                -0.5313724232318171
            ]
        },
        {
            "positions": [
                -0.5212122285307985,
                -1.4889018077831113,
                -1.6908243727256291,
                -0.19472155993285314,
                -0.6437981689738713,
                -0.4151474859236555
            ]
        },
        {
            "positions": [
                -0.4167608696089707,
                -1.4748184817836216,
                -1.5885302551431708,
                -0.2055836680375105,
                -0.5968623190580633,
                -0.298922548615494
            ]
        },
        {
            "positions": [
                -0.31230951068714286,
                -1.4607351557841317,
                -1.4862361375607127,
                -0.21644577614216784,
                -0.5499264691422552,
                -0.1826976113073323
            ]
        },
        {
            "positions": [
                -0.2078581517653152,
                -1.446651829784642,
                -1.3839420199782546,
                -0.2273078842468252,
                -0.5029906192264471,
                -0.06647267399917078
            ]
        },
        {
            "positions": [
                -0.1034067928434873,
                -1.432568503785152,
                -1.2816479023957963,
                -0.23816999235148256,
                -0.456054769310639,
                0.04975226330899074
            ]
        },
        {
            "positions": [
                0.0010445660783403588,
                -1.4184851777856624,
                -1.1793537848133382,
                -0.24903210045613988,
                -0.4091189193948309,
                0.16597720061715227
            ]
        },
        {
            "positions": [
                0.10549592500016813,
                -1.4044018517861725,
                -1.07705966723088,
                -0.25989420856079726,
                -0.3621830694790228,
                0.282202137925314
            ]
        },
        {
            "positions": [
                0.20994728392199602,
                -1.3903185257866828,
                -0.974765549648422,
                -0.2707563166654546,
                -0.31524721956321466,
                0.39842707523347565
            ]
        },
        {
            "positions": [
                0.3143986428438237,
                -1.3762351997871929,
                -0.8724714320659639,
                -0.2816184247701119,
                -0.26831136964740665,
                0.5146520125416371
            ]
        },
        {
            "positions": [
                0.41885000176565135,
                -1.362151873787703,
                -0.7701773144835058,
                -0.2924805328747693,
                -0.22137551973159852,
                0.6308769498497987
            ]
        },
        {
            "positions": [
                0.5233013606874792,
                -1.3480685477882133,
                -0.6678831969010475,
                -0.30334264097942665,
                -0.1744396698157904,
                0.7471018871579603
            ]
        },
        {
            "positions": [
                0.6277527196093071,
                -1.3339852217887234,
                -0.5655890793185894,
                -0.314204749084084,
                -0.12750381989998238,
                0.8633268244661217
            ]
        },
        {
            "positions": [
                0.7322040785311348,
                -1.3199018957892337,
                -0.46329496173613105,
                -0.32506685718874134,
                -0.08056796998417426,
                0.9795517617742834
            ]
        },
        {
            "positions": [
                0.8366554374529624,
                -1.3058185697897438,
                -0.3610008441536732,
                -0.33592896529339866,
                -0.033632120068366245,
                1.0957766990824447
            ]
        },
        {
            "positions": [
                0.9411067963747901,
                -1.291735243790254,
                -0.2587067265712151,
                -0.34679107339805604,
                0.01330372984744188,
                1.2120016363906063
            ]
        },
        {
            "positions": [
                1.045558155296618,
                -1.2776519177907641,
                -0.15641260898875675,
                -0.3576531815027134,
                0.060239579763250006,
                1.3282265736987684
            ]
        },
        {
            "positions": [
                1.1500095142184457,
                -1.2635685917912745,
                -0.05411849140629865,
                -0.3685152896073707,
                0.10717542967905802,
                1.4444515110069296
            ]
        },
        {
            "positions": [
                1.2544608731402738,
                -1.2494852657917845,
                0.04817562617615945,
                -0.37937739771202805,
                0.15411127959486626,
                1.5606764483150917
            ]
        },
        {
            "positions": [
                1.3589122320621012,
                -1.2354019397922946,
                0.15046974375861755,
                -0.39023950581668543,
                0.20104712951067427,
                1.6769013856232529
            ]
        },
        {
            "positions": [
                1.463363590983929,
                -1.221318613792805,
                0.25276386134107565,
                -0.40110161392134275,
                0.2479829794264823,
                1.7931263229314145
            ]
        },
        {
            "positions": [
                1.567814949905757,
                -1.207235287793315,
                0.3550579789235342,
                -0.4119637220260001,
                0.2949188293422904,
                1.9093512602395761
            ]
        },
        {
            "positions": [
                1.6722663088275844,
                -1.1931519617938253,
                0.45735209650599185,
                -0.42282583013065744,
                0.34185467925809854,
                2.0255761975477378
            ]
        },
        {
            "positions": [
                1.7767176677494123,
                -1.1790686357943354,
                0.55964621408845,
                -0.4336879382353148,
                0.38879052917390644,
                2.141801134855899
            ]
        },
        {
            "positions": [
                1.8811690266712402,
                -1.1649853097948457,
                0.6619403316709085,
                -0.4445500463399722,
                0.4357263790897148,
                2.258026072164061
            ]
        },
        {
            "positions": [
                1.9856203855930676,
                -1.1509019837953558,
                0.7642344492533666,
                -0.4554121544446295,
                0.4826622290055227,
                2.3742510094722222
            ]
        },
        {
            "positions": [
                2.090071744514896,
                -1.136818657795866,
                0.8665285668358247,
                -0.4662742625492869,
                0.5295980789213308,
                2.490475946780384
            ]
        },
        {
            "positions": [
                2.1945231034367234,
                -1.1227353317963762,
                0.9688226844182829,
                -0.4771363706539442,
                0.5765339288371389,
                2.6067008840885455
            ]
        },
        {
            "positions": [
                2.266191548131658,
                -1.1155433086906055,
                1.057794548916531,
                -0.49520886794478525,
                0.6293159492635397,
                2.6736053790354113
            ]
        },
        {
            "positions": [
                2.3378599928265924,
                -1.1083512855848348,
                1.146766413414779,
                -0.5132813652356263,
                0.6820979696899405,
                2.740509873982277
            ]
        },
        {
            "positions": [
                2.3859345537782652,
                -1.0927489644588522,
                1.25977996953891,
                -0.5581627714270846,
                0.7426921043412386,
                2.815490050388026
            ]
        },
        {
            "positions": [
                2.434009114729938,
                -1.0771466433328698,
                1.3727935256630412,
                -0.603044177618543,
                0.8032862389925365,
                2.8904702267937745
            ]
        },
        {
            "positions": [
                2.4820836756816105,
                -1.0615443222068874,
                1.4858070817871725,
                -0.6479255838100013,
                0.8638803736438345,
                2.9654504031995232
            ]
        },
        {
            "positions": [
                2.5301582366332833,
                -1.0459420010809048,
                1.5988206379113035,
                -0.6928069900014596,
                0.9244745082951324,
                3.0404305796052715
            ]
        },
        {
            "positions": [
                2.578232797584956,
                -1.0303396799549223,
                1.7118341940354345,
                -0.737688396192918,
                0.9850686429464306,
                3.1154107560110202
            ]
        },
        {
            "positions": [
                2.626307358536629,
                -1.01473735882894,
                1.8248477501595657,
                -0.7825698023843763,
                1.0456627775977285,
                3.190390932416769
            ]
        }
    ]
}