{
    "goal": {
        "global_pose": {
            "orientation": {
                "w": 0.5084816262002911,
                "x": -0.4908360881923452,
                "y": 0.5182115481033761,
                "z": -0.48164630358495003
            },
            "position": {
                "x": 0.5540239810943604,
                "y": -0.46912469901144505,
                "z": 0.16403168439865112
            }
        },
        "name": "move_to_storage_B"
    },
    "id": "LBKPIECE_move_to_storage_B_46",
    "joint_names": [
        "shoulder_pan_joint",
        "shoulder_lift_joint",
        "elbow_joint",
        "wrist_1_joint",
        "wrist_2_joint",
        "wrist_3_joint"
    ],
    "metrics": {
        "cart_traj_len": 1.019124655630105,
        "distance_elbow_joint": 0.3499902557445269,
        "distance_shoulder_lift_joint": 0.4589359439668621,
        "distance_shoulder_pan_joint": 0.7599490559111791,
        "distance_wrist_1_joint": 3.470241816156209,
        "distance_wrist_2_joint": 2.70069236172997,
        "distance_wrist_3_joint": 3.146286123768168,
        "smoothness": 0.40210687175490356,
        "time": 0.359447553,
        "traj_len": 3.2994083647340346,
        "weighted_distance": 4.832142587165596
    },
    "planner": "LBKPIECE",
    "start": {
        "state": {
            "elbow_joint": 1.664937868594044,
            "shoulder_lift_joint": -0.661644460510453,
            "shoulder_pan_joint": -0.9139846352900073,
            "wrist_1_joint": 2.146753192139373,
            "wrist_2_joint": -2.2341966793290973,
            "wrist_3_joint": 0.005466555786416001
        }
    },
    "waypoints": [
        {
            "positions": [
                -0.9139846352900073,
                -0.661644460510453,
                1.664937868594044,
                2.146753192139373,
                -2.2341966793290973,
                0.005466555786416001
            ]
        },
        {
            "positions": [
                -1.0364110716692756,
                -0.6926327838049045,
                1.6858096686976827,
                2.2103529889189995,
                -2.131474270816234,
                -0.04695820644496697
            ]
        },
        {
            "positions": [
                -0.9641718077297157,
                -0.715949382580545,
                1.7053660892313194,
                2.254733531681735,
                -2.0470620139228974,
                -0.13790589388696928
            ]
        },
        {
            "positions": [
                -0.8919325437901559,
                -0.7392659813561856,
                1.7249225097649559,
                2.299114074444471,
                -1.962649757029561,
                -0.2288535813289716
            ]
        },
        {
            "positions": [
                -0.819693279850596,
                -0.7625825801318262,
                1.7444789302985924,
                2.343494617207207,
                -1.8782375001362244,
                -0.31980126877097387
            ]
        },
        {
            "positions": [
                -0.7474540159110361,
                -0.7858991789074667,
                1.764035350832229,
                2.3878751599699424,
                -1.7938252432428876,
                -0.4107489562129762
            ]
        },
        {
            "positions": [
                -0.7619775810682724,
                -0.7998442299728771,
                1.7744892163949932,
                2.2533284996230405,
                -1.6996452046743975,
                -0.5245018983700085
            ]
        },
        {
            "positions": [
                -0.7765011462255087,
                -0.8137892810382874,
                1.7849430819577576,
                2.118781839276139,
                -1.6054651661059076,
                -0.6382548405270408
            ]
        },
        {
            "positions": [
                -0.791024711382745,
                -0.8277343321036978,
                1.7953969475205218,
                1.9842351789292374,
                -1.5112851275374175,
                -0.7520077826840732
            ]
        },
        {
            "positions": [
                -0.8055482765399813,
                -0.8416793831691082,
                1.805850813083286,
                1.8496885185823357,
                -1.4171050889689276,
                -0.8657607248411054
            ]
        },
        {
            "positions": [
                -0.8200718416972177,
                -0.8556244342345185,
                1.8163046786460502,
                1.715141858235434,
                -1.3229250504004375,
                -0.9795136669981379
            ]
        },
        {
            "positions": [
                -0.8345954068544539,
                -0.8695694852999288,
                1.8267585442088146,
                1.5805951978885324,
                -1.2287450118319474,
                -1.0932666091551702
            ]
        },
        {
            "positions": [
                -0.8491189720116903,
                -0.8835145363653392,
                1.8372124097715787,
                1.4460485375416305,
                -1.1345649732634575,
                -1.2070195513122026
            ]
        },
        {
            "positions": [
                -0.8636425371689266,
                -0.8974595874307495,
                1.847666275334343,
                1.311501877194729,
                -1.0403849346949676,
                -1.3207724934692349
            ]
        },
        {
            "positions": [
                -0.8781661023261629,
                -0.9114046384961598,
                1.8581201408971073,
                1.1769552168478274,
                -0.9462048961264775,
                -1.4345254356262673
            ]
        },
        {
            "positions": [
                -0.8926896674833992,
                -0.9253496895615703,
                1.8685740064598715,
                1.0424085565009258,
                -0.8520248575579874,
                -1.5482783777832996
            ]
        },
        {
            "positions": [
                -0.9072132326406355,
                -0.9392947406269806,
                1.8790278720226357,
                0.9078618961540241,
                -0.7578448189894975,
                -1.6620313199403318
            ]
        },
        {
            "positions": [
                -0.9217367977978718,
                -0.9532397916923909,
                1.8894817375853998,
                0.7733152358071225,
                -0.6636647804210074,
                -1.7757842620973643
            ]
        },
        {
            "positions": [
                -0.9362603629551081,
                -0.9671848427578013,
                1.8999356031481642,
                0.638768575460221,
                -0.5694847418525175,
                -1.8895372042543965
            ]
        },
        {
            "positions": [
                -0.9507839281123444,
                -0.9811298938232116,
                1.9103894687109284,
                0.5042219151133189,
                -0.4753047032840272,
                -2.003290146411429
            ]
        },
        {
            "positions": [
                -0.9653074932695807,
                -0.995074944888622,
                1.9208433342736926,
                0.3696752547664177,
                -0.3811246647155373,
                -2.1170430885684612
            ]
        },
        {
            "positions": [
                -0.979831058426817,
                -1.0090199959540322,
                1.931297199836457,
                0.23512859441951584,
                -0.2869446261470474,
                -2.2307960307254935
            ]
        },
        {
            "positions": [
                -0.9943546235840532,
                -1.0229650470194427,
                1.9417510653992212,
                0.10058193407261395,
                -0.1927645875785573,
                -2.344548972882526
            ]
        },
        {
            "positions": [
                -1.0088781887412896,
                -1.036910098084853,
                1.9522049309619853,
                -0.03396472627428748,
                -0.09858454901006741,
                -2.4583019150395584
            ]
        },
        {
            "positions": [
                -1.0234017538985258,
                -1.0508551491502633,
                1.9626587965247495,
                -0.16851138662118892,
                -0.004404510441577303,
                -2.5720548571965907
            ]
        },
        {
            "positions": [
                -1.0379253190557622,
                -1.0648002002156738,
                1.973112662087514,
                -0.3030580469680908,
                0.0897755281269128,
                -2.685807799353623
            ]
        },
        {
            "positions": [
                -1.0524488842129984,
                -1.078745251281084,
                1.983566527650278,
                -0.4376047073149927,
                0.1839555666954027,
                -2.799560741510655
            ]
        },
        {
            "positions": [
                -1.0669724493702348,
                -1.0926903023464944,
                1.9940203932130423,
                -0.5721513676618941,
                0.2781356052638926,
                -2.9133136836676874
            ]
        },
        {
            "positions": [
                -1.0814960145274712,
                -1.1066353534119049,
                2.0044742587758066,
                -0.706698028008796,
                0.3723156438323829,
                -3.02706662582472
            ]
        },
        {
            "positions": [
                -1.0960195796847074,
                -1.120580404477315,
                2.014928124338571,
                -0.8412446883556975,
                0.46649568240087286,
                -3.1408195679817523
            ]
        }
    ]
}