{
    "goal": {
        "global_pose": {
            "orientation": {
                "w": -0.4816463035849501,
                "x": 0.5182115481033762,
                "y": 0.4908360881923453,
                "z": -0.5084816262002911
            },
            "position": {
                "x": -0.8240239810943604,
                "y": -0.300875300988555,
                "z": 0.16403168439865112
            }
        },
        "name": "move_to_storage_C"
    },
    "id": "LBKPIECE_move_to_storage_C_105",
    "joint_names": [
        "shoulder_pan_joint",
        "shoulder_lift_joint",
        "elbow_joint",
        "wrist_1_joint",
        "wrist_2_joint",
        "wrist_3_joint"
    ],
    "metrics": {
        "cart_traj_len": 0.576241773549673,
        "distance_elbow_joint": 0.26041606209449597,
        "distance_shoulder_lift_joint": 0.1896497091141517,
        "distance_shoulder_pan_joint": 0.4949084551905574,
        "distance_wrist_1_joint": 0.08854661119372031,
        "distance_wrist_2_joint": 1.0613865619980989,
        "distance_wrist_3_joint": 0.06252556814412236,
        "smoothness": 2.5376526478085547e-16,
        "time": 0.6350738690000001,
        "traj_len": 1.468820263931277,
        "weighted_distance": 1.8526784063121182
    },
    "planner": "LBKPIECE",
    "start": {
        "state": {
            "elbow_joint": 2.010868314990456,
            "shoulder_lift_joint": -1.1634956873337592,
            "shoulder_pan_joint": -2.4736205022346125,
            "wrist_1_joint": -0.8367026794202681,
            "wrist_2_joint": 0.6746043897044499,
            "wrist_3_joint": -3.1496632123970403
        }
    },
    "waypoints": [
        {
            "positions": [
                -2.4736205022346125,
                -1.1634956873337592,
                2.010868314990456,
                -0.8367026794202681,
                0.6746043897044499,
                -3.1496632123970403
            ]
        },
        {
            "positions": [
                -2.556105244766372,
                -1.1318874024814005,
                1.9674656379747064,
                -0.8219449108879814,
                0.8515021500374664,
                -3.1392422843730197
            ]
        },
        {
            "positions": [
                -2.6385899872981318,
                -1.100279117629042,
                1.9240629609589572,
                -0.8071871423556947,
                1.0283999103704828,
                -3.1288213563489995
            ]
        },
        {
            "positions": [
                -2.7210747298298914,
                -1.0686708327766834,
                1.8806602839432078,
                -0.792429373823408,
                1.2052976707034992,
                -3.1184004283249793
            ]
        },
        {
            "positions": [
                -2.8035594723616506,
                -1.0370625479243247,
                1.8372576069274584,
                -0.7776716052911212,
                1.3821954310365157,
                -3.1079795003009587
            ]
        },
        {
            "positions": [
                -2.8860442148934102,
                -1.005454263071966,
                1.7938549299117093,
                -0.7629138367588345,
                1.5590931913695325,
                -3.097558572276938
            ]
        },
        {
            "positions": [
                -2.96852895742517,
                -0.9738459782196075,
                1.7504522528959598,
                -0.7481560682265478,
                1.735990951702549,
                -3.087137644252918
            ]
        }
    ]
}