{
    "goal": {
        "global_pose": {
            "orientation": {
                "w": 0.5084816262002911,
                "x": -0.4908360881923452,
                "y": 0.5182115481033761,
                "z": -0.48164630358495003
            },
            "position": {
                "x": 0.5540239810943604,
                "y": -0.46912469901144505,
                "z": 0.16403168439865112
            }
        },
        "name": "move_to_storage_B"
    },
    "id": "LBKPIECE_move_to_storage_B_18",
    "joint_names": [
        "shoulder_pan_joint",
        "shoulder_lift_joint",
        "elbow_joint",
        "wrist_1_joint",
        "wrist_2_joint",
        "wrist_3_joint"
    ],
    "metrics": {
        "cart_traj_len": 1.4201012164568616,
        "distance_elbow_joint": 0.3486315870672323,
        "distance_shoulder_lift_joint": 0.7864582998533933,
        "distance_shoulder_pan_joint": 1.0011947900457012,
        "distance_wrist_1_joint": 2.982149693644461,
        "distance_wrist_2_joint": 2.7041338054633375,
        "distance_wrist_3_joint": 3.1319976921728414,
        "smoothness": 0.11405396057793164,
        "time": 0.543867628,
        "traj_len": 3.3097682499303436,
        "weighted_distance": 4.785900620750544
    },
    "planner": "LBKPIECE",
    "start": {
        "state": {
            "elbow_joint": 1.664937868594044,
            "shoulder_lift_joint": -0.661644460510453,
            "shoulder_pan_joint": -0.9139846352900073,
            "wrist_1_joint": 2.146753192139373,
            "wrist_2_joint": -2.2341966793290973,
            "wrist_3_joint": 0.005466555786416001
        }
    },
    "waypoints": [
        {
            "positions": [
                -0.9139846352900073,
                -0.661644460510453,
                1.664937868594044,
                2.146753192139373,
                -2.2341966793290973,
                0.005466555786416001
            ]
        },
        {
            "positions": [
                -0.8729886845484063,
                -0.723876219248227,
                1.6681026319181755,
                2.0507740727859067,
                -2.097166091431159,
                0.0471343360778087
            ]
        },
        {
            "positions": [
                -0.8319927338068054,
                -0.786107977986001,
                1.6712673952423072,
                1.9547949534324405,
                -1.960135503533221,
                0.0888021163692014
            ]
        },
        {
            "positions": [
                -0.7909967830652044,
                -0.8483397367237748,
                1.674432158566439,
                1.858815834078974,
                -1.823104915635283,
                0.13046989666059408
            ]
        },
        {
            "positions": [
                -0.7500008323236034,
                -0.9105714954615488,
                1.6775969218905706,
                1.7628367147255077,
                -1.686074327737345,
                0.1721376769519868
            ]
        },
        {
            "positions": [
                -0.7090048815820025,
                -0.9728032541993228,
                1.6807616852147023,
                1.6668575953720413,
                -1.5490437398394068,
                0.2138054572433795
            ]
        },
        {
            "positions": [
                -0.6680089308404015,
                -1.0350350129370967,
                1.6839264485388339,
                1.5708784760185748,
                -1.4120131519414687,
                0.2554732375347722
            ]
        },
        {
            "positions": [
                -0.6270129800988005,
                -1.0972667716748707,
                1.6870912118629655,
                1.4748993566651085,
                -1.2749825640435306,
                0.29714101782616487
            ]
        },
        {
            "positions": [
                -0.5860170293571995,
                -1.1594985304126446,
                1.6902559751870974,
                1.378920237311642,
                -1.1379519761455923,
                0.33880879811755765
            ]
        },
        {
            "positions": [
                -0.5450210786155985,
                -1.2217302891504187,
                1.693420738511229,
                1.2829411179581758,
                -1.0009213882476542,
                0.38047657840895033
            ]
        },
        {
            "positions": [
                -0.5040251278739976,
                -1.2839620478881926,
                1.6965855018353606,
                1.1869619986047093,
                -0.8638908003497161,
                0.422144358700343
            ]
        },
        {
            "positions": [
                -0.5351427743281918,
                -1.2753230630210528,
                1.7132688678261982,
                1.080522077546299,
                -0.7936893305347711,
                0.5650559318192332
            ]
        },
        {
            "positions": [
                -0.5662604207823861,
                -1.2666840781539133,
                1.729952233817036,
                0.9740821564878887,
                -0.7234878607198261,
                0.7079675049381234
            ]
        },
        {
            "positions": [
                -0.5973780672365805,
                -1.2580450932867735,
                1.7466355998078735,
                0.8676422354294784,
                -0.6532863909048812,
                0.8508790780570137
            ]
        },
        {
            "positions": [
                -0.6284957136907747,
                -1.249406108419634,
                1.7633189657987112,
                0.761202314371068,
                -0.5830849210899361,
                0.9937906511759038
            ]
        },
        {
            "positions": [
                -0.659613360144969,
                -1.2407671235524942,
                1.7800023317895488,
                0.6547623933126576,
                -0.5128834512749911,
                1.136702224294794
            ]
        },
        {
            "positions": [
                -0.6907310065991633,
                -1.2321281386853546,
                1.7966856977803867,
                0.5483224722542474,
                -0.4426819814600461,
                1.2796137974136843
            ]
        },
        {
            "positions": [
                -0.7218486530533577,
                -1.2234891538182149,
                1.8133690637712243,
                0.44188255119583697,
                -0.37248051164510115,
                1.4225253705325744
            ]
        },
        {
            "positions": [
                -0.7529662995075519,
                -1.2148501689510751,
                1.830052429762062,
                0.3354426301374267,
                -0.3022790418301562,
                1.5654369436514648
            ]
        },
        {
            "positions": [
                -0.7840839459617461,
                -1.2062111840839356,
                1.8467357957528996,
                0.22900270907901632,
                -0.23207757201521118,
                1.708348516770355
            ]
        },
        {
            "positions": [
                -0.8152015924159405,
                -1.1975721992167958,
                1.8634191617437372,
                0.12256278802060594,
                -0.16187610220026616,
                1.851260089889245
            ]
        },
        {
            "positions": [
                -0.8463192388701348,
                -1.1889332143496563,
                1.8801025277345749,
                0.01612286696219556,
                -0.09167463238532103,
                1.9941716630081354
            ]
        },
        {
            "positions": [
                -0.8774368853243291,
                -1.1802942294825165,
                1.8967858937254125,
                -0.0903170540962146,
                -0.021473162570376125,
                2.1370832361270256
            ]
        },
        {
            "positions": [
                -0.9085545317785234,
                -1.1716552446153767,
                1.9134692597162501,
                -0.19675697515462498,
                0.04872830724456889,
                2.279994809245916
            ]
        },
        {
            "positions": [
                -0.9396721782327176,
                -1.1630162597482372,
                1.9301526257070878,
                -0.30319689621303536,
                0.1189297770595138,
                2.422906382364806
            ]
        },
        {
            "positions": [
                -0.970789824686912,
                -1.1543772748810974,
                1.9468359916979256,
                -0.40963681727144574,
                0.1891312468744588,
                2.565817955483696
            ]
        },
        {
            "positions": [
                -1.0019074711411062,
                -1.1457382900139579,
                1.9635193576887633,
                -0.5160767383298559,
                0.2593327166894037,
                2.7087295286025865
            ]
        },
        {
            "positions": [
                -1.0330251175953005,
                -1.1370993051468181,
                1.980202723679601,
                -0.6225166593882663,
                0.32953418650434885,
                2.851641101721477
            ]
        },
        {
            "positions": [
                -1.0641427640494947,
                -1.1284603202796786,
                1.9968860896704386,
                -0.7289565804466767,
                0.39973565631929375,
                2.994552674840367
            ]
        },
        {
            "positions": [
                -1.0952604105036892,
                -1.1198213354125388,
                2.013569455661276,
                -0.8353965015050872,
                0.4699371261342388,
                3.137464247959257
            ]
        }
    ]
}