{
    "goal": {
        "global_pose": {
            "orientation": {
                "w": 0.7047431493862688,
                "x": -0.7094548369677653,
                "y": 0.0024358444001904,
                "z": -0.0022348060817251984
            },
            "position": {
                "x": -0.39052492380142206,
                "y": 0.3671506643295288,
                "z": 0.19426114857196808
            }
        },
        "name": "move_to_magneteinheit_D"
    },
    "id": "LBKPIECE_move_to_magneteinheit_D_52",
    "joint_names": [
        "shoulder_pan_joint",
        "shoulder_lift_joint",
        "elbow_joint",
        "wrist_1_joint",
        "wrist_2_joint",
        "wrist_3_joint"
    ],
    "metrics": {
        "cart_traj_len": 4.152964505847055,
        "distance_elbow_joint": 3.504075062253749,
        "distance_shoulder_lift_joint": 1.661567438691925,
        "distance_shoulder_pan_joint": 4.008597066872422,
        "distance_wrist_1_joint": 2.0587406794336074,
        "distance_wrist_2_joint": 0.6321376826898106,
        "distance_wrist_3_joint": 3.889076244167977,
        "smoothness": 0.8178311028919699,
        "time": 0.739017697,
        "traj_len": 3.9691553476916845,
        "weighted_distance": 5.120861746285372
    },
    "planner": "LBKPIECE",
    "start": {
        "state": {
            "elbow_joint": 0.749534889911806,
            "shoulder_lift_joint": -0.6476975780787326,
            "shoulder_pan_joint": -2.711696901376241,
            "wrist_1_joint": -0.07506478083263063,
            "wrist_2_joint": 0.43296659715538205,
            "wrist_3_joint": -3.14703540197715
        }
    },
    "waypoints": [
        {
            "positions": [
                -2.711696901376241,
                -0.6476975780787326,
                0.749534889911806,
                -0.07506478083263063,
                0.43296659715538205,
                -3.14703540197715
            ]
        },
        {
            "positions": [
                -2.7615791758144184,
                -0.7106230261531343,
                0.6819001915559549,
                -0.043758173041966504,
                0.4505004561847755,
                -2.992203344154165
            ]
        },
        {
            "positions": [
                -2.811461450252596,
                -0.773548474227536,
                0.6142654932001039,
                -0.01245156525130238,
                0.46803431521416894,
                -2.83737128633118
            ]
        },
        {
            "positions": [
                -2.8613437246907734,
                -0.8364739223019377,
                0.5466307948442529,
                0.018855042539361752,
                0.48556817424356236,
                -2.6825392285081953
            ]
        },
        {
            "positions": [
                -2.9112259991289506,
                -0.8993993703763394,
                0.4789960964884019,
                0.05016165033002587,
                0.5031020332729559,
                -2.5277071706852103
            ]
        },
        {
            "positions": [
                -2.9611082735671284,
                -0.9623248184507411,
                0.41136139813255085,
                0.08146825812069,
                0.5206358923023493,
                -2.3728751128622254
            ]
        },
        {
            "positions": [
                -3.0109905480053056,
                -1.0252502665251428,
                0.34372669977669984,
                0.11277486591135413,
                0.5381697513317427,
                -2.2180430550392405
            ]
        },
        {
            "positions": [
                -2.889783468505975,
                -1.0437555049877185,
                0.24579545514992943,
                0.16173084897382858,
                0.5259965343071021,
                -2.127631812680315
            ]
        },
        {
            "positions": [
                -2.7685763890066437,
                -1.062260743450294,
                0.147864210523159,
                0.21068683203630303,
                0.5138233172824616,
                -2.0372205703213897
            ]
        },
        {
            "positions": [
                -2.6473693095073125,
                -1.0807659819128697,
                0.04993296589638857,
                0.2596428150987775,
                0.501650100257821,
                -1.9468093279624643
            ]
        },
        {
            "positions": [
                -2.526162230007982,
                -1.0992712203754453,
                -0.047998278730381816,
                0.3085987981612519,
                0.4894768832331804,
                -1.856398085603539
            ]
        },
        {
            "positions": [
                -2.404955150508651,
                -1.117776458838021,
                -0.1459295233571523,
                0.3575547812237264,
                0.47730366620853987,
                -1.7659868432446135
            ]
        },
        {
            "positions": [
                -2.28374807100932,
                -1.1362816973005967,
                -0.2438607679839227,
                0.4065107642862008,
                0.4651304491838993,
                -1.6755756008856881
            ]
        },
        {
            "positions": [
                -2.1625409915099887,
                -1.1547869357631722,
                -0.3417920126106932,
                0.4554667473486753,
                0.4529572321592587,
                -1.5851643585267625
            ]
        },
        {
            "positions": [
                -2.041333912010658,
                -1.1732921742257478,
                -0.43972325723746347,
                0.5044227304111497,
                0.4407840151346181,
                -1.4947531161678373
            ]
        },
        {
            "positions": [
                -1.920126832511327,
                -1.1917974126883235,
                -0.537654501864234,
                0.5533787134736242,
                0.42861079810997754,
                -1.4043418738089117
            ]
        },
        {
            "positions": [
                -1.798919753011996,
                -1.210302651150899,
                -0.6355857464910044,
                0.6023346965360986,
                0.41643758108533696,
                -1.3139306314499863
            ]
        },
        {
            "positions": [
                -1.677712673512665,
                -1.2288078896134746,
                -0.7335169911177748,
                0.651290679598573,
                0.40426436406069644,
                -1.2235193890910612
            ]
        },
        {
            "positions": [
                -1.556505594013334,
                -1.2473131280760503,
                -0.8314482357445452,
                0.7002466626610475,
                0.39209114703605585,
                -1.1331081467321356
            ]
        },
        {
            "positions": [
                -1.4352985145140031,
                -1.265818366538626,
                -0.9293794803713156,
                0.7492026457235219,
                0.3799179300114153,
                -1.0426969043732102
            ]
        },
        {
            "positions": [
                -1.3140914350146722,
                -1.2843236050012017,
                -1.0273107249980862,
                0.7981586287859964,
                0.3677447129867747,
                -0.9522856620142846
            ]
        },
        {
            "positions": [
                -1.1928843555153412,
                -1.3028288434637771,
                -1.1252419696248563,
                0.8471146118484709,
                0.3555714959621341,
                -0.8618744196553594
            ]
        },
        {
            "positions": [
                -1.0716772760160103,
                -1.3213340819263528,
                -1.2231732142516267,
                0.8960705949109453,
                0.34339827893749353,
                -0.771463177296434
            ]
        },
        {
            "positions": [
                -0.9504701965166791,
                -1.3398393203889285,
                -1.3211044588783973,
                0.9450265779734198,
                0.33122506191285295,
                -0.6810519349375084
            ]
        },
        {
            "positions": [
                -0.8292631170173483,
                -1.358344558851504,
                -1.4190357035051677,
                0.9939825610358942,
                0.31905184488821237,
                -0.590640692578583
            ]
        },
        {
            "positions": [
                -0.7080560375180176,
                -1.3768497973140796,
                -1.516966948131938,
                1.0429385440983687,
                0.3068786278635718,
                -0.5002294502196578
            ]
        },
        {
            "positions": [
                -0.5868489580186864,
                -1.3953550357766553,
                -1.6148981927587087,
                1.0918945271608431,
                0.2947054108389312,
                -0.4098182078607322
            ]
        },
        {
            "positions": [
                -0.4656418785193557,
                -1.413860274239231,
                -1.712829437385479,
                1.1408505102233175,
                0.2825321938142907,
                -0.3194069655018068
            ]
        },
        {
            "positions": [
                -0.3444347990200245,
                -1.4323655127018067,
                -1.8107606820122495,
                1.189806493285792,
                0.2703589767896501,
                -0.22899572314288164
            ]
        },
        {
            "positions": [
                -0.2232277195206933,
                -1.4508707511643821,
                -1.9086919266390199,
                1.2387624763482665,
                0.2581857597650095,
                -0.13858448078395602
            ]
        },
        {
            "positions": [
                -0.1020206400213628,
                -1.4693759896269578,
                -2.0066231712657903,
                1.287718459410741,
                0.24601254274036893,
                -0.0481732384250306
            ]
        },
        {
            "positions": [
                -0.02263257004947649,
                -1.6400881417489752,
                -2.0705023126224185,
                1.3068770374133394,
                0.2608033994613423,
                -0.0069611752182465216
            ]
        },
        {
            "positions": [
                0.02386908051589432,
                -1.7490562574356927,
                -2.1537958567034337,
                1.376575872484532,
                0.23503347748696046,
                -0.06442625421634217
            ]
        },
        {
            "positions": [
                0.07037073108126513,
                -1.85802437312241,
                -2.237089400784449,
                1.446274707555725,
                0.20926355551257866,
                -0.1218913332144378
            ]
        },
        {
            "positions": [
                0.11687238164663594,
                -1.9669924888091275,
                -2.320382944865464,
                1.5159735426269179,
                0.18349363353819684,
                -0.17935641221253346
            ]
        },
        {
            "positions": [
                0.16337403221200675,
                -2.0759606044958447,
                -2.4036764889464792,
                1.5856723776981105,
                0.15772371156381504,
                -0.2368214912106291
            ]
        },
        {
            "positions": [
                0.20987568277737756,
                -2.1849287201825622,
                -2.4869700330274944,
                1.6553712127693032,
                0.13195378958943318,
                -0.2942865702087248
            ]
        },
        {
            "positions": [
                0.25637733334274837,
                -2.2938968358692797,
                -2.5702635771085096,
                1.7250700478404961,
                0.10618386761505139,
                -0.3517516492068204
            ]
        },
        {
            "positions": [
                0.14589344861892206,
                -2.2900547906439352,
                -2.5241944283001514,
                1.6604185851503759,
                0.12252560045375434,
                -0.2506987633516953
            ]
        },
        {
            "positions": [
                0.03540956389509575,
                -2.2862127454185908,
                -2.4781252794917927,
                1.5957671224602556,
                0.1388673332924573,
                -0.14964587749657013
            ]
        },
        {
            "positions": [
                -0.07507432082873056,
                -2.2823707001932463,
                -2.4320561306834345,
                1.5311156597701356,
                0.15520906613116026,
                -0.04859299164144498
            ]
        },
        {
            "positions": [
                -0.18555820555255687,
                -2.278528654967902,
                -2.3859869818750763,
                1.4664641970800154,
                0.1715507989698632,
                0.05245989421368013
            ]
        }
    ]
}