{
    "goal": {
        "global_pose": {
            "orientation": {
                "w": -0.4816463035849501,
                "x": 0.5182115481033762,
                "y": 0.4908360881923453,
                "z": -0.5084816262002911
            },
            "position": {
                "x": -0.8240239810943604,
                "y": -0.300875300988555,
                "z": 0.16403168439865112
            }
        },
        "name": "move_to_storage_C"
    },
    "id": "LBKPIECE_move_to_storage_C_130",
    "joint_names": [
        "shoulder_pan_joint",
        "shoulder_lift_joint",
        "elbow_joint",
        "wrist_1_joint",
        "wrist_2_joint",
        "wrist_3_joint"
    ],
    "metrics": {
        "cart_traj_len": 0.5762618741805142,
        "distance_elbow_joint": 0.2602423542771546,
        "distance_shoulder_lift_joint": 0.18845854593749778,
        "distance_shoulder_pan_joint": 0.4945509311185896,
        "distance_wrist_1_joint": 0.09016576392323139,
        "distance_wrist_2_joint": 1.0673656427474953,
        "distance_wrist_3_joint": 0.07310995709290768,
        "smoothness": 0.0,
        "time": 0.328365574,
        "traj_len": 1.4744128306199986,
        "weighted_distance": 1.8648443677565747
    },
    "planner": "LBKPIECE",
    "start": {
        "state": {
            "elbow_joint": 2.010868314990456,
            "shoulder_lift_joint": -1.1634956873337592,
            "shoulder_pan_joint": -2.4736205022346125,
            "wrist_1_joint": -0.8367026794202681,
            "wrist_2_joint": 0.6746043897044499,
            "wrist_3_joint": -3.1496632123970403
        }
    },
    "waypoints": [
        {
            "positions": [
                -2.4736205022346125,
                -1.1634956873337592,
                2.010868314990456,
                -0.8367026794202681,
                0.6746043897044499,
                -3.1496632123970403
            ]
        },
        {
            "positions": [
                -2.556045657421044,
                -1.1320859296775097,
                1.9674945892775968,
                -0.8216750520997296,
                0.8524986634956991,
                -3.1374782195482225
            ]
        },
        {
            "positions": [
                -2.638470812607476,
                -1.10067617202126,
                1.9241208635647375,
                -0.8066474247791909,
                1.0303929372869485,
                -3.1252932266994042
            ]
        },
        {
            "positions": [
                -2.7208959677939073,
                -1.0692664143650104,
                1.8807471378518785,
                -0.7916197974586524,
                1.2082872110781975,
                -3.1131082338505864
            ]
        },
        {
            "positions": [
                -2.8033211229803388,
                -1.0378566567087606,
                1.8373734121390195,
                -0.7765921701381139,
                1.386181484869447,
                -3.1009232410017686
            ]
        },
        {
            "positions": [
                -2.8857462781667707,
                -1.006446899052511,
                1.7939996864261603,
                -0.7615645428175752,
                1.564075758660696,
                -3.0887382481529504
            ]
        },
        {
            "positions": [
                -2.968171433353202,
                -0.9750371413962614,
                1.7506259607133012,
                -0.7465369154970367,
                1.7419700324519454,
                -3.0765532553041326
            ]
        }
    ]
}