{
    "goal": {
        "global_pose": {
            "orientation": {
                "w": 0.7031023480610252,
                "x": -0.7110244013736278,
                "y": 0.0077485991402295624,
                "z": 0.005598929693374583
            },
            "position": {
                "x": -0.8841497679147869,
                "y": 0.44412534475326537,
                "z": 0.3711530566215515
            }
        },
        "name": "move_to_auspresseinheit_D"
    },
    "id": "LBKPIECE_move_to_auspresseinheit_D_39",
    "joint_names": [
        "shoulder_pan_joint",
        "shoulder_lift_joint",
        "elbow_joint",
        "wrist_1_joint",
        "wrist_2_joint",
        "wrist_3_joint"
    ],
    "metrics": {
        "cart_traj_len": 0.34430903382493916,
        "distance_elbow_joint": 0.6529982395366769,
        "distance_shoulder_lift_joint": 0.12919410618554528,
        "distance_shoulder_pan_joint": 0.13426364283098793,
        "distance_wrist_1_joint": 0.5755754196844771,
        "distance_wrist_2_joint": 1.4431112355978584,
        "distance_wrist_3_joint": 0.04284701180263939,
        "smoothness": 2.2697892976884832e-15,
        "time": 0.655543771,
        "traj_len": 1.7256852713163502,
        "weighted_distance": 2.254411305535394
    },
    "planner": "LBKPIECE",
    "start": {
        "state": {
            "elbow_joint": -1.8275523626775212,
            "shoulder_lift_joint": -2.126789852344167,
            "shoulder_pan_joint": -0.03513704404078235,
            "wrist_1_joint": -2.347782403156801,
            "wrist_2_joint": -1.6058999987535132,
            "wrist_3_joint": -3.0880379163319196
        }
    },
    "waypoints": [
        {
            "positions": [
                -0.03513704404078235,
                -2.126789852344167,
                -1.8275523626775212,
                -2.347782403156801,
                -1.6058999987535132,
                -3.0880379163319196
            ]
        },
        {
            "positions": [
                -0.051919999394655844,
                -2.14293911561736,
                -1.7459275827354366,
                -2.4197293306173604,
                -1.425511094303781,
                -3.0826820398565897
            ]
        },
        {
            "positions": [
                -0.06870295474852933,
                -2.1590883788905533,
                -1.664302802793352,
                -2.49167625807792,
                -1.2451221898540485,
                -3.07732616338126
            ]
        },
        {
            "positions": [
                -0.08548591010240283,
                -2.1752376421637463,
                -1.5826780228512674,
                -2.56362318553848,
                -1.0647332854043163,
                -3.07197028690593
            ]
        },
        {
            "positions": [
                -0.10226886545627631,
                -2.1913869054369393,
                -1.5010532429091827,
                -2.6355701129990394,
                -0.884344380954584,
                -3.0666144104306
            ]
        },
        {
            "positions": [
                -0.11905182081014981,
                -2.2075361687101327,
                -1.4194284629670981,
                -2.707517040459599,
                -0.7039554765048517,
                -3.06125853395527
            ]
        },
        {
            "positions": [
                -0.1358347761640233,
                -2.2236854319833257,
                -1.3378036830250135,
                -2.779463967920159,
                -0.5235665720551195,
                -3.05590265747994
            ]
        },
        {
            "positions": [
                -0.1526177315178968,
                -2.239834695256519,
                -1.256178903082929,
                -2.8514108953807185,
                -0.34317766760538704,
                -3.05054678100461
            ]
        },
        {
            "positions": [
                -0.1694006868717703,
                -2.255983958529712,
                -1.1745541231408443,
                -2.923357822841278,
                -0.16278876315565483,
                -3.04519090452928
            ]
        }
    ]
}