{
    "goal": {
        "global_pose": {
            "orientation": {
                "w": -0.4816463035849501,
                "x": 0.5182115481033762,
                "y": 0.4908360881923453,
                "z": -0.5084816262002911
            },
            "position": {
                "x": -0.8240239810943604,
                "y": -0.300875300988555,
                "z": 0.16403168439865112
            }
        },
        "name": "move_to_storage_C"
    },
    "id": "LBKPIECE_move_to_storage_C_4",
    "joint_names": [
        "shoulder_pan_joint",
        "shoulder_lift_joint",
        "elbow_joint",
        "wrist_1_joint",
        "wrist_2_joint",
        "wrist_3_joint"
    ],
    "metrics": {
        "cart_traj_len": 0.5761316366822571,
        "distance_elbow_joint": 0.25930440408221367,
        "distance_shoulder_lift_joint": 0.18969789167558282,
        "distance_shoulder_pan_joint": 0.49334977923408285,
        "distance_wrist_1_joint": 0.08116977462032371,
        "distance_wrist_2_joint": 1.0715472286125496,
        "distance_wrist_3_joint": 0.07540925983833802,
        "smoothness": 0.0,
        "time": 0.945704481,
        "traj_len": 1.4732543358371937,
        "weighted_distance": 1.8638706663748532
    },
    "planner": "LBKPIECE",
    "start": {
        "state": {
            "elbow_joint": 2.010868314990456,
            "shoulder_lift_joint": -1.1634956873337592,
            "shoulder_pan_joint": -2.4736205022346125,
            "wrist_1_joint": -0.8367026794202681,
            "wrist_2_joint": 0.6746043897044499,
            "wrist_3_joint": -3.1496632123970403
        }
    },
    "waypoints": [
        {
            "positions": [
                -2.4736205022346125,
                -1.1634956873337592,
                2.010868314990456,
                -0.8367026794202681,
                0.6746043897044499,
                -3.1496632123970403
            ]
        },
        {
            "positions": [
                -2.555845465440293,
                -1.1318793720544953,
                1.9676509143100869,
                -0.8231743836502141,
                0.8531955944732081,
                -3.137095002423984
            ]
        },
        {
            "positions": [
                -2.6380704286459733,
                -1.1002630567752316,
                1.924433513629718,
                -0.8096460878801602,
                1.0317867992419665,
                -3.1245267924509275
            ]
        },
        {
            "positions": [
                -2.720295391851654,
                -1.0686467414959677,
                1.881216112949349,
                -0.7961177921101062,
                1.2103780040107246,
                -3.1119585824778713
            ]
        },
        {
            "positions": [
                -2.8025203550573345,
                -1.037030426216704,
                1.83799871226898,
                -0.7825894963400523,
                1.388969208779483,
                -3.099390372504815
            ]
        },
        {
            "positions": [
                -2.8847453182630147,
                -1.0054141109374402,
                1.794781311588611,
                -0.7690612005699984,
                1.5675604135482413,
                -3.0868221625317585
            ]
        },
        {
            "positions": [
                -2.9669702814686953,
                -0.9737977956581764,
                1.7515639109082421,
                -0.7555329047999444,
                1.7461516183169994,
                -3.0742539525587023
            ]
        }
    ]
}