{
    "goal": {
        "global_pose": {
            "orientation": {
                "w": -0.4816463035849501,
                "x": 0.5182115481033762,
                "y": 0.4908360881923453,
                "z": -0.5084816262002911
            },
            "position": {
                "x": -0.8240239810943604,
                "y": -0.300875300988555,
                "z": 0.16403168439865112
            }
        },
        "name": "move_to_storage_C"
    },
    "id": "LBKPIECE_move_to_storage_C_28",
    "joint_names": [
        "shoulder_pan_joint",
        "shoulder_lift_joint",
        "elbow_joint",
        "wrist_1_joint",
        "wrist_2_joint",
        "wrist_3_joint"
    ],
    "metrics": {
        "cart_traj_len": 0.5758878780168739,
        "distance_elbow_joint": 0.2596147139934024,
        "distance_shoulder_lift_joint": 0.18848160642806133,
        "distance_shoulder_pan_joint": 0.49317555176475114,
        "distance_wrist_1_joint": 0.08719361490585853,
        "distance_wrist_2_joint": 1.0750742551657946,
        "distance_wrist_3_joint": 0.06858497031365207,
        "smoothness": 0.0,
        "time": 0.22822776100000003,
        "traj_len": 1.4738129842593735,
        "weighted_distance": 1.8632129570369773
    },
    "planner": "LBKPIECE",
    "start": {
        "state": {
            "elbow_joint": 2.010868314990456,
            "shoulder_lift_joint": -1.1634956873337592,
            "shoulder_pan_joint": -2.4736205022346125,
            "wrist_1_joint": -0.8367026794202681,
            "wrist_2_joint": 0.6746043897044499,
            "wrist_3_joint": -3.1496632123970403
        }
    },
    "waypoints": [
        {
            "positions": [
                -2.4736205022346125,
                -1.1634956873337592,
                2.010868314990456,
                -0.8367026794202681,
                0.6746043897044499,
                -3.1496632123970403
            ]
        },
        {
            "positions": [
                -2.555816427528738,
                -1.1320820862624157,
                1.9675991959915553,
                -0.8221704102692917,
                0.8537834322320823,
                -3.1382323840114315
            ]
        },
        {
            "positions": [
                -2.6380123528228627,
                -1.100668485191072,
                1.924330076992655,
                -0.8076381411183152,
                1.0329624747597148,
                -3.126801555625823
            ]
        },
        {
            "positions": [
                -2.720208278116988,
                -1.0692548841197285,
                1.8810609579937547,
                -0.7931058719673388,
                1.212141517287347,
                -3.1153707272402142
            ]
        },
        {
            "positions": [
                -2.8024042034111134,
                -1.037841283048385,
                1.8377918389948542,
                -0.7785736028163625,
                1.3913205598149796,
                -3.1039398988546054
            ]
        },
        {
            "positions": [
                -2.8846001287052383,
                -1.0064276819770415,
                1.7945227199959537,
                -0.764041333665386,
                1.570499602342612,
                -3.092509070468997
            ]
        },
        {
            "positions": [
                -2.9667960539993636,
                -0.9750140809056979,
                1.7512536009970534,
                -0.7495090645144096,
                1.7496786448702446,
                -3.081078242083388
            ]
        }
    ]
}