{
    "goal": {
        "global_pose": {
            "orientation": {
                "w": -0.4816463035849501,
                "x": 0.5182115481033762,
                "y": 0.4908360881923453,
                "z": -0.5084816262002911
            },
            "position": {
                "x": -0.8240239810943604,
                "y": -0.300875300988555,
                "z": 0.16403168439865112
            }
        },
        "name": "move_to_storage_C"
    },
    "id": "LBKPIECE_move_to_storage_C_149",
    "joint_names": [
        "shoulder_pan_joint",
        "shoulder_lift_joint",
        "elbow_joint",
        "wrist_1_joint",
        "wrist_2_joint",
        "wrist_3_joint"
    ],
    "metrics": {
        "cart_traj_len": 0.5765239490112282,
        "distance_elbow_joint": 0.26087732029643695,
        "distance_shoulder_lift_joint": 0.1907080355242896,
        "distance_shoulder_pan_joint": 0.4945005112598322,
        "distance_wrist_1_joint": 0.08816962070826484,
        "distance_wrist_2_joint": 1.0655507341940278,
        "distance_wrist_3_joint": 0.06236998039018138,
        "smoothness": 2.5376526478085547e-16,
        "time": 0.7952069449999999,
        "traj_len": 1.4704340183677174,
        "weighted_distance": 1.8548952849300384
    },
    "planner": "LBKPIECE",
    "start": {
        "state": {
            "elbow_joint": 2.010868314990456,
            "shoulder_lift_joint": -1.1634956873337592,
            "shoulder_pan_joint": -2.4736205022346125,
            "wrist_1_joint": -0.8367026794202681,
            "wrist_2_joint": 0.6746043897044499,
            "wrist_3_joint": -3.1496632123970403
        }
    },
    "waypoints": [
        {
            "positions": [
                -2.4736205022346125,
                -1.1634956873337592,
                2.010868314990456,
                -0.8367026794202681,
                0.6746043897044499,
                -3.1496632123970403
            ]
        },
        {
            "positions": [
                -2.556037254111251,
                -1.1317110147463776,
                1.9673887616077164,
                -0.8220077426355573,
                0.8521961787367879,
                -3.1392682156653433
            ]
        },
        {
            "positions": [
                -2.63845400598789,
                -1.099926342158996,
                1.923909208224977,
                -0.8073128058508465,
                1.029787967769126,
                -3.1288732189336463
            ]
        },
        {
            "positions": [
                -2.7208707578645286,
                -1.0681416695716144,
                1.8804296548422372,
                -0.7926178690661356,
                1.2073797568014637,
                -3.11847822220195
            ]
        },
        {
            "positions": [
                -2.803287509741167,
                -1.0363569969842328,
                1.8369501014594978,
                -0.7779229322814248,
                1.3849715458338019,
                -3.108083225470253
            ]
        },
        {
            "positions": [
                -2.885704261617806,
                -1.0045723243968512,
                1.7934705480767583,
                -0.763227995496714,
                1.5625633348661396,
                -3.097688228738556
            ]
        },
        {
            "positions": [
                -2.9681210134944447,
                -0.9727876518094696,
                1.7499909946940189,
                -0.7485330587120033,
                1.7401551238984778,
                -3.087293232006859
            ]
        }
    ]
}