{
    "goal": {
        "global_pose": {
            "orientation": {
                "w": 0.5084816262002911,
                "x": -0.4908360881923452,
                "y": 0.5182115481033761,
                "z": -0.48164630358495003
            },
            "position": {
                "x": 0.5540239810943604,
                "y": -0.46912469901144505,
                "z": 0.16403168439865112
            }
        },
        "name": "move_to_storage_B"
    },
    "id": "LBKPIECE_move_to_storage_B_96",
    "joint_names": [
        "shoulder_pan_joint",
        "shoulder_lift_joint",
        "elbow_joint",
        "wrist_1_joint",
        "wrist_2_joint",
        "wrist_3_joint"
    ],
    "metrics": {
        "cart_traj_len": 0.6367356513020923,
        "distance_elbow_joint": 0.3505044627677263,
        "distance_shoulder_lift_joint": 0.4597612979842822,
        "distance_shoulder_pan_joint": 0.24098059253731619,
        "distance_wrist_1_joint": 2.984252476103194,
        "distance_wrist_2_joint": 2.712992455159015,
        "distance_wrist_3_joint": 3.3331624845771546,
        "smoothness": 0.3399692765822272,
        "time": 0.841481583,
        "traj_len": 3.1751620067531494,
        "weighted_distance": 4.737639039600338
    },
    "planner": "LBKPIECE",
    "start": {
        "state": {
            "elbow_joint": 1.664937868594044,
            "shoulder_lift_joint": -0.661644460510453,
            "shoulder_pan_joint": -0.9139846352900073,
            "wrist_1_joint": 2.146753192139373,
            "wrist_2_joint": -2.2341966793290973,
            "wrist_3_joint": 0.005466555786416001
        }
    },
    "waypoints": [
        {
            "positions": [
                -0.9139846352900073,
                -0.661644460510453,
                1.664937868594044,
                2.146753192139373,
                -2.2341966793290973,
                0.005466555786416001
            ]
        },
        {
            "positions": [
                -0.8833637993092981,
                -0.7383552422521731,
                1.7555663205762804,
                2.0995724427410543,
                -2.1911284715886326,
                0.10276667642580334
            ]
        },
        {
            "positions": [
                -0.8917781895715624,
                -0.7536772629018755,
                1.7659613610077,
                1.9820895736728592,
                -2.0843315016918904,
                -0.026667818131707377
            ]
        },
        {
            "positions": [
                -0.9001925798338266,
                -0.7689992835515781,
                1.7763564014391195,
                1.8646067046046644,
                -1.9775345317951485,
                -0.1561023126892181
            ]
        },
        {
            "positions": [
                -0.9086069700960909,
                -0.7843213042012805,
                1.7867514418705392,
                1.7471238355364693,
                -1.8707375618984066,
                -0.28553680724672875
            ]
        },
        {
            "positions": [
                -0.9170213603583552,
                -0.799643324850983,
                1.7971464823019587,
                1.6296409664682743,
                -1.7639405920016644,
                -0.4149713018042395
            ]
        },
        {
            "positions": [
                -0.9254357506206194,
                -0.8149653455006856,
                1.8075415227333784,
                1.5121580974000794,
                -1.6571436221049223,
                -0.5444057963617501
            ]
        },
        {
            "positions": [
                -0.9338501408828838,
                -0.830287366150388,
                1.817936563164798,
                1.3946752283318844,
                -1.5503466522081806,
                -0.6738402909192609
            ]
        },
        {
            "positions": [
                -0.9422645311451481,
                -0.8456093868000905,
                1.8283316035962176,
                1.2771923592636893,
                -1.4435496823114384,
                -0.8032747854767717
            ]
        },
        {
            "positions": [
                -0.9506789214074123,
                -0.860931407449793,
                1.838726644027637,
                1.1597094901954943,
                -1.3367527124146963,
                -0.9327092800342824
            ]
        },
        {
            "positions": [
                -0.9590933116696766,
                -0.8762534280994955,
                1.8491216844590568,
                1.0422266211272995,
                -1.2299557425179544,
                -1.062143774591793
            ]
        },
        {
            "positions": [
                -0.9675077019319409,
                -0.8915754487491979,
                1.8595167248904763,
                0.9247437520591044,
                -1.1231587726212122,
                -1.1915782691493038
            ]
        },
        {
            "positions": [
                -0.9759220921942051,
                -0.9068974693989005,
                1.869911765321896,
                0.8072608829909094,
                -1.0163618027244703,
                -1.3210127637068145
            ]
        },
        {
            "positions": [
                -0.9843364824564694,
                -0.9222194900486029,
                1.8803068057533154,
                0.6897780139227145,
                -0.9095648328277284,
                -1.450447258264325
            ]
        },
        {
            "positions": [
                -0.9927508727187337,
                -0.9375415106983054,
                1.8907018461847351,
                0.5722951448545195,
                -0.8027678629309862,
                -1.5798817528218358
            ]
        },
        {
            "positions": [
                -1.001165262980998,
                -0.9528635313480079,
                1.9010968866161546,
                0.45481227578632444,
                -0.6959708930342441,
                -1.7093162473793466
            ]
        },
        {
            "positions": [
                -1.0095796532432624,
                -0.9681855519977104,
                1.9114919270475743,
                0.3373294067181296,
                -0.5891739231375024,
                -1.8387507419368572
            ]
        },
        {
            "positions": [
                -1.0179940435055266,
                -0.9835075726474128,
                1.9218869674789938,
                0.21984653764993456,
                -0.48237695324076024,
                -1.9681852364943682
            ]
        },
        {
            "positions": [
                -1.0264084337677908,
                -0.9988295932971154,
                1.9322820079104135,
                0.10236366858173951,
                -0.3755799833440181,
                -2.097619731051879
            ]
        },
        {
            "positions": [
                -1.0348228240300552,
                -1.0141516139468179,
                1.942677048341833,
                -0.01511920048645532,
                -0.2687830134472762,
                -2.2270542256093893
            ]
        },
        {
            "positions": [
                -1.0432372142923194,
                -1.0294736345965203,
                1.9530720887732527,
                -0.13260206955465037,
                -0.16198604355053403,
                -2.3564887201669
            ]
        },
        {
            "positions": [
                -1.0516516045545836,
                -1.0447956552462228,
                1.9634671292046724,
                -0.2500849386228454,
                -0.05518907365379189,
                -2.485923214724411
            ]
        },
        {
            "positions": [
                -1.060065994816848,
                -1.0601176758959252,
                1.9738621696360918,
                -0.36756780769104,
                0.05160789624294981,
                -2.615357709281921
            ]
        },
        {
            "positions": [
                -1.0684803850791122,
                -1.0754396965456277,
                1.9842572100675113,
                -0.4850506767592355,
                0.15840486613969196,
                -2.7447922038394323
            ]
        },
        {
            "positions": [
                -1.0768947753413765,
                -1.0907617171953303,
                1.994652250498931,
                -0.6025335458274306,
                0.2652018360364341,
                -2.874226698396943
            ]
        },
        {
            "positions": [
                -1.0853091656036409,
                -1.1060837378450328,
                2.0050472909303507,
                -0.7200164148956252,
                0.3719988059331758,
                -3.0036611929544534
            ]
        },
        {
            "positions": [
                -1.093723555865905,
                -1.1214057584947352,
                2.01544233136177,
                -0.8374992839638205,
                0.478795775829918,
                -3.133095687511964
            ]
        }
    ]
}