{
    "goal": {
        "global_pose": {
            "orientation": {
                "w": -0.4816463035849501,
                "x": 0.5182115481033762,
                "y": 0.4908360881923453,
                "z": -0.5084816262002911
            },
            "position": {
                "x": -0.8240239810943604,
                "y": -0.300875300988555,
                "z": 0.16403168439865112
            }
        },
        "name": "move_to_storage_C"
    },
    "id": "LBKPIECE_move_to_storage_C_146",
    "joint_names": [
        "shoulder_pan_joint",
        "shoulder_lift_joint",
        "elbow_joint",
        "wrist_1_joint",
        "wrist_2_joint",
        "wrist_3_joint"
    ],
    "metrics": {
        "cart_traj_len": 0.576804000672535,
        "distance_elbow_joint": 0.259558511020902,
        "distance_shoulder_lift_joint": 0.1897767075229182,
        "distance_shoulder_pan_joint": 0.49577225956941184,
        "distance_wrist_1_joint": 0.0854866363406227,
        "distance_wrist_2_joint": 1.0605309484875876,
        "distance_wrist_3_joint": 0.07554342311456663,
        "smoothness": 0.0,
        "time": 0.188905709,
        "traj_len": 1.4719607624036752,
        "weighted_distance": 1.8611214138559988
    },
    "planner": "LBKPIECE",
    "start": {
        "state": {
            "elbow_joint": 2.010868314990456,
            "shoulder_lift_joint": -1.1634956873337592,
            "shoulder_pan_joint": -2.4736205022346125,
            "wrist_1_joint": -0.8367026794202681,
            "wrist_2_joint": 0.6746043897044499,
            "wrist_3_joint": -3.1496632123970403
        }
    },
    "waypoints": [
        {
            "positions": [
                -2.4736205022346125,
                -1.1634956873337592,
                2.010868314990456,
                -0.8367026794202681,
                0.6746043897044499,
                -3.1496632123970403
            ]
        },
        {
            "positions": [
                -2.556249212162848,
                -1.1318662360799394,
                1.9676085631536389,
                -0.822454906696831,
                0.8513595477857145,
                -3.1370726418779458
            ]
        },
        {
            "positions": [
                -2.638877922091083,
                -1.1002367848261199,
                1.924348811316822,
                -0.8082071339733938,
                1.028114705866979,
                -3.1244820713588513
            ]
        },
        {
            "positions": [
                -2.7215066320193184,
                -1.0686073335723,
                1.8810890594800047,
                -0.7939593612499567,
                1.2048698639482436,
                -3.111891500839757
            ]
        },
        {
            "positions": [
                -2.804135341947554,
                -1.0369778823184803,
                1.8378293076431877,
                -0.7797115885265197,
                1.381625022029508,
                -3.0993009303206627
            ]
        },
        {
            "positions": [
                -2.886764051875789,
                -1.0053484310646608,
                1.7945695558063708,
                -0.7654638158030825,
                1.558380180110773,
                -3.086710359801568
            ]
        },
        {
            "positions": [
                -2.9693927618040243,
                -0.973718979810841,
                1.7513098039695538,
                -0.7512160430796454,
                1.7351353381920374,
                -3.0741197892824736
            ]
        }
    ]
}