{
    "goal": {
        "global_pose": {
            "orientation": {
                "w": 0.7031023502349854,
                "x": -0.7110244035720825,
                "y": 0.007748599164187908,
                "z": 0.005598929710686207
            },
            "position": {
                "x": 0.11585023208521307,
                "y": 0.44412534475326537,
                "z": 0.3711530566215515
            }
        },
        "name": "move_to_auspresseinheit_A"
    },
    "id": "LBKPIECE_move_to_auspresseinheit_A_102",
    "joint_names": [
        "shoulder_pan_joint",
        "shoulder_lift_joint",
        "elbow_joint",
        "wrist_1_joint",
        "wrist_2_joint",
        "wrist_3_joint"
    ],
    "metrics": {
        "cart_traj_len": 0.7211454100749118,
        "distance_elbow_joint": 0.28298378354446196,
        "distance_shoulder_lift_joint": 0.5340049690710964,
        "distance_shoulder_pan_joint": 1.0411259658477412,
        "distance_wrist_1_joint": 0.6933718618665046,
        "distance_wrist_2_joint": 2.465667432971021,
        "distance_wrist_3_joint": 2.7071481863042672,
        "smoothness": 0.9595866351738627,
        "time": 0.225053605,
        "traj_len": 2.7792628878184753,
        "weighted_distance": 4.037033300215786
    },
    "planner": "LBKPIECE",
    "start": {
        "state": {
            "elbow_joint": 2.4225746658250005,
            "shoulder_lift_joint": -1.3736534386056498,
            "shoulder_pan_joint": -0.3378633547517467,
            "wrist_1_joint": -1.0288598680537169,
            "wrist_2_joint": 1.233022673432363,
            "wrist_3_joint": -3.0940220416140027
        }
    },
    "waypoints": [
        {
            "positions": [
                -0.3378633547517467,
                -1.3736534386056498,
                2.4225746658250005,
                -1.0288598680537169,
                1.233022673432363,
                -3.0940220416140027
            ]
        },
        {
            "positions": [
                -0.2997088179072546,
                -1.383025546675898,
                2.405210613304118,
                -1.0363957306178002,
                1.0663634453979538,
                -2.945296938647422
            ]
        },
        {
            "positions": [
                -0.26155428106276246,
                -1.3923976547461465,
                2.387846560783236,
                -1.0439315931818836,
                0.8997042173635443,
                -2.7965718356808407
            ]
        },
        {
            "positions": [
                -0.22339974421827036,
                -1.4017697628163948,
                2.3704825082623535,
                -1.0514674557459667,
                0.7330449893291351,
                -2.64784673271426
            ]
        },
        {
            "positions": [
                -0.18524520737377823,
                -1.411141870886643,
                2.3531184557414715,
                -1.05900331831005,
                0.5663857612947257,
                -2.4991216297476786
            ]
        },
        {
            "positions": [
                -0.14709067052928607,
                -1.4205139789568915,
                2.335754403220589,
                -1.0665391808741334,
                0.39972653326031626,
                -2.350396526781098
            ]
        },
        {
            "positions": [
                -0.10893613368479396,
                -1.4298860870271397,
                2.318390350699707,
                -1.0740750434382167,
                0.23306730522590702,
                -2.201671423814517
            ]
        },
        {
            "positions": [
                -0.07078159684030183,
                -1.439258195097388,
                2.3010262981788245,
                -1.0816109060022998,
                0.06640807719149766,
                -2.0529463208479357
            ]
        },
        {
            "positions": [
                -0.032627059995809726,
                -1.4486303031676364,
                2.2836622456579425,
                -1.0891467685663831,
                -0.10025115084291158,
                -1.9042212178813547
            ]
        },
        {
            "positions": [
                0.005527476848682447,
                -1.4580024112378847,
                2.26629819313706,
                -1.0966826311304665,
                -0.2669103788773211,
                -1.7554961149147736
            ]
        },
        {
            "positions": [
                0.07801934343676302,
                -1.4927679900168138,
                2.279469449997541,
                -1.025075912935182,
                -0.19548852150735432,
                -1.8842331303248112
            ]
        },
        {
            "positions": [
                0.15051121002484358,
                -1.5275335687957428,
                2.2926407068580223,
                -0.9534691947398976,
                -0.12406666413738754,
                -2.012970145734849
            ]
        },
        {
            "positions": [
                0.22300307661292418,
                -1.562299147574672,
                2.3058119637185035,
                -0.881862476544613,
                -0.052644806767420754,
                -2.141707161144886
            ]
        },
        {
            "positions": [
                0.283035518423308,
                -1.6054690550874313,
                2.316711156252888,
                -0.8305213585191253,
                0.04128879430150886,
                -2.2645085628167516
            ]
        },
        {
            "positions": [
                0.3430679602336918,
                -1.6486389626001905,
                2.327610348787273,
                -0.7791802404936377,
                0.13522239537043848,
                -2.3873099644886175
            ]
        },
        {
            "positions": [
                0.40310040204407555,
                -1.6918088701129497,
                2.338509541321658,
                -0.72783912246815,
                0.2291559964393681,
                -2.5101113661604835
            ]
        },
        {
            "positions": [
                0.46313284385445935,
                -1.734978777625709,
                2.3494087338560425,
                -0.6764980044426623,
                0.3230895975082977,
                -2.632912767832349
            ]
        },
        {
            "positions": [
                0.5231652856648432,
                -1.7781486851384685,
                2.360307926390427,
                -0.6251568864171746,
                0.41702319857722736,
                -2.7557141695042144
            ]
        },
        {
            "positions": [
                0.5831977274752269,
                -1.8213185926512276,
                2.3712071189248123,
                -0.5738157683916869,
                0.5109567996461569,
                -2.8785155711760804
            ]
        },
        {
            "positions": [
                0.6432301692856107,
                -1.8644885001639868,
                2.382106311459197,
                -0.5224746503661992,
                0.6048904007150866,
                -3.0013169728479463
            ]
        },
        {
            "positions": [
                0.7032626110959945,
                -1.9076584076767462,
                2.3930055039935816,
                -0.4711335323407116,
                0.6988240017840162,
                -3.124118374519812
            ]
        }
    ]
}