{
    "goal": {
        "global_pose": {
            "orientation": {
                "w": 0.5084816262002911,
                "x": -0.4908360881923452,
                "y": 0.5182115481033761,
                "z": -0.48164630358495003
            },
            "position": {
                "x": 0.5540239810943604,
                "y": -0.46912469901144505,
                "z": 0.16403168439865112
            }
        },
        "name": "move_to_storage_B"
    },
    "id": "LBKPIECE_move_to_storage_B_111",
    "joint_names": [
        "shoulder_pan_joint",
        "shoulder_lift_joint",
        "elbow_joint",
        "wrist_1_joint",
        "wrist_2_joint",
        "wrist_3_joint"
    ],
    "metrics": {
        "cart_traj_len": 1.5517711667909282,
        "distance_elbow_joint": 1.3864766586017017,
        "distance_shoulder_lift_joint": 0.45915207966213734,
        "distance_shoulder_pan_joint": 1.3697665718197627,
        "distance_wrist_1_joint": 2.9840159755094104,
        "distance_wrist_2_joint": 2.700657715780749,
        "distance_wrist_3_joint": 3.1502291684078716,
        "smoothness": 0.18400373112457274,
        "time": 0.26157051,
        "traj_len": 3.4713539389957964,
        "weighted_distance": 4.9025942314133575
    },
    "planner": "LBKPIECE",
    "start": {
        "state": {
            "elbow_joint": 1.664937868594044,
            "shoulder_lift_joint": -0.661644460510453,
            "shoulder_pan_joint": -0.9139846352900073,
            "wrist_1_joint": 2.146753192139373,
            "wrist_2_joint": -2.2341966793290973,
            "wrist_3_joint": 0.005466555786416001
        }
    },
    "waypoints": [
        {
            "positions": [
                -0.9139846352900073,
                -0.661644460510453,
                1.664937868594044,
                2.146753192139373,
                -2.2341966793290973,
                0.005466555786416001
            ]
        },
        {
            "positions": [
                -0.8397508341048024,
                -0.69548139972782,
                1.600054986539646,
                2.0756115176584427,
                -2.140966746058798,
                0.032969170266420156
            ]
        },
        {
            "positions": [
                -0.7655170329195977,
                -0.7293183389451869,
                1.535172104485248,
                2.004469843177512,
                -2.0477368127884983,
                0.06047178474642431
            ]
        },
        {
            "positions": [
                -0.6912832317343929,
                -0.7631552781625538,
                1.47028922243085,
                1.933328168696581,
                -1.954506879518199,
                0.08797439922642847
            ]
        },
        {
            "positions": [
                -0.617049430549188,
                -0.7969922173799208,
                1.405406340376452,
                1.8621864942156505,
                -1.8612769462478997,
                0.11547701370643262
            ]
        },
        {
            "positions": [
                -0.5428156293639833,
                -0.8308291565972877,
                1.3405234583220542,
                1.79104481973472,
                -1.7680470129776005,
                0.14297962818643678
            ]
        },
        {
            "positions": [
                -0.46858182817877847,
                -0.8646660958146546,
                1.2756405762676561,
                1.7199031452537892,
                -1.674817079707301,
                0.17048224266644094
            ]
        },
        {
            "positions": [
                -0.39434802699357374,
                -0.8985030350320216,
                1.210757694213258,
                1.6487614707728584,
                -1.5815871464370015,
                0.1979848571464451
            ]
        },
        {
            "positions": [
                -0.3201142258083689,
                -0.9323399742493885,
                1.1458748121588602,
                1.5776197962919278,
                -1.4883572131667022,
                0.22548747162644925
            ]
        },
        {
            "positions": [
                -0.3524432325724574,
                -0.9401923311628553,
                1.1820170455824652,
                1.4769996888060126,
                -1.4069064527659374,
                0.34757948215010914
            ]
        },
        {
            "positions": [
                -0.3847722393365459,
                -0.948044688076322,
                1.21815927900607,
                1.3763795813200974,
                -1.3254556923651728,
                0.46967149267376906
            ]
        },
        {
            "positions": [
                -0.4171012461006345,
                -0.9558970449897888,
                1.254301512429675,
                1.2757594738341822,
                -1.2440049319644082,
                0.591763503197429
            ]
        },
        {
            "positions": [
                -0.44943025286472293,
                -0.9637494019032555,
                1.2904437458532798,
                1.175139366348267,
                -1.1625541715636434,
                0.7138555137210889
            ]
        },
        {
            "positions": [
                -0.4817592596288115,
                -0.9716017588167223,
                1.3265859792768848,
                1.074519258862352,
                -1.0811034111628786,
                0.8359475242447488
            ]
        },
        {
            "positions": [
                -0.5140882663929001,
                -0.979454115730189,
                1.3627282127004898,
                0.9738991513764367,
                -0.999652650762114,
                0.9580395347684088
            ]
        },
        {
            "positions": [
                -0.5464172731569885,
                -0.9873064726436557,
                1.3988704461240946,
                0.8732790438905215,
                -0.9182018903613492,
                1.0801315452920688
            ]
        },
        {
            "positions": [
                -0.578746279921077,
                -0.9951588295571224,
                1.4350126795476994,
                0.7726589364046064,
                -0.8367511299605845,
                1.2022235558157286
            ]
        },
        {
            "positions": [
                -0.6110752866851655,
                -1.0030111864705893,
                1.4711549129713044,
                0.6720388289186912,
                -0.7553003695598198,
                1.3243155663393886
            ]
        },
        {
            "positions": [
                -0.6434042934492541,
                -1.010863543384056,
                1.5072971463949094,
                0.5714187214327759,
                -0.6738496091590551,
                1.4464075768630484
            ]
        },
        {
            "positions": [
                -0.6757333002133425,
                -1.0187159002975226,
                1.5434393798185142,
                0.47079861394686073,
                -0.5923988487582904,
                1.5684995873867082
            ]
        },
        {
            "positions": [
                -0.7080623069774311,
                -1.0265682572109895,
                1.5795816132421192,
                0.3701785064609455,
                -0.5109480883575257,
                1.6905915979103683
            ]
        },
        {
            "positions": [
                -0.7403913137415197,
                -1.034420614124456,
                1.6157238466657242,
                0.2695583989750303,
                -0.4294973279567611,
                1.812683608434028
            ]
        },
        {
            "positions": [
                -0.7727203205056081,
                -1.0422729710379228,
                1.651866080089329,
                0.1689382914891151,
                -0.3480465675559963,
                1.9347756189576881
            ]
        },
        {
            "positions": [
                -0.8050493272696967,
                -1.0501253279513896,
                1.688008313512934,
                0.06831818400319989,
                -0.2665958071552317,
                2.056867629481348
            ]
        },
        {
            "positions": [
                -0.8373783340337851,
                -1.0579776848648563,
                1.7241505469365388,
                -0.0323019234827151,
                -0.18514504675446686,
                2.178959640005008
            ]
        },
        {
            "positions": [
                -0.8697073407978737,
                -1.065830041778323,
                1.7602927803601438,
                -0.13292203096863053,
                -0.10369428635370204,
                2.301051650528668
            ]
        },
        {
            "positions": [
                -0.9020363475619622,
                -1.0736823986917898,
                1.7964350137837486,
                -0.23354213845454552,
                -0.022243525952937437,
                2.423143661052328
            ]
        },
        {
            "positions": [
                -0.9343653543260507,
                -1.0815347556052566,
                1.8325772472073536,
                -0.33416224594046073,
                0.05920723444782716,
                2.5452356715759876
            ]
        },
        {
            "positions": [
                -0.9666943610901393,
                -1.0893871125187233,
                1.8687194806309586,
                -0.43478235342637594,
                0.14065799484859198,
                2.6673276820996477
            ]
        },
        {
            "positions": [
                -0.9990233678542277,
                -1.09723946943219,
                1.9048617140545634,
                -0.5354024609122914,
                0.2221087552493568,
                2.7894196926233077
            ]
        },
        {
            "positions": [
                -1.0313523746183164,
                -1.1050918263456568,
                1.9410039474781682,
                -0.6360225683982064,
                0.3035595156501214,
                2.9115117031469673
            ]
        },
        {
            "positions": [
                -1.0636813813824049,
                -1.1129441832591236,
                1.9771461809017734,
                -0.7366426758841218,
                0.3850102760508862,
                3.0336037136706273
            ]
        },
        {
            "positions": [
                -1.0960103881464933,
                -1.1207965401725903,
                2.013288414325378,
                -0.8372627833700369,
                0.4664610364516508,
                3.1556957241942873
            ]
        }
    ]
}