{
    "goal": {
        "global_pose": {
            "orientation": {
                "w": 0.005598929693374612,
                "x": 0.007748599140229565,
                "y": 0.7110244013736278,
                "z": -0.7031023480610252
            },
            "position": {
                "x": 0.1141497679147869,
                "y": -0.7141253447532654,
                "z": 0.3711530566215515
            }
        },
        "name": "move_to_auspresseinheit_B"
    },
    "id": "LBKPIECE_move_to_auspresseinheit_B_104",
    "joint_names": [
        "shoulder_pan_joint",
        "shoulder_lift_joint",
        "elbow_joint",
        "wrist_1_joint",
        "wrist_2_joint",
        "wrist_3_joint"
    ],
    "metrics": {
        "cart_traj_len": 0.5651108113859528,
        "distance_elbow_joint": 0.06166285410134065,
        "distance_shoulder_lift_joint": 0.2947758229982873,
        "distance_shoulder_pan_joint": 0.579427665949767,
        "distance_wrist_1_joint": 0.3233921203814164,
        "distance_wrist_2_joint": 0.9841354055433287,
        "distance_wrist_3_joint": 0.009555050988663716,
        "smoothness": 0.0,
        "time": 0.370321009,
        "traj_len": 1.5009826514529754,
        "weighted_distance": 1.8919795315660464
    },
    "planner": "LBKPIECE",
    "start": {
        "state": {
            "elbow_joint": 2.0193083361928714,
            "shoulder_lift_joint": -1.1220246554650708,
            "shoulder_pan_joint": -1.0952077554168747,
            "wrist_1_joint": -0.8559753972642168,
            "wrist_2_joint": 0.4759566250798843,
            "wrist_3_joint": -3.1240929996934557
        }
    },
    "waypoints": [
        {
            "positions": [
                -1.0952077554168747,
                -1.1220246554650708,
                2.0193083361928714,
                -0.8559753972642168,
                0.4759566250798843,
                -3.1240929996934557
            ]
        },
        {
            "positions": [
                -1.1917790330751692,
                -1.1711539592981186,
                2.009031193842648,
                -0.8020767105339808,
                0.639979192670439,
                -3.122500491195345
            ]
        },
        {
            "positions": [
                -1.2883503107334637,
                -1.2202832631311666,
                1.9987540514924245,
                -0.7481780238037447,
                0.8040017602609939,
                -3.1209079826972346
            ]
        },
        {
            "positions": [
                -1.3849215883917583,
                -1.2694125669642145,
                1.988476909142201,
                -0.6942793370735085,
                0.9680243278515486,
                -3.119315474199124
            ]
        },
        {
            "positions": [
                -1.4814928660500526,
                -1.3185418707972623,
                1.9781997667919777,
                -0.6403806503432725,
                1.1320468954421035,
                -3.117722965701013
            ]
        },
        {
            "positions": [
                -1.5780641437083471,
                -1.3676711746303103,
                1.9679226244417543,
                -0.5864819636130365,
                1.2960694630326581,
                -3.1161304572029027
            ]
        },
        {
            "positions": [
                -1.6746354213666417,
                -1.416800478463358,
                1.9576454820915308,
                -0.5325832768828004,
                1.460092030623213,
                -3.114537948704792
            ]
        }
    ]
}