{
    "goal": {
        "global_pose": {
            "orientation": {
                "w": 0.7031023502349854,
                "x": -0.7110244035720825,
                "y": 0.007748599164187908,
                "z": 0.005598929710686207
            },
            "position": {
                "x": 0.11585023208521307,
                "y": 0.44412534475326537,
                "z": 0.3711530566215515
            }
        },
        "name": "move_to_auspresseinheit_A"
    },
    "id": "LBKPIECE_move_to_auspresseinheit_A_14",
    "joint_names": [
        "shoulder_pan_joint",
        "shoulder_lift_joint",
        "elbow_joint",
        "wrist_1_joint",
        "wrist_2_joint",
        "wrist_3_joint"
    ],
    "metrics": {
        "cart_traj_len": 2.039987721982845,
        "distance_elbow_joint": 1.992728393604585,
        "distance_shoulder_lift_joint": 1.7484268587682612,
        "distance_shoulder_pan_joint": 1.162900096088746,
        "distance_wrist_1_joint": 1.5144978915723628,
        "distance_wrist_2_joint": 1.2904819217947554,
        "distance_wrist_3_joint": 3.241214277716878,
        "smoothness": 0.5204322775778684,
        "time": 0.26213999,
        "traj_len": 3.309116111523678,
        "weighted_distance": 4.498628436351069
    },
    "planner": "LBKPIECE",
    "start": {
        "state": {
            "elbow_joint": 2.4225746658250005,
            "shoulder_lift_joint": -1.3736534386056498,
            "shoulder_pan_joint": -0.3378633547517467,
            "wrist_1_joint": -1.0288598680537169,
            "wrist_2_joint": 1.233022673432363,
            "wrist_3_joint": -3.0940220416140027
        }
    },
    "waypoints": [
        {
            "positions": [
                -0.3378633547517467,
                -1.3736534386056498,
                2.4225746658250005,
                -1.0288598680537169,
                1.233022673432363,
                -3.0940220416140027
            ]
        },
        {
            "positions": [
                -0.30342770238913763,
                -1.4234338220770077,
                2.350442153632946,
                -0.9719534155319666,
                1.1855482561375463,
                -2.9791929483706228
            ]
        },
        {
            "positions": [
                -0.2689920500265286,
                -1.4732142055483655,
                2.278309641440891,
                -0.9150469630102164,
                1.1380738388427296,
                -2.8643638551272432
            ]
        },
        {
            "positions": [
                -0.23455639766391953,
                -1.5229945890197234,
                2.206177129248837,
                -0.8581405104884661,
                1.090599421547913,
                -2.7495347618838633
            ]
        },
        {
            "positions": [
                -0.20012074530131047,
                -1.5727749724910813,
                2.1340446170567824,
                -0.8012340579667159,
                1.043125004253096,
                -2.6347056686404837
            ]
        },
        {
            "positions": [
                -0.16568509293870137,
                -1.622555355962439,
                2.0619121048647275,
                -0.7443276054449655,
                0.9956505869582792,
                -2.5198765753971037
            ]
        },
        {
            "positions": [
                -0.13124944057609234,
                -1.672335739433797,
                1.9897795926726731,
                -0.6874211529232153,
                0.9481761696634625,
                -2.4050474821537238
            ]
        },
        {
            "positions": [
                -0.09681378821348324,
                -1.7221161229051547,
                1.9176470804806187,
                -0.6305147004014651,
                0.9007017523686458,
                -2.2902183889103442
            ]
        },
        {
            "positions": [
                -0.062378135850874206,
                -1.7718965063765126,
                1.845514568288564,
                -0.5736082478797148,
                0.8532273350738291,
                -2.1753892956669643
            ]
        },
        {
            "positions": [
                -0.027942483488265057,
                -1.8216768898478706,
                1.7733820560965095,
                -0.5167017953579645,
                0.8057529177790123,
                -2.0605602024235843
            ]
        },
        {
            "positions": [
                0.00649316887434398,
                -1.8714572733192285,
                1.701249543904455,
                -0.45979534283621415,
                0.7582785004841955,
                -1.9457311091802045
            ]
        },
        {
            "positions": [
                0.04092882123695302,
                -1.9212376567905862,
                1.6291170317124004,
                -0.40288889031446395,
                0.7108040831893788,
                -1.8309020159368248
            ]
        },
        {
            "positions": [
                0.07536447359956205,
                -1.971018040261944,
                1.5569845195203458,
                -0.34598243779271376,
                0.6633296658945621,
                -1.716072922693445
            ]
        },
        {
            "positions": [
                0.1098001259621712,
                -2.020798423733302,
                1.4848520073282914,
                -0.28907598527096334,
                0.6158552485997453,
                -1.601243829450065
            ]
        },
        {
            "positions": [
                0.14423577832478027,
                -2.07057880720466,
                1.4127194951362367,
                -0.23216953274921315,
                0.5683808313049286,
                -1.4864147362066853
            ]
        },
        {
            "positions": [
                0.24620405065242607,
                -2.1447725429230644,
                1.5264607451825452,
                -0.19280778170741442,
                0.5308375917865671,
                -1.4945363101086324
            ]
        },
        {
            "positions": [
                0.34817232298007184,
                -2.2189662786414694,
                1.6402019952288536,
                -0.15344603066561568,
                0.49329435226820567,
                -1.5026578840105793
            ]
        },
        {
            "positions": [
                0.45014059530771766,
                -2.2931600143598745,
                1.753943245275162,
                -0.11408427962381695,
                0.45575111274984426,
                -1.5107794579125264
            ]
        },
        {
            "positions": [
                0.5521088676353635,
                -2.367353750078279,
                1.8676844953214702,
                -0.07472252858201822,
                0.4182078732314828,
                -1.5189010318144736
            ]
        },
        {
            "positions": [
                0.6540771399630093,
                -2.4415474857966837,
                1.9814257453677788,
                -0.03536077754021949,
                0.3806646337131213,
                -1.5270226057164205
            ]
        },
        {
            "positions": [
                0.7560454122906551,
                -2.5157412215150887,
                2.095166995414087,
                0.004000973501579241,
                0.3431213941947599,
                -1.5351441796183676
            ]
        },
        {
            "positions": [
                0.7407951481210908,
                -2.4025948944745807,
                2.135647675955496,
                0.003170085856570609,
                0.3378046200024855,
                -1.744732585348681
            ]
        },
        {
            "positions": [
                0.7255448839515266,
                -2.2894485674340723,
                2.176128356496905,
                0.002339198211561977,
                0.3324878458102112,
                -1.9543209910789947
            ]
        },
        {
            "positions": [
                0.7102946197819623,
                -2.1763022403935643,
                2.216609037038314,
                0.0015083105665533447,
                0.3271710716179368,
                -2.1639093968093084
            ]
        },
        {
            "positions": [
                0.695044355612398,
                -2.0631559133530564,
                2.257089717579723,
                0.0006774229215447125,
                0.3218542974256624,
                -2.373497802539622
            ]
        },
        {
            "positions": [
                0.6966424100860154,
                -2.0324051598136985,
                2.2847903176741897,
                -0.09498527696586162,
                0.3977170065832733,
                -2.5228025837349466
            ]
        },
        {
            "positions": [
                0.6982404645596327,
                -2.00165440627434,
                2.312490917768657,
                -0.19064797685326795,
                0.4735797157408842,
                -2.6721073649302713
            ]
        },
        {
            "positions": [
                0.69983851903325,
                -1.9709036527349824,
                2.340191517863124,
                -0.2863106767406743,
                0.549442424898495,
                -2.8214121461255965
            ]
        },
        {
            "positions": [
                0.7014365735068674,
                -1.9401528991956245,
                2.367892117957591,
                -0.3819733766280806,
                0.625305134056106,
                -2.9707169273209213
            ]
        },
        {
            "positions": [
                0.7030346279804848,
                -1.9094021456562664,
                2.395592718052058,
                -0.47763607651548695,
                0.7011678432137168,
                -3.120021708516246
            ]
        }
    ]
}