{
    "goal": {
        "global_pose": {
            "orientation": {
                "w": 0.5084816217422485,
                "x": -0.49083608388900757,
                "y": 0.5182115435600281,
                "z": -0.4816462993621826
            },
            "position": {
                "x": 0.5540239810943604,
                "y": 0.030875300988554955,
                "z": 0.16403168439865112
            }
        },
        "name": "move_to_storage_A"
    },
    "id": "LBKPIECE_move_to_storage_A_93",
    "joint_names": [
        "shoulder_pan_joint",
        "shoulder_lift_joint",
        "elbow_joint",
        "wrist_1_joint",
        "wrist_2_joint",
        "wrist_3_joint"
    ],
    "metrics": {
        "cart_traj_len": 0.3534827296690993,
        "distance_elbow_joint": 0.4505585604937197,
        "distance_shoulder_lift_joint": 0.23654386258139581,
        "distance_shoulder_pan_joint": 0.4645265224325589,
        "distance_wrist_1_joint": 0.23683605173983235,
        "distance_wrist_2_joint": 1.0912930598006974,
        "distance_wrist_3_joint": 0.09104732901850454,
        "smoothness": 8.881784197001252e-16,
        "time": 0.28761890999999995,
        "traj_len": 1.603373127524192,
        "weighted_distance": 2.0201557255925215
    },
    "planner": "LBKPIECE",
    "start": {
        "state": {
            "elbow_joint": 1.971548259319323,
            "shoulder_lift_joint": -1.1394851275133948,
            "shoulder_pan_joint": 0.1228115487234821,
            "wrist_1_joint": -0.7804723859257726,
            "wrist_2_joint": 0.12958671773740124,
            "wrist_3_joint": -3.192489227718131
        }
    },
    "waypoints": [
        {
            "positions": [
                0.1228115487234821,
                -1.1394851275133948,
                1.971548259319323,
                -0.7804723859257726,
                0.12958671773740124,
                -3.192489227718131
            ]
        },
        {
            "positions": [
                0.05645061694740226,
                -1.1732771078821655,
                2.035913767961283,
                -0.8143061076028916,
                0.285485726280358,
                -3.179482466429773
            ]
        },
        {
            "positions": [
                -0.009910314828677574,
                -1.2070690882509365,
                2.100279276603243,
                -0.8481398292800104,
                0.44138473482331475,
                -3.1664757051414156
            ]
        },
        {
            "positions": [
                -0.0762712466047574,
                -1.2408610686197072,
                2.1646447852452027,
                -0.8819735509571294,
                0.5972837433662715,
                -3.1534689438530576
            ]
        },
        {
            "positions": [
                -0.14263217838083725,
                -1.2746530489884782,
                2.2290102938871628,
                -0.9158072726342482,
                0.7531827519092283,
                -3.1404621825647
            ]
        },
        {
            "positions": [
                -0.20899311015691713,
                -1.308445029357249,
                2.293375802529123,
                -0.9496409943113672,
                0.9090817604521851,
                -3.127455421276342
            ]
        },
        {
            "positions": [
                -0.2753540419329969,
                -1.34223700972602,
                2.3577413111710825,
                -0.983474715988486,
                1.0649807689951418,
                -3.1144486599879846
            ]
        },
        {
            "positions": [
                -0.3417149737090768,
                -1.3760289900947906,
                2.4221068198130427,
                -1.017308437665605,
                1.2208797775380986,
                -3.1014418986996266
            ]
        }
    ]
}{
    "goal": {
        "global_pose": {
            "orientation": {
                "w": 0.5084816217422485,
                "x": -0.49083608388900757,
                "y": 0.5182115435600281,
                "z": -0.4816462993621826
            },
            "position": {
                "x": 0.5540239810943604,
                "y": 0.030875300988554955,
                "z": 0.16403168439865112
            }
        },
        "name": "move_to_storage_A"
    },
    "id": "LBKPIECE_move_to_storage_A_93",
    "joint_names": [
        "shoulder_pan_joint",
        "shoulder_lift_joint",
        "elbow_joint",
        "wrist_1_joint",
        "wrist_2_joint",
        "wrist_3_joint"
    ],
    "metrics": {
        "cart_traj_len": 0.35318443233652,
        "distance_elbow_joint": 0.45072504909123223,
        "distance_shoulder_lift_joint": 0.23387066693598313,
        "distance_shoulder_pan_joint": 0.461607236114311,
        "distance_wrist_1_joint": 0.24432479150525555,
        "distance_wrist_2_joint": 1.100083050204124,
        "distance_wrist_3_joint": 0.09278081877877886,
        "smoothness": 2.1094237385145796e-15,
        "time": 0.650909716,
        "traj_len": 1.607293256574445,
        "weighted_distance": 2.028142276048853
    },
    "planner": "LBKPIECE",
    "start": {
        "state": {
            "elbow_joint": 1.97154746011099,
            "shoulder_lift_joint": -1.13948474672311,
            "shoulder_pan_joint": 0.12281154466712228,
            "wrist_1_joint": -0.7804688027058302,
            "wrist_2_joint": 0.12958655903071145,
            "wrist_3_joint": 3.0906928834467795
        }
    },
    "waypoints": [
        {
            "positions": [
                0.12281154466712228,
                -1.13948474672311,
                1.97154746011099,
                -0.7804688027058302,
                0.12958655903071145,
                3.0906928834467795
            ]
        },
        {
            "positions": [
                0.05686765379364929,
                -1.172894841999679,
                2.035936752838309,
                -0.8153723443494382,
                0.28674128048844344,
                3.103947286129462
            ]
        },
        {
            "positions": [
                -0.009076237079823704,
                -1.206304937276248,
                2.1003260455656276,
                -0.850275885993046,
                0.4438960019461754,
                3.1172016888121448
            ]
        },
        {
            "positions": [
                -0.0750201279532967,
                -1.239715032552817,
                2.1647153382929467,
                -0.885179427636654,
                0.6010507234039074,
                3.1304560914948274
            ]
        },
        {
            "positions": [
                -0.14096401882676968,
                -1.273125127829386,
                2.2291046310202653,
                -0.9200829692802619,
                0.7582054448616394,
                3.1437104941775105
            ]
        },
        {
            "positions": [
                -0.2069079097002427,
                -1.306535223105955,
                2.2934939237475844,
                -0.9549865109238699,
                0.9153601663193714,
                3.156964896860193
            ]
        },
        {
            "positions": [
                -0.27285180057371566,
                -1.339945318382524,
                2.357883216474903,
                -0.9898900525674778,
                1.0725148877771034,
                3.1702192995428757
            ]
        },
        {
            "positions": [
                -0.3387956914471887,
                -1.373355413659093,
                2.422272509202222,
                -1.0247935942110857,
                1.2296696092348354,
                3.1834737022255584
            ]
        }
    ]
}{
    "goal": {
        "global_pose": {
            "orientation": {
                "w": 0.5084816217422485,
                "x": -0.49083608388900757,
                "y": 0.5182115435600281,
                "z": -0.4816462993621826
            },
            "position": {
                "x": 0.5540239810943604,
                "y": 0.030875300988554955,
                "z": 0.16403168439865112
            }
        },
        "name": "move_to_storage_A"
    },
    "id": "LBKPIECE_move_to_storage_A_93",
    "joint_names": [
        "shoulder_pan_joint",
        "shoulder_lift_joint",
        "elbow_joint",
        "wrist_1_joint",
        "wrist_2_joint",
        "wrist_3_joint"
    ],
    "metrics": {
        "cart_traj_len": 0.35272077252610784,
        "distance_elbow_joint": 0.450299829886319,
        "distance_shoulder_lift_joint": 0.2361445345934825,
        "distance_shoulder_pan_joint": 0.4602617688199762,
        "distance_wrist_1_joint": 0.24443797935642353,
        "distance_wrist_2_joint": 1.1029461679682533,
        "distance_wrist_3_joint": 0.0942238362487604,
        "smoothness": 4.440892098500626e-16,
        "time": 0.394445865,
        "traj_len": 1.6088238302788826,
        "weighted_distance": 2.0307993344236186
    },
    "planner": "LBKPIECE",
    "start": {
        "state": {
            "elbow_joint": 1.9715472970024885,
            "shoulder_lift_joint": -1.1394870060712896,
            "shoulder_pan_joint": 0.12281152778156021,
            "wrist_1_joint": -0.780463741449964,
            "wrist_2_joint": 0.12958659822042276,
            "wrist_3_joint": 3.090690232415272
        }
    },
    "waypoints": [
        {
            "positions": [
                0.12281152778156021,
                -1.1394870060712896,
                1.9715472970024885,
                -0.780463741449964,
                0.12958659822042276,
                3.090690232415272
            ]
        },
        {
            "positions": [
                0.05705984652156362,
                -1.1732219395846442,
                2.0358758441291056,
                -0.815383452786596,
                0.2871503365016018,
                3.104150780450809
            ]
        },
        {
            "positions": [
                -0.008691834738432963,
                -1.206956873097999,
                2.1002043912557227,
                -0.8503031641232278,
                0.4447140747827808,
                3.1176113284863463
            ]
        },
        {
            "positions": [
                -0.07444351599842955,
                -1.2406918066113535,
                2.1645329383823397,
                -0.8852228754598598,
                0.6022778130639599,
                3.1310718765218835
            ]
        },
        {
            "positions": [
                -0.14019519725842614,
                -1.2744267401247082,
                2.2288614855089564,
                -0.9201425867964917,
                0.7598415513451389,
                3.1445324245574207
            ]
        },
        {
            "positions": [
                -0.20594687851842278,
                -1.3081616736380628,
                2.2931900326355734,
                -0.9550622981331236,
                0.917405289626318,
                3.157992972592958
            ]
        },
        {
            "positions": [
                -0.2716985597784193,
                -1.3418966071514173,
                2.3575185797621905,
                -0.9899820094697556,
                1.074969027907497,
                3.171453520628495
            ]
        },
        {
            "positions": [
                -0.337450241038416,
                -1.3756315406647721,
                2.4218471268888075,
                -1.0249017208063875,
                1.232532766188676,
                3.1849140686640323
            ]
        }
    ]
}