{
    "goal": {
        "global_pose": {
            "orientation": {
                "w": 0.7031023480610252,
                "x": -0.7110244013736278,
                "y": 0.0077485991402295624,
                "z": 0.005598929693374583
            },
            "position": {
                "x": -0.8841497679147869,
                "y": 0.44412534475326537,
                "z": 0.3711530566215515
            }
        },
        "name": "move_to_auspresseinheit_D"
    },
    "id": "LBKPIECE_move_to_auspresseinheit_D_31",
    "joint_names": [
        "shoulder_pan_joint",
        "shoulder_lift_joint",
        "elbow_joint",
        "wrist_1_joint",
        "wrist_2_joint",
        "wrist_3_joint"
    ],
    "metrics": {
        "cart_traj_len": 0.34198854375716187,
        "distance_elbow_joint": 0.6314213757272891,
        "distance_shoulder_lift_joint": 0.11806608567674948,
        "distance_shoulder_pan_joint": 0.1338051259127585,
        "distance_wrist_1_joint": 0.5220497194712013,
        "distance_wrist_2_joint": 1.4299815453823101,
        "distance_wrist_3_joint": 0.004989306044321129,
        "smoothness": 0.0,
        "time": 0.334560154,
        "traj_len": 1.6853228646804237,
        "weighted_distance": 2.1914203237071574
    },
    "planner": "LBKPIECE",
    "start": {
        "state": {
            "elbow_joint": -1.8275523626775212,
            "shoulder_lift_joint": -2.126789852344167,
            "shoulder_pan_joint": -0.03513704404078235,
            "wrist_1_joint": -2.347782403156801,
            "wrist_2_joint": -1.6058999987535132,
            "wrist_3_joint": -3.0880379163319196
        }
    },
    "waypoints": [
        {
            "positions": [
                -0.03513704404078235,
                -2.126789852344167,
                -1.8275523626775212,
                -2.347782403156801,
                -1.6058999987535132,
                -3.0880379163319196
            ]
        },
        {
            "positions": [
                -0.05186268477987716,
                -2.1415481130537604,
                -1.74862469071161,
                -2.413038618090701,
                -1.4271523055807245,
                -3.08866157958746
            ]
        },
        {
            "positions": [
                -0.06858832551897198,
                -2.1563063737633543,
                -1.669697018745699,
                -2.4782948330246013,
                -1.2484046124079358,
                -3.0892852428429998
            ]
        },
        {
            "positions": [
                -0.08531396625806678,
                -2.171064634472948,
                -1.5907693467797879,
                -2.5435510479585015,
                -1.0696569192351468,
                -3.08990890609854
            ]
        },
        {
            "positions": [
                -0.10203960699716161,
                -2.1858228951825414,
                -1.5118416748138768,
                -2.6088072628924017,
                -0.8909092260623581,
                -3.09053256935408
            ]
        },
        {
            "positions": [
                -0.11876524773625641,
                -2.2005811558921353,
                -1.4329140028479657,
                -2.6740634778263015,
                -0.7121615328895694,
                -3.0911562326096202
            ]
        },
        {
            "positions": [
                -0.13549088847535123,
                -2.215339416601729,
                -1.3539863308820543,
                -2.7393196927602017,
                -0.5334138397167805,
                -3.0917798958651606
            ]
        },
        {
            "positions": [
                -0.15221652921444603,
                -2.230097677311323,
                -1.2750586589161432,
                -2.804575907694102,
                -0.35466614654399176,
                -3.0924035591207004
            ]
        },
        {
            "positions": [
                -0.16894216995354086,
                -2.2448559380209163,
                -1.1961309869502321,
                -2.869832122628002,
                -0.17591845337120304,
                -3.0930272223762407
            ]
        }
    ]
}