{
    "goal": {
        "global_pose": {
            "orientation": {
                "w": 0.7047431468963623,
                "x": -0.7094548344612122,
                "y": 0.0024358443915843964,
                "z": -0.0022348060738295317
            },
            "position": {
                "x": 0.6094750761985779,
                "y": 0.3671506643295288,
                "z": 0.19426114857196808
            }
        },
        "name": "move_to_magneteinheit_A"
    },
    "id": "LBKPIECE_move_to_magneteinheit_A_80",
    "joint_names": [
        "shoulder_pan_joint",
        "shoulder_lift_joint",
        "elbow_joint",
        "wrist_1_joint",
        "wrist_2_joint",
        "wrist_3_joint"
    ],
    "metrics": {
        "cart_traj_len": 4.91186162966703,
        "distance_elbow_joint": 3.8868802010975605,
        "distance_shoulder_lift_joint": 0.27198835538698307,
        "distance_shoulder_pan_joint": 9.202756860225186,
        "distance_wrist_1_joint": 5.25299041706732,
        "distance_wrist_2_joint": 1.7016208006469487,
        "distance_wrist_3_joint": 3.7380308287081783,
        "smoothness": 0.2524146489123955,
        "time": 0.362546254,
        "traj_len": 4.904515007942395,
        "weighted_distance": 6.203623162174086
    },
    "planner": "LBKPIECE",
    "start": {
        "state": {
            "elbow_joint": -1.9196185241190666,
            "shoulder_lift_joint": -1.2443396400964142,
            "shoulder_pan_joint": 2.6996025414629847,
            "wrist_1_joint": -1.5485510000780065,
            "wrist_2_joint": -1.5709468930060704,
            "wrist_3_joint": 0.4420197071253992
        }
    },
    "waypoints": [
        {
            "positions": [
                2.6996025414629847,
                -1.2443396400964142,
                -1.9196185241190666,
                -1.5485510000780065,
                -1.5709468930060704,
                0.4420197071253992
            ]
        },
        {
            "positions": [
                2.4965084293195985,
                -1.2471963868596427,
                -1.8853822842201318,
                -1.4443898755415956,
                -1.520724178728498,
                0.44353770514623525
            ]
        },
        {
            "positions": [
                2.2934143171762122,
                -1.2500531336228713,
                -1.8511460443211967,
                -1.3402287510051847,
                -1.4705014644509253,
                0.4450557031670714
            ]
        },
        {
            "positions": [
                2.0903202050328265,
                -1.2529098803860999,
                -1.8169098044222618,
                -1.2360676264687736,
                -1.420278750173353,
                0.44657370118790746
            ]
        },
        {
            "positions": [
                1.88722609288944,
                -1.2557666271493282,
                -1.7826735645233267,
                -1.1319065019323626,
                -1.3700560358957805,
                0.44809169920874353
            ]
        },
        {
            "positions": [
                1.6841319807460537,
                -1.2586233739125567,
                -1.7484373246243918,
                -1.0277453773959517,
                -1.3198333216182079,
                0.4496096972295796
            ]
        },
        {
            "positions": [
                1.4810378686026677,
                -1.2614801206757853,
                -1.714201084725457,
                -0.9235842528595408,
                -1.2696106073406355,
                0.45112769525041574
            ]
        },
        {
            "positions": [
                1.2779437564592815,
                -1.2643368674390139,
                -1.6799648448265219,
                -0.8194231283231299,
                -1.219387893063063,
                0.4526456932712518
            ]
        },
        {
            "positions": [
                1.0748496443158952,
                -1.2671936142022424,
                -1.645728604927587,
                -0.715262003786719,
                -1.1691651787854904,
                0.4541636912920879
            ]
        },
        {
            "positions": [
                0.871755532172509,
                -1.270050360965471,
                -1.611492365028652,
                -0.611100879250308,
                -1.118942464507918,
                0.45568168931292397
            ]
        },
        {
            "positions": [
                0.6686614200291228,
                -1.2729071077286995,
                -1.577256125129717,
                -0.506939754713897,
                -1.0687197502303456,
                0.4571996873337601
            ]
        },
        {
            "positions": [
                0.46556730788573697,
                -1.2757638544919279,
                -1.5430198852307822,
                -0.4027786301774863,
                -1.0184970359527732,
                0.45871768535459617
            ]
        },
        {
            "positions": [
                0.26247319574235073,
                -1.2786206012551564,
                -1.508783645331847,
                -0.29861750564107514,
                -0.9682743216752007,
                0.46023568337543225
            ]
        },
        {
            "positions": [
                0.05937908359896449,
                -1.281477348018385,
                -1.474547405432912,
                -0.19445638110466423,
                -0.9180516073976281,
                0.4617536813962684
            ]
        },
        {
            "positions": [
                -0.14371502854442175,
                -1.2843340947816135,
                -1.440311165533977,
                -0.09029525656825332,
                -0.8678288931200556,
                0.46327167941710445
            ]
        },
        {
            "positions": [
                -0.346809140687808,
                -1.287190841544842,
                -1.4060749256350422,
                0.013865867968157808,
                -0.8176061788424831,
                0.46478967743794053
            ]
        },
        {
            "positions": [
                -0.5499032528311942,
                -1.2900475883080706,
                -1.3718386857361073,
                0.1180269925045685,
                -0.7673834645649107,
                0.4663076754587766
            ]
        },
        {
            "positions": [
                -0.75299736497458,
                -1.2929043350712992,
                -1.3376024458371722,
                0.2221881170409794,
                -0.7171607502873383,
                0.46782567347961274
            ]
        },
        {
            "positions": [
                -0.9560914771179667,
                -1.2957610818345278,
                -1.3033662059382372,
                0.32634924157739054,
                -0.6669380360097658,
                0.4693436715004488
            ]
        },
        {
            "positions": [
                -1.1591855892613525,
                -1.298617828597756,
                -1.2691299660393023,
                0.4305103661138012,
                -0.6167153217321933,
                0.4708616695212849
            ]
        },
        {
            "positions": [
                -1.3622797014047392,
                -1.3014745753609847,
                -1.2348937261403674,
                0.5346714906502126,
                -0.5664926074546206,
                0.472379667542121
            ]
        },
        {
            "positions": [
                -1.5653738135481254,
                -1.3043313221242132,
                -1.2006574862414325,
                0.638832615186623,
                -0.5162698931770482,
                0.4738976655629571
            ]
        },
        {
            "positions": [
                -1.7684679256915108,
                -1.3071880688874418,
                -1.1664212463424974,
                0.742993739723034,
                -0.4660471788994758,
                0.47541566358379317
            ]
        },
        {
            "positions": [
                -1.971562037834898,
                -1.3100448156506703,
                -1.1321850064435623,
                0.8471548642594453,
                -0.41582446462190337,
                0.47693366160462924
            ]
        },
        {
            "positions": [
                -2.1746561499782833,
                -1.3129015624138989,
                -1.0979487665446275,
                0.9513159887958562,
                -0.36560175034433096,
                0.4784516596254654
            ]
        },
        {
            "positions": [
                -2.3777502621216695,
                -1.3157583091771274,
                -1.0637125266456926,
                1.0554771133322667,
                -0.31537903606675854,
                0.47996965764630145
            ]
        },
        {
            "positions": [
                -2.5808443742650558,
                -1.3186150559403558,
                -1.0294762867467575,
                1.159638237868678,
                -0.2651563217891859,
                0.4814876556671375
            ]
        },
        {
            "positions": [
                -2.783938486408442,
                -1.3214718027035843,
                -0.9952400468478226,
                1.263799362405089,
                -0.2149336075116135,
                0.4830056536879736
            ]
        },
        {
            "positions": [
                -2.9870325985518282,
                -1.3243285494668129,
                -0.9610038069488875,
                1.3679604869414999,
                -0.16471089323404087,
                0.48452365170880973
            ]
        },
        {
            "positions": [
                -3.190126710695214,
                -1.3271852962300414,
                -0.9267675670499527,
                1.472121611477911,
                -0.11448817895646846,
                0.4860416497296458
            ]
        },
        {
            "positions": [
                -3.086594597943121,
                -1.3212745868783742,
                -0.8363291531740636,
                1.4023616800556795,
                -0.1068268637503013,
                0.37060387203889794
            ]
        },
        {
            "positions": [
                -2.983062485191028,
                -1.3153638775267067,
                -0.7458907392981746,
                1.332601748633448,
                -0.09916554854413416,
                0.2551660943481501
            ]
        },
        {
            "positions": [
                -2.879530372438935,
                -1.3094531681750394,
                -0.6554523254222857,
                1.2628418172112166,
                -0.091504233337967,
                0.1397283166574022
            ]
        },
        {
            "positions": [
                -2.775998259686842,
                -1.303542458823372,
                -0.5650139115463967,
                1.193081885788985,
                -0.08384291813179985,
                0.02429053896665434
            ]
        },
        {
            "positions": [
                -2.6724661469347493,
                -1.2976317494717047,
                -0.47457549767050766,
                1.1233219543667536,
                -0.0761816029256327,
                -0.09114723872409347
            ]
        },
        {
            "positions": [
                -2.5689340341826563,
                -1.2917210401200372,
                -0.38413708379461875,
                1.0535620229445222,
                -0.06852028771946556,
                -0.2065850164148414
            ]
        },
        {
            "positions": [
                -2.465401921430563,
                -1.28581033076837,
                -0.2936986699187297,
                0.9838020915222906,
                -0.0608589725132984,
                -0.3220227941055893
            ]
        },
        {
            "positions": [
                -2.3618698086784704,
                -1.2798996214167024,
                -0.2032602560428407,
                0.9140421601000591,
                -0.05319765730713125,
                -0.4374605717963371
            ]
        },
        {
            "positions": [
                -2.258337695926377,
                -1.2739889120650352,
                -0.11282184216695168,
                0.8442822286778277,
                -0.045536342100964106,
                -0.5528983494870849
            ]
        },
        {
            "positions": [
                -2.1548055831742845,
                -1.2680782027133677,
                -0.022383428291062657,
                0.7745222972555962,
                -0.03787502689479695,
                -0.6683361271778328
            ]
        },
        {
            "positions": [
                -2.051273470422191,
                -1.2621674933617004,
                0.06805498558482626,
                0.7047623658333647,
                -0.030213711688629796,
                -0.7837739048685808
            ]
        },
        {
            "positions": [
                -1.9477413576700982,
                -1.256256784010033,
                0.15849339946071517,
                0.6350024344111331,
                -0.022552396482462655,
                -0.8992116825593286
            ]
        },
        {
            "positions": [
                -1.8442092449180052,
                -1.2503460746583657,
                0.2489318133366043,
                0.5652425029889017,
                -0.0148910812762955,
                -1.0146494602500764
            ]
        },
        {
            "positions": [
                -1.7406771321659122,
                -1.2444353653066982,
                0.3393702272124932,
                0.4954825715666702,
                -0.007229766070128346,
                -1.1300872379408244
            ]
        },
        {
            "positions": [
                -1.6371450194138193,
                -1.238524655955031,
                0.42980864108838235,
                0.4257226401444387,
                0.00043154913603879463,
                -1.2455250156315723
            ]
        },
        {
            "positions": [
                -1.5336129066617263,
                -1.2326139466033634,
                0.5202470549642713,
                0.35596270872220726,
                0.00809286434220595,
                -1.36096279332232
            ]
        },
        {
            "positions": [
                -1.4300807939096334,
                -1.2267032372516962,
                0.6106854688401602,
                0.2862027772999758,
                0.015754179548373104,
                -1.4764005710130679
            ]
        },
        {
            "positions": [
                -1.3265486811575404,
                -1.220792527900029,
                0.7011238827160493,
                0.21644284587774432,
                0.023415494754540245,
                -1.5918383487038157
            ]
        },
        {
            "positions": [
                -1.2230165684054475,
                -1.2148818185483614,
                0.7915622965919382,
                0.14668291445551285,
                0.031076809960707413,
                -1.7072761263945635
            ]
        },
        {
            "positions": [
                -1.1194844556533545,
                -1.2089711091966941,
                0.8820007104678274,
                0.07692298303328138,
                0.038738125166874554,
                -1.8227139040853113
            ]
        },
        {
            "positions": [
                -1.0159523429012616,
                -1.2030603998450267,
                0.9724391243437163,
                0.007163051611049909,
                0.046399440373041695,
                -1.9381516817760596
            ]
        },
        {
            "positions": [
                -0.9124202301491686,
                -1.1971496904933594,
                1.0628775382196052,
                -0.06259687981118156,
                0.05406075557920886,
                -2.0535894594668074
            ]
        },
        {
            "positions": [
                -0.8088881173970757,
                -1.191238981141692,
                1.153315952095494,
                -0.13235681123341303,
                0.061722070785376004,
                -2.169027237157555
            ]
        },
        {
            "positions": [
                -0.7053560046449823,
                -1.1853282717900246,
                1.243754365971383,
                -0.20211674265564472,
                0.06938338599154315,
                -2.284465014848303
            ]
        },
        {
            "positions": [
                -0.6018238918928893,
                -1.1794175624383572,
                1.3341927798472724,
                -0.2718766740778762,
                0.07704470119771031,
                -2.399902792539051
            ]
        },
        {
            "positions": [
                -0.49829177914079636,
                -1.17350685308669,
                1.4246311937231613,
                -0.34163660550010766,
                0.08470601640387745,
                -2.5153405702297986
            ]
        },
        {
            "positions": [
                -0.3947596663887034,
                -1.1675961437350224,
                1.5150696075990502,
                -0.41139653692233913,
                0.0923673316100446,
                -2.6307783479205464
            ]
        },
        {
            "positions": [
                -0.29122755363661046,
                -1.1616854343833551,
                1.605508021474939,
                -0.4811564683445706,
                0.10002864681621176,
                -2.7462161256112947
            ]
        },
        {
            "positions": [
                -0.1876954408845175,
                -1.1557747250316877,
                1.695946435350828,
                -0.5509163997668018,
                0.1076899620223789,
                -2.8616539033020425
            ]
        },
        {
            "positions": [
                -0.08416332813242455,
                -1.1498640156800204,
                1.7863848492267174,
                -0.6206763311890335,
                0.11535127722854605,
                -2.9770916809927903
            ]
        },
        {
            "positions": [
                0.0193687846196684,
                -1.1439533063283531,
                1.8768232631026063,
                -0.6904362626112648,
                0.12301259243471321,
                -3.092529458683538
            ]
        },
        {
            "positions": [
                0.1229008973717615,
                -1.1380425969766856,
                1.967261676978495,
                -0.7601961940334965,
                0.13067390764088035,
                -3.207967236374286
            ]
        }
    ]
}