{
    "goal": {
        "global_pose": {
            "orientation": {
                "w": 0.7031023480610252,
                "x": -0.7110244013736278,
                "y": 0.0077485991402295624,
                "z": 0.005598929693374583
            },
            "position": {
                "x": -0.8841497679147869,
                "y": 0.44412534475326537,
                "z": 0.3711530566215515
            }
        },
        "name": "move_to_auspresseinheit_D"
    },
    "id": "LBKPIECE_move_to_auspresseinheit_D_82",
    "joint_names": [
        "shoulder_pan_joint",
        "shoulder_lift_joint",
        "elbow_joint",
        "wrist_1_joint",
        "wrist_2_joint",
        "wrist_3_joint"
    ],
    "metrics": {
        "cart_traj_len": 0.34301502130716865,
        "distance_elbow_joint": 0.6363246236300453,
        "distance_shoulder_lift_joint": 0.12034893333999852,
        "distance_shoulder_pan_joint": 0.1340251519514266,
        "distance_wrist_1_joint": 0.5251070045373853,
        "distance_wrist_2_joint": 1.4452596411227316,
        "distance_wrist_3_joint": 0.0023521847238874294,
        "smoothness": 2.368475765095282e-15,
        "time": 0.248457821,
        "traj_len": 1.6921635675387516,
        "weighted_distance": 2.1996564628171753
    },
    "planner": "LBKPIECE",
    "start": {
        "state": {
            "elbow_joint": -1.8275523626775212,
            "shoulder_lift_joint": -2.126789852344167,
            "shoulder_pan_joint": -0.03513704404078235,
            "wrist_1_joint": -2.347782403156801,
            "wrist_2_joint": -1.6058999987535132,
            "wrist_3_joint": -3.0880379163319196
        }
    },
    "waypoints": [
        {
            "positions": [
                -0.03513704404078235,
                -2.126789852344167,
                -1.8275523626775212,
                -2.347782403156801,
                -1.6058999987535132,
                -3.0880379163319196
            ]
        },
        {
            "positions": [
                -0.051890188034710676,
                -2.1418334690116665,
                -1.7480117847237655,
                -2.413420778723974,
                -1.4252425436131717,
                -3.0883319394224054
            ]
        },
        {
            "positions": [
                -0.06864333202863901,
                -2.1568770856791666,
                -1.6684712067700098,
                -2.4790591542911473,
                -1.2445850884728302,
                -3.0886259625128916
            ]
        },
        {
            "positions": [
                -0.08539647602256734,
                -2.1719207023466662,
                -1.5889306288162541,
                -2.5446975298583205,
                -1.0639276333324887,
                -3.0889199856033773
            ]
        },
        {
            "positions": [
                -0.10214962001649566,
                -2.186964319014166,
                -1.5093900508624984,
                -2.6103359054254938,
                -0.8832701781921474,
                -3.0892140086938635
            ]
        },
        {
            "positions": [
                -0.11890276401042399,
                -2.202007935681666,
                -1.4298494729087428,
                -2.6759742809926665,
                -0.7026127230518059,
                -3.0895080317843493
            ]
        },
        {
            "positions": [
                -0.13565590800435232,
                -2.2170515523491656,
                -1.3503088949549873,
                -2.7416126565598398,
                -0.5219552679114645,
                -3.089802054874835
            ]
        },
        {
            "positions": [
                -0.15240905199828064,
                -2.2320951690166657,
                -1.2707683170012316,
                -2.807251032127013,
                -0.34129781277112303,
                -3.0900960779653213
            ]
        },
        {
            "positions": [
                -0.16916219599220897,
                -2.2471387856841654,
                -1.191227739047476,
                -2.872889407694186,
                -0.16064035763078152,
                -3.090390101055807
            ]
        }
    ]
}