{
    "goal": {
        "global_pose": {
            "orientation": {
                "w": -0.00223480608172531,
                "x": 0.0024358444001904467,
                "y": 0.7094548369677653,
                "z": -0.704743149386269
            },
            "position": {
                "x": -0.37947507619857795,
                "y": -0.6371506643295288,
                "z": 0.19426114857196808
            }
        },
        "name": "move_to_magneteinheit_C"
    },
    "id": "LBKPIECE_move_to_magneteinheit_C_65",
    "joint_names": [
        "shoulder_pan_joint",
        "shoulder_lift_joint",
        "elbow_joint",
        "wrist_1_joint",
        "wrist_2_joint",
        "wrist_3_joint"
    ],
    "metrics": {
        "cart_traj_len": 1.9664051964240579,
        "distance_elbow_joint": 1.958385266468221,
        "distance_shoulder_lift_joint": 1.0447523301354749,
        "distance_shoulder_pan_joint": 1.649750330458595,
        "distance_wrist_1_joint": 1.9232933407536401,
        "distance_wrist_2_joint": 1.3102801958601242,
        "distance_wrist_3_joint": 3.3901276145799146,
        "smoothness": 0.5381260957137284,
        "time": 0.385147228,
        "traj_len": 3.3580632927709937,
        "weighted_distance": 4.614154076754433
    },
    "planner": "LBKPIECE",
    "start": {
        "state": {
            "elbow_joint": 1.9565354010623817,
            "shoulder_lift_joint": -1.4165861575791021,
            "shoulder_pan_joint": -1.6717766225146293,
            "wrist_1_joint": -0.5286633292919765,
            "wrist_2_joint": 1.472756589071564,
            "wrist_3_joint": -3.1238370188695823
        }
    },
    "waypoints": [
        {
            "positions": [
                -1.6717766225146293,
                -1.4165861575791021,
                1.9565354010623817,
                -0.5286633292919765,
                1.472756589071564,
                -3.1238370188695823
            ]
        },
        {
            "positions": [
                -1.6521228115950761,
                -1.417553797020766,
                1.9747511859760576,
                -0.4671039914471725,
                1.4172595549702154,
                -3.122812897308747
            ]
        },
        {
            "positions": [
                -1.6150595871247495,
                -1.4010397045489444,
                1.9127012545133872,
                -0.386943519819082,
                1.318357298367708,
                -3.043668843488318
            ]
        },
        {
            "positions": [
                -1.577996362654423,
                -1.384525612077123,
                1.8506513230507171,
                -0.30678304819099145,
                1.2194550417652008,
                -2.9645247896678897
            ]
        },
        {
            "positions": [
                -1.5409331381840963,
                -1.3680115196053018,
                1.7886013915880468,
                -0.22662257656290094,
                1.1205527851626935,
                -2.885380735847461
            ]
        },
        {
            "positions": [
                -1.5038699137137697,
                -1.3514974271334803,
                1.7265514601253764,
                -0.14646210493481043,
                1.0216505285601862,
                -2.8062366820270324
            ]
        },
        {
            "positions": [
                -1.4668066892434428,
                -1.3349833346616589,
                1.664501528662706,
                -0.06630163330671984,
                0.922748271957679,
                -2.7270926282066035
            ]
        },
        {
            "positions": [
                -1.4297434647731162,
                -1.3184692421898374,
                1.602451597200036,
                0.013858838321370637,
                0.8238460153551717,
                -2.647948574386175
            ]
        },
        {
            "positions": [
                -1.3926802403027896,
                -1.3019551497180162,
                1.5404016657373656,
                0.09401930994946117,
                0.7249437587526644,
                -2.568804520565746
            ]
        },
        {
            "positions": [
                -1.355617015832463,
                -1.2854410572461947,
                1.4783517342746955,
                0.17417978157755165,
                0.6260415021501571,
                -2.4896604667453177
            ]
        },
        {
            "positions": [
                -1.3185537913621364,
                -1.2689269647743733,
                1.4163018028120251,
                0.25434025320564224,
                0.5271392455476498,
                -2.410516412924889
            ]
        },
        {
            "positions": [
                -1.3368629589977719,
                -1.26226646574905,
                1.2844169988433747,
                0.26544912307004537,
                0.4956758056473552,
                -2.2392384835699395
            ]
        },
        {
            "positions": [
                -1.3551721266334071,
                -1.2556059667237272,
                1.1525321948747245,
                0.27655799293444844,
                0.46421236574706065,
                -2.0679605542149897
            ]
        },
        {
            "positions": [
                -1.3734812942690426,
                -1.248945467698404,
                1.020647390906074,
                0.28766686279885156,
                0.43274892584676605,
                -1.8966826248600404
            ]
        },
        {
            "positions": [
                -1.4981937764267057,
                -1.2928526563892366,
                1.0360072531429745,
                0.24898000350979196,
                0.46924001047512237,
                -1.7851411314273742
            ]
        },
        {
            "positions": [
                -1.622906258584369,
                -1.336759845080069,
                1.051367115379875,
                0.21029314422073236,
                0.5057310951034787,
                -1.6735996379947082
            ]
        },
        {
            "positions": [
                -1.747618740742032,
                -1.3806670337709015,
                1.0667269776167752,
                0.1716062849316728,
                0.542222179731835,
                -1.5620581445620423
            ]
        },
        {
            "positions": [
                -1.8723312228996951,
                -1.4245742224617342,
                1.0820868398536756,
                0.1329194256426132,
                0.5787132643601913,
                -1.4505166511293761
            ]
        },
        {
            "positions": [
                -1.9845273439311477,
                -1.4683811451333322,
                1.213170448960649,
                0.1024424399047192,
                0.599996287093434,
                -1.4755971951176228
            ]
        },
        {
            "positions": [
                -2.0967234649626003,
                -1.5121880678049302,
                1.3442540580676225,
                0.0719654541668252,
                0.6212793098266766,
                -1.5006777391058697
            ]
        },
        {
            "positions": [
                -2.2089195859940527,
                -1.555994990476528,
                1.475337667174596,
                0.041488468428931224,
                0.6425623325599192,
                -1.5257582830941163
            ]
        },
        {
            "positions": [
                -2.3211157070255055,
                -1.599801913148126,
                1.6064212762815693,
                0.011011482691037217,
                0.6638453552931618,
                -1.5508388270823632
            ]
        },
        {
            "positions": [
                -2.433311828056958,
                -1.643608835819724,
                1.7375048853885429,
                -0.01946550304685677,
                0.6851283780264045,
                -1.5759193710706099
            ]
        },
        {
            "positions": [
                -2.4609532625257464,
                -1.6036504665386695,
                1.7998639705607817,
                -0.1078924956903288,
                0.6871973947583249,
                -1.750534277684876
            ]
        },
        {
            "positions": [
                -2.488594696994535,
                -1.563692097257615,
                1.8622230557330208,
                -0.1963194883338008,
                0.6892664114902454,
                -1.925149184299142
            ]
        },
        {
            "positions": [
                -2.516236131463324,
                -1.5237337279765606,
                1.92458214090526,
                -0.28474648097727284,
                0.6913354282221658,
                -2.099764090913408
            ]
        },
        {
            "positions": [
                -2.5438775659321125,
                -1.483775358695506,
                1.9869412260774988,
                -0.3731734736207449,
                0.6934044449540862,
                -2.2743789975276743
            ]
        },
        {
            "positions": [
                -2.529636820984887,
                -1.4196394554703238,
                1.9908955963401263,
                -0.4623980360693882,
                0.691481042248485,
                -2.4529679776159563
            ]
        },
        {
            "positions": [
                -2.515396076037662,
                -1.3555035522451415,
                1.9948499666027535,
                -0.5516225985180314,
                0.6895576395428837,
                -2.6315569577042384
            ]
        },
        {
            "positions": [
                -2.501155331090437,
                -1.2913676490199595,
                1.998804336865381,
                -0.6408471609666747,
                0.6876342368372824,
                -2.8101459377925204
            ]
        },
        {
            "positions": [
                -2.486914586143212,
                -1.2272317457947772,
                2.002758707128008,
                -0.730071723415318,
                0.6857108341316812,
                -2.9887349178808025
            ]
        },
        {
            "positions": [
                -2.4726738411959865,
                -1.163095842569595,
                2.0067130773906356,
                -0.8192962858639613,
                0.68378743142608,
                -3.1673238979690845
            ]
        }
    ]
}