{
    "goal": {
        "global_pose": {
            "orientation": {
                "w": 0.7031023480610252,
                "x": -0.7110244013736278,
                "y": 0.0077485991402295624,
                "z": 0.005598929693374583
            },
            "position": {
                "x": -0.8841497679147869,
                "y": 0.44412534475326537,
                "z": 0.3711530566215515
            }
        },
        "name": "move_to_auspresseinheit_D"
    },
    "id": "LBKPIECE_move_to_auspresseinheit_D_127",
    "joint_names": [
        "shoulder_pan_joint",
        "shoulder_lift_joint",
        "elbow_joint",
        "wrist_1_joint",
        "wrist_2_joint",
        "wrist_3_joint"
    ],
    "metrics": {
        "cart_traj_len": 0.34371965237731794,
        "distance_elbow_joint": 0.6516722686726513,
        "distance_shoulder_lift_joint": 0.12925313607290745,
        "distance_shoulder_pan_joint": 0.13359387668362582,
        "distance_wrist_1_joint": 0.5600235996633529,
        "distance_wrist_2_joint": 1.4464833407457434,
        "distance_wrist_3_joint": 0.030456632767990488,
        "smoothness": 7.894919286223335e-16,
        "time": 0.247530994,
        "traj_len": 1.7179880251638169,
        "weighted_distance": 2.2402908428486126
    },
    "planner": "LBKPIECE",
    "start": {
        "state": {
            "elbow_joint": -1.8275523626775212,
            "shoulder_lift_joint": -2.126789852344167,
            "shoulder_pan_joint": -0.03513704404078235,
            "wrist_1_joint": -2.347782403156801,
            "wrist_2_joint": -1.6058999987535132,
            "wrist_3_joint": -3.0880379163319196
        }
    },
    "waypoints": [
        {
            "positions": [
                -0.03513704404078235,
                -2.126789852344167,
                -1.8275523626775212,
                -2.347782403156801,
                -1.6058999987535132,
                -3.0880379163319196
            ]
        },
        {
            "positions": [
                -0.05183627862623558,
                -2.1429464943532803,
                -1.7460933290934397,
                -2.41778535311472,
                -1.4250895811602953,
                -3.084230837235921
            ]
        },
        {
            "positions": [
                -0.0685355132116888,
                -2.159103136362394,
                -1.6646342955093583,
                -2.487788303072639,
                -1.2442791635670774,
                -3.080423758139922
            ]
        },
        {
            "positions": [
                -0.08523474779714203,
                -2.1752597783715073,
                -1.583175261925277,
                -2.557791253030558,
                -1.0634687459738594,
                -3.0766166790439233
            ]
        },
        {
            "positions": [
                -0.10193398238259527,
                -2.1914164203806203,
                -1.5017162283411956,
                -2.6277942029884773,
                -0.8826583283806415,
                -3.0728095999479246
            ]
        },
        {
            "positions": [
                -0.11863321696804849,
                -2.207573062389734,
                -1.420257194757114,
                -2.6977971529463964,
                -0.7018479107874236,
                -3.0690025208519254
            ]
        },
        {
            "positions": [
                -0.1353324515535017,
                -2.2237297043988473,
                -1.3387981611730329,
                -2.7678001029043156,
                -0.5210374931942057,
                -3.0651954417559266
            ]
        },
        {
            "positions": [
                -0.15203168613895496,
                -2.239886346407961,
                -1.2573391275889514,
                -2.8378030528622347,
                -0.34022707560098775,
                -3.061388362659928
            ]
        },
        {
            "positions": [
                -0.16873092072440818,
                -2.2560429884170743,
                -1.17588009400487,
                -2.907806002820154,
                -0.15941665800776986,
                -3.057581283563929
            ]
        }
    ]
}