{
    "goal": {
        "global_pose": {
            "orientation": {
                "w": -0.4816463035849501,
                "x": 0.5182115481033762,
                "y": 0.4908360881923453,
                "z": -0.5084816262002911
            },
            "position": {
                "x": -0.8240239810943604,
                "y": -0.300875300988555,
                "z": 0.16403168439865112
            }
        },
        "name": "move_to_storage_C"
    },
    "id": "LBKPIECE_move_to_storage_C_137",
    "joint_names": [
        "shoulder_pan_joint",
        "shoulder_lift_joint",
        "elbow_joint",
        "wrist_1_joint",
        "wrist_2_joint",
        "wrist_3_joint"
    ],
    "metrics": {
        "cart_traj_len": 0.577136505056356,
        "distance_elbow_joint": 0.2573650409680557,
        "distance_shoulder_lift_joint": 0.18843251455467924,
        "distance_shoulder_pan_joint": 0.49706853183983357,
        "distance_wrist_1_joint": 0.08117798910352425,
        "distance_wrist_2_joint": 1.057964067233033,
        "distance_wrist_3_joint": 0.0757271505349788,
        "smoothness": 0.0,
        "time": 0.668129426,
        "traj_len": 1.4689231750619582,
        "weighted_distance": 1.8569684035116536
    },
    "planner": "LBKPIECE",
    "start": {
        "state": {
            "elbow_joint": 2.010868314990456,
            "shoulder_lift_joint": -1.1634956873337592,
            "shoulder_pan_joint": -2.4736205022346125,
            "wrist_1_joint": -0.8367026794202681,
            "wrist_2_joint": 0.6746043897044499,
            "wrist_3_joint": -3.1496632123970403
        }
    },
    "waypoints": [
        {
            "positions": [
                -2.4736205022346125,
                -1.1634956873337592,
                2.010868314990456,
                -0.8367026794202681,
                0.6746043897044499,
                -3.1496632123970403
            ]
        },
        {
            "positions": [
                -2.5564652575412516,
                -1.1320902682413125,
                1.9679741414957799,
                -0.8231730145696807,
                0.8509317342432887,
                -3.1370420206412106
            ]
        },
        {
            "positions": [
                -2.6393100128478904,
                -1.100684849148866,
                1.925079968001104,
                -0.8096433497190934,
                1.0272590787821276,
                -3.1244208288853805
            ]
        },
        {
            "positions": [
                -2.722154768154529,
                -1.0692794300564197,
                1.882185794506428,
                -0.796113684868506,
                1.2035864233209663,
                -3.111799637129551
            ]
        },
        {
            "positions": [
                -2.804999523461168,
                -1.037874010963973,
                1.839291621011752,
                -0.7825840200179186,
                1.3799137678598052,
                -3.0991784453737212
            ]
        },
        {
            "positions": [
                -2.8878442787678074,
                -1.0064685918715264,
                1.796397447517076,
                -0.7690543551673312,
                1.5562411123986442,
                -3.086557253617891
            ]
        },
        {
            "positions": [
                -2.970689034074446,
                -0.97506317277908,
                1.7535032740224001,
                -0.7555246903167439,
                1.732568456937483,
                -3.0739360618620615
            ]
        }
    ]
}