{
    "goal": {
        "global_pose": {
            "orientation": {
                "w": -0.4816463035849501,
                "x": 0.5182115481033762,
                "y": 0.4908360881923453,
                "z": -0.5084816262002911
            },
            "position": {
                "x": -0.8240239810943604,
                "y": -0.300875300988555,
                "z": 0.16403168439865112
            }
        },
        "name": "move_to_storage_C"
    },
    "id": "LBKPIECE_move_to_storage_C_136",
    "joint_names": [
        "shoulder_pan_joint",
        "shoulder_lift_joint",
        "elbow_joint",
        "wrist_1_joint",
        "wrist_2_joint",
        "wrist_3_joint"
    ],
    "metrics": {
        "cart_traj_len": 0.5776425117589936,
        "distance_elbow_joint": 0.25686482659206944,
        "distance_shoulder_lift_joint": 0.18955624845862418,
        "distance_shoulder_pan_joint": 0.4946607545315094,
        "distance_wrist_1_joint": 0.06829513375002294,
        "distance_wrist_2_joint": 1.07482048701738,
        "distance_wrist_3_joint": 0.07400739735161599,
        "smoothness": 0.0,
        "time": 0.40303128099999996,
        "traj_len": 1.4690829955115614,
        "weighted_distance": 1.8572386123414129
    },
    "planner": "LBKPIECE",
    "start": {
        "state": {
            "elbow_joint": 2.010868314990456,
            "shoulder_lift_joint": -1.1634956873337592,
            "shoulder_pan_joint": -2.4736205022346125,
            "wrist_1_joint": -0.8367026794202681,
            "wrist_2_joint": 0.6746043897044499,
            "wrist_3_joint": -3.1496632123970403
        }
    },
    "waypoints": [
        {
            "positions": [
                -2.4736205022346125,
                -1.1634956873337592,
                2.010868314990456,
                -0.8367026794202681,
                0.6746043897044499,
                -3.1496632123970403
            ]
        },
        {
            "positions": [
                -2.5560639613231975,
                -1.1319029792573219,
                1.9680575105584444,
                -0.8253201571285976,
                0.8537411375406799,
                -3.137328646171771
            ]
        },
        {
            "positions": [
                -2.6385074204117824,
                -1.1003102711808845,
                1.9252467061264327,
                -0.8139376348369272,
                1.03287788537691,
                -3.1249940799465015
            ]
        },
        {
            "positions": [
                -2.720950879500367,
                -1.068717563104447,
                1.882435901694421,
                -0.8025551125452566,
                1.21201463321314,
                -3.1126595137212325
            ]
        },
        {
            "positions": [
                -2.803394338588952,
                -1.0371248550280097,
                1.8396250972624095,
                -0.7911725902535861,
                1.39115138104937,
                -3.100324947495963
            ]
        },
        {
            "positions": [
                -2.885837797677537,
                -1.0055321469515723,
                1.796814292830398,
                -0.7797900679619156,
                1.5702881288856,
                -3.0879903812706937
            ]
        },
        {
            "positions": [
                -2.968281256766122,
                -0.973939438875135,
                1.7540034883983864,
                -0.7684075456702452,
                1.74942487672183,
                -3.0756558150454243
            ]
        }
    ]
}