{
    "goal": {
        "global_pose": {
            "orientation": {
                "w": 0.5084816217422485,
                "x": -0.49083608388900757,
                "y": 0.5182115435600281,
                "z": -0.4816462993621826
            },
            "position": {
                "x": 0.5540239810943604,
                "y": 0.030875300988554955,
                "z": 0.16403168439865112
            }
        },
        "name": "move_to_storage_A"
    },
    "id": "LBKPIECE_move_to_storage_A_40",
    "joint_names": [
        "shoulder_pan_joint",
        "shoulder_lift_joint",
        "elbow_joint",
        "wrist_1_joint",
        "wrist_2_joint",
        "wrist_3_joint"
    ],
    "metrics": {
        "cart_traj_len": 0.3537345650235783,
        "distance_elbow_joint": 0.4514614691022849,
        "distance_shoulder_lift_joint": 0.23359362551902318,
        "distance_shoulder_pan_joint": 0.4648644288218957,
        "distance_wrist_1_joint": 0.24935938530432222,
        "distance_wrist_2_joint": 1.0899255999993764,
        "distance_wrist_3_joint": 0.10349080007929645,
        "smoothness": 0.0,
        "time": 0.364486988,
        "traj_len": 1.6101848679037445,
        "weighted_distance": 2.0344438783826138
    },
    "planner": "LBKPIECE",
    "start": {
        "state": {
            "elbow_joint": 1.971548259319323,
            "shoulder_lift_joint": -1.1394851275133948,
            "shoulder_pan_joint": 0.1228115487234821,
            "wrist_1_joint": -0.7804723859257726,
            "wrist_2_joint": 0.12958671773740124,
            "wrist_3_joint": -3.192489227718131
        }
    },
    "waypoints": [
        {
            "positions": [
                0.1228115487234821,
                -1.1394851275133948,
                1.971548259319323,
                -0.7804723859257726,
                0.12958671773740124,
                -3.192489227718131
            ]
        },
        {
            "positions": [
                0.056402344606068425,
                -1.172855645444684,
                2.0360427549053637,
                -0.8160951552549615,
                0.2852903748801693,
                -3.177704827706803
            ]
        },
        {
            "positions": [
                -0.01000685951134525,
                -1.2062261633759728,
                2.1005372504914046,
                -0.8517179245841504,
                0.4409940320229373,
                -3.162920427695475
            ]
        },
        {
            "positions": [
                -0.07641606362875891,
                -1.2395966813072619,
                2.165031746077445,
                -0.8873406939133393,
                0.5966976891657054,
                -3.148136027684147
            ]
        },
        {
            "positions": [
                -0.1428252677461726,
                -1.272967199238551,
                2.2295262416634856,
                -0.9229634632425282,
                0.7524013463084734,
                -3.133351627672819
            ]
        },
        {
            "positions": [
                -0.2092344718635863,
                -1.30633771716984,
                2.2940207372495265,
                -0.958586232571717,
                0.9081050034512416,
                -3.1185672276614906
            ]
        },
        {
            "positions": [
                -0.2756436759809999,
                -1.339708235101129,
                2.3585152328355674,
                -0.994209001900906,
                1.0638086605940096,
                -3.103782827650163
            ]
        },
        {
            "positions": [
                -0.3420528800984136,
                -1.373078753032418,
                2.423009728421608,
                -1.0298317712300948,
                1.2195123177367777,
                -3.0889984276388347
            ]
        }
    ]
}{
    "goal": {
        "global_pose": {
            "orientation": {
                "w": 0.5084816217422485,
                "x": -0.49083608388900757,
                "y": 0.5182115435600281,
                "z": -0.4816462993621826
            },
            "position": {
                "x": 0.5540239810943604,
                "y": 0.030875300988554955,
                "z": 0.16403168439865112
            }
        },
        "name": "move_to_storage_A"
    },
    "id": "LBKPIECE_move_to_storage_A_40",
    "joint_names": [
        "shoulder_pan_joint",
        "shoulder_lift_joint",
        "elbow_joint",
        "wrist_1_joint",
        "wrist_2_joint",
        "wrist_3_joint"
    ],
    "metrics": {
        "cart_traj_len": 0.3537975671620256,
        "distance_elbow_joint": 0.44873262028641214,
        "distance_shoulder_lift_joint": 0.23618596598636032,
        "distance_shoulder_pan_joint": 0.4608289179062759,
        "distance_wrist_1_joint": 0.23399445889335313,
        "distance_wrist_2_joint": 1.1088312900630664,
        "distance_wrist_3_joint": 0.10208860871842607,
        "smoothness": 0.0,
        "time": 0.611396905,
        "traj_len": 1.60955331128046,
        "weighted_distance": 2.034125076844383
    },
    "planner": "LBKPIECE",
    "start": {
        "state": {
            "elbow_joint": 1.97154746011099,
            "shoulder_lift_joint": -1.13948474672311,
            "shoulder_pan_joint": 0.12281154466712228,
            "wrist_1_joint": -0.7804688027058302,
            "wrist_2_joint": 0.12958655903071145,
            "wrist_3_joint": 3.0906928834467795
        }
    },
    "waypoints": [
        {
            "positions": [
                0.12281154466712228,
                -1.13948474672311,
                1.97154746011099,
                -0.7804688027058302,
                0.12958655903071145,
                3.0906928834467795
            ]
        },
        {
            "positions": [
                0.05697884210908287,
                -1.1732255990068756,
                2.035652120151906,
                -0.8138965825477378,
                0.28799102903972096,
                3.1052769704065546
            ]
        },
        {
            "positions": [
                -0.008853860448956544,
                -1.2069664512906415,
                2.099756780192822,
                -0.8473243623896454,
                0.44639549904873044,
                3.1198610573663297
            ]
        },
        {
            "positions": [
                -0.07468656300699596,
                -1.2407073035744072,
                2.163861440233738,
                -0.880752142231553,
                0.6047999690577399,
                3.1344451443261048
            ]
        },
        {
            "positions": [
                -0.14051926556503536,
                -1.274448155858173,
                2.227966100274654,
                -0.9141799220734605,
                0.7632044390667494,
                3.1490292312858803
            ]
        },
        {
            "positions": [
                -0.20635196812307477,
                -1.3081890081419387,
                2.29207076031557,
                -0.9476077019153681,
                0.9216089090757589,
                3.1636133182456554
            ]
        },
        {
            "positions": [
                -0.2721846706811142,
                -1.3419298604257044,
                2.356175420356486,
                -0.9810354817572757,
                1.0800133790847684,
                3.1781974052054305
            ]
        },
        {
            "positions": [
                -0.3380173732391536,
                -1.3756707127094703,
                2.420280080397402,
                -1.0144632615991833,
                1.2384178490937778,
                3.1927814921652056
            ]
        }
    ]
}{
    "goal": {
        "global_pose": {
            "orientation": {
                "w": 0.5084816217422485,
                "x": -0.49083608388900757,
                "y": 0.5182115435600281,
                "z": -0.4816462993621826
            },
            "position": {
                "x": 0.5540239810943604,
                "y": 0.030875300988554955,
                "z": 0.16403168439865112
            }
        },
        "name": "move_to_storage_A"
    },
    "id": "LBKPIECE_move_to_storage_A_40",
    "joint_names": [
        "shoulder_pan_joint",
        "shoulder_lift_joint",
        "elbow_joint",
        "wrist_1_joint",
        "wrist_2_joint",
        "wrist_3_joint"
    ],
    "metrics": {
        "cart_traj_len": 0.35340011872519506,
        "distance_elbow_joint": 0.4531813626377814,
        "distance_shoulder_lift_joint": 0.23283091857921123,
        "distance_shoulder_pan_joint": 0.46306278052924527,
        "distance_wrist_1_joint": 0.25638590714515286,
        "distance_wrist_2_joint": 1.0951384795661472,
        "distance_wrist_3_joint": 0.10091274386195481,
        "smoothness": 8.881784197001252e-16,
        "time": 0.39061294,
        "traj_len": 1.6129203924309137,
        "weighted_distance": 2.0383478767753807
    },
    "planner": "LBKPIECE",
    "start": {
        "state": {
            "elbow_joint": 1.9715472970024885,
            "shoulder_lift_joint": -1.1394870060712896,
            "shoulder_pan_joint": 0.12281152778156021,
            "wrist_1_joint": -0.780463741449964,
            "wrist_2_joint": 0.12958659822042276,
            "wrist_3_joint": 3.090690232415272
        }
    },
    "waypoints": [
        {
            "positions": [
                0.12281152778156021,
                -1.1394870060712896,
                1.9715472970024885,
                -0.780463741449964,
                0.12958659822042276,
                3.090690232415272
            ]
        },
        {
            "positions": [
                0.056659701991668046,
                -1.1727485658683199,
                2.036287491665029,
                -0.8170902996135573,
                0.28603495244415805,
                3.1051063386812654
            ]
        },
        {
            "positions": [
                -0.009492123798224117,
                -1.20601012566535,
                2.1010276863275688,
                -0.8537168577771506,
                0.4424833066678934,
                3.119522444947259
            ]
        },
        {
            "positions": [
                -0.0756439495881163,
                -1.2392716854623802,
                2.165767880990109,
                -0.8903434159407437,
                0.5989316608916286,
                3.1339385512132525
            ]
        },
        {
            "positions": [
                -0.14179577537800844,
                -1.2725332452594103,
                2.2305080756526494,
                -0.926969974104337,
                0.7553800151153639,
                3.148354657479246
            ]
        },
        {
            "positions": [
                -0.20794760116790065,
                -1.3057948050564405,
                2.2952482703151897,
                -0.9635965322679303,
                0.9118283693390993,
                3.1627707637452396
            ]
        },
        {
            "positions": [
                -0.27409942695779277,
                -1.3390563648534706,
                2.3599884649777296,
                -1.0002230904315237,
                1.0682767235628345,
                3.177186870011233
            ]
        },
        {
            "positions": [
                -0.34025125274768503,
                -1.3723179246505008,
                2.42472865964027,
                -1.0368496485951169,
                1.22472507778657,
                3.1916029762772267
            ]
        }
    ]
}