{
    "goal": {
        "global_pose": {
            "orientation": {
                "w": -0.4816463035849501,
                "x": 0.5182115481033762,
                "y": 0.4908360881923453,
                "z": -0.5084816262002911
            },
            "position": {
                "x": -0.8240239810943604,
                "y": -0.300875300988555,
                "z": 0.16403168439865112
            }
        },
        "name": "move_to_storage_C"
    },
    "id": "LBKPIECE_move_to_storage_C_12",
    "joint_names": [
        "shoulder_pan_joint",
        "shoulder_lift_joint",
        "elbow_joint",
        "wrist_1_joint",
        "wrist_2_joint",
        "wrist_3_joint"
    ],
    "metrics": {
        "cart_traj_len": 0.5762819255590884,
        "distance_elbow_joint": 0.25923920534860323,
        "distance_shoulder_lift_joint": 0.18949670690149656,
        "distance_shoulder_pan_joint": 0.49503086702260424,
        "distance_wrist_1_joint": 0.08299499429791246,
        "distance_wrist_2_joint": 1.0603757789953487,
        "distance_wrist_3_joint": 0.0727390543313371,
        "smoothness": 0.0,
        "time": 0.5631870689999999,
        "traj_len": 1.4696518658843334,
        "weighted_distance": 1.8570744435410331
    },
    "planner": "LBKPIECE",
    "start": {
        "state": {
            "elbow_joint": 2.010868314990456,
            "shoulder_lift_joint": -1.1634956873337592,
            "shoulder_pan_joint": -2.4736205022346125,
            "wrist_1_joint": -0.8367026794202681,
            "wrist_2_joint": 0.6746043897044499,
            "wrist_3_joint": -3.1496632123970403
        }
    },
    "waypoints": [
        {
            "positions": [
                -2.4736205022346125,
                -1.1634956873337592,
                2.010868314990456,
                -0.8367026794202681,
                0.6746043897044499,
                -3.1496632123970403
            ]
        },
        {
            "positions": [
                -2.55612564673838,
                -1.1319129028501764,
                1.9676617807656887,
                -0.822870180370616,
                0.8513336862036747,
                -3.137540036675151
            ]
        },
        {
            "positions": [
                -2.6386307912421474,
                -1.1003301183665937,
                1.9244552465409215,
                -0.809037681320964,
                1.0280629827028995,
                -3.125416860953261
            ]
        },
        {
            "positions": [
                -2.721135935745915,
                -1.068747333883011,
                1.8812487123161543,
                -0.7952051822713119,
                1.2047922792021244,
                -3.1132936852313717
            ]
        },
        {
            "positions": [
                -2.803641080249682,
                -1.0371645493994281,
                1.838042178091387,
                -0.7813726832216598,
                1.381521575701349,
                -3.1011705095094824
            ]
        },
        {
            "positions": [
                -2.8861462247534493,
                -1.0055817649158454,
                1.7948356438666198,
                -0.7675401841720078,
                1.558250872200574,
                -3.0890473337875926
            ]
        },
        {
            "positions": [
                -2.9686513692572167,
                -0.9739989804322626,
                1.7516291096418526,
                -0.7537076851223556,
                1.7349801686997988,
                -3.076924158065703
            ]
        }
    ]
}