{
    "goal": {
        "global_pose": {
            "orientation": {
                "w": -0.00223480608172531,
                "x": 0.0024358444001904467,
                "y": 0.7094548369677653,
                "z": -0.704743149386269
            },
            "position": {
                "x": -0.37947507619857795,
                "y": -0.6371506643295288,
                "z": 0.19426114857196808
            }
        },
        "name": "move_to_magneteinheit_C"
    },
    "id": "LBKPIECE_move_to_magneteinheit_C_2",
    "joint_names": [
        "shoulder_pan_joint",
        "shoulder_lift_joint",
        "elbow_joint",
        "wrist_1_joint",
        "wrist_2_joint",
        "wrist_3_joint"
    ],
    "metrics": {
        "cart_traj_len": 1.2538016797988532,
        "distance_elbow_joint": 0.16602436664697384,
        "distance_shoulder_lift_joint": 1.2131141184191945,
        "distance_shoulder_pan_joint": 0.8894310278952615,
        "distance_wrist_1_joint": 0.29012272037747955,
        "distance_wrist_2_joint": 0.8028980564424838,
        "distance_wrist_3_joint": 0.7711859298471908,
        "smoothness": 1.34306331185959,
        "time": 0.346724606,
        "traj_len": 2.0329230727276877,
        "weighted_distance": 2.6015704595768554
    },
    "planner": "LBKPIECE",
    "start": {
        "state": {
            "elbow_joint": 1.9565354010623817,
            "shoulder_lift_joint": -1.4165861575791021,
            "shoulder_pan_joint": -1.6717766225146293,
            "wrist_1_joint": -0.5286633292919765,
            "wrist_2_joint": 1.472756589071564,
            "wrist_3_joint": -3.1238370188695823
        }
    },
    "waypoints": [
        {
            "positions": [
                -1.6717766225146293,
                -1.4165861575791021,
                1.9565354010623817,
                -0.5286633292919765,
                1.472756589071564,
                -3.1238370188695823
            ]
        },
        {
            "positions": [
                -1.657273867161762,
                -1.576640267516286,
                1.976352716841799,
                -0.5692463565435968,
                1.4744118764267333,
                -3.0325616635064114
            ]
        },
        {
            "positions": [
                -1.6427711118088943,
                -1.7366943774534702,
                1.9961700326212164,
                -0.6098293837952172,
                1.4760671637819027,
                -2.94128630814324
            ]
        },
        {
            "positions": [
                -1.628268356456027,
                -1.8967484873906542,
                2.0159873484006336,
                -0.6504124110468376,
                1.4777224511370721,
                -2.850010952780069
            ]
        },
        {
            "positions": [
                -1.652942405826022,
                -1.7864594300472765,
                2.004545850527957,
                -0.6536912415126035,
                1.324550897524539,
                -2.831479930872572
            ]
        },
        {
            "positions": [
                -1.677616455196017,
                -1.676170372703899,
                1.9931043526552805,
                -0.6569700719783694,
                1.171379343912006,
                -2.812948908965075
            ]
        },
        {
            "positions": [
                -1.7022905045660124,
                -1.5658813153605213,
                1.9816628547826038,
                -0.6602489024441353,
                1.0182077902994728,
                -2.7944178870575778
            ]
        },
        {
            "positions": [
                -1.7269645539360075,
                -1.4555922580171439,
                1.9702213569099274,
                -0.6635277329099012,
                0.8650362366869395,
                -2.7758868651500808
            ]
        },
        {
            "positions": [
                -1.7516386033060025,
                -1.3453032006737662,
                1.9587798590372507,
                -0.6668065633756671,
                0.7118646830744064,
                -2.7573558432425838
            ]
        },
        {
            "positions": [
                -1.9322767320526735,
                -1.2999265752010776,
                1.9711210915235855,
                -0.7048014349491143,
                0.703846076495829,
                -2.858532031797632
            ]
        },
        {
            "positions": [
                -2.112914860799344,
                -1.254549949728389,
                1.98346232400992,
                -0.7427963065225616,
                0.6958274699172515,
                -2.95970822035268
            ]
        },
        {
            "positions": [
                -2.293552989546015,
                -1.2091733242557003,
                1.9958035564962548,
                -0.7807911780960088,
                0.687808863338674,
                -3.060884408907728
            ]
        },
        {
            "positions": [
                -2.474191118292686,
                -1.1637966987830117,
                2.0081447889825896,
                -0.818786049669456,
                0.6797902567600965,
                -3.162060597462776
            ]
        }
    ]
}