{
    "goal": {
        "global_pose": {
            "orientation": {
                "w": -0.4816463035849501,
                "x": 0.5182115481033762,
                "y": 0.4908360881923453,
                "z": -0.5084816262002911
            },
            "position": {
                "x": -0.8240239810943604,
                "y": 0.19912469901144506,
                "z": 0.16403168439865112
            }
        },
        "name": "move_to_storage_D"
    },
    "id": "LBKPIECE_move_to_storage_D_133",
    "joint_names": [
        "shoulder_pan_joint",
        "shoulder_lift_joint",
        "elbow_joint",
        "wrist_1_joint",
        "wrist_2_joint",
        "wrist_3_joint"
    ],
    "metrics": {
        "cart_traj_len": 3.962489196013604,
        "distance_elbow_joint": 4.209703113682986,
        "distance_shoulder_lift_joint": 1.2643553911702752,
        "distance_shoulder_pan_joint": 2.812300246855622,
        "distance_wrist_1_joint": 2.630924001481553,
        "distance_wrist_2_joint": 0.9721360950228879,
        "distance_wrist_3_joint": 3.1321857480902353,
        "smoothness": 0.30600330117948205,
        "time": 0.760546637,
        "traj_len": 3.8757714840149635,
        "weighted_distance": 4.988891278529576
    },
    "planner": "LBKPIECE",
    "start": {
        "state": {
            "elbow_joint": -2.384821988534728,
            "shoulder_lift_joint": -2.2788054721415256,
            "shoulder_pan_joint": -0.1854694642142757,
            "wrist_1_joint": 1.4845938289331202,
            "wrist_2_joint": 0.17898776772866878,
            "wrist_3_joint": 0.037105688729662994
        }
    },
    "waypoints": [
        {
            "positions": [
                -0.1854694642142757,
                -2.2788054721415256,
                -2.384821988534728,
                1.4845938289331202,
                0.17898776772866878,
                0.037105688729662994
            ]
        },
        {
            "positions": [
                -0.1745288298867203,
                -2.2749105949175172,
                -2.3820568965873345,
                1.490096277165502,
                0.1746934746829984,
                0.03755886262693828
            ]
        },
        {
            "positions": [
                -0.09646958808923105,
                -2.24276736262202,
                -2.2723506633914874,
                1.4201728980050912,
                0.20110305687481697,
                -0.040623171774131814
            ]
        },
        {
            "positions": [
                -0.01841034629174179,
                -2.2106241303265226,
                -2.1626444301956407,
                1.3502495188446804,
                0.22751263906663555,
                -0.1188052061752019
            ]
        },
        {
            "positions": [
                0.05964889550574745,
                -2.1784808980310255,
                -2.0529381969997935,
                1.2803261396842696,
                0.25392222125845415,
                -0.196987240576272
            ]
        },
        {
            "positions": [
                0.13770813730323672,
                -2.146337665735528,
                -1.9432319638039464,
                1.2104027605238588,
                0.28033180345027275,
                -0.2751692749773421
            ]
        },
        {
            "positions": [
                0.21576737910072596,
                -2.114194433440031,
                -1.8335257306080996,
                1.140479381363448,
                0.3067413856420913,
                -0.3533513093784122
            ]
        },
        {
            "positions": [
                0.2938266208982152,
                -2.0820512011445333,
                -1.7238194974122525,
                1.070556002203037,
                0.3331509678339099,
                -0.43153334377948227
            ]
        },
        {
            "positions": [
                0.3718858626957045,
                -2.0499079688490363,
                -1.6141132642164053,
                1.0006326230426261,
                0.3595605500257285,
                -0.5097153781805523
            ]
        },
        {
            "positions": [
                0.44994510449319375,
                -2.0177647365535387,
                -1.5044070310205584,
                0.9307092438822153,
                0.38597013221754706,
                -0.5878974125816224
            ]
        },
        {
            "positions": [
                0.5280043462906829,
                -1.9856215042580416,
                -1.3947007978247115,
                0.8607858647218046,
                0.4123797144093656,
                -0.6660794469826925
            ]
        },
        {
            "positions": [
                0.6060635880881722,
                -1.9534782719625443,
                -1.2849945646288645,
                0.7908624855613937,
                0.4387892966011842,
                -0.7442614813837626
            ]
        },
        {
            "positions": [
                0.6841228298856614,
                -1.921335039667047,
                -1.1752883314330174,
                0.7209391064009829,
                0.4651988787930028,
                -0.8224435157848327
            ]
        },
        {
            "positions": [
                0.7621820716831507,
                -1.8891918073715497,
                -1.0655820982371702,
                0.651015727240572,
                0.4916084609848214,
                -0.9006255501859028
            ]
        },
        {
            "positions": [
                0.8402413134806401,
                -1.8570485750760524,
                -0.9558758650413233,
                0.5810923480801612,
                0.5180180431766399,
                -0.978807584586973
            ]
        },
        {
            "positions": [
                0.9183005552781294,
                -1.824905342780555,
                -0.8461696318454761,
                0.5111689689197503,
                0.5444276253684586,
                -1.056989618988043
            ]
        },
        {
            "positions": [
                0.9963597970756186,
                -1.7927621104850577,
                -0.7364633986496294,
                0.4412455897593397,
                0.5708372075602771,
                -1.135171653389113
            ]
        },
        {
            "positions": [
                1.0744190388731079,
                -1.7606188781895606,
                -0.6267571654537822,
                0.37132221059892867,
                0.5972467897520957,
                -1.2133536877901832
            ]
        },
        {
            "positions": [
                1.152478280670597,
                -1.728475645894063,
                -0.5170509322579353,
                0.30139883143851787,
                0.6236563719439143,
                -1.2915357221912533
            ]
        },
        {
            "positions": [
                1.2305375224680861,
                -1.696332413598566,
                -0.40734469906208837,
                0.23147545227810729,
                0.6500659541357328,
                -1.3697177565923233
            ]
        },
        {
            "positions": [
                1.3085967642655756,
                -1.6641891813030687,
                -0.2976384658662412,
                0.16155207311769626,
                0.6764755363275514,
                -1.4478997909933933
            ]
        },
        {
            "positions": [
                1.3866560060630648,
                -1.6320459490075714,
                -0.1879322326703945,
                0.09162869395728546,
                0.7028851185193701,
                -1.5260818253944635
            ]
        },
        {
            "positions": [
                1.464715247860554,
                -1.599902716712074,
                -0.07822599947454734,
                0.021705314796874653,
                0.7292947007111885,
                -1.6042638597955337
            ]
        },
        {
            "positions": [
                1.5427744896580433,
                -1.5677594844165768,
                0.03148023372129982,
                -0.04821806436353615,
                0.7557042829030072,
                -1.6824458941966036
            ]
        },
        {
            "positions": [
                1.6208337314555326,
                -1.5356162521210794,
                0.14118646691714698,
                -0.11814144352394718,
                0.7821138650948258,
                -1.7606279285976738
            ]
        },
        {
            "positions": [
                1.6988929732530218,
                -1.5034730198255821,
                0.25089270011299414,
                -0.18806482268435798,
                0.8085234472866445,
                -1.838809962998744
            ]
        },
        {
            "positions": [
                1.7769522150505113,
                -1.4713297875300848,
                0.36059893330884085,
                -0.2579882018447688,
                0.8349330294784629,
                -1.916991997399814
            ]
        },
        {
            "positions": [
                1.8550114568480005,
                -1.4391865552345875,
                0.470305166504688,
                -0.3279115810051796,
                0.8613426116702816,
                -1.9951740318008844
            ]
        },
        {
            "positions": [
                1.9330706986454897,
                -1.4070433229390902,
                0.5800113997005352,
                -0.3978349601655904,
                0.8877521938621002,
                -2.0733560662019546
            ]
        },
        {
            "positions": [
                2.011129940442979,
                -1.3749000906435929,
                0.6897176328963823,
                -0.4677583393260014,
                0.9141617760539187,
                -2.1515381006030245
            ]
        },
        {
            "positions": [
                2.0891891822404682,
                -1.3427568583480955,
                0.799423866092229,
                -0.5376817184864122,
                0.9405713582457373,
                -2.229720135004095
            ]
        },
        {
            "positions": [
                2.1672484240379575,
                -1.3106136260525985,
                0.9091300992880758,
                -0.6076050976468226,
                0.9669809404375558,
                -2.3079021694051645
            ]
        },
        {
            "positions": [
                2.2453076658354467,
                -1.2784703937571011,
                1.018836332483923,
                -0.6775284768072338,
                0.9933905226293744,
                -2.386084203806235
            ]
        },
        {
            "positions": [
                2.323366907632936,
                -1.2463271614616038,
                1.12854256567977,
                -0.7474518559676446,
                1.019800104821193,
                -2.464266238207305
            ]
        },
        {
            "positions": [
                2.401426149430425,
                -1.2141839291661065,
                1.2382487988756168,
                -0.8173752351280554,
                1.0462096870130115,
                -2.542448272608375
            ]
        },
        {
            "positions": [
                2.4794853912279144,
                -1.1820406968706092,
                1.347955032071464,
                -0.8872986142884662,
                1.0726192692048302,
                -2.620630307009445
            ]
        },
        {
            "positions": [
                2.5575446330254037,
                -1.1498974645751119,
                1.457661265267311,
                -0.9572219934488773,
                1.0990288513966489,
                -2.698812341410515
            ]
        },
        {
            "positions": [
                2.5748661704293894,
                -1.1160356186741465,
                1.5494662302375477,
                -0.9126961727901793,
                1.088152245080757,
                -2.7976526839493916
            ]
        },
        {
            "positions": [
                2.592187707833375,
                -1.082173772773181,
                1.6412711952077843,
                -0.8681703521314814,
                1.0772756387648652,
                -2.896493026488268
            ]
        },
        {
            "positions": [
                2.6095092452373607,
                -1.0483119268722159,
                1.7330761601780211,
                -0.8236445314727834,
                1.0663990324489736,
                -2.995333369027145
            ]
        },
        {
            "positions": [
                2.6268307826413464,
                -1.0144500809712504,
                1.8248811251482577,
                -0.7791187108140855,
                1.0555224261330818,
                -3.0941737115660213
            ]
        }
    ]
}